(
;
GM[1]
EV[7th Meijin Title Match]
RO[5]
PB[Takagawa Shukaku]
BR[9 dan]
PW[Rin Kaiho]
WR[Meijin]
DT[1968/Oct/3,4]
PC[Tokyo]
RE[B+1]
KM[5]
SZ[19]
;B[qd];W[dc];B[pq];W[co];B[oc];W[po];B[qo];W[pp];B[qp];W[oq]
;B[pn];W[qq];B[pr];W[rq];B[or];W[np];B[no];W[mp];B[on];W[op]
;B[rp];W[qn];B[rn];W[qm];B[rr];W[rm];B[so];W[qj];B[ko];W[kq]
;B[ln];W[iq];B[qh];W[oj];B[nr];W[nm];B[mo];W[lp];B[pl];W[oe]
;B[oh];W[nk];B[ol];W[qi];B[ph];W[kk];B[km];W[dq];B[me];W[qe]
;B[pd];W[rf];B[rg];W[ri];B[pe];W[hn];B[jk];W[kj];B[jl];W[ce]
;B[jj];W[ni];B[fn];W[hl];B[fl];W[hj];B[fj];W[ji];B[ii];W[ij]
;B[ho];W[io];B[in];W[im];B[ip];W[jn];B[jp];W[hq];B[hp];W[ih]
;B[gq];W[lr];B[eq];W[dp];B[ep];W[hi];B[cm];W[lo];B[kn];W[mn]
;B[mm];W[nn];B[nl];W[oo];B[ml];W[ic];B[ci];W[lc];B[cg];W[cf]
;B[eg];W[bg];B[bh];W[dg];B[dh];W[ch];B[bn];W[bo];B[cg];W[pf]
;B[of];W[ch];B[db];W[ec];B[cg];W[rd];B[pg];W[ch];B[dr];W[cr]
;B[cg];W[eo];B[fo];W[ch];B[eb];W[cb];B[cg];W[qb];B[qf];W[ch]
;B[ki];W[kh];B[cg];W[re];B[df];W[gc];B[rc];W[qc];B[rb];W[sb]
;B[sc];W[ra];B[sa];W[qa];B[sf];W[sb];B[fd];W[fc];B[sa];W[mg]
;B[se];W[nb];B[ob];W[mb];B[na];W[le];B[hg];W[if];B[fr];W[ds]
;B[es];W[er];B[gk];W[il];B[dr];W[cs];B[mk];W[mj];B[ql];W[rk]
;B[hr];W[ir];B[is];W[mr];B[md];W[ld];B[bf];W[be];B[ag];W[ff]
;B[bc];W[bd];B[ae];W[ad];B[cc];W[bb];B[dd];W[de];B[ee];W[af]
;B[bq];W[er];B[ae];W[ac];B[dr];W[cq];B[ge];W[gh];B[gg];W[ed]
;B[fg];W[he];B[mf];W[lf];B[mh];W[nh];B[ng];W[lg];B[cn];W[er]
;B[fs];W[fe];B[ig];W[jg];B[hf];W[hd];B[ef];W[gd];B[en];W[do]
;B[js];W[jr];B[rl];W[sl];B[sn];W[ks];B[hs];W[sm];B[gf];W[af]
;B[bg];W[gm];B[bp];W[ao];B[br];W[ar];B[bs];W[ap];B[ns];W[fh]
;B[eh];W[fi];B[ei];W[fm];B[em];W[gn];B[an];W[aq];B[dn];W[as]
;B[ok];W[nj];B[lk];W[lj];B[kl];W[ma];B[oa];W[go];B[gp];W[sh]
;B[fd];W[fe];B[mc];W[sb];B[sd];W[nc];B[nd];W[lb];B[rh];W[si]
;B[nq];W[mq];B[dr];W[cp];B[ms];W[ae];B[er]
)
