(
;
EV[28th Honinbo]
RO[4]
DT[1973-06-11,12]
PB[Ishida Yoshio]
PW[Rin Kaiho]
PC[Hiroshima, Japan]
RE[B+7.5]

;B[pd];W[dp];B[qp];W[cd];B[ec];W[oq];B[lp];W[hd];B[op]
;W[ed];B[pq];W[dc];B[pj];W[dj];B[fp];W[nd];B[ne];W[me];B[nf]
;W[qc];B[od];W[re];B[dn];W[eo];B[cq];W[cp];B[dq];W[en];B[ep]
;W[do];B[gn];W[in];B[hm];W[jq];B[hq];W[hp];B[gp];W[np];B[nq]
;W[mq];B[or];W[nr];B[no];W[oq];B[qd];W[rd];B[nq];W[hr];B[iq]
;W[oq];B[de];W[dd];B[nq];W[ip];B[jr];W[ir];B[gq];W[kq];B[mp]
;W[el];B[ch];W[ci];B[kr];W[lr];B[jp];W[js];B[kp];W[ks];B[rg]
;W[ij];B[fm];W[em];B[ei];W[gk];B[bi];W[bj];B[di];W[cj];B[ee]
;W[fe];B[ff];W[ge];B[hh];W[pf];B[nc];W[qh];B[qg];W[pg];B[qi]
;W[md];B[qb];W[rc];B[pc];W[mf];B[ng];W[mg];B[nh];W[dg];B[eg]
;W[cf];B[mh];W[rb];B[jh];W[gi];B[gh];W[fi];B[fh];W[lc];B[lb]
;W[kb];B[mb];W[pb];B[ob];W[qa];B[kc];W[jb];B[ld];W[ig];B[hi]
;W[mc];B[fk];W[fl];B[gl];W[fj];B[hk];W[ph];B[rh];W[oe];B[pi]
;W[ek];B[hj];W[qe];B[lg];W[kd];B[le];W[jc];B[lf];W[kc];B[dh]
;W[ih];B[ii];W[jg];B[kh];W[bq];B[br];W[bp];B[gr];W[ar];B[bs]
;W[ri];B[rj];W[ce];B[cg];W[df];B[ef];W[bf];B[hf];W[ie];B[hs]
;W[ns];B[bh];W[aj];B[hg];W[ke];B[if];W[jf];B[he];W[je];B[lq]
;W[mr];B[oh];W[fn];B[gm];W[fo];B[go];W[os];B[ps];W[rf];B[of]
;W[pe];B[sf];W[se];B[sg];W[gf];B[gg];W[kg])
