(;GM[1]VW[]FF[3]DT[1991-09-25,26]SZ[19]PB[Kobayashi Koichi]PW[Rin Kaiho]KM[5.5]PC[Shizuoka]RE[W+2.5]ID[91/2]BS[0]WS[0];B[pd];W[dp];B[pp];W[dd];B[fq];W[cn];B[jq];W[qn];B[pn]
;W[pm];B[qo];W[on];B[po];W[om];B[np];W[pf];B[qh];W[og];B[oh]
;W[nh];B[oi];W[ng];B[nc];W[mj];B[nk];W[nj];B[ok];W[mk];B[nl]
;W[mn];B[mm];W[ln];B[lm];W[kn];B[km];W[jn];B[no];W[nn];B[kp]
;W[jm];B[kk];W[kl];B[ll];W[jl];B[lk];W[ji];B[ij];W[jj];B[jk]
;W[ik];B[hk];W[il];B[ql];W[qm];B[pk];W[qg];B[rh];W[jd];B[hj]
;W[ip];B[iq];W[fp];B[gp];W[fo];B[kh];W[jh];B[jg];W[hh];B[ig]
;W[hi];B[ld];W[kg];B[kf];W[lg];B[lf];W[lh];B[ci];W[cg];B[cl]
;W[dk];B[ck];W[dj];B[di];W[bh];B[bi];W[eg];B[bn];W[bo];B[dn]
;W[co];B[ch];W[bf];B[fj];W[el];B[fm];W[em];B[en];W[fn];B[gm]
;W[fk];B[ej];W[ek];B[gk];W[hm];B[gn];W[go];B[ho];W[hp];B[hn]
;W[gq];B[dm];W[gl];B[hl];W[io];B[im];W[in];B[hm];W[ei];B[fi]
;W[eh];B[cj];W[hr];B[hd];W[hc];B[gc];W[gd];B[fc];W[hb];B[dc]
;W[he];B[cc];W[qc];B[pc];W[qd];B[rg];W[rf];B[rl];W[qb];B[kb]
;W[ob];B[pb];W[nb];B[mb];W[mc];B[lc];W[oc];B[od];W[nd];B[ne]
;W[ma];B[lb];W[pa];B[md];W[nr];B[mq];W[qq];B[pr];W[js];B[kr]
;W[ks];B[ls];W[lr];B[is];W[ms];B[or];W[ir];B[jr];W[ro];B[ls]
;W[oa];B[nc];W[bd];B[fd];W[ge];B[bc];W[fh];B[dl];W[rq];B[rm]
;W[rn];B[ie];W[id];B[pe];W[qe];B[cd];W[ce];B[bm];W[je];B[jf]
;W[mf];B[me];W[nf];B[oe];W[fa];B[eb];W[ac];B[ab];W[ad];B[cb]
;W[qr];B[ao];W[ap];B[an];W[bp];B[de];W[df];B[ee];W[oj];B[pj]
;W[lp];B[lq];W[fe];B[ph];W[pg];B[hg];W[gg];B[lo];W[mo];B[mp]
;W[pq];B[oq];W[oo];B[op];W[ko];B[ah];W[bg];B[ib];W[ef];B[ed]
;W[hf];B[gi];W[ic];B[jb];W[jp];B[if];W[mr];B[js];W[hs];B[ps]
;W[hq];B[eo];W[ep];B[sf];W[se];B[sg];W[ag];B[ai];W[cm];B[bl]
;W[qs];B[nq];W[ks];B[kq];W[qp];B[lj];W[li];B[ni];W[mi];B[kj]
;W[ki];B[sn];W[so];B[sm];W[ea];B[da];W[ha];B[ia];W[pl];B[dh]
;W[lp];B[ls];W[lo];B[ns];W[qa];B[la];W[na])