(
;
GM[1]
TM[1800]
DT[1972-]
EV[11th Meijin 1972]
RO[5]
BR[9 dan]
WR[Meijin]
KM[5]
PB[Fujisawa Shuko]
PW[Rin Kaiho]
RE[B+3]
;B[pd];W[dp];B[pq];W[dc];B[qk];W[jq];B[de];W[ce];B[cf]
;W[cd];B[cn];W[fp];B[df];W[fc];B[dj];W[pn];B[np];W[nn];B[qp]
;W[qf];B[qe];W[pf];B[nd];W[pj];B[pk];W[ok];B[oj];W[qj];B[rj]
;W[ri];B[rk];W[oi];B[nj];W[nk];B[ni];W[qi];B[mk];W[ml];B[ll]
;W[nl];B[rn];W[rm];B[qm];W[qn];B[ro];W[ql];B[rl];W[nh];B[lk]
;W[lm];B[km];W[ln];B[oh];W[og];B[ph];W[mh];B[li];W[qh];B[jl]
;W[lh];B[kh];W[qc];B[pc];W[re];B[rd];W[qd];B[rc];W[pe];B[qb]
;W[bp];B[kg];W[fe];B[gp];W[go];B[fq];W[gq];B[ep];W[hp];B[do]
;W[eo];B[cp];W[eq];B[dq];W[cq];B[ep];W[fr];B[dp];W[dr];B[bq]
;W[cr];B[bo];W[jd];B[he];W[hd];B[ie];W[id];B[ff];W[gl];B[gk]
;W[dk];B[fl];W[cj];B[ek];W[di];B[ej];W[ch];B[bg];W[bh];B[bl]
;W[ei];B[eg];W[fh];B[gf];W[fj];B[gj];W[dn];B[ap];W[el];B[fk]
;W[cl];B[em];W[gi];B[dl];W[bk];B[cm];W[ck];B[bm];W[hh];B[gg]
;W[ji];B[jh];W[jf];B[ig];W[hj];B[jj];W[ee];B[dg];W[ij];B[jk]
;W[ih];B[ki];W[jg];B[je];W[kf];B[ke];W[lf];B[fi];W[il];B[hl]
;W[gh];B[ii];W[if];B[hg];W[md];B[eh];W[nc];B[ob];W[be];B[ag]
;W[bf];B[cg];W[nb];B[me];W[od];B[dd];W[ed];B[le];W[qe];B[ra]
;W[pm];B[sm];W[ne];B[mf];W[lg];B[pi];W[nf];B[fj];W[na];B[oa]
;W[im];B[ik];W[ge];B[hf];W[mq];B[nq];W[mr];B[mp];W[pl];B[nr]
;W[gm];B[lq];W[lr];B[kr];W[kq];B[lp];W[jr];B[rg];W[sl];B[qm]
;W[pg];B[oi];W[rm];B[cc];W[bc];B[qm];W[oc];B[pb];W[rm];B[cb]
;W[bb];B[qm];W[bi];B[dh];W[rm];B[db];W[ec];B[qm];W[ah];B[aj]
;W[rm];B[sk];W[hm];B[hk];W[si];B[ae];W[ad];B[af];W[bd];B[fn]
;W[qm];B[sn];W[br];B[se];W[sf];B[sd];W[rf];B[fo];W[kn];B[jm]
;W[jn];B[kp];W[jp];B[ms];W[ks];B[gn];W[hn];B[mi];W[ng];B[ar]
;W[ef];B[fg];W[oo];B[op];W[qo];B[rq];W[kd];B[ld];W[lc];B[hi]
;W[fm];B[en];W[ko];B[no];W[po];B[mn];W[mm];B[mo];W[bs]
C[268 moves complete.]
)
