(;PB[Otake Hideo]PW[Rin Kaiho]DT[1978-10-11,12]PC[Futsuka]RE[B+R]KM[5.5]ID[78/4]GM[1]SZ[19]FF[3]BS[0]WS[0]BR[9 Dan]WR[9 Dan];B[qd];W[dc];B[dp];W[qq];B[ce];W[od];B[oc];W[nc];B[pc]
;W[dh];B[fe];W[gc];B[nd];W[fq];B[cn];W[dr];B[cq];W[iq];B[dj]
;W[fh];B[pn];W[np];B[pj];W[cc];B[he];W[gf];B[ff];W[gg];B[ge]
;W[hc];B[if];W[mc];B[ne];W[kd];B[fj];W[cj];B[ck];W[ci];B[bk]
;W[kf];B[ih];W[gj];B[ed];W[de];B[df];W[dd];B[cg];W[ef];B[eg]
;W[ee];B[dg];W[fi];B[fg];W[di];B[ej];W[jg];B[ig];W[hk];B[le]
;W[ke];B[lg];W[jk];B[ki];W[lk];B[nn];W[nj];B[kl];W[kk];B[ip]
;W[jq];B[hi];W[gi];B[lo];W[ll];B[lq];W[ng];B[lf];W[nq];B[ld]
;W[lc];B[kc];W[jc];B[kb];W[jb];B[qp];W[rp];B[pp];W[rr];B[ro]
;W[so];B[sn];W[sp];B[rn];W[pi];B[fc];W[fb];B[oj];W[oi];B[ni]
;W[qj];B[nk];W[mj];B[mi];W[rk];B[ol];W[qf];B[gp];W[gq];B[re]
;W[rf];B[pg];W[qh];B[oh];W[ji];B[jh];W[li];B[lh];W[kj];B[lj]
;W[mk];B[qg];W[rg];B[ri];W[rh];B[rl];W[ql];B[sl];W[rm];B[sm]
;W[qm];B[no];W[qn];B[qo];W[op];B[po];W[sk];B[sj];W[qi];B[sf]
;W[sg];B[si];W[se];B[rd];W[kp];B[pl];W[mm];B[oo];W[nm];B[ko]
;W[jo];B[jp];W[jn];B[kq];W[hp];B[lp];W[io];B[pm];W[qk];B[nr]
)