(
;
GM[1]
EV[7th Meijin Title Match]
RO[1]
PB[Takagawa Shukaku]
BR[9 dan]
PW[Rin Kaiho]
WR[Meijin]
DT[1968/Aug]
PC[Tokyo]
RE[B+R]
KM[5]
SZ[19]
;B[qd];W[dd];B[pq];W[oc];B[cp];W[po];B[ld];W[nd];B[pf];W[qb]
;B[qj];W[eq];B[np];W[qq];B[qr];W[qp];B[qm];W[oq];B[or];W[nq]
;B[op];W[pp];B[pr];W[mq];B[mp];W[lq];B[rq];W[rp];B[sq];W[pm]
;B[pl];W[lp];B[mn];W[qn];B[om];W[rm];B[pn];W[ro];B[hp];W[en]
;B[cn];W[hn];B[rl];W[sl];B[sk];W[sm];B[lo];W[ko];B[jp];W[kp]
;B[in];W[ln];B[mo];W[io];B[ho];W[im];B[jn];W[jo];B[ep];W[gn]
;B[fp];W[jm];B[fq];W[id];B[lf];W[cf];B[ck];W[nf];B[rj];W[oh]
;B[pg];W[ke];B[le];W[rc];B[lh];W[ec];B[ch];W[kc];B[lc];W[kb]
;B[lb];W[mg];B[lg];W[ni];B[kd];W[jd];B[ig];W[hr];B[cc];W[cd]
;B[ib];W[jb];B[eb];W[db];B[fc];W[fb];B[gb];W[ea];B[he];W[hc]
;B[gc];W[hb];B[ha];W[gd];B[fd];W[ge];B[ed];W[hf];B[dc];W[cb]
;B[bc];W[eb];B[ff];W[bb];B[df];W[hg];B[hh];W[gh];B[if];W[ie]
;B[hi];W[gg];B[cg];W[bd];B[eh];W[gi];B[hj];W[gj];B[lj];W[pi]
;B[qh];W[cm];B[bm];W[ej];B[dm];W[cj];B[bj];W[dk];B[cl];W[rd]
;B[gr]
)
