(
;
EV[12th Meijin Title]
RO[6]
PB[Ishida Yoshio]
BR[Honinbo]
PW[Rin Kaiho]
WR[Meijin]
DT[Oct 11/12, 1973]
PC[Tokyo]
RE[W+Jigo]
KM[5]
;B[pd];W[dc];B[dp];W[qq];B[ce];W[dh];B[fe];W[gc];B[dj];W[fh]
;B[hd];W[gd];B[ge];W[he];B[ec];W[eb];B[ed];W[db];B[gg];W[id]
;B[hf];W[ie];B[fj];W[gh];B[if];W[hi];B[hk];W[ji];B[kf];W[fq]
;B[dq];W[ip];B[kp];W[em];B[fl];W[fo];B[fm];W[en];B[cn];W[cm]
;B[bm];W[ck];B[ci];W[bl];B[bn];W[dk];B[ej];W[cf];B[be];W[ef]
;B[dd];W[bg];B[ch];W[cg];B[jn];W[li];B[ho];W[er];B[dr];W[co]
;B[do];W[dn];B[bo];W[po];B[el];W[dl];B[hq];W[hp];B[gp];W[go]
;B[fp];W[bj];B[io];W[gq];B[ep];W[iq];B[ah];W[mg];B[ai];W[aj]
;B[kd];W[ic];B[nd];W[pj];B[om];W[ir];B[fn];W[nn];B[eo];W[dm]
;B[ml];W[ln];B[nm];W[on];B[lm];W[nj];B[ph];W[lk];B[kn];W[lo]
;B[jp];W[kl];B[km];W[pf];B[qm];W[rf];B[rd];W[qk];B[mq];W[kr]
;B[lq];W[ro];B[rn];W[oq];B[nf];W[ng];B[of];W[og];B[pg];W[qg]
;B[pe];W[qf];B[jb];W[ds];B[cs];W[es];B[cr];W[le];B[ke];W[lf]
;B[jc];W[il];B[rl];W[rk];B[rp];W[so];B[qo];W[qp];B[pn];W[qn]
;B[gr];W[hr];B[qo];W[op];B[sn];W[qn];B[eq];W[fr];B[qo];W[re]
;B[se];W[qn];B[qh];W[rh];B[qo];W[qc];B[qd];W[qn];B[ri];W[qi]
;B[qo];W[ld];B[lc];W[qn];B[sh];W[rg];B[qo];W[ob];B[qb];W[qn]
;B[ga];W[hb];B[qo];W[pc];B[rc];W[qn];B[fs];W[gs];B[qo];W[jg]
;B[jf];W[ia];B[ja];W[qn];B[cc];W[cb];B[qo];W[rb];B[sb];W[qn]
;B[ih];W[ii];B[qo];W[ne];B[oe];W[qn];B[hh];W[gi];B[qo];W[hm]
;B[sp];W[gn];B[ik];W[jl];B[hl];W[im];B[al];W[ak];B[am];W[cj]
;B[di];W[pl];B[pm];W[eh];B[gm];W[hn];B[ag];W[bc];B[nr];W[cd]
;B[de];W[mp];B[jh];W[bf];B[af];W[ek];B[fk];W[md];B[mc];W[bd]
;B[lh];W[mh];B[lg];W[mf];B[sd];W[sg];B[ib];W[ha];B[pr];W[or]
;B[qr];W[rr];B[rs];W[rq];B[os];W[pq];B[nq];W[np];B[ok];W[kh]
;B[kg];W[ki];B[oj];W[oi];B[nk];W[mk];B[fg];W[eg];B[df];W[dg]
;B[jk];W[kk];B[jj];W[kj];B[pk];W[ql];B[sk];W[sj];B[sl];W[ff]
;B[gf];W[ad];B[ae];W[lr];B[ol];W[si];B[jq];W[jr];B[fc];W[fb]
;B[mn];W[mo];B[mm];W[gj];B[gk];W[rj];B[ns];W[ls]
)
