

(;GM[1]SZ[19]KM[4.5]PB[Sakata Eio]PW[Rin Kaiho]FF[3]RE[W+]DT[1968-]BS[0]WS[0];B[qd];W[dd];B[pq];W[oc];B[cp];W[po];B[qo];W[pp];B[qp]
;W[oq];B[qn];W[pe];B[qe];W[pf];B[qf];W[pg];B[ic];W[pn];B[qm]
;W[eq];B[do];W[gc];B[cj];W[kc];B[ie];W[pr];B[qq];W[iq];B[nq]
;W[op];B[nr];W[or];B[kq];W[ol];B[ko];W[fp];B[dq];W[io];B[np]
;W[ge];B[ig];W[ce];B[cg];W[en];B[dl];W[qg];B[pb];W[ob];B[pc]
;W[pd];B[rg];W[rh];B[sf];W[no];B[mo];W[mn];B[ln];W[mp];B[lo]
;W[lr];B[nn];W[kr];B[mm];W[on];B[lq];W[qk];B[ql];W[nk];B[rk]
;W[ke];B[mr];W[jq];B[pk];W[ll];B[qi];W[ei];B[cc];W[dc];B[be]
;W[bd];B[bf];W[bc];B[dk];W[ii];B[kf];W[lf];B[kg];W[je];B[jf]
;W[ki];B[hd];W[hf];B[if];W[gd];B[kb];W[lb];B[jc];W[kd];B[jh]
;W[ji];B[ja];W[hb];B[ib];W[er];B[cr];W[qh];B[lg];W[mf];B[ml]
;W[mk];B[kl];W[lk];B[lm];W[pl];B[rb];W[jm];B[jn];W[km];B[im]
;W[jl];B[in];W[il];B[eo];W[gn];B[fo];W[go];B[nl];W[ok];B[pj]
;W[ci];B[ch];W[bi];B[di];W[dh];B[dj];W[dg];B[cf];W[df];B[bh]
;W[hg];B[fk];W[la];B[ka];W[gj];B[hk];W[fn];B[fj];W[fi];B[ep]
;W[fq];B[hj];W[rr];B[qr];W[qs];B[rq];W[ri];B[mg];W[ng];B[nh]
;W[gi];B[hl];W[ih];B[oi];W[dn];B[cn];W[rj];B[qj];W[oa];B[lc]
;W[mc];B[le];W[me];B[og];W[nf];B[mi];W[dm];B[cm];W[pa];B[qa]
;W[hc];B[jo];W[ip];B[jk];W[kk];B[jj];W[li];B[hn];W[ho];B[hi]
;W[hh];B[ds];W[es];B[sr];W[rs];B[gm];W[ae];B[af];W[ad];B[gk]
;W[ha];B[ia];W[ls];B[ms];W[jr];B[kj];W[lj];B[sj];W[dr];B[cs]
;W[he];B[id];W[fm];B[fl];W[jp];B[kp];W[of];B[oh];W[kh];B[ph]
;W[lh];B[mh];W[oo];B[nj];W[jg];W[jh])