(
;
GM[1]
TM[1800]
DT[1972-]
GN[72M1]
EV[11th Meijin 1972]
RO[1]
BR[9 dan]
WR[Meijin]
KM[5]
PB[Fujisawa Shuko]
PW[Rin Kaiho]
RE[B+R]
;B[pd];W[dp];B[pq];W[dc];B[po];W[ce];B[fq];W[jq];B[cq]
;W[dq];B[cp];W[do];B[dr];W[er];B[cr];W[eq];B[cn];W[fp];B[ic]
;W[qj];B[ql];W[qf];B[nd];W[rd];B[qh];W[qc];B[pc];W[gc];B[ie]
;W[pf];B[pi];W[nf];B[qb];W[rb];B[qd];W[rc];B[rg];W[rf];B[ni]
;W[qp];B[pp];W[ld];B[me];W[jd];B[id];W[kf];B[le];W[ke];B[lg]
;W[kg];B[mg];W[ig];B[gd];W[fc];B[gg];W[jc];B[lq];W[qq];B[qo]
;W[jo];B[gi];W[hf];B[ed];W[ec];B[ef];W[pr];B[or];W[rr];B[cg]
;W[em];B[jh];W[kh];B[jg];W[ji];B[ih];W[ii];B[hh];W[oh];B[og]
;W[ng];B[nh];W[li];B[oi];W[ro];B[rn];W[rp];B[ps];W[qr];B[jr]
;W[iq];B[dn];W[en];B[dl];W[fj];B[dk];W[lo];B[gj];W[gk];B[hk]
;W[fl];B[ij];W[mb];B[lc];W[lb];B[mc];W[jk];B[pb];W[ra];B[gl]
;W[fk];B[ml];W[fd];B[ge];W[mj];B[nl];W[nn];B[mp];W[rm];B[qm]
;W[sn];B[qn];W[kr];B[kq];W[jb];B[ib];W[nb];B[mi];W[jj];B[hl]
;W[lh];B[mh];W[co];B[bo];W[fi];B[fh];W[rl];B[rk];W[sm];B[qk]
;W[di];B[ci];W[eh];B[eg];W[cj];B[dj];W[bn];B[bm];W[ch];B[bi]
;W[bh];B[bj];W[bg];B[kc];W[kb];B[cf];W[bf];B[ir];W[hr];B[lr]
;W[hn];B[lk];W[lj];B[kk];W[hb];B[ia];W[jm];B[kn];W[dm];B[cm]
;W[km];B[ln];W[lm];B[ko];W[jn];B[mm];W[fe];B[ff];W[mk];B[ll]
;W[oj];B[ok];W[bp];B[an];W[kp];B[mn];W[ds];B[bq];W[nj];B[pj]
;W[gm];B[kj];W[ki];B[hc];W[ah];B[ai];W[nc];B[od];W[of];B[ee]
;W[gb];B[de];W[cd];B[lp];W[qs];B[os];W[kd];B[md];W[sk];B[sj]
;W[jp];B[sl];W[oq];B[nr];W[sk];B[im];W[ik];B[hj]
C[217 moves complete.]
)
