

(;GM[1]BS[0]WS[0]SZ[19]DT[1967-05-11,12]PB[Sakata Eio]PW[Rin Kaiho]RE[B+R]FF[3]BR[9 Dan];B[qd];W[dc];B[pq];W[cp];B[oc];W[qo];B[pl];W[eq];B[ce]
;W[pn];B[oo];W[pp];B[oq];W[qq];B[qr];W[op];B[nq];W[np];B[mp]
;W[rq];B[gd];W[ed];B[dg];W[cd];B[de];W[bd];B[ck];W[mo];B[lp]
;W[ph];B[cn];W[qf];B[qj];W[qi];B[pj];W[nh];B[mk];W[mm];B[iq]
;W[mi];B[ml];W[nm];B[kl];W[mc];B[oe];W[jd];B[me];W[kj];B[gf]
;W[ik];B[kn];W[gq];B[kc];W[kd];B[ld];W[pc];B[nc];W[ob];B[nb]
;W[pd];B[pe];W[qe];B[qc];W[qb];B[rb];W[ra];B[sb];W[rd];B[rc]
;W[se];B[pb];W[pa];B[od];W[pb];B[na];W[jc];B[kb];W[jg];B[be]
;W[dh];B[di];W[eh];B[ch];W[ff];B[fe];W[ee];B[fg];W[ef];B[eg]
;W[gg];B[hf];W[fh];B[gh];W[hg];B[ig];W[hh];B[ih];W[gi];B[hi]
;W[gh];B[jf];W[cg];B[df];W[ci];B[bh];W[bi];B[bg];W[dj];B[fc]
;W[eb];B[bc];W[gc];B[hc];W[gb];B[gj];W[fj];B[fb];W[fd];B[hb]
;W[bb];B[hj];W[fk];B[gl];W[gk];B[hk];W[hl];B[hm];W[il];B[ei]
;W[fi];B[ij];W[fl];B[gm];W[fm];B[im];W[ok];B[ga];W[ac];B[cj]
;W[ej];B[di];W[ai];B[ah];W[fo];B[bj];W[ei];B[bl];W[bo];B[bn]
;W[nj];B[mj];W[mg];B[oi];W[ni];B[pg];W[qg];B[ri];W[rh];B[kf]
;W[rr];B[rk];W[oh];B[gr];W[fr];B[gp];W[dm];B[ao];W[bq];B[co]
;W[fp];B[hq];W[bp];B[cm];W[fq];B[pr];W[pk];B[oa];W[ge];B[he]
;W[hr];B[ir];W[gs];B[jk];W[ho];B[li];W[kg];B[jh];W[kh];B[ki]
;W[lf];B[le];W[is];B[jr];W[lm];B[ec];W[dd];B[io];W[hp];B[ip]
;W[ll];B[lk];W[lo];B[ko];W[js];B[ks];W[hs];B[kr];W[ea];B[eo]
;W[fn];B[dp];W[dq];B[hn];W[go];B[km];W[qs];B[ps];W[rs];B[mf]
;W[lg];B[ng];W[og];B[nf];W[mh];B[ln];W[mn];B[nl];W[ol];B[aj]
;W[di];B[dl];W[dn];B[do];W[ap];B[an];W[pf];B[ae];W[dk];B[ad]
;W[cc];B[el];W[fe];B[nk];W[sd];B[of];W[sc];B[qa];W[db];B[kk]
;W[lh];B[om];W[pm];B[oj];W[ql];B[sf];W[re];B[qk];W[on];B[sh]
)