(;GM[1]VW[]FF[3]DT[1965-08-19,20]SZ[19]PB[Sakata Eio]PW[Rin Kaiho]KM[5]WR[8 Dan]PC[Sapporo]BS[0]WS[0]ID[65/3]RO[3]RE[W+0];B[qd];W[dc];B[qq];W[do];B[oc];W[ce];B[dq];W[fp];B[fq]
;W[gp];B[co];W[cn];B[cp];W[dm];B[gq];W[hp];B[dh];W[jc];B[qj]
;W[cj];B[df];W[ee];B[dj];W[dk];B[ej];W[ci];B[fg];W[rd];B[qc]
;W[pp];B[qp];W[po];B[or];W[gf];B[id];W[gg];B[ff];W[fe];B[gh]
;W[hh];B[gi];W[jd];B[if];W[hi];B[hj];W[ij];B[hk];W[ie];B[cc]
;W[dd];B[db];W[eb];B[bb];W[bd];B[bc];W[ji];B[cd];W[cf];B[ik]
;W[jk];B[jl];W[kk];B[im];W[da];B[ca];W[cb];B[lm];W[nj];B[db]
;W[ea];B[de];W[dg];B[hg];W[he];B[ki];W[jh];B[kh];W[mk];B[ih]
;W[ii];B[jg];W[ig];B[ec];W[ef];B[ih];W[jj];B[nl];W[pk];B[nk]
;W[km];B[kl];W[ll];B[ml];W[lk];B[oj];W[mi];B[kn];W[mm];B[ln]
;W[ok];B[om];W[pm];B[on];W[pj];B[pn];W[rm];B[fb];W[cb];B[oi]
;W[pi];B[oh];W[ph];B[og];W[hf];B[db];W[jn];B[jm];W[cb];B[lg]
;W[ig];B[db];W[eq];B[er];W[cb];B[en];W[qo];B[dn];W[cm];B[db]
;W[oq];B[pq];W[cb];B[qn];W[rn];B[ro];W[no];B[sp];W[ep];B[pg]
;W[rg];B[qh];W[qi];B[ri];W[rj];B[db];W[fr];B[dr];W[cb];B[qk]
;W[rk];B[ql];W[qg];B[db];W[rq];B[rr];W[cb];B[gn];W[hn];B[db]
;W[hm];B[fa];W[kq];B[jp];W[jo];B[kp];W[ko];B[lo];W[lp];B[ip]
;W[io];B[mp];W[lq];B[mq];W[mr];B[jr];W[mo];B[nq];W[mn];B[km]
;W[ir];B[fk];W[rl];B[nr];W[lr];B[gr];W[qm];B[oo];W[mc];B[qf]
;W[rf];B[ol];W[pl];B[re];W[mf];B[sf];W[rh];B[ng];W[mg];B[mh]
;W[pf];B[qe];W[oe];B[of];W[ne];B[pe];W[li];B[lh];W[ni];B[nh]
;W[fl];B[ek];W[el];B[ck];W[di];B[dl];W[bk];B[ei];W[eh];B[fh]
;W[eg];B[gk];W[nb];B[bn];W[bm];B[ao];W[qa];B[le];W[me];B[lf]
;W[ld];B[ib];W[rb];B[rc];W[jf];B[qb];W[pa];B[od];W[cl];B[dk]
;W[am];B[is];W[jq];B[hr];W[iq];B[jb];W[kb];B[be];W[af];B[dp]
;W[eo];B[ad];W[gc];B[bf];W[bg];B[gb];W[fj];B[il];W[ic];B[hc]
;W[hd];B[hb];W[ja];B[gd];W[fd];B[fc];W[ke];B[ed];W[de];B[ob]
;W[oa];B[nc];W[mb];B[ia];W[ka];B[sb];W[ra];B[gl];W[gm];B[ae]
;W[ag];B[lj];W[mj];B[kj];W[sg];B[se];W[pb];B[pc];W[an];B[bo]
;W[sn];B[ks];W[in];B[np];W[so];B[rp];W[ns];B[os];W[kg];B[kf]
;W[jg];B[ms];W[ls];B[hs];W[ns];W[ms])