(;GM[1]PB[Ryu Shikun]BR[9p]PW[Rin Kaiho]WR[9p]DT[1994-]PC[Japan]KM[5.5]RE[B+R]FF[3]SZ[19]ID[20/3];B[pd];W[dd];B[pp];W[dp];B[fq];W[ip];B[cn];W[fp];B[gp]
;W[fo];B[eq];W[dq];B[go];W[dn];B[dm];W[gn];B[do];W[ep];B[hq]
;W[en];B[cl];W[iq];B[ho];W[mp];B[fm];W[em];B[el];W[gm];B[fl]
;W[fn];B[io];W[kp];B[im];W[gl];B[bp];W[gj];B[di];W[qn];B[ik]
;W[hi];B[ji];W[dg];B[jd];W[jg];B[ig];W[jl];B[il];W[fk];B[ek]
;W[ej];B[dj];W[ei];B[jf];W[dh];B[kg];W[bj];B[ck];W[qf];B[re]
;W[pi];B[nq];W[np];B[oq];W[rp];B[pn];W[pm];B[on];W[qo];B[po]
;W[pl];B[lr];W[mm];B[kq];W[jo];B[jq];W[jp];B[ir];W[jr];B[kr]
;W[ec];B[nl];W[ml];B[mk];W[lk];B[nm];W[mj];B[nk];W[li];B[oi]
;W[lg];B[pj];W[lf];B[mc];W[oh];B[ni];W[ph];B[qj];W[nf];B[rl]
;W[qq];B[me];W[le];B[md];W[qe];B[qd];W[rf];B[rd];W[rm];B[ql]
;W[qm];B[rh];W[in];B[hn];W[jn];B[kh];W[lh];B[kj];W[lj];B[hc]
;W[mq];B[mr];W[hf];B[je];W[hr];B[js];W[nj];B[oj];W[ok];B[pk]
;W[nn];B[om];W[ci];B[mn];W[kl];B[dr];W[cr];B[er];W[no];B[cq]
;W[gb];B[lm];W[ll];B[mf];W[mg];B[lo];W[lp];B[of];W[hb];B[ib]
;W[oe];B[ng];W[nh];B[ne];W[og];B[pf];W[ri];B[qi];W[qh];B[rj]
;W[cj];B[pe])