

(;GM[1]SZ[19]DT[1979-06-13,14]RE[B+R]FF[3]PB[Kato Masao]PW[Rin Kaiho]BS[0]WS[0]KM[5.5];B[qd];W[dc];B[pp];W[dp];B[oc];W[qi];B[ce];W[ci];B[gc]
;W[ed];B[jc];W[qn];B[mq];W[qq];B[qp];W[pq];B[op];W[oq];B[rp]
;W[mr];B[lr];W[nr];B[lq];W[rq];B[qg];W[np];B[nq];W[no];B[pn]
;W[pl];B[pm];W[lo];B[iq];W[qm];B[nn];W[mn];B[nm];W[oo];B[po]
;W[oi];B[ml];W[km];B[ms];W[os];B[sq];W[sr];B[sp];W[rs];B[fq]
;W[lk];B[nj];W[ni];B[mj];W[ol];B[nl];W[ip];B[hq];W[ki];B[kj]
;W[jj];B[lj];W[ji];B[kl];W[jl];B[jm];W[kk];B[ll];W[kq];B[qk]
;W[pk];B[rk];W[qj];B[oj];W[rl];B[il];W[jk];B[kr];W[jq];B[kp]
;W[jp];B[jn];W[jr];B[ko];W[lp];B[ln];W[dq];B[fn];W[fp];B[gp]
;W[in];B[im];W[ks];B[fo];W[js];B[co];W[cp];B[bo];W[bp];B[mh]
;W[rn];B[ee];W[gd];B[dd];W[ec];B[fe];W[fd];B[ei];W[ge];B[ck]
;W[jo];B[kn];W[cl];B[bl];W[df];B[de];W[eh];B[fh];W[fg];B[eg]
;W[dh];B[gf];W[gg];B[hf];W[fi];B[cc];W[cb];B[gh];W[hg];B[gi]
;W[ff];B[ef];W[bd];B[dg];W[be];B[bf];W[cd];B[bc];W[bb];B[if]
;W[ig];B[jg];W[ih];B[bh];W[bi];B[cg];W[jf];B[je];W[kf];B[ie]
;W[le];B[lh];W[kh];B[lc];W[bk];B[cm];W[dl];B[bj];W[dk];B[ak]
;W[cj];B[bk];W[hk];B[fk];W[hm];B[fl];W[hl];B[mm];W[fj];B[gj]
;W[ej];B[ek];W[di];B[gk];W[mp];B[mo];W[ai];B[ah];W[mn];B[rg]
;W[rh];B[mo];W[dm];B[cn];W[mn];B[sn];W[sm];B[mo];W[an];B[bm]
;W[mn];B[hn];W[ho];B[mo];W[ls];B[gn];W[lg];B[ik];W[mc];B[mb]
;W[md];B[nb];W[nf];B[ij];W[ep];B[ao];W[go];B[ap];W[hc];B[hb]
;W[ic];B[ib];W[gb];B[ke];W[kd];B[kc];W[pf];B[oe];W[ne];B[bq]
;W[cr];B[ae];W[ac];B[er];W[gr];B[br];W[dr];B[ga];W[pd];B[pc]
;W[qe];B[re];W[fc];B[ld];W[od];B[nc];W[fa];B[qh];W[ri];B[nd]
;W[me];B[bs])