(
;
EV[1st Meijin 1962]
RO[League]
BL[1800.0]
WL[1800.0]
PB[Sugiuchi Masao]
BR[9 dan]
PW[Hashimoto Shoji]
WR[9 dan]
DT[1962-]
PC[Japan]
RE[B+3]
KM[5]
;B[qd];W[dc];B[cp];W[pq];B[ce];W[eq];B[qo];W[oc];B[ld]
;W[qh];B[pc];W[qk];B[mq];W[op];B[jq];W[qp];B[od];W[cg];B[ee]
;W[gc];B[dj];W[cl];B[dq];W[ep];B[cn];W[hq];B[ci];W[el];B[en]
;W[fk];B[gn];W[ho];B[jo];W[hn];B[gm];W[im];B[gk];W[gj];B[hk]
;W[ei];B[dh];W[hj];B[ik];W[fg];B[dg];W[ij];B[jk];W[km];B[ln]
;W[jj];B[kk];W[lm];B[mn];W[mm];B[nn];W[do];B[dn];W[co];B[bo]
;W[bn];B[bq];W[ao];B[bp];W[bm];B[mk];W[er];B[dr];W[nm];B[on]
;W[lj];B[lk];W[om];B[ok];W[qm];B[oi];W[cd];B[be];W[pn];B[iq]
;W[ir];B[jr];W[bj];B[bi];W[pj];B[ic];W[bd];B[gd];W[fd];B[ed]
;W[ec];B[fe];W[fc];B[hd];W[cj];B[di];W[dk];B[ej];W[fj];B[bk]
;W[ak];B[al];W[aj];B[pl];W[pm];B[ai];W[ck];B[lh];W[li];B[mh]
;W[kh];B[oj];W[kg];B[qi];W[pi];B[ph];W[ri];B[qg];W[rh];B[hg]
;W[pg];B[oh];W[qf];B[kj];W[ki];B[ih];W[jh];B[or];W[pr];B[gh]
;W[ke];B[le];W[if];B[fi];W[of];B[ne];W[nf];B[mf];W[mj];B[hm]
;W[jn];B[hr];W[gp];B[nj];W[mg];B[lg];W[ng];B[gq];W[hp];B[gr]
;W[fo];B[fn];W[kf];B[lf];W[jc];B[ib];W[kc];B[fa];W[fb];B[lc]
;W[lb];B[mb];W[re];B[ql];W[rl];B[ie];W[je];B[ig];W[bl];B[dd]
;W[ga];B[ad];W[bb];B[rd];W[mp];B[lp];W[ds];B[cs];W[es];B[cr]
;W[sd];B[sc];W[se];B[rc];W[nr];B[nq];W[oq];B[mr];W[os];B[np]
;W[hf];B[gf];W[ac];B[oo];W[po];B[ha];W[gb];B[kb];W[jb];B[la]
;W[he];B[id];W[ae];B[ii];W[ji];B[af];W[jf];B[ge];W[kn];B[ko]
;W[fs];B[pe];W[pf];B[qe];W[rf];B[ja];W[hb];B[ia];W[oe];B[nd]
;W[ip];B[jp];W[gs];B[hs];W[gi];B[fh];W[fl];B[nh];W[ms];B[ls]
;W[ns];B[ap];W[an];B[mi];W[jl];B[gl];W[il];B[ad];W[jg];B[hh]
;W[ae];B[rk];W[rm];B[ad];W[lr];B[ks];W[ae];B[pk];W[qj];B[ad]
;W[ek];B[dm];W[ae];B[cc];W[bc];B[ad]
C[255 moves complete.]
;B[ae]
C[Black connects the ko.]
)
