(;SO[Cho Chikun Internet Book]CP[My Friday Night Files, 2002]AP[SGFcv.py:0.3]GM[1]FF[4]RO[4]
PB[Sakata Eio]
BR[9p]
PW[Cho Chikun]
WR[Gosei]
KM[5.5]
DT[1987-01-29]
RE[W+R]
EV[Judan, 25th]
US[JBvR]

;B[pd]
;W[cc]
;B[dd]
;W[cd]
;B[de]
;W[eb]
;B[dp]
;W[pq]
;B[ce]
;W[fd]
;B[ci]
;W[fq]
;B[dn]
;W[jp]
;B[po]
;W[pm]
;B[no]
;W[nq]
;B[lo]
;W[mp]
;B[mo]
;W[pj]
;B[qh]
;W[qp]
;B[qo]
;W[oi]
;B[pf]
;W[ml]
;B[kl]
;W[lj]
;B[jj]
;W[fo]
;B[eq]
;W[fr]
;B[fn]
;W[gn]
;B[fm]
;W[jn]
;B[kn]
;W[gm]
;B[gl]
;W[fl]
;B[hl]
;W[co]
;B[dl]
;W[cj]
;B[di]
;W[cq]
;B[cp]
;W[bp]
;B[go]
;W[dq]
;B[fp]
;W[er]
;B[eo]
;W[hp]
;B[bn]
;W[pc]
;B[qc]
;W[oc]
;B[qb]
;W[od]
;B[pe]
;W[kc]
;B[jd]
;W[kd]
;B[je]
;W[ke]
;B[jf]
;W[ff]
;B[jc]
;W[hc]
;B[kf]
;W[kb]
;B[jb]
;W[lf]
;B[lg]
;W[mf]
;B[be]
;W[eg]
;B[fh]
;W[cg]
;B[bg]
;W[bd]
;B[dc]
;W[db]
;B[ad]
;W[bb]
;B[eh]
;W[qi]
;B[rh]
;W[bo]
;B[kp]
;W[kq]
;B[lq]
;W[lp]
;B[ko]
;W[ip]
;B[qq]
;W[qr]
;B[rq]
;W[or]
;B[qk]
;W[ri]
;B[rm]
;W[rl]
;B[qm]
;W[rp]
;B[ro]
;W[mg]
;B[lh]
;W[mh]
;B[li]
;W[mi]
;B[kj]
;W[gg]
;B[gh]
;W[hg]
;B[hh]
;W[ig]
;B[lk]
;W[bm]
;B[bl]
;W[rr]
;B[cm]
;W[dg]
;B[bh]
;W[mj]
;B[jh]
;W[ql]
;B[ge]
;W[fe]
;B[he]
;W[ac]
;B[pl]
;W[ol]
;B[ka]
;W[mb]
;B[fg]
;W[gf]
;B[pb]
;W[ob]
;B[rk]
;W[pk]
;B[sl]
;W[ih]
;B[ii]
;W[ef]
;B[hn]
;W[ae]
;B[af]
;W[ph]
;B[qg]
;W[in]
;B[gp]
;W[gq]
;B[pl]
;W[im]
;B[hm]
;W[la]
;B[og]
;W[jg]
;B[kg]
;W[hb]
;B[nm]
;W[nl])