(;US[JBvR]CP[My Friday Night Files, 2002]AP[SGFcv.py:0.3]GM[1]FF[4]RO[9 dan final]
PB[Sakata Eio]
BR[9 dan]
PW[Cho Chikun]
WR[9 dan]
KM[5.5]
DT[1987-06-25]
RE[W+0.5]
SO[1988 Kido yearbook]
EV[Kisei, 12th]

;B[qd]
;W[dd]
;B[pp]
;W[dq]
;B[fc]
;W[df]
;B[db]
;W[od]
;B[pf]
;W[qc]
;B[rc]
;W[pc]
;B[re]
;W[lc]
;B[cn]
;W[cc]
;B[ic]
;W[dk]
;B[cq]
;W[cp]
;B[dp]
;W[bq]
;B[cr]
;W[do]
;B[ep]
;W[co]
;B[br]
;W[gp]
;B[fo]
;W[dn]
;B[go]
;W[ip]
;B[ho]
;W[mq]
;B[qm]
;W[di]
;B[oq]
;W[gr]
;B[hp]
;W[iq]
;B[kq]
;W[er]
;B[bp]
;W[bo]
;B[aq]
;W[kp]
;B[lq]
;W[lp]
;B[mr]
;W[jn]
;B[em]
;W[dm]
;B[hl]
;W[mp]
;B[kr]
;W[jl]
;B[nl]
;W[om]
;B[ol]
;W[pm]
;B[pl]
;W[qn]
;B[rm]
;W[nm]
;B[rn]
;W[ml]
;B[mk]
;W[ll]
;B[io]
;W[jr]
;B[jq]
;W[jp]
;B[ir]
;W[hq]
;B[fk]
;W[qo]
;B[qp]
;W[ro]
;B[rp]
;W[oo]
;B[cb]
;W[fd]
;B[ec]
;W[bb]
;B[ne]
;W[gd]
;B[gc]
;W[ao]
;B[fq]
;W[fr]
;B[ap]
;W[mi]
;B[ni]
;W[mj]
;B[nj]
;W[lk]
;B[mh]
;W[nk]
;B[oj]
;W[sn]
;B[rk]
;W[oe]
;B[of]
;W[jb]
;B[ib]
;W[jc]
;B[hd]
;W[en]
;B[fm]
;W[gi]
;B[fi]
;W[fh]
;B[ei]
;W[eh]
;B[ek]
;W[ej]
;B[fj]
;W[dj]
;B[gq]
;W[hr]
;B[js]
;W[he]
;B[ie]
;W[hf]
;B[jd]
;W[nd]
;B[rb]
;W[qb]
;B[sp]
;W[lh]
;B[lg]
;W[hk]
;B[il]
;W[ik]
;B[gk]
;W[kh]
;B[hj]
;W[hi]
;B[ja]
;W[kb]
;B[ld]
;W[mc]
;B[ed]
;W[ee]
;B[ba]
;W[bc]
;B[jg]
;W[nq]
;B[nr]
;W[ql]
;B[rl]
;W[ij]
;B[hg]
;W[if]
;B[ig]
;W[jf]
;B[kg]
;W[gg]
;B[jo]
;W[me]
;B[ng]
;W[ko]
;B[ji]
;W[im]
;B[hm]
;W[kj]
;B[in]
;W[jm]
;B[dc]
;W[cd]
;B[po]
;W[pn]
;B[op]
;W[no]
;B[ii]
;W[je]
;B[id]
;W[mf]
;B[mg]
;W[ra]
;B[nf]
;W[md]
;B[kd]
;W[so]
;B[kc]
;W[lb]
;B[ki]
;W[li]
;B[ok]
;W[ka]
;B[ia]
;W[mk]
;B[jj]
;W[jk]
;B[gj]
;W[pe]
;B[qe]
;W[fn]
;B[gn]
;W[el]
;B[fl]
;W[dl]
;B[ob]
;W[nb]
;B[pd]
;W[oc]
;B[sm]
;W[ds]
;B[dr]
;W[eq]
;B[fp]
;W[hs]
;B[cs]
;W[es]
;B[is]
;W[jh]
;B[ih]
;W[gh]
;B[sb])