(;SO[Cho Chikun Internet Book]CP[My Friday Night Files, 2002]AP[SGFcv.py:0.3]GM[1]FF[4]RO[12, League]
PB[Cho Chikun]
BR[Gosei]
PW[Ishida Akira]
WR[9 dan]
KM[5.5]
DT[1987-02-26]
RE[B+R]
US[JBvR]
EV[Meijin, 12th]

;B[pd]
;W[dp]
;B[pq]
;W[dc]
;B[qk]
;W[nc]
;B[pf]
;W[jd]
;B[df]
;W[ce]
;B[cf]
;W[de]
;B[ef]
;W[dk]
;B[ee]
;W[fc]
;B[fq]
;W[ip]
;B[cn]
;W[eq]
;B[fp]
;W[dn]
;B[cq]
;W[cp]
;B[er]
;W[dr]
;B[dq]
;W[ep]
;B[cr]
;W[fr]
;B[ds]
;W[fo]
;B[go]
;W[gp]
;B[gq]
;W[gr]
;B[hq]
;W[hp]
;B[ir]
;W[fn]
;B[ci]
;W[po]
;B[qo]
;W[qn]
;B[qp]
;W[pm]
;B[jq]
;W[jp]
;B[kq]
;W[ph]
;B[kp]
;W[pj]
;B[ri]
;W[qg]
;B[qf]
;W[rf]
;B[re]
;W[rh]
;B[sf]
;W[rg]
;B[pk]
;W[rj]
;B[oc]
;W[qe]
;B[qd]
;W[ob]
;B[jo]
;W[pp]
;B[on]
;W[oq]
;B[qq]
;W[pn]
;B[op]
;W[oo]
;B[np]
;W[no]
;B[mp]
;W[oj]
;B[ho]
;W[qb]
;B[pb]
;W[pa]
;B[pc]
;W[mb]
;B[rb]
;W[cj]
;B[di]
;W[bp]
;B[bc]
;W[cc]
;B[be]
;W[bi]
;B[bh]
;W[bb]
;B[bd]
;W[hd]
;B[bj]
;W[bk]
;B[ai]
;W[fk]
;B[ml]
;W[nl]
;B[nm]
;W[nk]
;B[ro]
;W[rn]
;B[ek]
;W[el]
;B[ej]
;W[cl]
;B[dj]
;W[ck]
;B[lc]
;W[md]
;B[ld]
;W[le]
;B[me]
;W[ne]
;B[ke]
;W[mf]
;B[lf]
;W[lg]
;B[me]
;W[mg]
;B[je]
;W[ie]
;B[jc]
;W[jf]
;B[ic]
;W[oe]
;B[pe]
;W[id]
;B[hc]
;W[gc]
;B[kd]
;W[kf]
;B[lb]
;W[kb]
;B[ma]
;W[le]
;B[gb]
;W[fb]
;B[gd]
;W[hf]
;B[ha]
;W[ln]
;B[la]
;W[na]
;B[ra]
;W[in]
;B[io]
;W[jn]
;B[hi]
;W[ii]
;B[ig]
;W[if]
;B[hj]
;W[ij]
;B[gl]
;W[fl]
;B[sn]
;W[sm]
;B[so]
;W[rm]
;B[ih]
;W[jh]
;B[ik]
;W[jk]
;B[jl]
;W[il]
;B[hk]
;W[kk]
;B[jg]
;W[kh]
;B[im]
;W[kl]
;B[ab]
;W[ed]
;B[bq])