(;US[JBvR]CP[My Friday Night Files, 2002]AP[SGFcv.py:0.3]GM[1]FF[4]RO[League, game 11]
PB[Rin Kaiho]
BR[9 dan]
PW[Cho Chikun]
WR[9 dan]
KM[5.5]
DT[1987-12-17]
RE[B+R]
SO[1989 Kido yearbook]
EV[Honinbo, 43rd]

;B[qd]
;W[dd]
;B[pq]
;W[dp]
;B[oc]
;W[po]
;B[qo]
;W[qn]
;B[qp]
;W[pm]
;B[nq]
;W[qi]
;B[cf]
;W[fd]
;B[bd]
;W[qf]
;B[cc]
;W[jc]
;B[fb]
;W[eb]
;B[ec]
;W[fc]
;B[db]
;W[dg]
;B[cn]
;W[cg]
;B[fq]
;W[fp]
;B[gp]
;W[fo]
;B[cq]
;W[go]
;B[cp]
;W[oe]
;B[mc]
;W[pc]
;B[pd]
;W[od]
;B[ob]
;W[md]
;B[ld]
;W[lc]
;B[me]
;W[nd]
;B[mb]
;W[le]
;B[kd]
;W[kc]
;B[jd]
;W[id]
;B[kf]
;W[lf]
;B[lg]
;W[mf]
;B[jg]
;W[ie]
;B[ke]
;W[rc]
;B[qc]
;W[rd]
;B[rb]
;W[mg]
;B[lh]
;W[ni]
;B[lj]
;W[eq]
;B[ck]
;W[gq]
;B[kq]
;W[ed]
;B[ea]
;W[hg]
;B[ml]
;W[nk]
;B[on]
;W[mk]
;B[lk]
;W[ll]
;B[kl]
;W[lm]
;B[ii]
;W[pn]
;B[il]
;W[lp]
;B[lq]
;W[pp]
;B[qq]
;W[ih]
;B[mj]
;W[nj]
;B[hi]
;W[mp]
;B[np]
;W[km]
;B[mh]
;W[nh]
;B[jm]
;W[mq]
;B[mr]
;W[nr]
;B[lr]
;W[oq]
;B[op]
;W[or]
;B[nn]
;W[mn]
;B[nm]
;W[nl]
;B[no]
;W[mm]
;B[pr]
;W[jh]
;B[ji]
;W[cj]
;B[bj]
;W[cm]
;B[dm]
;W[dn]
;B[do]
;W[dl]
;B[en]
;W[cl]
;B[dj]C[time used:

W 5h 59m
B 5h 30m])