(;CP[My Friday Night Files, 2002]AP[SGFcv.py:0.3]GM[1]FF[4]PB[Cho Chikun]
BR[9 dan]
PW[Kato Masao]
WR[9 dan]
KM[5.5]
RE[W+R]
GC[166 moves]
RO[4]
DT[1987-11-04]
US[JBvR]
SO[KY 87]
EV[Oza, 35th, match]

;B[qe]
;W[pp]
;B[cd]
;W[pc]
;B[dq]
;W[pg]
;B[of]
;W[nd]
;B[qc]
;W[qb]
;B[pd]
;W[oc]
;B[rc]
;W[og]
;B[me]
;W[lc]
;B[ec]
;W[co]
;B[cm]
;W[eo]
;B[fp]
;W[dl]
;B[cp]
;W[cl]
;B[bo]
;W[cn]
;B[qn]
;W[ql]
;B[qq]
;W[qp]
;B[pq]
;W[op]
;B[rp]
;W[ro]
;B[rq]
;W[qo]
;B[nq]
;W[rg]
;B[rb]
;W[oe]
;B[pb]
;W[ob]
;B[qa]
;W[pf]
;B[np]
;W[no]
;B[mo]
;W[mn]
;B[lo]
;W[nn]
;B[ln]
;W[lm]
;B[km]
;W[ll]
;B[bn]
;W[bm]
;B[en]
;W[kn]
;B[dm]
;W[em]
;B[dn]
;W[fn]
;B[do]
;W[jn]
;B[kp]
;W[fm]
;B[dh]
;W[ei]
;B[di]
;W[eh]
;B[eg]
;W[dg]
;B[ej]
;W[fj]
;B[dj]
;W[ek]
;B[cg]
;W[df]
;B[cf]
;W[fg]
;B[hn]
;W[hm]
;B[if]
;W[de]
;B[ce]
;W[fd]
;B[fi]
;W[fh]
;B[gi]
;W[gj]
;B[hh]
;W[hg]
;B[hj]
;W[ig]
;B[im]
;W[hk]
;B[jm]
;W[ik]
;B[in]
;W[kl]
;B[gc]
;W[gd]
;B[hc]
;W[fc]
;B[jc]
;W[fb]
;B[ke]
;W[kc]
;B[hf]
;W[gf]
;B[jg]
;W[id]
;B[ih]
;W[gg]
;B[hd]
;W[jd]
;B[ge]
;W[fe]
;B[ij]
;W[jh]
;B[ji]
;W[kh]
;B[jk]
;W[jl]
;B[il]
;W[hl]
;B[gm]
;W[fk]
;B[ki]
;W[kk]
;B[li]
;W[lh]
;B[mi]
;W[mh]
;B[jj]
;W[gl]
;B[nh]
;W[ng]
;B[mk]
;W[nj]
;B[nk]
;W[oj]
;B[om]
;W[mm]
;B[ok]
;W[pn]
;B[pl]
;W[qk]
;B[qm]
;W[rm]
;B[mj]
;W[nl]
;B[pj]
;W[oi]
;B[pk]
;W[rn]
;B[pi]
;W[ph]
;B[rj]
;W[pm]
;B[rh]
;W[qh]
;B[mg]
;W[lg]
;B[qi]
;W[sg])