(;GM[1]VW[]SZ[19]
PB[Kubomatsu Katsukiyo, 6 dan]
PW[Go Seigen, 6 dan]
DT[1936]
PC[Kobe]
RE[White wins by 5 1/2 point]
KM[3]
;B[pd]
;W[dp]
;B[pp]
;W[dd]
;B[pj]
;W[nd]
;B[ne]
;W[me]
;B[nf]
;W[qc]
;B[qd]
;W[pc]
;B[od]
;W[oc]
;B[nc]
;W[md]
;B[mc]
;W[lc]
;B[lb]
;W[kc]
;B[ob]
;W[pb]
;B[kb]
;W[jc]
;B[nb]
;W[rd]
;B[re]
;W[rc]
;B[jb]
;W[ic]
;B[ib]
;W[hc]
;B[qf]
;W[mf]
;B[mg]
;W[ng]
;B[lg]
;W[og]
;B[pf]
;W[ni]
;B[li]
;W[qh]
;B[ph]
;W[pg]
;B[qg]
;W[pi]
;B[qi]
;W[oh]
;B[rh]
;W[oj]
;B[ph]
;W[pk]
;B[oi]
;W[lj]
;B[ld]
;W[le]
;B[nj]
;W[pi]
;B[ke]
;W[qj]
;B[lf]
;W[dj]
;B[fd]
;W[fc]
;B[gc]
;W[gd]
;B[ec]
;W[gb]
;B[ed]
;W[de]
;B[ff]
;W[ge]
;B[dc]
;W[ef]
;B[fe]
;W[bd]
;B[dh]
;W[eg]
;B[eh]
;W[fg]
;B[gf]
;W[eb]
;B[db]
;W[da]
;B[ca]
;W[ea]
;B[ej]
;W[ek]
;B[gg]
;W[fh]
;B[fi]
;W[gh]
;B[fk]
;W[el]
;B[cg]
;W[ig]
;B[if]
;W[jf]
;B[hg]
;W[ie]
;B[ih]
;W[jg]
;B[hh]
;W[gi]
;B[gj]
;W[hj]
;B[hk]
;W[ij]
;B[jh]
;W[ci]
;B[dn]
;W[ki]
;B[jj]
;W[ik]
;B[hl]
;W[bf]
;B[bg]
;W[il]
;B[hm]
;W[fm]
;B[hi]
;W[cc]
;B[cb]
;W[bb]
;B[ga]
;W[ha]
;B[hb]
;W[fa]
;B[ia]
;W[ga]
;B[dk]
;W[ck]
;B[df]
;W[ee]
;B[ce]
;W[cf]
;B[dl]
;W[dm]
;B[cl]
;W[cm]
;B[bl]
;W[dg]
;B[ch]
;W[bi]
;B[bm]
;W[di]
;B[cn]
;W[ei]
;B[em]
;W[fl]
;B[fn]
;W[bo]
;B[fq]
;W[dq]
;B[er]
;W[dr]
;B[co]
;W[cp]
;B[im]
;W[kk]
;B[ji]
;W[eo]
;B[en]
;W[gp]
;B[hq]
;W[go]
;B[km]
;W[ra]
;B[ip]
;W[nq]
;B[mi]
;W[pn]
;B[nk]
;W[nm]
;B[np]
;W[oq]
;B[op]
;W[pq]
;B[qq]
;W[mq]
;B[qp]
;W[jq]
;B[ql]
;W[lm]
;B[pl]
;W[ol]
;B[ok]
;W[mj]
;B[qk]
;W[kl]
;B[kn]
;W[mk]
;B[pj]
;W[kh]
;B[kg]
;W[pk]
;B[je]
;W[nl]
;B[he]
;W[gn]
;B[kr]
;W[kq]
;B[jr]
;W[lr]
;B[iq]
;W[bq]
;B[lp]
;W[ks]
;B[is]
;W[mp]
;B[mo]
;W[qr]
;B[rr]
;W[qs]
;B[rs]
;W[or]
;B[rj]
;W[pm]
;B[lq]
;W[lo]
;B[kp]
;W[ko]
;B[jp]
;W[no]
;B[rn]
;W[jo]
;B[io]
;W[jn]
;B[jm]
;W[ln]
;B[ho]
;W[rm]
;B[eq]
;W[ep]
;B[ds]
;W[cs]
;B[es]
;W[cr]
;B[qm]
;W[qn]
;B[ro]
;W[pj]
;B[rk]
;W[mr]
;B[oo]
;W[qh]
;B[gk]
;W[fj]
;B[ph]
;W[hf]
;B[kf]
;W[qh]
;B[bk]
;W[bj]
;B[ph]
;W[gq]
;B[gr]
;W[qh]
;B[bn]
;W[ak]
;B[ph]
;W[rq]
;B[rp]
;W[qh]
;B[pr]
;W[ps]
;B[ph]
;W[sq]
;B[sp]
;W[qh]
;B[os]
;W[ns]
;B[ph]
;W[sr]
;B[ss]
;W[qh]
;B[ao]
;W[bp]
;B[ph]
;W[hd]
;B[jd]
;W[qh]
;B[al]
;W[an]
;B[ph]
;W[rq]
;B[sq]
;W[qh]
;B[ri]
;W[kj]
;B[nn]
;W[mn]
;B[ba]
;W[ab]
;B[sd]
;W[sc]
;B[se]
;W[oa]
;B[na]
;W[pa]
;B[fp]
;W[fo]
;B[of]
;W[gm]
)
