(;GM[1]VW[]SZ[19]
PB[Sakata Eio, 9 dan]
PW[Go Seigen, 9 dan]
DT[2-3 Juli 1957]
PC[Tokyo]
RE[White wins by 4 points]
;B[qd]
;W[dc]
;B[pq]
;W[dq]
;B[oc]
;W[po]
;B[qo]
;W[pp]
;B[qp]
;W[oq]
;B[pn]
;W[qq]
;B[pr]
;W[rq]
;B[or]
;W[np]
;B[nq]
;W[qn]
;B[op]
;W[oo]
;B[no]
;W[on]
;B[mp]
;W[do]
;B[de]
;W[ce]
;B[cf]
;W[cd]
;B[dg]
;W[ef]
;B[df]
;W[ed]
;B[cl]
;W[ee]
;B[eg]
;W[cn]
;B[el]
;W[kd]
;B[gg]
;W[cj]
;B[dk]
;W[bm]
;B[bl]
;W[ph]
;B[pm]
;W[ro]
;B[qm]
;W[rp]
;B[rn]
;W[pk]
;B[ol]
;W[nn]
;B[qf]
;W[qg]
;B[pf]
;W[rl]
;B[ok]
;W[pj]
;B[mk]
;W[lo]
;B[oi]
;W[hf]
;B[kb]
;W[fk]
;B[fl]
;W[hk]
;B[gl]
;W[oj]
;B[nj]
;W[ni]
;B[mi]
;W[nh]
;B[ic]
;W[nc]
;B[lc]
;W[mh]
;B[li]
;W[ob]
;B[pc]
;W[md]
;B[ld]
;W[me]
;B[le]
;W[lf]
;B[kf]
;W[lg]
;B[kg]
;W[lh]
;B[kh]
;W[ki]
;B[mm]
;W[ih]
;B[mn]
;W[mo]
;B[np]
;W[kj]
;B[qo]
;W[sn]
;B[kk]
;W[nm]
;B[ml]
;W[jk]
;B[kl]
;W[lj]
;B[mj]
;W[id]
;B[ke]
;W[fi]
;B[ej]
;W[im]
;B[jn]
;W[ei]
;B[di]
;W[ip]
;B[hd]
;W[ie]
;B[gc]
;W[jc]
;B[jb]
;W[hb]
;B[hc]
;W[gf]
;B[eb]
;W[fb]
;B[fc]
;W[ec]
;B[gb]
;W[kq]
;B[lp]
;W[db]
;B[kp]
;W[dj]
;B[ci]
;W[ek]
;B[bj]
;W[ea]
;B[qi]
;W[pi]
;B[og]
;W[oh]
;B[mb]
;W[rg]
;B[nf]
;W[mf]
;B[ho]
;W[hp]
;B[bo]
;W[fj]
;B[cp]
;W[dp]
;B[cq]
;W[nb]
;B[pb]
;W[jq]
;B[dr]
;W[er]
;B[cr]
;W[go]
;B[sm]
;W[so]
;B[gn]
;W[jo]
;B[io]
;W[fn]
;B[hn]
;W[jp]
;B[ko]
;W[fo]
;B[ff]
;W[gm]
;B[hl]
;W[fe]
;B[fg]
;W[he]
;B[hj]
;W[hi]
;B[gk]
;W[ij]
;B[ik]
;W[hm]
;B[gi]
;W[gj]
;B[gh]
;W[hk]
;B[rm]
;W[qr]
;B[hj]
;W[nl]
;B[nk]
;W[hk]
;B[sr]
;W[sq]
;B[hj]
;W[ck]
;B[dl]
;W[hk]
;B[rs]
;W[qs]
;B[hj]
;W[bk]
;B[ak]
;W[hk]
;B[ej]
;W[il]
;B[es]
;W[fr]
;B[rk]
;W[rj]
;B[sj]
;W[qk]
;B[sk]
;W[re]
;B[rd]
;W[si]
;B[sl]
;W[ga]
;B[jh]
;W[ha]
;B[ia]
;W[rf]
;B[ri]
;W[od]
;B[pd]
;W[jm]
;B[fs]
;W[kn]
;B[ln]
;W[pa]
;B[qa]
;W[na]
;B[oa]
;W[gs]
;B[ds]
;W[pa]
;B[rb]
;W[ma]
;B[la]
;W[fa]
;B[ib]
;W[ka]
;B[mc]
;W[lb]
;B[ig]
;W[hg]
;B[la]
;W[qe]
;B[pe]
;W[lb]
;B[hh]
;W[ii]
;B[la]
;W[qb]
;B[qc]
;W[lb]
;B[ji]
;W[jj]
;B[la]
;W[bf]
;B[bg]
;W[lb]
;B[kc]
;W[jd]
;B[la]
;W[be]
;B[gr]
;W[lb]
;B[da]
;W[ca]
;B[la]
;W[hs]
;B[ja]
;W[jr]
;B[lr]
;W[bn]
;B[ag]
;W[sh]
;B[qj]
;W[co]
;B[bp]
;W[lq]
;B[mr]
;W[km]
;B[ps]
;W[qp]
;B[om]
;W[qn]
;B[kr]
;W[js]
;B[qo]
;W[ao]
;B[br]
;W[qn]
;B[oa]
;W[nd]
;B[qo]
;W[if]
;B[dj]
;W[qn]
;B[eq]
;W[fq]
;B[qo]
;W[jg]
;B[af]
;W[ae]
;B[rh]
;W[sg]
;B[se]
;W[ng]
;B[qn]
;W[eh]
;B[dh]
;W[ql]
;B[jf]
;W[ks]
;B[ap]
;W[ls]
;B[ms]
;W[en]
;B[ig]
;W[jl]
;B[an]
;W[am]
;B[dm]
;W[lk]
;B[ll]
;W[jg]
)
