(;GM[1]VW[]SZ[19]
PB[Ota Yuzo, 7e dan]
PW[Honinbo Shusaku, 7e dan]
DT[15th July, 28th Oct, 1853]
RE[Jigo.]
;B[qe]
;W[pc]
;B[pq]
;W[cd]
;B[eq]
;W[qi]
;B[qn]
;W[qd]
;B[pe]
;W[nd]
;B[oh]
;W[ql]
;B[cp]
;W[cj]
;B[pk]
;W[oi]
;B[nh]
;W[ph]
;B[of]
;W[ni]
;B[mh]
;W[me]
;B[kc]
;W[mc]
;B[ec]
;W[de]
;B[pg]
;W[pl]
;B[hc]
;W[kq]
;B[mq]
;W[qp]
;B[ol]
;W[pp]
;B[qk]
;W[rk]
;B[rj]
;W[rl]
;B[qj]
;W[om]
;B[nk]
;W[oq]
;B[qq]
;W[or]
;B[rp]
;W[ro]
;B[op]
;W[rq]
;B[qo]
;W[sp]
;B[po]
;W[rp]
;B[pm]
;W[nm]
;B[qm]
;W[np]
;B[rm]
;W[mi]
;B[li]
;W[mj]
;B[oo]
;W[no]
;B[mn]
;W[nn]
;B[kp]
;W[lp]
;B[ll]
;W[mk]
;B[lq]
;W[jp]
;B[ko]
;W[kr]
;B[mp]
;W[mo]
;B[lo]
;W[nq]
;B[hp]
;W[jo]
;B[km]
;W[in]
;B[im]
;W[hm]
;B[ml]
;W[nl]
;B[ok]
;W[kk]
;B[il]
;W[ki]
;B[lh]
;W[jn]
;B[kl]
;W[kj]
;B[hl]
;W[kh]
;B[gm]
;W[hn]
;B[iq]
;W[jq]
;B[fk]
;W[kf]
;B[cl]
;W[fo]
;B[di]
;W[fq]
;B[ep]
;W[gq]
;B[cf]
;W[fm]
;B[if]
;W[ri]
;B[qh]
;W[pi]
;B[rd]
;W[rc]
;B[rf]
;W[df]
;B[cg]
;W[ej]
;B[dj]
;W[ek]
;B[dk]
;W[el]
;B[hi]
;W[ih]
;B[hh]
;W[fh]
;B[hg]
;W[nf]
;B[sd]
;W[dc]
;B[ed]
;W[db]
;B[bd]
;W[bc]
;B[be]
;W[eb]
;B[fb]
;W[gf]
;B[ke]
;W[lg]
;B[fe]
;W[ff]
;B[fj]
;W[dg]
;B[dh]
;W[gl]
;B[gk]
;W[fl]
;B[fi]
;W[rg]
;B[oc]
;W[ob]
;B[od]
;W[qb]
;B[sg]
;W[sh]
;B[sf]
;W[er]
;B[dr]
;W[fr]
;B[ee]
;W[fa]
;B[gc]
;W[bb]
;B[ac]
;W[ab]
;B[dd]
;W[ce]
;B[ea]
;W[cc]
;B[ga]
;W[da]
;B[co]
;W[lb]
;B[kb]
;W[qg]
;B[qf]
;W[rh]
;B[pd]
;W[qc]
;B[oe]
;W[je]
;B[lc]
;W[mb]
;B[jg]
;W[kg]
;B[fp]
;W[gp]
;B[eo]
;W[fn]
;B[le]
;W[jf]
;B[dm]
;W[ds]
;B[cr]
;W[ij]
;B[ii]
;W[hj]
;B[hk]
;W[ie]
;B[ei]
;W[jc]
;B[jb]
;W[ic]
;B[ib]
;W[ng]
;B[og]
;W[cs]
;B[bs]
;W[es]
;B[ms]
;W[br]
;B[bq]
;W[as]
;B[mg]
;W[mf]
;B[nc]
;W[nb]
;B[bf]
;W[ad]
;B[ae]
;W[gh]
;B[hf]
;W[jh]
;B[ig]
;W[en]
;B[dn]
;W[ka]
;B[ge]
;W[lf]
;B[mm]
;W[ns]
;B[mr]
;W[hd]
;B[kd]
;W[qr]
;B[jd]
;W[id]
;B[gd]
;W[hb]
;B[sc]
;W[sb]
;B[nr]
;W[os]
;B[ks]
;W[js]
;B[ls]
;W[aq]
;B[ap]
;W[ao]
;B[ar]
;W[kn]
;B[ln]
;W[aq]
;B[bp]
;W[sn]
;B[rn]
;W[fa]
;B[ha]
;W[la]
;B[ea]
;W[on]
;B[sk]
;W[fa]
;B[gj]
;W[ik]
;B[ea]
;W[sm]
;B[sl]
;W[so]
;B[sj]
;W[fa]
;B[go]
;W[gn]
;B[ea]
;W[dq]
;B[cq]
;W[fa]
;B[ar]
;W[bs]
;B[ea]
;W[re]
;B[se]
;W[fa]
;B[ir]
;W[jr]
;B[ea]
;W[md]
;B[ef]
;W[eg]
;B[gi]
;W[fa]
;B[ba]
;W[ca]
;B[ea]
;W[ja]
;B[ia]
;W[fa]
;B[lj]
;W[lk]
;B[ea]
;W[ch]
;B[bh]
;W[fa]
;B[eh]
;W[ld]
;B[ea]
;W[ci]
;B[ag]
;W[fa]
;B[ho]
;W[hq]
;B[ea]
;W[rl]
;B[ql]
;W[fa]
;B[hr]
;W[ip]
;B[ea]
;W[lr]
;B[lp]
;W[fa]
;B[rr]
;W[pr]
;B[ea]
;W[jm]
;B[jl]
;W[fa]
;B[gr]
;W[io]
;B[ea]
;W[do]
;B[dp]
;W[fa]
;B[gb]
;W[fg]
;B[jk]
;W[jj]
;B[aq]
;W[ac]
;B[ea]
)
