
(
;
PW[Rin Kaiho 9p]
PB[Ma Xiaochun 9p]
DT[Jun,17 1994]
RE[Black wins by 7.5 points]

Black[pd]
;
White[dd]
;
Black[pp]
;
White[dp]
;
Black[fq]
;
White[cn]
;
Black[ip]
;
White[nq]
;
Black[oq]
;
White[np]
;
Black[pn]
;
White[kq]
;
Black[jq]
;
White[kp]
;
Black[in]
;
White[lm]
;
Black[pk]
;
White[nc]
;
Black[qf]
;
White[pb]
;
Black[dr]
;
White[cq]
;
Black[eo]
;
White[em]
;
Black[lk]
;
White[jm]
;
Black[im]
;
White[jl]
;
Black[il]
;
White[jj]
;
Black[ik]
;
White[jk]
;
Black[ek]
;
White[pg]
;
Black[nd]
;
White[md]
;
Black[ne]
;
White[ld]
;
Black[rh]
;
White[ni]
;
Black[nk]
;
White[mf]
;
Black[fc]
;
White[hc]
;
Black[hd]
;
White[ic]
;
Black[cc]
;
White[dc]
;
Black[cd]
;
White[de]
;
Black[db]
;
White[eb]
;
Black[cb]
;
White[ec]
;
Black[cf]
;
White[qi]
;
Black[nf]
;
White[mg]
;
Black[pi]
;
White[qh]
;
Black[qj]
;
White[oj]
;
Black[pj]
;
White[ng]
;
Black[ph]
;
White[qo]
;
Black[qp]
;
White[eg]
;
Black[hh]
;
White[cg]
;
Black[bf]
;
White[fj]
;
Black[fh]
;
White[eh]
;
Black[fi]
;
White[ej]
;
Black[ei]
;
White[di]
;
Black[dj]
;
White[gj]
;
Black[df]
;
White[ef]
;
Black[ck]
;
White[hi]
;
Black[dh]
;
White[ci]
;
Black[dg]
;
White[gf]
;
Black[gh]
;
White[if]
;
Black[ig]
;
White[gn]
;
Black[fl]
;
White[hq]
;
Black[ir]
;
White[gp]
;
Black[gq]
;
White[hp]
;
Black[hr]
;
White[gl]
;
Black[fm]
;
White[gm]
;
Black[fn]
;
White[ii]
;
Black[jf]
;
White[ie]
;
Black[kg]
;
White[bm]
;
Black[bk]
;
White[cr]
;
Black[kd]
;
White[jh]
;
Black[jg]
;
White[kr]
;
Black[jp]
;
White[jr]
;
Black[iq]
;
White[er]
;
Black[eq]
;
White[dq]
;
Black[fr]
;
White[ds]
;
Black[go]
;
White[qc]
;
Black[og]
;
White[or]
;
Black[pr]
;
White[op]
;
Black[po]
;
White[pq]
;
Black[jc]
;
White[id]
;
Black[ke]
;
White[lc]
;
Black[ib]
;
White[hb]
;
Black[qr]
;
White[re]
;
Black[rd]
;
White[qd]
;
Black[qe]
;
White[rf]
;
Black[rg]
;
White[rc]
;
Black[ki]
;
White[me]
;
Black[oh]
;
White[om]
;
Black[nm]
;
White[nl]
;
Black[ml]
;
White[ol]
;
Black[mm]
;
White[on]
;
Black[ok]
;
White[oo]
;
Black[qq]
;
White[fk]
;
Black[ho]
;
White[el]
;
Black[dk]
;
White[mj]
;
Black[mk]
;
White[kc]
;
Black[li]
;
White[ln]
;
Black[oc]
;
White[ob]
;
Black[ko]
;
White[lo]
;
Black[kn]
;
White[km]
;
Black[jd]
;
White[jb]
;
Black[nh]
;
White[bi]
;
Black[bh]
;
White[mh]
;
Black[mi]
;
White[qg]
;
Black[ri]
;
White[en]
;
Black[fo]
;
White[do]
;
Black[ea]
;
White[fa]
;
Black[da]
;
White[fb]
;
Black[gg]
;
White[hf]
;
Black[ff]
;
White[fe]
;
Black[fg]
;
White[ee]
;
Black[ih]
;
White[ji]
;
Black[ai]
;
White[jn]
;
Black[jo]
;
White[bl]
;
Black[ak]
;
White[kh]
;
Black[dm]
;
White[dn]
;
Black[hk]
;
White[gk]
;
Black[cm]
;
White[lh]
;
Black[lj]
;
White[oq]
;
Black[sf]
;
White[sd]
;
Black[os]
;
White[ns]
;
Black[ps]
;
White[ce]
;
Black[be]
;
White[pl]
;
Black[ql]
;
White[pm]
;
Black[qm]
;
White[ep]
;
Black[fp]
;
White[nn]
;
Black[mn]
;
White[mo]
;
Black[js]
;
White[ks]
;
Black[is]
;
White[fs]
;
Black[gs]
;
White[es]
;
Black[sg]
;
White[al]
;
Black[bn]
;
White[bo]
;
Black[se]
;
White[rd]
;
Black[od]
;
White[hn]
)
