(;C[
Hi everyone!

It's an undeserved honor but a great pleasure to present a series of
Ancient Chinese Go games here.

The games were played in the year 1739, when my great great great
grandfather was openning a small tea shop somewhere in Southern China :).
The two players, Fan and Shi, were among the most famous ones in Chinese Go
history.  Their fighting strength are said to be stronger than some pro 9
dans of today, and they were called, fittingly, "great national hands"
(ever heard of an artistic term for "playing go" -- "hand talk"?).

Both players were born at a same county, which was exactly the same place
where these game were played.  The county was called "Ping Hu", also known
as "Dang Hu", and these games were concequently called "Dang Hu Games."

In this year, 1739, Fan was 31 years old, and Shi 30.  Both were at their
prime time.  These games showed their extraordinary skills and imagination;
these games were not only the Go Bible of those days, but even today, they
are regarded as the best classic work of Go in China.

They played more than 10 games, but it seems to be a tradition that people
prefer round numbers for important collections.  Today, for example, they
have the annual "top ten news of the year", and fans vote for the "top ten
athletics of the year", etc. in China.  Same thing happened to these "Dang
Hu Games"; people later only collected 10 of them.

But aren't 10 enough?  I think every single game could bring us enough
excitement.  To make it a lasting event, I won't post 10 games altogether;
I will post one game every two or three days. (Hey that's a good excuse.
The truth is, I just finished the editing of the comments on Game 1 :-)

The comments are based on a book written by Chinese pro 9 dan Mr. Chen
Zu-De, who was once the number one Go player in China before the younger
Nie.  My translation could be full of mistakes (which many people can't
find :-), and for those who *can* see the mistakes, I will be greatly
appreciated if you point them out.

Finally, actually most importantly, I wouldn't have started to do this if I
were not inspired by players on IGS (Internet Go Server; if you have not
heard it, I am sorry you have missed an half year of fun).  In fact, to
express my special thanks to people (related to Go) who have greatly
influenced me, I will dedicate each editted game to a person (anyone on
IGS, watch out :-).

Enough said.  Better read the games than my words. :)

jzy, NR ^_^

])
