(
;
GaMe[1]
Comment[Title: Game 3, Dongyang Bond Cup'91 Final

Black: Rin Kaiho, 9 dan, Japan
White: Lee Changho, 5 dan, Korea

Time: Jan. 23, 1992

Place: Hilton Hotel, Qingzhou, Korea
]
;
Black[pd]
;
White[dp]
;
Black[pq]
;
White[dd]
;
Black[qk]
;
White[nc]
;
Black[pf]
;
White[pb]
;
Black[qc]
;
White[kc]
;
Black[fq]
;
White[dn]
;
Black[dr]
;
White[cq]
;
Black[iq]
;
White[po]
;
Black[np]
;
White[qq]
;
Black[qr]
;
White[qp]
;
Black[qn]
;
White[pn]
;
Black[qm]
;
White[no]
;
Black[mo]
;
White[mn]
;
Black[nn]
;
White[nm]
;
Black[oo]
;
White[on]
;
Black[no]
;
White[oq]
;
Black[pr]
;
White[pp]
;
Black[nq]
;
White[mm]
;
Black[cf]
;
White[ch]
;
Black[cc]
;
White[cd]
;
Black[dc]
;
White[ed]
;
Black[bd]
;
White[be]
;
Black[bc]
;
White[bf]
;
Black[fc]
;
White[hp]
;
Black[hq]
;
White[fp]
;
Black[eq]
;
White[lo]
;
Black[lp]
;
White[ko]
;
Black[di]
;
White[ci]
;
Black[dk]
;
White[ei]
;
Black[dm]
;
White[cn]
;
Black[kp]
;
White[jo]
;
Black[ej]
;
White[dh]
;
Black[fi]
;
White[dj]
;
Black[eh]
;
White[ek]
;
Black[di]
KO[ei]
;
White[cj]
;
Black[fk]
;
White[el]
;
Black[fl]
;
White[em]
;
Black[fn]
;
White[en]
;
Black[ij]
;
White[or]
;
Black[nr]
;
White[kj]
;
Black[op]
;
White[ph]
;
Black[nd]
;
White[md]
;
Black[mc]
;
White[ne]
;
Black[od]
;
White[mb]
;
Black[oj]
;
White[oi]
;
Black[om]
;
White[pm]
;
Black[ol]
;
White[pl]
;
Black[pk]
;
White[ql]
;
Black[rl]
;
White[rk]
;
Black[rj]
;
White[rm]
;
Black[sk]
;
White[rn]
;
Black[mk]
;
White[li]
;
Black[kl]
;
White[jk]
;
Black[jl]
;
White[il]
;
Black[ik]
;
White[hl]
;
Black[mi]
;
White[mh]
;
Black[nh]
;
White[gj]
;
Black[lh]
;
White[mg]
;
Black[lj]
;
White[ki]
;
Black[kk]
;
White[ni]
;
Black[mj]
;
White[ng]
;
Black[im]
;
White[hm]
;
Black[hn]
;
White[in]
;
Black[gn]
;
White[jm]
;
Black[hk]
;
White[ho]
;
Black[gk]
;
White[fo]
;
Black[kh]
;
White[qb]
;
Black[qg]
;
White[rr]
;
Black[rs]
;
White[sq]
;
Black[eg]
;
White[jh]
;
Black[ip]
;
White[io]
;
Black[kg]
;
White[le]
;
Black[jg]
;
White[hg]
;
Black[gc]
;
White[df]
;
Black[oc]
;
White[nb]
;
Black[rb]
;
White[ih]
;
Black[ji]
;
White[ge]
;
Black[gh]
;
White[hb]
;
Black[hc]
;
White[gb]
;
Black[fb]
;
White[ib]
;
Black[ob]
;
White[oa]
;
Black[cr]
;
White[br]
;
Black[ef]
;
White[ra]
;
Black[rc]
;
White[qh]
;
Black[rh]
;
White[pg]
;
Black[qf]
;
White[gq]
;
Black[gr]
;
White[he]
;
Black[dg]
;
White[cg]
;
Black[bs]
;
White[fa]
;
Black[eb]
;
White[ar]
;
Black[jc]
;
White[ic]
;
Black[id]
;
White[jd]
;
Black[je]
;
White[jb]
;
Black[if]
;
White[ei]
KO[di]
;
Black[fj]
;
White[fg]
;
Black[gg]
;
White[ie]
;
Black[hf]
;
White[ke]
;
Black[km]
;
White[ea]
;
Black[da]
;
White[ga]
;
Black[ba]
;
White[ln]
;
Black[of]
;
White[ff]
;
Black[nf]
;
White[mf]
;
Black[fh]
Comment[Black wins by resignation]
)
