(
;
GaMe[1]
VieW[]
SiZe[19]
AddBlack[dd][dp][jj][pd][pp]
Name[\(igs\) heshe\(white\) vs. tsand\(black\)]
Comment[A game from the Internet Go-server.

?? Mar 1992

White: Tomas Heshe, 4 dan

5 stones: Tero Sand, 2 kyu

Commentary: Olli Lounela, 3 dan

Black wins by resignation.]
;
White[qf]
;
Comment[This might be a bit doubtful. Once black gets a wall on the upper right corner, Q11 will feel a bit too close to it.]
Black[pi]
;
White[qc]
;
Black[qd]
;
White[pc]
;
Black[od]
;
White[rd]
;
Black[re]
;
White[rc]
;
Black[qe]
;
White[nc]
;
Black[jp]
Comment[Now it is obvious that Q11 stone would be better placed at Q10.]
;
White[cn]
;
Black[cl]
;
White[dl]
;
Black[dk]
;
White[dm]
;
Comment[Good.]
Black[fp]
;
White[ck]
;
Black[cj]
;
White[bk]
;
Comment[Correct.]
Black[dj]
;
Comment[This seems to be bad style. White had better play at B8 and accept the gote instead of giving black extra thickness here by pushing.]
White[bj]
;
Black[bi]
;
White[bl]
;
Comment[This is bad. Even if it may feel a bit slow, C12 is the honte. After black played at C12, no move at the top would be a threat. This would help black quite a bit all over the board.

Furthermore, it seems that locally R5 is better than R3. This is because of the bad aji left by Q11.]
Black[qq]
;
Comment[The right side seems slightly more attractive target for an invasion.]
White[lq]
;
Comment[Thick, but a little slack.]
Black[jq]
;
White[oq]
;
Comment[Pushing here is bad -- it strengthens white unnecessarily. A better idea would be to play keima at O5 and threaten all kinds of unpleasant \(for white, that is :-\) things.]
Black[op]
;
White[np]
;
Black[no]
;
White[mp]
;
Comment[Too small and not urgent. Must be around N5 or M6.]
Black[or]
;
White[nq]
Comment[White seems unduly worried about his eye space. Since there were no eye space or shape to speak of to begin with, I would dub this move dubioius.

I would jump immediately to M6 and worry about eyes later.

Jumping to M6 is unattractive, though. Black will strengthen his right side and make it next to impossible to invade. Thus white's reluctance to play M6 is understandable.]
;
Black[pr]
;
White[of]
Comment[This is a bit risky, but white probably feels he's not doing well enough.

M6 would be the honte, but actually the bottom white group is more difficult to attack than it looks. White wants to complicate the game and thus give black opportunities for erring and mistaeking.

I, however, wouldn't hesitate but to play at M6.]
;
Comment[It feels too passive to let white connect and get out.

Probably the correct thing to do here is first pushing at O16, then peeping at Q13 and then either capping \(if it works\) or pushing at N16 \(if it didn't\).

\(It's very hard to see complete and long variations on this ASCII board, thus the if\)]
Black[pg]
;
White[pf]
;
Black[rg]
;
Comment[This move was too good to allow.]
White[nd]
;
Black[nh]
;
Comment[Dangerous. White is creating weak groups everywhere just as if black had asked for targets to attack.]
White[ql]
;
Black[qn]
;
White[ri]
;
Comment[This move is bad. Whatever else happens, black should prevent white from connecting i.e. black whould play S12.

\(TS: This move was a typo: I had planned on playing R10. However, that probably wouldn't be much better, in light of OL's above comment.\)

\(I concur.  OL.\)]
Black[qk]
;
White[rk]
;
Black[qj]
;
Comment[White gives black a second chance to connect...]
White[rj]
;
Comment[...whitch black doesn't...]
Black[rm]
;
Comment[...and so white cuts off a big tail.]
White[qg]
;
Black[rl]
;
Comment[R12 looks better.]
White[rh]
;
Comment[M6 seems better here.

Actually, it seems as if black has blundered away just about his whole handicap.

Pushing white into black's moyo is staking the whole game into killing it. Not recommended.

\(TS: I was feeling very bad about R13.\)

\(As you should.  OL.\)]
Black[km]
;
Comment[The vital point.]
White[ln]
;
Black[kn]
;
Comment[Creating a good shape makes living that much easier for white.]
White[nn]
;
Comment[ Black should connect at P5 instead.]
Black[mo]
;
White[lo]
;
Comment[Now the excange of black N5 for white M5 is bad for black.]
Black[oo]
;
White[lm]
;
Comment[Too greedy. Now black must kill white or lose.]
Black[mr]
;
White[lk]
;
Black[kl]
;
White[nk]
;
Black[li]
;
White[jr]
;
Black[ir]
;
White[mi]
Comment[White's group is getting all the time more difficult to kill. Now it even seems to have some eye shape.]
;
Black[lj]
;
White[ni]
;
Black[mh]
;
White[kk]
;
Black[jk]
;
White[mj]
;
Black[oi]
;
White[ll]
;
Black[oj]
;
White[lh]
;
Black[jh]
;
White[kh]
;
Black[ki]
;
White[mg]
;
Black[ng]
;
White[pl]
;
Black[nj]
;
White[mk]
;
Black[mf]
;
White[kg]
;
Black[kf]
;
White[jg]
;
Black[lg]
;
White[pn]
;
Comment[R5 seems better.]
Black[on]
;
White[om]
;
Comment[Now the excange of black P6 for white P7 only gives white a bit more of eye shape.]
Black[qo]
;
Comment[Even though this atari is big in the extreme, it's not urgent. The big white group in bottom right is in very real danger of dying.

Playing at J12 is acceptable only if white admits the big group is dead.]
White[ih]
;
Comment[Black should push in at P9. That way white would be definitely and irrevocably dead.

\(TS: Yeah \(damn!\), I noticed that after pressing <return>\).

\( :-\)  OL.\)]
Black[pk]
;
White[ok]
;
Black[qi]
;
White[nl]
Comment[A ko is a really big improvement for white.]
;
Black[mn]
;
White[mm]
;
Black[nm]
;
White[ji]
Comment[White seems to have lots of local threats. This ko seems impossible for black to win.]
;
Black[kj]
;
White[nn]
;
Black[pm]
;
White[qm]
;
Black[nm]
;
White[nr]
;
Black[ns]
;
White[nn]
;
Comment[This bad one is the last threat black has. By connecting at O7 white makes an eye and at the bottom there are several threats to make another. White seems to be alive.]
Black[po]
;
Comment[White has one eye.]
White[nm]
;
Black[pm]
;
Comment[Big move by itself, but doesn't seem a threat. This is probably a blunder.]
White[qh]
;
Comment[White seems to be in trouble. He has to do something very spectacular to win.

White, however, is going to try hard.]
Black[ol]
;
White[oh]
;
Comment[Unnecessarily filling an own liberty.]
Black[og]
;
White[ph]
;
Black[nf]
;
White[le]
;
Black[lf]
;
White[ie]
;
Black[ke]
;
White[ld]
;
Black[kd]
;
White[ic]
;
Comment[The worng direction.

As black already has an eye, and making another at the top seems easy, strengthening white's wall is uncalled for.

The eyemaking sequence at the top is O15, P15 \(else S14 wins semeai\), M17, N16, N18, O18 and K17.]
Black[if]
;
White[ig]
;
Black[id]
;
White[hd]
;
Black[jd]
;
Comment[Now black's left side has suffered quite a bit. The game may yet be turned around.]
White[he]
;
Black[jc]
;
White[ib]
;
Black[jb]
;
Comment[Necessary, unfortunately.]
White[fc]
;
Comment[Black is alive. Now all depend on white's successes at the left side and in the bottom left.]
Black[lc]
;
White[df]
;
Black[ce]
;
White[cf]
;
Comment[Black is taking it cool.

\(TS: I honestly thought that after killing the 20+ stone group, I was way ahead.\)

\(Not entirely worng.  OL.\)]
Black[bf]
;
White[bg]
;
Black[be]
;
Comment[The black group in the center of the left side is half-dead.]
White[ch]
;
Black[db]
;
White[fk]
;
Black[hj]
;
White[gi]
;
Black[hi]
;
Comment[Probably a bad move. Pulling back once more would seem better.]
White[hh]
;
Black[gj]
;
Comment[Now white is left with irritating cutting points.]
White[fj]
;
Comment[Good. This seems to settle the game.]
Black[gm]
;
Comment[The success of this invasion will not be enough. White should either try for something more effective or resign.]
White[cq]
;
Black[cp]
;
White[bp]
;
Black[dq]
;
White[br]
;
Black[cr]
;
White[bq]
;
Comment[Bad. The correct sequence is O15, P15, O18.]
Black[mb]
;
White[nb]
;
Black[na]
;
White[ob]
;
Black[ee]
;
White[ij]
;
Black[hl]
;
White[ko]
;
Black[il]
;
White[dr]
;
Black[er]
;
White[cs]
;
Comment[F3 is better.]
Black[fr]
;
White[ef]
;
Black[fe]
;
White[ff]
;
Black[en]
;
White[eb]
;
Comment[C18 is perhaps a bit safer. Black should not leave any bad aji anywhere.

However, this is good enough for white.

White resigns.]
Black[dc]
)
