
(;SZ[19]PW[Liu Xiaoguang]WR[9 Dan]PB[Kobayashi Koichi]BR[9 Dan]KM[5.5]TM[3h]RE[B+R]DT[1988-12-11]BS[0]WS[0]GM[1]FF[3]PC[Tokyo]ID[ 1/1]WT[China]BT[Japan]RO[1];B[pd];W[dc];B[pq];W[cp];B[eq];W[qo];B[pl];W[lq];B[iq]
;W[op];B[oq];W[np];B[nq];W[mp];B[rq];W[qj];B[qm];W[ml];B[nk]
;W[nl];B[ok];W[qf];B[qh];W[rh];B[ri];W[qd];B[qc];W[qi];B[rg]
;W[ph];B[qg];W[pg];B[rj];W[pc];B[oc];W[pb];B[pe];W[rc];B[qe]
;W[rf];B[sh];W[qb];B[re];W[nd];B[ne];W[me];B[nf];W[mf];B[mg]
;W[ng];B[od];W[lg];B[mh];W[kf];B[lh];W[kh];B[lj];W[ki];B[mk]
;W[fd];B[jg];W[kg];B[ci];W[cg];B[cn];W[do];B[cl];W[gq];B[fp]
;W[gp];B[fn];W[go];B[fo];W[io];B[cr];W[dk];B[ck];W[di];B[jc]
;W[lc];B[hd];W[hb];B[hg];W[hi];B[fe];W[ee];B[ef];W[ff];B[ge]
;W[fg];B[ld];W[ic];B[id];W[jb];B[hc];W[ib];B[kc];W[kb];B[ke]
;W[md];B[mc];W[lb];B[jf];W[em];B[dn];W[le];B[kd];W[je];B[jd]
;W[nc];B[ih];W[ob];B[sf];W[ch];B[dj];W[ej];B[cj];W[ed];B[ei]
;W[dg];B[mr];W[lr];B[fr];W[gr];B[ek];W[fj];B[fk];W[fq];B[er]
;W[hh];B[gf];W[gj];B[fm];W[kl];B[ro];W[qp];B[rp];W[gl];B[fl]
;W[gg];B[gc];W[gk];B[eb];W[db];B[on];W[ie];B[if];W[jh];B[he]
;W[ii];B[ig];W[pp];B[ll];W[lm];B[lk];W[km];B[bh];W[bg];B[gs]
;W[hs];B[fs];W[hr];B[bi];W[qn];B[rn];W[om];B[pm];W[qq];B[qr]
;W[ms];B[ns];W[ls];B[ag];W[af];B[ah];W[bf];B[nr];W[nn];B[ol]
;W[mm];B[gb];W[pn];B[da];W[ca];B[ea];W[cb];B[rd];W[pf];B[se]
;W[ga];B[fa])

(;SZ[19]PW[Kobayashi Koichi]WR[9 Dan]PB[Liu Xiaoguang]BR[9 Dan]KM[5.5]TM[3h]RE[W+R]DT[1988-12-13]BS[0]WS[0]GM[1]FF[3]PC[Tokyo]ID[ 1/2]WT[Japan]BT[China]RO[2];B[qd];W[dp];B[dc];W[qp];B[cn];W[dk];B[fq];W[dn];B[dm]
;W[en];B[cq];W[co];B[dq];W[hq];B[hp];W[er];B[eq];W[ip];B[gp]
;W[iq];B[io];W[em];B[kp];W[kr];B[dj];W[cj];B[ci];W[ck];B[gr]
;W[nq];B[bo];W[bn];B[cp];W[cm];B[oc];W[de];B[ee];W[dd];B[ed]
;W[cc];B[ec];W[cb];B[df];W[be];B[qj];W[jd];B[ld];W[ef];B[ff]
;W[eg];B[fg];W[ge];B[fh];W[dg];B[gc];W[hc];B[hb];W[hd];B[ib]
;W[ig];B[ii];W[kg];B[mg];W[fe];B[cg];W[cf];B[dh];W[fb];B[gb]
;W[kc];B[eb];W[hh];B[gj];W[hi];B[hj];W[ij];B[ji];W[ik];B[gl]
;W[hl];B[gm];W[kj];B[eh];W[df];B[ki];W[li];B[lj];W[kh];B[mj]
;W[mi];B[ni];W[nh];B[kk];W[jj];B[nj];W[im];B[ng];W[lh];B[jl]
;W[jm];B[jo];W[gk];B[hk];W[il];B[fk];W[ej];B[fj];W[hn];B[gn]
;W[rd];B[qc];W[oh];B[mh];W[km];B[ho];W[og];B[ne];W[qh];B[rj]
;W[pj];B[pk];W[pi];B[ok];W[qe];B[qf];W[rf];B[pe];W[re];B[pf]
;W[ri];B[rc];W[qg];B[pg];W[sg];B[oq];W[op];B[pq];W[np])

(;SZ[19]PW[Kobayashi Koichi]WR[9 Dan]PB[Ma Xiaochun]BR[9 Dan]TM[3h]KM[5.5]RE[W+2.5]DT[1989-12-14]BS[0]WS[0]GM[1]FF[3]PC[Beijing]ID[ 2/1]WT[Japan]BT[China]RO[1]KI[11];B[qd];W[dp];B[cd];W[qp];B[oc];W[ed];B[hd];W[dg];B[ee]
;W[fe];B[ef];W[dd];B[cf];W[ff];B[eg];W[cc];B[ce];W[bc];B[fd]
;W[gd];B[fc];W[gc];B[eb];W[ec];B[fb];W[gb];B[db];W[dc];B[ge]
;W[ib];B[ic];W[hb];B[cb];W[bb];B[ba];W[fa];B[ga];W[ha];B[jb]
;W[ea];B[pp];W[gf];B[qq];W[qo];B[pq];W[po];B[ql];W[no];B[mp]
;W[ol];B[pj];W[di];B[bi];W[ci];B[bh];W[bj];B[ej];W[ei];B[cj]
;W[bk];B[dj];W[fi];B[cl];W[ck];B[dk];W[bl];B[cm];W[bm];B[cn]
;W[bo];B[co];W[bp];B[gh];W[fj];B[el];W[fh];B[bn];W[an];B[cp]
;W[cq];B[am];W[al];B[bq];W[br];B[dq];W[cr];B[ch];W[ep];B[fk]
;W[fg];B[np];W[rd];B[qe];W[re];B[rc];W[qf];B[qh];W[of];B[mc]
;W[mf];B[nk];W[qm];B[pl];W[pm];B[ok];W[rl];B[rk];W[qg];B[gq]
;W[fm];B[em];W[fo];B[ip];W[fq];B[gp];W[fr];B[mo];W[qk];B[pk]
;W[sk];B[qj];W[rn];B[ne];W[qc];B[qb];W[sc];B[pc];W[nf];B[hk]
;W[gr];B[hr];W[ho];B[io];W[bd];B[dh];W[be];B[ai];W[aj];B[bf]
;W[in];B[jn];W[hn];B[jm];W[ir];B[jr];W[hq];B[hp];W[hs];B[iq]
;W[jc];B[kb];W[jd];B[le];W[rh];B[ri];W[ph];B[ie];W[je];B[jf]
;W[qi];B[sb];W[id];B[kf];W[he];B[rp];W[nn];B[sj];W[sl];B[mm]
;W[il];B[hl];W[im];B[kk];W[js];B[hr];W[is];B[ks];W[hq];B[kr]
;W[mi];B[oi];W[nh];B[hr];W[gs];B[om];W[on];B[nm];W[if];B[fn]
;W[en];B[gn];W[go];B[gm];W[me];B[kc];W[gj];B[ih];W[gl];B[fl]
;W[gk];B[dn];W[eo];B[hm];W[kh];B[hj];W[mk];B[lk];W[mj];B[ml]
;W[jl];B[kl];W[md];B[nd];W[ke];B[ld];W[lf];B[kd];W[hc];B[ao]
;W[ap];B[ki];W[jg];B[li];W[lh];B[ae];W[ad];B[af];W[ji];B[jh]
;W[jj];B[ig];W[kg];B[oh];W[pe];B[pd];W[og];B[oe];W[pi];B[ni]
;W[ja];B[ka];W[rq];B[rr];W[so];B[sp];W[pf];B[sd];W[rf];B[de]
;W[ca];B[hg];W[hi];B[ii];W[ij];B[gi];W[nj];B[oj];W[mn];B[ln]
;W[op];B[oq];W[oo];B[sq];W[ro];B[se];W[sf];B[sc];W[fp];B[sh]
;W[sg];B[hq];W[ia];B[rj];W[si])

(;SZ[19]PW[Ma Xiaochun]WR[9 Dan]PB[Kobayashi Koichi]BR[9 Dan]TM[3h]KM[5.5]RE[B+R]DT[1989-12-16]BS[0]WS[0]GM[1]FF[3]PC[Beijing]ID[ 2/2]WT[China]BT[Japan]RO[2];B[pd];W[dd];B[pq];W[dp];B[qo];W[kq];B[cn];W[fq];B[bp]
;W[cq];B[ck];W[qi];B[fc];W[cf];B[db];W[cc];B[ic];W[qf];B[pf]
;W[pe];B[oe];W[qe];B[od];W[qd];B[qc];W[rc];B[pg];W[qg];B[ph]
;W[qb];B[pc];W[qh];B[rb];W[ra];B[sb];W[sc];B[pb];W[sa];B[jf]
;W[lf];B[lh];W[kg];B[ld];W[hf];B[if];W[he];B[ih];W[hc];B[hb]
;W[ib];B[id];W[gb];B[hd];W[gc];B[gd];W[ha];B[jb];W[ec];B[fb]
;W[eb];B[fd];W[fa];B[lj];W[dn];B[dm];W[en];B[mq];W[co];B[bn]
;W[em];B[dl];W[jn];B[ko];W[jo];B[kr];W[lr];B[lq];W[jr];B[kp]
;W[jq];B[mr];W[ks];B[ql];W[lm];B[mn];W[ji];B[jk];W[ii];B[kh]
;W[ni];B[nh];W[kj];B[kk];W[lk];B[ll];W[mk];B[ml];W[jh];B[jg]
;W[li];B[mh];W[mj];B[hi];W[hh];B[ig];W[hj];B[gi];W[kl];B[ik]
;W[gj];B[km];W[jl];B[jm];W[il];B[im];W[hl];B[mm];W[bo];B[ao]
;W[ci];B[bq];W[cr];B[fi];W[pa];B[ed];W[dc];B[dg];W[cg];B[bj]
;W[nl];B[om];W[fg];B[eh];W[df];B[ff];W[ef];B[gg];W[gn];B[hm]
;W[gm];B[hn];W[ho];B[jp];W[ip];B[ob];W[oa];B[na];W[qa];B[kb]
;W[rk];B[rl];W[eg];B[br];W[bs];B[fj];W[hk];B[ag];W[bh];B[ah]
;W[af];B[bi];W[bg];B[fh];W[qk];B[pk];W[sl];B[sm];W[sk];B[rm]
;W[pj];B[ok];W[oi];B[oh];W[ms];B[or];W[fk];B[dh];W[nb];B[ma]
;W[bl];B[ap];W[ai];B[cj];W[aj];B[ak];W[ah];B[bk];W[ch];B[gf]
;W[dj];B[ek];W[di];B[ar];W[el];B[nk];W[kn];B[ln];W[io];B[ns]
;W[ee];B[ls];W[dk];B[cl];W[ms];B[cp];W[do];B[ls];W[al];B[cm]
;W[ms];B[mi];W[nj];B[ls];W[nf];B[of];W[ms];B[ki];W[lj];B[ls]
;W[fe];B[ge];W[ms];B[ea];W[da];B[ls];W[mb];B[la];W[ms];B[cs]
;W[ds];B[ls];W[pl];B[ol];W[ms];B[dq];W[dr];B[ls];W[md];B[lc]
;W[ms];B[eq])

(;SZ[19]PW[Ma Xiaochun]WR[9 Dan]PB[Kobayashi Koichi]BR[9 Dan]KM[5.5]TM[3h]RE[B+5.5]DT[1990-12-16]BS[0]WS[0]GM[1]FF[3]WT[China]BT[Japan]PC[Naha City, Okinawa]ID[ 3/1]RO[1];B[pd];W[dd];B[pq];W[cp];B[eq];W[qo];B[pl];W[lq];B[iq]
;W[op];B[oq];W[nq];B[np];W[oo];B[no];W[nr];B[qp];W[on];B[lp]
;W[ro];B[kq];W[mq];B[mp];W[kr];B[jr];W[kp];B[jq];W[or];B[pr]
;W[ls];B[rp];W[rr];B[qr];W[rq];B[so];W[rm];B[rs];W[mr];B[rl]
;W[sn];B[sp];W[ql];B[qk];W[qm];B[ko];W[sr];B[ps];W[pk];B[qj]
;W[ok];B[qf];W[jc];B[cn];W[ep];B[dq];W[dn];B[dm];W[en];B[dp]
;W[co];B[cm];W[do];B[fp];W[cq];B[ch];W[fo];B[gp];W[cj];B[di]
;W[el];B[dk];W[dl];B[ck];W[cl];B[bl];W[bk];B[bj];W[ek];B[dj]
;W[bm];B[ak];W[mc];B[eb];W[db];B[dc];W[ec];B[cc];W[cb];B[cd]
;W[fb];B[ed];W[fc];B[de];W[qh];B[pj];W[pg];B[oj];W[ng];B[nk]
;W[pb];B[qg];W[ph];B[rh];W[ol];B[ri];W[bn];B[oc];W[ob];B[nc]
;W[nb];B[md];W[lc];B[ld];W[kd];B[lf];W[lg];B[kg];W[lh];B[nl]
;W[om];B[kh];W[oe];B[pe];W[mf];B[ke];W[nd];B[jd];W[kc];B[ne]
;W[me];B[le];W[nf];B[od];W[je];B[ne];W[pp];B[qq];W[nd];B[kf]
;W[li];B[id];W[hd];B[ie];W[ic];B[he];W[fd];B[jj];W[mj];B[fe]
;W[ge];B[gf];W[gd];B[ff];W[go];B[cr];W[br];B[dr];W[gj];B[lk]
;W[nj];B[oi];W[mk];B[ml];W[ni];B[ll];W[oh];B[qc];W[gh];B[fi]
;W[ih];B[gi];W[ki];B[ji];W[jh];B[jf];W[ij];B[ik];W[ii];B[jk]
;W[hk];B[hl];W[gl];B[js];W[ks];B[of];W[ne];B[pf];W[mh];B[io]
;W[hm];B[il];W[fq];B[gq];W[qb];B[bs];W[cs];B[ds];W[aq];B[fj]
;W[im];B[fk];W[gk];B[jm];W[bc];B[bb];W[ba];B[ad];W[rc];B[rd]
;W[pc];B[qd];W[ab];B[fl];W[fm];B[in];W[ig];B[hf];W[rb];B[sl]
;W[os];B[hh];W[hg];B[hi];W[hj];B[gg];W[fr];B[eo];W[bd];B[be]
;W[ep];B[hn];W[gm];B[eo];W[rk];B[rj];W[ep];B[gr];W[es];B[eo]
;W[sm];B[sk];W[ep];B[ms];W[ns];B[ar];W[bq];B[eo];W[sj];B[si]
;W[ep];B[gs];W[eo];B[ej];W[em];B[sc];W[sb];B[sd];W[kj];B[kk]
;W[nm];B[mm];W[nn];B[mn];W[ho];B[hp];W[am];B[al];W[if];B[fs]
;W[ac];B[ae];W[as];B[er];W[cs];B[gn];W[og])

(;SZ[19]PW[Kobayashi Koichi]WR[9 Dan]PB[Ma Xiaochun]BR[9 Dan]KM[5.5]TM[3h]RE[W+R]DT[1990-12-18]BS[0]WS[0]GM[1]FF[3]ID[ 3/2]PC[Naha City, Okinawa]WT[Japan]BT[China]RO[2];B[pd];W[dd];B[pq];W[cp];B[eq];W[qo];B[qk];W[lp];B[qp]
;W[gq];B[do];W[co];B[dn];W[cm];B[cq];W[dp];B[ep];W[dq];B[cn]
;W[bn];B[dr];W[bo];B[dm];W[cl];B[fr];W[fo];B[eo];W[cr];B[cs]
;W[bq];B[iq];W[gr];B[gp];W[hp];B[hq];W[ip];B[hr];W[jq];B[gs]
;W[po];B[nq];W[pp];B[rq];W[rp];B[qq];W[np];B[mq];W[mp];B[ok]
;W[qf];B[re];W[pi];B[mk];W[qj];B[pl];W[nj];B[oj];W[oi];B[lm]
;W[ml];B[ni];W[nk];B[nl];W[mj];B[nm];W[lk];B[nh];W[qm];B[pj]
;W[qi];B[ql];W[og];B[mm];W[jn];B[kn];W[jo];B[jm];W[im];B[jl]
;W[li];B[nc];W[ng];B[fc];W[eb];B[be];W[cd];B[ch];W[ic];B[bd]
;W[bc];B[bb];W[cc];B[kc];W[cf];B[bf];W[cg];B[bg];W[bi];B[eg]
;W[dh];B[ci];W[bj];B[bh];W[eh];B[cj];W[ck];B[ac];W[cb];B[ej]
;W[fh];B[gj];W[il];B[jk];W[hj];B[gi];W[hg];B[ie];W[jd];B[jf]
;W[jh];B[gf];W[gd];B[ii];W[ih];B[hi];W[gg];B[kd];W[je];B[ke]
;W[kf];B[ib];W[jc];B[jb];W[hc];B[hb];W[gc];B[lf];W[kg];B[rf]
;W[gl];B[ji];W[go];B[jr];W[kq];B[kr];W[qe];B[qd];W[rg];B[qg]
;W[pg];B[pe];W[pf];B[sg];W[rh];B[fb];W[gb];B[ga];W[ha];B[ia]
;W[ea];B[fa];W[fd];B[ec];W[dc];B[lb];W[ed];B[ha];W[oq];B[or]
;W[op];B[lq];W[pr];B[kp];W[nr];B[jp];W[fp];B[ro];W[rn];B[sp]
;W[qr];B[rr];W[sn];B[pn];W[pm];B[on];W[om];B[ol];W[qn];B[in]
;W[hn];B[ko];W[io])

(;PB[Kobayashi Koichi]BR[9 Dan]PW[Ma Xiaochun]WR[9 Dan]DT[1991-12]KM[5.5]BS[0]WS[0]GM[1]SZ[19]ID[ 4/1]RO[1]RE[B+R]FF[3]WT[China]BT[Japan]TM[3h];B[pd];W[dc];B[pq];W[cp];B[eq];W[qn];B[qp];W[qk];B[de]
;W[ce];B[cf];W[cd];B[df];W[fc];B[cn];W[do];B[dn];W[fp];B[gq]
;W[dk];B[fn];W[fo];B[dq];W[eo];B[en];W[ho];B[cq];W[bq];B[di]
;W[bo];B[hq];W[gn];B[fl];W[gk];B[fk];W[gl];B[fj];W[jp];B[jr]
;W[qf];B[nc];W[bm];B[bn];W[an];B[cl];W[no];B[qi];W[od];B[pc]
;W[pe];B[oi];W[me];B[nd];W[ne];B[ok];W[po];B[mi];W[nq];B[op]
;W[np];B[pm];W[oo];B[or];W[qj];B[ph];W[pj];B[rl];W[pl];B[ol]
;W[qm];B[ql];W[pk];B[nm];W[pn];B[om];W[lc];B[ld];W[md];B[mc]
;W[oc];B[ob];W[oe];B[mb];W[lb];B[kd];W[jc];B[jd];W[ic];B[qd]
;W[lh];B[id];W[hc];B[jg];W[ma];B[nb];W[mh];B[oj];W[rk];B[ji]
;W[li];B[kj];W[lj];B[lk];W[kk];B[ll];W[rd];B[rc];W[re];B[qb]
;W[rg];B[rh];W[mj];B[ng];W[lf];B[kg];W[og];B[nh];W[ni];B[oh]
;W[nf];B[jl];W[pg];B[qg];W[qh];B[rj];W[rm];B[qg];W[sh];B[pf]
;W[qh];B[pi];W[sl];B[qg];W[of];B[si];W[qh];B[in];W[cm];B[dl]
;W[ri];B[io];W[cr];B[dr];W[cs];B[ds];W[br];B[co];W[dp];B[bl]
;W[hj];B[ik];W[hn];B[ip];W[fq];B[fr];W[ih];B[hi];W[ao];B[bp]
;W[ap];B[ar];W[al];B[as];W[bk];B[ck];W[ij];B[ii];W[jj];B[ki]
;W[jk];B[kl];W[il];B[hm];W[gm];B[hl];W[gi];B[gh];W[fi];B[bj]
;W[gj];B[fh];W[cj];B[dj])

(;PB[Ma Xiaochun]BR[9 Dan]PW[Kobayashi Koichi]WR[9 Dan]DT[1991-12]KM[5.5]BS[0]WS[0]GM[1]SZ[19]ID[ 4/2]RE[W+?]FF[3]WT[Japan]BT[China]TM[3h]RO[2];B[qd];W[dp];B[dc];W[qp];B[op];W[oq];B[nq];W[pq];B[cn]
;W[fq];B[ci];W[kc];B[oc];W[hc];B[ei];W[jp];B[pl];W[ch];B[dh]
;W[cg];B[bi];W[dg];B[ce];W[eh];B[di];W[ed];B[ec];W[fd];B[eg]
;W[de];B[dd];W[ef];B[fh];W[be];B[bd];W[cf];B[cd];W[ph];B[gb]
;W[gc];B[hb];W[ib];B[fc];W[ge];B[lq];W[dn];B[co];W[cp];B[do]
;W[eo];B[bp];W[bq];B[ep];W[en];B[eq];W[cq];B[fp];W[cm];B[bm]
;W[bl];B[cl];W[dm];B[bk];W[bn];B[al];W[bo];B[no];W[hp];B[gq]
;W[hr];B[fr];W[mp];B[lp];W[mo];B[np];W[qn];B[om];W[lo];B[io]
;W[ip];B[dr];W[mm];B[kr];W[nr];B[mr];W[or];B[mq];W[ko];B[ir]
;W[qf];B[mc];W[ha];B[fb];W[ke];B[ld];W[kd];B[re];W[hq];B[pj]
;W[rl];B[rj];W[nh];B[nj];W[nd];B[lb];W[nc];B[nb];W[md];B[lc]
;W[od];B[pd];W[ob];B[pc];W[le];B[kb];W[jb];B[pf];W[ma];B[mb]
;W[ka];B[pb];W[of];B[oe];W[ne];B[pe];W[og];B[ll];W[ml];B[lj]
;W[kh];B[jl];W[im];B[jm];W[jn];B[gn];W[ho];B[qh];W[hh];B[jh]
;W[la];B[oa];W[ji];B[ki];W[li];B[kj];W[ii];B[lh];W[kg];B[mi]
;W[lg];B[bf];W[ag];B[po];W[qm];B[pg];W[gr];B[gp];W[cr];B[fn]
;W[hl];B[gg];W[fl];B[es];W[hg];B[ae];W[ff];B[qo];W[ro];B[rp]
;W[rq];B[pi];W[oh];B[nf];W[me];B[mh];W[mg];B[ek];W[rk];B[qk]
;W[sj];B[si];W[sk];B[ri];W[lm];B[bg];W[bh];B[ai];W[ah];B[mk]
;W[kl];B[km];W[lk];B[kk];W[ll];B[il];W[hn];B[gm];W[hm];B[nl]
;W[hk];B[pp];W[sp];B[ik];W[fj];B[fk];W[gj];B[ij];W[hj];B[gh]
;W[jj];B[jk];W[jq];B[jr];W[ej];B[dj];W[dl];B[dk];W[on];B[nn]
;W[pn];B[ms];W[nm];B[is];W[pm];B[ol];W[an];B[ns];W[os];B[ql]
;W[rm];B[oi];W[am];B[bl];W[gf];B[gi];W[hi];B[ga];W[cs];B[kq]
;W[ia])

(;GM[1]SZ[19]ID[ 5/1]PB[Kobayashi Koichi]PW[Ma Xiaochun]DT[1992-12-15]PC[Tokyo]RE[W+1.5]KM[5.5]BS[0]WS[0]FF[3]BR[9 Dan]WR[9 Dan]WT[China]BT[Japan]TM[3h]RO[1];B[pd];W[dp];B[pq];W[dd];B[qo];W[jp];B[cn];W[fq];B[bp]
;W[qf];B[nc];W[rd];B[fc];W[cf];B[db];W[cl];B[cq];W[md];B[mc]
;W[kd];B[en];W[gd];B[fd];W[fe];B[cc];W[gc];B[fb];W[qc];B[ld]
;W[le];B[lc];W[ke];B[pf];W[qg];B[ge];W[nf];B[he];W[ic];B[id]
;W[kc];B[pc];W[gb];B[ee];W[ff];B[dg];W[fg];B[cg];W[df];B[ef]
;W[eg];B[ed];W[dh];B[ch];W[di];B[bf];W[gn];B[fi];W[gi];B[gh]
;W[fh];B[hi];W[gj];B[gg];W[fj];B[jh];W[ii];B[jc];W[jb];B[hc]
;W[ib];B[hb];W[ha];B[hd];W[ga];B[ih];W[hj];B[lb];W[hh];B[hg]
;W[if];B[jf];W[lh];B[ia];W[ja];B[fa];W[ia];B[ji];W[lj];B[kj]
;W[lk];B[kk];W[kl];B[kg];W[ig];B[hi];W[ij];B[lg];W[mg];B[mh]
;W[ng];B[li];W[mi];B[kh];W[nh];B[mj];W[lh];B[me];W[ne];B[mh]
;W[ni];B[ll];W[mk];B[jl];W[km];B[ml];W[nk];B[jm];W[kn];B[jj]
;W[oq];B[op];W[nq];B[pr];W[qn];B[pn];W[qm];B[pm];W[ro];B[qp]
;W[ql];B[jn];W[jo];B[lo];W[nl];B[lq];W[kq];B[lr];W[ik];B[nd]
;W[lf];B[lh];W[qb];B[pb];W[dq];B[cm];W[jk];B[jr];W[kr];B[ks]
;W[iq];B[ir];W[hq];B[pl];W[pk];B[qk];W[rk];B[bl];W[ci];B[fm]
;W[gm];B[hr];W[gr];B[kp];W[oe];B[kb];W[jd];B[hh];W[od];B[ka]
;W[jc];B[ma];W[jq];B[ok];W[pj];B[nm];W[mm];B[ol];W[nj];B[nn]
;W[cr];B[br];W[cp];B[bq];W[sp];B[rp];W[rm];B[sq];W[so];B[rq]
;W[bk];B[dl];W[bi];B[bg];W[ck];B[gl];W[fn];B[fl];W[hl];B[pe]
;W[ko];B[lp];W[mn];B[mo];W[dr];B[eo];W[bm];B[bn];W[al];B[fo]
;W[go];B[qa];W[ra];B[pa];W[oc];B[ob];W[rb];B[oj];W[oi];B[pi]
;W[qj];B[pg];W[ph];B[dk];W[ah];B[ag];W[je];B[ie];W[co];B[bo]
;W[bs];B[qe];W[re];B[ln];W[lm];B[dj];W[hs];B[js];W[fk];B[cj]
;W[bj];B[og];W[fp];B[oh];W[qh];B[gf];W[ei];B[an];W[ep];B[dn]
;W[gk];B[el];W[bh];B[be];W[am];B[ar];W[mf];B[kf];W[cs];B[md]
)

(;GM[1]SZ[19]ID[ 5/2]PB[Ma Xiaochun]PW[Kobayashi Koichi]DT[1992-12-17]PC[Tokyo]KM[5.5]RE[W+R]BS[0]WS[0]FF[3]BR[9 Dan]WR[9 Dan]WT[Japan]BT[China]TM[3h]RO[2];B[pd];W[dd];B[pp];W[dp];B[fc];W[cf];B[id];W[qf];B[nc]
;W[qi];B[fq];W[dn];B[iq];W[qn];B[pj];W[pi];B[nj];W[nq];B[np]
;W[qq];B[oq];W[qp];B[cl];W[cj];B[el];W[fp];B[gp];W[fo];B[eq]
;W[go];B[hp];W[cm];B[bm];W[bn];B[cq];W[bl];B[in];W[om];B[mm]
;W[nn];B[po];W[qo];B[mn];W[mq];B[nr];W[mr];B[mp];W[or];B[pr]
;W[ns];B[pq];W[kq];B[ql];W[rk];B[qe];W[pf];B[ne];W[ok];B[oj]
;W[qk];B[dg];W[cg];B[kr];W[jr];B[jq];W[ir];B[kp];W[lq];B[hr]
;W[ks];B[hl];W[ke];B[kc];W[ie];B[hd];W[jh];B[db];W[cc];B[jj]
;W[hh];B[gf];W[hj];B[hk];W[li];B[lj];W[ij];B[jk];W[md];B[ld]
;W[me];B[mc];W[qc];B[re];W[pc];B[od];W[oc];B[le];W[mf];B[nd]
;W[nb];B[mb];W[rb];B[lf];W[fj];B[cb];W[fg];B[ob];W[pb];B[na]
;W[rd];B[fk];W[ej];B[bp];W[dq];B[dr];W[cp];B[bq];W[dl];B[if]
;W[bb];B[dc];W[cd];B[gg];W[gh];B[ed];W[ff];B[ee];W[df];B[ig]
;W[ji];B[pk];W[pl];B[mi];W[pn];B[qr];W[lp];B[lo];W[nk];B[mk]
;W[kf];B[ba];W[ab];B[rg];W[rh];B[qg];W[rf];B[sf];W[pg];B[oh]
;W[ph];B[rq];W[rp];B[rr];W[kg];B[mg];W[jd];B[jc];W[fe];B[fd]
;W[ek];B[fl];W[ge];B[he];W[bo];B[nm];W[oi];B[og];W[of];B[nf]
;W[ni];B[nl];W[ol];B[ih];W[ii];B[ef];W[eg];B[em];W[mh];B[lh]
;W[mj];B[dm];W[ck];B[mi];W[cr];B[br];W[mj];B[is];W[mi];B[js]
;W[ls])

(;GM[1]SZ[19]ID[ 5/3]PB[Kobayashi Koichi]PW[Ma Xiaochun]DT[1992-12-18]PC[Tokyo]RE[W+1.5]KM[5.5]BS[0]WS[0]FF[3]BR[9 Dan]WR[9 Dan]WT[China]BT[Japan]TM[3h]RO[3];B[pd];W[dp];B[pq];W[dd];B[fq];W[cn];B[jp];W[qn];B[qp]
;W[pj];B[qh];W[on];B[ql];W[pl];B[qk];W[pk];B[qj];W[ph];B[pi]
;W[oi];B[qi];W[oh];B[np];W[pf];B[pm];W[om];B[pn];W[po];B[qm]
;W[op];B[no];W[oo];B[oq];W[qo];B[oj];W[nj];B[ol];W[ok];B[nl]
;W[mm];B[nk];W[oj];B[ll];W[mn];B[lk];W[kn];B[lo];W[km];B[jk]
;W[hn];B[qg];W[ne];B[nc];W[qf];B[rd];W[rg];B[rh];W[re];B[hk]
;W[rq];B[hp];W[eq];B[fp];W[qq];B[lh];W[le];B[lc];W[od];B[pc]
;W[rc];B[ic];W[oc];B[ob];W[nb];B[nd];W[oe];B[pb];W[qd];B[jd]
;W[fr];B[gr];W[cf];B[cj];W[ec];B[bo];W[bq];B[cc];W[cd];B[eb]
;W[db];B[co];W[do];B[cm];W[dm];B[bn];W[cl];B[dn];W[en];B[bl]
;W[cn];B[bm];W[er];B[fb];W[fc];B[gb];W[bi];B[ci];W[bh];B[dl]
;W[el];B[dk];W[rm];B[rl];W[sn];B[sg];W[rf];B[rj];W[cb];B[qr]
;W[rr];B[pr];W[nq];B[mq];W[io];B[ip];W[kh];B[kg];W[lg];B[li]
;W[kd];B[kc];W[jg];B[kf];W[jf];B[lf];W[mc];B[md];W[ld];B[mb]
;W[me];B[na];W[mg];B[jh];W[ki];B[ji];W[kj];B[jj];W[ke];B[rs]
;W[pp];B[ch];W[bj];B[ek];W[bk];B[ck];W[mf];B[kk];W[fl];B[cg]
;W[bg];B[gg];W[eg];B[eh];W[hg];B[gh];W[dg];B[cq];W[cp];B[bp]
;W[cr];B[aq];W[br];B[ff];W[gs];B[hr];W[hs];B[is];W[fs];B[mr]
;W[ir];B[js];W[mo];B[mp];W[go];B[gp];W[hf];B[ee];W[df];B[fg]
;W[fk];B[fj];W[gk];B[gj];W[hl];B[il];W[hj];B[ik];W[ii];B[hh]
;W[ih];B[hi];W[dh];B[di];W[jr];B[ks];W[kq];B[lr];W[kp];B[ko]
;W[jo];B[lp];W[im];B[fo];W[fn];B[rb];W[qc];B[qb];W[ig];B[ij]
;W[gc];B[dn];W[em];B[lj];W[kg];B[sl];W[hb];B[hc];W[ib];B[jb]
;W[ea];B[ia];W[sb];B[sm];W[rn];B[ar];W[hq];B[gq];W[hd];B[id]
;W[sf];B[sh];W[al];B[am];W[ak];B[ho];W[gn];B[mh];W[nh];B[pg]
;W[og];B[sr];W[rp];B[pe];W[ge];B[qe];W[sd];B[ie];W[fe];B[ef]
;W[ed];B[de];W[ce];B[he];W[gd];B[jm];W[jn];B[jl];W[fa];B[ha]
;W[da];B[ga];W[bs];B[qs];W[sq];B[ra];W[ml];B[mk];W[cn];B[ss]
;W[dn])

(;GM[1]BS[0]WS[0]BL[1800.0]WL[1800.0]SZ[19]DT[1993-12-14]ID[ 6/1]PC[Shanghai]RE[B+1.5]PB[Ma Xiaochun]PW[Kobayashi Koichi]BR[9 Dan]WR[9 Dan]BT[China]WT[Japan]FF[3];B[pd];W[dd];B[pp];W[dq];B[cn];W[cp];B[dj];W[ch];B[en]
;W[gp];B[cf];W[df];B[de];W[ee];B[ce];W[dg];B[cd];W[dc];B[cc]
;W[cb];B[bb];W[db];B[bg];W[bh];B[bj];W[ba];B[ab];W[ck];B[cj]
;W[ff];B[jc];W[ag];B[af];W[cg];B[ah];W[ai];B[fd];W[ag];B[bf]
;W[ed];B[bd];W[dm];B[cm];W[dl];B[cl];W[qf];B[nd];W[rd];B[ep]
;W[eq];B[qc];W[qi];B[nq];W[kq];B[fl];W[rp];B[qp];W[ro];B[rq]
;W[ql];B[hp];W[ho];B[ip];W[go];B[io];W[ko];B[im];W[km];B[gq]
;W[fp];B[ln];W[lo];B[mn];W[np];B[mq];W[mo];B[nn];W[kn];B[hn]
;W[rr];B[qq];W[pn];B[ph];W[of];B[qh];W[rh];B[qe];W[pe];B[qd]
;W[rf];B[ri];W[rj];B[qn];W[pm];B[kk];W[me];B[md];W[le];B[kd]
;W[lk];B[lj];W[mk];B[mj];W[op];B[oq];W[kj];B[ki];W[jj];B[nk]
;W[nl];B[nj];W[jk];B[ml];W[ll];B[ol];W[mm];B[mg];W[ji];B[kh]
;W[dk];B[bk];W[ek];B[fi];W[ej];B[ei];W[gk];B[fk];W[fj];B[gj]
;W[gl];B[em];W[hj];B[gi];W[fm];B[el];W[gn];B[fc];W[hf];B[jf]
;W[hc];B[hd];W[ig];B[jg];W[gc];B[kr];W[jr];B[pi];W[si];B[lr]
;W[jq];B[qj];W[ri];B[gd];W[fb];B[ib];W[id];B[ic];W[ga];B[ha]
;W[gb];B[eg];W[eh];B[fg];W[gg];B[fh];W[ef];B[ie];W[rn];B[hi]
;W[ih];B[sp];W[rc];B[ij];W[hk];B[bo];W[bp];B[rb];W[sb];B[qb]
;W[do];B[dn];W[pk];B[nm];W[ml];B[ii];W[ik];B[oe];W[pf];B[nf]
;W[ne];B[od];W[ng];B[mf];W[oh];B[nh];W[og];B[ni];W[mh];B[lh]
;W[pj];B[ok];W[om];B[jh];W[hh];B[if];W[gh];B[ap];W[aq];B[ao]
;W[bq];B[js];W[is];B[ks];W[ir];B[rm];W[qm];B[qo];W[rl];B[re]
;W[se];B[fn];W[gm];B[oi];W[co];B[bn];W[lq];B[mr];W[he];B[eo]
;W[dh];B[ah];W[bi];B[mp];W[po];B[lp];W[kp];B[qg];W[rg];B[ra]
;W[sf];B[hb];W[ec];B[aj];W[ge];B[jd];W[sm];B[so];W[fe];B[id]
;W[pl];B[sq];W[sn];B[sa];W[sd];B[ag];W[sc])

(;GM[1]BS[0]WS[0]BL[1800.0]WL[1800.0]SZ[19]DT[1993-12-16]RE[B+1.5]PC[Shanghai]ID[ 6/2]PB[Kobayashi Koichi]PW[Ma Xiaochun]BR[9 Dan]WR[9 Dan]WT[China]BT[Japan]FF[3];B[pd];W[dd];B[qp];W[dq];B[oq];W[qj];B[cf];W[di];B[fc]
;W[df];B[dg];W[ef];B[cc];W[ce];B[dc];W[gd];B[gc];W[hd];B[cg]
;W[bd];B[ci];W[hc];B[bc];W[cj];B[dj];W[ei];B[ck];W[bj];B[bi]
;W[bk];B[cl];W[bl];B[cm];W[bm];B[cn];W[ej];B[dk];W[bf];B[cp]
;W[eg];B[cq];W[hq];B[jq];W[nc];B[qf];W[qm];B[ne];W[pc];B[qc]
;W[qd];B[rd];W[od];B[qe];W[oe];B[ng];W[nf];B[mf];W[of];B[lh]
;W[nh];B[fq];W[fp];B[gq];W[gp];B[hr];W[hp];B[ir];W[eq];B[eo]
;W[er];B[gr];W[ep];B[cr];W[bn];B[bo];W[jo];B[lp];W[lo];B[mo]
;W[kp];B[lq];W[lm];B[jh];W[og];B[ke];W[qo];B[po];W[ro];B[rp]
;W[pn];B[oo];W[pb];B[rh];W[ri];B[qh];W[jf];B[mg];W[kf];B[ld]
;W[ki];B[kh];W[mj];B[ji];W[kj];B[jj];W[il];B[ik];W[hl];B[kc]
;W[sp];B[sq];W[so];B[rq];W[mn];B[nn];W[nm];B[on];W[om];B[kk]
;W[mi];B[pi];W[lb];B[mb];W[mc];B[lc];W[nb];B[kb];W[ma];B[jd]
;W[hf];B[pj];W[mp];B[no];W[jl];B[jk];W[hb];B[kl];W[km];B[pl]
;W[pm];B[mk];W[nk];B[ml];W[ok];B[mm];W[ln];B[hi];W[pk];B[bh]
;W[bg];B[an];W[ch];B[gm];W[do];B[en];W[dp];B[co];W[hm];B[gn]
;W[kq];B[kr];W[jp];B[dh];W[eh];B[am];W[ch];B[al];W[ah];B[gb]
;W[rb];B[qb];W[qa];B[rc];W[dn];B[em];W[ek];B[gj];W[lr];B[mq]
;W[ih];B[lf];W[hh];B[gh];W[md];B[gg];W[me];B[le];W[gf];B[ii]
;W[ac];B[ab];W[ad];B[cb];W[hn];B[si];W[sj];B[sh];W[rj];B[ed]
;W[cs];B[bs];W[ds];B[ar];W[iq];B[jr];W[pe];B[pg];W[oh];B[ph]
;W[ga];B[fa];W[ha];B[go];W[ho];B[ie];W[if];B[sb];W[hk];B[hj]
;W[dm];B[el];W[fl];B[gl];W[gk];B[dl];W[ra];B[nl];W[ol];B[ak]
;W[ai];B[fr];W[qd];B[ka];W[ao];B[ap];W[rf];B[sf];W[fd];B[ec]
;W[ee];B[he];W[ge];B[fg];W[ff];B[la];W[cd];B[mb];W[pf];B[re]
;W[lb];B[fs];W[kg];B[mb];W[mh];B[lg];W[lb];B[oi];W[mb];B[fm]
;W[fk];B[fo];W[jc];B[je];W[jb];B[ja];W[aj];B[ao];W[ni];B[oj]
;W[nj];B[pd];W[ia];B[ic];W[ib];B[id];W[qd];B[sc];W[pd])

(;GM[1]BS[0]WS[0]BL[1800.0]WL[1800.0]SZ[19]DT[1993-12-17]PC[Shanghai]ID[ 6/3]RE[W+6.5]PW[Kobayashi Koichi]PB[Ma Xiaochun]BR[9 Dan]WR[9 Dan]BT[China]WT[Japan]FF[3];B[pd];W[dd];B[pp];W[cq];B[fc];W[cf];B[ic];W[qf];B[re]
;W[pj];B[ql];W[jq];B[dn];W[ep];B[ck];W[nd];B[ne];W[od];B[oe]
;W[pc];B[qd];W[qc];B[rc];W[md];B[pf];W[kc];B[ok];W[ni];B[db]
;W[nq];B[ch];W[cc];B[pq];W[no];B[oj];W[oi];B[pi];W[ph];B[qi]
;W[qn];B[on];W[rp];B[qo];W[ro];B[pn];W[qm];B[rl];W[qr];B[pr]
;W[rr];B[me];W[mm];B[mk];W[mj];B[lk];W[ki];B[nb];W[ob];B[fo]
;W[fp];B[jo];W[nl];B[pm];W[nk];B[rn];W[qh];B[ri];W[nj];B[qs]
;W[rs];B[qq];W[rq];B[so];W[go];B[lo];W[kp];B[ko];W[or];B[ps]
;W[hp];B[iq];W[ip];B[lq];W[lr];B[nn];W[kl];B[mn];W[jb];B[ld]
;W[lc];B[qb];W[pb];B[qa];W[rb];B[sb];W[kd];B[le];W[mb];B[oa]
;W[nc];B[cb];W[fd];B[gc];W[cm];B[cn];W[dm];B[cp];W[bq];B[bm]
;W[bl];B[cl];W[bn];B[am];W[al];B[em];W[dl];B[ek];W[el];B[fl]
;W[an];B[bm];W[am];B[dk];W[bm];B[fm];W[fk];B[hl];W[fj];B[bo]
;W[ao];B[ap];W[bp];B[jj];W[jk];B[ij];W[kj];B[gi];W[fi];B[fh]
;W[gh];B[gj];W[dh];B[eh];W[di];B[ei];W[ci];B[bk];W[co];B[mh]
;W[nh];B[og];W[oh];B[rh];W[jh];B[bh];W[bi];B[ai];W[bg];B[kr]
;W[lp];B[mr];W[jr];B[nr];W[mq];B[ls];W[kq];B[lr];W[oq];B[os]
;W[bb];B[ej];W[hb];B[jf];W[mg];B[lg];W[lh];B[ng];W[ol];B[pk]
;W[mi];B[ef];W[cg];B[ah];W[ag];B[aj];W[dg];B[fe];W[ed];B[gd]
;W[ig];B[ir];W[jp];B[js];W[hs];B[ba];W[ab];B[hr];W[gr];B[is]
;W[gs];B[ns];W[rg];B[ak];W[bo];B[ib];W[ia];B[ra];W[na];B[hh]
;W[if];B[je];W[ie];B[gf];W[hc];B[jd];W[hd];B[en];W[gb];B[fb]
;W[ik];B[kg];W[hk];B[gk];W[hj];B[ii];W[hq];B[ks];W[ke];B[kf]
;W[mf];B[nf];W[lm];B[ih];W[jg];B[gn];W[hn];B[hm];W[pl];B[qj]
;W[in];B[jm];W[im];B[il];W[jl];B[io];W[ho];B[jn];W[eo];B[bd]
;W[be];B[ee];W[de];B[bc];W[cd];B[hg];W[fn];B[gq];W[gp];B[fo]
;W[eg];B[fg];W[fn];B[fq];W[fr];B[fo];W[ec];B[eb];W[fn];B[ca]
;W[ad];B[fo];W[he];B[ge];W[fn];B[eq];W[er];B[fo];W[jc];B[id]
;W[fn];B[dq];W[dr];B[fo];W[sp];B[sr];W[fn];B[aa];W[ac];B[fo]
;W[qk];B[rk];W[fn];B[gm];W[qe];B[pe];W[sg];B[sf];W[oo];B[po]
;W[mo];B[ln];W[km];B[pa];W[sh];B[rf];W[qg];B[do];W[dp];B[ga]
;W[si];B[sj];W[ha];B[fa];W[fo])

(;GM[1]BS[0]WS[0]SZ[19]DT[1994-12-10]BR[9 Dan]WR[9 Dan]KM[5.5]ID[ 7/1]RO[1]PC[Akasaka, Tokyo]PB[Ma Xiaochun]PW[Kobayashi Koichi]RE[B+R]TM[3h]FF[3]WT[Japan]BT[China];B[pd];W[dd];B[qp];W[dq];B[oq];W[qj];B[ql];W[qg];B[qe]
;W[mc];B[nd];W[ob];B[pb];W[oc];B[pc];W[jc];B[co];W[cm];B[cf]
;W[cj];B[cc];W[cd];B[dc];W[ed];B[bd];W[be];B[bc];W[ce];B[fc]
;W[jp];B[hq];W[ep];B[ho];W[jn];B[hm];W[dn];B[il];W[jl];B[jk]
;W[kl];B[kk];W[ml];B[nk];W[lk];B[lj];W[ik];B[kj];W[hk];B[fn]
;W[iq];B[do];W[eo];B[en];W[hr];B[fl];W[fj];B[dl];W[cl];B[dj]
;W[ci];B[hi];W[ii];B[ih];W[gi];B[hh];W[hj];B[gq];W[gr];B[fq]
;W[dm];B[fr];W[dr];B[bq];W[bp];B[cp];W[cq];B[ap];W[br];B[ar]
;W[aq];B[jr];W[ir];B[bq];W[fs];B[es];W[aq];B[em];W[bo];B[ej]
;W[fk];B[dk];W[eh];B[io];W[kq];B[ip];W[el];B[ek];W[fd];B[gc]
;W[mq];B[pk];W[pj];B[ri];W[qk];B[pl];W[rf];B[rl];W[rj];B[ef]
;W[ei];B[ph];W[pg];B[oh];W[qh];B[gf];W[id];B[bf];W[df];B[kd]
;W[kc];B[md];W[og];B[dg];W[eg];B[de];W[ff];B[fe];W[fg];B[ge]
;W[ee];B[hc];W[af];B[df];W[bg];B[nc];W[if];B[he];W[jh];B[jg]
;W[ig];B[kh];W[ke];B[ji];W[ld];B[mb];W[me];B[ne];W[lc];B[nb]
;W[mf];B[nf];W[ng];B[mg];W[ib];B[ja];W[lb];B[la];W[ka];B[kb]
;W[ma];B[na];W[jb];B[ka];W[ia];B[ma];W[lg];B[mh];W[kg];B[lh]
;W[kf];B[rh];W[re];B[rd];W[sd];B[rc];W[nh];B[oi];W[oj];B[ni]
;W[nj];B[mj])

(;GM[1]BS[0]WS[0]SZ[19]DT[1994-12-12]FF[3]ID[ 7/2]BR[9 Dan]WR[9 Dan]KM[5.5]WT[China]BT[Japan]RO[2]PC[Akasaka, Tokyo]PB[Kobayashi Koichi]PW[Ma Xiaochun]RE[B+R]TM[3h];B[pd];W[dp];B[pq];W[dd];B[qo];W[jq];B[cn];W[fp];B[ck]
;W[co];B[bo];W[bp];B[ch];W[fc];B[lq];W[qj];B[qh];W[qm];B[nc]
;W[jd];B[bn];W[jo];B[on];W[qf];B[qd];W[of];B[pi];W[ok];B[ni]
;W[md];B[ne];W[nd];B[oe];W[oc];B[pj];W[pk];B[rj];W[rk];B[qi]
;W[qk];B[me];W[le];B[od];W[mc];B[lf];W[ke];B[gd];W[cg];B[fd]
;W[bh];B[dc];W[ec];B[ed];W[cc];B[db];W[cb];B[de];W[cd];B[gc]
;W[eb];B[fb];W[da];B[ci];W[ef];B[ic];W[jb];B[bg];W[cf];B[ff]
;W[fg];B[bf];W[gf];B[ee];W[ce];B[df];W[cl];B[dl];W[dk];B[dj]
;W[ek];B[dm];W[ej];B[eg];W[fh];B[ei];W[eh];B[ge];W[bi];B[bj]
;W[dh];B[ah];W[oq];B[pp];W[pr];B[qr];W[mp];B[mq];W[op];B[or]
;W[oo];B[nq];W[di];B[cj];W[fm];B[cq];W[cp];B[bq];W[hf];B[dg]
;W[mh];B[mi];W[li];B[lh];W[lg];B[kh];W[mf];B[nf];W[mg];B[lj]
;W[ki];B[fl];W[kj];B[el];W[dq];B[hh];W[gj];B[hj];W[gk];B[jh]
;W[gl];B[kk];W[lk];B[jj];W[mj];B[ji];W[lj];B[gg];W[gh];B[nj]
;W[jk];B[kf];W[ap];B[kl];W[ll];B[km];W[nk];B[jr];W[ir];B[kr]
;W[ik];B[lo];W[ln];B[mo];W[nn];B[hr];W[iq];B[mn];W[lm];B[is]
;W[pn];B[pb];W[ob];B[pc];W[nb];B[hq];W[hp];B[er];W[dr];B[fq]
;W[rn];B[gp];W[go];B[gq];W[ho];B[ds];W[cs];B[es];W[br];B[ko]
;W[kn];B[hg];W[ri];B[rh];W[sj];B[jf];W[sh];B[rg];W[ie];B[fn]
;W[rp];B[ro];W[so];B[rq];W[sg];B[sf];W[si];B[rf];W[hi];B[ij]
;W[hk];B[if];W[he];B[gm];W[hm];B[gn];W[be];B[mm];W[nm];B[jc]
;W[kc];B[ib];W[kb];B[ml];W[hn];B[jp];W[en];B[jn];W[mk];B[io]
;W[bl];B[dn];W[ao];B[am];W[an];B[bm];W[fo];B[jm];W[eq];B[fr]
;W[ip];B[nl];W[pa];B[qa];W[oa];B[qb];W[gb];B[hb];W[fa];B[qp]
;W[kg];B[jg];W[ii];B[nh])

(;GM[1]BS[0]WS[0]SZ[19]DT[1994-12-13]ID[ 7/3]FF[3]BR[9 Dan]WR[9 Dan]KM[5.5]WT[China]BT[Japan]RO[3]PC[Akasaka, Tokyo]PB[Kobayashi Koichi]PW[Ma Xiaochun]RE[W+5.5]TM[3h];B[pd];W[dd];B[pq];W[dp];B[qo];W[jq];B[cn];W[fp];B[ck]
;W[pr];B[or];W[qf];B[qh];W[qc];B[qd];W[pc];B[od];W[rd];B[re]
;W[rc];B[qe];W[nc];B[lq];W[co];B[bo];W[bp];B[ch];W[fc];B[pk]
;W[oq];B[op];W[nq];B[nr];W[np];B[mq];W[pp];B[qq];W[oo];B[qp]
;W[mn];B[me];W[mk];B[gp];W[fq];B[do];W[cp];B[om];W[lo];B[kp]
;W[of];B[oh];W[mf];B[mc];W[nb];B[nd];W[lh];B[lf];W[mg];B[jd]
;W[rf];B[sf];W[sg];B[se];W[ph];B[pg];W[pf];B[rh];W[mb];B[ml]
;W[ll];B[lk];W[nl];B[mj];W[mm];B[nj];W[jf];B[kk];W[le];B[ld]
;W[ke];B[kd];W[jh];B[rg];W[pn];B[cc];W[cd];B[dc];W[ec];B[bd]
;W[be];B[bb];W[dg];B[if];W[ig];B[ie];W[dh];B[ci];W[gg];B[hq]
;W[jn];B[io];W[gr];B[ad];W[bn];B[bm];W[ao];B[ee];W[ge];B[hf]
;W[gf];B[ce];W[de];B[cf];W[df];B[cg];W[hr];B[kf];W[qn];B[ki]
;W[li];B[lj];W[ji];B[ql];W[cm];B[ko];W[bl];B[kn];W[jl];B[ij]
;W[po];B[rn];W[rm];B[ro];W[qm];B[ol];W[il];B[gi];W[gh];B[gl]
;W[gm];B[fm];W[gn];B[ii];W[ih];B[in];W[on];B[nm];W[nn];B[kl]
;W[hm];B[dn];W[cl];B[bk];W[dl];B[fn];W[go];B[fk];W[ip];B[rl]
;W[kb];B[hc];W[og];B[pi];W[db];B[cb];W[kr];B[fh];W[el];B[fl]
;W[fi];B[ei];W[fj];B[hg];W[hh];B[ej];W[gj];B[eh];W[jj];B[hk]
;W[hi];B[ek];W[fg];B[oc];W[ob];B[lb];W[la];B[lc];W[lr];B[mr]
;W[ma];B[ho];W[hp];B[jp];W[iq];B[jm];W[im];B[km];W[ak];B[aj]
;W[al];B[cj];W[ib];B[hb];W[ic];B[hd];W[da];B[ca];W[fa];B[nk]
;W[ml];B[kj];W[kh];B[sm];W[nh];B[ni];W[ne];B[je];W[hj];B[ik]
;W[eo];B[en];W[fo];B[sd];W[sc];B[mi];W[mh];B[lp];W[mo];B[jc]
;W[jb];B[gd];W[fd];B[eg];W[ef];B[oe];W[nf];B[ls];W[ks];B[ms]
;W[qg];B[kq];W[jr];B[ph];W[pm];B[pl];W[jg];B[ia])
