(;GM[1]VW[]SZ[19]
EV[11th Kisei Title, Game 3
PW[Kobayashi Koichi]
PB[Takemiya Masaki]
DT[4,5 Feb 1987]
C[Commentary available in Go World #50, Fall 1987]
RE[Black resigns after White 156]
;B[pd]
;W[dc]
;B[pq]
;W[cp]
;B[ep]
;W[eq]
;B[fq]
;W[dq]
;B[gp]
;W[dn]
;B[qo]
;W[hq]
;B[hp]
;W[iq]
;B[gr]
;W[ip]
;B[io]
;W[jo]
;B[jn]
;W[in]
;B[ho]
;W[ko]
;B[im]
;W[kn]
;B[hn]
;W[nq]
;B[ce]
;W[ck]
;B[gc]
;W[ed]
;B[jc]
;W[cd]
;B[km]
;W[lm]
;B[kl]
;W[qf]
;B[nd]
;W[rd]
;B[qc]
;W[qi]
;B[de]
;W[ee]
;B[ef]
;W[gd]
;B[hd]
;W[ge]
;B[fc]
;W[dg]
;B[df]
;W[bd]
;B[cg]
;W[he]
;B[id]
;W[ci]
;B[dh]
;W[oo]
;B[kq]
;W[lp]
;B[po]
;W[or]
;B[pr]
;W[hr]
;B[qk]
;W[qj]
;B[pf]
;W[qg]
;B[rj]
;W[pk]
;B[ql]
;W[ri]
;B[jf]
;W[hg]
;B[di]
;W[dj]
;B[bi]
;W[bj]
;B[ej]
;W[ek]
;B[fk]
;W[fj]
;B[ei]
;W[el]
;B[ch]
;W[cj]
;B[er]
;W[dr]
;B[rc]
;W[lf]
;B[mg]
;W[lg]
;B[lh]
;W[jg]
;B[if]
;W[kh]
;B[ig]
;W[li]
;B[ih]
;W[eb]
;B[mh]
;W[kj]
;B[np]
;W[mp]
;B[nj]
;W[mk]
;B[mj]
;W[lk]
;B[pl]
;W[nm]
;B[ll]
;W[ml]
;B[no]
;W[mr]
;B[on]
;W[ok]
;B[mi]
;W[mf]
;B[nf]
;W[ne]
;B[og]
;W[oe]
;B[pe]
;W[of]
;B[ng]
;W[md]
;B[od]
;W[me]
;B[pg]
;W[kk]
;B[pj]
;W[rk]
;B[ln]
;W[hl]
;B[il]
;W[ik]
;B[ji]
;W[ki]
;B[hk]
;W[ij]
;B[jp]
;W[jq]
;B[hj]
;W[mm]
;B[do]
;W[co]
;B[en]
;W[hi]
;B[gi]
;W[gl]
;B[fi]
;W[em]
;B[cn]
;W[dm]
;B[lo]
;W[kp]
;B[nn]
;W[jl]
;B[jm]
;W[hm]
;B[jk]
;W[jj]
;B[fo]
;W[dp]
;B[gn]
;W[gq]
)
