(;GM[1]VW[]SZ[19]
PB[Takemiya Masaki, 9 dan]
PW[Cho Chikun, Kisei & Meijin]
DT[21-22 Feb 1985]
PC[Sapporo, Japan]
RE[White wins by 1/2]
C[Commentary available in Go World #40, Summer 1985]
KM[5]
;B[pd]
;W[cq]
;B[pp]
;W[cc]
;B[pj]
;W[nc]
;B[lc]
;W[qc]
;B[qd]
;W[pc]
;B[od]
;W[rc]
;B[nd]
;W[nb]
;B[dd]
;W[cd]
;B[de]
;W[eb]
;B[gd]
;W[bf]
;B[jp]
;W[qn]
;B[qo]
;W[pn]
;B[np]
;W[pl]
;B[nk]
;W[qj]
;B[qi]
;W[qk]
;B[ri]
;W[nm]
;B[ll]
;W[mn]
;B[lp]
;W[pi]
;B[oj]
;W[ph]
;B[qg]
;W[pg]
;B[qf]
;W[mg]
;B[ni]
;W[kf]
;B[ng]
;W[kd]
;B[rn]
;W[ko]
;B[kp]
;W[rm]
;B[ro]
;W[kc]
;B[dg]
;W[nf]
;B[of]
;W[nh]
;B[og]
;W[di]
;B[fg]
;W[ep]
;B[dl]
;W[cn]
;B[gp]
;W[fi]
;B[gl]
;W[oo]
;B[op]
;W[ol]
;B[ej]
;W[ei]
;B[hg]
;W[ch]
;B[ld]
;W[lb]
;B[fq]
;W[fc]
;B[fd]
;W[he]
;B[gc]
;W[eq]
;B[gn]
;W[ic]
;B[id]
;W[ie]
;B[ge]
;W[er]
;B[fr]
;W[fo]
;B[go]
;W[fs]
;B[gs]
;W[es]
;B[gr]
;W[el]
;B[em]
;W[dm]
;B[ek]
;W[cl]
;B[fl]
;W[dj]
;B[dn]
;W[cm]
;B[kn]
;W[mh]
;B[oh]
;W[le]
;B[ib]
;W[jk]
;B[do]
;W[co]
;B[dp]
;W[dq]
;B[no]
;W[nn]
;B[po]
;W[on]
;B[mi]
;W[ij]
;B[jc]
;W[md]
;B[me]
;W[mc]
;B[mf]
;W[lf]
;B[ne]
;W[kh]
;B[eo]
;W[jn]
;B[jo]
;W[in]
;B[km]
;W[il]
;B[rj]
;W[rk]
;B[sd]
;W[rd]
;B[re]
;W[qh]
;B[rh]
;W[gb]
;B[ec]
;W[fb]
;B[dc]
;W[db]
;B[ce]
;W[be]
;B[cg]
;W[bg]
;B[jg]
;W[ih]
;B[ig]
;W[gh]
;B[gg]
;W[hc]
;B[hd]
;W[hb]
;B[jd]
;W[jb]
;B[jh]
;W[ji]
;B[sc]
;W[sb]
;B[se]
;W[je]
;B[oc]
;W[ob]
;B[rb]
;W[qb]
;B[sa]
;W[fp]
;B[hh]
;W[hi]
;B[ii]
;W[hj]
;B[fn]
;W[cf]
;B[df]
;W[cp]
;B[qa]
;W[pb]
;B[dk]
;W[ck]
;B[sm]
;W[sl]
;B[sn]
;W[qm]
;B[en]
;W[io]
;B[ip]
;W[sj]
;B[ki]
;W[kj]
;B[li]
;W[lh]
;B[jj]
;W[lk]
;B[mo]
;W[ln]
;B[lo]
;W[ji]
;B[mk]
;W[ih]
;B[kg]
;W[lg]
;B[ii]
;W[fj]
;B[fk]
;W[ih]
;B[jm]
;W[im]
;B[ii]
;W[rg]
;B[sg]
;W[ih]
;B[lj]
;W[kk]
;B[ii]
;W[hf]
;B[jj]
;W[gf]
;B[ff]
;W[ji]
;B[eh]
;W[ih]
;B[kb]
;W[ka]
;B[ii]
;W[si]
;B[rf]
;W[ih]
;B[ja]
;W[ia]
;B[ii]
;W[ho]
;B[jj]
;W[hp]
;B[hq]
;W[ji]
;B[sh]
;W[ih]
;B[sk]
;W[sj]
;B[ii]
;W[ml]
;B[lm]
;W[ih]
;B[si]
;W[ii]
;B[sk]
;W[ee]
;B[ef]
;W[sj]
;B[hk]
;W[sk]
;B[ik]
;W[jl]
;B[hm]
;W[hl]
;B[gk]
;W[hn]
;B[gm]
;W[dh]
;B[fh]
;W[gi]
;B[jf]
;W[pa]
;B[sb]
;W[ra]
;B[if]
;W[ke]
;B[qa]
)
