(
;GaMe[1]
VieW[]
SiZe[19]
Comment[ 10'th Kisei title Game 1
 Taken from 1986 Go Yearbook]
;B[oc]
;W[pp]
;B[dq]
;W[dc]
;B[ce]
;W[di]
;B[fe]
;W[gc]
;B[ck]
;W[fi]
;B[do]
;W[qd]
;B[nq]
;W[qn]
;B[pr]
;W[ld]
;B[qh]
;W[pc]
;B[qk]
;W[qq]
;B[kq]
;W[el]
;B[cc]
;W[cb]
;B[dd]
;W[bc]
;B[ec]
;W[cd]
;B[db]
;W[cc]
;B[fc]
;W[be]
;B[gd]
;W[od]
;B[cm]
;W[hc]
;B[de]
;W[hd]
;B[he]
;W[ie]
;B[hf]
;W[cg]
;B[jd]
;W[jc]
;B[ip]
;W[ho]
;B[io]
;W[hn]
;B[gq]
;W[je]
;B[jm]
;W[hl]
;B[qf]
;W[of]
;B[qm]
;W[rm]
;B[rl]
;W[pm]
;B[ql]
;W[qr]
;B[rn]
;W[ro]
;B[sm]
;W[pn]
;B[so]
;W[rp]
;B[re]
;W[rd]
;B[bi]
;W[cf]
;B[gh]
;W[ep]
;B[dp]
;W[gi]
;B[hi]
;W[hj]
;B[ii]
;W[ij]
;B[jg]
;W[dl]
;B[cl]
;W[ji]
;B[jh]
;W[fh]
;B[ki]
;W[jj]
;B[gg]
;W[mp]
;B[mq]
;W[kp]
;B[jq]
;W[fo]
;B[eq]
;W[lf]
;B[oo]
;W[mn]
;B[nn]
;W[nm]
;B[mm]
;W[no]
;B[on]
;W[lm]
;B[ml]
;W[op]
;B[ln]
;W[mo]
;B[om]
;W[ol]
;B[nl]
;W[po]
;B[nm]
;W[ll]
;B[lk]
;W[kl]
;B[og]
;W[ng]
;B[pf]
;W[oe]
;B[oh]
;W[nh]
;B[kf]
;W[lg]
;B[ke]
;W[kd]
;B[pl]
;W[nj]
;B[ok]
;W[mk]
;B[nk]
;W[mj]
;B[sd]
;W[sc]
;B[se]
;W[rc]
;B[kn]
;W[np]
;B[jl]
;W[kk]
;B[or]
;W[in]
;B[jn]
;W[gp]
;B[hq]
;W[bh]
;B[ci]
;W[kh]
;B[qs]
;W[rs]
;B[ps]
;W[rr]
;B[gb]
;W[hb]
;B[ch]
;W[bg]
;B[en]
;W[fn]
;B[fb]
;W[oi]
;B[pi]
;W[oj]
;B[pj]
;W[if]
;B[ig]
;W[dj]
;B[ha]
;W[ia]
;B[ga]
;W[ib]
;B[em]
;W[fm]
;B[kg]
;W[lh]
;B[ca]
;W[ba]
;B[da]
;W[ai]
;B[bj]
;W[qe]
;B[rf]
;W[lq]
;B[lr]
;W[lp]
;B[jp]
;W[ef]
;B[le]
;W[me]
;B[ff]
;W[ee]
;B[ed]
;W[dh]
;B[eg]
;W[df]
;B[fg]
;W[cj]
;B[bk]
;W[dm]
;B[dn]
;W[jk]
;B[il]
;W[ik]
;B[im]
;W[hm]
;B[aj]
;W[ah]
;B[dk]
;W[ek]
;B[eh]
;W[ei]
;B[pe]
;W[pd]
;B[fq]
;W[fp]
;B[sp]
;W[sq]
;B[sn]
;W[oq]
)
