(;GM[1]VW[]SZ[19]
PB[Rin Kaiho, Honinbo]
PW[Cho Chikun, Kisei & Meijin]
DT[1984]
PC[Naha, Japan]
RE[Black wins by 2 1/2]
KM[5]
;B[pd]
;W[dc]
;B[dq]
;W[pp]
;B[ce]
;W[di]
;B[fe]
;W[gc]
;B[dk]
;W[fi]
;B[hd]
;W[gd]
;B[ge]
;W[he]
;B[jd]
;W[hf]
;B[hc]
;W[gb]
;B[ed]
;W[cc]
;B[eh]
;W[fg]
;B[gg]
;W[gf]
;B[ec]
;W[eb]
;B[db]
;W[cb]
;B[fh]
;W[ff]
;B[fb]
;W[da]
;B[gi]
;W[ee]
;B[dh]
;W[nc]
;B[qg]
;W[co]
;B[cm]
;W[qc]
;B[pc]
;W[qd]
;B[pe]
;W[pb]
;B[ob]
;W[qb]
;B[oc]
;W[qe]
;B[nd]
;W[gj]
;B[hi]
;W[dj]
;B[ck]
;W[fj]
;B[hj]
;W[gl]
;B[hk]
;W[eo]
;B[gk]
;W[fq]
;B[cp]
;W[cn]
;B[fk]
;W[bp]
;B[fp]
;W[cq]
;B[ef]
;W[de]
;B[dd]
;W[fd]
;B[gq]
;W[fr]
;B[dp]
;W[dr]
;B[bq]
;W[cr]
;B[ep]
;W[bo]
;B[gr]
;W[er]
;B[ho]
;W[nq]
;B[qf]
;W[ql]
;B[qp]
;W[qo]
;B[pq]
;W[qq]
;B[rp]
;W[ro]
;B[op]
;W[po]
;B[oq]
;W[qr]
;B[np]
;W[lp]
;B[lq]
;W[kq]
;B[mq]
;W[iq]
;B[jo]
;W[gp]
;B[hp]
;W[go]
;B[gn]
;W[fo]
;B[hq]
;W[ko]
;B[jp]
;W[nn]
;B[mn]
;W[mm]
;B[ln]
;W[ld]
;B[jf]
;W[lf]
;B[kg]
;W[of]
;B[pf]
;W[lg]
;B[lh]
;W[mh]
;B[mi]
;W[jc]
;B[nh]
;W[kd]
;B[nm]
;W[bf]
;B[df]
;W[be]
;B[cd]
;W[bd]
;B[nl]
;W[bh]
;B[ci]
;W[qi]
;B[mg]
;W[ig]
;B[jh]
;W[os]
;B[id]
;W[hb]
;B[or]
;W[ok]
;B[on]
;W[ns]
;B[ms]
;W[mc]
;B[en]
;W[do]
;B[bi]
;W[nj]
;B[mj]
;W[fn]
;B[fm]
;W[og]
;B[re]
;W[rd]
;B[oh]
;W[ne]
;B[pi]
;W[qj]
;B[rg]
;W[nb]
;B[oa]
;W[se]
;B[rf]
;W[sb]
;B[pr]
;W[em]
;B[rr]
;W[rq]
;B[qs]
;W[sp]
;B[fl]
;W[je]
;B[ie]
;W[qh]
;B[ph]
;W[if]
;B[ke]
;W[le]
;B[pg]
;W[ic]
;B[sj]
;W[fe]
;B[cf]
;W[ri]
;B[si]
;W[sh]
;B[rh]
;W[sk]
;B[sg]
;W[rj]
;B[bm]
;W[nk]
;B[mk]
;W[ih]
;B[ii]
;W[sh]
;B[dm]
;W[dn]
;B[ch]
;W[el]
;B[ek]
;W[bg]
;B[na]
;W[ma]
;B[md]
;W[me]
;B[od]
;W[lc]
;B[pn]
;W[qn]
;B[pa]
;W[qa]
;B[pl]
;W[pk]
;B[fc]
;W[fa]
;B[rs]
;W[an]
;B[sd]
;W[sc]
;B[am]
;W[jg]
;B[kf]
;W[bn]
;B[qm]
;W[rm]
;B[pm]
;W[si]
;B[ah]
;W[ag]
;B[ai]
;W[oo]
;B[no]
;W[ol]
;B[fs]
;W[es]
;B[gs]
;W[om]
;B[nn]
;W[sr]
;B[dl]
;W[en]
;B[kh]
;W[je]
;B[pj]
)
