(
;GaMe[1]
VieW[]
SiZe[19]
Comment[ 1990 Kisei game 5
 black: Kobayashi Koichi
 white: Otake Hideo
 Played on 28 feb, 1 march 1990
 Commentary in Go World #60, Summer 1990
 white resigns after black 179]
;B[pd]
;W[cp]
;B[pq]
;W[dd]
;B[eq]
;W[dn]
;B[iq]
;W[pn]
;B[ql]
;W[op]
;B[pp]
;W[po]
;B[oq]
;W[np]
;B[mr]
;W[lp]
;B[ol]
;W[nn]
;B[qg]
;W[jc]
;B[cf]
;W[kq]
;B[cq]
;W[bq]
;B[cr]
;W[dp]
;B[gp]
;W[ep]
;B[fq]
;W[pi]
;B[ri]
;W[ch]
;B[cc]
;W[dc]
;B[cd]
;W[de]
;B[bf]
;W[df]
;B[og]
;W[kf]
;B[if]
;W[cg]
;B[id]
;W[jd]
;B[db]
;W[eb]
;B[cb]
;W[ih]
;B[fc]
;W[gd]
;B[fd]
;W[ge]
;B[gc]
;W[gg]
;B[ic]
;W[nc]
;B[je]
;W[ke]
;B[ec]
;W[go]
;B[ho]
;W[hn]
;B[eg]
;W[fe]
;B[di]
;W[dg]
;B[gi]
;W[ig]
;B[dl]
;W[io]
;B[hp]
;W[ck]
;B[dk]
;W[cl]
;B[gl]
;W[gn]
;B[hk]
;W[ni]
;B[oj]
;W[ph]
;B[pg]
;W[nh]
;B[qj]
;W[qc]
;B[pc]
;W[pb]
;B[ob]
;W[qb]
;B[oc]
;W[re]
;B[lc]
;W[ib]
;B[hb]
;W[rg]
;B[rh]
;W[qf]
;B[ld]
;W[oe]
;B[nd]
;W[ne]
;B[me]
;W[pe]
;B[ci]
;W[dm]
;B[eh]
;W[hf]
;B[jb]
;W[rq]
;B[rp]
;W[ro]
;B[rr]
;W[mf]
;B[sg]
;W[rf]
;B[mk]
;W[rm]
;B[rl]
;W[sp]
;B[qq]
;W[sr]
;B[sq]
;W[nb]
;B[le]
;W[kb]
;B[mb]
;W[rq]
;B[lf]
;W[ie]
;B[ia]
;W[lr]
;B[sq]
;W[el]
;B[ek]
;W[rq]
;B[he]
;W[qp]
;B[kh]
;W[ji]
;B[hh]
;W[hg]
;B[ki]
;W[jk]
;B[kj]
;W[jj]
;B[nf]
;W[kk]
;B[lk]
;W[oa]
;B[mc]
;W[na]
;B[pa]
;W[qa]
;B[ma]
;W[pa]
;B[jg]
;W[jr]
;B[br]
;W[bp]
;B[ir]
;W[is]
;B[hs]
;W[js]
;B[hr]
;W[jh]
;B[kg]
;W[fi]
;B[fh]
;W[gj]
;B[hj]
;W[ej]
;B[fk]
;W[fj]
;B[cj]
;W[gh]
;B[hi]
;W[bk]
;B[bj]
;W[bh]
;B[il]
)
