(;GM[1]VW[]SZ[19]
PB[Takemiya Masaki, Honinbo]
PW[Kato Masao, Oza]
DT[Go Weekly, November 8, '88.]
PC[36th Oza Match, game 1.]
RE[White wins.]
C[\F{1}{} \F{2}{} \F{3}{}
\F{4,265}{ko 258, 261, 264, 265}.
Black 265 is illegal, so white wins
]
;B[pd]
;W[dp]
;B[pp]
;W[dd]
;B[pj]
;W[dj]
;B[jp]
;W[jd]
;B[jj]
;W[nd]
;B[pf]
;W[pc]
;B[qc]
;W[oc]
;B[qb]
;W[nf]
;B[fp]
;W[dn]
;B[fn]
;W[qn]
;B[qo]
;W[pn]
;B[np]
;W[ql]
;B[cc]
;W[dc]
;B[cd]
;W[cf]
;B[bf]
;W[cg]
;B[db]
;W[eb]
;B[cb]
;W[fc]
;B[ce]
;W[de]
;B[qj]
;W[ok]
;B[ni]
;W[mk]
;B[mm]
;W[nn]
;B[mn]
;W[kk]
;B[li]
;W[jk]
;B[ij]
;W[ik]
;B[hj]
;W[hk]
;B[gj]
;W[gk]
;B[dq]
;W[cq]
;B[eq]
;W[qq]
;B[ro]
;W[oq]
;B[op]
;W[nq]
;B[pq]
;W[pr]
;B[qr]
;W[rr]
;B[mq]
;W[qs]
;B[bg]
;W[mr]
;B[nr]
;W[or]
;B[lr]
;W[cr]
;B[ms]
;W[io]
;B[ip]
;W[go]
;B[fo]
;W[mh]
;B[mi]
;W[mo]
;B[kn]
;W[nm]
;B[if]
;W[ke]
;B[he]
;W[gd]
;B[cl]
;W[cn]
;B[ch]
;W[bi]
;B[bh]
;W[bk]
;B[kf]
;W[lf]
;B[jf]
;W[id]
;B[lg]
;W[mg]
;B[le]
;W[mf]
;B[oa]
;W[pa]
;B[pb]
;W[ob]
;B[qa]
;W[nb]
;B[no]
;W[el]
;B[dr]
;W[pg]
;B[qg]
;W[of]
;B[pe]
;W[ph]
;B[qh]
;W[lh]
;B[kh]
;W[kg]
;B[jh]
;W[kj]
;B[ki]
;W[jo]
;B[ko]
;W[ho]
;B[hp]
;W[rk]
;B[cs]
;W[bs]
;B[ds]
;W[sh]
;B[nl]
;W[ol]
;B[sg]
;W[fg]
;B[cj]
;W[ci]
;B[di]
;W[ck]
;B[ej]
;W[dk]
;B[ai]
;W[bj]
;B[em]
;W[dm]
;B[nk]
;W[gm]
;B[ml]
;W[rn]
;B[sp]
;W[sq]
;B[qp]
;W[rq]
;B[rj]
;W[sk]
;B[sj]
;W[bq]
;B[gn]
;W[im]
;B[pl]
;W[pk]
;B[qk]
;W[pm]
;B[rl]
;W[rm]
;B[sl]
;W[ge]
;B[hn]
;W[jm]
;B[do]
;W[co]
;B[gf]
;W[ff]
;B[gg]
;W[eh]
;B[hd]
;W[hc]
;B[nh]
;W[gh]
;B[hh]
;W[oj]
;B[dg]
;W[df]
;B[dh]
;W[hg]
;B[hf]
;W[hi]
;B[ih]
;W[gi]
;B[pi]
;W[oi]
;B[oh]
;W[og]
;B[km]
;W[na]
;B[ep]
;W[eo]
;B[fl]
;W[fm]
;B[en]
;W[fk]
;B[ek]
;W[dl]
;B[hm]
;W[gl]
;B[do]
;W[cp]
;B[eg]
;W[ef]
;B[ei]
;W[fj]
;B[fh]
;W[ii]
;B[ji]
;W[fi]
;B[lk]
;W[kl]
;B[ah]
;W[ll]
;B[lj]
;W[nj]
;B[mj]
;W[da]
;B[ca]
;W[ea]
;B[gp]
;W[hl]
;B[aj]
;W[lm]
;B[ln]
;W[ak]
;B[os]
;W[ps]
;B[ns]
;W[rp]
;B[so]
;W[mp]
;B[lp]
;W[oo]
;B[lo]
;W[po]
;B[br]
;W[ar]
;B[od]
;W[ne]
;B[mc]
;W[nc]
;B[ld]
;W[kb]
;B[jg]
;W[je]
;B[pa]
;W[eh]
;B[eo]
;W[fh]
;B[lg]
;W[qd]
;B[rd]
;W[kg]
;B[in]
;W[jn]
;B[lg]
;W[qe]
;B[qf]
;W[kg]
)
