(
;GaMe[1]
VieW[]
SiZe[19]
Comment[ 32'nd Oza title, game 2
 White: Yamashiro Hiroshi
 Black: Kato Masao
 Played on 4 Oct 1984
 Commentary available in Go World #40, summer 1985
 White resigns after Black 155]
;B[pd]
;W[dd]
;B[cp]
;W[qq]
;B[eq]
;W[ck]
;B[cf]
;W[ce]
;B[df]
;W[fd]
;B[ci]
;W[cn]
;B[hc]
;W[ej]
;B[fg]
;W[ge]
;B[ie]
;W[hf]
;B[fi]
;W[if]
;B[ke]
;W[ch]
;B[dh]
;W[bg]
;B[cj]
;W[bf]
;B[dk]
;W[dj]
;B[cl]
;W[bk]
;B[bl]
;W[di]
;B[bh]
;W[cg]
;B[bj]
;W[gj]
;B[ek]
;W[fj]
;B[gl]
;W[jq]
;B[hq]
;W[dq]
;B[dp]
;W[mp]
;B[qf]
;W[pb]
;B[oc]
;W[ob]
;B[nb]
;W[qd]
;B[nc]
;W[pc]
;B[qe]
;W[rc]
;B[rd]
;W[qc]
;B[hh]
;W[gh]
;B[gg]
;W[eh]
;B[qo]
;W[op]
;B[ql]
;W[pk]
;B[qk]
;W[pj]
;B[om]
;W[mj]
;B[jf]
;W[qj]
;B[no]
;W[np]
;B[jh]
;W[hg]
;B[gi]
;W[fh]
;B[hi]
;W[ml]
;B[oo]
;W[pl]
;B[pm]
;W[rp]
;B[ro]
;W[pp]
;B[mo]
;W[po]
;B[pn]
;W[er]
;B[dr]
;W[fq]
;B[ep]
;W[hp]
;B[gp]
;W[ip]
;B[gq]
;W[hn]
;B[ol]
;W[nk]
;B[ni]
;W[nj]
;B[lo]
;W[km]
;B[lm]
;W[ll]
;B[mm]
;W[ng]
;B[oe]
;W[ir]
;B[fb]
;W[db]
;B[iq]
;W[kp]
;B[ho]
;W[io]
;B[go]
;W[hm]
;B[gn]
;W[hr]
;B[gr]
;W[kg]
;B[jg]
;W[id]
;B[hd]
;W[he]
;B[je]
;W[gb]
;B[hb]
;W[fc]
;B[oh]
;W[mi]
;B[re]
;W[rb]
;B[qh]
;W[jj]
;B[gc]
;W[eb]
;B[ga]
;W[ne]
;B[dg]
;W[ei]
;B[hj]
;W[eg]
;B[nh]
;W[mg]
;B[me]
;W[md]
;B[nd]
;W[le]
;B[nf]
;W[mf]
;B[ne]
;W[hk]
;B[gk]
;W[ef]
;B[ji]
)
