(;GM[1]VW[]SZ[19]
PB[Takemiya Honinbo]
PW[Michael Redmond, 6 dan]
DT[Gosei Chall., 1st round]
PC[Go Gong 15-2, Feb.,'89.]
RE[White wins by 1.5 points.]
C[50=36 62=36 116=108
235=108 266=34 267=12 269=35 270=39
271=34 271 moves
]
;B[pd]
;W[dp]
;B[pp]
;W[dc]
;B[pj]
;W[de]
;B[jd]
;W[jp]
;B[cj]
;W[ch]
;B[dn]
;W[cl]
;B[bn]
;W[fp]
;B[dk]
;W[nq]
;B[pn]
;W[qf]
;B[qe]
;W[pf]
;B[nd]
;W[qh]
;B[qi]
;W[oi]
;B[oj]
;W[ri]
;B[rj]
;W[pi]
;B[qj]
;W[ni]
;B[pr]
;W[co]
;B[cn]
;W[dl]
;B[el]
;W[ek]
;B[ej]
;W[em]
;B[fk]
;W[fl]
;B[fo]
;W[eo]
;B[en]
;W[fn]
;B[go]
;W[gk]
;B[gp]
;W[fq]
;B[gq]
;W[ek]
;B[do]
;W[ep]
;B[cp]
;W[cq]
;B[bp]
;W[gr]
;B[hr]
;W[fr]
;B[el]
;W[bq]
;B[ip]
;W[ek]
;B[jo]
;W[fj]
;B[gm]
;W[fm]
;B[bl]
;W[bk]
;B[al]
;W[ap]
;B[bo]
;W[kp]
;B[iq]
;W[jr]
;B[ko]
;W[lo]
;B[lp]
;W[lq]
;B[mp]
;W[mq]
;B[ln]
;W[pq]
;B[qq]
;W[oq]
;B[qp]
;W[or]
;B[nf]
;W[mj]
;B[og]
;W[pg]
;B[kj]
;W[kh]
;B[mh]
;W[oe]
;B[od]
;W[rg]
;B[si]
;W[re]
;B[rd]
;W[sd]
;B[sc]
;W[se]
;B[rc]
;W[rh]
;B[gd]
;W[le]
;B[ne]
;W[je]
;B[ie]
;W[kd]
;B[jf]
;W[jc]
;B[ke]
;W[id]
;B[hd]
;W[je]
;B[kf]
;W[lc]
;B[dh]
;W[dg]
;B[eg]
;W[df]
;B[fh]
;W[ic]
;B[db]
;W[eb]
;B[ec]
;W[ed]
;B[fc]
;W[cb]
;B[fb]
;W[nb]
;B[ea]
;W[bc]
;B[ck]
;W[bj]
;B[ci]
;W[bi]
;B[ei]
;W[gi]
;B[hj]
;W[hi]
;B[ij]
;W[gg]
;B[ff]
;W[gn]
;B[hm]
;W[gf]
;B[fe]
;W[if]
;B[he]
;W[ig]
;B[lf]
;W[hb]
;B[hc]
;W[il]
;B[im]
;W[li]
;B[jj]
;W[lj]
;B[ob]
;W[gb]
;B[gc]
;W[jm]
;B[jl]
;W[in]
;B[hn]
;W[hl]
;B[km]
;W[nc]
;B[qr]
;W[ir]
;B[jq]
;W[kq]
;B[hs]
;W[hq]
;B[hp]
;W[gs]
;B[ga]
;W[oc]
;B[pb]
;W[pc]
;B[qb]
;W[ia]
;B[bh]
;W[cg]
;B[no]
;W[fg]
;B[ef]
;W[nk]
;B[jn]
;W[kk]
;B[ll]
;W[lk]
;B[gl]
;W[hk]
;B[jk]
;W[lh]
;B[ok]
;W[nl]
;B[ol]
;W[mg]
;B[oa]
;W[ng]
;B[jd]
;W[lb]
;B[hq]
;W[ks]
;B[is]
;W[ms]
;B[of]
;W[pe]
;B[qd]
;W[nm]
;B[oh]
;W[nh]
;B[fi]
;W[gj]
;B[dm]
;W[ph]
;B[na]
;W[ma]
;B[md]
;W[ld]
;B[mc]
;W[mb]
;B[ak]
;W[bg]
;B[om]
;W[nn]
;B[on]
;W[sh]
;B[sj]
;W[mf]
;B[je]
;W[op]
;B[oo]
;W[ps]
;B[qs]
;W[os]
;B[ao]
;W[aq]
;B[js]
;W[kr]
;B[ca]
;W[ba]
;B[da]
;W[ah]
;B[aj]
;W[ai]
;B[cm]
;W[kl]
;B[nj]
;W[me]
;B[ee]
;W[lg]
;B[fa]
;W[ha]
;B[jh]
;W[jg]
;B[ih]
;W[kg]
;B[ii]
;W[ki]
;B[el]
;W[dl]
;B[cl]
;W[dd]
;B[el]
;W[fk]
;B[dl]
)
