(;GM[1]VW[]SZ[19]
;B[pd]
;W[dd]
;B[pq]
;W[cq]
;B[qo]
;W[kq]
;B[cf]
;W[ch]
;B[cn]
;W[fp]
;B[ck]
;W[ce]
;B[df]
;W[fd]
;B[eh]
;W[di]
;B[gf]
;W[ei]
;B[gd]
;W[fe]
;B[ge]
;W[ff]
;B[gg]
;W[eg]
;B[md]
;W[qi]
;B[gb]
;W[fb]
;B[qe]
;W[ql]
;B[mq]
;W[oc]
;B[pc]
;W[mc]
;B[lc]
;W[lb]
;B[ld]
;W[nb]
;B[kb]
;W[jb]
;B[kc]
;W[pb]
;B[qb]
;W[qa]
;B[ra]
;W[pa]
;B[rc]
;W[ka]
;B[nd]
;W[nc]
;B[cc]
;W[dc]
;B[be]
;W[cd]
;B[bd]
;W[bc]
;B[cb]
;W[bb]
;B[eb]
;W[db]
;B[ma]
;W[la]
;B[na]
;W[mb]
;B[oa]
;W[ob]
;B[na]
;W[hb]
;B[gc]
;W[ic]
;B[jc]
;W[id]
;B[je]
;W[ha]
;B[ib]
;W[ia]
;B[hc]
;W[ga]
;B[fc]
;W[fa]
;B[ec]
;W[ea]
;B[ed]
;W[bg]
;B[bf]
;W[fh]
;B[fg]
;W[fl]
;B[fn]
;W[hp]
;B[ek]
;W[fk]
;B[el]
;W[gi]
;B[bp]
;W[cp]
;B[bq]
;W[co]
;B[bo]
;W[dn]
;B[cm]
;W[em]
;B[fm]
;W[eo]
;B[ko]
;W[lp]
;B[hl]
;W[gk]
;B[in]
;W[ii]
;B[no]
;W[np]
;B[jq]
;W[mp]
;B[hq]
;W[gq]
;B[ip]
;W[hr]
;B[ir]
;W[iq]
;B[de]
;W[ca]
;B[hq]
;W[ie]
;B[if]
;W[iq]
;B[ji]
;W[ih]
;B[hj]
;W[ij]
;B[hk]
;W[gh]
;B[dg]
;W[dh]
;B[jf]
;W[jp]
;B[kk]
;W[ki]
;B[bi]
;W[jj]
;B[mj]
;W[gj]
;B[rj]
;W[qj]
;B[rk]
;W[qk]
;B[ri]
;W[qh]
;B[mh]
;W[ml]
;B[ol]
;W[nk]
;B[ll]
;W[mk]
;B[lj]
;W[io]
;B[rh]
;W[pg]
;B[pn]
;W[qf]
;B[rf]
;W[of]
;B[dm]
;W[en]
;B[hn]
;W[bh]
;B[lm]
;W[re]
;B[rd]
;W[od]
;B[oe]
;W[pm]
;B[om]
;W[qn]
;B[rn]
;W[rm]
;B[qm]
;W[hf]
;B[hg]
;W[qn]
;B[cj]
;W[kg]
;B[ej]
;W[fj]
;B[ef]
;W[ne]
;B[pe]
;W[mf]
;B[kf]
;W[lg]
;B[me]
;W[nf]
;B[lf]
;W[mg]
;B[qm]
;W[jd]
;B[kd]
;W[qn]
;B[fo]
;W[ep]
;B[qm]
;W[jl]
;B[jk]
;W[qn]
;B[oj]
;W[ro]
;B[qm]
;W[ke]
;B[le]
;W[qn]
;B[hh]
;W[hi]
;B[qm]
;W[ig]
;B[he]
;W[qn]
;B[po]
;W[sn]
;B[pl]
;W[rg]
;B[se]
;W[sg]
;B[rp]
;W[or]
;B[qm]
;W[rl]
;B[pr]
;W[nq]
;B[pf]
;W[qg]
;B[oh]
;W[og]
;B[cr]
;W[dr]
;B[br]
;W[sp]
;B[rn]
;W[rq]
;B[so]
;W[rb]
;B[sb]
;W[ro]
;B[qp]
;W[qn]
;B[ds]
;W[er]
;B[rn]
;W[so]
;B[rr]
;W[mo]
;B[qq]
;W[jn]
;B[kn]
;W[im]
;B[jo]
;W[hm]
;B[jm]
;W[ik]
;B[sq]
;W[qn]
;B[gm]
;W[il]
;B[rn]
;W[sm]
;B[mn]
;W[ho]
;B[op]
;W[go]
;B[gn]
;W[gl]
;B[jn]
;W[kl]
;B[lk]
;W[es]
)
