(;GM[1]VW[]SZ[19]
PB[Kato Masao, Tengen & Oza]
PW[Kataoka Satoshi, 7e dan]
DT[4 November 1982]
PC[Kashikojima in Mie Pref.]
RE[Zwart wint met 6 1/2 punt.]
KM[5]
;B[pd]
;W[dd]
;B[pq]
;W[cp]
;B[eq]
;W[qo]
;B[pl]
;W[pn]
;B[mp]
;W[rq]
;B[dn]
;W[cn]
;B[do]
;W[co]
;B[dm]
;W[cl]
;B[jp]
;W[qj]
;B[qg]
;W[ql]
;B[jc]
;W[fc]
;B[dk]
;W[ck]
;B[dj]
;W[hq]
;B[jq]
;W[ke]
;B[dl]
;W[dq]
;B[er]
;W[ld]
;B[gd]
;W[fd]
;B[ge]
;W[gc]
;B[hc]
;W[ji]
;B[ie]
;W[kh]
;B[jk]
;W[qc]
;B[qd]
;W[pc]
;B[oc]
;W[ob]
;B[nc]
;W[nb]
;B[mc]
;W[mb]
;B[lc]
;W[rd]
;B[re]
;W[rc]
;B[hj]
;W[kc]
;B[kb]
;W[jd]
;B[kd]
;W[pf]
;B[kc]
;W[oe]
;B[qi]
;W[pj]
;B[og]
;W[pg]
;B[ph]
;W[oh]
;B[nh]
;W[oi]
;B[of]
;W[pe]
;B[ne]
;W[nf]
;B[ng]
;W[mf]
;B[me]
;W[kk]
;B[mh]
;W[lh]
;B[mi]
;W[jl]
;B[jj]
;W[kj]
;B[kl]
;W[mj]
;B[lf]
;W[km]
;B[ll]
;W[lm]
;B[ml]
;W[mm]
;B[nl]
;W[li]
;B[on]
;W[no]
;B[oo]
;W[np]
;B[po]
;W[il]
;B[hk]
;W[om]
;B[nm]
;W[nn]
;B[pm]
;W[pp]
;B[qn]
;W[op]
;B[ol]
;W[rh]
;B[nj]
;W[qh]
;B[mk]
;W[mq]
;B[lq]
;W[mr]
;B[jn]
;W[jm]
;B[ef]
;W[ce]
;B[cg]
;W[ho]
;B[hn]
;W[gn]
;B[hm]
;W[io]
;B[in]
;W[ir]
;B[gp]
;W[jo]
;B[ko]
;W[kn]
;B[hp]
;W[ip]
;B[iq]
;W[go]
;B[jr]
;W[kr]
;B[lo]
;W[hr]
;B[is]
;W[fp]
;B[gq]
;W[fq]
;B[gr]
;W[fr]
;B[hs]
;W[fo]
;B[cm]
;W[bm]
;B[bn]
;W[bl]
;B[dp]
;W[hl]
;B[gm]
;W[gk]
;B[gl]
;W[fk]
;B[fl]
;W[gi]
;B[hi]
;W[hh]
;B[gj]
;W[fj]
;B[fi]
;W[ik]
;B[gh]
;W[ij]
;B[cq]
;W[bq]
;B[cr]
;W[bo]
;B[od]
;W[ii]
;B[gi]
;W[hb]
;B[qf]
;W[pi]
;B[bj]
;W[bf]
;B[br]
;W[ar]
;B[bg]
;W[ic]
;B[lr]
;W[ro]
;B[ms]
;W[nr]
;B[ns]
;W[os]
;B[ls]
;W[or]
;B[rl]
;W[rk]
;B[rm]
;W[rg]
;B[hd]
;W[ib]
;B[cf]
;W[be]
;B[ih]
;W[id]
;B[fe]
;W[cj]
;B[ci]
;W[if]
;B[hf]
;W[ig]
;B[hg]
;W[le]
;B[qe]
;W[ph]
;B[lj]
;W[mo]
;B[lp]
;W[sf]
;B[se]
;W[rf]
;B[kf]
;W[jf]
;B[de]
;W[ed]
;B[sd]
;W[sc]
;B[md]
;W[je]
;B[ma]
;W[la]
;B[lb]
;W[na]
;B[af]
;W[ae]
;B[ag]
;W[ee]
;B[df]
;W[bk]
;B[bi]
;W[lg]
;B[mg]
;W[mf]
;B[ap]
;W[aq]
;B[ak]
;W[an]
;B[nf]
;W[al]
;B[aj]
;W[lk]
;B[pk]
;W[qk]
;B[oj]
;W[mj]
;B[ni]
;W[qm]
;B[rn]
;W[sn]
;B[sk]
;W[sj]
;B[sl]
;W[kg]
;B[mf]
;W[jh]
;B[ka]
;W[ia]
;B[ln]
;W[pa]
;B[hh]
;W[lj]
;B[he]
;W[ma]
;B[bs]
)
