(
;GaMe[1]
VieW[]
SiZe[19]
EVent[International Tengen --- game 2]
PlayerBlack[Nieh Weiping]
PlayerWhite[Rin Kaiho]
DaTe[22 June 1992]
PlaCe[Tokyo, Prince Hotel]
REsult[Black wins by resignation]
Comment[ 
 
 
]
;B[pd]
;W[dd]
;B[pq]
;W[dp]
;B[qk]
;W[mp]
;B[po]
;W[jp]
;B[cn]
;W[cl]
;B[fq]
;W[dn]
;B[hq]
;W[eq]
;B[fp]
;W[co]
;B[jr]
;W[nc]
;B[pf]
;W[pb]
;B[lp]
;W[qp]
;B[pp]
;W[lo]
;B[lq]
;W[ko]
;B[mo]
;W[mn]
;B[no]
;W[df]
;B[cj]
;W[qc]
;B[ic]
;W[kc]
;B[db]
;W[ec]
;B[eb]
;W[gc]
;B[cc]
;W[cd]
;B[fc]
;W[fd]
;B[fb]
;W[ej]
;B[ld]
;W[ne]
;B[lc]
;W[jc]
;B[id]
;W[ke]
;B[nf]
;W[je]
;B[me]
;W[nd]
;B[mg]
;W[re]
;B[gd]
;W[ge]
;B[hd]
;W[lf]
;B[mf]
;W[og]
;B[of]
;W[qg]
;B[kh]
;W[hf]
;B[lm]
;W[qi]
;B[oi]
;W[pg]
;B[ok]
;W[qq]
;B[qo]
;W[pj]
;B[pk]
;W[im]
;B[ih]
;W[jg]
;B[jh]
;W[km]
;B[ll]
;W[kl]
;B[lk]
;W[ln]
;B[cq]
;W[er]
;B[cm]
;W[dm]
;B[bl]
;W[ck]
;B[bo]
;W[bk]
;B[cp]
;W[do]
;B[hg]
;W[ff]
;B[fh]
;W[eh]
;B[ob]
;W[nb]
;B[pc]
;W[qb]
;B[mb]
;W[na]
;B[if]
;W[ie]
;B[he]
;W[gf]
;B[jf]
;W[lb]
;B[bm]
;W[pr]
;B[or]
;W[rr]
;B[ak]
;W[bj]
;B[bd]
;W[be]
;B[ib]
;W[jb]
;B[ps]
;W[qs]
;B[qr]
;W[ia]
;B[ha]
;W[pr]
;B[la]
;W[os]
;B[kb]
;W[nr]
;B[nq]
;W[hp]
;B[mr]
;W[iq]
;B[ir]
;W[gq]
;B[hr]
;W[fr]
;B[fi]
;W[ei]
;B[gk]
;W[gl]
;B[hl]
;W[hm]
;B[fl]
;W[gm]
;B[ns]
;W[bc]
;B[rp]
;W[rq]
;B[ro]
;W[ps]
;B[bb]
;W[ad]
;B[fj]
;W[rj]
;B[rk]
;W[dc]
;B[cb]
;W[ek]
;B[qd]
;W[rd]
;B[qf]
;W[rf]
;B[fk]
;W[cs]
;B[cr]
;W[ds]
;B[jq]
;W[ip]
;B[ik]
;W[kk]
;B[nm]
;W[mm]
;B[nl]
;W[lj]
;B[gr]
;W[gp]
;B[qj]
;W[ri]
;B[oc]
;W[oa]
;B[mj]
;W[aj]
;B[bq]
;W[al]
;B[bs]
;W[am]
;B[bn]
;W[pi]
;B[kj]
;W[jj]
;B[li]
;W[jk]
;B[ij]
;W[il]
;B[ji]
;W[hk]
;B[hj]
;W[oh]
;B[fg]
;W[eg]
;B[nh]
;W[oj]
;B[ni]
;W[ab]
;B[sj]
;)
-- 
    -=-=-=-=-=-=-=-=-=-=-=-=-=-=-=-=-=-=-=-=-=-=-=-=-=-
     Jan van der Steen                 jansteen@cwi.nl
     Centre for Mathematics and Computer Science (CWI)
     Kruislaan 413, 1098 SJ Amsterdam, The Netherlands


