(;CP[My Friday Night Files, 2002]AP[SGFcv.py:0.3]GM[1]FF[4]EV[25th Gosei]
RO[Round 2]
DT[2000-01-17]
PB[Cho Chikun]
BR[Kisei]
PW[Takemiya Masaki]
WR[9d]
KM[5.5]
RE[B+R]
US[JBvR]
SO[KYB 2001 p 193]

;B[qd]
;W[dp]
;B[pq]
;W[dd]
;B[fc]
;W[od]
;B[mc]
;W[ne]
;B[pc]
;W[ee]
;B[me]
;W[mf]
;B[le]
;W[pf]
;B[oc]
;W[lf]
;B[kf]
;W[ke]
;B[kg]
;W[gd]
;B[mh]
;W[pi]
;B[pk]
;W[ni]
;B[og]
;W[nk]
;B[pg]
;W[qg]
;B[qf]
;W[qh]
;B[rf]
;W[pn]
;B[qo]
;W[qn]
;B[po]
;W[on]
;B[cc]
;W[kd]
;B[lc]
;W[ng]
;B[nh]
;W[oh]
;B[of]
;W[nf]
;B[pe]
;W[lg]
;B[lh]
;W[kh]
;B[jh]
;W[ki]
;B[nd]
;W[jg]
;B[jf]
;W[ig]
;B[if]
;W[hf]
;B[oe]
;W[hg]
;B[cn]
;W[cl]
;B[cd]
;W[dn]
;B[cg]
;W[jq]
;B[mj]
;W[lj]
;B[mi]
;W[mk]
;B[nj]
;W[np]
;B[lk]
;W[kk]
;B[ll]
;W[kl]
;B[lm]
;W[ok]
;B[km]
;W[jm]
;B[jn]
;W[im]
;B[ko]
;W[oq]
;B[pr]
;W[lp]
;B[in]
;W[hm]
;B[hn]
;W[gn]
;B[go]
;W[jp]
;B[jl]
;W[ik]
;B[hp]
;W[gq]
;B[hq]
;W[hr]
;B[lo]
;W[mn]
;B[kp]
;W[kq]
;B[mp]
;W[lq]
;B[nm]
;W[nn]
;B[ol]
;W[oj]
;B[nl]
;W[pl]
;B[ql]
;W[pm]
;B[pj]C[111 moves])