(;CP[My Friday Night Files, 2002]AP[SGFcv.py:0.3]GM[1]FF[4]EV[25th Kisei]
RO[ A League game 1]
DT[2000-06-01]
PB[Cho Chikun]
BR[9 dan]
PW[Yo Kagen]
WR[9 dan]
KM[5.5]
RE[B+R]
US[JBvR]
SO[KYB 2001]

;B[pd]
;W[dd]
;B[pq]
;W[dp]
;B[qk]
;W[jp]
;B[cn]
;W[fq]
;B[ck]
;W[nc]
;B[pf]
;W[pb]
;B[fc]
;W[hc]
;B[qc]
;W[ld]
;B[cf]
;W[fd]
;B[cc]
;W[dc]
;B[cd]
;W[de]
;B[ce]
;W[qi]
;B[oi]
;W[pj]
;B[qn]
;W[pk]
;B[ql]
;W[nj]
;B[mq]
;W[qq]
;B[qp]
;W[pp]
;B[pr]
;W[eg]
;B[mh]
;W[cb]
;B[bb]
;W[db]
;B[dh]
;W[dg]
;B[cg]
;W[eh]
;B[di]
;W[kg]
;B[cq]
;W[cp]
;B[bp]
;W[li]
;B[mf]
;W[lf]
;B[dq]
;W[eq]
;B[eo]
;W[ep]
;B[co]
;W[lq]
;B[lr]
;W[mr]
;B[nr]
;W[kr]
;B[ms]
;W[qo]
;B[rp]
;W[fj]
;B[ij]
;W[qb]
;B[qg]
;W[il]
;B[kj]
;W[lj]
;B[jl]
;W[ll]
;B[im]
;W[hl]
;B[kl]
;W[ro]
;B[po]
;W[pn]
;B[oo]
;W[qm]
;B[rn]
;W[rm]
;B[so]
;W[pm]
;B[hm]
;W[gl]
;B[gm]
;W[dk]
;B[hq]
;W[hp]
;B[gp]
;W[gq]
;B[ip]
;W[ho]
;B[io]
;W[iq]
;B[hr]
;W[in]
;B[jo]
;W[jn]
;B[ko]
;W[ir]
;B[go]
;W[hn]
;B[kn]
;W[hs]
;B[gn]
;W[gr]
;B[hi]
;W[rh]
;B[rg]
;W[hg]
;B[ek]
;W[rc]
;B[rd]
;W[sb]
;B[me]
;W[er]
;B[fi]
;W[ei]
;B[ej]
;W[dj]
;B[el]
;W[cj]
;B[bi]
;W[gi]
;B[gj]
;W[fh]
;B[gk]
;W[do]
;B[dn]
;W[en]
;B[em]
;W[sd]
;B[re]
;W[ba]
;B[jf]
;W[le]
;B[jg]
;W[og]
;B[of]
;W[bj]
;B[ci]
;W[je]
;B[if]
;W[bh]
;B[ai]
;W[he]
;B[ab]
;W[cr]
;B[bq]
;W[dr]
;B[hq]
;W[hr]
;B[kq]
;W[jq]
;B[qh]
;W[ri]
;B[sm]
;W[rl]
;B[lp]
;W[nn]
;B[ni]
;W[pi]
;B[ph]
;W[ie]
;B[hf]
;W[gf]
;B[hh]
;W[gg]
;B[jh]
;W[br]
;B[mm]
;W[nm]
;B[ml]
;W[bo]
;B[bn]
;W[aq]
;B[ao]
;W[lk]
;B[jm])