(;CP[My Friday Night Files, 2002]AP[SGFcv.py:0.3]GM[1]FF[4]RO[4]
PB[Cho Chikun]
PW[O Rissei]
KM[5.5]
RE[W+12.5]
US[JBvR]
SO[Yomiuri online]
DT[2000-02-16,17]
EV[Kisei, 24th, match]

;B[qc]
;W[dd]
;B[cq]
;W[pp]
;B[cf]
;W[fc]
;B[cd]
;W[cc]
;B[bc]
;W[ce]
;B[bd]
;W[de]
;B[be]
;W[cb]
;B[dk]
;W[df]
;B[cg]
;W[oc]
;B[qe]
;W[lc]
;B[nq]
;W[fp]
;B[dn]
;W[jq]
;B[qn]
;W[oq]
;B[np]
;W[pn]
;B[pm]
;W[on]
;B[qo]
;W[po]
;B[qp]
;W[qq]
;B[rq]
;W[mn]
;B[qr]
;W[pq]
;B[kp]
;W[kq]
;B[lp]
;W[io]
;B[kn]
;W[rr]
;B[sr]
;W[lq]
;B[rs]
;W[lo]
;B[no]
;W[nn]
;B[jp]
;W[ip]
;B[jn]
;W[mq]
;B[nr]
;W[mp]
;B[mo]
;W[ln]
;B[ns]
;W[jl]
;B[in]
;W[hn]
;B[hm]
;W[gn]
;B[il]
;W[km]
;B[jk]
;W[kk]
;B[kj]
;W[ik]
;B[jj]
;W[hk]
;B[gm]
;W[fm]
;B[fl]
;W[em]
;B[lk]
;W[hl]
;B[im]
;W[gl]
;B[kl]
;W[jo]
;B[lm]
;W[dm]
;B[jm]
;W[ko]
;B[cm]
;W[cl]
;B[cn]
;W[di]
;B[bi]
;W[kf]
;B[ld]
;W[mc]
;B[ne]
;W[qg]
;B[pf]
;W[me]
;B[mf]
;W[qj]
;B[le]
;W[jd]
;B[rk]
;W[qk]
;B[rj]
;W[pg]
;B[ql]
;W[ng]
;B[je]
;W[ke]
;B[kd]
;W[kc]
;B[md]
;W[lh]
;B[of]
;W[jf]
;B[oi]
;W[og]
;B[qi]
;W[ni]
;B[kg]
;W[oj]
;B[pi]
;W[ml]
;B[nk]
;W[mk]
;B[mj]
;W[nj]
;B[ol]
;W[mi]
;B[mg]
;W[rd]
;B[qd]
;W[lj]
;B[nh]
;W[ll]
;B[jg]
;W[lg]
;B[lf]
;W[if]
;B[hj]
;W[fk]
;B[fi]
;W[ij]
;B[ii]
;W[el]
;B[gh]
;W[mh]
;B[oh]
;W[hi]
;B[ih]
;W[kh]
;B[jh]
;W[gj]
;B[hg]
;W[nd]
;B[nf]
;W[fg]
;B[eh]
;W[hh]
;B[gi]
;W[hj]
;B[id]
;W[ie]
;B[jc]
;W[he]
;B[jb]
;W[kb]
;B[nb]
;W[mb]
;B[ob]
;W[hd]
;B[je]
;W[pb]
;B[pc]
;W[jd]
;B[gg]
;W[ig]
;B[je]
;W[nc]
;B[qb]
;W[jd]
;B[mm]
;W[nm]
;B[je]
;W[bh]
;B[ch]
;W[jd]
;B[nl]
;W[km]
;B[je]
;W[na]
;B[ej]
;W[ci]
;B[bj]
;W[jd]
;B[pa]
;W[ic]
;B[eq]
;W[fq]
;B[dl]
;W[er]
;B[dr]
;W[ep]
;B[dq]
;W[dh]
;B[dg]
;W[eg]
;B[bf]
;W[gf]
;B[ei]
;W[fr]
;B[bb]
;W[ba]
;B[ls]
;W[kr]
;B[ks]
;W[js]
;B[pj]
;W[ok]
;B[pk]
;W[dp]
;B[cp]
;W[do]
;B[ds]
;W[pr]
;B[ps]
;W[om]
;B[pl]
;W[en]
;B[es]
;W[fs]
;B[od]
;W[co]
;B[bo]
;W[ma]
;B[oa]
;W[ab]
;B[dc]
;W[db]
;B[ca]
;W[da]
;B[ac]
;W[ca]
;B[aa])