(;CP[My Friday Night Files, 2002]AP[SGFcv.py:0.3]GM[1]FF[4]KM[5.5]
SO[NEC website]
PB[Kobayashi Satoru]
PW[Cho Chikun]
US[JBvR]
RO[2nd]
DT[2000-12-16]
RE[W+8.5]
EV[NEC Cup, 20th]

;B[pd]
;W[dd]
;B[pq]
;W[cp]
;B[eq]
;W[qn]
;B[qp]
;W[qk]
;B[cf]
;W[fc]
;B[cm]
;W[do]
;B[dj]
;W[fp]
;B[gq]
;W[nc]
;B[qf]
;W[qh]
;B[pb]
;W[di]
;B[ci]
;W[ch]
;B[bi]
;W[ei]
;B[dg]
;W[dh]
;B[bh]
;W[eg]
;B[cg]
;W[ej]
;B[dk]
;W[ef]
;B[kc]
;W[ke]
;B[ic]
;W[lc]
;B[lb]
;W[kd]
;B[mc]
;W[ld]
;B[jb]
;W[pe]
;B[md]
;W[qe]
;B[qd]
;W[me]
;B[oe]
;W[pf]
;B[of]
;W[nd]
;B[pg]
;W[mb]
;B[gb]
;W[gc]
;B[fb]
;W[eb]
;B[hc]
;W[fa]
;B[ha]
;W[ph]
;B[qg]
;W[og]
;B[rh]
;W[ri]
;B[rf]
;W[ip]
;B[gp]
;W[ep]
;B[hr]
;W[fq]
;B[fr]
;W[er]
;B[es]
;W[dq]
;B[jq]
;W[lo]
;B[pn]
;W[qm]
;B[po]
;W[lq]
;B[jp]
;W[jo]
;B[io]
;W[jn]
;B[in]
;W[im]
;B[gn]
;W[oh]
;B[mp]
;W[nm]
;B[lp]
;W[no]
;B[np]
;W[hl]
;B[ec]
;W[dc]
;B[hf]
;W[if]
;B[he]
;W[hg]
;B[ed]
;W[cb]
;B[mn]
;W[mm]
;B[ln]
;W[km]
;B[gg]
;W[hh]
;B[fe]
;W[ee]
;B[fd]
;W[ce]
;B[nf]
;W[mg]
;B[ds]
;W[ro]
;B[cr]
;W[cn]
;B[bm]
;W[nn]
;B[rp]
;W[bf]
;B[bg]
;W[mo]
;B[gk]
;W[hk]
;B[bq]
;W[ek]
;B[dm]
;W[fm]
;B[ie]
;W[jf]
;B[fn]
;W[em]
;B[be]
;W[bd]
;B[af]
;W[sh]
;B[rg]
;W[sp]
;B[sq]
;W[so]
;B[rq]
;W[bp]
;B[ad]
;W[bc]
;B[gh]
;W[gi]
;B[fh]
;W[cq]
;B[br]
;W[ob]
;B[pm]
;W[pl]
;B[qo]
;W[rn]
;B[bn]
;W[pa]
;B[qb]
;W[qa]
;B[ra]
;W[oa]
;B[fi]
;W[fj]
;B[rb]
;W[la]
;B[kb]
;W[eh]
;B[ff]
;W[kp]
;B[kq]
;W[ko]
;B[oo]
;W[bo]
;B[el]
;W[fl]
;B[dl]
;W[jd]
;B[dn]
;W[dr]
;B[mf]
;W[lf]
;B[ng]
;W[nh]
;B[fg]
;W[en]
;B[ka]
;W[ma]
;B[fo]
;W[hn]
;B[ho]
;W[hm]
;B[om]
;W[ol]
;B[df]
;W[de]
;B[id]
;W[ac]
;B[ae]
;W[sg]
;B[re]
;W[gm]
;B[sf]
;W[si]
;B[jc]
;W[eo]
;B[go]
;W[an]
;B[am]
;W[aq]
;B[ar]
;W[pc]
;B[qc]
;W[oc]
;B[ao]
;W[ap]
;B[an]
;W[co])