(;SO[GoGod95]CP[My Friday Night Files, 2002]AP[SGFcv.py:0.3]GM[1]FF[4]PW[Cho Chikun]
WR[9d]
PB[O Rissei]
BR[9d]
RO[Game 1]
DT[2000-10-23]
KM[5.5]
RE[W+R]
US[JBvR]
EV[Oza, 48th, match]

;B[pd]
;W[dd]
;B[pp]
;W[dp]
;B[fq]
;W[cn]
;B[dr]
;W[nq]
;B[pn]
;W[pr]
;B[cq]
;W[ck]
;B[fc]
;W[hc]
;B[cc]
;W[dc]
;B[cd]
;W[de]
;B[db]
;W[eb]
;B[cb]
;W[ec]
;B[cf]
;W[qj]
;B[qq]
;W[kq]
;B[qg]
;W[ql]
;B[qm]
;W[ol]
;B[np]
;W[mp]
;B[no]
;W[gq]
;B[oq]
;W[nr]
;B[gp]
;W[hq]
;B[jc]
;W[qc]
;B[pc]
;W[qd]
;B[qb]
;W[rf]
;B[pf]
;W[rb]
;B[pb]
;W[rg]
;B[ie]
;W[ld]
;B[hd]
;W[mf]
;B[qh]
;W[ic]
;B[jd]
;W[fd]
;B[rh]
;W[ra]
;B[mh]
;W[kf]
;B[lc]
;W[mc]
;B[mb]
;W[oe]
;B[qe]
;W[re]
;B[nc]
;W[pe]
;B[pi]
;W[md]
;B[kb]
;W[qf]
;B[nk]
;W[nl]
;B[ml]
;W[mm]
;B[ok]
;W[pk]
;B[mk]
;W[pj]
;B[lm]
;W[ni]
;B[nh]
;W[mi]
;B[oj]
;W[oi]
;B[oh]
;W[li]
;B[lh]
;W[ki]
;B[rk]
;W[nm]
;B[pm]
;W[pl]
;B[ln]
;W[kk]
;B[kl]
;W[rj]
;B[kh]
;W[jh]
;B[jg]
;W[kg]
;B[ji]
;W[ih]
;B[ii]
;W[ik]
;B[hh]
;W[ig]
;B[hj]
;W[lk]
;B[ll]
;W[jl]
;B[jf]
;W[hg]
;B[gg]
;W[gh]
;B[hf]
;W[hi]
;B[gi]
;W[fg]
;B[gf]
;W[fh]
;B[hh]
;W[mo]
;B[mn]
;W[hi]
;B[rl]
;W[hh]
;B[nn]
;W[sj]
;B[si]
;W[rm]
;B[rn]
;W[ng]
;B[om]
;W[fp]
;B[jp]
;W[jq]
;B[dj]
;W[cj]
;B[di]
;W[pg]
;B[ph]
;W[dg]
;B[cg]
;W[ch]
;B[cm]
;W[dm]
;B[dn]
;W[en]
;B[ci]
;W[bh]
;B[bi]
;W[dh]
;B[dl]
;W[do]
;B[cl]
;W[el]
;B[ek]
;W[fk]
;B[fl]
;W[em]
;B[bm]
;W[bn]
;B[hl]
;W[og]
;B[sm]
;W[dk]
;B[ij]
;W[im]
;B[ej]
;W[bl]
;B[hn]
;W[jn])