(
;
FF[4]
PB[Qian Yuping]
BR[9 dan]
PW[Lee Changho]
WR[4 dan]
KM[5.5]
DT[1991-04-14]
PC[Korea]
RE[W+R]
TM[10800]
;B[pd];W[dp];B[qp];W[dc];B[oq];W[ce];B[pj];W[nc];B[lc];W[ld]
;B[kd];W[le];B[kc];W[oe];B[qf];W[hc];B[ke];W[lf];B[jg];W[ie]
;B[kf];W[lh];B[hg];W[pg];B[qg];W[ph];B[qh];W[jq];B[cn];W[fp]
;B[bp];W[cq];B[ck];W[rp];B[pp];W[mq];B[ge];W[fc];B[cg];W[dl]
;B[cl];W[dn];B[co];W[ro];B[rq];W[rr];B[qq];W[qm];B[sp];W[rj]
;B[nh];W[pe];B[qe];W[pc];B[qc];W[od];B[qd];W[qo];B[pf];W[of]
;B[og];W[jo];B[pb];W[mc];B[ji];W[ng];B[oh];W[mg];B[hn];W[ih]
;B[jh];W[ig];B[hi];W[hf];B[ii];W[gf];B[hp];W[hq];B[iq];W[ip]
;B[gq];W[ir];B[gp];W[fq];B[gr];W[fn];B[hl];W[fr];B[so];W[sn]
;B[sq];W[rm];B[nr];W[mr];B[df];W[cf];B[dg];W[bg];B[bh];W[bf]
;B[fe];W[ic];B[bq];W[br];B[ar];W[cr];B[de];W[dd];B[ah];W[ci]
;B[ch];W[ri];B[rh];W[oo];B[ol];W[nq];B[or];W[op];B[qk];W[qr]
;B[sr];W[rk];B[mm];W[ln];B[mn];W[mo];B[lm];W[kn];B[mi];W[jl]
;B[gn];W[fl];B[kl];W[ei];B[ek];W[fk];B[fo];W[eo]C[
 White used 2 hours 50 minutes
 Black used 2 hours 8 minutes
]
)
