(
;
FF[4]
EV[6th Kisung title match]
RO[6]
PB[Cho Hunhyun]
BR[9 dan]
PW[Lee Changho]
WR[Kisung]
KM[5.5]
DT[1995-03-02]
PC[Seoul (Hanguk Kiwon), Korea]
RE[B+3.5]
SO[1996 WeiQi yearbook]

;B[pd];W[dp];B[pp];W[dc];B[de];W[ce];B[dd];W[cd];B[ec];W[cf]
;B[df];W[dg];B[cc];W[db];B[bc];W[cb];B[cg];W[ch];B[bb];W[eb]
;B[bg];W[bf];B[fc];W[bd];B[bh];W[fb];B[ci];W[eg];B[fe];W[gc]
;B[gd];W[hc];B[fg];W[eh];B[hd];W[fh];B[gg];W[gh];B[cl];W[hg]
;B[hf];W[if];B[ig];W[hh];B[jf];W[ie];B[he];W[je];B[jg];W[ke]
;B[ji];W[hk];B[jk];W[dk];B[ae];W[ad];B[ck];W[nd];B[id];W[pf]
;B[oe];W[qc];B[pc];W[qd];B[of];W[pg];B[og];W[ph];B[ic];W[mf]
;B[oh];W[mh];B[pi];W[qi];B[qj];W[pe];B[od];W[oi];B[pj];W[ni]
;B[nc];W[ri];B[lg];W[mg];B[md];W[lf];B[pl];W[ml];B[jm];W[kc]
;B[qb];W[rb];B[ob];W[hm];B[jo];W[mn];B[pn];W[qa];B[lm];W[ne]
;B[mb];W[kb];B[pb];W[ib];B[jq];W[di];B[dh];W[ef];B[ee];W[ch]
;B[af];W[cj];B[ac];W[bi];B[cp];W[cq];B[bq];W[bp];B[co];W[br]
;B[dq];W[cr];B[bo];W[aq];B[eo];W[ep];B[fp];W[eq];B[fq];W[do]
;B[dn];W[er];B[fn];W[go];B[fo];W[em];B[en];W[pq];B[qq];W[qr]
;B[oq];W[pr];B[qp];W[or];B[nq];W[rq];B[rp];W[kq];B[kp];W[hq]
;B[hp];W[iq];B[jr];W[nr];B[rr];W[mq];B[lq];W[lp];B[kr];W[lr]
;B[lo];W[kq];B[jb];W[hb];B[lq];W[op];B[np];W[mp];B[oo];W[no]
;B[op];W[ln];B[ls];W[kq];B[ko];W[mo];B[lq];W[gr];B[fr];W[fs]
;B[gq];W[kq];B[jc];W[ja];B[lq];W[hr];B[gn];W[kq];B[ds];W[es]
;B[lq];W[mr];B[mm];W[nm];B[ll];W[nk];B[om];W[nn];B[mk];W[nl]
;B[mj];W[rs];B[sr];W[ok];B[rj];W[si];B[qe];W[rf];B[rg];W[re]
;B[sj];W[qh];B[ra];W[sa];B[gl];W[ik];B[mi];W[pk];B[qk];W[nh]
;B[lh];W[ql];B[rl];W[qm];B[rm];W[im];B[ld];W[kd];B[dl];W[ek]
;B[el];W[ii];B[jj];W[fk];B[ij];W[kg];B[hi];W[qn];B[pm];W[kh]
;B[ih];W[gk];B[li];W[kf];B[bk];W[rn];B[sn];W[ao];B[bm];W[io]
;B[ip];W[ho];B[gp];W[an];B[gi];W[fm];B[fi];W[ei];B[bj];W[ah]
;B[be];W[kn];B[jn];W[jl];B[kl];W[il];B[km];W[ki];B[kj];W[ba]
;B[pa];W[rc];B[ra];W[sb];B[fj];W[ej];B[aj];W[ai];B[ms];W[ns]
;B[ks];W[dm];B[cm];W[ff];B[gf];W[am];B[al];W[bn];B[cn];W[ap]
;B[lb];W[lc];B[mc];W[la];B[ma];W[ka];B[ir];W[gs];B[on];W[is]
;B[kq];W[dr];B[qa])
