(
;
FF[4]
EV[1st LG Cup]
RO[2]
PB[Yoo Changhyuk]
BR[9 dan]
PW[Lee Changho]
WR[9 dan]
KM[5.5]
DT[1997-03-19]
PC[Korea]
RE[W+3.5]

;B[pd];W[dd];B[qp];W[dp];B[fq];W[cn];B[kq];W[qj];B[qg];W[qm]
;B[pn];W[ro];B[pm];W[qo];B[po];W[ql];B[pp];W[fc];B[fo];W[dr]
;B[dm];W[dn];B[fm];W[km];B[kk];W[kp];B[jp];W[lp];B[lq];W[jo]
;B[mp];W[mo];B[ip];W[np];B[mq];W[nn];B[nq];W[nl];B[oc];W[kd]
;B[mk];W[nk];B[nj];W[oj];B[oi];W[mj];B[ni];W[lk];B[lj];W[ml]
;B[mi];W[kj];B[mk];W[op];B[oq];W[mj];B[li];W[jk];B[qi];W[ri]
;B[rh];W[id];B[pj];W[rj];B[lc];W[ld];B[mc];W[kc];B[be];W[bd]
;B[ce];W[cd];B[ch];W[qc];B[qd];W[de];B[cm];W[dj];B[ei];W[ej]
;B[fj];W[fi];B[di];W[cj];B[fh];W[em];B[el];W[en];B[fk];W[dl]
;B[dk];W[bl];B[gi];W[rp];B[cl];W[bm];B[rq];W[pb];B[rc];W[md]
;B[nd];W[lb];B[mb];W[kb];B[ma];W[ne];B[oe];W[sq];B[rr];W[fr]
;B[gr];W[eq];B[fs];W[er];B[fp];W[hq];B[hp];W[nf];B[he];W[hd]
;B[cf];W[of];B[pf];W[ck];B[ad];W[ac];B[ae];W[bc];B[dl];W[bi]
;B[fe];W[es];B[hr];W[ko];B[df];W[gs];B[fd];W[gc];B[hs];W[ph]
;B[pi];W[og];B[if];W[ie];B[jf];W[rb];B[pc];W[nc];B[nb];W[ge]
;B[hf];W[ff];B[gf];W[ef];B[lf];W[mf];B[gd];W[ee];B[le];W[me]
;B[ji];W[jj];B[ii];W[qh];B[sh];W[sr];B[sp];W[so];B[qn];W[rn]
;B[je];W[jd];B[on];W[no];B[la];W[ka];B[il];W[hj];B[ij];W[ik]
;B[hk];W[hl];B[gk];W[im];B[mg];W[rs];B[qr];W[si];B[rf];W[fg]
;B[gg];W[bh];B[pl];W[ok];B[pk];W[qk];B[sm];W[rl];B[ki];W[jl]
;B[mk];W[ll];B[bg];W[dg];B[cg];W[ed];B[ge];W[ke];B[kf];W[hn]
;B[eo];W[do];B[gm];W[io];B[hm];W[ho];B[go];W[ng];B[nh];W[ag]
;B[qs];W[rm];B[ss];W[sp];B[af];W[ah];B[ci];W[bj];B[nm];W[mm]
;B[om];W[fs];B[mj];W[rs];B[fl];W[ss];B[gl];W[il])
