(
;
FF[4]
EV[1st LG Cup]
RO[1]
PB[Lee Changho]
BR[9 dan]
PW[Yoo Changhyuk]
WR[9 dan]
KM[5.5]
DT[1997-03-17]
PC[Korea]
RE[B+R]

;B[pd];W[dp];B[pp];W[dd];B[fq];W[hq];B[cq];W[dq];B[cp];W[do]
;B[dr];W[er];B[cr];W[eq];B[cn];W[nq];B[qn];W[nc];B[qf];W[gc]
;B[lq];W[pq];B[qq];W[qr];B[oq];W[pr];B[op];W[or];B[rq];W[np]
;B[mr];W[nr];B[jq];W[nn];B[fr];W[fp];B[gp];W[gq];B[es];W[gr]
;B[fs];W[ds];B[cs];W[gs];B[ds];W[ho];B[go];W[hn];B[mo];W[no]
;B[hp];W[ip];B[fo];W[iq];B[jo];W[jp];B[ko];W[io];B[km];W[fn]
;B[gn];W[gm];B[ep];W[en];B[hm];W[gl];B[im];W[co];B[bo];W[bn]
;B[ap];W[kp];B[lp];W[kq];B[cm];W[dl];B[cl];W[dk];B[kr];W[jr]
;B[hk];W[ck];B[gk];W[fk];B[fj];W[ej];B[fi];W[ei];B[fh];W[eh]
;B[cc];W[cd];B[dc];W[bd];B[om];W[nm];B[ol];W[nl];B[ok];W[mj]
;B[kj];W[ni];B[fb];W[gb];B[ed];W[fd];B[ec];W[ee];B[bc];W[ki]
;B[ji];W[kh];B[jh];W[jg];B[ig];W[if];B[hg];W[jf];B[oc];W[nd]
;B[nb];W[mb];B[ob];W[ph];B[lb];W[qg];B[qj];W[qe];B[qd];W[pf]
;B[mc];W[md];B[lc];W[rd];B[rc];W[ld];B[ef];W[de];B[fg];W[ac]
;B[ab];W[ad];B[ba];W[df];B[lj];W[li];B[ll];W[rr];B[sr];W[ln]
;B[mn];W[ml];B[lk];W[oj];B[on];W[pj];B[pk])
