(
;
FF[4]
EV[Guksu,42,Korea,]
RO[1]
PB[Lee Changho]
BR[9 dan]
PW[Cho Hunhyun]
WR[9 dan]
KM[5.5]
DT[1998-10-17]
PC[Kwangyang, Korea]
RE[W+1.5]

;B[qd];W[dd];B[cf];W[fc];B[co];W[pp];B[nd];W[qj]
;B[nq];W[pn];B[jp]
(;W[eq];B[cq];W[hq]
(;B[iq];W[hp];B[jn];W[np];B[mp];W[oq];B[no];W[op]
(;B[mq];W[eo];B[qh]
(;W[pk];B[bd]
(;W[cc];B[hc];W[jc];B[id];W[bc];B[fb];W[gb];B[gc];W[eb];B[hb]
;W[fa];B[ke];W[oc];B[nc];W[od];B[oe];W[nb];B[mb];W[pb];B[na]
;W[ob];B[ne];W[qc];B[rd];W[pd];B[pe];W[rc];B[ci];W[dm];B[qo]

(;W[qp];B[nm]
(;W[ol];B[en];W[dn];B[do];W[fo];B[bm];W[cl]
(;B[gl];W[bl];B[dr];W[io];B[jo];W[dj];B[di]
(;W[fj];B[ei];W[fl];B[gk];W[fm];B[ri];W[rj]
(;B[sc]C[losing move. not sente];W[sb];B[sd];W[oa];B[lb];W[qf]
;B[rf];W[qg];B[rg];W[ph];B[rb];W[qb];B[sa];W[qa];B[sj];W[sk]
;B[si];W[rk];B[mk]
(;W[og];B[qi];W[pi];B[mg];W[gj];B[ce];W[ij];B[fd];W[ed];B[il]
;W[er];B[bn];W[fe];B[hr];W[gr];B[om];W[pm];B[ej];W[fk];B[oo]
;W[po];B[kk];W[ha];B[ib];W[gd];B[ie];W[dg];B[cg];W[ai];B[bj]
;W[aj];B[ak];W[bk];B[ah];W[al];B[bi]
(;W[ir];B[jr];W[hs];B[nr];W[or];B[os];W[ps];B[ns];W[pr];B[jh]
;W[js];B[kr];W[lj];B[lk];W[lh];B[lg];W[cd];B[ad];W[ac];B[af]
;W[dq];B[cr];W[dp];B[cp];W[hm];B[ik];W[im];B[jm];W[ip];B[ni]
;W[ji];B[oj];W[pj];B[ih];W[ii];B[kh];W[nl];B[ml];W[jq];B[kq]
;W[dk];B[fg];W[ef];B[hi];W[hj];B[gf];W[gh];B[gi];W[fh];B[gg]
;W[dh];B[fi];W[eh];B[hh];W[ia];B[ja];W[ga];B[hd];W[mh];B[ek]
;W[el]
(;B[ge];W[ma];B[la];W[mj];B[ok];W[jk];B[jl];W[nk];B[nj];W[pl]
;B[nh];W[kj];B[jj];W[mm];B[mn];W[jk];B[mi];W[lm];B[jj];W[on]
;B[nn];W[jk];B[kl];W[li];B[jj];W[ki];B[ng];W[ks];B[ls];W[is]
;B[iq];W[ch];B[ak];W[jk];B[lr])
(;B[nh];W[mj];B[kj];W[ki];B[nj];W[li];B[ge]))
(;W[nr];B[mr];W[or];B[ir];W[hm];B[ik];W[im];B[jm];W[ji]))
(;W[qi];B[rh];W[og]))
(;B[oi]))
(;W[fm]))
(;B[fm];W[fl];B[gm];W[em];B[fn];W[gl];B[hm];W[hl];B[im];W[cr]
;B[br];W[dr];B[bl]))
(;W[ck];B[pm];W[qm];B[qn]))
(;W[qn];B[or];W[pr];B[nr]))
(;W[ic];B[cc];W[lc]))
(;W[lc];B[ql];W[pk];B[pl];W[ol];B[rj];W[ri];B[rk];W[qi];B[rh]
;W[si];B[rn]))
(;B[eo];W[mq];B[hn]))
(;B[ir];W[hr];B[iq];W[ho];B[in]))
(;W[dq];B[fq];W[ep];B[fp];W[en];B[dm]))
