(
;
FF[4]
EV[Wangwi,32,Korea,]
RO[4]
PB[Lee Changho]
BR[9 dan]
PW[Cho Hunhyun]
WR[9 dan]
KM[5.5]
DT[1998-08-05]
PC[Korea]
RE[B+R]

;B[qd];W[dd];B[fc];W[df];B[pq];W[nd];B[dp]
;W[qc];B[pc];W[pd];B[pb];W[qb];B[rb]
(;W[rc];B[od];W[pe];B[oe]
(;W[qe];B[nc];W[of];B[ne];W[po];B[pf];W[rf];B[oo];W[on];B[op]
;W[pn];B[qp];W[og];B[qa];W[rd];B[id];W[mn];B[rn];W[cn];B[cl]
;W[ci];B[dn];W[cq];B[cp];W[dq];B[eq];W[er];B[bq];W[br];B[fr]
;W[bp];B[dr];W[cr];B[bo];W[aq];B[bn];W[eb];B[lp];W[ko];B[lo]
;W[ln];B[kn];W[kp];B[lq];W[io];B[jn];W[ep];B[fq];W[dm];B[cm]
;W[en];B[jo];W[do];B[co];W[fp];B[gp];W[gq];B[gr];W[hq];B[hr]
;W[go];B[iq];W[hp];B[dn];W[fb];B[eo];W[kd];B[md];W[jf];B[eh]
;W[dh];B[ee];W[eg];B[de];W[ce];B[cd];W[dc];B[ge];W[ff];B[cf]
;W[be];B[fe];W[bf];B[ef];W[dg];B[fg];W[ro];B[qm];W[qo];B[pk]
;W[qj];B[qk];W[rl];B[rk];W[rm];B[rp];W[qn];B[mk];W[nk];B[oh]
;W[nj];B[pg];W[pj];B[ni];W[mj];B[qh];W[rj];B[ri];W[sj];B[in]
;W[gm];B[hn];W[mi];B[mg];W[hl];B[gh];W[lg];B[lf];W[mh];B[ng]
;W[kg];B[kf];W[jg];B[ik];W[gn];B[ki];W[el];B[ei];W[gj];B[dl]
;W[hi];B[kk];W[hf];B[gf];W[jj];B[ij];W[il];B[ii];W[jk];B[jl]
;W[jm];B[kl];W[ih];B[ji];W[km];B[hh];W[lj];B[kj];W[li];B[hj]
;W[gi];B[gk];W[jp];B[ip];W[im];B[ho];W[fj];B[fk];W[ej];B[ek]
;W[dj];B[hk])
(;W[oc];B[ob];W[nc];B[rd];W[of];B[sc];W[ne]))
(;W[rc];B[rd];W[sb];B[ra];W[qa];B[nb];W[pe];B[sd];W[qe];B[sc]
;W[sa];B[rb]))
