(
;
FF[4]
EV[3rd Chunwon title]
RO[1]
PB[Lee Changho]
BR[9 dan]
PW[Choi Myunghoon]
WR[6 dan]
DT[1998]
PC[Korea]
RE[B+R]
;B[qd];W[dd];B[cf];W[fc];B[dq];W[pp];B[ck];W[oc];B[pf];W[qh]
;B[mc];W[qn];B[kq];W[iq];B[gq];W[jp];B[kp];W[jn];B[ko];W[jo]
;B[lm];W[jl];B[or];W[oq];B[pr];W[mq];B[nr];W[mo];B[mp];W[kn]
;B[nq];W[np];B[lp];W[ln];B[no];W[nn];B[op];W[oo];B[pq];W[oh]
;B[pc];W[ci];B[cd];W[cc];B[bc];W[ce];B[bd];W[be];B[de];W[bf]
;B[dc];W[ed];B[db];W[ef];B[ng];W[nh];B[mg];W[mh];B[lg];W[lh]
;B[jg];W[kh];B[kg];W[co];B[cm];W[cq];B[cr];W[br];B[cp];W[bq]
;B[dp];W[bp];B[dr];W[cn];B[dm];W[en];B[hr];W[ic];B[bg];W[cg]
;B[rg];W[qg];B[rf];W[rh];B[po];W[on];B[qp];W[lb];B[lc];W[kc]
;B[mb];W[bj];B[ch];W[df];B[fl];W[eo];B[dh];W[bh];B[di];W[cj]
;B[dj];W[fj];B[gi];W[gj];B[fi];W[ek];B[dk];W[hj];B[hi];W[ii]
;B[pn];W[pm];B[qm];W[qo];B[pp];W[ql];B[rm];W[rl];B[sm];W[sl]
;B[ro];W[el];B[ih];W[jh];B[ij];W[ji];B[em];W[fm];B[go];W[fn]
;B[ej];W[fk];B[gl];W[ik];B[pl];W[om];B[qk];W[pk];B[ri];W[hh]
;B[fg];W[ig];B[bk];W[qj];B[sh];W[qf];B[qe];W[fp];B[ir];W[gp]
;B[hq];W[og];B[of];W[bm];B[bl];W[bn];B[aj];W[bi];B[dl];W[jq]
;B[hp];W[ho];B[jr];W[kb];B[qi];W[pi];B[rk];W[ol];B[rj];W[si]
;B[sj];W[re];B[rd];W[pj];B[se];W[gg];B[fh];W[ke];B[ld];W[le]
;B[me];W[ma];B[na];W[la];B[nb];W[eb];B[ff];W[fe];B[kd];W[je]
;B[jd];W[id];B[gf];W[he];B[bs];W[ip];B[hf];W[np];B[ep];W[fq]
;B[fr];W[lo];B[no];W[eg];B[eh];W[np];B[jc];W[jb];B[no];W[ec]
;B[cb];W[np];B[if];W[ie];B[no];W[lf];B[mf];W[np];B[pg];W[ph]
;B[no];W[ge];B[ar];W[np];B[hn];W[io];B[no];W[sg];B[sf];W[np]
;B[ib];W[hb];B[no];W[pl];B[sg];W[np];B[ia];W[ha];B[no];W[sk]
;B[si];W[np];B[ja];W[ka];B[no];W[cs];B[ds];W[np];B[ib];W[ia]
;B[no];W[eq];B[er];W[fo];B[np];W[ih];B[ea];W[fa];B[da];W[aq]
;B[ao];W[as];B[gn];W[cs];B[gm];W[bo];B[bs];W[am];B[dn];W[do]
;B[ar];W[hl];B[al];W[as];B[ap];W[cs];B[hk];W[jj];B[bs];W[an]
;B[ar])
