(
;
FF[4]
EV[1999 KBS Baduk Wang]
RO[2]
PB[Lee Changho]
BR[9 dan]
PW[Cho Hunhyun]
WR[9 dan]
KM[5.5]
DT[1999-11-09]
PC[Korea]
RE[W+R]
US[mul@igs]

;B[pd];W[dd];B[qp];W[dq];B[do];W[co];B[dp];W[cp];B[eq];W[cn]
;B[dn];W[dm];B[cq];W[dr];B[bq];W[cr];B[cm];W[cl];B[br];W[er]
;B[bm];W[bn];B[bl];W[bp];B[fq];W[fr];B[ck];W[em];B[fo];W[gq]
;B[gp];W[hq];B[fm];W[el];B[ch];W[gm];B[ao];W[ap];B[bs];W[aq]
;B[an];W[cs];B[am];W[ar];B[fl];W[en];B[fn];W[eo];B[ek];W[op]
;B[fc];W[cg];B[cc];W[dh];B[bh];W[fk];B[ej];W[gk];B[gl];W[hk]
;B[im];W[dc];B[cd];W[de];B[ce];W[cb];B[df];W[cf];B[dg];W[fd]
;B[ff];W[jl];B[jm];W[kl];B[ln];W[gc];B[pn];W[on];B[om];W[mn]
;B[nn];W[mm];B[lm];W[no];B[oo];W[nm];B[ll];W[on];B[po];W[ol]
;B[pm];W[lk];B[mk];W[lj];B[mo];W[lo];B[mp];W[ko];B[jo];W[np]
;B[mq];W[km];B[kn];W[ml];B[jn];W[nn];B[nk];W[nl];B[ni];W[kp]
;B[jq];W[kq];B[jr];W[kr];B[jp];W[nr];B[mr];W[nq];B[ks];W[pl]
;B[qr];W[ls];B[js];W[qm];B[pj];W[qj];B[qi];W[rk];B[ri];W[ro]
;B[rp];W[rn];B[pq];W[ps];B[sr];W[mi];B[nh];W[qc];B[qd];W[pc]
;B[nc];W[nb];B[ns];W[or];B[pp];W[oj];B[nj];W[pi];B[ph];W[pk]
;B[il];W[jj];B[jk];W[hi];B[kk];W[od];B[hf];W[pg];B[oi];W[qh]
;B[pj];W[ef];B[eg];W[pi];B[kg];W[oh];B[mh];W[jg];B[jf];W[kf]
;B[lf];W[if];B[ke];W[hg];B[he];W[fg];B[eh];W[ee];B[ie];W[fh]
)
