(
;
FF[4]
EV[11th Asia TV title]
RO[final]
PB[Yoda Norimoto]
BR[9 dan]
BT[Japan]
PW[Lee Changho]
WR[9 dan]
WT[Korea]
KM[2.75]
DT[1999-05-29]
PC[Tianjin]
RE[B+1.75]
RU[Chinese]

;B[qd];W[dd];B[pp];W[dp];B[oc];W[qj];B[fq];W[cn];B[qm];W[qg]
;B[jp];W[pq];B[qq];W[oq];B[qr];W[op];B[po];W[lq];B[kq];W[lp]
;B[jn];W[lm];B[fo];W[eq];B[fr];W[fc];B[cl];W[er];B[cf];W[ch]
;B[bp];W[bo];B[em];W[fp];B[gp];W[ep];B[go];W[en];B[fm];W[ce]
;B[df];W[eh];B[ff];W[gh];B[hf];W[ih];B[di];W[dh];B[hc];W[bf]
;B[fb];W[fd];B[bg];W[be];B[jf];W[gb];B[hb];W[ge];B[gf];W[gc]
;B[kc];W[qe];B[pe];W[rd];B[pd];W[rf];B[rc];W[iq];B[jr];W[gq]
;B[gr];W[hq];B[hr];W[fn];B[gn];W[gm];B[fk];W[gl];B[in];W[gk]
;B[fj];W[ei];B[gj];W[ik];B[ij];W[jj];B[hk];W[hl];B[hj];W[jl]
;B[ji];W[ii];B[kj];W[jk];B[hh];W[hi];B[dj];W[if];B[ig];W[jh]
;B[bm];W[cp];B[bi];W[bh];B[bj];W[ki];B[ie];W[ha];B[rk];W[pf]
;B[sd];W[qk];B[rj];W[ri];B[ql];W[nf];B[ok];W[kr];B[ir];W[nd]
;B[ph];W[pi];B[qh];W[oh];B[rh];W[qi];B[og];W[pg];B[nh];W[oi]
;B[of];W[ng];B[oe];W[rg];B[ne];W[lf];B[mf];W[mg];B[me];W[lg]
;B[jb];W[ol];B[nn];W[nm];B[mn];W[ln];B[pl];W[mm];B[om];W[nl]
;B[pk];W[dl];B[dn];W[eo];B[cm];W[dm];B[dk];W[do];B[el];W[le]
;B[ld];W[nk];B[bn];W[ao];B[dn];W[dm];B[es];W[ds];B[fs];W[cr]
;B[pr];W[or];B[re];W[sj];B[rl];W[ke];B[ia];W[ga];B[lr];W[kp]
;B[jq];W[mr];B[ks];W[mo];B[no];W[np];B[oo];W[hn];B[ho];W[im]
;B[hm];W[id];B[hd];W[jd];B[fe];W[hn];B[jo];W[ee];B[ef];W[gd]
;B[he];W[cg];B[kg];W[kh];B[hg];W[ic];B[ib];W[kd];B[de];W[ed]
;B[oj];W[nj];B[ko];W[lo];B[kf];W[an];B[ci];W[jm];B[am];W[gi]
;B[kn];W[km];B[ah];W[ag];B[ai];W[ps];B[qs];W[os];B[ms];W[ns]
;B[ls];W[hm];B[sf];W[sk];B[sl];W[si];B[ej];W[sh];B[fi];W[fh]
;B[qf];W[sg];B[se];W[qe];B[dl];W[dn];B[qf];W[lh];B[qe];W[je]
;B[jg];W[gg];B[fg];W[eg];B[dg];W[jc];B[kb];W[pj];B[fl])
