(
;
GaMe[1]
SiZe[19]
FF[4]
ST[3]
KoMi[5.5]
REsult[W+ 2.5p]
BlackRank[9 dan]
WhiteRank[9 dan]
PlayerBlack[Seo Bongsoo]
PlayerWhite[Lee Changho]
DaTe[1999-11-08]
PlaCe[Korea]
ROund[round 1]
EVent[4th Chunwon]
Comment[ ]
;
Black[pd]
;
White[dd]
;
Black[pq]
;
White[cq]
;
Black[fq]
;
White[co]
;
Black[jp]
;
White[nc]
;
Black[pf]
;
White[qk]
;
Black[oc]
;
White[qh]
;
Black[nb]
;
White[hq]
;
Black[dp]
;
White[cp]
;
Black[qm]
;
White[gp]
;
Black[rj]
;
White[pp]
;
Black[qq]
;
White[qj]
;
Black[fo]
;
White[fp]
;
Black[ep]
;
White[go]
;
Black[en]
;
White[fn]
;
Black[cn]
;
White[dn]
;
Black[dm]
;
White[do]
;
Black[eo]
;
White[em]
;
Black[fm]
;
White[el]
;
Black[gn]
;
White[hn]
;
Black[hm]
;
White[in]
;
Black[im]
;
White[jn]
;
Black[dq]
;
White[dl]
;
Black[ip]
;
White[hp]
;
Black[jm]
;
White[kn]
;
Black[mp]
;
White[km]
;
Black[kl]
;
White[ll]
;
Black[lk]
;
White[kk]
;
Black[jl]
;
White[ml]
;
Black[mk]
;
White[nk]
;
Black[nl]
;
White[gl]
;
Black[gm]
;
White[nm]
;
Black[lm]
;
White[mm]
;
Black[ln]
;
White[lo]
;
Black[mn]
;
White[mo]
;
Black[nn]
;
White[om]
;
Black[no]
;
White[ko]
;
Black[lq]
;
White[kq]
;
Black[kr]
;
White[lp]
;
Black[mq]
;
White[lr]
;
Black[ol]
;
White[pn]
;
Black[op]
;
White[jr]
;
Black[pm]
;
White[on]
;
Black[pl]
;
White[mr]
;
Black[po]
;
White[rf]
;
Black[cf]
;
White[ce]
;
Black[df]
;
White[fc]
;
Black[ci]
;
White[ck]
;
Black[jd]
;
White[bf]
;
Black[bg]
;
White[be]
;
Black[nj]
;
White[mb]
;
Black[nd]
;
White[rd]
;
Black[pi]
;
White[qi]
;
Black[gf]
;
White[og]
;
Black[hc]
;
White[nh]
;
Black[db]
;
White[eb]
;
Black[dc]
;
White[ed]
;
Black[bc]
;
White[gb]
;
Black[bb]
;
White[cc]
;
Black[cb]
;
White[cd]
;
Black[hb]
;
White[cg]
;
Black[dg]
;
White[ch]
;
Black[bh]
;
White[dh]
;
Black[ei]
;
White[eh]
;
Black[fh]
;
White[eg]
;
Black[ef]
;
White[fg]
;
Black[gg]
;
White[fi]
;
Black[di]
;
White[gh]
;
Black[ff]
;
White[fh]
;
Black[fj]
;
White[gj]
;
Black[hh]
;
White[gi]
;
Black[fk]
;
White[bi]
;
Black[bj]
;
White[ai]
;
Black[cj]
;
White[ag]
;
Black[cm]
;
White[bl]
;
Black[cr]
;
White[br]
;
Black[bo]
;
White[bp]
;
Black[ap]
;
White[bq]
;
Black[bs]
;
White[ar]
;
Black[gk]
;
White[dr]
;
Black[er]
;
White[cs]
;
Black[ok]
;
White[ph]
;
Black[ea]
;
White[fb]
;
Black[fd]
;
White[gd]
;
Black[fe]
;
White[ec]
;
Black[mg]
;
White[hd]
;
Black[id]
;
White[mh]
;
Black[lh]
;
White[rl]
;
Black[nr]
;
White[ns]
;
Black[or]
;
White[ii]
;
Black[hr]
;
White[ir]
;
Black[gr]
;
White[ks]
;
Black[ih]
;
White[gc]
;
Black[rc]
;
White[mc]
;
Black[kb]
;
White[jb]
;
Black[jc]
;
White[oe]
;
Black[od]
;
White[ne]
;
Black[qd]
;
White[mf]
;
Black[md]
;
White[lg]
;
Black[kg]
;
White[lf]
;
Black[rm]
;
White[sm]
;
Black[sn]
;
White[sl]
;
Black[re]
;
White[qe]
;
Black[sd]
;
White[rn]
;
Black[qn]
;
White[ro]
;
Black[rp]
;
White[ke]
;
Black[kd]
;
White[pe]
;
Black[rg]
;
White[qf]
;
Black[sf]
;
White[kh]
;
Black[ji]
;
White[li]
;
Black[fl]
;
White[ij]
;
Black[jj]
;
White[ik]
;
Black[jk]
;
White[ie]
;
Black[jh]
;
White[je]
;
Black[ha]
;
White[ld]
;
Black[lc]
;
White[le]
;
Black[lb]
;
White[rh]
;
Black[qo]
;
White[so]
;
Black[sp]
;
White[sn]
;
Black[sh]
;
White[si]
;
Black[sg]
;
White[qg]
;
Black[se]
;
White[rk]
;
Black[he]
;
White[if]
;
Black[hg]
;
White[ae]
;
Black[dk]
;
White[cl]
;
Black[ek]
;
White[ki]
;
Black[al]
;
White[bm]
;
Black[bk]
;
White[an]
;
Black[jg]
;
White[kj]
;
Black[ga]
;
White[fa]
;
Black[ni]
;
White[pj]
;
Black[oi]
;
White[mi]
;
Black[os]
;
White[ms]
;
Black[is]
;
White[ah]
;
Black[hk]
;
White[il]
;
Black[hl]
;
White[am]
;
Black[ak]
;
White[iq]
;
Black[es]
;
White[cr]
;
Black[hs]
;
White[js]
)
