(
;
FF[4]
EV[Samsung Cup,3,Korea,Samsung]
RO[1,final]
PB[Ma Xiaochun]
BR[9 dan]
PW[Lee Changho]
WR[9 dan]
KM[5.5]
DT[1999-01-26]
PC[Korea]
RE[B+R]

;B[pd];W[dp];B[qp];W[cd];B[fq];W[nc];B[pf];W[dn];B[kq];W[ic]
;B[pj];W[dj];B[po];W[ed];B[me];W[ol];B[ml];W[on];B[np];W[ql]
;B[qj];W[qn];B[ro];W[mn];B[mj];W[mm];B[kn];W[ll];B[nl];W[nm]
;B[nj];W[lo];B[mq];W[qc];B[pc];W[pb];B[he];W[gc];B[ce];W[de]
;B[cf];W[bd];B[cl];W[cj];B[el];W[fj];B[gl];W[er];B[fg];W[gh]
;B[gd];W[fd];B[gg];W[dg];B[co];W[cp];B[bp];W[bq];B[bn];W[no]
;B[br];W[ap];B[ao];W[bo];B[ob];W[rb];B[bp];W[cq];B[aq];W[cn]
;B[ek];W[bm];B[bl];W[cm];B[am];W[do];B[id];W[oc];B[an];W[bo]
;B[ap];W[fr];B[ej];W[ei];B[eh];W[fh];B[di];W[fi];B[eg];W[dh]
;B[df];W[bg];B[ee];W[dd];B[hh];W[hi];B[ih];W[bf];B[hq];W[fp]
;B[mc];W[nb];B[jj];W[jd];B[jc];W[kc];B[hc];W[jb];B[gb];W[fc]
;B[ib];W[ne];B[nf];W[oe];B[of];W[ke];B[lf];W[rf];B[jc];W[lb]
;B[mb];W[ma];B[nd];W[od];B[pe];W[md];B[re];W[rk];B[rj];W[rd]
;B[se];W[sj];B[si];W[le];B[mf];W[sk];B[rg];W[ri];B[sh];W[ok]
;B[kk];W[jf];B[jg];W[jq];B[jr];W[oj];B[oi];W[kr];B[lr];W[ir]
;B[ks];W[iq];B[ho];W[hr];B[gq];W[fb];B[eq];W[cr];B[gr])
