(
;FF[3]GM[1]AP[PocketGoban Ver 0.999]
SZ[19]PB[Kim Sujang]BR[9 dan]PW[Lee Changho]WR[9 dan]
DT[2001-07-02]
PC[Korea]EV[6th LG Cup]RO[2-1]RE[W+R]KM[6.5]

;B[pd];W[dd];B[qp];W[dp];B[nq];W[qj];B[ql];W[qf];B[mc];W[rd]
;B[qh];W[of];B[pi];W[qg];B[qc];W[rh];B[fq];W[dn];B[ci];W[ck]
;B[cf];W[ce];B[df];W[fc];B[cq];W[dq];B[dr];W[cp];B[br];W[bq]
;B[cr];W[pj];B[jc];W[bf];B[bg];W[be];B[dk];W[cl];B[cj];W[hq]
;B[bp];W[bo];B[aq];W[kq];B[dl];W[bm];B[po];W[pq];B[qq];W[mr]
;B[jq];W[jr];B[mq];W[nr];B[lq];W[lr];B[kp];W[kr];B[gc];W[gb]
;B[fb];W[eb];B[fd];W[ec];B[hb];W[fa];B[gd];W[ne];B[od];W[kf]
;B[jg];W[kj];B[kg];W[ij];B[ok];W[oj];B[nk];W[mi];B[oq];W[ej]
;B[fk];W[fj];B[gj];W[gi];B[gk];W[hi];B[lf];W[eh];B[fn];W[dj]
;B[ee];W[ek];B[el];W[le];B[ke];W[ld];B[jf];W[jp];B[jo];W[ip]
;B[kn];W[hl];B[hn];W[io];B[in];W[jm];B[jn];W[lc];B[lb];W[kb]
;B[mb];W[nd];B[nc];W[kc];B[jb];W[rc];B[lk];W[rl];B[rm];W[rk]
;B[sm];W[kk];B[kl];W[ll];B[ml];W[jl];B[km];W[lj];B[mk];W[qb]
;B[pb];W[qd];B[pc];W[pr];B[or];W[os];B[qr];W[mg];B[mf];W[nf]
;B[gr];W[hr];B[ao];W[an];B[co];W[ap];B[fi];W[fh];B[ao];W[bn]
;B[rb];W[sb];B[ra];W[hf];B[gf];W[gg];B[he];W[ff];B[pp];W[ge]
;B[if];W[bk];B[il];W[im];B[hm];W[ik];B[ps];W[qm];B[pl];W[dm]
;B[fm];W[cg];B[dg];W[ch];B[dh];W[bh];B[bi];W[ag];B[pe];W[gl]
;B[fl];W[ei];B[di];W[ha];B[ia];W[hc];B[ga];W[de];B[ef];W[ha]
;B[ib];W[hd];B[ie];W[fe];B[ed];W[ai];B[ga];W[qn]
)