(
;FF[3]GM[1]AP[PocketGoban Ver 0.996]
SZ[19]PB[Cho Hunhyun]BR[9 dan]PW[Lee Changho]WR[9 dan]
DT[2001-01-12]
PC[Korea]EV[35th Paewang]RO[19]RE[B+10.5]KM[6.5]

;B[pd];W[dp];B[pq];W[dd];B[fq];W[cn];B[jp];W[qn];B[po];W[qk]
;B[qo];W[qh];B[nc];W[qq];B[or];W[ro];B[rp];W[rn];B[pn];W[ip]
;B[iq];W[hq];B[hp];W[io];B[hr];W[jq];B[gq];W[ir];B[pk];W[pl]
;B[qj];W[pj];B[ok];W[ql];B[kq];W[hq];B[pi];W[rj];B[iq];W[qp]
;B[jr];W[qr];B[oj];W[ol];B[fc];W[cf];B[id];W[dr];B[dg];W[cg]
;B[di];W[db];B[nl];W[nm];B[ml];W[mm];B[lm];W[pp];B[mn];W[on]
;B[nn];W[om];B[ll];W[ph];B[dm];W[ni];B[mi];W[hh];B[hj];W[fe]
;B[cm];W[dn];B[en];W[bm];B[bl];W[bn];B[fg];W[he];B[hd];W[gg]
;B[gi];W[fh];B[eg];W[gh];B[ee];W[ed];B[fd];W[ff];B[ei];W[ef]
;B[ji];W[rd];B[kd];W[np];B[mq];W[ea];B[qc];W[eo];B[fn];W[fo]
;B[go];W[cl];B[dl];W[ck];B[dk];W[qe];B[oi];W[qi];B[bk];W[cj]
;B[ci];W[bj];B[bi];W[ak];B[af];W[bf];B[eb];W[ec];B[fb];W[fi]
;B[fj];W[hi];B[gj];W[ii];B[jj];W[fa];B[ga];W[da];B[hb];W[ag]
;B[pe];W[rc];B[rb];W[jf];B[ie];W[if];B[lf];W[oh];B[nh];W[ng]
;B[mh];W[sb];B[qb];W[nq];B[nr];W[mo];B[ln];W[no];B[er];W[lp]
;B[lo];W[lq];B[mr];W[mp];B[lr];W[eq];B[fs];W[ds];B[fp];W[ep]
;B[of];W[og];B[qf];W[rf];B[re];W[se];B[qd];W[re];B[ah];W[bg]
;B[cc];W[cd];B[ge];W[hf];B[df];W[de];B[jh];W[jg];B[dj];W[al]
;B[nf];W[mg];B[lg];W[je];B[gd];W[gf];B[sc];W[jd];B[jc];W[kp]
;B[ko];W[ij];B[ik];W[kg];B[kh];W[ke];B[le];W[mf];B[me];W[sd]
;B[pr];W[ps];B[os];W[qs];B[ih];W[ig];B[op];W[oo];B[oq];W[es]
;B[fr];W[rg];B[pj];W[ra];B[qa];W[sc];B[eh];W[ch];B[ai];W[sa]
)