(
;FF[1]GM[1]AP[PocketGoban Ver 0.996]
SZ[19]PB[Cho Hunhyun]BR[9 dan]PW[Lee Chanho]WR[9 dan]
DT[2001-02-23]
PC[Korea]EV[35th Paewang]RO[t2]RE[W+R]KM[6.5]

;B[pd];W[dd];B[pq];W[dp];B[fq];W[cn];B[jp];W[pn];B[qo];W[qj]
;B[po];W[qg];B[nc];W[hq];B[hp];W[ip];B[io];W[iq];B[jq];W[gp]
;B[ho];W[gq];B[jo];W[fp];B[ql];W[qq];B[pr];W[qn];B[rm];W[rn]
;B[ro];W[pl];B[on];W[pk];B[sn];W[rd];B[cf];W[fc];B[bd];W[cc]
;B[ci];W[lc];B[qc];W[ck];B[pi];W[qi];B[id];W[le];B[ig];W[qe]
;B[lg];W[ne];B[md];W[me];B[ld];W[kd];B[kc];W[jc];B[kb];W[jd]
;B[lb];W[ml];B[cq];W[cp];B[dq];W[er];B[bp];W[bo];B[eq];W[fr]
;B[ep];W[eo];B[fo];W[en];B[dr];W[bq];B[br];W[ap];B[cs];W[ar]
;B[es];W[gs];B[go];W[jr];B[kr];W[js];B[hr];W[ir];B[hs];W[lr]
;B[kq];W[ks];B[mq];W[bs];B[as];W[aq];B[mr];W[bs];B[gc];W[gd]
;B[as];W[hc];B[bs];W[cg];B[bg];W[bf];B[dg];W[ce];B[ch];W[be]
;B[mj];W[mk];B[nj];W[pm];B[pg];W[ph];B[oh];W[qh];B[bk];W[bl]
;B[dk];W[cl];B[lk];W[ll];B[kl];W[fk];B[fl];W[dj];B[gk];W[fj]
;B[gj];W[fi];B[gi];W[fh];B[ef];W[cj];B[fe];W[de];B[ge];W[hd]
;B[ie];W[jb];B[fd];W[gb];B[he];W[rc];B[ec];W[eb];B[km];W[fm]
;B[gl];W[nn];B[om];W[ol];B[nm];W[mn];B[no];W[df];B[eg];W[nl]
;B[rb];W[cg];B[di];W[mg];B[lh];W[eh];B[cf];W[gm];B[hm];W[cg]
;B[dh];W[el];B[rk];W[qd];B[pc];W[sb];B[sc];W[rj];B[bh];W[bj]
;B[kf];W[og];B[ng];W[of];B[nh];W[gh];B[hh];W[kn];B[jn];W[mf]
;B[pe];W[pf];B[ed];W[mh];B[dc];W[db];B[mi];W[oj];B[oi];W[ja]
;B[ka];W[gg]
)