(
;FF[3]GM[1]AP[PocketGoban Ver 0.999]
SZ[19]PB[Cho Hunhyun]BR[9 dan]PW[Lee Changho]WR[9 dan]
DT[2001-07-19]
PC[Korea]EV[35th Wangwi]RO[t2]RE[W+R]KM[5.5]

;B[pd];W[dd];B[pq];W[dp];B[fq];W[hq];B[qo];W[nc];B[qf];W[pb]
;B[mc];W[md];B[lc];W[qc];B[nb];W[oc];B[qd];W[ob];B[ld];W[mf]
;B[fc];W[qh];B[og];W[oe];B[of];W[pj];B[mg];W[lg];B[me];W[ne]
;B[nd];W[od];B[lf];W[nf];B[ng];W[kf];B[le];W[lh];B[nj];W[hd]
;B[ie];W[fd];B[jg];W[ql];B[cc];W[dc];B[cd];W[ce];B[be];W[bf]
;B[cf];W[de];B[bg];W[id];B[je];W[bd];B[af];W[bc];B[fo];W[cn]
;B[ip];W[hp];B[ho];W[iq];B[jp];W[jq];B[kp];W[lq];B[dm];W[cm]
;B[dl];W[ck];B[mo];W[go];B[gn];W[gp];B[fp];W[mr];B[hn];W[hh]
;B[ji];W[ii];B[ih];W[ig];B[jh];W[eg];B[ci];W[dq];B[rm];W[rl]
;B[pk];W[qj];B[ok];W[rg];B[ri];W[ni];B[rf];W[qg];B[ph];W[qi]
;B[pf];W[oi];B[mi];W[mh];B[nh];W[mj];B[li];W[nk];B[oj];W[lj]
;B[ki];W[ol];B[pi];W[pl];B[oh];W[rn];B[rb];W[rc];B[mb];W[sb]
;B[qk];W[rj];B[rk];W[sk];B[qm];W[qn];B[pm];W[sm];B[pn];W[ro]
;B[qp];W[rq];B[rp];W[sp];B[qr];W[po];B[on];W[nn];B[oo];W[ml]
;B[gr];W[hr];B[nm];W[mm];B[nq];W[kl]
)