(
;FF[3]GM[1]AP[PocketGoban Ver 0.999]
SZ[19]PB[Lee Changho]BR[Meijin]PW[Yoo Changhyuk]WR[9 dan]
DT[2001-12-04]
PC[Korea]EV[32nd Myeongjin(Meijin)]RO[t5]RE[B+3.5]GC[Lee Changho wins at 3-2.
He has kept Meijin title for 4-years.]KM[6.5]

;B[qd];W[dp];B[dd];W[pq];B[qo];W[nc];B[pc];W[jd];B[hc];W[ne]
;B[fq];W[hp];B[op];W[oq];B[np];W[nq];B[mp];W[fp];B[cq];W[dq]
;B[cp];W[co];B[bo];W[cn];B[bn];W[cm];B[dr];W[er];B[cr];W[eq]
;B[pg];W[cf];B[cd];W[ef];B[bm];W[fc];B[fd];W[ec];B[ed];W[gc]
;B[gd];W[hb];B[ic];W[ib];B[jc];W[hd];B[kd];W[he];B[jb];W[cb]
;B[ff];W[ke];B[id];W[gf];B[je];W[fg];B[bb];W[db];B[bf];W[bg]
;B[cg];W[dg];B[be];W[jf];B[le];W[kf];B[lf];W[ld];B[md];W[lc]
;B[mc];W[lb];B[mb];W[me];B[nd];W[od];B[nb];W[lg];B[mf];W[mg]
;B[nf];W[ng];B[of];W[ie];B[la];W[jd];B[kb];W[ml];B[rq];W[lq]
;B[lm];W[ll];B[km];W[kl];B[jm];W[jl];B[bc];W[fb];B[lp];W[kq]
;B[hm];W[il];B[im];W[qm];B[go];W[gp];B[mq];W[mr];B[nr];W[lr]
;B[qj];W[pj];B[qi];W[ck];B[gk];W[on];B[pp];W[qq];B[rr];W[mn]
;B[ko];W[qp];B[rp];W[po];B[qn];W[or];B[nn];W[nm];B[no];W[om]
;B[mm];W[rn];B[ro];W[rl];B[sn];W[pi];B[ph];W[gl];B[hl];W[hk]
;B[fl];W[gj];B[fk];W[fj];B[qk];W[pl];B[rm];W[ba];B[ad];W[af]
;B[ab];W[ek];B[el];W[dk];B[ql];W[bl];B[oh];W[ni];B[nh];W[mh]
;B[oi];W[oj];B[pm];W[ol];B[es];W[fs];B[ds];W[gr];B[mi];W[nj]
;B[kg];W[jg];B[bj];W[ch];B[al];W[ak];B[am];W[bk];B[jp];W[fm]
;B[gm];W[em];B[jq];W[jr];B[ho];W[dl];B[gl];W[ip];B[io];W[iq]
;B[qr];W[kp];B[jo];W[fo];B[ia];W[ha];B[fe];W[ja];B[kh];W[li]
;B[gg];W[hg];B[ge];W[gh];B[pk];W[ok];B[ps];W[ns];B[de];W[df]
;B[ca];W[da];B[pn];W[oo];B[lo];W[gn];B[hn];W[fn];B[os];W[dc]
;B[ka];W[ia];B[ae];W[ag];B[pr];W[nr];B[je];W[mj];B[jd]
)