(
;FF[3]GM[1]AP[PocketGoban Ver 0.999]
SZ[19]PB[Mok Jinseok]BR[6 dan]PW[Lee Changho]WR[9 dan]
DT[2002-01-04]
PC[Korea]EV[13th Kiseong(Kisei)]RO[t1]RE[B+R]KM[6.5]

;B[pd];W[dd];B[cp];W[pp];B[nq];W[qn];B[pr];W[qq];B[kq];W[eq]
;B[dq];W[ep];B[do];W[jq];B[jr];W[ir];B[iq];W[jp];B[hr];W[ip]
;B[is];W[hq];B[gq];W[ir];B[cf];W[fc];B[iq];W[hp];B[gp];W[gr]
;B[ir];W[go];B[fr];W[gs];B[fs];W[fq];B[hs];W[gr];B[gs];W[fp]
;B[kp];W[ch];B[cj];W[gr];B[kn];W[cd];B[qf];W[pb];B[qc];W[mc]
;B[qk];W[dg];B[dl];W[dp];B[co];W[er];B[dr];W[im];B[lc];W[ld]
;B[kc];W[mb];B[kd];W[le];B[gc];W[gd];B[hc];W[fb];B[oc];W[ob]
;B[md];W[od];B[nd];W[oe];B[nc];W[pc];B[nb];W[qd];B[pe];W[ne]
;B[ma];W[me];B[lb];W[qe];B[pf];W[rc];B[ng];W[mg];B[mh];W[lh]
;B[lg];W[kg];B[mf];W[lf];B[mg];W[jf];B[bi];W[bh];B[kh];W[jh]
;B[li];W[rf];B[rg];W[qr];B[es];W[re];B[qh];W[hd];B[ic];W[ji]
;B[di];W[ci];B[bj];W[ei];B[dj];W[eh];B[ig];W[if];B[hh];W[jg]
;B[dh];W[cg];B[ah];W[ag];B[eg];W[fg];B[ef];W[ai];B[ee];W[gi]
;B[bf];W[af];B[bd];W[bc];B[be];W[ae];B[cc];W[ad];B[hf];W[gg]
;B[bb];W[ac];B[ie];W[fd];B[he];W[hg];B[rm];W[qm];B[rn];W[ro]
;B[ql];W[sn];B[ke];W[kf];B[rl];W[id];B[je];W[ia];B[oa];W[qa]
;B[gb];W[ga];B[ha];W[hb];B[ib];W[cb];B[ha];W[fa];B[dc];W[db]
;B[gm];W[hb];B[ja];W[hm];B[gl];W[kl];B[hi];W[gj];B[gf];W[ff]
;B[hj];W[hk];B[gk];W[ih];B[hl];W[ik];B[il];W[jm];B[fe];W[ge]
;B[fj];W[fi];B[gh];W[fh];B[ej];W[ig];B[ij]
)