(
;FF[3]GM[1]AP[PocketGoban Ver 0.999]
SZ[19]PB[Lee Sedol]BR[3 dan]PW[Lee Changho]WR[9 dan]
DT[2002-07-12]
PC[Korea]EV[36th Wangwi]RO[t1]RE[B+R]KM[6.5]

;B[pd];W[dd];B[pq];W[dp];B[cf];W[fc];B[bd];W[cg];B[dg];W[ch]
;B[dh];W[bf];B[ce];W[cj];B[di];W[ck];B[cc];W[ic];B[fq];W[cn]
;B[qk];W[eq];B[kp];W[iq];B[er];W[dr];B[ep];W[dq];B[ip];W[hp]
;B[io];W[jq];B[kq];W[ho];B[hn];W[gn];B[gm];W[gq];B[in];W[fm]
;B[gl];W[fl];B[fk];W[ek];B[gk];W[ok];B[pi];W[qo];B[qm];W[oo]
;B[om];W[rq];B[nq];W[np];B[mq];W[pr];B[jd];W[jc];B[kd];W[he]
;B[qq];W[qr];B[rr];W[rs];B[rp];W[sr];B[op];W[mh];B[oh];W[kh]
;B[ie];W[if];B[hf];W[id];B[je];W[jf];B[kf];W[kg];B[lf];W[mf]
;B[hg];W[ih];B[ge];W[hd];B[md];W[le];B[kc];W[dc];B[ke];W[mg]
;B[of];W[lk];B[ji];W[jk];B[ii];W[hh];B[hj];W[ki];B[ej];W[nm]
;B[nl];W[ml];B[ol];W[nn];B[lm];W[mm];B[ro];W[ln];B[km];W[nk]
;B[ni];W[mi];B[nj];W[mp];B[lo];W[kn];B[ko];W[mo];B[on];W[jj]
;B[kl];W[gj];B[jh];W[jg];B[gi];W[il];B[jn];W[mn];B[jm];W[gh]
;B[fg];W[hi];B[ij];W[fi];B[hk];W[ef];B[fh];W[gg];B[gf];W[ig]
;B[ee];W[hm];B[fn];W[go];B[fo];W[lr];B[kr];W[lq];B[lp];W[qp]
;B[ls];W[or];B[oq];W[po];B[qn];W[jp];B[jr]
)