(
;FF[3]GM[1]AP[PocketGoban Ver 0.999]
SZ[19]PB[Lee Changho]BR[9 dan]PW[Chen Seuyen]WR[2 dan]
DT[2002-01-10]
PC[Korea]EV[1st KTF Cup]RO[b-4]RE[B+R]KM[6.5]

;B[pd];W[dd];B[pq];W[dp];B[jp];W[qn];B[po];W[rp];B[ql];W[pn]
;B[qo];W[ro];B[qq];W[nn];B[rm];W[rn];B[mp];W[pl];B[pk];W[qk]
;B[ol];W[pm];B[qj];W[rk];B[pj];W[rj];B[ri];W[rl];B[fq];W[cn]
;B[fc];W[id];B[cc];W[dc];B[cd];W[de];B[db];W[eb];B[cb];W[ec]
;B[cf];W[nc];B[qf];W[pb];B[qc];W[ld];B[fb];W[fd];B[hb];W[gc]
;B[gb];W[ic];B[ib];W[jb];B[hc];W[hd];B[gd];W[ge];B[fe];W[gc]
;B[jc];W[jd];B[gd];W[np];B[nq];W[gc];B[kc];W[kb];B[gd];W[ff]
;B[ed];W[ee];B[fd];W[eg];B[gf];W[he];B[ch];W[ei];B[dq];W[cq]
;B[cr];W[eq];B[dr];W[fp];B[er];W[ep];B[gp];W[go];B[hp];W[cj]
;B[hn];W[bq];B[gn];W[hj];B[nd];W[md];B[nf];W[ne];B[oe];W[od]
;B[oc];W[nd];B[of];W[qb];B[kg];W[pc];B[qd];W[rh];B[si];W[li]
;B[mh];W[mi];B[nh];W[mo];B[lp];W[op];B[oo];W[no];B[oq];W[nk]
;B[nj];W[nl];B[br];W[fn];B[bj];W[bi];B[ci];W[bg];B[ck];W[ea]
;B[fa];W[ce];B[be];W[bf];B[ad];W[bh];B[dj];W[cg];B[cm];W[dm]
;B[dl];W[bm];B[em];W[cl];B[bl];W[el];B[cm];W[gq];B[dn];W[fr]
;B[cp];W[iq];B[jq];W[co];B[bp];W[do];B[fm];W[en];B[dm];W[bo]
;B[aq];W[fo];B[hr];W[hq];B[ir];W[ip];B[ho];W[io];B[hl];W[kn]
;B[qh]
)