(
;FF[3]GM[1]AP[PocketGoban Ver 0.999]
SZ[19]PB[Lee Changho]BR[9 dan]PW[An Joyeong]WR[7 dan]
DT[2002-03-07]
PC[Korea]EV[36th Paewang]RO[19]RE[B+R]GC[Finalist; Yoo Changhyuk, An Joyeong, Lee Changho]KM[6.5]

;B[qd];W[dc];B[dq];W[pp];B[ce];W[dn];B[co];W[dh];B[fe];W[fc]
;B[ed];W[ec];B[cj];W[ej];B[ei];W[di];B[dj];W[ef];B[ek];W[fj]
;B[fk];W[fi];B[gk];W[dd];B[bh];W[go];B[gq];W[io];B[qn];W[oc]
;B[nq];W[oo];B[qq];W[pf];B[od];W[pd];B[pe];W[pc];B[qe];W[oe]
;B[of];W[nd];B[pg];W[nf];B[og];W[ng];B[me];W[ne];B[je];W[jg]
;B[jc];W[lc];B[hc];W[ib];B[kc];W[hb];B[gc];W[gb];B[ld];W[mc]
;B[ig];W[ih];B[hg];W[hh];B[jh];W[kg];B[gh];W[gi];B[fh];W[hj]
;B[eh];W[gg];B[fg];W[gf];B[ff];W[ge];B[gd];W[if];B[fd];W[de]
;B[dg];W[do];B[dp];W[cn];B[bo];W[il];B[oi];W[pq];B[qp];W[om]
;B[hp];W[ho];B[po];W[op];B[pl];W[ol];B[on];W[nn];B[pn];W[mo]
;B[ok];W[nk];B[nl];W[nm];B[oj];W[jq];B[ir];W[jr];B[pr];W[or]
;B[qr];W[nr];B[mj];W[bn];B[ep];W[fn];B[bl];W[ml];B[cf];W[nj]
;B[mh];W[mi];B[bc];W[rc];B[cb];W[kb];B[mr];W[mq];B[jb];W[ja]
;B[lb];W[ka];B[nh];W[lh];B[rd];W[qc];B[sc];W[sb];B[sd];W[pm]
;B[qm];W[dl];B[dk];W[hr];B[gr];W[iq];B[an];W[am];B[ao];W[bm]
;B[gm];W[qf];B[rf];W[qg];B[qh];W[rg];B[rh];W[db];B[ia];W[ha]
;B[ic];W[fb];B[hk];W[ik];B[im];W[hl];B[hm];W[gl];B[fl];W[fm]
;B[ii];W[hf];B[hi];W[ji];B[gj];W[ij];B[gi];W[jj];B[ni];W[li]
;B[la];W[ia];B[cl];W[er];B[dr];W[bq];B[cq];W[gs];B[fs];W[hs]
;B[hq];W[is];B[fr];W[fp];B[eo];W[fo];B[al];W[dm];B[br];W[fq]
;B[eq];W[ie];B[rb];W[ra];B[sa];W[df];B[eg];W[sb];B[ps];W[os]
;B[sa];W[ql];B[pk];W[sb];B[ig];W[kh];B[sa];W[ro];B[qo];W[sb]
;B[np];W[no];B[sa];W[cp];B[bp];W[sb];B[mk];W[nl];B[sa];W[ap]
;B[aq];W[sb];B[ns];W[oq];B[sa]
)