(
;FF[3]GM[1]AP[PocketGoban Ver 0.999]
SZ[19]PB[Choi Kyubyeong]BR[9 dan]PW[Lee Changho]WR[9 dan]
DT[2002-09-30]
PC[Korea]EV[2nd KT Cup]RO[2-10]RE[W+R]KM[6.5]

;B[pd];W[dd];B[pq];W[dp];B[fq];W[cn];B[ip];W[pn];B[ql];W[op]
;B[pp];W[po];B[oq];W[np];B[mr];W[ro];B[rp];W[mq];B[om];W[lr]
;B[nr];W[lo];B[kp];W[pm];B[pl];W[ol];B[ok];W[nl];B[nk];W[pj]
;B[ml];W[nm];B[pk];W[qf];B[qh];W[ph];B[qi];W[nd];B[pf];W[pg]
;B[qg];W[pc];B[of];W[qc];B[qd];W[od];B[rc];W[nf];B[ng];W[mg]
;B[mf];W[ne];B[og];W[mh];B[lf];W[ld];B[jf];W[ki];B[kd];W[ke]
;B[je];W[kf];B[kg];W[le];B[fc];W[jd];B[cf];W[df];B[dg];W[ef]
;B[ce];W[cd];B[kc];W[pe];B[qe];W[id];B[he];W[kb];B[de];W[ed]
;B[ee];W[fd];B[fe];W[gd];B[hd];W[hc];B[ge];W[jc];B[cl];W[jg]
;B[ih];W[rf];B[re];W[oh];B[rg];W[nh];B[sf];W[dr];B[jh];W[lg]
;B[bd];W[bc];B[lq];W[kh];B[ij];W[ig];B[hg];W[be];B[er];W[eq]
;B[fr];W[fp];B[gp];W[go];B[cq];W[dq];B[fo];W[ep];B[hp];W[fn]
;B[bf];W[ad];B[dn];W[cm];B[dl];W[dm];B[el];W[bm];B[bl];W[gm]
;B[hl];W[rb];B[sb];W[hf];B[gg];W[qj];B[mj];W[oj];B[mn];W[nn]
;B[bo];W[cr];B[am];W[an];B[al];W[bn];B[rj];W[rk];B[ri];W[rl]
;B[rm];W[qk];B[qm];W[sp];B[rq];W[mm]
)