(
;FF[3]GM[1]AP[PocketGoban Ver 0.999]
SZ[19]PB[Lee Changho]BR[9 dan]PW[Mok Jinseok]WR[6 dan]
DT[2002-03-28]
PC[Korea]EV[13th Kiseong]RO[t5]RE[B+2.5]GC[Lee Changho wins at 3-2.
He has kept Kiseong title for 10 years.]KM[6.5]

;B[qd];W[dp];B[cd];W[pp];B[qn];W[nq];B[pj];W[nc];B[od];W[pb]
;B[lc];W[nd];B[oc];W[ob];B[qc];W[nf];B[mb];W[nb];B[pg];W[ld]
;B[kd];W[kc];B[le];W[md];B[jc];W[kb];B[jb];W[jd];B[ke];W[lb]
;B[id];W[cm];B[ck];W[ci];B[cg];W[je];B[if];W[jf];B[ka];W[mc]
;B[jg];W[kf];B[ie];W[lf];B[gc];W[cc];B[bd];W[hc];B[hd];W[dd]
;B[dc];W[ec];B[db];W[de];B[eb];W[eg];B[dh];W[fc];B[fd];W[eh]
;B[ei];W[di];B[ch];W[cf];B[bf];W[be];B[ce];W[df];B[bh];W[fi]
;B[ej];W[gb];B[gd];W[fb];B[bc];W[ed];B[hb];W[gh];B[dq];W[eq]
;B[er];W[ep];B[dr];W[gq];B[gr];W[hr];B[fr];W[hq];B[cp];W[co]
;B[bp];W[fl];B[el];W[em];B[on];W[qo];B[rn];W[oj];B[pk];W[pi]
;B[qi];W[fj];B[ek];W[hg];B[ig];W[ji];B[hf];W[ge];B[ii];W[ij]
;B[jj];W[kj];B[jk];W[ih];B[jh];W[hi];B[ki];W[ii];B[li];W[lj]
;B[lg];W[mi];B[mj];W[mf];B[kg];W[lh];B[kh];W[mk];B[nj];W[nk]
;B[ni];W[ll];B[nh];W[nn];B[dm];W[en];B[fk];W[gk];B[gl];W[fm]
;B[no];W[oo];B[kl];W[lk];B[mo];W[mn];B[lo];W[ln];B[op];W[po]
;B[ko];W[pn];B[hk];W[gj];B[om];W[kn];B[oq];W[pq];B[or];W[pm]
;B[pr];W[qr];B[kq];W[jo];B[jp];W[io];B[qm];W[dl];B[dk];W[pl]
;B[ql];W[ok];B[oi];W[pf];B[qf];W[og];B[ph];W[jr];B[kr];W[ps]
;B[np];W[cl];B[bj];W[bo];B[ip];W[ap];B[bq];W[aq];B[ar];W[ao]
;B[br];W[hp];B[bl];W[bm];B[qb];W[ea];B[cb];W[pe];B[qe];W[al]
;B[bk];W[ro];B[so];W[sp];B[sn];W[rq];B[gf];W[ha];B[ic];W[bi]
;B[ai];W[qa];B[ra];W[pa];B[rb];W[qk];B[rk];W[bg];B[ag];W[qj]
;B[rj];W[gg];B[oe];W[of];B[os];W[ks];B[ls];W[js];B[lr];W[qs]
;B[jq];W[hs];B[fq];W[fp];B[ff];W[mg];B[mh];W[iq];B[fg];W[fh]
;B[ef];W[dg];B[ak];W[am];B[ee];W[gs];B[ne];W[me];B[fs];W[ia]
;B[ja];W[la];B[da];W[fa];B[ib];W[ga]
)