(
;FF[3]GM[1]AP[PocketGoban Ver 0.999]
SZ[19]PB[Lee Changho]BR[9 dan]PW[Song Taekon ]WR[2 dan]
DT[2002-05-27]
PC[Korea]EV[7th LG Cup]RO[1-3]RE[W+R]KM[6.5]

;B[qd];W[dp];B[pp];W[dc];B[oc];W[de];B[qj];W[jd];B[cj];W[ch]
;B[cn];W[gq];B[cc];W[cd];B[bp];W[cl];B[en];W[dk];B[cm];W[cq]
;B[bl];W[nq];B[pn];W[pr];B[qq];W[lp];B[iq];W[fo];B[lq];W[mq]
;B[kq];W[no];B[jn];W[rd];B[re];W[dj];B[ec];W[cb];B[hc];W[ic]
;B[hd];W[if];B[ed];W[eb];B[ee];W[fc];B[fd];W[fb];B[hf];W[ig]
;B[hg];W[hh];B[gh];W[gi];B[fh];W[df];B[fi];W[hi];B[fj];W[ck]
;B[bk];W[bj];B[ie];W[je];B[jf];W[jg];B[kf];W[ji];B[kg];W[jm]
;B[kn];W[im];B[jh];W[ih];B[kh];W[ki];B[li];W[lj];B[mj];W[lk]
;B[mi];W[le];B[hj];W[jk];B[mf];W[nd];B[nc];W[hb];B[mn];W[ge]
;B[fm];W[he];B[op];W[mo];B[ln];W[qr];B[rr];W[fk];B[ci];W[bi]
;B[ej];W[ek];B[gj];W[ii];B[gl];W[di];B[hm];W[lr];B[kr];W[ms]
;B[gr];W[fr];B[gp];W[fq];B[or];W[oq];B[nr];W[pq];B[mr];W[qp]
;B[rq];W[qo];B[qn];W[po];B[ro];W[oo];B[rp];W[hn];B[bq];W[nm]
;B[nn];W[on];B[om];W[ol];B[pm];W[lo];B[np];W[hl];B[gk];W[jr]
;B[jq];W[ks];B[ls];W[fn];B[em];W[lr];B[ml];W[ls];B[ir];W[os]
;B[ld];W[mk];B[nk];W[nl];B[ok];W[qc];B[qe];W[md];B[lc];W[ke]
;B[me];W[pl];B[mm];W[mg];B[ng];W[lf];B[mh];W[pc];B[ob];W[rb]
;B[pb];W[qb];B[sc];W[sd];B[qa];W[lg];B[nf];W[gg];B[js];W[ns]
;B[jb];W[ib];B[cr];W[gm];B[fl];W[nh];B[nj];W[oi];B[pk];W[od]
;B[pd];W[og];B[of];W[pf];B[pg];W[ph];B[oh];W[ql];B[rm];W[og]
;B[oe];W[qg];B[qf];W[qi]
)