(
;FF[3]GM[1]AP[PocketGoban Ver 0.999]
SZ[19]PB[Hane Naoki]BR[9 dan]PW[Lee Changho]WR[9 dan]
DT[2003-03-16]
PC[Seoul, Korea]EV[4th Chunlan Cup]RO[f1]RE[W+R]KM[7.5]

;B[qd];W[dp];B[dc];W[ce];B[dh];W[od];B[oe];W[ne];B[pe];W[nd]
;B[pc];W[gd];B[de];W[dd];B[ed];W[cd];B[cc];W[bc];B[fc];W[dg]
;B[df];W[cf];B[eg];W[cg];B[eh];W[bb];B[jd];W[ci];B[jf];W[ng]
;B[pg];W[pp];B[qn];W[nq];B[oi];W[ni];B[oj];W[gc];B[fe];W[ge]
;B[gf];W[hf];B[gg];W[fb];B[hg];W[eb];B[ec];W[jc];B[kd];W[kc]
;B[ic];W[lc];B[hb];W[ib];B[hc];W[gb];B[ha];W[db];B[nb];W[ld]
;B[if];W[rp];B[li];W[mi];B[mf];W[nf];B[mj];W[nj];B[nk];W[ke]
;B[id];W[mb];B[nc];W[lh];B[lj];W[kh];B[on];W[rn];B[rm];W[qo]
;B[pn];W[fq];B[cq];W[cp];B[dq];W[eq];B[bp];W[bo];B[br];W[ap]
;B[aq];W[bq];B[kf];W[lf];B[bp];W[pd];B[qb];W[bq];B[lg];W[le]
;B[bp];W[qe];B[og];W[rd];B[qc];W[qf];B[rc];W[bq];B[kg];W[mg]
;B[bp];W[qh];B[ok];W[ma];B[ao];W[ri];B[re];W[rf];B[sd];W[rk]
;B[qj];W[rj];B[sn];W[ro];B[hq];W[lq];B[kp];W[hp];B[ip];W[ho]
;B[kq];W[hr];B[iq];W[eo];B[bn];W[gq]
)