(
;FF[3]GM[1]AP[PocketGoban Ver 0.999]
SZ[19]PB[Song Taekon]BR[4 dan]PW[Lee Changho]WR[9 dan]
DT[2003-07-05]
PC[Tokyo, Japan]EV[16th Fujitsu Cup]RO[sf2]RE[B+R]KM[6.5]

;B[qd];W[dd];B[pq];W[oc];B[md];W[ne];B[pe];W[me];B[ld];W[le]
;B[kd];W[nd];B[gc];W[id];B[ic];W[hd];B[hc];W[jd];B[jc];W[ke]
;B[gd];W[qf];B[pf];W[qg];B[pg];W[ph];B[oh];W[pi];B[ng];W[mh]
;B[oi];W[pj];B[mg];W[if];B[oj];W[pk];B[df];W[ef];B[ee];W[de]
;B[cf];W[eg];B[ed];W[dc];B[bd];W[bc];B[dh];W[be];B[bf];W[ad]
;B[mb];W[dp];B[he];W[kg];B[hg];W[ig];B[hh];W[ji];B[qn];W[cn]
;B[jq];W[dj];B[eh];W[hq];B[rk];W[rj];B[pb];W[nq];B[po];W[lq]
;B[jo];W[mn];B[kl];W[ml];B[kj];W[jj];B[fr];W[dr];B[hr];W[ir]
;B[iq];W[gr];B[gq];W[hs];B[hp];W[jr];B[hr];W[pr];B[qr];W[hq]
;B[rh];W[re];B[hr];W[oq];B[pp];W[hq];B[rd];W[qh];B[hr];W[hf]
;B[gf];W[hq];B[mp];W[hr];B[mq];W[mr];B[kq];W[kr];B[lp];W[lr]
;B[rl];W[qm];B[rm];W[ri];B[cl];W[ek];B[dn];W[co];B[el];W[hj]
;B[fl];W[bl];B[ck];W[cm];B[bk];W[dm];B[dl];W[gk];B[fp];W[go]
;B[gp];W[mc];B[lb];W[pc];B[qb];W[ob];B[mj];W[qe];B[pd];W[ie]
;B[ok];W[oo];B[ge];W[il];B[eb];W[db];B[da];W[ec];B[fb];W[ca]
;B[ea];W[cb];B[or];W[nr];B[ps];W[cj];B[bj];W[ci];B[hm];W[hl]
;B[gm];W[kn];B[jn];W[im];B[in];W[lk];B[jm];W[fc];B[gb];W[kk]
;B[en];W[qc];B[rb];W[em];B[fn];W[rc];B[sc];W[al];B[fi];W[ch]
;B[cg];W[ah];B[nb];W[nc];B[lh];W[fd];B[fe];W[ep];B[ag];W[bh]
;B[ej];W[ei];B[di];W[af];B[ae];W[of];B[ce];W[og];B[oa]
)