(
;FF[3]GM[1]AP[PocketGoban Ver 0.999]
SZ[19]PB[Lee Changho]BR[9 dan]PW[Cho Hunhyun]WR[9 dan]
DT[2003-08-06]
PC[Korea Kiin, Korea ]EV[37th Wangwi]RO[t4]RE[B+R]GC[Lee Changho has held the title at 3-1.]KM[6.5]

;B[pd];W[dd];B[pq];W[dp];B[qk];W[mp];B[kp];W[oo];B[qo];W[ln]
;B[fq];W[cn];B[ip];W[er];B[fr];W[eq];B[fo];W[fn];B[gn];W[gm]
;B[ep];W[eo];B[fp];W[do];B[fm];W[en];B[hn];W[gl];B[ch];W[cf]
;B[ck];W[eh];B[fk];W[fl];B[ek];W[el];B[dq];W[dr];B[bm];W[bn]
;B[jc];W[hc];B[nc];W[re];B[rd];W[qd];B[qe];W[qc];B[rc];W[pe]
;B[qf];W[pc];B[od];W[rf];B[rb];W[qg];B[pf];W[og];B[of];W[nf]
;B[pg];W[ph];B[oe];W[oh];B[po];W[ol];B[on];W[kq];B[jq];W[lp]
;B[ei];W[fi];B[di];W[ko];B[qh];W[qi];B[rg];W[jr];B[ir];W[jp]
;B[iq];W[rh];B[qg];W[je];B[ke];W[jd];B[cc];W[dc];B[kd];W[kc]
;B[lc];W[kb];B[jb];W[kf];B[fh];W[pm];B[qm];W[ql];B[rl];W[pk]
;B[pl];W[lb];B[mb];W[ql];B[cq];W[cr];B[pl];W[ld];B[le];W[ql]
;B[hb];W[gb];B[md];W[lf];B[pl];W[gi];B[eg];W[gh];B[fg];W[ql]
;B[db];W[cd];B[bb];W[eb];B[pl];W[bd];B[ic];W[hd];B[pj];W[ql]
;B[ec];W[fb];B[pl];W[me];B[ld];W[ql];B[br];W[bq];B[pl];W[dg]
;B[dh];W[ql];B[cp];W[bp];B[pl];W[bk];B[bl];W[ql];B[qj];W[rm]
;B[pl];W[cj];B[dl];W[ql];B[qn];W[rk];B[pl];W[dj];B[dk];W[ql]
;B[rj];W[sl];B[oj];W[op];B[ok];W[nl];B[pl];W[qq];B[qr];W[pp]
;B[qp];W[rq];B[rr];W[pk];B[oq];W[nj];B[nk];W[mk];B[pl];W[ej]
;B[fj];W[pk];B[pi];W[bj];B[bi];W[cl];B[ci];W[dm];B[aj];W[pl]
;B[ni];W[pn];B[rp];W[mj];B[ng];W[mg];B[mh];W[mi];B[bc];W[ca]
;B[im];W[nh];B[jl];W[ha];B[bg];W[bf];B[ee];W[ed];B[jj];W[lr]
;B[jn];W[is];B[hs];W[js];B[jo];W[nq];B[nr];W[mr];B[es];W[co]
;B[da];W[ba];B[kr];W[ks];B[ii];W[ib];B[la];W[kk];B[kl];W[ll]
;B[kj];W[fe];B[gg];W[ge];B[or];W[rn];B[df];W[cg];B[af];W[ae]
;B[ak];W[hh];B[hg];W[ih];B[jh];W[ig];B[jg];W[oi];B[ri];W[hf]
;B[ag];W[kh];B[ne];W[mf];B[km]
)