(
;FF[3]GM[1]AP[PocketGoban Ver 0.999]
SZ[19]PB[Lee Changho]BR[9 dan]PW[Seo Nungwuk]WR[9 dan]
DT[2001-09-03]
PC[Korea]EV[6th LG Cup]RO[sf1]RE[B+8.5]KM[6.5]

;B[qd];W[dd];B[cp];W[pp];B[oc];W[eq];B[hp];W[en];B[cn];W[do]
;B[co];W[jq];B[io];W[jo];B[jn];W[ko];B[im];W[el];B[ck];W[kn]
;B[qq];W[qp];B[pq];W[nq];B[nr];W[qi];B[gq];W[jl];B[il];W[ej]
;B[jk];W[kk];B[kj];W[jj];B[ik];W[lk];B[oq];W[op];B[qg];W[ji]
;B[fm];W[dn];B[hi];W[go];B[pj];W[pg];B[qj];W[qh];B[qf];W[oi]
;B[qm];W[rq];B[rr];W[ro];B[sq];W[rm];B[rl];W[qn];B[sm];W[pm]
;B[rn];W[ql];B[mj];W[oj];B[lj];W[mk];B[lh];W[jg];B[nk];W[ok]
;B[pn];W[rm];B[nl];W[jm];B[kl];W[in];B[ll];W[sn];B[id];W[hn]
;B[fc];W[je];B[jd];W[le];B[lc];W[cf];B[ih];W[md];B[mc];W[od]
;B[pf];W[hf];B[jh];W[fd];B[gd];W[fe];B[og];W[gc];B[gb];W[ph]
;B[dr];W[dq];B[cq];W[er];B[lr];W[pc];B[nd];W[hc];B[hb];W[ec]
;B[fb];W[qc];B[rd];W[ne];B[nc];W[of];B[pd];W[oe];B[rh];W[ri]
;B[sh];W[rc];B[sd];W[bk];B[bl];W[bj];B[cj];W[ci];B[db];W[ob]
;B[nb];W[pa];B[sc];W[sb];B[ra];W[na];B[rb];W[qb];B[sa];W[pe]
;B[rf];W[qe];B[re];W[si];B[sg];W[cc];B[nh];W[mg];B[ie];W[mh]
;B[ni];W[ki];B[oh];W[li];B[mi];W[kh];B[pi];W[hd];B[he];W[ge]
;B[ic];W[cl];B[dl];W[cm];B[bm];W[dm];B[jr];W[ir];B[kr];W[iq]
;B[fi];W[al];B[an];W[mq];B[mr];W[gk];B[ij];W[if];B[di];W[ch]
;B[gd];W[ng];B[ml];W[rk];B[rj];W[ds];B[cr];W[cs];B[bs];W[es]
;B[br];W[cb];B[ei];W[dj];B[qk];W[sl];B[ol];W[pl];B[ld];W[me]
;B[gl];W[rp];B[ca];W[ba];B[da];W[eb];B[ea];W[dc];B[fa];W[sr]
;B[ss];W[bb];B[eg];W[nn];B[sj];W[pk];B[mo];W[lp];B[mn];W[mm]
;B[lm];W[nm];B[om];W[on];B[oo];W[po];B[no];W[pn];B[ln];W[gj]
;B[gg];W[sp];B[qr];W[sr];B[rs];W[dg];B[ef];W[dh];B[fn];W[fo]
;B[dp];W[ep];B[de];W[ce];B[gf];W[gi];B[ff];W[ed];B[gh];W[eh]
;B[fh];W[hm];B[hl];W[fl];B[gm];W[kd];B[kc];W[ke];B[fj];W[fk]
;B[hg];W[js];B[ks];W[is];B[ig];W[jf];B[km];W[jn];B[kq];W[kp]
;B[sk];W[rl];B[em];W[dk];B[am];W[ak];B[lq];W[sq];B[gn];W[np]
;B[mp];W[ho];B[ii];W[kg]
)