(;US[JBvR]SO[Cho Chikun Internet Book]CP[My Friday Night Files, 2002]AP[SGFcv.py:0.3]GM[1]FF[4]EV[Oteai]
PW[Cho Chikun]
WR[6d]
PB[Awaji Shuzo]
BR[5d]
DT[1974-09-19]
KM[0]
RE[B+R]

;B[cp]
;W[pp]
;B[pd]
;W[dc]
;B[fq]
;W[ce]
;B[ic]
;W[gc]
;B[md]
;W[cn]
;B[dj]
;W[cq]
;B[dp]
;W[bp]
;B[bo]
;W[bq]
;B[co]
;W[er]
;B[eq]
;W[fr]
;B[gq]
;W[gr]
;B[iq]
;W[qn]
;B[cg]
;W[cl]
;B[el]
;W[ci]
;B[cj]
;W[bj]
;B[bk]
;W[bi]
;B[ck]
;W[di]
;B[cd]
;W[dd]
;B[be]
;W[bd]
;B[ei]
;W[eh]
;B[cf]
;W[de]
;B[dh]
;W[qd]
;B[qc]
;W[pc]
;B[pe]
;W[rc]
;B[qb]
;W[qe]
;B[rb]
;W[pf]
;B[qf]
;W[qg]
;B[rf]
;W[oe]
;B[od]
;W[nd]
;B[oc]
;W[nc]
;B[ob]
;W[rg]
;B[rd]
;W[sf]
;B[re]
;W[of]
;B[mc]
;W[pj]
;B[np]
;W[nn]
;B[fi]
;W[bf]
;B[bg]
;W[ae]
;B[eg]
;W[id]
;B[jc]
;W[jd]
;B[kc]
;W[lo]
;B[lq]
;W[me]
;B[nb]
;W[kq]
;B[lp]
;W[kp]
;B[ko]
;W[ln]
;B[jo]
;W[jm]
;B[kj]
;W[lr]
;B[mr]
;W[kr]
;B[or]
;W[pr]
;B[oo]
;W[os]
;B[on]
;W[om]
;B[oq]
;W[pq]
;B[ns]
;W[ir]
;B[hr]
;W[hs]
;B[hq]
;W[is]
;B[ps]
;W[rr]
;B[qo]
;W[ro]
;B[nm]
;W[no]
;B[op]
;W[pm]
;B[mp]
;W[nq]
;B[ml]
;W[lm]
;B[ll]
;W[kl]
;B[kk]
;W[hm]
;B[ph]
;W[hk]
;B[ij]
;W[fm]
;B[em]
;W[ik]
;B[jk]
;W[jl]
;B[hj]
;W[mm]
;B[nl]
;W[mo]
;B[in]
;W[ho]
;B[jq]
;W[jr]
;B[im]
;W[il]
;B[gn]
;W[hn]
;B[io]
;W[gl]
;B[gk]
;W[fn]
;B[go]
;W[fo]
;B[gp]
;W[en]
;B[dn]
;W[dm]
;B[dl]
;W[do]
;B[fl]
;W[gm]
;B[bm]
;W[qs]
;B[dq]
;W[dr]
;B[km]
;W[kn]
;B[jn]
;W[ls]
;B[pg]
;W[qi]
;B[ni]
;W[ji]
;B[jj]
;W[nh]
;B[oi]
;W[le]
;B[hd]
;W[if]
;B[hc]
;W[mi]
;B[mj]
;W[li]
;B[cm]
;W[ms]
;B[dn]
;W[gj]
;B[fk]
;W[dm]
;B[fp]
;W[nr]
;B[eo]
;W[os]
;B[dn]
;W[ih]
;B[gb])