(;US[JBvR]SO[Cho Chikun Internet Book]CP[My Friday Night Files, 2002]AP[SGFcv.py:0.3]GM[1]FF[4]KM[5.5]
RE[B+R]
BR[7d]
WR[6d]
PB[Takagi Shoichi]
PW[Cho Chikun]
DT[1974-01-16]
RO[2nd Preliminary Round]
EV[Meijin, 14th]

;B[qd]
;W[qq]
;B[cd]
;W[co]
;B[dq]
;W[ec]
;B[hd]
;W[ch]
;B[ed]
;W[fd]
;B[ee]
;W[dc]
;B[cc]
;W[gd]
;B[he]
;W[ff]
;B[fe]
;W[ge]
;B[gf]
;W[hc]
;B[hf]
;W[ic]
;B[fg]
;W[dk]
;B[qk]
;W[fq]
;B[cp]
;W[do]
;B[bo]
;W[dp]
;B[bq]
;W[eq]
;B[cn]
;W[dr]
;B[cq]
;W[dn]
;B[cm]
;W[dm]
;B[cl]
;W[dl]
;B[ck]
;W[eh]
;B[lq]
;W[ef]
;B[dd]
;W[eg]
;B[fc]
;W[gc]
;B[fb]
;W[gb]
;B[db]
;W[fa]
;B[eb]
;W[kd]
;B[kf]
;W[od]
;B[nc]
;W[lf]
;B[kg]
;W[oc]
;B[nd]
;W[ne]
;B[ob]
;W[lg]
;B[kh]
;W[lh]
;B[ki]
;W[pb]
;B[mb]
;W[oa]
;B[nb]
;W[qc]
;B[oe]
;W[lc]
;B[lb]
;W[pe]
;B[jc]
;W[jd]
;B[kc]
;W[ib]
;B[ld]
;W[le]
;B[mc]
;W[jb]
;B[kb]
;W[id]
;B[na]
;W[me]
;B[md]
;W[ke]
;B[of]
;W[pd]
;B[pg]
;W[qe]
;B[li]
;W[mi]
;B[mj]
;W[ni]
;B[pi]
;W[nj]
;B[mk]
;W[nk]
;B[ml]
;W[nl]
;B[mm]
;W[qm]
;B[rf]
;W[qg]
;B[qf]
;W[pf]
;B[qh]
;W[og]
;B[rg]
;W[nq]
;B[pp]
;W[pq]
;B[np]
;W[jq]
;B[jp]
;W[ip]
;B[jo]
;W[op]
;B[oo]
;W[oq]
;B[iq]
;W[kq]
;B[lp]
;W[ir]
;B[hq]
;W[hr]
;B[ho]
;W[hj]
;B[gq]
;W[gr]
;B[ci]
;W[bi]
;B[cj]
;W[hh]
;B[ig]
;W[ik]
;B[gi]
;W[fh]
;B[cg]
;W[bh]
;B[ej]
;W[cf]
;B[gj]
;W[hi]
;B[gh]
;W[gg]
;B[hg]
;W[hl]
;B[ei]
;W[be]
;B[gm]
;W[gl]
;B[fl]
;W[fm]
;B[fn]
;W[bd]
;B[fp]
;W[hn]
;B[gn]
;W[bb]
;B[ep]
;W[mp]
;B[no]
;W[kk]
;B[jl]
;W[kl]
;B[ln]
;W[jm]
;B[kj]
;W[fk]
;B[mq]
;W[jj]
;B[ii]
;W[go]
;B[fo])