(;CP[My Friday Night Files, 2002]AP[SGFcv.py:0.3]GM[1]FF[4]PB[Ishida Akira]
BR[6 dan]
PW[Cho Chikun]
WR[6 dan]
KM[5.5]
DT[1974]
SO[Kido vol 50/2]
US[JBvR]
GC[Probably played specially for Kido magazine, end 1973, early 1974.No date given. Game 2 out of a 5 games series.]
EV[Kido magazine]
RE[W+R]

;B[qd]
;W[qq]
;B[cd]
;W[cq]
;B[ed]
;W[od]
;B[mc]
;W[qc]
;B[pc]
;W[pd]
;B[oc]
;W[nc]
;B[nd]
;W[nb]
;B[qb]
;W[rc]
;B[ob]
;W[mb]
;B[qe]
;W[pf]
;B[rb]
;W[lc]
;B[md]
;W[ld]
;B[mf]
;W[oa]
;B[pb]
;W[pe]
;B[le]
;W[qf]
;B[rd]
;W[re]
;B[sc]
;W[jd]
;B[hc]
;W[ke]
;B[kf]
;W[jf]
;B[kg]
;W[jg]
;B[kh]
;W[jh]
;B[ki]
;W[pj]
;B[ji]
;W[jb]
;B[qo]
;W[qm]
;B[op]
;W[oq]
;B[nq]
;W[pp]
;B[po]
;W[nr]
;B[np]
;W[mr]
;B[rq]
;W[rr]
;B[qk]
;W[pk]
;B[ql]
;W[pl]
;B[rm]
;W[qj]
;B[pr]
;W[pq]
;B[rp]
;W[qr]
;B[rj]
;W[rn]
;B[pm]
;W[rl]
;B[rk]
;W[sm]
;B[qi]
;W[pi]
;B[qh]
;W[ph]
;B[qn]
;W[ne]
;B[me]
;W[ii]
;B[kk]
;W[om]
;B[rm]
;W[jj]
;B[ng]
;W[qm]
;B[pg]
;W[og]
;B[rm]
;W[kj]
;B[lj]
;W[qm]
;B[qg]
;W[of]
;B[rm]
;W[lk]
;B[mj]
;W[qm]
;B[pn]
;W[rg]
;B[ri]
;W[rh]
;B[rm]
;W[mh]
;B[nh]
;W[qm]
;B[oh]
;W[rm]
;B[ol]
;W[sk]
;B[ok]
;W[si]
;B[ko]
;W[ij]
;B[kl]
;W[ci]
;B[do]
;W[ep]
;B[ck]
;W[cf]
;B[ef]
;W[ei]
;B[bp]
;W[eo]
;B[dn]
;W[cp]
;B[bo]
;W[bq]
;B[bj]
;W[lp]
;B[lo]
;W[jq]
;B[oj]
;W[sj]
;B[ek]
;W[en]
;B[dh]
;W[di]
;B[em]
;W[fm]
;B[fl]
;W[dm]
;B[cm]
;W[el]
;B[dl]
;W[em]
;B[fj]
;W[fi]
;B[gl]
;W[he]
;B[hp]
;W[hq]
;B[kq]
;W[ip]
;B[lq]
;W[oi]
;B[ni]
;W[jn]
;B[hf]
;W[gf]
;B[gg]
;W[hg]
;B[hh]
;W[fg]
;B[ig]
;W[ff]
;B[jc]
;W[gi])