(
;
US[jansteen@cwi.nl (Jan van der Steen)]
PB[Fujisawa Hideyuki]
BR[5 dan]
PW[Go Seigen]
WR[8 dan]
DT[1949]
PC[Tokyo, Japan]
RE[W+5]

;B[qd];W[dc];B[cp];W[pq];B[ep];W[oc];B[ce];W[cg];B[ee];W[fd]
;B[dg];W[dh];B[eg];W[cf];B[df];W[ci];B[hc];W[ge];B[kc];W[gh]
;B[dd];W[cc];B[bf];W[bd];B[bg];W[ch];B[be];W[gc];B[eh];W[ei]
;B[fi];W[ej];B[hd];W[gb];B[fh];W[cm];B[qo];W[ld];B[lc];W[pg]
;B[ql];W[mc];B[mb];W[nc];B[kd];W[qb];B[le];W[md];B[rg];W[ke]
;B[hb];W[qk];B[rk];W[rl];B[rj];W[qn];B[rm];W[po];B[rn];W[qp]
;B[ro];W[gq];B[em];W[fj];B[gi];W[er];B[cj];W[bj];B[bk];W[ck]
;B[cl];W[dk];B[dl];W[bl];B[bm];W[ak];B[cn];W[jq];B[lq];W[lo]
;B[kp];W[dq];B[lf];W[nf];B[ec];W[ed];B[eb];W[cd];B[de];W[fc]
;B[ga];W[fa];B[ha];W[db];B[fe];W[gd];B[hf];W[he];B[ie];W[gf]
;B[gg];W[ff];B[if];W[cq];B[bp];W[fo];B[dp];W[io];B[ko];W[ln]
;B[ip];W[ho];B[op];W[pp];B[mp];W[nn];B[jr];W[iq];B[oq];W[kq]
;B[kr];W[lp];B[mr];W[lg];B[kf];W[jk];B[qg];W[bq];B[fl];W[rc]
;B[ph];W[rp];B[nb];W[ob];B[fr];W[fq];B[eq];W[es];B[hr];W[hq]
;B[ir];W[hl];B[gr];W[cr];B[lk];W[rd];B[kl];W[kn];B[og];W[ng]
;B[pf];W[bh];B[am];W[ii];B[ji];W[jh];B[ki];W[eo];B[ij];W[hj]
;B[gj];W[dn];B[do];W[en];B[dm];W[gk];B[bo];W[ih];B[jj];W[kh]
;B[li];W[mh];B[hh];W[mj];B[ik];W[jl];B[il];W[jm];B[mi];W[ni]
;B[nj];W[nk];B[oj];W[mk];B[oi];W[nh];B[hk];W[gl];B[hi];W[pl]
;B[qm];W[lj];B[fp];W[gp];B[im];W[gn];B[nm];W[ok];B[on];W[no]
;B[ml];W[kk];B[ll];W[pm];B[om];W[pn];B[oo];W[qe];B[pe];W[rf]
;B[kj];W[or];B[nr];W[pr];B[qj];W[pk];B[rr];W[qr];B[jn];W[km]
;B[in];W[jo];B[np];W[pj];B[pi];W[sg];B[sh];W[sf];B[re];W[se]
;B[qf];W[re];B[fm];W[rh];B[si];W[so];B[sl];W[jp];B[mf];W[me]
;B[od];W[ne];B[pc];W[pb];B[os];W[rq];B[sn];W[sp];B[bs];W[cs]
;B[ar];W[aq];B[fs];W[ig];B[bb];W[ac];B[ae];W[ag];B[jf];W[lh]
;B[hg];W[br];B[ap];W[as];B[al];W[bk];B[ad];W[bc];B[fk];W[hn]
;B[fn];W[go];B[ek];W[ps];B[ns];W[na];B[la])
