(
;
US[jansteen@cwi.nl (Jan van der Steen)]
PB[Go Seigen]
BR[9 dan]
PW[Fujisawa Hosai]
WR[9 dan]
DT[1952-05-14,16]
PC[Matsuchima, Japan]
RE[B+R]

;B[pd];W[cp];B[pp];W[dc];B[ep];W[eq];B[fp];W[dp];B[fq];W[er]
;B[cf];W[cd];B[ci];W[nq];B[lq];W[qq];B[pq];W[qp];B[po];W[pr]
;B[or];W[qr];B[oq];W[qn];B[dn];W[fr];B[jc];W[hq];B[om];W[qm]
;B[jq];W[ho];B[cm];W[qf];B[qe];W[pf];B[nd];W[pi];B[fc];W[qc]
;B[re];W[oc];B[od];W[nc];B[pc];W[pb];B[mc];W[mb];B[qb];W[ob]
;B[rc];W[lc];B[md];W[kc];B[jb];W[ke];B[jd];W[le];B[ee];W[fb]
;B[eb];W[ec];B[db];W[df];B[de];W[ce];B[cg];W[gb];B[cb];W[ge]
;B[fd];W[fe];B[ef];W[gc];B[ed];W[hf];B[if];W[hg];B[ig];W[ih]
;B[kg];W[jh];B[kf];W[mf];B[mg];W[nf];B[hh];W[fg];B[gh];W[fh]
;B[gj];W[fj];B[fk];W[fi];B[hj];W[cc];B[bc];W[bd];B[bb];W[dg]
;B[eg];W[dh];B[eh];W[ch];B[bh];W[di];B[ei];W[dj];B[ej];W[dk]
;B[ek];W[bf];B[bg];W[bi];B[bj];W[ai];B[dl];W[ag];B[gd];W[nr]
;B[ns];W[ms];B[os];W[no];B[mr];W[mq];B[ls];W[lo];B[on];W[jo]
;B[ml])
