(
;
US[jansteen@cwi.nl (Jan van der Steen)]
PB[Fujisawa Hosai]
BR[6 dan]
PW[Go Seigen]
WR[8 dan]
DT[1943-09-7,8]
PC[Tokyo, Japan]
RE[W+R]

;B[pd];W[dc];B[df];W[fd];B[dq];W[pq];B[pn];W[np];B[co];W[qf]
;B[nc];W[pj];B[jp];W[rd];B[kc];W[cd];B[qh];W[nn];B[pl];W[rj]
;B[oh];W[nj];B[nl];W[of];B[mh];W[lj];B[ll];W[kh];B[mf];W[qc]
;B[pc];W[kl];B[lm];W[pg];B[kk];W[ng];B[dj];W[mg];B[lq];W[mq]
;B[qq];W[qp];B[pp];W[po];B[qo];W[op];B[rp];W[pp];B[rr];W[qr]
;B[rq];W[lp];B[eo];W[dh];B[fj];W[kn];B[io];W[qn];B[ro];W[pm]
;B[qm];W[om];B[rn];W[dr];B[cq];W[cj];B[ci];W[di];B[ch];W[ej]
;B[dk];W[ek];B[dg];W[el];B[ck];W[fi];B[im];W[bf];B[bg];W[cf]
;B[cg];W[cl];B[bk];W[fn];B[em];W[fm];B[dl];W[en];B[dm];W[gp]
;B[fl];W[hn];B[in];W[fr];B[fk];W[eq];B[qd];W[rc];B[cr];W[ep]
;B[gd];W[ge];B[hd];W[ei];B[gi];W[fh];B[gh];W[fg];B[fc];W[hk]
;B[gl];W[hm];B[hl];W[il];B[km];W[jl];B[jm];W[jj];B[hj];W[ij]
;B[gg];W[gf];B[hf];W[he];B[ie];W[fe];B[ed];W[if];B[hg];W[gm]
;B[gj];W[id];B[je];W[ee];B[de];W[ec];B[ff];W[ef];B[eg];W[dd]
;B[eh];W[hc];B[ff];W[gc];B[kj];W[lk];B[ki];W[jh];B[li];W[nh]
;B[mj];W[mk];B[nk];W[mi];B[oj];W[ni];B[oi];W[ph];B[pi];W[qi]
;B[pk];W[qj];B[lr];W[mr];B[jr];W[iq];B[jq];W[ln];B[fo];W[do]
;B[go];W[dp];B[dn];W[cp];B[ds];W[er];B[bp];W[bo];B[mo];W[mn]
;B[aq];W[cn];B[ao];W[an];B[am];W[ap];B[or];W[pr];B[ao];W[hp]
;B[ho];W[ap];B[ms];W[ns];B[ao];W[bn];B[br];W[ap];B[fp];W[bq]
;B[mp];W[ls];B[bp];W[ir];B[ks];W[bq])
