(
;
US[jansteen@cwi.nl (Jan van der Steen)]
EV[]
PB[Go Seigen]
BR[8 dan]
PW[Iwamoto Kaoru]
WR[8 dan]
DT[1948-11-16,18]
PC[Yugawara, Japan]
RE[B+12]
KM[]
SO[]

;B[pd];W[dc];B[pp];W[co];B[dq];W[cf];B[jc];W[hc];B[je];W[qi]
;B[dk];W[pm];B[cp];W[do];B[fp];W[el];B[ek];W[gl];B[en];W[em]
;B[cm];W[dn];B[qk];W[pk];B[pl];W[ol];B[ql];W[pj];B[qm];W[om]
;B[qo];W[he];B[fc];W[fe];B[cc];W[ec];B[cd];W[de];B[ok];W[nk]
;B[oj];W[oi];B[nj];W[ni];B[mj];W[mi];B[lj];W[nd];B[li];W[nf]
;B[mh];W[pf];B[kp];W[kn];B[mf];W[me];B[oe];W[of];B[ne];W[le]
;B[lf];W[qc];B[pe];W[ob];B[rc];W[pc];B[qd];W[qf];B[re];W[rf]
;B[md];W[ld];B[mc];W[lc];B[mb];W[lb];B[oc];W[nb];B[nc];W[ma]
;B[od];W[rb];B[sb];W[pb];B[ra];W[qa];B[qb];W[kf];B[ke];W[rb]
;B[kg];W[sa];B[na];W[oa];B[ra];W[kh];B[qb];W[jf];B[lh];W[rb]
;B[jg];W[if];B[qb];W[mg];B[lg];W[rb];B[kb];W[sa];B[ka];W[sc]
;B[la];W[rd];B[kc];W[hp];B[io];W[eq];B[ep];W[dp];B[fq];W[cq]
;B[er];W[mp];B[cr];W[bp];B[lo];W[oq];B[op];W[kq];B[jq];W[lq]
;B[ip];W[pq];B[qq];W[qr];B[rr];W[rq];B[qp];W[pr];B[be];W[bf]
;B[ci];W[fn];B[gj];W[mo];B[mn];W[nn];B[ln];W[np];B[bn];W[br]
;B[bs];W[hn];B[rs];W[ce];B[bb];W[bi];B[bj];W[bd];B[bc];W[ae]
;B[db];W[eb];B[da];W[bh];B[ho];W[in];B[gk];W[hk];B[hj];W[ik]
;B[kr];W[lr];B[go];W[jr];B[ir];W[ks];B[gm];W[fl];B[gn];W[hm]
;B[km];W[jm];B[ar];W[dm];B[bl];W[kl];B[lm];W[eo];B[ri];W[rh]
;B[rj];W[ng];B[ch];W[cj];B[dj];W[is];B[hr];W[ea];B[ba];W[ib]
;B[gf];W[hf];B[gg];W[eg];B[ai];W[ah];B[aj];W[cg];B[fh];W[eh]
;B[ei];W[ij];B[bq];W[qs];B[rp];W[qe];B[kd];W[hh];B[ic];W[id]
;B[kk];W[jl];B[oo];W[no];B[bo];W[pn];B[cp];W[qn];B[rn];W[cq]
;B[nh];W[oh];B[cp];W[dh];B[di];W[cq];B[dd];W[ed];B[cp];W[jo]
;B[ll];W[cq];B[hg];W[ig];B[ih];W[ii];B[jh];W[hi];B[fi];W[ge]
;B[cp];W[dl];B[cl];W[cq];B[ap];W[jp];B[iq];W[ml];B[cp];W[mm]
;B[ko];W[jn];B[mk];W[fk];B[nl];W[nm];B[fj];W[si];B[sj];W[sh]
;B[hs];W[js];B[ac];W[ji];B[ad];W[be];B[ff];W[ef];B[qj];W[pi]
;B[ia];W[ha];B[jb];W[ja];B[ag];W[bg];B[ia];W[hb];B[ki];W[ie]
)
