(
;
US[jansteen@cwi.nl (Jan van der Steen)]
EV[]
PB[Kitani Minoru]
BR[9 dan]
PW[Go Seigen]
WR[9 dan]
DT[1957-04-14,15]
PC[Tokyo, Japan]
RE[W+R]
KM[]
SO[]

;B[qd];W[dc];B[pq];W[oc];B[cp];W[po];B[pp];W[oo];B[qo];W[qn]
;B[ro];W[qg];B[pe];W[qj];B[ep];W[cf];B[kc];W[oe];B[pg];W[pd]
;B[qe];W[of];B[pf];W[qc];B[rc];W[qb];B[hc];W[qh];B[og];W[rn]
;B[np];W[iq];B[pi];W[lq];B[mq];W[lp];B[no];W[nn];B[qi];W[ri]
;B[rj];W[rk];B[pj];W[sj];B[qk];W[rj];B[pk];W[mc];B[fc];W[ck]
;B[gq];W[mo];B[lr];W[kr];B[mr];W[nj];B[nk];W[mk];B[nl];W[mj]
;B[oj];W[so];B[rq];W[ml];B[nm];W[mm];B[on];W[mn];B[pn];W[cn]
;B[qm];W[rm];B[ql];W[rl];B[co];W[bn];B[ce];W[de];B[cd];W[df]
;B[dd];W[ed];B[ec];W[cc];B[bc];W[bb];B[bf];W[bg];B[bd];W[af]
;B[ab];W[ba];B[ae];W[be];B[ee];W[fd];B[bf];W[ag];B[eb];W[cb]
;B[cg];W[gd];B[bh];W[be];B[rf];W[ad];B[sh];W[en];B[hd];W[he]
;B[ge];W[ie];B[fe];W[ac];B[ej];W[gj];B[el];W[fm];B[gh];W[fi]
;B[eg];W[fh];B[fg];W[hg];B[gg];W[hh];B[fl];W[di];B[cj];W[dh]
;B[cl];W[dk];B[dl];W[do];B[dj];W[bk];B[gi];W[fj];B[ek];W[bl]
;B[hi];W[dg];B[ji];W[jd];B[jc];W[kh];B[jh];W[kf];B[hj];W[hl]
;B[il];W[im];B[hk];W[hm];B[lh];W[ki];B[kg];W[lg];B[jg];W[le]
;B[kj];W[li];B[jk];W[hf])
