(
;
US[jansteen@cwi.nl (Jan van der Steen)]
EV[]
PB[Karigane Jun'ichi]
BR[8 dan]
PW[Go Seigen]
WR[7 dan]
DT[1941-12-27,29]
PC[Kamakura, Japan]
RE[B+4]

;B[qd];W[pp];B[dq];W[cd];B[od];W[dn];B[co];W[fc];B[do];W[en]
;B[bm];W[lc];B[qj];W[qn];B[fe];W[ob];B[cf];W[df];B[gc];W[gd]
;B[ec];W[fd];B[ed];W[cg];B[cc];W[bc];B[fb];W[gb];B[bd];W[ce]
;B[eb];W[hc];B[bb];W[ee];B[ff];W[dj];B[he];W[ge];B[gf];W[hf]
;B[hd];W[gc];B[mc];W[ld];B[jc];W[jb];B[kb];W[lb];B[ib];W[gg]
;B[fg];W[fh];B[hg];W[if];B[ga];W[id];B[hb];W[ie];B[gh];W[jh]
;B[fi];W[eh];B[ei];W[dh];B[hi];W[gj];B[gi];W[cl];B[cm];W[jj]
;B[ik];W[ij];B[hj];W[hk];B[fk];W[gk];B[dk];W[be];B[ac];W[gm]
;B[ph];W[of];B[pf];W[dl];B[di];W[ci];B[ck];W[ej];B[fj];W[ek]
;B[el];W[cj];B[fm];W[hl];B[gn];W[hm];B[fl];W[dm];B[fn];W[io]
;B[eo];W[iq];B[bk];W[bl];B[al];W[bj];B[ak];W[oq];B[jl];W[jn]
;B[hn];W[im];B[ln];W[lp];B[ll];W[mm];B[lm];W[og];B[pg];W[ni]
;B[ko];W[kp];B[jo];W[jk];B[jp];W[jq];B[ip];W[pc];B[pd];W[qc]
;B[mi];W[mh];B[li];W[lg];B[rm];W[qm];B[rl];W[aj];B[am];W[fr]
;B[rn];W[ro];B[no];W[np];B[jm];W[il];B[in];W[rc];B[rd];W[sd]
;B[se];W[sc];B[rf];W[dr];B[cr];W[eq];B[ds];W[er];B[dp];W[nd]
;B[gl];W[ik];B[oc];W[nc];B[ne];W[md];B[jg];W[kh];B[ig];W[ke]
;B[oe];W[mf];B[so];W[rp];B[hq];W[hr];B[gq];W[gr];B[sp];W[sq]
;B[sn];W[qq];B[nh];W[mn];B[om];W[nj];B[mk];W[oh];B[lh];W[kg]
;B[mg];W[nf];B[fp];W[kc];B[ja];W[mo];B[ql];W[pi];B[qi];W[on]
;B[pm];W[pn];B[pj];W[oi];B[nm];W[nn];B[dd];W[kk];B[lk];W[ic]
;B[jd];W[ha];B[fa];W[es];B[cs];W[nl];B[ok];W[de];B[nk];W[ol]
;B[pl];W[ml];B[eg];W[dg];B[me];W[le];B[jf];W[je];B[kl];W[ae]
;B[ad];W[la];B[ia];W[ih];B[fq])
