(
;
US[jansteen@cwi.nl (Jan van der Steen)]
EV[]
PB[Go Seigen]
BR[]
PW[Honinbo Shusai]
WR[]
DT[1928-12-26]
PC[Tokyo, Japan]
RE[B+4]
HA[2]
SO[]

AB[dp][pd]
;W[ce];B[pp];W[dc];B[jc];W[hc];B[je];W[qf];B[qj]
;W[qc];B[qd];W[pc];B[od];W[rd];B[re];W[rc];B[qe];W[nc];B[cj]
;W[he];B[nd];W[mc];B[md];W[cl];B[ej];W[el];B[gj];W[fq];B[fp]
;W[gp];B[fo];W[eq];B[dq];W[gl];B[dm];W[dl];B[hn];W[hj];B[gk]
;W[hl];B[hk];W[ik];B[ij];W[hi];B[il];W[jk];B[fl];W[di];B[gm]
;W[dj];B[ii];W[jq];B[lq];W[jl];B[hm];W[ok];B[pl];W[ol];B[pm]
;W[nq];B[nn];W[pq];B[qq];W[qp];B[po];W[pj];B[qi];W[pi];B[hh]
;W[qr];B[rq];W[or];B[rr];W[mo];B[ml];W[mk];B[lk];W[mj];B[kp]
;W[jp];B[ko];W[kq];B[lp];W[jo];B[kn];W[rs];B[qo];W[mr];B[lr]
;W[ms];B[op];W[oq];B[ll];W[qh];B[pk];W[rj];B[rh];W[ri];B[qk]
;W[qg];B[ph];W[oh];B[pg];W[pf];B[og];W[of];B[ng];W[nf];B[mg]
;W[mf];B[lg];W[lf];B[lc];W[kg];B[li];W[jh];B[lj];W[ib];B[if]
;W[hf];B[ih];W[sh];B[lb];W[nb];B[ig];W[ke];B[kd];W[id];B[jd]
;W[eg];B[bm];W[bl];B[hp];W[hq];B[go];W[gq];B[kr];W[jr];B[er]
;W[fr];B[dr];W[ip];B[ho];W[fs];B[gg];W[gf];B[fg];W[ff];B[eh]
;W[dh];B[kh];W[jn];B[jm];W[bn];B[cm];W[am];B[bo];W[cn];B[co]
;W[dn];B[em];W[en];B[fm];W[ao];B[ap];W[an];B[bq];W[rg];B[rk]
;W[sj];B[np];W[mq];B[mp];W[sk];B[ei];W[ek];B[rm];W[sm];B[sn]
;W[sl];B[ir];W[hs];B[js];W[is];B[ks];W[iq];B[ma];W[na];B[oc]
;W[ob];B[jb];W[rl];B[qm];W[jg];B[ji];W[kf];B[ic];W[hb];B[ie]
;W[hd];B[sd];W[sc];B[sf];W[sg];B[mb];W[pa];B[ia];W[ha];B[ja]
;W[se];B[rf];W[es];B[ds];W[fk];B[fj];W[in];B[im];W[rn];B[so]
;W[ro];B[sp];W[sr];B[fn];W[sd])
