(
;
US[jansteen@cwi.nl (Jan van der Steen)]
EV[]
PB[Kitani Minoru]
BR[7 dan]
PW[Go Seigen]
WR[7 dan]
DT[1940-08-4,6]
PC[Ikaho, Japan]
RE[W+R]
KM[]
SO[]

;B[qd];W[dc];B[od];W[qp];B[cp];W[eq];B[do];W[op];B[qj];W[ce]
;B[jc];W[dk];B[je];W[pc];B[pd];W[oi];B[pi];W[oj];B[oh];W[nh]
;B[ql];W[ic];B[ib];W[hb];B[hc];W[id];B[jb];W[gc];B[jd];W[hd]
;B[og];W[qc];B[oc];W[cn];B[hp];W[kq];B[fp];W[cr];B[dn];W[cm]
;B[bq];W[hr];B[ir];W[hq];B[iq];W[ip];B[fq];W[fr];B[er];W[gr]
;B[dq];W[es];B[dr];W[jp];B[di];W[dg];B[cd];W[bd];B[eg];W[ef]
;B[cg];W[df];B[fj];W[cj];B[ci];W[bi];B[bh];W[bk];B[ai];W[bj]
;B[ei];W[pk];B[qk];W[rd];B[re];W[rb];B[sd];W[qn];B[rc];W[bo]
;B[pq];W[qq];B[pl];W[nl];B[pn];W[nn];B[ho];W[po];B[rn];W[ik]
;B[ek];W[lf];B[mg];W[kg];B[ld];W[im];B[ro];W[qo];B[rp];W[rq]
;B[mi];W[ig];B[mk];W[nk];B[kk];W[ll];B[km];W[lj];B[in];W[jn]
;B[jm];W[hm];B[kr];W[jr];B[jo];W[gp];B[lq];W[ko];B[kn];W[lo]
;B[go];W[el];B[fl];W[em];B[fm];W[gk];B[fk];W[kj];B[mr];W[js]
;B[ds];W[mf];B[mj];W[lk];B[oq];W[mp];B[lp];W[kp];B[qr];W[ls]
;B[or];W[nq];B[mo];W[mn])
