(;GN[每日新闻主办"第1期本因坊战"第4次战半决赛]DT[1941年(每日新闻3月15日至29日连载)]PB[关山利一 六段]PW[吴清源 七段]TM[黑: 12:44  白: 12:01]KM[4.5]RE[共267手 白胜1目半]US[余军]SO[飞扬围棋网 http://www.flygo.net];B[qd];W[dc];B[od];W[qp];B[eq];W[cp];B[op]
;W[mq];B[ce];W[ed];B[jc];W[pn];B[no];W[gp];B[eo];W[dn];B[ch];W[oq];B[pq];W[pp]
;B[nq];W[or];B[nr];W[pr];B[mp];W[jp];B[pj];W[cj];B[gc];W[cd];B[de];W[bd];B[eh]
;W[cr];B[en];W[dm];B[gn];W[jn];B[lq];W[fk];B[hm];W[jl];B[io];W[jo];B[hq];W[ql]
;B[km];W[jm];B[kj];W[iq];B[hp];W[hr];B[gq];W[jr];B[on];W[kd];B[kc];W[md];B[pm]
;W[qn];B[eb];W[be];B[nf];W[lc];B[le];W[ld];B[ie];W[ob];B[pc];W[ne];B[oe];W[mf]
;B[me];W[nd];B[lf];W[kb];B[jb];W[mb];B[nc];W[oc];B[pb];W[na];B[ka];W[la];B[lb]
;W[kf];B[mg];W[kb];B[qq];W[rq];B[lb];W[ke];B[kg];W[kb];B[qr];W[rr];B[lb];W[jg]
;B[jf];W[kb];B[ig];W[ja];B[jh];W[rj];B[kq];W[jj];B[hk];W[hj];B[ik];W[jk];B[ij]
;W[ll];B[lm];W[mm];B[ln];W[gr];B[fr];W[kr];B[qk];W[lh];B[ki];W[lr];B[mr];W[lg]
;B[mf];W[mn];B[lo];W[mk];B[nl];W[ml];B[pl];W[nm];B[lj];W[kk];B[rk];W[ok];B[pk]
;W[oi];B[og];W[om];B[mo];W[pi];B[qi];W[mi];B[qh];W[ji];B[kh];W[ii];B[gj];W[hi]
;B[gk];W[gi];B[fj];W[hd];B[fe];W[he];B[hf];W[fd];B[ol];W[is];B[hc];W[id];B[db]
;W[cb];B[ic];W[bi];B[dk];W[ck];B[dp];W[co];B[mj];W[nk];B[ni];W[rl];B[oj];W[nj]
;B[nh];W[sk];B[ri];W[dr];B[bh];W[ee];B[ia];W[da];B[ka];W[fb];B[jd];W[lb];B[gd]
;W[ff];B[ge];W[dj];B[ci];W[bj];B[dg];W[pa];B[qa];W[oa];B[qb];W[qm];B[qj];W[fl]
;B[fc];W[ec];B[gb];W[ea];B[em];W[el];B[ej];W[er];B[gs];W[ef];B[jq];W[ip];B[in]
;W[gg];B[ek];W[dl];B[dq];W[di];B[fh];W[es];B[fs];W[gh];B[cq];W[bq];B[bf];W[df]
;B[cf];W[dh];B[eg];W[fm];B[fq];W[fn];B[fo];W[gm];B[cl];W[bl];B[do];W[cn];B[hn]
;W[sj];B[si];W[sl];B[ah];W[af];B[ag];W[cg];B[ae];W[ai];B[os];W[qs];B[kp];W[ad]
;B[hl];W[af];B[bg];W[po];B[oo];W[ga];B[ha];W[fa];B[hs];W[ir];B[ls];W[ks];B[ms]
)