(;GN[都新闻主办"快棋选手权大会"第2回战]DT[1941.07.29]PC[日报]PB[吴清源 七段]PW[濑越宪作 七段]KM[4.5]RE[共233手 黑胜3目半]US[余军]SO[飞扬围棋网 http://www.flygo.net];B[pd];W[dc];B[pp];W[dq];B[de];W[ee];B[cc]
;W[ed];B[df];W[cb];B[cd];W[bb];B[ci];W[jc];B[co];W[ep];B[dm];W[qj];B[qm];W[qf]
;B[nc];W[kq];B[bq];W[hp];B[qh];W[rh];B[rg];W[qg];B[ri];W[ph];B[qi];W[pi];B[rf]
;W[qe];B[pj];W[od];B[oc];W[ql];B[oj];W[rm];B[pm];W[rj];B[sh];W[pl];B[rn];W[rl]
;B[re];W[qd];B[qc];W[pe];B[pc];W[nh];B[qo];W[ol];B[mj];W[lh];B[ml];W[om];B[lp]
;W[lq];B[mp];W[mq];B[nq];W[nk];B[oi];W[oh];B[mi];W[mk];B[lk];W[ll];B[mh];W[mg]
;B[lg];W[mf];B[kh];W[lf];B[kg];W[kk];B[lj];W[lm];B[nr];W[oo];B[op];W[no];B[np]
;W[je];B[fg];W[dj];B[cj];W[dk];B[ck];W[gg];B[kj];W[ff];B[fh];W[gh];B[jk];W[kl]
;B[ih];W[fi];B[dh];W[ij];B[jj];W[ii];B[ji];W[ig];B[kp];W[jq];B[jp];W[ip];B[cr]
;W[cq];B[br];W[dl];B[cm];W[dr];B[ks];W[mb];B[rd];W[ae];B[be];W[ms];B[mr];W[lr]
;B[ls];W[js];B[ns];W[ir];B[oe];W[of];B[ne];W[nf];B[pg];W[pf];B[lc];W[lb];B[ld]
;W[kc];B[db];W[eb];B[jg];W[if];B[em];W[ad];B[af];W[bc];B[bd];W[ac];B[bf];W[im]
;B[jl];W[jm];B[gj];W[hk];B[ke];W[kf];B[jf];W[kd];B[le];W[og];B[gi];W[hh];B[ie]
;W[jd];B[li];W[gk];B[fj];W[fk];B[ej];W[gm];B[ef];W[hi];B[nb];W[po];B[rp];W[cp]
;B[bp];W[do];B[dn];W[bo];B[cn];W[cl];B[bl];W[ek];B[ei];W[fn];B[eo];W[fo];B[dp]
;W[eq];B[mn];W[mm];B[jo];W[io];B[ln];W[kn];B[jn];W[mo];B[lo];W[pn];B[qn];W[nn]
;B[in];W[hn];B[do];W[cs];B[bs];W[ds];B[ma];W[la];B[na];W[me];B[nd];W[sj];B[sm]
;W[sl];B[sn];W[si];B[rh];W[il];B[fl];W[gl];B[pk];W[kr];B[dd];W[ec];B[qk];W[ms]
;B[rk];W[sk];B[ls];W[ok];B[jh])