(;GN[每日新闻主办"第1期本因坊战"第4次战决赛]DT[1941年(每日新闻6月11日至24日连载)]PB[吴清源 七段]PW[濑越宪作 七段]TM[黑: 06:25  白: 10:53]KM[4.5]RE[共173手 黑中盘胜]US[余军]SO[飞扬围棋网 http://www.flygo.net];B[pd];W[dc];B[pp];W[co];B[dq];W[de];B[dl]
;W[fo];B[fp];W[gp];B[eo];W[ep];B[dp];W[do];B[eq];W[en];B[go];W[ep];B[fq];W[hp]
;B[gn];W[el];B[fn];W[eo];B[em];W[dm];B[fm];W[dk];B[cl];W[cm];B[bl];W[bq];B[bm]
;W[bn];B[cn];W[dn];B[bp];W[cp];B[cq];W[bo];B[br];W[ap];B[ci];W[ek];B[ar];W[an]
;B[cg];W[gr];B[fr];W[jp];B[im];W[mp];B[io];W[ip];B[hj];W[dh];B[ch];W[eg];B[hg]
;W[fh];B[be];W[hh];B[ih];W[hi];B[ii];W[ig];B[jg];W[if];B[jf];W[je];B[cd];W[ke]
;B[dd];W[ed];B[ec];W[fc];B[eb];W[fd];B[gj];W[fi];B[kh];W[nd];B[ie];W[hf];B[nc]
;W[mc];B[oc];W[md];B[db];W[qf];B[rd];W[qn];B[nq];W[mq];B[np];W[mo];B[rp];W[jl]
;B[kk];W[jm];B[ll];W[il];B[hl];W[hm];B[gl];W[ho];B[ik];W[fb];B[pk];W[on];B[pm]
;W[pn];B[mr];W[lr];B[pg];W[qi];B[pi];W[qj];B[pj];W[qk];B[ql];W[rl];B[rm];W[qm]
;B[pl];W[rn];B[rk];W[sm];B[qh];W[rj];B[ri];W[sk];B[nr];W[lg];B[nb];W[mb];B[ma]
;W[la];B[na];W[lb];B[lh];W[pe];B[qd];W[mg];B[ln];W[mh];B[oe];W[rh];B[rg];W[si]
;B[qg];W[mj];B[ko];W[jo];B[li];W[mm];B[lm];W[of];B[pf];W[ne];B[hr];W[gq];B[gs]
;W[ir];B[kr];W[lq];B[ls];W[od];B[qe];W[no];B[qq];W[jk];B[jj])