(;SZ[19]PB[雁金准一 八段]PW[吴清源 七段]KM[0]RE[W+Resign]GN[吴清源.雁金准一升降十番棋第一局]DT[1941.08.07,08,09]PC[神奈川镰仓腰越"读卖海道场"]TM[黑: 12:35  白: 9:31]US[余军]SO[飞扬围棋资讯网 http://www.flygo.net];B[qd];W[pp];B[ec];W[de];B[cd];W[ce]
;B[dd];W[ee];B[fd];W[dq];B[gf];W[ci];B[nc];W[do];B[ne];W[rd];B[qc];W[qi];B[kq]
;W[qf];B[hq];W[lq];B[lp];W[mq];B[kp];W[jd];B[ck];W[cm];B[cg];W[bd];B[bc];W[dg]
;B[bg];W[ch];B[be];W[bf];B[ad];W[cf];B[af];W[bh];B[ag];W[ah];B[ae];W[ek];B[dl]
;W[fm];B[dj];W[fi];B[fj];W[ej];B[di];W[dh];B[ei];W[fh];B[el];W[fk];B[fl];W[gl]
;B[eh];W[eg];B[gk];W[gj];B[hk];W[gg];B[ff];W[fg];B[gm];W[hl];B[ik];W[gn];B[hm]
;W[il];B[fn];W[em];B[dm];W[en];B[cn];W[dn];B[bm];W[jk];B[if];W[jf];B[jg];W[kf]
;B[ij];W[jl];B[dk];W[fj];B[bo];W[ie];B[hf];W[ih];B[ig];W[jj];B[qn];W[pn];B[ro]
;W[qo];B[rp];W[qm];B[rn];W[qq];B[qp];W[po];B[qr];W[pr];B[rq];W[pq];B[rr];W[gr]
;B[hr];W[ho];B[io];W[in];B[jo];W[mc];B[mb];W[lb];B[lc];W[md];B[kb];W[nd];B[oc]
;W[od];B[la];W[hd];B[ef];W[df];B[gd];W[qe];B[jh];W[li];B[ld];W[me];B[lh];W[pd]
;B[pc];W[mg];B[rc];W[hp];B[ip];W[gq];B[gs];W[fs];B[lr];W[mr];B[hs];W[mh];B[ql]
;W[rm];B[rl];W[pm];B[sm];W[er];B[kr];W[co];B[cl];W[bp];B[ap];W[aq];B[ao];W[bq]
;B[rj];W[ri];B[qj];W[pj];B[pl];W[ok];B[ol];W[mp];B[hc];W[ic];B[hb];W[re];B[lf]
;W[le];B[lg];W[mf];B[nj];W[nk];B[lj];W[ni];B[mj];W[oj];B[ib];W[sj])