(;GN[第3期本因坊战八段级本对局二回战]DT[1944年(每日新闻12月2日至16日连载)]PC[日本]PB[加藤信 八段]PW[吴清源 八段]KM[4.5]RE[共269手 黑胜1目半]US[余军]SO[飞扬围棋网 http://www.flygo.net];B[qd];W[dc];B[pq];W[oc];B[cp];W[po];B[pe]
;W[qq];B[qr];W[qp];B[or];W[qk];B[ce];W[fp];B[dn];W[dh];B[lc];W[nd];B[pc];W[cd]
;B[me];W[of];B[pg];W[pb];B[qb];W[pf];B[qf];W[oe];B[pd];W[mc];B[md];W[lb];B[mb]
;W[nb];B[nc];W[qg];B[mc];W[rf];B[qe];W[ph];B[od];W[de];B[ck];W[cq];B[dq];W[dp]
;B[ep];W[do];B[eo];W[co];B[cn];W[bo];B[cr];W[bq];B[er];W[bn];B[bm];W[br];B[fo]
;W[hp];B[jp];W[fq];B[eq];W[go];B[oo];W[on];B[no];W[dl];B[fm];W[cm];B[gn];W[en]
;B[io];W[nn];B[mn];W[nq];B[pp];W[pn];B[mo];W[jq];B[kq];W[kr];B[iq];W[jr];B[ip]
;W[lq];B[mr];W[rr];B[rs];W[kp];B[ko];W[nr];B[qo];W[ir];B[hr];W[ms];B[qn];W[qm]
;B[rm];W[ql];B[ro];W[og];B[df];W[ee];B[ch];W[cg];B[dg];W[cf];B[bg];W[be];B[bf]
;W[ce];B[di];W[eh];B[ei];W[fh];B[ic];W[ci];B[bh];W[fi];B[cj];W[mm];B[lm];W[ml]
;B[ll];W[mk];B[gc];W[bl];B[ge];W[fk];B[bk];W[fb];B[fc];W[eb];B[lh];W[em];B[fn]
;W[dj];B[bi];W[ig];B[mi];W[nj];B[ii];W[hh];B[rl];W[rk];B[hk];W[lk];B[kk];W[re]
;B[rd];W[ie];B[id];W[he];B[fe];W[hj];B[ik];W[kj];B[jk];W[gr];B[hq];W[hs];B[is]
;W[js];B[lp];W[mq];B[se];W[rg];B[gq];W[ia];B[hb];W[ha];B[ga];W[gb];B[ja];W[fa]
;B[ib];W[gl];B[hl];W[fr];B[gs];W[fs];B[gp];W[is];B[nh];W[oh];B[ni];W[oi];B[je]
;W[hd];B[hc];W[kg];B[kh];W[cs];B[es];W[gs];B[ff];W[ef];B[fg];W[eg];B[hi];W[gg]
;B[jf];W[jg];B[el];W[dm];B[ej];W[fj];B[fl];W[ga];B[jc];W[gk];B[lf];W[rq];B[rp]
;W[sn];B[rn];W[sr];B[sp];W[op];B[sq];W[sl];B[lj];W[mj];B[li];W[gm];B[hm];W[ij]
;B[jj];W[gj];B[ih];W[mp];B[kq];W[sf];B[sd];W[kp];B[lo];W[dk];B[ek];W[dr];B[ec]
;W[db];B[ss];W[sm];B[if];W[hf];B[ne];W[kf];B[ke];W[jh];B[ji];W[af];B[ag];W[ae]
;B[ds];W[cr];B[ak];W[cl];B[al];W[am];B[os];W[ns];B[lg];W[hg];B[ng];W[nf];B[mf]
;W[ed];B[kq])