(;GN[读卖新闻主办"新锐挑战赛"]DT[1949年(读卖新闻6月27日至7月10日连载)]PC[日本]PB[小泉重郎 五段]PW[吴清源 八段]HA[小泉先二先.先]TM[黑: 07:17  白: 04:56]RE[共250手 白中盘胜]US[余军]SO[飞扬围棋网 http://www.flygo.net];B[qd];W[dc];B[od];W[dq];B[pq];W[qn]
;B[qp];W[pj];B[ce];W[cn];B[ch];W[jc];B[jq];W[qe];B[pe];W[qf];B[rd];W[pf];B[of]
;W[og];B[ng];W[nf];B[oe];W[oh];B[lc];W[gq];B[mg];W[ke];B[qh];W[me];B[md];W[ld]
;B[kd];W[le];B[jd];W[kc];B[ic];W[mc];B[lb];W[nd];B[je];W[oc];B[pc];W[ob];B[pg]
;W[ph];B[qg];W[ne];B[pd];W[qi];B[ri];W[rj];B[rh];W[jf];B[jb];W[mp];B[qk];W[qj]
;B[pn];W[pm];B[on];W[om];B[nn];W[nm];B[mn];W[kp];B[qm];W[mm];B[lm];W[jp];B[ql]
;W[mk];B[if];W[ig];B[jg];W[kf];B[hf];W[hg];B[gg];W[gf];B[ie];W[jh];B[gh];W[de]
;B[cd];W[cc];B[lj];W[mj];B[fc];W[dd];B[bc];W[bb];B[bd];W[fd];B[li];W[kg];B[mi]
;W[rn];B[rm];W[sm];B[sl];W[sn];B[ok];W[oj];B[ml];W[nl];B[pk];W[ll];B[ii];W[ji]
;B[jj];W[ij];B[jk];W[km];B[ln];W[ni];B[hk];W[gi];B[qo];W[kk];B[kj];W[hh];B[ip]
;W[jl];B[jo];W[iq];B[hq];W[ir];B[il];W[im];B[hm];W[in];B[io];W[hn];B[hr];W[jr]
;B[jn];W[jm];B[gp];W[go];B[fq];W[kn];B[ko];W[lq];B[fo];W[gm];B[do];W[ep];B[fn]
;W[fp];B[gr];W[lo];B[gn];W[ho];B[hp];W[hl];B[er];W[gk];B[dn];W[co];B[dp];W[cp]
;B[eq];W[cj];B[df];W[gc];B[cl];W[dh];B[ci];W[di];B[bj];W[dj];B[bk];W[cr];B[mr]
;W[lr];B[nr];W[mo];B[bm];W[bn];B[ff];W[ge];B[eg];W[hb];B[mb];W[el];B[ab];W[dg]
;B[cg];W[ee];B[ef];W[qb];B[pb];W[pa];B[rb];W[si];B[rf];W[sh];B[rg];W[ba];B[an]
;W[ao];B[am];W[bq];B[eh];W[fi];B[dr];W[ra];B[qc];W[qa];B[cq];W[br];B[op];W[nq]
;B[or];W[sb];B[rc];W[fh];B[fg];W[nk];B[sg];W[ib];B[kb];W[hc];B[hd];W[gd];B[nb]
;W[nc];B[is];W[mq];B[js];W[kr];B[ap];W[bo];B[cm];W[dq];B[em];W[dl];B[cq];W[bp]
;B[fm];W[fl];B[sj];W[rk];B[rl];W[sk];B[ro];W[he];B[id];W[ms])