(;GN[报知新闻主办"东西围棋对抗赛"]DT[1942年(报知新闻7月18日至8月2日连载)]PC[日本]PB[吴清源 八段]PW[岩本薰 七段]KM[4.5]RE[共161手 黑中盘胜]US[余军]SO[飞扬围棋网 http://www.flygo.net];B[dp];W[pq];B[dd];W[od];B[qd];W[fc];B[oc]
;W[nc];B[pc];W[md];B[oe];W[ne];B[of];W[df];B[ec];W[fd];B[eb];W[po];B[ee];W[id]
;B[cj];W[ei];B[ej];W[fj];B[ek];W[ci];B[fi];W[di];B[ck];W[fh];B[gi];W[gh];B[hi]
;W[fp];B[fq];W[cp];B[cq];W[ep];B[do];W[eq];B[dq];W[gq];B[qk];W[pj];B[pk];W[oj]
;B[ok];W[nj];B[ri];W[mg];B[bd];W[gk];B[ik];W[gm];B[hh];W[gf];B[gg];W[fg];B[hg]
;W[ff];B[im];W[en];B[eo];W[fo];B[oq];W[qp];B[ml];W[qh];B[qi];W[oh];B[op];W[lp]
;B[oo];W[pr];B[on];W[qj];B[rj];W[qm];B[jp];W[jr];B[rl];W[km];B[lk];W[in];B[mh]
;W[lh];B[ng];W[nh];B[mi];W[mj];B[li];W[og];B[nf];W[mf];B[qf];W[lj];B[kh];W[ki]
;B[lg];W[ni];B[lh];W[kk];B[ji];W[nl];B[kj];W[jj];B[lf];W[pm];B[ol];W[om];B[nk]
;W[nm];B[kl];W[lm];B[jk];W[ob];B[pb];W[mb];B[hn];W[jn];B[hm];W[ho];B[gn];W[fn]
;B[dn];W[dm];B[cm];W[dr];B[cr];W[fb];B[fa];W[ga];B[ea];W[hb];B[go];W[hp];B[kd]
;W[kc];B[ld];W[lc];B[me];W[ce];B[be];W[bf];B[cd];W[cb];B[bb];W[dl];B[cl];W[bj]
;B[jd];W[jc];B[ie];W[bk];B[fl];W[fm];B[gl];W[ed];B[cc];W[de];B[bl])