(;SZ[19]PB[坂田荣男 七段]PW[吴清源 八段]RE[W+Resign]GN[吴清源对高段者总对抗十番棋决战第十局]DT[1950.03.31]PC[静冈县]HA[坂田先相先.先]TM[黑: 09:59  白: 07:19]US[余军]SO[飞扬围棋资讯网 http://www.flygo.net];B[pd];W[dp];B[qp];W[dc];B[oq];W[de]
;B[jc];W[qf];B[nd];W[rd];B[qc];W[qi];B[gc];W[ci];B[fq];W[dn];B[iq];W[ge];B[qk]
;W[jp];B[jq];W[kp];B[ho];W[eq];B[fr];W[hm];B[jn];W[ln];B[jl];W[ll];B[jj];W[pm]
;B[ok];W[oo];B[mq];W[np];B[lr];W[pp];B[pq];W[qo];B[rp];W[pj];B[pk];W[nj];B[om]
;W[nl];B[nk];W[mk];B[qm];W[ol];B[pl];W[pn];B[ro];W[gj];B[ck];W[io];B[mm];W[ml]
;B[in];W[hn];B[lo];W[go];B[lm];W[km];B[kn];W[mn];B[hp];W[dh];B[cq];W[cp];B[cn]
;W[bo];B[cc];W[eb];B[fi];W[gi];B[cg];W[cd];B[bd];W[be];B[dm];W[en];B[bi];W[bj]
;B[cj];W[bh];B[di];W[ch];B[bk];W[ai];B[em];W[lp];B[gl];W[hl];B[fn];W[fo];B[gn]
;W[fm];B[gm];W[fl];B[gk];W[fk];B[hk];W[fj];B[bq];W[bm];B[cm];W[bn];B[er];W[mp]
;B[hj];W[dq];B[dr];W[dj];B[ed];W[fd];B[fc];W[ec];B[he];W[hf];B[ie];W[gd];B[hd]
;W[gg];B[if];W[qn];B[rn];W[rm];B[ql];W[oe];B[fp];W[bp];B[bl];W[dl];B[cl];W[ep]
;B[od];W[rc];B[rb];W[mf];B[pf];W[qb];B[pe];W[pb];B[ob];W[qg];B[ap];W[eo];B[ao]
;W[dk];B[hh];W[gh];B[mh];W[ng];B[nh];W[og];B[pg];W[oh];B[hg];W[gf];B[ph];W[lh]
;B[oj];W[oi];B[qh];W[mi];B[rh];W[sb];B[lj];W[mj];B[ra];W[qa];B[re];W[qe];B[rf]
;W[qd];B[pc];W[sa];B[rg];W[sd];B[lg];W[mg];B[pi];W[gb];B[hc];W[fb];B[kh];W[li]
;B[gp];W[al];B[le];W[lf];B[kg];W[me];B[md];W[ke];B[ld];W[kf];B[ak];W[am];B[ki]
;W[hi];B[ii];W[ja];B[aq];W[el];B[ha];W[la];B[ma];W[hb];B[ib];W[ia];B[kb];W[kk]
;B[ka];W[oa];B[nb];W[ik];B[ij];W[jk];B[il];W[nq];B[nr];W[nm])