(;GN[每日新闻主办"第2期本因坊战"选士级预选第3次一回战]DT[1942.05.20]PC[日本]PB[吴清源 七段]PW[加藤信 八段]KM[4.5]RE[共119手 黑中盘胜]US[余军]SO[飞扬围棋网 http://www.flygo.net];B[pd];W[dc];B[pp];W[dq];B[de];W[cn];B[cc]
;W[cb];B[cd];W[eb];B[ci];W[nq];B[pn];W[jq];B[fc];W[ed];B[gd];W[ee];B[gf];W[gg]
;B[df];W[ff];B[hf];W[fg];B[hg];W[qf];B[nc];W[pj];B[hi];W[fj];B[qh];W[ph];B[pi]
;W[qi];B[oi];W[oh];B[qj];W[ri];B[nh];W[ni];B[oj];W[pk];B[nj];W[of];B[qk];W[ql]
;B[pl];W[ok];B[rl];W[rk];B[qm];W[rj];B[ql];W[mi];B[mh];W[ne];B[lh];W[mc];B[qe]
;W[rf];B[mb];W[nd];B[oc];W[lc];B[lb];W[kc];B[nk];W[ck];B[cj];W[dk];B[do];W[co]
;B[dp];W[cp];B[eq];W[dr];B[io];W[jo];B[jp];W[ip];B[kp];W[kq];B[ho];W[lp];B[ko]
;W[jn];B[lo];W[mp];B[jm];W[hp];B[go];W[in];B[hm];W[kn];B[mo];W[hj];B[im];W[ii]
;B[ih];W[gi];B[hh];W[jj];B[ki];W[no];B[lm];W[pr];B[rh];W[qg];B[re];W[qq];B[nn]
;W[bb];B[bc];W[di];B[dh];W[eh];B[dg];W[ro];B[oo])