(;GN[读卖新闻主办"准名人战"]DT[1944年(读卖新闻11月13日至25日连载)]PC[日本]PB[吴清源 八段]PW[木谷实 八段]TM[黑: 04:22  白: 09:59]RE[共175手 黑中盘胜]US[余军]SO[飞扬围棋网 http://www.flygo.net];B[pd];W[ed];B[pp];W[do];B[dq];W[cq];B[cd]
;W[cc];B[bc];W[dc];B[cf];W[bb];B[ci];W[ck];B[cr];W[cp];B[fq];W[br];B[iq];W[qn]
;B[np];W[rp];B[qm];W[rm];B[rn];W[ro];B[pn];W[sn];B[ql];W[qq];B[jc];W[hc];B[hd]
;W[gc];B[je];W[lc];B[ic];W[pc];B[qc];W[oc];B[qb];W[ne];B[of];W[le];B[od];W[nd]
;B[pg];W[qi];B[rk];W[rj];B[rh];W[rl];B[qk];W[sk];B[pr];W[jp];B[ip];W[jo];B[kr]
;W[jm];B[gd];W[fd];B[gn];W[dl];B[ob];W[nc];B[pb];W[be];B[bf];W[bd];B[qr];W[hf]
;B[fc];W[fb];B[jg];W[lg];B[gf];W[gg];B[ff];W[ef];B[fg];W[eg];B[fh];W[eh];B[ei]
;W[ej];B[fi];W[di];B[dj];W[dh];B[ek];W[cj];B[qo];W[ni];B[mh];W[jh];B[ih];W[kh]
;B[mg];W[oh];B[ph];W[pi];B[oj];W[oi];B[ng];W[ig];B[if];W[hg];B[ii];W[kj];B[jj]
;W[jk];B[kk];W[ij];B[ji];W[ki];B[jl];W[ik];B[hi];W[il];B[kl];W[mi];B[mk];W[kg]
;B[jf];W[hn];B[gm];W[hm];B[gk];W[mm];B[ml];W[nm];B[ol];W[mo];B[nn];W[io];B[ln]
;W[go];B[fo];W[fn];B[fm];W[fp];B[en];W[gp];B[ep];W[gq];B[eo];W[gr];B[mf];W[ke]
;B[rr];W[mb];B[er];W[lm];B[mn];W[km];B[om];W[lq];B[kq];W[kp];B[lr];W[lo];B[kd]
;W[ld];B[kb];W[pq];B[mq];W[no];B[op];W[oq];B[on];W[kn];B[lp];W[mp];B[lq])