(;GN[日本棋院前期升段赛]DT[19442.08.12-13]PC[日本]PB[岛村利博 六段]PW[吴清源 八段]HA[岛村先相先]RE[共226手 白胜2目]US[余军]SO[飞扬围棋网 http://www.flygo.net];B[qd];W[dc];B[od];W[pq];B[do];W[dq];B[qo]
;W[pl];B[om];W[po];B[pm];W[qp];B[ql];W[qn];B[qm];W[co];B[cn];W[cp];B[dn];W[ep]
;B[cj];W[ce];B[jc];W[gc];B[je];W[pe];B[pd];W[ph];B[nh];W[qe];B[oe];W[rd];B[rc]
;W[qj];B[rh];W[qh];B[ri];W[qk];B[re];W[rf];B[sd];W[rg];B[pf];W[nj];B[oo];W[ro]
;B[nl];W[qf];B[cg];W[iq];B[cc];W[dd];B[jo];W[nk];B[kp];W[lk];B[hp];W[hq];B[gp]
;W[gq];B[lh];W[np];B[ok];W[oj];B[mo];W[id];B[ic];W[jd];B[kd];W[hd];B[kf];W[kc]
;B[kb];W[mp];B[lp];W[no];B[mn];W[lc];B[lb];W[fp];B[be];W[bd];B[bf];W[bc];B[pg]
;W[qg];B[oh];W[mi];B[mh];W[ml];B[nn];W[hb];B[kl];W[kk];B[jl];W[fn];B[bn];W[lm]
;B[op];W[oq];B[mr];W[nr];B[ol];W[pk];B[rk];W[rj];B[sj];W[qi];B[rm];W[sh];B[eg]
;W[em];B[dk];W[bo];B[jr];W[ir];B[gk];W[df];B[dg];W[gg];B[ef];W[jg];B[kg];W[fh]
;B[gm];W[gn];B[hn];W[di];B[ci];W[hm];B[hl];W[ho];B[im];W[ip];B[dm];W[an];B[am]
;W[ao];B[cf];W[bm];B[al];W[bl];B[ak];W[bk];B[aj];W[bj];B[ai];W[bi];B[ah];W[bh]
;B[ag];W[el];B[dl];W[dj];B[dh];W[fj];B[de];W[cd];B[ed];W[ec];B[fd];W[kr];B[io]
;W[fo];B[jq];W[js];B[hg];W[hh];B[ih];W[hi];B[ii];W[hf];B[ig];W[lr];B[lq];W[ms]
;B[mq];W[nq];B[ek];W[ge];B[fk];W[fe];B[ee];W[hj];B[gj];W[fi];B[ja];W[ib];B[jb]
;W[hc];B[ki];W[ia];B[mb];W[si];B[sk];W[rn];B[sn];W[jp];B[mm];W[ll];B[km];W[ln]
;B[kq];W[kn];B[jn];W[if];B[jf];W[jj];B[ji];W[so];B[sm];W[lj];B[fc];W[fb];B[ij]
;W[jk];B[ik];W[ie];B[oi];W[sf];B[pi];W[pj];B[fl];W[se];B[rd];W[ad])