(;GN[朝日新闻主办"升八段者两局对抗赛"第2局]DT[1942年(朝日新闻10月11日至25日连载)]PC[日本]PB[吴清源 八段]PW[木谷实 八段]TM[黑: 03:31  白: 09:59]RE[共257手以下略 黑胜12目]US[余军]SO[飞扬围棋网 http://www.flygo.net];B[pd];W[dc];B[pp];W[dq];B[de];W[ce];B[dd]
;W[cd];B[ec];W[cc];B[df];W[eb];B[fc];W[fb];B[hc];W[cg];B[do];W[fq];B[cq];W[cr]
;B[cp];W[br];B[cl];W[qn];B[nq];W[rp];B[qq];W[qk];B[gb];W[nc];B[oc];W[nd];B[pf]
;W[kd];B[qi];W[qc];B[pc];W[gd];B[hd];W[fe];B[ge];W[dg];B[gf];W[ef];B[lc];W[ld]
;B[kc];W[nf];B[qm];W[rm];B[pm];W[ql];B[ol];W[qo];B[hq];W[jc];B[jb];W[jd];B[ib]
;W[kp];B[ho];W[fo];B[km];W[kg];B[rj];W[on];B[rk];W[rl];B[oo];W[jn];B[jo];W[mn]
;B[ko];W[mp];B[no];W[mo];B[nn];W[mm];B[nm];W[rq];B[in];W[mq];B[nr];W[ll];B[kl]
;W[lk];B[rr];W[kk];B[ep];W[gq];B[eq];W[er];B[fp];W[gp];B[go];W[hp];B[ip];W[iq]
;B[jq];W[hr];B[kq];W[rd];B[qd];W[rb];B[re];W[rf];B[sd];W[sc];B[rc];W[lp];B[qb]
;W[jp];B[fn];W[np];B[pr];W[op];B[po];W[oq];B[or];W[pn];B[sr];W[om];B[nk];W[pl]
;B[io];W[mr];B[ns];W[cj];B[fr];W[gr];B[ir];W[fd];B[gc];W[eg];B[ie];W[dl];B[dk]
;W[ck];B[el];W[dm];B[cm];W[hf];B[jg];W[hg];B[he];W[jh];B[jf];W[kf];B[ih];W[ji]
;B[dj];W[gh];B[ci];W[mb];B[fh];W[fg];B[gg];W[hh];B[ii];W[ij];B[hj];W[hk];B[ig]
;W[fi];B[di];W[eh];B[lb];W[bh];B[bi];W[ph];B[qh];W[la];B[ka];W[ma];B[ik];W[jj]
;B[gj];W[gk];B[fj];W[il];B[bq];W[dr];B[ar];W[nj];B[oi];W[ok];B[nl];W[pi];B[oj]
;W[pj];B[ed];W[ni];B[hq];W[mc];B[kb];W[iq];B[ms];W[jr];B[hq];W[cn];B[dn];W[iq]
;B[bf];W[cf];B[hq];W[je];B[if];W[iq];B[bg];W[be];B[hq];W[fk];B[ek];W[iq];B[db]
;W[cb];B[hq];W[ei];B[gi];W[iq];B[ch];W[is];B[kr];W[pa];B[ob];W[qg];B[pg];W[rh]
;B[ri];W[sg];B[qf];W[sk];B[rg];W[af];B[ah];W[qg];B[lm];W[lr];B[ls];W[ks];B[js]
;W[dp];B[eo];W[ks];B[oh];W[og];B[pk];W[qj];B[rg];W[lq];B[ok];W[qg];B[sf];W[se]
;B[rg];W[nh];B[oa])