(;SZ[19]PB[林有太郎 七段]PW[吴清源 八段]GN[吴清源对高段者总对抗十番棋决战第七局]DT[1950.01.01]PC[千叶县]HA[林有先相先.先]TM[黑: 09:59  白: 09:52]RE[W+1]US[余军]SO[飞扬围棋资讯网 http://www.flygo.net];B[pd];W[dp];B[dc];W[qp];B[de];W[nc]
;B[jc];W[qf];B[pf];W[pg];B[of];W[qc];B[qe];W[qg];B[pc];W[pb];B[rb];W[qb];B[rc]
;W[og];B[nf];W[lc];B[oq];W[po];B[lq];W[ob];B[re];W[le];B[pk];W[oj];B[pj];W[oi]
;B[pm];W[lg];B[ra];W[gd];B[cn];W[fp];B[dj];W[jq];B[lo];W[no];B[nl];W[ql];B[qm]
;W[mp];B[lp];W[mq];B[lr];W[rj];B[mr];W[nm];B[ml];W[om];B[pl];W[rf];B[se];W[ln]
;B[nj];W[pq];B[mh];W[rh];B[jp];W[lm];B[iq];W[mj];B[ll];W[cl];B[cj];W[el];B[ni]
;W[ok];B[ol];W[nk];B[mk];W[lj];B[mg];W[lh];B[qi];W[pi];B[qj];W[ri];B[op];W[oo]
;B[ro];W[rm];B[rl];W[rk];B[qk];W[sl];B[rn];W[ql];B[mm];W[mn];B[rl];W[qd];B[rd]
;W[ql];B[qo];W[or];B[nr];W[rl];B[rp];W[pp];B[qr];W[jm];B[jl];W[pr];B[rq];W[il]
;B[kl];W[jo];B[ip];W[im];B[gb];W[bk];B[dg];W[cq];B[bj];W[ef];B[dd];W[gq];B[id]
;W[hr];B[ir];W[gf];B[gc];W[if];B[hq];W[gr];B[hn];W[gm];B[gn];W[fn];B[jj];W[mf]
;B[ng];W[ck];B[kb];W[ik];B[mb];W[lb];B[la];W[mc];B[sf];W[sg];B[kj];W[mi];B[nh]
;W[je];B[ki];W[li];B[nq];W[hd];B[hc];W[kc];B[jb];W[jd];B[gk];W[ek];B[gi];W[go]
;B[io];W[gl];B[eg];W[fi];B[gh];W[ei];B[di];W[aj];B[ai];W[ak];B[bh];W[fg];B[fh]
;W[fk];B[eh];W[fd];B[jg];W[ig];B[jh];W[fc];B[fb];W[ko];B[kf];W[lf];B[kp];W[km]
;B[ke];W[kd];B[ne];W[gj];B[ee];W[fe];B[jn];W[in];B[ho];W[kn];B[gp];W[hp];B[dk]
;W[dl];B[gp];W[fo];B[qh];W[oh];B[qa];W[nb];B[ma];W[na];B[ka];W[pa];B[hm];W[hj]
;B[hl];W[hk];B[ej];W[fj];B[hg];W[jf];B[hf];W[he];B[kg];W[df];B[cf];W[hh];B[gg]
;W[ff];B[hi];W[ih];B[ii];W[kh];B[ji];W[ec];B[eb];W[pn];B[mo];W[np];B[hs];W[gs]
;B[is];W[sn];B[md];W[so];B[sp];W[qn];B[sr];W[nd];B[me];W[ld];B[sm];W[od];B[pe]
;W[sn];B[qs];W[ns];B[ms];W[os];B[hp])