(;GN[读卖新闻主办"准名人战"]DT[1944年(读卖新闻12月29日至次年1月4日连载)]PC[日本]PB[吴清源 八段]PW[雁金准一 八段]RE[共241手 和棋]US[余军]SO[飞扬围棋网 http://www.flygo.net];B[pd];W[dc];B[pp];W[cp];B[ep];W[gq];B[cq];W[dq]
;B[dp];W[eq];B[fq];W[cr];B[fp];W[bq];B[gr];W[nq];B[lq];W[lp];B[kq];W[kp];B[mp]
;W[mq];B[np];W[jq];B[jr];W[iq];B[ir];W[hr];B[hs];W[hq];B[er];W[mr];B[kr];W[op]
;B[oo];W[oq];B[pq];W[pr];B[po];W[qq];B[mn];W[ho];B[dn];W[cn];B[cm];W[bn];B[kn]
;W[hm];B[el];W[hk];B[ce];W[ej];B[dr];W[om];B[nm];W[ok];B[ol];W[pl];B[nl];W[qf]
;B[fj];W[nc];B[nd];W[md];B[ne];W[oc];B[pc];W[pj];B[kd];W[me];B[pf];W[qe];B[pe]
;W[qg];B[mf];W[le];B[hj];W[ij];B[hi];W[lf];B[in];W[im];B[gk];W[mg];B[qd];W[ed]
;B[hn];W[gn];B[jm];W[fl];B[cq];W[gl];B[co];W[jo];B[jn];W[gp];B[fk];W[cl];B[ik]
;W[jk];B[hl];W[il];B[hk];W[jl];B[bm];W[bl];B[am];W[df];B[hd];W[ci];B[ro];W[rr]
;B[rm];W[rl];B[dl];W[cf];B[lk];W[kj];B[fc];W[fd];B[lc];W[mc];B[gc];W[jc];B[kb]
;W[lm];B[lo];W[jb];B[jd];W[lb];B[kc];W[ka];B[ic];W[pb];B[qb];W[nb];B[pa];W[eb]
;B[ib];W[nk];B[qm];W[ql];B[pm];W[oa];B[ob];W[mo];B[no];W[pb];B[lj];W[ki];B[ob]
;W[bo];B[bp];W[pb];B[fm];W[qa];B[gm];W[rb];B[li];W[kh];B[ni];W[oh];B[oi];W[pi]
;B[ec];W[lh];B[ja];W[ll];B[cc];W[cb];B[dd];W[db];B[bf];W[de];B[ch];W[be];B[bi]
;W[di];B[bj];W[bg];B[ml];W[mk];B[kl];W[kk];B[km];W[mi];B[bh];W[eh];B[cj];W[la]
;B[qp];W[rq];B[or];W[os];B[sl];W[sk];B[sm];W[rk];B[fb];W[lr];B[ee];W[fe];B[ef]
;W[dg];B[ff];W[gf];B[ge];W[cd];B[gg];W[hf];B[fg];W[fi];B[hg];W[if];B[ig];W[jg]
;B[ii];W[gi];B[dj];W[ei];B[jj];W[fa];B[ga];W[ea];B[ah];W[cg];B[ag];W[af];B[sp]
;W[ek];B[dk];W[sq];B[ke];W[kf];B[ie];W[jf];B[rp];W[ks];B[is];W[ji];B[ij])