(;GN[日本经济新闻主办"王座特别战"]DT[1956.01.01]PC[日本]PB[桥本宇太郎 九段]PW[吴清源 九段]TM[黑: 06:30  白: 05:32]KM[5.5]RE[黑中盘胜]US[余军]SO[飞扬围棋网 http://www.flygo.net];B[qd];W[cc];B[pq];W[oc];B[cp];W[po]
;B[ld];W[md];B[lc];W[pe];B[qe];W[pg];B[pf];W[of];B[qf];W[og];B[qh];W[qc];B[pd]
;W[pc];B[oe];W[ne];B[od];W[nd];B[hc];W[qq];B[eq];W[fc];B[le];W[mb];B[cj];W[jc]
;B[jd];W[lb];B[kc];W[pr];B[df];W[jp];B[hq];W[io];B[jr];W[kq];B[go];W[bp];B[cq]
;W[dl];B[ek];W[el];B[fk];W[ck];B[cm];W[gn];B[dj];W[fo];B[gp];W[co];B[bk];W[cn]
;B[pl];W[qj];B[oj];W[pi];B[oq];W[qp];B[mq];W[kr];B[or];W[mo];B[qr];W[rr];B[ps]
;W[nl];B[ol];W[nk];B[pj];W[rh];B[rg];W[qi];B[nm];W[qg];B[sh];W[ph];B[si];W[rf]
;B[sg];W[rl];B[rc];W[mi];B[oo];W[on];B[pn];W[op];B[no];W[np];B[nn];W[mp];B[pp]
;W[qo];B[rs];W[sj];B[lm];W[re];B[rd];W[ri];B[qb];W[pb];B[rb];W[hn];B[ko];W[mr]
;B[nq];W[lp];B[rn];W[qn];B[rm];W[qm];B[ql];W[pm];B[om];W[rk];B[rq];W[ro];B[lk]
;W[ce];B[cf];W[de];B[bm];W[ir];B[iq];W[jq];B[fn];W[bq];B[br];W[en];B[fm];W[fl]
;B[gm];W[gl];B[hm];W[im];B[hl];W[gk];B[il];W[ep];B[fp];W[eo];B[jm];W[fr];B[hr]
;W[js];B[fq];W[hs];B[bn];W[gr];B[bo];W[ef];B[mc];W[nc];B[gi];W[ik];B[hk];W[hj]
;B[gj];W[jl];B[in];W[ho];B[jo];W[em];B[im];W[km];B[jn];W[ln];B[ll];W[mn];B[jk]
;W[mm];B[bf];W[ic];B[id];W[hb];B[hd];W[ib];B[lq];W[kp];B[li];W[mh];B[lh];W[lg]
;B[kg];W[lf];B[kf];W[fg];B[mj];W[nj];B[fd];W[dg];B[ch])