(;GN[读卖新闻主办"吴清源对新进战"第三局]DT[1956.08.16-17]PC[神奈川县鹤卷温泉阵屋]PB[加田克司 六段]PW[吴清源 九段]HA[加田先二先.先]TM[黑: 09:59  白: 05:37]RE[共258手 黑胜1目]US[余军]SO[飞扬围棋网 http://www.flygo.net];B[qd];W[od];B[cd];W[cp];B[pq];W[pf]
;B[eq];W[hp];B[do];W[dp];B[ep];W[eo];B[gp];W[en];B[go];W[cm];B[qf];W[qc];B[pg]
;W[pd];B[qe];W[rc];B[ec];W[qo];B[pl];W[hq];B[gq];W[pn];B[oo];W[pp];B[op];W[qq]
;B[or];W[qr];B[jp];W[on];B[nn];W[nm];B[mn];W[qi];B[oi];W[ol];B[of];W[io];B[hm]
;W[lq];B[jr];W[lo];B[mp];W[kq];B[jq];W[ko];B[jo];W[mr];B[po];W[qp];B[mm];W[nq]
;B[ok];W[nk];B[qn];W[om];B[ml];W[oj];B[pk];W[nl];B[nj];W[mk];B[lk];W[mj];B[pj]
;W[qm];B[kn];W[lc];B[rl];W[rm];B[ch];W[cj];B[jc];W[ee];B[fd];W[ce];B[dd];W[de]
;B[eh];W[gf];B[gh];W[bd];B[bc];W[bf];B[cr];W[ac];B[ab];W[ed];B[cc];W[lj];B[gd]
;W[bh];B[ci];W[bi];B[dj];W[ck];B[mq];W[nr];B[kp];W[lp];B[ln];W[np];B[no];W[oq]
;B[kk];W[sf];B[sd];W[rd];B[re];W[se];B[sg];W[kc];B[jd];W[rk];B[rj];W[sc];B[rg]
;W[jb];B[ib];W[kb];B[hc];W[cg];B[bq];W[fj];B[hj];W[ei];B[fk];W[ek];B[gj];W[fh]
;B[fg];W[fi];B[gg];W[eg];B[ef];W[dg];B[fl];W[bp];B[el];W[ff];B[dl];W[cl];B[dk]
;W[di];B[qk];W[hf];B[ig];W[ad];B[mo];W[ks];B[kr];W[lr];B[fn];W[kj];B[jk];W[em]
;B[ap];W[ao];B[aq];W[bb];B[cb];W[aa];B[bo];W[co];B[bn];W[cn];B[md];W[mc];B[mi]
;W[ca];B[db];W[ls];B[js];W[nh];B[ni];W[nf];B[ng];W[mg];B[og];W[mf];B[le];W[mh]
;B[nd];W[nc];B[pr];W[ps];B[li];W[ke];B[lf];W[ld];B[me];W[kg];B[kf];W[jf];B[je]
;W[jg];B[kd];W[ki];B[ja];W[ka];B[ia];W[oh];B[ph];W[fm];B[gm];W[bm];B[an];W[fo]
;B[gn];W[ii];B[ih];W[ij];B[ik];W[he];B[if];W[pi];B[ie];W[pe];B[ri];W[lh];B[oj]
;W[jh];B[fe];W[fc];B[fb];W[am];B[ao];W[sm];B[sl];W[hd];B[ej];W[id];B[ic];W[fp]
;B[fq];W[cq];B[br];W[dq];B[dr];W[ql];B[sk];W[jj];B[dm];W[dn];B[pm];W[rn];B[hg]
;W[df];B[hi];W[ab];B[da];W[ba])