(;SZ[19]PB[高川格 八段]PW[吴清源 九段]RE[W+Resign]EV[第1期日本最强者战第8局]DT[1957.09.26,27]TM[黑: 09:35  白: 09:52]US[余军]SO[飞扬围棋网 http://www.flygo.net];B[qd];W[dc];B[pp];W[cp];B[eq];W[oc];B[ce]
;W[dh];B[fe];W[gc];B[do];W[co];B[dn];W[cm];B[jq];W[qn];B[pn];W[pm];B[on];W[qq]
;B[qo];W[or];B[mr];W[mq];B[nr];W[oq];B[lq];W[qm];B[rp];W[rq];B[qg];W[mp];B[lp]
;W[mo];B[om];W[pk];B[kn];W[mm];B[ok];W[pj];B[mk];W[op];B[dm];W[cl];B[dl];W[dk]
;B[ek];W[ll];B[cn];W[bn];B[bo];W[bm];B[cq];W[bp];B[oj];W[ph];B[qh];W[oi];B[qi]
;W[pi];B[mi];W[of];B[ki];W[qc];B[rc];W[qe];B[re];W[pd];B[rd];W[de];B[df];W[cd]
;B[ee];W[dd];B[fg];W[hd];B[jl];W[dj];B[bf];W[fj];B[hg];W[dp];B[ep];W[jk];B[il]
;W[fk];B[ie];W[he];B[hf];W[gm];B[ke];W[fo];B[eo];W[in];B[ho];W[hn];B[fn];W[gn]
;B[go];W[io];B[ip];W[jp];B[hq];W[qf];B[rf];W[qb];B[ik];W[lr];B[id];W[kr];B[jr]
;W[bq];B[ib];W[hb];B[cr];W[rj];B[rb];W[kk];B[ij];W[ic];B[jc];W[jb];B[hc];W[iq]
;B[ir];W[ic];B[kq];W[kc];B[hc];W[nj];B[nk];W[ic];B[oe];W[jd];B[pe];W[pf];B[od]
;W[pc];B[md];W[mc];B[me];W[ld];B[ng];W[ri];B[rh];W[pg];B[fl];W[je];B[kg];W[be]
;B[cf];W[bh];B[bd];W[bc];B[ae];W[kl];B[rn];W[mj];B[lj];W[ni];B[lk];W[mh];B[li]
;W[mg];B[mf];W[nh];B[jf];W[qj];B[sh];W[rm];B[km];W[if];B[ig];W[dq];B[dr];W[br]
;B[ci];W[gi];B[ei];W[ej];B[di];W[gl];B[bi];W[cj];B[sq];W[sr];B[so];W[sp];B[fc]
;W[fb];B[sq];W[lo];B[rr];W[sp];B[ec];W[eb];B[sq];W[ko];B[jn];W[sp];B[nc];W[nb]
;B[sq];W[nd];B[jo];W[sp];B[qr];W[pq];B[sq];W[ns];B[ks];W[sp];B[bk];W[bj];B[sq]
;W[ol];B[nl];W[sp];B[aj];W[ck];B[sq];W[nq];B[ls];W[sp];B[gk];W[qp];B[po];W[ro]
;B[gj];W[eh];B[rp];W[fi];B[sq];W[pl];B[nm];W[sp];B[ch];W[ro];B[dg];W[sn];B[ne]
;W[er];B[fr];W[cs];B[es];W[fh];B[bb];W[cb];B[ac];W[ba];B[cc];W[el];B[fm];W[bc]
)