(
;FF[3]GM[1]AP[PocketGoban Ver 0.999]GO[0]
SZ[19]PB[Honinbo Doetsu]PW[Honinbo Dosaku( atome)]
DT[1669-07-16,18]
RO[00-02]RE[B+3]US[roha]

;B[qd];W[oc];B[lc];W[dc];B[ce];W[ch];B[cp];W[eq];B[iq];W[oq]
;B[lq];W[ck];B[ic];W[qh];B[pe];W[qk];B[qp];W[qb];B[rb];W[qc]
;B[rc];W[re];B[rd];W[nd];B[rg];W[rh];B[rf];W[do]C[Moves from W28 to W38 in spite of 2-point hiraki, B(J,3) & B(M,3), shows Dosaku's playing.]
;B[co];W[dn];B[cn];W[dm];B[dr];W[po];B[qo];W[pn];B[qn];W[pm]
;B[pr];W[cd];B[ed];W[de];B[ec];W[dd];B[ee];W[ef];B[ff];W[eb]
;B[fb];W[db];B[eg];W[df];B[fg];W[ld];B[kd];W[mc];B[lb];W[ke]
;B[le];W[md];B[jd];W[lf];B[je];W[kf];B[bl];W[bm];B[cm];W[cl]
;B[bk];W[bj];B[bn];W[io]C[To cover the thin left side, moves from W70 to W92, especially W82 and W84,W86 kikashi, cuts a brilliant figure.  ]
;B[lo];W[hq];B[hr];W[hp];B[gr];W[ln]C[firm move]
;B[ko];W[kn];B[mn];W[kq]C[good timming kikashi]
;B[lr];W[mo]C[brilliant move]
;B[no];W[mp];B[np];W[mm];B[nn];W[pq];B[qq];W[nm]C[W82 & W84 prevents B(Q,4) de-kiri.]
;B[nf];W[nh]C[W94 to W98 shows Dosaku's plan.]
;B[mg];W[mf];B[ng];W[ei];B[gi];W[gh];B[dj];W[ak];B[am];W[cj]
;B[fi];W[gk]C[W106 is a marvelous point.
Many pro players lists up W106 is one of Dosaku's best move. ]
;B[ej];W[di];B[fk];W[fh];B[hh];W[eh];B[hi];W[hf]C[firm move! It is necessary to read perfectly to 40-50 moves.  ]
;B[ge];W[jf];B[hg];W[gg];B[if];W[gf];B[ie];W[jh];B[ig];W[mh]
;B[dg];W[cg];B[li];W[lh];B[ji];W[gl];B[kj];W[dq];B[cq];W[er]
;B[lp];W[pp];B[jo];W[ir];B[jq];W[jr]C[W138 & W140 is yose-tesuji.]
;B[kr];W[jn];B[nj];W[gb];B[fc];W[fa];B[rl]C[Master Doetsu could remain black 3 points nevertheless Dosaaku's skillful moves.]
)