(
;FF[3]GM[1]AP[PocketGoban Ver 0.999]
SZ[19]PB[Yasui Chitetsu]PW[Honinbo Dosaku( atome)]
DT[1676]
RO[34-40]RE[W+9]US[roha]

;B[qd];W[dc];B[cp];W[eq];B[hq];W[oc];B[ce];W[ed];B[do]C[-> Tsuke(e04) in our time]
;W[df];B[cg];W[ci];B[dg];W[cl]C[W10, 12 & 14; interesting step]
;B[fp]C[W4 still alive]
;W[jc]C[W16; thought a great deal of upper side than lower right corner.]
;B[po];W[pq];B[oq];W[or];B[op];W[nq];B[nr];W[mr];B[pr];W[ns]
;B[qq];W[jq]C[W26; aiming (g02)]
;B[pe]C[-> Keima(q14) for preventing Wariuchi in right side.]
;W[qj];B[nd]C[B31; -> B33 , lost a chance of Uchikomi(m17)]
;W[mc];B[qh];W[qm];B[qn];W[rm];B[dm];W[dl];B[cm]C[B39; ->Tsuke(c17) in upper left corner]
;W[de]C[severe for black's fate and territory]
;B[bh];W[cf];B[bf];W[be];B[bi]C[It is difficult to play Ate(a15) in this stage.]
;W[cj];B[fg];W[fi]C[W40 to 48; fine step]
;B[fh];W[gi];B[hg];W[em]C[good point]
;B[en];W[fm];B[fn];W[gm];B[mp];W[np];B[no];W[mo];B[mq]C[poor move( Dame-zumari)]
;W[nr];B[lp];W[nn];B[oo];W[kq];B[pm];W[lo]C[It is difficult to move black's 3-stones by Dame-zumari.]
;B[ql];W[af];B[ei];W[eh]C[Kiri !!,  marvelous timing for B71 Hane]
;B[dh];W[bg];B[ch]C[W72 to B75; getting profit & Sente]
;W[bm];B[bn];W[hh];B[ig];W[gf];B[gg]C[W78 & 80; put black into bad shape]
;W[ph];B[pg];W[pi];B[rl];W[qg];B[rg]C[Tesuji]
;W[hp];B[gq];W[ji]C[W82, 84 & 88; preparation for attack(W90)]
;B[id]C[interesting Sabaki]
;W[ie]C[hard punch !]
;B[jh];W[je];B[ii];W[jj];B[hi]C[B91 to B97; good Sabaki]
;W[hk]C[W96 & 98; dodges with a light step
White got a profit in upper side.]
;B[li]C[a spirited move]
;W[kh];B[kg];W[lh];B[he];W[hf];B[ld]C[B101, 103 & 105; aiming Kiri(L11)]
;W[lg];B[kf];W[lf];B[ke];W[jd]C[White got a profit, but....]
;B[ik]C[severe attcking, How do white play?]
;W[ij];B[hj];W[md]C[coolness countermeasure]
;B[gk];W[hl];B[fj];W[ej];B[di];W[fk];B[gj];W[gl];B[ih]C[B115 to B123; Black group alives.]
;W[og];B[qf];W[bq]C[a sharp aiming]
;B[dr];W[ol]C[a sharp blow, But it 's necessary keen thinking.]
;B[nm]C[a hot counterattack !! How to white's Shinogi?]
;W[om];B[on];W[mn];B[mm];W[pl];B[ko];W[ln];B[kp];W[km];B[jm]
;W[kn]C[fine Shinogi]
;B[jn];W[kl];B[ip];W[iq];B[io];W[ho]C[!!!]
;B[jl];W[jk];B[hn];W[im]C[W146 & 150; an exquisite Shinogi !!!]
;B[ir];W[in];B[go];W[jr];B[hs];W[ps];B[qr];W[pn];B[ro];W[lq]
;B[gp];W[ls];B[ff];W[fe];B[lc];W[le];B[kd];W[ne];B[kb];W[jb]
;B[rj];W[qb];B[qk];W[pk];B[qi];W[pj];B[bl];W[bk];B[am]C[B177 & 179; extremely big for preventing corner's measures( Kosumi-tsuke(c02) to Kiri(c06))]
;W[pm];B[dj];W[rn];B[qo];W[so];B[rp];W[sl];B[rk];W[rc];B[qc]
;W[rb];B[oe];W[of];B[ja];W[ia];B[ka];W[ib];B[mb];W[nb];B[pc]
;W[pb];B[od];W[ma];B[lb];W[nc];B[el];W[ek];B[dk];W[fl];B[ck]
;W[re];B[rd];W[sd];B[rf];W[se];B[sf];W[ri];B[si];W[qs];B[rs]
;W[os];B[rr];W[jf];B[jg];W[ef];B[if];W[ge];B[eg];W[js];B[pf]
;W[is];B[hr];W[ah];B[ai];W[ag];B[nf];W[me];B[oh];W[ng];B[nh]
;W[mg];B[lk];W[kk];B[nk];W[nj];B[mj];W[ni];B[mi];W[ki];B[mh]
;W[oi];B[sp];W[ml];B[nl];W[ll];B[mk];W[lm];B[sn];W[ok];B[rh]
;W[lj];B[sk];W[sm];B[el];W[dl];B[gn]
)