(
;FF[3]GM[1]AP[PocketGoban Ver 0.999]GO[0]
SZ[19]PB[Yasui Chitetsu]PW[Honinbo Dosaku( atome)]
DT[1670-11-02]
RO[34-23]RE[W+13]US[roha]

;B[qd];W[oc];B[lc];W[qo];B[dq];W[co];B[cl];W[pq];B[cd];W[ec]
;B[gc];W[hq];B[ep];W[de];B[ce];W[df];B[cg];W[dg];B[ch];W[cf]
;B[bf];W[bg];B[bh];W[be];B[ag];W[cc];B[bd]C[W14 to B27 is Jyoseki between Dosaku and Yasui family players.]
;W[qi];B[pc];W[kq];B[dn];W[pe];B[qe];W[pb];B[qb];W[pd];B[qc]
;W[pf];B[qf];W[pg];B[qg];W[ph];B[bc];W[ge];B[id];W[ie];B[je]
;W[if];B[hd];W[jf];B[ke];W[kf];B[lf];W[lg];B[mf];W[mg]C[Chitetsu took the real territory.
Dosaku made a big frame to center.]
;B[lp];W[lq];B[np];W[on];B[nn];W[nm];B[mm];W[nl];B[oq];W[pr]
;B[ln];W[lk];B[jp];W[jq];B[ho];W[ei];B[jl];W[bq];B[bp];W[fq]
;B[cq];W[jj];B[rh];W[ri]C[White took a lead naturally;
Meijin Inseki(Dosetsu) praised this game.]
;B[gj];W[ik];B[ej];W[dj];B[di]C[?; Gen'an Inseki said.]
;W[dh];B[ci];W[fj];B[ek];W[fi];B[fk];W[gk];B[hk];W[gl];B[hl]
;W[hj];B[gi];W[gm];B[dd];W[in];B[oo];W[mo]C[forcing move!; Gen'an Inseki pointed out.]
;B[hi]C[-> B105]
;W[il];B[pn];W[mp];B[mq];W[mr];B[nr];W[nq];B[qn];W[po];B[mq]C[-> Nuki(p07)]
;W[om];B[ro];W[rp];B[lr];W[nq];B[fg];W[ff];B[mq];W[ms];B[or]
;W[nq];B[ij];W[hm];B[mq];W[pp];B[eh];W[nq];B[lo];W[io];B[ip]
;W[hp];B[iq];W[ir];B[hr];W[kp];B[jo];W[jn];B[ko];W[jr];B[mq]
;W[op];B[no];W[nq];B[go];W[fp];B[mq];W[kr];B[km];W[nq];B[jk]
;W[hj];B[ii];W[kj];B[mq];W[eo];B[do];W[nq];B[kg];W[kh];B[mq]
;W[ll];B[fo];W[nq];B[jg];W[ih];B[mq];W[jm];B[kl];W[nq];B[gr]
;W[fr];B[mq];W[em];B[fm];W[nq];B[er];W[gs];B[mq];W[lm];B[kn]
;W[nq];B[he];W[hf];B[mq];W[el];B[en];W[nq];B[hn];W[im];B[mq]
;W[fl];B[fh];W[nq];B[gg];W[gf];B[mq];W[ml];B[mn];W[mp];B[dl]
;W[nq];B[si];W[sj];B[mq];W[kk];B[ng];W[os];B[nh];W[mi];B[li]C[Tesuji]
;W[le]C[Good timing]
;B[me];W[fc];B[oi];W[jd];B[kd];W[gb];B[hb];W[gd];B[hc];W[fb]
;B[jb];W[mh];B[nd];W[od];B[pj];W[qk];B[pk];W[ni];B[oh];W[pl]
;B[ed];W[fd];B[ef];W[cb]
)