(
;FF[1]GM[1]AP[PocketGoban Ver 0.996]
SZ[19]PB[Honinbo Dosaku( atome)]PW[Honinbo Doetsu]
RO[00-04]RE[B+10]GC[Newly founded record.]US[roha]

;B[qd];W[oc];B[lc];W[dc];B[ce];W[ci];B[cp];W[eq];B[iq];W[oq]
;B[ic];W[cl];B[dq];W[ep];B[do];W[hp];B[ip];W[ho];B[io];W[lq]
;B[hn];W[gn];B[dm];W[hm];B[in];W[gm];B[cm];W[bm];B[bn];W[hq]
;B[qo];W[qq];B[ql];W[pk];B[pl];W[ok];B[pp];W[pq];B[rj];W[pe]
;B[pd];W[od];B[oe];W[pf];B[ne];W[pb];B[rf];W[md];B[og];W[re]
;B[pg]C[strong move]
;W[qf];B[qg];W[rg];B[sf];W[se];B[qe];W[sg];B[rf];W[sf];B[rd]
;W[rc];B[sd];W[mc];B[ed];W[ec];B[fd];W[fc];B[gd];W[bd];B[jl]C[aimed right side W's 2-stones. Dosaku's stones always toward center.]
)