(
;FF[3]GM[1]AP[PocketGoban Ver 0.999]
SZ[19]PB[Honinbo Dosaku( atome)]PW[Sugimura Saburozaemon]
DT[1669-04-11]
RO[12-01]RE[B+15]US[roha]KM[5.5]
C[Hayashi Genbi said Sugimura was a senior player, then Dosaku took black. ]
;B[qd];W[dc];B[ce];W[ch];B[nc];W[qi];B[qo];W[dq];B[co];W[cm]
;B[qg];W[op];B[hq];W[dn];B[kq];W[qp];B[qq];W[pp];B[rp];W[rq]
;B[rr];W[ro];B[sq];W[qn];B[or];W[do];B[hc];W[cd];B[kd];W[nd]
;B[oc];W[md];B[mc];W[oh];B[de];W[fc];B[eh];W[ei];B[ed];W[ec]
;B[fh];W[di];B[ge];W[ld];B[kc];W[ke];B[qk];W[oj];B[po];W[rm]
;B[oo];W[kp];B[lq];W[no];B[pm];W[om];B[pn];W[pl];B[qm];W[ql]
;B[rn];W[on];B[so];W[jp];B[jq];W[ip];B[mo];W[nn];B[mp];W[np]
;B[mn];W[rl];B[hp];W[ho];B[go];W[gn];B[hn];W[io];B[fp];W[fo]
;B[gp];W[hm];B[fn];W[gm];B[of];W[lf];B[eo];W[gr];B[hr];W[eq]
;B[fm];W[fi];B[fl];W[gh];B[je];W[jf];B[ie];W[ll];B[ml];W[lm]
;B[mm];W[lk];B[gk];W[ik];B[ck];W[dl];B[cp];W[dp];B[cq];W[bn]
;B[bo];W[cr];B[br];W[hb];B[ic];W[rh];B[dr];W[er];B[cs];W[nr]
;B[mr];W[mk];B[ij];W[hj];B[il];W[ii];B[im];W[in];B[hl];W[jk]
;B[ng];W[pe];B[oe];W[qe];B[pd];W[rf];B[od];W[rd];B[rc];W[nq]
;B[ns];W[mh];B[rg];W[sg];B[qf];W[gb];B[gg];W[be];B[bf];W[bd]
;B[bh];W[cg];B[bg];W[bi];B[cf];W[ek];B[hh];W[ih];B[mg];W[lg]
;B[pf];W[re];B[pi];W[ph];B[qh];W[ri];B[nh];W[oi];B[sd];W[sf]
;B[mi];W[lh];B[ni];W[dg];B[eg];W[fd];B[fe];W[mq]C[Shoubu-te!]
;B[lp];W[lr];B[ol]C[black moves from 81 shows good defence.]
;W[ms];B[pk];W[nl];B[jn];W[kn];B[ko];W[ok];B[ln]
)