(
;FF[3]GM[1]AP[PocketGoban Ver 0.999]
SZ[19]PB[Honinbo Dosaku( atome)]PW[Yasui Santetsu]
DT[1669-12-13]
EV[Oshiro Go]RO[31-07]RE[B+13]US[roha]

;B[oc];W[qp];B[oq];W[lq];B[eq];W[cd];B[ec];W[jc];B[cp];W[qj]C[Yasui form of low position ]
;B[pk];W[qk];B[pm];W[po];B[np];W[on];B[mo];W[iq];B[qr];W[mn]
;B[ln];W[mm];B[ql];W[pj];B[ok];W[oj];B[nk];W[lm];B[nj];W[ni]
;B[mi];W[nh];B[qd];W[mh];B[lj];W[li];B[mj];W[kn];B[lo];W[kl]
;B[ki];W[lh];B[jj];W[ko];B[mq];W[lr];B[qg];W[kh];B[jh];W[jg]
;B[ih];W[ig];B[hh];W[hg];B[ph];W[oh];B[gh];W[de];B[lc];W[gc]
;B[kf];W[pf];B[qf];W[nd];B[nc];W[gg];B[id];W[ic];B[fg];W[ff]
;B[kg];W[ld];B[gf];W[he];B[fe];W[ge];B[ef]C[Against W62 Tenuki, B67, 69, 71(Kiri), 73(Kiri), 77(Nuki) decided the game.]
;W[fd];B[mf];W[le];B[df];W[cf];B[cg];W[bf];B[cc];W[bc];B[bb]
;W[cb];B[dc];W[ab];B[ee]C[B79, 85, 87, 91; good Kikashi]
;W[bg];B[ie];W[hf];B[hd];W[gd];B[hc];W[hb];B[ib];W[jb];B[gb]
;W[ia];B[fb];W[je];B[ed]C[B93 to 105; Kikashi due to sacrifices]
;W[ff];B[db];W[ba];B[gf];W[jd];B[nn];W[nm];B[no];W[om];B[jm]
;W[km];B[ch];W[co];B[bp];W[cl];B[cn];W[cj];B[hr];W[hq];B[gr]
;W[gq];B[ir];W[jr];B[cm];W[el];B[ej];W[dm];B[dn];W[en];B[dk]
;W[dl];B[eo];W[fo];B[fn];W[em];B[ep];C[Dosaku used to adopt Moku-hazushi in his youth.
It showed his protean form.
 ]
)