(
;FF[3]GM[1]AP[PocketGoban Ver 0.999]GO[0]
SZ[19]PB[Minamisato Yphei]PW[Honinbo Dosaku( atome)]
DT[1672-06-11]
RO[13-02]RE[W+R]US[roha]

;B[jj];W[ce];B[ed];W[dc];B[ec];W[db];B[op]C[-> upper-right corner(p17)]
;W[oc];B[pe];W[qd];B[qe];W[rd];B[cp];W[eq];B[hq];W[qi];B[qk]C[?]
;W[ic];B[re]C[-> one-point jump(o15) ]
;W[nd];B[ne];W[me];B[oe]C[-> Tsuke-koshi(q17)]
;W[mf];B[pc];W[pb];B[qc];W[qb];B[rc];W[qp]C[Tengen is not effective.]
;B[qq]C[-> Keima(q06)]
;W[rq];B[pq];W[ro];B[od];W[nc];B[ld];W[md];B[po]C[-> Keima(q06)]
;W[qm];B[qn]C[-> Kosumi(Q08)]
;W[rm];B[rn];W[sn];B[pm]C[b43 & 45; helping a white]
;W[pl];B[om];W[pk];B[ef];W[de];B[hd]C[-> Tsugi(e15)]
;W[id];B[cg];W[ee];B[ff];W[fe];B[gf];W[he];B[ge];W[gd];B[hf]
;W[ie];B[dq];W[ci];B[ch];W[di];B[cl];W[eh];B[eg];W[hi]C[smart move]
;B[jg];W[ji];B[ki];W[hh]C[W72 & 74; smart step]
;B[jh];W[if];B[fh];W[fi];B[gh];W[gi];B[hg];W[ig];B[bi];W[bj]
;B[ah];W[ck];B[dl];W[lq];B[jq];W[ko]C[W88 & 90; his peculiar step]
;B[rh];W[ip];B[iq];W[no];B[mn];W[mo];B[ln];W[jm];B[kn];W[jn]
;B[hp];W[io];B[lo];W[kp];B[jp];W[jo];B[gn];W[ll];B[mp];W[lj]
;B[mk];W[kj];B[ii];W[hl];B[jl];W[fm];B[km];W[il];B[en];W[kl]
;B[mh];W[jk];B[qj];W[pj];B[ri];W[qo];B[mq];W[pn];B[on];W[bl]
;B[cn];W[bf];B[bg];W[lr];B[lp];W[kq];B[kf];W[pp]
)