(
;FF[1]GM[1]AP[PocketGoban Ver 0.996]
SZ[19]PB[Yasui Santetsu]PW[Honinbo Dosaku( atome)]
DT[1668-11-22]GO[0]
RO[31-02]RE[Jigo]GC[Santetsu's non-defeated only one record. till 50 years ago, all 10 records were defeated by Dosaku. now 5 records have been found, so Dosaku won 14 and 1 is jigo.
]US[roha]

;B[qd];W[oc];B[dc];W[ce];B[lc];W[qh];B[pc];W[ed];B[ec];W[fd]
;B[gc];W[gd];B[hc];W[fc];B[fb];W[gb];B[hb];W[eb];B[ga];W[cc]
;B[db]C[Yasui family had considered black was favorable. Dosaku always took atsumi.]
;W[qk];B[qp];W[oq];B[qm];W[do];B[dq];W[cq];B[cm];W[cj];B[cp]
;W[dp];B[co];W[eq];B[dr];W[cn];B[dn];W[bn];B[bq];W[bm];B[en]
;W[fo];B[fn];W[go];B[cl];W[bl];B[er];W[bp];B[cr];W[bo];B[cq]
;W[eo];B[gn];W[gq];B[fr];W[el];B[in];W[jp];B[dk];W[ck];B[dl]
;W[ej];B[ek];W[fk];B[fl];W[dj];B[em];W[pn];B[qo];W[oo];B[pq]
;W[or];B[pr];W[jn];B[ip];W[iq];B[jo];W[ko];B[io];W[kp];C[at Yasui family and Dosaku, the former took the territory and the latter always selected atsumi and attacked opornent by making the best use of atsumi.]
)