(;GM[1]FF[4]US[JBvR]
AP[SGFcv.py:0.3]
CP[My Friday Night Files, 2002]
SO[Internet]
EV[The 1st World Oza Tournament Round 1]
DT[2002-03-19]
KM[5.5]
RE[W+7.]
PB[Cho Chikun]
BR[9-dan]
PW[Shao Weigang]
WR[9-dan]

;B[pd]
;W[dd]
;B[pq]
;W[dp]
;B[qk]
;W[nq]
;B[op]
;W[jp]
;B[lq]
;W[qp]
;B[qq]
;W[lp]
;B[kp]
;W[ko]
;B[kq]
;W[np]
;B[jq]
;W[oo]
;B[po]
;W[jo]
;B[gq]
;W[on]
;B[qo]
;W[eq]
;B[cj]
;W[cl]
;B[cg]
;W[ce]
;B[gc]
;W[dh]
;B[ch]
;W[dj]
;B[di]
;W[ei]
;B[ci]
;W[dk]
;B[eh]
;W[fi]
;B[ip]
;W[hp]
;B[mp]
;W[mo]
;B[lo]
;W[ln]
;B[io]
;W[hq]
;B[mn]
;W[lp]
;B[ho]
;W[gp]
;B[lo]
;W[no]
;B[iq]
;W[lp]
;B[hr]
;W[gr]
;B[lo]
;W[km]
;B[mm]
;W[lp]
;B[go]
;W[fp]
;B[lo]
;W[nl]
;B[kl]
;W[lp]
;B[gs]
;W[fr]
;B[lo]
;W[rp]
;B[pp]
;W[lp]
;B[jm]
;W[mq]
;B[lm]
;W[jn]
;B[kn]
;W[lo]
;B[hm]
;W[in]
;B[gl]
;W[fm]
;B[gm]
;W[qm]
;B[pn]
;W[pk]
;B[pl]
;W[pm]
;B[om]
;W[ql]
;B[ol]
;W[qj]
;B[rk]
;W[rj]
;B[ok]
;W[pj]
;B[or]
;W[nm]
;B[oj]
;W[im]
;B[il]
;W[km]
;B[jl]
;W[ll]
;B[ml]
;W[nk]
;B[lk]
;W[oi]
;B[nj]
;W[mj]
;B[ni]
;W[mk]
;B[rn]
;W[hk]
;B[nh]
;W[nn]
;B[kn]
;W[lj]
;B[jj]
;W[ji]
;B[ii]
;W[ki]
;B[ih]
;W[kg]
;B[qh]
;W[qg]
;B[pg]
;W[rh]
;B[rg]
;W[qf]
;B[ri]
;W[ph]
;B[sh]
;W[og]
;B[oh]
;W[pf]
;B[pi]
;W[ng]
;B[nc]
;W[gj]
;B[hj]
;W[gk]
;B[ik]
;W[hl]
;B[mr]
;W[eg]
;B[bl]
;W[bm]
;B[ck]
;W[dl]
;B[bf]
;W[hd]
;B[mh]
;W[km]
;B[if]
;W[hg]
;B[gh]
;W[gg]
;B[ig]
;W[ll]
;B[fh]
;W[hh]
;B[fg]
;W[ff]
;B[dg]
;W[ef]
;B[gf]
;W[gi]
;B[gd]
;W[dh]
;B[he]
;W[je]
;B[id]
;W[jd]
;B[ic]
;W[rf]
;B[rd]
;W[sk]
;B[mg]
;W[rl]
;B[pg]
;W[nr]
;B[ns]
;W[ph]
;B[mf]
;W[lr]
;B[qi]
;W[ms]
;B[kf]
;W[sm]
;B[rm]
;W[ro]
;B[qn]
;W[rq]
;B[rr]
;W[sr]
;B[qr]
;W[sn]
;B[so]
;W[sp]
;B[ps]
;W[mc]
;B[nd]
;W[nb]
;B[ob]
;W[oq]
;B[rs]
;W[os]
;B[ss]
;W[bk]
;B[bj]
;W[al]
;B[bh]
;W[pr]
;B[sq]
;W[be]
;B[kh]
;W[fb]
;B[ec]
;W[eb]
;B[dc]
;W[fc]
;B[fd]
;W[ed]
;B[cc]
;W[db]
;B[cb]
;W[sr]
;B[or]
;W[gb]
;B[hb]
;W[bc]
;B[ns]
;W[qc]
;B[qd]
;W[os]
;B[bb]
;W[pr]
;B[sq]
;W[ab]
;B[jh]
;W[ai]
;B[aj]
;W[ag]
;B[af]
;W[ah]
;B[cf]
;W[cd]
;B[ga]
;W[qs]
;B[so]
;W[fa]
;B[ha]
;W[ba]
;B[kk]
;W[eh]
;B[ae]
;W[hf]
;B[ge]
;W[ad]
;B[ps]
;W[oc]
;B[pc]
;W[qs]
;B[ak]
;W[bl]
;B[ps]
;W[hi]
;B[ij]
;W[qs]
;B[li]
;W[kj]
;B[ps]
;W[oa]
;B[jb]
;W[qs]
;B[mi]
;W[fe]
;B[df]
;W[de]
;B[ya]
;W[ps])