(;CP[My Friday Night Files, 2002]AP[SGFcv.py:0.3]GM[1]FF[4]EV[27th Meijin]
RO[Round 2]
DT[2002-01-17]
PB[Kato Masao]
BR[9 dan]
PW[Cho Chikun]
WR[9 dan]
HA[0]
KM[5.5]
RE[W+7.5]
US[JBvR]
SO[asahi.com]

;B[qd]
;W[dd]
;B[cp]
;W[pp]
;B[nq]
;W[kp]
;B[no]
;W[pn]
;B[ip]
;W[kn]
;B[nm]
;W[pl]
;B[lo]
;W[ko]
;B[in]
;W[kl]
;B[nk]
;W[oq]
;B[nr]
;W[ml]
;B[nl]
;W[pj]
;B[ni]
;W[kj]
;B[ep]
;W[od]
;B[qo]
;W[on]
;B[lm]
;W[mm]
;B[nn]
;W[qq]
;B[qk]
;W[pk]
;B[lk]
;W[ll]
;B[kk]
;W[jk]
;B[lj]
;W[im]
;B[jj]
;W[ik]
;B[hm]
;W[ki]
;B[jm]
;W[jl]
;B[il]
;W[mn]
;B[ii]
;W[li]
;B[mi]
;W[lg]
;B[kg]
;W[mh]
;B[nh]
;W[lf]
;B[gi]
;W[gk]
;B[ph]
;W[qe]
;B[ri]
;W[pe]
;B[ql]
;W[qm]
;B[rg]
;W[qj]
;B[rj]
;W[rm]
;B[ne]
;W[ng]
;B[og]
;W[nf]
;B[of]
;W[oe]
;B[re]
;W[rd]
;B[rc]
;W[qg]
;B[rf]
;W[md]
;B[qf]
;W[ej]
;B[fk]
;W[hj]
;B[fj]
;W[hi]
;B[ei]
;W[hg]
;B[ci]
;W[dq]
;B[cq]
;W[eq]
;B[dp]
;W[fc]
;B[nc]
;W[nd]
;B[gf]
;W[gg]
;B[ef]
;W[dh]
;B[di]
;W[fg]
;B[gd]
;W[cf]
;B[gc]
;W[fb]
;B[ed]
;W[fd]
;B[de]
;W[ce]
;B[dc]
;W[cd]
;B[fe]
;W[ec]
;B[gb]
;W[pf]
;B[pg]
;W[jc]
;B[fa]
;W[ee]
;B[jb]
;W[ea]
;B[kc]
;W[jd]
;B[ic]
;W[lb]
;B[kb]
;W[lc]
;B[id]
;W[ga]
;B[je]
;W[kd]
;B[ke]
;W[ld]
;B[hb]
;W[ka]
;B[ia]
;W[gl]
;B[hq]
;W[fl]
;B[el]
;W[fn]
;B[em]
;W[qc]
;B[sd]
;W[ho]
;B[io]
;W[gn]
;B[fp]
;W[qb]
;B[ed]
;W[hf]
;B[he]
;W[if]
;B[ie]
;W[kf]
;B[jq]
;W[kq]
;B[kr]
;W[lr]
;B[jr]
;W[la]
;B[ja]
;W[bh]
;B[bi]
;W[ai]
;B[aj]
;W[ah]
;B[ch]
;W[bg]
;B[bj]
;W[lq]
;B[op]
;W[or]
;B[os]
;W[pr]
;B[rb]
;W[pc]
;B[db]
;W[ee]
;B[po]
;W[oo]
;B[np]
;W[qp]
;B[ed]
;W[mk]
;B[mj]
;W[ee]
;B[qr]
;W[rr]
;B[ed]
;W[cr]
;B[br]
;W[ee]
;B[jf]
;W[jg]
;B[ed]
;W[oi]
;B[oh]
;W[ee]
;B[mg]
;W[df]
;B[mf]
;W[rk]
;B[le]
;W[kh]
;B[lh]
;W[kg]
;B[cg]
;W[bf]
;B[qa]
;W[pa]
;B[ra]
;W[ob]
;B[en]
;W[ff]
;B[ge]
;W[eh]
;B[gh]
;W[fo]
;B[dg]
;W[eg]
;B[mo]
;W[gp]
;B[gq]
;W[hh]
;B[ln]
;W[km]
;B[ha]
;W[fa]
;B[sj]
;W[sk]
;B[ls]
;W[qi]
;B[qh]
;W[gj]
;B[fi]
;W[eo]
;B[do]
;W[hl]
;B[rd]
;W[im]
;B[ns]
;W[ps]
;B[il]
;W[mr]
;B[ms]
;W[im]
;B[pd]
;W[oc]
;B[il]
;W[me]
;B[nf]
;W[im]
;B[oa]
;W[na]
;B[il]
;W[oj]
;B[im]
;W[nj]C[Total: 260 moves])