(;CP[My Friday Night Files, 2002]AP[SGFcv.py:0.3]GM[1]FF[4]RO[playoff]
DT[1989-04-24]
PB[Otake Hideo]
BR[9d]
PW[Cho Chikun]
WR[10d]
KM[5.5]
RE[W+R]
US[JBvR]
SO[Kido Yearbook 1990]
EV[Honinbo, 44th]

;B[qd]
;W[cp]
;B[ep]
;W[eq]
;B[fq]
;W[dq]
;B[ec]
;W[qp]
;B[op]
;W[oq]
;B[nq]
;W[pq]
;B[np]
;W[qn]
;B[fp]
;W[cn]
;B[jp]
;W[cc]
;B[de]
;W[lo]
;B[lp]
;W[ce]
;B[cf]
;W[df]
;B[cd]
;W[be]
;B[dd]
;W[bd]
;B[cg]
;W[dc]
;B[ed]
;W[dg]
;B[dh]
;W[eh]
;B[di]
;W[ei]
;B[dj]
;W[ej]
;B[dk]
;W[ff]
;B[eb]
;W[ch]
;B[bh]
;W[bg]
;B[ci]
;W[bf]
;B[ch]
;W[cb]
;B[hd]
;W[ek]
;B[dm]
;W[cm]
;B[el]
;W[cl]
;B[dl]
;W[gk]
;B[gl]
;W[hl]
;B[fk]
;W[fj]
;B[fl]
;W[hk]
;B[nc]
;W[if]
;B[jd]
;W[kf]
;B[pi]
;W[oc]
;B[od]
;W[pc]
;B[nd]
;W[pd]
;B[pe]
;W[qc]
;B[re]
;W[rd]
;B[qe]
;W[nb]
;B[mb]
;W[ob]
;B[rc]
;W[rb]
;B[sd]
;W[sb]
;B[ql]
;W[ki]
;B[dp]
;W[cq]
;B[kk]
;W[jj]
;B[pp]
;W[qq]
;B[hm]
;W[im]
;B[in]
;W[hn]
;B[gm]
;W[jn]
;B[il]
;W[io]
;B[ik]
;W[ij]
;B[km]
;W[mn]
;B[mm]
;W[ko]
;B[nm]
;W[kp]
;B[kq]
;W[lq]
;B[jq]
;W[mp]
;B[lr]
;W[mr]
;B[mq]
;W[kr]
;B[lp]
;W[ll]
;B[lm]
;W[lq]
;B[ls]
;W[nr]
;B[lp]
;W[kl]
;B[jm]
;W[lq]
;B[qb]
;W[qa]
;B[lp]
;W[jl]
;B[jk]
;W[lq]
;B[ra]
;W[pb]
;B[lp]
;W[lk]
;B[in]
;W[lq]
;B[kj]
;W[li]
;B[lj]
;W[lp]
;B[jr]
;W[on]
;B[or]
;W[pr]
;B[mi]
;W[mh]
;B[ni]
;W[im]
;B[mj]
;W[jo]
;B[hg]
;W[hf]
;B[gj]
;W[hj]
;B[gi]
;W[gh])