(;SO[Cho Chikun Internet Book]CP[My Friday Night Files, 2002]AP[SGFcv.py:0.3]GM[1]FF[4]RO[36, League]
PB[Rin Kaiho]
BR[9 dan]
PW[Cho Chikun]
WR[9 dan, Honinbo]
KM[5.5]
DT[1989-08-10]
RE[W+5.5]
US[JBvR]
EV[Meijin, 14th]

;B[pd]
;W[dp]
;B[pq]
;W[dd]
;B[fq]
;W[po]
;B[qo]
;W[qn]
;B[qp]
;W[dn]
;B[dr]
;W[cq]
;B[hp]
;W[pn]
;B[nq]
;W[qj]
;B[fc]
;W[nc]
;B[lc]
;W[ne]
;B[pf]
;W[pc]
;B[od]
;W[oc]
;B[nd]
;W[md]
;B[mc]
;W[qd]
;B[of]
;W[ld]
;B[qc]
;W[kc]
;B[nb]
;W[qb]
;B[rc]
;W[oa]
;B[kb]
;W[rb]
;B[jc]
;W[kd]
;B[ic]
;W[qe]
;B[mg]
;W[kg]
;B[pi]
;W[pj]
;B[oj]
;W[oi]
;B[kf]
;W[hc]
;B[hd]
;W[ph]
;B[jf]
;W[gc]
;B[ib]
;W[fd]
;B[gd]
;W[fb]
;B[ec]
;W[ed]
;B[db]
;W[dc]
;B[eb]
;W[cb]
;B[gb]
;W[ch]
;B[cl]
;W[qf]
;B[pg]
;W[ni]
;B[qg]
;W[lg]
;B[mh]
;W[lf]
;B[rf]
;W[re]
;B[mf]
;W[me]
;B[ki]
;W[jg]
;B[mi]
;W[nj]
;B[lk]
;W[gf]
;B[ci]
;W[di]
;B[bh]
;W[dh]
;B[bi]
;W[bg]
;B[el]
;W[dk]
;B[cm]
;W[cn]
;B[em]
;W[cr]
;B[mn]
;W[op]
;B[mp]
;W[go]
;B[ho]
;W[gn]
;B[hn]
;W[gm]
;B[bn]
;W[bo]
;B[an]
;W[ao]
;B[bl]
;W[hm]
;B[bf]
;W[cg]
;B[ag]
;W[jm]
;B[kn]
;W[gp]
;B[gq]
;W[jo]
;B[jq]
;W[iq]
;B[jp]
;W[ip]
;B[hq]
;W[io]
;B[ir]
;W[ko]
;B[im]
;W[kq]
;B[jr]
;W[oq]
;B[or]
;W[nr]
;B[pr]
;W[il]
;B[in]
;W[jn]
;B[jl]
;W[lm]
;B[jk]
;W[lo]
;B[mo]
;W[ml]
;B[lq]
;W[if]
;B[hj]
;W[bd]
;B[sf]
;W[rg]
;B[rh]
;W[nm]
;B[eo]
;W[ep]
;B[fp]
;W[en]
;B[fo]
;W[fn]
;B[do]
;W[co]
;B[dq]
;W[al]
;B[ak]
;W[bk]
;B[ck]
;W[aj]
;B[bj]
;W[bm]
;B[ai]
;W[ri]
;B[ce]
;W[de]
;B[cf]
;W[df]
;B[je]
;W[ie]
;B[jd]
;W[hh]
;B[ro]
;W[rn]
;B[eq]
;W[cp]
;B[gi]
;W[gh]
;B[fi]
;W[kp]
;B[kr]
;W[mb]
;B[lb]
;W[ma]
;B[sn]
;W[sm]
;B[so]
;W[np]
;B[mq]
;W[rm]
;B[nn]
;W[oh]
;B[nf]
;W[mm]
;B[qh]
;W[qi]
;B[ak]
;W[am]
;B[ge]
;W[fe]
;B[eh]
;W[eg]
;B[dj]
;W[ei]
;B[fh]
;W[ej]
;B[fg]
;W[ff]
;B[cd]
;W[cc]
;B[sg]
;W[sc]
;B[ek]
;W[cj]
;B[bn]
;W[an]
;B[dj]
;W[gk]
;B[fj]
;W[cj]
;B[pb]
;W[ob]
;B[dj]
;W[dg]
;B[mk]
;W[nk]
;B[ln]
;W[km]
;B[hl]
;W[hk]
;B[ik]
;W[fk]
;B[gj]
;W[gl]
;B[dl]
;W[ii]
;B[ij]
;W[ji]
;B[kh]
;W[ds]
;B[es]
;W[cs]
;B[jh]
;W[ig]
;B[gg]
;W[hg]
;B[on]
;W[om]
;B[la]
;W[na]
;B[hb]
;W[si]
;B[sh]
;W[mj]
;B[il]
;W[lj]
;B[kj]
;W[se]
;B[ae]
;W[ja]
;B[jb]
;W[ca]
;B[ad]
;W[ac]
;B[da])