(;CP[My Friday Night Files, 2002]AP[SGFcv.py:0.3]GM[1]FF[4]RO[2/3]
DT[1989-08-17]
BR[9d]
PW[Cho Chikun]
WR[Honinbo]
KM[5.5]
RE[W+R]
US[JBvR]
SO[KYB 1990]
PB[Honda Kunihisa]
EV[Oza, 37th]

;B[qd]
;W[dd]
;B[pq]
;W[cp]
;B[eq]
;W[qo]
;B[pm]
;W[qm]
;B[ql]
;W[pl]
;B[qn]
;W[rm]
;B[om]
;W[pn]
;B[pk]
;W[rl]
;B[ol]
;W[on]
;B[mq]
;W[op]
;B[oq]
;W[qj]
;B[dn]
;W[ep]
;B[dp]
;W[do]
;B[dq]
;W[co]
;B[eo]
;W[fp]
;B[cq]
;W[cn]
;B[dm]
;W[bl]
;B[fq]
;W[fo]
;B[en]
;W[fn]
;B[fm]
;W[gm]
;B[el]
;W[gl]
;B[cl]
;W[bm]
;B[cj]
;W[bk]
;B[gn]
;W[ho]
;B[hn]
;W[fl]
;B[em]
;W[in]
;B[hm]
;W[ip]
;B[fj]
;W[ek]
;B[dj]
;W[gj]
;B[gi]
;W[ej]
;B[ei]
;W[fk]
;B[fi]
;W[ik]
;B[im]
;W[jn]
;B[jm]
;W[di]
;B[ci]
;W[km]
;B[jl]
;W[dh]
;B[ch]
;W[dg]
;B[cg]
;W[cf]
;B[kn]
;W[ko]
;B[ln]
;W[jk]
;B[iq]
;W[jo]
;B[lo]
;W[hq]
;B[go]
;W[gp]
;B[jp]
;W[kp]
;B[jq]
;W[hr]
;B[kq]
;W[hp]
;B[lp]
;W[bf])