(;CP[My Friday Night Files, 2002]AP[SGFcv.py:0.3]GM[1]FF[4]EV[Meijin, 26th]
RO[League]
DT[2001-02-01]
PB[Rin Kaiho]
BR[9d]
PW[Cho Chikun]
WR[9d]
KM[5.5]
RE[B+R]
US[JBvR]
SO[asahi.com]

;B[pd]
;W[dc]
;B[dq]
;W[qp]
;B[ce]
;W[dg]
;B[ef]
;W[ed]
;B[eg]
;W[di]
;B[dh]
;W[ch]
;B[eh]
;W[cj]
;B[hd]
;W[bc]
;B[cn]
;W[oq]
;B[mc]
;W[qj]
;B[jp]
;W[qc]
;B[qd]
;W[pc]
;B[oc]
;W[ob]
;B[nb]
;W[od]
;B[nc]
;W[rd]
;B[re]
;W[rc]
;B[qf]
;W[oe]
;B[pf]
;W[pb]
;B[nf]
;W[md]
;B[me]
;W[jc]
;B[fc]
;W[nd]
;B[kc]
;W[ld]
;B[kd]
;W[le]
;B[mg]
;W[lg]
;B[lh]
;W[mh]
;B[nh]
;W[mi]
;B[jd]
;W[kg]
;B[ni]
;W[mj]
;B[kh]
;W[jh]
;B[ki]
;W[nj]
;B[jg]
;W[ih]
;B[jj]
;W[ke]
;B[ig]
;W[hg]
;B[je]
;W[lc]
;B[lb]
;W[mf]
;B[lf]
;W[kf]
;B[jf]
;W[pe]
;B[oj]
;W[ok]
;B[pj]
;W[pk]
;B[qi]
;W[qk]
;B[qe]
;W[mf]
;B[ng]
;W[ne]
;B[ri]
;W[fd]
;B[gc]
;W[cf]
;B[df]
;W[cg]
;B[dd]
;W[cd]
;B[de]
;W[be]
;B[ec]
;W[hj]
;B[ei]
;W[gf]
;B[dj]
;W[ci]
;B[jl]
;W[hl]
;B[jn]
;W[fk]
;B[dk]
;W[ej]
;B[db]
;W[cc]
;B[gi]
;W[hi]
;B[gh]
;W[hh]
;B[fe]
;W[im]
;B[jm]
;W[ho]
;B[nl]
;W[ml]
;B[ck]
;W[hq]
;B[gm]
;W[fm]
;B[gn]
;W[gl]
;B[fn]
;W[in]
;B[gp]
;W[hp]
;B[mm]
;W[ll]
;B[nm]
;W[nk]
;B[np]
;W[nq]
;B[pm]
;W[ph]
;B[pg]
;W[of]
;B[og]
;W[lm]
;B[ln]
;W[pi]
;B[oi]
;W[ko]
;B[kn]
;W[rj]
;B[rg]
;W[qm]
;B[mq]
;W[op]
;B[no]
;W[mr]
;B[qn]
;W[rn]
;B[lq]
;W[jo]
;B[lo]
;W[pn]
;B[kp]
;W[em]
;B[do]
;W[fr]
;B[er]
;W[fq]
;B[fp]
;W[jr]
;B[lr]
;W[gj]
;B[on]
;W[eq]
;B[po]
;W[ro]
;B[dr]
;W[ep]
;B[dm]
;W[nr]
;B[ql]
;W[rm]
;B[bj]
;W[bi]
;B[cb]
;W[bk]
;B[bl]
;W[aj]
;B[bb]
;W[bm]
;B[al]
;W[cm]
;B[cl]
;W[co]
;B[dp]
;W[en]
;B[eo]
;W[dn]
;B[bn]
;W[dl]
;B[am]
;W[bo]
;B[dm]
;W[cm]
;B[bp]
;W[na]
;B[mb]
;W[ab]
;B[pl]
;W[rl]
;B[ad]
;W[ac]
;B[ba]
;W[bf]
;B[ek]
;W[fj]
;B[fs]
;W[gr]
;B[io]
;W[ge]
;B[gd]
;W[ip]
;B[jo]
;W[hn]
;B[jq]
;W[kr]
;B[ls]
;W[iq]
;B[pp]
;W[pq]
;B[il]
;W[hm]
;B[ij]
;W[hk]
;B[sj]
;W[sk]
;B[si]C[233 moves])