(;CP[My Friday Night Files, 2002]AP[SGFcv.py:0.3]GM[1]FF[4]KM[5.5]
PB[Cho Chikun]
BR[9d]
RE[B+3.5]
EV[Meijin, 26th]
RO[league, 5]
DT[2001-04-12]
PW[Kato Masao]
WR[9d]
US[JBvR]
SO[Asahi site]

;B[pd]
;W[dc]
;B[pp]
;W[dq]
;B[de]
;W[dg]
;B[fe]
;W[fc]
;B[cc]
;W[cb]
;B[cd]
;W[eb]
;B[dj]
;W[fg]
;B[co]
;W[dl]
;B[ep]
;W[eq]
;B[fp]
;W[gq]
;B[fj]
;W[bg]
;B[he]
;W[hg]
;B[je]
;W[fl]
;B[em]
;W[el]
;B[hj]
;W[hl]
;B[gp]
;W[hq]
;B[hp]
;W[ip]
;B[io]
;W[jo]
;B[in]
;W[jl]
;B[jn]
;W[jp]
;B[fq]
;W[fr]
;B[er]
;W[gr]
;B[cq]
;W[ei]
;B[dr]
;W[mq]
;B[ej]
;W[ii]
;B[ij]
;W[jj]
;B[ck]
;W[jk]
;B[gk]
;W[gl]
;B[cl]
;W[hc]
;B[le]
;W[jc]
;B[kg]
;W[lh]
;B[qn]
;W[qf]
;B[of]
;W[ph]
;B[pf]
;W[re]
;B[qg]
;W[qc]
;B[pg]
;W[pc]
;B[kh]
;W[ki]
;B[li]
;W[lj]
;B[mi]
;W[mj]
;B[ni]
;W[nj]
;B[oi]
;W[rg]
;B[oq]
;W[kn]
;B[mp]
;W[lq]
;B[rh]
;W[qh]
;B[sg]
;W[rf]
;B[ri]
;W[qj]
;B[qi]
;W[oj]
;B[pi]
;W[qq]
;B[pr]
;W[ro]
;B[qp]
;W[rp]
;B[rr]
;W[qo]
;B[pn]
;W[po]
;B[oo]
;W[rq]
;B[qr]
;W[ql]
;B[rn]
;W[on]
;B[om]
;W[nn]
;B[pm]
;W[no]
;B[op]
;W[nm]
;B[ol]
;W[rm]
;B[rk]
;W[pk]
;B[rl]
;W[qm]
;B[sm]
;W[nl]
;B[qk]
;W[pl]
;B[pj]
;W[ok]
;B[sn]
;W[kd]
;B[ef]
;W[eg]
;B[gf]
;W[gg]
;B[jh]
;W[ke]
;B[jf]
;W[ji]
;B[md]
;W[dm]
;B[cm]
;W[lf]
;B[kf]
;W[nc]
;B[mc]
;W[me]
;B[ld]
;W[nd]
;B[ne]
;W[mb]
;B[mf]
;W[lc]
;B[lg]
;W[nb]
;B[nr]
;W[dn]
;B[cn]
;W[bj]
;B[jd]
;W[cj]
;B[dk]
;W[kc]
;B[np]
;W[gn]
;B[fn]
;W[di]
;B[ks]
;W[kr]
;B[ir]
;W[jr]
;B[iq]
;W[is]
;B[fs]
;W[hs]
;B[bk]
;W[lo]
;B[bb]
;W[ba]
;B[lp]
;W[kp]
;B[mr]
;W[od]
;B[qe]
;W[qd]
;B[pe]
;W[aj]
;B[bd]
;W[ab]
;B[rd]
;W[rc]
;B[cf]
;W[bf]
;B[sf]
;W[sd]
;B[bc]
;W[lr]
;B[es]
;W[gs]
;B[ls]
;W[ms]
;B[ns]
;W[id]
;B[hd]
;W[be]
;B[dd]
;W[en]
;B[fo]
;W[fm]
;B[ie]
;W[ic]
;B[jm]
;W[km]
;B[ho]
;W[hm]
;B[fi]
;W[df]
;B[ce]
;W[cg]
;B[eh]
;W[dh]
;B[fh]
;W[fd]
;B[gd]
;W[ed]
;B[ee]
;W[gc]
;B[mo]
;W[mn]
;B[hi]
;W[ak]
;B[al]
;W[ig]
;B[gh]
;W[js]
;B[ms]
;W[nq]
;B[ln]
;W[lm]
;B[bh]
;W[ah]
;B[sq]
;W[ae]
;B[hn]
;W[ih]
;B[sh]
;W[se]
;B[ac]
;W[ca]
;B[do]
;W[eo]
;B[hk]
;W[il]
;B[dp]
;W[aa]C[254 zetten])