(;CP[My Friday Night Files, 2002]AP[SGFcv.py:0.3]GM[1]FF[4]EV[49th Oza]
RO[Round 2]
DT[2001-05-24]
PB[Cho Chikun]
RE[B+R]
US[JBvR]
BR[9 dan]
PW[Komatsu Hideki]
WR[9 dan]
SO[www.nikkei.co.jp]

;B[pd]
;W[dc]
;B[pp]
;W[dq]
;B[de]
;W[dh]
;B[gd]
;W[ee]
;B[ef]
;W[fe]
;B[dd]
;W[fc]
;B[cc]
;W[ec]
;B[ff]
;W[ge]
;B[cb]
;W[df]
;B[dg]
;W[cf]
;B[cg]
;W[be]
;B[ce]
;W[bf]
;B[bg]
;W[bd]
;B[cd]
;W[eg]
;B[bi]
;W[ci]
;B[bh]
;W[nc]
;B[fg]
;W[eh]
;B[fh]
;W[fi]
;B[gi]
;W[fj]
;B[gj]
;W[gk]
;B[hg]
;W[hk]
;B[jd]
;W[hf]
;B[jf]
;W[ig]
;B[ii]
;W[jg]
;B[ij]
;W[kf]
;B[md]
;W[oe]
;B[pe]
;W[od]
;B[mf]
;W[pc]
;B[qc]
;W[pf]
;B[pb]
;W[oc]
;B[qd]
;W[of]
;B[ke]
;W[lf]
;B[le]
;W[mg]
;B[hc]
;W[lb]
;B[kc]
;W[bc]
;B[bb]
;W[nf]
;B[kg]
;W[lg]
;B[if]
;W[ie]
;B[je]
;W[hh]
;B[fk]
;W[ek]
;B[gh]
;W[gg]
;B[fl]
;W[ab]
;B[af]
;W[ag]
;B[ah]
;W[db]
;B[ae]
;W[ac]
;B[ag]
;W[kh]
;B[el]
;W[lc]
;B[id]
;W[he]
;B[ib]
;W[kb]
;B[jb]
;W[jc]
;B[ld]
;W[kd]
;B[mc]
;W[mb]
;B[kc]
;W[bj]
;B[cj]
;W[kd]
;B[ob]
;W[nb]
;B[kc]
;W[ck]
;B[dj]
;W[kd]
;B[cp]
;W[dp]
;B[kc]
;W[cn]
;B[ic]
;W[dk]
;B[bk]
;W[ej]
;B[aj]
;W[dm]
;B[fn]
;W[hm]
;B[hn]
;W[gm]
;B[eo]
;W[gn]
;B[go]
;W[ho]
;B[gp]
;W[in]
;B[do]
;W[co]
;B[cq]
;W[cr]
;B[br]
;W[dr]
;B[er]
;W[bs]
;B[ar]
;W[bo]
;B[bq]
;W[ep]
;B[fq]
;W[bp]
;B[jq]
;W[kp]
;B[jp]
;W[jo]
;B[lr]
;W[lq]
;B[kq]
;W[lp]
;B[mr]
;W[qn]
;B[ql]
;W[qp]
;B[qq]
;W[po]
;B[rp]
;W[qo]
;B[pq]
;W[qj]
;B[pj]
;W[qi]
;B[ol]
;W[qk]
;B[no]
;W[nn]
;B[on]
;W[oo]
;B[mn]
;W[nm]
;B[ml]
;W[np]
;B[mo]
;W[op]
;B[om]
;W[nr]
;B[kk]
;W[lm]
;B[mm]
;W[or]
;B[rr]
;W[ro]
;B[sp]
;W[rf]
;B[re]
;W[rb]
;B[qb]
;W[se]
;B[sd]
;W[sf]
;B[qf]
;W[qg]
;B[qe]
;W[rg]
;B[rc]
;W[km]
;B[nj]
;W[pk]
;B[qm]
;W[pr]
;B[qr]
;W[sr]
;B[sq]
;W[mj]
;B[lj]
;W[nk]
;B[ok]
;W[ni]
;B[oj]
;W[mk]
;B[mi]
;W[li]
;B[nl]
;W[mh]
;B[lk]
;W[mi]
;B[ll]
;W[di]
;B[bm]
;W[bj]
;B[cj]
;W[fm]
;B[em]
;W[dl]
;B[en]
;W[ip]
;B[iq]
;W[hp]
;B[hq]C[235 moves])