(;US[JBvR]SO[Cho Chikun Internet Book]AP[SGFcv.py:0.3]GM[1]FF[4]EV[Ricoh Pair Go Cup,8,Japan,Ricoh]
RO[4]
PB[Chinen Kaori 3d plus Imamura Toshiyo 9d]
PW[Inori Yoko 5d plus Cho Chikun 9d]
KM[5.5]
DT[2001-12-15]
RE[W+R]
CP[My Friday Night Files, 2002]
B[pp]
;W[dp]
;B[pd]
;W[dc]
;B[cf]
;W[cd]
;B[ci]
;W[qf]
;B[qh]
;W[nd]
;B[pf]
;W[pg]
;B[qg]
;W[pc]
;B[qe]
;W[qc]
;B[fq]
;W[cn]
;B[mq]
;W[ck]
;B[qo]
;W[rf]
;B[re]
;W[of]
;B[pe]
;W[ef]
;B[ei]
;W[ld]
;B[ic]
;W[gc]
;B[lb]
;W[mc]
;B[ie]
;W[dg]
;B[dm]
;W[cm]
;B[dk]
;W[ip]
;B[dq]
;W[cq]
;B[ep]
;W[do]
;B[cg]
;W[er]
;B[fn]
;W[in]
;B[fr]
;W[dr]
;B[kq]
;W[gp]
;B[ir]
;W[qq]
;B[pq]
;W[hd]
;B[kc]
;W[id]
;B[ke]
;W[je]
;B[kd]
;W[jf]
;B[me]
;W[od]
;B[mb]
;W[nb]
;B[lg]
;W[qm]
;B[qk]
;W[qj]
;B[pk]
;W[pj]
;B[rj]
;W[qp]
;B[ro]
;W[pr]
;B[or]
;W[oj]
;B[ok]
;W[nk]
;B[nj]
;W[ni]
;B[mj]
;W[ri]
;B[qi]
;W[rk]
;B[oi]
;W[sj]
;B[pi]
;W[rj]
;B[om]
;W[ql]
;B[mk]
;W[nh]
;B[oe]
;W[ne]
;B[nf]
;W[mf]
;B[og]
;W[ng]
;B[of]
;W[mg]
;B[le]
;W[lh]
;B[kg]
;W[kh]
;B[sl]
;W[jg]
;B[md]
;W[po]
;B[pn]
;W[oo]
;B[op]
;W[np]
;B[oq]
;W[nl]
;B[pm]
;W[ll]
;B[kj]
;W[kk]
;B[mi]
;W[mh]
;B[jj]
;W[lj]
;B[li]
;W[ki]
;B[lk]
;W[ml]
;B[lj]
;W[ij]
;B[jk]
;W[ik]
;B[jl]
;W[ji]
;B[jn]
;W[oh]
;B[rg]
;W[im]
;B[jm]
;W[ko]
;B[jo]
;W[jp]
;B[ln]
;W[kn])