(
;
DT[1962-]
EV[17th Honinbo]
RO[2]
KM[4.5]
BR[Honinbo]
WR[9 dan]
PB[Sakata Eio]
PW[Handa Dogen]
RE[B+R]
;B[qc];W[cp];B[pp];W[dc];B[ep];W[eq];B[fq];W[dq];B[fp]
;W[cn];B[jp];W[qj];B[ce];W[dh];B[ee];W[gc];B[cc];W[cb];B[bc]
;W[dd];B[de];W[ic];B[ql];W[pf];B[nc];W[cg];B[pq];W[em];B[ol]
;W[oj];B[fh];W[fi];B[eh];W[ei];B[di];W[dj];B[ci];W[cj];B[bh]
;W[bg];B[bj];W[be];B[cd];W[bk];B[ck];W[dk];B[gi];W[ch];B[bi]
;W[ej];B[hh];W[ge];B[hl];W[jn];B[do];W[hn];B[co];W[bo];B[bn]
;W[bp];B[cl];W[bl];B[cm];W[aj];B[el];W[fl];B[gm];W[dl];B[en]
;W[dm];B[dn];W[fm];B[gn];W[kp];B[ko];W[jo];B[jq];W[gg];B[gh]
;W[hj];B[lo];W[il];B[jh];W[jj];B[ik];W[jk];B[hf];W[eb];B[gf]
;W[nm];B[nl];W[lm];B[no];W[qd];B[pd];W[qe];B[rc];W[mc];B[nd]
;W[nb];B[ob];W[nn];B[mn];W[mm];B[on];W[go];B[fn];W[hq];B[ip]
;W[ho];B[er];W[dr];B[gr];W[es];B[fr];W[hp];B[hr];W[mb];B[md]
;W[ld];B[le];W[kd];B[hk];W[mj];B[og];W[pg];B[oh];W[pb];B[oc]
;W[qk];B[rl];W[of];B[nf];W[mf];B[ng];W[oa];B[lc];W[lb];B[kc]
;W[kb];B[ke];W[jd];B[qb];W[je];B[kn];W[hm];B[ij];W[km];B[ji]
;W[om];B[pm];W[lj];B[gl];W[pr];B[or];W[me];B[ne];W[kf];B[cf]
;W[bf];B[ri];W[qi];B[rg];W[eg];B[fg];W[fe];B[ff];W[ir];B[jr]
;W[qg];B[rh];W[rk];B[sl];W[sk];B[sf];W[rf];B[se];W[pa];B[pc]
;W[iq];B[is];W[dg];B[ef];W[ml];B[nk];W[nj];B[pl];W[pn];B[oo]
;W[qn];B[ro];W[mk];B[mg];W[lf];B[io];W[rn];B[sn];W[qo];B[rp]
;W[sm];B[rm];W[in];B[fk];W[bm];B[cn];W[ah];B[ed];W[an];B[bb]
;W[js];B[ks];W[ln];B[mo];W[ig];B[ca];W[db];B[fc];W[fb];B[gd]
C[219 moves complete.]
)
