(
;
EV[1st Meijin 1962]
RO[League]
BL[1800.0]
WL[1800.0]
PB[Hashimoto Shoji]
BR[9 dan]
PW[Handa Dogen]
WR[9 dan]
DT[1962-]
PC[Japan]
RE[B+R]
KM[5]
;B[qd];W[dd];B[pp];W[dq];B[oc];W[qj];B[cn];W[nq];B[qn]
;W[qg];B[cq];W[cp];B[dp];W[bq];B[cr];W[do];B[ep];W[co];B[br]
;W[gp];B[fo];W[go];B[fn];W[dn];B[dl];W[em];B[gn];W[el];B[dj]
;W[fp];B[eq];W[eo];B[gl];W[dk];B[ck];W[ek];B[bl];W[ej];B[di]
;W[gj];B[cf];W[ij];B[jm];W[jp];B[fr];W[df];B[dg];W[ce];B[ef]
;W[de];B[bf];W[eg];B[dh];W[mc];B[fc];W[fd];B[gd];W[ec];B[fb]
;W[ge];B[hd];W[jc];B[ic];W[jd];B[he];W[ff];B[if];W[no];B[io]
;W[ip];B[jo];W[kp];B[pr];W[il];B[im];W[hl];B[hp];W[hq];B[ho]
;W[gq];B[hm];W[lm];B[ln];W[qm];B[pm];W[pn];B[on];W[po];B[oo]
;W[qo];B[qp];W[rn];B[ro];W[qn];B[op];W[mm];B[lo];W[np];B[nn]
;W[mn];B[mo];W[lq];B[kk];W[ji];B[lj];W[nl];B[km];W[rp];B[rq]
;W[so];B[ol];W[nj];B[ok];W[mj];B[lh];W[jg];B[ke];W[kf];B[je]
;W[lf];B[le];W[ko];B[kn];W[mf];B[ir];W[jr];B[gk];W[gi];B[ih]
;W[ig];B[hg];W[hh];B[gh];W[hi];B[ki];W[ll];B[jk];W[kh];B[lk]
;W[me];B[kb];W[jb];B[fi];W[fj];B[mb];W[nb];B[nc];W[lb];B[lc]
;W[ma];B[md];W[kc];B[mb];W[mi];B[li];W[mc];B[ld];W[ob];B[mb]
;W[jj];B[in];W[mc];B[fg];W[be];B[mb];W[ka];B[pi];W[nh];B[pg]
;W[pf];B[og];W[pj];B[oj];W[oi];B[oh];W[qi];B[ni];W[pc];B[pd]
;W[oi];B[ql];W[rl];B[ni];W[of];B[ng];W[oi];B[ph];W[mg];B[mh]
;W[qc];B[rc];W[rb];B[gf];W[af];B[db];W[eb];B[ea];W[cb];B[dc]
;W[cc];B[ed];W[bh];B[cg];W[ag];B[hr];W[iq];B[gr];W[or];B[bn]
;W[cm];B[cl];W[dm];B[bm];W[bj];B[cj];W[ee];B[fe];W[rd];B[re]
;W[sc];B[qf];W[nf];B[ni];W[pe];B[qh];W[rg];B[qe];W[od];B[oe]
;W[ne];B[nd];W[jf];B[rh];W[se];B[oe]
C[235 moves complete.]
)
