(
;
BL[1800.0]
WL[1800.0]
DT[1962-]
EV[1st Meijin 1962 league]
RO[League]
KM[5]
BR[9 dan]
PB[Kitani Minoru]
PW[Sugiuchi Masao]
RE[B+R]
;B[qd];W[dd];B[pq];W[oc];B[cp];W[po];B[qo];W[pp];B[qp]
;W[oq];B[qq];W[pn];B[qm];W[pe];B[qe];W[pf];B[qf];W[pg];B[ic]
;W[eq];B[iq];W[pr];B[qr];W[kq];B[gq];W[eo];B[cm];W[cq];B[bq]
;W[cr];B[dp];W[fq];B[gp];W[fo];B[hn];W[ck];B[br];W[fm];B[dn]
;W[hl];B[fc];W[io];B[in];W[jo];B[go];W[fk];B[jn];W[ko];B[jl]
;W[fd];B[gd];W[ec];B[fe];W[ed];B[fb];W[ge];B[hd];W[gf];B[el]
;W[fl];B[dj];W[cj];B[di];W[dl];B[cf];W[bh];B[ef];W[be];B[bf]
;W[ce];B[gg];W[hg];B[gh];W[ff];B[eg];W[ee];B[hh];W[jk];B[kk]
;W[jj];B[ig];W[kj];B[lk];W[hf];B[jh];W[if];B[lj];W[li];B[ki]
;W[il];B[km];W[hj];B[jf];W[je];B[kf];W[kc];B[kb];W[ke];B[lc]
;W[le];B[lh];W[mi];B[mh];W[ni];B[ch];W[ci];B[dh];W[pm];B[ql]
;W[hr];B[nk];W[ok];B[oj];W[pk];B[oh];W[oi];B[pi];W[ph];B[nh]
;W[pj];B[qi];W[nj];B[mj];W[oj];B[nl];W[ll];B[lm];W[ml];B[mm]
;W[nn];B[mn];W[nm];B[mp];W[lp];B[lo];W[mq];B[np];W[ol];B[lr]
;W[mr];B[ir]
C[241 moves complete.]
)
