

(;GM[1]SZ[19]DT[1954-07-05,06]PW[Sugiuchi Masao]RE[B+R]PB[Takagawa Kaku]FF[3]BS[0]WS[0]KM[4.5];B[pd];W[pp];B[dd];W[co];B[dq];W[cj];B[ep];W[jp];B[hq]
;W[qf];B[nd];W[rd];B[qc];W[qi];B[cl];W[eo];B[fo];W[en];B[el]
;W[fn];B[ej];W[dp];B[eq];W[cf];B[go];W[cq];B[cr];W[bq];B[ce]
;W[df];B[fd];W[dh];B[jc];W[pn];B[gl];W[bl];B[bm];W[bk];B[cn]
;W[br];B[be];W[fk];B[ek];W[bf];B[gn];W[iq];B[hr];W[kn];B[pj]
;W[pi];B[oj];W[qj];B[pl];W[jd];B[ic];W[ld];B[kd];W[ke];B[kc]
;W[mj];B[ni];W[of];B[mi];W[mf];B[lj];W[lc];B[rc];W[je];B[mq]
;W[oq];B[mo];W[mn];B[nn];W[no];B[ln];W[mm];B[lo];W[lm];B[km]
;W[lk];B[ko];W[kj];B[li];W[kl];B[jn];W[ki];B[nl];W[mk];B[on]
;W[oo];B[qk];W[qm];B[ql];W[rm];B[pm];W[kh];B[ng];W[nf];B[rj]
;W[rl];B[pg];W[ri];B[og];W[pf];B[qg];W[rf];B[mg];W[lh];B[lg]
;W[kg];B[lf];W[me];B[qn];W[rk];B[po];W[qp];B[le];W[md];B[rg]
;W[nb];B[nm];W[ok];B[nk];W[ol];B[mh];W[oh];B[nj];W[he];B[nc]
;W[kb];B[jb];W[ka];B[mb];W[lb];B[mc];W[gc];B[gb];W[fb];B[fc]
;W[gd];B[hb];W[eb];B[db];W[ec];B[ed];W[dc];B[cb];W[cc];B[bc]
;W[bd];B[bb];W[cd];B[fa];W[de];B[ea];W[ae];B[ja])