

(;GM[1]SZ[19]DT[1958-07-19,20]KM[4.5]RO[2]PC[Beppu City, Oita Pref.]PB[Takagawa Kaku]PW[Sugiuchi Masao]RE[B+R]FF[3]TM[10h]BS[0]WS[0];B[qd];W[dd];B[pq];W[oc];B[cp];W[po];B[ld];W[me];B[pc]
;W[od];B[qf];W[jd];B[fc];W[le];B[cf];W[df];B[dg];W[ef];B[cc]
;W[ce];B[cg];W[dc];B[db];W[eb];B[cb];W[ec];B[be];W[eg];B[eh]
;W[fh];B[fi];W[ei];B[dh];W[gh];B[fj];W[eq];B[do];W[jc];B[nq]
;W[hj];B[fl];W[qq];B[qr];W[qp];B[rr];W[pl];B[hq];W[cr];B[br]
;W[eo];B[en];W[fo];B[fn];W[cq];B[bq];W[ho];B[jp];W[gn];B[dp]
;W[gq];B[gr];W[gk];B[fk];W[ph];B[fq];W[gp];B[er];W[jo];B[no]
;W[rg];B[rf];W[kp];B[ip];W[kn];B[mm];W[ll];B[lo];W[ko];B[lm]
;W[km];B[nk];W[mj];B[nj];W[pj];B[mi];W[ob];B[rh];W[qg];B[sg]
;W[qb];B[qi];W[pi];B[qk];W[qj];B[rj];W[ql];B[rl];W[pk];B[rk]
;W[op];B[np];W[qh];B[ri];W[rc];B[rn];W[qn];B[ro];W[oq];B[or]
;W[pp];B[pr];W[lp];B[ml];W[mr];B[nr];W[ki];B[lk])