

(;GM[1]SZ[19]DT[1958-09-01,02]KM[4.5]RO[6]PC[Gora, Hakone, Kanagawa Pref.]PB[Takagawa Kaku]PW[Sugiuchi Masao]RE[B+0.5]FF[3]TM[10h]BS[0]WS[0];B[pd];W[dp];B[pp];W[dc];B[de];W[cg];B[cc];W[cd];B[dd]
;W[ce];B[cf];W[df];B[bf];W[bc];B[cb];W[be];B[ec];W[bg];B[ef]
;W[dg];B[pj];W[nc];B[lc];W[qc];B[qd];W[pc];B[od];W[nb];B[me]
;W[kp];B[iq];W[nq];B[fq];W[ql];B[qn];W[ol];B[no];W[rj];B[rl]
;W[qk];B[oq];W[np];B[op];W[mo];B[nn];W[jr];B[ir];W[fp];B[eq]
;W[ep];B[dq];W[cp];B[io];W[nr];B[rm];W[pi];B[oj];W[qi];B[oi]
;W[oh];B[nh];W[og];B[qg];W[ng];B[qj];W[mh];B[rk];W[ri];B[mj]
;W[md];B[le];W[ld];B[kd];W[ke];B[nd];W[mc];B[kf];W[je];B[lg]
;W[lj];B[lk];W[li];B[mk];W[mf];B[nf];W[of];B[ne];W[mg];B[lf]
;W[jj];B[ig];W[jd];B[rf];W[qh];B[lo];W[ko];B[ln];W[jq];B[hj]
;W[kk];B[kn];W[mp];B[mi];W[lh];B[ii];W[hl];B[gl];W[hm];B[gk]
;W[cq];B[dl];W[jn];B[jm];W[jl];B[in];W[mm];B[mn];W[km];B[lm]
;W[im];B[jo];W[jm];B[cr];W[br];B[ds];W[gq];B[gr];W[gp];B[hq]
;W[is];B[hs];W[js];B[hp];W[jp];B[go];W[fn];B[bs];W[gc];B[bb]
;W[ee];B[ed];W[fe];B[ad];W[ae];B[ci];W[fb];B[ac];W[eb];B[db]
;W[if];B[hg];W[af];B[bd];W[jg];B[kh];W[jh];B[ji];W[ki];B[jf]
;W[kg];B[rc];W[rb];B[sb];W[rd];B[sd];W[sc];B[ih];W[kh];B[rc]
;W[ll];B[ml];W[sc];B[ie];W[hf];B[rc];W[ab];B[id];W[jc];B[gf]
;W[he];B[ge];W[hd];B[gd];W[hc];B[re];W[fd];B[aa];W[fh];B[gg]
;W[fj];B[dj];W[eh];B[cm];W[bi];B[bj];W[ch];B[fk];W[pr];B[or]
;W[os];B[qr];W[bk];B[aj];W[rr];B[pq];W[qs];B[ps];W[ck];B[cj]
;W[pr];B[qq];W[bn];B[bm];W[ej];B[ek];W[em];B[gh];W[aq];B[cn]
;W[bo];B[ik];W[kl];B[hk];W[nm];B[pl];W[ni];B[om];W[ps];B[fs]
;W[fo];B[rq];W[lp];B[qb];W[pb];B[ra];W[ai];B[di];W[nj];B[nk]
;W[nh];B[nl];W[gi];B[hi];W[gn];B[ho];W[rg];B[sg];W[rh];B[pg]
;W[ph];B[pf];W[pe];B[qf];W[rs];B[dn];W[bp];B[sr];W[oe];B[lr]
;W[ns];B[pa];W[oa];B[oc];W[ob];B[qa];W[sh];B[sj];W[ar];B[eg]
;W[dh];B[dk];W[fc];B[dc];W[qe];B[rd];W[am];B[al];W[an];B[sf]
;W[da];B[ca];W[ea];B[dm])