(;FF[1]GM[1]SZ[19]VW[]AB[dp][pd]C[Comments by jloup (9k only, so comments not to be believed blindly
:-) and Max Golem (panther)]HA[2]PB[jmg]BR[15k*]PW[wave]WR[8k*]GN[wave-jmg(B) IGS]
EV[A game played on the Internet Go Server]DT[1994-04-04]PC[IGS:  hellspark.wharton.upenn.edu 6969]
TM[1200]RE[W+Resign]US[Brought to you by IGS]KM[0.5];W[pq];B[dc]C[ wave 8k*: i'm doing this at the risk of 0.2-0.3 of my rating)!]
;W[ce]C[ jmg 15k*: if u want to adjourn and play it w/ more h-stones, no pb for me]
;B[de]L[jd]C[MG:  Black almost always plays a pincer or extends along the upper side here.


The Black attachment from komoku is not usually good unless Black already has several stones on the side to make use of the nice thickness he makes.


There are two drawbacks to this attachment:  (1)  Black's corner is too small to justify (2) White's settling his group so easily.  Compared to the tsukenobi joseki from hoshi, Black has at least four points less.

Still, if there were a stone at 'a', this would be playable.];W[df];B[ee]
;W[cd]L[qo][cc]C[b should complete the joseki in upper left corner (variation B)]

(;B[qo]L[op][dd][cc][fc]C[MG:  Black should have finished the joseki in the upper left corner, but White can't ignore this move because Black 'a' is sente (given the D4 hoshi), works perfectly with the Q16 hoshi, and makes the tobi at E15 shine.


If White tries to punish the tenuki by playing 'b', Black can handle himself with variation B.


If I could talk myself into playing here, though, I'd play 'c' and attack at 'd' later.]

(;W[pl];B[qq];W[qr];B[pp]L[oq][rq]C[MG:  It is more usual for White to atari at 'b' instead of extending.  White can force this variation to his advantage (see variation B).]

(;W[oq]L[op][rq]C[B b (s3) is the usual joseki so that b can get good shape and take sente (variation B)]

(;B[op];W[nq];B[np];W[mp]L[pi][mo]C[B b (n5, variation B) is the usual move in this shape]

(;B[pi];W[mo];B[om]L[cc][pj]C[B p7 looks good even though w can escape (variation B)]

(;W[cc]L[ol][pj][qf][qe][pf][nd][ri][rq][fq][fp]C[W c17 very big but this is risky if B later finds the time to play a (p8)


MG:  Actually, it looks to me that White's played the vital point (remember the tenuki so long ago?) -- if Black pushed at 'a', I imagine that 'b' would suffice.


Rather than answer directly, though, I'd probably later kakari at 'c' and aim at a slide to 'g'.  (It's not clear whether this is the best way to deal with the Black moyo.  Any 7-dans have an opinion?)


Back to the right side. . . .  Consider the exchange made in the lower right:  White has at least 10 points (plus a great extension/approach to 'i' or 'j' if he grabs sente), Black maybe 20 points when he plays 'a' and takes gote; this doesn't seem bad for White.  'h' may be sente for White later; Black probably won't bother with it.]
;B[ef];W[dg];B[id]L[jd][dd][ed][ec][fc]C[b j16 might be better at a (k16), because j16 might end up too close to the e15 group
if w later captures the d17 stone (W b, B c, W d, B e, etc...)];W[nc]L[pf][lc][db]C[b might make a pincer at b immediately (variation B)

MG:  And later aim at 'c' or building his moyo.]
(;B[pf]L[lc]C[MG:  Playing the pincer at 'a' immediately might be better here.]
;W[pb]C[MG:  Jumping into the 3-3 point would be better if Black allows White to connect outside, but this may add unnecessary complications (the timing of plays on the right side and top might be rather close).]
;B[lc];W[qc];B[qd]M[pf]C[now the B marked stone (q14) is not ideally placed]
;W[fq]L[dn][oc]C[B could also consider closing off the center (variation B) but I'm not sure which is better]

(;B[dn]L[cn][cl]C[MG:  Having chosen to play in this corner and leave closing the top for later, Black should consider playing 'a' to keep White from making the really great move at 'b'.]
;W[ne];B[ng]L[ol]C[since the w corner is safe, b o13 might be better at a (P8) to ensure the capture of q8. b o13 would work best only if it were sente against the w corner.


MG:  True.  But with the Q11 stone on Q10 hoshi, O13 is a useful moyo-building move in many positions, though it seems wasted here.]
;W[pj];B[nj]L[qi][nk]C[w could also escape instead of living inside (variation)


MG:  Since White can escape or live rather easily, I'd sagari to 'a', taking profit and reducing White's eye space.  White will almost certainly jump into the center.]

(;W[qi];B[qh];W[qk];B[ri];W[rj];B[rh]C[I think it is generally recommended to take the ko once before defending.]
;W[oi];B[ph]M[pf]C[b becomes overconcentrated (q14 too close to black wall)]
;W[oj];B[ni]L[nk]C[b o11 does not achieve much once w exits at a (o9)]
;W[nk];B[ol];W[ok];B[rr]L[rq]C[B s2 is probably an overplay (see variations later)


MG:  Black sets up the ko as an emergency measure to live (or if he's playing lightly early in the gaame).  The simple extension at 'a' is honte.]
;W[rq];B[qp]L[or][sr][rp][mq]C[I think that w can play variation B


MG:  If Black isn't willing to play the ko at 'c', he shouldn't even think about the hane.  (Yes, there is cutting aji at 'd', but this sort of cut-and-slash Go is usually quite bad unless a workable sequence has been read out first.)]

(;W[or]C[MG:  White should be glad to grab the offered stone and chip away at Black's eye space.]
;B[rp];W[rs];B[rl]M[mo][mp]L[hq][cj][nn][go][cl][dm][ck]
[hp][dq]C[s8 ended up eaten by white since W q7 is sente. black might instead invade at a or extend at b.

MG:  Black has to look after the life of his group: 'c' looks interesting.


Because of the marked stones, Black should be _very_ careful about invading inside or near the line between F3 and N5 (just a rough guide, but playing within requires careful reading).  You might consider something like 'd'.


Also, the D13/14 stones are quite strong and you don't want to approach them too closely.  A play at 'b' demands a response at 'e' or 'f'.  Normally the appropriate extension toward such strength is 'g', but then White will probably invade at the 3-3 point.


As Black, I'd play 'e'.  If White answers at 'h', closing the corner at 'i' is huge (settling the left side comes next).]
;W[ip]L[dr][cj]C[B b (variation) might be better than a, but I'm not sure.


MG:  When faced with a choice of enclosing the corner or extensing up the side, closure is usually correct.  As soon as someone extends, your first thought should be to invade at the 3-3 point (close to being miai).]

(;B[dr]L[cj];W[cl]C[MG:  Yes!  Make full extensions from your strength.  (The proverb saying you should play away from strength works both ways.)]
;B[cm]L[fo][co][hq][em]C[MG:  This is a bad move.  It makes White 'a' sente (White 'a' prevents the invasion at 'c' and aims at the cover of 'd'.]
;W[dl];B[le]L[di][hq][eb][bl]C[A black attack around a, an invasion at b or a defense at c seem more profitable since B m15 is not sente against the W corner.

MG:  Agreed!  'd', which protects against the aji there, is also big.];W
[ec];AB[eb]L[fc]C[MG:  Playing at 'a' instead looks better.];W[fb];B
[fc];W[db];B[ed];W[ea];B[gb];W[ec];B[dd]L[gd][gc]C[B d16 should be at a. W will not capture D17 immediately (gote). B d16 lets W make the ko much bigger by cutting at b.]
;W[mj]L[gc][bo][cq]C[I think that W N10 could be at a. W has threats at b, c, etc... (threatening life in the corner). However N10 and M9 remove any pressure against the W group and prepare for a center territory.]
;B[mi];W[lk];B[hq]L[gc][fh]C[B h3 good but the cut at a is bad aji. B b is also large (threatens invasion
on left side).];W[hp];B[gs]L[iq][gr][gq]C[B g1 nice idea but W can capture H3 (variation B)

MG:  'c' is the usual continuation, with Black connecting to the corner.]

(;W[iq];B[hr];W[ir];B[sq]M[rl]L[qm][fh]C[B a probably bigger locally since it saves the marked stone. But B b is globally
much larger.];W[eg]C[W e13 very big.];B[fg];W[fh];B[gg]L[gh][ff][fd]
C[B can't make the usual move (at a) because of the bad aji of the ko (cuts at b and c)]
;W[gn]C[W has a large lead now.];B[fm];W[hl];B[fl]C[B f8 is very risky but playing safely at this point is a sure way of losing]
;W[em]M[fl][fm]L[en][fn]C[B a is almost a gift of the marked stones. B might try variation B instead
which leads to an exchange of territory.]
(;B[en];W[fn];B[gh];W[gi];B[fi];W[eh];B[gj];W[hi];B[hj];W[ii];B[ij];W[fj]
;B[ei]C[B shows good fighting spirit!];W[ej];B[di];W[dj];B[ci];W[ji];B[lj]
;W[mk];B[kj]L[jl][jj]C[W a is a mistake. W would win with variation B.]

(;W[jl];B[jj];W[bi];B[cj];W[bj]L[el][ck]C[B e8 loses as the game showed. B b resists much more strongly and might even win (see one possible variation). The fight is too complex so I don't know for sure who should win.]

(;B[el];W[ch];B[dk]C[B should save this for later as a big ko threat];W
[ck];B[ek]C[This should also be saved as a ko threat.];W[dh];B[jg];W[fd]
C[W finally takes advantage of the ko aji];B[eb];W[li];B[fa]M[gj][hj][ij]
[jj][kj][lj]C[B can't finish the ko now. The loss of the marked stones is too big.]
;W[lh]M[mi][ni][nj]C[W m12 is good. It makes miai of connecting on the left or capturing the marked stones.]
;B[dm];W[rc]L[gk][re][mf]C[I think that the capture at a is bigger than the invasion at b (B can still escape at c).]
;B[rd]L[gk]C[B should save the stones at a];W[gk];B[ki]C[this is a gift of one extra prisoner.]
;W[kh];B[jh];W[nh];B[oh];W[mh]L[mg]C[MG:  Capturing by snapback at 'a'looks better.]
;B[mf]L[mb][ob]C[The value of n14 is zero points; it is a dame. If W plays n14, B can live on the right.


MG:  Playing at 'a' threatens the White group and grabs profit.  (Note the aji at 'b'.)]
;W[mb];B[lb];W[cb];B[pc];W[ob]L[rb]C[W p18 should be at a.];B[rb]C[good.]
;W[qb];B[sc];W[qa]L[ma][sb]C[B should just take some profit in sente (variation B). The corner cannot be killed.]

(;B[ma];W[sb];B[sd];W[na];B[mm];W[lm];B[mn];W[ln];B[no];W[la];B[ka]C[The standard move is L18 to avoid a ko (W cut at L18) but here B L19 works
because of the weaknesses in the W corner (variation B).]
(;W[ma];B[kb];W[bl];B[bm];W[am];B[an];W[al];B[bo];W[fr];B[fs];W[is];B[nd]
;C[good local move (but the global situation is already hopeless for B).]
;W[md];B[od];W[mc];B[me];W[kg];B[jf];W[es]L[hs]C[nice tesuji from W.


MG:  Really.  If White just plays 'a', he can grab the stones, but he loses sente.]
;B[er];W[hs];B[ds];W[gr];B[es];W[kf];B[ke];W[pm];B[pn];W[rm];B[qm];W[ql]
L[qn][rn]C[B could start a ko (variation B) but at this late stage of the game there are very few
ko threats.]
(;B[qn];W[rn];C[I think that the losing moves were B e8 and B f19. This was an interesting game.]
)
(;B[rn];W[sm];B[sn];W[qn];B[sj];W[sk];B[qm];W[eq];B[dq];W[qn];B[gm];W[hm]
;B[qm];W[ld];B[kd];W[qn]C[W should win the ko because B runs out of ko threats.]
))
(;W[kb];B[ma];W[cq]C[this is too risky for W.];B[sa];W[mc];B[oc]C[now W must fight a ko for the life of his corner.]
))
(;B[sb];W[na];B[mc];W[oc];B[la];W[ma]))
(;B[ck];W[dk]L[bk]M[dj][ej][fj]C[this is forced. W can't play at a because B d9 captures the marked stones.]
;B[bk];W[bl];B[bh];W[bg];B[ai];W[ch];B[aj];W[gk];B[kh];W[ig];B[jh];W[hg]
;B[ih];W[hh];B[hf];W[if];B[he];W[je];B[jd];W[lf];B[ke];W[kf];B[mf];W[ag]
;B[lg];W[al];B[ie];W[ah];B[jg];W[bi];B[jf];W[ak]C[B wins the semai by one move]
;B[ki]))
(;W[jj]L[jk][kk]
(;B[jk];W[kk];B[li]C[Forced otherwise W plays there and captures.];W[ik]
;B[jl];W[gk])
(;B[kk];W[kl];B[jk];W[ik];B[jl];W[jm]L[il][km]
(;B[il];W[im]L[hk][gk]
(;B[hk];W[gk];B[ik];W[li])
(;B[gk];W[li];B[hk];W[ki];B[ik];W[gl];B[fk];W[lm]))
(;B[km];W[ll];B[im];W[jn]L[il][gk]
(;B[il];W[gk]C[B has made in incursion in white's center but W still wins.]
)
(;B[gk];W[gl];B[fk];W[il];B[li];W[gm]M[ij][hj][gj][gk][fk][fl][fm]C[the marked stones are captured]
)))))
(;B[fn];W[en];B[fo];W[eo];B[fp];W[ep];B[eq]C[W f3 is captured as the following shows]
;W[gq];B[gp];W[fr];B[er];W[is];B[fs];W[bo];B[bm]L[do]C[B b7 does not work as the following shows. So B has to connect at a and let
W play b7.];W[do];B[co];W[cp]))
(;W[gr];B[fs];W[hr];B[hs];W[is]L[es][ir]
(;B[es];W[iq])
(;B[ir];W[es];B[js];W[fr];B[is];W[er]L[gp][jq]
(;B[gp];W[gq];B[iq];W[jq];B[kr];W[jr];B[ks];W[kq];B[lr];W[mr];B[lq];W[lp]
;B[kp];W[jp];B[ko];W[mq])
(;B[jq];W[iq];B[jp];W[ks];B[jr];W[jo]C[B is dead]))))
(;B[cj];W[cq];B[dq];W[dr];B[cp];W[br];B[bq];W[cr]C[B ends up in sente so this seems playable.]
))
(;W[sr];B[pr];W[rs];B[mq];W[mr]M[mr]L[lq][or]C[MG:  Atari once at 'a'.  Then Black at the marked stone, White 'b', and Black has a tough time of it.]
;B[lq];W[or]L[kp][mm]
(;B[kp];W[mm]M[ol][om][qo][qp][qq][pp][op][np]C[now the marked B group is in danger]
)
(;B[mm];W[kp];B[qm];W[nl];B[nm];W[lk]M[mq][lq][pr]C[B did not get much from giving away S2 and the marked stones]
)))
(;W[nk];B[mk];W[nl]L[rq]C[w escapes and might even get a chance to attack the black group later (w s3)]
))
(;B[oc];W[ob];B[nd];W[mc];B[md];W[lb];B[kb];W[mb];B[kd]M[pl]C[B ends in gote but has a nice moyo and the W marked stone becomes even weaker]
))
(;B[lc]L[qc][ne]
(;W[qc];B[qd];W[pc];B[od];W[nb];B[me]C[b would be very happy with this result]
)
(;W[ne];B[pf];W[pb];B[qc];W[ng];B[oh]C[b is also happy because the w q8 stone becomes weaker]
)))
(;W[pj];B[qi];W[nk];B[ol];W[ok];B[mm]C[B should be happy if w plays like this]
))
(;B[mo]L[pi][lo]C[usual response for w is b (variation) but in this context w might prefer a.]

(;W[pi];B[lp];W[mq];B[lo];W[kq];B[pg]C[I can't say if this would be better for B than the actual game]
)
(;W[lo];B[mn];W[lp];B[pj]C[black's attack is stronger than in the actual game]
)))
(;B[rq];W[mp]L[rr][rl]C[b can tenuki (play elsewhere) now since a and b are miai so the b group is safe]
))
(;AW[rq]L[oq][qp][pr][qq][oo][ro][qn][rm]C[MG:  There is a stone at 'd' (R3) to start; Black 'd' fills the ko.


White pretty much connects with 'h', making perfect use of his pincer.  (Yes, Black can cut,

but he has to crawl along the second line for quite a while [note: this is one of the worst
sequences Black can get into here\] and the corner is alive.)


This result looks good for White because it weakens both Black hoshi stones.  I'd say that the
attachment is not good when you have thickness you want to use outside.]
))
(;W[dd];B[ed];W[ec];B[fc];W[eb];L[gd][db]C[MG:  Here, Black makes the nice kaketsugi at 'a', which White must answer at 'b'.]
))
(;B[cc]L[ci][ef]C[in both variations b can get a good result]
(;W[ci];B[jc];W[qo]C[the purpose of b r5 was to avoid w playing here. but if w does this now...]
;B[ef];W[dg];B[pj]L[ke][qc]C[b can get a nice moyo. w can reduce it with a (L15) then invade at b (R17) but b should not be afraid of that.]
)
(;W[ef];B[ff];W[ch]L[fe][fc][ge][fg]C[MG:  White can cut at 'a' instead; this leads to Black 'b' (the shape move) and so forth, ending with White C12 (an even fight).]
;B[fc]L[jc][je]C[b makes a solid shape (important in a handicap game).


MG:  I'd play here if I were taking four stones.  In a two-stone game, I'd play 'a' (since White can't cut immediately) and look for the chance to jump to 'b'.  (This is probably a matter of style.)]
)))
