(;FF[1]GM[1]SZ[19]VW[]PB[hilt]BR[9k*]PW[plin]WR[7k]GN[plin-hilt(B) IGS]
DT[1995-01-16]PC[IGS:  hellspark.wharton.upenn.edu 6969]TM[900]RE[W+2.5]
US[Brought to you by IGS]KM[0.5];B[pd];W[dp];B[qo]C[innovativ :-)];W[dd]
;B[jd];W[qf];B[qh];W[qc];B[pc];W[qd];B[pe];W[rf];B[og];W[pq];B[op];W[pp]
;B[po];W[oo];B[np];W[on];B[rq];W[rr];B[qq];W[qr];B[or];W[pr];B[mr];W[qp]
;B[rp];W[rn];B[ro];W[qn];B[sr];W[so];B[rs];W[sq];B[ps];W[pn];B[fq];W[hq]
;B[cq]C[after this variation b stones around n2 are neutralised. I think one of the variations with i.e. f5fits better here.]
;W[dq];B[cp];W[do];B[dr];W[er];B[cr];W[eq];B[cn];W[lq]C[l3 would be much more solid]
;B[kp]C[one feels tempted to play k3 here];W[lp];B[lr]C[l3! then m3 and m5 are miai]
;W[kq];B[mo];W[kr];B[lo];W[mp]C[just l5];B[no];W[nq];B[oq];W[ss];B[jp];W
[jn]C[overplay. better j3];B[jq];W[jr];B[kn];W[jo];B[io];W[km];B[lm]C[b has to connect at l5]
;W[ko];B[jm];W[in]C[
 hilt 9k*: is entering byo-yomi];B[kl]C[at least a ponnuki. the game looks reasonable]
;W[hm];B[hk]C[it feels like b is trying to make territory with thickness (the ponnuki). This is against usefull proverbs :-). I would recommend f17 here.]
;W[mk];B[nl];W[ok];B[qk]C[this is overdoing things. A more solid approach like p11 is advisable.]
;W[pg];B[ph];W[oh];B[oi];W[nh];B[pf]C[
 plin 7k : is entering byo-yomi];W[ng];B[qg];W[md];B[nf];W[mf];B[ne];W[me]
;B[lg];W[mg];B[ni];W[mi];B[lh]C[
 hilt 9k*: undo then];W[nj];B[pj];W[mh];B[ol];W[kf]C[In the sequence since the last comment the whole mojo and nice thickness black had is totaly crumbled. This white group can't be killed. This is often seen in kyu games. They tend to overstretch like r9. First play solid. Later one can attack all the more.]
;B[jh];W[if];B[lf];W[kd];B[ke];W[kc]C[first k15 m15 exchange];B[jf];W[jc]
;B[id];W[ic];B[hd];W[gc];B[ff];W[ce]C[the game looks over now. :-)
 White leads more than 20 points.];B[ci];W[dj]C[just playing from the outside should be sufficient. This gives black possibilities to fight back.
 hilt 9k*: has entering byo-yomi again];B[em];W[co];B[bo];W[bn];B[bm];W
[dn];B[cm];W[dm];B[dl];W[cl];B[gm]C[better e8];W[gn];B[fn]C[
 plin 7k : has entering byo-yomi again];W[bl];B[an];W[gl];B[fl];W[al];B
[am];W[dk];B[fk];W[el];B[go];W[fm];B[qs]C[this threat is pointloosing. r15 is as big as this.]
;W[os];B[gm];W[ip];B[hn];W[ho];B[gn];W[fi];B[ei];W[di];B[eh];W[dh];B[dg]
;W[cg];B[dc];W[cc];B[ed];W[ee];B[hc];W[hb];B[fc];W[gd];B[ib];W[gb]C[
 hilt 9k*: has entering byo-yomi again];B[ge];W[ej];B[fj];W[eg];B[fh];W
[fg];B[gh];W[gg];B[hg];W[hf];B[gf];W[hh]C[no comment :-)];B[ef]C[
 plin 7k : has entering byo-yomi again];W[im]C[f16!];B[lj];W[jl];B[km];W
[ik];B[fe];W[de];B[fd];W[hj];B[hl];W[il];B[gk];W[gi];B[ij];W[jj];B[ii];W
[ji];B[ih];W[kk];B[lk];W[mj];B[kj];W[jk];B[ki];W[iq];B[mb];W[pb];B[ob];W
[qb];B[lc];W[nc];B[oc];W[nb];B[na];W[jb]C[
 hilt 9k*: has entering byo-yomi again];B[mc];W[lb];B[le]C[? o16 sente]
;W[ld];B[nd];W[nr]C[
 hilt 9k*:  that was a pretty dumb way to lose sente...

right :-)];B[rg]C[there is not much territory here because its open at both sides.]
;W[mm]C[meaningless];B[ll]C[n8];W[sk];B[sf];W[rd]C[s15];B[sb]C[
 plin 7k : has entering byo-yomi again];W[pa]C[t17 should do it];B[sd]C
[
 hilt 9k*:  dead?

RIP :-)];W[rl]C[white falters in the endgame. nervous? time trouble? d18 is far bigger.]
;B[ml];W[oj];B[pi];W[ql];B[rk];W[pk];B[rj];W[sj]C[I don't understand this whole sequence since s8. :-)]
;B[db]C[*pooh* at least :-)];W[cb];B[df];W[cf];B[gq];W[gr];B[nm];W[ri];B
[qj];W[nn];B[mn];W[fb];B[la];W[kb];B[pl];W[eb];B[ec];W[da]C[black missed c19 before]
;B[es];W[fs];B[ds];W[en]C[f2!];B[fo]C[f2!!];W[fr]C[
 hilt 9k*: has entering byo-yomi again];B[fm];W[ek];B[sh];W[si];B[rh]C[
 hilt 9k*: no problem];W[pm];B[ka]C[
 hilt 9k*:  close game.];W[ia]C[
 hilt 9k*:  70-73 black wins (?)];B[ma];W[ja];B[gp]C[
 plin 7k : has entering byo-yomi again];W[hp];B[eo];W[ep];B[om];W[tt];B
[tt];W[tt])
