(;FF[1]GM[1]SZ[19]VW[]C[kkkken: This was a 10/10 game.  Comments with my rank on them were
        made during the game, comments without were made after.]PB[kkkken]
BR[7k*]PW[espresso]WR[7k*]GN[espresso-kkkken(B) IGS]DT[1995-02-04]PC[IGS:  igs.nuri.net 6969]
TM[600]RE[B+Resign]US[Brought to you by IGS]KM[5.5];B[do];W[pq];B[dq];W
[jp];B[dd];W[pc];B[pe]C[kkkken: I felt w should pincer here, try to use q3-k4 extensioon]
;W[nd]C[ TT: A pincer is of course good, but you can't say that this move is bad.]
;B[qc];W[pd]L[qb]C[ TT: a) is more natural here. A move like this is normally considered   vulgar (cf. the proverb "Hane at the head of two stones.").]
;B[qd];W[oe];B[pf]C[
 kkkken 7k*: should w sacrifice r15 first?

 TT: The sacrifice would make black too thick. The forcing moves in the corner
 are not that important.];W[dj]L[nc][kc][pi]C[ TT: Too early to tenuki. White has a serious defect at a). Probably   he should play b) expecting black c). (See variation.)]

(;B[jc]M[nd][oe][pd][pc]L[ic][lc][fc][gc]C[
 kkkken 7k*: i think w should p14 then f17
 kkkken 7k*: (not d10)

kkkken: now I feel k17 too close to thickness.  If I played "a"
        I could extend to "b".  Maybe "c" or "d" is better?  But
        I felt if I did that, I'd give white a nice extension to a.

 TT: As the marked stones are actually quite weak this is the right general   direction, but it fails to quite hit the key point (it gives white the   chance to protect at b). Generally since all blacks positions are solid
 he should think in terms of attack rather than defence. Particularly on   the right side where white is outnumbered black would welcome a fight.]
;W[gd]C[ TT: This is clearly an overplay. White has now three weak groups - very
 dangerous.];B[je]C[
 kkkken 7k*: o13 seems like the key point here

 TT: This move is natural. If black plays anywhere else white will cap   here and things will get confused. This fight is likely to favour black
 so he has no reason to take any chances.];W[cf]M[gd]L[df][ng]C[ TT: Right direction. I would play a) since the marked stone is so
 weak. It is correct that b) is also a key point here, but white
 can't expect to have time for everything.];B[ee]L[df]C[
 kkkken 7k*: g14 seems only move

 TT: a) is very strong here. You don't have to be a beginner to play   tsuke-nobi!]
;W[cd]C[kkkken: I was surprised when w didn't g14.  w feels overconcentrated
        on the edge ?

 TT: Yes white is playing from the strong side.];B[cc]C[
 kkkken 7k*: i think w should have saved 3-3 invasion
 kkkken 7k*: c14 stone already backed up by d10];W[ce]L[bc]C[ TT: The double-hane at a) or the cross-cut is the usual idea   behind the attachment against the 4-4 stone.]
;B[ec]L[bc][ff]C[ TT: Too weak against the hane at a). The solid connection is better.
 Probably even better is b), but this might make your opponent think
 you are playing rengo!];W[gf]L[eg][ng]M[ec]C[kkkken: Now the marked stone feels slow to me.  what should I have
        done?  but I have the nice points "a" and "b" to choose from..]
;B[ng]L[eg]C[ TT: Very good point. The alternative is, as you say, a).]
;W[of]C[
 kkkken 7k*: b has many nice points now (g18, e13, etc];B[og];W[pg]C[ TT: Overplay. White should move out with his main group, or seek life.]
;B[qg];W[ph];B[qh];W[pi]M[jc][je]C[kkkken: I feel the cut was too much, given the presense of my          marked stones to help my cutting stones.]
;B[lg];W[qb];B[rb]C[
 kkkken 7k*: i think r11 best for w];W[pb];B[qi];W[pj]C[
 kkkken 7k*: r11 ruins w's thickness];B[qj]C[
 kkkken 7k*: what's w going to do with this 4th line wall?];W[pk];B[ql]
L[nb]C[
 kkkken 7k*: hmm, did i leap too soon?  maybe r9 works

 TT: The white group is on the verge of death. How about a) ???];W[qk]C
[
 kkkken 7k*: r9 s9 s8 s7 s10 t8 r15 r14 s15
 kkkken 7k*: dang

 TT: Doesn't work so white should leave his options open here.];B[rk]C[
 espresso 7k*: is entering byo-yomi];W[rj]C[
 kkkken 7k*: i didn't think this worked];B[rm]C[
 kkkken 7k*: i can't see it];W[sk];B[rl]
(;W[qf]L[qe]C[
kkkken: I seem to hold together; "a" doesn't work either (variation)];B
[qe];W[rf];B[rg]C[
 kkkken 7k*: seems w gets nothing, actually];W[mi];B[jh]M[lg][mi]L[ki]
[om][ld][li][kh]C[kkkken: this was supposed to patch up l14 cut, but it
didn't work.  Given that, should I have played "a" or "b" ?
or something like "c"?

 TT: I would play d) or e). The kosumi is worth remembering. It is often
 correct shape when there is this keima relationship between two stones   (marked).]
;W[om];B[mb];W[ra];B[rc];W[re];B[rd]C[
 kkkken 7k*: i'll never win a ko fight this game!
 kkkken 7k*: p7 such a nice point, I'm so jealous w got it];W[mc];B[lb]
;W[nb];B[eg];W[kf]C[ TT: Since black is ahead, and the white groups above and below are   already secure he can consider giving up the cutting stones (variation
 b). Alternatively he can play as in var. c.]
(;B[le]C[ TT: This is a funny move. It doesn't seem to work.];W[mf]L[mg]
C[ TT: Black has to protect at a) of course (variation b).]
(;B[lf];W[mg];B[mh]L[lh][nh]C[kkkken: I misread here.  I read out "a" (variation) and thought
"b" (game) was the same.]
(;W[nh]L[ne]C[
 kkkken 7k*: nice job
 kkkken 7k*: dang, misread! :-)

kkkken: but I ran out of liberties to make the cut at "a".];B[lh]C[
 espresso 7k*: i saw l14 but couldn't figure out what to do with it
 espresso 7k*: until b n18, ...
 kkkken 7k*: hmm.  what's the relationship between n18 and l14?

 espresso 7k*: sorry, not related, just took me a while to have the guts to play it
 kkkken 7k*: haha, I see

 TT: Ending in gote here is quite embarrasing for black.];W[gh];B[ei]C[
 kkkken 7k*: w still owes me a move around c12];W[bc]L[gj][ch]C[ TT: Has to be at a). b) and the played move are miai.]
;B[ch];W[cb];B[gj]C[
 kkkken 7k*: w makes bad trade here, i feel
 kkkken 7k*: thickness around e11 works great with d5
 kkkken 7k*: that's why w played d10 a long time agoi];W[fb];B[eb]C[
 kkkken 7k*: wow, can g16 really live?];W[jf]L[hj]C[ TT: Bad, this stone is not important. White's best bet is probably a)
 although he is in severe difficulties here.];B[ie];W[ke]C[ TT: Better to keep this move in reserve until white can cut.]
;B[kd];W[ig];B[md]L[ih][hb]M[ke][jf][kf]C[kkkken: this move is no good.  but more broadly,
should I take the time to connect?  I feel in this game
I played a little bit too slow, never got W weak enough

 TT: Black is miles ahead here, so a "safety first" move cannot be   critisised. A better way of playing would be a). If white protects
 the marked stones black can play b). I guess the morale is: If you   plan to make a small gote move, look for forcing moves first.]
;W[me]C[
 kkkken 7k*: nice, n16 bogus move];B[ld]C[
 kkkken 7k*: played too fast :)];W[ii];B[kj];W[gi];B[fj]C[
 espresso 7k*: has entering byo-yomi again];W[hj];B[gl];W[hc]L[il]C[ TT: Bad. Has to be a). Probably losing move.]
;B[ik]C[
 kkkken 7k*: if i keep sente here, i get c8
 kkkken 7k*: or c7..?

kkkken: I felt W should have taken nice J8 point];W[ih];B[cm]L[mp]M[kj][ik][gl]C[
 kkkken 7k*: c7 shameless territory move

kkkken: c7 seems pretty slow now.  what's my best bet here?

 TT: Even if the single white stone CAN live, the lower side seems bigger.
 Probably invading at something like a) is best, in view of the influence   provided by the marked stones. If black plays like this, white has no real
 territory anywhere.];W[cg];B[dh];W[ef]C[ TT: It is very difficult to see how the white group on the right can   live, but this certainly doesn't help.]
;B[ff];W[df];B[fe]C[
 kkkken 7k*: can w withstand g15?  i don't think so
 kkkken 7k*: need to be thick on _both_ sides to play move like e14];W[ge]
;B[fg]C[
 kkkken 7k*: lower right starting to look important ... :)
 kkkken 7k*: i'd be annoyed if w got g3
 kkkken 7k*: (or h3 is maybe better, w is thin)];W[fd];B[dc];W[id];B[jd]
C[
kkkken: was it worth playing this move?  the goal was to keep w weak,
but maybe it's too slow.

 TT: Since black can probably kill the white group it seems worthwhile to
 play here.];W[gg]C[
 kkkken 7k*: i think if w lives, it's gote];B[mp]L[ni][nm]C[
 kkkken 7k*: whee
 kkkken 7k*: i should be more careful, g8-j9-l10 thin

 TT: No this is fine. The lower right corner is thin, and black also has   various moves around a) and b). White took gote on the upper side, but   he's still not alive!]
;W[gp];B[gr]M[mp]L[po]C[
 kkkken 7k*: w plays so high in the face of thickness

 TT: More natural to play from the weak side - from the marked stone -
 a) for example.];W[cp]M[om][pq][jp]C[
 kkkken 7k*: has entering byo-yomi again

kkkken: I was very surprised to see b jump in here.
I thought with that thickness the whole center would
be mine!  but it was by luck that I actually ended up
with it.  Where did I go wrong?

 TT: White should attack the single black stone to the right, since it is   is out-gunned by the marked stones. THEN he might try something in the
 lower left corner.];B[dp];W[cq]C[
 kkkken 7k*: i can't believe it];B[cr]L[dr]C[ TT: How about just a) here?]
;W[br];B[dr]C[
 kkkken 7k*: the thickness i get here makes the center mine, i hope
 kkkken 7k*: that's assuming w lives, which is not obvious to me];W[bn]
;B[bm];W[bs]C[
 kkkken 7k*: can't figure out how to kill

 TT: Black can get a ko as in variation b). The corner is too small for   white to take gote here.]

(;B[mq];W[po];B[mm]C[
 kkkken 7k*: clock
 kkkken 7k*: Increase espresso's time by 1 minute];W[fn]C[kkkken: I was surprised to see w even try to live,
and then I did a terrible job of killing (Failing to kill).
advice please!

 TT: White has to live here in order to make a game of it of course.
 At this point black shouldn't try to kill white - just wrap the game
 up as safely as possible.];B[cn];W[bo];B[el]L[em][fl][hn][fo]
[hp][hq][jn]M[cn][bo]C[
kkkken: now this move (e8) seems wrong to me.  perhaps h6?
        it seems I have little to fear from w connecting these weak
        stones, none of which seem to have much eye potential.

 TT: The basic strategy behind this move is good, since black is ahead
 he should think safety first. Strictly speaking if black wants to play
 this way it is better to omit the exchange of the marked stones and just   play a) - that would leave the ko in the corner for later. The problem is   now that white can't actually connect the two stones. Black will cut
 through the keima at a), and he can answer both the kosumi a) and the

 attachment b) with  the played move. If black wants to attack c) looks best:
 it threatens d) or e). Alternatives to this are f) and g).];W[bh];B[bi]
;W[bg]L[bj]C[ TT: The descent at b12 would have been sente for black, and white now   threatens a clamp at a) so this is not too bad.]
;B[ci];W[hq]M[bh]C[
kkkken: given that w ends up basically living, maybe i shouldn't
have answered the marked move?

 TT: Correct. The clamp is only worth something like 14 points in   gote. Furthermore, the surrounding black positions are perfectly
 safe.];B[fr];W[im];B[jn];W[hk]C[kkkken: this move (h9) was played as a ko threat, because w was
        very low on time];B[hl];W[il];B[jk];W[in];B[jo];W[io];B[gn]L[kp]
C[ TT: a) seems more reasonable.];W[kp];B[ln];W[km];B[lo];W[ll]L[kl]
[kk]C[ TT: a) might be better since it makes b) forcing. This is all a bit   hairy for black. The group on the upper side hasn't got two eyes yet.]
;B[kl];W[lm]L[jm][lk]C[ TT: a) looks better (if black cuts then b) is forcing).]
;B[jm];W[jl];B[kk];W[kr];B[ir];W[hr]L[ml]C[ TT: Better to turn at a) and stake the game on the semeai. Even   if white lives at the bottom he is way behind. Assuming that black   emerges with sente to play in the lower right corner it is difficult   to count more than 45 points for white (including komi) whereas   black has at least 50.]
;B[hs]C[kkkken: if w had played "a" now (variation) i think he'd be in
great shape.];W[jr];B[iq];W[ip];B[nk];W[li];B[ki];W[jq]L[ks][nr]C[ TT: a) followed by watari at b) is better for white here.]
;B[is];W[js];B[gs];W[mr];B[nr];W[lr];B[oq];W[ml]L[pl]C[ TT: This and the subsequent moves not only lose points for white, but   also make the cut at a) possible.]
;B[nl];W[nm];B[mn];W[mk];B[nj];W[ni];B[mj]C[kkkken: now w must add a stone to lower group.  this mistake lost the
game.  But I would rather not have counted on w's mistake!];W[ol]C[ TT: Better to try to make some points in the corner.]
;B[qp];W[pp];B[qq];W[qo];B[pr];W[lj]L[on]C[ TT: There is still a cut left at a) for black.]
;B[lk];W[sb];B[se]C[kkkken: I was pretty sure at this point I'd get one of the weak
        white groups --- w defended upper (which I could kill in
        the variation) or the lower, which I managed to kill somehow
        with M3 (actual game)

 TT: I agree that black can kill one of the white groups, but black
 is ahead anyway.]
(;W[ib];B[lq];W[go]L[gq][hn]C[kkkken: I played "a" here, but what if I had tried b (variation)?]

(;B[gq];W[gm];B[fm];W[hm];B[fo];W[en];B[fp]C[kkkken: I don't even think f4 was necessary; i think dead in gote.
Maybe d8 better than f4?

 TT: None of them seem to be necessary.];W[hn];B[hp];W[dl];B[dm];C[kkkken: white resigns at this point.]
)
(;B[hn];W[gq];B[ho]C[kkkken: seems much easier than what I actually did.

 TT: Yes.]))
(;W[lq];B[gb];W[he];B[ic];W[if];B[ij]))
(;B[bo]L[ap]C[ TT: This is the key point. Black a) would only give a seki when white   answers here.]
;W[bp]L[dn]C[ TT: This is the correct response. Note that white can't hope to escape   through the gap at a) because of the thick black surroundings.]
;B[ap]C[ TT: Only move.];W[co];B[an]C[ TT: And it's a ko.]))
(;W[lh];B[nf];W[nh];B[me];W[mh];B[ne]))
(;B[mg];W[lf]L[kg]M[le][lf]C[ TT: The exchange of the marked stones is very bad for black. It makes
 the push-through and cut at a) possible for example.]))
(;B[jf];W[kg];B[jg];W[kh];B[ei]M[gd][gf]C[ TT: This is a safe and simple way of playing, but still a severe attack
 on the marked stones.])
(;B[jf];W[kg];B[kh]L[lh][jg]C[ TT: The white group is short of liberties so that he can't cut at a)   (variation a). He has to push through at b) and cut (variation b).]

(;W[lh];B[lf];W[ke];B[le];W[kd];B[ld];W[kc];B[lc];W[jd]C[ TT: Only move.]
;B[id];W[ic];B[kb];W[jb];B[jg];W[jc];B[hc];W[hd];B[ja];W[ie];B[ib];W[id]
;B[gb]C[ TT: The sequence is a bit long, but unbranched. White makes an ugly
 dango shape whereas black has a nice watari. The likely continuation   is now a running battle between the white group and the five black
 cutting stones, but when that finishes white has to spend a move in
 upper right in order to live.])
(;W[lf];B[lh];W[mf];B[mg]L[ni]C[ TT: Or a).];W[jg];B[ig];W[ih]C[ TT: The cut is fairly severe.]
;B[ii]C[ TT: This seems necessary.];W[hh];B[if];W[gh];B[gb]L[hb][gc]
C[ TT: White a) is answered by black b).];W[ji];B[kj];W[jj];B[mj];W[ni]
;B[jk]C[ TT: This is only an example, but it seems that black will be ok in   the subsequent fight.]
)))
(;W[qe];B[qf];W[re];B[rd]))
(;B[lc]C[ TT: This is very severe.];W[id]C[ TT: If white counterattacks.]
;B[nc]C[ TT: This hurts.]))
