(;FF[1]GM[1]SZ[19]VW[]PB[pmho]BR[27k*]PW[JamesL]WR[23k*]GN
[JamesL-pmho(B) IGS]DT[1995-02-26]PC[IGS:  igs.nuri.net 6969]TM[2400]RE
[W+5.5]US[Brought to you by IGS]KM[0.5];B[dd];W[pp];B[dq];W[pd];B[qf];W
[nd];B[of]C[P14 is a mistake by black.  He should play R11 or Q10 to make a base  for his stone before  running to the center.]

(;W[do]C[While w D5 is a good point, I think it is a mistake in the direction  of play here.  Since  b did not make a base for R14, I would pincer immediatly, probably at Q10.   Note that this  pincer would also be an extension from Q10.   See var. 1.]
;B[fp]
(;W[cp]C[w C4 is giving black too much.  there is only 1 joseki here.  It is  shown in the variation.]
;B[cq];W[cj]C[w C10 is too wide of an extension.  This invites an invasion by b,  either immediatly or later.  The invasion would be hard on w since b already  has a strong corner.]
;B[cf]C[b could have considered C12 here to attack the w group.  but C14 looks  OK too.]
;W[kc]C[w should definitly pincer around Q10 before playing this move.  Q10  looks bigger and is  also an attack.  L17 is just territory, and your Q16 group doesn't need  reinforcement yet.]
;B[gd]C[b E17 is the usual move here.  G16 leaves the corner open at the 3-3,  and it is undercut  by L17.]
;W[mq];B[jq];W[qm]C[The last 2 w moves do almost nothing for w.  the 3-3 is still open in  the corner.  b should invade right now, and N3 and R7 will end up looking like bad moves.   You are  trying to turn Q4 into territory, and that is no good.  Better to make big  extentions  from Q4 (like Q10 or K3).]

(;B[qj]C[b gets his vital extension!];W[rd];B[le];W[ke]C[why attach here?  this just helps B.]
;B[me]C[b makes a mistake here.  I would have played hane at L4.];W[ne]
;B[nf];W[mf]C[sure.  this cut looks like fun.  b should simply sacrifice the 2  stones though.  see var 1.]

(;B[lf];W[mg];B[ld];W[lc];B[kf];W[lh];B[je];W[oh]C[good];B[ph];W[og];B[pf]
;W[oj];B[pj];W[qh];B[qg]C[opps. b makes a mistake.];W[pi];B[rh];W[qi];B
[ri];W[pg];B[ok];W[pk];B[nj];W[oi];B[pl];W[qk];B[rj];W[rk];B[nl]
(;W[kh]C[L12 not needed.  w should kill B group by playing the eye-stealing  tesuji at T14.  T14  in combination with R12 make the eye at S13 a false eye.]
;B[rf]C[black misses his chance to live.  see var 1 for how black could have  lived.]

(;W[sg]C[good.];B[rl];W[ql];B[sk]
(;W[rm]C[w lets b live this way.  w can kill.  see var. 1.];B[sh];W[sl]
;B[sj];W[lj]C[this is a good move, but before making it, I would peep at N9 first.]
;B[lm];W[mk];B[nn]C[black can and does ignore the peep now.];W[nk];B[ol]
;W[fn];B[ho];W[hm];B[mp];W[np];B[lp];W[lq];B[pn];W[qn]C[this is bad shape.]
;B[qq];W[pq];B[qp];W[qo];B[pr];W[or];B[rr]
(;W[rp]C[Q1 atari first here.];B[rq];W[ro];B[qs];W[ss]C[doesn't work.];B
[po]C[end of my comments.];W[ps];B[os];W[ns];B[ps];W[nr];B[op];W[oq];B[no]
;W[oo];B[kr];W[lr];B[fi];W[ej];B[di];W[dj];B[ei];W[ci];B[ch];W[dc];B[ec]
;W[cc];B[cd];W[bd];B[db];W[cb];B[be];W[eb];B[fb];W[ea];B[fd];W[kd];B[ie]
;W[ih];B[ig];W[jg];B[jf];W[hg];B[fj];W[fk];B[hj];W[hh];B[gf];W[bh];B[cg]
;W[bg];B[ib];W[jb];B[ic];W[jc];B[gk];W[bq];B[dp];W[co];B[br];W[aq];B[fl]
;W[el];B[gm];W[fm];B[gl];W[kq];B[jr];W[kp];B[ko];W[lo];B[mo];W[jo];B[ln]
;W[jp];B[jn];W[ks];B[js];W[ls];B[hq];W[ar];B[bs];W[qd];B[eo];W[en];B[gg]
;W[ij];B[ik];W[jj];B[jk];W[kk];B[kl];W[ml];B[mm];W[ll];B[jm];W[fo];B[go]
;W[ep];B[eq];W[gp];B[fq];W[on]C[   pmho 27k*: is entering byo-yomi];B[om]
;W[pm];B[nm];W[ip];B[hp];W[iq];B[hs];W[hr];B[gr];W[ir];B[gn];W[eo];B[bc]
;W[bb];B[ad];W[ab];B[hi];W[ii];B[gh];W[hf];B[he];W[if];B[ja];W[ka];B[ia]
;W[fa];B[ga];W[da];B[gb];W[is];B[gs];W[sq];B[sr];W[sp];B[mc];W[md];B[mb]
;W[nc];B[nb];W[ob];B[la];W[lb];B[kb];W[na];B[jd];W[od];B[ek];W[dk]C[   pmho 27k*: has entering byo-yomi again]
;B[dl];W[em];B[cl];W[bl];B[bf];W[bi];B[ag];W[cm];B[ah];W[ai];B[af];W[se]
;B[sf];W[ng];B[ac];W[re];B[fk];W[io];B[in];W[lg];B[pb];W[qb];B[pa];W[oa]
;B[ma];W[oc];B[rb];W[qa];B[ki]C[   JamesL 23k*: is entering byo-yomi];W
[li];B[rg];W[tt];B[tt];W[tt])
(;W[ps]N[atari first]
(;B[qr]N[b connects and dies];W[rp];B[rq];W[so]C[b dead here.])
(;N[w plays ko to live];B[qs];W[qr])))
(;W[sj]C[this sacrifice is a great tesuji to remember.  black must capture, but  then he cannot get  2 eyes.]
;B[si];W[rm];B[sl];W[sm];B[sj];W[se];B[sf]C[b dead here.]))
(;AB[sg]AE[rf];W[rf];B[re];W[se];B[qe];W[qd];B[sf];W[sj];B[si]C[black lives]
))
(;W[sf]C[B group dead now.]))
(;B[mg];W[lf];B[lg];W[kf]))
(;B[qq];W[qp];B[pq];W[oq];B[or];W[nr];B[op];W[nq];B[rp];W[ro];B[rq];W[qn]
;B[ps]C[b is alive in the corner.  N3 and R7 are now bad moves.]))
(;W[cq];B[cr];W[cp];B[er];W[cl]))
(;W[pj];B[rd];W[qc];B[oi]))
