(;FF[1]GM[1]SZ[19]VW[]PB[JamesL]BR[23k*]PW[load]WR[22k]GN[load-JamesL(B) IGS]
DT[1995-03-02]PC[IGS:  igs.nuri.net 6969]TM[2700]RE[W+Resign]US[Brought to you by IGS]
KM[0.5];B[pp];W[dd];B[dp];W[pd];B[jp];W[nq];B[lq];W[pq];B[dj]C[This is your first mistake, I think.  Instead, play R3.]
;W[qp];B[po]C[rather than this move, which doesn't accomplish anything offensive,
I'd recomment a hane at R5 or a cross-cut at R3.  That way you get a  trade-off rather than just a liability.]
;W[qo];B[fc]C[Your two stones are not very useful now.  Making them 3 long makes them much harder to kill.   Or you could try the hane at R6, the cut at R3, or perhaps N5 aiming to  sacrifice the two stones for some profit.]
;W[pn]C[now you are wise to give these up, as you did.];B[cf];W[eb]C[I don't think this is a particularly good move by white.]
;B[ic];W[lc];B[fb];W[ec];B[fe];W[be];B[bf];W[oo];B[qf];W[qe];B[pf];W[nd]
;B[pi];W[qk];B[pk];W[qj];B[pj];W[qi]C[Now a stone at R12 would be sente, and a good reinforcement for you.]
;B[jj];W[fq];B[eq];W[iq];B[jq];W[fo];B[dn];W[jr];B[kr];W[ir];B[gp];W[fp]
;B[ip];W[gr];B[hq]C[I think this was a good move.];W[hr];B[er];W[ho];B[hp]
;W[go];B[jn];W[gl];B[jl];W[im];B[jm];W[ik];B[il];W[hl];B[hk];W[gk];B[hj]
;W[dl];B[el];W[em];B[ek];W[dm];B[in]C[This move should have been held in reserve, since you might want to attack at H7 instead.]
;W[hm];B[gj];W[co]C[I think you can probably play D5 safely.];B[cp];W[do]
;B[bo];W[cn];B[hn]C[Since white already has two eyes easily, this move is wasted.]
;W[fm];B[de];W[cd]
(;B[ce]C[better would be E16];W[fd];B[gd];W[ed];B[ee];W[ge];B[hd];W[ph]
C[If you had played R12 earlier, this wouldn't be a threat.  See the previous variation.]
;B[oh];W[og];B[oe];W[ne];B[qh];W[pg];B[ng];W[qg];B[of];W[rg];B[nf];W[lf]
;B[nh];W[rf];B[od];W[nc]C[Now you should continue to attack the corner, with Q17.  This will keep the stones around N16 weak.]
;B[kf];W[ke];B[jf];W[lg];B[li];W[kh];B[jh];W[je];B[ie];W[ji];B[ii];W[jg]
;B[if];W[ih];B[ki];W[ig];B[kg];W[lh];B[jh];W[mi]C[I would attack now with N12, N10, or O11.  The Ko is not a threat to you, particularly, becaluse you can seal it off.]
;B[ji];W[mj];B[mh];W[nj];B[le]C[??];W[me];B[nl];W[ml];B[mk]C[you need to prepare for a wedge like this.  Perhaps N7 or O9 or P8 first.]
;W[nk];B[lk];W[ol];B[nm];W[ok];C[As a general comment, keep an eye out for aggressive defenses for both yourself and your opponent.]
)
(;B[ed];W[cb];B[qh];W[ph];B[ql];W[qg];B[rh];W[ri];B[rg];W[pl];B[rl];W[rk]
;B[pm];W[ol];B[qn];W[op];B[on];W[om];B[po];W[nn];B[ro]))
