(;FF[1]GM[1]SZ[19]VW[]N[willie-bn]C[I hope the comments will be of any use. I would especially
like to stress two concepts:

 1. kikashi    (forcing move)
 2. karui/omoi (light/heavy)

I am convinced that if you grasp what I'm talking about in the various
comments that you will become at least one stone stronger for each
of the two concepts discussed (no kidding).]US[jansteen@cwi.nl (Jan van der Steen)]
PB[willie]PW[bn];B[pc];W[qp];B[cd];W[dq];B[qe]L[ed][co]C[The black constellation is one of the most popular beside
san-ren-sei (three hoshi stones in a row). White can deal with this
opening type in two ways:

 1. invade the upper edge [a\]
 2. build a constellation himself [b\].

Nowadays, professionals choose for the invasion at [a\]. In the Edo
era (Honinbo Shusaku) and even still in the beginning of this
century (Go Seigen), the move at [b\] was seen too frequently.

Please refer to the variation for the normal procedure in this position.]

(;W[ic]L[lc][fc][ed]C[Although unusual, this move can't be bad. This stone will
extend to either [a\] or [b\] and thus settle itself conveniently.
Establishing a save group here prevents black from creating a moyo
(potential territory).

However, most contemporary professionals play the kakari at [c\]
instead, so probably they consider this move a little slow.];B[kc];W[fc]
L[ec][gc]C[This seems a normal move. It would also have been possible
to play at [a\], although this may lead to immediate fighting after
black [b\].]
(;B[do]L[dc][cf]M[fc]C[The normal answer to white's marked move [f17\] would be
[a\]. Although it is a rather small shimari it is a very efficient
move combines three purposes:

 1. making territory
 2. attacking the white group
 3. prevents being enclosed like with [b\] (see variation)

These kind of multi-purpose moves are most important in Go.];W[co]C[This move is the most normal response to the black kakari.]
;B[cn];W[cp];B[dn];W[fq];B[dc]C[An interesting move. Black takes this important point and
lets the three stones on the left edge fight for themselves.]
(;W[ci]L[dk][dj][di]C[It's obvious that since black played tenuki, white should
consider an attacking move somewhere in this neighbourhood. The moves
which seem candidates are: [a\], [b\], [c\] and the move actually
played ([C11\]).

In my opinion it takes a professional to be able to decide what is
the best way to proceed in this position. Therefore I looked up the
position in my Go game database and was lucky to find a professional
game containing exactly this position (see variation). (By the
way, the database hit also tells us that this position still satisfies
professional standards :).];B[cg]L[ck][cf]C[Black could decide to make a small extension to [a\] (for
white [b\]). Playing the pincer at [C13\] shows good spirit.];W[cl]L[ei]
[ck][dk]C[One should feel a little reluctant to play right in the direction
of the three black stones. I would like to give some alternatives:

The first idea is to jump right into the centre with [a\]. I have
always been taught by my (patient) sensei that while being attacked
ikken-tobi should be the first move to consider.

Another idea is to play [b\], keeping a little distance from the
black stones. This move makes good shape to create eyes if necessary
while also preventing that black occupies this point creating some
eye space for himself.

The final move to consider is [c\], a move which is lighter than
[b\]. It also keeps some distance from the black stones, but has
the additional feature that it moves to the centre more rapidly.];B[ke]
L[op][qj]C[It's hard to agree with this move. First of all it's not urgent
to play here. Next, it shifts from the actual battle field (lower-left).
And finally, it's not the largest move either (black [a\] or [b\]
would be larger).];W[ie]C[A relaxed and good answer. Strengthening the white group indirectly
helps white on the left side, and provides backup strength for actions
in the upper-right corner later on. But meanwhile realise that this
doesn't imply that actions in the upper-right corner should be sought,
they even might never happen.];B[dk]L[go][gn][bj]C[A bad move since it will strengthen the rather weak white
group. The normal direction of movement after white [C8\] would be
to jump to the centre with [a\] or [b\]. After having jumped black
could seek the opportunity to attack the group (by removing the eyes
with [c\] for example).];W[dl];B[el];W[bm]L[bn][ek]C[My first reaction when I saw this move was: "strange, can't
be a good move in any sense" (sorry Jim :). But, once I started
to think of it, it *does* have some interesting features. First of
all it connects the two stones with the stone at [C11\]. Next, it
intends to connect with [a\]. And finally, it prepares for the cut
at [b\].];B[em]L[bn]C[Black can hardly fight with [a\]. White will play [e7\]
and the black group will be weaker than the white group, making the
fight unreasonable.];W[bn]C[This result is not bad for white since he got rid of the weak
group by connecting it, enlarging his corner territory in the mean
time, and the black group in the centre is not thickness (although
not really weak either).];B[di];W[qj]C[A big move.];B[lq]L[oq][op]
C[Preventing a shimari with either [a\] or [b\] might be bigger.];W[oq]
L[nq][pq]C[Good, no need for [a\] which would leave corner weaknesses
at [b\] and [P3\].];B[iq]L[qh][ql]C[A move at [a\] seems larger: it extends the moyo and prepares
an invasion at [b\]. Black shouldn't worry too much about the stone
at [M3\]. The stone is quite difficult to attack efficiently. Another
reason to prefer [a\] instead of [J3\] is that the latter move doesn't
have any effects on white's position on the left since the white corner
is extremely solid.];W[qg]L[qd][qc][pb][mc]C[This move is very large since it also helps white when black
would decide to enter white's right side. Besides, it will help white
to invade the black moyo in the upper-right. Moves like [a\], [b\],
[c\] and [d\] are possible ways to start the invasion.];B[ep]C[Normally a kikashi, but in this position (with W[b6\])
it's not, strictly spoken.];W[eq]L[fp][gq]C[White could consider to play [a\], [b\] or even tenuki.
Playing tenuki would enable white to choose between the three possibilities
at a more appropriate moment in the game.];B[gp]L[fp]C[Black has virtually connected the two groups although there
still is some cutting potential left in the position (starting with
white [a\]).];W[mo]L[mp]C[Maybe white [a\] instead would make better shape.]
;B[np]C[The weak spot in white's shape.]
(;W[mp]L[on]C[The move actually played in the game (W[n4\]) will most
likely hurt the white position more than the black one. It moves with
the wrong stone.

Jim, did you consider white [a\] instead (see the variation).];B[nq]C[The tremendous advantage which black has in this fight is
that black has one weak group ([o3\],[o4\]) while white has two
([n4\]-[n5\] and [p3\]). The black stone at [m3\] is not weak
since it's light, i.e. not a lot of damage imposed on black in the
event that it would be captured by white.];W[op]C[One should be reluctant to play this move since it invites
black to play the perfect splitting move at [o5\]. But things already
run out of control in this position.];B[no];W[mq];B[or]L[mr]C[Why not block at [a\] instead? Black [a\] would virtually
connect all black stones, leaving the three white stones ([n3\]-[n5\])
heavy (i.e. without purpose).];W[mr]C[Good, destroys all relationship between the two black positions.
Black should definitely have played there himself with his previous
move (no matter what happens).];B[oo];W[qq]L[nr]C[Why not cut at [a\] Jim? Once white is connected, the black
stones will immediately look heavy since they will have no attacking
aim anymore.];B[nr]C[Once black played here, both the white corner and the [n2\]-[n5\]
group look heavy.];W[pm]L[mn][mm][qo][pn]C[Wrong direction and bad shape.

The direction is wrong since the left group is weaker than the corner.
So maybe white [a\] or [b\] instead would be better. Remember: always
play from the weaker group (and if it's too weak just try to find
an appropriate way to get rid of it ).

The shape is bad since black can play [c\] later on. Better shape
would have been [d\].];B[mn]C[Black strengthens his group while attacking white.]
;W[ko]C[Because of white [q7\], the direction of play is moving to
the black stones on the left. This is not what white wants.]
(;B[lr]L[ln]C[Hum... this move makes the black stone at [m3\] heavy again,
there should be a good reason for doing so. One way to justify this
decision is that black is aiming to kill the white group. The normal
move in this position would be [a\] (see the variation).];W[ln];B[lp]L[ms][kp]C[Black [a\] seems more efficient. After black [a\], black
can later still play [m4\]. If white plays there, black can give
atari with [b\].]
(;W[lo]L[mm]C[This would have been the perfect moment for white [a\] (see
variation).];B[mm]L[ms]C[This fight is difficult for white since the black group can
still connect underneath (by [a\]), so white actually has nothing
to aim for.];W[jq];B[jr];W[ip];B[hq];W[kl];B[qo];W[qn]L[ql]C[A skillful answer to black's move. I think that black should
leave the position like this and wait for future possibilities (like
[a\] for example).];B[pp];W[pq];B[po];W[ro];B[rn];W[rp];B[qm];W[pn];B[pl]
;W[rm];B[om]L[ql]C[Connecting at [a\] is also possible.];W[ql];B[lm]
;W[km];B[jn]
(;W[kn]L[in]C[White could also play [a\] instead thanks to the earlier
kikashi moves (see variation).];B[jo]L[hn]C[Much too heavy! The black stone on [k6\] was a kikashi so
it should be treated like that: light and easy to sacrifice. A better
shape would be [a\].];W[kp]L[kr]C[Threatens to play [a\].];B[kr]
(;W[jp]L[im]C[Heavy! Better shape would be [a\]. Like black just before,
white should realise that the stones at [k3\] and [j4\] were kikashi
and thus already served some purpose. White should be willing to sacrifice
them. Please note that after white [a\] there is no cut (variation).];B
[ho];W[hm]L[hp][gq][io]C[Aji-keshi, since white could also play [a\] later on, making
miai of [b\] and [c\]. This shows another interesting feature of
kikashi: it is very close to aji-keshi! It seems as if white was worried
about the points black could make around here (is that true Jim :).];B[hn]
;W[lk]
(;B[pk]C[Again heavy! Same story: the stones at [p7\] and [q8\] are
kikashi so treat them lightly if possible. The best way to play here
would probably be like in the variation.];W[nk]L[ms]C[Vital point of the black group. Suddenly black needs to worry
again about white cutting him with [a\].];B[pj];W[qi];B[mj];W[mk];B[nj]
L[oi]C[Maybe I'm getting tiresome but this concept is *so* important:
this move is heavy! Black [n10\] was kikashi, so treat it lightly:
[a\] makes better shape.];W[ol];B[ms];W[oi]C[A good kikashi. Please note that this was the move should
have played in the first place (instead of B[o10\]).];B[oj]
(;W[oh]C[For the fourth (or is it the fifth :) time a kikashi move
is treated heavily. And it's also the wrong direction.

Question: which group is weaker: [l8\] or [r11\]? (see the alternative)]
;B[ki]C[Quite a difference: now the white group has to run again for
its life while the black group will automatically get stronger in
the process.];W[li]C[A skillful way to strengthen the white group.];B[lj]
;W[kj]
(;B[mh]C[Better to play like in the diagram.];W[jj];B[ji]L[kh]C[It's better to play on [a\]. It takes a firm grip on the
cutting stone which means that black can next attack without worrying
about his own group.];W[ii];B[lh];W[hj];B[of];W[ng];B[nf];W[mg];B[lf]L[jb][eb][rf]C[The main comments end here, since only the endgame is left
now. Both players were aware of the traditional large endgame moves
such as [a\], [b\] and [c\]. Only a few small notes on the rest
of the moves.];W[jb];B[kb];W[jg];B[kh];W[rf];B[ih];W[hh];B[ig];W[hg];B[if]
;W[hf];B[je];W[he];B[gi];W[hi];B[cj];W[bj];B[bi];W[ck];B[ch];W[ee]L[rd]
C[Small, [a\] is bigger.];B[eb];W[fb];B[df]L[re]C[Small, [a\] is bigger.]
;W[rd];B[re];W[se];B[rc];W[qd];B[pd];W[pe];B[oe];W[qf];B[qc]C[A big success for white, two stone capture in *sente*.]
;W[on];B[nm];W[sn];B[nn];W[de];B[ce];W[ef];B[gr];W[fr];B[gm];W[ka];B[la]
;W[ja];B[mb];W[hl];B[pr];W[qr];B[qk];W[rk];B[gj];W[fp];B[fo];W[gq];B[hp]
;W[gl];B[fl];W[gk];B[fk];W[fh];B[jc];W[hb];B[qs];W[gh];B[ei];W[ec];B[db]
;W[mf];B[me];W[lg];B[kg];W[fi];B[fj];W[rs];B[ps];W[sr];B[pf];W[qe]C[small... ( almost anything is bigger :)]
;B[ph];W[pi];B[pg];W[qh]L[sc]C[small... [a\] is bigger.];B[eg];W[fg]
;B[jm];W[jl];B[im];W[il];B[sc];W[dp];B[eo];W[ni];B[mi];W[io];B[in];W[eh]
;B[dg];W[hr];B[ir];W[gs];B[bk];W[bl];B[aj];W[al];B[is];W[dd];B[fa];W[ga]
;B[ea];W[hs];B[id];W[hd];B[jd];W[ak];B[bj];W[ll]C[
 W: 62 + 5 + 5.5 = 72.5
 B: 66 + 4       = 70
 ---------------------- -
 Result: W wins by  2.5

The game ends here but actually there is still one point left (in
sente even!). Before looking at the answer try to find it yourself.

(Final conclusions: hit ".")]
(;C[This game nicely illustrated the concept of kikashi (forcing
move) and especially how to deal with kikashi later on. Since both
players neglected the basic virtue of kikashi stones (i.e. play kikashi
and forget about the stone) they had to deal with heavy stones all
the time.])
(;L[ns][ls]C[Playing [a\] will force black to play [b\] giving him one
point (the captured white stone). If black would play [a\] himself
then he would have two points (right side of [a\] and [b\]).

("[" to return to the game)]N[The last point]))
(;B[jj]C[First black gives kikashi...]N[Driving tesuji];W[kk];B[lh]C[and next the driving tesuji...]
;W[mi];B[ni];W[mh];B[nh];W[mg];B[ng]C[This position is tough for white, both the centre group and
the four stones ([m11\]-[n13\]) are weak. Maybe white should decide
to play [a\] instead of [n11\] (see variation).];AE[mg][mh][mi][ng][nh]
[ni]N[Alternative];W[ji]C[Probably it's better to sacrifice the [m11\] stone immediately
(actually, that's the normal procedure after the tesuji of [m11\]
:).];B[kh];W[ij];B[jh];W[ii];B[ih]C[White will still have some anxious feelings about his centre
group though.

("[" to return to the game)]))
(;W[ki]L[mh]C[This move strengthens the weak centre group and aims at [a\]
next.

("[" to return to the game)]N[Correct direction]))
(;B[on]N[An alternative way];W[sn];B[nj]C[This way black moves much quicker, leaving the white centre
group weaker than in the actual game.

("[" to return to the game)]))
(;W[im]L[jp]C[If white plays here instead of connecting at [a\], then...]
N[The cut...];B[jm]C[The cut doesn't work, since...];W[jl];B[il];W[in]C
[...again the kikashi stones at [k3\] and [j4\] do their
work by forming a geta for the three black cutting stones.

("[" to return to the game)]))
(;W[in]C[The idea of W[j6\] is to use the white stones in this area
more efficiently, i.e. to make better shape.]N[Efficiency];B[jm];W[jo]L[kn][kq]C[This move both prevents the cut at [a\] and also creates
some eye shape (white [b\] next would make an eye).];B[kn]C[The cut is not possible...]
;W[il]C[This obviously doesn't work for black. There are other variations
of course, but the essence is to try to use the kikashi stones to
their full extend.

("[" to return to the game)]))
(;W[mm]N[A sacrifice];B[nn];W[ll]C[White just sacrifices the four stones. This is a more than
reasonable result for white considering:
 1. white got [q7\]
 2. white reduced the influence by black in the centre
 3. White build some influence by himself
 4. white will have sente

("[" to return to the game)]))
(;B[ln]C[The normal way to play would start with this move]N[Normal...]
;W[kq]C[Maybe black disliked this move since suddenly the white group
is quite difficult to attack efficiently. But still I think that black
[m6\] is the correct direction of play.

("[" to return to the game)]))
(;W[on]C[The idea of the white move is to treat W [n5\] light]N[White plays [a\]]
;B[op];W[pp];B[nn];W[nm];B[mn];W[mm];B[ln];W[nq];B[mp];W[pm]C[White has sacrificed the stone at [n5\] to strengthen his
own moyo and corner. Of course, this is only one of many variations,
but it gives an idea how to use [n5\] lightly.

("[" to return to the game)]))
(;W[dj]M[dj]C[This is the position in the 3th game of the Honinbo match
of 1984. White just played the marked pincer at [D10\].]N[Honinbo, '84-3]
;B[dg]L[cg][cf]C[This move prevents that the white stone will settle itself
on the left edge by playing [a\] or [b\] for example.];W[gn]L[fn]M[dj]
C[This move threatens the marked white stone at [d10\] light,
and builds up the lower edge while attacking the three black stones.
At this moment a fight started with black [a\].

("[" to return to the game)]))
(;W[cf]M[cf]C[White can attack the upper left corner starting with [c14\]
(the marked move).]N[White attacks the corner];B[dc];W[ef]C[While enclosing black, white builds influence along the side
and also gives support to the group along the upper edge. This would
be a nice development for white.

("[" to return to the game)]))
(;W[ed]C[Normally white will play this kakari to enter the black influence.]
N[The normal procedure];B[ec];W[fc];B[dc];W[gd];B[cf];W[kc]L[mc][op]
[do]M[cf]C[Up to this point it is all normal procedure and played hundreds
of times before in professional games. The next black move will strongly
depend on the exact position of the two white stones on the lower
edge.

In this position important moves are either [a\] or [b\]. The move
at [c\] is not urgent since the marked black stone at [c14\] is
both low and strong making it hard to turn the left side into moyo
for black or into a significant territory for white.

("[" to return to the game)]))
