(;FF[4]GM[1]SZ[19]AP[SGFC:1.13b]

GN[berni-Loup(B) NNGS]
EV[None]
PB[Loup]
BR[17k*]
PW[berni]
WR[15k*]
KM[0.5]
DT[2000-01-12]
PC[NNGS Worldwide: nngs.cosmic.org 9696]
RE[W+Resign]
TM[600]
US[Brought to you by No Name Go Server]

C[Dear reviewer!

My question is at move 64.

Thanks, Berni

===
My comments are after '==='  line.
Before move 64 I try to point out things that seem good or bad to me. Those are more often bad, but that is not because you're weaker and make more mistakes but because I can see those better. Your good moves might be easily same moves that 9p would make in same situation, but it's hard for me to know what is the reason behind his thoughts.

At first I have to say that I can't believe I have been so good player as you are when I was about 15k.]
;B[pd];W[qp];B[dp];W[cc];B[ce];W[ed]C[===
I rarely play 3-3 point so I don't know any josekis (moreover the thinking or reasoning behind those josekis).

My Essential Joseki book didn't have any joseki for 5-3 approach in the 3-3-positioned corner. So I can't say anything what could be good here. In any case I can't see anything bad on W response here.]
;B[ee];W[fd];B[jc]C[Good point! Makes framework while preparing to reduce W at top left.]
;W[oq];B[op]C[Definitely bad point. Becomes clear];W[np]C[Right way to punish!]
;B[pp];W[pq];B[pn]C[What B has achieved? Tight position while givin at least 10 points to W.]
;W[qf]C[Good judgement.];B[qe];W[pf];B[nd];W[qj]C[Good point!

Are you sure Q10 wouldn't be even better?];B[qk]C[Bad. If B want to settle down R5 is way to go.]

(;W[pj]C[Solid, but misses way to punish.];B[pk];W[fq]C[Good point for white.]
;B[eq];W[fp];B[cn];W[jp]C[W gets perfect point. Bottom isn't yet territory, but very close to turn to that.]
;B[hq]C[What is B attacking?]
(;W[ho];B[fr];W[gr];B[es];W[gq];B[jq]C[B grows his mistake!]
;W[kq]C[Good grab.];B[cj]TR[dj]C[Good point but definetely triangle (D10) would have been better! It would have balanced whole left side.

Anyway, this was stone B has needed long time to give C15 some reason at all.]
;W[qo]C[W has good idea of taking area and inducing battle.]
;B[po]TR[qn]C[Awfully bad move. What is worth to save of two nearly captured stones (about two points). This might even make right side worse than it was before. If B wants to save his stones triangle (R6) is the (only) way to go.   Just to see the difference, compare to variation where B plays D10 or K15.]
;W[hc]C[W claims to be able to win. This is good point anyway, makes up very good continuation at M17.]
;B[hd]C[Nothing to attack.];W[gd]
(;B[he]C[This move doesn't do much. C];W[nj]C[Good patient way to attack. B should get quite nervous now.]
;B[nk]
(;W[mj];B[mh]C[I can't see what B could possibly attack (even if his group bottom wasn't dying).]
;W[nf]C[It is enough to get into center (and maybe attack at the same time) N9 would be really good.]
;B[mf];W[me]
(;B[mg]C[B has to cut O15, now he's making many targets to attack, many weak groups.]
;W[ne];B[jg];W[md];B[od]C[O17 better.];W[mk]C[W did not miss the point second time.]
;B[nl];W[ml];B[jk]C[B have to be really confident he's saving bottom right.

Of course it's plausible to reject the whole group - B being sure he get everything left :).

But then playing O8 wasn't wise at all. Much better to play K9 at once. In any case K9 is good point, but maybe unsuitable for B's uncomfortable position.]

(;W[nn];B[nm];W[mm]C[Now W did get free wall by attacking. If only he would have something on left. Can't get everything...]
;B[qn]SQ[ro][so][no][in][jn][kn][ln][gp][gs][pg][ph][pi][rf]
[sf][rj][sj][ib][ia][ic][dd][cd][bd][ad][of][oj][rn][sn][rk]
[sk][re][se][nc][nb][na][mc][mb][ma][kc][lb][la][lf][ke][kd]
[lh][li][kj][ik][hk][gk][fk][ek][dk][do][dn][cm][cl][ck][fe]
[ge][on][oo][ok]LB[eb:a][rb:b][kb:c][rh:d][fh:e][gm:f][pm:g]
[nr:h]C[white:
a) 22 Points
d)  9 Points
h) 48 Points
------------
   79 Points

black:
b) 18 Points
c)  4 Points
e) 87 Points
g) 10 Points
------------
  119 Points

At this time of the game, I thought, I will loose, because black leads with about 40 Points and it should be easy to defend this advantage. I won, because after that black played very week.

But my question: Up to this time where could I've played stronger? Where were my mistakes?

===

Your view is justificated but with a little bit wrong reasoning. Counting is erroneous. From my point of view situation is quite equal. It's all about how much W can destroy B area.

To make few ideas for your recalculation, please consider variations I present.]

(;W[kj]TR[hk]C[Stone at triangle (H9) would have worked better. This way W just gives B the wall he needs to get some real territory instead of imaginary one.

I end up my real game commenting here. I just make few fast notes still.

  - Aleksi];B[jj];W[ji];B[hj];W[kh];B[kg];W[lg]C[Bad move. Doesn't do anything. Except strenghtens black and loses aji.]
;B[lf];W[lh];B[ke];W[qc]C[Good idea! Very good. Now W uses his surrounding strenght. I just wouldn't be so hasty. First N18. Threats both the corner and one variation from move 64.]
;B[re];W[pc];B[rc];W[nc]C[This move shows, that White didn't want to live at corner, so going outside in would have been better.]
;B[oc];W[nb];B[ob];W[im]C[Corner isn't so big after all.

But this move K7 misses point. You considered area E as big, but still you want to make few points instead of taking E away. Try F10, C8, E10, G12. I mean try on board. See what are all the ways you can come up with to

1) connect your potential-territory-destroying stone to your own
2) put B to eat that stone and as a side effect you managed to crush into his area.]
;B[kk]
(;W[lk]C[What is this? Connect L10 to N10?];B[km];W[kl];B[jl]
;W[jm];B[ll];W[kn];B[fj]C[Now B is too modest. F7 is quite much bigger.]
;W[fl];B[cl];W[en];B[eo];W[fo];B[dn];W[ep];B[do];W[dq];B[cq]
;W[dr];B[em];W[fm];B[el];W[cr];B[bq];W[rf];B[oh];W[ph];B[ng]
;W[og];B[oi];W[oj];B[lc];W[mc];B[bc];W[bb];B[bd];W[ab];B[pb]
;W[rk];B[rl];W[rj];B[sl];W[rn];B[rm];W[ro];B[no];W[mo];B[oo]
;W[on];B[om];W[mn];B[ok];W[pl];B[mp];W[nq];B[mq];W[ij];B[ik]
;W[ii];B[hl];W[hh];B[kp];W[lp];B[ko];W[jo];B[kr];W[lq];B[lr]
;W[mr];B[hr];W[gs];B[hs];W[js];B[ln];W[lo];B[gn];W[fn];B[hm]
;W[go];B[in];W[jn];B[io];W[ip];B[hn];W[hp];B[pm];W[ql];B[qh]
;W[pi];B[qg];W[pg];B[oe];W[of];B[sg];W[sf];B[fb];W[ib];B[jb]
;W[cd];B[db];W[gb];B[fc];W[ec];B[eb];W[cb];B[ga];W[gc];B[ha]
;W[ia];B[ic];W[hb];B[fa];W[fh])
(;W[em];B[lj];W[li];B[ki];W[mi]
(;B[jh];W[cm])
(;B[dl];W[fk];B[fj];W[jh])))
(;W[ff];B[fe];W[ge];B[gf];W[de];B[ef];W[df];B[eg];W[cg]C[W did erase some E while took some 10 points at left. But this variations isn't over yet.

Where should B play next? F6 could be one (though probably not nearby best).]

(;B[fn];W[id]C[Now W utilizes aji at lonely lost W stone F14.]
;B[ie];W[hf];B[gg];W[je];B[if];W[jf];B[hg];W[jd]C[K17 does look like quite lonely. This variation is a little bit juicier if W has stone about N18
.])
(;B[mc]C[Maybe N17 to remove possibility for previous variation.]
;W[em]C[E7 destroys rest of central E.];B[dl];W[fg];B[eh];W[hf]
;B[gg];W[fh];B[hg];W[ck]C[w tests]
(;B[dk]C[Seems like B can't play this.];W[ei];B[dh];W[di];B[ch]
;W[ci];B[bi];W[bj];B[dj];W[bh])
(;B[dj];W[dk];B[ek];W[cl];B[dm];W[bj]C[Now B starts to have too many cutting points. So W did rob the left side.]
))))
(;W[qn];B[rj];W[ri];B[qm];W[rm];B[rl];W[pm];B[ql];W[om];B[rn]
;W[ro];B[sm];W[sj];B[sk]C[Seems to be a ko.]))
(;B[ne];W[mg];B[lf];W[lg];B[ng];W[nh];B[kg]
(;W[lh];B[kh];W[li];B[of]C[Very bad for W])
(;W[lh];B[of];W[kh];B[rj]C[And then B settles bottom right. Good for B too. Prospects to to get few point around K15.]
)))
(;W[mk]C[Real game variation did let this attack opportunity go away.]
;B[oj];W[oi];B[ok];W[mi];B[rj];W[ri];B[qn]C[B is more or less safe now, W has really valuable sente.]
))
(;B[ej]C[Compare B move 43 to this.
J17 would have been better too.]))
(;W[er]C[Might be better way to start attacking B.];B[dr];W[ep]
;B[dq]C[Now H3 can't connect underneath and W got good points around E7.

B have to jump to center (while W jumps at left too destroying left side) or fight life on bottom (while W makes sure he get sente, gets some thickness to attack B at bottom right).

H3 was mistake!];W[ci]C[W don't even have to be so eager to kill H3 at once. This move gives W possibilities to extend to either side.

Moreover it destroys good B #37.]
(;B[cg];W[cl])
(;B[ck];W[cg])))
(;W[pk]C[What is good for B after this?

Now W is using his strong group above and bottom.]
(;B[pl];W[rk]C[No way.])
(;B[ql];W[qn]C[Isn't B a little bit out of base while W gets even more territory?]
)))
