(;FF[4]GM[1]SZ[19]AP[SGFC:1.13b]

GN[alfalfa-kirkmc(B) NNGS]
EV[None]
PB[kirkmc]
BR[11k*]
HA[5]
PW[alfalfa]
WR[7k*]
KM[3.5]
DT[2000-03-17]
PC[NNGS Worldwide: nngs.cosmic.org 9696]
RE[B+8.5]
TM[600]
US[Brought to you by No Name Go Server]

AB[pd][dp][dd][pp][jj]C[Kirkmc - While I usually tend to be more agressive in handicap games, when I have 4 stones or more, for this game I decided to simply play as solid as possible, taking few risks.  I won, but would like to know if there was anything I could have done better.]
;W[nq];B[qn];W[ip];B[fq];W[fd];B[ee];W[he];B[dh];W[md];B[pg]
;W[hq];B[cm];W[fo];B[gp];W[pr];B[qq];W[no]C[a doesn't do anything.  It neither closes off your right side territory, nor puts any pressure on W.  Why not continue with b, keep W stones separate?]

(;B[on];W[hn]C[b has more potential for cutting, or just take the corner with c.]

(;B[ho];W[io]C[a gives W a free atari - don't like the shape.]
;B[gn];W[eq]
(;B[fp];W[dq];B[ep];W[cq];B[cp];W[bp];B[bo];W[bq]C[a is not needed to protect the cut.
b could be used to attack W on two sides or c or d or e.

After b see the three possibilities for W.  None work.]
(;B[co];W[fr];B[gr];W[es];B[gq];W[hr];B[go];W[gs];B[fe];W[gd]
;B[gg];W[mf];B[pj];W[ig];B[hh];W[qd];B[qe];W[qc]C[If you want to get reduce W top side, lean on W49 to make a wall to push from.  Don't make it easy for W to settle in the corner or for W to connect.]

(;B[ne];W[pc];B[od];W[oc];B[me];W[le];B[ld];W[nd];B[oe];W[lf]
;B[lc];W[nc];B[re];W[rd];B[ic];W[cd];B[ce]C[If the side territory is your goal, perhaps trying to destroy W's topside is inconsistent.]
;W[cc];B[dc];W[db];B[eb];W[cb]C[b let's you connect to J17 (any number of ways) making the W group afloat without any eyes.]

(;B[ec];W[be];B[cf];W[bf]C[You had to play something like b.  Even if W makes life you should get time later to play a.]

(;B[bg];W[gb];B[je]C[As you discovered later, making life here is tough now.]
;W[kh]C[Instead of the slow move at a, try b or c.]
(;B[ng]C[80 is really slow.];W[hf]C[Once W sealed the B group, there is very little chance of making life.  Better to play b or c]

(;B[hc];W[gc];B[hb];W[jb];B[jc];W[kb];B[lb];W[mb];B[ma];W[kd]
;B[kc];W[ke];B[jf];W[jd];B[id];W[ie];B[jg];W[jh];B[ih];W[kg]
;B[ge];W[hd];B[ga];W[fa];B[fb];W[ha];B[ea];W[ga];B[nb];W[mc]
;B[ob];W[pb];B[rb];W[oa];B[sd];W[sc];B[se];W[rc];B[qa];W[na]
;B[nn];W[mo];B[oq];W[nr];B[mn];W[hm];B[gm];W[hl];B[gl];W[gj]
;B[hk];W[gk];B[ik];W[bh]C[W can't get out.  Block at b]
(;B[ch];W[ag];B[bi];W[cg];B[dg];W[ci];B[bg];W[nf];B[ah];W[of]
;B[pe];W[pf];B[qf];W[qg];B[rg]C[:(];W[qh];B[rh];W[ri];B[qi]
;W[ph];B[rj];W[pi];B[si];W[og];B[af];W[ad]C[Don't see a way to kill W.]
;B[ba];W[bb]
(;B[bd];W[bc];B[da];W[ca];B[ab];W[ac];B[or];W[os];B[qr];W[lk]
;B[in];W[jn];B[im];W[jm];B[il];W[ln];B[oj];W[ni];B[oi];W[oh]
;B[nj];W[mj];B[mi];W[nh];B[mk];W[lj];B[ml];W[ji];B[ii];W[op]
;B[pq];W[ao];B[an];W[ap]C[You can play b.  The cut at B6 doesn't work.]

(;B[bm];W[ll];B[hg];W[if];B[oo];W[np];B[ps];W[ns];B[kj];W[ki]
;B[lm];W[km];B[mm];W[gf];B[ff];W[ed];B[eg];W[hp];B[ag];W[aa]
;B[ae];W[bd];B[lo];W[kn];B[lp];W[kq];B[lq];W[lr];B[kl];W[jo]
;B[kk];W[li];B[kr];W[mr];B[jq];W[kp];B[la];W[ka]
(;B[tt];W[jl];B[jk];W[ib];B[de];W[tt];B[tt])
(;B[jl]))
(;B[oo];W[bn];B[am];W[bm];B[al];W[bl];B[ak];W[bk];B[aj];W[bj]
;B[ai];W[cn];B[dm];W[dn];B[em]))
(;B[da];W[ca]))
(;B[ag];W[cg];B[ch];W[dg];B[eg];W[df];B[de];W[ef]))
(;B[hm])
(;B[mm]))
(;B[hm])
(;B[nj]))
(;B[gb];W[hb];B[hc];W[gc];B[fb];W[jd];B[jc];W[kh];B[bg]))
(;B[fc]
(;W[gc];B[gb]
(;W[ed];B[ec];W[hb];B[hc])
(;W[hb];B[hc];W[ga];B[fb];W[ea];B[ib];W[ha];B[ia]))
(;W[hc];B[hb];W[gb];B[gc];W[ib];B[hd])))
(;B[pc];W[re];B[qf];W[rf];B[rg];W[pb];B[ob];W[qb];B[nc];W[mc]
;B[mb];W[lb]))
(;B[fr]
(;W[bn];B[ao];W[co];B[cn];W[do]
(;B[dn];W[eo];B[bm];W[go];B[hp];W[fn];B[gm];W[fm];B[fl];W[gl]
;B[hm];W[el];B[fk];W[em];B[ek];W[dl];B[cl];W[dk];B[ck];W[dj]
)
(;B[eo];W[dn];B[dm];W[en]
(;B[fn];W[em];B[el];W[fm];B[gm];W[fl];B[fk];W[gl];B[hl];W[gk]
;B[gj];W[hk];B[ik];W[hj];B[hi];W[ij];B[ii])
(;B[em];W[fn];B[fm])))
(;W[co];B[cn];W[do];B[eo]
(;W[dn];B[dm];W[en];B[em];W[fn];B[fm])
(;W[fn];B[fm];W[dn];B[dm];W[en];B[em]))
(;W[ao];B[bn]))
(;B[jd])
(;B[hm])
(;B[pj]))
(;B[ep];W[fp];B[gq];W[dq]
(;B[cq];W[cp];B[co];W[cr];B[bq];W[br];B[bp];W[go];B[hp];W[gr]
;B[fr])
(;B[cp];W[cq])))
(;B[go];W[gn];B[fn];W[en];B[fm];W[eo];B[ep])
(;B[dq]))
(;B[ho]))
