(;FF[1]GM[1]SZ[19]EV[A game played on the Internet Go Server]
US[Brought to you by IGS]GN[aea-mwexler(B) IGS]RE[B+16.0]PW[aea]WR[25k]
PB[mwexler]BR[27k*]PC[IGS:  hellspark.wharton.upenn.edu 6969]DT[1994-03-19]
TM[5400]HA[2];B[dd]C[
Here is your game - unfortunately I cannot get the Commentary to work  with my version of MGT for Windows (version0.4) so I am going to have
to put my comments in here.

The main areas of development I see for you are to combine attacking play  with developing territory and to notice vulnerable connections and build
more solid walls.

q8 - I'd play either at R11 or Q7 so as to ensure territory

D18 - Bad move - to share the corner connect at D17 - E18 becomes  vulnerable

C15 - Play at D15 to be solid

E19 - To protect against this kind of invasion play moves to make solid
walls

R4 - Much better move here than D18

K10 - Good move attacking but also territorial

P4 - Watch for these vulnerable edge positions like S6 - players will often
watch for them

P7 - You had the same problem in this corner - as in other one - most
diagonal connections are vulnerable - you do get to make a wall in the
end but do it earlier - the wall you make then radiates influence up
the board

H3 - needs a response - G4 or J4 - you would then start to build a wall
here - also G4 then becomes less of a threat

G6 - This is too attacking - allows H6 - play H6 yourself - 3 stone walls  are much stronger - then hane

G10 - Notice how white builds a wall and then extends from it

F8 - excellant move - you both attack and build territory

J13 - again good move

L12 - better to strengthen K10 so white cant get around it - keep
white heavy here

C8 - the main tactical tasks here are to attack white so he doesnt
get eyes - to stop the centre group connecting - and to consolidate
territory in top right - E10 would be good here - it stops the eye  and you just keep white heavy

E19 - A better option is O19 which will kill the white group

Q19 - White saves his group !!

P13 - forgetting these vulnerable stones is the kind of mistake a lot of us  make !! and vow to never
make again !

C4 - a better place to invade - but still an overplay - is C3 - the 3/3
point is nerely alwys the most attacking place to invade.


In general terms I'd recommend that you focussed on good shape - Life
and Death by Ishi Press is quite good on this as is the second book
of Go.];W[tt]C[
 mwexler 27k*: We could start over for no handicap if you like.];B[pp]C
[
 aea 25k : is 2 ok for you?
 mwexler 27k*: aea two is fine by me.
 mwexler 27k*: aea is it ok for you?];W[dq];B[pc]C[
 aea 25k : Well, We'll both know soon :-)
 mwexler 27k*: Thats true.];W[co];B[qf];W[nq];B[jd];W[cf];B[pl];W[cc];B
[db];W[dc];B[ec];W[cd];B[ce];W[de];B[ee];W[ed];B[df];W[be];B[fd];W[ef];B
[fb];W[fe];B[gd];W[cb];B[gf];W[eb];B[ea];W[qq];B[qp];W[pq];B[ff];W[dg];B
[eg];W[rp];B[ro];W[rq];B[jj];W[qo];B[qn];W[po];B[op];W[rn];B[rm];W[so];B
[on];W[pn];B[qm];W[oo];B[no];W[np]C[
 mwexler 27k*: oops];B[pm];W[oq];B[nm];W[mo];B[kn];W[nn];B[om];W[kp];B[hp]
;W[iq];B[mn];W[ln];B[lm];W[mm];B[ml];W[mn];B[kl];W[nc];B[nd];W[ob];B[pb]
;W[kc];B[jc];W[jb];B[ib];W[kb];B[ld];W[lc];B[oc];W[mb];B[dj];W[hq];B[cm]
;W[gp];B[ho];W[go];B[gn];W[hn];B[in];W[hm];B[io];W[im];B[jn];W[gm];B[fn]
;W[gj];B[fp];W[fq];B[fo];W[gq];B[fl];W[gl];B[fm];W[hi];B[ig];W[fg];B[eh]
;W[gg];B[ge];W[ee];B[gh];W[hh];B[hg];W[ji];B[kh];W[ki];B[li];W[kj];B[kk]
;W[jk];B[ij];W[ii];B[jl];W[jm];B[km];W[ik];B[il];W[hj];B[hl];W[fk];B[gk]
;W[fi];B[fh];W[lj];B[lk];W[mj];B[mi];W[nj];B[oi];W[ni];B[nh];W[lh];B[mh]
;W[jh];B[kg];W[oj];B[pi];W[pj];B[qj];W[qi];B[qh];W[ri];B[rj];W[rh];B[qg]
;W[ci];B[cj];W[ek];B[dl];W[ei];B[di];W[ej];B[gi];W[hk];B[el];W[gl];B[gm]
;W[gk]C[
 mwexler 27k*: good save. could we go back a couple of moves and play that  over
 mwexler 27k*: I would like to see what happened again.
 mwexler 27k*: I will do the same moves.
 mwexler 27k*: I think so, but like I said, I will play the same,
 mwexler 27k*: so the outcome will be the same.
 aea 25k : you need to undo once more
 mwexler 27k*: Ah, now I see what I did wrong.
 mwexler 27k*: My next move was E8, right?];B[ch];W[bi];B[dh];W[bh];B[cg]
;W[bg];B[md];W[kd];B[ke];W[ia];B[ha];W[ja];B[hb];W[jg];B[jf];W[lg];B[kf]
;W[oh];B[ph];W[qk];B[rk];W[pk];B[ql];W[bn];B[bm];W[ep];B[eo];W[do];B[cn]
;W[bo];B[dn];W[ko];B[ca];W[ba];B[da];W[bb];B[nk];W[ok];B[ol];W[mk];B[nl]
;W[sm];B[sl];W[sn];B[sj];W[pa];B[mc];W[nb];B[qa];W[oa];B[qb];W[ip];B[bj]
;W[aj];B[ak];W[ai];B[al];W[dk];B[ck];W[og];B[ng];W[nf];B[of];W[mg];B[ne]
;W[oe];B[pf];W[od];B[mf];W[ng];B[lf];W[pd];B[qd];W[an];B[am];W[jo];B[af]
;W[ae];B[df];W[rg];B[rf];W[dg];B[la];W[ma];B[df];W[me];B[le];W[dg];B[cp]
;W[dp];B[df];W[sf];B[dg];W[re];B[qe];W[rd];B[rc];W[rb];B[sd];W[ra];B[pe]
;W[bf];B[er];W[dr];B[eq];W[bp];B[ih];W[pg];B[se]C[
 aea 25k : this has been quite a battle!
 mwexler 27k*: Yes, but it is almost over.
 mwexler 27k*: I think two stones was about right.];W[tt];B[tt]C[
 mwexler 27k*: Now you need to remove a dead group
 aea 25k : I have tried one of each color
 mwexler 27k*: What does it say?
 aea 25k : nada
 mwexler 27k*: in GOE rules.
 mwexler 27k*: Either that or try pass.])
