(;FF[4]GM[1]SZ[19]AP[SGFC:1.13b]

GN[yokota-slawek(B) IGS]
PB[slawek]
BR[10k*]
PW[yokota]
WR[9k*]
KM[0.5]
DT[2000-04-30]
PC[IGS:  igs.joyjoy.net 6969]
RE[W+Resign]
TM[60]
US[Brought to you by IGS]

C[Hi My name is Slawek Piela I come form Poland.
This game was fairy close up to the move 245 which was  a stuppid blunder on my part.   I marked moves I would appreciate comment on (other comments are certainly more than welcome).

Thanks in advance for your time.];B[pd];W[dp];B[pq];W[qo];B[op]
;W[ql];B[kq]LB[qp:A][qj:B]C[Is there a dander of invasion at N3?
---
Theoretically perhaps.

However, if white invades now the result will be horrible for
white so white won't do that.

L3 is playable here and is probably a joseki.
For example, M3 is inferior because it concentrates
your stones too much in the beginning. N3 would be
of course totally awful.
Other possibilities are for example R4 [a\] to
secure the corner and pressurize the white group, or
R10 [b\] to attack the white group immediately and inhibit
it from developing upwards. K3 is also very plausible and
is faster than L3.];W[dc];B[de];W[ce];B[cf];W[cd];B[df];W[gc]
;B[cj];W[qf];B[qi]TR[pd][qi]LB[kc:A]C[I wouldn't probably play a pincer here.

A rule of thumb says that play pincer when you already
have an extension, otherwise not.  That is, if you had
a black stone around L17 [a\] pincer would be more effective.
Now you are in the danger of creating two weak groups
(marked stones) during fuseki which is considered bad.

The pincer stone is weakened by the white group below
which is not so weak.]
(;W[rd]LB[of:A]C[White could have jumped out to P14 [a\] to separate
the two black groups.  Black would probably defend
the corner, after which the R11 stone would start
to seem dubious.  See the variation.];B[pf]C[This attachment could harm the R11 stone.
Remember that attaching stones makes them strong!
Do you want the white group here to grow strong
and separate the R11 stone from other black stones?];W[pg];B[qe]
LB[of:A]C[I have doubts now about this move. White answered the way I expected but he probably didnt have to ...
---
It would be natural for white to atari at P14 [a\] first.];W[re]
;B[qg];W[rf]
(;B[og]LB[ph:A]C[Why not play this atari at Q12 [a\]?

See the variation.

I consider this to be a bad move.];W[ph];B[oh];W[pi];B[oe];W[pc]
C[It would be more urgent for white to play the big point
near L17 to erase black's influence here.
Black would look overconcentrated.];B[oc];W[pb];B[jc];W[cn]

(;B[cq]TR[cn]C[In this situation black cannot expect
to live unconditionally.  The C6 stone (marked)
makes it necessary for black to play ko here.
See the variation in the next node.

Here D3 is common.  See the variation here.

Anyway, invading the corner could be premature here.
If you succeedin living, white gets massive thickness
outside, terribly limiting black's potential on the bottom.]
;W[dq]
(;B[bp]C[D2 should be probably played here.
See the variation.];W[bo]LB[cr:A]C[I think white should have played C2 [a\].]
;B[br];W[dr]
(;B[cr]C[Would A3 make the corner alive?
Anyway what was the proper way to invade (my objective was to live in the corner)
---
See the previous comments.  To live in the korner should require a ko.
But you don't need to live in the corner.  One option is to threat
to invade the corner and then actually take territory on the
bottom.  The D3 play is not as strong invasion as C3 because
white can still get the corner, but in exchange black gets
nice shape towards right.

Regarding A3, see the variation.];W[aq];B[hq];W[cp]C[Probably a wasted move.
I can't see a way to escape or live even
before C4.];B[oi];W[pj];B[qp];W[rp];B[rq];W[ro];B[ge];W[ob]
;B[nc];W[je];B[fc];W[ec]LB[fb:A]C[Bad move.  White should try to keep the G17 stone connected
because that would help the K15 stone also,
which is floating in the sphere of black's influence.
Underneath hane at F18 [a\] would be natural instead
of the text play.];B[fb];W[fd];B[gd];W[fe];B[ff];W[ed];B[hc]
C[This result is very bad for white.   Black played well and white stumbled.
The K15 stone is helpless and the G17 stone was
completely wasted.];W[eb];B[gb]LB[on:A]C[At this point I was affraid of W R15 escaping and leaving me with no territory in the middle which seemed to be my only hope .  Thats why I cut the ikken tobi that followed but it looks like I didnt get the most of my framework...
---
Let's count.

White's upper left corner: 15 points.
White's right territory, including upper corner: 40 points.
White's lower left corner: 20 points.

Black's bottom territory: 30 points.
Black's territory at the top: perhaps 20 points.
Black's territory on the left: 15 points.

So it looks like 75(white) agains 65 (black), when we didn't
count at all the potential territory around K15, and not the fact
that if black gets to play P6 [a\] before white, black's potential
on the bottom gets large.

Overall, black has much more influence towards center
and thus should win the game even if K15 would escape.];W[jg]
LB[gh:A]C[At this point, black's needs calm grand-scale judgement.
The most important things are:

1 - do not let the white group escape
2 - do not attack it too hastily so that you left
weaknesses behind

If the group does not escape, one of the following happens:
1 - the group dies
2 - it lives very small, and black gets huge profit.

I could start by playing at G12 [a\], both attacking the
white group on the large scale and claiming territory on the left.

Cutting at K14 (as happens next)
is premature.  As a result the white group
is likely to grow stronger.];B[jf];W[kf];B[if];W[le];B[kg];W[lg]
;B[kh];W[lh];B[ki];W[li];B[mf];W[lf];B[kj]C[I am planing to take LC.]
;W[lj];B[lk];W[nj];B[oj];W[mk];B[pk];W[qj];B[qk];W[rj];B[nk]
;W[nl];B[ok];W[ll]C[Any ideas for better handling this sequence (from move 81 on)?
---
Probably nothing significant.  The problem here is that
you tried to kill the white group too speedily, forcing
it to escape.  If you had surrounded it from a distance,
it would have had to live locally and would have had much
smaller effect overall.

As a bonus, living locally in the center is difficult and
white could have died still.];B[kk];W[ej]C[There goes my LC ...
One idea was e9 but I didnt really know how to continue...]
;B[cl];W[el];B[dm];W[gl];B[fk];W[ek];B[fl];W[fm];B[gm]C[I am a little bit ashamed to admit but I misread the ladder  (ensuing after B e7).
---
That happens sometimes...];W[em];B[gk];W[gj];B[hl];W[fj];B[mm]
;W[ml];B[lm];W[kl];B[km];W[jl];B[jm];W[il];B[im];W[hk];B[ik]
;W[gl];B[hm];W[jk];B[ih];W[ij];B[pl];W[rk];B[qm];W[rl];B[rm]
;W[pm];B[pn];W[om];B[qn];W[po];B[on];W[oo];B[no];W[nn];B[nm]
;W[sm]C[This was a nice save from white.];B[ol];W[sn];B[np]
;W[ci];B[bi];W[ch];B[bh];W[bf];B[bg];W[be];B[cg];W[dj];B[ck]
;W[iq]C[???
This stone must die.];B[hp];W[hr];B[gr];W[jr];B[kr];W[ip];B[fq]
;W[ho];B[go];W[jo];B[nb];W[na];B[ma];W[oa];B[mb];W[qd];B[bm]
;W[gp];B[gq];W[gn];B[fo];W[fn];B[hn];W[io];B[er];W[eo];B[fp]
;W[ds];B[hs]LB[fs:A]C[It is unnecessary to play the ko. Living with
F1 [a\] would be enough.];W[is];B[ir];W[hg];B[ig];W[hr];B[fs]
;W[gs]C[I guess I did not have any threats big enough .. right?
---
Playing the ko at all was a big mistake.  Now you are in problems.]
;B[es];W[eq];B[hs]
(;W[ji]LB[ie:A]C[This looks quite small threat (around 14 points),

There exists a much better ko threat nearby, namely
at J15 [a\].  See the variation in the previous node.];B[ir]
;W[jh]C[:(];B[dn];W[ap];B[bq];W[ar];B[do];W[co];B[an];W[bs]
;B[kd];W[ke];B[ld];W[pe];B[od];W[of];B[me];W[ie];B[hf];W[sq]
;B[sp]C[THis throw in won't be useful.];W[so]LB[rn:A]C[Now, as a result of the throw-in, you can no longer
play T2 [a\] because a ko will result.
Without the throw-in there wouldn't be a ko.
If you wanted to prevent an eye forming at T5,
you could have done the layer by playing S6 [a\].];B[rr];W[hr]
;B[gs];W[fh];B[ii];W[jj];B[gg];W[gh];B[dh];W[di];B[eg];W[eh]
;B[nf];W[pf];B[id];W[dg];B[hh];W[fg];B[dh];W[cm];B[dl];W[dg]
;B[ao];W[cs];B[al]LB[ef:A]C[If black connected bere by playing at E14 [a\],
there wouldn't be any problem with the group's liveness.];W[ef]
;B[gf];W[bn];B[bl]LB[bk:A]C[here it goes...
---
Yes, of course you should have played one intersection
above, at B9 [a\].
Then B8 would have been definitely an eye.];W[aj]C[There it goes.

Was there a way to pull it out ?
---
Yes, and an extremely simple and effective one.

Get back to move 241 and look at the comment.

Anyway, here playing at A13 gives seki.];B[ag];W[ai];B[ee]LB[bj:A]
C[Should connect first at B10 [a\].
Here white could play it and play ko to kill the group.
If black connects, a seki results.];W[eg]LB[bj:A]C[Black MUST connect at B10 [a\].
See the variation.]
(;B[ak]C[Mistake! You CANNOT allow white to play at the
cutting point because then the position is no longer seki.
See the variation.];W[bj];B[ea];W[da];B[ca];W[fa];B[cc];W[bc]
;B[cb];W[bb]C[Here I resigned.
---
Yes.

Curiously enough, if the left black group would have lived
the game would have been very close.

* * *

This game was reviewed by Antti Huima, Finnish 3-kyu.])
(;B[bj];W[ak]C[This way, it is seki.]))
(;W[ie];B[gs];W[hf]TR[jf][if][ih][ig][lk][kg][kh][ki][kj][kk]
C[How does black escape now with the marked group?]
(;B[hi];W[gi]
(;B[hh];W[gh]
(;B[he];W[gg])
(;B[gg];W[he]))
(;B[gh];W[hh];B[he];W[ii]))
(;B[gi];W[hh];B[hi];W[ii];B[jh];W[he])
(;B[hh];W[gh];B[gg];W[he];B[gi];W[fh];B[fi];W[ei];B[hi];W[eg]
)))
(;B[aq];W[cr];B[cp]C[Now white has two options, either keep black inside
by plaing C5 in sente, or try to kill by playing B1.

White missed something previously because black should
be dead by now.];W[bs];B[co];W[bn];B[do];W[en];B[dn];W[dm];B[eo]
;W[fn]C[This gets dangerous.
White wouldn't probably want to play like this;
the D2 group is getting swallowed.]))
(;B[dr];W[er];B[br];W[ds];B[cs]TR[cn]C[This is the way to live in the korner.  It involves a ko.
When white has played the C6 stone (marked)
you need to win a ko to live in the corner.  Living unconditionally shouldn't be possible.]
))
(;B[dq]
(;W[cq]C[White plays here to keep the corner.
In this case, no corner invasion will actually happen.
But that's not necessarily bad! See the continuation.];B[eq]
;W[cr];B[fo]C[This way black claims large territory on the bottom.]
)
(;W[eq]C[White can also hane from the outside if white wants
to keep black confined to the corner.];B[cq];W[er];B[bo]C[Black should live here.]
)))
(;B[ph];W[og];B[qc]C[Now the R11 group has a meaning and the P13
cutting stones are dangerously floating.]))
(;W[of];B[nc];W[rd];B[qc];W[oi]))
