(;FF[4]GM[1]SZ[19]AP[SGFC:1.13b]

GN[slawek-jptrias(B) NNGS]
EV[None]
PB[jptrias]
BR[7k*]
PW[slawek]
WR[7k*]
KM[3.5]
DT[2000-06-07]
PC[NNGS Worldwide: nngs.cosmic.org 9696]
RE[W+8.5]
TM[600]
US[Brought to you by No Name Go Server]

;B[pd];W[cp];B[qp];W[op];B[dc];W[de];B[eq];W[iq];B[eo];W[dn]
;B[cq];W[dp];B[dq];W[ep];B[fp];W[fo];B[go];W[fn];B[gp];W[lq]
;B[pn];W[qq];B[rq];W[pq];B[qj];W[ro];B[rp];W[qo];B[po];W[pp]
;B[rn];W[qf];B[qh];W[of];B[nd];W[qc];B[qd];W[oc];B[pc];W[od]
;B[pe];W[oe];B[pf];W[pg];B[qg];W[pb];B[qb]C[maybe w quit too soon in this fight]

(;W[ec];B[dd];W[ed];B[ce];W[cf];B[ee];W[df];B[eb]C[I would block]

(;W[fe];B[fc];W[fd];B[gc];W[db];B[cb];W[cd];B[cc];W[be];B[gn]
;W[fm];B[nn]C[how about this]
(;W[hc]C[but what if b just did this]
(;B[gd];W[ge];B[hd];W[ic];B[id];W[jd];B[jc];W[fb];B[da];W[gb]
;B[je];W[kd];B[ie];W[jb];B[dj];W[fj]C[b can probably fight like this]

(;B[ef];W[eg];B[ff];W[gf];B[fg];W[gg];B[fh];W[gh];B[fi];W[gi]
;B[ei];W[ej];B[dh];W[ci];B[di];W[ch];B[cl];W[bk];B[cj];W[bj]
;B[el];W[fl];B[ek];W[fk];B[dm];W[cn];B[em];W[en];B[dg];W[ck]
;B[mp];W[mq];B[np];W[nq];B[kp];W[kq];B[jp];W[jk];B[gj];W[hk]
;B[hj];W[ij];B[ke];W[ld];B[me];W[le];B[lf];W[kf];B[ih];W[ii]
;B[lg];W[jf];B[if];W[nc];B[mc];W[md];B[kc];W[ne];B[kb];W[ib]
;B[ha];W[hb];B[mb];W[lc];B[lb];W[mf];B[ja];W[mg];B[lh];W[ka]
;B[la];W[ia];B[fa];W[ka];B[ea];W[nb];B[ja];W[rd];B[rc];W[ka]
;B[dk];W[cm];B[ja];W[qe];B[qc];W[ka];B[cg];W[bg];B[ja];W[sc]
;B[re];W[ka];B[bi];W[bh];B[ja];W[qa];B[rf];W[ka];B[af];W[bf]
;B[ja];W[qn];B[qm];W[ka];B[hh];W[hi];B[ja];W[rm];B[so];W[ka]
;B[jq];W[ma];B[kr];W[lr];B[jr];W[or];B[lk];W[li];B[mi];W[mh]
;B[ki];W[kh];B[lj];W[kg];B[li];W[jh];B[ji];W[lp];B[lo];W[mo]
;B[no];W[oi];B[oj];W[io];B[ip];W[pi];B[pj];W[kn];B[ln];W[im]
;B[jn];W[jm];B[km];W[kl];B[lm];W[ll];B[ml];W[qi];B[ri];W[ni]
;B[nj];W[bq];B[br];W[bp];B[ra];W[in];B[jo];W[gm];B[hn];W[ig]
;B[jg];W[ab];B[bb];W[ad];B[bc];W[ac];B[ba];W[bd];B[qr];W[pr]
;B[qs];W[ps];B[rr];W[ho];B[hp];W[ar];B[bs];W[ls];B[oo];W[ks]
;B[js];W[hg];B[jh];W[kk];B[og];W[ng];B[oh];W[nh];B[ph];W[jj]
;B[hm];W[hl];B[pa];W[ob];B[oa];W[na];B[qa];W[ga];B[hf];W[gk]
;B[cr];W[aq])
(;B[eh];W[ef];B[gh]))
(;B[fb]))
(;W[fb];B[da];W[gb];B[hc];W[hb];B[ic];W[ib]C[looks like w can fight ok here]
))
(;W[fb];B[db];W[fc]))
(;W[rc];B[ob];W[pa];B[qa];W[rd];B[oa];W[pb];B[pa];W[qe];B[pb]
))
