(;FF[4]GM[1]SZ[19]ST[0]AP[SGFC:1.13b]VW[]

GN[barber-Crazyd(B) IGS]
PB[Crazyd]
BR[NR]
HA[0]
PW[barber]
WR[6k*]
KM[5.5]
DT[2000-05-29]
PC[IGS:  igs.joyjoy.net 6969]
RE[W+10.5]
TM[1200]
US[Brought to you by IGS]

C[hi David

if you have problems with the file (MFG) or if you have further
questions please contact me.

franz];B[pd]C[the fuseki is quite normal];W[cp];B[pp];W[dc]
;B[ep];W[eq]C[this joseki works good with blacks hoshi, so a pincer looks better]
;B[fq];W[dq];B[gp];W[cn];B[kq];W[qn];B[ql];W[qq];B[pq];W[qp]
;B[po];W[qr];B[pn];W[rn]
(;B[pr];W[jd];B[de];W[dh]
(;B[be]
(;W[fd]LB[cc:x]C[still good];B[ed];W[ec];B[fe];W[gd]C[white gets secure territory]
;B[ge];W[hd];B[fh];W[dk];B[fk];W[hn]LB[hi:x][ig:x][qj:x][nc:x]
[ko:y]C[i can not see the idea behind this move?

a test like y seems good

the x and a itself are moves i would think about, but it is difficult
for me to say what is the best];B[fn];W[jn]LB[ko:x][kn:x]C[this is a little bit to slow, if white becomes heavy  black can
attack and make territory

x are better];B[io]
(;W[jo];B[jp];W[ln];B[in];W[kl]C[it is a shame to can not block at a]
;B[im];W[ml];B[dl];W[cl];B[ck]C[there are some possibilities]

(;W[dm];B[dj];W[bk];B[cj];W[bj];B[bl]
(;W[cm]C[hit the black stone];B[bi];W[bm];B[ek];W[nc]C[the game is close, but white has still a  weak group so he must
be careful];B[nd];W[md];B[oc];W[ne];B[od];W[mc];B[pf]
(;W[rl]C[this helps black to make territory on the side]
(;B[qk];W[rk]
(;B[qm]C[bad];W[ri];B[rg];W[nb];B[ob];W[oa]C[there is no hurry]
;B[pa];W[na];B[qb];W[if]LB[hg:x]C[right idea
makes white territory
reduces black
helps the white middle group];B[mo];W[ps];B[os];W[qs];B[nr]
;W[er];B[fr];W[fs];B[gs];W[es];B[hr];W[lo];B[lp];W[mn];B[nn]
;W[nm];B[on]
(;W[hg]C[it is hard to say which one is bigger];B[jk]
(;W[kk]C[drives black into the white area];B[jj]
(;W[fg];B[gh];W[gg];B[eg];W[hh];B[hi];W[ii];B[hj];W[jl];B[il]
;W[ng];B[ki]C[this move hits white bad];W[kg]
(;B[lh];W[mj];B[lg];W[lf];B[kf];W[jg];B[mf];W[le];B[nf]
(;W[me];B[of];W[ol];B[pl];W[bc];B[bd];W[cd];B[ce];W[al];B[ai]
;W[rh];B[qg];W[fm];B[gm];W[en];B[fo];W[sg];B[sf];W[sh];B[rf]
;W[oj];B[ac];W[ab];B[ad];W[bb];B[dd];W[cc]C[not so big (1,5 sente)]
;B[rm];W[sm];B[qo];W[ro];B[qj];W[rj];B[ni];W[nj];B[oi];W[mi]
;B[mh];W[ph];B[pi];W[qh];B[oh];W[pg];B[og];W[el];B[fl];W[dk]
;B[em];W[dl];B[fm]
(;W[ef]LB[ci:x]C[good tesuji but x is better];B[dg];W[ff];B[df]
;W[ee];B[jm];W[km];B[ij];W[dp];B[eo];W[aj];B[ci];W[ko];B[ih]
;W[jh];B[ji];W[kp];B[mq];W[oe];B[pe];W[dn];B[lj];W[lk];B[om]
;W[ok];B[do];W[co];B[ii];W[ig];B[li]C[white wins])
(;W[ci]C[i see no way for black to win]
(;B[di];W[ch];B[bg];W[eh];B[fi];W[cg];B[dg];W[bh];B[ah];W[aj]
;B[ag];W[bf])
(;B[ch];W[di];B[ej];W[bg])))
(;W[cd]C[is bigger]))
(;B[nk];W[nl];B[ok];W[lm]C[white is alive but there is some aji]
))
(;W[jl];B[il];W[hj];B[hk];W[gh];B[fg];W[fi]C[reduces black territory]
;B[ei];W[li]))
(;W[lj]))
(;W[ik]C[may be better]))
(;B[rj]))
(;B[rk]C[black should make territory];W[qk];B[qj];W[pk];B[rj]
;W[pl];B[pj]C[black is ahead]))
(;W[qj]C[i think it is necessary to play like this]))
(;W[el];B[bm];W[bi];B[cm];W[dl];B[bn];W[do];B[bo];W[ej];B[co]
;W[eo]))
(;W[cj]
(;B[bk];W[bl];B[dj]
(;W[ek];B[ej];W[el];B[ci];W[bj];B[bi];W[ak];B[di]C[better then in the game]
)
(;W[bj];B[ek];W[ak]C[i think this is the best result for white]
;B[ci];W[di];B[ch];W[dk];B[ck];W[cg]))
(;B[cm];W[bk]
(;B[bl]C[not possible];W[dm];B[ck];W[el])
(;B[bm];W[dm];B[dn];W[el];B[co];W[do];B[bn];W[en];B[bp];W[eo]
;B[cq];W[dp];B[cr];W[fr]C[equal])))
(;W[dj];B[cm];W[bl];B[bm];W[dm];B[el]
(;W[bk];B[dn]
(;W[am];B[bn];W[bo];B[co];W[an];B[em]C[is ok for white, black was allready strong]

(;W[do])
(;W[bp]))
(;W[bn];B[am];W[bi]C[possible but not so good]))
(;W[bn];B[bk];W[am];B[ci]C[very big for black])))
(;W[jl]C[is better sharp]))
(;W[cd];B[dg];W[ch]C[white should take blacks base]))
(;B[cc]LB[ec:y][dd:x]C[Black is under pressure so he has to settle his stones quickly

x or y is also possible]))
(;B[jd]C[looks bigger]))
