(;FF[4]GM[1]SZ[19]ST[3]AP[SGFC:1.13b]

GN[kono-gromit(B) NNGS]
EV[None]
PB[gromit]
BR[NR]
PW[kono]
WR[3k*]
KM[0.5]
DT[2000-06-16]
PC[NNGS Worldwide: nngs.cosmic.org 9696]
RE[B+5.5]
TM[720]
US[Brought to you by No Name Go Server]

C[I'm gromit, Black and should have lost this game];B[qd];W[pq]
;B[dc];W[dp];B[ce];W[jc]C[a negative move];B[hc]C[its always a difficult question in these positions from which  side to pincer. I think this is the right one]
;W[mc]
(;B[oc]C[is q17 better?
no i think its the right move
it puts the most pressure to the white group];W[qi]
(;B[qg]C[no, this move is to narrow
take a look at the position now
black is restricted to the two corners while white has  already established a position in blacks sphere of influence
(even if this group is still attackable as shown in the var.)
white also has now the possibility to make another move to  enlarge his moyo at the bottom
i would have played something like the variation]
(;W[ql];B[cn];W[fp];B[dj];W[iq]
(;B[ie]C[I didn't know how to attack this group, is it too early?  direction?
this is no attack!
first you have to rob the group off its base!(as already  shown in the very first variation)
now white is able to build a base

I would try to reduce the white moyo
imagine a white move on the center star point
this would reduce blacks cornerframework and enlarge  whites moyo]
;W[em];B[dl]C[I think my answer is a little slow, as the corner is still open  I should have played somewhere else, but where? n15?
u are right  there is no need to play this move as the black stone has  still two directions to develop left ( the corner or the edge)
so i would play the reducing sequence i showed last move];W[fk]
C[this is bad i think as the moyo is too open for reducing and  black already has a lot of actual territory
so a move in the corner is better];B[oo]C[is this a standard move? i havent seen it before
as black has already a lot of territory he can reduce the  white moyo lightly with a keima or shoulder hit in the  middle of the lower edge
this move seems to be quite heavy];W[np];B[qo]C[ohps
you like "heavy metal" dont you ?
you must not always try to destroy all the opponents  framework
this to stones are just an aim to attack for white as they  havent any eyes]
;W[qp]C[good move];B[ol]
(;W[ro]C[no, this is bad as black has no base here anyway]
(;B[qn]C[too heavy];W[rn]C[this and the last two moves are all too slow
black has to try to escape fast and lightly from whites moyo
white has to try to attack the stones on a large scale];B[qm]
C[no comment];W[rm];B[pl];W[qk];B[oi];W[no]
(;B[fi]C[so far, I'm pretty happy with the result, is that a wrong  estimation?
no, u are right
black seems to lead in territory ( remind that the lower left  is not at all whites territory ) and whats more important  black has a weak white group at the top to aim at
(I even would have done this with the last move!)];W[oj];B[nj]
;W[pj];B[nk];W[ob]C[difficult move but i think it dont work here as black is strong  in the center]
;B[nb]C[should I only q18 and after o18 jump to m7?
i also would have played your move
i always give my opponents the possibility to show me  there preperated tesujis and here i think there is no one]
;W[nc];B[pb];W[od];B[pc];W[mb];B[oa];W[hb];B[ib]C[I'll give too much here :(
no its a good move
white has no base];W[ic];B[gb];W[hd]
(;B[gc];W[id];B[gd];W[he];B[gf];W[ge];B[fe];W[hf];B[gg];W[mm]
C[my moyo has shrunk, white is strenghtened and I'm gote,  not good...
yes
the corner is the biggest now]
(;B[kk];W[bo]C[good]
(;B[bn]C[should I plunge in W moyo instead?
yes you have to try something there];W[ll];B[jl];W[lk];B[lj]
;W[kj];B[jj];W[ki];B[li];W[kh];B[lh];W[kg];B[hi];W[pg];B[ph]
;W[qh];B[og];W[pf];B[of];W[qf];B[oe];W[ne];B[pd];W[ik];B[ij]
;W[jk];B[hk];W[il];B[hl];W[im];B[hm];W[in];B[hn];W[fm];B[gj]
C[may be too slow but else I have to give up a bit of my big corner to save my stones, right?]
;W[gp];B[cq];W[cp];B[eq];W[dq];B[eo];W[fo];B[bq];W[an];B[dr]
C[I chose to exchange because I still hope to take e7...];W[er]
;B[cs];W[fq];B[br];W[al];B[bk];W[ak];B[ho];W[ip];B[en]C[so I take e7 but lose more on the border :(]
;W[ep];B[io];W[jo];B[fn];W[bj];B[bi];W[ai];B[bh];W[ah];B[ag]
;W[aj];B[bg];W[ck];B[cj];W[bl];B[dm];W[re];B[rd];W[sd];B[sc]
;W[se];B[rg]C[I'm not sure it worked...];W[rf];B[rb];W[jb];B[hp]
;W[hq];B[ha]C[actually I think I'm about 15 points behind :(]
;W[mf];B[nd];W[md];B[lg];W[lf];B[op];W[oq];B[nn];W[mn];B[ig]
;W[if];B[nf];W[mg];B[mh];W[on];B[po];W[nl];B[ok];W[es];B[ds]
;W[dk];B[ek];W[od];B[pe];W[cl]C[that's why I win this lost game...]
;B[rh];W[ri];B[qe];W[el];B[ej];W[bm];B[gn];W[hg];B[hh];W[ih]
;B[ka];W[ja];B[ma];W[kb];B[la];W[lb];B[na];W[ii];B[om];W[nm]
;B[mk];W[ji];B[nd];W[dn];B[do];W[od];B[bp];W[co];B[nd];W[hj]
;B[me];W[le];B[ij];W[ia];B[ap];W[ao];B[hb];W[ne];B[ng];W[od]
;B[sh];W[si];B[sf];W[nd];B[pi];W[pk];B[pm];W[ml];B[ni];W[jj]
;B[hj];W[pp];B[dn];W[nn];B[tt];W[tt])
(;B[jo];W[kp];B[ko];W[lp];B[hp];W[hq];B[bn]))
(;B[cq]C[only move i think]))
(;B[ha];W[gc];B[hb];W[fc];B[fb]C[what should white play now ??]

(;W[jb];B[id])
(;W[id];B[kb]C[white is open for attack now])))
(;B[kb]))
(;B[pj];W[qj];B[pi]C[this is a fantastic result for black as he now can really aim  to atack the white group above]
;W[po];B[pn];W[qn];B[kb]))
(;W[oj];B[pk];W[rj]C[looks more interesting i think, even i suppose no  professionell player would play such a shape
but it tries to keep up the pressure on the black group]))
(;B[ie];W[hb];B[gb];W[ib];B[gc];W[ke]C[white is settled and black can not aim for a attack]
)
(;B[jp];W[jq];B[kp];W[lq];B[mo]C[something like this perhaps]
))
(;W[jp]C[this is a larger move I think];B[po];W[pl]))
(;B[fq]
(;W[ip];B[fo];W[dn];B[dr];W[cq];B[ir];W[cj];B[po]C[this also seems to be good for black]
)
(;W[cn]C[this is bad as the left side is quite uninteresting]
;B[dr];W[cq];B[iq]C[and white can not hope of building a moyo anymore]
)))
(;B[oc];W[qo];B[kb]C[this is the kind of move black can aim at later on when he  has build some strength in the center]

(;W[jb];B[mb];W[nb];B[lc];W[ma];B[lb];W[nc];B[le])
(;W[kc];B[jb];W[lb];B[ic];W[lf])))
