(;FF[4]GM[1]SZ[19]AP[SGFC:1.13b]

GN[sita-star1000(B) IGS]
PB[star1000]
BR[2k*]
PW[sita]
WR[2k]
KM[5.5]
DT[2000-05-29]
PC[IGS:  igs.joyjoy.net 6969]
RE[B+9.5]
TM[60]

;B[pd];W[op];B[dd];W[dp];B[jd];W[cf];B[ch];W[cc];B[dc];W[cd]
;B[de];W[bf];B[eg];W[iq]C[sita: This does not seem to be the best move, but I have not a good clue what to do in such an opening, so I try something out...

klin: Righ side, say Q10, may be better.];B[qn];W[qp];B[pj]
;W[nc];B[oc];W[nd];B[ld];W[pe];B[od];W[oe];B[ne];W[qd];B[ob]
;W[qc];B[nb]C[sita: Again, I am not satisfied with the result.

klin: W is OK.];W[he];B[qg]C[klin: B 31 should respond to w 30.]
;W[qf];B[pg];W[hc]C[klin: W 34 big.  H13 is more conservative.]
;B[hg];W[jb]C[klin: W 36 at F17 better];B[gb];W[je]C[klin: W 38 not good.  W is difficult here.  Maybe W 34 should have played at B 35.]
;B[ke];W[jf];B[id];W[hd];B[ie];W[hf];B[if]C[klin: W ver bad now.  38, 40 look like gifts.]
;W[gg];B[gh];W[fe];B[df];W[hh];B[ig];W[fg];B[fh];W[ef]C[klin: W 54 should be reserved.]
;B[dg];W[hb];B[gc];W[lb];B[mc];W[gd];B[hi]C[sita: I had a bit luck, but it seems that the position is favourable for me now, but...

klin: B leads now.
klin: B 61 a little bit slow.  Could play at C6.];W[nn]C[sita: Overplay?

klin: No.  W 62 can play at P7.  If B responds at Q8, W can  play around K6.]
;B[jp];W[ip];B[jo];W[jm]C[klin: W 66 too strong.  Later you can see 66 looks like an orphane.]
;B[io];W[kq]C[sita: Questionable!?

klin: W 68 should L2.];B[jq];W[jr];B[lp];W[mq]C[klin: B has L2 cut now.]
;B[ln];W[gp];B[go];W[ho]C[klin: W 76 help B.  Should F4.];B[hn]
;W[hp];B[fo];W[fp];B[eo];W[ep];B[cn]C[sita: Argh, what did I do? I was happy to get my 4th line territory, but didn't see the huge territory, he got. Was there an alternative?

klin: The problem was 76. (and 68 before that)];W[in];B[hm]
;W[lm];B[mm];W[mn];B[km];W[ll]C[klin: W 90 at L6 better.  B M8, W M5.]
;B[kn];W[kl];B[im];W[jl];B[jn];W[nl];B[bp];W[bh];B[bi];W[cg]
;B[ci];W[ik];B[hk];W[cq]C[klin: W 104 small, should R8 invade.]
;B[of];W[rg];B[rh];W[rf];B[ra];W[rb];B[qa];W[ri];B[sh];W[qh]
C[klin: W 114 could R11 fighting.];B[qi];W[nf];B[md];W[og];B[ph]
;W[pf]C[klin: Now B right side solid.];B[om];W[nm];B[rp];W[rq]
C[sita: I wanted to hane at the other side, but it does not seem to be possible.

klin: W 124 the only way.];B[ro];W[sq]C[klin: W 126 small. C18 & B3 bigest.]
;B[bq];W[ai];B[aj];W[ah];B[bk];W[pl];B[ql];W[pm];B[qm];W[pk]
;B[qk];W[br];B[ar];W[cr];B[qq];W[pq];B[qr];W[rr];B[nq];W[oq]
;B[lq];W[lr];B[kp];W[kr];B[mp];W[mr];B[np];W[nr];B[qo];W[pp]
;B[ce];W[be];B[cb]C[klin: B 159 big.

klin: No comment beyond this point.];W[bb];B[bc];W[bd];B[ba]
;W[ac];B[eb];W[fc];B[fb];W[co];B[bo];W[do];B[dn];W[ij];B[hj]
;W[lg];B[kc];W[kb];B[kg];W[kh];B[jh];W[lf];B[kf];W[ji];B[ni]
;W[mj];B[lh];W[ki];B[mh];W[sg];B[qb];W[rc];B[sb];W[sc];B[nj]
;W[nk];B[ii];W[li];B[mi];W[lj];B[oh];W[me];B[nd];W[aq];B[ap]
;W[il];B[hl];W[pc];B[pb];W[mo];B[lo];W[ee];B[ec];W[fd];B[on]
;W[pn];B[oo];W[po];B[no];W[ga];B[fa];W[ha];B[ic];W[ib];B[ng]
;W[of];B[mg];W[mf];B[ma];W[la];B[mb];W[bs];B[ca];W[ab];B[sp]
;W[qs];B[oj];W[sa];B[pr];W[or];B[sb];W[cp];B[bn];W[sa];B[bg]
;W[ag];B[sb];W[as];B[aq];W[sa];B[af];W[ae];B[sb];W[en];B[gn]
;W[sa];B[rs];W[ps];B[sb];W[si];B[qh];W[sa];B[re];W[se];B[sb]
;W[jc];B[lc];W[sa];B[sd];W[rd];B[sb];W[bj];B[cj];W[sa];B[tt]
;W[sb]
)
