(;FF[4]GM[1]SZ[19]AP[SGFC:1.13b]VW[]

PB[Jeff]
BR[14k]
PW[Steve Carder]
WR[13k]
KM[0]
DT[2000-08-31]
PC[Kansas City Go Club]
RE[B+14]
RU[Japanese]

C[Game played: 8/31/2000 at 21:48

General Comments after reviewing
==========================

W might try to resist the temptation to surround B while weak on the outside.

There were a number of endgame moves that by accummulation would have won the game for W.  It would have been important to execute them in the right sequence to keep sente until the last moment.

I recommend W study shape.

RJC 9/4/00];B[dd];W[pp];B[dp];W[pd];B[qj];W[fq];B[dq];W[cm]
;B[co];W[en]C[It's really difficult to kill or contain Bs corner so why try. You will probably end up with a lot of weak stones that are easy targets for B.

Build something on one side or the other: K4 or may be D11 instead of 10.]
;B[fp]C[B could attach to the stronger W stones not the weaker one.]
;W[gp];B[fo];W[go];B[fn];W[fm];B[gn];W[jo]C[One space too far.]
;B[ho];W[hp];B[ip];W[io];B[hn];W[iq];B[hq];W[jp];B[gq];W[ip]
C[B should b.]
(;B[ir]C[B has overplayed.  b sets up a capturing race in Ws favor.]

(;W[hr];B[gr];W[jr];B[hs]C[B now has a big corner and W a dumpling (at J4)]
;W[fr];B[er];W[fs];B[es];W[js];B[is];W[fc];B[dc]C[B at D17 is "too slow".  W has potential to grow up the left side.  B can counter that by playing down the left side.  You have probably heard that a stone should do more than one thing at a time.

1. Strengthen your stones
2. Weaken your opp. stones.
3. Extend your territory
4. Narrow your opp. territory.

If a move does all 4: beautiful, 3:excellent, 2: ok, 1: look for something better.

So I would try something around C13(1,2,3&4?) or settle the upper side with J17. (1&3)]

(;W[ee];B[de];W[cg];B[cf];W[bg];B[dg];W[dh];B[ef];W[fe];B[qg]
;W[jd];B[eh];W[di]C[B should keep up the pressure on W at E11.]
;B[qe];W[qd];B[nc];W[nd];B[pc];W[qc];B[lc];W[oc];B[le]C[b is more fruitful.  either way W gets a bigger corner.]

(;W[nb];B[mc]C[Try b and chase B out into the middle.  B has no eyes and has to run.  This gives W opp to attack the B group on the right.  So B has to defend 2 groups.  W should get something.]

(;W[pb];B[lg];W[jc];B[ig];W[qm];B[oq];W[pq];B[pr];W[qr];B[or]
C[b starts an attack that ought to kill B but it might be tricky.  Lots of combinations.]

(;W[oo];B[np];W[no];B[mp];W[mo];B[lo];W[lp];B[kq];W[jq];B[kp]
;W[lq];B[lr];W[ko];B[mq];W[ln];B[kn];W[lp];B[lq];W[lo];B[nr]
;W[km];B[jn];W[jm];B[in];W[jf];B[jg];W[if];B[hf];W[he];B[gf]
;W[ge];B[mb];W[ei];B[fh];W[fi];B[jb];W[ib];B[hb];W[kb];B[fb]
;W[hc];B[gb];W[gc];B[ec];W[kf];B[kg];W[lf];B[mf];W[me];B[ne]
;W[md];B[oe];W[od];B[pe];W[oj];B[ij];W[fk];B[lj];W[ml];B[nk]
;W[nj];B[ok]C[b leads to a bit of mutual discruction that is better for W]

(;W[pk];B[pj];W[qk];B[mk];W[rj];B[ri]C[Just connect at S9]
(;W[qi];B[pi];W[rh];B[qh];W[si];B[rk];W[qi];B[rl];W[ri];B[rg]
;W[rm];B[sg];W[sl];B[sh];W[sk];B[sj];W[sm];B[om];W[ql];B[rj]
C[Just block at Q7.]
(;W[ol];B[nl];W[nm];B[mm];W[ll];B[pn];W[pm];B[on];W[nn];B[qn]
;W[rn];B[ro];W[qo];B[pl];W[gs]C[Taking at T6 is bigger than saving at D3.  But there ought to be more ko threats for B to consider to continue the fight.]
;B[eq];W[ol];B[ie];W[po];B[je];W[ld];B[ke];W[kd];B[id];W[ic]
;B[im];W[lk];B[mj];W[jk];B[ik];W[jj];B[ji];W[bn];B[bo]C[b another end game sequence that is  worth about 10 points for W.  This one keeps sente]

(;W[dn];B[rd];W[rc];B[bf];W[hi];B[ii];W[hj];B[hh]C[End game sequence with b is better.  Worth about 6 points.]

(;W[hk];B[jl];W[kl];B[il];W[gl];B[kj];W[lm];B[kk];W[ff];B[fg]
C[b is another end game sequence - tho this one loses sente it's worth about 6 points for W]

(;W[sd];B[re];W[af];B[ae];W[ag];B[bd];W[ao];B[ap];W[an];B[bp]
;W[ls];B[ms];W[ks];B[ch];W[bh];B[ci];W[bi];B[cj];W[bj];B[ck]
;W[bk];B[cl];W[bl];B[cn];W[bm];B[em];W[el];B[gm];W[dm];B[hl]
;W[ps];B[os];W[qs];B[gi];W[gj];B[gh];W[ha];B[eb];W[ed];B[eo]
;W[hd];B[ga];W[ia];B[se];W[sc];B[do];W[op];B[kr]C[Black wins by 14 points]
)
(;W[re];B[rf];W[sd]))
(;W[kj];B[ki];W[jl]))
(;W[ad]
(;B[bd];W[ac];B[be];W[ae];B[bc];W[af];B[bb])
(;B[bc];W[ac];B[bd];W[ae];B[be];W[af];B[bb])))
(;W[pm]))
(;W[rk]))
(;W[mk]
(;B[pk];W[mj])
(;B[pj];W[mj];B[pl];W[pm];B[oi];W[mg];B[nf];W[mh])))
(;W[op];B[np];W[no];B[mp];W[mo];B[kq];W[jq];B[kp];W[ko]
(;B[lo];W[ln]
(;B[mr];W[lp]
(;B[lq];W[nq];B[mq];W[ls];B[ns];W[ps])
(;B[mq];W[ps]
(;B[os];W[nr];B[lr];W[ns];B[qs];W[qq];B[kr];W[ks])
(;B[lq];W[ls])))
(;B[lp];W[mr]))
(;B[mr];W[lp];B[lq];W[nq];B[lo];W[ln];B[ns];W[ps];B[lr];W[ls]
)))
(;W[jf];B[oe];W[od];B[me];W[ne];B[nf];W[mf];B[lf];W[mg];B[of]
;W[lg];B[kf];W[kg];B[jg];W[je];B[jh];W[md];B[ld];W[kc];B[mb]
;W[pb];B[kb];W[jb];B[la];W[mi]))
(;W[md]
(;B[mc];W[ld];B[kd];W[kc];B[ke];W[jc])
(;B[ld];W[mc];B[nb];W[mb];B[ob])))
(;W[cg])
(;W[ic]))
(;W[fr];B[hr];W[jr];B[er];W[gr]))
(;B[fr]))
