(;FF[4]GM[1]SZ[19]AP[SGFC:1.13b]

PB[Steve Rothman]
PW[The Many Faces of Go]
KM[0]
DT[2000-11-10]
RE[B+3]

;B[qd];W[dc];B[pq];W[dq];B[qn];W[oc];B[pf];W[qh]C[w setting himself up for trouble.  b can make strong position in
corner, and then attack one of the two flanking w stones];B[qj]
C[i would
have strengthened b's corner instead of pincering here, since this pincer
allows w to jump out which strengthens one of w's two flanking stones while
weakening b's corner.    i would have played q17 for b instead of this
pincer, then assuming w answers at p16, i would then pincer at r9 instead
of r10 due to irritating gap at r8];W[jq]C[w should have jumped out in upper right.  both players are bouncing
around the board without finishing stuff.  it makes things dangerous for
both.];B[ce];W[ch];B[ee];W[kc]C[when b jumps to e15, it feels so important
for w to do something like f16];B[gc]C[this leaves bad gap at f16.  better
would be f17.];W[oh];B[nf]C[b needs a base first.  play something like s13
instead of o14.  assuming w answers s13 at s12, then b can play q7 or q18
to guarantee life and prepare to attack the upper w stones.  always make
base first.];W[mh];B[lf];W[ic]C[w leaving serious weakness at n17.  i would
play w n16 instead];B[cn]C[there's too much important at top to turn away to lower left now.
i would play b g15 to remain stong here.  both continue to claim upper left
corner and attacks the w c12 stone.];W[gp]C[w missed opportunity here to
make both a base and pincer simultaneously with c9.];B[cj];W[eh]
;B[hf]C[b's
position still not secure at upper left.  i would be more comfortable with
something simple like f16.];W[bf]C[how about w b15 instead.  if b blocks it
at b14, w extends into corner at b16 and b needs to then protect outside,
lest w connect through with b13 wedge, and if b does protect outside, w
lives in corner with b18. if b responds to w's b15 by blocking on inside, w
extends back to b14 and b needs to fix corner at c16 and w has
sente];B[be];W[gh];B[cc]C[as b, instead of c17, i'd feel compelled to play
d8 which both stabalizes b's left side position and attacks the w stones
above it.];W[cb];B[bc];W[fb]C[again, w still had f16, which might have been better than f18.  all
this goes to show that b's original corner move of g17 was inadequate, as
so many extra stones (b15 and c17) were needed to completely kill
w];B[gb];W[db];B[fc];W[md]C[it's really painful that b didn't get an
opportunity to play n17.  note that if be had prevailed in this entire
upper right and killed the w stones here, it's much more profit than the
small life w could make in upper
left.];B[qb];W[je];B[jg];W[kg];B[kf];W[rf];B[re];W[ec];B[fa]
;W[kh];B[jf];W[fe];B[ff];W[ge];B[fg];W[gd];B[eb];W[bg];B[ed]
;W[ie];B[lq]C[again, b isn't following up what he started.  instead of m3, how
about pushing at k12 ?  it attacks both middle group of b stones by
splitting them.];W[if];B[ig]C[again, i'd push at k12 instead of j13.
attack large stuff .];W[hi]C[now w is both connecting his 2 groups plus
attacking w's left side.];B[ii];W[fh];B[ji];W[lj];B[hj];W[rg]
;B[hh];W[kk];B[dh]C[this d12 wedge is attempting to separate two w pieces when b would
really like to attack the whole thing !  instead, perhaps just quietly play
d8 to make safe.  that prepares b to attack the w group above.  if w
protects the w group above, b slides nto corner at b3 which gives enough to
win the game.];W[di];B[dg];W[ci];B[ei]C[b going after small piece while
b's entire left side is still at stake.];W[dj]C[in general, i'd say pay
more attention to making groups safe before attacking, and then attacking
wholesale rather than piecemeal.  [end of comments by Eric Osman
11-nov-2000\]];B[fj];W[dl];B[bl];W[em];B[cp];W[cq];B[bp];W[eo]
;B[hl];W[oj];B[nk];W[ok];B[nl];W[pi];B[ri];W[km];B[ko];W[bk]
;B[bj];W[ck];B[ak];W[pl];B[ql];W[pm];B[qm];W[nm];B[lm];W[nj]
;B[ll];W[no];B[kn];W[kl];B[nq];W[io];B[cl];W[cm];B[bm];W[dk]
;B[ob];W[mb];B[ib];W[jb];B[hc];W[pd];B[pe];W[id];B[od];W[al]
;B[am];W[pc];B[qc];W[nc];B[nd];W[bq];B[do];W[dn];B[dp];W[ep]
;B[bo];W[qp]C[now
what?];B[pp];W[po];B[qo];W[mn];B[rp];W[kr];B[lr];W[op];B[oq]
;W[gg];B[gn];W[gf];B[df];W[gi];B[ik];W[ne];B[oe];W[me];B[mf]
;W[gj];B[gl];W[bi];B[fk];W[im];B[fn];W[kp];B[kq];W[jp];B[jr]
;W[ir];B[mp];W[lo];B[ks];W[en];B[hn];W[dm];B[in];W[jn];B[ln]
;W[lp];B[mo];W[jo];B[mm];W[nn];B[np];W[se];B[sd];W[pb];B[pa]
;W[pn];B[qf];W[sf];B[pg];W[sc];B[rd];W[jj];B[ij];W[og];B[of]
;W[ki];B[sb];W[hg];B[ih];W[ia];B[ha];W[hb];B[nb];W[bb];B[ab]
;W[mc];B[ib];W[qa];B[ra];W[hb];B[fd];W[ga];B[ph];W[qi];B[ha]
;W[ib];B[ga];W[eg];B[ef];W[na];B[qa];W[oa];B[rh];W[qg];B[pj]
;W[aj];B[al];W[ke];B[aq];W[ar];B[ap];W[br];B[le];W[ld];B[is]
;W[hr];B[hs];W[gs];B[js];W[gq];B[ho];W[hp];B[ng];W[nh];B[af]
;W[gk];B[fl];W[hd];B[ag];W[ah];B[ae];W[dd];B[cd];W[oo];B[cg]
;W[pk];B[qk];W[il];B[hk];W[jk];B[fo];W[fp];B[cf];W[bh];B[lg]
;W[lh];B[fm];W[hm];B[go];W[ej];B[fi];W[sg];B[sh];W[oi];B[rj]
;W[ek];B[el];W[mg];B[jh];W[gm];B[qe];W[an];B[bn];W[mk];B[jm]
;W[jl];B[iq];W[ip];B[fs];W[gr];B[eq];W[fq];B[er];W[dr];B[cs]
;W[ds])
