(;FF[4]GM[1]SZ[19]AP[SGFC:1.13b]

GN[takun-malveaux]
PB[malveaux]
BR[19k*]
PW[takun]
WR[18k*]
KM[0.5]
DT[2000-11-03]
RE[W+20.5]
TM[900]

C[Review by plasma, 5k* NNGS, and probably 5 kyu in the UK.

This review requested by Black.];B[pq];W[dd];B[po];W[dp];B[pd]
;W[jp];B[jd]LB[cj:a]C[Hmm, this is probably fine. But on the other hand, I'd consider a wedge play at 'a', splitting White up and maybe making the game more interesting.]
;W[dj];B[lp]TR[pq][po]LB[pj:a][jj:b][fc:c][fq:d]C[This doesn't look like an efficient extension from the corner...the triangled stones aim for a large territory to their left, but this can't happen do to the white stone. I'd probably play one of the points 'a' through 'd'.

On the other hand, the move does prepare for your later invasion near 'd', so perhaps it's good after all.]
;W[qj];B[qh]LB[ql:a][qc:b][pc:c]C[R12 feels like the wrong direction to me. I'd play at 'a' instead, the reason being that it makes the lower right corner reasonable secure, whereas after your move the top right can still be invaded, probably at 'b' or 'c'.]
;W[qm];B[qn]C[Now the territory in the lower left is smaller, and the top right still open to invasion.]
;W[pm];B[gq]TR[lp]LB[hp:a]C[Yes, why not? This seems to work well with the triangled stone. But I think I'd prefer a more severe attack on the white stone, such as 'a'.]
;W[io];B[dr]LB[go:a]C[In a situation like this, it's usually better to jump out to 'a' rather than live on the side. In fact, White's answer is very good, and he gains a formidable all facing the centre, but he spoils it by trying to kill you.]
;W[eq];B[er];W[fq];B[fr];W[gp];B[hq];W[ir]LB[cq:a][hp:b]C[This is surely wrong - Black is in no danger. For example, a black move at 'a' seems to secure life.

White should probably secure his wall with a move at 'b', which fully punishes Black for living on the side. The wall would have such a strong influence on that whole quadrant of the board that it must be a mistake for you to allow this at all. Hence why you should have jumped out earlier.]
;B[hr];W[iq];B[hp];W[ho];B[go];W[fp];B[gn];W[im];B[dn]C[And Black now reaps the benefits of White's mistake.]
;W[do];B[eo];W[cn];B[cm];W[en];B[dm];W[em]LB[fo:a]C[Curious. 'a' seems obvious.]
;B[fo];W[gm];B[dq];W[ep];B[cp]C[Yes, quite.];W[hn];B[co];W[nc]
;B[nd];W[md];B[oc];W[ne];B[od];W[mc];B[me]TR[jd]LB[pf:a][gd:b]
C[This is rather aggressive. Given the phenomenal amount of territory you've won in the lower left, you can probably get away without going into this sort of violent struggle.

Also, note that the triangled stone might become a bit weak.

Perhaps play 'a' instead, or something like 'b' to help the triangled stone.]
;W[le];B[mf];W[nf]LB[je:a]C[I think I'd let the stone go and make sure my other group got out, eg with a move at 'a'.]

(;B[mg]LB[ng:a]C[I suspect this is a bit weak. Playing at 'a' instead is much more severe.

It gets a bit complicated though. See variations.];W[ng];B[nh]
;W[mh];B[lh];W[mi];B[lg];W[oh];B[oi];W[pi];B[ph];W[ni];B[oj]
;W[ok];B[nj];W[mk];B[mj];W[lj];B[li];W[nh];B[lk];W[kj];B[nk]
;W[nl];B[ml];W[pj];B[mk];W[pg];B[qg];W[mm];B[lm];W[kk];B[ll]
;W[ln];B[nm];W[km];B[mn];W[kl];B[ol];W[kf]TR[mi][mh][ni][nh]
[oh][pg][ng][nf][ne]C[Well, you seem to have come out of all that very well. The triangled stones look quite, quite dead. Still, you'll have to remember to be careful with how many liberties your own stones to the left of them have.]
;B[gc];W[kd];B[kc]LB[jc:a]C[At 'a' instead looks more solid.]
;W[je];B[id];W[hf];B[jh]TR[li][lh][lg][mg][mf][me][jh]C[Hmm, I'd worry more about the group at the top. You can make sure the triangled group lives at any time by actually capturing the stones on the right and taking them off the board.]
;W[ji];B[ih];W[qp]C[Yes, this is a severe weakness of this formation.]

(;B[ro]LB[rn:a]TR[pm][qm][ok][pj][pi][qj]C[I'd probably play 'a' instead, which is more severe on the White group on the right, which already looks close to death.]
;W[pp];B[op];W[qq];B[pr];W[oo];B[on];W[oq];B[or]LB[no:a]C[I'd just capture at 'a' and let the 2 stones go.]
;W[np];B[no];W[nr];B[op];W[nq];B[qr];W[rr];B[qo];W[rq];B[kn]
;W[jn];B[ko];W[kh];B[kg];W[gh];B[hi];W[hj];B[gi];W[ge];B[ec]
;W[dc];B[fh]LB[eb:a]C[White's last move should probably be answered. I'd probably play 'a'. Loose groups like the one at the top are surprisingly vulnerable.]
;W[hh];B[ii];W[fi];B[ei];W[fj];B[ej];W[gj];B[ki];W[jj];B[ek]
;W[jg];B[ig];W[jf];B[of]C[Quite right, time to take those stones off.]
;W[ib]C[A severe move.];B[jb];W[gb];B[fb];W[hc];B[hd];W[gd]
;B[fc];W[db];B[ic];W[ha];B[fa];W[lb];B[lc]C[This makes little sense.]
;W[ld];B[ga]LB[kb:a][jc:b]C[Probably 'a' instead, which should make sure of the eye at 'b'.]
;W[kb];B[jc]LB[hb:a]C[No, you must capture at 'a', making 2 eyes.]
;W[hb];B[ia];W[hb];B[if];W[ie]TR[gi][hi][ii][ih][ig][if][jh]
[ki][li][lh][lg][kg][mg][mf][me]C[Note that White's move here now reduces the liberties of your triangled group.]
;B[he]LB[oe:a]C[You needed to play something like 'a' to be ready to capture the white group.]
;W[lf]C[Atari.]
(;B[nb]C[Even if Black answers the atari he will lose. See variation.]
;W[mb];B[ob];W[gf];B[dh];W[pf];B[oe];W[og];B[qf];W[kh];B[ee]

(;W[cf]LB[ed:b][ef:c][de:a]C['a' instead looks better, threatening the cuts of 'b' and 'c'. See variation.]
;B[fe];W[eg];B[dg]
(;W[df]LB[ef:a]C[I suspect 'a' instead is the correct way to cut. See variation.]
;B[fg];W[ef];B[ff];W[ij];B[eh];W[bh];B[ci];W[el];B[dl];W[qe]
;B[pe];W[qd];B[qc];W[rc]
(;B[rd]LB[qb:a]C[Probably best to play 'a'. See variation.]
;W[re];B[rf];W[sd];B[rb];W[qb];B[pb];W[qa];B[ra];W[pc]C[A big ko.]
;B[gg];W[hg];B[qc];W[ed];B[fd];W[pc];B[de];W[ce];B[qc];W[sf]
;B[pa];W[sg];B[ri];W[rh];B[qi];W[rj];B[rm];W[bi];B[cj];W[bj]
;B[rk];W[si];B[pk];W[ck];B[dk];W[bl];B[bm];W[lq];B[kq];W[kp]
;B[mq];W[lr];B[mp];W[mr];B[kr];W[os];B[fm];W[fl];B[gl];W[fk]
;B[hm];W[hl];B[gm];W[jo];B[lo];W[gk];B[is];W[js];B[ks];W[jr]
;B[ls];W[qs];B[ns];W[ps];B[sb];W[am];B[an];W[al];B[sc];W[rg]
;B[rd];W[sk];B[qk];W[sl];B[sm];W[ch];B[di];W[ka];B[ja];W[na]
;B[rl];W[sj];B[rp];W[sp];B[so];W[sq];B[ip];W[jq];B[cl];W[bk]
;B[eb];W[da];B[cg];W[bg];B[se];W[hc];B[ha];W[sd];B[hs];W[rc]
;B[il];W[hk];B[rd];W[se];B[rc];W[oo];B[cd];W[bd];B[op];W[ao]
;B[bn];W[oo];B[jm];W[jl];B[op];W[ma]C[ malveaux 19k*: I think you won, by a lot... not how i thought it would go]
;B[oo];W[cc];B[oa];TW[aa][ab][ac][ad][ae][af][ag][ah][ai][aj]
[ak][ba][bb][bc][be][bf][ca][cb][cd][gi][hi][if][ig][ih][ii]
[ik][il][in][jh][jk][jm][ke][kg][ki][kq][kr][ks][la][lg][lh]
[li][ls][me][mf][mg][ms][ns][or][ph][pq][pr][qf][qg][qh][qi]
[qr][rf][ri][rs][sh][sr][ss]TB[ao][ap][aq][ar][as][bo][bp][bq]
[br][bs][cn][cq][cr][cs][dj][do][dp][ds][ep][eq][es][fp][fq]
[fs][gb][gp][gr][gs][hb][hc][ib][ln][mm][mo][nl][nn][ok][om]
[pc][pl][pm][pn][qa][qb][ql][qm][rn][sa][sn]C[Well, I hope this review is of some use.

There's certainly hope. The main problems were oversights of the sort that practice corrects.]
)
(;B[qb];W[rb];B[re];W[rd];B[rf];W[qa];B[pa];W[na]C[To prevent 2 eyes.]
;B[ra];W[sb];B[sd]C[White dies.]))
(;W[ef];B[df];W[de];B[fg];W[ff];B[gg];W[hg];B[eh];W[ij]))
(;W[de];B[ed];W[ef];B[ff];W[fg];B[fe];W[eh]C[Black dies.]))
(;B[kh];W[hg];B[og];W[ij]))
(;B[rn];W[pp];B[op];W[qq];B[pr];W[oo];B[on];W[oq];B[no];W[or]
;B[rl]C[Despite the small loss in the lower right corner, you now have most of the right side. Victory is assured.

(In fact, the group on the right was probably dead anyway, but if you're well ahead, it never hurts to make sure. Only if you're well ahead though, else it may be a wasted move.)]
))
(;B[ng];W[mg];B[lf]LB[kf:a]C[What now? 'a' doesn't work for White...]

(;W[og];B[nh];W[of];B[oh]
(;W[kf];B[lg];W[mh];B[lh];W[mi];B[pg]C[And Black wins.])
(;W[lg];B[kf]TR[le][md][mc][nc]C[Now White's triangled stones are in real trouble.]
;W[ke];B[je];W[jf];B[kg];W[ld]LB[gd:a][lh:b][pg:c]C[And Black has a variety of moves that seem to give him a good result. 'a' is probably correct.]
;B[gd];W[kh];B[jg];W[if];B[lh]))
(;W[kf];B[lg];W[mh];B[of])))
