(;FF[4]GM[1]SZ[19]AP[SGFC:1.13b]

GN[YehKuangCh-corsair(B) IGS]
PB[corsair]
BR[26k]
PW[YehKuangCh]
WR[24k]
KM[0.5]
DT[2000-12-30]
PC[IGS:  igs.joyjoy.net 6969]
RE[W+1.5]
TM[600]
US[Brought to you by IGS]

;B[dd];W[pp];B[qd];W[cq];B[do];W[fp]LB[ep:A]C[As far as usual Joseki is concerned, A is usually considered for white.]
;B[dl];W[bq]C[White plays very small here];B[dq]LB[bo:A][nc:B]
C[Hmm, no need to be that aggressive ... Either protect with A or secure corner with B]
;W[dp];B[cp]
(;W[eq]C[You are lucky. W misses the point here ...];B[ep];W[dr]
;B[dp];W[fq];B[bp];W[cr]C[White loses one move. This is not useful]
;B[qn];W[ql];B[qq];W[qp];B[pq];W[oq];B[or]LB[rp:A]C[Until now, this was almost standard Joseki ! B  links R6 stone instead of P2 in standard continuation]
;W[nr];B[nq];W[op];B[mr];W[pr];B[ns];W[qr];B[rq];W[rr];B[ir]
C[Much too low ! Never extend on 2nd line];W[ip]C[See ? White prevents vertical extention !]
;B[jq];W[iq]LB[jp:A]C[You are lucky again ... W should have closed vertical extention by playing A, thus gaining influence on center]
;B[jp];W[ol];B[qj]C[Too close];W[rl]LB[qh:A][nc:B][jd:C]C[Very small move. W should have played upper side, or squeezd  R10 stone]
;B[oj];W[oc];B[od]C[probably good. helps big moyo on right side, while gaining center influence from upper side]
;W[nd];B[oe];W[pc]LB[qc:A][ne:B]C[too small again];B[qc];W[pd]
C[W plays packed !];B[pe];W[qb];B[rb];W[nc];B[jd]C[hmm, somewhat loose. You may stay a little bit more grouped to avoid possible invasion upper or left side ...]
;W[pb];B[rd]C[??? One move lost];W[cc]C[Alright. This is good for you. We'll see, but I predict w takes some points in the corner, but you gain massive wall toward center]
;B[cd];W[dc];B[ec];W[eb];B[fc];W[fb];B[gb];W[bd];B[be];W[bc]
;B[cf];W[ed]
(;B[fd];W[ee]
(;B[df];W[fe];B[ge];W[gc]
(;B[hc]C[Oops ! See variation ...];W[gd];B[hd];W[kc];B[jc];W[jb]
;B[ib];W[kb];B[ef]LB[ei:A][io:B][jn:C][mk:D]C[too concentrated. Rather secure territory, or get to center]
;W[ff];B[fg];W[gf];B[he];W[kd];B[ke];W[gn];B[fl]LB[gl:A]C[yes, but yu can play it bigger]
;W[lk];B[io];W[hp];B[ho];W[go];B[no];W[np];B[mp];W[oo]LB[mo:A]
C[W does not take the opportunity to cut ...];B[nn];W[on];B[nl]
;W[nm];B[mm];W[om];B[ml];W[nj];B[ni];W[oi];B[nk];W[pj];B[mj]
;W[ok];B[nj];W[oh];B[pi];W[pk];B[ph];W[qi];B[qh];W[ri];B[ng]
;W[en];B[dn]TR[sf]C[Just be carefull with the Monkey jump ... Worth 10 points ...]
;W[em];B[el];W[dm];B[cm];W[cl]
(;B[cn];W[ck];B[bl];W[bk];B[bm];W[ch];B[bh]LB[dh:A]C[Hmm, rather close from above ...]
;W[dh]
(;B[dj]C[This move will reveal disastrous ... This is too low and too close to white.]
;W[bg];B[bi];W[ci];B[bj];W[cj];B[ak];W[ei];B[fi];W[ej];B[dk]
;W[fj];B[gi];W[gj];B[hj];W[gl];B[gk];W[fk];B[hk];W[fm]C[Nice sequence by W, who took advantage of B mistake. I admit this was not obvious for both ...]
;B[eh];W[di];B[cg];W[ek];B[hf];W[im];B[km];W[jn];B[jo];W[kn]
;B[ln];W[ko];B[kp];W[lo];B[mo];W[lp];B[lq];W[hr];B[jr];W[rh]
;B[rg];W[rf];B[qf];W[rj];B[sg];W[le];B[lf];W[kf];B[je];W[mf]
;B[lg];W[mg];B[mh];W[nf];B[of];W[ne];B[jl];W[il];B[ik];W[hs]
;B[jm];W[in];B[gg];W[pg];B[qg];W[ga];B[hb];W[ha];B[ia];W[fa]
;B[ra];W[qa];B[ad];W[ac];B[ae];W[ap];B[ao];W[aq];B[de];W[fc]
;B[hn];W[hm];B[hl];W[gm];B[ps];W[rp];B[is];W[eo];B[ja];W[lb]
;B[ka];W[la];B[dg];W[qs];B[os];W[sh];B[tt];W[bo];B[an];W[bn]
;B[co];W[al];B[am];W[aj];B[ai];W[ag];B[af]
(;TW[aa][ba][ca][da][ea][ma][na][oa][pa][ab][bb][cb][db][mb]
[nb][ob][ec][lc][mc][fd][ld][md][me][si][dj][qj][sj][dk][qk]
[rk][sk][dl][el][fl][pl][sl][pm][qm][rm][sm][fn][pn][qn][rn]
[sn][fo][po][qo][ro][so][gp][sp][gq][hq][pq][qq][rq][sq][ar]
[br][er][fr][gr][sr][as][bs][cs][ds][es][fs][gs][rs][ss]TB[ic]
[id][ce][ie][bf][if][jf][kf][ag][bg][eg][hg][ig][jg][kg][ah]
[fh][gh][hh][ih][jh][kh][lh][hi][ii][ji][ki][li][mi][aj][ij]
[jj][kj][lj][jk][kk][lk][mk][al][kl][ll][lm][bn][mn][bo][kq]
[mq][kr][lr][nr][js][ks][ls][ms]C[The game is over.  Final score:
   White = 73 territory + 13 captures + 0.5 komi = 86.5
   Black = 54 territory + 11 captures = 65
White wins by 21.5.])
(;TW[aa][ba][ca][da][ea][ma][na][oa][pa][ab][bb][cb][db][mb]
[nb][ob][ec][lc][mc][fd][ld][md][me][si][dj][qj][sj][dk][qk]
[rk][sk][dl][el][fl][pl][sl][pm][qm][rm][sm][fn][pn][qn][rn]
[sn][fo][po][qo][ro][so][gp][sp][gq][hq][pq][qq][rq][sq][ar]
[br][er][fr][gr][sr][as][bs][cs][ds][es][fs][gs][rs][ss]TB[sa]
[sb][ic][rc][sc][id][sd][ce][ie][qe][re][se][bf][if][jf][kf]
[pf][rf][sf][ag][bg][eg][hg][ig][jg][kg][og][pg][ah][fh][gh]
[hh][ih][jh][kh][lh][nh][oh][hi][ii][ji][ki][li][mi][oi][aj]
[ij][jj][kj][lj][jk][kk][lk][mk][al][kl][ll][lm][bn][mn][bo]
[kq][mq][kr][lr][nr][js][ks][ls][ms]C[Ouch !
White wins by 1.5.

Just for summing up : one small mistake cost you the game, which you should have won largely because W plays very closely. Keep on playing]
))
(;B[fi]
(;W[bg];B[bi];W[ci];B[cg])
(;W[bi];B[bg];W[ej]
(;B[fj])
(;B[ei];W[fj];B[dj];W[dk];B[di];W[ek];B[gj];W[gi];B[gk]C[There, I doubt W can live]
))))
(;B[ck];W[bl];B[bk];W[bm];B[cn]C[I don't see W living here ...]
))
(;B[gd]
(;W[hc];B[ff])
(;W[ff]
(;B[hc])
(;B[gg]))))
(;B[ef]C[there you should be aggressive ...]))
(;B[gc]MA[ig][eg]C[Seal ... now how can white live ? You would just close around]
))
(;W[ep]))
