(;FF[4]GM[1]SZ[19]AP[SGFC:1.13b]

PB[lloyd]
BR[2d]
PW[tf]
WR[2d]
KM[5.5]
DT[2001-02-10]
PC[The Kiseido Go Server (KGS) at http://kgs.kiseido.com/]
RE[B+5.50]
TM[1800]

C[tf [2d];B[pp]C[lloyd [2d];W[dd];B[pc];W[dp];B[qi];W[kd];B[jp]
;W[qn];B[qo];W[pn];B[np];W[qk];B[qf]C[is this too slow?
klin: It is OK.  It could also P11, then P16.];W[dj];B[fq];W[fp]
;B[gp];W[fo];B[eq];W[dq];B[cn];W[gq];B[gr];W[hq];B[hr];W[iq]
;B[jq]
(;W[ho]C[klin: W 28 should J2.];B[ir];W[go];B[ep]
(;W[do]C[klin: W 32 should block.  If B cut, W has D2 sente, the corner is safe.]
;B[eo];W[dn];B[en];W[dm];B[gm];W[hm];B[ip]
(;W[hp];B[hl];W[im];B[fm];W[il];B[cj]
(;W[ck];B[bk];W[ci];B[bj];W[cl];B[ch]
(;W[di];B[bi];W[bl];B[dh];W[bg];B[bh];W[cf];B[df];W[de]C[lloyd [2d]
;B[ef];W[fe]C[lloyd [2d];B[cg]
(;W[bf];B[cc];W[bd];B[dc];W[ec]C[klin: W 68 should F17.];B[eb]
;W[fc];B[fb];W[gc];B[bc];W[eh];B[ff];W[hk]C[is this too slow? and/or depart from the main battle field?
klin: W could G14, BG13, W then H12.];B[ge];W[he];B[hf];W[gd]
;B[ee];W[ed];B[gf];W[ie];B[ei];W[fi];B[ej];W[dk];B[fh];W[fj]
;B[ek];W[fk];B[el];W[em];B[fl];W[gh];B[fg]C[klin: B 97 should E13.  B loses one eye here.]
;W[fn];B[hh];W[hi];B[ih];W[ji];B[jh];W[ki];B[kh];W[li];B[mc]
C[is b ahead now?];W[pe];B[qe];W[pd];B[qc];W[md];B[nc];W[lc]
;B[lh];W[mh];B[mg];W[ng];B[nh];W[mi];B[nf];W[og];B[of];W[mf]
;B[lg]C[any chance for w here?
klin: W can play at Q14 and see how B reacts.  If B Q13, then P16, W plays at J14, the B dragon may not have 2 eyes.

klin: No comment neyond this point.]
(;W[oh];B[me];W[lf];B[if];W[pf];B[le];W[kf];B[nd];W[qg];B[ke]
;W[ic];B[rg];W[rh];B[qh];W[pg];B[rf];W[ri];B[rj];W[qj];B[sh]
;W[pi];B[si];W[qq];B[pq];W[ro];B[rp];W[qp];B[rq];W[po];B[qr]
;W[lp];B[nn];W[mo];B[no];W[dr];B[es];W[ds];B[er];W[lq];B[kr]
;W[lm];B[mn];W[ln];B[nl];W[mk];B[jn];W[lb];B[gb];W[hb];B[ld]
;W[ac];B[ab];W[ad];B[cd];W[ce];B[cb];W[jd];B[nk];W[nj];B[ml]
;W[ll];B[in];W[hn];B[mr];W[lr];B[ls];W[mq];B[nq];W[ne];B[oe]
;W[od];B[ne];W[ob];B[oc];W[mb];B[nb];W[na];B[ma];W[la];B[pa]
;W[oa];B[pb];W[rk];B[pl];W[ql];B[al];W[am];B[ak];W[cm];B[pk]
;W[pj];B[ma];W[je];B[jf];W[na];B[ii];W[ij];B[jm];W[jl];B[km]
;W[gl];B[gg];W[gi];B[kl];W[kk];B[qo];W[qp];B[pm];W[qm];B[so]
;W[sn];B[sp];W[ga];B[fa];W[ha];B[ok];W[on];B[oj];W[oi];B[om]
;W[mm];B[nm];W[ah];B[ai];W[ag];B[oa];W[qd];B[rd];W[sk];B[qq]
;W[qo];B[sj];W[oo];B[op];W[kq];B[ko];W[lo];B[io];W[fd];B[ma]
;W[da];B[ca];W[na];B[lk];W[lj];B[ma];W[fr];B[fs];W[na];B[bn]
;W[bm];B[ma];W[nr];B[ms];W[na];B[rn];W[rm];B[ma];W[jr];B[js]
;W[na];B[sm];W[sl];B[ma];W[db];B[ea];W[na];B[ae];W[be];B[ma]
;W[db];B[da];W[na];B[jb];W[kc];B[ma];W[gs];B[fr];W[na];B[eg]
;W[ma];B[eh];W[lk];B[kp])
(;W[pf]))
(;W[be]C[is this the key point?]))
(;W[bi]C[should w try to capture b here?];B[di];W[bh];B[cg]
;W[bg];B[cf]))
(;W[ci]C[is this better for w?]))
(;W[gl]C[seems much bigger than h4?];B[hp];W[fm]))
(;W[eo]C[is this better  for w?];B[do];W[dr];B[fr];W[bp]))
(;W[ir]))
