(;FF[4]GM[1]SZ[19]CA[UTF-8]AP[SGFC:1.13b]

PB[Naga]
BR[6k]
PW[panchen]
WR[6k]
KM[5.5]
RE[B+Time]
RU[Japanese]

C[Igc2000 Generated Sgf File];B[cp];W[pd];B[dc];W[dd]C[This is too close. As black I would hane at C or E16, and then extend if white crosscuts]
;B[ec];W[pp];B[nq];W[cc]C[This is an overplay again. At C16 would give white something to work with.]
;B[cd];W[ce];B[bd];W[be]C[The first cut at C16 was spot on, now cut again at D15 before B17]
;B[bc];W[ee]C[good, protecting against D14];B[qn]C[excellent double approach, black has gained sente while white built the wall in upper left.
White will usually play P5 next and black at R3];W[no]LB[qq:A]
C[Black should go into corner now. White will block on one side and find O5 stone is poorly positioned.]

(;B[kp];W[qk]C[Still black can profitably play in the corner as after R4 white will still need a move to neutralize R6]
;B[qp];W[qq];B[pq]
(;W[rp];B[qo];W[pr];B[oq];W[rr];B[oo]C[This is a poor result for white. 7 points of territory and no thickness.  Look at the alternate lines starting at move 21,  the second is the most likely..]
;W[ep]C[black should consider a pincer, perhaps at G3. Takes profit on right and keeps white from a base along the bottom]
;B[eq];W[fq];B[dq];W[hp];B[dn];W[jq];B[kq]LB[nc:B][qi:A]C[A black extension up the left to C9 looks better here.  L3 is not urgent to protect the life of the black sones and is only worth
a few points.  Also big points around A and B];W[cl];B[ed];W[de]
;B[fe]C[White should hane at F14 and if black G14 then G13. Then decide how to reinforce.  Urgent moves first!]
;W[dh];B[dj]C[This is somewhat of an overplay.  D6 leaves a lot aji at C5, if it was at D5 then D10 would be OK.]
;W[el]C[B needs C7];B[fj];W[bn]C[B6 should be at C5, that was the point of C8.  B6 is slack, show fighting spirit.  :-)
This is still difficult for black];B[bo];W[cn];B[co];W[dm];B[en]
;W[gh]LB[fl:1]C[maybe F8 for black or G9];B[dk]LB[dl:A][em:B]
C[This is not really forcing.  If A then B connects];W[dl];B[gl]
;W[fm];B[fn];W[gm];B[hl]C[white at G6 to connect and reduce liberties on E6 stones. If B cuts at F4 trade the F3 stone for the E6 stones.]

(;W[fo];B[hn];W[gn];B[do]C[H7 first for W];W[ho];B[in];W[fk]
;B[ek];W[gk]C[this is too much, white is committing to allowing B to cut at F8 and E7]
;B[fl];W[gj];B[em];W[bj];B[ci];W[bi];B[ch];W[bh];B[cg];W[eg]
;B[fi];W[gi];B[bl];W[ck];B[bm];W[bg];B[dg];W[eh];B[ef];W[df]
;B[ff]C[Now G13 for W];W[bf];B[fh];W[fg];B[gg];W[gf];B[hg];C[panchen 6k*: it was    my greet mistake]
;W[cb]
(;B[db]C[D18 wrong side of course, B at B18];W[bb];B[ca];W[ac]
;B[hk];W[fd];B[ge];W[gd];B[he];W[fb];B[hd];W[gc];B[hc];W[hb]
;B[ib]C[G18 is not needed, white can give up H18 and still capture the 4 stones so do something large on right.]

(;W[gb];B[jc];W[if];B[ig];W[lc];B[ld];W[di];B[ei];W[kd];B[kc]
;W[md];B[le];W[me];B[lf];W[nk];B[mf]LB[re:C][qf:A][qg:B]C[black at N14 is slow. Jump in on left at A, B, or C]
;W[of]C[P14 looks terrible, either O14 or R14. Q14 also possible.]
;B[nf];W[oe];B[og];W[pg];B[oh];W[ph];B[oi];W[pj];B[pi];W[qi]
;B[qc]LB[pb:A]C[this may be killable with a]
(;W[pc];B[qd];W[qe];B[pb]C[white must P18 now];W[rb];B[oc];W[qb]
;B[od];W[pe];B[ne];W[ob];B[nb];W[pa];B[mc];W[fr];B[er];W[jp]
;B[ko];W[on];B[nn];W[nm];B[mn];W[pn];B[pm];W[om];B[po];W[qm]
;B[rm];W[ql];B[lk];W[mj];B[li];W[mh];B[mi];W[lj];B[ki];W[ni]
;B[nh];W[kj];B[ji];W[jj];B[ij];W[jk];B[jl];W[kl];B[km];W[ll]
;B[lm];W[mm];B[jm];W[mk];B[bk];W[cj];B[rl];W[rk];B[fs];W[gr]
;B[ha];W[eb];B[hm];W[go];B[ip];W[iq];B[kr];W[jr];B[or];W[ps]
;B[oj];W[ok];B[nj];W[os];B[ns];W[cm];B[an];W[ms];B[js];W[is]
;B[ks];W[nr];B[mr];W[ns];B[mq];W[ro];B[rn];W[io];B[hs];W[gs]
;B[ir];W[hr];B[is];W[es];B[ds];W[cr];B[dr];W[bq];B[cq];W[ap]
;B[bp];W[br];B[ao];W[bs];B[aq];W[am];B[al];W[aj];B[sk];W[sj]
;B[sl];W[rj];B[ga];W[ea];B[ia];C[Naga 6k : Increase panchen's time by 1]
;W[fc];B[fa];W[da];B[sq];W[rq];B[so];W[sp];B[sn];W[rs];B[na]
;W[oa];B[jo];W[ik];B[hj];W[eo];B[cs];W[ak];B[am];W[dp];B[fs]
LB[nc:D][ng:A][mo:B][op:C]C[Black is about 15  points ahead but white has some good ko threats and should use them.
a-d for white,  since black has no large ko threats white can capture at P4]
;W[op]CR[op]
(;B[np]CR[np];W[es]CR[es]C[and there is no black move that white will answer but will take at a4]
)
(;B[ar]CR[ar];W[sm]CR[sm];B[as]CR[as]C[and white is well ahead.]
))
(;W[pb]CR[pb];B[qd]CR[qd];W[qe]CR[qe];B[re]CR[re];W[qf]CR[qf]
;B[pc]CR[pc];W[ob]CR[ob];B[oc]CR[oc];W[nc]CR[nc];B[od]CR[od]
;W[ne]CR[ne];B[qb]CR[qb];W[rb]CR[rb];B[qa]CR[qa];W[rc]CR[rc]
;B[rf]CR[rf];W[rg]CR[rg];B[rd]CR[rd];W[sf]CR[sf];B[sc]CR[sc]
;W[sb]CR[sb];B[se]CR[se];W[sd]CR[sd];B[sg]CR[sg];W[rh]CR[rh]
;B[ra]CR[ra];W[sc]CR[sc];B[sa]CR[sa];W[sc]CR[sc]C[and black is dead]
))
(;W[ic]CR[ic];B[ha]CR[ha];W[eb]CR[eb];B[gb]CR[gb];W[fc]CR[fc]
;B[qi]CR[qi]C[something like this]))
(;B[bb]CR[bb];W[fd]CR[fd];B[ge]CR[ge];W[gd]CR[gd];B[he]CR[he]
;W[fb]CR[fb];B[db]CR[db];W[hd]CR[hd];B[ie]CR[ie];W[bk]CR[bk]
;B[cm]CR[cm];W[ak]CR[ak]C[and everybody alive];B[ii]CR[ii];W[ij]
CR[ij];B[jj]CR[jj];W[ik]CR[ik];B[il]CR[il];W[jk]CR[jk];B[kj]
CR[kj];W[kl]CR[kl]C[or somesuch.]))
(;W[gn]CR[gn];B[fp]CR[fp];W[fo]CR[fo];B[gp]CR[gp];W[go]CR[go]
;B[gq]CR[gq];W[hq]CR[hq];B[gr]CR[gr];W[do]CR[do]C[Now cut at H5 doesn't work because H2 is sente for W allowing B stone at H5 to be caught with J6]
))
(;W[oq]CR[oq];B[pr]CR[pr]
(;W[qr]CR[qr];B[or]CR[or];W[op]CR[op];B[po]CR[po];W[rp]CR[rp]
;B[qo]CR[qo];W[rr]CR[rr];B[qs]CR[qs];W[rs]CR[rs];B[sq]CR[sq]
;W[ro]CR[ro];B[rn]CR[rn];W[ps]CR[ps];B[nr]CR[nr])
(;W[or]CR[or];B[po]CR[po];W[op]CR[op];B[qr]CR[qr];W[rq]CR[rq]
;B[rr]CR[rr];W[rp]CR[rp];B[qo]CR[qo];W[mp]CR[mp];B[lq]CR[lq]
;W[mq]CR[mq];B[lr]CR[lr];W[mr]CR[mr]))
(;W[qo]CR[qo];B[rp]CR[rp];W[rq]CR[rq];B[po]CR[po];W[op]CR[op]
;B[ro]CR[ro];W[oq]CR[oq]C[This line looks much better for White.  There is corner profit, access to the center, and weakened black stones to the left.]
))
(;B[qq]CR[qq]
(;W[qp]CR[qp];B[pq]LB[oo:B][po:C][op:A]CR[pq]C[Now white must defend against the cut at a,b,c rather than pressing the black group and extending the white wall]
)
(;W[pq]CR[pq];B[qp]LB[oo:A]CR[qp]C[Again if the white stone is at A the white can play nicely at P7 or Q7 before attacking O3]
)))
