(;FF[4]GM[1]SZ[19]CA[UTF-8]AP[SGFC:1.13b]

EV[go_turnler]
RO[1]
PB[jannick]
PW[phi]
KM[5.5]
DT[2001-02-03]
PC[bern]
RU[Japanese]

C[phi: I like this game documented by a better player up to about move 100.  I (phi) am playing white and hope to learn something espacially in the opening.
I marked some questions out, but probably this are not the key moves...
Please give also comments to the black moves. I think, my oponent wants to learn something also.

jean> I'll do my best .. All my answers will start with this jean>]
;B[dd];W[pd];B[dp];W[pq];B[dj];W[qo]C[I'd directly approach one of B's corners, but this is only a personal choice

I feel reluctant allowing black to extend on k4 or k16];B[nc]
C[B should take K4 (or K3 ?)
That would be a perfect extension from his sanrensei, and also would keep W from extending there]
;W[lc]TR[pj][qj]LB[qc:B]C[You should play this only if you have a stone on one of the triangles q10 or r10

Trying a two-space high or low pincer may get you a better result, especially considering  black's stones on the left
Just imagine B plays on J17 now (see var)]
(;B[ne]LB[pc:C][qc:A][qd:B]C[phi: I have seen now in the joseki book, that it would have been better for black to play black A, white B, black C, to ensure life in the corner.

jean> BlackA, White ** C ** !! cause W doesn't have an extension on the right side
see variation];W[pf]C[phi: should I have played the 3x3 Point now to punish black?

jean> playing now at 3-3 would not punish black, but allow him to seal you in the corner]
;B[pb];W[qc];B[jc]
(;W[hc]LB[le:A]C[phi: I wondered, if A would have been a good move too: to weaken the black group.

jean> maybe, i think it leads to a fight, which is worth playing

easier way to play is L16 to keep black stones separated];B[je]
;W[ec]C[phi: now I am running for life.

jean> sure, but you have two weak groups floating
All this is because of your pincer at M17 (which looks lost now)]
;B[dc]
(;W[eb]LB[jb:A][jd:B]TR[hc][lc]C[phi: It is possible to connect the two marked white stones through A and B. Would it have been better?

jean> let's look at variation];B[db];W[ee];B[ed];W[fd]
(;B[fe]C[wrong cut ? see var];W[ge];B[ff];W[gc];B[gf]
(;W[id]C[phi: uh oh! I think I did the wrong move to connect!! But I did not see how to connect?? Is there a possibility?]
;B[jd];W[ie];B[he]C[forget this stone, and get out, it's getting urgent]
;W[gd];B[if];W[fb]C[phi: still running for live.];B[hb];W[ib]
;B[ic];W[jb];B[hd];W[gb]C[phi: had to ensure 2 eyes.];B[kb]
;W[kc];B[ea]C[phi: now, the white group can not be killed any more. This move was useless.

jean> yes]
(;W[lb]C[this move is useless too
B stone can't escape];B[md]C[small move

bottom side is urgent move now
at k10 or k3

locking the left side is big too];W[pj]C[good, but better at k10 i think
(real extension from W corner then)];B[jp];W[lp]C[w has to get in B's sphere of influence
for example at c8];B[dq];W[ch]C[phi: greedy??

jean> no, but it is late ... W can't afford to let B take all the left side, so had to invade sooner]
;B[dg]C[phi: cant remember what I wanted to do with this move.
What would be better?

jean: maybe play at c14 (variation)]
(;W[cg];B[cf];W[cj]C[i'd plunge at b10 instead

harder for B to block it];B[ck];W[dh];B[bf];W[eg];B[df]
(;W[di]C[e13 is a wasted stone for the moment, since B can cut]
;B[ej]
(;W[ei]LB[bg:A]TR[cg][eg][ch][dh][di][ei][cj]C[phi: I think I should play something like A now, to ensure life for the marked stones? What would you have done?

A doesn't secure life (see var)
I'd play G12 or G11 to get out first];B[bj];W[gi];B[fj];W[fi]
;B[gj];W[ii];B[ij];W[hj]C[useless (you're just giving B to play on h9 and close his moyo)]
;B[hk];W[ji];B[jj];W[hq]C[Hyper risky move

Black can force ko for the life of your center group (var)

If your center group lives and makes some points in the process, you're ahead in the game
So, why not play l10 or so, to be really out and get a link to the right]

(;B[iq]C[W's mandatory move is now H3];W[fq]LB[kq:A]C[phi: too small for a base. Better give up the marked stone and press from the oposite (A)?

no just play h3 and wait for B's next move];B[hp];W[fo];B[gp]
;W[fp];B[dn];W[hn];B[jn];W[kj];B[kk];W[lj]C[as you'll see B L11 is painful

o13 would have been good instead];B[hg];W[hi];B[ki];W[le]C[making black play here, you're only reinforcing his stone at l11 (no way to break the ladder later)]
;B[lf];W[kh];B[li];W[mh];B[mi];W[kf];B[lh]
(;W[lg]LB[ke:C][jg:B][kg:A]TR[cg][eg][ch][dh][di][ei][fi][gi]
[hi][ii][ji][cj][hj]C[phi: I was thinking of A,B and C also. But I did not see a way to save the marked group.

A and C : k12 is deadly (see vars)
B: seems to lead to a ko, cause B can't play k12];B[jh];W[ih]
TR[cg][eg][ch][dh][ih][di][ei][fi][gi][hi][ii][ji][cj][hj]C[phi: the rest of the game was just a desaster. I tried to kill any black group to get marked group alive. But I lost.

jean> would have been better to attack strongly B upper right stones (with r18 to start with) and make life for your lower side group]
;B[jg];W[mf];B[kg];W[ob];B[mk]
(;W[jk]C[there are opportunities on the lower side];B[ik]
(;W[lk]C[this is useless

see variation];B[ll];W[kl];B[mj];W[ln];B[km];W[ml];B[kk];W[lm]
;B[jl];W[jo]C[see the use of j5 in on the variations sooner

you're now depriving yourself of this possibility];B[io];W[ko]
;B[in];W[er];B[dr];W[hr];B[ir];W[fm];B[nl];W[nm];B[ol];W[pl]
;B[om];W[pn]C[W side is way smaller this way than what could be obtained (o10 sooner in variation)]
;B[pm];W[qm];B[pk];W[ql];B[qk];W[qj];B[rk];W[on];B[nk];W[dm]
;B[dl];W[en];B[cm];W[em];B[do]C[W is dead (f4 and friends)]
;W[gn];B[gr];W[kr];B[nh];W[nf];B[ph];W[qh];B[pi];W[qi];B[pg]
;W[qg];B[of];W[oe];B[og];W[oi]C[giving a stone to black (see var)]

(;B[ni];W[hl];B[gl];W[rj];B[ld];W[kd];B[ke];W[nd];B[jf];W[oc]
;B[lf]
(;W[nb]C[b and w hallucinated there ... (see var for this one move)]
;B[me];W[rl];B[sk];W[sj];B[kq];W[lq];B[jr];W[lr];B[fa];W[ga]
;B[da];W[sl];B[ok];W[mm]TR[hl][dm][em][fm][en][gn][hn][fo][fp]
[fq][hq][er][hr]C[phi: White (thas me) resigns.
phi: has the marked group a chance to live?

jean> no, there's no chance you can make this group live
no eye on the side, and f6 is the only eye])
(;W[me]CR[me]))
(;B[oj]CR[oj]C[what can white do ?];W[oh]CR[oh];B[ni]CR[ni]
))
(;W[nj]CR[nj]C[way better to force black to eat your stones than giving him more stons]
;B[mj]CR[mj];W[nl]CR[nl]C[W is still behind, but may get chances to erode black's center]
))
(;W[gq]CR[gq];B[ir]CR[ir];W[io]CR[io];B[ip]CR[ip];W[jo]CR[jo]
;B[ko]CR[ko];W[kp]CR[kp]C[fight again]))
(;W[jg]CR[jg];B[lg]CR[lg];W[ke]CR[ke];B[kg]CR[kg];W[jf]CR[jf]
;B[jh]CR[jh];W[ih]CR[ih]C[not brilliant, but you get a ko
better than unconditionnal death])
(;W[kg]CR[kg];B[jh]CR[jh]C[i don't think W can capture B's big center group, so this k12 kills]
;W[ef]CR[ef]C[if W doesn't play this soon, B will and there is no way to capture B stones]
;B[ke]CR[ke];W[ld]CR[ld];B[lg]CR[lg]C[just one example])
(;W[ke]CR[ke];B[jh]CR[jh];W[kg]CR[kg];B[ef]CR[ef]C[W still dead]
))
(;B[hi]CR[hi];W[hh]CR[hh];B[ih]CR[ih]C[this will be a difficult ko to win for black (he has to win it and get to play g12,  but l11 is a good threat in its time and contributes to seal White

since W doesn't have a single eye on the side, he needs two in the center
with a B stone at L11, it looks impossible]))
(;W[bg]CR[bg];B[bj]CR[bj];W[bi]CR[bi]C[now black can choose between forcing ko, or simply play b9]
;B[bk]CR[bk]C[if W doesn't play a12 or such, black will and W has no eye on the side, so ...]
;W[ah]CR[ah];B[fi]CR[fi]C[W has only one eye, and no hope for a second .....]
)
(;W[gh]CR[gh]C[again, W is out which is better]))
(;W[gh]CR[gh];B[eh]CR[eh];W[ei]CR[ei];B[fh]CR[fh];W[fi]CR[fi]
;B[fg]CR[fg];W[di]CR[di]C[really out in the open]))
(;W[cf]CR[cf];B[df]CR[df];W[cg]CR[cg]C[w has more space now]
))
(;W[ha]CR[ha];B[lb]CR[lb];W[mb]CR[mb];B[mc]CR[mc];W[la]CR[la]
C[just to verify B is trapped]))
(;W[jb]CR[jb];B[kb]CR[kb];W[kc]CR[kc];B[ib]CR[ib];W[ic]CR[ic]
;B[ja]CR[ja];W[jd]CR[jd];B[mb]CR[mb];W[kd]CR[kd]C[connected but still dead

where are w eyes ?]))
(;B[fc]CR[fc];W[fb]CR[fb];B[fe]CR[fe];W[gd]CR[gd];B[ef]CR[ef]
C[W is sealed in]))
(;W[jb]CR[jb]C[i suspect this is how you plan to connect];B[kb]
CR[kb];W[kc]CR[kc];B[ib]CR[ib];W[ic]CR[ic];B[ja]CR[ja];W[jd]
CR[jd]C[now, if B doesn't want to take any risk on the top, he'll play ...]
;B[mb]CR[mb];W[jb]CR[jb];B[lb]CR[lb]C[W is virtually connected (still needs to add a stone , or be prepared to fight a ko there)

B has fewer points than in the game, but W still lacks eyes ......]
))
(;W[le]CR[le];B[ng]CR[ng];W[ph]CR[ph];B[lg]CR[lg];W[id]CR[id]
C[but who is weak here ?
there will be a fight, and if it goes to the left side, it should be difficult for white]
))
(;B[qc]CR[qc]
(;W[pc]CR[pc];B[qd]CR[qd];W[pe]CR[pe];B[pb]CR[pb];W[ob]CR[ob]
;B[qb]CR[qb];W[oc]CR[oc];B[qf]CR[qf];W[og]CR[og];B[qg]CR[qg]
)
(;W[qd]CR[qd];B[pc]CR[pc];W[od]CR[od];B[nb]CR[nb];W[me]CR[me]
C[this is only good if W already has a stone , at Q10 for example

else black plays here ..];B[qj]CR[qj]C[W has lost everything here ; his influence on the right side is canceled by this stone]
))
(;B[ic]CR[ic]C[who is being pincered now ?]))
