(;FF[4]GM[1]SZ[19]ST[3]AP[SGFC:1.13b]

EV[Varese Tournament]
RO[5]
PB[Vanney]
BR[6k]
PW[Missaglia]
WR[7k]
KM[5.5]
DT[2001-03-11]
RE[W+8.5]
TM[3600]

C[I play black.

I've lost this game for 8.5 points. I made some big  mistakes but also my opponent.
I thought my territory on the left was as big as my  opponent's one in the bottom right corner ; but it made  the difference.

I'd like to understand what I should have done to make  the difference

Hi!

I hope this review helps. I will try and comment on  both black and white as I find that easier so pls.  forward this review to your opponent. Be sure to check  the comments at the end of the game as that is where I  usually put advice on what to work on in your game.

Hope you enjoy!

Goran (European 2dan)];B[dp]C[Current standard of politeness suggest black plays  his first move in the upper-right (if the move is  komoku it should be played at r16 and not q17).]
;W[pd];B[dc];W[pq];B[ci];W[qk]LB[qk:6][fq:a][de:b][gd:c][jd:d]
C[Playing mane-go is not very good as black will be a  move ahead throughout the game.
The usual moves range from a-d. There's an  excellent article by Charles Matthews on Chinese  style opening on Mindzine  (http://www.msoworld.com/mindzine/news/orient/go/
go.html). Makes for an interesting read and should  be very helpful.]
;B[nc];W[pf]
(;B[kd]LB[kd:9][id:a][de:b][qc:c]C[Black 9 is a move that invites white to play b and  shows black is willing to let white get a small life in  the upper-left. The other way to go would be black 9  at a which makes invading at b a very difficult task  for white. Playing a means that there's less support  for black marked stone but black shouldn't worry  about that as the marked stone has the invasion at  c open anytime.  See var.]
;W[fq];B[dn]
(;W[iq]LB[iq:12][po:a][jp:b][hp:c][de:d]C[Considering black erasure moves a-c this feels a  bit low. Black c in particular would be very painful  for white as his position would be pressed low  while black builds his center.
Invading around d still seems to be the best for  white.
See var.]
(;B[ei]C[was it too soft ? should I have invaded white bottom  right corner ?

See var.];W[qo]C[In this formation making a high shimari is better as  it is more balanced with the r9 stone.]
;B[jp]C[Very good.]
(;W[lq]C[White should defend his group.
see var.];B[jq];W[dr]
(;B[cq]LB[cq:19]C[Black should put the marked stone to use.
See var.];W[lo];B[gp];W[gq];B[ip];W[ir];B[jr];W[cr]
(;B[br]C[See var.];W[hp];B[ho];W[hq];B[in]LB[in:31]C[Black didn't handle the fight very well but the game  is still open.]
;W[de]
(;B[ce]C[was it the right direction ?
See var.]
(;W[cf]C[White should play for sabaki...];B[cd];W[fd]
(;B[df]LB[df:37][bf:a]C[Wrong direction. Connecting at 37 does not do  much for the security of white group so this cut is  not important at the moment and if white does get to  protect the cut indirectly through the fight black can  always connect at a if he feels it's necessary.
See var.];W[ee];B[dg];W[ic];B[jc];W[ie];B[fb];W[jd]
(;B[je]C[This helps white more then it helps black. See var.]
;W[id];B[kc];W[jf];B[pb]LB[pb:49][qc:a]C[This erases black potential for invading at a. Until  white group is safe black shouldn't worry so much  about the security of this group.

On the other hand after black secures his group white  group will have to find life so black will be able  to invade at a - so 49 is aji-keshi.]
;W[qc];B[ke];W[fg];B[kf]LB[kf:53][gi:a]C[It is hard to find a good attacking point so the direction  of play is around a. While black mojo is getting larger  white group is getting weaker so that is ideal...]
;W[jg];B[kg];W[jh];B[gi]LB[gi:57]C[The marked exchange only helped white while black  got little compensation for it. The marked white stones  on the right erase black strength gained by the  exchange.]
;W[hh];B[ij];W[ok]C[Very good.]
(;B[ml]C[There's quite a lot potential (aji) in the white corner so  perhaps a test is in order - see var.

Because of the aji in the corner black should be more  aggresssive here.]
;W[nm];B[qb];W[rb];B[kn]LB[kn:65][mn:a]C[now I have almost 80 points on the left + 10 in the  upper side.

white has 50 in the bottom right, 10 in the upper side,  10 in the lower side and at least 10 on the right. I  thought I had to do something there ...

Again a is a good point for black.];W[ln];B[lm];W[mm];B[ms]
;W[mr];B[ls];W[ks];B[kr];W[ns];B[lr];W[nq];B[oh]LB[oh:77][og:a]
C[was it the good way to reduce white ? should I invade  ?

Perhaps black a would be more forceful. Black should  be looking at taking sente to correct his weak spots in  the lower-left.]
;W[ng];B[mi]LB[mi:79][nh:a][nj:b]C[O11 was better, I think

A is better. B is also a very interesting approach.];W[nh];B[ni]
;W[oi];B[oj];W[pi];B[pj];W[qj];B[nk]C[Better to connect directly in such situations.]
;W[pk]C[That way 88 would not be so big.];B[nj]C[I don't get anything ...

Even so 89 should be in the lower-left.];W[jj];B[ii];W[ji];B[ih]
;W[ig];B[gh];W[gg];B[jk];W[gc]LB[gc:98][fp:a][fo:b]C[For the last couple of moves bot white and black  ignored lower-left. Black a or white b is very big. Much  bigger then the local fights so far.]
;B[pc];W[rd];B[ne];W[kk];B[kj];W[lh];B[lk];W[gb];B[ec]LB[ec:107]
[fp:a];W[fo]C[this hurt me badly.

Yes this is very big.];B[go];W[dq]
(;B[fp]C[Very bad. This is where game is lost. White takes the  corner which is clearly bigger than this. See var.

After this black lost several opportunities to make the  game very close but at this point white is clearly  winning.]
;W[cp];B[co];W[bq];B[eq];W[er];B[ep];W[bo];B[bn];W[an];B[am]
;W[od];B[nd];W[oc];B[ob];W[ao];B[bm];W[eh];B[dh];W[ib];B[jb]
;W[ko];B[jn];W[qa];B[mh];W[mg];B[of];W[og];B[pe]
(;W[oe]C[I lost this opportunity to win !

Yes, this was careless by both players.
See var.];B[nf];W[qe];B[fh];W[eg];B[hi];W[mf];B[is];W[hs];B[js]
;W[lj]C[Careless move.];B[gs];W[fs];B[hr];W[fr]
(;B[kl]C[Another lost opportunity to win.
See var.];W[ki];B[kk];W[li];B[me];W[nl];B[mk];W[nb];B[mb];W[pa]
;B[na];W[lf];B[ph];W[qi];B[lg];W[qh];B[le];W[pg];B[ef];W[ff]
;B[kp];W[jo]
(;B[io]C[See var.];W[lp];B[ed];W[fc];B[eb];W[ra];B[oa];W[gr]
;B[hs];W[fe];B[ha];W[ga];B[ia];W[hb];B[ja];W[fa];B[ea];W[dd]
;B[cc];W[kq];B[hg];W[hf];B[hh];W[if]C[All in all the game could have been much closer as  both players made mistakes in the endgame.
White invasions were unreasonable although they  turned out o.k. Black should not have given up his  corner as that lead to the loosing position. I hope my  comments help as I tried to keep the variations  simple. If you liked this review then check out other  reviews I made for the GTL.
Black 89 and 111 are very serious mistakes so you  should spend some time on analyzing why you made  those choices.
White should be more careful about invading as the  result against better-prepared players might be very  different.   Goran]
)
(;B[lp]C[Black may extend here.];W[io]C[If white pursues...]
;B[mp]C[White is put on the spot.]))
(;B[ki]C[White gave black some points at the bottom so letting  black swallow this stone would be bad.]

(;W[li];B[kh];W[lg];B[hg];W[if];B[hf]C[But now the whole life of white group is in question.]
)
(;W[kh];B[li];W[lg]C[Black is still behind but the game is very close now.]
)))
(;W[qe];B[oe];W[qd];B[ph];W[qi];B[pg];W[qf];B[lg];W[mf];B[me]
;W[qg];B[lf];W[qh];B[nl];W[ol];B[is];W[hs];B[js];W[gs];B[fh]
;W[eg];B[ef];W[ff];B[hi];W[hg];B[li]C[Still black is somewhat behind.]
))
(;B[cp];W[bs];B[ar];W[eo]
(;B[fm]LB[fm:115][fp:b][fn:a]C[This is better for black. Because of white weakness  even a stops white (black can play b see var.)

Pls. remember this shape for stopping the advance of  white as it comes up frequently in games.]
;W[em];B[en];W[fn];B[gn];W[do];B[co];W[cn];B[dm];W[cm];B[dl]
;W[ep];B[bn];W[bm];B[bo];W[ck];B[ap];W[bi];B[bh];W[bj];B[ch]
C[White is still dead.])
(;B[fn];W[en];B[em];W[fm];B[gn];W[dm];B[el];W[do];B[cn];W[co]
;B[bo];W[bn];B[cm];W[bm];B[cl];W[bp];B[fp];W[ao];B[ep];W[bo]
;B[bq]C[This is just for references in this particular  situation this is good otherwise black should  defend with keima!]
)))
(;B[pr]C[Black may test white defenses here.]
(;W[qr]C[This is easy on black.];B[oq];W[or];B[nr];W[ps];B[lr]
;W[mq];B[mr];W[nq];B[mm]LB[mm:71]C[After gaining on the bottom erasing lightly while  keeping an eye on the marked stone is o.k.]
)
(;W[oq]C[Again too easy on black.];B[mm];W[nn];B[qq];W[qp];B[rq]
;W[or];B[qs];W[rp];B[rr]C[Black erases and lives in the corner.]
)
(;W[or]C[This is the strongest response.];B[oq];W[nr];B[pp]
;W[qq];B[qp];W[op];B[rq];W[qr];B[ro];W[po];B[rp];W[qm]C[White 74 is too easy on black.]
;B[rr];W[nq];B[rs]C[B makes life but white may not be so helpful see next  var.]
)
(;W[or];B[oq];W[nr];B[pp];W[qq];B[mn]C[Black should erase more deeply.]
;W[ln];B[mm];W[tt]C[If white doesn't take care of his weakness...]
;B[qp];W[op];B[rq];W[qr];B[ro];W[po];B[rp]C[Now white must take the corner or else black lives.]
;W[rr];B[qm];W[oo];B[om]C[Black connects or lives.])))
(;B[ke]LB[ke:45][id:a][kc:b]C[When white connects at a white b becomes  possible, so perhaps black shouldn't force w to  connect at a.]

(;W[kc]C[This doesn't work...
See var.];B[jb];W[kb];B[ib];W[hc];B[hb])
(;W[jb]C[If white ataries from this side...];B[kc];W[hb]C[To gain eye potential here w needs to prevent black  from peeping at 48 but this leaves him open to...]
;B[hd]C[... black 49 and white shape hurts.])))
(;B[hd];W[gf];B[if];W[hg];B[hi];W[ig];B[ef]C[This way white forced black to take territory at the  top and left while his group can still be attacked.]
))
(;W[dd];B[cd];W[ec];B[db];W[ic]C[Sabaki means playing lightly and being willing to  sacrifice some stones in order to get quick life.]
;B[fd]C[So if black attacks like this...];W[fc];B[ed];W[gd]
;B[ef];W[lc]LB[lc:44][ge:a][ff:b][gf:c]C[White discards his stones and makes good shape.  Next he may continue with an attack on the black  group. Pls. note that a, b or c is forcing for white but  it is best too keep the possibilities open as white is  not sure which of those moves he will need.]
))
(;B[cd]C[Taking the corner is important but so is not touching  white stones.]
;W[ed];B[gd];W[ec];B[ce];W[dg];B[fg]C[This would be a very nice way to attack.  Remember - when attacking you should not play  contact moves.
While b is taking points in the corner and the side  white group is running on dame points. Even if white  group manages to escape the invasion is not good for  white.]
))
(;B[eq];W[er];B[fp];W[dq];B[ep];W[cp];B[co];W[bq];B[id]LB[id:35]
[pr:a][nq:b]C[Black has many good moves as a follow-up.  Consider black a with the follow-up at b. As for  territory - the exchange white made is bad for white.  Black marked group is surely worth more then 15  pts white got at the bottom-left.
This would make the game easy for black.]))
(;B[eq];W[er];B[fp];W[gq];B[gp];W[hq];B[io];W[cp];B[co];W[bp]
;B[cq];W[dq];B[ep];W[bq];B[id]C[Very good for black.]))
(;W[ip];B[jo];W[kr];B[io]LB[io:19][fo:a]C[White has to prevent black a.]
;W[fo];B[mp]C[Black erases white center.];W[lp]C[Cutting directly is no good.]
;B[lo];W[kp];B[ko];W[mo];B[np];W[mn];B[oq]LB[oq:29][jq:a][jr:b]
[kq:c]C[Aims at black a.];W[lr];B[pp]C[Black group is safe.]
))
(;B[de]C[Geting a shimari is always big.];W[po];B[hp];W[hq]
;B[fp];W[gp];B[go];W[gq];B[eq];W[ho];B[gn]C[White will have to find an invasion point as he is  falling behind on territory.]
))
(;W[de]C[White invasion is normal.]
(;B[fc]C[A well balanced move.
See var.];W[cc]
(;B[cb]LB[cb:15][cd:a]C[Black 15 at a just makes white stronger.
See var.];W[cd];B[bb];W[cg]LB[cg:18][ff:a][ei:b]C[White group is almost safe. Black will get to choose   a or b to continue the attack.]
;B[hq]C[If b attacks white lone stone at the bottom...];W[cq]
;B[dq];W[dr];B[er];W[cr]C[Next black has to be careful...]
(;B[fr]C[See var.];W[bo];B[bn];W[co];B[cn];W[do];B[eo];W[en]
;B[fo];W[ar]LB[ar:34]C[White lives while his marked stone will cause  problems for black.]
)
(;B[eq];W[bo];B[bn];W[co];B[cn];W[do];B[eo];W[ar]LB[ar:32][en:a]
[fp:b][fr:c]C[Defending at a may seem thick but in fact it leaves  white peeps at b and c for later.]
;B[fp];W[mp]C[A well ballanced move that defends the corner and  erases black thickness.

I hope the variations are instructive...]))
(;B[cd];W[dd];B[bc];W[ec];B[cb];W[db];B[cc];W[ed];B[fb];W[eb]
;B[ce];W[gd];B[hc];W[id]C[Black mojo in the center disappears.]
))
(;B[ed]C[Playing here is not that good.];W[cc];B[cd];W[dd];B[bc]
;W[ec];B[cb];W[db];B[cc];W[fd]C[White gets a ponnuki.])))
(;B[id];W[de];B[cd];W[ed];B[ec]LB[ec:13][gd:a]C[Black 13 at a has also been seen.]
;W[ce];B[gd]LB[gd:15]C[This result is very goo d for black. Black marked  stones are taking pure territory while white marked  stones still lack a base. The marked black stone on  the left is perfectly positioned to limit white  extension on the left.]
))
