(;FF[4]GM[1]SZ[19]AP[SGFC:1.13b]

GN[juan-toktok(B) IGS]
PB[toktok]
BR[16k*]
PW[juan]
WR[14k*]
KM[0.5]
DT[2001-04-09]
PC[IGS:  igs.joyjoy.net 6969]
RE[W+14.5]
TM[60]
US[Brought to you by IGS]

C[(Tobias:)
I am aware of two big mistakes i made, one in the beginning when i didn't protect the group correctly that i consecutively lost (at move 43: p6 instead of
q6 should work), and to start the ko at 197, instead of the simple connection and a following invasion. I believe that even with this early loss of the 7 stones, the game was still fairly open, even though this capture made him very strong...]
;B[pd]C[(Dieter:)

As you probably remember from last review, I focus on two major principles in Go:

1. Connect your stones
2. Don't let yourself surround

and their counterparts

1. Cut your opponent's stones
2. Surround your opponent's stones

As you see, these principles make complete abstraction of the concept of territory. Connect, cut, surround and break through, should render territory in a natural way.]
;W[dp]C[(continuation)

Kyu Players tend to attach too much to individual stones and territory. Stronger players think before turning a stone into a group, and once they have done so, they continuously measure the relation between that group and the surrounding area's.]
;B[cd]C[
Some abbreviations before starting the commentary:

UL, LL, UR, LR: upper left, ..., lower right
US, LeS, RS, LoS: Upper side, ...
Cr: center
Bl: Black
Wh: White  Var: Variation
1,2,3, ... : the stone at 1,2,3 ...
-------];W[qp]C[(start of comments)];B[op]LB[id:a][ic:b]C[This is the right direction. Both White 2 and 4 want to extend along the LS. So coming in between (cut your opponent's stones) is a good idea.

Playing the Chinese opening, at A or B, would be an alternative approach, presumably leading to a moyo contest. Your move at 5 indicates that you prefer to develop this game into a struggle between several small(er) groups.]
;W[pq]LB[kp:a][kq:b][lp:c][lq:d][pn:e][oq:f]C[This is an unusual move.   At our club, I discourage the play of the kosumi (diagonal move). Rarely it is a good move locally, when keima or ikken-tobi are available.

White should pincer at A, B, C or D, or play keima at E.

Since Black wants to counter the influence of Wh2, you should welcome the invitation to strengthen your influence in that direction, and answer F without hesitation.]
;B[pp]LB[qo:a]C[So I can't approve of Black 7. Extending at A now is too easy for White.]
;W[qo];B[oq]C[This makes sense. A pity for the 7-4 exchange.]
;W[pr]MA[qq][qr][rq][rp][sp][ro][so][sq][rr][sr][ss][rs]LB[lp:a]
[kp:b][kq:c][lq:d]C[White makes 12 points of territory (marked), and his Stone at 8 influences the RS in a negative way for Black. The influence Black makes towards Cr and LoS doesn't make up for it.

Still, if you extend to A,B,C or D, although you will have made a bad exchange Black7-White4, your stones will still serve the right purpose: cut the opponent's groups, and counter the influence of Wh2]
;B[or]C[I reckon you thought this move was sente, but this is where a little thinking forward would have learnt that it is not. Probably you thought things would happen as in Var2:]

(;W[jq]LB[lq:a][fq:b][qq:c][pn:d]C[Very good by White:

- This is exactly the spot where Black wants to extend.  - The influence of the Black wall is nullified.
- It extends Wh 4.
- It disregards the Black claim for sente.

Now, what can you do ?

1) Extend to A, which gives strength to your wall, but which is also painfully submissive and overconcentrated.
2) Attack at B would be an overplay: the Black group in the LR is not strong enough to start operations that could affect its life.
3) Play elsewhere (tenuki): always an option, but then why play at the LoS in the first place ?
4) Since Wh hasn't answered your move at 11 locally, there must be a way  to exploit the aji that is left in the cut at C. Of course, we have shown that it doesn't work immediately. But try starting at D. (see var)]

(;B[ip]LB[jp:a]C[Probably you think this follows the principle "attack away from thickness".
The problem here is that Black is not thick at all. The four stones at the LR need reinforcement (see previous diags)

The "kata" or "shoulder-hit" you play, is a move for very special circumstances. When reducing the opponents moyo, mostly.

It is NOT an attacking move. Just like the "tsuke" (or attachment), the kata strengthens the opponent's stone. That's fine in an area where the opponent is already strong, making him overconcentrated. But here, strengthening Wh12 is the last thing you want.

Also, the obvious answer for white is A. This move cuts the Black stones.   While Black 7 and 11 where joseki mistakes, costing you several points, Black 13 goes against the logic of Go, and is the real start of your troubles in the beginning of this game.]
;W[mq]LB[jp:a]C[White should simply push up at A.];B[lr]LB[on:a]
[pn:b]C[Before you seek life at the bottom, first get out. Ikken tobi at A or B is just fine]
;W[lq];B[mr];W[kr]C[These moves where consistent.]
(;B[nq]LB[nr:a][os:b][jp:c]C[Several reasons why this move is bad.

1) It prevents a cut at A which doesn't work anyway.
2) Due to white B, the eye at A is still false.
3) Even if Black makes an eye at the bottom, it is MUCH better for black to jump out, following principle 2. Eyes you only make when you have no other choice.
4) Black 5-9-11-19 make a Farmer's Hat, a very bad shape. That in itself should already make you dismiss this move as an option.

Let me present an alternative for Black 19, punishing White for not having pushed up at C earlier.]
;W[hq]LB[mo:a]C[White also should simply jump out to A, to split Black's forces.]

(;B[fq]LB[kp:a][pn:b][dj:c]C[White having strengthened himself at the lower side, it is a bad idea playing there.   Force him into bad shape at A, then look at the board.

White has invested all his money into the lower side, and his return on investment is rather low.

Black has invested in a still rather weak group, that should however be able to escape.

Play B first (a move I have been recommending for quite a time now)
and then tenuki, e.g. at C, enlarging your own sphere of influence, and reducing White's.

I'll give all of them in a variation:];W[dq];B[hp]C[Yes ! Good move: connecting your stones # : - 7]
;W[gq];B[gp];W[fp];B[iq]LB[ir:a]C[White should connect at A now.]
;W[fr];B[ir]C[You have split and almost surrounded white. Good. On the other hand, your groups are split as well. The fight will be fierce, and Wh has only to take care of 1 group.]
;W[kn]LB[lo:a][mo:b]C[Ikken-tobi at A or B are the best runaway moves.]
;B[kp];W[jp]
(;B[lo]LB[jo:a]C[Ouch, look at the variation.];W[ko];B[lp];W[mp]
;B[ln];W[mo];B[mn];W[nn];B[km];W[kq]C[Nice play by white.];B[pn]
LB[on:a]C[Yes, as you said, A instead of 43 may be betternow, due to the presence of 40.]
;W[io];B[hn];W[in];B[jo];W[jn];B[hm];W[il];B[ll]C[Good connection]
;W[po];B[oo];W[on]
(;B[no]LB[ns:a]C[The best resistance for Black is to make 1 eye in sente at A. See var.]
;W[pm];B[im];W[os]C[Good];B[ks];W[ls];B[js];W[np];B[ms];W[nr]
;B[jm]MA[fm][mk][mj][ni][nh][ei][ek][ej][fl]C[This is strong, but slow. Anyway, your stones are connected. White gets a lot of points AND sente. The game will be very tough on you - you have to catch up with some 50 points, but you influence the center along the marked lines.]
;W[cj]LB[jd:a]C[Good by white: this is a large area.   Farthest away from th Black strength, and the largest open area  is the TS. A play around A would be perfect.]
;B[fc];W[qh];B[cm]C[Yes ! Very good idea:  split up White's forces, use your strength, attack. There will be some profit coming from it.]
;W[em];B[fo];W[ep];B[en];W[dn];B[dm];W[fn];B[el];W[fm];B[dk]
C[Connects. Good.];W[cg];B[ci]C[Oh. This is wrong. 66 and 80 are stones you want to attack. When playing tsuke against them, you strengthen them.

Don't tsuke weak stones !];W[dj];B[ej];W[di];B[bi];W[ck]
(;B[cn]C[Both 86 and 87 strain away from the sagari at 85, which threatens a connection underneath to 3. See the variation.]
;W[do];B[qj]C[You should continue at the left side, but I imagine you didn't see that connection.   89 is another splitting move. The idea is good, albeit somewhat close to white's force.]
;W[qe];B[qd]C[Good. Your opponent invites you to strengthen yourself.]
;W[pe];B[od];W[pj];B[pi]C[Better hane at the outside];W[qi]
;B[pk];W[oj]C[Now you sacrifice a stone inside the group you attack.]
;B[ok];W[nj];B[nl];W[mm];B[lm];W[ml];B[mk];W[nm];B[nk];W[lk]
LB[oh:a]C[White is way ahead, but too thirsty for blood. He gives you the opportunity to fight in your sphere of influence.

Imagine a "geta" at A, securing the LS group, and Black's center goes to waste]
;B[kk];W[lj];B[mj];W[ni];B[mi];W[nh];B[ki]C[Very good. A nice "geta" or "net" traps the cutting stones.]
;W[gk];B[hl]LB[bg:a][le:b]C[There is no time to capture worthless stones like 50.   Apart from the already mentioned and critical move at A, you could try surrounding a large area with B.

More important however is that W116 threatens to cut off the Black group 87-83]
;W[gi]C[Now your LeS group is cut off and surrounded.];B[lf]
C[Assuming you can live at the LS, this is good.];W[lh];B[li]
;W[mh];B[kh];W[me];B[oe];W[of]LB[mf:a]C[Bad by white. Should be at A.]
;B[mf]C[You cut his stones. Good.];W[nf];B[ne]C[OK. White is shut in and cut.]
;W[lc];B[jc]C[Attacking from a distance: good. You'll see that this works better than the tsuke of 81.]
;W[kg];B[kf];W[jg];B[jf];W[lg]LB[bp:a]C[White makes a defensive move. Always a good moment to stop and count the game.

Black:

TS: 60 + points
Cr: 10- points
LS: unsettled
- weak group (stake of the game)
+ aji in 85   White:

LL: 15 +
LS: unsettled
LR: 30 +
Cr-R: 10 +
komi: 5

So, you are suddenly ahead in points, but white has still a lot of development, and the left side (a 40 points) is unsettled.

You must first do something about it, albeit unclear what. A keima at A to make life, may be the best shot.]
;B[gj];W[fj];B[fi];W[fk];B[fl]C[nice tesuji]
(;W[gl]C[White falls into the trap. Look at the variation for white.]
;B[gm];W[eo];B[ei];W[hj];B[ek];W[gg];B[hk];W[gj];B[eg]C[Good. You're playing very fine Go now.]
;W[dh];B[fg]C[Nice shape !];W[if];B[nc]LB[ie:a]C[You should by all means play the evident move in this position: a counterhane at A. No time to be submissive.]
;W[hd];B[jd]LB[ld:a]C[Feels submissive, but may be necessary now.]
;W[ee];B[df]C[Good];W[de];B[fe]LB[cf:a]C[Simply push through at A. White LeS stones come into danger]
;W[ce];B[cc]C[Skillful defense];W[ff]C[Impossible.];B[gf];W[ef]
;B[gh];W[hh];B[hg];W[ih];B[ig]C[Good result for Black.];W[jh]
;B[he]LB[ge:a]C[Simple connection at A is best.];W[fd];B[ie]
;W[dg];B[ec];W[ge];B[gc];W[cl];B[dl];W[bl]LB[rk:a][rd:b][gd:c]
[bp:d]C[With all groups settled, the endgame starts. A and B are the largest moves for white. C isn't small either. D is also quite big.

Let's count.

Black: still about 70 points

White: the 60 he had, plus 16+ at the left side.

So you are 6 points behind and white has more potential. Let me play the endgame as I would pay it, that's variation 2. Full of mistakes of course, a professional wouldn't want to see it.]

(;B[bq]C[Too far];W[bp];B[bo];W[ap];B[co];W[cp];B[re]C[Good: largest endgame point]
;W[qf]C[Bad shape and unnecessary from white.];B[rf];W[rg];B[rl]
C[Good endgame.];W[qk];B[ql];W[rj];B[rk]C[Oh. As you said: this ko is flowerviewing for white. This loses the game.]
;W[pl];B[qj];W[jj];B[kj];W[qk];B[ij];W[hi];B[ji]C[Retake the Ko. You have two eyes already.]
;W[qj]C[Game over and end of comments.


You got at a disadvantage early in the game, and had to fight your way back. You managed to transform the whole upper side into territory, skillfully using your thickness in the center.   You failed to see the enormous potential of your own move at 85, which could lead to an attack on the left side, using your central thickness for a second time.

When he secured his stones there, capturing yours, he was already ahead with more than 10 points. However, you started to play a good endgame, and if it weren't for the careless ko invitation at 197, you could have leveled the score.

Although I have never played on IGS myself, I know you have to play fast and haven't got the time to make deep calculations. A game on IGS is good to test your reflexes and intuition. So don't feel discouraged by variations you failed to see. They are given merely to illustrate a general point. What you should learn from this game is:

- Are my moves really sente ? (move 11)
- A shoulder hit strengthens my opponent. Do I want that ? (move 13)
- Jump out FIRST (don't let yourself surround) THEN (if surrounded) make eyes (move 19)
- An area where my opponent has invested a lot of stones is uninteresting to me. Playing in that area may spell trouble (move 21)
- When surrounded, make an eye in order to live or to maximize the effect of a sacrifice (move 35)
- Attack a group with a keima, a  boshi or a placement. NOT with a tsuke (81)
- When behind, there is no time for submissive play (117, 155, 157)

You have a good feel for shape and tesuji. Examples include:

115, 141, 153, 163, 193



Study material:

- "The direction of play" - Kajiwara Takeo
- Study joseki : DON'T learn it by heart, but try to understand the meaning of each move.
A very comprehensive joseki tool is available at  http://www.teleport.com/~kogo/
- "Attack and defense" - Akira Ishida and James Davies

(myself I try to do a little Tsumego every day)

If any questions, I am currently available at
dieter_verhofstadt@hotmail.com


Greetings,

Dieter];B[gr];W[gd];B[hr];W[er];B[hc];W[ao];B[bm];W[am];B[eh]
;W[go];B[ho];W[jo];B[be];W[bf];B[ad];W[id];B[ic];W[jr];B[is]
;W[gs];B[ed];W[fe];B[dd];W[cf];B[mg];W[ng];B[af];W[ag];B[ae]
;W[sf];B[rd];W[eq];B[gn];W[fo];B[gq];W[ii];B[jk];W[se];B[sd]
;W[sg];B[hs];W[fs];B[ls];W[ol];B[ns];W[tt];B[qn];W[qm];B[rn]
;W[oo];B[rm];W[om];B[tt];W[tt];B[tt]C[
 toktok dead @ N15
 toktok dead @ M17
 toktok dead @ J8
 juan dead @ Q11
 toktok dead @ J14
 juan dead @ B11
 juan dead @ S8
 juan dead @ B3
 juan done
 juan done])
(;B[re];W[rf];B[rd];W[ql];B[qk];W[gd];B[hc];W[bp];B[ij];W[hi]
;B[sk];W[rm];B[rg];W[qf];B[sf];W[qg];B[ad];W[be];B[ae];W[bd]
;B[bc];W[af];B[ac];W[bf];B[bo];W[ap];B[gr];W[eq];B[hr];W[co]
;B[bm];W[fq];B[al];W[ak];B[am];W[eh];B[fh];W[ao];B[gg];W[bn]
;B[rl];W[sm];B[ed];W[dd];B[dc];W[go];B[ho];W[jo];B[fs];W[es]
;B[gs];W[ns];B[ls];W[jr];B[is];W[rh];B[sg];W[sh];B[se];W[rj]
;B[pl];W[qm];B[sj];W[an];B[hf];W[mg];B[ji];W[id];B[ic];W[fe]
;B[gn];W[fo];B[si];W[ri];B[rk];W[sl]))
(;W[ek];B[dl];W[ei];B[gl];W[fh]C[Black connects, but the center colours white.]
))
(;B[bg];W[bf]C[If white resists ...];B[cf];W[bh];B[ch];W[ag]
;B[dg];W[bg];B[dh]C[Trouble for White !]))
(;B[ns]C[The best resistance for Black is to make 1 eye in sente.]
;W[ls]LB[no:a][im:b]C[White destroys the second one. But maybe he won't, because he has to read what happens if Black cuts at A and B.]
;B[no];W[pm];B[im];W[jm];B[jl];W[ps];B[os];W[ks];B[js];W[ms]
;B[jr];W[nr];B[mr];W[lr];B[ho];W[nr];B[jo];W[np]LB[dj:a][id:b]
[qg:c]C[After this sequence, you have captured 6 stones and you got sente.

White has about 40 points in the LR and 15+ in the LL, but you have a lot of development area so this game is playable.

In the game, you didn't capture 6 stones, and you connected yours in gote.

The kind of resistance I showed here, makes the sacrifice more valuable. Just remember to make one eye, then the ennemy has lots of work.]
))
(;B[jo];W[ko]
(;B[jr];W[kq];B[ks];W[jn];B[io];W[mo]C[Although very painful, connecting is a possibility]
)
(;B[lp];W[mp];B[lo]C[A do or die battle begins])))
(;B[kp];W[kq];B[pn];W[qn];B[pm];W[ql];B[pl];W[qk];B[dj]C[White is ahead in points, but the game is far from over.]
))
(;B[kp]C[Peep at the tiger's mouth ! (could be a proverb)];W[kq]
;B[pn]C[Black runs out
The white shape at the LS is not too promising. If Bl comes out of the right side with sente, he can play :]
;B[iq];W[jp];B[jo];W[ko];B[kn];W[lo];B[jn];W[ln]C[Black builds thickness towards the LS

(prerogative is Black thickness on the right)]))
(;B[pn]
(;W[qn]C[White answers ...];B[pm];W[ql];B[pl]C[Although giving a lot of territtory to White.]
;W[qk]C[...  your wall is probably strong enough to attack Wh12]
;B[fq])
(;W[gq]C[If white reinforces his stone];B[qn]LB[po:a][qq:b]
C[Black fences White in (remember Principle 2). White cannot cut at A, due to the aji of B. Here is where White's not answering Bl11 comes into play.]
;W[po];B[oo];W[on];B[qq];W[qr];B[rq]C[Black captures the cutting stones]
)))
(;W[jq]C[if white 12];B[qq]
(;W[rq]C[you saw this answer];B[qr];W[rr];B[ps])
(;W[qr]C[... but you realized too late, that Wh would answer this way.]
;B[rq];W[rr])))
