(;FF[4]GM[1]SZ[19]CA[UTF-8]AP[SGFC:1.13b]

PB[joanco]
BR[20k]
PW[starfish]
WR[19k]
KM[0.5]
DT[2001-04-15]
PC[The Kiseido Go Server (KGS) at http://kgs.kiseido.com/]
RE[B+Resign]
RU[Japanese]

;B[pd]C[Dear reviewer:
Thank's for your time in this review.
I played black and I win because my opponent did a very big mistake at endgame.
In the opening I'm feel winner but I did some mistakes and the game turn very close. Other mistakes and the game turn white and then white did the big mistake and resigned.
Thank's.

Hello,

The biggest issue I saw with black was the first corner fight. Also, general rule is to make sure your groups are safe before playing anything else. If you have any questions or comments, please let me know.

Have fun,
Teemu (teemu.leppanen@oulu.fi)];W[dd];B[pq];W[dp];B[fq]LB[fc:A]
[jd:B][pk:E][qk:F][po:C][qo:D][jp:G]C[Comment: This is ok. Other possible moves are shown.]
;W[dn];B[dr]LB[fo:B][jp:A]C[Comment: You can also play at A or B.]
;W[cq];B[ip]LB[iq:A]C[Comment: A is joseki.];W[po]
(;B[pl]C[Comment: See variation.];W[nq]C[I think the proper mov. is O5 and I don't know how negotiate this aprox.]
;B[op]TR[pl][ip]C[Comment: Splitting white's stones is correct. The idea is to let white have small profit in either side or in the corner and then build thickness using either of your marked stones.]
;W[no];B[np];W[mp]LB[mo:A]C[Comment: Cut at A is possible. Whatever white answers, you will have better result.]

(;B[oo];W[on];B[pn];W[qn];B[pm];W[pp];B[oq];W[qq]
(;B[nn]LB[mo:B][qr:A]TR[ip]C[Comment: A threatens to kill white if not answered and then you can cut. Perhaps cut at B is better since you can put marked stone into action. See variation.]
;W[mq];B[mo];W[or];B[pr];W[nr];B[qp]LB[qr:A]C[Comment: A puts more pressure on white since it threatens with double atari.]
;W[qo];B[qr];W[rq];B[rr];W[om];B[nl];W[mn]LB[lo:A]C[Comment: A is now better. See variation.]

(;B[nm];W[lo];B[no];W[rp]
(;B[ln]LB[kq:A]C[Comment: Perhaps A here. See variation.];W[kn]
;B[lm];W[ko]
(;B[in];W[jl]
(;B[km]C[After the review for me I think this move is bad. Perhaps L3 put more presion in my opponent.   Comment: See variation.]
;W[jm];B[jn]LB[kq:A]C[Other waste mov.   Comment: This is good cut. White has to play A to live, his group has no route to the center and his stones are separated.]
;W[kq];B[fc]LB[hl:A]C[Comment: Correct. A would also be good move here. It gives your group access to the center and also puts pressure on white stones.]
;W[df];B[db];W[cc];B[id]LB[ic:B][jd:A]C[Comment: A or B is possible again.]
;W[di];B[nc]LB[qf:A][qi:B][dl:D][hl:C]TR[qn][po][qo][pp][rp]
[qq][rq]C[Comment: I prefer A here. Perhaps black has more area potential with A and it forces white to invade upper side with no supporting stones.  Now white could play B and get support from his marked group . Anyway this is correct idea since you get huge moyo.  As said, C would be good now since it also supports later invasion at D (for example).]
;W[hm]
(;B[ck]LB[hn:B][ir:A]TR[hm]C[Hummm. Perhaps better a move near to R12?

Comment: Too deep invasion. Also notice that your bottom group is not completely safe after white played marked stone, so I would prefer playing A or perhaps B before anything else. See Variation.]
;W[dk];B[cj];W[ci];B[cm];W[cn];B[dl];W[dm];B[el];W[dj];B[gl]
;W[gm];B[gj]LB[fm:A]C[Comment: A seems natural but will lead to complicated fighting since black bottom group is not safe.]
;W[fk];B[fl];W[gk];B[hl];W[hk];B[il];W[im];B[ik]LB[fn:A]C[Comment: A would prevent white from connecting his stones.]
;W[kj];B[ij];W[kk];B[ek]LB[ih:A]C[Comment: This is very small move. A is better.]
;W[fj];B[fi]LB[ej:A]C[Comment: A is much better. Separate white stones.]
;W[ej];B[hi]LB[fn:A]C[I think this move is very bad, but white don't take profit.

Comment: This is not good at all. There are many bigger moves, for example A would make white run towards your moyo and you could make large profit by chasing it.]
;W[fn];B[ji]LB[ig:A][ir:B]TR[fn]C[Comment: This move does not achieve anything. A or similar move is better. But best move here would B since white played marked stone and connected his groups.]
;W[mi];B[pi]LB[pf:A]C[Comment: I would prefer A here.];W[qf]
C[Now white is turning the game.];B[qd]C[Comment: I think this is correct response.]
;W[qi]C[Comment: This is what I meant before. White has supporting stones at the right side.]
;B[qj];W[qh];B[ph];W[pg];B[nh]LB[og:A]C[Comment: A is the natural move.]
;W[oh];B[oi];W[og];B[ni];W[mf];B[ld];W[kf];B[if];W[kd];B[kc]
;W[md];B[le];W[lf];B[ke];W[me]
(;B[lc]C[Comment: This costed you few points later. See variation.]
;W[mc];B[mb];W[fh];B[hh]LB[cb:C][re:A][bi:F][rj:B][bm:E][cr:D]
[ir:G]C[Comment: Small move. There are some very big endgame moves shown.]
;W[ge];B[gd];W[jg];B[ig];W[bm]C[Now black is behind];B[cl];W[bj]
;B[bl];W[am];B[al];W[bn];B[br]C[Mistake.];W[cr];B[cs];W[bq]
;B[dq];W[hr]C[Now black is in trouble.];B[hq];W[fr];B[ir];W[gr]
;B[gq];W[eq];B[ep];W[er];B[jq];W[jp];B[jo];W[kp];B[hn]
(;W[gn]C[Comment: See variation.];B[ho];W[go];B[gp]C[White don't kill the black group. I think that is a mistake.

End of comments now.];W[jr];B[iq];W[eo];B[kr];W[lr];B[js];W[ls]
;B[fe];W[gf];B[ff];W[gg];B[fg]C[I think black is playing in dame points.]
;W[gh];B[gi];W[eh];B[he];W[hg];B[jh];W[kh];B[li];W[ki];B[mj]
;W[mh];B[lj];W[qk];B[pk];W[rj];B[pj]C[White turn the game.]
;W[ql];B[qm];W[rm];B[rf]C[Other mistake.];W[re];B[rd];W[rg]
;B[se];W[sf];B[sd];W[nd];B[oc];W[od];B[pc];W[ng];B[cb];W[bb]
;B[dc];W[bd];B[ed];W[ee];B[ef];W[de];B[lk];W[ll];B[ml];W[kl]
;B[mm];W[jf];B[je];W[pe];B[sq];W[sp];B[sr];W[fp];B[lh];W[mg]
;B[os];W[ns];B[ps];W[ks];B[is];W[hs];B[aj];W[ai]C[White is above 11 points. I put a ko and white fall.]
;B[bk];W[ak];B[qe];W[rf];B[aj];W[eg];B[fd];W[ak];B[rl];W[rk]
;B[aj];W[bi]C[Ouch!!!];B[rn];W[sl];B[ro];W[sn];B[qp]C[Well, white resigned.
I'm grateful for your comments.])
(;W[go]C[Comment: I think this would have killed black.];B[ho]
;W[gp];B[gn];W[fo]
(;B[hp];W[kr]LB[lr:A]C[Comment: Black could now try to complicate matters with A.]
;B[lr];W[jr];B[is];W[lq])
(;B[kr];W[lr]
(;B[js];W[hp])
(;B[hp];W[js];B[ks];W[is]))))
(;B[mc];W[je];B[jd];W[jf];B[ie];W[lh]))
(;B[ir];W[fm];B[pf]))
(;B[kq];W[kp];B[jq];W[km];B[ll];W[hl]))
(;B[kq];W[kp];B[jq];W[in]C[Comment: Black group is settled and he has sente now.]
))
(;B[kq];W[kp];B[jq];W[jn]C[Comment: This will settle black group and he has sente.]
))
(;B[lo];W[nm];B[mm];W[no];B[ol]))
(;B[mo];W[lo];B[mn];W[lp];B[ln];W[jo];B[jp];W[kn];B[km];W[jm]
;B[kl]))
(;B[mo]C[Comment: Separate white into two groups and he will have hard time trying to survive. I will show some variations.]

(;W[mn];B[lo]
(;W[lp];B[kp];W[ko];B[ln];W[kq];B[jp];W[jq];B[iq];W[oq];B[pp]
;W[lr]C[Comment: It seems that white can live here. I'd like to know if you find sequence to kill white here.]
;B[pf]C[Comment: Black gets a huge moyo.])
(;W[ln];B[ko];W[nn];B[kn];W[ll];B[nl]))
(;W[lo];B[mn];W[lp];B[ln]C[Comment: White is in big trouble.]
;W[jo];B[jp];W[kn];B[km];W[jm];B[kl])))
(;B[np];W[qq];B[qr];W[qp];B[or];W[qk]LB[fc:A][qf:B][nn:C]C[Comment: This is joseki. However, this may be a bit overconcentrated shape for black. Possible continuation at A, B or C.]
))
