(;FF[4]GM[1]SZ[19]ST[3]CA[UTF-8]AP[SGFC:1.13b]

PW[William]
WR[12k]
KM[0]
RU[Japanese]

C[comments by adum 3k*

i made comments for both black and white in this game; hopefully both are useful.

a couple of general comments: if moves are relatively small, make sure they're sente at least.

try to make moves with good shape.

try not to get pressed into a low position. in two corners, white got a low position with small territory, and black made out much better on the outside.]
;B[pd];W[dd];B[pq];W[nc];B[dp];W[po];B[qo];W[qn];B[qp];W[pn]
;B[nq]
(;W[qf]C[usually you should make one more move from the three stones to support them, although i think you're okay here because black's weak in the corner.]

(;B[qh];W[qj]C[this is a good move which serves as an extension as well as working in the corner]
;B[pf];W[pg];B[qg];W[pe];B[of];W[qe];B[oe];W[qd];B[pc];W[qc]
;B[od];W[pb];B[ob];W[qb];B[oc]
(;W[mp]C[this move looks a little weird. if you want to play around there, one space higher is better. N4 leaves weaknesses, and because black is so strong, it doesn't really threaten the black corner.

if you're trying to build a wall here, saving the Q13 stone is essential, and because that's so big, you should probably play that first.]
;B[fc];W[jc];B[df]
(;W[fd];B[gd];W[fe];B[ge];W[ff]
(;B[gf]
(;W[gg];B[cd];W[cc];B[ce];W[bc];B[eg];W[fg]
(;B[dj]
(;W[fq];B[hq];W[cn];B[fp]
(;W[cq]C[this lets black build a big wall for his side.];B[cp]
;W[dq];B[eq];W[er];B[ep];W[gr];B[gq];W[fr];B[bq];W[br];B[bo]
C[this sequence cannot be considered a success for white.];W[hr]
C[this is pretty small. the bottom side is not important.];B[cl]
;W[iq]C[again, this is pretty small. no territory on the bottom, and strong groups everywhere]
;B[lc]
(;W[je];B[id];W[jd];B[if];W[jf];B[ig];W[jg];B[jh]LB[ec:A]C[coming straight out is better shape. but playing at A is still bigger]
;W[kh];B[hh];W[ec]C[white should have cut, but even this is big]
;B[fb];W[eb]C[slow. it's not threatening anything, and the corner is alive without this]
;B[lf];W[lg];B[kf]C[this is a bad move. there's no eye here already, and black gets bad shape after white responds]
;W[kg];B[mg]
(;W[mh];B[ng];W[nh];B[oh];W[oi]
(;B[li]C[this is premature. there's a proverb about never peeping where you can cut. since you can cut here, even if you don't want to cut now, you shouldn't peep, as it reduces the cutting aji.]
;W[lh];B[fi]C[black has tried to wall off a big territory. but it's still open on the side. reducing this should be a high priority]
;W[pi];B[ph]
(;W[mq]C[much too small. black is strong in the corner, so this move is not sente. the territory it tries to make at the bottom is much smaller than black is about to make in the middle.]
;B[np]C[unnecessary];W[no];B[mo]C[why push and cut? better to just make territory. if black has a weak group here, white can attack it and ruin the left side.

at this point of the game, think about relative territories. black's ahead, clearly, so no need for risky attacks.]
;W[nn];B[lo];W[kp];B[ko]
(;W[lp]C[bad shape];B[jp];W[jq];B[mr]
(;W[kr];B[ip];W[jo];B[jn]
(;W[kn]C[this is a losing move. the important thing here is to count. if white lets black have this whole center, then black is winning. therefore, it's necessary to try something here.]
;B[io];W[km];B[jm];W[kl];B[jl];W[kk];B[mm];W[mn];B[jk];W[kj]
;B[ji];W[ki]
(;B[ld]C[this is bad. black is already alive. there are lots of bigger moves.]
;W[jj];B[ij];W[gh];B[gi]
(;W[de]C[this gains nothing and strengthens black so it's harder to jump along the side]
;B[cg];W[ae];B[af];W[be];B[bf];W[bd]C[small];B[eh]
(;W[hc]C[just cut is better.];B[ic];W[ib];B[gc]
(;W[gb];B[ga];W[hb];B[kb]
(;W[jb];B[ie];W[lr];B[nr];W[rn];B[ro];W[ri];B[qi];W[rj];B[ni]
;W[ok];B[rh];W[rf];B[pp];W[oa];B[na];W[pa];B[nb];W[rg];B[si]
;W[sj];B[sh];W[ln];B[jo];W[aq];B[bp];W[ea];B[fa];W[sg];B[og]
;W[cf];B[ce];W[ka];B[la];W[ja];B[lb];W[ke];B[le];W[ef];B[sn]
;W[sm];B[so];W[rl];B[ap];W[ar];B[oo];W[on];B[op];W[ms];B[ns]
;W[ls];B[ha];W[hg];B[hf];W[hd];B[hi];W[he];B[ia];W[cd];B[cf]
;W[fh])
(;W[ie]C[when your opponent makes a forcing move, always look to see if there's a way to answer it that gains you something.]
;B[hd];W[jb];B[hf]C[now black is gote]))
(;W[ie]C[see if black falls for this one];B[hd];W[hf]))
(;W[gc]
(;B[hc];W[gb])
(;B[gb];W[hc];B[ic];W[hb])))
(;W[af];B[bf];W[ae]))
(;B[rg])
(;B[bd])
(;B[ar])
(;B[lr])
(;B[ro])
(;B[ib]))
(;W[io]C[this begins a very complicated sequence. even if it doesn't capture black, this first move is necessary to get more liberties. even if you can't kill black stones, you can still use the aji to break into the middle area.]
;B[hp];W[ho];B[gp];W[kn];B[ln];W[km];B[lm]C[up to here seems forced]
;W[kl]
(;B[in];W[hn]
(;B[im];W[hm];B[il];W[ml]C[black captured])
(;B[jl];W[kk];B[hm];W[im];B[jm];W[il];B[jk];W[gm];B[hl];W[gl]
;B[hk];W[jj];B[ik];W[gn]C[white should win this.]))
(;B[ll];W[im]C[if this kind of move, white captures that stone and tries to live inside. it should be possible as black's group on the right is still weak]
)))
(;W[jo];B[ip];W[hp];B[io];W[ho];B[in];W[gp]C[this might be a worthwhile exchange.]
;B[kq];W[fo]))
(;W[ip]C[this is kind of a key point]))
(;W[ho];B[go]
(;W[gl]C[this is pretty deep, but probably feasible])
(;W[hm]C[conservative. depending upon how black answers, white can think about a big territory in the middle]

(;B[gm];W[gl];B[fl];W[gn];B[fm];W[fn];B[en];W[ji])
(;B[fm];W[gn];B[fn];W[ji]))))
(;B[ni];W[mi];B[pi];W[oj];B[pj];W[pk];B[ok];W[nj];B[qk];W[pl]
;B[rk]C[this kind of sequence is very big]))
(;W[ji]C[it's probably best to play this first. it's surely sente]
))
(;W[ld]C[maybe?]))
(;W[cp];B[cq];W[dq]
(;B[co];W[bp];B[do];W[bo]C[now black's side territory is ruined and white still keeps the corner]
)
(;B[cr];W[do];B[ep];W[bp]C[sente]
(;B[eq])
(;B[cl];W[dr];B[eq];W[er]))))
(;W[gc];B[hc];W[gb]
(;B[fb];W[hb])
(;B[hb];W[fb];B[ec];W[eb])))
(;B[ec]C[this is a key sente move. without this, white can cut.]
;W[dc]))
(;W[gc]C[what can black do?];B[hc];W[gb]
(;B[hb];W[fb];B[ec];W[eb])
(;B[fb];W[hb];B[ic];W[ib])))
(;B[ec]C[this move is more normal, as it protects the cut]))
(;W[ef]C[attaching here might make more sense. it's the stronger stone. you build off this to attack the stone on the top.]
))
(;W[oh]))
(;B[qj]C[this might be more interesting for black as it takes away white's extension there]
))
(;W[pj]))
