(;FF[4]GM[1]SZ[19]CA[UTF-8]AP[SGFC:1.13b]

GN[canelo-aysen(B)]
PB[aysen]
BR[21k]
PW[canelo]
WR[21k]
KM[5.5]
DT[2001-04-13]
RU[Japanese]

C[Dear Reviewer.  Thank you very much for reviewing the game.
I played black (aysen) 21k* IGS.  I would apreciate any comments on the general development of the game, specially on issues regarding life and death and attack and defense.  As I reviewed the game myself i found many bad moves on my part.  I added some comments and questions on them, but of course I am willing to recive any advice, specially on the bad moves I am not aware of.

patrickb: No problem. :) One thing to watch out for in general is playing 'thank-you' moves, where you force w to cover a weakness he wanted to find time to cover anyway. These sorts of move are really problems, and I saw one or two in the game, that I'll point out at the appropriate time. I'll also comment on some of w's mistakes as well, since they may prove educational for you, too.]
;B[pd];W[pp];B[dc];W[dp]C[patrickb: Pretty standard opening stuff.]
;B[ce];W[qf];B[mc]C[patrickb: This move is a little old-fashioned, but not bad.]
;W[pj]
(;B[jq]LB[pm:c][pn:b][qn:a][nq:A]C[On this moment I thought of trying to divide q4 of q10 with  r6 (a), q6 (b), or q7 (c),  but finally played k3. Any comment?

patrickb: This isn't a bad point. Coming into the right side leads to a different sort of game, and in this case plays into a pincer that I don't really care for. It's more of an invasion, and with the bottom open, I like playing at the bottom better than playing on the right side.  Another point to consider is approaching the lower-left at A. This limits the growth of the right side. See the variations I've included for more information. In general, though, K3 is a fine move here.]
;W[pm]LB[fq:B][mq:A]C[patrickb: okay... you've split the bottom. There's not a great need to play at A or B right now, because A and B are miai - if w plays one you play the other, and if w plays A, you play B, and he extends down the left side, you can invade the lower right corner to keep him from getting too much there.]
;B[nq]LB[dj:A]C[patrickb: This move doesn't help *that* much. The left side near A is larger.]
;W[dm];B[cj];W[gq];B[bm]C[patrickb: Don't care for this move, because it forces w to protect against the more damaging corner invasion at C3, and doesn't help b a lot on the left side.]
;W[bo]LB[bk:A]TR[dm][bo]SQ[bm]C[patrickb: Okay, the first question is are the marked w stones a threat to the b stone. In a shape like this, the main point of attack for w would be at 'A' (a placement tesuji), so we need to know if white 'A' works. It turns out that it does (see the variations I've included).

Okay, it turns out that if w plays A, the marked b stone gets in trouble, so at some point, b needs to play another move in the area. The question is - is that big enough now, and if not, was B7 a bad move because of this?

First- b does not need to protect B7 right now. W catching the b stone would be worth about 12-15 points in gote, but at this point that's not big enough. W would have invested both the B5 stone and another play in gote for 15 points, and at this point, that's not enough. So, was B7 a good move? It wasn't a bad move. I'm uneasy about it because it helped w cover the C3 invasion, but it's not bad. The fact that w has a play at A later does not make this a bad move, because w would have to take gote twice to do so.]

(;B[cm]LB[ic:a][id:A][of:b][qh:C][pr:B]C[I think now that c7 was too slow and defensive,   I think now maby j7(a) or p14(b) are better in terms of territory or ofense?  But I don´t see well whats best right now.

patrickb: I agree that C7 is too small at this point. What is big? I like A and B (note that your 'a' is a little low. 'A' is a bit better. I *don't* like 'b'. Why? White has a weak point near C, where you want to aim at invading later. Playing B asks him to cover it. Now, if this guaranteed you lots of profit at the top, that wouldn't be bad, but there is still room for w to maneuver there.]
;W[dn];B[dl]C[Again too slow, right?

patrickb: Painfully small. B is in no danger here. This doesn't protect any cuts, threaten anything of W's or make much territory.]
;W[ir];B[iq]C[patrickb: Good.];W[hq];B[jr]C[patrickb: Should w respond to this? No. At worst, you catch one stone in gote, to make about 6 points, so w should take sente elsewhere.]
;W[is]LB[hs:A]C[patrickb; Bad move by w. If he's going to respond, A is better.]
;B[js];W[hr];B[no];W[fc];B[hc]C[patrickb: Good, severe move. W has come in too deep, and you want to attack. The key thing to remember is to make profit while attacking. You probably won't kill w, but you want to use the threat of doing so to take territory elsewhere.]
;W[fe];B[he]C[patrickb: Good.];W[fg];B[hg]C[patrickb: Jumped out on the wrong side. W should now push the left side flat and make some eye space at the same time.]

(;W[fi];B[dg]C[I think now better,  r3 or p14, right?

patrickb: P14 is now a pretty good move, because of your stones at the top near H13, but there's nothing wrong with D13. It keeps w from settling easily, and takes a lot of profit.]
;W[el];B[dk];W[ek];B[ho]LB[qd:C][of:B][qh:D][qq:A]C[patrickb: Interesting move... expands the bottom some, keeps w from playing to make
a substantial middle. Not bad. What are the other big points on the board? The invasion at A is very large, as is one of B, C, and D. I'll discuss the merits of B-D later.]
;W[hp];B[io];W[ip];B[jp];W[go];B[of]C[patrickb: Okay, dealing with this area is large.]
;W[pg];B[og]C[patrickb: Yep];W[qd];B[qc];W[rd];B[rc];W[pe];B[od]
;W[oe];B[ne];W[oh];B[mg];W[hn];B[in];W[hm];B[im]C[patrickb; This push doesn't do much. Invading the LL corner, or playing O12 is much larger.]
;W[mh];B[lh];W[ng];B[mf];W[nh];B[nm];W[nl];B[ml];W[ol];B[mk]
;W[il]C[patrickb: Really need to invade he LR corner];B[jl]
;W[ik]
(;B[pq]C[patrickb: close, but no cigar. R3 instead. See the variations. This attachment with O3 in place is usually used to make life in a tight spot.]
;W[qq];B[qp]C[patrickb; Interesting choice with the crosscut. Crosscuts like this are sacrifice moves, where you sacrifice onestone to get more out of the other stones.]
;W[qo]
(;B[op]C[Later I thought p3 or q2 instead of p4 to secure myself and define the corner.  Is there any better on the corner?]
;W[rp]
(;B[qr]C[patrickb: trying to hard. You have to make the first ko threat here, and don't get as much reduction as you'd have liked.]
;W[pr];B[or];W[oq]
(;B[nr];W[rr];B[co]C[The idea I had with c5 was to eventually try an invasion on the corner and shrink the white group, which of course didn´t work :-( after the game I tried to find a better move on the corner and I conclude it is already secure for white. Correct?  So, instead of c5 which would you recomend right now?

patrickb: Not a bad idea, but the w corner is already secure. Instead.... Take the ko at Q3, and either save the b stone, or use it to push at Q5 to reduce w more.]
;W[cp];B[cn];W[cc];B[cd];W[db];B[cb];W[ec];B[dd];W[ca];B[bb]
;W[da];B[ba];W[eb];B[gb];W[ed];B[hi];W[hj];B[ej];W[fj];B[ji]
;W[jk];B[kl];W[ei];B[di];W[nf]
(;B[md]C[patrickb: Not sure this is necessary. If you're worried about hte cut, just play T16 to solidify the corner.]
;W[sc]C[patrickb: And w takes the big endgame point. This is huge. It's sente for both sides.]
;B[sb];W[sd];B[rb]TR[rb][sb][re][se]C[patrickb: Now, if b had played in the upper right *first*, (instead of N16 for example), he'd have 4 more points (the two marked b stones would be his territory, and w would have stones at the two marked empty points), and he'd still have sente. Points like this are very large. You want to make sure you get them first.]
;W[dh];B[ch];W[eh];B[bq];W[bp]C[patrickb: Nothing here, unfortunately.]
;B[do];W[eo];B[dq];W[cq];B[eq];W[ep];B[mi];W[ni]
(;B[mj];W[nj];B[om]C[My idea was to press towards the right.  I would of liked to try an invasion but I couldn´t figure out weak point to attack. Are there any?

patrickb: No, not at this point. W is much too strong for that to be invadeable]
;W[on];B[nn];W[oo]
(;B[np];W[bn];B[dj];W[am];B[bl];W[al];B[ak];W[an];B[bk];W[eg]
;B[df];W[gh];B[hh];W[ef];B[nk];W[ok];B[pl];W[qm];B[pq];W[qs]
LB[gi:C][kj:B][oq:A]C[patrickb: A is now *very* small, on the order of half a point. B is much more important, but even C is better than A.]
;B[oq];W[gd];B[hd];W[gf];B[kj]C[patrickb: important point.]
;W[hf];B[if];W[fb];B[gc];W[gi];B[ij];W[ge];B[jj];W[kk];B[lk]
;W[hl]
(;B[kn]C[patrickb: The right defensive point, if defensive move is needed. It's not. It just gives away a point, and lets w get the two-point move at G19.]
;W[ga];B[ha];W[fa]
(;B[gg]C[patrickb; just a dame point. Let's w get the 1 point move at P1.]
;W[os];B[ns];W[ps];B[de];W[ee];B[ie];TB[aa][ia][ja][ka][la]
[ma][na][oa][pa][qa][ra][sa][ab][hb][ib][jb][kb][lb][mb][nb]
[ob][pb][qb][ac][bc][cc][ic][jc][kc][lc][nc][oc][pc][ad][bd]
[id][jd][kd][ld][nd][ae][be][je][ke][le][me][af][bf][cf][jf]
[kf][lf][ag][bg][cg][ig][jg][kg][lg][ah][bh][ih][jh][kh][ai]
[bi][ci][ii][ki][li][aj][bj][lj][ck][cl][ll][jm][km][lm][mm]
[jn][ln][mn][jo][ko][lo][mo][kp][lp][mp][kq][lq][mq][kr][lr]
[mr][ks][ls][ms]TW[ea][fd][qe][re][se][ff][of][pf][rf][sf][og]
[qg][rg][sg][fh][ph][qh][rh][sh][oi][pi][qi][ri][si][gj][oj]
[qj][rj][sj][fk][gk][hk][pk][qk][rk][sk][fl][gl][pl][ql][rl]
[sl][em][fm][gm][rm][sm][en][fn][gn][pn][qn][rn][sn][ao][fo]
[po][ro][so][ap][fp][gp][qp][sp][aq][bq][dq][eq][fq][rq][sq]
[ar][br][cr][dr][er][fr][gr][qr][sr][as][bs][cs][ds][es][fs]
[gs][hs][rs][ss]C[So, at last canelo won.  I would really apreciate a general comment on the game and the flaws you see in my playing.  And again thank you very much for your time and interest on the review.  :-)

patrickb: :) Overall not bad. You got pushed around in the endgame, and the messed up lower-right corner was more than the difference in the game. The game was decided when you played the unnecessary move at K6.]
)
(;B[os]TB[ia][ja][ka][la][ma][na][oa][pa][qa][ra][sa][hb][ib]
[jb][kb][lb][mb][nb][ob][pb][qb][ic][jc][kc][lc][nc][oc][pc]
[id][jd][kd][ld][nd][ie][je][ke][le][me][jf][kf][lf][ig][jg]
[kg][lg][ih][jh][kh][ii][ki][li][lj][ll][jm][km][lm][mm][jn]
[ln][mn][jo][ko][lo][mo][kp][lp][mp][kq][lq][mq][kr][lr][mr]
[ks][ls][ms][ns]TW[ea][fd][ff][fh][qp][qr];W[ps]TB[aa][ia][ja]
[ka][la][ma][na][oa][pa][qa][ra][sa][ab][hb][ib][jb][kb][lb]
[mb][nb][ob][pb][qb][ac][bc][cc][ic][jc][kc][lc][nc][oc][pc]
[ad][bd][id][jd][kd][ld][nd][ae][be][ie][je][ke][le][me][af]
[bf][cf][jf][kf][lf][ag][bg][cg][ig][jg][kg][lg][ah][bh][ih]
[jh][kh][ai][bi][ci][ii][ki][li][aj][bj][lj][ck][cl][ll][jm]
[km][lm][mm][jn][ln][mn][jo][ko][lo][mo][kp][lp][mp][kq][lq]
[mq][kr][lr][mr][ks][ls][ms][ns]TW[ea][fd][qe][re][se][ff][of]
[pf][rf][sf][og][qg][rg][sg][fh][ph][qh][rh][sh][oi][pi][qi]
[ri][si][gj][oj][qj][rj][sj][fk][gk][hk][pk][qk][rk][sk][fl]
[gl][pl][ql][rl][sl][em][fm][gm][rm][sm][en][fn][gn][pn][qn]
[rn][sn][ao][fo][po][ro][so][ap][fp][gp][qp][sp][aq][bq][dq]
[eq][fq][rq][sq][ar][br][cr][dr][er][fr][gr][qr][sr][as][bs]
[cs][ds][es][fs][gs][hs][rs][ss]))
(;B[os];W[ps];B[fa];W[ea];B[ga]TB[aa][ha][ia][ja][ka][la][ma]
[na][oa][pa][qa][ra][sa][ab][hb][ib][jb][kb][lb][mb][nb][ob]
[pb][qb][ac][bc][cc][ic][jc][kc][lc][nc][oc][pc][ad][bd][id]
[jd][kd][ld][nd][ae][be][ie][je][ke][le][me][af][bf][cf][jf]
[kf][lf][ag][bg][cg][ig][jg][kg][lg][ah][bh][ih][jh][kh][ai]
[bi][ci][ii][ki][li][aj][bj][lj][ck][cl][ll][jm][km][lm][mm]
[jn][kn][ln][mn][jo][ko][lo][mo][kp][lp][mp][kq][lq][mq][kr]
[lr][mr][ks][ls][ms][ns]TW[fd][qe][re][se][ff][of][pf][rf][sf]
[og][qg][rg][sg][fh][ph][qh][rh][sh][oi][pi][qi][ri][si][gj]
[oj][qj][rj][sj][fk][gk][hk][pk][qk][rk][sk][fl][gl][pl][ql]
[rl][sl][em][fm][gm][rm][sm][en][fn][gn][pn][qn][rn][sn][ao]
[fo][po][ro][so][ap][fp][gp][qp][sp][aq][bq][dq][eq][fq][rq]
[sq][ar][br][cr][dr][er][fr][gr][qr][sr][as][bs][cs][ds][es]
[fs][gs][hs][rs][ss]C[patrickb: Just playing this way is a b win.]
))
(;B[pq];W[qs]C[patrickb: at least do this instead of passively connecting in gote.]
))
(;B[pq];W[qs];B[po];W[qp];B[pn];W[qn];B[om];W[pl]C[patrickb:]
;B[nj];W[oj]))
(;B[sd];W[se];B[sc];W[re];B[tt]C[patrickb; Now if w cuts....]
;W[nd];B[me];W[nc];B[ob];W[nb];B[oc]C[patrickb: Hard to see him getting anywhere.]
))
(;B[ps];W[pq];B[nr]))
(;B[po];W[qp];B[pr]))
(;B[rp]
(;W[po];B[qr];W[oq];B[pr]
(;W[or];B[op])
(;W[op];B[or]))
(;W[rq];B[po];W[op];B[qn];W[ro];B[rn];W[sp];B[pn]C[patrickb and you've destroyed w's territory on the right.]
)))
(;B[qq]
(;W[pq];B[pr];W[or];B[qr];W[oq];B[ro]C[patrickb: white blocking this direction is a terrible mistake. You carve out a *lot* from her right side.]
)
(;W[qp];B[pq]C[patrickb; White has to block this way to keep the right side from being demolished, letting b take this big reduction.]
)))
(;W[df];B[cf];W[dg];B[cg];W[dd];B[cd];W[me]C[W is not so bad now, and can now try to do something to reduce the top.]
))
(;PL[W];W[bk]
(;B[ck];W[bl];B[cl];W[cm];B[bn];W[cn];B[bj]TR[bo]C[patrickb: Yes he can, because he has the marked stone in place. Note that if that stone wasn't there, b could capture the two w stones before he would be captured, because the two b stones would have more liberties.]
;W[an])
(;B[cl];W[ck];B[dk];W[bj];B[ci];W[dl]
(;B[bi];W[bl];B[cm];W[cn]C[patrickb: w has move liberties. B is captured.]
)
(;B[bl];W[bi];B[ch];W[cm]C[patrickb: same, w has more liberties.]
))))
(;B[qn];W[qo];B[pn];W[np]LB[qk:B][pl:A]C[patrickb: b isn't exactly comfortable here, since both A and B are pretty cramped...]
)
(;B[nq]LB[qn:A][kp:B]C[patrickb: Lots of things w could try here, from simply playing A, to pincering at around B.]

(;W[qn];B[jq])
(;W[kp]
(;B[qn]TR[pj][kp]C[patrickb: and now things get messy, but since w has both of the marked stones in place, he should get a reasonable result.]
)
(;B[no];W[pn];B[pr];W[qq];B[kr]LB[cj:A]C[patrickb: w has a good right side, but he bottom isn't as big. Now the points near A are big.]
))))
