(;FF[4]GM[1]SZ[19]CA[UTF-8]AP[SGFC:1.13b]

PB[jadoube]
BR[6k]
PW[genring]
WR[5k]
KM[0.5]
DT[2001-07-05]
PC[The Kiseido Go Server (KGS) at http://kgs.kiseido.com/]
RE[B+Time]
TM[1800]
OT[5x30 byo-yomi]
RU[Japanese]

C[Jadoube :

Hi,

I feel fairly ok about the earlier parts of this game. (i.e. I'm not good enough to know better.) The middle game went badly wrong. I think this is due first to overconfidence and later to panic when I feel i'm throwing the game away. Please can your review give suggestions for safer ways to have played the middle game]
;B[qd]C[genring [5k?\]: ok];W[dp];B[pq];W[dd];B[oc];W[qk];B[qi]

(;W[qo];B[op];W[pn];B[jd]
(;W[hd]C[perhaps it is bigger for white to play on the left side?]
;B[cj];W[jq];B[lq]TR[jf][oi]C[I think the marked moyo-building points are bigger.   this black move feels perhaps a bit overconcentrated?]
;W[gq];B[jf];W[oe];B[nd]
(;W[qe]C[J: Not standard?]
(;B[pf]
(;W[rd]C[now white can cause trouble.
but he lets black play Q15 which makes center territory.];B[pe]
;W[pd];B[qc];W[qf];B[pg];W[rc];B[pc];W[rh]
(;B[rg];W[qg];B[qh];W[rf];B[ri];W[sg];B[oj]C[Not sure if one above would be better. It never caused a problem in the game but....

janr: yes, protecting the cutting point is important.  Still, this move protects it so i think it is good.]
;W[ch];B[cm]
(;W[eh];B[cc];W[cd];B[dc];W[ec];B[eb];W[fb];B[fc];W[ed];B[gb]
;W[db];B[fa];W[cb]
(;B[hc]C[J: I think I may have played this without thinking. It expands the top nicely but is it the biggest move here?]
;W[fd];B[bp]
(;W[co];B[bo];W[cn];B[bn];W[dm]
(;B[dl]C[J: This was a mis-read but I think it turned out reasonably ok considering]
;W[cl];B[bm];W[dk]
(;B[el];W[ck];B[ek];W[dj]
(;B[ej];W[cq]C[now black loses the corner in sente.];B[cp]C[J: This is a waste?]
;W[do]
(;B[bq];W[cr];B[di];W[ci]
(;B[bk];W[bj];B[bl];W[cj];B[em];W[dn];B[br]C[J: Again a wasted move?

janr: yes, it is sente but damages the center group.];W[fo]

(;B[jj]C[J: This went badly wrong - is it this move or the poor play following? Would a safer alternative have been best?]
;W[jh];B[ih]C[J: Or is thiswhere it went badly wrong?  I'm not sure what is best instead.]
;W[ii];B[ji];W[ig]
(;B[hh];W[jg];B[hg];W[if]
(;B[ie];W[hf];B[he];W[ge]
(;B[id]C[J: Horrible shape but i think I had to];W[gg];B[gh]
;W[fh];B[hj];W[mg]
(;B[ql]C[J: this all went wrong too :-(   So annoyed at messing up the top I started to feel well behind and desperate.]
;W[pl];B[rl];W[rk];B[pk];W[qm];B[ol];W[pm];B[rm];W[rn];B[rp]
;W[nn];B[kn]C[J: nonsense move];W[fi];B[gj];W[kr];B[lr];W[in]
;B[io]C[try to avoid contact moves if you can't read it out.]
;W[jo];B[ip];W[jp];B[jn];W[im];B[iq];W[ir];B[gp];W[fp];B[fq]
;W[gr];B[eq];W[dq]
(;B[go];W[gn];B[hn];W[hm];B[fn];W[gm];B[ep];W[eo];B[cs];W[er]
;B[gl];W[ik];B[ij];W[fj];B[fk];W[hk];B[gk];W[kl];B[dh];W[dg]
;B[ei];W[eg];B[mj];W[lo];B[mo];W[mn];B[no];W[ln];B[rb];W[sb]
;B[ra];W[ls];B[ms];W[ks];B[nr];W[qp];B[qq];W[ro];B[rq];W[lf]
;B[le];W[me];B[md];W[ne];B[od];W[ke];B[ld];W[pj];B[ok];W[qj]
;B[sj];W[sl]
(;B[sc]C[Oh well - if I do things in the wrong order what can I expect]
;W[sh];B[sa]
(;W[sd]C[white could omit this move and take sente.];B[kf];W[kg]
;B[je];W[pi];B[ph];W[oi];B[ni];W[nh];B[li];W[lp];B[mp];W[gd]
;B[gc];W[ds];B[lh];W[lg];B[oh];W[ak];B[al];W[aj];B[bs];W[oo]
;B[jk];W[jl];B[ml];W[kq];B[mq];W[lk];B[lj];W[mh];B[mk]TR[so]
;W[so];B[sp];W[gi];B[hi];W[fm];B[en];W[fr]
;B[ll];W[kk];B[lm];W[km];B[hl];W[il];B[om];W[on];B[sk];W[sm]
;B[nm];W[mi];B[nj];W[da];B[ea];W[si];B[rj];W[pp];B[kj];W[kh]
;B[fl];W[ho];B[pd];W[nf];B[og];W[ng]TW[aa][ba][ca][ab][bb][ac]
[bc][cc][dc][ad][bd][ae][be][ce][de][ee][fe][re][se][af][bf]
[cf][df][ef][ff][gf][mf][sf][ag][bg][cg][fg][rg][ah][bh][ai]
[bi][ql][rl][jm][rm][hn][jn][kn][qn][sn][go][io][ko][po][ep]
[gp][hp][ip][kp][eq][fq][hq][iq][dr][hr][jr][es][fs][gs][hs]
[is][js]TB[ga][ha][ia][ja][ka][la][ma][na][oa][pa][qa][fb][hb]
[ib][jb][kb][lb][mb][nb][ob][pb][qb][ic][jc][kc][lc][mc][nc]
[kd][ke][ii][nk][nl][am][an][ao][ap][np][aq][nq][oq][sq][ar]
[mr][or][pr][qr][rr][sr][as][ns][os][ps][qs][rs][ss]C[The game is over.  Final score:
   White = 68 territory + 18 captures + 0.5 komi = 86.5
   Black = 56 territory + 5 captures = 61
White wins by 25.5.])
(;W[pi];B[ph];W[oi]
(;B[sd];W[se])
(;B[se];W[re];B[sd];W[sf];B[sb];W[qb])))
(;B[sh]))
(;B[hn];W[gn]))
(;B[qm]C[I have the impression that this is better.  I'll try only a few variations]
;W[pl];B[rk];W[rl];B[ql]
(;W[rj];B[pk]
(;W[sk];B[qj];W[rk];B[rm];W[si];B[pm])
(;W[qj];B[pj];W[sk];B[rm];W[si];B[pm];W[ph];B[pi];W[oh]
(;B[od];W[ol])
(;B[ol];W[od];B[qp];W[og];B[ne];W[of];B[nc])))
(;W[rm];B[pk];W[qn];B[qj];W[pm];B[rp]))
(;B[qp]C[perhaps black should just take the corner in sente?]
;W[ro];B[rp];W[pl]))
(;B[je]C[this seems better shape to me (no atari at L14]))
(;B[kf]C[Perhaps there are still possibilities ...]
(;W[lh];B[he];W[hf];B[gf]
(;W[ie];B[ge];W[id];B[gd])
(;W[ge];B[ie];W[gg];B[kh];W[ff];B[kg];W[gf];B[hi]))
(;W[hf];B[lh])))
(;B[jg]C[J: Should this have been better?]
(;W[kh];B[hh]
(;W[hi];B[hg];W[if];B[hf];W[ie];B[je];W[gd];B[ij];W[gi];B[lh]
)
(;W[li];B[hj];W[lk]C[This is better than in the game I think.]
))
(;W[hh];B[kh];W[hk]
(;B[hm]C[I'm not sure if black can escape.];W[gm];B[gl];W[hl]
;B[gn];W[im];B[fm];W[in])
(;B[jm];W[hm];B[ol];W[pl];B[om]C[perhaps black can sacrifice? White's capture is big, but black gets some small compensation.]
))))
(;B[ji]C[janr: this is less thin.]))
(;B[bj];W[ei];B[bk];W[dh];B[bl];W[di]C[white gets an extra stone in the center but black has better endgame.]
))
(;B[dq]C[black can cut i think];W[eq];B[dr];W[cr];B[er];W[fr]
;B[em];W[dn];B[ep]))
(;B[dn]C[J: I considered something vaguely like this but was too timid. I think its better yes?]
;W[em];B[en];W[fm];B[fn];W[gm];B[cp];W[do];B[dq];W[ep];B[eq]
;W[fp];B[gk]))
(;B[dq];W[eq];B[cq];W[el]C[taking the corner seems to be sente.]
;B[er];W[fq]))
(;B[cl]C[J:simpler - side is alive.  I think this would leave B well ahead]
))
(;W[cq]C[white should be patient];B[tt];W[bn]C[later, he can capture a stone]
;B[cn];W[bo];B[co];W[cp]))
(;B[fd];W[fe];B[ge];W[he];B[gf];W[hf];B[gg];W[hg];B[gh];W[gd]
;B[ic];W[hh]C[here white is not pushing from behind.])
(;B[ge]C[a keima is good i think];W[he];B[gf];W[hf];B[gg]C[white should not try to escape as his group becomes heavy]
))
(;W[co]C[white can put blacks group under some pressure])
(;W[ce]C[playing here protects the corner better than in the game.]
))
(;B[qh]C[one can also consider to simply connect. No cutting points left for black in the center.
whtie still ends in gote.]
(;W[rg];B[ri];W[rb];B[ji])
(;W[ri];B[rg];W[rf];B[sf])))
(;W[pe]C[even connecting is better for white than he is entitled to.
black should still protect the corner and hence black Q14 was not a kikachi.]
;B[pd]C[after black Q16, white Q15, black would never play Q14.]
;W[ph]))
(;B[pd]C[this is much more solid.
In fact as the variation shows, white could have played here (and my opponents vital point is my vital point)]

(;W[pe];B[oh])
(;W[nh];B[pe])))
(;W[pd];B[pc];W[qe];B[rd];W[ph];B[qh];W[pi];B[re]))
(;W[dj]))
(;W[qn];B[qp]C[an alternative for white ?]))
