(;FF[4]GM[1]SZ[19]AP[SGFC:1.13b]

PB[mefu]
BR[3k]
PW[lwming]
WR[3k*]
KM[5.5]
RE[B+Resign]

;B[dp];W[pp];B[dd];W[pd];B[nc]
;W[lc];B[qc];W[pc];B[qd];W[pe];B[pb];W[ob];B[qb];W[oc];B[qf]
C[tasita:
this variation is common in use. not bad.];W[pf];B[qg]C[tasita:
the Q14 and R13 exchange is not suitable time. It is too early. white may keep it and move it at suitable time, for this exchange sells the possiblity of R12.
>>From the comments of the 28th move. you will know why i say so. I will do first stage decision at 28th move.

I know maybe white is worried that black will move Q14, dont worry. have a look at Variation 2.]

(;W[fc]N[continue...];B[df];W[fe]C[tasita:
I can understand why white moved F15. Since white has moved Q14, white wants to move F15 to get huge moyo. however, before that white might move D18. The corner is big. if black H17, white just F15, it is a fight that is good for white.]
;B[nb]C[tasita:
for white 22th move, I recommend another variation.
white might consider O19 to fight since white already moved Q16. Q16 gives black territory(space), so white should get return at some place, such as fighting, attacking etc.]
;W[nd];B[oa];W[mc]C[tasita:
have a look this local variation. Black gets much space while white has less.]
;B[db]C[tasita:
it is very big. it is why i said that white should move D18 before F15.]
;W[eb];B[dc];W[ie]C[tasita:
J15...en, since black is leading now(look at the follwoing analysis), white should consider move F13 instead of J15, and try to make big moyo. J15(28th) just keep 22pts space for white. not enough.

white: 22+pts(top)
       a star(right-bottom)
total:22+pt and a star+5.5pts

black: 12+pts(top-right)
       13+pts(top-left)
       a star (left-bottom)
total: 35+pts and a star

because black R13(17th move) and D14, we can find that black's star(D4) is better than white's star(q4) and black is more expandable.
otherwise, black holds sente now. the next move will be O3.
according to the above analysis, I think, black is leading now. of course, for amateur player, it is a little better. However, it is sure that Q14 is not time. Q14-R13 exchange is not suitable time. if white didn't move Q14, white keeps the choices of Q14 or R12.This is the better way. Keeping possibility is important.]
;B[nq];W[qn];B[jp];W[pr]C[tasita:
Q2 is some slow. better C6. anyway, C6 got much space. Now white has equal space with black. But in whole game, black has fast speed, still black leading. so Q2 is not good. C6 is important. Next, black will move D9 to build big moyo. If so, black did good openning game.]
;B[oq]C[tasita:
not good. now D9 is the biggest.of course, after Q2, white has M3. black just move M5 to keep doing big moyo, thatt's ok. dont fear M3.]
;W[pq];B[no]C[tasita:

look at this local variation. It is clear that P3 is worse than P2. In general, P3 should be in the place of P2 because P3 gives white N1 jose, not good ah.sigh.]
;W[qi]C[tasita:
R11 is not good.right-up corner black is thick.R11 is hitting on black thick group.not good. Even, here black may pass it and move D9. next, white Q13 or Q12. white still has weak point. B can cut white and fight here when B has stones outside, e.g. when B has stones at K10 around.]
;B[pg];W[og]
(;B[dk];W[ph]LB[oh:a]C[tasita:
P12 better than Q40.the center is important.];B[jj]C[tasita:
black is leading in open game. now white is about one stone behind. It is almost same to black H2 game.]
;W[jh]C[tasita:
42 not good.];B[gh]C[tasita:
D3 or G10 better.];W[fg]
(;B[eh];W[fh];B[ei];W[fi];B[fj];W[gj];B[fk]C[tasita:
bad, of course G9.];W[gk];B[fl]C[tasita:
soft.black is bad at fighting. white has good fight skill.]
;W[gl];B[ih]C[tasita:
too aggressive. should keep connectivity between K10 and K4.]

(;W[ii];B[ji];W[ig];B[kh];W[jg];B[mh];W[kg];B[lh];W[mf]C[tasita:
N14 is small. should move M10 to attack black middle group.]
;B[pl];W[oi];B[nj];W[on]
(;B[nn]
(;W[nm];B[om];W[nl];B[ok];W[nk];B[oj];W[mj];B[ni];W[lj];B[jl]
;W[lm];B[jn];W[lo];B[lq];W[kn];B[io];W[kp];B[kq];W[kk];B[jk]
;W[mn];B[ki];W[gn];B[en];W[ho];B[hp];W[gp];B[hq];W[gq];B[pn]
;W[oo];B[po];W[op];B[qo];W[ro];B[qp];W[qm];B[pm];W[rp];B[np]
;W[rq];B[qq];W[qr];B[ql];W[rh];B[rg];W[rj];B[dr];W[hr];B[ir]
;W[gr];B[hn];W[go];B[gm];W[hm];B[fm];W[in];B[im];W[hl];B[hn]
;W[iq];B[ip];W[in];B[ng]
(;W[oh];B[hn];W[nh];B[mi];W[in];B[lf];W[lg];B[hn];W[dq];B[cq]
;W[in];B[mg];W[nf];B[kl];W[ll];B[hn];W[eq];B[in];W[er];B[cr]
;W[ep];B[do];W[hs]
(;B[jr];W[fs];B[hi];W[hh];B[ij];W[gi];B[ih];W[hg];B[fo];W[mo]
C[tasita:
of course black first move s8.];B[or];W[rl];B[rk];W[rm];B[qj]
;W[pj];B[qk];W[sk];B[ec];W[fb];B[fd];W[gd];B[ed];W[eg];B[dg]
;W[ee];B[de];W[mb];B[na];W[pa];B[qa];W[ma];B[pa];W[qe];B[re]
;W[sg];B[sf];W[sh];B[sd];W[da];B[ca];W[ea];B[cb];W[gc];B[ef]
;W[ff];B[fp];W[fq];B[kj];W[lk];B[lp];W[ko];B[ps];W[rs];B[eo]
;W[is];B[js];W[mp];B[mq];W[qs];B[os];W[ds];B[cs];W[km];B[ii]
;W[qh];B[rf];W[sc];B[sb];W[il];B[jm];W[ik];B[hj];W[ol];B[pk]
;W[pi];B[fn];W[bk]C[tasita:
this move is bad manners. It is not "GO".];B[bi];W[bp];B[bo]
;W[bn];B[cn];W[ao];B[co];W[am];B[bm]C[tasita:
C7,c8,both ok.];W[cm];B[bl]C[tasita:
C8 ,w still death.];W[cl]C[tasita:
B10,w death.];B[an];W[rc];B[al]C[tasita:
sigh. i have no word to say.];W[rb];B[rd];W[sa];B[es];W[bq]
;B[cp];W[ds];B[sj];W[si];B[es];W[ci];B[ch];W[ds];B[sl];W[sm]
;B[es];W[bh];B[bg];W[ds];B[tt];W[es];B[tt];W[li];B[jq]C[black 69+12=81

white 61+11+5.5=77.5

black win 3.5pts
At the beginning black is leading a lot. but b's fighting is worse than white sometimes. What a lucky it is black win at last. Actually black have should won more. It is a resign game, not jose win.

>>From this game, black should improve close-fight skill. White should improve whole game view, finding the urgent and biggest move.]
)
(;B[fs];W[es];B[fo];W[fp];B[fr];W[jr];B[kr];W[js];B[jq];W[mr]
;B[rl];W[rn];B[lp];W[ko];B[mo];W[km];B[ks];W[is];B[mq]C[tasita:
w die. of course, white has many methods to move when white moving N2.but black at least has one eye. and white G2 group has less liberty than black. anyway white die.]
))
(;W[hn];B[oh];W[rl]))
(;W[om];B[nm];W[ol];B[nl];W[fm];B[em];W[gp];B[dq];W[jn]C[tasita:
white good.]))
(;B[nl]N[last chance];W[nn];B[gm];W[hm];B[hn];W[gn];B[fm];W[in]
;B[ho];W[il];B[jm];W[im];B[dq];W[io];B[ip]))
(;W[fm];B[em];W[jl]C[tasita:
if so, black in danger.]))
(;B[di];W[fh];B[gj]))
(;B[oh];W[ph];B[ng];W[of];B[oi];W[qk];B[ne];W[md];B[pl];W[ql]
;B[pj];W[qj];B[dk]C[tasita:
Black good.]))
(;AE[qg][pf]N[another plan];W[fc];B[cf];W[db];B[cc];W[hd];B[pf]
;W[of];B[og];W[nf];B[ng];W[mg];B[mf];W[nd];B[lf];W[mh];B[ph]
;W[kh]C[tasita:
dont worry black's Q14. white not bad.]))
