(;FF[4]GM[1]SZ[19]AP[SGFC:1.13b]

PB[mans]
PW[Chalerm]
KM[0.5]
DT[2001-08-16]
PC[IGS:  igs.joyjoy.net 6969]
RE[W+43.5]
TM[60]
US[Brought to you by IGS]

C[Game Name: Chalerm-mans'B) IGS Copyright: Copyright (c) NKB,
Inc. 1998 Permission to reproduce this game is given, provided
proper credit is given.  No warrantee, implied or explicit, is
understood.  Use of this game is an understanding and agreement
of this notice.    Black Rank: 18k* Write Rank: 16k*];B[pd]
C[Reviewer qimfy 7k*
300901
 This game both players concentrated on moyo/territory building.

Several critical points were missed for killing or puuting severe pressure on the opponent.

W closed the game out by exploiting a crtical weakness in Bs strucutre(c15). B failed to spot Ws weakness. (n18).

I felt W was more "in control", but both players should consider seeking more severe moves. Groups tended to die by accident rather than design. :-)

IMHO its  important  to avoid an attitude of "I'll ignore your weaknesses if you ignore mine", and that single moves can win/lose games.]
;W[dp];B[pq];W[dc];B[de];W[fd];B[cc];W[dd];B[cd]C[All fairly normal]
;W[cb];B[bb];W[ca];B[ba];W[eb];B[ee]CR[ce]C[I thought I got a good start here. I am not sure about move 15.
It is not a very good threat or anything, but I thought it was
too good a move for white to get.


B should protect C15]
(;W[nc]C[This move feels right.
Eextending from wall];B[lc]C[I decided I had room to live here so I played tough.

Ok];W[ne];B[pf];W[jc]C[W playing correct here];B[le];W[je];B[lg]
;W[pb]C[G13 more important to split Bs Mstones];B[qc];W[qb]
;B[rb];W[pc];B[rd]C[I am not sure about 29. Is that good or should it be at R16 instead
to stop white from next move?


Yes
Both players should note value of g13
Even if B omits rs16  for g13, he protects mstones and gets nice moyo]
;W[od];B[pe]C[I didn't like playing Q15. It was small but I thought it was
neccessary.


Yes keeps preesure on W];W[ng]C[Good!];B[ph]C[This is big point
Now g11 is big for both]
(;W[kq]
(;B[cj]CR[ce]C[Is C10 too small? Should I have extended further down?

Remeber cut!
c10 now makes cut sequence interesting and c14 peep doesnt really work vwell.]

(;W[cm]C[Reasonable];B[li]C[Big!];W[qn]C[W should G11
Perhaps W reasons that Gstones are alive and therefore efficient to leave them.
Problem is that W will have to take gote to save Gstones after B g11....
B gains profit (strength) in sente.]
(;B[ql]C[I decided to defend the upper side due to the group M17-M11.
Is that correct?


Right idea and finishes R moyo
  but W has G11];W[on];B[ol];W[nq];B[qp]C[Is R4 the best move to stay alive in the  corner?

r4 is fine
But after p8 B should attack W with  n18 for instance
B might even live in corner as well!];W[qo];B[cq]C[I was getting scared of the larger territory. I thought if I
got rid of part of it I would win.


c3 isn't unreasonable
Territories are pretty equal (if we forget about Wc15 and Bn18 :->)

B has choice of f3,c3,...g4 also
I prefer f3 to reduce Ws moyo];W[dq]C[W makes nice wall and moyo]
;B[cp]
(;W[co]C[W playing this way takes gote to protect wall];B[dr]
C[Is D2 the right move?];W[er];B[cr];W[fp]C[Here!];B[bo]C[Is B5 the right move to stay alive? Was I alive already?

If W getsB5 I'm 99% sure B lives in gote
But B5 is quite big  reverse sente];W[cn]TR[hq][ip][iq][jq]
[lo]C[W would have to have pretty big point to ignore b5 (eg G11 :->)

Now W moyo is vpowerful
B should invade or reduce aggressively
m5 threatens m3/g4];B[bn]C[Is B6 neccessary?

NO very small
Must address Ws moyo];W[km]TR[ni][mb]C[Excellent
Thisputs W strong position to win game, but B should try to kill   Now g11 /n18 is screaming]

(;B[ej]C[This is also quite big  and reduces c15 threat];W[fl]
C[Good];B[ed];W[ec];B[fe];W[gd];B[ge];W[ch]C[Is move 64 correct of white? Isn't this doomed?

W is prbaly looking at c15, but if B  just protects.....]
(;B[gj];W[hl];B[dl]C[I played 67 to get some life to the string C10-H10 and to make
sure C12 wasn't going to connect. Should I have done anything
else instead?

C10-H10 is strong  something like h15];W[dm]
(;B[el]C[e7 quite small];W[em];B[hd]C[Good];W[hc];B[id]C[Should g17 as b4]
;W[ic];B[jd]C[I thought this was a great move. I'm not so sure after what happened.]
;W[kd]
(;B[he];W[ld];B[ke]C[Is white the winner of that trade?
Yes
Compare with my last variation];W[md];B[mm];W[mn];B[lm];W[ln]
;B[kl];W[jm];B[jl];W[im]C[W can leave out this move for j10/c15]
;B[nm];W[nn]C[W feels he is closing game out
But B central Moyo is big];B[ni]C[I chose between O11 and J9. Which is better?

o11 slightly better
Attention should probably be on c15 or bottom right corner]
;W[ik];B[ii];W[jk];B[kk];W[ji];B[ij];W[jj];B[hk];W[gk];B[hj]
;W[il];B[fk];W[gl];B[jh];W[ck];B[cl];W[bk];B[bl];W[dk];B[ek]
;W[bj];B[dj];W[be]
(;B[bi]C[This is my first big misstake. Of some reason I thought a cut
at C15 was not so bad. If I had defended at C15 would I still
be able to prevent the white group from living?

See previous];W[ce];B[ad]C[This move is no use I realized. Is there a way of saving the
corner or should I have done something else?

B dead now];W[bd];B[cf];W[bf];B[cg];W[bg]C[W  ahead
B should consider the R move.];B[bh];W[bc];B[or]C[Good. Big]
;W[nr];B[rp]C[After this I thought I was safe in the lower right corner. Am
I?

Yes];W[ah];B[aj];W[kj];B[lj];W[om];B[nl];W[og];B[pg];W[mh];B[lh]
;W[mi];B[mj];W[qr];B[pr]C[Please comment my moves here.

W r2 is greedy ( W is just "playing" game is won)
q1 is ok];W[rr];B[ro]C[Fine
 t7 ok also];W[rn];B[rq]C[ok
o1 ok also];W[op];B[pp]C[ok];W[sk]C[Now both believe I'm alive in the corner, but I guess I wasn't.

B looks safe but needs to be prepare to fight if he lets W get t2]
;B[rk];W[sl];B[sm];W[rm];B[sj];W[rl];B[rj];W[oh];B[oi];W[bm]
;B[am];W[sr]C[Please comment the corner];B[so];W[sq];B[ns];W[ms]
;B[os];W[lr];B[qs];W[po];B[rs]C[This is all fine for B];W[sn]
C[B should simply tenuki
W can get seki once B fills q1]
(;B[ss]C[!!!!!!

Whoops apocalypse
B should see this is BIG mistake];W[ps];B[qs];W[rs]C[Now there is a weird ko/seki in the corner, but to my disadvantege.


B dead not ko.
1eye vs none
Once W p3 B can't atari W without self atari
independent of "ko" status];B[ak]C[unnecessary];W[ds];B[cs]
;W[es];B[sp];W[ps];B[gc]C[Now we start playing the ko, just to be sure.


No ko];W[fc];B[qs];W[oq];B[eq];W[fq];B[pm];W[ra];B[sb];W[me]
;B[mf];W[nf];B[mg];W[nh];B[sa];W[qa];B[qm];W[pn];B[ki];W[ag]
;B[ai];W[ps];B[fr];W[ep];B[qs];W[eq];B[oe];W[ps];B[mr]C[This is not a ko-threat and white should kill my large group.]
;W[mq];B[qs];W[dh];B[df];W[ps];B[oc];W[ob];B[qs];W[an];B[ao]
;W[ps];B[kc];W[gb];B[qs];W[mc];B[qk]C[We ended the meaningless fight here.]
;W[ps];B[of];W[qq];C[White won by 43.5 points. If I had kept the corner in the lower
right corner and if I had stopped the invasion in another way
in the upper left corner I would have won.    I thought I had the lead in the beginning, but I lost it in the
end. Usually I stake out large territories in the beginning but
loose them in the end.    Please feel fre to comment the other player as well as other
moves in the game.    Thanks in advance.  Best regards / Mans Ullerstam

Corner was worth 40 pts or so, and would only have lost 12 pts if W just got seki.
So perhaps I've been overly critical of Bs play up until the corner accident!!

Take care  qimfy.])
(;B[ps]C[Seki
B can play q1 anytime]))
(;B[ce]C[W cant live if B just prots];W[bd];B[bc];W[bh];B[bf]
;W[bg];B[ae];W[ci];B[ai]C[Dead shape]))
(;B[ld]C[B should play this];W[mb];B[kc];W[ke];B[he]C[W has to play n18]
))
(;B[hd]C[h15 aims to expand B moyo
reduce W];W[hc];B[gc];W[fc];B[ic];W[gb];B[id];W[ib];B[jd]))
(;B[cf]C[W should find it difficult to escape];W[di];B[dj];W[fh]
;B[gj];W[hh];B[if]
(;W[jh]C[In this variation W dise completely];B[ig];W[ih];B[jj]
)
(;W[ij]C[This gets messy!];B[ii];W[hi];B[hj];W[ih];B[ji];W[jf]
;B[ig];W[jh];B[jg];W[ki];B[jj];W[kj];B[jk];W[kg];B[kf];W[kh]
;B[lh];W[kk];B[jl];W[mm]C[This should protect m8];B[ni];W[md]
C[W need to defend];B[ld];W[mb]C[W need to defend];B[io]C[But now B is into Ws moyo

Ws initial c12 invasion leads to counter-invasion

Summary c12 is not good for W])))
(;B[mb];W[ni];B[mk];W[md];B[ld];W[mc];B[nb];W[ob]C[W only 1 eye -> dead]
))
(;W[cr]C[W shouldhane at bottom to emphasise his bottom-side moyo in sente]
;B[br];W[dr];B[co];W[dn]C[W gets wall in sente]))
(;B[mf];W[nf];B[ni];W[md];B[ld];W[mb];B[ql]C[W safe
Good for B]))
(;W[ce]C[Actually cut works well still!];B[be];W[cf];B[bf];W[cg]
;B[bg];W[ch];B[bi];W[gh]C[Now W  v stong
Look how weak Bs Mstones look]))
(;B[mf]C[B might attack like this];W[nf];B[ni]C[B seeks to isolate W, build moyo, join groups]
;W[mh];B[jg];W[mi];B[nj]C[Now B big moyo]))
(;W[kf]C[What about this for W];B[lf];W[jh];B[li];W[ni];B[jj]
;W[pj];B[qi]C[Now W stones ar safe in sente.
B still floating (But prett safe)
Fair trade]))
(;W[ce]C[If B prorects corner.....];B[be];W[cf];B[bf];W[cg]
;B[bg];W[ch];B[bh]TR[cj][ld][md]CR[de][ee]C[B split apart
Now any of the marked stones are big for W
B stones look lonely]))

(;FF[4]GM[1]SZ[19]AP[SGFC:1.13b]W[ce];B[cf];W[be];B[ac];W[bf]
;B[cg];W[bg];B[ch];W[bd];B[bc];W[bh]C[B dead])
