(;FF[4]GM[1]SZ[19]ST[2]CA[UTF-8]AP[SGFC:1.13b]

GN[Review 1686]
PB[TouchPoint]
BR[22k]
PW[davpek]
WR[21k]
KM[0.5]
RE[B+9.50]
RU[Japanese]

;C[Dear Reviewer,
I played this game on IGS against
TouchPoint, 22k*, black.
And I am
davpek, 21k*, white.

I lost by 9,5 points.

I thank you a lot in advance for reviewing my game. I already added a lot of comments on my moves to help you understand my thoughts and my intends.

Yours,
David

Comment on review by FRANK:
Dear Steffen,
I think you made a good review. As far as I can see there are no fundamental errors in your analysis, so the only thing I'll do is add something here or there.
Personaly I would have stressed a little bit more some "principles", as where you're talking of using thickness to attack, but that's more a question of style.

Regards,
Frank];B[pd];W[cp];B[pq];W[cd]LB[dc:a]C[Assuming I prefer the 4-3 point, would D-17 (a) have been better?


#
I cannot give you a reciept for this. I haven't studied much fuseki myself yet.
I personally would prefer to not play both stones on the third line since I prefer playing more influence-based and fight-evoking games.
But I cannot see anything speaking against both stones on the third line. Why not. Play around with this setting...]
;B[ec];W[df];B[id];W[cj]C[

#
The opening looks good.];B[pk];W[pf]LB[mp:A]C[so far black occupied 2 sides of the bord and me only one side. so I felt like invading his framework on the right side with this move.


#
Well, yes. But "Don't Panic"! You have relatively secure territory on the left side whereas black has almost all his stones on the fourth line, indicating influence, not territory.
You could play at the bottom - e.g. at A - as well and invade later on.

If I wanted to invade right now I could see nothing that speaks against your move here.]
;B[nd];W[nf]LB[pi:a]C[i wanted to keep center influence. so I decided to make this move rather than making a base for this group by playing somwhere at Q-11 (a).]
;B[ep]LB[ld:B][pi:A]C[

#
Tenuki!? Better to put pressure on the white group at the top right now.  As you already said, A would be a nice spot for black, or B, extending together with white.]

(;W[dn]LB[hp:A]TR[cj]C[this seemed to work well with the marked stone at C-10

#
Sure, but it allows black to build a nice framwork to the right with, say, A.

How about pincering the black stone (see variation)?




FRANK: I would prefer not to pincer here, see variation];B[cq]

(;W[dp]C[FRANK: Here I would stress that this moves leads to a bad shape for white, after black 18
(Hane at the head of two stones)];B[dq];W[jq]LB[gq:a][mq:b]
C[depemdimg on blacks reaction I was planning to extand either at G-3 (a) or N-3 (b)

#
You mean, it looks like sort of "miai"-situation.
Consider the variation to the next node...]
(;B[lp]C[

#
Quite obviously (see variation in last node) wrong direction.]
;W[gq];B[fq];W[fr]SQ[ep][lp]C[this was I sacrifice. I was aiming at gaining outside influence and maybe connection to the group in the lower left...

#
The white stones seem to be quite low here considering the two marked black stones standing up above them.
I acutally see no point in "digging deeper" ;-)];B[er];W[fp]
;B[eq];W[fo]C[... it worked out.

#
Right, black now has a quite uncomfortable shape. But your stones are not connected firmly either.
And how will this influence work for your needs?];B[gr];W[hr]
;B[fs];W[hp]C[

#
Black's bottom left group is secure now.]
(;B[qf]C[this move bothered me.


#
Actually this is not a good move: "don't touch weak stones because it will make them stronger"
Reducing the space for a base would have been much better here (see variation).]

(;W[od]C[I attacked. I thought I would either get corner territory or some thick ouside influence.


#
This looks like sort of special samuraian-attack: harakiri ;-)
Ok, ok, at least it looks strange to me. Better don't play that!

How about bending around R14 to start positive...];B[oc]C[

#
Black answered "correct": don't risk much, let the other one have the trouble.]
;W[oe];B[mc]C[

#
Actually I'd prefer to play solid here. This leaves less points for attacking (via cutting e.g.).
So how about O17?

FRANK: I would prefer Q 17]
(;W[qe];B[qd];W[qg]
(;B[po]C[FRANK: Black shoudl absolutely add a stone at S14. See variation 2. The capture of R14 makes white very strong]
;W[rf]C[now that I review it, this move does not look this urgent.


#
You maybe right. But perhaps ... (see variation to node 39)  Now white does not have to care for this group intensively anymore.]
;B[rd]C[


#
Endgame-move!]
(;W[qm]TR[pk]C[this move was "inspired" by kageyamas book "Fundamentals of Go". He says "dont use thickness to make territory but to attack weak enemy stones."
In this sense I considered my group in the upper right "thickness" and the marked stone at Q-9 the one to be attacked.


#
You can call it thickness because you captured R14, right!? ;-)



FRANK: A move a Q7 would it make more difficult for black to connect his stones. See variations]
;B[pm];W[qk];B[qn]C[


#
Black goes for sure...];W[pl];B[ol];W[ql];B[om];W[pj];B[ok]
;W[oj];B[nj];W[ni];B[mj]
(;W[mi]TR[ni]C[i was not sure about that move. but the matked stone at O-11 seemed so weak without it.

#
Good consideration. Does it look that weak, though? How about playing elsewhere? You see that leaning against black helps him making a strong wall against the bottom and you don't gain much of a profit.

FRANK: Playing elsewhere is indeed better. White is very strong here and can afford to sacrifice O 11 when necessary.]
;B[lj]
(;W[jn]C[with extensions towards the center in the middle game I am always having a hard time. Is it alright to play here to restrict blacks influence with his thick black walls?

#
Black seems to try to make territory with his influence. And what did Kageyama say? ;-)

What about the sequence in the variation to this node?];B[lm]
;W[jl]C[
#
This move does not threat black and does not even make much of territory to the left. I'd say a one-point-jump is too narrow here.]
;B[jj];W[ge]C[His upper side seemed very lose but the way I played gave him a lot of territory. How could I have done better?


#
If you get territory, too, letting the opponent get territory is not that bad. Especially if you get more territory ;-)]
;B[gd]
(;W[fd];B[gc];W[fc];B[fb];W[gb];B[hb];W[eb];B[ga]
(;W[dc]C[

#
This seems to be the wrong side. Consider the beginning of the variation to this node!]
;B[ed];W[fe];B[db];W[ee];B[ea];W[dd];B[he];W[hf];B[if];W[hg]
;B[le]
(;W[hi]C[and now he starts growing into my framework and I could not stop him at all..


FRANK: an improvement on your variation.];B[ik];W[jk]LB[gk:A]
C[


#
Wrong side! You could stopp black or reduce the damage he does to "your" territory by playing from the other side, say A...

->Sometimes one has to give away a bit of his piece of cake to get another, bigger piece ;-)]
;B[ij];W[kj]C[

#
Would be still time to play from the other side but obviously you had something else in mind...]
;B[ki];W[kk];B[jh];W[li]LB[gk:A]C[
#
Perhaps playing around A now would be better than trying something that will most likely not work...]
;B[gk];W[fj];B[hm];W[hl]C[
#
Why such a move? Looks much like this "harakiri"-move from top right.]
;B[il];W[ml];B[nl]C[what comes now is fighting and endgame. You are welcome to comment on it but I thing getting strong in those is a matter of hard work and study maybe rather than having it reviewed.

#
Ok. Then I'll leave it.

180 greets
Steffen];W[mm];B[lk];W[ll];B[jm];W[kl];B[nk];W[km];B[im];W[ko]
;B[ln];W[lo];B[mn];W[mo];B[nn];W[kn];B[fm];W[hk];B[hj];W[fk]
;B[gl];W[em];B[gi];W[gj];B[hh];W[gh];B[ii];W[fi];B[hi];W[ig]
;B[jg];W[jf];B[ie];W[kh];B[gg];W[fg];B[fh];W[eh];B[gf];W[gh]
;B[ih];W[lf];B[kf];W[mf];B[lg];W[mg];B[me];W[lh];B[kg];W[mq]
;B[cb];W[bc];B[eo];W[do];B[bp];W[bo];B[bq];W[fn];B[en];W[el]
;B[bn];W[cn];B[ao];W[bm];B[co];W[cm];B[bo];W[mp];B[rn];W[rm]
;B[no];W[hn];B[gn];W[go];B[in];W[io];B[ho];W[gp];B[ip];W[hn]
;B[jo];W[jp];B[ho];W[iq];B[np];W[nq];B[oq];W[bb];B[ba];W[eb]
;B[ec];W[ed];B[eb];W[re];B[nr];W[mr];B[ns];W[lq];B[hn];W[ms]
;B[ps];W[ne];B[sd];W[sn];B[so];W[sm];B[ro];W[hs];B[gs];W[ab]
;B[pc];W[aa];B[ca];W[se];B[fh];W[ff];B[cc];W[bd];B[ji];W[qj]
;B[nm];W[am];B[fl];W[gh];C[I Thank you once again for reviewing my game.
All the best, greetings from Vienna,
David])
(;W[hj];B[ik];W[hk];B[il]
(;W[im]C[

#
connecting the stones to the right...

FRANK: The white stone at K8 is not important];B[hl];W[gl];B[hm]
C[


#
... now it really starts to get "fiction" ;-)];W[gm];B[in];W[jm]
;B[io];W[jo];B[ip];W[jp];B[iq];W[ir];B[hn];W[hq];B[gn];W[fn]
C[


#
...but you can see that, playing from the right direction, black does not have that brute way he had in the actual game!]
)
(;W[hm];B[im];W[hn];B[in];W[io];B[jm];W[ko];B[lo]C[FRANK: This result is much better for white.]
)))
(;W[ed];B[dc];W[cc];B[dd];W[de];B[db];W[cb];B[ea];W[gj]))
(;W[he];B[hd];W[hi];B[ik];W[gk];B[il];W[im];B[hl];W[gl];B[hm]
C[
#
For example...]))
(;W[ge]C[

#
How about the exchange here and now?];B[gc]C[


#
or something];W[ij]C[

... the stone just played could work upwards or downwards. Of course you will have to give away a bit at one of these sides.]
))
(;W[oh]LB[qj:A]C[

#
You should perhaps protected the cut at R10. This would be one possibility, I guess.]
))
(;W[pm]
(;B[qm];W[qn];B[pn];W[ql];B[om];W[pl];B[ol];W[rm];B[oj];W[rp]
C[FRANK: Using the thickness above leads to the destroying of blacks territory at the bottom right]
)
(;B[om];W[on];B[pn];W[ol];B[nm];W[pl])
(;B[nk];W[nm];B[lk];W[lm]C[FRANK: White doesn't have to worry because of his strong group at the left..]
)))
(;B[re];W[rf];B[pe];W[qf];B[qi];W[rd];B[rc];W[se];B[qo])
(;B[rf]
(;W[re];B[rg]
(;W[qh];B[pe];W[rh];B[rd];W[og];B[qo])
(;W[rh];B[qh];W[sf];B[pg];W[sg];B[qg];W[pe];B[ri]))
(;W[rg];B[re];W[og];B[ph];W[pg];B[qo])))
(;W[qg];B[qe];W[pg]C[
#
Looks more solid, gives territory to black, though.]))
(;W[qg]
(;B[pg];W[qe];B[of];W[pe];B[oe];W[rf]LB[qc:A][qi:B]C[


Capturing makes white strong imediatelly. So I'd prefer it.  "Black's" bottom or top are both open now and sort of miai.   I'd have to admit that I wouldn't feel too comfortable in this situation, though.]
)
(;B[qe];W[pg];B[qj];W[qn]C[

or something...]))
(;W[qe];B[pe];W[qg];B[rf];W[pg]))
(;B[pi];W[lf];B[ld]C[

#
White has to escape with this group, so cannot firmly invade the framework below. Black will be able to make some profit there...]
))
(;B[hq];W[mq];B[po]C[

Wonder if this miai is a good one for you...]))
(;W[bq];B[dq];W[br]C[

#
Stealing the base for black's stones.]))
(;W[gp];B[en];W[cm];B[dq];W[jp]C[FRANK: White is very low on the left side now and...]
;B[cq]C[FRANK: after this move black lives in the corner and is peaking his head in white's moyo. As a bonus he can attack later G4-K4]
))
