(;FF[4]GM[1]SZ[19]AP[SGFC:1.13b]

GN[benr v benf]
PB[Ben Finney]
BR[10k]
HA[2]
PW[Ben Ratcliff]
WR[8k]
KM[0.5]
DT[2001-11-27]
RE[W+10.5]

AB[pd][dp]C[bignose: This is a game played at our local club last night.  I was Black, and I felt I had the advantage for most of the game.  I'd like to think my yose play let me down, but I'm honest enough to realise my mistakes must have been much earlier.  I've spotted some of my mistakes, but I'd like the *real* ones to be pointed out to me :-)
----------

Hi bignose/Ben,

This was a good, solid game by black.  You're right the game was lost in yose, since black had a small lead going into the endgame.    Still, with a two-stone handicap, black should've had an easier time.  Especially concerning the thickness he got on the left and the bottom, these could've been put to better use.  Besides getting bigger territories more efficiently on the left and in the lower part of the board, black could've invaded or reduced white's top territory quite substantially.    There are no big mistakes through the game, but there does seem to be a lack of focus or what some call "whole-board vision."   If you try to think more about how your groups in different parts of the board can work together, the game can get more interesting.  This should not be hard to do, since you already seem to have a good awareness of the importance of "thickness".    And finally, learning to take a quick count sometime during the game is a good habit to develop.    Feel free to e-mail me if you have further questions.

Good luck in your future games!


Ken];W[pp];B[dc];W[de];B[ce];W[dd]C[This choice by white is questionable, since the usualy play would give him a thickness facing right.  But there's already the black stone at the 4-4 in the upper right corner, a white wall facing it wouldn't be very effective for building a moyo.]
;B[cd];W[ec];B[db]C[I don't think B8 is usually played.  D17 would be better.  It's simple and solid, which should be the kind of game you'd want to have, given the two-stone handicap.  Black D14 or c14 would lead to the long and complex "avalanche" josekis, which you might want to look up in a joseki book.]
;W[cf];B[df];W[ef]C[This is not good.  It pushes black out along the fourth line and gives white an outside wall with severe weaknesses left at E15-E16.]
;B[dg];W[cg];B[dh]C[Good.  Black is one step ahead of white and should keep going if white keeps pushing down below.]
;W[eb]
(;B[ch]C[I think black doesn't have to give up the corner here.  See variation.]
;W[cc];B[bg]C[Shoud B17 first.];W[cb];B[mc]LB[nq:a][qn:b]C[Another idea would be to play 'a' or 'b'.  White cannot expect much on top because of the cutting points at E15-16.  B20 shows good awareness of the potential power of thickness (on white's part here), but it is too conservative and a bit slow.  With 'a', black can aim for a two-wing on the left and the bottom;  with 'b', black can build up his own moyo on the right if white approaches Q16 from the left.]
;W[dn]
(;B[cl]LB[fq:a][fp:b]C[It is better to play F3 or F4.  B22 is too narrow an extension from black thickness on top.  I think I'd like to 'b' in this situation.  See variation.]
;W[cp]
(;B[dq]C[Black absolutely has to play C3 here.];W[cq]
(;B[fp]C[What is black trying to accomplish here?  The next few moves are rather inconsistent and seem to lack a clear purpose.    Black should aim to develop the bottom right now.  The left is too small, especially after black has already made many moves there and have a solid territory.

Therefore, B26 should push up to D5.];W[dl];B[cm];W[cn];B[dm]
;W[dr];B[er];W[cr];B[eo]C[B34 at F3 is the proper, solid move.]
;W[en];B[em];W[fn]C[You can see now that B34 does not stop white from coming out into the open.  Moreover, it's as if black just played a move against a solid white wall!]
;B[go];W[do];B[gn];W[eq];B[ep];W[fq];B[gq];W[fr];B[nq]C[Black should play the forcing move at G2 first, to seal off the side.  But then again, white might not bother to save the three stones, since the corner is basically alive, and will likely play N3 instead.]
;W[np];B[mp];W[mo]
(;B[lo]C[This is an overplay.  See variation.];W[mq];B[lp];W[oq]
;B[nr];W[lr];B[no];W[op];B[mn];W[pn]C[White comes out much better in this exchange.  Black's capture of N5 stone means very little given the thickness he already has on the left side.  Black seems overconcentrated.]
;B[gr];W[es];B[mr]C[M3 would give black slightly more points, but that's really too small to play at this point.  a black extension to, say, R9 or even R8 right now is huge.]
;W[lq];B[kq];W[kr];B[jq];W[or];B[jr];W[ms];B[qj]C[Finally! :)]
;W[fm]
(;B[el]LB[hl:a][oj:b][nk:c]C[Building up the center with either 'a'-'c' is more urgent and works better with the thickness at bottom.  W27 stone is small.  Let it go, since black already has the left side after playing B28.]
;W[fl];B[ek];W[jc];B[pg]LB[je:a][id:b]C[Perhaps a better move now would be to 'a' or 'b'.  However white answers, black can look forward to cutting at E15 to make the B72-74 worth more.  B76 still leaves it open for white to invade at 3-3, so it's not very important right now.]
;W[ql];B[oj];W[kf];B[fk]MA[hq][iq][ir][hr][hp][ip][jp][kp][mo]
[ko][jo][io][ho][bf][af][ag][ah][bh][ai][bi][ci][di][dj][cj]
[bj][aj][ak][bk][bl][al][ck][dk][dl][cg][cf][qi][qh][rh][sh]
[si][ri][qg][rg][sg][sf][rf][qf][qe][re][se][ob][oa][na][nb]
SQ[rm][sm][sn][rn][qo][ro][so][sp][rp][qp][qq][rq][sq][sr][rr]
[qr][qs][rs][ss][ps][pr][pq][os][ns][nr][nq][mr][er][ds][cs]
[bs][as][ar][br][bq][aq][ap][bp][bb][ab][aa][ca][ba][da][db]
[dc][ea][fa][ga][ha][ia][ib][hb][gb][fb][fc][gc][hc][ic]C[Securing the corner with R17 is bigger.  Alternatively, black can immediately try to reduce white's top.

It is useful to get used to do a rough count from time to time during a game.  Let's do a rough count right now:
Black:
Lower: 13
Left:  25
Right and top: 19 (W might live in corner yet)
Captured: 1
Total:  58

White:
Top:  23
Lower right:  30
Lower left:  11
Captured: 1
Total:  65

Black is a little behind now but gets to play next.  So, if black plays R17 now, that'd give him an extra 15 points and a good lead (+8).

B80 is not too bad if it is followed up by cutting at E15.]
;W[gm];B[hm];W[hl];B[in]C[Too submissive!  Black can afford to play J8 here.  The bottom black group is thick and safe.]
;W[gk];B[gj]C[Still, R17 is more important.  But again, if black can follow this up with cutting at E15, that'll be really nice.]
;W[hj];B[gi];W[gg]
(;B[ol]C[Go back to our estimates from before.  Even if we grant black the 15 points in the upper right corner, white has now also gained another 15 points on top, so black is still somehow behind.  He therefore should do something more aggressive, like invading the top.  The defect in white's shape around E15 makes that possible.]
;W[pk];B[pj];W[ok];B[nk];W[nl];B[pl];W[qk];B[nm];W[ml];B[om]
;W[pm];B[mk];W[qc]C[Ouch!];B[qd];W[pc];B[oc];W[ob]
(;B[nc]C[O18 possible.]
(;W[lc]C[Huh?  White can live in the corner unconditionally now, I believe.]
;B[rc];W[mb];B[nb];W[na];B[pb];W[oa];B[qb];W[lb];B[il];W[hi]
;B[fh];W[gh];B[fg];W[ff];B[ik];W[hk]C[White doesn't have to answer. L11 or  K11 is much bigger.]
;B[mf];W[ll];B[kj]C[W 88
B 100

Thanks to white's gift in the center and his failure to take the upper right corner for himself, black now enjoys a good lead! :)]
;W[mi]
(;B[mj]C[O12 is more solid.];W[ki];B[li];W[lh];B[lj];W[jj];B[ji]
;W[kh];B[ij];W[jk];B[ii];W[ni];B[nj];W[mg];B[ng];W[ih];B[oi]
;W[lf];B[ne]C[Again black is being too safe.  Simply N15 is very solid.]
;W[me];B[nf];W[rj];B[ri];W[rk];B[qi]C[T11 is fine and it give black 4 more pts.]
;W[bm];B[bl];W[bn];B[nh];W[bd];B[be];W[ae];B[bf]C[Just as a matter of general principle, yose plays on the edges are usually bigger than those in the center.  And in this game, white got almost all of them.]
;W[ac];B[le];W[ke];B[ld];W[kd];B[md];W[gs];B[hs];W[fs]
(;B[ir]C[Black just lost a point by filling in in his own territory.  White can't play H2 if black plays L1 first.]
;W[dk];B[dj];W[al];B[ak];W[bk]C[White is trying to trick black here...]
;B[am];W[aj]
(;B[bj]C[This is unnecessary!];W[al];B[ck];W[an];B[ai];W[am]
;B[ak]C[Black lost another 4 points here.];W[jl];B[jm];W[jh]
;B[im];W[on];B[ks];W[ns];B[pa];W[ma];B[nn];W[mh];B[fo];W[eg]
;B[eh];W[si];B[sh];W[sj];B[rg];W[ls];B[js];W[oo];B[af];W[ad]
)
(;B[al];W[fj];B[fi];W[an];B[ej]))
(;B[ks];W[ns];B[oo];W[hr];B[is];W[hp];B[gp];W[ho];B[hn]C[Nothing white can do inside.]
))
(;B[nh];W[lk];B[lj]C[Nothing white can do.]))
(;W[rd];B[re];W[rc]C[White is alive in the corner and game over....]
))
(;B[nb];W[od];B[nc];W[rd];B[re];W[rb];B[sd];W[sc];B[rc]C[White needs a ko to live, I think.]
))
(;B[id];W[jd];B[ff];W[fe];B[gf];W[ge];B[hf];W[he];B[eg];W[ee]
;B[if];W[ie]
(;B[hi])
(;B[qc]C[Something like this might be possible and can still keep the game close.]
)))
(;B[hl];W[el]C[If white insists on saving W27...];B[ck]C[This would then be a forcing move...]
;W[fk];B[ol]C[With one more move, black can look forward to a substantial moyo in the center.]
)
(;B[gm]C[Or black can keep pushing along.];W[fl];B[hk]))
(;B[op];W[no];B[oq];W[oo];B[pq];W[qp];B[qq];W[rp];B[gr];W[es]
;B[lp]C[Taking the bottom is a better strategy for black here.]
;W[qf]C[Even though white gets an ideal approach move here, black can still be happy, because he's already played B20.  He will likely then come out of the upper right corner with sente and get to to reduce the white moyo on the right first.]
))
(;B[do];W[co];B[en];W[cn];B[cr];W[br];B[dr];W[bm];B[nq]C[Something like this...]
))
(;B[cq]
(;W[co];B[bq];W[fn];B[fp]C[This is difficult for white.])
(;W[dq]C[If white tries to complicate things, there is really nothing to be worried about.]
;B[bq];W[do];B[ep];W[eq];B[co];W[cn]
(;B[bo];W[fp];B[eo])
(;B[bp]))))
(;B[fp]C[It's not clear what white can do next.]
(;W[cq]C[He can try to take the corner...];B[cp];W[bp];B[bo]
;W[bq];B[co];W[er];B[fr];W[eq];B[fq];W[dq];B[ep]C[and black will end up with imposing thickness on the outside, which works well with the group on on the upper left side.  If white tries to run W21 stone out, he'll have a hard time settling it.]
)
(;W[cp];B[cq];W[co];B[bq];W[ck]LB[qn:a][nq:b]C[White gets a very small and uncertain position on the left, while black takes the corner and gets sente to play in the lower right corner (either 'a' or 'b' would be good).]
)
(;W[fn]C[If white runs out...]
(;B[cn];W[cm];B[co];W[el];B[hp]C[Black gets a large territory and white has a weak group floating surrounded by black thickness.]
)
(;B[co];W[cn];B[bn];W[bm];B[bo];W[cl];B[hp]C[Same idea, probably not as good as the previous variation.  White is more solid here.]
))))
(;B[bc];W[cb];B[cc];W[da]
(;B[bb];W[ca];B[ba];W[ea];B[ed];W[ee];B[fd]C[White is in big trouble.]
)
(;B[ch]C[Black can be happy with this result.  He gets a good amount of territory, and white ends up with a weak wall.]
)))
