(;FF[4]GM[1]SZ[13]ST[2]CA[UTF-8]AP[SGFC:1.13b]

GN[Taboo]
EV[WWGo 2001]
RO[1]
PB[Taboo]
BR[4k]
PW[Tonio]
WR[5k]
KM[6]
RU[Japanese]

C[in this game, as white, I made several wrong moves that are easier to see afterward than before.

Anyway the beginning was not good, and I wonder what should I have done to make it better.]
;B[cj];W[jk];B[dc];W[jc];B[ji]LB[jg:A]C[Maybe black would be better at A.  This side seemed to go well for White with this sequence.]
;W[kg];B[ih];W[gk]C[The black attachment at L3 looks interesting here.]

(;B[jf];W[jg];B[ig];W[kf];B[je];W[ke];B[jd];W[kd];B[ic]
(;W[de]C[I felt I was forced under black and that I had to react quickly on the left]
;B[ce]C[Maybe D9 should have been C9 so Black doesn't get such as big corner.  I see the right side as a poor result for Black.  Much better if a full size board with an extension to D11.]
;W[dd];B[cd];W[ec]
(;B[cc];W[df]C[The black wall on right is getting very weak, especially with cutting points at J8, J10 and it is worth nothing now as influence toward territory.]
;B[hc]LB[kc:A]C[Now the cut at L11 works so this is sente.  Reply at A]
;W[hf];B[if];W[he];B[kc]C[I didn't expected this ...];W[lc]
LB[jb:A]C[I was afraid for my group on the right side if I played A]
;B[jb]LB[kb:A][jc:B]C[Continue at A almost always with this shape, then let black take it later if he/she fills at B in reply.]
;W[ej]LB[cf:A][ki:C][ck:B]C[A was a big move for White here.  Keeps 10 points of territory from Black
These look like most important points for White.  D5 is neutral, it doesn't gain or destroy territory.  C5 is also something to look at although D5 by black may weaken center White stones.
A move like F6 prety well connects up the white stones.];B[bg]
;W[cf];B[bf]
(;W[di]LB[ki:C][ck:A][dk:B]C[this is too slow.  A, B, or C look like better moves]
;B[dk]C[now black is looking at 25-30 points on left and right side stones are secure.  White has very little territory.]
;W[ci];B[bi];W[eb];B[lb]C[I didn't see that either ...];W[md]
;B[lh];W[ki];B[kh];W[lg];B[jh];W[le];B[mb];W[mc];B[hk];W[hl]
;B[ik];W[il];B[hi];W[gh];B[gd];W[ba];B[bb];W[ca]C[I lose sente ...]
;B[fe]C[White is at least 10 points behind with no black weaknesses to work with so time to quit.]
;W[fd];B[ge];W[fg];B[ee];W[ed];B[lk]C[L3 is much better for Black]

(;W[kj];B[kl];W[lj]C[I tried but it made me lose the game ...]
;B[jl];W[jj];B[ij];W[mj];B[mi];W[cb];B[bc];W[ha]LB[ek:A]C[maybe A was better]
;B[gb];W[ga];B[ia];W[fa];B[db];W[da];B[ek];W[fk];B[fj];W[gj]
;B[fi];W[gi];B[ei];W[eh];B[dj];W[fh];B[ej];W[el];B[dl];W[fl]
;B[ch];W[dh];B[cg];W[gm];B[im];W[em];B[dm];W[hb];B[ib];W[fb]
;B[gc];W[hj];B[ii];W[hm];B[jm];W[dg];B[ef];W[hg];B[gf];W[mg]
;B[mh];W[aa];B[ab];W[ea];W[ml];B[ll];W[mk];B[lm])
(;W[li]CR[li];B[mh]CR[mh];W[kk]CR[kk];B[mi]CR[mi];W[kj]CR[kj]
;B[ll]CR[ll];W[kl]CR[kl];B[km]CR[km];W[jm]CR[jm];B[lm]CR[lm]
;W[el]CR[el];B[ek]CR[ek];W[fk]CR[fk];B[dl]CR[dl];W[fl]CR[fl]
;B[ch]CR[ch];W[dh]CR[dh]))
(;W[ck]CR[ck];B[dk]CR[dk];W[dj]CR[dj];B[ek]CR[ek]
(;W[fk]CR[fk];B[cl]CR[cl];W[bk]CR[bk];B[bl]CR[bl];W[bj]CR[bj]
;B[ci]CR[ci];W[fl]CR[fl];B[dl]CR[dl]C[failure for White, center is small]
)
(;W[cl]CR[cl];B[fj]CR[fj]
(;W[fk]CR[fk];B[di]CR[di];W[ei]CR[ei];B[eh]CR[eh];W[fi]CR[fi]
;B[fh]CR[fh];W[gi]CR[gi];B[ch]CR[ch]C[this is blacks hope])
(;W[ci]CR[ci];B[bj]CR[bj];W[fk]CR[fk]C[This line works well for White I think.]
;B[ei]CR[ei];W[di]CR[di];B[eh]CR[eh];W[gh]CR[gh];B[gi]CR[gi]
;W[fh]CR[fh];B[dh]CR[dh];W[bi]CR[bi];B[fi]CR[fi];W[eg]CR[eg]
;B[hh]CR[hh];W[ff]CR[ff];B[gg]CR[gg];W[fg]CR[fg];B[hg]CR[hg]
;W[gd]CR[gd]C[white should live now])))
(;W[ki]CR[ki]
(;B[kj]CR[kj];W[jj]CR[jj];B[kh]CR[kh];W[li]CR[li];B[jh]CR[jh]
;W[lh]CR[lh])
(;B[jj]CR[jj];W[kj]CR[kj];B[ik]CR[ik];W[ck]CR[ck];B[dk]CR[dk]
;W[dj]CR[dj];B[ek]CR[ek];W[ci]CR[ci];B[bj]CR[bj];W[fk]CR[fk]
;B[cl]CR[cl];W[gh]CR[gh];B[jl]CR[jl];W[kk]CR[kk]C[this should put white a little ahead.]
)))
(;B[df]CR[df]C[Something like this is essential for Black here]
))
(;W[ce]CR[ce];B[de]CR[de];W[df]CR[df];B[ee]CR[ee];W[cd]CR[cd]
;B[cc]CR[cc];W[ef]CR[ef];B[ff]CR[ff];W[fg]CR[fg];B[gg]CR[gg]
;W[gf]CR[gf];B[fe]CR[fe];W[gh]CR[gh];B[hg]CR[hg];W[cg]CR[cg]
;B[fh]CR[fh];W[eg]CR[eg];B[gi]CR[gi];W[eh]CR[eh];B[fi]CR[fi]
;W[dk]CR[dk];B[ck]CR[ck];W[cl]CR[cl];B[bl]CR[bl];W[dl]CR[dl]
;B[dj]CR[dj];W[ej]CR[ej];B[di]CR[di];W[bi]CR[bi];B[ei]CR[ei]
;W[ek]CR[ek];B[hk]CR[hk];W[hl]CR[hl];B[ik]CR[ik];W[il]CR[il]
;B[jj]CR[jj];W[kk]CR[kk];B[kj]CR[kj];W[ib]CR[ib];B[hc]CR[hc]
;W[hb]CR[hb];B[gb]CR[gb];W[jb]CR[jb];B[gd]CR[gd]))
(;B[kk]CR[kk];W[kj]CR[kj];B[jj]CR[jj];W[ki]CR[ki];B[ik]CR[ik]
;W[jl]CR[jl];B[il]CR[il];W[kl]CR[kl];B[jf]CR[jf];W[kf]CR[kf]
;B[je]CR[je];W[ke]CR[ke];B[kh]CR[kh];W[lh]CR[lh];B[jh]CR[jh]
;W[lk]CR[lk];B[gi]CR[gi]
(;W[hj]CR[hj];B[ij]CR[ij];W[hi]CR[hi];B[hh]CR[hh])
(;W[ej]CR[ej];B[fj]CR[fj];W[fk]CR[fk];B[ei]CR[ei];W[dj]CR[dj]
;B[di]CR[di];W[ck]CR[ck];B[bk]CR[bk];W[dk]CR[dk];B[bj]CR[bj]
;W[hl]CR[hl];B[im]CR[im];W[el]CR[el];B[jd]CR[jd];W[kd]CR[kd]
;B[ic]CR[ic])))
