(;FF[4]GM[1]SZ[19]ST[2]CA[UTF-8]AP[SGFC:1.13b]

GN[Chris vs. Mike LeFebre III]
PB[Chris Hayashida]
BR[14k]
HA[3]
PW[Mike LeFebre]
WR[8k]
KM[0.5]
DT[2002-01-23]
PC[Santa Monica Go Club]
RE[B+Resign]
RU[Japanese]

AB[pd][dp][pp]C[csh: I am trying to learn how to use thickness to attack. I also have a hard time "recovering" from mistakes. Please let me know if there are higher-level "strategic" mistakes. (I already know there are many tactical ones. :)]
;W[ec];B[de]C[csh: I wanted to build a horizontal wall and not be smushed in the corner. I thought the high kakari was best.]
;W[cd];B[ce];W[ci]LB[bd:A][dd:B]TR[ec][cd]C[csh: I wasn't expecting this move. I didn't think white's marked stones were strong, so I thought he would play at 'a' instead. Since I can no longer make the ideal extension from the wall,  I thought I should push instead.
yes, white should play at A or B.]
(;B[dd]C[i dont like the push so much- see var.];W[dc];B[cc]
TR[ci]C[csh: I thought the cut would give my black group life. I wanted to build thickness, and use it to attack the marked stone later on.]
;W[cb]
(;B[bd]C[csh: Would the extension have been better?
yes, i think the extension would have been better- see var.]
;W[bc]C[your connection is sente, so it is ok];B[cd]LB[bb:a]
[db:b][be:c]C[csh: I thought I *had* to connect. There are no ko fights in the opening. :) I thought the threat of the cut at 'a' and 'b' would make my move sente. I know that I made bad shape, though. I thought that if I cut at 'a' I would be able to make life, since I already had an eye at 'c.' If he protected, I thought I was still out in the center.]
;W[bb];B[ge]LB[gc:A][jc:d][fd:b][gd:c][fe:a][cg:e]C[csh: I thought a two-space jump from a two-stone wall was okay. Is it too loose? Would 'a,' 'b,' or 'c' be better?  I also this move was sente. If white doesn't respond, isn't the extension to 'd' really big? Others commenting on the game said that a small extension, perhaps to 'e,' would be better.
the two space- jump is ok.
e is bad, because there is a rule " if you try to get eyes for your groups, move out into the center".
For a second reason, you  seperate the white groups.
if white doesnt answer this move, i think d is too loose.
A works better to build thickness if white doesnt answer g15]

(;W[gc]
(;B[id]LB[fd:A]C[i dont like this move because i threatens nothing.
you should aproach the white stone on the left.
by the way, a black forcing move at A is sente.that is very important!!]
;W[cn]TR[ci]C[csh: He approached. I thought that splitting the two stones immediately would be better letting him create a sphere of influence with 'a.' I also thought that separating the stones would help me attack the marked stone and give him two weak groups.
i dont think that white gets two weak groups when he invades the corner.]
;B[ck]
(;W[do]LB[cp:a][ep:b]C[csh: Which way, 'a' or 'b'? People commenting after the game were split.
very strange move.]
(;B[cp]C[csh: I chose 'a'. I thought his shape would be too nice if I went the other direction (see variation.) I also thought going the other way would be too easy for him to live in the corner.
this move is correct.];W[ep];B[eq]
(;W[fo]
(;B[fp];W[eo];B[fq];W[ek];B[dj]C[csh: It seemed like splitting them and running away was the only move.]

(;W[bp]C[at the moment, there is no reason for playing here.]
;B[bo]LB[co:a]C[csh: The way I read it, white could not cut at 'a'.]

(;W[cq]C[csh: See variations.];B[bq];W[co];B[ap];W[bn]C[very bad sequence for white.]
;B[pj]LB[ei:b][go:a]C[csh: I thought I was alive in the corner, so I thought the san ren sei was biggest. Other options were 'a' and 'b'. Any comments?
with B you prevent white from pushing at e10.
a is very big to build a moyo on the lower side,
but q10 is ok, i think.];W[nq];B[kq]LB[jq:a]TR[fp][fq]C[csh: I liked this move. It's a pincer, and an extension from my wall. However, would 'a' work better?
yes, a is better, because there should be three spaces between this stone and your two-stone-wall.
generally, this pincer is not so good because you cannot get a good result when white jumps into the corner.]

(;W[op];B[pn]LB[po:b][pq:a]C[csh: In hindsight, this move was really weak. I still don't know what a better answer is, though. Would 'a' or 'b' be better?
A is good];W[pq];B[qp];W[qq];B[oo]
(;W[ei]LB[no:A]C[A is important for white, after playing it you could aim at an invasion in the four-point-extension on the lower side.]
;B[ej];W[cj];B[dk];W[bk];B[bl];W[aj];B[di];W[cl];B[el];W[fk]
;B[cm];W[dh];B[fj];W[bm];B[dl];W[al];B[eh];W[cl];B[gk];W[fl]
;B[fm];W[ko];B[gl];W[eg];B[fh];W[fe];B[dg];W[df];B[ch]C[csh: I think I made a mistake. I think extending would be better. I would still be connected.]
;W[cf];B[ef];W[ee]
(;B[ff];W[be]LB[bf:a]C[csh: I think this was a mistake by white. 'a' would have been better. See variation.]
;B[bf];W[gf];B[fg];W[he]
(;B[hf];W[ie];B[gg];W[hd]
(;B[if];W[je]
(;B[pf]C[csh: White was already out, so I thought that securing territory on the right would be better than just chasing him.
wrong direction.]
(;W[md];B[lp];W[jf]
(;B[jg]C[not necessary];W[pc];B[oc]
(;W[qd]C[csh: This time, I wanted a vertical wall to attack the top of the board.]
;B[pb]
(;W[pe];B[qc];W[qf];B[oe];W[re];B[rd]C[csh: I didn't want to fight a ko yet.
you should :)];W[qe];B[of]TR[rd]C[csh: Now I had my thickness. To be honest, I didn't think about the marked stone, but even if I did, I think I would have sacrificed it.
if you had fight the ko, white could die, now he is alive.]

(;W[rc];B[rb];W[sd];B[qh]C[csh: Now I wanted to block him off.]
;W[rh];B[rg]C[csh: This was a serious overplay. I realized it right afterwards. But how do I recover?]
;W[qg];B[ri]LB[qi:a]C[csh: Another mistake! 'a' would have been better, I think.]
;W[ph];B[sh];W[qi]
(;B[pg];W[rh];B[qj]C[csh: Whoops! That's not a ko threat. But is letting him connect so bad?]
;W[qh];B[rj];W[rf];B[sg];W[sf];B[si]C[csh: Forced, but at least I'm connected up now. And I've almost solidified territory on the righthand side.
it is not forced, because its only 7 points( small).
your "territorry " on the right is very small, too, when white gets to play s4.]
;W[nh]
(;B[oh]C[csh: Um, I think I was drunk. :) I can't explain this move. I was going for a cut, but obviously I didn't read this out at all. I suppose my question should be, "I know I made a mistake, but what do I do now?"]
;W[oi];B[og];W[pi];B[ni];W[nj];B[mi];W[oj]
(;B[kc]C[csh: I thought I could use my wall on the right to start attacking the top. I was trying to get enough stones up there to threaten to either connect of live.
you should run in from the outside.];W[mc];B[ic]
(;W[mf]
(;B[mg];W[lg];B[lh];W[kg];B[jh];W[le];B[kh];W[mj];B[np];W[oq]
;B[mp]TR[mj][nj][oj][lp][mp][np]C[now the black wall is useless because of the marked white stones.]
;W[li];B[mh];W[pk]
(;B[qk];W[rp]C[csh: I knew I was in trouble as soon as he played this. But I didn't know the best way to recover.]

(;B[rn]C[csh: Was this okay?
( you should have played s3 yourself)];W[qo];B[po];W[ro];B[qn]
;W[pl];B[ql];W[no];B[nn];W[rm]
(;B[sm]C[csh: I thought this was a great move. It took me a while to come up with, but it seems to stop his attack on my groups, and it keeps him from cutting me.]
;W[mo];B[lo]C[csh: I played for the cutting point. I knew the ladder was broken.]
;W[mn];B[lj];W[lk];B[kj];W[nm];B[mk]C[csh: I was trying to use the threat of a cut to jump ahead.]
;W[ml];B[ll]LB[kk:a]C[csh: I thought he would take, and I could atari at 'a' to clean things up.]
;W[kk];B[lm]C[csh: I had to avoid the ladder. Also, I thought he would connect.]
;W[pm];B[qm];W[jj];B[ki];W[ln];B[nl]C[csh: Dumb move. :(];W[nk]
;B[kn];W[mm];B[om];W[ol];B[jm];W[km];B[jn];W[il]
(;B[kl];W[jl];B[km];W[in];B[jo];W[io];B[jp];W[ip];B[iq];W[gp]
;B[gq];W[hq]
(;B[im];W[ir];B[jq];W[gr];B[ho];W[hn];B[hm]
(;W[dr];B[dq];W[fr];B[er];W[es];B[cr]
(;W[ii];B[gn];W[hp];B[go];W[hr];B[jr];W[lr];B[is];W[cs];B[bs]
;W[lb];B[dm];W[bi];B[bg]
(;W[bh];B[ah];W[ai];B[bl]TR[bh][ai][bi][ci][aj][cj][bk][al]
[bm][bn][cn][co][do][eo][fo][ep]C[csh: If I win the ko, I think I can kill the marked stones.]
;W[fn];B[gm];W[cl];B[rq];W[rr];B[bl];W[ao]C[csh: I answered this on gut instinct. I thought he'd be able to make a second eye if I didn't answer.]

(;B[an];W[cl];B[sp]LB[jk:a]C[csh: This threat wasn't big enough. Are there bigger ones that I didn't see? I thought 'a' might be a threat, but it looked really dumb. I was also beginning to think that he had a lot more threats than I did.]
;W[bl];B[so];W[sr];B[on];W[hh];B[ij];W[hj];B[ih];W[hg];B[gi]
;W[ed];B[ae];W[hi];B[ji];W[ik];B[hk];W[ij];B[mq];W[mr];B[gf]
;W[sb];B[ra];W[nb];B[hc];W[gb];B[gd];W[ja];B[jd];W[hb];B[ke]
C[White resigns];W[nf];B[ng];W[oa];AW[ib][jb][kb][ob][ac][nc]
[sc][fd][jk][mk][ls]AB[pa][lf][ag][ao]AE[hd][he][ie][je][cf]
[df][jf][kg][lg][ei][rm][hn][in][io][ko][gp][hp][ip][hq][dr]
[fr][gr][hr][ir][cs][es]TW[aa][ba][ca][da][ea][fa][ga][ha][ia]
[ka][la][ma][na][ab][db][eb][fb][mb][fc][sc][rd][se][bj][ak]
[jk][mk][ok][nl][nr][or][pr][qr][ms][ns][os][ps][qs][rs][ss]
TB[qa][qb][pc][hd][be][he][ie][je][af][cf][df][jf][kf][ag][cg]
[eg][kg][lg][dh][nh][ei][fi][li][sj][ek][fk][rk][sk][fl][rl]
[sl][rm][hn][in][sn][ao][io][ko][qo][ro][bp][gp][hp][ip][kp]
[rp][aq][cq][hq][ar][br][dr][fr][gr][hr][ir][as][cs][ds][es]
[fs][gs][hs]C[csh: We cleaned up the edges to guess an approximate score. B+60 or thereabouts, I think.

ok, that was the game, i hope you find my comments useful.

Important points are:

1.instead of collecting small points in the middle game you should watch out for opportunities to create large moyos or to prevent your opponents from doing so.
2.it is often better to go into an enemy position from the outside ( like in the upper right corner)

i have no idea what your strength is. can you tell the reviewer when sending a game?- thx]
)
(;B[cl];W[bp];B[aq];W[am];B[bo]C[ko again.]))
(;W[bl]))
(;W[gn]))
(;W[dq];B[bp];W[er]))
(;B[hr]C[must be here]))
(;B[go]C[big move]))
(;B[qm];W[sn];B[mo]C[i like this better]))
(;B[ro];W[rn]C[csh: I didn't have it all read out, but I knew this would be bad...]
;B[qo];W[so];B[rq];W[sp];B[sq];W[sn];B[qn];W[rr];B[rm];W[sr]
;B[sm];W[pl];B[qm];W[ql];B[rl]C[csh: The result just didn't look too good for black.]
))
(;B[ql]))
(;B[lb];W[mb];B[ma];W[na];B[la];W[nb];B[jb]LB[hb:B][jd:A]C[now black seems to be alive( A and B are miai).]
))
(;W[kd]C[i think this move works better in order to kill the invaders.]

(;B[lc];W[lb]
(;B[kb];W[mb];B[ld];W[le];B[me];W[jc])
(;B[ld];W[le];B[me];W[jc]))
(;B[lb];W[mb];B[hb];W[jb];B[gb];W[fb];B[ia];W[la];B[ka];W[ma]
;B[kb];W[ga])))
(;B[mb]C[you make points in sente here, and there is no danger for you in playing like this.]
))
(;B[mb])
(;B[rq])
(;B[np];W[oq];B[go]))
(;B[rh]
(;W[pg];B[qj]C[ok for you.])
(;W[qj];B[rj]
(;W[pg];B[qk])
(;W[qk];B[pg];W[rf];B[sf];W[rk];B[sb];W[sj];B[sc]))))
(;W[qh]C[better]))
(;W[qc]C[white should just connect.
letting black have the ponnuki in the corner is bad.];B[pe]
;W[qb];B[ob];W[rf]))
(;W[od]C[you should play here.]
(;B[qd];W[nc];B[ob];W[pb])
(;B[nc];W[nd];B[qc];W[pb];B[qb];W[pe];B[qd];W[qe])
(;B[ob];W[nc];B[qc];W[pe];B[qd];W[oe];B[qe];W[nb];B[pb]C[now white has real territory at the top.]
)))
(;B[np];W[oq];B[go];W[mp];B[no];W[mq];B[mo]C[big moyo for black]
))
(;W[ld]))
(;B[nd]C[now the j16 stone may get activated in the future.]
))
(;B[nd]))
(;B[nd]C[better leave it and play here , for example]))
(;B[bf];W[ff];B[cg]C[now you are connected.]))
(;W[ej]C[this move is simple, good to understand and it makes sense because you get strength in the center. you need strength in the center to reduce blacks moyo on the right.
your move at e11 is much more complicated and there is the danger that ( like in the game) black gets and enourmos center strength ( very bad for you).]
))
(;W[qq]
(;B[qp];W[pq];B[op];W[mq]C[white gets out...])
(;B[pq];W[qp];B[po];W[pr];B[or];W[qr];B[oq];W[qn]TR[nq]C[here you have no real good move to kill the aji of the white stone.]

(;B[np];W[mp])
(;B[ko];W[no]))))
(;W[bq]C[csh: What about the extension?];B[co];W[dq];B[cq];W[dr]
;B[br];W[cr];B[aq];W[er];B[fr];W[bs])
(;W[co]C[csh: I didn't think white could cut.];B[bq];W[cq];B[ap]
;W[dq];B[bp]))
(;W[ej];B[di];W[ei];B[dh]C[white gets center thickness.]))
(;B[fq]LB[en:A]C[this is better, because eventually black needs a forcing move at A to get away with his stone at c9]
))
(;W[fp]C[csh: The ladder doesn't work for white. I would cut.]
;B[eo];W[en]))
(;B[ep];W[cp];B[eo];W[en];B[cq];W[bp]LB[bq:A]TR[ci][ck]C[csh: Now the marked black stone is in a lot more trouble than the white one.
the black stone is not in trouble, but the point is that white has settled his group too easily ( running out and running into the corner are his options.)]
;B[dm];W[dn];B[ek]C[now the white stone is in trouble , but white can take the corner.]
;W[bq]))
(;W[cq];B[cp];W[dq];B[ep];W[bp];B[bo];W[bq];B[co];W[fq];B[go]
;W[dk];B[dl];W[dj];B[el];W[fj]C[white can make sabaki]))
(;B[ck];W[ei];B[ek];W[gi];B[fd];W[fc];B[jp]C[now you have some kind of moyo in the left bottom and you can get away with your top- group easily.]
)
(;B[fd];W[cn];B[fc];W[fb];B[gb]
(;W[hb];B[eb];W[ga];B[db])
(;W[eb];B[hc])))
(;W[cn];B[gc])
(;W[fd]C[white should play like this and then tennuki.];B[fe]

(;W[ee]C[this move is not correct];B[ed];W[ef];B[fc];W[gd];B[fb]
C[white cannot cut])
(;W[cn]
(;B[cl];W[en];B[fp];W[dk]C[the pincer is a bit problematical here.]
)
(;B[fq];W[bp];B[cq];W[dl];B[pj]))))
(;B[bc];W[bb];B[bd]LB[gc:A]C[csh: This seems like better shape for black, but it seems like I lost initiative. The black group is alive, but now white is free to extend along the top of the board.
a white extension at the top around A is not very big, and your group is much stronger than in the game, because you already have eye shape.]
))
(;B[dc]C[i think this is better];W[dd];B[ed]C[i show a few variations, but they all end in a very good result for black]

(;W[ee];B[fd]
(;W[fc];B[cc];W[bd];B[bc];W[be];B[bf]
(;W[cf];B[df];W[bg];B[cg];W[af];B[cf];W[bh];B[ad])
(;W[gd];B[fe];W[ef];B[ae]))
(;W[cc];B[fc];W[db];B[ef]C[black becomes very thick]))
(;W[fd];B[ee];W[cc];B[fc];W[db];B[gd]C[again black becomes thick]
)
(;W[be];B[cc];W[bd];B[fc];W[eb];B[fb];W[ee];B[fd];W[bc];B[db]
;W[df];B[fe];W[ef]C[white is overconcentrated])))
