(;FF[4]GM[1]SZ[19]ST[2]CA[UTF-8]AP[SGFC:1.13b]

GN[mitnyik]
EV[January Tournament - Strong Kyu Division, Late Group]
RO[1]
PB[psibrr]
BR[7k]
PW[rmila]
WR[8k]
KM[1.5]
DT[2002-01-26]
PC[The Kiseido Go Server (KGS) at http://kgs.kiseido.com/]
RE[W+Time]
TM[3600]
RU[Japanese]

;B[pd];W[dp];B[pp];W[dd];B[jj]C[Very interesting move (on our level) After this move my goal was to ignore the fluence of this stone. (Avoid ladder and dont let build up such big moyo)]
;W[dj]C[You could also invade at the right. Black then cannot get a double wing formation. Maybe you should do this already at this point.]
;B[jd];W[qj]C[I hear that this is the counter move of K10 but I dont know how to use it.

You simply extend the stone to above or below, which is Miai. If black sets here, he gets a big Moyo due to the double wing in the upper right, which is well supported by the center stone.]
;B[fp];W[dn];B[ql]
(;W[qf]C[Safer one point below. You do not want to get much territory, but quickly make the group as safe as necessary.]

(;B[pf]C[This helps white.];W[pg];B[of];W[qe];B[qd]C[I was happy of this sequence. Now I try to find an invasion to the bottom ...]

(;W[pn]C[Not really good. A point deeper is locally better. However the lower side is more urgent. You can use a split move there or squeeze the black stone.]
;B[ol]C[See, now you do not get a base easily.];W[nq]C[Good.]
;B[oo];W[qq]C[Good.];B[qp]C[This is the wrong direction. Black gets overconcentrated.]
;W[pq];B[lq]C[Not good. You can sramble blacks territory while securing yourself.]

(;W[mp]C[See variation.];B[jp];W[on]C[Maybe an overplay. But if you think you know what you do ...]
;B[no];W[mo];B[nn];W[mn];B[nm];W[rp];B[ro];W[rq];B[qo]C[I felt that P3 is a big aji but i did not see what is the cost.

P3 is no danger.];W[hp]C[Tough attack.];B[jn]C[My plan was coming here after H4 :(.

Tht would only drive black into the direction, he wants to go anyway.]
;W[hn];B[or]C[Aji Keshi.];W[oq];B[mq];W[np];B[nr];W[pr]
(;B[hq]C[This is almost never a good move.];W[gq];B[gp];W[iq]
;B[hr];W[ip];B[ir];W[jq];B[kp]
(;W[lp]C[What is this? Empty triangle for no value. Aji Keshi.]
;B[kq];W[jr];B[fq];W[ll];B[jl];W[ko]C[Unnecessary.];B[jo];W[kn]
C[Also too slow. The lower middle group must be safed first.]
;B[gn]C[Now you got yourself in trouble.];W[hm];B[in]C[Nonsense.]

(;W[go]C[Just connect.];B[fo];W[ho];B[dl]C[Wrong. Overplay.]

(;W[gr]C[Not a good attack.];B[fr];W[is];B[gs];W[em];B[dr]
(;W[cr]C[Does not work. And does not threaten black.];B[gm]
;W[gl];B[co];W[do];B[dq]
(;W[fn]C[I thought better to give up the corner and get some strategical advance. Maybe it was not a good choise.

I think it was right. See the variation. You suddenly have no more troubles.]
;B[cp]
(;W[cq]C[I force this only to better isolate the corner and maybe get a sente at the end. (and it was).

You can do that more easily. See variation.];B[cn];W[cm];B[bm]
;W[cl];B[bq];W[br];B[bp];W[bl];B[bn];W[aq];B[cs];W[am];B[bs]

(;W[hd]C[I was thinking a lot where to put this stone?

Right so. But the result may not be lukewarm like this. This neither attacks the black group below, or does it secure the corner, nor is a good extension.]
;B[jf]C[This looks ideal for Black, doesn't it? Secure the upper side, connect the lower stones.]
;W[jh]C[Good try.];B[lk];W[ml];B[kh];W[oj]C[This is no thread against the black group on the right. And therefore, you simply let black connect.]

(;B[rk]C[Out of focus.];W[kk];B[kl];W[lj];B[jk];W[kj];B[ji]
;W[hf];B[dh];W[hj]C[Neutral point.]
(;B[hi]C[Again the wrong focus. Also locally wrong, since black might get cut during the fight.]
;W[gi];B[gh]C[Black must be careful!];W[hh];B[fi]
(;W[gj]C[Why not simply take?];B[hg];W[ih];B[gg]
(;W[ii]C[it sd be J13?

See variation.];B[ig]C[Now he gets cut.];W[ki];B[kr]
(;W[ms]C[Mistake! Simply connect.];B[ls];W[js]C[I do all the cut in the center because to kill this group. Now I let It to make two eye. Why?  Where is the mistake? should I accept the ko fight now?

Of course, there is nothing you can loose!];B[mr];W[km];B[il]

(;W[cg]C[Not good. Black can now invade the corner.];B[fd]C[Or do this in preperation.]

(;W[fc]C[As I said, this is almost never a good move.

However. It is tough to find a good move now. See variations.]
;B[ec];W[dc]C[Disaster.];B[eb];W[gd];B[fe];W[ge];B[ff];W[dg]
;B[di];W[db];B[gc];W[cj];B[bi]
(;W[mb]C[I made a lot of bad moves till now to shorten the invasition but finally black get all the territory. Please point out what is the best strategie to keep the upper left corner as big as possibile?^

You alredy choose the best method. However the loss on the upper side is big. You should have secured the corner before.

This is not the correct invasion point. it is too deep.];B[nc]
C[I am unsure, if this is the right defense in view of the white Aji in the upper left.]
;W[lc]
(;B[kb]C[Lets white escape. But the fight is not easy to foresee. However, Back is aheaad.]
;W[le]
(;B[md]C[Black can do better. See variation.];W[me];B[ne];W[mg]
;B[lh]C[Does no longer work.]
(;W[mh];B[mi];W[mj];B[ni];W[og];B[nj];W[mk]C[Why this? You have two eyes already.]
;B[ng];W[nh];B[nf];W[ok];B[mf]C[psibrr [7k\]: java crash or net disconnect or both ..

Sorry for you. What client? Don' t tell me its Jago.];W[lg]
;B[lf];W[kg];B[kf]C[Black finally got his share.];W[rj]
(;B[rd]C[Ah no!];W[rm]C[Last chance for White.]
(;B[rl]C[This is rarely good.]
(;W[pl]C[Looks too direct. Black can now separate his eye space.]
;B[pm];W[pk];B[qn]C[Its over.];W[sk];B[sm];W[bh];B[df];W[eg]
;B[fh];W[ef];B[de];W[ee];B[ed];W[ci];B[da];W[cb];B[ca];W[ba]
;B[ea];W[bc];B[oh]C[As we know, this was a thread all the time.]
;W[li];B[qg];W[ph];B[qh];W[pi];B[rf];W[rh];B[rg];W[hc];B[gb]
;W[kc];B[jc];W[fj];B[ej];W[ek];B[ei];W[sn];B[sl];W[so];B[rn]
;W[sp];B[sj];W[si];B[nl];W[nk];B[ep];W[hl];B[ch];W[bg];B[eo]
;W[en];B[ik];W[hk];B[qi];W[sk];B[ri];W[sj];B[sh];W[qk];B[qm]
;W[pc];B[oc];W[rb];B[qb];W[pb];B[qc];W[hb]C[Loosing by time is terrible. Black is far ahead.]
)
(;W[qm];B[pk];W[so];B[sn];W[sp];B[rn];W[pm];B[pl];W[nl];B[om]
;W[op];B[po]C[Black still lives.]))
(;B[qm];W[rl];B[qk];W[sk];B[rn];W[sj];B[pk]
(;W[pj];B[pm])
(;W[pm];B[pj];W[qi];B[pi];W[qh];B[nk])))
(;B[oh];W[li];B[qg];W[ph];B[qh];W[pi];B[rf]C[Now white resigns.]
))
(;W[kg]))
(;B[og];W[ph];B[lh]C[What now?]))
(;B[le];W[jc]C[This is tough for black.];B[id];W[ic];B[hc]C[Should work. But tough.]
))
(;W[nc];B[lc];W[pe];B[od];W[oe];B[nd];W[ne]))
(;W[jc]C[This is probably the best idea.];B[kc];W[ic];B[kd]
;W[fe];B[cc];W[dc];B[cd];W[de];B[ce];W[ch])
(;W[nc]C[This would not work really.]))
(;W[ce]))
(;W[js]C[Black can do nothing.]
(;B[ms];W[os])
(;B[ls];W[os];B[ns];W[mr])))
(;W[ig];B[if];W[ii];B[gf];W[he];B[fd]C[And now?]))
(;W[ii];B[ki];W[ce]C[Black dies inside.]))
(;B[ih];W[cf];B[gh]))
(;B[kk]))
(;W[jh]C[Let us see, what happens, collect strenght while attacking. Then invade the upper right.]
))
(;W[cn]C[Easier and sente.]))
(;W[cq];B[cp];W[bp];B[bo];W[aq];B[cm];W[br];B[fl]C[White is in much trouble.]
))
(;W[cq]C[This does at least save the corner.]))
(;W[fn];B[gm];W[gl];B[fm];W[en];B[fl];W[ik];B[jk];W[gk];B[fk]
;W[gj];B[fj];W[er]))
(;W[ho];B[fm];W[hk]))
(;W[jr];B[gr];W[eq];B[fq];W[go];B[er];W[dr];B[fs];W[jl]))
(;B[rs]C[Just a question: What do you do here?]))
(;W[rp];B[ro];W[rq];B[qo]C[Black is much overconcentrated.]
))
(;W[kq])
(;W[hq]))
(;B[nd];W[rd];B[qc];W[ph]C[Now black can play somewhere on the lower side.]
))
(;W[qg];B[qe];W[kq]))
