(;FF[4]GM[1]SZ[19]AP[SGFC:1.13b]VW[]

GN[sutek-lietzang(B) IGS]
PB[lietzang]
BR[17k*]
PW[sutek]
WR[16k*]
KM[0.5]
DT[2001-12-14]
PC[IGS:  igs.joyjoy.net 6969]
RE[W+24.5]
TM[60]
US[Brought to you by IGS]

C[ Hi Reviewers.  This is typical high kyu zany hijinks.  I was playing black, and i mostly got outplayed, which I feel I understand.  What i don't get is when I make this huge wall, I didn't use it well to attack him.  From move 129 onward, I feel like I should have come out of that much better.  any help?

Thanks,   karl];B[pd];W[dp];B[pp];W[dc];B[fq];W[hq]C[The variation is more easy going and more un der controll...]

(;B[fo]C[Since I don't know wel l this joseki, I would consider entering cor ner immediately instea d of this jump. For me it's most safe respon d to white pincer.(vlk plk)]
;W[jp]C[I think something like in variation is good. (vlkplk)]

(;B[lq]C[See what may happen if white responds as in variation (or some sim ilar idea, I think it works)(vlkplk)]

(;W[kq];B[lp];W[nq]
(;B[np]C[I have some slight ide a of not playing conta ct move like this blac k one, but I couldn't find better. Maybe see var. (vlkplk)]
;W[pq]
(;B[qq];W[qr];B[pr];W[oq];B[rr];W[qp]
(;B[rq];W[op];B[po];W[oo];B[pn];W[or];B[qs];W[lr];B[mr];W[kr]
;B[mq];W[no];B[mo];W[mn];B[ln];W[ko];B[lo];W[kn];B[lm];W[os]
;B[ms];W[nm];B[mm];W[on]C[Obvious mistake here by black, but this was an odd series, I was changing between optimistic and despondent every other move

Yes. White has succed to play P6 finally whi le making stronger his middle group of stone s. Since black clump h as some options to esc ape, black has to play Q7 or even R7 or R8. Always be careful of a voiding this shape.(vl kplk)]
;B[nl];W[pm]C[After this, complicate d struggle turns bad f or black. It's like al l effort lost in one m oment. This is why str ong fighting is not al ways best kind of play ing. When you start fi ght from beggining, ev en much stronger playe rs don't know sometime s what will happen. Be tter to think first an d don't actualize any idea you get. Wait for right time and keep m any options is one of virtue of good go play er.]
;B[ol];W[qn];B[ro];W[qo];B[rp];W[rn];B[ql];W[pl];B[pk];W[om]
;B[qj];W[so];B[ps];W[po]C[Now is time to stop an d think about what is most urgent place to p lay.]

(;B[pg]C[Waste move. Since blac k obtained some kind o f strenght from previo us action, he doesn't need to defend here. Black position is on l arge scale, so black's move shall be likewis e. When you are strong than atack! Or defend places which need it. So probably best move here was some kind of connection-see variat ions. Generaly any mov e which acts as a ladd er braker do the work. Only if it's too far there are some posibil ities of white peeping .]
;W[ml]
(;B[ll]C[Since both atari seems not good, I would pla y something else. See variation.(vlkplk)]
;W[mk];B[nj];W[lk];B[jl];W[kl];B[km];W[kk];B[jm];W[jk];B[in]
;W[io];B[hn];W[ho];B[gn];W[gp];B[fp];W[er];B[fr];W[dr]
(;B[dn]C[I'm pretty happy with my play up to now, but I'm uncertain of a number of choices. What is the biggest, most urgent move? It looks like I can threaten to kill the white group with H2 It looks like, even though we're 80~ moves in, I can do an opening type move at F17 or D15. It seems like I can also attack at J9. What criteria do you use to choose between these choices?

Black D6 is not bad as it cut off white corn er. But as you mension ed, there is posible t o attack at J9. So, be tter order of moves is like this: keep press ing white clump of sto nes (starting at J9), until white needs to d efend. Than at RIGHT m oment to play D6 and i t's perfect.(vlkplk)]
;W[cl];B[cn]C[This was good move fro m black!];W[cp]C[those last 3 moves seem to make white much strong, seems like a big mistake

Now, white spend one m ove to make his corner alive. Black cannot d o anything with this f act, so it's time to s witch elsewhere.(vlkpl k)]

(;B[bn];W[en];B[em];W[eo];B[fn];W[dm];B[dl];W[cm]C[And I'm fightiing to stay connected]
;B[el]
(;W[bl]C[Black didn't have chan ce, if white as in var .];B[ck]
C[Good move from black!!];W[bk];B[cj];W[bj];B[bi];W[ci];B[bh]
C[I get a capture somehow, but i think he may have been better off running me along the second row for a while

Maybe yes. But it seem s complicated and resu lt is not clear.(vlkpl k)]

(;W[di];B[ej];W[bo];B[bm];W[do]C[White D5 I think is  n ot good, since it help s black to solve situa tion more quickly. Suc h position is better t o leave for later use. Noone knows what may happen...(vlkplk)]
;B[al];W[qe]C[It seems to me that yo u allowed white to liv e too easily, but... It's hard to say what is better, since surro unding white in corner has now not so much v alue as say in the ope ning.(vlkplk)]

(;B[pe];W[qd]
(;B[pc];W[qc];B[qb];W[qf];B[pf];W[rb]C[Since now it's clear t hat white lives, I wou ld let him capture one stone as in variation (vlkplk)]

(;B[pb];W[rh];B[qg];W[rg];B[qh];W[ri];B[qi];W[rk];B[qk];W[rl]
C[this is the territory influence exchange I spoke of.  It looks as if I am primed to wreak havoc with my wall on Q-R, but.....

Good idea, just you sh ouldn't allow white to connect. It's surpris ing, how many points i t takes, when one can push through and destr oy connection along si de.(vlkplk)]
;B[gc];W[jc]C[He attacks my stone and takes territory

Problem in this situat ion is, that white has already some stones i n the middle. But sinc e they have no eye, th e strategy would be li ke this: make a move w hich strengthten black stone at G17 and than see white response. W hite has to take care for two groups: K17 an d K9 group. But even a fter some defending mo ve, black can aim at d ividing them. While do ing this, white's uppe r left corner is falli ng to difficulties. (vlkplk)]

(;B[lc]C[Perhaps instead I should have done a 2 or 3 point jump at G-14 or G-15, and let him pick which stone to defend.

Black M17 is wrong dir ection of play. Basic rule is: use wall (or any kind of strong for mation of stones) for pushing opponents ston es AGAINST it. Usualy such a big wall doesn' t die so easy :) (vlkplk)]
;W[ld]
(;B[kd];W[kc];B[md];W[le];B[mc];W[je];B[me]C[Very bad result for bl ack I think. Due to un reasonable cut. White was playing well. Cont act play is usualy the way how to settle wea k stones. Therefore wh an you are going to at tack, don't make conta ct moves and be carefu l of cutting.(vlkplk)]
;W[lf]C[From now it seems no u se for black to try so mething on white middl e groups, they are alm ost connected. Black could give up pl aying there and shift his attention to his s ingle and VERY weak st one at G17. Actualy, b lack had to think abou t it much more before. ..(vlkplk)]
;B[mg];W[mf];B[nf];W[lg];B[lh];W[mh];B[ng];W[kh];B[li];W[ki]
;B[mi];W[nk];B[ok];W[mj]C[I get a little territory, but now he has a wall negating my own.

Yes, poor result for b lack. During this sequence, black could stop at AN Y time and play elsewh ere. It's no use to pr otect some single ston es, when there are muc h bigger points left o n board.(vlkplk)]
;B[ni]C[Even black ends in got e! Black got some 20 p oints of safe territor y, while white is goin g to take...About 40, 50 points at least, I think. (vlkplk)]

(;W[gd]
(;B[id];W[jd];B[hd];W[ge]
(;B[ce];W[cd];B[bd];W[bc];B[dd];W[cc];B[be];W[de];B[df];W[ee]
;B[ef];W[ff];B[fg];W[gg]C[this next series I was fairly happy with, picking up all that territory on the diagonal seems all that I could hope for. Was there more I could be looking for, or weakness that my opponent missed?

Too complicated. It se ems you could make bet ter use of your almost captured stones at H1 6. It seems white coul d get maximum of terri tory during this seque nce.(vlkplk)]
;B[fh];W[cg];B[cf];W[bg];B[eg];W[ch];B[aj];W[gh];B[gi];W[hi]
;B[gj];W[hj];B[hk];W[ik];B[hl];W[il];B[im];W[hr]C[S19 and S10 are big en game points for black. And, ofcourse almost in sente. A17 is well. (vlkplk)]
;B[kp];W[jo];B[dq];W[eq];B[cq];W[bq];B[ed];W[fe];B[ec];W[fc]
;B[fb];W[fd];B[eb];W[gb];B[hb];W[hc];B[ga];W[gc];B[db];W[cb]
;B[ca];W[ba]
(;B[ib];W[kb];B[jb];W[ab];B[lb];W[ka];B[hf];W[he];B[hh];W[gf]
;B[ii];W[ij];B[kj];W[ji];B[lj];W[jj];B[ad];W[ac];B[ls];W[ks]
;B[gq];W[go];B[es];W[ds];B[fs];W[hs]
(;B[co];W[an];B[ak];W[ep];B[la];W[ra]C[Still S10 !];B[qa];W[qm]
;B[sp];W[sn];B[rj];W[sj];B[mp];W[nn];B[am];W[ao])
(;B[ao];W[ap];B[an];W[co];B[ak]))
(;B[ac];W[da];B[fa];W[ib];B[ab];W[ha];B[bb];W[ea]C[At least white has los t some points in corne r.(vlkplk)]
))
(;B[ec];W[eb];B[db];W[fc];B[ed]
(;W[cb];B[fb];W[da];B[fd])
(;W[fb];B[cc])))
(;B[fd]C[This is useful move, w hich leaves many optio ns open. White broken the rule of not playin g contact move when at tacking.(vlkplk)]

(;W[fc];B[ec];W[fb];B[eb];W[fe];B[ed]
(;W[gb];B[ge];W[hc];B[gf])
(;W[ee];B[ge];W[hd];B[gb];W[dd];B[de];W[db];B[fa];W[ce];B[df]
;W[cf];B[dg];W[cg];B[ch];W[dh];B[ff];W[he];B[gf]
(;W[hj];B[ae])
(;W[bd];B[hj])
(;W[bg];B[aj];W[ah];B[ak];W[hj];B[gh])))
(;W[hd]
(;B[ec];W[fe];B[ee])
(;B[fc])
(;B[fe];W[fc];B[ec];W[fb];B[eb];W[gb];B[dd]))))
(;W[de]C[As for white, I would prefer something like this. (vlkplk)]
;B[ge];W[eg];B[gg];W[fh];B[gh];W[gi];B[hi];W[hj];B[gj];W[fi]
;B[ij];W[hh];B[hk];W[ih]
(;B[be];W[bd];B[ce];W[cd];B[df];W[ef];B[ee];W[dd];B[id];W[jd]
C[Black has no chance. (vlkplk)])
(;B[dd];W[ed];B[cd];W[ee];B[ce];W[cc];B[bc];W[cf];B[bf];W[bd]
;B[be];W[bb];B[ad];W[ec]C[Even black made profit in corner, white got more than 40 points in upper/middle. (vlkplk )]
)))
(;B[mc]C[This is simple and doe sn't helps white so mu ch.(vlkplk)]
))
(;B[gf]
(;W[jf];B[de]C[Black captures either corner or middle.])
(;W[mc];B[kd]C[This would be very unr easonable from white. White has three grpoup s to take care.(vlkplk )]
;W[kc];B[kf])
(;W[df];B[je];W[mc];B[me])))
(;B[qg];W[pb];B[ob];W[qa];B[nc]C[Black is ok and white doesn't get so many po ints on right side.]

(;W[ic];B[rg])
(;W[rg];B[de];W[gc];B[ge]
(;W[cd];B[ic])
(;W[jc];B[cc]C[White two stones at B1 1 going to be captured .]
))))
(;B[qc];W[rc];B[qb];W[rb];B[oc];W[rg];B[rh]C[Better for white to de fend.]

(;W[rf];B[de])
(;W[cf];B[rf];W[qf];B[qg];W[re];B[sg];W[sd];B[ra];W[sb];B[se]
C[Black can get a ko, bu t it's complicated how to use it.(vlkplk)]
)))
(;B[qc]C[This strategy takes of f white's space for ey e in corner. Black can look forward, how whi te tries to live or es cape. Than to put forc e on white reasonably and get territory duri ng the process. White will be drawn against black stones around S1 0, which act now as so me kind of strength.(v lkplk)]
;W[pf];B[of];W[qg];B[pe];W[rf];B[ph];W[rd];B[rc]
(;W[ri];B[qh];W[rh];B[rj];W[se]C[White can live like th is or some other way a nd black gets points i n corner and a wall. P roblem is now, how to use sente effectively. (vlkplk)]
;B[de]C[Still this point seems big for me.(vlkplk)])
(;W[qh];B[qi]
(;W[rh];B[ri];W[si];B[sj];W[sh])
(;W[ri];B[rj];W[sh];B[sj];W[se]))))
(;W[ch];B[cg];W[dg];B[bg];W[di];B[dk];W[df]C[Later it may be useful for white to force bl ack to capture. But wh ite has to worry about his L9 group.(vlkplk)]
))
(;W[ck]))
(;B[ik];W[ji];B[ij];W[kh];B[ih];W[jf];B[ci]C[Maybe? To use strenght is not easy thing... We have lot of to lear n...]
))
(;B[ik];W[ji];B[ij];W[kh];B[ih];W[kf];B[if];W[jd];B[id];W[nd]
;B[de];W[gc];B[dn]C[Maybe ?]))
(;B[kl]C[This is my favorite. B ut maybe there is bett er...]
;W[mk];B[ok];W[kk];B[jk];W[jl];B[jm];W[il];B[ll];W[km];B[lk]
;W[kj];B[lj];W[cf]C[Not very good position for black, I think du e to reasons mentioned before.]
)
(;B[lk];W[mk];B[ok];W[ll];B[kl];W[lj];B[kk];W[mj];B[km];W[kj]
;B[hm];W[kd]C[Black strength is gone ...]))
(;B[de]C[Maybe it's possible to try something like th is to prevent cut at O 8 indirectly, but far the best seems...]

(;W[ce];B[cf];W[cd];B[dn])
(;W[gc];B[ge];W[dn];B[fm];W[jl];B[kk]C[But now black had to d efend.]
))
(;B[mk]C[...to connect!])
(;B[mj])
(;B[lj])
(;B[kj])
(;B[gg]C[Not any kind of ladder braker is good. Here it is too far from whi te stone at D17 to end anger it, while white can peep without beein g captured immediately .]
;W[lk];B[ml];W[jd]C[Even if white doesn't rush to save his stone at M9 immediately, it can later help him, w hen launching some act ion for reducing black territory.]
))
(;B[qs];W[op];B[po];W[oo];B[pn];W[on];B[pm];W[kn]C[Kind of territory exch ange...]
))
(;B[op];W[qp];B[qo];W[qq];B[pn];W[oq]C[Fair trade if somethin g like this.]
))
(;B[on]
(;W[no];B[ln];W[nn];B[om];W[mm];B[io])
(;W[pq];B[qq])
(;W[mp];B[lo];W[mo];B[mn];W[ln];B[no];W[mq];B[lr])))
(;W[en];B[ho];W[jn];B[gm];W[dk]C[Looks white is not unh appy.]
))
(;B[dn]C[Even though white is n ot dead, black gains b y surrounding corner a nd as well securing hi s two stones.]
))
(;B[cq]
(;W[dq];B[dr];W[er];B[cr];W[eq];B[bo];W[fp])
(;W[cp];B[dq];W[ep];B[fr];W[go];B[de])))
