(;FF[4]GM[1]SZ[19]ST[0]CA[UTF-8]AP[SGFC:1.13b]VW[]

PB[copper1956]
BR[11k]
HA[0]
PW[godzilla]
WR[10k]
KM[0.5]
DT[2002-03-02]
PC[The Kiseido Go Server (KGS) at http://kgs.kiseido.com/]
TM[1800]
OT[10x40 byo-yomi]
RU[Japanese]

C[I played black at KGS. I know I am pretty weak in close
combat -- so I am interesting in review of my
strategy in fuseki and early middle game.
Thank you.

Peter.];B[pc];W[dp];B[qp];W[dc];B[oq];W[di]C[DRS: I play this opening as Black quite a bit.]
;B[pi]C[DRS: This is sort of like a Chinese opening I suppose.  It's an ideal extension from Q17, and a slight overextension from R4.  I personally prefer to play something like K16 to invite W Q15 (excellent response: Q12) or W R15 (workable response: R13).]
;W[qe];B[qd]C[DRS: I like this kick.];W[qh];B[pe]C[DRS: I believe I'd answer W's attachment with R11 first.]
;W[qf];B[qi]C[DRS: ...although you got this important point anyway]
;W[ph];B[rd]C[DRS: This isn't all that big, especially since if W S16, B S17 makes S16 gote.  You have a "group attaches group" situation at Q11, so I believe you want to extend there one more time to get at least 5 liberties.]
;W[od];B[oe];W[nd];B[ne];W[md];B[lf]C[Here I tried to attack the left w group to develop a moyo
in the bottom right. I thought the upper 3 w stones are weak.
I think that I have to connect at Q16.

DRS: I believe B L16 is made severe by M14.];W[me]
(;B[ng];W[pd];B[qb]C[this b move is unnecessary and my center group becomes very weak.
i didnt realize this during the game.

DRS: You're likely correct that R18 is unnecessary, however I don't think I'd leave that group alone in a game with a pro.]
;W[oh];B[oi];W[nh];B[mf];W[jc];B[mj]C[DRS: This move more or less forces W to M12, which is an attack against M14.  On the other hand, if B M12 instead, B strengthens M14 and gets an opportunity later to attack while building territory with one or more small extensions from P11.  B also gets better influence in the center.]
;W[lh];B[jf];W[re];B[kh];W[li];B[rg]C[i know it is a mistake]
;W[rh];B[qg];W[pg];B[sg];W[sf];B[de];W[fd];B[cc]C[I tried to help my central group.
i dont like this move. may be f15 is better.

DRS: I like F14];W[dd];B[cd];W[cf];B[ce];W[ff];B[jh];W[ee];B[ge]
C[DRS: W doesn't need to defend against this "peep".];W[fe]
;B[jd];W[ic];B[kc]C[i think this is a mistake];W[ke];B[kd];W[je]
;B[ie];W[le];B[id];W[kf]
(;B[ig];W[hc];B[kj];W[kg];B[cq]C[i have 4 corners now and think that w wall in the
bottom left will be inefficient.];W[dq]C[DRS: W is blocking on the wrong side.  If W C4 instead, W's wall will be a slight overextension from D11.]
;B[cp];W[co];B[bo];W[bn];B[cn];W[do];B[bm];W[bp];B[an];W[bq]
;B[jq];W[dn];B[dm];W[cl];B[dl]C[it is a mistake.];W[cm];B[ck]
;W[bl];B[bk];W[bn];B[mh]C[DRS: Locally, I think N11 makes a better ko threat.  It doesn't throw away a stone unnecessarily, threatens to make the same connection, and strengthens your hold on your moyo instead of weakening it.]
;W[mi];B[cn];W[hf];B[al];W[if];B[db];W[nb];B[gd];W[gc];B[gf]
;W[hg];B[gg];W[hh];B[gh];W[jg];B[fi];W[ej];B[cg];W[df];B[hi]
;W[ih];B[fj];W[ek];B[mb];W[ob];B[jb];W[ib];B[ka];W[ec];B[ii]
;W[lq];B[mp];W[kp];B[jp];W[jo];B[hp];W[io];B[kq];W[lp];B[ho]
;W[kn];B[mn];W[gr];B[hr]C[it is a mistake];W[gq];B[fp];W[hn]
;B[hq];W[gp];B[fo];W[go];B[fn];W[gn];B[lr];W[mr]C[ok. game is over -- i have lost here.

DRS: Please see the variation.]
(;B[jr];W[ls];B[is];W[kr];B[fl];W[el];B[em];W[dg];B[ch];W[dh]
;B[ci];W[ri];B[qk];W[rj];B[rl];W[rk];B[pl];W[ni];B[nj];W[lj]
;B[or];W[mk];B[nk];W[ml];B[nl];W[mm];B[nm];W[ln];B[eq];W[er]
;B[cr];W[br];B[fr];W[fq];B[ep];W[fs];B[bf];W[eb];B[cb];W[lb]
;B[mc];W[kb];B[la];W[ja];B[lc]C[copper1956 [11k\]: oops];W[ma]
;B[sb];W[fk];B[gj];W[ki];B[gl];W[gk];B[hk];W[hl];B[il];W[hm]
;B[ik];W[ij];B[jj];W[ji];B[kl];W[mo];B[nn];W[no];B[oo];W[np]
;B[op];W[qm];B[rm];W[qn];B[rn];W[ql];B[pk];W[ro];B[qo];W[sl]
;B[rp];W[rc];B[rb];W[pf];B[nq];W[mq];B[en];W[dr];B[dj];W[fm]
;B[ei];W[gm];B[lk];W[lm];B[sd];W[se];B[pa];W[qc];B[sc];W[qc]
;B[pb];W[fh];B[eg];W[fg];B[eh];W[ef];B[jm];W[im];B[ll];W[sm]
;B[so];W[sk];B[ea];W[fa];B[da];W[fb];B[sn];W[qj];B[pj];W[he]
;B[hd];W[dk];B[cj];W[ns];B[os];W[oa];B[km];W[jn];B[ap];W[aq]
;B[ao];W[nr];B[hj];W[nc];B[gi];TB[ss][rs][qs][ps][sr][rr][qr]
[pr][sq][rq][qq][pq][sp][pp][ro][po][qn][pn][on][bn][qm][pm]
[om][cm][am][ql][ol][jl][cl][bl][ok][kk][jk][ak][oj][ij][bj]
[aj][bi][ai][bh][ah][bg][ag][af][be][ae][bd][ad][rc][qc][bc]
[ac][bb][ab][sa][ra][qa][ca][ba][aa]TW[ms][ks][js][is][hs][gs]
[es][ds][cs][bs][as][lr][jr][ir][hr][fr][cr][ar][kq][jq][iq]
[hq][cq][mp][jp][ip][hp][cp][lo][ko][ho][in][gl][fl][sj][si]
[sh][mh][kh][jh][sg][rg][qg][og][ng][mg][lg][ig][rf][of][nf]
[mf][lf][jf][pe][oe][ne][ed][fc][jb][hb][gb][na][la][ka][ia]
[ha][ga])
(;B[ks]C[DRS: Not 100% sure, but I think this lives.  It threatens to make two eyes, and threatens to cut off and kill N2.]
))
(;B[kg];W[lg]C[DRS: No hope.  B is dead.]))
(;B[mf];W[nf];B[of];W[ng];B[og];W[oh];B[nh];W[mg];B[pd]C[DRS: This doesn't seem too bad for Black.]
))
