(;FF[1]GM[1]SZ[19]VW[]C[Dear Kevin,

Before I proceed, I have 2 point out  tt as I'm oni 3k better than U,  there4  dun expect my comments to be 100% correct. So, pls use Ur discretion b4  accepting any of my comments.

Yours,  bagus (oni 3k* in  IGS)]PB[whyte]BR[7k*]PW[4fun]WR[6k*]GN[4fun-whyte(B)  IGS]
DT[1995-04-21]PC[IGS:  igs.nuri.net  6969]TM[900]RE[W+Resign]US[Brought  to you by IGS]
KM[0.5];B[pd];W[dd];B[pp];W[dq];B[do];W[dl]L[fo][gp]C[The  next move at 'a' *maybe* better at 'b' instead.

Pls see Var 2.]
(;B[fo];W[fq];B[di];W[fl];B[ho];W[hq]L[fi][cf]C[The next  move  at 'a' doesnt look good to me.

Pls see Var 2 for move at 'b'.]
(;B[fi];W[hl];B[jo];W[co]L[cf][cg]C[Bad move by White.

Shld be better if played at 'a' or  'b'.];B[cn];W[dn];B[eo];W[cm];B[cp]
;W[bn];B[dp];W[cg]L[fd]C[The  next move at 'a' is an overplay.

Pls see Var 2.]
(;B[fd];W[dc]L[dg][cc]M[fd][fi][di]C[Cool move by White, secured the territory at corner n  still  peeping at weaknesses of the 3 marked stones.

Black shld play 'a' now as shown in the previous variation, since there  is no  more invasion in corner at 'b'.]
;B[jd]M[fd][fi][di]L[dg]C[This is an  Oba  (big Fuseki pt) but the marked stones r very thin.

I'd suggest to play 'a' which is  thick.];W[qj];B[jq];W[cq];B[bo]C[Good move by  Black.]
;W[bq];B[bp]M[bn][co][dn][cm][dl][fl][hl][di][fi]L[dg][cn][hd]C
[I dun think U shld play here, it's like a dame  (neutral pt), the previous move will become bad (must well play here  during the previous move).  
U misjudged the marked White stones for a weak piece.

Let's argue this way...

U got 2 marked stones and White got 7 marked stones...

White is certainly stronger here, so U shld play 'a' to strenghthen  Urself 1st.

If White 1 2 play this "dame-like" move next, then U can just take the  stone  at 'b'.    
The next move at 'c' is OK, but I feel tt Var 2 is  better.]
(;W[hd];B[ef]L[eh]C[Good  move by Black, tt's why  I  suggested the previous variation of White playing at  'a'.]
;W[df];B[eg];W[fc]L[gc]C[The next move at 'a' is too early.
  Pls see Var 2.]
(;B[gc];W[gd];B[ec];W[fb];B[ed];W[eb]C[Ask Urself wat had  Black gained by playing the marked stone?]
;B[cj]L[hi]M[ec][ed][fd][ef][eg][fi][di][cj]C[Black 'a' better.

Pls dun try to attack next time when 1 of Ur pieces r still weak (e.g.  the  marked stones in this case), most likely U will lost the  fight.]
;W[ic]L[hi]C[Too defensive,  shld attack at 'a'.];B[jc]C[Still at 'a'.   It's crucial pt for both sides.]
;W[qf]C[White got no intention to attack,  or  simply he is weak at attacking?

Pls see Var 2.]
(;B[ql]L[nc]C[The next move at 'a' complicates the game.

Pls see Var 2 for simpler and effective play.]
(;W[nc]L[oe]C[The next  move  at 'a' much simpler.

Pls see Var 2.]
(;B[qc];W[oe];B[od];W[nd];B[ne]C[U played like 6d*.  :-)];W[pe];B[me];W
[ob]L[pb]C[*Maybe* White 'a' better.

I'm not very sure here.];B[qe];W[re];B[qd];W[pg];B[pb]C[Good play by  Black.]
;W[lb];B[oc]L[rd][ib]M[lb][nc][nd][ob]C[The previous moves r like 6d* play but this move is  real 6k* play. :-)

Black 'a' is Sente so corner is already alive!

Shld try to attack the marked stones at 'b' instead.];W[jb]M[jc][jd][me]
[ne]C[Now, the marked stones became very  vulnersble.];B[ib]L[if]C[Not useful, 'a' may be a better  move.]
;W[kc];B[ja]C[Better save move like this for Ko threat  later.];W[kb];B
[kd];W[ld];B[nb]L[le]C[Just 'a' better.   Wat if White play 'a' next?]
;W[mb];B[md];W[mc];B[oa]L[le]C[This is oni 6  pts.   'a' is like 20 pts.]
;W[le]M[jc][jd][kd][md][me][ne]L[oq]C[All the marked  stones is paralysed now, better take them as invisible.

So better Tenuki and play 'a', but now Black dun seem to be very  hopeful...]
;B[mg];W[lf];B[nh];W[og];B[mf];W[hf]L[hi]C[Wrong direction.

Shld be 'a' instead.];B[ie]C[Better to sacrifice these 3 stones.

Oni 6 pts, no big deal.];W[he];B[if];W[ig];B[hg];W[je]C[Good move by White.]
;B[jf];W[jg]C[
 whyte 7k*: is entering byo-yomi];B[gf];W[kf];B[of];W[pf];B[qh]C[I guess Black is very desperate now. :-)]
;W[pi];B[rg];W[rf];B[rj];W[rk];B[qi];W[pj];B[ri];W[qk];B[ph];W[oh];B[oi]
;W[sj]L[ni][mh]C[Just have to play 'a' then  'b'.];B[rd];W[ni];B[oj]
;W[mh];B[ok];W[rl];B[lh];W[ng];B[lg];W[li];B[kh];W[hh];B[gg];W[ii]C[Good play by  White.]
;B[ki];W[lj];B[kj];W[lk]L[kk]C[Hane at 'a' better for  White.];B[qm]
;W[qg]L[rm]C[Crawl at 'a' still Sente.];B[sh];W[sk]C[Why not  crawl?]
;B[rm];W[si];B[pk];W[rh]C[Dear Kevin,

>From wat I see, U shld learn how to

1) Play thicker as a form of defence      cum potential attack later on.

2) Sacrifice stones and not drawing      them out.

Hope u have enjoyed this reviewed game.

Yours,
bagus (again oni 3k* in  IGS)])
(;B[oe];W[qc];B[pc];W[qd];B[og]L[md][jf]C[Later, Black can choose  from 'a' or 'b' depending on his strength.]
))
(;W[of];B[nd];W[hi]L[qc]C[White  is  building up Moyo in the center and still has an invasion at 'a'.

So black territory isnt tt  big.]))
(;B[qh];W[rh];B[nd];W[ph];B[qe];W[pf];B[rf];W[rg];B[hi]C[This  is  wat I will play if I were Black.]
))
(;B[hi]C[Better jump 1st.

Hope for Var 1.];W[tt];B[gc];W[gd];B[fb];W[fe];B[ec];W[ee];B[hc]L[ge]
C[Black  still  has a cut at 'a'.]))
(;W[eh];B[ei];W[fg];B[hi];W[hd]M[fd]C[Black has  no  other ways but to sacrifice the marked stone, or he will  have 1 more  weak  piece.]
))
(;B[dg]L[hi]M[cg][dg]C[U can oso jump at 'a' if U dun 1 2   strengthen the marked White stone.

But somehow I feel tt 'a' is a bit thin, so I think *maybe* the marked  Black  stone is the oni move.]
;W[df];B[eg];W[ch];B[ci]C[Black is strengthen now  (although  he had paid some cost for it).]
))
(;B[cf]M[dl][fl]C[*Maybe* this is a  better move.

Black is somehow settled down and the marked stone is still  drifting.]
;W[ce];B[df];W[fd]C[White *may* play these  moves.];B[hl]C[This Boshi seems very strict.]
))
(;B[gp]L[bl][fc][di][cf]M[dd][dl][gp]C[Since White has some influence  on  the left (enclosed by the 2 marked stone), the strategy of Black is to  invade later at 'a' or 'b'.

Invasion at 'c' and 'd' is unfavourable for Black (tt's *only wat I  think*),  so I'd rather play at the marked Black stone...]
;W[eo];B[en];W[fo];B[dp];W[fq];B[cq];W[eq];B[fn];W[go];B[bp]L[kq][nq]
[np]C[Joseki is oni up to here.

White can choose to extend at 'a', or approach at 'b' or even 'c'.

U can ask some hi dans for advice here, I cant say which is best at my  level.]
))
