(;FF[4]GM[1]SZ[19]ST[2]CA[UTF-8]AP[SGFC:1.13b]

PB[Sandy]
BR[13 kyu?]
HA[4]
PW[Morgan]
WR[8 kyu?]
KM[0.5]
RU[Japanese]

AB[dd][pd][dp][pp]C[Comments are labelled by initial and kyu: S13 is B, M8 W, J4 (Jason 4kyu) helped analyse.

My current main concerns are getting two things more-or-less
right, global structure across the board and local shape. Once
I can do that, I'll worry more about tactics for fighting.   pem: You need to improve your tactics too. If you can't keep your
stones connected and alive, your "global structure" will crumble
when the opponent starts cutting and killing.

It is a bit presumptuous for a 13 kyu to aim at Takemaya's
"Cosmic" style, but within my limitations that's what I'm
trying to do.

So my questions are mostly how to build influence rather than
win fights or directly grab territory. Of course I'm also
interested in when to start fighting or solidifying instead.
Certainly I lose a lot by misjudging that!

In analysing this, I noticed an odd move -- 5,5 reply to 6,3
when you have 4,4 star point -- that seems playable. Going
through some variations from there against Jason, it seems
to work.

Comment on that would be of considerable interest. I intend
to try playing it, probably in 9 stone games where the stone
on the middle hoshi makes it look better.

pem: I think it's a bad move that invariable ends up being in the wrong place.

pem: Some general comments:

It's very difficult to comment some parts of this. Some of the variations are
realistic because tactical variations have been overlooked, so they will simply
not happen. (Again, tactics *is* important too. ;-)
But if we look at the strategic side, it's clear from the comments and variations
here hat Black doesn't understand ow to use thickness. A basic rule is:
Don't play close to thickness. (Or trength, or influence, whatever you call it.)
This goes both for your own nd the opponent's. Don't use thickness to build
territory directly, unless the opponent allow you to do that at a very large
scale. Use it to attack the opponent, and thus build territory indirectly, in
another part of the board.];W[nq]
(;B[jq]MA[kp][qn][pn]C[S13: experimental: more threatening than g3, safer than m3? J4: Plays it often.

pem: It's ok. Other alternatives are marked.];W[qn]
(;B[oo]LB[pn:A]C[S13: the only move, if I want to play for outside influence?.
J4: the only move, period.

pem: Well, A (Q6) is an alternative, but it will lead to
complications. At B's level in a handicap game, there's no
reason to play it, so P5 is good.];W[qq]
(;B[pq];W[qp]
(;B[gc]LB[cj:A][dj:B]C[S13: my main reason for asking for review.  I like the idea of tenuke here, but can I afford it and is this the right tenuke?

pem: Tenuki is possible. I would prefer C10 or D10, making it a san-ren-sei and double wing from the D4 stone.]
;W[mo];B[om];W[fq];B[jo];W[fo];B[dn]C[pem: If this was the actual line of play in the game, I think Black is doing fine so far.]
)
(;B[mp]LB[om:A]C[J4: probably best

pem: I have to be blunt here: This is a terrible move, over-concentrated.
It should be at A (P7).];W[pr];B[or];W[qr];B[oq]TR[mp]LB[om:A]
C[pem: Now N4 is way to close to Black's wall. Picture a stone at A instead.]
)
(;B[pm]LB[om:A]C[J4: B's best move for influence

pem: I would prefer be A (P7).]
(;W[qm]C[pem: White will not play here, it's too timid, he will push and cut. (See variation.)]
;B[pl];W[ql]
(;B[pk];W[qj];B[oi])
(;B[qk]C[S13: maybe the hane? J4: No!];W[pn];B[on];W[pk];B[qj]

(;W[ok])
(;W[om]
(;B[ol];W[nm];B[ok];W[mn];B[mp];W[jc];B[pj];W[mk];B[mc];W[fc]
)
(;B[pj]
(;W[ol];B[mo])
(;W[ok];B[nm];W[ol];B[mn])))))
(;W[pn];B[on];W[om]C[pem: Things get complicate after this, which is exactly what White wants and Black should avoid in a handicap game.]
)))
(;B[qg]C[Sandy suggests: Jason rejects

pem: In a handicap game, tenuki is possible.];W[pq];B[qp];W[qk]
;B[mp]LB[mo:A]C[B gets some influence, but both W groups will live. Not god for B.

pem: I would prefer A (N5) when White has the R6-R9 stones, but it's ok for Black. White's groups must each live on its own and will not make many points.]
))
(;B[ql]C[S13: maybe this? J4: I don't think so.

pem: Seems odd to me too.]
(;W[oo]C[J4: what I'd play. W is clearly ahead here];B[qi]C[J4: necessary: makes B invasion below possible, W play on side harder]
;W[om]C[J4: strong move, solidify and extend];B[gq];W[fc])
(;W[qq]C[J4: playable, but inferior

pem: I agree. P5 is better.];B[ol];W[pq]
(;B[jo]C[S13: I'm quite happy as B here. W has big corner, I have compensation.

pem: I agree. White's corner is small compared to Black's influence.]
)
(;B[gq]C[J4: safer, take solid territory.

pem: No, too low and small at this stage of the game.]))))
(;B[oo]LB[no:A][qj:B]C[S13: proverb: answer the keima with the kosumi. Looks OK to me.
I've never seen it played, or in the few books I've read. Is there some fatal flaw?
J4: hasn't seen it either.

pem: There's a reason for that... ;-)
You'll occasionally see A (O5), but hardly ever without first having a Black stone around B (R10).]

(;W[qq]
(;B[pq];W[qp];B[qo]
(;W[pr]
(;B[pm]LB[or:A]C[pem: No, must block at A (P2)!];W[or];B[hq]
)
(;B[or];W[qr];B[oq];W[ro];B[qn];W[rn];B[qm]TR[oo]LB[jp:A][dj:B]
C[pem: Now P4 should be somewhere else, it's way too close to Black's thickness.
Around A (K4) or even B (D10) comes to mind.]))
(;W[ro]C[pem: The sequence following this is not very likely to happen...]
;B[rn];W[pr];B[or];W[qr];B[oq];W[qn];B[po]
(;W[rp]
(;B[qm]C[S13: Methinks B is ahead here. Influence in two directions for a small corner.

pem: Except that it wouldn't end this way.];W[fd]C[S13: can W make a big gain threatening to break the ladder?]
;B[jj]C[S13: odd but tempting

pem: No. Always capture the stone in the ladder.])
(;B[lp]LB[qm:A][dj:B]C[S13: I wouldn't play this, since r3 seems so much safer. Worth a lokk, though.

pem: Too close to thickness. Close of the right side with A (R7) or play around B (D10) for instance.]
;W[rm];B[qg]))
(;W[rm];B[rp];W[sn];B[rq];W[rr]C[pem: Of course...])))
(;B[qp]C[J4: wrong way, gives up too much

pem: Yes, Black should separate White. But the P5 stone will end up in a peculiar sport either way.]
;W[pq];B[pl]C[S13: looks OK for B.  J4: no, W is solid, has big endgame moves, definitely ahead.]
))
(;W[kq]
(;B[pr]C[S13: looks best to me. corner is solid, his group pressed.]
;W[fq];B[eq]C[J4:  B must make corner solid here];W[fp];B[cn]
TR[pn][qm][pj]C[J4: more solid, so preferred over c6 here

pem: Again, P5 is at an odd place. Should be at any of the marked places.]
)
(;B[iq];W[pr];B[or]C[J4: B's best line for influence on right

pem: This helps White. If playing in this area, R3 is the move.]
;W[oq];B[pq]
(;W[nr]C[pem: White will play R2 instead.];B[qr];W[os];B[pl]
)
(;W[qr])))
(;W[pr]C[pem: I don't see why White would play on the second line and get closed in here.]
;B[kq];W[qq];B[qp]
(;W[rq];B[mp])
(;W[mp];B[ko];W[mn];B[rp];W[rq];B[pl])))
(;B[dj]C[S13: If san rin sai, I think here rather than k16 or q10.

pem: Either is perfectly ok. Personally, I would prefer Q10, since this would make it a lot easier to follow up White's next move in the lower right corner (whichever that might be).]
;W[qq];B[qp]C[J4: with the san rin sai, push this way

pem: If there was a black stone around K4 or Q10 it would be easier. Now it's hard to find a really good result for Black.]
;W[pq];B[op];W[nr]C[J4: this or n2 required to solidify]
(;B[pl]C[S13: I'm happy as B here.])
(;B[mo]LB[qj:A]C[J4: good for B influence

pem: White can play A (R10), so I think this questionable.]
))
(;B[lq]C[S13: my habitual move in 9-stone games, riskier without the stone at k4.

pem: This is a common misunderstanding. If you have a stone at K4 you should *not* play this. If you want backup, it should be around Q10! But this pincer is still playable even without that.]
;W[no];B[pn];W[fq]LB[kp:A][iq:B]C[S13: Is there a better W move here?

pem: The local joseki move is usually A (L4), but in a handicap game anything is possible. This seems a bit too lose thought, as Black can play a combined extension and pincer at B (J3), so White should perhaps play that point instead.]
)
(;B[pn]C[S13: a trade. I get territory on right, white on bottom and perhaps corner.

pem: This is rarely wrong.];W[jp];B[gq]C[S13: as B, I look for moves like this. Limit W and build B. Is this right here?

pem: This looks good.])
(;B[oq]C[S13: Good if you want the corner, but I'm trying to play for outside influence.

pem: This is often seen by weaker players, since they learn it early on in high-handicap games. The problem is, that it's an exception. Normally, this kind of move only strengthens White, and still leaves a weakness in the corner.]
;W[np];B[pn]
(;W[jq]C[S13: proverb, extend 3 from 2 but I suspect too quiet for W here.

pem: This helps White, and it's still possible to invade at R3.
(See variation.)])
(;AB[jp]TR[jp]LB[pr:A][lq:B]C[pem: If Black already have a stone at K4, this is good because it hinders Whites extension.
In this case, allowing White sliding in with A and then B might be too kind. P3 doesn't secure the corner on its own, but it reduces White's possibilites.]
;W[lp];B[kq];W[mm]LB[qq:A][nr:B]C[pem: There are some variations for White here, but the point is that he's virtually without a base. There's still an invasion at the 3-3 point A, but not while the outside stones are weak. Later in the game (when the prospect of attacking White's stones are gone), closing the corner with B becomes a big gote move for Black. And likewise, when White is secure on the outside, he will invade a A.]
)))
