(;FF[1]GM[1]SZ[19]US[Brought to you by IGS]GN[osman-sj(B) IGS]
RE[W+6.5]PW[osman]WR[3k*]PB[sj]BR[3k*]PC[IGS:   igs.nuri.net  6969]DT[1995-05-12]
TM[600]KM[5.500000];B[dd];W[pp];B[dq];W[pc];B[nq];W[pn];B[kp];W[do];B[eo]
;W[en];B[ep];W[fn]C[B 13 usually cut at b.]
(;B[go];W[cq];B[cp];W[fo];B[dp];W[fp]C[This result B is worse than if 13 cut at  D6.]
;B[fq];W[gq];B[gp]C[Judging from the result, B  21 can't cut.];W[fr];B[eq]
;W[hq];B[ip];W[er];B[dr];W[hp];B[ho];W[io]C[B 31 should simply b.]
(;B[in];W[jo];B[hn];W[jp]C[
 sj 3k*: is entering byo-yomi];B[kq];W[jq];B[dn]C[B 37 very  small];W[fl]
C[W 38 should atari first, then play  38.];B[dm]C[B 38 big.];W[or];B[oq]
;W[pq];B[nr];W[pr];B[ln];W[hl];B[il];W[ik];B[jl];W[ck]C[W 50  too much, should play at 51.]
;B[dk];W[cl];B[dl];W[hk];B[cj];W[bj];B[ci];W[bi];B[ch];W[bh];B[cg];W[bn]
C[W lives, but is bad.];B[bm]C[
 osman 3k*: is entering byo-yomi];W[cm];B[cn];W[bl];B[bo]C[B 67 slow, w  68 could ignor and still live.]
;W[am];B[gm];W[fc];B[dc];W[jk];B[kl];W[kk];B[pe];W[ph];B[md];W[oe];B[of]
C[W 80 usually at b.]
(;W[od];B[pg];W[oh]C[
 sj 3k*: has entered byo-yomi again
 osman 3k*: i wish i played w o14 instead
 osman 3k*: then if b p12, then o n15
 osman 3k*: now probably b o14];B[nf];W[ll]C[
 osman 3k*: maybe o e8 instead ?
 osman 3k*: w f17 looking lonely

B 85 should b cut kill 4 w stones.]
(;B[kn]C[W 86 can simply connect at b.  B can't cut.  If b cut ...]
(;W[el];B[gl];W[fj];B[gk];W[ej];B[gj]C[W almost  collapses.];W[fh];B[gi]
;W[eg];B[dg];W[gh]C[B 97 should b jump out, separate w to attack.]
(;B[ef];W[hh];B[hc]C[B 99 not as big as w  100.];W[nm];B[mm]C[B 101 losses some  points.]
;W[ml];B[nn];W[lm];B[jn];W[mn];B[mo];W[on];B[no];W[kr];B[lr]C[
 osman 3k*: has entered byo-yomi again];W[jr];B[hm];W[ge];B[qd];W[qc]C[
Now b O17 sente.]
(;B[mh];W[id];B[hd];W[he];B[ic];W[jd];B[fb];W[jc];B[gc];W[fd];B[ec];W[mb]
C[W 28 big, b lost the chance to play at  O17.];B[lb];W[mc]C[
 sj 3k*: has entered byo-yomi again];B[lc];W[qg];B[qf];W[qh];B[ke];W[kg]
;B[jf];W[if];B[jg];W[ii]C[
 osman 3k*: chicken move];B[ki];W[ni];B[lj];W[lk];B[gf];W[rd];B[ig];W[hf]
C[B 149 at F13 can cut w and win the game.]
(;B[hg];W[ff];B[eh];W[fi];B[fg];W[gg]C[W 154 connect, b lost a big chance to win.

No comment after this  move.];B[re];W[ae];B[be];W[ag];B[ad]C[
 osman 3k*: has entered byo-yomi again];W[af];B[bd];W[rc];B[rg];W[rh];B
[sh];W[si];B[sg];W[rj];B[es];W[ls];B[gr];W[lq];B[hr];W[mr];B[lp];W[ko];B
[lo];W[iq]C[
 sj 3k*: has entered byo-yomi again];B[mq];W[lr];B[ns];W[ir];B[oo];W[po]
;B[mj];W[nj];B[jb];W[me];B[ne];W[kb];B[kc];W[ld];B[nd];W[kd];B[ka];W[le]
;B[ob];W[oc];B[nc];W[nb];B[na];W[pb];B[ma];W[ra];B[lg];W[kf];B[lf]C[
 osman 3k*: has entered byo-yomi again];W[kh];B[jh];W[je];B[lh];W[ke];B
[ji];W[hi];B[mf];W[ie];B[ee];W[km];B[jm];W[op];B[np];W[se];B[fe];W[gf];B
[rf];W[pa]C[
 sj 3k*: has entered byo-yomi again];B[gd];W[oa];B[nb];W[og];B[pf];W[hs]
;B[fs];W[mk];B[os];W[ps];B[ao];W[bf];B[an];W[bm];B[ak];W[aj];B[bg];W[ah]
;B[cf];W[dj];B[di];W[mm];B[pd];W[eg];B[is];W[js];B[fg];W[is];B[gs]C[
 osman 3k*: has entered byo-yomi again];W[eg]C[
 osman 3k*: it's a close game !];B[sj];W[sk];B[fg];W[mi];B[li];W[eg];B[ri]
;W[qi];B[fg]C[
 osman 3k*: i should have filled s11 instead of capture at t9];W[ng];B[eg]
;W[tt];B[sf];W[sd];B[tt];W[tt];B[co]C[
 osman 3k*: aha!  i forgot about that one];W[tt]C[
 sj 3k*: has entered byo-yomi again];B[tt];W[tt];TW[ai][ak][al][bk][ip]
[ks][nk][nl][oi][oj][ok][ol][om][pi][pj][pk][pl][pm][qa][qb][qj][qk][ql]
[qm][qn][qo][qp][qq][qr][qs][rb][ri][rk][rl][rm][rn][ro][rp][rq][rr][rs]
[sa][sb][sc][sj][sl][sm][sn][so][sp][sq][sr][ss]TB[aa][ab][ac][ap][aq][ar]
[as][ba][bb][bc][bp][bq][br][bs][ca][cb][cc][cd][ce][cq][cr][cs][da][db]
[de][df][dh][do][ds][ea][eb][ed][er][fa][fc][fd][fr][ga][gb][ha][hb][ia]
[ib][im][ja][kb][la][mb][mc][mp][qe])
(;B[fg]))
(;B[nc]))
(;B[ii]))
(;W[fm];B[gl];W[gk];B[fk];W[gn];B[hm];W[jn];B[im];W[km]C[B is killed.]))
(;B[fm]))
(;W[ne]))
(;B[hn];W[in];B[hm];W[jp];B[fl]L[ip]C[Attack the left side group.  Later the "a"  stone may escape.]
))
(;B[dn];W[dm];B[cn];W[cm];B[bo];W[bn];B[co]C[Huge corner]))
