(;FF[4]GM[1]SZ[19]AP[SGFC:1.13b]

GN[klimber-KAZUSUGI(B) IGS]
PB[KAZUSUGI]
BR[23k*]
PW[klimber]
WR[21k*]
KM[0.5]
DT[2002-03-17]
PC[IGS:  igs.joyjoy.net 6969]
RE[B+37.5]
TM[60]
US[Brought to you by IGS]

C[I am klimber - 21K* - white

----
Hello klimber. I hope you will find this review useful. I am sorry for the delay, but I had trouble with my email-accounts and recieved your game very late.   Please note, that my suggestions are my own humble opinion. Feel free to experiment and have fun with Go!]
;B[pd];W[dp];B[pp];W[dd];B[dj];W[qf];B[nd]
(;W[of]C[----
This move is not appropriate. Try to make good shape at the side. See some of the possible variations.

If Black plays, for example, his next move around Q10 you will have no base and will have to run in the center while Black will gain points at the top.

One of the most important things in this game is to make a living shape. That is a shape where you have/could make two eyes to live.   When invading try to make a living shape by extending along the side - if possible.]
;B[cf];W[rd]MA[of]C[----
It is good to try to make good shape, but the stone at P14 is definitely misplaced.]
;B[qc];W[fc];B[bd];W[cc]
(;B[bc]MA[hc]C[----
This point and H17 are miai - that is kind of equal. Usually you do not play these kind of points this early. Also I seems to me, that H17 is better for Black. See variation.]

(;W[pj]MA[of]C[----
You could have played this stone without the move at P14. P14 is not totaly useless, but it is not a very big move. Instead you could have played a big point somewhere else.   Another important thing is to play efficiently. :-)

Now an urgent play is variation];B[cn];W[co]MA[dn][dj]C[----
Another classical joseki mistake. Remember that you should play efficiently? This move forces Black to play efficiently. The correct answer for Black is to play D6. This makes the relation to D10 an ideal = very efficient extension.

Also you limit your chances to invade the black formation, because of the strength Black will gain from your attachment.   You usually play this move if you want to make Black overconcenrated. For example, when D10 is at D9 or D8.

A better play for you would have been to play around F3 or F4.]
;B[dn]C[----
correct];W[fq]MA[cq]C[----
ok.   But it is important to know, that an invasion at C3 is still possible. At least Black could get a ko. But the timing for such an invasion is important. Right now, you do not have to worry.]
;B[hq]
(;W[kc]C[Was this a good move?

----
These kind of points are always good. This move prevents a big black extension and threatens a follow-up in the black corner.

Maybe one point to the right would be better. Just a matter of taste. The danger is the small weakness of the group to the left.

On the other hand. Black has now the chance to build a framework at the bottom.

With this in mind a play around O3 seems more important to me.]
;B[hc]
(;W[gb]C[----
This is not really necessary. Just jump to L15];B[hb]
(;W[cb]MA[bb]C[I was worried about eyes...would m15 be better?

----
Clearly your eye-space is limited.
Hm, I think a hane B18 would be better to make eyes.   But I dislike the idea to live small at the edge and being shut in. Black can press from the outside and make the moyo at the left side even bigger.   My suggestion is to move to the center and attack the two black stones while moving.]
;B[bb];W[mb];B[nb];W[mc];B[nc];W[ke];B[md];W[ld];B[mf];W[ie]
;B[he];W[id];B[hd];W[jb];B[ic];W[jc];B[if];W[jf]
(;B[ig]C[----
I think Black is favoured. He managed to build some influence which supports his left framework.

Also, your group is not really alive.]
(;W[qn]C[----
Certainly a big move, but with the problems at the top it is more urgent to play there.]
;B[ql]
(;W[qj]MA[hq]C[would p6 be better...more forcing?

----
Clearly, this move is too passive.

I think p6 would be what Black wants you to play. Then you would force him to make territory at the bottom.

It may be not a bad idea to invade the corner. Black would get a lot of strength wich would be supported by h3, but h3 is very far away and you could invade right away.]
;B[ol];W[on];B[po];W[pn];B[rp];W[mn];B[mp];W[ml];B[nj]C[would p9 be better...trapping
area?

----
comment see next move]
(;W[oh]MA[nj][ol]C[----
You are rigth. The two black stones can be cut. You should try it and see what happens. You are strong in this area so the fight favours you.]
;B[nh]
(;W[og]C[would p11 been better...i was worried about q13

----
I think you should use the cut. See variation. And give away a stone here. To capture Black is woth a lot more.]
;B[oj];W[no];B[np];W[ko];B[kq]C[i am forming eyes...but he is getting territory

----  true. But You have to, now that the black invaders escaped... Otherwise an invasion at the bottom would have been possible for you.]
;W[kk];B[io];W[jm];B[hm];W[fo];B[fm]
(;W[jp]C[this was bad move i think now...better
at O13..and cut

----
I do not know, if o13 would work.

This move is bad, because it is so small.

S17 or a reduction of the left black moyo would be bigger. A reduction would lead to fierce fighting, but is your only chance to catch up.]
;B[jq];W[ip];B[hp];W[ho];B[in];W[kn];B[go];W[gp];B[gn];W[gq]
;B[iq];W[bo];B[bn];W[eo];B[do];W[ik];B[hk];W[il];B[hl];W[ji]
;B[ii];W[jh];B[jg];W[ih];B[hh];W[hi]C[better at L12?

----
Both are small moves. The problem is that you made Black very, very strong. The moyo is now very solid.]
;B[kf];W[je]
(;B[kh]C[----
This is a mistake by Black. Too greedy. He should have defended. See variation.]
;W[hj];B[gh];W[fj]
(;B[gi];W[gj];B[fi];W[ej];B[di];W[ek];B[dk];W[em];B[en];W[el]
;B[dl];W[dm];B[cm];W[ff];B[ee];W[fe];B[ed];W[ec];B[fd];W[de]
;B[gc]C[better at E14?

----
This move is sente for Black, the white stones are cut anyway.]
;W[fb]
(;B[df]C[----
This move is a mistake.];W[db];B[cd];W[ea]C[----
Puh, you managed to live. :-)];B[ce];W[dc]C[i could have moved elswhere..better

----
true];B[ga];W[ca];B[ba];W[rm]MA[hr][gr][cp]C[----
Bigger is a play around h2 or cover the weak point around c4]
;B[rl];W[rj]C[----
Now you have to shut the side and loose sente.];B[rc];W[qd]
;B[pe];W[qe];B[pf];W[pg];B[oi];W[pi];B[oe];W[mi];B[ni];W[lf]
;B[kg];W[lg];B[ki];W[jj];B[lh];W[mh];B[mg];W[le];B[me];W[lj]
;B[mj];W[li];B[hg];W[kj];B[mk];W[lk];B[nl];W[nm];B[qm];W[rn]
;B[kp];W[jo];B[mo];W[lm];B[ng];W[sc];B[sb];W[sd];B[rb];W[na]
;B[oa];W[ma];B[ob];W[ia]C[bad move lost sente

---
wrong judgement. ;-) see move 186];B[ha];W[fa]C[----
?? no, this move is not necessary to live. :-)];B[nf];W[qg]
;B[ib];W[ja];B[fn];W[eq];B[ep];W[fp]
(;B[cp]C[----
variation would be better.];W[bp];B[cq];W[bq];B[dq];W[ep];B[cr]
;W[br];B[cs];W[er];B[gr];W[ds];B[fr];W[bs];B[es];W[dr];B[hr]
;W[ei];B[eh];W[dh];B[ch];W[fg];B[fh];W[cl]C[wasted move];B[ck]
;W[bl];B[bk];W[pl];B[pk];W[pm];B[qk];W[oo];B[op];W[lo];B[lp]
;W[im];B[hn];W[sk];B[sl];W[sm];B[ok];W[rq];B[rk]
(;W[sj]C[---
Oh, you do not have to play here. Give this stone away and take your chances at the bottom right]
;B[qq];W[rr]
(;B[qr];W[ro];B[sq];W[so];B[sp];W[gl];B[fl];W[gk];B[gm];W[an]
;B[am];W[ao];B[bm];W[tt];B[fs];W[tt];B[fk];W[ij];B[jn];W[tt]
;B[qo];W[tt];B[om];AE[fe][ff][fg][dh][bl][cl][rq][rr]TB[aa]
[ab][ac][ad][ae][af][ag][ah][ai][aj][ak][al][be][bf][bg][bh]
[bi][bj][bl][cg][ci][cj][cl][dg][dh][ef][eg][fe][ff][fg][gd]
[ge][gf][gg][gs][hf][ho][hs][ir][is][jr][js][kr][ks][lq][lr]
[ls][mq][mr][ms][ne][nk][nq][nr][ns][oc][od][oq][or][os][pa]
[pb][pc][pq][pr][ps][qa][qb][qp][qs][ra][rq][rr][rs][sa][sr]
[ss]TW[ap][aq][ar][as][cp][cq][cr][cs][da][dq][eb][ii][jd][jk]
[jl][ka][kb][kd][kl][km][la][lb][lc][ll][ln][mm][nn][ph][qh]
[qi][re][rf][rg][rh][ri][se][sf][sg][sh][si][sn])
(;B[sp];W[qr];B[pr]))
(;W[sp]
(;B[so]C[---
not a good idea];W[qp];B[ro];W[qo])
(;B[qq];W[ro];B[rr];W[qp];B[pr];W[sr];B[rs])))
(;B[bp]
(;W[ao];B[cp])
(;W[cp];B[ao];W[bq];B[ap];W[aq];B[an])))
(;B[db];W[da];B[ea];W[ca];B[eb];W[ga];B[ha];W[cd];B[ce]C[----
White is captured (no seki). But there may be other variations. ;-)]
))
(;B[gj];W[gi];B[fi];W[gk];B[ej]))
(;B[gi];W[hj];B[gj];W[ij];B[ef]))
(;W[ng];B[mh]C[----
Black can run to the other stones in the center]))
(;W[ok];B[pg];W[qg];B[ph];W[qh]C[---
You make a save group and capture the two invaders]))
(;W[ok]
(;B[nk];W[nl])
(;B[nl];W[nk];B[nm];W[nn];B[mm];W[lm];B[ll];W[mk];B[ln];W[km]
;B[lo];W[pl])))
(;W[on];B[np]C[----
You have chances to capture the lone black stone, but this stone is still dangerous and Black can get a huge area at the bottom, too.]
)
(;W[qq];B[pq];W[qp];B[po];W[rn];B[om];W[jq]))
(;W[gf];B[hf];W[ef];B[dg];W[fh]))
(;B[eb]))
(;W[ge];B[id];W[ke];B[if]))
(;W[ke]))
(;W[nq];B[kq];W[qq];B[pq];W[qp];B[qo];W[ro];B[qn];W[rn];B[qm]
;W[pr];B[or];W[qr];B[oq];W[lp]))
(;W[ic]MA[hc]C[----
It is important to defend here. If you miss this move and Black gets to play at h17 your whole group would be set afloat.]
))
(;B[hc]C[----
It is essential to play B17 now!];W[bc];B[kc]))
(;W[pj])
(;W[rd];B[qc];W[qi]))
