(;FF[4]GM[1]SZ[19]ST[2]CA[UTF-8]AP[SGFC:1.13b]

GN[Sadadar-Ghostline(B)]
PB[Ghostline]
BR[30k]
PW[Sadadar]
WR[30k]
KM[5.5]
DT[2002-05-06]
RU[Japanese]

C[Hopefully much of this makes sense.  I'm open for questioning on what I mean if it doesn't.    Andrew]
;B[pp];W[pd];B[dq];W[dd];B[qn]
(;W[nq]C[This move is too close to strength this early.  All the joseki to do with 4,4 point stones are done with out the knights move extension and there is a reason for this.  Blacks best move is a pincer attack (see variation) that works fantastically for him with an extension at R6 already.  Be less forceful and come at a distance or ignore that corner and press the other corner.  There are some variations for white attached also.

"Here, I'm thinking I better not let him claim alot of   territory in the lower right corner, I know it isn't a   solid claim with 3,3 open but I still don't want him to   push in the other direction as well."]

(;B[np]C[Black should pincer here.  This allows White room to manuever.]

(;W[pr]C[This is a weak move.  O3 is under direct pressure and needs some direct support.  See the variation for white.

"I've never played this guy before, so I decided I   best push towards his territory to try to live rather   than try to push the other direction and give him a   nice wall towards the middle and me 2 rows of   territory"]
;B[oq];W[qq]C[Corner shmorner!  Corners are often over emphasized in lower rank play.  I myself am just training my self out of this at 5k.  Taking the corner at the expense of your outward development is not a fair trade!  The problem lies in the slack move at Q2.  Go back and see the variation I gave for the move.

"I'm willing to sac the stone on the outside to make   sure I don't give him the entire corner"]
;B[qp];W[rq];B[rp];W[nr];B[mq];W[mr]C[Now your fighting for a single line of territory.]
;B[lq]C[Rember in battles where this situation develops pressing from  1 line above the edge is good for the outside preson.   2 lines above the edge is equal for both
3 lines above is good the person underneath

The reasoning goes is the the outside person gets a wall with 2 lines of influence above it.  So its simple mathmatics from there.]
;W[or];B[pq]C[Pointless for black.  The cutting point at P4 can still be peeped (P5).  He should play elsewhere.]

(;W[co]C[The difference is subtle but d5 is better.  See variation

"I decide it's best to not push around any more and   play with giving him an even bigger wall"]
;B[do];W[cp];B[dm]C[Now he has the wall you were worried about.  Corners are important but not at the expense of bad play.]

(;W[cq]C[See variation.];B[cn];W[dp];B[ep];W[eo];B[fo]C[see variation for a good continuation.]

(;W[eq]C[Don't just allow black to get a pon-nuki on the outisde like that.  The strength he builds on the remains of his corner position works fantastically with the wall in the other corner.  He can use it against you on the upper side.]
;B[en];W[dr];B[fq];W[fr];B[gq];W[gr];B[hr]C[this move can be cut at H3.  H3 is the move he should play regardless in response to G2.]
;W[jd]C[The actual importance of the corners is driven home.    "now I see that even though I've gotten some guaranteed territory in each corner, I'm in some trouble with that wall he has, so I better start pushing towards make a strong side to push against the middle with"]
;B[gd]C[Black is pressing from the wrong side here.  If he came at you from D13 or 14 the new stone would work well with his strength at D6.]

(;W[mc]C[Ignore the invasion to make your stones on the right inefficient?  See variation

"ignoring the invasion to make some territory, looking at it now, I may have even considered the 4th row"]
;B[ic];W[jc];B[jb];W[kb];B[ib]
(;W[lc]C[Why?  See variation];B[ka]C[This should be ignored.  If black wants to waste his time on the lower edge let him.  You have better thing to do.]
;W[la]C[D13.  D13!];B[ja]C[Yes but...  D13 : )   D13 just gets better and better too.  Now black has a sizable, potential lifeless (ie not enough eyes),  group developed that D13 actually pressures in a big way.    "now I've given him a wall to work with, but I have a   decent claim on alot of territory"]
;W[fc];B[fd];W[ed]C[Don't strengthen strong stones, thats inefficient.  Strengthen weak stones like F17 with moves like E17.]
;B[ec];W[gc]C[

"here was a mistake, I wasn't counting liberties, had I been I would have noticed that it was too strong to think I would be able to kill his stones with that wall he had there"]
;B[eb];W[hd];B[hc]C[You've a ladder here.]
(;W[id]C[Don't give him life!];B[gb]
(;W[ge]C[This is pressuring form the wrong side.  The group on the right is strong so you should chase black toward it, not on to the two stones onthe the left.  See variation.]
;B[fe];W[ff];B[ee];W[ef];B[de];W[df]C[At this point this is reasonable but looking back I think its clear there was a less costly way to go about this.

"as my initial impression was to make a wall on this side against his wall to push at the middle, I decided it was best to forfeit some serious corner territoryto make a nice wall with"]
;B[ce];W[hf];B[cf];W[cg];B[bg];W[ch];B[bh];W[bi]C[This is a bad idea.  See variation for why.]

(;B[af];W[di]C[you sense the danger of black's cut and defend, but you loss sente (the initiative) to do so.  You lose games if you lose sente at the wrong time.]
;B[pj]C[Black is inefficient here.  He is too close to his big group of stones.  A more direct attack on the corner should be made at Q14.]

(;W[qh]C[Your wall is up not down play toward it, not in the other direction.  See variation.  I play this one out a few times to show some different ways to take black down.]
;B[oh];W[pf];B[nf];W[nd]C[Pointless.  the connection if firm at O16 already no need to play a stone there.]
;B[le];W[jf]C[Again, poinless.  No connections are being protected and no reasonable amount of territory is being protected either.  See variation for one thing that could be done.]
;B[jh];W[kg];B[jg];W[lg];B[mf];W[ke];B[mg];W[ig];B[mh];W[ih]
;B[ji];W[ii];B[ij];W[jj];B[kj];W[jk];B[li];W[jl]C[I see that he is trying to make some walled territory in the middle, so I figure it's best to push into it as much as I can]
;B[kl];W[hj]C[that stone bothered me, figured it best to kill it now]
;B[ik];W[hl];B[jm];W[il];B[kk];W[im];B[km];W[in];B[jn];W[hq]
C["now, I figure this cut may or may not destroy some things if I do it right"]
;B[hp]MA[ip]C[I don't see the X.    "Looking at this position now, I think my proper response should have beem to place at the X, but I didn't"]
;W[iq];B[ip];W[ir];B[jq]
(;W[jr];B[kq];W[lr]C[This is due to concentrating on edge play too much from the beginning.  When you play behind corners as you have outer strength develops.  and it usually turns into large areas of territory.

"now I've given him a good bit of walled off territory   in the middle, that's one of the things I was trying to avoid"]
;B[kr];W[ks];B[hn];W[cl];B[cm];W[dl];B[el];W[ek];B[fl];W[fk]
;B[gk];W[gl];B[gm];W[gn];B[go];W[fm];B[em];W[hm];B[ho];W[io]
;B[jo];W[rj];B[rl];W[qk];B[pl];W[pk];B[ok];W[ql];B[qj]
(;W[pm]C[Very wrong.  You've made your invasion, don't get greedy.  Connect!]
;B[ol];W[qi]C[Same again, connect.];B[rk];W[qm];B[oi];W[ri]
;B[rm];W[pi];B[oj];W[om];B[nm];W[oo];B[op];W[pn];B[qo];W[nn]
;B[mn];W[mm];B[nl];W[mo];B[ln]C[Close to 20 points difference actually.  Thats huge!   "that whole chain of moves was badly done on my part, I should definately have connected earlier rather than tried to push in farther first, it gained him about 10 points I think"]
;W[sp];B[so];W[sq]
(;B[rn]C[Why Black?  See variation.]
(;W[oe]C[Why White?  B8 is bigger!  See variations.]
(;B[pg];W[qg];B[of];W[ph];B[og];W[qe];B[ld];W[kd]C[That move saved you one point.]
;B[fn];W[hk]C[That move was worth 4 for black.  It should be taken care of before the lower point moves.]
;B[gm];W[bl];B[bm]C[why black?  b5 is you best bet for removing points.]
;W[bo];B[al];W[ak];B[am];W[bn]C[Beyond that even this move is pretty small and not worth the effort.  A6 makes more sense point wise or T9 perhaps.  A12 even.  B6 gets you nowhere fast and as you say B9 needed protecting.

"mistake, I needed to respond on the other side"];B[bk];W[aj]
C[

"much bigger mistake, I just wasn't paying attention"];B[dk]
;W[dj];B[ck];W[bj];B[cj];W[ci];B[an];W[ao];B[sj];W[si];B[sk]
;W[me];B[lf];W[kh];B[ki];W[kf];B[md];W[ne]
(;B[ah];W[qc]C[This move isn't nessecary.  See variation couple moves back.]
;B[tt];W[cc]C[This attack won't work at all.  Even along the best line of attack you can't make life here.  Conditional life (a KO fight) may be possible here but I haven't found a way for it to develop yet

"now this attack could  have ended up much better I think, but I don't really see how, maybe it was that his walls were too strong"]
;B[cd];W[bc];B[dc]
(;W[db]LB[ba:B][ab:C][cb:A]C[this move was wrong, without a doubt, I don't know what I was thinking.

Had I played A, then conditionally B and C, I may have had a chance to live

But looking at it some more, it's fairly certain it could have been killed had he been on his toes]
;B[cb];W[bb];B[ca];W[bd];B[be];W[da];B[ea];C[game over, white wins by 4.5 points (Komi - 1)

I made some mistakes in the upper left and in the middle right that really cost me alot of territory.

Thank you very much for any comments in advance.])
(;W[cb];B[bd];W[ba];B[ab]C[Still dead.]))
(;B[qc];W[pc];B[qd];W[re];B[pb];W[ob];B[qb];W[sb];B[sc];W[rc]
;B[rd];W[sd];B[rb];W[sc]))
(;B[bl];W[bk];B[bm];W[ck];B[ap];W[ao];B[bo];W[bp];B[an];W[aq]
;B[ao]C[See the difference.  Its about 5 pts]))
(;W[bl];B[bo];W[bp];B[bn]))
(;B[hs];W[sn];B[ro]))
(;W[rk];B[qm];W[ol];B[pm];W[oj];B[nk];W[pi];B[oi];W[nj];B[mj]
;W[ni];B[nh];W[qi];B[mi];W[pj];B[rm]C[You still had options that got you into his territory, but you must stay connected.]
))
(;W[gp];B[go];W[fp];B[ho];W[eo];B[fn];W[dn];B[cm];W[em];B[do]
))
(;W[oh];B[qh];W[pf];B[nj];W[mi];B[mj];W[li];B[lj];W[hq]C[Here is where H2 shows its weakness.  Black is counting on this area to counter your center territory.  You get to ruin a good porion of it.]

(;B[iq];W[hp]
(;B[go];W[ir];B[ho];W[ip];B[jq];W[jo]C[blacks not doing so hot.]
)
(;B[ir]C[Here black makes a big error.];W[fp];B[gp];W[go];B[fp]
;W[fn];B[eo];W[em];B[dn];W[hn];B[fm];W[gn];B[el];W[hk];B[ip]
;W[ho];B[im];W[hm];B[il];W[hl];B[ik];W[in];B[jn];W[jo];B[io]
;W[jm];B[kn];W[ij];B[jk];W[jj];B[kk];W[ki];B[cj];W[ci];B[bj]
;W[ai];B[bo];W[bp];B[bn];W[rf];B[ej];W[dj];B[dk];W[bk];B[ck]
;W[aj];B[bl];W[ak];B[al];W[fi];B[fj];W[gj];B[ei];W[eh];B[fh]
;W[gi];B[eg];W[dh];B[ah];W[dg];B[fg];W[gf];B[sq];W[rr];B[sr]
;W[rs]
(;B[lr];W[qc])
(;B[qc];W[pc];B[qd];W[qe];B[pb];W[ob];B[qb];W[rd];B[oc];W[od]
;B[nc];W[nb];B[nd];W[ne];B[rc];W[si];B[ra];W[sb];B[sc];W[pa]
;B[rj];W[sj];B[rk];W[sk];B[sl];W[rl];B[sm];W[rm];B[sn];W[rn]
;B[so]
(;W[ro];B[sp];W[ri];B[qi];W[qk];B[qj];W[sg];B[rh];W[sh];B[rg]
;W[sf];B[ql];W[kr])
(;W[ri];B[qi];W[qk];B[qj];W[sg];B[ql];W[pk];B[pl];W[ok];B[oj]
;W[ol];B[qm];W[oo];B[op];W[kr];B[lr];W[ls];B[kq];W[jr];B[jq]
;W[ks];B[rh];W[sh];B[rg];W[sf];B[pg];W[og];B[ni];W[nh];B[fk]
;W[gl];B[fl];W[ao];B[an];W[ap];B[ph];W[oi];B[qf];W[qg];B[ma]
;W[lb];B[qf];W[cd];B[bd];W[qg];B[qs];W[ps];B[qf];W[be];B[bf]
;W[qg];B[ms];W[ns];B[qf];W[bc];B[ae];W[qg];B[sd];W[re];B[qf]
;W[cc];B[se];W[qg];B[oe];W[md];B[qf];W[pe];B[qg];W[db];B[ba]
;W[ca];B[bb];W[hs];B[is];W[gs];B[js];W[ms];B[gk];W[hj];B[sp]
;W[qr];B[tt];W[tt]C[White wins by slim margin.  2.5 points.  Admittedly there are hundreds of variations and probably some better plays for both sides but its one possibility.]
))))
(;B[hp];W[iq];B[ip];W[jp];B[jq];W[ir]
(;B[kp];W[jo];B[jr];W[hs];B[ki];W[gp];B[fp];W[go];B[ho];W[gn]
;B[hn];W[fn];B[eo];W[em];B[dn];W[fl];B[gm];W[fm];B[dk];W[hm]
;B[im];W[hl];B[in])
(;B[jr];W[hs];B[jo];W[kp];B[ko];W[lp];B[mp];W[lo];B[ln];W[mo]
;B[no];W[mn];B[lm];W[kq];B[lr];W[kr];B[jm];W[jj];B[kj];W[ki]
;B[jk];W[ij];B[ik];W[hj];B[hk]))))
(;B[ci];W[cj];B[di];W[dg];B[dj];W[ck];B[dk];W[cl];B[bn];W[dl]
;B[el];W[ek];B[fl];W[fk];B[gk];W[ei];B[bj];W[fi]C[There are other variations that are better or worse for each player but black had definate advantage.]
))
(;W[fe];B[ge];W[gf];B[he];W[hf];B[ie];W[ff]C[now your in a better position on the left and your right position isn't diminished.]
))
(;W[ge]
(;B[fe];W[ff];B[ee];W[ef];B[de];W[ce];B[df];W[dg];B[cf];W[bf]
;B[cg];W[ch];B[bg];W[bh];B[ag];W[af])
(;B[id]C[This would be blacks actual continuation.];W[he];B[gb]
;W[fe];B[fb];W[ie]C[Black lives but now you've got an outer wall too.]
)))
(;W[dg];B[kc];W[lc];B[kd];W[ke];B[ld];W[md];B[le];W[lf];B[me]
;W[ne];B[mf];W[mg];B[nf];W[of];B[ng];W[nh];B[og];W[pg];B[oh]
;W[oi];B[ph];W[qh];B[pi];W[pj];B[qi];W[ri];B[qj];W[qk];B[rj]
;W[rk];B[sj];W[sk]C[Dead.  Learn your ladders.  If you can begin to read out ladders like this you have made a significant step forward.]
))
(;W[dg]C[This is perhaps the best move you can make here.  Not only do you get to attack his stone but you reduce the effectiveness of his wall on the lower side by having stones near it.]
))
(;W[en];B[dn];W[fp];B[eq];W[fq];B[fn];W[em]C[The ladder works for white.  Follow it out and see.  Black is in real trouble now.]
;B[el];W[fm];B[gm];W[fl];B[fk];W[gl];B[hl];W[gk];B[gj];W[hk]
;B[ik];W[hj];B[hi];W[ij];B[jj];W[ii];B[ih];W[ji];B[ki];W[jh]
;B[jg];W[kh];B[lh];W[kg];B[kf];W[lg];B[mg];W[lf];B[le];W[mf]
;B[nf];W[me];B[md];W[ne];B[oe];W[nd];B[nc];W[od]))
(;W[dp];B[ep];W[eo];B[dn];W[eq];B[fp];W[dr]C[Now you have a large corner and his moyo has a lot of aji (bad potential) for you to exploit later.]
))
(;W[do];B[eo];W[dp];B[ep];W[cq];B[dr];W[dn]C[Now at least you get a nice solid territory on the edge to compensate for his large moyo.  The point should be stressed the moyo can be invaded.  It might take a bit of sacrifice but it can be reduced.]
))
(;W[mq];B[mp];W[lp];B[oq];W[kp]C[Now you have reasonable shape, potential to reach the center and possible life on the side.  As well his plans for a large moyo on the lower side are thwarted.]
))
(;B[lq];W[no];B[lo]C[Blacks clearly ahead.  Your fighting for life and he has a nice moyo developing on the lower side.]
))
(;W[jp];B[gq];W[mq]C[Now your preventing the black expansion with support.  Just be careful that the other corner doesn't get going to.]
)
(;W[do];B[eo];W[dp];B[ep];W[cq];B[dr];W[dn];B[jp]C[Black can make this moyo happen by losing most of the corner.  The remainder of the board will have to determine whether it s fair trade off.  The hane at E6 is now your best move.]
;W[en]))
