(;FF[4]GM[1]SZ[19]AP[SGFC:1.13b]

PB[zatogo]
BR[2k]
PW[valiant]
WR[1k]
KM[0.5]
DT[2002-05-08]
PC[The Kiseido Go Server (KGS) at http://kgs.kiseido.com/]
RE[B+R]
TM[1200]

;B[pd];W[dp];B[pp];W[dd];B[pj];W[nq];B[kp];W[no];B[pn];W[pr]
;B[qq];W[kr];B[nm];W[iq]MA[kq][nc]LB[mp:a][np:b][jr:c][jq:d]
[lr:e]C[locally l3 (x) would be better, because the sequence a-e is now still possible.
But I would prefer o17.];B[fc];W[df];B[jd];W[ck];B[cq];W[dq]
;B[cp];W[co];B[bo];W[cn]C[To my feeling, a double hane would be better, because...]
;B[bn];W[cm];B[dr];W[er];B[cr];W[fq]LB[mp:a][np:b][jr:c][jq:d]
[lr:e][io:f]C[now the c9 stone looks a bit too close and because of the aji a-e black f seems possible to erase the influence of the white wall.]
;B[jk];W[in];B[qd];W[nc];B[oc];W[lc];B[ne]LB[nd:a]C[why not a?]
;W[me];B[nf];W[ke];B[je];W[lg]LB[ob:a][pb:b][od:c][pc:d][nd:e]
C[I would prefer first to play a-e];B[mh];W[jb];B[jg];W[hc]

(;B[dc]C[I would enter the corner directly on 3-3. see variation.]
;W[cc];B[cb];W[cd];B[eb];W[bb];B[fe];W[ed];B[fd];W[gb]
(;B[fb]LB[hd:a]C[too small, better a, see variation];W[he]C[white is catching up.]
;B[eg];W[dg]LB[ef:a][ff:b][fg:c]C[I felt there had to be a way to punish B here but couldn't find it.  His leaning attack just caused too much strength.

Its a difficult situation for me to evaluate and impossible for me to say whether the abc-cut would be better.
some general notions: white has about 20 points on the left side, 10 points at the bottom, 15 points in the middle left, 5 points at the top and 5 points komi = about 55 points
black has 5 points bottom left and the big right side:  this are perhaps over 50 points, but white has more potential: for example the weak black upper left group, so to my opinion if white plays a good endgame, white has a slight lead, so your move seems to me allright.]
;B[eh]C[.];W[di]LB[dh:a][ef:b][ff:c][fg:d]C[better a, this makes teh bcd-cut more effective]
;B[hh];W[gg];B[gh];W[hg];B[fg]
(;W[ig]C[see variation];B[ih];W[jh];B[jf]C[I hoped there wasn't a cut in my H line - unfortunately...

this is decisive, game seems over];W[kh];B[hd];W[id];B[hf];W[gf]
;B[ge];W[kn];B[gl];W[gn]C[B has the upper hand now - the game is lost.]
;B[dh];W[ch];B[ei];W[dj];B[lm];W[ln];B[qr]C[I needed an invasion that worked.  B was just too careful.  What follows is lots of flayling around that just makes it worse for me.

I dont think that a deep invasion is possible.];W[rj];B[qj]
;W[ri];B[rk];W[qf];B[re];W[ph];B[rg]C[There had to be a way to take advantage of weaknesses in B's wall.  I couldn't find them though.]
;W[ng];B[mg];W[ni];B[mi];W[nh];B[mf];W[ob];B[pb];W[od];B[pc]
;W[nd];B[oe];W[lf];B[md];W[mc];B[le];W[kd];B[ie];W[kf];B[ic]
;W[ib];B[lh];W[nk];B[mj];W[ol];B[ql];W[om];B[on];W[nn];B[mm]
;W[ll];B[kl];W[lk];B[mk];W[ml];B[km];W[kj];B[kg];W[ld];B[me]
;W[nl];B[jj];W[rf];B[sf];W[qg];B[qi];W[rh];B[sg];W[sh];B[se]
;W[qe];B[rc];W[pe];B[qh];W[of];B[pg];W[gk];B[hl];W[fj];B[fl]
;W[ej];B[hj];W[jm];B[hk]C[
I resigned  here.])
(;W[gf];B[ee];W[ih];B[ig];W[jh]))
(;B[hd];W[ec];B[fb];W[db];B[kb];W[kc];B[ib]))
(;B[cc];W[dc];B[db];W[eb];B[bb];W[da];B[cb];W[ec];B[bf]C[i think b is leading after this sequence.]
))
