(;FF[4]GM[1]SZ[19]ST[2]CA[UTF-8]AP[SGFC:1.13b]

PB[Tore Sandmark]
BR[4k]
PW[Erik O]
WR[1d]
KM[0.5]
DT[2002-04-04,2002-05-02]
PC[Dragon Go Server: http://www.dragongoserver.net]
RE[W+12.50]
RU[Japanese]

AB[pd][dp][pp]C[Dear reviewer.

This game I played a swedish 1 dan with 3 stones handicap. Quite early in the game white got the lead and of course he won quite comfortably in the end.

I have made some questions throughout the game, but appreciate comments wherever you find better moves.

My comments are prefixed with a TS:

Thx in advance.]PL[W];W[de];B[dc];W[fd];B[ce];W[dd];B[cd];W[cc]
;B[bc];W[cb];B[bb];W[db];B[cf];W[nc];B[jd];W[qf]
(;B[pf]C[TS: Since white is strong in the upper left I did not want to play o16 here. May be p15 was better?

I believe o16 is the better move actually because white is strong in the upper left]
;W[pg];B[of];W[qd];B[qe];W[re];B[pe];W[rg];B[pc];W[qn];B[np]
;W[rp];B[df];W[ec]
(;B[dj]C[TS: May be a peep at r12 and then around  q9 was better?

see variation];W[lq]
(;B[qq]C[TS: How should I respond here? Now white gets considerable territory  on the right.

the response at r3 is meaningless, you have no territory down there to defend anyway, since the space is open on both sides]
;W[pl];B[iq];W[lo];B[nn];W[io];B[gp];W[cp]
(;B[cq]C[TS: Better to play on the outside?

yes I think so, see variation];W[co];B[bq];W[do];B[ep];W[cl]
;B[el];W[bj];B[bi];W[bk];B[ci];W[bp];B[il];W[lm];B[nl];W[jq]
;B[ir];W[rq];B[mr];W[lk];B[nj];W[ok];B[nk];W[jk]
(;B[jg];W[og];B[ng];W[nh]
(;B[nf];W[ik];B[hl];W[jc]
(;B[ic]C[TS: What is better? j17 or l17?];W[kc];B[hd];W[kd]
;B[je];W[ob];B[pb]C[q18 is meaningless because you can no longer kill white, and you have no territory in the upper right if white takes s16. a play at p11 or s2 is big]
;W[md];B[ib];W[ff];B[oj];W[pj];B[mh];W[hk];B[hg]C[h13 is small, your group has enough ways to make life that this isn't much of a concern]
;W[gl];B[hn];W[ip];B[gm];W[hq];B[hr];W[hp];B[gq];W[mq];B[nq]
;W[or];B[nr];W[qr];B[mb]C[TS: I feel those stones should be in trouble. May be there was a better way to attack?

I think this is a good way to attack, I do not see a way to kill this group and this ends off with the group only having 2 points, and you geting sente]
;W[lb];B[nb];W[oc];B[oa];W[na];B[ma];W[la];B[pa];W[mc];B[na]
;W[jb];B[le];W[ld];B[fb];W[eb];B[rc];W[rd];B[qc];W[jl];B[li]
;W[ai];B[ah];W[aj];B[bg];W[aq];B[ar];W[ap]
(;B[br];W[oi];B[in];W[jn];B[ni];W[oh];B[eg];W[fg];B[fh];W[gk]
;B[ge];W[fe];B[gc];W[qp]
(;B[po];W[pq];B[qo];W[ro];B[pn];W[pm];B[ol];W[pk];B[jr];W[kq]
;B[kr];W[sc];B[sb];W[sd];B[ra];W[ha];B[hb];W[ia];B[ga];W[ja]
;B[ke];W[ji];B[jh];W[ki];B[kh];W[me];B[mf];W[ba];B[ii];W[lj]
;B[gi];W[ab];B[ad];W[ij];B[hi];W[fj];B[ej];W[fi];B[ei];W[gh]
;B[eh];W[gg];B[dm];W[cm];B[hh];W[gf];B[hf];W[mj];B[oq];W[mi]
;B[lh];W[om];B[nm];W[on];B[oo];W[mo];B[no];W[os];B[lr];W[im]
;B[hm];W[jm];B[dn];W[cn];B[eo];W[go];B[fm];W[ho];B[fk];W[gj]
;B[ef];W[ee];B[mp];W[lp];B[fo];W[gd];B[he];W[ns];B[ml];W[ll]
;B[mn];W[ln];B[fc];W[ea];B[fa];W[ms];B[gn];W[dk];B[cj];W[ck]
;B[ls];W[ek];B[fl];W[dl];B[em];W[ca];B[ac];W[aa]TW[da][ka][kb]
[dc][lc][ed][se][rf][sf][qg][sg][ph][qh][rh][sh][pi][qi][ri]
[si][jj][kj][qj][rj][sj][ak][kk][qk][rk][sk][al][bl][kl][ql]
[rl][sl][am][bm][km][qm][rm][sm][an][bn][kn][rn][sn][ao][bo]
[jo][ko][so][jp][kp][sp][qq][sq][pr][rr][sr][ps][qs][rs][ss]
TB[qa][sa][gb][qb][rb][hc][bd][id][ae][be][ie][af][bf][if][jf]
[kf][lf][ag][cg][dg][ig][kg][lg][mg][bh][ch][dh][ih][di][en]
[fn][fp][op][dq][eq][fq][cr][dr][er][fr][gr][as][bs][cs][ds]
[es][fs][gs][hs][is][js][ks]C[your endgame went ok])
(;B[pq]C[I think q3 is bigger than q5, because if white ignores, you can go down to q2]
))
(;B[cr]C[this shape is a bit better, but it often does not matter]
))
(;B[kc]C[I think l17 is better here, because influence facing the left does you no good anyway, since the e17 group is alive]
))
(;B[mg]C[I think you can extend here simply, there is not much aji in the cut at o14 because your q15 group can just live by playing at s16]
))
(;B[og]C[this push before the play at k13 is very big])
(;B[ph]C[or if you want to reduce, this can be a good way to do it]
))
(;B[co]C[white has a couple of options here on how to play this out, but the basic idea of how it will end is the same...]
;W[cq];B[dq];W[bo];B[cn];W[bn];B[cm];W[dr];B[er];W[cr];B[lm]
C[you want to build up thickness on the left side because of whites three weak stones in the bottom area]
))
(;B[nn]C[I think to ikkentobi upwards here is good]))
(;B[qh];W[qg];B[pk]C[I think this is too soon for this kind of attack, you want to establish moyo on the sides where it is easy to before making an attack so I think the play at d10 is better]
))
(;B[oe]C[this move seems reasonable, but I think I prefer o17]
)
(;B[nd];W[md];B[ne];W[oc];B[pe]C[the r14 stone becomes isolated and the k16 stone can be treated lightly]
))
