(;FF[4]GM[1]SZ[19]AP[SGFC:1.13b]

GN[wacow-wegobad(B) IGS]
PB[wegobad]
BR[9k]
PW[wacow]
WR[9k*]
KM[5.5]
DT[2002-06-06]
PC[IGS:  igs.joyjoy.net 6969]
RE[W+Resign]
TM[60]
US[Brought to you by IGS]

C[Thanks for reviewing my game. I had Black. I thought my opponent was leaving weak groups that I could attack, but I'm the one who resigned, so I must have been doing something wrong. As near as I can tell, I was 15 or 20 behind by move 120, and in my desperate attempts to close the gap, I played too aggressively and too thinly. All advice appreciated! Thanks,  - Mike Malveaux

---

You are welcome.

I think you played well up to a certain point in the game. Though you made some things more complicated as they should be and played too agressively.

In the end, you lost oversight. If you are ahead, you must stay COOL and get home the games as easily as possible.]
;B[dp];W[pd]C[
 wegobad 9k : thanks for playing :-)];B[dd];W[pq];B[qo]
(;W[po]C[Not so good.];B[pn];W[oo];B[qp];W[qq]C[This Joseki is from an Kakara against 4-4. Here, it is inferior for White.]

(;B[qj]C[Maybe OK. But I'd play one field closer.]
(;W[mq];B[nc]
(;W[qg]C[Thin. Too thin here.]
(;B[jc]C[Maybe OK. But I'd prefer one point higher, since White is so thin in the upper right.]
;W[cn];B[fq]C[OK.]
(;W[ck]C[Too narrow.]
(;B[qc]C[Maybe this is not the right time. You could use your oppenets narrow move and extend in a double wing.]
;W[cf]C[White must finish the upper right corner first.]
(;B[dh]C[Why so complicated? Simply protect your corner.]
(;W[fc]C[You both like complicated stuff!];B[df]C[Good.];W[cc]
;B[dc]C[Good.];W[cd]
(;B[cg]C[Looks strange, but I find no reason against it.];W[bf]

(;B[bg]C[Way too slow and small!];W[fe];B[de];W[cb];B[db];W[ce]

(;B[ie]C[Looks good. But you can also guide White a bit more.]
;W[eg];B[dg];W[hf]C[White is playing around aimlessly.]
(;B[fb]C[Definitely not.   You must enclose the White stones or push them into the right direction.]
;W[hc]C[Now White gets closer to your prospective territory on the right, secures himself and can still evade down.]
;B[gd]C[There is no sense in taking away eyes of a group, which can easily evade. However, if you did this to connect your stones, you failed later.]

(;W[fd]C[But this is not the way to go.]
(;B[hd]C[Did you check all other moves?];W[gc]C[Separates your stones.]

(;B[fi]C[Too late. Now you should care about your territory.]
;W[ic]
(;B[id]C[It is time to give up the two stones and save your territory.]
;W[jb];B[kc];W[kb]
(;B[lb]C[Another mistake. Making things tough for yourself.]
;W[lc];B[ld]C[You probably saw at this point that you had to give in.]
;W[mc];B[md];W[mb];B[nb];W[la];B[qd]C[Since you have some cutting points, the White stones can now evade.]
;W[pe];B[og]C[Too loosely.];W[qe];B[pc];W[ne];B[nd];W[nf];B[pf]
C[Again. You need not destroy eyes, when the group can escape.]
;W[ng];B[oh];W[qf];B[nh];W[qi]C[Aji Keshi. Makes Back stronger, and destroys the cutting point at Q11. White should evade first.]

(;B[pi]C[Please, consider playing more securely.];W[ri];B[rj]
;W[pj]C[This opens all sorts of chances for white (Aji).];B[oj]
;W[pk];B[ql];W[kf];B[ke];W[lf]
(;B[bm]C[Since you have now a cut off group around P12, you cannot cut White and fight.

I thinks this move leads nowhere. Make profit instead.];W[bp]
C[Good.];B[cl];W[cq]C[Good.];B[dl];W[dq]C[A complete success for White. You secured your top group and gained 20 points of territory, but Whte took your corner and and secured his group.]
;B[iq]C[Good.];W[ok];B[nj];W[on]C[Good.];B[pm]
(;W[om]C[Taking it too far. There are larger and better moves.]
;B[rq]C[Certainly big. But there are bigger moves.];W[rr];B[sq]
;W[sr];B[ro]C[Too small. You only play this, if your group is in danger.]
;W[ki]
(;B[kj]C[Tough. It is easier to play one stone closer to the group.]
;W[lj]C[Starts a dangerous fight, for both sides.];B[li]
(;W[mi]C[That is not optimal. In a crosscut, think about extending first!]
;B[mj];W[lh]C[Extending does no longer work.];B[lk];W[li];B[ml]
;W[jp]C[Not effective.];B[kp]
(;W[kq]C[Does not work.];B[jq];W[lp];B[ko];W[ep];B[fp];W[eo]
;B[fn];W[jf]C[Black has gained now. He is now ahead by a margin of 10  to 20 points.]

(;B[if]C[Chasing ghosts. White is OK by now.

Since Black is ahead, he should get the game home.]
(;W[ig]C[Again too small.];B[hg]C[Black seems to chasing White, but White is out of problems.]
;W[ih];B[jj]C[Finally. But Black gave White strenght and points.]
;W[hj]C[This would not have been possible.]
(;B[ii]C[Does not work. Black should think ahead at these important moments.]
;W[hi];B[hh];W[gh];B[hl];W[ln];B[lo];W[mo];B[kn];W[km]C[?];B[lm]
;W[ik];B[jm];W[il];B[im];W[fk];B[gk]C[Does not work. This is a famous trap.]
;W[gj];B[fg];W[gg];B[ff]C[Pointless. A bad mistake here.];W[dk]
C[Now black has lost much of the advantage.];B[ek]
(;W[el]C[Should be on the other side.];B[ej];W[fj];B[dj];W[gl]
;B[hm];W[gm];B[gn];W[kr];B[bn];W[bo];B[pl];W[ol];B[rh]
(;W[ph]C[Not optimal.];B[si];W[oi];B[ni];W[qk];B[rk];W[rg];B[re]
C[Black is penny-wise and pound-foolish here. I need to connect around S8.

----

This is certainly bigger. However, there are also large moves elsewhere!]
;W[rf];B[rd]
(;W[hs];B[is];W[ir];B[hr];W[js];B[gs]C[Uneccessary complication.]

(;W[mn]C[Nice try.];B[jr]C[You fell into that trap.];W[kl];B[jl]
C[Bad mistake!

This ends the game. However, White was a bit ahead already.]
;W[jn]C[
 wegobad 9k : sorry i didn't play well tonight... you have won
 wegobad 9k : thanks for the game])
(;W[jr];B[hq];W[er]))
(;W[er]C[Better.]))
(;W[qh];B[si];W[rg];B[sh];W[sj];B[sk];W[qk];B[rl];W[sg];B[sj]
;W[rk];B[sl];W[rd]))
(;W[ej];B[el];W[fj];B[dj];W[di];B[cj];W[ci];B[bk];W[ei];B[bi]
C[Endgame.]))
(;B[hk]))
(;W[jj];B[kk];W[ij]C[Destroys much of blacks territory.]))
(;B[jj];W[jd];B[je];W[kd];B[le]C[Of course.]))
(;W[jq];B[kq];W[jr]))
(;W[lk]C[What now?]))
(;B[lj]))
(;W[nk];B[li];W[ph];B[oi];W[kh];B[lk];W[eq]))
(;B[if];W[ig];B[jg];W[hg];B[jf];W[lh];B[ji];W[lj])
(;B[co];W[dn];B[bj];W[ek];B[iq]))
(;B[pj]C[Looks like a perfect move.]))
(;B[lc]))
(;B[jd];W[id];B[je];W[he];B[qd]))
(;B[ic];W[fi]C[But this makes your life difficult.];B[dj]))
(;B[gc]C[Did you think about this? Looks like it connects your troups.]
))
(;W[hd]
(;B[he];W[ge])
(;B[ge];W[he];B[gc];W[gf];B[hb];W[fd];B[gb];W[fh]))
(;W[gc];B[fd];W[hd];B[he]C[Does not work for White.]))
(;B[fi]C[This helps your saftey and White must still look for life.]
))
(;B[fg];W[id];B[ic];W[hd];B[jd];W[if];B[kf]))
(;B[db];W[cb];B[gd]C[Simply and effective.]))
(;B[de]C[This is certainly easier.];W[db];B[eb];W[cb];B[ec]
;W[cg];B[fd]))
(;W[ef];B[fd];W[gf]C[What now?]))
(;B[fd];W[ef];B[qd]))
(;B[co];W[dn];B[cg]))
(;W[cf];B[fd];W[dj]))
(;B[jd]C[You can now jump into R17 or R15 as you like.]))
(;W[qf]C[Here, Black has no good extension from R10.]))
(;W[on];B[pm];W[jq]C[Looks better to me.]))
(;B[qk]))
(;W[ql]))
