(;FF[4]GM[1]SZ[19]ST[3]AP[SGFC:1.13b]

GN[Rengo]
EV[casual club game]
PB[woodgnome]
BR[5k]
BT[Paul Yates (2d) and Ben Handley (10k)]
HA[5]
PW[lakeland]
WR[1d]
WT[Corrin Lakeland (1d) and Matt Wood (2d)]
KM[0]
DT[2002-06-19]
RE[B+5.00]
GC[A hard fought rengo game with some interesting turns and mistakes by all players.   Handicap was estimated at 5 stones which seemed to work quite well.]


C[Hello! This is a rengo game that was played at the local club. B is played by Paul Yates (2d) and Ben Handley (10k) while w is played by me (1d) and Matt Wood (2d).  Local (New Zealand) rules were used. This was a bit of a marathon game, lasting until after midnight and I think you'll see some errors coming in later in the game as we all got tired.

I have included all the comments that came up during the game.  if you have any insights that we have missed then I would appreciate you sharing them.

Thank you, Corrin];B[dd]C[tob : This is my first time to review in this web.
Hope you enjoy and get some idea from my  comment.];B[dp];B[pc]
;B[pq];B[qe]C[The top right shimari wasn't the one b initially played (it was pointed towards q3) but it got bumped in the game and we decided it was safer to continue with this than change it.]
;W[po]C[(at this point the top right shimari was pointed here, hence q5)

Generally the teams coordinated their moves well.  Where w coordinated badly (about move 40) I have labelled who made each move.  If you want to work out who made any other move then  divide the move number by 4 and get the remainder.

0: Matt
1: Ben
2: Corrin
3: Paul

e.g. 6 % 4 = 2, so I (Corrin) played the first white move];B[qo]

(;W[qn]C[tob : I don't like r16 because this is handicap and  it's not good for white to end with gote.See my  reference.]
;B[qp];W[pm];B[nq];W[qh]C[Obviously this move makes more sense if you  imagine the shimari pointing here.

tob : I think this is not good for white because black  can invade at r8,r10 or around it.]
;B[iq]LB[dd:1][dp:2][pc:3][pq:4][qe:5][po:6][qo:7][qn:8][qp:9]
[pm:10][nq:11][qh:12][iq:13][jd:A][dj:B]C[tob : Sure that this is bad move,A or B is bigger.]
;W[fc];B[df];W[cc]LB[dd:1][dp:2][pc:3][pq:4][qe:5][po:6][qo:7]
[qn:8][qp:9][pm:10][nq:11][qh:12][iq:13][fc:14][df:15][cc:16]
[ic:A][jc:B]C[paul thought c17 was a mistake

tob : Instead of c17,A or B is interesting.];B[dc];W[db]C[tob : I prefer e18.See variations.]

(;B[cd];W[bb];B[dj]C[ben ommitted c17 (he didn't know the joseki) but I  didn't find a way to take advantage

tob : It is not urgent.White will take advantage in  end game.]
;W[cn];B[bo];W[fp];B[fq]C[Paul felt f3 was a mistake.  I didn't particularly like it  but didn't dislike it enough to call it a mistake.

tob : See my reference.]
(;W[gq];B[eq]
(;W[hp]C[I would have played h4 at g4 because of g2  weakness.  Matt and I seemed to be pushing in  different directions for the next few moves

tob : g4 is not good cause black will play j5.];B[ip]C[ben made this move]
;W[gr]C[I made this move];B[dn]C[paul made this move];W[hn]
C[matt made this move];B[in]C[ben made this move];W[do]C[I made this move.

This is a mistake (overplay).  I had thought c5, e5,  c3, and w strong in sente

tob : d5 is still playable.];B[co];W[dm]C[Matt played this move

I didn't like d7, but I can understand why matt played it];B[en]
C[Ben played this move

I was glad b didn't take];W[cl]C[I played this move];B[bn]C[paul played this move]
;W[hm]C[matt played this move

I would have defended];B[im];W[cm]C[I played this move];B[eo]
;W[il]C[from now on matt and I managed to coordinate a little better, so I'll no longer annotate the moves by who made them.]
;B[nn];W[ln]C[This was probably and overplay (should be F8) but I  feared b would get too far ahead

tob : Play at m4 is not bad.It seem slow but in  handicap game if black play safe it will hard for  white to play.]
;B[fl];W[ek]
(;B[fj]C[tob : Black can cut.See variations!];W[fk];B[gl];W[hl]
;B[gk];W[ej];B[ci]C[this move seems very odd to me, but paul felt it  was good

tob : it is good move.];W[ei];B[dh];W[fg];B[ho];W[go];B[io]
;W[gm]C[mistake by me.  I was trying to make the connection  sente and didn't see the e8 bamboo forced w to  defend.  g6 would have been better because it _is_  sente.

tob: should be  f6 or g6.];B[fn];W[gn];B[el];W[dk];B[gi]C[I think g10 better

tob : I agree.];W[fi];B[gj];W[gh];B[ck];W[dl];B[eh];W[fh];B[kc]
;W[bd];B[be];W[di];B[cj];W[ch];B[cg];W[bh];B[bi];W[ef];B[dg]
;W[lq]C[this is a desperate move because I count w well behind.  W has two heavy groups and b has a lot of cash]

(;B[km]C[tob : Black can play m5 for safe.];W[mm];B[mn]C[this seems a huge mistake by b]
;W[lm];B[kn];W[lo];B[jl]C[tob: L9 is better.];W[ij];B[jk];W[hj]
;B[jj];W[ih]C[mistake by me, should be h11.  I missed the loose geta]
;B[hi];W[ii];B[hh];W[hg];B[ig]C[this feels like an overplay to me]
;W[kh]
(;B[ll]C[tob : Slow.See my reference.];W[bf]C[unfortunatly b9 saves w, similar to the avelanche joseki]
;B[ae];W[lk]C[matt and paul both liked this move, so clearly I'm  missing something, must be a 2d level move :-)

tob : This move is play for protect territory(It can  sacrifice)]
;B[ml];W[nm]
(;B[li]C[tob : See variations.];W[mj];B[lj];W[bk];B[bg];W[mk]
;B[lh];W[kg];B[if];W[lg];B[nh];W[je];B[hc]C[paul played h17 because he felt it gave b enough cash to win]
;W[fd];B[mg];W[ep];B[cq]C[tob : d2 is better.];W[mc]
(;B[le]C[tob : See variations.];W[kd];B[lc];W[ld];B[mb];W[nb]
C[matt and paul both felt this move was wrong, it  played out exactly as I expected except for k18 so  I'm not sure

tob : yes,k17 is better.];B[md];W[nc]
(;B[la]C[tob : Black can connect.See variations.];W[me];B[nd]
;W[nf];B[oe]C[tob : connect firmly at p16 is better.];W[of]
;B[pe];W[nl]C[we know q13 is huge :-)

tob : Sure:-)];B[ng];W[ad];B[af];W[jc]
(;B[kb]C[huge mistake by b.  k18 for sente would have made the game very hard]
;W[jb];B[oc];W[ne];B[od];W[pg];B[kp];W[lp];B[kq]
(;W[ko]C[tob : White can't kill.See variations.];B[jo]C[misread by me.  apparently k5 by w kills because of  L8.]
;W[kl];B[jm];W[pp];B[op];W[lr];B[oo]C[misread by matt, and read correctly by ben :-)]
;W[pn];B[rn];W[rm];B[ro];W[qq];B[rq];W[qr]C[everyone thought my r3 was wrong.  I played it so the t6 semeai became sente but they said to just play t6 directly.]
;B[pr];W[rr];B[sr];W[sn];B[sp];W[sm];B[rs]C[tob : Should play t5.Play here lost 2 points.]
;W[oi];B[ni];W[ja];B[ob]C[tob : Lost 2 points again.];W[nj]
;B[og];W[pf];B[ee];W[fe];B[mr];W[dr]C[everyone felt this was wrong, I still don't :-)

tob : Me too:-)]
(;B[er];W[jr];B[jq];W[es];B[fs];W[ds];B[cr];W[gs]C[f2 probably better, I was thinking that if we had a ko then it makes d3 a smaller threat.]
;B[rg];W[rh];B[qg];W[sg]C[terrible mistake by me (the game had been going about three hours at this point)]
;B[ph];W[pi];B[oh];W[lf];B[ji];W[jh];B[qf];W[mf];B[gf]C[misread by paul, he thought this forced w into semeai while b connects around b7 in sente]
;W[hf]
(;B[sf]C[w breathes a sigh of relief

tob : Black forgot this:-)];W[qi];B[on];W[om];B[ec];W[eb];B[bm]
;W[bj];B[ah];W[bl];B[eg];W[ff];B[kr];W[ks];B[ir];W[ki];B[kj]
;W[mi];B[mh];W[fr];B[dq];W[so];B[qs];W[ka];B[na];W[cs];B[bs]
;W[fs];B[ar];W[js];B[ms];W[ls];B[sh];W[si];B[kk];W[ll];B[mq]
;W[mp];B[np];W[al];B[ik];W[hk];B[am];W[fo];B[do];W[is];B[mo]
;W[hr];B[hq];W[gp];B[aj];W[sg]C[b counted he was ahead so did not fight this ko, even though he would have won it (about 00:20 now, and everyone is very tired)]
;B[de];W[sh];B[ed];W[fm];B[em];W[ak];B[ai];TW[aa][ba][ca][da]
[ea][fa][ga][ha][ia][ab][cb][fb][gb][hb][ib][ac][bc][gc][hc]
[ic][gd][hd][id][jd][ge][he][ie][ke][le][gf][if][jf][kf][gg]
[ig][jg][ri][oj][pj][qj][rj][sj][nk][ok][pk][qk][rk][sk][ml]
[ol][pl][ql][rl][sl][qm][hs]TB[ma][oa][pa][qa][ra][sa][lb][nb]
[pb][qb][rb][sb][mc][nc][qc][rc][sc][pd][qd][rd][sd][ce][re]
[se][bf][cf][rf][ag][bh][ch][an][jn][ao][no][ap][bp][cp][jp]
[rp][aq][bq][oq][qq][sq][br][nr][or][qr][rr][as][ns][os][ps]
[ss]C[final score: B+5])
(;B[qi]))
(;B[dq];W[es];B[cs]))
(;W[jo];B[lr];W[mr];B[kr];W[mq];B[hq];W[gp];B[ko];W[is];B[js]
;W[jr];B[hs];W[ks];B[ls];W[hr];B[ir];W[gs];B[jq]))
(;B[jb];W[kb];B[lb];W[ib];B[ka]))
(;B[lb];W[jc];B[jb]))
(;B[ld]C[tob : White can't find a good move to play.];W[jc]
;B[jb]))
(;B[nk];W[pk];B[ni];W[lg];B[if];W[fd];B[id];W[ng];B[pi];W[qi]
;B[pj];W[qj];B[og];W[of];B[pg];W[je];B[ie];W[me];B[mc]))
(;B[mj];W[nm];B[ni];W[pj];B[if]))
(;B[lo];W[mo];B[lp];W[mp];B[mq];W[mn]))
(;B[fk];W[ej];B[hl]))
(;W[gp];B[io]C[tob : White is in bad shape.]))
(;W[eq];B[ep];W[gq];B[fr];W[hq];B[fo];W[gp];B[er];W[ip]C[tob : The result is good for white.]
))
(;B[eb];W[cb];B[ec];W[be];B[jd]C[tob : Black get a big moyo and white live in small  corner.However,c16 is a good move.]
))
(;W[pp];B[qp];W[oq];B[qq];W[pn];B[qm];W[gp]C[tob : White try to make a big moyo.]
))
