(;FF[4]GM[1]SZ[19]ST[2]CA[UTF-8]AP[SGFC:1.13b]

PB[pieter]
BR[2d]
PW[bigaya59]
WR[2d]
KM[6.5]
DT[2002-07-29]
RE[W+25.50]
TM[1800]
RU[Japanese]
GC[Game analysis by Steve Fawthrop, 5D. 10th Aug. 2002]

C[hello,  Is it possible to give some comments on my opening and middle-game moves? Thx.

I think I lost the game because I made a mistake in the lower left corner (...and as a result, my group was dead).]
;B[pd];W[dp];B[pp];W[dc];B[pj];W[jq]LB[jp:A]C[This low move seems inconsistent in this opening.  Black is clearly aiming for a moyo game with his san-ren-sei and White has played a 4-4 point.  These would seem to indicate a move at 'A' instead.  The low move played leaves White open to various capping plays to expand Black's moyo.]
;B[jd];W[nq]LB[fd:C][ce:B][de:A]TR[jd]C[Although there is nothing wrong with this move, a shimari at the top feels better to me.  It is hard for White to fight a good answer to Black 'A' next. 'B in respond would just help Black for a moyo at the top with the nadare, and 'C' does not have anything to look forward to with the triangle stone on the board.]
;B[jj]LB[de:A]C[This seems to early.  It looks as though Black is playing a handicap game. At the very least play a kakari at the top as a kiakshi before playing this.  Of course, in respond to the kakari, White may play a line which forces Black to respond, but Blakc should be able to find a variation which ends in sente is he really wants to plat tengen.  I would play at 'A' instead of this move.]
;W[qc]C[Too early. Black's configuration does not lend itself to completion in one move to this is not urgent. The left side is more important.]
;B[qd];W[pc];B[oc];W[ob]
(;B[pb]LB[nb:A][oc:C][od:B]C[This is a nonsense move. The only possible explanation for this move is that Black does not like the variation starting at 'A', but then he should probably have played at 'B' instead of 'C'. There is actually nothing wrong with the variation.]
;W[qb];B[nb];W[pa];B[nc]C[Black does have nice thickness, but in gote.]
;W[qj]LB[rd:b][qi:B][qk:a][no:A]TR[ce][ci][dn]C["I don't know which direction to take but I took 'a' because: - it helps my hoshi stone and, - 'b' is an annoying move for w (ko)
Is this thinking correct?"

First of all, this is a panic move by White. There is no need to invade Black's moyo at this stage. The left side is still to be played. White has a sente move at 'b' as well as a nice move at 'A'.  He can also invade the lower sright corner, so there is no need to precipitate a fight at this stage.  Any of the triangle moves on the left side would be good for White.  Having siad that, Black best approach is the settle the position quickly on sente and play a shimari in the top left.  The lower right quadrant has little prospect of territory for Black so it makes little sense to try to claim any there, so 'a' has to be wrong.  See the two variations which result from Black 'B'.  Obviously there are others, but these are representative and favorable to Black.]

(;B[qk];W[pk];B[ql];W[oj];B[pi];W[oi];B[ph]LB[oh:A]C[Black can resist with 'A'.]
;W[pl];B[qm];W[oh];B[og];W[ng];B[of];W[nl]LB[nk:A]C[If W is trying to protect both cutting points he must play 'A']
;B[np]LB[pq:A]C[What is Black's aim here?  Both the standard joseki result in Black getting the corner in gote, but he can do that just as effectively with 'A' and have better aji against the White stones. This move makes no sense when White has a position above, unless that position can be attacked. I think that would be overly optimistic here.]
;W[mp];B[no];W[oq];B[pq];W[mo]
(;B[nn]LB[mn:A]C[This may be necessary, but it just feels wrong.  First of all, the standard joseki move it at 'A', so Black is not putting as much pressure on White to the left as in the standard sequence.  Second, and perhaps most improtant, it is not sente.  Third, if White continues to press at 'A' then Black has no good answer. Black 'A' is better as it keeps White separated and gives some prospect of attack.  Black has nothing to fear from the cut.]
;W[mh]C[Seems slow.  The one stone this protects is not crucial.]
;B[ce]C[At last!];W[gc]C[Nice move - stabilizes the White group in one move, which is necessary when White has an unsettle group on the right.]

(;B[cc]LB[fc:B][fd:A]C[Not joseki.  Black should exchange 'A or 'B' first. See variation.]
;W[cb];B[dd];W[ec];B[bc];W[bb]
(;B[cn]LB[mn:A]C[This move just feels wrong to me but it is hard to say exactly why.  The white group to the right is still unsettled and a low move at this point seems to ignore that fact.  I have my eye on the point 'A' and black needs a strategy to exploit that.]
;W[cl]LB[cq:A]C[Seems a little hasty, but as White is behind perhaps it is necessary.  Black cannot play 'A' - see variation.]

(;B[en];W[fp];B[dk];W[dl]
(;B[el]LB[ck:A]C[Seems like 'A' would be better. I looked at 3 variations, but there are others.]
;W[ck];B[dj];W[cj];B[di];W[ch]
(;B[eg]LB[dh:A]TR[ce][eg]C[Keeping on pressing at 'A' feels better. The relationship between the triangle stones is not good.]
;W[cg]
(;B[ge]LB[fc:B][fd:A][df:C][em:a]C["I though i could handle the cut 'a' by invading the corner."

A better solution than this move, is to exchange "A' for "B" in sente and then connect at 'a'.   After the A-B exchange, White C does not work.  Also, this move does not have a good relatoinship to the surrounding Black sotnes]
;W[em];B[fm];W[dm];B[fl];W[dn];B[cq]LB[mj:B][mn:A]TR[em]C[Letting White get the marked stone has turned the game in his favor. The black stones in the center are no longer working to their full potential.  Except for the group in the right center all of white's stones are secure, and that group is not easy to attack. Black really needs to find a way to play 'A' in sente before attacking at 'B' and that involves finding some threats against the White territory at the bottom.  First, however, Black needs to find a way to deal with the corner in sente.]
;W[dq]C["So, here I don't even get a ko. Which moves are better?"

There are a lot of possiblities, but the move played is too heavy and inflexible.  Black is ahead in this game if he lives in the corner.  If he does not live but can get two moves elsewhere he should maintain the lead.  There Black should play so as to keep sente and maintain the potential for live.  See all the variations shown. They are just a few possiblities I put on the board , and not necessarily the only ones or the best ones, but designed to show a feeling for how the game should go.]

(;B[cp];W[dr];B[cr];W[bo];B[co];W[bn]
(;B[bp]LB[bm:A]C[Black is dead, but at least he should play 'A' to preserve more potential threats for the future]
;W[bm];B[do];W[eo];B[fn];W[hp]
(;B[gp]TB[la][ma][lb][mb][lc][mc][bd][cd][pe][qe][re][se][hf]
[if][pf][qf][rf][sf][gg][hg][ig][pg][qg][rg][sg][fh][gh][hh]
[ih][qh][rh][sh][fi][gi][hi][ii][qi][ri][si][ej][fj][gj][hj]
[qj][rj][sj][ek][fk][rk][sk][rl][sl][rm][sm][qn][rn][sn][qo]
[ro][so][qp][rp][sp][rq][sq][rr][sr][rs][ss]TW[ca][da][ea][fa]
[qa][ra][db][eb][fb][pb][rb][ai][aj][ak][bk][al][bl][am][cm]
[an][cn][ao][co][do][ap][bp][cp][aq][bq][cq][eq][fq][kq][lq]
[mq][ar][br][cr][er][fr][gr][hr][ir][jr][kr][lr][mr][as][bs]
[cs][ds][es][fs][gs][hs][is][js][ks][ls][ms]C[There is not much chance that this will succeed.  However, the game is not lost for Black yet.  Black has approx 72 pts,  Wihte 62 pts as indicated plus komi.  The rest are still to be determined. So Black has sente and a small lead. Look at the variation for a possible outcome.]
;W[gq];B[go];W[ip];B[rd];W[rc];B[jn]C["Now , i desperately try to recover but it is too late."

On the contrary, I think Black is leading.];W[jh]
(;B[lg]C[This cannot possibly work. It just invited White to connect and is a thank you move]
;W[ki];B[ic]LB[hb:A]C['A' is better.];W[fe];B[fd];W[ed];B[ee]
;W[ff];B[ef];W[gd];B[nf];W[hh]C[Now Black is lost.  The large potential center has disappeared. No further comments until the end.]
;B[ds];W[fr];B[br];W[aq];B[ap];W[cs];B[pr];W[sd];B[ms];W[mr]
;B[ns];W[ls];B[or];W[nr];B[os];W[lq];B[bf];W[bg];B[ag];W[ah]
;B[af];W[re];B[rf];W[qe];B[pe];W[qf];B[rg];W[qg];B[rh];W[hb]
;B[na];W[oa];B[ii];W[ih];B[gi];W[qh];B[qi];W[kk];B[kj];W[lj]
;B[li];W[mj];B[lh];W[gf];B[ll];W[lk];B[ml];W[jk];B[ik];W[km]
;B[kl];W[jl];B[lm];W[jm];B[kn];W[in];B[im];W[il];B[hm];W[mn]
;B[ln];W[hk];B[hi];W[ij];B[ji];W[hn];B[nm];W[gm];B[nk];W[ol]
;B[mm];W[ie];B[mk];W[ok];B[ib];W[ac];B[ad];W[ab];B[be];W[sf]
;B[bi];W[ci];B[bh];W[bj];B[ai];W[aj];B[ah];W[al];B[je];W[sg]
;B[ri];W[cd];B[bd];W[df];B[dg];W[cf];B[de];W[jf];B[kf];W[gk]
;B[fj];W[fk];B[ek];W[jg];B[gl];W[hl];B[kp];W[kq];B[ha];W[ga]
;B[ia];W[dh];B[eh];W[lp];B[id];W[he];B[hc];W[gb];B[jp];W[gh]
;B[fo];W[ep];B[fh];W[mi];B[mg];W[kh];B[pg];W[nj];B[op];W[pm]
;B[pn];W[nh];B[sh];W[sc];B[pf];W[se];B[gn];W[hm];B[om];W[hj]
;B[gj];W[fg];B[ei];W[hd];B[kg];W[io];B[jo];W[lo]C[Black lost this game because of two mistakes.  The first was failure to take advantage of the situation in the lower left.  The second was failure to realize that losing that corner was not the end of the game.]
)
(;B[kh];W[ki];B[ji];W[kg];B[ih];W[jg];B[ig]))
(;B[rd]C[This variation shows one possible sequence of events.  Moves would not necessarily be played in this order, but are made to show thje sente moves available to black.]
;W[rc];B[na];W[oa];B[ci];W[bi];B[fo];W[ep];B[mn];W[ll];B[jl]
C[Now Black has a commanding lead.]))
(;B[bm];W[cm];B[bl];W[bk];B[bp];W[al];B[ao];W[am];B[bm];W[bl]
C[By playing the original hane Black gains these four ko threats for later.  In the game he had none of them,]
))
(;B[dr]C[This seems to have greater potential.];W[cp]LB[bq:A]
C[Black can now live in the corner with 'A' any time he wants so it is best to leave this as potential.]

(;B[br];W[bq];B[cr]
(;W[bp];B[fr];W[gq];B[ar];W[gr];B[fs]LB[bs:A]C[If Black does not play here (or some other defensive move), White can play 'A'.  This sequence is acceptable, but is gote.]
)
(;W[er];B[bp];W[bo];B[aq];W[jo]C[It is hard ofr Black to find a good move now.]
))
(;B[bq];W[er];B[cs];W[bp];B[br];W[jo])
(;B[mn];W[mj];B[kp];W[kq];B[jh];W[er];B[jp];W[ip];B[iq]
(;W[hp];B[lq];W[mq];B[lr];W[ir];B[jr];W[hq];B[kr];W[iq];B[lp]
C[Just one possibility out of many])
(;W[lq];B[gp];W[io];B[br];W[bp];B[fr];W[es];B[fq];W[eq];B[fo]
;W[ep];B[kn];W[hq]))))
(;B[fd];W[fc];B[em]
(;W[df];B[ed];W[ef];B[ff];W[fg];B[gf];W[eh];B[gg];W[fh];B[dh]
;W[dg];B[gj])
(;W[ed];B[df])))
(;B[dh];W[cg];B[dg];W[df];B[cf];W[ef];B[bg];W[bh];B[ag];W[be]
;B[bd];W[ae];B[de];W[ac];B[bf];W[ad];B[fe];W[ff];B[fd]))
(;B[ck]
(;W[ek];B[bl];W[bm];B[bk];W[cm];B[ej];W[fk];B[bn];W[am];B[cq]
)
(;W[el];B[bl];W[bm];B[bk];W[bn];B[cp];W[cq];B[bo];W[cm];B[bq]
;W[cr];B[do];W[ep];B[fm])
(;W[bk];B[bj];W[bl];B[ci];W[bp];B[el];W[em];B[fm];W[dm];B[fl]
;W[fn];B[gn];W[fo];B[fe])))
(;B[cq];W[cp];B[dq];W[ep];B[bp];W[bo];B[bq];W[co];B[fq];W[cg]
C[Now the balance has shifted to white.  Blacks upper left is weak an white has a good position in the center if black attacks the right,.]
))
(;B[dm]
(;W[fp];B[cp];W[cq];B[co];W[bq];B[mn]LB[jh:D][mj:C][gp:A][ip:B]
C[Black is a little thin on the left, but with the weak white group it is not a problem at this time.  Black is ahead in territory so does not need a lot from the left.  He can aim at 'A' and 'B' at the bottom, in addition to taking gote to secure the left so the prospects are very good.  If White does not reenforce the weak group Black has either 'C' or 'D' depending on how white plays.]
)
(;W[co]LB[mn:B][fp:A]C[This move is harder to deal with than white 'A', but it gives Black a promising position when he turns at 'B'.]
)))
(;B[fd];W[fc];B[cc];W[cb];B[dd];W[ec];B[bc]))
(;B[mn];W[nn];B[on];W[nm];B[ln];W[op];B[oo];W[po];B[pn];W[qo]
;B[rp];W[qn];B[pm];W[rm];B[rn];W[ro];B[so];W[sn];B[sp];W[rl]
;B[qp];W[rn];B[rk]))
(;B[qi]
(;W[qk];B[pi];W[qn];B[qo];W[pn];B[oo];W[nm];B[mo];W[nk];B[mi]
;W[lm];B[oq])
(;W[ri];B[rh];W[qh];B[pi];W[rg];B[rj];W[sh];B[qk];W[og];B[qf]
;W[ph];B[ni];W[mg];B[li];W[kg];B[nf];W[ng];B[np];W[mp];B[no]
;W[oq];B[pq])))
(;B[nb];W[nc];B[od];W[mb];B[pb];W[na];B[qb]))
