(;FF[4]GM[1]SZ[19]ST[2]CA[UTF-8]AP[SGFC:1.13b]

PB[Druglord]
BR[26k]
PW[ignaciot]
WR[29k]
KM[5.5]
DT[2002-08-14]
PC[The Kiseido Go Server (KGS) at http://kgs.kiseido.com/]
RE[B+Resign]
TM[1800]
OT[5x30 byo-yomi]
RU[Japanese]
US[Ignacio Tripodi]

C[I'm at a begginner level, don't really know my rank (maybe you could give me an estimate after looking at the game). I guess the big mistake about this match was not connecting the two main groups and not invading when I should, and playing too defensively ([cowardly?\]). Any advice, comment or correction is accepted. Thanks a lot for your time.

I played with the white stones on this game.

I'm andre, about 14k in strength, i'll do my best in reviewing your game. I've already take a quick look. it seems that black player is not 30k in strength. Probably 26k. My english is not quite good, hope you can understand.

Basic principle :
- At opening sequence, always play for big points
- Don't make early territory
- Don't touch your opponent's stone unless your group is weak
- Touch fight will make both side stronger
- GO is a game about searching/identifying/playing big points and vital points
- Don't create a huge single sided wall, build the other sides too to create large moyo
- During end games, don't play on dame points. But ensure connections
- Don't play endgame moves during midgame

My suggestion for you to improve yourself :
- Learn all basics first (fuseki, joseki, live&death)
- Learn basic principle (you can learn his from GTL's review and Wings GO Club's review)
- Play as many as you can and get reviewed, learn from your mistakes
- Don't be afraid to experiment new moves, the fun of go resides on trying new moves
- Best players is not the one that never makes mistakes but ones that learn from his and others' mistakes

Hope this helps,

-Andre-]
(;B[pp];W[dd];B[pd];W[dp]SQ[dd][pd][dp][pp]C[It 's alright to play opening at hoshi, but you should know what you aim. Hoshi point is flexible, a stone at it can invade to centre, side and secure corner. Its negative side is that it is weaker than other points. A double attack at hoshi point weaken that point badly. I'll give you an example.]
;B[fc]
(;W[dc]C[was that protective move too premature?

Yes, and it is small. see variation.];B[ic];W[ej]SQ[qm][pn]
[qn][np][mq][nq]C[Instead this move, i recommend attacking Black's corner position to gain better position. Either one of the position marked square is fine.]
;B[fq];W[hp]TR[jq][kq]SQ[cm][pn][nq]C[Was K3/L3 better in this move?

It depends wether you need influence or territory, a move at line 4 means you take influence over territory and a move at line 3 has the opposite meaning

I myself prefer L3 in this situation. You have so little territory compared to black.
Or a move at C7 to defend your corner and attack Q4 at O3 or Q6]
;B[fo]
(;W[fp]SQ[dn]C[That cut on F4 was never going to work, right?

Don't touch opponent's stone unless your group is weak, D6 is better.]

(;B[dq]SQ[cq]C[This move is weak, see variation.

Instead, it is better to advance to C3.]
(;W[ep];B[eq];W[nq];B[pn];W[gq];B[cq];W[cp];B[bp];W[bo];B[gr]

(;W[bq]SQ[hr]C[This move is small, it looks like black is abandonining his small left area to advance to bottom right area, I recommend placing the stone H2 (32 points worth).]
;B[hq]
(;W[go]LB[gp:A]C[was that a good move? or should have been better to secure the group at A?

A move at G5 is to challenge your opponent  to a ko fight but in this case your position is weak, you should play at A]
;B[iq];W[ip];B[jq]C[I gues by this point I should have started playing in the right area (like  Q10 or Q11)]
;W[kp];B[no]
(;W[lq];B[qq];W[kq]C[This move is over protective and useless, K4 is better to make connection between groups and shut black group so he cannot advance to centre]
;B[jp];W[jo];B[jr];W[kr];B[br];W[ap];B[lo];W[ko];B[mp];W[mq]
;B[mc]C[Now B has almost the whole upper area  :(

not yet!! see next comment and watch the variation]
(;W[or]SQ[pr]C[Too small, Q2 is fine.
 But instead, how about attacking upper area to secure a huge moyo ?
you already has a wall at bottom area altough not quite strong but can be fortified later]
;B[pr]
(;W[ps]SQ[fe]C[This move usually occurs at endgame sequence, too small to play now. Your opponent can tenuki to play for bigger points, and the worst side is that you lost sente. You can play at F15 to secure centre area]
;B[qs];W[os];B[oq];W[mr];B[qk]TR[qf]SQ[pi]C[This move is small too, he should play at around R11 to secure more area and to defend an attack at R14]

(;W[ef]LB[gf:A][gg:B]C[Was it too risky to play at A or B to have a bigger moyo?

Yes, a position at either A or B is too weak. Black can cut.]
;B[gf];W[eh];B[gh]
(;W[ce]C[was that move too small/defensive?

What is the purpose of this move ? Black is making a wall to take middle area, but currently the wall has not yet finished  Your current position is weak, but there is still a chance to take some area on the middle.]
;B[gj];W[fn];B[fl];W[el];B[em];W[fm];B[ek];W[en];B[dl];W[ck]
;B[cl];W[dk];B[bl];W[bk];B[dn];W[fk];B[el];W[fj];B[gl];W[al]
;B[am];W[ak];B[bn];W[cm];B[cn];W[ao];B[gm]
(;W[gn]C[This move is unnecessary];B[do];W[eo];B[an]C[I guess that was an unnecessary move, considering all the free area to be played in the upper-right.]
;W[js];B[is];W[ks];B[hr]
(;W[ci]C[Is there really a need to play my stones in that upper-left area that seems to be under my domain?

No need, unless you make mistake];B[hn];W[io];B[hl];W[fi];B[ho]
;W[gp];B[im];W[in];B[hm];W[gk];B[hk];W[jm];B[hi]C[Now it seems that the connection between the two big groups is impossible.

Why do tjese group needs connection ?
Only weak groups need connection, these group already has base

You should concentrate on destroying black's large moyo at centre]

(;W[dg]C[What's this move's purpose ?

If you need defense, try attacking and gain shape points by kikashi]
;B[lm];W[jl];B[jk];W[op];B[oo];W[pq];B[qr];W[oq];B[kl];W[fe]
;B[ge];W[gd];B[hd];W[gc];B[gb];W[fd];B[hc];W[fb];B[ga];W[fa]
;B[hb];W[ec]C[I admit it: that move wasn't needed and it's just a product of pure anger   >:(

Dumb move.

Think with clear head, which move can exploit big points, I myself prefer invading at R17]
;B[qc];W[fg];B[ln];W[kn];B[ik];W[gi];B[hj];W[gg];B[hg];W[qp]
;B[rp];W[po];B[qo];W[pp];B[ro];W[np];B[rr]C[Another unnecessary moves by black]
;W[ff]C[During endgame moves, don't play at dame points. But ensure connections.

Instead of this move, how about making a move at A2 ? (4 points worth)
M4 (1 point)
L7 (1 point)
C5 (1 point)];B[qg]C[This is a paranoid move by black

white cannot attack and make eyes there if attacked properly]
;W[pi]C[By this time that I lost so much presence in the center/right area, is there any chance to keep on playing to gain some territory, or is the game considered to be lost already?

Unless black makes mistakes, the games can be considered lost already, this move should be played during fuseki, it's to late to play it now

No more reviews pass this point.];B[qi];W[pj];B[qj];W[pk];B[pl]
;W[ol];B[om];W[ql];B[pm];W[qm];B[qn];W[ph];B[qh];W[nm];B[nl]
;W[ok];B[nk];W[mm];B[ml];W[mn];B[mo];W[nj];B[oi];W[ni];B[oh]
;W[og];B[nh];W[mh];B[ng];W[oj]C[I guess from now on my moves are totally useless...]
;B[pg];W[lh];B[mg];W[kh];B[mi];W[mj];B[li];W[kj];B[lj];W[lk]
;B[mk];W[kk];B[ll];W[ki];B[lg];W[jh];B[kg];W[ih];B[hh];W[hf]
;B[he];W[if];B[ig];W[jg];B[jf];W[kf];B[ie]C[Black won by resignation.]
)
(;W[fg];B[gg];W[fe];B[ge];W[fd];B[gd];W[ec];B[gc];W[fb];B[gb]
;W[eb];B[fh];W[gi];B[hj];W[ff];B[fa];W[ea];B[ga]
(;W[lm];B[lk])
(;W[jk];B[ji];W[ml];B[mj];W[ol];B[pl];W[ok];B[oj];W[kj];B[ki]
;W[lj];B[li];W[pk];B[pj];W[pm];B[rk];W[qm];B[qn];W[rn];B[ro]
;W[rm]C[Watch the difference. Over 40 points and still counting.

Black's lower right group in bad shape, you can exploit his weakness for some points
and don't forget that you can invade at 3-3 point at R13 that will reduce 20 points more]
)))
(;B[dj]
(;W[cj];B[di];W[ei]
(;B[ch];W[ci];B[dh];W[bh]
(;B[bi];W[cg];B[dg];W[eg])
(;B[dg];W[eg];B[df];W[de]))
(;B[ci];W[bi]))
(;W[di]C[Playing here to create a ladder is a mistake];B[cj]
;W[bj];B[ci];W[ch];B[bi];W[ai];B[aj])))
(;W[jm];B[gn];W[eo]))
(;W[gj];B[ii];W[ik];B[kj];W[km];B[ml];W[mm];B[nm];W[mn];B[mo]
;W[lm];B[nn];W[ll];B[mk];W[lk];B[lj])
(;W[hh]
(;B[hg];W[hi];B[gi];W[hj];B[gj];W[fl];B[hk];W[ji];B[gk];W[jk]
)
(;B[gg];W[hi])))
(;W[gf];B[ee];W[de]
(;B[df];W[cf];B[ef];W[ed];B[fd];W[fe]C[Instead killing  white's group, he gets cut and almost got killed]
)
(;B[ef];W[ed];B[fd];W[fe]))
(;W[qf];B[qh];W[qc];B[qd];W[pc];B[oc];W[rd];B[re];W[rb];B[qe]
;W[ob];B[nc];W[nb];B[mb];W[rf];B[se];W[pf];B[od];W[of];B[mf]
;W[oh];B[pi];W[ni];B[ok];W[ki]))
(;W[fe];B[he];W[gg];B[ji];W[jg];B[kl];W[lg];B[ni];W[ik]))
(;W[fe];B[gd];W[hf];B[mi]C[Black can make a stronghold here and prepare to prevent the completion of white's wall]
;W[il]C[And white can make a strong hold here too

without M5's presence and lower wall's lack of strength, this move can be played at M9]
))
(;W[jp];B[fe];W[eg];B[gg];W[qc]TR[ic][pd][pn]C[Now is the time to invade at 3-3 point at upper right corner. This invation usually occurs when opponent's stone at hoshi has wings. This invasions' goal is to reduce opponent's territory while adding to your own. This kind of invasion cannot be killed]
;B[qd];W[pc];B[od];W[oc];B[md];W[nc];B[nd]))
(;W[gp]
(;B[iq]C[If he insist on playing at this point];W[hr];B[ir]
;W[fr];B[hs];W[er];B[dr];W[ds];B[fs];W[cr])
(;B[hr];W[kq])))
(;W[hr];B[gs];W[bq]C[You can take this stone now and try killing this black group]
;B[br];W[aq];B[dr]C[Black must make a move here to ensure this group's safety]
))
(;W[eq];B[er];W[ep];B[gr];W[gq];B[fr];W[hr];B[cq];W[bp];B[bq]
;W[cp]SQ[cj][lq]C[Black gets shut, bad for black.

White can advance either to right side or middle left]))
(;B[cq]
(;W[cp];B[dq])
(;W[dq]C[This is a mistake, black gets cut but black can advance to middle left side]
;B[cp]
(;W[do];B[co];W[dm];B[cn];W[dn])
(;W[co];B[bo];W[cn];B[bn];W[bm];B[dr]
(;W[eo])
(;W[er];B[cr];W[eq])))))
(;W[dn];B[lq]
(;W[hn];B[ir])
(;W[hr];B[hn];W[jo];B[lo];W[fr];B[er];W[gq];B[eq];W[kr])))
(;W[gq]SQ[dp][gq]C[Here white tenuki to make a shimari];B[cf]

(;W[ee]C[Kosumi attack];B[cc];W[dc];B[cd];W[hc];B[gd];W[kc]
;B[gf];W[eg]C[Although white can make a base at H17-L17, white's group at D17 was forced to flee while attacking black's G16 group]
)
(;W[fd]C[Since white is weak, he touch black stones to make his group stronger.

Remember :
Do not touch what you're attacking, unless your group is weak]
;B[gd];W[fe];B[ec];W[dc];B[ge];W[df];B[dg];W[ce];B[bf]C[White's position secured and easy to make eyes.]
))
(;W[cg])
(;W[nq]C[It is alright to tenuki and make and approach to opponent's corner to prevent him doing shimari.]
;B[jq]
(;W[cg];B[cn];W[co];B[dn];W[cj];B[gq];W[eq]C[This move secures corner]
)
(;W[qk];B[on];W[qf];B[mc];W[mo])))
(;B[dq]
(;W[cd];B[qp];W[pc]C[classic honinbo's style of opening])
(;W[co];B[ce];W[oq];B[ep];W[dm]C["Answer kosumi with a keima"]
;B[cj]SQ[dm][co]C[Black attacks white group];W[iq]C[white attacks black group in exchange, current position is even]
;B[pd];W[nc];B[qg];W[dc];B[po];W[qp];B[qn];W[ee];B[df];W[ne]
;B[ej];W[cl];B[gq]C[An example of opening])))
