(;FF[4]GM[1]SZ[19]AP[SGFC:1.13b]

PB[Beto]
BR[12k*]
HA[0]
PW[markland]
WR[11k*]
KM[0.5]
DT[2002-08-29]

;B[dq];W[dd];B[qp];W[do];B[fq];W[cp];B[br]C[C3 is better.______]
;W[qd];B[cm];W[ep];B[eq];W[cn];B[dm];W[bm];B[bl];W[bn];B[fp]
C[Good.];W[bk];B[ck];W[al]C[You can play B.]
(;B[cj];W[cl];B[dl];W[bj];B[ch]C[Over playing.]
(;W[cf];B[bi];W[aj];B[eo];W[bq];B[dp];W[cr];B[cq];W[bp];B[fc]
;W[dc];B[bg]C[Bad move.___White is arive in Tenuki.___B35 is weak. White can play G16 or H17.___]
;W[fe];B[hc];W[jc];B[ge];W[gf];B[he];W[ef];B[hf];W[id];B[ib]
;W[jb];B[eb];W[db];B[gg]C[W44,46,48 are bad move.___Now he shuld play around O17.___]

(;W[ff]C[White's shape is bad, named Jingasa.];B[nc];W[hg];B[ig]
;W[hh];B[jf];W[fh]C[What happend ?___It can said that white had killed himself...]
;B[qb];W[mb];B[mc];W[nb];B[ob];W[lc];B[pc];W[qg]C[Maybe by M16, you can kill white in upper.___Locally B is better, as white in right is weak.]

(;B[qk];W[op];B[pq]C[Your infulense in botom left is very large. So Hasami around M4 is better.]
;W[qn]C[P9 is no worth. R9 is strong, as white is weak.]
(;B[ok];W[oq];B[rr]C[Why not Q5?];W[pl]C[R11 is better. Motare]
;B[pk];W[kp];B[jq];W[kq];B[jp];W[pp];B[pr];W[qo];B[rp];W[or]
C[White maked good shape. You should played more strongly.]
;B[rm]C[No worth.];W[ri];B[ol];W[rc];B[rb];W[qm];B[ql];W[rn]
;B[sl];W[nn];B[jo];W[hm]C[In these case, do not difence. Attack!]

(;B[ho];W[fm]
(;B[en];W[ld];B[ji]C[No worth.___Maybe L5 is biggest.];W[dk]
;B[dj];W[ek];B[eh];W[dg];B[ej];W[fj];B[fk];W[el];B[fi];W[gj]
;B[gi];W[em];B[dn];W[gh];B[hj];W[gk];B[hk];W[gl];B[hi];W[gn]
;B[ih];W[fg];B[hl];W[im];B[jl];W[il];B[jk];W[jm];B[kn];W[km]
;B[ln];W[go];B[gp];W[hn]C[Why ?]
(;B[io];W[fn];B[na];W[la];B[ad];W[bf];B[af];W[be];B[ae];W[bc]
;B[ac];W[bb];B[pg];W[pf];B[qh];W[rh];B[qf];W[rg];B[of];W[pe]
;B[oh];W[ng];B[og];W[lf];B[nh];W[mg];B[li];W[kr]C[By L18 white is dead.]
;B[jr];W[mo];B[ar];W[aq];B[dr];W[co];B[ll];W[ie];B[if];W[ke]
;B[nm];W[od];B[pa];W[oc];B[qc];W[rd];B[qi];W[rj];B[qj];W[gb]
;B[gc];W[fb];B[ec];W[hb];B[ic];W[ia];B[ha];W[ga];B[ea];W[ja]
;B[fa];W[ha]C[L1 is large.];B[da];W[ca];B[je];W[jd];B[kf];W[ne]
;B[oe];W[pd];B[on];W[pm];B[om];W[oo];B[pn];W[po];B[lo];W[lp]
;B[mp]C[?];W[mq];B[mn];W[no];B[lh];W[lm];B[ml];W[kl];B[kk];W[ik]
;B[ij];W[mh];B[mi];W[lg];B[kg];W[dh];B[di];W[ab];B[ai];W[bl]
;B[ag];W[rk];B[rl];W[js];B[is];W[ks];B[hr];W[fo];B[ep];W[nf]
;B[sb];W[sc];B[os];W[ns];B[ps];W[sk];B[bd];W[cd];B[cg];W[ed]
;B[fd];W[hd];B[gd];W[ma];B[oa];W[eg];B[ei];W[so];B[sp];W[mm]
;B[ko];W[tt];B[nr];W[ms];B[mr];W[ls];B[lr];W[np];B[ro];W[sn]
C[ The reason of your lose is that you did not kill the stones you can kill.___ Even if you can not kill oponent stones, you can press them in sente. After oponent added stones, this right is lost.___]
)
(;B[fn];W[hp];B[io];W[hq];B[ir]C[Maybe white is dead.___]))
(;B[gl];W[gm];B[ik]C[Attack!___]))
(;B[hk];W[jm];B[ko]C[White can not invade more.___You can invade his teritory.___]
))
(;B[mp];W[ok];B[pl];W[om];B[ol];W[nl];B[nm];W[nk];B[pn]C[One example.___]
))
(;B[qi];W[qk];B[ph];W[pg];B[oh]C[___]))
(;W[nc];B[ff]C[This result is nearly even.___Whait plays badly. But first mistake of black is very Large.___]
))
(;W[ci];B[di];W[bi];B[dh];W[dj];B[bl];W[dk]C[___];B[cl];W[fk]
C[Difficult.___]))
(;B[bj];W[cl];B[dl]
(;W[bl];B[cj];W[bq]C[Osae.])
(;W[cj];B[bl]C[There is no Ko threat.];W[cq];B[ak];W[cr];B[jq]
C[Infulense of Ponnuki is very large. ___])))
