(;FF[4]GM[1]SZ[19]AP[SGFC:1.13b]

GN[sweetpea-Florreke(B) IGS]
PB[Florreke]
BR[21k*]
PW[sweetpea]
WR[20k*]
KM[0.5]
DT[2002-09-06]
PC[IGS: igs.joyjoy.net 6969]
RE[W+31.5]
TM[60]
US[Brought to you by IGS]

C[
sweetpea(W, 20k) vs. Florreke (B,21k)

white won (W+31.5)   review requested by Florreke


Rolf -   Thanks for giving me the opportunity to review your game.  Keep in mind that I am far from a Dan level player, so take the advice for what it is worth :-)

If you have any questions on the comments I made I would be glad to answer them or give you additional comments on any new issues that you may have.    Overall I thought you played a good game.  White did a good job of playing under you in the areas in which you were trying to secure territory on the sides and still prevented you from controlling the center.  However, you gave up sente a little too often for moves that were not urgent.

Please forgive the many typos, as I was short of proofreading time and I'm a lousy typist.

-Barry];B[pp];W[dp];B[qd];W[dd];B[fc];W[jp];B[cc];W[cd];B[dc]
;W[ed];B[ec]C[Maybe G17 had been =
better than E17.

[bw\]
E17 wasn't a bad move and G17 would not  have  been especially helpful in view of how the game developed.

However, I probably would have played my third move in the top right corner at either o17 or p16.]
;W[od];B[oc];W[nc];B[pc];W[md]C[[bw\]
Your next move here is at j17.  This is probably a too conservative and allows white to settle his group easily. (see var)]

(;B[ic]C[J17 to give the white N16 group less =
room to develop.
[bw\]
Good thinking.  However, it allows white an easy extension to settle his group. see var]
;W[kc];B[qf]C[[bw\]
I originally thought that that r14 was too close of an extension for this scenario and thought  Q14 or r13 would have been better.   Maybe even q10.  However, the pattern that black played was joseki, so I am not sure my suggestions are valid. ........

In looking forward several moves, your moves were nice and solid; however, they all set up strong moves for your opponent.  Try to use moves that threaten your opponents plans at the same time.]
;W[qk];B[qm];W[qh];B[cn]C[[bw\]
I don't think I like this move; however, I'm not sure of better alternatives at this point.   This move allows white to settle both his groups easily.]
;W[fq];B[ck]C[C9 is solid, but maybe D1=
0 had been bigger.

[bw\]

yes but it would have left you open to an invasion];W[ch];B[lq]
;W[kq];B[lp]C[M4 good ? R3 better ?

I think m4 is good.  While r3 would protect your corner, it would also allow white to make great shape by taking m4 and your move at m3 would hav every little value. (see var)]
;W[qq]
(;B[qp];W[pq];B[oq];W[or];B[nr];W[pr]C[[bw\] Your next move is s3.  I think your best move at this point would have been to move at o4 or o3 to preven white from linking up on the bottom.  White will live in the corner, but don't let him link up.  It also would have had the advantage of building some influence on the right side.]

(;B[rq];W[rr];B[rp];W[nq];B[op];W[mr];B[np];W[ns];B[pk];W[ql]
;B[pl];W[rm]C[[bw\]
It seems like you were a little soft on this side and white walked away with a lot of territory.  I have included a couple of possible variations for you consideration.  You have a lot of influence with your wall and you have to keep that in find when thinking on how to respond to attacks in that area.
see var.]
(;B[qn];W[rn];B[qj];W[rj];B[pj];W[ri];B[bp];W[cq];B[bq];W[eh]
;B[di]C[
[bw\]
Hmm.... I  don't think this move advanced your position enough.  It just allowed white to strengthen his position and leave him with  a great move at b10.]
;W[dh];B[hf]C[Good idea getting out into the center.  However, ou may want to consider trying to utilize the influence you built up in the lower right.  Perhaps a move at k7 or k10.]
;W[kf];B[kd];W[ld];B[jc];W[lc];B[je]C[[bw\]I think this move was a little too defensive and it allows white to build some influence in sente, which is never good.]
;W[ke];B[jd];W[ff];B[kn]C[[bw\] l9 ara would have been better because it utilizes the influence better.]
;W[lk];B[lj];W[kj];B[mk];W[li];B[mj];W[kh]C[Your next move was at m8.  I think l9 would have been better.  It makes a few points difference and those things add up.]

(;B[ll];W[kk]
(;B[gp]C[G4 was meant to separate the K4 stones from the F3 stones, but maybe J4 h=
ad been a better a idea to accomplish that.
[bw\]
I don't think j4 would ended in a better result in unless white made a mistake.  I have included several variations on cuts for you to think about.

However, as a general rule you should not try to cut  groups of stones that could each live individually as a group, which I think is the case here.

The best scenario for this type of cut would have been  if you had steered white to the right at the corner by taking q3 instead of r4.  This would have allowed white a few more points on the right but would have set up an attack on the 2 white stones at k4 and l3 since they could not have linked up with white bottom right group.]
;W[gq];B[dr];W[cr];B[eq];W[ep];B[hp];W[hq];B[ip];W[iq];B[fp]
C[[bw\]This cut  was a wasted move.  Your stones at e3 can easily be captured to connect the white groups, so your move is really not a threat.]
;W[en];B[fn];W[em];B[gm];W[jm];B[jn];W[km];B[lm];W[bj];B[cj]
;W[bi];B[el];W[fl];B[fk];W[ek];B[dl];W[gk];B[fj];W[gj];B[gl]
;W[fi];B[fm];W[ej]
(;B[fl]C[While trying to seal in the E6 group, white takes=
 the center. I think that it had been better to go for the center myself.
[bw\]
No need to connect here.  If white takes the two stones you can immediately take the one back.  I think it would be better to keep sente.  Perhaps a move at p14]
;W[ei];B[gh];W[gi];B[do];W[eo];B[jg];W[jh];B[ih];W[ii];B[hh]
;W[mi];B[ph];W[ni];B[oe];W[ne];B[of];W[nf];B[oh];W[nh];B[nj]
;W[rg];B[rf];W[sf];B[se];W[sg];B[rd];W[ob];B[pb];W[nb];B[fe]
C[F15 ??  Had to be B16. Or F16.

[bw\]
Yes I think you are right.  Either of those moves would have been better.  However, b16 is much bigger.  b16 is probably worth at least a 10 pt difference.]
;W[ee]
(;B[gf]C[G14 ? Better F16.
[bw\]
Yes, right again.  :-)];W[bc]C[[bw\]I think you should have responded at b18.  It is worth more to stop white from rounding the corner than it is to protect your stone at f15.]
;B[fd];W[cb];B[db];W[bb];B[br];W[bs];B[cp];W[dq];B[er]C[E2 ?? Has to be B9 !  Sacrifice to seal in the white C2 group, but white =
responds with A7.
[bw\]
e2 does not gain you much.  You are still 2 stones behind in liberties.]
;W[am];B[bk]C[[bw\]I think b7 would have been better.  you have have kept sente.  It is seldom that the right response to a monkey jump is to drop straight down.]

(;W[ak];B[bm];W[an];B[ao];W[al];B[bn];W[hl];B[im];W[il];B[in]
;W[lr];B[ci];W[bg];B[fg];W[ef];B[eg];W[dg];B[kp];W[jo]C[I finished out this game playing for black.  I just did a quich run through for you to get an idea for some endgame moves that would have helped.  After I finished, white won by 3.5.]

(;B[jr]C[[bw\]
Good try, but there just isn't enough of an opening there for black to attack.   
One is ofter better off by trying to maximize endgame sente moves instead of desperation attacks.]
;W[jq];B[dm];W[fr];B[es];W[fs];B[dn];W[jf];B[if];W[jb];B[ib]
;W[ka];B[jl];W[kl];B[ij];W[hi];B[ji]C[K11 ? Now white takes sen=
te, making me lose another 10 points or so. The game is certainly over now.=
 I think I had to go for the center, instead of attacking the white groups,=
 making them stronger.
[bw\]Yes, I think your analysis is generally correct.

This last set of moves allowed white to take sente and sealed the game.

White did a good job of playing under you in the areas in which you were trying to secure territory on the sides and prevented you from controlling the center.  However, I belieive that the game was much closer than the final score indicated.]
;W[pa];B[qa];W[oa];B[qb];W[ia];B[ha];W[ja];B[hb];W[fh];B[gg]
;W[mq];B[mp];W[ko];B[ln]C[m2 would be better.  The cut is still protected.]
;W[lo];B[mo];W[hm];B[hn];W[ro];B[qo];W[sp];B[sq];W[so];B[fo]
;W[ds];B[ar];W[oi];B[qi];W[qg];B[pg];W[sk];B[pd];W[da];B[ea]
;W[ca];B[nd];W[ng];B[kg];W[lg];B[ig];W[pi];B[bl];W[aj];B[as]
;W[oj];B[ok];W[og];B[pf];W[io];B[ho];W[sr];B[cs];W[jk];B[bs]
;W[tt];B[tt];W[od];B[jj];W[ki];B[nd];W[tt];B[od])
(;B[ko];W[io];B[ho];W[jq];B[kl];W[jl];B[kg];W[lg];B[jf];W[lf]
;B[sr];W[da];B[ea];W[ca];B[oa];W[na];B[pa];W[pd];B[pe];W[nd]
;B[ro];W[fh];B[gg];W[hm];B[hn];W[dn];B[co];W[fr];B[fo];W[es]
;B[dm];W[ds];B[ar];W[jb];B[ib];W[kb];B[ja];W[ka];B[ia];W[ng]
;B[og];W[qg];B[pg];W[pi];B[oi];W[qi];B[mq];W[nr];B[rs];W[qr]
;B[ss];W[qs];B[sq];W[so];B[sp];W[sl];B[sn];W[sm];B[so];W[rk]
;B[bl];W[aj];B[hi];W[hj];B[as];W[cs]))
(;B[bm];W[ak];B[an];W[al]C[Now you would have had sente....]
))
(;B[bd];W[fd];B[gd];W[ge];B[he];W[gc];B[hd];W[be];B[bc]))
(;B[im];W[fl];B[fk]))
(;B[hq];W[hp];B[gp];W[gq];B[ip];W[ho];B[iq];W[io];B[jq];W[kp]
;B[kr];W[lr];B[ir];W[ks];B[js]C[Perhaps a ko fight...., but maybe not]
;W[jr];B[cr];W[is];B[dq])
(;B[ip];W[iq];B[hq];W[hp];B[io]
(;W[gq];B[hr];W[gp];B[ir];W[jq];B[kr];W[jr];B[lr];W[jo];B[in]
;W[jn];B[jm];W[im];B[hm];W[il];B[hn];W[km];B[jl];W[kl];B[jk]
;W[jj];B[ik];W[hl];B[hk];W[gl];B[ko];W[gm];B[js];W[gn];B[kp]
)
(;W[hr];B[gq];W[gp];B[gr];W[fr];B[ir]))
(;B[iq]
(;W[jq];B[hp];W[ip];B[ho];W[hq];B[gq];W[hr];B[gr];W[ir];B[fp]
;W[fr];B[gs];W[ep];B[fo];W[eo];B[dr])
(;W[ip];B[jq];W[kp];B[hp];W[kr];B[gq];W[gr];B[fp];W[eq]C[This might have worked, but I think white had better responses than what I showed here.]
)))
(;B[kk];W[jk];B[kl];W[jl];B[jm];W[ll];B[km];W[jj];B[hk]))
(;B[rl];W[pm];B[qn];W[rk];B[rn];W[sl];B[pi];W[pj];B[oj];W[qj]
;B[nk]C[In this scenario you have sealed white in and utilized some of your influence  for gains in the center.]
)
(;B[qj]
(;W[pj];B[rj];W[pm];B[qn];W[ol];B[ok])
(;W[rj];B[pj];W[ri];B[rl];W[rk];B[rn];W[sl];B[pn]C[This scenario doesn't turn our great, but I think it is somewhat better than what happened in the game.]
)))
(;B[nq];W[rp];B[ro];W[rq];B[qn]))
(;B[pq];W[qp];B[qo];W[ro];B[rn];W[po];B[qn];W[rp];B[qr];W[rr]
;B[pr];W[sq];B[nn]))
(;B[lc];W[ld];B[nb];W[mb];B[mc];W[nd];B[lb];W[ob];B[ma];W[ic]
;B[kd];W[ke];B[jd];W[id];B[je]))
