(;FF[4]GM[1]SZ[19]ST[0]AP[SGFC:1.13b]VW[]

GN[StarShip-ddom(B) IGS]
PB[ddom]
BR[23k*]
HA[0]
PW[StarShip]
WR[6d*]
KM[5.5]
DT[2002-09-10]
PC[IGS:  igs.joyjoy.net 6969]
RE[W+9.5]
TM[600]
US[Brought to you by IGS]

C[Hello, I'm 23k on IGS and I played black in this game against
a 6d. It
was a very tight game and I'd like it to be reviewed to find
out what my
mistakes were.

Thanks for your service !

DE

Black plays very well. He plays in a solid fashion that means
it is a close game. As white is a much stronger player this is
very good. Black could have gained more at the beginning of the
game by playing his moyo strategy consistently rather than invading.
Also it is easier for Black if he plays solidly when white invades.
His cutting moves help white although black reads situations
well and keeps out of trouble.];B[pd];W[dp];B[pp];W[dd];B[pj]
;W[dj];B[jp];W[jd];B[fq];W[nc]C[Attaching to a weak stone is not a good idea. It helps white]

(;B[nd];W[md];B[ne];W[oc];B[pc];W[lc]
(;B[cq]C[At some point white could do something like this]
(;W[cp];B[dq];W[ep];B[fp];W[eq];B[er];W[dr];B[cr];W[fr];B[ds]
;W[fo];B[gr];W[en]C[At this stage black has played very well. If he invades then
it works against his strategy of building a moyo and inviting
white to invade and to then build territory while attacking so
carrying on building the moyo is blacks best option. I have put
in a few options for black]
(;B[cf];W[ce]
(;B[ef];W[fe]C[Black needs to play light here and not get heavy e 15 looks heavy
to me]
(;B[ee];W[ed]
(;B[gg]TR[gg]C[Mrked stone is too loose as white can cut];W[ff]
;B[fg];W[eg];B[eh];W[dg]
(;B[ej];W[dh];B[ek];W[dk];B[gf];W[ge];B[jf];W[he];B[me];W[le]
;B[lf];W[ei];B[fi];W[fh];B[gh];W[fj];B[eh];W[di];B[gj];W[fk]
;B[gk];W[fl];B[gl];W[fm];B[gm]C[Black plays very well here to build a very strong wall]
;W[od];B[oe];W[pe];B[pf]C[I like this move .. it is consistent with you wanting to consolidate
your moyo];W[qe];B[qf];W[rd];B[qd]C[Black plays well here .. good forcing moves leaving black with
sente];W[re];B[rf];W[pb]
(;B[nq]TR[nq]C[Marked stone allows invasion];W[qq];B[qp];W[rp]
;B[ro];W[rr]
(;B[qn];W[pq];B[oq];W[or];B[nr];W[go];B[ho];W[hp];B[io];W[mf]
;B[mg];W[kf];B[lg];W[kg];B[ke];W[je];B[ld];W[jg];B[if];W[hf]
;B[ig];W[hg];B[ih];W[hh];B[hi];W[jq]C[
 rosego 16k*:  why recently so many 6d play with single or 1x
or 2x kyu players ?];B[ip]C[
 lakeland 3k*:  because Panda Cup];W[gq];B[hq]C[
 rosego 16k*:  oh .... it's pitty to hear that ...];W[gp]C[
 lakeland 3k*:  why? you thought they were teaching?
 rosego 16k*:  just want to get higher marks from it ?];B[hr]
;W[fs]C[
 rosego 16k*:  I don't know ... but just find it's common recently
...
 lakeland 3k*:  they have no choice
 lakeland 3k*:  if they don't and the other 6d does, they lose
the cup];B[iq];W[kd];B[le]C[
 rosego 16k*:  what do you mean by no choice ? only want to get
higher marks in this way ?..pity..];W[mc]C[Black handles the pushing moves by white very well. He plays
solidly];B[es]C[
 lakeland 3k*:  btw, have you scored? if b's moyo turns into
territory then b wins, right!?];W[bp];B[bq];W[qj]C[
 rosego 16k*:  I usually feel that those 6d will ignore and don't
care and look down upon those single or 1x or 2x kyu .....
 lakeland 3k*:  this would be hard for me to kill, much hard
for 23k
 rosego 16k*:  why they have to do in this way in order to win
? is this honour ?
 lakeland 3k*:  white? if w didn't play R10 then b wins]
(;B[pi];W[pk];B[qk];W[ql];B[rk];W[rl];B[rj];W[pm]C[
 rosego 16k*:  definite w will not just let b get all there ...
 rosego 16k*:  definitely w will not just let b get all there
...];B[ol]C[
 lakeland 3k*:  can w stop b??
 rosego 16k*:  is this honour for 6d players to get high marks
and win in this way ?];W[om]C[
 lakeland 3k*:  hmmm, I don't know];B[ok];W[nl]C[
 rosego 16k*:  seems that the people just care to win and in
order to win can just care nothing....
 lakeland 3k*:  hmmm, almost.  RoseDuke reviewed the game with
me after he crushed me, I thought that was nice


In these kinds of situations where black is overwhelmingly stronger
in the local situation you want to avoid cutting white but rather
just keep pushing him into a solid clump. When you cut it creates
complications that white can exploit]
(;B[nm];W[nn];B[mm]C[
 rosego 16k*:  anyway ....];W[mn]C[
 rosego 16k*:  anyway .... w must be able to get something there.
 lakeland 3k*:  why?];B[on]C[
 lakeland 3k*:  I think b is doing fine at killing
 rosego 16k*:  oh ......... it's not about panda cup ....];W[mk]
C[
 rosego 16k*:  there's no hc in this game.
 lakeland 3k*:  m7 and b escapes and w dies];B[lm];W[ln]C[
 lakeland 3k*:  seems L7 best
 HSIANG NR : b may be ddom's teacher
 lakeland 3k*:  I don't think so, b played well against me but
made one 80 point mistake
 lakeland 3k*:  I bet w plays p4 next ;-)];B[lk];W[op]C[
 lakeland 3k*:  what do I win? ;-)
 lakeland 3k*:  b can even play o4 now (just)];B[oo]C[
 lakeland 3k*:  so far b is fine...];W[np]C[
 lakeland 3k*:  now q6];B[pn];W[pl];B[nk]C[
 lakeland 3k*:  ugly shape but it works];W[rm];B[rn];W[lq]C[
 lakeland 3k*:  please q2... :-)
 lakeland 3k*:  w can't n2 after p1];B[mp];W[no];B[mq]C[
 lakeland 3k*:  seems q2 still the best];W[km]C[
 lakeland 3k*:  n8 seems most honte];B[ll];W[lp]C[
 lakeland 3k*:  q2q2q2q2
 lakeland 3k*:  b should still win this fight];B[lo]C[
 lakeland 3k*:  I don't think b can be being played by his teacher,
because the teacher would play this fight faster];W[ko];B[mo]
;W[kn];B[lr];W[ns];B[mr];W[kp];B[jr];W[mj];B[lj];W[oj];B[ml]
;W[mi];B[lh];W[li];B[ki];W[kj];B[kk];W[jj];B[jk];W[ik];B[jl]
;W[il];B[jm];W[im];B[jn];W[ii]C[
 lakeland 3k*:  k11
 lakeland 3k*:  please k11...];B[jh]C[
 lakeland 3k*:  well, that'll do :-)];W[hj];B[gi];W[in];B[jo]
;W[gn]C[
 lakeland 3k*:  seems not seki];B[hn];W[hm]C[
 lakeland 3k*:  seems w dies];B[ji];W[sf];B[sg];W[ij];B[hk]
C[
 lakeland 3k*:  if w gets q2 then I think w wins];W[se];B[rg]
;W[ls];B[ks];W[pr];B[ms];W[so];B[sn];W[sp];B[sl];W[os];B[gs]
;W[fq]
(;B[an];W[aq];B[ar];W[ie];B[hl];W[ap];B[fh];TB[as][br][bs][cs]
[dr][hj][hm][hs][ii][ij][ik][il][im][in][ir][is][jg][jj][jq]
[js][kf][kg][kh][kj][kl][km][kn][ko][kp][kq][kr][li][ln][lp]
[lq][ls][mf][mh][mi][mj][mk][mn][nf][ng][nh][ni][nj][nl][nn]
[no][np][of][og][oh][oi][oj][om][op][pg][ph][pk][pl][pm][po]
[qg][qh][qi][qj][ql][qm][qo][rh][ri][rl][rm][sh][si][sj][sk]
[sm]TW[aa][ab][ac][ad][ae][af][ag][ah][ai][aj][ak][al][am][an]
[ao][ba][bb][bc][bd][be][bf][bg][bh][bi][bj][bk][bl][bm][bn]
[bo][ca][cb][cc][cd][cf][cg][ch][ci][cj][ck][cl][cm][cn][co]
[da][db][dc][de][df][dl][dm][dn][do][ea][eb][ec][ee][ef][ej]
[ek][el][em][eo][fa][fb][fc][fd][fn][fp][ga][gb][gc][gd][ha]
[hb][hc][hd][ia][ib][ic][id][ja][jb][jc][ka][kb][kc][la][lb]
[ma][mb][na][nb][oa][ob][pa][pc][pd][ps][qa][qb][qc][qd][qr]
[qs][ra][rb][rc][rq][rs][sa][sb][sc][sd][sq][sr][ss])
(;B[ap];W[ao];B[aq];W[bn]C[This is better]))
(;B[nn];W[nm];B[mn]C[White will not live]))
(;B[pk];W[pi]
(;B[oh];W[of])
(;B[qk]C[Maybe this way is better as there is less space for white]
)))
(;B[sp]
(;W[rq];B[pq])
(;W[sq];B[so];W[or];B[nr];W[oq]
(;B[pq])
(;B[op];W[pq];B[hp]C[I think this is better]))))
(;B[qp]C[I think this is better])
(;B[oq]))
(;B[dh]C[This is sente];W[cg];B[ch];W[bg];B[fi]C[Looks better for black than what happened]
))
(;B[di];W[ej];B[fh]))
(;B[ei];W[ej];B[fg]C[Play light to make shape]))
(;B[df];W[fd];B[dh];W[ci];B[gg]C[This is usual]))
(;B[jj])
(;B[ho])
(;B[lf]))
(;W[od];B[oe];W[pe];B[qe];W[pf];B[qf];W[og]))
(;B[pf]C[This is usual]))
(;B[ne]C[I think this is better])
(;B[pf]))
