(;FF[4]GM[1]SZ[19]CA[UTF-8]AP[SGFC:1.13b]

PB[ddyer]
PW[bobc]
KM[0]
DT[2002-10-01]
PC[The Kiseido Go Server (KGS) at http://kgs.kiseido.com/]
RE[W+6.00]
RU[Japanese]

;B[pd]C[bobc [?\]: you get black again (until you win two in a row), right?]
;W[dp]C[ddyer [?\]: right];B[dd];W[pp];B[nq];W[oq]
(;B[fp]TR[nq][oq][pp]C[It is *very* uncommon to play in the marked position tenuki. The reason is shown in the variation. The normal continuation in Var. of the previous move.]

(;W[jp];B[lp]LB[nq:A][np:B]C[If the last move were already played, but not 'A'. Would you play 'A' now? Surely not! This question is called tewari-analysis: Changing the order of moves. If there is a really and obvious odd move after changing the order, there must be something wrong in the whole sequence. In this case, still 'B' is better than the move played.]
;W[jn];B[dq]TR[fp]C[Making a base for the marked stone is ok.]
;W[cq];B[eq];W[cr];B[cp];W[bp];B[co];W[bo];B[dr]LB[cn:A]C['A' is more important. w gets some real nice forcing moves there.]
;W[cn];B[do];W[dn];B[eo];W[cj];B[ch];W[fc];B[ec];W[fe];B[fb]
;W[gb]C[Overplay, see var.]
(;B[eb];W[gc];B[jc];W[nc];B[oc];W[ne];B[je];W[df];B[cf];W[cg]
;B[bg];W[ce];B[dg]TR[ch][bg][cf][dg]C[Breaking into the side isn't small. but the 4 marked stones form a ponnuki which isn't small either. So, the result is ok.]
;W[de];B[cd];W[be];B[bd];W[eg];B[eh];W[fg];B[bf];W[ad];B[ac]
;W[ae];B[bb];W[qf]
(;B[nd]C[It is important to connect your stones. See var. how to achive this goal here.]
;W[md];B[od];W[le];B[mc];W[lc];B[mb];W[lb];B[nb];W[kg];B[ig]

(;W[jf]C[You see, now you have a problem...];B[if];W[ie];B[kd]
;W[ld];B[he];W[id];B[hd];W[ic];B[hc];W[ib];B[hb];W[ha];B[ee]
C[bobc [?\]: i was considering running you out instead of cuttingyou off up there.
ddyer [?\]: this could have been worse
ddyer [?\]: but wasn't too good for me];W[ef];B[ed];W[fd];B[gf]
;W[ff];B[jh];W[ke];B[jl];W[kq];B[iq]TR[lp][nq]C[Ok, forgetting the marked stones for the time being is maybe the best you can do there.]
;W[ip];B[hp];W[ho];B[gp];W[rd];B[qc];W[rc];B[rb];W[qd];B[qb]
;W[nr];B[lq]LB[qk:A]C[It is still best to forget about them and save them maybe for later. If w plays correct, you get a heavy, eyless group. A good move now is an invasion on the right side, maybe 'A'.]
;W[lr];B[mr]
(;W[kr]C[Mistake, see var. of previous move.];B[or];W[pr];B[ns]
;W[np];B[mp];W[no];B[kn];W[kp];B[lo];W[ko];B[km];W[hm]C[bobc [?\]: wanted to think it over a bit more...]
;B[in]C[Well, no comment...

Or, maybe one: You shouldn't try to kill as hard as you can.]
;W[im];B[jm];W[jo];B[fm];W[ir];B[hr];W[is];B[hs];W[jq];B[hq]
;W[ej];B[gj];W[dl];B[bi];W[bj];B[di]LB[cg:A][bh:B]C[why? This group has already two real eyes at 'A' and 'B'.]
;W[qp]
(;B[qh]C[see var. of previous move.];W[of];B[nm];W[kh];B[ki]
;W[li];B[jg];W[kf];B[kj];W[mn];B[ln];W[lj];B[qn]TR[qh]LB[qk:A]
[ql:B][qm:C]C[This move is too close to the w's strengths, like the marked move. Here, 'A' or 'B' are better, Maybe 'C' is ok too, but it lacks connection with the marked stone. See var.]

(;W[ro];B[rn];W[pj];B[qj];W[qk];B[pi];W[oj];B[pk];W[sn];B[sm]
;W[so];B[rl];W[rg];B[rh];W[ok];B[pl];W[ol];B[pm];W[oi];B[oh]
;W[nh];B[og];W[ng];B[qg];W[rf];B[lk];W[mk];B[gh];W[gg];B[hg]
;W[hk];B[ik];W[hj];B[hl];W[gk];B[gm];W[gn];B[fk];W[gl];B[il]
C[ddyer [?\]: tight corner herer];W[fl];B[dk];W[ek];B[dj];W[ck]
;B[fj];W[em];B[ei];W[el];B[fh];W[fn];B[cs];W[br];B[oo];W[op]
;B[ml];W[nl];B[mm];W[hi]C[ddyer [?\]: I don't really see anything obvious, do you?
bobc [?\]: machine crased..just got back
ddyer [?\]: I was turning over to you for comment
bobc [?\]: let me look at the top where i was thinking of running your group.]
;B[ij];W[gi];B[fi];W[kk];B[ll];W[ji];B[jj];W[ii];B[hh];W[pg]
;B[ph];W[pf];B[mj];W[nk];B[om];W[mi];B[rj];W[po];B[on];W[ai]
;B[ah];W[aj];B[ci];W[fa];B[ea];W[ga];B[qr];W[ps];B[qq];W[pq]
;B[qo];W[rq];B[sq];W[sr];B[bs];W[ar];B[la];W[ka];B[ma];W[jb]
;B[sc];W[sd];B[sb];W[ls];B[ms];W[sh];B[si];W[sg];B[os];W[rr]
;B[mo];W[nn];B[af];W[ge];B[hf];W[en];B[fo];W[go];B[pe];W[qe]
;TB[aa][ba][ca][da][na][oa][pa][qa][ra][sa][ab][cb][db][ob]
[pb][bc][cc][dc][nc][pc][ag][cg][bh][dh][qi][ri][sj][jk][kk]
[qk][rk][sk][kl][ql][sl][lm][qm][rm][dp][ep][fq][gq][mq][er]
[fr][gr][nr][es][fs][gs]TW[ja][kb][jc][kc][jd][kd][je][me][re]
[se][lf][mf][nf][sf][lg][mg][lh][mh][ni][mj][nj][ak][bk][al]
[bl][cl][am][bm][cm][dm][fm][gm][an][bn][gn][in][ao][io][ap]
[rp][sp][aq][bq][qq][sq][jr][qr][js][ks][qs][rs][ss]C[ddyer [?\]: can't say there were any major blunders in this one
bobc [?\]: right.

Yes, no really big blunder. That's why I would like to say some words about strategy at the end, and not about tactics. What I want to stress first is: Stay away from strength, like I explained at move #149. I know that this is very difficult, because it means granting your opponent some territory, if it is his strength. Some! You always grant him less than what he could get from attacking your stones when they are too weak. This is the art of applying this proverb.

The other point is: Stay connected. If you look at the end position now: b has 5 groups and w has 3. Having less groups is better than having more, because for every group you have to worry about eyes. One example of this is move #57.]
)
(;W[qk]C[w can now directly invade and give you some trouble.

Staying away from strength means both: Staying away from own strengths, because playing near it makes your stones overconcentrated. And staying away from the other's strengths, because it will make your stones a target of attack, like here.]
))
(;B[qk]LB[qh:A][qn:B]C[This invasion points seems to be better, because you can make a base for this stone at either, 'A' or 'B'. So, it cannot come easiely under attack.]
))
(;W[ms];B[mq];W[kr];B[or];W[ns];B[pq];W[op];B[pr];W[qq];B[qr]
;W[qp];B[rq];W[rp];B[rr];W[mn]C[Now you are in trouble...]))
(;W[fh];B[ii]
(;W[bi])
(;W[ei];B[bi];W[bj];B[ah];W[ki];B[kf];W[lf];B[jg];W[jh];B[gf]
;W[ff];B[ih];W[hf];B[he];W[gg];B[if];W[hg];B[ke];W[hd];B[id]
;W[kd];B[jd];W[ge];B[ie];W[kk];B[ji];W[kh];B[jk];W[jl];B[ik]
;W[hj];B[hk];W[fj];B[hm];W[il];B[hl];W[gn];B[hn];W[en];B[go]

(;W[ho];B[io];W[hp];B[ip];W[hq];B[iq])
(;W[qn]))))
(;B[nb];W[mc];B[mb];W[lc];B[kb]TR[jc][je]C[This isn't really nice, but better than the game. Now there is nothing to worry about the marked stones anymore.]
))
(;B[gc];W[fd];B[hb];W[eb];B[ga];W[dc];B[ed]C[Whatever happens now, the result can't be bad for b.]
))
(;W[np]TR[nq]C[This move is simply much too good for w. It secures the corner, attacks the marked b stone and builds up a wall towards the right side.]
))
(;B[np];W[pn];B[jq]LB[jp:A]C[The last move can also be played at 'A', if you want to stress more influence than territory.]
))
