(;FF[4]GM[1]SZ[19]AP[SGFC:1.13b]

PB[Sadadar]
BR[6k]
HA[2]
PW[ericosman]
WR[4k]
KM[0.5]
DT[2002-10-17]
PC[The Kiseido Go Server (KGS) at http://kgs.kiseido.com/]
RE[W+5.50]
TM[600]

AB[pd][dp]C[I'm Eric Osman and I was white in this game. I have put in some questions. Some of my questions are about b because I wanted to comment the game for my opponent. However, I'd like to hear about both sides and what would have been better play.

By the way, I'm 4k on kgs where this game was played but I'm 2k on igs where this game wasn't played.

QianJiang:
I feel honored to review your game, I think this game is carefully
played. Very sorry I am not sure about certain questions, but at the
same time, there are some obvious mistakes which you may didn't notice.
And,
in my opinion, no one knows all the correct moves for a Go game, not to
say me a 4d, so what I can do is try to understand more about a game
and try to tell others about what I find out.
English is not my
native language and I know only some simple go terms in English, so
sometimes I have to choose a simple way such as "good moves" "bad
moves" etc in my comments. If there are some grammer errors in my
comments, just smile and tell me.
Ok, let me try.];W[pp];B[dd];W[cf];B[fd];W[ck];B[cn];W[nc];B[jc]
;W[pb];B[qc];W[lc];B[qg];W[bd];B[ch];W[ef]
(;B[cc]LB[di:A]C[Should b jump to E12 instead of C17 ?  Or are they both good choices ?

QianJiang: I am not very sure.
Perhaps E12 better, because we know w will attack at A, As b, why let w attack us so early?]
;W[di];B[dg];W[ee];B[eg];W[ge];B[gd]
(;W[ce];B[ei];W[dj]
(;B[fi]C[QianJiang: F11 not good.  It's right to strengthen this b group, but F11 is not the point.
W have sente at D12 or C13, so we can think these 2 places are white stones.
wD12,C13,E12...is
one hiden attack for black, in which white cut Black into 2 parts. w
cannot play it right now, but if black have to consider this in later
games, or have to place another stone here to make up for it, then F11
become low efficiency.
w F13 is good, too.];W[fg]C[QianJiang: This move show us F11 is not good.]
;B[eh]LB[gh:A][gi:B][hi:C][fk:D][gj:E][qb:F]MA[fi]C[QianJiang: Now we can see B in a bad shape.

If we remove X now and ask b to put a stone on board, where will he go? A?B?C?D?E?F? No one knows.
But I am sure it's not X.];W[he];B[hd]MA[id];W[fk];B[hi];W[bc]
;B[cb];W[je];B[kd];W[en];B[fq]LB[eq:A][dq:B][er:C][dr:D]C[is this B f3 more important than R18 at top ?

QianJiang: No, R18 better.
R18 attack w group, strengthen b group, sente, get territory at no cost.
F3 is not a good attack on left side w group, just strengthen b corner at a gote.
So, I think the answer is clear.
And, if b want to secure his A1 corner, E3,D2,D3 etc do better than F3.]
;W[bp]
(;B[cq]C[is C4 better than C3 for b ?

QianJiang:Maybe
b should cut B4 from the left side w group, attack them.
don't let these 2 groups connect easily.];W[co];B[do];W[bq]
;B[br];W[bn]LB[dn:A][dl:B][ji:C][qb:D][bm:B]C[QianJiang:b
place at A, w must consider attack at B, so b can get sente? C,D are
important now.];B[cm];W[cp];B[cr];W[bm];B[dn]MA[fk][dj][di]
[ck][bm][bn][co][cp][bp][bq]TR[ch][dg][eg][eh][ei][fi][hi]C[QianJiang: w connect with sente, all x stones become a living group.
all triangle stones have no eye, they are good target for w now.
C7 stone not very useful.
b lose lots here.];W[gj];B[gi];W[lf];B[me]LB[ji:A]C[is this N15 better than R18 ?

QianJiang: not sure, both important.
In fact, the most important thing is the center b group, I think it's  in danger now.]
;W[oe];B[od];W[qb];B[ne];W[jb];B[ib];W[kb];B[id];W[jg];B[ld]
LB[ji:A][ij:B]C[should B play here ?  or should b do something about his center stones ?

QianJiang:b shouldn't play here.  w upper group is live, this move cannot attack them.
M16 do not attack center w group, too.  do not strengthen any weak black groups. 2 b groups both strong.
do not make any territory.....etc....
I think M16 has little value.

B should help his center group.];W[li];B[bk];W[bj];B[dl];W[ek]
;B[bl];W[cl];B[dk];W[cj];B[ej];W[el]C[QianJiang:E8 is ok.
But this make a bad shape right?
E7 is another choice.];B[dm]LB[ik:A]C[QianJiang: I will go A next move.]

(;W[hj];B[ij];W[ik];B[jj];W[jk]C[could w have been more aggressive here ?

QianJiang: see the var s at 77.];B[jh];W[kh];B[kj];W[ih];B[ii]
;W[jm];B[gg];W[ff];B[hg];W[ie];B[lk];W[jp];B[io]LB[hq:A][lm:B]
[nk:C][pk:D][qn:E]C[is b too optomistic here ?  what should be do instead ?

QianJiang:I do not know what b optomistic means?
b B2 group is live, so b can attack.
you cannot kill J5 right?

b
can consider H3, M7, O9, Q9, R6, etc... instead.  Half of right T-T
side is empty, go there. And center b group need strengthen, that's it.]
;W[ip];B[ho];W[hp];B[go];W[gp];B[fp];W[fn]
(;B[fo]LB[kn:A][jo:B]C[QianJiang: feel safe when connect right? but next move, w k5 connect and safe, too.

so b can consider A, B. b B2 group is safe, so b will not in danger here, don't let w connect easily.

Cannot understand? en... Maybe this is for d*:)

remember, always try to get as more benefits as possible before you connect like this F5.]
;W[jo];B[gl];W[gk]LB[np:A]TR[hj][gj][fk][ek][el]MA[fn][en]C[QianJiang:I think H8 better shape, or H9.   Now H8 is b sente.

And, w needn't connect 2 X stones, just do not lose triangle stones will be ok.]
;B[hm];W[hl];B[fm];W[em]LB[np:A][im:B]MA[fn][en]C[QianJiang:Is these 2 white stones so important?

How big A is!];B[im];W[gn];B[gm];W[il]LB[kl:A]C[QianJiang: H9 is not an eye, so why not K8?
suppose
b L8, K8, we will find w shape so bad.];B[lm]C[QianJiang: From G8 to
now, w made no eyes here, and get a gote, leave bad shapes and few
liberties behind.
Not good.];W[gr];B[kn];W[jn];B[gq];W[hr];B[hq];W[iq];B[fr];W[eo]
;B[aq];W[ep];B[dq];W[ap];B[ar];W[bo];B[lp];W[lq];B[mq];W[kq]
;B[mp];W[jr]
(;B[gs]LB[qn:A]C[QianJiang:Why b get a gote here? worth 5 points.

Attack Q4, it's obviously weak now. And see how empty T-T side is.]
;W[hs];B[fs];W[lj];B[kk];W[nj];B[pj]C[QianJiang:so b begin to "attack" w now?]
;W[mk];B[ml];W[nl];B[nm];W[kl];B[km];W[jl];B[ll];W[ol];B[ql]
;W[om];B[nn];W[ko];B[lo];W[qm];B[on];W[pn];B[pl];W[pm];B[op]
;W[oq];B[po];W[qo];B[oo];W[pq]C[QianJiang: unfournately, w connect his dragon to Q4 corner and make a big solid area.
What b get even less than w's.];B[of]LB[ng:A][oh:B][nh:C]C[QianJiang: slow move]
;W[nq];B[mr];W[np];B[no];W[mn];B[hh];W[qi];B[pi];W[qh];B[ph]
;W[rg];B[rf]
(;W[rh];B[pf];W[rk];B[rl];W[qj];B[qk];W[bh];B[bi];W[ci];B[bg]
;W[ai];B[cg];W[sj];B[si];W[rm];B[sl];W[sm];B[pk]C[QianJiang:Not necessary?]
;W[rc];B[rd];W[rb];B[pc];W[ia];B[ha];W[ja];B[hb];W[bb]
(;B[mb];W[mc];B[lb];W[kc];B[ob];W[nb];B[oc];W[ji];B[fh];W[oa]
;B[ki];W[ca];B[da];W[ba];B[db];W[cd];B[ed]C[QianJiang:Q1 bigger.]
;W[jd];B[ic]C[QianJiang: small];W[ng];B[nh];W[mh];B[ni];W[og]
;B[pg];W[nr]C[QianJiang:This is TOO big now.  b Q1 is sente and the difference is 6 points, you know w win 6.5 points at last.
B had many chances to go Q1, but now, he cannot:(];B[ks];W[js]
;B[ms];W[mi];B[mf];W[mg];B[ae];W[ag];B[bf];W[kr];B[ls];W[ns]
;B[sc];W[sb];B[sd];W[eq];B[er];W[le];B[md];W[ig];B[ke];W[kf]
;B[ok];W[nk];B[ad];W[ac];B[af];W[ah];B[dh];W[al];B[oh];W[oj]
;B[hf];W[if];B[jh];W[hn];B[in];W[ji];B[ir];W[is];B[jh];W[eb]
C[QianJiang:?];B[gc]C[QianJiang: need this?];W[ji];B[aj];W[ak]
;B[jh];W[nf];B[nd];W[ji];B[na];W[ma];B[jh];W[dc];B[ec];W[ji]
;B[pa];W[qa];B[jh];W[ea];B[dc];W[ji];B[la];W[ka];B[jh];W[qe]
;B[pe];W[ji];B[df];W[de];B[jh];W[re];B[se];W[ji];B[fe];W[gf]
;B[jh];W[sf];B[sg];W[ji];B[ln];W[jh];B[tt];W[oi];B[tt];W[ri]
;B[sk];W[sh];B[sf];C[Sadadar [6k\]: good game eric
Sadadar [6k\]: that was real close
ericosman [4k\]: tough game
ericosman [4k\]: i felt pressure all the way
ericosman [4k\]: you play well
Sadadar [6k\]: I made a mistake not taking some of the lower right corner early
ericosman [4k\]: you miss a few points here and there
ericosman [4k\]: and they add up to a close game
Sadadar [6k\]: you were chasing me a round and did a great job of keeping me on my toes
ericosman [4k\]: want to see some of the obvious ones ?
Sadadar [6k\]: ya, nitpicking for points is something I need to work on]
)
(;B[ob]C[QianJiang: Why not go P18 directly, do not lose stones at N18, M18?]
;W[nb];B[oc];W[oa];B[kc];W[lb]C[QianJiang:The difference here is ~4.5 points.]
))
(;W[qf]C[QianJiang:w's choice.];B[pg];W[re];B[rh];W[sf];B[ri]
;W[rc]C[QianJiang:better?]))
(;B[qn];W[er];B[eq];W[fs];B[dr];W[es];B[gs];W[hs];B[ds];W[gs]
;B[bs]C[QianJiang: b live];W[qo];B[pn];W[oq];B[pj]C[QianJiang: b get the last empty area.]
))
(;B[jo];W[ko];B[kn];W[jn];B[fo]C[QianJiang: This is the time to connect.
feel the difference between this var and the real game.]))
(;W[ik]C[QianJiang:When attack, try small knight jump.];B[ji]
;W[kj];B[kh];W[mh])
(;W[ik];B[jj];W[ij];B[ii];W[ji];B[jh];W[ki];B[kh];W[lh];B[kg]
;W[jf])
(;W[ik];B[ij];W[jk];B[jj];W[kk];B[kj];W[lj];B[hk];W[hl];B[kh]
;W[mg]))
(;B[cp];W[bo];B[bq];W[bn];B[dn];W[bm]MA[ji][qb]C[QianJiang: Let w connect, get sente go to center or R18.]
)
(;B[cp];W[bo];B[bn];W[cq];B[dq];W[cr];B[dn];W[hk];B[ji]LB[dr:a]
[br:b]C[QianJiang:
let white live 6 points in corner(black a, white b). w left group need make eyes.]
)
(;B[co];W[cq];B[dq];W[dr];B[er];W[cr];B[hk]C[QianJiang:very simple way and it works.
w get a small corner but left side group under attack.

These kinds of simple results can be our reference.

After compare several possible graphs here I feel this reference may be the best choice for b.]
)
(;B[bo]LB[cp:A][cq:B]C[QianJiang: direct attack, I am not sure the correct moves after. It's hard to analyze this move for me.

a bit complex right?

If you like fight choose this one, now A perhaps best for w.]

(;W[cq];B[cp];W[dq];B[eq];W[br];B[ap];W[aq]C[QianJiang: A ko.]
)
(;W[cp];B[do];W[dq];B[eq];W[dr];B[br]C[QianJiang: Will this happens? and what will happen?  I am not sure.


Any way, if b can attack left side w group then he is leading.]
)))
(;B[gg];W[gf];B[hg]C[QianJiang:This is better shape.]))
(;W[cd]C[QianJiang: do you think this is better?]))
(;B[eh];W[cc];B[dc];W[ek];B[gh];W[gf];B[hd];W[if];B[ih]C[QianJiang: A reference.

w get something in corner, but cannot attack C12 anymore.]))
