(;FF[4]GM[1]SZ[19]ST[2]CA[UTF-8]AP[SGFC:1.13b]

PB[yoyoma]
BR[10k]
PW[ocho]
WR[10k]
KM[5.5]
DT[2002-10-27]
PC[The Kiseido Go Server (KGS) at http://kgs.kiseido.com/]
TM[600]
OT[5x30 byo-yomi]
RU[Japanese]

C[Hello reviewer, this is yoyoma.
This
game was played with fairly fast time controls, and later in the game it
gets a little sloppy.  But ocho and I were most interested in the first fight of the game, which didn't have too much time problems.
------------------------------------
Hi,

First off, the usual disclaimer.  These are words from a low-kyu/low-dan player, so take them with a grain of salt.

This was an interesting game.  Both sides showed good fighting spirit, but it's a good idea to stop and appraise the situation once in a while.  W had numerous chances to win the game, had he only realized he was leading by a comfortable margin and didn't have to force the issue, particularly in the lower right corner.

As for the first fight, B made a directional error with L4, not quite realizing how thin and vulnerable his own group on the left is.  H12 was a crucial point.  Always beware of your opponent turning the table on you.

Later, B should've grabbed Q10 on the right when his attack on the W group on the left side has achieved its purpose of making it live small.  When it's clear a group you're attacking is clearly alive, you should look up from the fight and look for other, usually much bigger, points to play on other parts of the board.

O12 was too conservative for B.  It only made the game about even, and W had a lot of potential on the right and at bottom, so B O12 surrendered the lead to W.  W got away with E8, but that was partly a result of B's further slow moves in the upper left, after losing the initiative with O12.

Overall, this was a good game for both.  There was no major mistakes (except for W's losing the entire lower right in the end...).  Both players should try to have a better sense of the relative advantage at key moments in the game.  Play accordingly.  If you're leading, there's no need to make unreasonably strong moves.  If you're behind, you cannot afford to make safe, unthreatening moves.

Feel free to let me know if you have more questions.

Cheers,
Ken, aka pk1 (IGS/KGS)];B[pd];W[pp];B[cd];W[cp];B[ic];W[eq]
C[K:  This seems wrong, because it gives B a nice play on the left side.  B gets to make a large extension and a double-wing formation (even though the upper left corner is still open) around D10 or so, and D10 is exactly what W should be aiming for with the C4-E3 corner enclosure.]
;B[dj]C[K: This way, it almost feels as if W lost a move here.]
;W[ie]
(;B[kd]C[K:  G16 would be better.];W[ch]C[K: D12 or E16 might be better for W.]
;B[eh];W[df]
(;B[ec]C[K:  B should definitely E16.  E17 does nothing to put pressure on W.  Alternatively, how about F14?]
;W[ff];B[gh];W[hg]
(;B[kf]C[K:  This is wrong direction.  The focus now is on the left side.  B cannot be expecting turning all of the top right area into territory, since there's still the 3x3 invasion (or other moves in the corner) left for W to play when the chance arises.]

(;W[ii];B[hh];W[ih];B[gg]
(;W[gf];B[ig];W[hf];B[jg]C[yoyoma [10k\]: i like to fight.  :-)]
;W[bj]C[yoyoma: I had a hard time deciding what black should do next.  I considered:

c8 seals white in (b9 doesn't seem to work)
h10 directly to chase j12/j11 stones

I chose d12 to make a few forcing moves against white to gain strength, and then pressure j12/j11.

K: How about D13 and cut?  Seems to work fine.]
(;B[dh];W[cg];B[ci];W[bi]C[K:  B D12 and C11 help W to work out an almost alive shape.  They are better left unplayed, if B wants to chase the J11 stones anyway.  B's shape still looks awkward though.]
;B[hj]
(;W[hi]C[yoyoma:
If white going to run, I think he should not add this move.  Globally, I
think white should treat j12/j11 lightly.  I was very happy when white started
pushing with this group.

K:  Yes, W makes a mistake here.  With this series of moves, W helps B consolidate the center group while reducing his own group's liberties.]
;B[gi];W[ij];B[hk];W[ik];B[hl];W[il];B[hm]
(;W[jn]C[K: W should probably play toward the right side instead.  K6 is a useful move to get ahead of your opponent in a running battle, but that's not the case here.  B's group on the left is pretty much secure.  So, W should try to develop the right side.]
;B[cl]C[K:  There's no need to play here right now.  W's pretty much alive, and so is B.  Therefore, the biggest point on the board is the right side.]
;W[cj];B[di];W[bl];B[cm];W[pj]C[K: And W grabs it.]
(;B[nj]C[yoyoma:
 This is an attempt to reduce white's moyo, and also looking to make j12
string uncomfortable later.

K:  Be careful though.  B could be the one coming under attack here, since W's J8-12 now looks like a big wall.]

(;W[qf];B[ph];W[qc];B[pc];W[qd];B[pe];W[qh];B[qe];W[re]
(;B[qg];W[rg];B[pg];W[pi];B[pf];W[rf];B[qi];W[rh];B[im];W[jm]

(;B[jl]C[yoyoma:  Oops, this does not work, big mistake!

K:  This is partly why I said earlier W's in no real danger]
;W[kl];B[jk];W[kj];B[nh]C[K:  This might be a little conservative.  The game is just about even right now, but W has sente.]

(;W[gc]
(;B[gd];W[fd];B[fc];W[hd];B[gb];W[hc];B[hb];W[id];B[jc];W[fo]
C[yoyoma:  Surely around p9 or something is bigger?

K:  Yes.  Something on the right side or the bottom would be enough to give W the win.  Here, W's playing too hard.  It's kind of an awkward looking but effective sente move though.]
;B[ho];W[el]C[yoyoma:  Black responds very poorly to this move.  :-(]

(;B[ek];W[fk];B[fl];W[dk];B[ej];W[em];B[fm];W[ck];B[en];W[dn]
;B[fn];W[eo];B[bp];W[bo];B[pk];W[qk];B[lk];W[kk];B[ql];W[pl]
;B[ok];W[rk];B[pm];W[ol];B[nl];W[om]C[yoyoma: white doesn't realize at first this is a ladder.]
;B[on];W[mp];B[nm];W[jq];B[qq]
(;W[pq];B[qp]
(;W[qr];B[rr];W[pr];B[rl];W[qo];B[ro];W[rp];B[rq];W[rn];B[sp]
;W[pn];B[oo];W[po];B[lo]C[yoyoma:  Black seems to get much more out of this than he should have...]

(;W[lp];B[ko];W[jo];B[kp];W[jp];B[kq];W[mo];B[ln];W[mn];B[lm]
;W[mr];B[lr];W[jr];B[ms];W[nr];B[np];W[kr];B[lq];W[mq];B[op]
;W[rs];B[qs]C[yoyoma:  Big mistake, white can start a ko with t2 now.]
;W[ps];B[sr];W[sn];B[so]
(;W[oq])
(;W[sl];B[hq]C[yoyoma:  I wonder if there is a way for Black to kill or make better profit around here...]
;W[hr];B[gq];W[gr];B[fq];W[fr];B[dl]C[ocho [10k\]: well, hopfully you'd win anyway]
;W[dm];B[qb];W[rb];B[pb];W[mm];B[ll];W[mi];B[ni];W[ke];B[le]
;W[lg];B[lf];W[mg];B[nf];W[ng];B[og];W[kg];B[jf]C[yoyoma [10k\]: phone.  :-)
ocho [10k\]: i'll add 5  yoyoma [10k\]: how about 1];W[dd];B[dc]
;W[bd];B[bc];W[ce];B[cc];W[go]C[yoyoma [10k\]: i was afraid of this move
ocho [10k\]: just a sente move... not a killer move
yoyoma [10k\]: yeah];B[io];W[iq];B[hp];W[gn];B[gm];W[hn];B[in]
;W[ep];B[ed];W[fe];B[ra];W[sb];B[jh];W[lj];B[ji];W[jj];B[be]
;W[bf];B[ad];W[de];B[qm];W[qn];B[oi];W[rj];B[oj];W[qj];B[je]
;W[mf];B[me];W[mj];B[mk];W[oq];B[rm];W[sm];B[af];W[ag];B[ae]
;W[ks];B[ls];W[fg];B[fh];W[fj];B[gj];W[ns];B[mh];W[lh];B[nn]
;W[ml];B[ee];W[ef];B[if];W[ge];B[ss];W[qs];B[qa];W[rc];B[nk]
;W[jd];B[km];W[jl];B[sa];TW[sc][gd][rd][sd][he][se][cf][sf]
[bg][sg][ah][bh][sh][ai][qi][ri][si][aj][sj][ak][bk][jk][sk]
[al][cl][dl][am][bm][cm][an][bn][cn][ao][co][do][ap][bp][dp]
[aq][bq][cq][dq][ar][br][cr][dr][er][ir][or][as][bs][cs][ds]
[es][fs][gs][hs][is][js][os]TB[aa][ba][ca][da][ea][fa][ga][ha]
[ia][ja][ka][la][ma][na][oa][pa][ab][bb][cb][db][eb][fb][ib]
[jb][kb][lb][mb][nb][ob][ac][kc][lc][mc][nc][oc][bd][ld][md]
[nd][od][ke][ne][oe][of][oh][ei][fi][fj][fk][gk][gl][ol][pl]
[om][rp][sq]C[yoyoma [10k\]: gg
ocho [10k\]: nice one!
yoyoma [10k\]: i knew i should have killed  :-)
ocho [10k\]: :)
ocho [10k\]: but you recovered quite nicely
ocho [10k\]: from the ...
ocho [10k\]: lower left corner massacre  yoyoma [10k\]: yeah
yoyoma [10k\]: that was unfortunate
ocho [10k\]: of course that cost you the game
ocho [10k\]: but in the beginning ...
ocho [10k\]: after the first 4 moves...
ocho [10k\]: i was going to resign  :)
yoyoma [10k\]: haha, why?!]))
(;W[kp]C[K:  Even now, if W'd stayed calm, he could still win the game here.]
;B[lp];W[lq];B[mo];W[np]))
(;W[ip]C[K:  If we take a very rough count, I believe W's safely ahead if he just calmly takes the lower side.  B needs another move at S8 to seal that lower right, too.

W:  72
B:  65]))
(;W[qp]C[K:  I guess this doesn't quite work....];B[rp];W[ro]
;B[rq];W[pr];B[qo];W[rn];B[rm];W[qn];B[po]))
(;B[em];W[fm];B[fl];W[dm];B[en];W[dl];B[dn]))
(;B[ee];W[ef];B[be]C[K:  This would make W very nervous, and I think he'd have to make life in gote on the side.]
;W[ck];B[dk];W[bm];B[lk];W[kk];B[jp];W[kp];B[kq];W[lp];B[lq]
;W[mp];B[mq];W[np];B[qp]C[K:  Something like this might be possible if B can come out with sente from the upper left corner.  This way, B should have the lead.]
))
(;W[hc];B[hb];W[gc];B[gb];W[fc];B[fb];W[ed];B[dc];W[id];B[jd]
C[K: This is a slightly better way to compress B's top territory in sente.]
;W[nq]C[K:  W takes the lead.]))
(;B[kl];W[jl];B[jp]C[K:  Even if B tries this, it's a little difficult to mount a severe attack here, because B  O10 and L8 are rather thin.]
;W[kk];B[ll];W[lk];B[ml];W[mk];B[nk];W[nl]))
(;B[rd]C[K:  This is a better follow-up to R15.];W[rc];B[rf]
;W[sd];B[qg]))
(;W[mi];B[ni];W[mh];B[nh];W[mg];B[pi];W[qi];B[ph];W[qh];B[pk]
;W[qk];B[oj];W[qj];B[pl];W[qm]C[K: W build up something on the right side, while effectively reducing B's top moyo through attack.]
))
(;B[bm];W[ck];B[dk];W[be];B[bd];W[ce]C[K:  B might as well finish the follow-up to C7 and force W to eke out a small life on the side while grabbing the upper left corner himself.]
))
(;W[pj]C[K:];B[ki];W[lk]C[K: W is fine here.  No need to worry.]
))
(;W[fi];B[fh];W[hi];B[gi];W[ij];B[hk];W[ik];B[hl]C[K:  F11 might come in handy later.  For example, F9 is now a severe threat, assuming W can settle the center group, which should not be too difficult.]
))
(;B[cl])
(;B[dg]
(;W[cg]C[K:  W cannot play here.];B[cf];W[ce];B[bf]
(;W[eg];B[dh])
(;W[be];B[de])
(;W[ef];B[be]))
(;W[cf];B[cg];W[bg]
(;B[ef];W[ee];B[eg];W[dd];B[dc];W[bd];B[bc];W[ce];B[cc];W[cl]
;B[dl];W[cm]C[K:  B E13 isn't so good.])
(;B[bf];W[be];B[bh];W[af];B[ci];W[ah];B[bi];W[ai];B[cj];W[bk]
;B[cl];W[bl];B[cm];W[bm];B[cn]C[K:  Now the B group is secure, attacking the J10 stones becomes more of a real option.]
))))
(;W[hf];B[gf];W[ge];B[fe];W[ee];B[fd];W[dd];B[dc];W[ce];B[bd]
;W[di];B[ei];W[cj];B[dk];W[ck];B[dl];W[cm]C[K:  This favors W.]
;B[dm];W[cn];B[jg];W[ig];B[hj];W[ij];B[hk];W[jl]C[K:  B cannot be happy to be shut in like this.]
))
(;W[hh]C[K:  B would be in quite a bit of trouble here.];B[gj]
;W[hi];B[hj];W[ij];B[ik];W[jj];B[jk];W[gi];B[fi];W[gg];B[fh]
;W[fk];B[fj];W[hl];B[hk];W[kj]))
(;B[hh];W[ig];B[ji];W[ke];B[ld];W[le];B[md]C[K: This seems a better way to attack for B.  B gets some room and shape in the center while forcing W to help B consolidate the territory on top.]
))
(;B[ed];W[ff];B[ge];W[gf];B[he];W[hf];B[if];W[ig];B[jf];W[gh]
C[K:  B's two stones are light and B should be able to manage okay by running out.]
)
(;B[ff];W[dd];B[ce];W[de];B[cc];W[fe];B[ge];W[gf];B[fg]C[K:  Seems possible to split W in two.  J15 and C12 were begging to come under a splitting attack by B.]
))
(;B[gd]C[K:  This would solidify the upper left quite a bit.]
))
