(;FF[4]GM[1]SZ[19]ST[1]CA[UTF-8]AP[SGFC:1.13b]

GN[Guest#4273-honte111502.sgf]
PB[Guest#4273]
PW[honte]
KM[5.5]
DT[2002-11-15]
PC[MSN Gaming Zone - Lotus Table 3]
RE[?]

C[I was told that I'm either 27 or 28k, but haven't been offically  ranked yet.  I played white.]
;B[dd];W[pp];B[qd];W[dp];B[qn];W[pn];B[pm];W[on];B[qo];W[qp]
;B[nq]MA[om][qj][ql]C[This is not very joseki by black. (joseki are marked)
It leaves a weakness at R7, and is too close to W strenght.

If you were playing at dan level, you might consider this as "sente" (W has to protect against Q5 cut).]
;W[np]C[Not sure what was the best response to o3.

This seems ok to me.];B[mp];W[oq];B[no];W[op];B[mq];W[jq]C[may be somewhat close.

I black pincers, K3 might be tricky to defend];B[om];W[rp]MA[cf]
[jc]C[small, rather aim sides];B[nn]C[though it prevents W from a straight cut, this is almost a wasted move.

Sizes are bigger];W[cf]C[correct];B[df];W[dg];B[ef];W[ce];B[cd]
;W[cj];B[eg]C[Usually, B would K17 ...

Now White can take it]
(;W[dh];B[gc];W[oc]CR[lc]MA[ic][oc]C[ouch !

If B pincers around L17 / M17, life will be diificult.

Rather play M17, you can extend either side, depending where B plays]
;B[mc];W[qc]C[rather P15.
You will get enclosed in the corner and B will have an easy game in the centre]
;B[pd];W[rd]C[ouch again !

You are *creating* weaknesses.
Q17 seems necessary here];B[pc];W[pb]C[yes, but if R18 (cuts white), S17, P18, White is seriously disabled ...

I'd rather leave P17 and protect at S17, but it is not even sure to live ...]
;B[rc];W[qb];B[re]
(;W[ne]C[is o15 the best way to jump out and make upper right group live?

No, as the game will show ...
O16 *might* get you out, but at the expense of such black strenght that I will consider the game over ...]
;B[od];W[nd];B[nc];W[ob]C[useless. White dies whatever ...

More : you help your opponent get enormous thickness toward centre.
This will cost you a lot ...];B[rb]C[yes ... :-(];W[nb];B[mb]
;W[ma];B[kb];W[la];B[jc];W[lb];B[lc]C[just try to imagine the black shape without your 2 stones ...
Now ask yourself : how can W survive against such a wall ?]
;W[oa]C[you cannot make 2 eyes.
019 is a false eye.];B[ql];W[ra];B[fq];W[cn];B[hq];W[in]MA[jo]
C[too loose. K5 more solid];B[go];W[eq];B[gm];W[hl];B[gl];W[gk]
;B[hk]
(;W[fk]C[w thought about extending at g10 instead of f9.  w thought f9 would be a good connect to c10 stone.


As a matter of fact, G9 was a mistake in the first place, because it allows B to cut at H9.

G9 is not important, your group H8, J6 and K3 is more important, because it is enclosed between two very strong black groups, and will be very difficult to save.

The other side is better (see var)];B[hj]MA[hl][in][jq]C[black is playing big. He considers W 3 stones already dead ...]
;W[hm];B[em];W[dl];B[ip];W[jp]C[see, J6 was too loose. B will cut again]
;B[jo];W[io];B[ho];W[fp]C[w trying  to kill b eyes.];B[ko]C[B is just forgetting F3 to kill K4 (and likely J6 / H7)]
;W[hr];B[gr];W[fr];B[ir];W[jr];B[hs];W[gq];B[el];W[ek];B[jl]
C[Not sure what k8 purpose here.


eh ... kill H7/J6. There is no way out for these stones now]
;W[pj];B[qh];W[mi];B[oh];W[ng];B[fi];W[eh];B[fh];W[cc]C[w attempt to reduce b territory here but failed.  Is there any possible way to reduce it?

If there is, I don't know it.
B16 does, but it is small and gote];B[bd];W[eb];B[ec];W[gb]
;B[db]C[letting black cut your shapes seems to be very much praised by W ....

unfortunately, it is not known to be an efficient strategy at Go]
;W[dc];B[fb];W[pf];B[qf];W[pg];B[ph];W[kf];B[lg];W[kg];B[lh]
;W[nh];B[mf];W[le];B[li];W[mj];B[oj];W[ok];B[oi];W[nk];B[ml]
C[preventing W from making any eye];W[nm];B[nl];W[pk];B[rj]
;W[nr];B[mr];W[os];B[ag]C[How should w respond to a13?

variation is possible]
(;W[be];B[ae];W[bh];B[bg];W[cg];B[ah];W[ai];B[af];W[bi]C[not too bad]
;B[ei];W[di];B[so];W[sp];B[ro];W[he];B[ms];W[hg];B[je];W[de]
;B[ee];W[fg];B[fd];W[gh];B[gj];W[fj];B[gi];W[jj]C[nice, attacks both G10 and M12]
;B[ik];W[kl];B[nf];W[of];B[oe];W[lf]
(;B[mg];W[mh];B[hh];W[gg];B[ih];W[kh];B[me];W[jm];B[km];W[jk]
;B[il];W[im];B[lm];W[kk];B[dm];W[cm];B[dk];W[cl];B[ej];W[dj]
;B[fl];W[ck];B[fs];W[es];B[gs];W[iq];B[hp];W[gn]C[w attempt to go home to make this group live.  Or is this a dead group not worth saving?

no, unfortunately, it's dead];B[fn];W[hn];B[pr];W[fo]C[why not protect P2 ?
This may cost you the whole lower right corner];B[or];W[mn]
;B[mo];W[md];B[ld];W[lj];B[ki];W[ji];B[ig];W[if];B[jf];W[jh]
;B[jg];W[fk];B[ek];W[ol];B[eo];W[dn];B[en];W[ep];B[do];W[co]
;B[jn]C[W resigned.

Thanks for reviewing this game.  If there are any general comments on weakness or strategy and tactics, I would greatly appericated.  Thanks again.


Ok.
You obviously played a B player stronger than you were.

The game was lost when you played R17 instead of P15 (stone N° 34)

Even if you had not lost many groups, B would have had an easy game in the centre.

Then, your 3 weak stones (see stone 71) ended up dead, as Black thought they were.


Black had an easy game because you let him cut your stones. This is the main point you need to work on. Build solid (I don't mean thick) shapes, and you game will improve.

Also, learn to recognise dead shapes, you will play usefull moves elsewhere instead of trying to save already dead groups (andthus, reinforcing your opponents shapes)]
)
(;B[me]))
(;W[af];B[bf];W[bg];B[ae];W[ah];B[af];W[be];B[ad];W[bh]))
(;W[ik];B[hj];W[il]C[more hope.]))
(;W[nd];B[od];W[nc];B[md];W[ne];B[of];W[me];B[le]C[etc ...
Black is now ready to have an enormous moyo on either right or upper side]
))
(;W[jc];B[cg];W[bg];B[dh];W[bh];B[oc];W[gc];B[pj]C[situation is balanced]
))
