(;FF[4]GM[1]SZ[19]ST[2]CA[UTF-8]AP[SGFC:1.13b]

PB[exswoo]
BR[11k]
PW[fcred]
WR[10k]
KM[0.5]
DT[2002-11-21]
PC[The Kiseido Go Server (KGS) at http://kgs.kiseido.com/]
RE[W+2.50]
TM[1500]
OT[10x30 byo-yomi]
RU[Japanese]

C[exswoo:

Hi and thanks for taking time out to review my game.  This was one of my better games in recent memory and I felt good about this game afterwards even though I lost.  I'm hoping for tips on my opening and my early mid-game tactics, although I definitely want to improve my yose as well.]
;B[pd];W[pp];B[dd];W[dp];B[cn];W[fp]C[TJ: Since D16 is "high", an acceptable alternative would be a pincer around C8. Had D16 been at D17, then a pincer would be a bad choice, since after Black C3 W C4 etc, White's thickness would be facing the "low" and strong side of the upper left corner.

F4, however, is also perfectly good.];B[bp];W[cq];B[ck]C[This a very common opening for me.

TJ: Black is developing harmoniously. The hoshi stone at D16 supports C9 very elegantly.]

(;W[iq]C[TJ: A bit conservative. K3 is normal -- Black cannot get a good result by invading at H3 straightaway. The chosen move gives Black a bit more space to operate in around O3.]

(;B[jd]C[TJ: A very good move, although R6 is possibly just a shade better, since approaches are usually better than extensions.]
;W[qf]C[TJ: Good. Both sides are playing well in this fuseki.]
;B[nd]C[TJ: My personal preference would be a pincer here, since this looks slightly overconcentrated (four stones in one part of the board). OTOH, I've seen pros make this formation, so I cannot criticise it! :-)]
;W[qi];B[qn];W[qo]C[TJ: This move is strong - the idea is to make you heavy by forcing Q6 and then to attack you, R11 being a pincer stone.]

(;B[qk]C[TJ: This is your first mistake. Of course you should play lightly, but Q6 is just too good a point to give to White.]
;W[pn]C[TJ: This is an excellent shape for White. Black can hardly sacrifice this stone since that would also involve the loss of the potential 3-3 invasion yet defending it is hardly easy either.]
;B[qm]C[Not exactly a good invasion....

TJ: The reason being that you allowed White the vital point of Q6. "Vital point", I think, means not only those points which determine life or death for groups, but also points such at Q6 which are essential for making or destroying good shape. A good shape move is usually even more valuable than a territorial one since it frees your hands for fighting later. Put it another way, if you get into bad shape because you want to grab a big point, then you will probably be forced to give back the territory - plus interest - during the fighting later on.]

(;W[rd];B[qc];W[ok];B[ol]C[TJ: Black should be able to escape with this move.]
;W[pl]
(;B[pk]C[TJ: This is a serious error, giving White a golden opportunity to seal you in. Q7 is essential.]
;W[pm];B[ql]
(;W[nk]C[TJ: Why not P10 extending White's moyo and assisting the only White group which looks weak (R11 and company)? This move would also remove escapological tactics based on a hane at P10 or contact play at Q11 or S11.]

(;B[jj]C[TJ: A terrible mistake since Black can live along the side still (please study the variations) using either S11, Q11, or even P10.]

(;W[cf]C[TJ: White should complete the sealing-in process with Q10. I'm sure Black should then die or at best get a horribly constricted life. The previous comments regarding this area of the board will continue to apply for the following moves, too, until somebody does something...]
;B[ch];W[bd]C[TJ: White should simply invade at 3-3. She won't get a better result by inviting Black to attack her.]
;B[cc];W[ef];B[fd];W[bc]
(;B[mp]C[TJ: B18 is essential. Black wants to keep White's group here unsettled so as to attack it; this move also has considerable yose value. Please see variation and comments.]

(;W[nq];B[mq];W[np];B[mn];W[nm];B[jo]C[TJ: Good shape. Black has done well here.]
;W[lo]
(;B[mo]C[TJ: Connecting is heavy...you can defend more fleet-footedly with moves such as L4. Capturing a single stone or even a small group won't usually be worth spending a move upon until the endgame. Remember when you play White in a high handicap game and you're offered small sacrifices, but when you take it you lose time or give the opponent strength elsewhere - well, this is what "sabaki" is all about, being prepared to sacrifice small in order to stabilise and develop your forces on a large scale.]
;W[ro];B[pi];W[ph];B[oi];W[hd]
(;B[hc]C[Is this the correct way to defend?

TJ: H15 is the way to get a connection _underneath_, which is what I think you want here. H17 will get a connection over the top, which may be slightly less good because you forfeit territory at the top.  However, you go seriously wrong in the follow-up. Also, I think you should consider B18 followed by G15 hoping to attack two weak groups at once.]
;W[ic]
(;B[gc]C[TJ: This is terrible for Black.];W[id];B[jc];W[ib]
;B[hb];W[cb]C[TJ: A really bad result for Black. You will be sorry if you allow White G14 to seal you in.]
;B[db];W[cd];B[dc]
(;W[lc];B[jb];W[ha];B[ga];W[ia];B[ld];W[md];B[mc];W[kd];B[le]
;W[ke];B[kc];W[je]C[I think this is a mistake by white...];B[lb]
;W[gd];B[fb];W[fe];B[jq];W[ip];B[jp];W[kn]C[TJ: A bit unreasonable for White.]
;B[jm];W[km]
(;B[fm]C[TJ: Big but lacking in urgency. Why not try to keep White separated? (See variation.)]
;W[jn];B[io];W[ho];B[ir];W[hq];B[in];W[hr];B[jr];W[hn];B[hm]
;W[mm];B[og];W[rc];B[eh];W[gh];B[fj];W[gl];B[gm];W[fi];B[ei]
;W[gj];B[fk];W[gk];B[ig];W[hf];B[if];W[ie];B[kg];W[lf];B[me]
;W[lg];B[jl];W[kh];B[jh];W[ki];B[ji];W[jk];B[ik];W[kk];B[ij]
;W[kl];B[hl];W[co];B[bo];W[dn];B[dm]C[The double hane seemed to be safe in this situation when I read it out so I played it.

TJ: Yes, much better than being submissive with C7.];W[cm];B[bn]
;W[em];B[dl];W[en];B[el];W[ed];B[fc];W[de];B[ri];W[rh];B[qj]
;W[qh];B[rn]
(;W[fh];B[bg];W[bf];B[bq];W[cr];B[go];W[gp];B[fo];W[eo];B[kf]
;W[oh];B[ni];W[nh];B[mh];W[mi];B[mj];W[li];B[rj];W[nj]C[TJ: Defending the three stones is worth 6 points in gote, likewise, taking them is 6 points in gote for White. There are better points. First, T5 is pure sente - if White ignores it to get her 6 points with Q10, then you can destroy more points with S4. If she answers, you can then play O2. If she then takes the stones, you can play P1 in pure sente followed by S18. Both O2 and S18 are individually worth more than capturing the three stones, so you should be happy. I will make a variation to show you.]

(;B[pj]C[TJ: A mistake: this move defends 6 points in gote. It is much better to leave either defending or capturing here until you have no sente moves left.   RULE OF THUMB for YOSE: First of all double sente (points that are sente for both sides), then sente (moves which force a response and which end in sente!), then gote (choose the biggest or those with best follow-ups first!), finally reverse sente moves. Beware of moves which look like sente (because they force a response) but actually end in gote because you then need to defend them. Remember to take into account the "mutual value" (total value) of each play (that is, add the gain that you get from it to the gain he _would_ have had, had he played there).]
;W[of];B[mg];W[ng];B[mf];W[lj];B[mk];W[ml];B[kj];W[lk];B[lh]
;W[cg];B[bh];W[qb]C[TJ: Note that this is a big move, since White has many sente follow-ups, while if Black had taken it, he would have had a bigger territory at White's expense.]
;B[pb];W[qd];B[pc];W[rb];B[pe];W[pf];B[qe];W[re];B[so];W[sp]
;B[sn];W[rq];B[on];W[nn];B[no];W[oo];B[nr];W[oq];B[or];W[pr]
;B[gg];W[hg];B[hh];W[eg];B[fg];W[gi];B[hi];W[gf];B[bb];W[ab]
;B[ca];W[br];B[ar];W[lp];B[lq];W[os];B[mr];W[pa];B[oa];W[qa]
;B[ob];W[ln];B[sh];W[sg];B[si];W[dh];B[di];W[dg];B[oe];W[nf]
;B[ec];W[ja];B[ka];W[jf];B[jg];W[ag];B[ah];W[af];B[ns];W[ps]
;B[kp];W[is];B[js];W[hs];B[fl];W[cp];B[hk];W[ff]
(;B[bm]C[I wasn't sure if this was neccessary or not...

TJ: Unnnecessary. If B7 then B8 keeps you happy.];W[bs];B[ee]
;W[as];B[aq];W[ed]C[This
starts a really, really long ko fight that I lose in the end.  I lose the
game by 2.5 points.
Thanks for your time :)

TJ: Both sides played quite well in the fuseki, but some vital points were missed. You both need to work on the endgame. Have the courage to sacrifice stones ("Sacrifice the plum for the peach"). I enjoyed reviewing this game. Good luck!]
;B[om];W[nl];B[ee];W[ci];B[bi];W[ed];B[pq];W[qq];B[ee];W[cj]
;B[bj];W[ed];B[rg];W[sf];B[ee];W[dj];B[ej];W[ed];B[rf];W[qg]
;B[ee];W[im];B[il];W[ed];B[sq];W[sr];B[ee];W[la];B[ma];W[ed]
;B[gn];W[hp];B[ee];W[ea]C[fcred [10k\]: slips  ^^];B[fa];W[ed]
;B[ge];W[he]C[exswoo [11k\]: it looks like it could get ugly if I ignored it :)]
;B[ee];W[sl];B[sk];W[ed];B[ba];W[ee];B[aa];W[ac];B[fn];TW[ra]
[sa][sb][sc][ad][sd][ae][be][ce][ge][se][df][rf][fg][gg][og]
[pg][rg][mj][mk][ll][ol][lm][om][on][do][po][ep][op][qp][rp]
[dq][eq][fq][gq][pq][sq][dr][er][fr][gr][qr][rr][cs][ds][es]
[fs][gs][qs][rs][ss]TB[da][ea][la][na][cb][eb][gb][kb][mb][nb]
[lc][nc][oc][md][od][lf][lg][ih][ai][ci][ii][aj][cj][dj][sj]
[ak][bk][dk][ek][rk][al][bl][cl][rl][sl][am][cm][im][rm][sm]
[an][ao][ap][kq][kr][lr][ks][ls][ms])
(;B[ee];W[bm];B[bl];W[aq];B[ap];W[an];B[aq];W[ed];B[bs];W[cs]
;B[cl];W[as];B[am];W[bs];B[ee]))
(;B[so];W[sp];B[sn];W[rq];B[nr];W[or];B[mr];W[pj];B[os];W[ps]
;B[ns];W[pq];B[rb];W[sb];B[qb]C[TJ: Black has sacrificed 6 points, but has gained big plays at O2 (6 points) and S18 (between 6 and 10 points depending on follow-ups) plus a profitable sente at T5. Not a bad outcome, eh?]
))
(;W[rj];B[oh]))
(;B[ml];W[nl];B[mm]C[TJ: Much harder for White to fight now.]
))
(;W[gf];B[bb];W[ld]))
(;B[id];W[gc];B[he];W[gd];B[ge];W[hb];B[fe];W[cb]C[TJ: Not a great result for Black, anyway, since White has settled both groups easily, but still better than what you actually played.]
))
(;B[bb];W[gf];B[ge];W[he];B[hf]C[TJ: White should have problems defending two weak groups in the same area simultaneously.]
))
(;B[kp];W[mo];B[hp]C[TJ: There are many ways Black could proceed, but the variation I show demonstrates how Black might sacrifice a small number of stones in exchange for building up the centre.]
;W[ip];B[io];W[hq];B[km];W[ln];B[gp];W[gq];B[fo];W[eo];B[fn]
;W[en];B[fm];W[lp];B[kq];W[lq];B[lr];W[mr]C[TJ: This only gains White 4 points in gote, so Black does not mind the sacrifice, since having sente to play a good move like Q11 is clearly more important than the 2 stones lost.]
;B[pi]C[TJ: Looks like a tolerable outcome for Black. White has got a large corner, but Black has the chance to get reasonable territory in the centre as compensation.]
))
(;W[mn]C[TJ: Attacks while cutting down the aji of P8. It will be hard for Black to settle here.]
))
(;B[bb]C[TJ: Not only very big but vital. If White played here, she would live unconditionally, while if you play here, then you will get to attack White's group for the rest of the game, which should be profitable. The reason this move is bigger (and bigger than it looks) is because it has territorial value to both sides, which must be added up to give its real value: if White plays here, then she gets an extra 3 points or so while Black loses 2 or 3 points, plus there are follow-ups to consider (White at B18 creats the chance to play D19 later in sente for 2 more points, while playing here gives Black the chance to attack this group, thereby gaining points). Therefore, this move has a total value of about 10 points at least, I would argue.]
))
(;W[pj];B[rj];W[ri];B[ro];W[rp];B[rn];W[sl]
(;B[sj];W[rl];B[sm];W[so])
(;B[rl];W[sj];B[sk];W[rk];B[qj];W[sk];B[sm];W[si];B[so]C[TJ: A lucky escape! Even so, this is a disgusting result for Black since all those stones gain him only 2 points, while White's outside strength will be decisively influential.]
)))
(;B[pi];W[pj];B[qj];W[oj];B[ri];W[qh];B[rh]C[TJ: Black can live.]
)
(;B[ri];W[rj];B[qj];W[rh];B[pi]C[TJ: Black can escape.])
(;B[oj];W[pj];B[ri];W[rh]
(;B[qh]C[TJ: This does not appear to work.];W[ph];B[rj];W[rn]
;B[rm];W[ro];B[qg];W[rg];B[pg];W[oh];B[sk];W[si]C[TJ: Black dies, but not without complications.]
)
(;B[rj]
(;W[rn];B[pi])
(;W[oi];B[ro]C[TJ: Black lives.]))))
(;W[oj];B[nl]
(;W[mn]C[TJ: Black faces a tough fight.])
(;W[rj])))
(;B[pm];W[om];B[nl]
(;W[pk];B[on])
(;W[on];B[pk])))
(;W[pm];B[pl];W[ol];B[ok];W[nl]C[TJ: Does this not look promising for White? Defending the top right should be easy, given the kikashi points at Q10 and S8 to work with.]
)
(;W[pl];B[pm];W[om];B[on];W[po];B[ol];W[nm];B[pk];W[nl];B[ok]
;W[mj]C[TJ: Again, White seems to be developing on a very big scale, although the aji (potential) of P6 needs to be observed carefully.]
))
(;B[pn];W[np];B[qk]C[TJ: A bit cramped, but acceptable since White herself is slightly vulnerable in the top right and because you retain the option of invading at R3.]
))
(;B[qn]C[TJ: This should give a good result regardless of White's response, either a pincer or a play around O4.]

(;W[np];B[pj]C[TJ: Black is developing with magnificent speed, while White has all her stones in one part of the board.]
)
(;W[ql];B[qq]
(;W[pq]C[TJ: One suspects White should block here if the extension at J3 is to have any meaning.]
;B[qp];W[po];B[rn];W[om];B[jn]C[TJ: This should be satisfactory for Black -- White will get territory on the bottom, but Black has clearly developed much more speedily across the board as a whole. White has weaknesses at Q7 and P6 to be aimed at later.]
)
(;W[qp]C[TJ: This is a dubious choice since White was hoping to get territory on the bottom.]
;B[pq];W[op];B[rp];W[ro];B[rq];W[qo];B[nq];W[qf]))))
(;W[jq]C[TJ: This is the normal move -- White extends properly in both directions.]
;B[hq];W[ip];B[hp];W[ho];B[io];W[go];B[jr];W[kr];B[jp];W[iq]
;B[kq];W[ir]C[TJ: This and related variations represent a pure loss for Black.]
))
