(;FF[4]GM[1]SZ[19]ST[2]CA[UTF-8]AP[SGFC:1.13b]

PB[johnmeyer]
BR[8k]
PW[RickMott]
WR[7k]
KM[0.5]
DT[2002-12-16]
PC[The Kiseido Go Server (KGS) at http://kgs.kiseido.com/]
RE[B+Resign]
TM[1800]
OT[25/600 Canadian]
RU[Japanese]

C[Comment: Andre Bergholz, 2K in Germany, berge on IGS (Comments marked with AB)
AB:  Hi, I'm glad you like my style of reviewing, though I'm not sure I'm the right guy for complicated fights :-). Usually I try to avoid them.

johnmeyer [8k\]: hello
johnmeyer [8k\]: enjoy the game];B[pp]C[RickMott [7k?\]: Hi, please to meet you. :)]
;W[dc];B[cp];W[ce];B[pd];W[eq];B[dq]LB[ep:A]C[AB: Not so good in my opinion, only induces White 'A', which helps White more than it does Black. I'm not a joseki expert, but I would guess there are few if no joseki's starting with D3. I think D6 or a pincer around J7 would be good for Black.]
;W[ep];B[iq]LB[dn:A]C[AB: Better at 'A', then White J3 for instance.]

(;W[nc]C[AB: Big, but I think you cannot tenuki in the lower left. Attaching at C5 gives you the advantage (see variation, the difference between this and a Black stone at D6 is enormous).]
;B[lc];W[qf];B[oc]C[AB: Black seems to like this :-). In this case it's maybe not so bad but still I would prefer attaching at one stone or the other.]
;W[nd];B[pf];W[od]LB[pg:A]C[AB: Aji keshi. This move doesn't gain you much, but helps Black to make his corner solid. For instance, the invasion at 3-3 is no longer possible, a high price to pay. Better just answer at 'A'.]
;B[pc];W[le]TR[od][pc]C[AB: You see that the exchange of the marked stones didn't really help you.]
;B[ic];W[qe];B[pe];W[pg];B[rc]LB[nf:A]C[AB: Normally I advise to play safely, but here I feel that Black's play is slack. Separate White and run out with 'A' is the minimum Black should do.]
;W[gc];B[ie];W[og]C[AB: The sequence G17 P13 has a good feel to it.]
;B[dm]LB[co:A]C[AB: Too far, there is a lot of aji around 'A'. But the area is important, your two stones at the bottom are weak now.]
;W[ck]LB[io:A][qn:B]C[AB: 'A' may be an alternative for helping your stones, but your move may be good, too (at least you probably gain some points on the right in case you lose the stones). In terms of size 'B' seems very big to me.]
;B[ch]LB[gn:A][io:B][qk:C]C[AB: Seems unnecessary for the moment. Enclosing the two stones at the bottom is good (a little difficult because of the bad move D7, but 'A' or just 'B' seem ok to me). If not, something like 'C' is big, too.]
;W[ek];B[eh];W[co]
(;B[cn]C[AB: The variation seems to be more common to me.]
(;W[bo]C[AB: This is an overplay. Drawing back is good enough (see variation).]
;B[do];W[dp];B[cq];W[eo];B[dn];W[al]
(;B[bn]C[AB: Bad (see variation). Even if Black can't read it out, this is an obvious case of aji keshi again. Leave it unplayed if you can't figure it out.]
;W[an];B[bp];W[ao];B[ap];W[am];B[fm]
(;W[br]C[I can't kill here, but I can wind up with a ko threat in sente.
Probably the variation is better, though.

AB: Yes, play outside first.];B[er];W[fr];B[dr];W[gq];B[ar]
;W[bq];B[bs];W[cs];B[cr];W[ho]LB[go:A]C[AB: 'A' seems to be better shape to me.]
;B[lq];W[gj]C[Aiming to pressure white's group and maybe also separate black's
groups at the top center and top left.

AB: Right idea.];B[gg]LB[hm:A]C[AB: I think Black needs to jump to 'A'. This is the weaker and the more important group. Forces White to make life at the bottom.]
;W[hl]C[AB: Very good.];B[hm];W[im];B[hn]LB[gl:A]C[AB: Bad shape, 'A' is better, but doesn't really help either.]
;W[in];B[go];W[gp];B[hp];W[io];B[fo];W[en]
(;B[fn]LB[em:A]C[AB: Block at 'A' seems better (variation).]

(;W[hq]C[This sequence was a mistake -- could have killed black's group
by pushing at D7.  See variation.];B[ip];W[ir];B[gl];W[hk];B[bl]
;W[bk];B[bm];W[ak];B[cl];W[el];B[em]
(;W[fl]C[RickMott: This is a blunder, should kill with throw-in at G7  The latter
seems to lead to a ko for the group, though, so black gets two moves
elsewhere.  Would you see if I missed anything in the variation?  Am I
better off to kill it (40 points) or keep sente?];B[gm]C[samael [?\]: h7 would've killed]
;W[jq];B[jp];W[kp];B[pj];W[ko];B[pq]C[AB: Big plays by both sides.]
;W[qn]LB[ql:A]C[AB: You could think about 'A', it's closer to your group and not so near Black's strength.]
;B[ql]C[AB: Good answer.];W[po];B[qh]C[AB: Aji keshi.];W[qg]
;B[oo]C[AB: It's better not to attach, O4 for example.];W[on]
;B[qo];W[pn];B[ro];W[op];B[no];W[np];B[mo];W[mp];B[lp];W[lo]
;B[mn]
(;W[mq]C[Oops, I decide to make my own empty triange to match black's.  Dumb.

AB: Yup, you could have captured. Now your stones on the right are even weaker than in the beginning. Still N7 is a good point for you afterwards.]
;B[kq]
(;W[jo]C[Blunder.  Must connect at K2.];B[mr];W[fh]LB[fg:A]
C[AB: You could think about cutting at the other point 'A'.]
;B[fg];W[eg];B[ef];W[dg];B[df];W[cg];B[dh];W[cf];B[dk];W[dj]
;B[dl];W[ci];B[ej];W[ei]C[AB: Good sacrifice.];B[fk];W[fj];B[gh]
;W[fi];B[jh];W[lh];B[nl]
(;W[hf]C[Need to rescue my stones with N7.  See variation.]

(;B[he]LB[ge:A]C[AB: Maybe at 'A' (see variations).];W[gf];B[ge]
;W[ff];B[fe];W[ee];B[fc]C[AB: The gain for White is questionable.]
;W[if];B[jf];W[je];B[jd];W[ke];B[ig];W[de];B[hg]LB[ef:A]C[AB: First thrown-in at 'A'.]
;W[ef];B[kj];W[mm];B[oq];W[ml];B[nm];W[nk]
(;B[mj]C[AB: Very bad, never peep when you can cut (later).]
;W[nn];B[nq];W[ol];B[mk];W[nj];B[ni];W[mi];B[li];W[mh];B[kh]
;W[ii];B[ji];W[ij];B[ll];W[lm];B[km];W[ln];B[kf]
(;W[ih]LB[lk:A]C[This was a mistake.  Should have played M14 (see variation).  Also kills
the eye, but keeps weak groups from getting in trouble.

AB: Double-atari at 'A' looks good and simple to me.];B[lg]
;W[jg]LB[mg:A]C[AB: White must block 'A' now, because White is weak, too.]
;B[kl];W[jk];B[mg];W[nh];B[ng];W[oi];B[nf];W[of];B[ne];W[oe]
;B[md]C[AB: Terrible loss.];W[ob];B[pb];W[me];B[ld];W[lk];B[kk]
;W[nb];B[qb]LB[ra:A]C[AB: This shape looks strange, better play at 'A'.]
;W[rl];B[rm];W[rk];B[qm];W[qi];B[qj];W[rj];B[pi];W[ri];B[qk]
;W[ph];B[eb];W[ec];B[db];W[fd];B[fb];W[gd];B[cc];W[id];B[hd]
;W[hc];B[id];W[ib];B[kd];W[jb];B[bd];W[cd]LB[be:A]C[AB: Should block at 'A'.]
;B[be]TR[je][ke][le][me]C[RickMott [7k?\]: Thanks --- I have to go, got a call from my wife.  Sorry....
johnmeyer [8k\]: thanks f

AB: I think Black is about ten points ahead, and the game is pretty settled now, so Black should win. The loss of the four marked stones was the last big one and decided the game. There was a lot of fighting going on, and fighting means there is a lot of chance. If you win one fight it does not necessarily mean you will win the next one as well. I think both of you should move from the all-or-nothing approach to a more balanced approach. Often you can make as many points with a simple risk-free move. Also, study heavy shape vs. sabaki (that's very difficult, I don't get it either :-)). But it teaches you to make the target big before attack and vice versa to make flexible shape and sacrifice when in danger. If you have any more questions, don't hesitate to contact me under Andre.Bergholz@xrce.xerox.com.]
)
(;W[lf]
(;B[ih];W[kg];B[hi];W[gi]
(;B[jj];W[lk])
(;B[kk];W[jj]))
(;B[lg];W[mg])))
(;B[mk];W[nn];B[nq];W[ok];B[lm];W[ll];B[kl];W[lk];B[lj];W[mj]
;B[kk];W[mk];B[rn];W[ij]C[AB: Black is still in trouble.]))
(;B[ge]
(;W[he];B[hd];W[gd];B[if];W[hg];B[hh];W[ig];B[jg])
(;W[if];B[jf];W[he];B[hd];W[je];B[id];W[jg];B[kf];W[ig];B[kg]
;W[ih];B[ii];W[ji];B[kh];W[hi];B[ij];W[hh];B[gd]TR[je][le][lh]
[og][pg][qg][qf][qe][nd][od][nc]C[AB: Black will have a good attack on the marked stones.]
)))
(;W[mm]))
(;W[jr]C[I had two chances to save the situation and missed both.]
))
(;W[mm]C[I really must learn to count liberties.]))
(;W[gm]C[RickMott: Blunder, should have killed the group here]
;B[gn]
(;W[fl]C[AB: Here you could depart and save your own stones first, but since you'll win anyway there is no reason to do so.]
;B[dk];W[dj];B[dl];W[cj];B[ej];W[fk];B[fj];W[gk];B[di];W[fp]
;B[ci]C[Black can set up a ko fight for the group.];W[gm]C[Now black can play two moves anywhere he wants, because white
 has to take the ko.  Is there a better sequence for white than this?
Can black make up a 38-point loss with 2 moves?

AB: The ko is bigger than that. If Black wins, not only does he keep his stones, but also captures your stones on the left (more than 20 points in addition). I don't see anything as big.]
;B[cd];W[cm];B[dd])
(;W[ci];B[fl];W[bh])))
(;W[em];B[dl];W[dk];B[el];W[fl];B[fp];W[fq];B[gl];W[fk];B[hk]
;W[il]C[This variation kills outright, but I didn't see it.]
))
(;B[em];W[fp];B[gm];W[fn];B[gn];W[hr];B[ir];W[gs]C[AB: Black is still in trouble, but there is some aji.]
))
(;W[dr];B[cr];W[er];B[br]))
(;B[an]C[AB: Captures White.];W[bn];B[bm];W[am];B[bp];W[ao]
;B[ap];W[an];B[bl]))
(;W[do];B[bo];W[bn]
(;B[bp];W[em]C[AB: I think this move helps you to connect your groups and makes use of the shape.]
;B[bm];W[el])
(;B[bm];W[bp];B[an];W[cq]C[AB: Good for White.])))
(;B[do];W[dp];B[cq]
(;W[cn];B[dn];W[cm];B[dl]C[AB: A difficult fight.])
(;W[dn]C[AB: This White move is maybe a little worse, because...]
;B[cn]C[AB: ...now Black can get good shape.];W[eo];B[bo];W[bn]
;B[do]C[AB: Acceptable for Black, because White is almost forced to connect at E6.]
)))
(;W[co];B[bo];W[cn];B[bn];W[cm]))
