(;FF[4]GM[1]SZ[19]ST[2]CA[UTF-8]AP[SGFC:1.13b]

PB[marc9]
PW[auf]
WR[7k]
KM[5.5]
DT[2002-12-23]
PC[The Kiseido Go Server (KGS) at http://kgs.kiseido.com/]
TM[2100]
OT[3x60 byo-yomi]
RU[Japanese]

C[ablout fuseki  can you tell me about concept of fuseki and during the game ?
thank you for comment.
and sorry for my bad english.];B[dp];W[pd];B[pp];W[dd];B[qf]

(;W[fq]C[typically one would respond to the kakari in the upper right at r14, but in it not always needed

however, the approach at f3 is the wrong direction, in fuseki, you always have the choice to build your own moyo or destroy the opponents, and given equal choices, it is better to build your own, though if you can do both it is even better

due to this reason an approach at c6 is much easier (see variation)]
;B[dn];W[dr];B[cq];W[iq];B[nc];W[oe];B[qc]
(;W[qn]C[I think another move in the upper right is better (see variation)]
;B[ql];W[qd];B[pc];W[qh];B[pn];W[md];B[mc];W[ld];B[od];W[nd]
;B[oc];W[pe];B[pg]C[q13 is a very dangerous move for black ...probably too soon to do this]
;W[qj];B[ng];W[lc];B[cf];W[rc]C[I do not think this play is sente]
;B[rb];W[rd]C[suppose black plays tenuki here (see variation)]

(;B[sb]
(;W[lb]C[this is not sente either (see variation)]
(;B[mb];W[ni]C[this seems too far, it may come into trouble later]
;B[lg];W[li];B[jg];W[hd];B[oi]C[this black play is trouble for white]

(;W[pi];B[oh];W[oj];B[nj];W[mi];B[ok];W[pj];B[mk];W[mf];B[mg]
;W[rf];B[kj];W[ck]C[lower side seems easier to make territory than left side]
;B[ci];W[bn];B[cr];W[co];B[do];W[lq]C[white left side still too weak, cannot tenuki this fast]
;B[nq];W[bd]C[this is sort of far when you have a weakness at f16, solid play at c16 is easier]
;B[bl];W[cl];B[bk];W[cm];B[el];W[cj];B[bi];W[bj];B[aj];W[ej]
;B[eh];W[di]C[this move seems to have no real purpose, it helps blacks position]
;B[dh];W[gk]C[knights move is better for attacking, when defending or running you should use 1 point jumps]
;B[fk];W[fj];B[gl];W[gh];B[gg];W[hg];B[gf];W[fm];B[fl];W[ji]
;B[ki];W[hk];B[hl];W[ik];B[ei];W[dj];B[jj];W[il];B[gn];W[in]
;B[cc];W[cd];B[ec];W[dc];B[ed];W[ee];B[fe];W[df];B[ef];W[de]
;B[gd];W[eg];B[ff];W[fh];B[dg];W[fg];B[bf]
(;W[fi]C[this move does nothing really];B[bg];W[ch];B[cg];W[ai]
;B[ah];W[af];B[cb];W[eb];B[fb];W[db];B[bc];W[fc];B[fd];W[gc]
C[white played well overall, I think you need to avoid the temptation to invade too much, when building your own moyo is easier. also make sure to watch your weak group, it is far too easy to get caught up in playing tenuki alot, but leaving weak groups behind and costing you.]
)
(;W[hc];B[bg];W[ch];B[bh];W[af]C[the black group is still dead here]
))
(;W[oj]C[this seems like a better response for white]
(;B[pi];W[pj];B[qi];W[ri];B[rj];W[rk];B[rh];W[sj];B[rg];W[nh]
;B[og];W[mk]C[white ends off with a better shape this way])
(;B[oh];W[pj]C[similar to actual game, but a little better for whites shape]
)
(;B[nj];W[ok];B[mi];W[mj];B[nh];W[nk]C[this leaves white with a good shape, and I think the ko is fine for white]
)))
(;B[ef]C[if black plays elsewhere];W[oa]C[white tries to kill by reducing the eyespace]
;B[na];W[nb];B[pa];W[ma];B[ob];W[qa];B[mb];W[pb];B[qb]C[the black group has been made alive now]

(;W[na];B[ra])
(;W[ra];B[na]C[black makes a double ko this way])
(;W[pa];B[ra])))
(;W[oi]C[a play here is probably better, strengthening white while weakening black]
))
(;B[ef];W[sb];B[ra]
(;W[lb]C[this is another possible way to kill];B[mb]
(;W[pa];B[pb];W[na];B[ma];W[qa];B[oa];W[ob];B[nb]C[I cannot see a good way for black to kill]
)
(;W[ma];B[na];W[oa];B[ob]C[black can make life this way]))
(;W[mb]C[hane seems the natural way to kill if there is one]
;B[nb];W[lb];B[pa]C[black alive now];W[na])))
(;W[pc];B[qd];W[og]C[can try to build something up top and keep black low on side this way]
))
(;W[cn];B[fq];W[dj]C[here we can see that the white stone in the upper left is of more use]
))
