(;FF[4]GM[1]SZ[19]ST[2]CA[UTF-8]AP[SGFC:1.13b]

PB[ZeroKun]
BR[30k]
PW[Amphigory]
WR[25k]
KM[0.5]
DT[2003-01-12]
PC[The Kiseido Go Server (KGS) at http://kgs.kiseido.com/]
RE[W+2.50]
TM[1740]
OT[3x30 byo-yomi]
RU[Japanese]

C[Most Important Advice
- in the opening, don't play further than the 4th line away from the edge, until the corner and sides are all claimed
(exceptions are if a group is in danger, for example if 'pinched' jump toward the centre or connect underneath, if possible)
- play in large gaps between stones to link them up and form side territory
- protect your territory in the corners and sides, don't let opponent 'get below' and skirt into your territory
BTW, I also play on KGS as kk1.
];B[pp];W[pd];B[dp];W[dd];B[pg]TR[qf]
SQ[of][qi]C[An approach to a stone on the 4th line is usually done on the 3rd line, r14. This threatens to sneak into the corner, and helps to 'seal' the end of you territory by being closer to the edge of the board. If white (W) defends the corner, a very safe follow up move is r11. If W pinches by playing at r12, escape with the move at p14.]
;W[nd];B[cn];W[df];B[ch];W[cf];B[le]TR[ic][dj]SQ[fc][lc]C[d10 would be better because it almost joins up with the corner and stakes a claim on the left side. If you choose to invade, pick and open spot on the 3rd line, such as j17, then you have the option of a 2-point jump left or right--if W plays one, jump the other way to take territory and safety.]
;W[of];B[mg]TR[qj][qm]C[These stones would be more effective if they had been played to take side territory. Compare the situation to if they had been played at the marks. It takes more stones (and turns) to get the same amount of territory in the open centre of the board than in the corners or sides, so take the big and quick points first.]
;W[og];B[ph];W[oh];B[oi];W[pf];B[pi]C[That was a good sequence for B. W didn't get much and you have a solid group--even better if you link it up with the bottom corner.]
;W[jq];B[lo]TR[mq]C[Too far from edge. If W plays on 3rd line, you should do same to prevent sneaking into your side and corner area.]
;W[lq];B[nq];W[mp];B[no];W[np];B[op];W[mo];B[mn];W[nn];B[oo]
;W[ln];B[mm];W[kn];B[om];W[gq]
;B[go];W[er];B[cr];W[fd];B[hd]
TR[dk];W[lc];B[nk];W[qg];B[pk]TR[qh]C[These two weren't really necessary, you're pretty strong there already. You should stop the seepage of W at R13 instead.]
;W[rh];B[qq]TR[ri]C[This corner is a bit vulnerable but, not as much as the invasion into the side from above, so defend there first.]
;W[rj];B[rl];W[rk];B[ql];W[sl];B[sm];W[sk]C[ZeroKun [30k?\]: finally some makes good moyo
ZeroKun [30k?\]: someone*];B[mr]TR[rm]C[You must defend against W playing at s7--see the variation.
N2 is not needed to make your group safe, and only gets a few extra points of territory.]

(;W[lr];B[ms]TR[ck]C[Again, not yet needed. When you are not in trouble, play in a different area where more points can be claimed. The marked move is rock solid and takes all of the remaining left side, as well as making a wall facing toward the open middle for more potential territory, especially combined with G5.]
;W[ls];B[os]C[Not needed, and better played at P2 or O2.];W[mq]
;B[or];W[ff];B[gg]C[That's quite good because it can be used to make large territory in the L11 area, or in the E9 area--but not both, since W can break through one of the sides.]
;W[eh];B[dj];W[di];B[ci];W[ej];B[dk];W[ek];B[dh];W[ei];B[bg]
;W[bf];B[jj]C[That was very good, secured territory on the left side, and staked out a big area in the middle.]
;W[fg];B[gh];W[eq];B[ep];W[hp];B[io];W[ip];B[jn];W[ko];B[nh]
C[Good, that was one of the threats into your large claim.]
;W[jo];B[in];W[el];B[dl];W[em];B[dn];W[gm];B[hm];W[gl];B[qc]
;W[pb];B[rd]TR[qb]C[The 3-3 corner invasion is good, but follow up by making a two-stone wall between W and the edge. If you defend the corner, it's much easier to make life.]
;W[qb];B[pc];W[oc];B[re];W[qf];B[kb];W[kc];B[jb];W[gc];B[hc]
;W[lb];B[jc];W[kd];B[ke];W[jd];B[id];W[je];B[jf];W[hb];B[ie]
;W[hl];B[jm];W[il];B[jl];W[hj];B[qi];W[ri];B[si];W[ib];B[ic]
;W[gf];B[hf];W[gd];B[jh];W[hi]C[ZeroKun [30k?\]: its nice to play someone that doesnt play alot of direct attacks]
;B[hh];W[gi];B[ii]C[That sequence was well played.];W[ij];B[ik]
;W[hk];B[jk];W[fh];B[lm];W[km];B[kl];W[ag]C[ZeroKun [30k?\]: hey aeol, too bad i canther him]
;B[bh];W[ah];B[ai];W[af];B[me];W[md];B[nf];W[oe]C[The variation was just to see if B could've lived in the top right. I also think it's a lost cause at this point.]

(;B[ne];W[rb];B[la];W[ma];B[ka];W[nb];B[eo];W[gn];B[dr];W[dq]
;B[cq];W[es];B[ds];W[fp];B[fo];W[dm];B[cm];W[hn];B[im];W[ho]
;B[lk];W[ge];B[he];W[ld];B[qj];W[qh];B[ia];W[gb];B[ha];W[ga]
;B[ja];W[dg];B[fn];W[fm];B[en];W[qk];B[pm];W[ng];B[mi];W[gp]
C[There are two weaknesses left here. One is immediate at S7, as I already pointed out.
The other is at A10 which would cause loss if not for the extra liberty at C13. See the following variation, if B were to ignore it.
After reading the review, go back to the beginning and re-read the summary comments. If you apply them you can jump 5 kyu without much else.
]
(;TW[aa][ba][ca][da][ea][fa][na][oa][pa][qa][ra][sa][ab]
[bb][cb][db][eb][fb][mb][ob][sb][ac][bc][cc][dc][ec][fc][mc]
[nc][pc][qc][rc][sc][ad][bd][cd][ed][od][qd][rd][sd][ae][be]
[ce][de][ee][fe][pe][qe][re][se][ef][rf][sf][eg][rg][sg][sh]
[fi][si][fj][gj][sj][fk][gk][fl][lo][jp][kp][lp][fq][hq][iq]
[kq][fr][gr][hr][ir][jr][kr][fs][gs][hs][is][js][ks]TB[if][kf]
[lf][mf][hg][ig][jg][kg][lg][ih][kh][lh][mh][bi][ji][ki][li]
[ni][aj][bj][cj][kj][lj][mj][nj][oj][pj][ak][bk][ck][kk][mk]
[ok][al][bl][cl][ll][ml][nl][ol][pl][am][bm][nm][qm][rm][an]
[bn][nn][on][pn][qn][rn][sn][ao][bo][co][do][po][qo][ro][so]
[ap][bp][cp][qp][rp][sp][aq][bq][oq][pq][rq][sq][ar][br][nr]
[pr][qr][rr][sr][as][bs][cs][ns][ps][qs][rs][ss]C[ZeroKun [30k?\]: so whatd you think aeol?
Amphigory [25k?\]: you invaded at top
Amphigory [25k?\]: helped me
ZeroKun [30k?\]: yah
Amphigory [25k?\]: cut thru middle at top, hurt me
ZeroKun [30k?\]: just wondering what he thought
Aeolotrope [2k?\]: Amph missed a cut at S7
ZeroKun [30k?\]: damn if i got that close i aint that bad
Aeolotrope [2k?\]: needs play at S6, say
ZeroKun [30k?\]: ok
Aeolotrope [2k?\]: you join fairly well now
ZeroKun [30k?\]: that could of put down my territory a bit more
Aeolotrope [2k?\]: still, 2.5 is even result
ZeroKun [30k?\]: well the good think is i wasnt think as hard
ZeroKun [30k?\]: i was listening to my music
Aeolotrope [2k?\]: should be 20~30 points for amph at even game
ZeroKun [30k?\]: ?
Aeolotrope [2k?\]: about 10 points expected per stone/ rank difference
ZeroKun [30k?\]: ok
Aeolotrope [2k?\]: is not accurate under 20k but])
(;W[aj]C[This variation shows B is safe (because of the liberty at C13).]
;B[bi];W[bj];B[cj];W[bk];B[cl])
(;W[cg]
(;B[bj]C[This is how B should respond if W fills in that liberty.]
)
(;B[rm]C[Now if B ignores the situation on the left side, here's the result.]
;W[aj];B[bi]C[B will lose at least the upper group on the left.]

(;W[cj])
(;W[bj];B[cj]C[...or more if attempt to save.];W[cl];B[ck];W[bk]
)))
(;W[rm]C[This weakness was already pointed out after T9 was played.]
;B[sn];W[rn];B[so];W[ro];B[sp]))
(;B[rb];W[ra];B[sc];W[qd];B[rc];W[rf];B[se]))
(;W[rm]C[The second variation shows how much B can save after S7 is played.]

(;B[sn];W[rn];B[so];W[ro];B[sp];W[rp];B[sq];W[rq];B[sr];W[rr]
;B[ss];W[rs])
(;B[rn];W[sn];B[so];W[sm];B[ro];W[qm];B[pm];W[qn];B[qo];W[pn]
;B[on])))
