(;FF[4]GM[1]SZ[19]ST[2]CA[UTF-8]AP[SGFC:1.13b]

PB[pyro]
BR[16k]
HA[2]
PW[Ixiah]
WR[12k]
KM[0.5]
DT[2003-01-20]
PC[The Kiseido Go Server (KGS) at http://kgs.kiseido.com/]
RE[W+Resign]
TM[2700]
OT[25/900 Canadian]
RU[Japanese]

AB[pd][dp]C[Dear players,
My name is Peter. I am only a 2k in my country (Germany). I am playing as no2k, go4fun or erazor mainly at KGS. So don't take my comments as the truth. My rating is only a little better than yours.
This was a very nice game to review. Both players did not make any big mistakes, but the big ko in the end. The opening was rather reasonable, and I could not have done better. You both will improve very fast I think. I hope my comments are a little useful. If there are any questions please contact me.

Yours Peter (no2k)];W[cc];B[pq];W[qo];B[op];W[pl];B[kq];W[cn]
;B[ck];W[cq]
(;B[cp]C[Another alternative is blocking the other side. This seems bigger because of the other black stones.]
;W[dq];B[eq];W[er];B[fq];W[fr];B[gq];W[bp];B[bo];W[bq];B[co]
;W[fd];B[qh];W[qj];B[oh]C[This is very early. The 3-3 point is still open. It is easier to play R16, which protects against the invasion at R14 too.]
;W[ci];B[dj]C[This helps white to build up territory.  Compare the white upper left and the black lower left, and consider how many stones have been necessary.]
;W[mh]C[D11 is a must. N14 seems to have no value.];B[md]C[Good. But this leaves the 3-3 point still open to an invasion. If white invades there, you wish to have a stone near K16. So I think a move like K16 or O17 is bigger. O17 protects against the invasion.]
;W[qc]C[Good.];B[qd];W[pc];B[rc]C[Don't be afraid about some points in the corner. Don't let white have influence in the center.]
;W[nb]C[S18 is sente. After that O18, P17 or even P16 is possible.]
;B[mb];W[od]C[Good.];B[nc];W[oc];B[ob];W[nd]C[This help only black. Q18 is easier. Followed by S18 gives white 1.5 eyes.]
;B[na];W[nf];B[ic]C[You have not time for that. Q13 is severe. If you answer at Q12, white R14 separates your stones. If black R14, white Q12 gives him much influence.]
;W[pf];B[rf];W[ko]C[Good move, reducings whites moyo.];B[on]
C[Good answer frustating whites aim.];W[no];B[pn];W[qn];B[qp]
C[This is sente.];W[mq];B[qm]C[Punishing white for ignoring your last move.]
;W[rm]
(;B[rn]C[Does that work?]
(;W[pm]C[But what about S5?]
(;B[ro]C[You could also consider first R8];W[ql];B[io]C[Better at J4 I think.]
;W[jp];B[ip];W[jq];B[iq];W[jr]C[This is too easy for white.]
;B[jm];W[gk];B[dg]C[Good idea for gaining strength. But this seems very difficult.]
;W[di];B[ei];W[ej];B[fi];W[cg];B[hi]C[You should first protect your too black stones with E9.]

(;W[eh]C[Ithink D9 is worth trying.];B[fh]C[Not really necessary. This helps white to protect the corner. K10 or L11 immobilizes the white stones.]
;W[eg];B[fg];W[ef];B[lf]C[Good.];W[mf];B[lg];W[nh];B[fb]C[Why stopping here now. This is dangerous. Your stones do not have definite eye space too.]
;W[gb];B[gc];W[hb]C[Overplay. Just F17 is ok.];B[hc];W[eb];B[fc]
;W[ec];B[fa];W[ik];B[kk];W[jj];B[lh];W[li];B[ki];W[kj];B[lj]
;W[mi];B[ll]C[Now your stones on the right have a hard time.]
;W[jn];B[im];W[in];B[hn];W[hm];B[kn];W[jo];B[ln]C[pyro [16k\]: soon ill have sweaty palms   ::))
Ixiah [12k\]: i like fights :o)];W[nn]C[pyro [16k\]: see my smile!
Ixiah [12k\]: dungeon keeper.....i have played it];B[np];W[lo]
;B[mo];W[mn];B[mp];W[nl];B[nk]C[I think N7 is necessary];W[ml]
;B[mk];W[mj]C[Unnecessary. There is no eye. J8 seems to kill black.]
;B[hl]C[This is the last chance.];W[gm];B[hk];W[hj];B[gj];W[gl]
;B[ij];W[il]
(;B[jk]C[J10 is enough.];W[hj];B[ji];W[pi];B[lq]C[Good idea.]
;W[fo];B[go];W[hs]C[This is wrong. The move that connects is G1 or J1. But better is L7.]
;B[gs]C[Great.];W[gr];B[is];W[hr];B[ir];W[km]C[pyro [16k\]: oh
Ixiah [12k\]: hehe];B[fp]C[Too early. First K8 to keep the white center separated.]
;W[en]C[Too ambitious.];B[bn];W[cm];B[bm];W[gn];B[ek];W[cj]
;B[fj];W[bl];B[bk];W[cl];B[al];W[dl];B[dk];W[do];B[ep]C[Why???]
;W[ho]C[Small. S18 is biggest.];B[hp];W[gp];B[jl]C[This is too late. White is already connected.]
;W[lm]C[Bigger is H3 or S18.];B[go];W[rb]C[At last...];B[rd]
;W[gp];B[hq];W[bj];B[kr]C[Small. Big is S11.];W[ph]C[S11 first.]
;B[ri]C[Good.];W[qf];B[qg];W[rj];B[qe];W[qi];B[rh];W[om];B[po]
;W[ge];B[fe]C[That doesn't work];W[ff];B[gd];W[ee];B[he];W[hf]
;B[ie]C[You can play J14 too.];W[if];B[gg];W[gf]C[Ixiah [12k\]: tough game]
;B[me]C[K14 is bigger];W[aj];B[ak]C[pyro [16k\]: yes undoubtable]
;W[je]C[Overplay. K14 is right.];B[jf];W[jg];B[kf];W[ih];B[ii]
;W[eo];B[rl]C[Overplay T7 is okay. Biggest is E19. There is also E8 which is sente.]
;W[rk];B[qm];W[qn];B[sm];W[sl];B[sf]C[Unnecessary.If S17 and S11 were missing all white can gain is a seki. Black lives here unconditionally.]
;W[pb]C[pyro [16k\]: but you did such a good job on wiping out my terr
pyro [16k\]: huäh - weep];B[oe]C[Ixiah [12k\]: i really tried ....you had a really nice moyo
pyro [16k\]: yes had..];W[ne];B[of];W[og];B[pe];W[pg];B[mg]
;W[ng];B[oj];W[oi]C[E19 or T17 are bigger.];B[el];W[sb]C[That is dangerous now.]

(;B[sc]C[Try D6...];W[em]C[Good];B[ea];W[db];B[da];W[ca];B[ok]
C[This is a dame point. If white were to play there he could make 3 points in gote. H9 is sente. K1 is worth 3-5 points in gote.]
;W[js];B[ks];W[pa]C[This is 1 point in gote. M4 is sente, A4 is sente, L8 seems sente.]
;B[oa];W[kl];B[lk];W[hh];B[gh];W[nj];B[jh];W[ig]C[L13 is worth 1 point. But still there are bigger points.]
;B[kg];W[si];B[sh];W[sj];B[hk];W[hl];B[qo]C[This dame. T6 or A5 or G5.]
;W[fl];B[sn];W[qm]
(;B[ap]C[This is risky because it will cost one important liberty. Better is A5.]
;W[aq];B[ao];W[am];B[go];W[fk];B[ej];W[gp];B[bb]C[hidden [9k\]: too bad o threats for black]
;W[an];B[cb];W[hj]C[pyro [16k\]: is resigning valid on league games?
Ixiah [12k\]: yes
pyro [16k\]: ok sorry for not carrying on then..
Ixiah [12k\]: thats all right....it was a good game
pyro [16k\]: you do understand i guess
Ixiah [12k\]: thanks for the game
pyro [16k\]: thank you for lesson ::))
hidden [9k\]: nice game, too bad didnt had the threats to answer the ko
hidden [9k\]: black*
Ixiah [12k\]: i play in chess tourneys ....resigning is courteous]
)
(;B[ao];W[ap];B[go]C[Now];W[am];B[an];W[gp];B[am];W[fk];B[go]
;W[sg];B[rg];W[gp];B[ej];W[lp];B[mr];W[pk];B[go];W[hn];B[hj]
C[Now the game game is pretty close. 0.5 points for black as it stands. The ko at G4 will decide the game. Great fight.]
))
(;B[dn];W[dm];B[em];W[dn];B[go];W[fn];B[hn]C[This is a huge ko. You can afford to ignore ever other threat.]
;W[sc]
(;B[ho];W[sd]C[The top right is worth 39 points. The white center group is worth 44 points. So it is better to gain somewhere another 10 points instead of finishing to ko now.]
)
(;B[sd];W[ho];B[dd];W[ed];B[hn];W[si];B[sh];W[ho];B[ea];W[db]
;B[hn];W[sg];B[rg];W[ho];B[da];W[ca];B[hn];W[re];B[se];W[ho]
;B[bb]C[He must finish to ko now.]
(;W[cb];B[hn];W[jd];B[ho];W[jc];B[ib]
(;W[jb];B[id])
(;W[id];B[jb]))
(;W[gp];B[cb];W[bc];B[ab];W[ba];B[aa];W[ca];B[ba];W[ac];B[ca]
))))
(;B[hj]
(;W[km];B[jl]C[This are 2 unimportant stones.])
(;W[jl];B[km];W[jk];B[ji]C[This is futile.])))
(;W[dk];B[cj];W[dl];B[bn];W[bl];B[cl];W[cm];B[ek];W[fj];B[dm]
;W[el];B[bm];W[bj];B[dn];W[bk];B[cm];W[ik]C[This way white can make an eye or has time to escape.]
))
(;B[ql];W[rl];B[ro];W[qk];B[qm];W[ql];B[po];W[qm]C[White has less eye space this way.]
))
(;W[ro];B[rl];W[sn];B[ql];W[qk];B[pm];W[rp];B[rq];W[sp]C[No This is no good for white.]
))
(;B[ql];W[rl];B[qk];W[rk];B[pm])
(;B[rl]
(;W[pm];B[ql];W[rn];B[pk];W[nm];B[ok];W[nl];B[qk];W[rp];B[rq]
;W[so];B[sm])
(;W[ql];B[pm];W[rn];B[rk];W[rj];B[ol];W[pj];B[lp];W[lo];B[mp]
;W[ll])))
(;B[dq];W[cp];B[do];W[bn];B[em]))
