(;FF[4]GM[1]SZ[19]ST[2]CA[UTF-8]AP[SGFC:1.13b]

PB[Bee]
BR[9k]
PW[senor]
WR[8k]
KM[0.5]
DT[2003-02-02]
PC[The Kiseido Go Server (KGS) at http://kgs.kiseido.com/]
TM[600]
OT[5x60 byo-yomi]
RU[Japanese]

C[This is the first game I've sent for review.  I hope you can tell me what I should concentrate on, and what mistakes I do.  I've added a couple of questions also.

I played black, but it would be very interesting to see what mistakes white made as well.

Thank you very much!];B[pp]C[Bee [9k\]: Hi];W[dd];B[qd];W[dp]
;B[oc];W[qj]C[A good move.];B[fc]LB[cf:A][cj:C][dj:D][cn:B]
[jp:G][fq:E][jq:F]C[Should I've played something like R12 instead?

You commonly want to play into the widest area in the opening.  The top is 10 wide, while the left and bottom are 11 wide, so they are bigger.  A, B, C, D, E, F or G are all good.  Some like the high kakaris too.]
;W[cf];B[db];W[cc];B[ic]LB[ic:A][jc:D][oc:B][hd:C]C[Black is now kind of low on the top side, so this was perhaps a poor choice.  It's better to be balanced high-low.  A and B are low-low.  B could've played C instead of A, but this leaves a White attack at D.]
;W[qf];B[fq]C[In situations like this, I have difficulty seeing if I should play C6, R7, C9 or something else.  What should I look for?

This choice is no easy to make, particularly if you don't know the josekis that might be used.

You've played into the widest side.  Good.];W[ph]C[This is a slow move.]
;B[cn]LB[dn:A]C[Good, although perhaps A would be better.];W[fp]
;B[gp];W[fo];B[eq];W[do];B[dq];W[go];B[ck];W[bp];B[ch];W[cb]
;B[hp];W[cq];B[qm];W[jq];B[mq]LB[mq:A][oq:B]C[This has a poor relationship with A (B is better with respect to the corner).]
;W[lp];B[mp];W[lo];B[mn]C[This should've been R3 maybe?

Yes, R3 would be better here];W[qq]C[Should he be able to live here?

Yes.  I think W should be able to live, and should at the very least be able to get a ko.  Please see variation for the line I think W can live with.]
;B[qp]
(;W[rp];B[ro];W[rr];B[pr];W[pq];B[oq];W[or];B[nr];W[op];B[nq]
;W[qr];B[os];W[qo];B[po];W[sq];B[qn];W[hr];B[gr];W[hq];B[gq]
;W[ip];B[ho];W[gm];B[io];W[jo];B[jn];W[kn];B[jm];W[km];B[jl]
;W[hm];B[hn];W[em];B[cm];W[mm];B[nn];W[lk];B[ld];W[lc];B[kc]
;W[kd];B[jd];W[md];B[le];W[me];B[lf];W[nc];B[oe]LB[od:A]C[This probably should be A.  When your lone stone is kicked, stand up.]
;W[kb];B[jc];W[ob];B[pc];W[mb];B[mf];W[pb];B[qb];W[rl];B[kl]
;W[ll];B[co];W[cp];B[cr]C[Mistake.. gote];W[br];B[ds];W[ol]
;B[ql];W[qk];B[rm];W[sl];B[nh];W[ne];B[nf];W[lr];B[fe];W[eb]
;B[ec];W[dc];B[fb];W[da];B[fg];W[fi];B[fk];W[gk];B[fj];W[gj]
;B[gi];W[hi];B[gh];W[ij];B[jj];W[fl];B[dk];W[ji];B[kj];W[ig]
;B[re];W[rf];B[jf];W[bh];B[bi];W[bg];B[ci];W[ef];B[ff];W[eg]
;B[eh];W[if];B[ki];W[jh];B[nj];W[nk];B[pf];W[pg];B[he];W[oj]
;B[oi];W[pi];B[mj];W[jb];B[ib];W[qa];B[rb];W[qe];B[rd];W[pe]
;B[of];W[am];B[bm];W[an];B[al];W[bo];B[bn];W[ao];B[bl];W[lq]
;B[sf]TW[db][mc][rq]TB[qo][or]C[Please see variation.]
(;W[rg];B[sg];W[sh];B[se];W[rh];B[mk];W[ml];B[om];W[pl];B[so]
;W[sp];B[sm];W[rj];B[ik];W[ie];B[hk];W[hj];B[kh];W[hh];B[ee]
;W[de];B[dg];W[df];B[hs];W[is];B[ir];W[gs];B[fs];W[jr]LB[hs:A]
C[I believe you can play A here.];B[hl];W[gl];B[ra];W[pa];B[ja]
;W[ka];B[ia];W[je];B[ke];W[gg];B[fh];W[gf];B[hf];W[hg];B[ge]
;W[cg];B[bs];W[ar];B[ah];W[ag];B[ai];W[pm];B[pn];W[nm];B[on]
;W[oh];B[ni];W[mo];B[no];W[ms];B[ln];W[lm];B[fa];W[hs];B[jg]
;W[dh];B[di];W[kk];B[jk];W[lj];B[li];W[ek];B[ej];W[im];B[in]
;W[ed];B[el];W[fd];B[gd];W[dn];B[dm];W[ep];B[gn];W[fn];B[ea]
;W[db];B[qs];W[rs];B[ps]
(;W[mr]C[Please see the variation.];B[ns];W[og];B[ng];W[id]
;B[hd];W[nd];B[pd];W[dg];B[tt];W[as];B[cs];TW[aa]
[ba][ca][la][ma][na][oa][ab][bb][lb][nb][ac][bc][mc][ad][bd]
[cd][ae][be][ce][af][bf][qg][ih][qh][ii][qi][ri][si][pj][sj]
[ok][pk][rk][sk][nl][fm][en][eo][ko][ap][jp][kp][aq][bq][iq]
[kq][rq][ir][kr][sr][js][ks][ls][ss]TB[ga][ha][sa][gb][hb][sb]
[gc][hc][qc][rc][sc][kd][sd][kf][kg][lg][mg][lh][mh][ei][fi]
[mi][aj][bj][cj][dj][ak][bk][ek][cl][dl][rn][sn][oo][qo][np]
[op][dr][er][fr][or][es]
)
(;W[ns];B[or];W[mr];B[np]))
(;W[sg];B[rg];W[se];B[qg];W[rh]C[Doesn't work for B. W doesn't need to fall back.]
))
(;W[pq];B[oq];W[or];B[nr];W[rp];B[ro];W[qo];B[po];W[pr];B[rq]
;W[rr];B[sp];W[sr];B[qs];W[rs];B[os];W[qr]))
