(;FF[4]GM[1]SZ[19]ST[2]CA[UTF-8]AP[SGFC:1.13b]

GN[Blizzeh-yaoyu(B) IGS]
PB[yaoyu]
BR[11k]
PW[Blizzeh]
WR[10k]
KM[0.5]
DT[2003-02-04]
PC[IGS:  igs.joyjoy.net 6969]
RE[W+Resign]
TM[60]
RU[Japanese]
US[Brought to you by IGS]

C[Hi there :)
my name is Johan Meijerink, I am Blizzeh 9k* on IGS, 8k on KGS
This is a game I played vs a 11k*.. I had some major difficulties in this game.. and I would appreciate it if the reviewer would point out the biggest mistakes made here, thanks alot and enjoy reviewing :)

Blizzeh = white
yaoyu   = black

komi  = 0.5

Review by John Rae  4k IGS];B[pd];W[cp];B[ep];W[eq]C[I responded with E3.. I don't know if that's a good thing to do so

JR :
Black's immediate approach is a little unusual. I've never seen it this early in a game before.  I'm not sure its bad. I would prefer a more normal move taking another corner

White 4 is perfectly solid. It is also possible to tenuki, pincer at G3 and so on.

Black seems to be feeling aggressive and looking for a fight so playing solid seems OK]
;B[cq]C[I thought he would play F3 or D4.. but C3.. came as a big suprise :)

JR: Another black move I've never seen.

I'm not aware of it being joseki so the trick is to discover how to punish it :)]

(;W[dp];B[dq];W[er];B[bp]
(;W[cn]C[

JR:   Generally my thinking is that white will be happy to let black live small  in the corner so long as either

a) white captures the E4 cutting stone, or

b) white establishes safe groups both on the side and bottom leaving the cutting stone running away between them.

I *think* B5 could turn out better but I confess I'm not sure]
;B[br];W[bo];B[aq];W[cs];B[cr]
(;W[dc]C[

JR   The cutting stone splits white into two groups which can both be attacked. It becomes dangerous when  black strengthens this stone

Its quite important for white to make sure both the groups in the corner are solid.

White does not have time to play elsewhere at the moment. The variation looks to work out much better than the game.]
;B[eo];W[dn];B[gq]
(;W[gr]C[

JR White should tenuki here I think. A play in the bottom right would be good.

After all if you sacrifice these 3 stones its not that many points. And as the game develops the threat to escape with them should be helpful to you.]
;B[hr];W[fp];B[fr];W[fo];B[en];W[fq];B[gs]
(;W[fn]C[JR  This forces black to extend and attack white's group on the side.   It hurts white more on the side than it help the escaping group]
;B[em];W[cl]C[JR White 28 forced black 29 which forced this defence. Handing over sente like this is not helpful.]
;B[fm];W[ho];B[do];W[co];B[jp]
(;W[dk]C[JR Again I think you're playing from the wrong direction

36 will push black towards the centre - which gains more liberties and also an attack on the lower white group and so will be sente.]
;B[hm];W[in]
(;B[bk]C[kinda wasted move it seems B9..

JR I think I agree this is not the time for black to play here.
The priorities for black are to make his running group secure while at the same time making territory by attacking the white running group.]
;W[kn]C[I was thankfull to him/her for this move :)];B[jm];W[jn]

(;B[im]C[JR again this does not help black much. K7 will aid black in the future, even if only as a sacrifice.

M4 seems the move to me. It keeps up the attack, stabalises the bottom making territory]
;W[lq];B[kq];W[lp];B[oq]
(;W[iq]C[JR:

See variation on black's next move. Black is alive, although I think you missed a chance to kill in the actual game.

Therefore white might be better playing in the corner.]
(;B[ir];W[kr];B[jr];W[mr];B[po]
(;W[jq]C[JR   capturing the L3 stone is thinking about living

H3 makes the eye at g2 false. Black cant get out and cant live]
;B[hq];W[ip];B[hp]
(;W[io];B[pl];W[ds];B[bs];W[fs]C[tried to make a ko here

JR: The decision is whether your ko threats are big enough and whether you have enough.

If you do not - simply wait and play to develop more big threats The ko will always be there, unless black uses a move to defend - in which case white gets two moves in a row. Good for white either way.

It turned out well for white so this sequence was good.];B[es]
;W[gn];B[dr]C[but the ko ended quickly :)

JR  black did not think he had enough threats to fight the ko and did not accurately assess the danger.]
;W[gm];B[gl];W[fl]
(;B[el]C[JR:   black does not look like getting away here.

Black should sacrifice the stones and play elsewhere. Struggling and dying usually gives your opponent even more strength.]
;W[fk];B[ek];W[ej];B[fj];W[gk];B[dj];W[ei];B[di];W[eh];B[dh]
;W[cf];B[dg];W[bh];B[eg]
(;W[dl]C[JR:

 white could keep moving with the 3 E12 stones.

So long as you keep enough liberties this capture will always be there - so your stones are safe.

I'm not sure it would be better though.];B[ee];W[de];B[df];W[cd]
;B[ed]
(;W[cj]C[JR:

Capturing the B9 stone is small. White is alive above and below so connecting is not necessary.

Equally it is not important for black to connect to B9 - much more important to make eyes along the top

The biggest issue at the moment is that Black has all the stones in the top right. Now is the time to do something about that.]
;B[dd];W[ce];B[ec];W[ff];B[ef];W[db]
(;B[bi];W[ci]C[JR: Again I'm feeling white is squashed against the left side, i would want to play a more expansive move.]
;B[ch];W[bj];B[bg];W[ai];B[cg];W[ic]C[JR:  Good attacking];B[hb]

(;W[fb]C[JR: This move will turn out  badly I suspect];B[eb]
;W[ea]C[JR: Having played F18 you feel the need to defend it, but this is black pushing white around - the position should have black struggling.]
;B[fc];W[gb];B[gc]C[JR and now black threatens an eye with F19]

(;W[bf]C[JR:

Were you thinking white needed this to live in the corner? Black is not going to get eyes over there.

If you think you can trap the black group you should connect at F19, even though it is gote.

If you are not sure if black can run away play a blocking move first.


Over all I think the best is to ignore this fight for the moment and approach the top corner. The objective would be to develop a stronger position at the top and *then* turn back to attack this group.

Its a matter of timing, White is not quite strong enough to kill at the moment so play moves which prepare for a possible kill later. Black will always have two things to worry about so there are good opportunities for White]
;B[af]
(;W[ad];B[cc];W[cb];B[bc];W[bd];B[bb];W[ba];B[da];W[ca];B[ga]

(;W[qh]C[JR:

The past few moves were a disaster for White.

Black was under severe attack but somehow black attacked white!

This invasion is OK in itself but one result is likely to be black developing along the top. Any remaining attack will vanish. Meanwhile black will be attacking the white invasion on the side.]
;B[qf];W[qk];B[ql];W[qp]C[JR: your 2 invading stones are not safe. Nor do they give any sort of support for this second invasion.

White looks like ending up with two weak groups under attack.

If you wanted to invade here I think you should have started here first.

Having invaded up the side the priority is to make the invasion safe, Black has a right to gain some territory while resiting the invasion, this side is clearly Black's area of influence, you canot expect to deny black any territory at all :)]
;B[qr];W[ll];B[jj];W[nc];B[pk];W[qe];B[qd];W[pe];B[oe];W[re]
;B[rd];W[pf];B[oc];W[nd];B[od];W[lj];B[kk];W[lk]C[JR: This attack on the centre stones is good for white. black cannot run without putting the big group in danger.]
;B[kc];W[kg];B[ke];W[ig];B[hk];W[gj];B[hj];W[gi];B[hi];W[hh]
;B[jh];W[jg];B[ih];W[gg];B[ne];W[hl]C[JR: This move was not needed to connect your stones and I don't think it will kill the centre group so its not so important, although black will reply.]
;B[il];W[kh];B[ki];W[li]
(;B[kl]C[JR: I think black does not need this move to live and so should have taken sente.]
;W[kj];B[ji]
(;W[km]C[black mid group is alive.. was there a way to kill it ?

JR: Not that I could see,

Also white 70 seems gote to me]
(;B[jk]C[JR: I think black did not need this to live];W[qo]

(;B[pp];W[qn];B[pn];W[qq]
(;B[rr];W[pq];B[pr];W[op];B[or];W[pm];B[qm]C[the result was good for me, but b could have done much better than that I think

JR: Yes, I've shown some ideas as earlier variation.];W[om]
;B[oo]C[JR: Black is not going to get out, this wastes stones.]
;W[np];B[no];W[mo];B[nn];W[nm];B[mn];W[mm];B[qj];W[rq];B[sr]
;W[os];B[ns];W[nr];B[rk];W[ld];B[kd];W[le];B[lf];W[mf];B[kf]
;W[me];B[mg];W[ng];B[mh];W[nf];B[nh];W[oh]
(;B[lg];W[nb];B[ob];W[oa];B[pa];W[na];B[qb];W[he];B[lc];W[ib]
;B[fa];W[ab];B[hf];W[gf]C[wrong side of me.. J14 would be better I guess]
;B[if];W[hg];B[hd];W[id];B[ie];W[ge];B[jb];W[jf];B[je];W[gd]
;B[hc];W[ni];B[mi];W[oj];B[pi];W[oi];B[ph];W[pg];B[of];W[og]
;B[mc];W[md];B[rh];W[qi]
(;B[pj];W[ri];B[rn];W[sq];B[si];W[rg];B[rj];W[sh];B[sj];W[sd]
;B[sc];W[se];B[rb];W[ro];B[sm];W[so];B[mb];W[fg];B[bl];W[ck]
;B[bm];W[ao];B[mj];W[nk];B[mk];W[ma];B[la];W[ks];B[js];W[ln]
;B[ah];W[ag];B[nq];W[on];B[ah];W[bi];B[ag];W[ae];B[ml];W[gp]
;B[nl];W[lh];B[gl];W[hn];B[hl];W[sn];B[rm];W[ac];B[ol];W[da]
;B[ia];W[ap];B[bq];W[tt];B[ok];W[nj];B[ps];W[rs];C[and here he resigned, it was a nice game in my opinion.. I hope it was interesting for you aswell :)]
)
(;B[ri];W[pj];B[rg]))
(;B[oi]))
(;B[pq];W[rr];B[qj];W[pr];B[or];W[qs];B[rk]))
(;B[qn]C[JR: Black should not allow this line to extend.

I don't think white can get out];W[pp];B[op];W[pn];B[oo];W[qm]
;B[rn]
(;W[rm];B[pm];W[on];B[rl])
(;W[pm];B[rm])))
(;B[sa]
(;W[jk];B[jl]
(;W[ik];B[ij])
(;W[hn];B[ik]))
(;W[ik];B[ij])
(;W[ij];B[ik])))
(;W[le]))
(;B[qj]C[JR   I've only picked this as an example, there are various places black might use sente.

Can white kill the centre? I'm never 100% sure in these things but I show some alternatives.]

(;W[ik];B[ij]
(;W[jl];B[kl])
(;W[kj]
(;B[ji]C[This way leads to ko so black will choose the alternative]
;W[kl];B[jk];W[jl];B[gl]C[ a ko, but black does not neeed to go this way]
)
(;B[kl]LB[ji:a][jk:b]C[Black has a or b to live.

OK a loses 3 stones but black took sente,   The sente would have gained black more than 6 points]
)))
(;W[ii];B[ji];W[ij];B[ik];W[kl];B[jl];W[kj];B[gl]C[A double ko]
)
(;W[ij];B[ik];W[ii];B[ji];W[kl];B[jl];W[kj];B[gl])))
(;W[nd]C[JR: i think appoach from this side

white has some strength in the centre so it would be OK to  allow black to play Q14 or R14 and still leave opportunities to invade supported by this strength.

And this side adds some pressure on the big black group on the left]
))
(;W[bc]C[JR: simpler I think

I don't think black gets anywhere jumping in];B[ad];W[ac];B[cb]
;W[bb];B[ca];W[ba]))
(;W[fa])
(;W[ib]))
(;W[ib]C[JR: I'd continue to attack, the objective is to lock black in.   Black is in big trouble here.  Even if you do not manage to kill you will get outside strength to expand along the top or invade the right side.]
))
(;B[jd]C[JR: Black does better to play to develop a moyo and secure an escape route for the group on the left.]
))
(;W[jd]C[This looks more attacking to me and also looks towards approaching  Q16]
)
(;W[qf])
(;W[nc]))
(;W[fh];B[fg];W[gh];B[fd]))
(;B[de]))
(;W[kp]C[JR: Thinking ahead for the end game this stops L1 being atari so might save 1 point in the future. on the other hand it gives black a ko threat.]
))
(;W[hq];B[hp];W[ip];B[gp];W[go];B[gr]
(;W[lo]C[This locks black in BUT beware the ko after black E1]
;B[es];W[ds];B[dr])
(;W[dr]C[JR: this is sente against the corner and blocks the connection on the bottom.

Black still can't get out])))
(;B[ip]
(;W[kr];B[jr];W[jq];B[ir];W[kp];B[hq]C[black's alive])
(;W[jr];B[kr];W[hq];B[hp];W[gp];B[gr];W[ir];B[js])
(;W[ir];B[jr]
(;W[jq];B[kr];W[hq];B[hp];W[is])
(;W[hq];B[hp]))))
(;W[qp]C[JR

This puts P3 in a sort of pincer.   OK its black's move so Q5 and Q6 will help black attack the big white group.

Therefore this is a bit dangerous but worth thinking about.]
)
(;W[po]C[JR This is less dangerous and supports the white running group. Its also sente on the corner]
;B[qp];W[km]C[Now is a good time to turn and attack black])
(;W[km]C[JR This is preparing for a play in the corner, threatening the H7 group]
))
(;B[lp]))
(;B[jl];W[kn];B[lp]))
(;W[gm]C[Three reasons I prefer this:

1. This pushes black upwards and leaves the black group with fewer liberties than the game

2. The white group on the side is stronger so is better able to withstand attack

3. it helps the lower white group run effectively.

Its really the proverb - hane at the head of two stones]))
(;W[ho]C[JR I'd run this direction

a) it leaves E7 for white to play in the future. The three black stones are in some danger

b) H5 looks towards a future where it might be possible to attack the black stones on the bottom. They are strong but not invulnerable.]
))
(;W[pp]))
(;W[fp];B[eo];W[dn]C[JR: White looks more comfortable yes?

The black cutting stones will either be captured or white will gain on both the side and bottom from chasing the E4 group into the middle]
;B[en];W[em];B[gn];W[hp]))
(;W[bo]C[JR   I consider this perhaps, not all lines seem grerat for white though]

(;B[co]C[this does not look to get black anywhere];W[do]
(;B[cn];W[bq])
(;B[br];W[fp];B[eo]
(;W[dn];B[bn];W[fn]C[white is happy with the outside strength]
)
(;W[cn]C[JR: This is not so good for white, it leaves a weak lump to be attacked]
;B[dn];W[co];B[en])))
(;B[do];W[co];B[br]
(;W[fp]C[probably not this route];B[eo];W[dn]C[Black's Q16 stone is acting as a ladder breaker and white may not be able to establish either side]
;B[en];W[dm])
(;W[eo];B[fp]C[Black will save this stone];W[fo];B[gp];W[dn]
C[White would  extend from this wall and black still has to think about the corner   Not too great a result for white though]
)
(;W[dn]C[JR: I think this route would be my preference];B[fp]
;W[gq];B[gp];W[hq]))))
(;W[dq]C[JR: I think this turns out ok for white

caveat - you need somebody stronger than me to know all the possible twists in this sort of position.]
;B[dp]
(;W[cr];B[bq];W[bp];B[br];W[cs];B[cn]
(;W[bs]C[White gets the corner, black not much];B[co];W[aq]
;B[en])
(;W[bn]C[White might do even better by looking to expand immediately]
;B[fq];W[fr]))
(;W[bq];B[cr];W[br]
(;B[co];W[bp];B[fq];W[dr]C[Looks like black's shape has cutting points so I'm not usre that black gets much this way]
)
(;B[dr];W[er]))))
