(;FF[4]GM[1]SZ[13]ST[2]CA[UTF-8]AP[SGFC:1.13b]

GN[kyuless-Chevalier]
PB[Chevalier]
BR[28k]
PW[kyuless]
WR[27k]
KM[0.5]
DT[2003-01-18]
RU[Japanese]

C[This
is my first time using the GTL. I play as <kyuless> on IGS, and I have
rated myself 27k. When I am stronger I would like to review games as a thanks
for this free service.

In this game I am white. My biggest concerns are:
(1) How should I have handled Black's successful invasion
on the right?
(2) Was there a way to invade Black's territory and take
advantage of weak-points in his wall of stones?

Thank you for taking this request!! :-) -Dennis
--------------------------------------------------------------------------
hi dennis.
this is my first review, so I apoligize if I get too in depth or anything. I'll help as much as I can

as
far as the invading question goes, if you're looking to do it on a 13x13,
you need to act a little sooner in the game. your opponent can secure his
position quickly. I'll demonstrate in the game.];B[dd];W[jj]
;B[dj];W[id];B[fc];W[ig]C[I
haven't played on a 13x13 in a long time, so I may be mistaken on this, but
I think that if black had known when and where to invade, J10 and J7 would
have proved fairly useless for you. moves this far out on 19x19 may help
build influence for you (becuase they're not going to make much territory
as they are), but influence is not as helpful on a 13. you should stick to
playing a little closer in to the corner.];B[dg]C[f3 for your next move
might prove a little more helpful than g3. it would also help set up an invasion
later. (variation)]
(;W[gk]C[a black move anywhere from K11 to L11
to L10 would probably cost you the game at this point. you would lose a lot
of your territory because of those two high opening moves.
see variation]
(;B[fj]C[g4 is a little too passive. a move at e2 would prove delightful for you.]

(;W[gj];B[fk];W[fl];B[el];W[gl];B[he];W[ie];B[hd];W[hc];B[gc]
;W[ic];B[ge];W[fi];B[ei];W[fh];B[gg];W[gh];B[hg];W[hh];B[eg]
;W[eh];B[dh];W[fg];B[ff];W[hf]C[small
comment, but this move at h8 is pointless. you lose sente. it could be much
better spent at L11 to prevent an invasion, or c11, to make one. you still
have a pretty good chance of surviving at c11. you may not technically gain
a lot of points, but you would certainly make black lose a lot.]
;B[gf];W[if];B[kc];W[ke]C[L9
is the right idea here. keep him from making a base. I think this is where
you ran into problems with the next invasion.];B[kd];W[ld];B[lc]
;W[le];B[md];W[me];B[mc];W[jb];B[jc];W[kb];B[lb];W[ib]C[top invasion was handled nicely.]
;B[ki]C[this should be pretty easy to kill if you keep black from making a base]

(;W[jh]C[k6
is too passive. you don't need to worry about the cut at this point. playing
here lets black make a base. you have to take away his space, and definately
keep him out of the corner. (see variation)];B[kj];W[kk];B[ji]
;W[ij];B[lk]
(;W[jk]C[again-
with moves like k3, you're letting him survive. when you have such thickness
as you do here, you are allowed to fight much more aggressively.]
;B[li];W[kl];B[ll];W[lm];B[mj];W[km];B[ml];W[mi];B[mh];W[lg]
;B[lh];W[kh];B[ii];W[ih];B[hi];W[gi];B[hj];W[hk];B[mg];W[kf]
;B[mf]C[again,
h8 is another pointless move. if black ataris there, you can simply block
a L7. this is your chance to play elsewhere];W[lf];B[fm];W[gm]
;B[em];W[ek];B[ej];W[dk];B[dl];W[ck];B[cl];W[cj];B[di];W[bl]
;B[bm];W[cm];B[bi];W[ci];B[ch];W[dm];B[bg]C[this
was a nicely done invasion.];W[cf]C[this sequence may be pressing you luck
a little, though. simple yose moves like B4 and G12 should get you the points
you need to win.

however, don't get me wrong-experimentation is important. it almost worked, too : )]
;B[ce];W[gb];B[fb];W[fa];B[ea];W[ga];B[db];W[be];B[bf];W[cd]
;B[de];W[cc];B[bd];W[dc];B[ec];W[cb];B[ae];W[ca];B[bc];W[ee]
C[the
following moves show a lot of creativity. very nice (even though you died).
just like in Christmas presents, it's the thought that counts]
;B[df];W[da];B[eb];W[ed];B[gd];W[ef];B[bj];W[am];B[bk];W[ak]
;B[aj];W[hb];B[al];W[fe];B[fd];W[ak];B[mm];W[al];C[
*Chevalier*:  you remember the central group?
*Chevalier*:  I think if you do not attack it it would be a seki ... more favorable for you...
*Chevalier*:  close game
-------------------------------------------------------------------------
actually,
it wasn't seki anyway. all he had to do was play b12 and b13 to kill your
upper left group. if that group had been alive, it would have been seki

so,
keep this in mind when trying to kill- don't give them any more space than
you have to. this is the reason the group on the right lived, which cost
you a lot of points.
well, dennis, I hope this has been helpful.
(btw, sorry it took so long-there was some confusion between gtl and myself.)
-gabe hargrave])
(;W[kl]))
(;W[kj]C[this move pretty much kills black as it is. even if he still tries...]

(;B[lg];W[ji];B[li];W[lj]C[if played properly from here, there is no way black can live]
)
(;B[kg];W[li];B[lh];W[ji];B[kh];W[lj]C[no room for eyes])))
(;W[el]C[this move is safe for you, and it keeps black from getting these points.]
;B[fk];W[fl];B[dl];W[gj]C[you have gained a lot]))
(;B[kc];W[kd];B[jc];W[ic];B[ib];W[hb];B[jb];W[hc];B[ld];W[ke]
;B[le]C[etc.
you have lost a lot of points])
(;B[jc]C[this move would be very bad for you.];W[jd];B[ic];W[hd]

(;B[hc]C[black has connected and gained points- you have lost points.]
)
(;B[kd];W[ke];B[ld]C[black makes substantial profit])))
(;W[fk]C[black has a couple possibilities here, but neither is too detremental to you health.]

(;B[dk]C[d3
secures the corner, but...];W[jk]C[you can also secure yours (from
the L3 invasion, that is), and now black is almost forced to play into your
strength to prevent f3 from making huge points];B[hj]C[you can
choose here to fight with f5, or just grab a lot of points with h3. either
way you choose, you have gained a lot.])
(;B[hk]C[a pincer is another possibility. but, you have the advantage of sente in this fight.]
;W[ik]C[this
is a good place to start. the rest is up to your imagination. (you still
have the possibility of a c3 invasion.)])))
