(;FF[4]GM[1]SZ[19]ST[2]CA[UTF-8]AP[SGFC:1.13b]

PB[sedorikku]
BR[25k]
PW[Rhiec]
WR[25k]
KM[6.5]
DT[2003-02-21]
PC[The Kiseido Go Server (KGS) at http://kgs.kiseido.com/]
TM[1200]
OT[5x30 byo-yomi]
RU[Japanese]

;B[pp];W[qe];B[cp];W[cd];B[cj]LB[pc:A][cj:B]C[phi: I normally take the corners first. I prefer A(Q17) instead of  B(C10). B is big as well. But normally play corners first, extend to the edges and play the center last.]
;W[pc];B[qn]LB[ec:D][qn:A][jp:C][eq:B]C[phi: A(R6) can wait. I prefer B(E3), C(K4) or D(E17).]
;W[qj];B[jq];W[jd];B[fq];W[cg];B[dl]LB[ej:A]C[phi: A(E10) makes more pressure on the white stones.]
;W[jj];B[ok];W[oj];B[qk];W[pk];B[pl];W[pj];B[rl]LB[rk:A]C[phi: I prefer A(S9) instead of S8. A(S9) is more solid and has more pressure on the white right edge.]
;W[np];B[nq];W[oq]
(;B[nr]LB[op:A][nr:B]C[phi: In a situation like this, I prefer A(P4). See variation. It is allways better to be the first, extending a crosscut.]
;W[op];B[oo];W[mq];B[mp];W[no];B[lq];W[pq];B[nn];W[po];B[qp]
;W[mo];B[on];W[lp];B[mr];W[mp]LB[ec:B][jc:F][ej:E][nk:G][mn:D]
[mp:A][qq:C]C[phi: This move A(N4) is too small. It is worth about 1 point. There are several better places:
B-G.];B[kp];W[qq];B[rq];W[rr];B[lr];W[rp];B[ro];W[qo];B[pn]
;W[rn];B[rm];W[so];B[sm]LB[sl:A]C[phi: This shape (S7, S8, T7) is known as the "empty triangle". This is a very bad shape. Try to avoid it, wherever you can.]
;W[ml];B[ln];W[ol];B[nk];W[nl];B[mk]C[i think I got lucky with this exchange...i let him cut off my escape with m6, but ended up capturing enough to stay alive in the corner]
;W[lj];B[lk];W[kk];B[ll];W[km];B[lm];W[lo];B[ko];W[kn]
(;B[mn]LB[mn:A]C[phi: A(N6) can wait (See variation).];W[rk]
;B[ql];W[rj];B[sn];W[pm];B[om];W[sl];B[sk];W[sj];B[sl]LB[qm:A]
C[phi: Mistake: black should play A(R7) instead.];W[qm]C[think he just missed that]
;B[nm];W[pl];B[kl];W[jl];B[jm];W[jn];B[im];W[mj];B[in];W[jo]
C[phi: This move (K5) has no future. You have only two liberties. But blacks big group has two as well!]
;B[io];W[nj]C[was hoping to be able to capture his group, should have come out with j6 i think]
;B[jp];W[hl];B[il];W[ik];B[jk];W[kn]LB[ec:B][hk:A]C[phi: This stone (L6) is lost. I prefer to fix some holes A(H9) or make some points B(E17).]
;B[kj];W[ki];B[kk];W[hn]LB[ij:A]C[phi: better save your double attari at A(J10).]
;B[ij];W[ji];B[hk];W[ii];B[hm];W[lh];B[gl];W[fd]C[phi: good.]
;B[hi];W[di];B[dj];W[hh];B[gi];W[gh];B[fh];W[fg];B[ei];W[eh]
;B[fi];W[dh];B[ci];W[gf];B[ch];W[bh];B[bi];W[ah]C[phi: too small.]
;B[ai];W[me];B[bg];W[bf];B[ag]C[Rhiec [25k?\]: i ALWAYS miss that]
;W[cf];B[af]
(;W[ae]LB[be:B][ag:A]C[here's my burning question: i think i should/could have kept him out of the corner, but as you will see, he ended up taking 1/2 of the upper territory

phi: Do not play contact on the first line, if your opponent has a backup (A (A13)). Play solid B(B15).]
;B[be];W[ad];B[bd];W[bc];B[ac];W[ab]C[Rhiec [25k?\]: nice];B[ad]
C[sedorikku [25k?\]: :P];W[ce];B[bb]LB[ae:A]C[phi: black shuld protect at A(A15)]
;W[ae]C[sedorikku [25k?\]: :(
Rhiec [25k?\]: hehe];B[cb];W[db];B[cc]
(;W[ac]C[i think d17 at this point may have been better

phi: much better! See variation on move 149.];B[bd]
(;W[ad]C[phi: Still A(D17) is better! See variation on move 151.]
;B[dc];W[ca]LB[fb:C][ec:A][fc:B]C[phi: this move (C19) is lost. Protect from a distance: A(E17), B(F17) or even C(F18).]
;B[ba];W[da]C[phi: still lost: Now you are going to loose all three stones.]
;B[eb];W[fa]C[sedorikku [25k?\]: i'm installing mozilla on a computer at the same time...

phi: To play go, concentrate only on the game. Forget about the world around the board and "meditate"! By the way: I have installed mozilla on my computer as well ;-)]
;B[ea];W[da]LB[da:B][fa:A]C[phi: This would be the proper move to steal eye-space. In other words. With this move, black has only one possibility to make an eye. But black must have two eyes. In this situation, black can get more eyes at A(F19). So, the eye-stealing move at B(D19) is bad.]
;B[fb];W[ec];B[dd]LB[hb:A]C[phi: I prefer to make more territory with A(H18).]
;W[ed];B[de];W[dg];B[df];W[be]LB[gb:A][hb:C][gc:B][hc:D]C[phi: This move (B15) can wait. Better protect somwhere around A(G18), B(G17), C(H18) or D(H17)!]
;B[ef];W[eg];B[ff];W[gg];B[ge];W[aa]C[phi: This move is what we call "dame". Dame means it is no point for white and no point for black. Leave this points to the very end of the game.]
;B[gd];W[fe]LB[hc:D][hd:C][fe:A][he:B]C[phi: A has no future. Better protect at B(H15), C(H16) or D(H17).]
;B[gc];W[db]LB[hc:C][hd:B][he:A]C[phi: This is what we call "self atari". Still it would be better to protect around A(H15), B(H16) or C(H17).]
;B[ca]LB[ic:A]C[phi: Black has no hurry to take this two stones. I prefer to enlarge blacks territory A(J17).]
;W[ga];B[hb];W[hc];B[ic];W[hd];B[id];W[he];B[hf]C[phi: This black stone (H14) has no future.]
;W[ie];B[if];W[je];B[jc];W[jg];B[ig];W[ih];B[ha]LB[kc:B][lc:A]
C[he just kept coming and coming...couldn't figure out how to stop him

phi: This move can wait. For black it is better to enlarge its territroy: eg. A(M17). Otherwise, white will block at B(L17).]
;W[kc]C[phi: good.];B[kb];W[ib]C[sedorikku [25k?\]: staying alive... staying alive!!

phi: better protect your upper edge!];B[jb];W[lb];B[lc];W[kd]
;B[mb];W[mc];B[la];W[ld];B[lb]LB[lb:B][nb:A]C[phi: As black, I prefer A(O18) instead of B(M18).]
;W[nc];B[nb];W[ob]C[l];B[oa];W[pa];B[na]C[phi: finally black is surrounded.]
;W[fc]C[phi: no points here!];B[ee];W[or];B[os];W[ps];B[ns]
;W[fn]C[phi: good. Because white has less points, white has to make an invasion. White will loose nothing, if the invasion falis.]
;B[gn];W[go];B[ho];W[fp];B[gp];W[fo];B[hq];W[do];B[eo];W[en]
;B[ep];W[dm];B[em];W[fm];B[el];W[cm];B[fl];W[bl];B[gm];W[dn]
;B[cl];W[am]LB[bn:A]C[phi: white should better play at A(B6) to make a secure eye.]
;B[co];W[dp];B[dq];W[eq];B[er];W[ep];B[cr];W[cn];B[fr]LB[bn:A]
C[phi: black could kill white playing at A(B6) and steal the eye possibility.]
;W[bn]C[phi: white is alive!];B[bo];W[an]LB[bk:A]C[phi not necessary. White could play A(B9) first.]
;B[bk];W[al]C[i think i got lucky on this invasion

phi: yes. As black on the upper edge ;-)];B[ak];W[ao];B[ap]
;W[tt];B[of]C[phi: now it is the time for black to make an invaion to make some points.]
;W[nf];B[pe];W[oe];B[og];W[pf];B[pd];W[qd];B[od];W[ne];B[pg]
;W[qf];B[qb];W[pb];B[qc];W[oc];B[qg];W[rg];B[rd];W[rf];B[re]
;W[se];B[sc];W[qa];B[ra]C[phi: black has no chance to live? I don't see any.]
;W[sf];B[sd];W[sb];B[rb];W[rc]TW[ra][sa][qb][rb][qc][sc][bd]
[md][nd][od][pd][rd][sd][ke][le][pe][re][hf][if][jf][kf][lf]
[mf][of][hg][ig][kg][lg][mg][ng][og][pg][qg][sg][jh][kh][mh]
[nh][oh][ph][qh][rh][sh][li][mi][ni][oi][pi][qi][ri][si][qk]
[sk][ql][rl][sl][bm][rm][sm][sn][eo][ro][pp][qp][sp][rq][sq]
[pr][qr][sr][qs][rs][ss]TB[da][fa][ga][ia][ja][ka][ma][db][gb]
[ib][ec][fc][ed][fd][fe][ah][bh][aj][bj][ej][fj][gj][hj][ck]
[dk][ek][fk][gk][ik][hl][jl][km][hn][jn][kn][jo][bp][hp][ip]
[aq][bq][cq][gq][iq][kq][ar][br][dr][gr][hr][ir][jr][kr][as]
[bs][cs][ds][es][fs][gs][hs][is][js][ks][ls][ms]C[black: 95 points
white 118.5 points

white winns with more than 20 points.])
(;W[dc];B[ad];W[be]))
(;W[dc];B[bd];W[ac]C[phi: black looses control.]))
(;W[be];B[ae];W[ad]))
(;B[rj];W[mn];B[mm];W[mj];B[om];W[nj];B[nm]))
(;B[op]TR[op][pp][nq]SQ[np][oq]C[phi: This is a typical crosscut. Black extended first (Q4). So black has a better position (locally).]
;W[mq];B[nr];W[or];B[mr];W[lr];B[lq];W[mp];B[kr];W[ls];B[ks]
;W[ms];B[ns]TR[oq][or]))
