(;FF[1]GM[1]SZ[19]US[Brought to you by IGS]GN[ertiam-cricket(B) IGS]
RE[B+Resign]PW[ertiam]WR[13k*]PB[cricket]BR[16k*]PC[IGS:  igs.nuri.net 6969]
DT[1995-12-03]TM[420]KM[0.5];B[pd]C[Review made by oba. When there are variations, comments are  made on the move actually played during the game (variation A). You have to go  back one step to see the variations, unless you use xgoban.]
;W[jj]C[strange

oba: k10 is playable as first move by B, but it is a dangerous strategy with  W, specially in a no-komi game.]
;B[pq];W[dj]C[bizzare

oba: indeed. Giving 3 corners to B at the next move gives B an easy game.]
;B[dc];W[pj];B[dq];W[jd];B[co]C[oba: I  would prefer B d15 because W d15 next works well with the other W stones. B  d15 would nullify the W center influence.]
;W[de];B[ce];W[cf];B[cd];W[dg]C[oba: W  d13 should be at d14. W d13 is played only when w wants to extend to c9, but  here W already has d10 in place. W d13 leaves some possibilities for B at e14  or c12.]
;B[fc];W[nc]M[fc]C[oba: This side is not very interesting for W  because of the marked stone at f17.]
;B[qf];W[gd]C[oba: W has all eggs in the same  basket, and the center never ends up as large as it looks initially. B is  ahead.]

(;B[qo]C[oba: B r5 invites a W invasion at k3. B k4 instead of  r5 is a possible alternative (see variation)]
;W[pb];B[qc]C[oba:  B could consider k3 instead, but that would give W an opportunity to get the  initiative by attacking the top right B group.]
;W[gc]M[fc]C[oba: W k3 is  much bigger than g17. W can't afford now to play a slow move like g17. This  is why the top side was not very big, given the presence of the B marked  stone at f17.]
;B[jq]C[oba: B now has a significant lead.];W[ne]C[oba: W o15 is still too slow. W must play more agressively at  this point since B is leading.]
;B[jo]C[oba: B k5 is 'the only point'.];W[pr];B[oq];W[or]C[is there a way to punish this?  Usually R3 is the point that takes the corner.

oba: B can't expect to kill everything here. B's strategy must be to let W  live very small in gote while B builds enormous thickness outside. Your  answer was a valid alternative. Other possibilities are shown in variations.  In all variations, B is happy to let W live very small.]

(;B[qr];W[nq];B[np];W[qq];B[rq];W[op];B[pp];W[mp]
(;B[no]C[oba: B could also consider the variation  starting at B o2, but the simple answer at o5 is actually better.]
;W[mr]
(;B[ql]M[qf][qo]C[oba: B r8 is B's first big mistake. B should not let W  off the hook so easily (see variation starting at B m3 instead of r8). In any  case, B d8 is larger than B r8: because of the two marked stones at r5 and  r14, W can't do much on the right side.]
;W[mo];B[nn];W[mn];B[nm];W[dr];B[er]C[oba: B can still  play e3 here. W lives small in gote, then B has multiple targets to attack,  starting with B m3 and B o10.]
;W[eq];B[cr];W[dp];B[cq];W[fr];B[ds];W[fp]C[oba: W f4 gives a heavy shape after the B peep at g3,  so W should play more lightly, starting for example with a peep at j4.]
;B[gq];W[fq];B[gr];W[fs]C[oba: W f1 is an overplay.]
(;B[go]C[oba: B could reinforce first by attacking the other weak group  at m3 (see variation).]
;W[gp];B[hp];W[fo];B[gn];W[cp];B[bp];W[do];B[cn];W[dn];B[dm];W[em];B[dl]
;W[fm];B[gm];W[ek];B[hk];W[gj];B[hj];W[hi]C[could I G9 in sente? Threatening the  cut the lower group? Didn't see during game.

oba: yes, B g9 is sente. A possible continuation is given in the variation.]

(;B[nj]C[oba: B o10 is good, but B should peep at m3 first to launch a  double attack.]
;W[pg];B[qg];W[qh]C[oba: W r12 is an  overplay. It should be at q12.];B
[of];W[pf];B[pe]
(;W[oe]C[oba: W doesn't have time to cut here. W must play p12 instead.]
;B[ph]C[oba: B correctly takes advantage of the W overplays.];W[og];B[oh]
;W[ng];B[qi]C[oba: the two W stones are  already captured, so B r11 could be at o12.]
;W[nh];B[ni];W[mi]
(;B[ee]C[oba: B should take advantage of the weakness of the W  bottom group to get easy profit in sente. A possible sequence is given in the  variation starting at m3.]
;W[rh];B[ri];W[qb];B[rb];W[mj];B[nk];W[mk];B[ml];W[ll];B[lq]C[oba: finally!]

(;W[mm]C[oba: W must connect at b3 instead.];B[mq]C[oba: B n3 is correct here.]
;W[nl];B[ol];W[oi];B[pi];W[ok];B[ml];W[bq]
(;B[nl]M[ni][nj][nk][ml]C[I hate to give  up that group, but It seemed necessary.

oba: no, you should have fought the ko. The 4 marked stones are quite small  compared to the corner and left side. See the variation for a possible  continuation of the ko fight.

You get some compensation though because of the potential cut at m7, but the  problem is that you don't have time to cut now because the left side is  bigger.]
;W[bo];B[bn]C[oba: now B discovers  that there's no time for the cut at m7 because there is a risk of losing the  whole left side...]
;W[ap];B[cj];W[ci];B[bj];W[bi];B[bl];W[ck]C[
cricket 16k*: is entering byo-yomi];B[bk];W[dk];B[am];W[cl];B[cm];W[an]
C[oba: now B is struggling for a ko much bigger than the original ko at o8.  This shows that B couldn't afford to connect at o8 so early in the ko fight.]
;B[ao];W[rg];B[rf];W[an]
(;B[lk]M[mm][mn][mo][mp]C[oba: this threat is not as big as it looks. The W marked stones can be  captured by B anyway even without B m9. See variation.]
;W[ao]M[ni][nj][nk][ml]C[I lose another group to ko.  It seems I am getting good  compensation tho.  I give up 10 points or so in LR for the 12+ points in  cutting the LR grp off.  And now I give up 25 points or so for 20 or so  points (hard to count) for capturing the white row.

oba: I assume you mean "give up 10 points in LL" not "LR". But your corner  group was worth much more than 10 points, and you forgot that when losing a  ko, you get two moves in a row elsewhere. W had given you cash (the cut at  n3) in exchange for an hypothetical gain (the ko at o8), so you had gained  already in this exchange, even if you lose the ko. By losing the o8 ko, you  get an *extra* compensation elsewhere, not just the cut at n3. This  compensation can well be larger than the 4 marked stones if W finishes the ko  too early.

Now you give up 25 points for capturing the W row that you could capture  anyway without your ko threat at m9. Thanks to m9 you will indeed make more  profit here, but the extra gain is not worth 25 points. You also had b2 as a  ko threat, and B f15 was very big.]
;B[kl];W[ef];B[kk]C[just to be sure

oba: it's good to play safe when leading, but here it's not clear that you  are leading that much, after the loss of the whole left side. B f15 would be  bigger, since it is sente.]
;W[ii];B[fe];W[gf]M[hf]C[oba: W h14 would be better.];B[ge];W[he];B[ff]
;W[fg];B[hf];W[gg];B[hd];W[ie];B[hc];W[gb]C[oba: W g18 doesn't work.];B
[hb];W[ed];B[fd];W[ec];B[fb];W[eb];B[ga];W[dd];B[db];W[da]
(;B[cb]C[oba: B c18 is a standard move in  this shape, but here B c19 works because the capture at B 19 later puts W in  atari. (See variation).]

(;W[ca]C[oba: W c19 is too kind. B can cause  more trouble with b17 (see variation).]
;B[ba];W[ea];B[bc];W[jb];B[gc];W[be];B[bd];W[il];B[ik];W[hq]C[
cricket 16k*: has entered byo-yomi again];B[iq];W[hr];B[ir]
(;W[gs]C[oba: W g1  is gote, too small at this point of the game. W h8 is larger (see variation).]
;B[gk]C[oba: B g9 is good. It protects against W h8.];W[ho];B[ip];W[jk]
;B[jl];W[im];B[in];W[jm];B[lm]C[
ertiam 13k*: has entered byo-yomi again];W[hn]
(;B[hm]C[oba: B plays safely, but h7 isn't even  necessary. B can tenuki (play elsewhere, at m11 for example) and still win  the race (see variation).]
;W[jn]C[oba: W k6 is a gift. B need not  answer because of the snapback if W captures at j5.]
;B[io]C[oba: B  should ignore and play m11 instead.];W[ln];B[kn]C[oba: B should  again ignore. All B stones are safe in this area.]
;W[pc];B[rd];W[is];B[js];W[kr];B[kq]C[oba: B L3 is a nice  tesuji.];W[jr]
;B[lr];W[hs]
(;B[ks]C[oba: B m11 is  bigger than L1.  Always think twice before capturing one or two stones in  gote. (See variation).]
;W[rr];B[qp];W[bf];B[fj];W[gi];B[fk];W[fi];B[di]C[oba: B d11 is a gift.  Keep it in reserve as a ko threat.]
;W[el];B[li]C[I thought this  was cute :)

oba: indeed, but you should have played it earlier.];W[lh];B[ki];W[kh];B
[ji];W[jh];B[ij]C[oba: W resigns here. B  was leading by about 20 points. W tried an original fuseki, but this gave an  early lead to B. B then had an easy game.

B played well except in the ko fights. B also needs improving in the endgame:  try to keep sente before playing small gote moves.]
)
(;B[li];W[lh];B[ki];W[kh];B[ji];W[jh]C[oba: B makes profit in sente. Now  you still have the option of capturing at L1 or J10, but you can also keep  playing sente moves before finally capturing two stones in gote.]
))
(;B[li];W[hm]C[oba: if W tries to capture...];B[gl]
(;W[kn]C[oba: B wins in both  variations.];B[km];W[jn];B[ko];W[ln];B[mh]
C[oba: B can afford a second  tenuki...];W[fk];B[lo]
(;W[fl];B[io];W[fn];B[lp];W[ij];B[hl])
(;W[io];B[lp];W[fl];B[hl];W[ij];B[in]))
(;W[jn];B[kn];W[io];B[mh]C[oba: B can afford a  second tenuki.];W[ko];B
[jp];W[fk];B[km];W[fl];B[hl];W[ij];B[in])))
(;W[hl];B[gl];W[jk];B[jl];W[gk];B[im]))
(;W[bc];B[ca];W[ea];B[bb]
(;W[bd]C[oba: W b16  lets B live. W can get a ko with b15 instead (see variation)]
;B[be];W[bf];B[cc]C[oba: B is alive now]
(;W[ae];B[ac])
(;W[ab];B[ad]))
(;W[be];B[bd];W[ad];B[cc]
(;W[ab]C[oba: so W can get a ko, but even if B loses the  ko, the top W side has been ruined and B gets two moves in a row, so W  wouldn't get much from the exchange. B has ko threats at b2, a3 or e1, n12,  ...

W a17 instead of a18 doesn't work (see variation).])
(;W[ac];B[ab];W[ae];B[bf]))))
(;B[ca];W[cb];B[ea];W[df]C[oba: W has no time to play c17.];B[bb]))
(;B[fe]C[oba: If W ignores this threat...];W[ao];B[gf];W[if];B[lm]C[oba: ... B  can still capture.]
;W[km];B[ln];W[kn];B[lo];W[ko];B[lp];W[jl]))
(;B[bo]
(;W[br]C[oba: W b2 doesn't capture the corner, so W must continue the ko (see  variation).]
;B[bs];W[ar];B[ap])
(;W[nl];B[gk];W[fk];B[ml];W[br];B[bs];W[nl];B[fe];W[oj];B[pl]C[oba: B has ample compensation for the  loss of the 4 stones: the bottom side plus the destruction of the W  center.]
)))
(;W[mq];B[mm];W[lm];B[ln]C[oba: B can't cut here.];W[lr];B[kr];W[lp]C[oba: W is safe.]
))
(;B[lq];W[mq];B[lr];W[mm];B[ml];W[ll];B[mk];W[kl];B[gk];W[fk];B[ii];W[hh]
;B[kn];W[lm];B[ji];W[lj];B[ij];W[jg];B[ki];W[kj];B[lh];W[mh];B[lf]))
(;W[oh];B[oe];W[mh]))
(;B[gk];W[fk];B[ii];W[hh];B[lq];W[mq];B[lr];W[mm];B[ml]
(;W[ll];B[lm];W[km];B[ln];W[ko];B[kl];W[lk];B[kn];W[nl];B[mk];W[nk];B[mj]
C[oba: W is in serious trouble])
(;W[km];B[ll]C[oba: W is in  serious trouble too here.])))
(;B[lq];W[mq];B[km];W[lr];B[kr];W[ns];B[dn];W[fn];B[fl]C[oba: W may have a hard time here.]
))
(;B[lq];W[mq];B[mo];W[lr];B[kr];W[ns];B[dl]C[oba: W had to live in gote, and B is thick everywhere, so it  will be easy for B to erase the W center. B is comfortably ahead.]
))
(;B[nr];W[no];B[mr];W[nm];B[dl]))
(;B[nq]
(;W[qq];B[qp];W[rq];B[nr];W[rp];B[ro];W[rr];B[dl]M[pj]C[oba: B is happy with this result. The marked W stone at q10  might become a target of attack later, given all the thickness B has  accumulated in the bottom right.]
)
(;W[nr];B[qr];W[mq];B[mp];W[lq];B[lp];W[kr];B[jr];W[ms];B[kq];W[lr];B[dl]
C[oba: B is also satisfied with this result.])))
(;B[jp];W[qo];B[oo];W[pm];B[dl]M[qf]C[oba: The W right side is not very big because of the marked B stone  at r14. So B is still well ahead.]
))
