(;FF[4]GM[1]SZ[19]ST[2]CA[UTF-8]AP[SGFC:1.13b]

GN[don VS Weiss]
PB[don]
BR[18k]
PW[Weiss]
WR[15k]
KM[5.5]
DT[2003-01-20]
RE[W+17.50]
TM[50]
OT[5x30 byo-yomi]
RU[Japanese]

C[Hi,
I played W here. But the guy who played B asked that this game be reviewed
by someone with higher level. So, there are more questions from him.
I
only put a few questions here, but I'm more interested in the weakness of
my style of play, or could I have done better in certain moves, etc.

I'm andre, I'll do my best in reviewing your game. 
I
made tons of variations.Reviewing for both side requires me to made these
many and long variations. The number of points i mentioned during reviewing
is the points a side got not a difference point. for a difference point,
multiply it by 2.];B[dc];W[qd];B[dq]
(;W[fp]TR[oc][od]SQ[ce][de][cf][cn][co][do]C[I
question this move, an empty corner is always a bigger move than an attack
at opponent's opponent's corner but there are some cases when you attack
first enemy's corner but usually it's on a corner near yours such as upper
left corner. This move is better at Squared point (if you insist on attacking
at beginning but black will attack upper right corner at either P16 or P17
depends on his motive.];B[qp];W[co];B[oc]
(;W[pf]C[White avoids battle and gives black a chance to take upper right corner]
;B[oq]TR[nq]C[Too
small! better at O3];W[pk]SQ[qk]C[Better at R9, a move here means that white
want to take influence rather than territory. This does not conform with
white's earlier moves];B[ce]TR[cf]C[Again... Tooo Small!!];W[ch]

(;B[bq]C[don: I feel this is small, any better move?

I included some joseki variations];W[do];B[ep];W[mq]
(;B[fr]C[This
move is bad, black should try going out to centre before trying to secure
territory coz, black has bad shape here.];W[gq];B[kc];W[eo]
;B[qm];W[ql];B[qb];W[gr];B[fq];W[dp];B[gc]C[don: i thought i already secure the top here]
;W[md];B[nc];W[ne];B[mc];W[id]TR[gc][kc][ke]SQ[id][md][ie]C[This
move is an overplay by white, black already has too much strength, white
should play it at J15
Try cutting white's connection at L15];B[fe]C[Too Small!];W[ic]
C[Overplay! black can chase white and gain nice influence]
(;B[if]C[Wrong direction! black is strong at upper left and white has friends at N16. This move gives white a chance to escape]
;W[je];B[fj]C[Black intends to secure territory at centre, white may disrupt his plan in exchange of his left side]

(;W[dk];B[fh]C[Nice
recovery move];W[jb]SQ[md][je]C[This move is small, black is tring to secure
centre territory. White's connection is weak too];B[lg];W[mg]
;B[jf];W[ke];B[kb]SQ[li]C[Playing at M11 is bigger and white will not tenuki, black can take L18 point later]
;W[lc];B[ld];W[lb]SQ[jb][lb][ic][lc][id][je][ke]C[There is no point in saving M17 stone, K15 group is in danger]
;B[le]
(;W[kd];B[mb];W[lf];B[la];W[me]
(;B[dh]C[Black abandons M16 group, actually black can save this group without losing sente and doing forcing move]
;W[cg];B[cj]C[Without the existence of B3 stone, this move is an overplay]
;W[di];B[ei];W[dj]
(;B[fo]TR[cj]C[Instead this move, black can have a nice territory on left side using D10 aji. See variation.]
;W[eq];B[er];W[cq];B[ep];W[gp];B[cr];W[eq]
(;B[dr];W[cp];B[hn];W[fs];B[ao]C[An overplay];W[bp];B[br];W[ap]
;B[aq];W[es];B[ds];W[bs]
(;B[em]
(;W[dm]C[Weiss: Should I play at G1 instead of D7 here?

Not now, whis point is bigger than killing black's A3 group. but black should save E7 move for later ko fight]

(;B[dl]C[I don't understand black's intention in dong this move then abandons it. This stone may cost him some territory]
;W[cl];B[rl];W[rk];B[rm]
(;W[lc];B[rc];W[rd];B[kk]C[This move is too early, black has weak shape]
;W[jo];B[im]
(;W[mj]
(;B[io]
(;W[ip];B[jp];W[jq];B[iq];W[hp]
(;B[cf];W[bf];B[mo]C[Black intends to make a wall, white should stop him]
;W[dg]C[taking 6 points but below is larger (12 points or maybe more)]

(;B[np]C[Too early to secure this area, aim for bigger ones]
;W[lp];B[lo];W[ko]C[There goes black's 12 points area]
(;B[om];W[nk];B[nr];W[mr];B[kp]C[Black gives his stone in self atari]
;W[jr];B[kg];W[gf]C[don: ouch, i think G14 is a good move from W, should I have put here instead earlier?

Was it that good ? this is an overplay, let's punish him]
(;B[kj];W[kn];B[li];W[mi];B[fn];W[el];B[jl]
(;W[ll]C[Those 2 white groups doesn't need connection, F8 first]
;B[be];W[ff];B[bg];W[bh];B[ag];W[ah];B[gl];W[ae]C[Weiss:
Whoops, my hand slipped. But I don't know why B let me go with this mistake
as you will see.

Wanna know why ?have you ever heard a technique called 'snap back'? see variation for a snapback sequence]

(;B[ad];W[af];B[bd];W[he];B[hg];W[hb];B[gb];W[ef]C[Weiss:
I think I should've played at G1 instead of E14. As a result , B group on
the lower left live.];B[gs]C[Weiss: Can I still kill B group on the lower left after he played at G1?]
;W[fs];B[as];W[ar];B[mp];W[lq];B[as];W[hs]SQ[qc][ee][pm]C[This
point is small, you should play elsewhere bigger. There is no point bigger
than black's C1 but he MUST compensate for his live. You can play at P7 for
6 points, E15 for 4 points, S16  for 2 points];B[cs];W[de];B[ed]
;W[dd];B[cc];W[gd];B[fd];W[fm];B[en];W[gn];B[fl];W[go];B[gm]
;W[dn];B[fm];W[pm];B[pn];W[pl];B[nm];W[gg];B[gh];W[eh];B[mh]
;W[nh];B[ha];W[ia];B[ga];W[fc];B[eb];W[hc];B[fb];W[cd];B[sd]
;W[se];B[sk];W[sj];B[lh];W[ng];B[qc];W[sc];B[sb];W[pc];B[pd]
;W[pb];B[od]C[A Mistake!]
(;W[qe];B[pa];W[ra];B[rb];W[sd];B[sl];W[rj];B[fg];W[ej];B[fi]
C[At these moment, black wins by 1.5 moku];W[fk]TR[gk]C[don: i think i should have taken this point before W does.

Just defend it at G9]
(;B[hh];W[gk]C[This is what causes black's defeat];B[hj];W[hl]
;B[hm];W[hk];B[ik];W[gj];B[hi];W[jm];B[il];W[ns];B[os];W[ms]
;B[jc]C[small! many points bigger];W[mn];B[nn];W[ln];B[km];W[jn]
;B[mk];W[lk];B[ml];W[nl];B[mm];W[lm];B[kl];W[lj]C[don: no comment, great moves by W.

WHat's so great about this move ? these 2 white groups does NOT need a connection, what he needs now is more & more points]
;B[ge];W[hf];B[es];W[gs];B[ep];W[hd];B[eg];W[df];B[bc];W[ee]
;B[ec];W[nq];B[or];W[op];B[no];W[pq];B[pp];W[pr];B[oo];W[qn]
;B[rn];W[ps];B[rr]C[s41:
I think he made a mistake here, he should connect at p4, I can't see the
reason why he put the stone there. Can you think otherwise?

He's too tired to see the whole board so he doesn't know that a group is in atari]
;W[op];B[oq];W[or];B[rs];W[op];B[qq];W[oq];B[gi];W[ek];B[dh]
;W[qr];B[ol];W[ok];B[oe];W[of];B[pe];W[ld];B[qf];W[rf];B[eh]
;W[ci]C[1 point less by white];B[eq];W[ni]C[1 point less by white]
;B[kf];W[lb];B[ka];W[rq];B[ja];W[ib];B[in];W[jd];B[ma];W[qo]
;B[ro];W[rp];B[po];W[qs];B[sp];W[ob];B[nb];W[nd];B[oa];W[ij]
;B[ig];W[ki];B[jh];W[ji];B[ii];W[jj];B[kh];W[ho];B[jk];W[jj]
;B[ie]C[dame
points taken by black];C[don: I think I had an advantage in the
beginning, but W played great on my opinion. Can I do any better at any stage
of the game?

Weiss: I think B made at least two mistakes which seem
fatal, had he didn't make those mistakes, would it be harder for me? Ow and
like I said in the beginning, I really appreciate if you can comment on my
style of play.

Thank you.

Andre :
Allright... here's my conclusion

Black
likes tenuki a lot, usually this is because he got his knowledge from replaying
pro's game. He is lack in reading big points. He doesn't recognize any overplay
yet which should give him more & more territory. And black always plays
smaller than he should have.

White likes doing overplay, he is better
than black, and would be better without the overplays. Your reading of Live&Death
problems is about average, and should study more. And your style of play...
your opening rather weird, you intend to take side rather than attacking
corner, this may cause your opponent to play shimari to secure his corner

Both
of you has the potential of getting better, just play and study more. Read
my other reviews for basic principle which I don't include here. And because
both of you still below 14k, try mastering standard opening before using
non basic opening. I recommend mastering San Ren Sei, Mini Chinese, Chinese
& Classic Honinbo Opening. There are many non basic and powerful opening
such as Daigo, Shin Fuseki, Cosmic and you should be able to master them
easier if you have mastered the basic opening.])
(;B[gk]C[Black should play here, H13 shape doesnot need protection athese moment]
))
(;W[qa];B[rb];W[ra];B[ob];W[pa];B[oa];W[sa];B[lb];W[na]LB[mb:A]
C[N18 group got killed]))
(;B[af];W[bf]))
(;W[fl];B[gl];W[fm];B[en];W[gm];B[gn];W[gk];B[hl];W[gi];B[fi]

(;W[he];B[hf]
(;W[ge];B[gg];W[fk];B[gj];W[hk];B[ij];W[hm];B[il])
(;W[ff];B[ef];W[eg];B[fg];W[ge];B[gg];W[fk];B[gj];W[hk];B[ij]
;W[hj];B[hi];W[ik];B[jj];W[il]
(;B[jm]TR[gl][hl]C[saving G8 group is a mistake]
(;W[hm])
(;W[jk];B[kl];W[hm]))
(;B[hm];W[jm]LB[fn:A]C[A group captured];B[km];W[jn];B[ln];W[kq]
TR[gf]C[G14 is indeed an overplay but because of black didnot punish white, black may lose a group]
)))
(;W[gh]
(;B[he];W[fg])
(;B[gj]C[Better in saving some territory];W[fg];B[hg];W[gg]
;B[hi]
(;W[fk];B[hk])
(;W[hh];B[ih];W[hj];B[fk]
(;W[ii];B[hk]TR[fh][ei][fi][fj][gj][fk]C[these black group saved]
)
(;W[hk];B[ii]SQ[hj][gk][hk]C[These 2 stones got captured by black]
)))
(;B[fk];W[fg]))))
(;B[he];W[ff];B[eg];W[eh];B[ef];W[fg];B[dh]C[a ko fight for some territory]
))
(;B[pl];W[ml];B[qk];W[qj];B[ql];W[rj];B[ok];W[pj];B[nk];W[mk]
;B[nm];W[kg];B[jh];W[kh];B[ki]
(;W[li];B[kj])
(;W[ji];B[kj];W[jg];B[ih];W[ig];B[hg];W[ii];B[hh];W[hf];B[gf]
;W[he];B[lh];W[kf];B[mi];W[mh];B[li];W[ni];B[nj])))
(;B[kp];W[ko];B[lp];W[ml];B[lk];W[mk];B[lm];W[om];B[pl];W[qk]
;B[pm];W[ol];B[on]))
(;B[kp]C[bigger and lots of complication. I don't make variations here, too many.]
))
(;W[lh];B[kh];W[ki];B[jh];W[ip]))
(;B[hp]C[Better this way to help ko fight];W[iq];B[ip];W[jp]
;B[hq];W[hr];B[ir];W[jq];B[gs];W[fs];B[es];W[ar];B[as]))
(;W[lh];B[kh]
(;W[kg];B[jg];W[ki];B[jh]
(;W[li];B[ji]
(;W[pm])
(;W[kj]C[Attacking black while building white's wall];B[jj]

(;W[jm];B[jl];W[km])
(;W[km];B[jl];W[lk];B[om])))
(;W[lj];B[ji];W[ll]))
(;W[ki]
(;B[li];W[kg])
(;B[jh];W[lj];B[jj]
(;W[ml])
(;W[ll])))))
(;W[el];B[fl]C[If black insisted on hane here];W[fn];B[gm];W[fm]
;B[fk])
(;W[pm]C[Bigger]))
(;B[rl];W[rk];B[pl];W[qk];B[rm];W[nk]
(;B[kf];W[lc];B[lh];W[lk];B[kj];W[kk];B[jk];W[jl];B[il];W[jm]
;B[el];W[im];B[ik];W[hm];B[dl];W[cl];B[cm]
(;W[dn];B[ck];W[bl];B[ci];W[bi];B[ek])
(;W[ck];B[dn];W[bm];B[gn];W[io];B[gl]))
(;B[lc];W[kf];B[kg])))
(;W[gs]C[This is what happened if you take G1 point now];B[as]
;W[ar]C[Black may fight to live but white has the advantage. black's A3 group get silenced if white put a stone at A1]
;B[cm]TR[cj]C[D 10 stone is an aji]
(;W[ck];B[as];W[kf];B[kg];W[ar];B[li];W[as];B[cs]
(;W[as];B[ip]C[B4 group is weak];W[ho];B[io];W[iq];B[jq]
(;W[ir];B[kq];W[gn];B[hm];W[gm];B[gl])
(;W[jp];B[kp];W[jo];B[ko];W[jn];B[kq];W[in]))
(;W[ep];B[as];W[jp];B[ip];W[go];B[fn];W[io]))
(;W[as]C[A mistake];B[cs];W[as];B[ck]C[black has control of left side]
)))
(;B[gs];W[fs];B[es];W[ar];B[as]C[Become a ko fight];W[tt];B[tt]
;W[ar];B[tt];W[as];B[cs]
(;W[as];B[hr]C[black still can make live but white can chase black and get nice influence]
;W[hq];B[ir];W[jq]
(;B[iq];W[ip];B[jp];W[jr];B[kq];W[kr];B[kp];W[lr])
(;B[jr];W[hs];B[is];W[kq];B[kr];W[lr];B[ks]
(;W[kf];B[kg];W[mh];B[li])
(;W[lh]
(;B[kf];W[kg];B[lc];W[jg]C[An
exchange but black has about 4 points profitand still has a chance to take
centre area but white has the same chance of taking centre area]
)
(;B[kg];W[kf]C[white still has a weakness here];B[kh];W[li]
))))
(;W[hr];B[as]C[Black live];W[jp]C[In return, white got more territory and has greater chance to attack centre area]
))
(;B[lh];W[kf];B[kg];W[gs];B[as];W[ar];B[em];W[dm];B[as])
(;B[as];W[ar];B[gs];W[fs];B[as];W[hs];B[cs]))
(;B[cp]C[Black group live]))
(;B[ck];W[ci];B[bn]
(;W[bo];B[cl];W[cn];B[bm];W[dl];B[bi])
(;W[cl];B[bl]
(;W[cm];B[bm];W[bo]
(;B[bj];W[eq];B[er];W[cq];B[ep];W[gp]TR[bq][dq][fq][er][fr]
C[Actually,
a long ko fight may happen, but let's jump into conclusion. What will black
do if white put a stone here so that black cannot escape];B[cr]

(;W[eq];B[cp];W[bp];B[cq])
(;W[cp];B[eq]))
(;B[ao];W[ap];B[bj];W[an];B[am]C[May become a ko fight for connection]
;W[aq];B[br];W[eq];B[er];W[cq];B[dr];W[cr];B[cs];W[cp];B[ao]
;W[bs];B[as];W[an]))
(;W[bj];B[bk];W[bi];B[cm];W[dl];B[bo]))))
(;B[lc];W[kf]C[This point is vital for white];B[kg]C[Black has solid shape on building centre territory]
))
(;W[ka];B[mb];W[la];B[ma];W[ja];B[kd]C[White's K15 group captured, it has no base]
))
(;W[fh];B[hi];W[gf];B[ge];W[hf];B[he];W[ie];B[ke];W[kf];B[ld]
;W[le];B[kd];W[jg];B[ig];W[ih];B[hg]
(;W[hh]C[A Mistake])
(;W[gg];B[hh];W[dj];B[jh];W[ji];B[kh]
(;W[ki];B[ii]
(;W[lh];B[kg];W[jf];B[lf];W[me]C[Bad for white])
(;W[jf];B[lf];W[lg];B[me];W[lh];B[nf];W[mg];B[mf];W[og];B[li]
;W[kg];B[ih];W[jk]))
(;W[ii]C[A
mistake by white];B[kg];W[jf];B[lf];W[me];B[mg]C[The beginning of a complicated
battle,both white and black has 2 weak group but black has the advantage]
))))
(;B[ke];W[if];B[jg];W[hg];B[fh];W[ei];B[hi];W[ih];B[ji];W[jh]
;B[kh];W[kg];B[jf];W[kf];B[je];W[le];B[lf];W[lg];B[lh];W[mg]
;B[ld]
(;W[mf])
(;W[fi];B[me];W[mf];B[nd];W[oe];B[hh];W[ig];B[ii];W[gh];B[gg]
;W[gi];B[fg];W[ki];B[li];W[kj];B[ik];W[nj];B[gk];W[el];B[eq]
;W[go];B[lj];W[kk];B[lk];W[kl];B[lm];W[jn];B[im];W[jm];B[fn]
;W[fo];B[gn];W[om];B[mp];W[lp];B[mo];W[nq];B[oo];W[np];B[no]
;W[op];B[pp];W[pq];B[qq];W[pr];B[pm];W[ol])))
(;B[eo];W[fo];B[en];W[dm];B[kq];W[mo];B[hq];W[fq];B[fn];W[ho]
;B[io];W[in];B[jo];W[hn];B[jn];W[il];B[fl];W[eq]
(;B[cp];W[dp];B[bo];W[bn];B[cr];W[dr];B[cq];W[er]
(;B[ao];W[bm])
(;B[cn];W[dn];B[bm];W[an];B[ao];W[cm]))
(;B[dp];W[ek];B[fk];W[ej];B[fj];W[fi]
(;B[hj]C[Black can seek help to P17 but P17 is not too strong right now to help H10 group]
)
(;B[dn]
(;W[cn];B[cm]
(;W[cl];B[bm];W[bl];B[dl])
(;W[bm];B[cl]
(;W[bl];B[dl];W[el];B[em];W[cj];B[hj]SQ[il][hn][in][fo][ho]
[fp][eq][fq]C[Black treathens white stones])
(;W[dl];B[bl];W[ck];B[bn];W[bk];B[am])))
(;W[cm];B[cn];W[bn];B[bo];W[bm])))))
(;B[do];W[dp];B[ep];W[cp];B[eq];W[eo]
(;B[fo];W[dn];B[en];W[em])
(;B[dn];W[cq];B[fq]
(;W[fo];B[hq];W[el];B[cn];W[cl];B[bo];W[bp];B[bn];W[br];B[dr]
;W[aq];B[dl];W[dk];B[dm];W[fm];B[ck];W[cj];B[bk];W[dj];B[bl]
)
(;W[gp];B[hr];W[cn];B[dm];W[fn];B[cm];W[dr];B[er];W[gq];B[gr]
;W[es];B[fr];W[br];B[ip];W[gl])))
(;B[fq];W[gq];B[ep];W[fr];B[eq];W[gp];B[dn];W[cm];B[cp];W[kq]
))
(;W[jc];B[lc];W[gc];B[pe];W[qe];B[pf];W[qg];B[pg];W[rg]))
(;W[de]C[White
might lose connection with upper right's corner if play here but in return
he may attack lower left corner and seperate black's stones]

(;B[od]
(;W[pf])
(;W[oc];B[nc];W[pc];B[md]
(;W[do])
(;W[qf];B[ic];W[do];B[eo];W[en];B[fo];W[dp];B[eq];W[dm];B[jq]
;W[qo];B[pq];W[op];B[oq];W[np];B[mq];W[pj]
(;B[ee];W[ef];B[fe];W[dd];B[ec];W[dg])
(;B[ce];W[cf];B[cd]
(;W[dg];B[ee])
(;W[df]TR[pe][ph][dj][pn]C[Now black must invade. The triangle marks the points black may attack]
)))))
(;B[oc];W[od];B[nd];W[oe];B[pc];W[qc];B[mc];W[qj];B[cn];W[pp]
;B[mq];W[fd];B[fc];W[gc]C[Lots of joseki variations at this point, choose the one most suited to your purpose]
)
(;B[nc])
(;B[qp]))
(;W[pq]C[Honinbo's style of opening, using komoku for fast territory and fast development]

(;B[cf];W[do]
(;B[eo])
(;B[fp])
(;B[co];W[cn];B[cp];W[dm];B[en];W[dn];B[ep];W[ci];B[jq];W[qn]
;B[oc]))
(;B[dj]C[Risky move, too greedy]))
(;W[fd];B[fc];W[gc];B[ed];W[fe];B[fb];W[gb];B[qp];W[ee];B[de]
;W[df];B[ef];W[ce];B[dd];W[cg];B[dg];W[cf];B[eg];W[bc];B[cb]
;W[bj];B[cm];W[dj];B[gg];W[he]))
