(;FF[4]GM[1]SZ[19]ST[2]AP[SGFC:1.13b]VW[]

PB[Sinea]
BR[12k*]
HA[0]
PW[Leojaah]
WR[12k*]
KM[5.5]
RE[W+10.5]

;B[dp];W[pd];B[qp];W[dd];B[qf];W[fq];B[cn];W[dr];B[cq];W[op]
;B[oq]C[Ronin: what idea is interesting but black could have pincered breaking white plans.]
;W[nq];B[pq];W[mp];B[qn];W[iq]C[Ronin: now white has exchanged a not-so-safe side with two metal solid corners.]
;B[rd];W[pf]LB[qc:b][of:a]C[Ronin:
to attach here is strange for me. White could enfatize the upper side with
a play around a[p14\] or the corner with an unusual b[r17\].]
;B[qc];W[pc]LB[nc:a]C[Ronin:
this wall looks toward nothing and black will have an easy time neutralizing
it, so this maybe white could try something like a[o17\].];B[mc]
;W[qg]LB[me:a]C[Ronin: black has played against the wall, now white can put pressure with a[n15\].]
;B[qe];W[pe];B[qb];W[og];B[ob]LB[jc:a]C[Ronin:
here black wastes a move that should have been played in the other direction,
for example at a[k17\].];W[ql]LB[ci:a][gc:b][in:c]C[Ronin: this move
doesn't really attack nothing nor secure territory. Here white lost a chance
to play a big move, like a[c11\], b[g17\], c[j6\].];B[ph];W[pg]
;B[pk];W[qk]LB[pl:a]C[Ronin: Why not a[q8\]?];B[qj];W[rj];B[qi]
;W[ri];B[pl];W[rg]C[Ronin:
This result is unacceptable for white cause he didn't get influence nor territory
and even lost initiative.];B[jc];W[pn]LB[cg:a][pm:a]C[Ronin: This move doesn't really get something. It should be at a[q7\].]
;B[pm];W[on];B[qm];W[eo];B[jq];W[jp]LB[ip:a]C[Ronin:
Here black is trying to get something from his new sort of influence on the
right side but white should play solidly with a[j4\] and then attack the
invading group from the right.];B[ip];W[hq];B[kp];W[jo];B[ko]
;W[jn]C[Ronin: this pull shouldn't be given to black. The right group o3 is in big danger.]
;B[kn];W[kq];B[lq];W[kr];B[lr];W[jr];B[lp]C[Ronin: this is a bad time for white :)]
;W[mm];B[nr];W[cr]LB[mk:a]C[Ronin: reinforcements to the o3 group are urgent. Really urgent...]
;B[ck];W[cm]C[Ronin: I find this attack interesting.];B[dm]
;W[dn];B[co];W[dl];B[bm];W[cl];B[bl];W[em];B[hm]LB[lk:a]C[Ronin:
This is the time to hit the fatal blow on the white o3 group: a[m9\]. Black
lost a big chance.];W[jm];B[hk];W[pb]C[Ronin: This move misses the point. The point is the o3 group.]
;B[pa];W[nb];B[oc];W[nc];B[od]LB[fc:a]C[Ronin:
black mistake. To try to avoid that cut is useless. Black should have played
around a[f17\], approaching and extending with the same move.]
;W[nd];B[rb];W[oe];B[oa]LB[fc:a]C[Ronin:
Black does not neet to save these stones. To extend around a[f17\] to the
left is urgent now.];W[na];B[qa];W[le];B[md];W[me];B[lc]C[Ronin: Again the spot is on the left. Black is trying hard to complicate his future :)]
;W[fc]LB[hc:a]C[Ronin: here white should attack at a[h17\].]
;B[hc];W[gb];B[mb];W[kb];B[jb];W[jd];B[id];W[je];B[kd];W[ke]
;B[kc];W[hb];B[ie];W[gd];B[ge];W[fe];B[gf];W[ff];B[ch];W[gg]
;B[ig];W[ib];B[ic];W[hi]C[Ronin: this move will put indirect pressure on the weak white o3 group.]
;B[ii];W[hh];B[jh];W[mj];B[lj];W[lk];B[jj];W[hj];B[ik];W[li]
;B[kk];W[ll];B[hg];W[fi];B[fk];W[ek];B[ej];W[fj];B[dk];W[el]
;B[fg];W[gh];B[eg];W[gk];B[ki];W[lh];B[gl];W[fl];B[kl];W[km]
;B[ma];W[ne];B[ka];W[ih];B[jf];W[kg];B[jg];W[he];B[hf];W[hd]
;B[gc];W[fd];B[lb];W[cf];B[bg];W[bd]C[Ronin: wonderful defence!]
;B[bf];W[be];B[ep];W[fp];B[ho];W[hp];B[ni];W[nj];B[oi];W[oj]
;B[pj];W[nh];B[rm];W[dg];B[dh];W[ef];B[eh];W[ei];B[rk];W[bq]
;B[bp];W[dq];B[cp];W[sk];B[rl];W[qd];B[re];W[ij];B[kh];W[lg]
;B[br];W[il];B[hl];W[bs];B[aq];W[di];B[ci];W[dj];B[cj];W[oh]
;B[no];W[mo];B[mq];W[np];B[po];W[oo];B[om];W[nm];B[nl];W[mi]
;B[pi];W[kf];B[ln];W[kj];B[jk];W[ji];B[lj];W[mn];B[go];W[io]
;B[fo];W[fn];B[eq];W[er];B[sl];W[qh];B[sj];W[si];B[cg];W[df]
;B[ia];W[fb];B[do];W[en];B[pp];W[in];B[hn];W[ls];B[ms];W[ks]
;B[sf];W[sg];B[rf];W[lm];B[or];W[lo];B[mr];W[nk];B[ml];W[gp]
;B[ae];W[ad];B[af];W[ha];B[sk];W[ja];B[kj];W[ii];B[ia];W[mk]
;B[ol];W[as];B[ar];W[cs];B[ja];W[gn];B[gm];W[jl];B[if])
