(;FF[4]GM[1]SZ[19]ST[2]CA[UTF-8]AP[SGFC:1.13b]

GN[gtl]
PB[Ronny]
BR[17k]
HA[4]
PW[sillssie]
WR[13k]
KM[0.5]
DT[2003-02-26]
PC[The Kiseido Go Server (KGS) at http://kgs.kiseido.com/]
RE[W+51.50]
TM[1050]
OT[5x30 byo-yomi]
RU[Japanese]

AB[dd][pd][dp][pp]C[Obvious problem at the beginning. But I only see them when it is to late!
My
area becomes smaller and smaller and I can't intrude at my opponents. I'd
like to have some general advise cause this problems are always the same.
Ronny [17k?\]: Hi
sillssie [13k\]: hi


----------
Hi.
That
was an interesting game. I hope my comments will help you to improve your
Go. Please keep in mind that my suggestions may be wrong, afterall I am not
a Dan. ;)

Summary:

You were quite ahead in this game. You lost,
because of some endgame/reading mistakes in the top left. Nothing too serious.
Improve your reading ability.

Some more suggestions:

- Take the initiative. Don't let White push you around.

- Play moves with more than one purpose

- Play moves  wich have good follow-ups

-
Territory is first build in the corners, then on the sides. And it is easy
for white to invade if all stones are placed on the fourth line.

- Do not try to defend imaginary territory. Find the weaknesses in your opponents groups and exploit them to gain an advantage.
You should build territory indirectly while attacking.

- Take your time and think before you place a stone. Unnecessary moves hurt you.

-
To improve reading and feeling for good plays: solve small problems (tsume-go)
Try to search the internet for problem.sites or buy a book]
;W[qf];B[nd]C[----------
This is a very good start. :)
Your move is influence oriented and puts pressure on White.]
;W[pj];B[jp]C[----------
This is certainly a big point.
Another idea is to improve your group at the top with a play at K17. This would also develop D16.

But
I think your move is ok. Nevertheless, you have to expect to come under pressure
when White plays at the other side of your corner group. E.G. at K17 or M17]
;W[qn]
(;B[np]C[----------
Hm.
This move is locally ok, but I do not like that all stones are high on this
side of the board. It will be very easy for White to invade here.

With your stone at K4 another joseki is better. See the variation.]
;W[cn]
(;B[fp]C[----------
You like this move, don't you? ;-)

Now
you place another stone on the 4th line. With more stones and some developed
influence I suggest to take the initiative and e.g. pincer the white stone.

Play moves with more than one purpose. See variation];W[dj]

(;B[dg]C[----------
Don't play all of your stones high. You may want to build some territory on the sides, too. :-)]
;W[ic];B[kc];W[fc]
(;B[dc]C[----------
Should make the corner safe. But I think this is too passive. Take the initiative.]
;W[je];B[ke];W[en];B[hp]C[----------
ok];W[qq]
(;B[pq]C[----------
This is a mistake.

The rule is: cut where you can cut!
You
make it too easy for White. All your places on the fourth line should have
been played to gain influence. Do not try to use them to build territory
in the first place. Use them for attacking and making territory in the process
of attacking.

See variation];W[qp];B[po];W[rn]
(;B[nm]C[----------
This may look big. Hm. I'd suggest to attack the weak white group in the upper left or at least close your corners.

There will not be very much territory made by either side. Bith players have stones in the center...]
;W[pn];B[on];W[ol];B[jj]C[----------
What is the use of this stone?

If you wnat to fight in the upper left (for example with the cut, it may come in handy...]
;W[of];B[ll]C[-------
smaller than closing corners

Do not try to make territory in the center directly if this is what you are trying to do :)]
;W[im];B[jm];W[in];B[jn];W[ik];B[jk];W[eg];B[ef];W[eh];B[dh]
;W[di];B[ee]C[----------
Not necessary];W[ij];B[hg];W[ji];B[ii];W[hi];B[ih];W[hh];B[gg]
;W[jh];B[ig];W[lh];B[jf];W[ie];B[kd];W[ff];B[fg];W[lf];B[kf]
;W[kg];B[fe];W[eb];B[db];W[fi];B[gd];W[gc];B[hd];W[jc];B[hc]
;W[hb];B[id];W[jd];B[ec];W[fb];B[cp]C[-----------
Good.

I
kept wondering, why both of you played all these other moves. The corners
are really big. They don't look big, but they really are.];W[qd]
;B[qc];W[rc];B[qb]C[----------
Or cut.];W[rb];B[pe];W[pf];B[qe];W[re];B[rd];W[sd]
(;B[qd]C[----------
This situation calls for playing a Ko. It would be in favour for you. Nothing to lose.

See variation for ko-theory];W[rf];B[ci];W[cj];B[bi];W[bj]
(;B[bo]C[-----
The last position is not save!]
(;W[bn];B[il];W[hl];B[jl];W[hn];B[gn];W[gm];B[go];W[bh]C[----------
Ah. The hard school of go-life. Remember this position and save your stones next time.]
;B[ch];W[ai];B[bg];W[ah];B[ag];W[aj];B[fh];W[ei];B[gi];W[gj]
;B[gh];W[hj];B[me];W[df]
(;B[cg]C[----------
Read ahead. 

What you shoul do now is: give away these stones.];W[cf];B[bf]
;W[be];B[ce];W[af]C[----------
:(];B[bd];W[mf];B[ad];W[mk];B[ml];W[nl];B[om];W[pm];B[lk];W[mj]
;B[lj];W[mi];B[ki];W[li];B[kj];W[jg];B[kh];W[lg];B[if];W[kb]
;B[lb];W[jb];B[lc];W[fd];B[ge];W[pr];B[or];W[qr];B[oq];W[io]
;B[ip];W[jo];B[ko];W[os];B[ns];W[ps];B[nr];W[co];B[bp];W[de]
;B[cd];W[ed];B[gf];W[la];B[ma];W[ka];B[mb];W[bb];B[bc];W[cb]
;B[da];W[ab];B[ea];W[ia];B[fa];W[gb];B[ca];W[ba];B[ae];W[bf]
C[Ronny [17k?\]: Seki?



---------------
No it is not a seki.

see variation of next white move];B[le]
(;W[oe];B[od];W[fn];B[ra];W[sb];B[qa];W[se];B[sa];W[sc];B[eo]
;W[do];B[fo];W[an];B[ho];W[hm];B[ao];W[ne];B[ga];W[ha];B[qo]
;W[ro];B[tt];W[he];B[tt]
(;TW[aa][ja][ib][ac][cc][dd][nf][sf][mg][ng][og][pg][qg][rg]
[sg][mh][nh][oh][ph][qh][rh][sh][ni][oi][pi][qi][ri][si][ej]
[fj][nj][oj][qj][rj][sj][ak][bk][ck][dk][ek][fk][gk][hk][nk]
[ok][pk][qk][rk][sk][al][bl][cl][dl][el][fl][gl][pl][ql][rl]
[sl][am][bm][cm][dm][em][fm][qm][rm][sm][dn][sn][so][rp][sp]
[rq][sq][rr][sr][qs][rs][ss]TB[na][oa][pa][nb][ob][pb][mc][nc]
[oc][pc][ld][md][kk][kl][km][lm][mm][kn][ln][mn][nn][lo][mo]
[no][oo][ap][ep][gp][kp][lp][mp][op][aq][bq][cq][dq][eq][fq]
[gq][hq][iq][jq][kq][lq][mq][nq][ar][br][cr][dr][er][fr][gr]
[hr][ir][jr][kr][lr][mr][as][bs][cs][ds][es][fs][gs][hs][is]
[js][ks][ls][ms])
(;W[ac]C[sillssie [13k\]: ok?
Ronny [17k?\]: Ok, I agree! But what if I took c17 first];TW[aa]
[ca][da][ea][fa][ga][ja][db][ib][bc][cc][dc][ec][ad][bd][cd]
[dd][ae][ce][nf][sf][ag][bg][cg][dg][mg][ng][og][pg][qg][rg]
[sg][ch][dh][mh][nh][oh][ph][qh][rh][sh][bi][ci][ni][oi][pi]
[qi][ri][si][ej][fj][nj][oj][qj][rj][sj][ak][bk][ck][dk][ek]
[fk][gk][hk][nk][ok][pk][qk][rk][sk][al][bl][cl][dl][el][fl]
[gl][pl][ql][rl][sl][am][bm][cm][dm][em][fm][qm][rm][sm][dn]
[sn][so][rp][sp][rq][sq][rr][sr][qs][rs][ss]TB[na][oa][pa][nb]
[ob][pb][mc][nc][oc][pc][ld][md][ff][kk][kl][km][lm][mm][kn]
[ln][mn][nn][lo][mo][no][oo][ap][ep][gp][kp][lp][mp][op][aq]
[bq][cq][dq][eq][fq][gq][hq][iq][jq][kq][lq][mq][nq][ar][br]
[cr][dr][er][fr][gr][hr][ir][jr][kr][lr][mr][as][bs][cs][ds]
[es][fs][gs][hs][is][js][ks][ls][ms]))
(;W[ga];B[oe];W[ac]C[----------------
White has one more liberty.]))
(;B[cf];W[cg];B[ce];W[bf];B[be];W[af]C[---------
I think you still win.]))
(;W[bh]C[----------
This is possible. Verify for yourself please.]))
(;B[ch]))
(;B[rf]C[----------
If you win the Ko. White is captured here.];W[qd];B[ib]C[------
If White ignores your threat and plays S13, you capture the top.

If not...];W[jb];B[rd]C[---------
Now it's white turn to find a threat, but you can answer the threat, because it is not your group wich is in danger :)


If White has no threat...]
(;W[rg];B[se]C[-----
.. you capture the corner])
(;W[cf]C[------
If White finds a threat...

Important: please verify that the threat is big enough! Don't save one stone and loose the ko!]
;B[df];W[qd]C[-------
And even if you are running out of ko-threats. In this situation you can play on like this...]
;B[rg]C[------
You'll probably win the fight anyway. At least it is one more threat for you. :)]
)))
(;B[rd])
(;B[bp])
(;B[id]C[----------
You can cut ("Cut where you can cut")

I think the ladder will not work for White...];W[jd];B[jc];W[hd]
;B[ie];W[if];B[he];W[ge]C[-----------
And so on. Read it for yourself]))
(;B[qp]C[----------
This is the right spirit.

You
gain even more influence. Do not try to defend imaginary territory. Instead,
try to find the weaknesses in your opponents groups and exploit them.]
;W[rp]C[----------
If White tries to connect go on and really cut him...];B[ro]
;W[rr];B[qo]C[----------
White will have a very small life and has no connection to the center or his allies.

And look how weak the stones to the right are! A wonderful opportunity for you to invade and push White around!]
;W[sq];B[ql]))
(;B[ec];W[fd]C[----------
White is overconcentrated and now it is your turn to pick the next moves...]
))
(;B[cg]C[----------
This is more like it. Now you have a good follow-up: the invasion at C8.]
))
(;B[cj]MA[cl][dl][dk]C[----------
Pincer White. Put pressure on him and develop D16. In the fight, both of your positions will improve.

There is more than this pincer. Some others include the marked points.]
;W[fq]C[----------
Don't be afraid of a second approach.];B[fp];W[gp];B[fo]C[----------
Play the same moves as suggested earlier. Both white groups are very weak and you can take your advantage out of it.

Of course you have to attack and continue to put White under pressure]
))
(;B[pn]C[----------
This is a very common joseki. The main variation goes on like this...

This Joseki will also improve White's shape. But I think it is a fair trade. And you take the initiative.]
;W[pm];B[on]C[----------
...and so on

The stone at K4 is now in good place.]))
