(;FF[4]GM[1]SZ[19]AP[SGFC:1.13b]

PB[C Appleton]
PW[Akiva17]
KM[6.5]
DT[2003-03-07]
PC[KGS]
RE[W+62.5365]
TM[No limit]
GC[by Barry C. Willey]

C[Thank you for the review.
There was no time limit on the game.
No take backs

I am just starting out. I have read a number of books and am trying to get better at this very frustrating game. I I felt good about my opening. It was later that everything fell apart for me.
I have Tried to comment where I think I did things wrong. I like to study my games so I can improve.
I am not looking for a lot of detail. Ilike to figure out issues myself. I would appriciate a few "you need to look at this move" pointers.
Thanks
Lonnie
####################

Lonnie-

   There is good news and bad news.  The good news is that you played a nice game.  Much better than you realize.  The game was scored wrong and you won by over 35 points.  Nothing really fell apart for you.
     The bad news is that a review of a game you won is not that helpful since the moves you made were good (at least relative to your opponent's moves).  However, I will comment on both white and black to point out some of the weaknesses in the game.  My comments will be preceded by >> in the game record.
        If you have any questions about this game or future ones please feel free to send me a record and I would be glad to take a look at it. 

 Welcome to the game of go.

 Barry];B[pc];W[pp];B[cd];W[eq];B[on]C[>>This is an unorthodox move by black and not a standard joseki.  I'm not saying it was a bad move, but something I'm not very comfortable with.  Typically beginner players utilize territory building moves more in the beginnning of the game.  A stronger player may have been better able to exploit the weaknesses in the move.


 Here are some general rules from a book called "Five Hundred and One Opening Problems" that might be of some help in deciding moves.

 When making a move in the opening stages there are three essential questions you should ask yourself in the following order:

 1.  Is there an urgent move?
        a. one that makes a base for your stones
               b. one that takes away the base of your opponent's stones
               c. one that takes the initiative in a certain area
        2.  Is there a big move?
               a. one that extends from you own position
               b. one that prevents an extension by your opponent
               c. one that threatens an invasion
               d. one that prevents an invasion
        3.  Is there a big moyo? ( a moyo is a framework that maps out a large potential territory)
               a. Do you need to expand or close off your moyo?
               b. Do you need to erase or invade your opponents moyo.


               These are some good general rules to think about when deciding your next move during an opening.]
;W[nq];B[pj];W[df];B[cq];W[dp];B[cp]
(;W[dq]C[>>Poor move by white. For example, he would have done better by sealing you off in the corner. [see var.\]]
;B[do];W[iq];B[ec];W[dd]C[I felt pretty good to this point

               >> You should.  The board is developing nicely and black seems to have the advantage over white.]
;B[cc];W[dc];B[db];W[ce];B[eb]C[>>While this is a good move, black could have easliy done the same thing after extending to f16 first and then connect the cutting point.]
;W[qq]C[Was this played Ok if not brilliant?

               >> Actually if white wanted to close off the corner, r5 would have been better.  That moves captures the corner and threatens to play under black's stones]
;B[id];W[gf];B[gd]C[>>While not a bad move it was not the biggest move available.   It was not critical to protect that cut.  The corner is safe and you can easliy extend along the top from j16.  Perhaps an extension along the left side would have been better.]
;W[ei]CR[ci][cj]C[>>Weak move by white he would have been better served by solidifying a base at c10 or11.]
;B[pf];W[qn];B[qm]C[>>Think about this move.  How else could white have played against this move?]

(;W[rm];B[pm]LB[ql:a]C[I did not like this Sequence.
               Should I have capped at A?

               >> the result was not bad as black obtained a lot of influence, but it is almost never bad to make your opponent crawl along on the second line.]
;W[pn];B[om];W[oo];B[lp]C[Good Move?

               >>It turned out good, but only because of the way white played against it.  What if white had tried to split that stone from the top right?  [see var.\]]

(;W[lq];B[mp];W[mq];B[mn];W[no];B[dl]CR[ck]C[Was This a Proper Jump?

               >>   The jump seems a little narrow.  I probably would have jumped at the marked location.]
;W[el]C[THis is where Things started to go bad for me. I felt very reactive and could never get sente back!]
;B[dj];W[di];B[ci];W[ck];B[cj];W[dk];B[bk];W[cl];B[bl];W[dm]
;B[ch];W[cg]C[>> I have included a variation for your next move]

(;B[cn];W[cm];B[bm];W[dn]
(;B[bn]C[>>blocking at c5 is better.  why?... b/c it the section on the left is still protected and you keep sente.]
;W[eo];B[co];W[cr];B[br];W[cs]
(;B[ip]C[Should I have gone else where?

               >> I think white could have cut you off and driven the stone into the white wall, if he had not played so conservatively.  Don't play close to your opponent's strength.

               You might have tried to attack his group in the upper left by first splitting it off.  [see var\] or sealing off your moyo on the top.]
;W[hp];B[io];W[ho];B[in];W[qk]
(;B[ql];W[rl];B[qj];W[rj];B[ri];W[qi];B[qh];W[rh];B[pi];W[si]
;B[rg];W[qi];B[pk];W[rk];B[ri];W[hn];B[sh]CR[hl]C[I thought the KO fight went well?

               >>  Yes, although it would have helped you to keep it going and move at h8 or j8 instead.]
;W[il];B[jl];W[sj];B[jk];W[ij];B[jj];W[ik];B[ji];W[ig]C[I thought we were about even here.

               >>Actually, I think you were way ahead at this point. By about 30 pts at least.]
;B[jg];W[im];B[jm];W[jp];B[jo]MA[ko]C[>> poor shape..... l5 instead.  [see var.\]]

(;W[kp];B[ko];W[np];B[if];W[ih];B[ii];W[hi];B[jh];W[he];B[ed]
;W[de];B[ge];W[bh];B[bi];W[ag];B[be];W[ej];B[hf];W[hg]
(;B[ee]C[>>Not the best move.  See Double atari at g13 [see var\]]
;W[ef];B[dr]C[Tried a couple of weak attacks

               >>  This was not necessary as you were way ahead at this point. [see var\]]

(;W[dh];B[ds];W[ai]LB[er:a][fr:b]C[Would a or b have been good?

               >> perhaps a, but you would have been better off saving the group on the left side.]
;B[aj];W[bj];B[ak];W[er];B[bs];W[es];B[ae]CR[bf]C[>>Better at b 14, b/c you will still have to go back and reinforce that edge.]
;W[fe];B[fd];W[ff];B[hj]C[Very bad? I was trying to regain sente.

               >> probably not necessary..... the game should only have a few moves left.]
;W[hk];B[lc]C[>>Good move, just to make sure.];W[jf];B[ie];W[hm]
;B[kf];W[bf];B[je];W[gj];B[sn]C[tried to invade here. But on hind sight I don't think I could make life.

               >>You are correct.];W[rn];B[bd];W[so];B[hc];W[mo]
;B[nn];W[lo];B[ln];W[af];B[kn]C[>> not necessary];W[qc]C[This is where I REALLY started to loose?

               >> Not really......., as I pointed out earlier.]
;B[pd];W[qd];B[qb];W[qe];B[qf];W[sd];B[sc]C[>>Poor move.  White could have lived after this move.  But I think you still had enough to win.   What do you think wouoldl have been a better move? [scroll down for answer\]






















               s17?]
(;W[rd];B[rc];W[rf];B[sf]C[>> white is just trying desperation moves at this point.   This is generally regarded as impolite if you are merely relying on a misclick by your opponent to try to win, especially if you are playing against a stronger player.

               I don't have any more comments at this point and but will try to give you some helpful general pointers to help you improve.

               1.Practice life and death problems.  This will help you the most at the stage you currently are.  

               2.  Look for the biggest move on the board];W[qg]
;B[re];W[pg];B[og];W[nc];B[mc];W[nd];B[ne];W[od];B[pe];W[ob]
;B[nb];W[mb];B[na];W[oa];B[la];W[ma];B[pb];W[lb];B[kb];W[ka]
;B[jb];W[md];B[ld];W[me];B[le];W[oe];B[nf];W[pa];B[qa];W[mf]
;B[mg];W[nh];B[ph];W[of];B[ng];W[lf];B[lg];W[mh];B[lh];W[mi]
;B[mj];W[nj];B[nk];W[mk];B[lk];W[lj];B[kj];W[li];B[oi];W[ok]
;B[oj];W[nl];B[ll];W[ml];B[ol];W[nm];B[nk];W[lm];B[ni];W[ok]
;B[km];W[ki];B[kh];W[nb];B[rb];W[mm];B[nk];W[kl];B[kk];W[ok]
;B[oh];W[ia];B[ha];W[hb];B[ga];W[gb];B[fa];W[fb];B[ib];W[ja]
;B[ic];W[ea];B[da];W[cb];B[bb];W[gc];B[ga];W[ha];B[fa];W[ea]
;B[ca];W[la];B[fa];W[sm];B[tt]LB[hq:a][cj:b]C[Should I have Tried a cut at a, b or somewhere?
               I just couldn't see any where to get gain.];W[tt]
)
(;W[rb]CR[rb];B[rd];W[re];B[se];W[sf];B[rf];W[sd];B[pb];W[rc]
;B[ra];W[sb];B[pe]))
(;W[er];B[bs];AB[ai][ae][mo][nm][fe][bd]AW[ff][bf][af][ah][nn]
[dh];W[ds]C[>> I have finished off the groups and you are ahead by over 40 pts.]
))
(;B[gg];W[hh];B[ff]))
(;W[ko];B[jn];W[kp];B[kn];W[mo];B[lo];W[nn];B[nm];W[np];B[ln]
))
(;B[rl];W[ql];B[rn];W[rk];B[sm];W[qh];B[ph];W[qg];B[pg];W[qf]
;B[qe];W[re];B[qd];W[rd];B[rc];W[ro];B[qi];W[ri];B[rj];W[qj]
;B[pi];W[sj]))
(;B[ej];W[fi];B[fj];W[gj];B[gk];W[gi];B[fl];W[fm];B[ed];W[de]
;B[ff];W[fg];B[fe];W[gg];B[gm];W[gn];B[fn];W[em];B[hn];W[go]
;B[hm];W[ho];B[jo])
(;B[mc];W[if];B[ke];W[kf];B[lf];W[kg];B[lg];W[lh];B[mh];W[li]
;B[mi];W[je];B[kd];W[jd];B[jc]))
(;B[co];W[eo]))
(;B[cm]CR[cm];W[bm];B[cn];W[bn];B[ek];W[dl];B[fl];W[fk];B[ej]
;W[fm];B[gl];W[gm];B[gk];W[fj];B[fi];W[gj];B[eh]))
(;W[mn];B[mo];W[no];B[nn];W[lo];B[mp];W[ln];B[jp];W[jo];B[ip]
;W[io]))
(;W[pm]CR[pm];B[pn];W[ql];B[qo];W[rm];B[po];W[ro];B[om];W[ol]
C[>>Black is now heavy and bot of whotes groups are safe.]))
(;W[co];B[bo];W[cn];B[dq];W[ep];B[er];W[fr];B[dr];W[bn];B[bp]

(;W[dj])
(;W[jp])))
