(;FF[4]GM[1]SZ[19]AP[SGFC:1.13b]

PB[SCarter]
BR[8k]
PW[Adalberto]
WR[8k]
KM[0.5]
DT[2003-03-16]
PC[The Kiseido Go Server (KGS) at http://kgs.kiseido.com/]
RE[B+14.50]
TM[1200]

C[Message to reviewer: See my questions throughout.

I'm most interested in getting strionger in my choices in the opening and
cutting out moves that are effectively 'passing' ie of no value.

If you would focus on those areas and also point out the good/right moves (on both sides) that would be very useful.

Many thanks.];B[jj]C[wild : Interesting start, but I would still stick to
the more traditional corner start. Interesting to note that Go Seigen
(widely accepted as the greatest Go player of all time) ever started
with this move (either very early in his professional career or even
before he turn professional).];W[pd];B[dp];W[dc];B[pp]C[wild : This is the intended position in relation to the intersting start.]
;W[jc]TR[jd]C[wild: With this first 3 moves, black has signalled very clearly his
intention to play with moyo strategy. Thus, I feel that this play is
too low. At least it should be played at K16.];B[de]TR[jp]C[Is this the right approach and joseki choice for black given this opening position?

wild: Frankly, I'm not very familiar with joseki. But white certainly must
not respond with the C15 joseki. Given this position, I would almost
always play K4 to continue the moyo strategy.];W[fd]C[wild : This
gives the feeling that white has played too many hands on the top side
of the board. A better alternative is to pincer.];B[cc];W[cb]
;B[cd];W[eb];B[ci]TR[dh][di][jj]C[wild
: Of course, this is standard joseki. I think D12 or even D11 may be
better in relation to black's K10.];W[nq];B[lq];W[no];B[pn]
;W[kp];B[kq];W[jp];B[jq];W[pr]TR[qq]C[wild
: This move is a departure from the joseki. It's not good. It does not
give white two eyes, and at the same time, it kills off any opportunity
of a 3,3 move in future. In view of the oyo on the left, black should
resist the usual response at R3. Instead it should push through at M4.
See variation.]
(;B[qq]
(;W[lp]C[wild : The joseki is to extend one more at J4. See variation.]
;B[ip];W[io];B[hp];W[ho];B[gp];W[jl];B[qf]TR[co]SQ[gp][hp][ip]
[jq][kq][lq]C[wild
: I would think that protecting black's corner at C5 is more important.
You can imagine if white is to play 3,3 now, no matter which side black
choose to block, the effectiveness of the seeds is greatly reduced.]
;W[qh];B[qj]SQ[jc][jj]C[wild
: Black should just continue with the standard joseki of 3,3. Because
of the low position of K17 and the existence of K10, the moyo build up
is not of much value to white. Of course, this brings to attention that
white's pincer is not the appropriate joseki.];W[og];B[qc];W[pc]
;B[qd];W[pe];B[pb];W[ob];B[qb];W[nc];B[oj];W[ff];B[ei];W[fl]
;B[dl]C[wild: Black no good. The value of invading the corner (which by itself is
big), has just been doubled.];W[cq]C[wild : Excellent.];B[cp]
C[Am I pushing white in the right direction with 49,  I can never tell in these situations...

wild: Both directions are no good for black. But this direction is the
lesser evil because of the longer left side that black controls..]
;W[dq];B[eq];W[er];B[fq];W[bp];B[bo];W[bq];B[cn];W[fr];B[gr]
;W[cs]TR[jg]C[White 60 needed?  My life and death judgement is poor

wild : No. White should consider a move near K13.];B[nm]TR[ql]
C[probably needed to aim at k14 with 61 or was 61 an actually big enough?

wild : Yes, I agree K14 is bigger. But this move is not too bad locally. It prevents white's invasion at around R8.]
;W[qr]TR[cg]C[wild
: This is a big endgame move but it is not quite endgame yet. Besides,
K13 or K14, I believe white may also create some mischief at around
C13.];B[rr]C[wild : black should consider reducing white's moyo at around K14.]
;W[rh]TR[jg][jf]C[wild
: Big move, otherwise black can connect the two sides from there.
However, I'd still feel K13 or K14 is more urgent.];B[pf];W[of]
C[wild : The last two moves is an unnecessary exchange for black.]
;B[rf]C[65, 67 v poor?! should be aiming at k14?!

wild : Yes.];W[ph];B[eg];W[ef];B[df];W[bb];B[jf]C[wild : Finally. Advantage black.]
;W[ie];B[je];W[jd];B[le];W[ld];B[me];W[md];B[if];W[he];B[hf]
;W[sk];B[sj];W[rj];B[rk];W[si];B[rl];W[sl];B[sm];W[sj];B[rm]
;W[ae];B[be];W[ad]
(;B[ac]C[wild : wrong sequence. See variation.];W[bc];B[af]
;W[bd];B[bf];W[mm];B[go];W[hm];B[mp]
(;W[mo]C[wild : Mistake! See variation.];B[mq];W[np];B[kn]C[wild : I doubt this would amount to anything.]
;W[jn]TR[ll]C[wild
: A bit timid in response. Can consider containing black with M8. Then
black would have only helped white to surround more territory with 109.]
;B[ml];W[lm];B[ll];W[kl];B[mh];W[ni];B[nj];W[mi];B[lh];W[mj]
;B[nn];W[ko]TR[mn]C[wild : Should simply connect at N6.];B[dd]
;W[ed];B[fg];W[qe];B[re];W[ek];B[dk];W[ej];B[gf];W[ge];B[gi]
;W[dj];B[cj];W[di];B[dh];W[kj];B[ki];W[lk];B[nl];W[hj];B[fj]
;W[hi];B[fk];W[gl];B[el];W[jh]
(;B[ih];W[ji];B[ii];W[ij];B[jg];W[jk];B[kh];W[hh];B[gg];W[gh]
;B[fh];W[ig]C[to 160 - best black could have done?

wild : See an earlier variation at 149.];B[mr];W[nr];B[fm];W[gn]
;B[fn];W[rs];B[rq];W[oo];B[po];W[on];B[om];W[gj];B[nf];W[ne]
;B[ng];W[nh];B[ke];W[pa];B[qa];W[oa];B[sc];W[pi];B[pj];W[oi]
;B[qi];W[pq];B[fs];W[es];B[gs];W[ao];B[an];W[ap];B[ns];W[os]
;B[ms];W[mn];B[gk];W[hk];B[gm];W[hl];B[hn];W[in];B[op];W[oq]
;B[sg];W[rg];B[kd];W[kc];B[mk];W[li];B[mf]C[Adalberto [8k\]: ?
SCarter [8k\]: paniced];W[hg];B[fi];W[gn];B[sr];W[pg];B[hn]
;W[sh];B[sf];W[ee];B[gn];W[qg];B[rd];W[qs])
(;B[ji];W[ih];B[ik];W[hk];B[il];W[hl];B[im];W[in];B[jm];W[km]
C[wild : Is this better. I think so but I'm not sure. Probably need to really sit down and count the difference to find out.]
))
(;W[mq];B[mo];W[mn];B[lo];W[ko];B[ln];W[kn];B[lm];W[ll];B[km]
;W[jm]C[wild : no way out for black. There are other similar variations, try it!]
))
(;B[af];W[bc];B[bd];W[ac];B[bg]C[wild : Difference is two points!]
))
(;W[ip];B[lp];W[lo];B[hq];W[mp]TR[pr][qq]C[wild
: Here the problem with the Q2 R3 exchange becomes more obvious. Under
this circumstances, white group on the outside is pretty safe, so it
could well play 3,3 to take away black's corner.]))
(;B[lp];W[lo];B[mp];W[np];B[mo]TR[ip]C[wild
: Note that this sequence does not hold if white had extended at J4
(which is part of the joseki).]))
