(;FF[4]GM[1]SZ[19]ST[1]CA[UTF-8]AP[SGFC:1.13b]

GN[pulsar4590-JklChen(B) IGS]
PB[JklChen]
BR[28k]
PW[pulsar4590]
WR[19k*]
KM[0.5]
DT[2003-03-21]
PC[IGS:  igs.joyjoy.net 6969]
RE[B+5.5]
TM[300]

C[Hi
I am black in this game. The komi is 0.5 point and won by 5.5 points.
I think i should lose if komi is 5.5 or 6.5 points.
Please spot my fault and give me some comment.
Thank you.

Hello,
my name is Peter Strempel, I play somewhat around 8k level.
I admit I am wondering about your given 28k rank. You play much better than the usual IGS 28k.
I will try to comment on your problems and give some variations as alternative ideas.]
;B[pd];W[dp];B[dc];W[pp]
(;B[ce]C[This move is good. An interesting alternative might be the mini-chinese opening as shown in the variation.]
;W[nc]
(;B[pf]C[Instead you could consider to play a pincer which would at the same time be a good extension from your upper left corner.]

(;W[qb]C[This white move is strange. Q18 instead would be the standard pattern.]

(;B[qc];W[pb];B[lc]C[Good move! This shows why whites R18 was a mistake. A white extension on the top had been big.]
;W[rc];B[rd];W[pc];B[qd];W[rb]
(;B[le]TR[qk][qn]C[Instead I would prefer an extension on the right side, or an approach move towards Q4.
You fear a white move around K17? But there is no reason yet. See variations.]

(;W[md];B[ld]C[Black is fine, white destroyed the possibility to peep from the other side at L16. N16 does not help white much, the corner is alive and not interesting anymore.]
;W[qm];B[qk]C[Good.];W[pk];B[pj];W[pl];B[qj];W[fq];B[mq];W[pq]
;B[jq];W[iq]
(;B[ip]TR[jp]C[Consider the variation.];W[hq];B[mo]LB[jp:A]
C[You should protect at A, else white can destroy your eyeshape quickly. So the play in the earlier variation where you play A instantly instead the hane looked better to me.]

(;W[dm];B[ck];W[cp];B[ek]C[So far black looks good on the board, except the weakness on the bottom. If white invades the top, you can attack severly.]

(;W[fd]LB[ee:A]C[The usual reduction play against a shimari would be at (A), which can be followed by an attachment.]

(;B[ec]TR[ee][hd]C[This looks like the first real bad black move in this game. It appears very slow, does not attack white severly, and does not make many points for you.
One of the marked triangle spots looks more active while attacking white. Your corner is strong enough, no need to reinforce it yet. Better to attack white from the outside.]
;W[fc];B[hd];W[hc]
(;B[gd]C[This "bumps" the head of two stones into white stones, you create bad shape for yourself.]
;W[gc];B[ic]C[Your shape is too weak, you cannot play this. White will cut.]
;W[id]C[Severe cut.];B[ie]
(;W[ib];B[jc];W[jb]
(;B[kc];W[ge];B[he];W[ee];B[df];W[gf];B[bm]C[This move is small. It is more urgent to protect your weakness on the bottom with a play at K2 or K4.
White can launch a severe attack on that group.];W[cm];B[bl]
;W[bn];B[nj];W[jp]C[Yes. You ignored this weakness too long.]
;B[kp];W[jo];B[ko];W[io];B[lm]
(;W[jr];B[kq];W[dk];B[dj];W[dl];B[on];W[pn];B[oo];W[po]C[White says "Thank you". You helped white to get a solid territory, while those two stones you just played dont do much for yourself.]
;B[ne];W[mb];B[ig];W[cq]C[I do not understand this move. White could have passed, too.]
;B[ik];W[el];B[fk];W[fl];B[gk];W[gl];B[hl];W[hm];B[im];W[hn]
;B[gh]C[Good move. You played well in the last moves.];W[jn]
;B[km];W[jm];B[jl];W[hg]
(;B[hh];W[if];B[jf];W[hf];B[je];W[fh];B[fg];W[ff];B[ef];W[ih]
;B[jg];W[fi];B[hj];W[hi];B[ii];W[eg];B[gi];W[gg];B[dh];W[dg]
;B[cg];W[ch];B[eh];W[fg]
(;B[di];W[bh];B[bg];W[ej];B[bi];W[de];B[cf];W[eb];B[db];W[fb]
;B[dd];W[me];B[mf];W[mc];B[od];W[oc];B[nd]TR[an][kr][nl][or]
[rl]C[Slow and passive. No need to play this. You have bigger moves at A6, S8, L2, P2 or O8.]
;W[nk];B[mk];W[ok];B[mj];W[oj];B[oi];W[rl];B[rk];W[nr];B[kr]
;W[ir];B[nq];W[or];B[mr];W[op];B[np];W[om];B[mn];W[sd];B[se]
;W[sc];B[rf];W[nm];B[sl];W[sm];B[sk];W[rm];B[an];W[bo];B[ml]
;W[nl];B[kb]
(;W[fe]C[???

White is filling neutral points.];B[ha]C[Good!

As far as I can see it, white is dead. Resign time for white.]
;W[hb];B[ga]C[Correct. White still dead.];W[ka]
(;B[ja]C[ARGH! This is a mistake (you probably noticed yourself a move later). If you play M19, White is dead.]
;W[la]C[Opps.  White connected ;(];B[lb];W[ma];B[ia]C[Useless now. White is connected. Better at E19 to prevent white D19 in sente.]
;W[da]C[Yes, correct by white. That lost you points.];B[ca]
;W[ea];B[cb];W[ao];B[am];W[cj]C[A hopeless cut.];B[bj];W[cl]
;B[ci];W[nn];B[no];W[pi]
(;B[oh];W[qi];B[ri];W[qh];B[rh];W[qg];B[qf];W[ql];B[rg];W[ms]
;B[ls];W[ns];B[js];W[is];B[ks];W[oq];B[kn];W[in];B[il];W[fj]
;B[gj];W[gb];B[mm];C[You definately do not play like the 28k rank suggests. Actually I think, you were the stronger player in this game. You could have won much bigger if you not made the mistake at K19.

Your opening was quite ok. You left a weak group at the bottom, that was a mistake. White should have been able to punish that more severly.
When white invaded the top, you failed to attack more severe. You should attack an invasion from the outside and force the opponent to live small, while you gain either points or influence from the attack.
Sometimes you play defensive moves when there is no need (O16), but then you create shapes which have a weakness instead of playing solid. Try to concentrate on creating solid groups and good shape, then you dont leave weaknesses behind you need to defend in gote. I know that is no easy task, of course, and I wish I would be able to apply it in my own games, too. :)

Anyways, you have well earned the win in this game, you had won much higher without the error at K19.]
)
(;B[ph];W[qi];B[ri]C[A simple ladder should do, too. If white cuts at O11 or P12 now, there is no danger.]
))
(;B[la]
(;W[ja];B[lb])
(;W[lb];B[ja];W[ia];B[ka])))
(;W[ha]C[This would be the required move.];B[ja];W[ea]
(;B[gb];W[ga])
(;B[hb];W[gb];B[ka];W[ia])))
(;B[ej]C[The bamboo joint is better shape.];W[cj]C[This cut should be no danger.]
;B[bj];W[ci];B[bg];W[bi];B[ak];W[ai];B[ah];W[aj];B[bk];W[am]
;B[di]C[Black wins.]))
(;B[ih]C[This makes better shape and leaves no weakness.];W[hh]
;B[hi];W[fh];B[gi];W[fg];B[dh]C[Black is satisfied.]))
(;W[kq]C[White should cut here.]))
(;B[jd]C[Better to capture here. Makes better shape.]))
(;W[jd]C[If white extends here, black could be in trouble.]
;B[jc];W[je];B[if];W[jf];B[ig];W[gf]
(;B[ge];W[fe];B[he];W[jg])
(;B[hf];W[fe];B[he];W[jg])))
(;B[ic]
(;W[gd];B[id]C[Better for black.])
(;W[ib];B[hb];W[gc];B[jb];W[id];B[jc];W[he]C[This would make life on white too easy.]
))
(;B[id]C[This move is solid, but white would get eyespace easily.

Your E17 move did not do much, so you are basically one move behind now in the fight.]
))
(;B[ee])
(;B[hd]))
(;W[ee]
(;B[fd];W[cf];B[bf];W[be];B[bd];W[de];B[cd];W[bg];B[ae];W[eh]
C[Something like this. White makes some light shape quickly.]
)
(;B[df];W[ec]C[If black protects the other side, white attaches here.]
;B[dd];W[ed];B[gc];W[gd];B[hd];W[he];B[id];W[gf]C[Again white would make quick, light shape.]
)))
(;W[jr]C[If white now comes here, you need to run with your group that lacks proper eyespace, something you probably wanted to avoid: Fighting in your opponents area of influence.]
))
(;B[jp]C[You might play simple here. Your bottom group has not perfect shape here, but it should be stable enough to survive within whites area of influence, what has been your original aim, to settle a group on the bottom quickly.]
))
(;W[kd];B[ld];W[ne]))
(;B[qn];W[nq]
(;B[qk])
(;B[pj]C[Something like this looks ok for black. It helps your upper right group.
Now if white plays K17...];W[jc];B[hc]C[... you get a perfect extension from your corner. And your M16 stone is anything but captured.]

(;W[je];B[le])
(;W[kd];B[ld];W[le];B[md];W[nd];B[me]C[White is fighting at a disadvantage.]
)))
(;B[qk];W[qm];B[ok]))
(;B[pb]C[You might start some early fighting. But I personally would prefer your peaceful variation of the original game, too.]
))
(;W[pb];B[qc];W[kc]C[White easily settles.]))
(;B[kd]
(;W[ne];B[pf];W[pb];B[qc];W[kb]C[This would be a possible play.]
)
(;W[qc];B[pc];W[qd];B[pe];W[pb];B[ob];W[qb];B[oc];W[qf];B[nd]
C[Another possible variation. Looks good for black.]))
(;B[lc];W[qc];B[pc];W[qd];B[pe];W[pb];B[ob];W[qb];B[oc];W[qf]
;B[og]C[Also a good result for black.]))
(;B[cn];W[fq];B[ci]C[Black appears a bit overextended, but a white invasion can be severly attacked. You might recognize the similarity of this pattern with the normal chinese opening.
Your original move is good, on question. Just pointing at an alternative play.]
))
