(;FF[4]GM[1]SZ[19]ST[2]CA[UTF-8]AP[SGFC:1.13b]

GN[isayashi-MagmaFires]
PB[MagmaFires]
BR[24k]
PW[isayashi]
WR[20k]
KM[0.5]
RE[B+Resign]
RU[Japanese]

C[Hi, this is a game a played recently and i am not sure about my actual rating, i was playing
black and my opponent had a rating of 20k on IGS.
Hope you can determine my rating and help my through the game as i think i made several mistakes, especially when i lost my group and let white live.

Hi,

my name is Rainer (Beholder).
After the first look at this game I think that a rating of about 23-21k should be correct.

I will give you some advice regarding your opening and some of the life and death situations (see my comments marked *B* in the game).

Over all both white and black made very serious mistakes during the whole game. White lost focus after the capture on the right side and tried too hard to get more territory, even so white was leading at that time.

My general advice would be to secure groups before creating another weak group somewhere else on the board.

I hope my comments help you to improve

If you should have questions about the review please contact me at

the.beholder@web.de

Best regards

Rainer];B[pd];W[dp];B[pp];W[cd];B[jd]LB[ec:A][ed:B][df:C][cj:D]
[fq:E]C[*B*: Here the marked points A-E would be appropriate for an attack. Especially the kakari at A or B would be good.]
;W[ec]C[*B*: Now white made the shimari.];B[jp]TR[ci][fq]C[*B*: Either play in front of the shimari or attack on the lower side]
;W[cj];B[pj]C[So far so good... my moyo takes almost half the board :)

*B*: Well, I would not call that a moyo already, because there are still many possible attack points for white.]
;W[jq]C[*B*: This is not a good move by white. Never touch a stone you attack.]
;B[kp];W[iq];B[kq];W[kr];B[lr];W[ks];B[ls];W[ir]C[This trade seems good to me as i finish in sente.]
;B[jj]C[And take the big point in the center

*B*: There are still bigger points on the board.
The lower right is still open for invasion.];W[no]C[This invasion looked deep...]
;B[mp];W[np];B[nq];W[op];B[oq];W[po];B[qp];W[qo];B[mo];W[mn]
;B[ro]LB[nn:A]C[*B*: Here the cut at A would be right.];W[rn]
;B[rp];W[on];B[qm]LB[nm:A]C[*B*: A would steal the eye and threatens to cut.]
;W[qn];B[rm];W[pm];B[pl];W[ol];B[pk];W[sm];B[ql];W[sl];B[so]
;W[sn];B[nm];W[nn];B[om];W[nl];B[mm];W[ln];B[jn];W[lm];B[ml]
;W[nk];B[ll];W[lo];B[lp]LB[mj:A]C[*B*: A play at A would kill the white stones in the end.]
;W[pq];B[pr];W[mj]C[I should have completed the capture as soon as possible...]
;B[ni];W[jk];B[kk];W[kl];B[jl];W[km];B[ik];W[lk];B[pn];W[oo]
C[Uff... white didnt wanted to fight the ko

*B*: Bad move by white];B[pm];W[kj];B[jk];W[rk];B[rj];W[qj]
;B[qi];W[qk]
(;B[ri];W[pi];B[oi];W[ph];B[qg];W[og];B[oj];W[sj];B[qh];W[mh]
;B[mi];W[li];B[ki];W[lh];B[lj];W[qq];B[rq];W[kj];B[kh];W[lj]
;B[kg];W[nh]C[At this point white captures my group...

*B*: Wrong, you have more liberties and are able to kill whites group (see variations)]

(;B[kn];W[mk];B[jm];W[or];B[qr];W[oh];B[ko];W[nj];B[si]C[*B*: This move comes too late]
;W[ok];B[sk];W[rl]C[At this point i thought i would lose the game...]
;B[me]C[*B*: The upper right corner is still open for invasion, better play there.]
;W[gp]C[*B*: The correct strategy for white now is defense.]
;B[gc];W[qc];B[pc];W[qd];B[qe]
(;W[pb]C[*B*: Wrong side (see variation)];B[ob];W[re];B[rf]
;W[pe];B[qf];W[oc];B[od];W[nc];B[qb];W[rb];B[pa];W[ra]C[This looked like a good result.]
;B[ed]LB[rd:A]C[*B*: Never touch a stone you attack
The upper right corner is still unsettled. You should play at A in the nearest future.]
;W[fc];B[fd];W[gb]
(;B[dc]C[I guess this was a loosing move... i should have played H18 right?

*B*: No, see variation];W[dd];B[db];W[hc];B[gd];W[fb];B[hd]
;W[ic];B[jc];W[id];B[ie];W[jb];B[kb];W[ia];B[df]LB[kc:A]C[Another bad move i guess...

*B*: Yes, because you are not finished in the upper middle. The cutting point at A is still unprotected.]
;W[kc];B[lc];W[kd];B[je];W[lb];B[ld];W[ke];B[kf];W[ka];B[le]
;W[kb];B[mb];W[nb]
(;B[mc]LB[nd:A]C[*B*: You should connect you right corner group at A]
;W[nd];B[ne];W[oe];B[bc]LB[lf:A]C[*B*: You have to protect the cutting point at A]
;W[cf];B[cg];W[lf];B[of];W[pb];B[lg];W[nf];B[mf];W[pf];B[pc]
;W[pd];B[rd];W[sd];B[se];W[sc];B[re];W[sg];B[rc];W[pb];B[sb]
;W[qa];B[sc];W[oa];B[dj];W[ci];B[di];W[ch];B[dh];W[bg];B[dg]
;W[ce];B[ck];W[bk];B[cl]C[I got white to be pushed into the second line and was looking for some central territory...]
;W[dk];B[em];W[dl];B[cm];W[dm];B[dn];W[ek];B[co];W[fm];B[fn]
;W[gm];B[gn];W[el];B[en];W[hm];B[hn];W[fj];B[gk];W[gl];B[fk]
;W[bl];B[bm];W[fg];B[ff];W[ee];B[de];W[he];B[fe];W[hf];B[jf]
;W[gf]C[*B*: This move is as good as a pass];B[bd]C[Was this a good move or a bad one? white almost got my central group... :P

*B*: A good one, but you should always think of making your groups save before you get vulnerable for a counter attack.]
;W[ah];B[be];W[bf];B[af];W[ej];B[gj];W[eh]C[At this point, i though i was dead...]
;B[ei];W[fi];B[gg];W[eg];B[ef];W[fh];B[hg];W[hi]C[Guess i was lucky here...

*B*: Well, white is trying very hard to live, but in vain.]

(;B[hk]C[*B*: This move is not necessary (see variation)];W[gh]
;B[if];W[cp];B[bp];W[bq];B[ap];W[aq];B[bo];W[cr];B[ep];W[eq]
;B[fp];W[fq];B[hp];W[hq];B[go];W[gq];B[bi];W[bh];B[al];W[fa]
C[White resigned at this point.])
(;B[gi];W[gh];B[hh];W[fl];B[im]))
(;B[nd];W[ma];B[mc];W[na]))
(;B[hb];W[hc];B[gd];W[ib];B[ic];W[hd];B[jb];W[ha]))
(;W[re];B[rf];W[pb];B[ob];W[qb];B[rd];W[rc];B[se];W[oc];B[nc]
;W[od];B[pe];W[nb];B[mb];W[oa]))
(;B[si]
(;W[sk]C[*B*: White answers directly];B[jm]C[*B*: Black leads with one liberty]
)
(;W[rl]C[*B*: White answers indirectly];B[jm]C[*B*: Black leads with one liberty]
)
(;W[oh]C[*B*: White ignores the move and removes a black liberty

White 5 liberties
Black 4 liberties];B[jm]C[*B*: Black removes a white liberty

White 4 liberties
Black 4 liberties];W[mk]C[*B*: White removes another one

White 4 liberties
Black 3 liberties];B[sk]C[*B*: Attack on the 3 white stones]
;W[rl]C[*B*: White has to answer

White 2 liberties
Black 2 liberties];B[kn]C[*B*: Atari];W[sj];B[ko]C[*B*: Atari and dead]
)))
(;B[rl];W[sk];B[ri]TR[qj][qk][rk][sk][kl][sl][km][lm][sm][ln]
[mn][nn][on][qn][rn][sn][lo][no][oo][po][qo][np][op]C[*B*: The white group is dead.]
))
