(;FF[1]GM[1]SZ[19]C[dada: I'm only a kyu player, so my comments should not be  taken too seriously :-)]
US[dada - <Arno Hollosi> hollosi@sbox.tu-graz.ac.at]GN[anywhere-msaschek(B) IGS]
RE[W+Resign]PW[anywhere]WR[18k*]PB[msaschek]BR[19k*]PC[IGS:  igs.nuri.net 6969]
DT[1996-01-25]TM[600]KM[5.5];B[pd];W[dp];B[dc];W[pp];B[nq];W[pn];B[pr];W
[lq];B[qq];W[oq]C[dada: Maybe a bit too early.];B[or];W[np];B[mq];W[mp]
;B[gq];W[lr];B[ns];W[iq]L[lp]C[dada:  Wrong direction? w#18 is too close to your own stones. Maybe playing from the  other side is better, but your wall isn't strong, because of the possible cut  at 'a' (m4).]
;B[dr];W[cq];B[cr];W[cm];B[bq];W[bp];B[dq];W[cp];B[ar];W[de]C[dada: Good.]
;B[ee];W[dd];B[ed];W[cc];B[df];W[ec];B[fc];W[db];B[ff]C[dada: b  traded territory for influence - good.]
;W[kc];B[ic]M[ff][ee][df][ed][fc]L[mc]C[dada:  Wrong direction. The marked stones are strong. Proverb: 'Play away from  thickness (your own, and that from the opponent).' Thickness is best used in  a fight. Not necessarily in making territory. If b attacks around 'a' (n17)  it would serve t
wo purposes: driving w against b's thickness and making territory in the  upper right corner while attacking.]
;W[nc]C[dada: w gets a nice extension];B[oc];W[nd];B[pf];W[qh]L[ph][ch]
[cf]M[nd][pn]C[dada: Right idea, but I would have played on the fourth  line at 'a' (q12), which would've worked better with the two marked w stones.  Or you could have played at the left side at 'b' (c12) with a good follow up  at 'c' (c14).]
;B[qg];W[qj]L[ph]M[nd][nc][kc]C[dada: hmm. How about 'a' (q12) instead? It would help your marked group,  which isn't fully alive yet. And relate better to your wall at the lower part  of the board, which is directed torwards the center (not torwards the edge).]
;B[ro];W[rn]C[dada: not urgent.  Take sente to play either on the left or to develop the center.]
;B[qo];W[qn];B[ob]C[dada: This isn't urgent. Left side is important  now.]
;W[ph]C[dada: Good.];B[mk]C[dada: I don't like this move.  It's too far in w's sphere of influence. Attack the w group at the upper  edge, not to kill the group, but to gain thickness. Then turn to the center,  with your thickness backing up a move like this.]
;W[mm]L[mh]C[dada: wrong  direction. A move around 'a' (n12) would serve three purposes - cut of the b  stone, help your group on the upper side and maybe b can be shut in the  corner.]
;B[ok];W[pk];B[mi];W[ng]C[dada: Good];B[ho]C[dada: Left side is more important.]
;W[io];B[in];W[jo];B[hm];W[km]C[dada: Too small. Your  last chance to play on the left is gone now.]
;B[cf]C[dada: Finally.  Good.];W[kg]M[mk][ok][mi]C[dada: Good - puts pressure on the marked stones.]
;B[jj];W[lj]C[dada: Too early. You're not  strong enough yet.];B[lk];W[mj]
C[
 msaschek 19k*: is entering byo-yomi];B[nj];W[kk];B[kj];W[li];B[kl];W[jm]
;B[jl]C[dada: b is happy. The stones in the center are getting  stronger and stronger.]
;W[il];B[im]L[ik]C[dada: Maybe 'a' (j9) would  have been better.];W[ik]
;B[jk];W[gk];B[ij];W[gl];B[lh]C[dada: Good. Now b's stones are secure.]
;W[gn];B[go];W[fn];B[hn];W[ci]C[dada: Good!];B[dj];W[di]C[dada: Good - you're strong in this area, so don't  give in too easily.]
;B[ei];W[ej];B[fj];W[ek];B[fk];W[fl];B[el];W[dk];B[dl];W[ck];B[eo]C[
 anywhere 18k*: is entering byo-yomi];W[en];B[do];W[cn];B[gi];W[cl];B[mf]
;W[nf];B[ke];W[me];B[lf];W[fb];B[gc];W[jd];B[kd];W[jc];B[lc]C[dada: Hmm.  Not the best move - b want's too much.]
;W[lb]C[
 msaschek 19k*: has entered byo-yomi again];B[mb];W[mc];B[ld];W[id];B[ib]
;W[jb];B[nb];W[hc];B[hb];W[hd];B[gb];W[mh]C[dada: YES!];B[ki];W[ge]C[dada: Wrong - response  of b will cost w one liberty.]
;B[gd];W[kf];B[je];W[hf];B[jf];W[jg];B[lg];W[gf]L[le]C[dada: ???   Why  not cut at 'a' (m15)?]
;B[le]C[dada: now w is in BIG  trouble!];W[fe];B[fd];W[fg];B[ef];W[fh];B
[fi];W[eh];B[dh]L[gg]C[dada: The cut at 'a' (g13) would work too.];W
[dg];B[ch]C[
 anywhere 18k*: has entered byo-yomi again];W[cg];B[bh];W[bg];B[bi];W[bj]
;B[cj];W[di]C[dada: ????]
(;B[ci]C[dada: ???? (See variation B)];W[eg];B[bf]L[gg]C[dada: Last chance to cut at 'a' (g13)!]
;W[gh];B[hi];W[hh];B[ag];W[ka];B[ig];W[hg]C[dada: b forced w to live! w should be extremly happy.

 msaschek 19k*: has entered byo-yomi again];B[oh];W[pg];B[og];W[of];B[oi]
;W[pe];B[qf];W[qe];B[re];W[qd];B[rd];W[qc];B[od];W[rc]C[dada: ??];B[rh]
L[oe]C[dada: Why don't you cut at 'a' (p15)?];W[oe];B[md];W[ne];B[qb]
;W[rb];B[qa];W[ra];B[ma];W[la];B[pb];W[oa];B[sc];W[pa];B[na];W[pa];B[sd]
;W[ri];B[sb]C[
 anywhere 18k*: has entered byo-yomi again];W[pc];B[sg];W[rf];C[dada: w gets lucky! After  almost being killed on the upper side, b cooperates nicley and helps w to  live. Now b misplayed the upper right corner too. And instead of w stones  dying it is b, who loses the corner.]
)
(;B[eg]L[gg][bf]C[dada: Now w is  dead, as 'a' (g13) and 'b' (b14) are miai.]
))
