(;FF[4]GM[1]SZ[19]ST[0]CA[UTF-8]AP[SGFC:1.13b]VW[]

PB[gandabinda]
BR[18k]
HA[0]
PW[jraitsev]
WR[17k]
KM[0.5]
DT[2003-03-26]
PC[The Kiseido Go Server (KGS) at http://kgs.kiseido.com/]
RE[W+8.50]
RU[Japanese]

;B[pp]C[gandabinda [18k\]: hi];W[dd];B[pd];W[dp];B[ic];W[kc]
C[jraitsev [17k\]: hello. havea  good game]
(;B[fc]C[gandabinda [18k\]: thanks, you too];W[eb];B[fb];W[ec]
;B[jb];W[nc];B[qf];W[qc]C[Whats's about white 14 at Q17 or Q18?]

(;B[qd]C[Black 15 at Q17 and you have two weak groups.];W[pc]
;B[kd];W[kb];B[jc];W[dj];B[iq];W[fq]C[What's about white 22 at G3? 
Then a pincer attack at L3 would be more dangerous for black]
;B[lc];W[lb];B[mc];W[mb];B[le];W[kq];B[gq]C[But now black can play G3 on his own to make shape and the white
stone on L3 needs help.];W[qk];B[qi];W[qn];B[mq]C[Instead of helping your weak stone you push black against it.]
;W[qq]C[I think this move is a mistake. ...];B[qp]TR[qk][qn]
SQ[qq]C[After black 35 you have to weak groups.
Try white 34 at S4 or R4.];W[pq];B[oq];W[rp];B[ro];W[rq];B[qo]
;W[or];B[nr]TR[qk][qn]C[You have got some corner territory now, but black is thick on
the
outside and the triangled stones are real weak now.];W[os]C[I think you have to play ko for life after black 45 at R1 threatening
to capture two white stones, but i can't read it out completly.]

(;B[ns];W[qr];B[kp];W[dm]C[jraitsev [17k\]: have you been playing long?]
;B[cf]C[gandabinda [18k\]: since october
gandabinda [18k\]: you?];W[be]C[jraitsev [17k\]: a little longer, since september]
;B[ce];W[cd];B[bf];W[bd];B[ee]
(;W[bi]C[gandabinda [18k\]: have we played before? your username looks
familiar

What's about white 56 at C12?];B[ch]C[jraitsev [17k\]: i don't remember, too bad KGS does not recognize
such things];W[ci];B[bh];W[cq];B[go]C[jraitsev [17k\]: "C3" means attack will soon follow :)]
;W[op]C[White 62 attacks only one little black stone. Black can become
even
stronger by playing at P5 next.]
(;B[nq];W[oo];B[rn]
(;W[qm];B[pn];W[nn]C[jraitsev [17k\]: you would be in a better position if you sacrifise
those stones and concentrate on the center
jraitsev [17k\]: i already got 4 corners
jraitsev [17k\]: the center is your only hope
jraitsev [17k\]: (just a humble suggestion)];B[ln]C[jraitsev [17k\]: if you would like i can comment your moves]
;W[jj];B[ei];W[nj]C[gandabinda [18k\]: yes, i would like that]
;B[on]C[jraitsev [17k\]: ok, at this moment you have rather strong (BUT
NOT UNBREAKABLE ) sides. - make them stronger and move to the
center
jraitsev [17k\]: do NOT allow me to make base of ANY kind in the
center
jraitsev [17k\]: if you do - you will loose this game];W[om]
;B[no];W[pm];B[po];W[rm]C[jraitsev [17k\]: oh well, i messed up
jraitsev [17k\]: :)];B[nm]C[jraitsev [17k\]: this happens all the time]
;W[nl]C[gandabinda [18k\]: yes, usually it happens to me];B[mm]
C[jraitsev [17k\]: where are you from?
gandabinda [18k\]: montreal
gandabinda [18k\]: you?];W[pj]C[jraitsev [17k\]: Chicago];B[pi]
;W[oi]C[gandabinda [18k\]: i don't think i gained much territory though
gandabinda [18k\]: just saved a few pieces
jraitsev [17k\]: you did well saving that group];B[hi];W[fn]
;B[fk];W[ek];B[mk]C[jraitsev [17k\]: make sure you get ALL H14 are (around that)]

(;W[nk]C[White 90 is a defensive move only. Try White 90 at N10 or N11
instead.];B[mj]C[gandabinda [18k\]: what do you mean?];W[jg]
C[jraitsev [17k\]: This ...
jraitsev [17k\]: do not allow me to take away from what's yours]
;B[mh]C[jraitsev [17k\]: my goal here is not to make some base, but to
take away from you];W[li]C[jraitsev [17k\]: not anything significant anyway]
;B[mi];W[lh];B[kg];W[kh];B[lg];W[ll];B[ml];W[lj];B[lk];W[ii]
;B[jk];W[kk];B[kl];W[kj]C[jraitsev [17k\]: be careful now];B[jl]
;W[hh]C[jraitsev [17k\]: also keep in mind that IF i fail to make 2 eyes,
i will try to connect ot the main group];B[hj]C[jraitsev [17k\]: so just be aware of the fact that if i start
moving towards lowere left corner - you should be alert];W[ij]
;B[ik];W[hg]C[jraitsev [17k\]: STOP ME
jraitsev [17k\]: it looks like i will make life - i will try to
take away as much as possible from you];B[hf]C[gandabinda [18k\]: this is what i'm really bad at
gandabinda [18k\]: stopping the opponent from getting away]
;W[if]C[jraitsev [17k\]: practice makes it perfect :)];B[gg]
C[jraitsev [17k\]: check out www.goproblems.com
jraitsev [17k\]: they have some examples of this stuff];W[jf]
;B[gh];W[jh]C[There is no need to defend with White 120.];B[he]
C[jraitsev [17k\]: Now it's official W lives :)
jraitsev [17k\]: now i will try to reduce some more];W[gm];B[hm]
C[jraitsev [17k\]:  - again - STOP ME];W[gl];B[gk];W[hl];B[fl]
C[jraitsev [17k\]: good choice];W[el]
(;B[im]C[jraitsev [17k\]: B I G mistake!!!!!
jraitsev [17k\]: you should have gone F7
jraitsev [17k\]: and taken my 3 stones

Black 129 at F7 does not work.];W[fm]C[jraitsev [17k\]: too late now
gandabinda [18k\]: but you can connect at g6
gandabinda [18k\]: as wlel
gandabinda [18k\]: well
jraitsev [17k\]: you could have make a big mess for me thought
jraitsev [17k\]: ok, think about some more ways i can reduce your
terr];B[oh]C[jraitsev [17k\]: not bad
jraitsev [17k\]: but what about this one?]
(;W[nd]C[What's about white 132 at O15?];B[ne];W[md]C[White 134 attacks only two unimportant black stones. Black 135
at N15 sacrifies them to secure more than 4 points of territory.]

(;B[ld];W[me];B[mf];W[oe];B[nf];W[od];B[of];W[pe]
(;B[pf];W[qe];B[rd];W[re];B[rf];W[se]
(;B[sf];W[ob]C[jraitsev [17k\]: P18 would have been good move for B
gandabinda [18k\]: yes
gandabinda [18k\]: instead of t14?
jraitsev [17k\]: they are different kinds of moves
jraitsev [17k\]: with P18 you had a chance of killing me, with
T14, you stopped me
jraitsev [17k\]: in this particular game i would play P18 if i
were you

After black 149 at P18 white is not in danger.];B[fp];W[eo]
C[jraitsev [17k\]: excellent choice];B[eq];W[dr]C[jraitsev [17k\]: F3 is well deserved by you]
;B[dq];W[er];B[fr];W[ep];B[fq];W[cr]C[jraitsev [17k\]: C2 is safe, i don't want to risk at the end of
the game
jraitsev [17k\]: W also could have gone F1 etc.];B[qj];W[pk]
C[jraitsev [17k\]: by the way don't even think about O11 untill
you make some other move first];B[di];W[ai];B[ah];W[cj];B[ej]
;W[rj];B[ri];W[sj];B[si];W[rl];B[ie];W[je];B[jd];W[fa];B[ga]
;W[ea];B[hb];W[ed];B[fd];W[de];B[df];W[af];B[ag];W[ae];B[kf]
;W[fs];B[gs];W[es];B[hr];W[ja];B[ia];W[ka];B[fo];W[sn];B[np]
;W[so];B[ni];W[hk];B[gj];W[oj];B[gn];W[tt];B[il];TB[ms][ls]
[ks][js][is][hs][mr][lr][kr][jr][ir][gr][lq][kq][jq][hq][op]
[mp][lp][jp][ip][hp][gp][oo][mo][lo][ko][jo][io][ho][nn][mn]
[kn][jn][in][hn][lm][km][jm][ll][fj][gi][fi][sh][rh][qh][ph]
[nh][fh][eh][dh][sg][rg][qg][pg][og][ng][mg][fg][eg][dg][cg]
[bg][lf][gf][ff][ef][ge][fe][id][hd][gd][hc][gc][ib][gb][ha]
TW[ss][rs][qs][ps][ds][cs][bs][as][sr][rr][pr][br][ar][sq][bq]
[aq][sp][cp][bp][ap][do][co][bo][ao][en][dn][cn][bn][an][sm]
[em][cm][bm][am][sl][ql][pl][ol][dl][cl][bl][al][sk][rk][ok]
[dk][ck][bk][ak][bj][aj][ki][ji][ih][ig][sd][rd][qd][pd][ad]
[sc][rc][oc][dc][cc][bc][ac][sb][rb][qb][pb][nb][db][cb][bb]
[ab][sa][ra][qa][pa][oa][na][ma][la][da][ca][ba][aa])
(;B[ob];W[oc]))
(;B[qe];W[pf];B[pg]))
(;B[me];W[ld];B[ke];W[od];B[oe];W[rd];B[re]))
(;W[ne];B[od];W[nd];B[oc];W[ob];B[rc];W[rb]))
(;B[fm];W[gn];B[en];W[em];B[fo];W[eo];B[dn];W[cn]))
(;W[mi];B[nk];W[ok])
(;W[mj]
(;B[nk];W[ok];B[lj];W[lk];B[ml];W[li];B[ol];W[pl];B[kj];W[ki]
;B[kk];W[jk];B[kl];W[jh])
(;B[lj];W[li];B[ki];W[kj];B[lk];W[lh])))
(;W[pn]))
(;B[oo]
(;W[nq];B[np];W[oq];B[no])
(;W[np];B[mo];W[nq];B[no])))
(;W[ch];B[bh];W[ci];B[bi];W[bj]))
(;B[qs];W[pr];B[rr];W[sr];B[sp];W[rs];B[ss]))
(;B[pc]TR[kc][nc]SQ[qc]))
(;B[mc]C[And now? Do you think white 6 is a good move ?]))
