(;FF[4]GM[1]SZ[19]ST[2]CA[UTF-8]AP[SGFC:1.14]

PB[yip]
BR[5k]
PW[alex4]
WR[5k]
KM[6.5]
DT[2003-05-01]
PC[The Kiseido Go Server (KGS) at http://kgs.kiseido.com/]
RE[B+0.50]
TM[1800]
OT[25/300 Canadian]
RU[Japanese]

C[yip [5k?\]: Hello.

I'd figured I'd try something completely different in this game, by starting out playing in the center.  I tend to be very aggressive in my games, and thought that it would be interesting to see how the fighting developed.

As it turned out, we each lost a large group, and the game was extremely close.  I feel that I (B) probably should have lost, but was lucky in the end.

The questions I have involve using influence.  Obviously B starts with lots of influence, and the problem then becomes how to use it effectively.  What strategic advice would you give to best accomplish this?

I'm sure there were several tactical errors and oversights as well - any comments on these would be appreciated, too.]
;B[ji]C[alex4 [5k\]: hi];W[dq];B[jk];W[dd];B[ij];W[jd];B[kj]
C[>I had decided beforehand to play these four points no matter what the opponent chose.

Personally I think B's opening is too slow. You can compare to playing just one stone on tengen, and B's extra influence in the game does not seem to be worth three more moves. But as an experiment to use influence, it's a good idea.]
;W[pd]C[>How is white's decision to build influence to counteract the center in this situation?

Seems like a good idea.];B[co]C[>I decided that the best thing to do initially was start a fight., and try to split white up.  Would it be better to >play away from the lone white stone, such as in the empty corner?

I think it's consistent. You don't only have influence, you're very thick so it makes sense to seek out your opponent's thin spots and start fights everywhere.

>I felt that getting more influence by approaching the white framework from the outside would be redundant, >and an invasion seemed premature., so the lower side seemed best.

it's very hard to judge if this is better than playing in the empty corner...]
;W[pp];B[fq];W[do];B[dn];W[eo];B[cp];W[eq];B[cq]C[Trying to force white out into the center, where he can be attacked more severely.]

(;W[pj]
(;B[qf]C[>Continuing the attack on the lower left stones seems to be too focused,
>but then again, W can't really expand his framework at this point.  Was this a good or bad time to invade?

not exactly bad, but my feeling is W left out a neccessary defensive move at the bottom, so I would have attacked it immediately.]
;W[nd];B[qc]C[I was willing to take the corner, since any wall W built on the outside didn't strike me as being particularly useful.]
;W[qd];B[rd];W[pc];B[rb];W[qb];B[rc];W[dj]C[W's tempo is good.]
;B[cf]C[Aiming at building up a wall on the left side to attack the D10 stone, as well as the lower group.]
;W[df];B[dg];W[ce];B[ef];W[de];B[cg];W[fd]
(;B[en]C[>Any tactical advice in the following sequence at all?

Pushing from behind is almost always bad.];W[go];B[fn]
(;W[fo]C[W makes a heavy move, this is fatal..];B[hq];W[hm]
;B[fj];W[jq]
(;B[ho]C[this move is helping W re-inforce his weak keima... If you don't play here, there will be a cutting point later.]
;W[gn]TR[fn][ho]SQ[hm][go]C[B's keima is cut and W's is connected solidly, not a good shape.]
;B[jp];W[kp];B[jo];W[kq];B[jm];W[gp];B[hp];W[gq];B[gr];W[fr]

(;B[er];W[fs];B[gs];W[fp];B[es];W[fq];B[hr];W[dp]
(;B[fl];W[cr];B[br];W[pq];B[ge]C[the G15 G16 exchange helps W -- it removes the invasion points at H16 / H17]
;W[gd];B[qn]C[Again trying to start a fight.  I'm looking at fairly secure territory on the left, and thinking that by breaking up the right side it will be close to even with the moves available at the top.  I'm also hoping that the Q10 stone may come under pressure.]
;W[pn];B[pm];W[qm];B[qo]C[I wasn't happy with this move when I played it.  I was hoping to force Q5 to gain forcing moves around R8...]

(;W[ql]C[...which obviously weren't going to happen now.];B[po]
;W[on];B[oo];W[np];B[nn];W[om]
(;B[op];W[oq];B[nq];W[mp];B[nr];W[or];B[qq];W[qp];B[rp];W[rq]
;B[ro];W[qr];B[no];W[nm];B[lp];W[lq];B[lo];W[mq];B[ob]C[>This was probably overly aggressive, but I didn't feel that I could attack the P7 group effectively,
>and so it seemed like the top territory was too big to reduce at M16.

M16 is the only point -- exchanging P18 for Q18 does not gain you anything, and can be done at any time. It's important not to play moves just because they are sente, but because they are part of a bigger plan.
But more importantly, you left out a neccessary defensive move at L5 (which you got punished for later).]
;W[pb];B[ld];W[le];B[md];W[me];B[nc];W[oc];B[ne];W[od];B[nb]
;W[lb];B[kd];W[ke];B[mc];W[pf];B[jc];W[kc];B[kb];W[ic]C[I was surprised by this...was expecting a ko with K18.]
;B[jb];W[ib];B[id];W[je];B[ie]C[no time for this move .. if W plays L19 you die.]

(;W[lc]C[you are very lucky];B[la]
(;W[fe]C[bad move.];B[nf]C[Now is when I'm finally glad I have that influence in the beginning of the game...]
;W[mg];B[pg];W[of];B[ng];W[og];B[nh];W[oh];B[ig];W[mh];B[ni]
;W[mi];B[oi];W[pi];B[mf];W[lf];B[lg];W[jf];B[mj];W[jg];B[if]
;W[lh];B[kh];W[kg];B[li];W[jh];B[lg];W[ih];B[hh];W[ff];B[fg]
;W[gf];B[gg]
(;W[hd]C[this is not so big, now B is winning.]
(;B[qe];W[qg];B[rg];W[qh];B[be];W[bd];B[bf];W[rh]
(;B[sl]
(;W[rf]C[>I had completely misread the corner on this one - I was very lucky
>with the shortage of liberties on the W group.

you're very lucky W did not see the killing move.];B[re];W[sg]
;B[ra];W[se];B[oe];W[pe];B[pa];W[ph];B[qa];W[ko]C[Oops.];B[ln]
;W[kn]
(;B[jn]C[>Looking at it now, is it possible for the H5 group to get two eyes if it's cut off from the middle?

I don't think so, but you should sacrifice the smallest group.
And K6 is making exactly the same mistake in shape W made earlier at F5.]
;W[lm];B[mm];W[ml];B[mn];W[nl];B[ll];W[km]C[Now W is winning.]
;B[cc]
(;W[cd];B[bc];W[ad];B[gb];W[fb];B[eb];W[fa];B[ea];W[ec];B[ia]
;W[hc];B[ga];W[fc]
(;B[ca]C[>D18, perhaps?

you have no move that works here, better play somewhere else and save it for ko threats.]
;W[db];B[ok];W[pk];B[ks];W[js];B[jr];W[ls];B[is];W[mr];B[cs]
;W[dr];B[gm];W[hn];B[hl];W[kl];B[jl]
(;W[lk]C[this is very small.];B[ha];W[ja];B[mb];W[hb];B[ka]
;W[he];B[hg];W[rm]C[>Interestingly enough, this was probably the losing move, given that the difference was a half point.
>I didn't see a way for B to live here...was I missing something?

No, there was no way for B to live.];B[kr];W[iq];B[ir];W[oj]
;B[nk];W[ol];B[im];W[lj];B[nj];W[ds];B[bs];W[lr];B[ee];W[ed]
;B[eg];W[ae];B[af];W[kk]C[This is not a point. If W plays T16 he will get an extra point.]
;B[sd];W[sf];B[cn]C[> I wasn't sure if this was necessary, but I had no idea the game was as close as it was.

This is the kind of move you play if you are 10pt ahead, not 2pt.]
;W[tt];B[ja];TW[aa][ba][ca][da][ea][ab][bb][cb][eb][ac][bc]
[cc][dc][ge][pg][rg][sh][qi][ri][si][qj][rj][sj][qk][rk][sk]
[ll][pl][rl][sl][mm][pm][sm][ln][mn][nn][qn][rn][sn][lo][mo]
[no][oo][po][qo][ro][so][ep][lp][op][rp][sp][nq][qq][sq][er]
[nr][pr][rr][sr][es][ms][ns][os][ps][qs][rs][ss]TB[ma][na][oa]
[sa][lb][sb][kc][lc][sc][jd][je][ke][le][me][jf][kf][lf][ag]
[bg][jg][kg][mg][ah][bh][ch][dh][eh][fh][gh][ih][jh][lh][mh]
[ai][bi][ci][di][ei][fi][gi][hi][ii][ki][mi][aj][bj][cj][dj]
[ej][gj][hj][jj][ak][bk][ck][dk][ek][fk][gk][hk][ik][al][bl]
[cl][dl][el][gl][il][am][bm][cm][dm][em][fm][an][bn][ao][bo]
[ap][bp][aq][bq][ar][as][hs][js]C[You asked me how to use (thick) influence, but you seem to already know the answer: To seek out the opponent's thin spots and invade. Most of the mistakes in this game are of a tactical nature rather than strategic, and most of them are omitting neccessary defensive moves. You should consider this: if you have to take gote anyway, instead of first fighting and then when your 'attack' fizzles out you have to come back to cover your weak spot, how about just covering the weak spot directly and leaving the attacking possibilities for later. If your opponent has to take a move to defend, you gained tempo - and if he doesn't, you can attack with your back free later.]
)
(;W[ha]C[This way W wins for sure.]))
(;B[db];W[ac];B[ab];W[ba];B[bb];W[ca];B[ha]C[B is completely dead (only three liberties), W can tenuki.]
))
(;W[bc]C[W should certainly play here when C16 is not atari.]
))
(;B[im]C[this is better shape, but it is still not the best move.]
)
(;B[km]C[better to sacrifice the smallest group]))
(;W[ra]C[this way you die.]))
(;B[rf]C[you need one more move to live.]))
(;B[qg];W[ph];B[ri]C[these are the best moves.]))
(;W[qg]C[Much better to play here, as it threatens the S17 stones.]
))
(;W[nf]C[W should certainly play here];B[hc];W[hb];B[gc];W[gb]
;B[fc];W[ec];B[hd];W[fb];B[fe];W[ed];B[if]C[you can't do very much damage here...]
))
(;W[ka];B[lc];W[ja];B[kc];W[hd]))
(;B[nm];W[ol];B[no];W[mp]C[this way B can take sente and make another invasion without needing an extra reinforcing move.]
;B[ld]))
(;W[po];B[ql]C[B captures one stone, this is unbearable for W.]
))
(;B[cr]C[play here first, it's double sente.]))
(;B[hr]C[just playing here is better.];W[es]
(;B[dr];W[cr];B[br];W[cs])
(;B[cr];W[dr];B[cs];W[ds])))
(;B[ip];W[jp];B[io];W[jm];B[jo];W[ko];B[kp]
(;W[kn];B[kq]C[B settles easily])
(;W[lp];B[kn];W[lo];B[jn]LB[km:B][gn:A]C[A and B are both problems for W]
)))
(;W[gp]C[better shape]))
(;B[hq];W[en];B[dm]C[now W is the one pushing from behind...]
))
(;B[hq]C[I think you can challenge W to a fight immediately]
))
(;W[hq]C[W should certainly play here to make a base for his stones.]
))
