(;FF[4]GM[1]SZ[19]ST[2]CA[UTF-8]AP[SGFC:1.14]

PB[chtito]
BR[15k]
PW[humeniuk]
WR[15k]
KM[6.5]
DT[2003-05-05]
PC[The Kiseido Go Server (KGS) at http://kgs.kiseido.com/]
RE[W+5.50]
TM[2100]
OT[5x60 byo-yomi]
RU[Japanese]

C[Hi! I'm very unhappy with this game. I thought that I was leading and I lost. I would like you to emphasize the biggest mistakes I made, the aspects of game the I should get better.

Thank you in advance!

Ronin: Hi! I'll try to be of some use :-) Please note that when I say "see variation" you have to go one move back to find the variation.]
;B[pd];W[cp];B[pq];W[dd];B[ep];W[dn];B[cq];W[dk];B[bq]LB[hq:A]
C[I am not sure this was the proper way to play here...

Ronin: since white left the joseki unsettled and played light I would feel to do the same and play something like A(H3). Your move is metal solid, this is after all a good thing.]
;W[nc]
(;B[qf]LB[kc:A][kd:B]C[Is it the right thing to do? Would a pincer at A for example do better?

Ronin: I think your move is ok, it keeps the game clear, a good thing. Thinking of pincering, however, I'd prefer B(L16), see variation.]
;W[pb];B[qc];W[gq]LB[lc:A]C[Ronin: here white leaves another joseki unsettled. Black should be looking for the time to play A(M17).]
;B[dp]LB[co:A]C[Ronin: why not A(C5) instead?];W[co]TR[dp]C[Ronin: the exchange of the two triangled stones (D4, C5) is good for white, cause he left the joseki unsettled but black forced him to protect. This sounds like a "thank you move".]
;B[jq]LB[iq:A]C[Ronin: this pincer could be at A(J3) to be more severe.]
;W[ip];B[jp]LB[hp:A]C[Ronin: cutting at A(H4) instead would put white on the spot, while hovewer complicating the fight. Your response is clear and firm, so is ok.]
;W[fp];B[po]LB[en:B][fo:A]SQ[fp][ip][gq]CR[co]C[Ronin: the triangled stone (Q5) is a really good point. Black would like to pursue the squared group (F4) but can you see now how valuable is the circled stone (C5) for white? Now black will find hard to fight with either A(F5) or B(E6). However, this is another place where to look for a future good move (A or B).]
;W[qi]
(;B[ql]LB[qk:A]C[Ronin: Black could put more pressure with A(R9) hoping white will try to escape towards the center (see variation).]
;W[fc]TR[sc][rd][sd][re][se][qn][rn][sn][qo][ro][so][qp][rp]
[sp][qq][rq][sq][ar][br][cr][pr][qr][rr][sr][as][bs][cs][ps]
[qs][rs][ss]CR[ea][fa][na][oa][eb][fb][nb][bk][ck][bl][cl][bm]
[cm]C[What do you think of the situation of the game now? Is anyone leading?

Ronin: well the game is wide open, however let's try to examine the situation. Black seems to be ahead in territory and has a good moyo in the lower right corner while white has chances to get a big moyo towards the center but a number of weak groups. I cannot say that someone is definitely leading, black and white showed the opposite philosophy, up to now it seems a Solid vs Speed match.]
;B[ci]LB[cc:D][lc:C][ol:B][jn:A]TR[qi]SQ[pb][nc]CR[fp][ip][gq]
C[I am not sure at all of this move... I felt that I had to invade somewhere, but where? C17?

Ronin: I don't agree about invading now. Black has secured territory and good influence, moreover he has lots of groups to attack. I think here black can choose between various opportunity: 
- enforce the lower right moyo with something like A(k6), that is also an attacking move to the white circled (F4) group, or someting like B(P8), that also attacks the triangled stone (R11)
- attacking the squared group (O17) with C(M17) to take position in the upper side

Hovewer speaking of invading, the sansan at D(C17) could be an opportunity to make more solid territory and to let white get thickness to further reduce while attacking his weak groups.]
;W[cg];B[ck];W[cl];B[bk];W[bl];B[dj];W[ej];B[ei];W[fj];B[dh]
;W[jd];B[nd];W[mc];B[io];W[iq];B[ho];W[jr];B[kr];W[ir];B[ko]
;W[lr]
(;B[oi]LB[ks:A]TR[lr]C[Ronin: Ignoring the triangled stone is strange. Answering A(L1) secures territory and solves lots of problems (see variation).]
;W[mi];B[md]LB[mj:A]C[Ronin: this move could be A(N10) trying to attack while encoforcing the lower right moyo.]
;W[kq];B[lq];W[mr]
(;B[oc]LB[ks:A]C[Ronin: Playing A(L1) here is a must. The two white groups are cut so the right one could be killed (see variations).]
;W[ob];B[lc];W[lb];B[kb]C[A blunder here, is'n it?

Ronin: yes, strenghtening this much the white position is bad.]
;W[kc];B[ld];W[mb];B[kd];W[jc];B[ji];W[ks];B[lp];W[jf];B[dg]
;W[cf];B[ie]C[This is probably a stupid move

Ronin: I fear you are right :) Here the spot is the other side. If black can block the other direction the two white lone stones are almost as good as lost.]
;W[je];B[mg]LB[kh:A][mj:B]C[Ronin: you play from you thickness, instead  you should play toward it, pushing the opponent. Here I can see A(L12), or B(N10).]
;W[ki];B[kh];W[lh];B[kg];W[kj]C[Ronin: letting white get such a good shape is bad.]
;B[lf]LB[nj:A]C[Ronin: black has to keep the pressure, so I think this move should be around A(O10) to cut the white groups.]
;W[nk];B[pk];W[rk];B[rl];W[oh];B[qh];W[pi]
(;B[fi]LB[nh:B][oj:A]C[Ronin: WHY?????? Here absolutely A(P10) or B(O12) (see variations)! You missed such a chance that I cannot hold from shouting :-)]
;W[ig]
(;B[gj]LB[ek:A]C[Ronin: if you want to play here, why not showing a more fighting spirit with A(E9)? (see variation)]
;W[fk];B[gk];W[fl];B[hh];W[he];B[df];W[oj]C[Ronin: oh, finally someone noticed it :-)]
;B[ce];W[be];B[cd];W[bd];B[de];W[dc];B[cc];W[bc];B[qb]MA[cb]
C[Probably much better to play at C18...

Ronin: absolutely! This move is worth about ten points... maybe more.]
;W[cb];B[er]TR[sa][sb][rc][sc][qd][rd][sd][me][qe][re][se][mf]
[rf][sf][di][cj][qm][qn][rn][sn][qo][ro][so][pp][qp][rp][sp]
[qq][rq][sq][ar][br][cr][dr][rr][sr][as][bs][cs][ds][rs][ss]
CR[aa][ba][ca][da][ea][fa][ga][ha][ia][ja][ka][la][ma][na][oa]
[ab][bb][db][eb][fb][gb][hb][ib][jb][kb][nb][ac][ec][gc][hc]
[ic][ad][hd][id][ae][ie][af][bf][li][oi][lj][mj][nj][ek][dl]
[el][cm][dm][cn][kr][is][js][ls]C[Here I thought that the situation was at my advantage: three corners and the center neutralised. Was I wrong?

Ronin: Let's try a positional judgement:
BLACK SECURED TERRITORY:
- bottom right corner: about 18 pts
- upper right corner: about 14 pts
- bottom left corner and left side: about 10 pts
TOTAL: about 42 pts but with average endgame can rise to 50

WHITE SECURED TERRITORY:
- upper left corner and upper side: about 40 pts
- left side: about 6 pts
- bottom side: about 4 pts
- center: about 6 pts
- captured stones: 1 pt
TOTAL: about 57 pts but with average endgame can rise to 65 plus komi.

It seems that white is far ahead. You underestimate the value of the upper left territory.]
;W[fr];B[eq];W[fq];B[bo]LB[an:A]C[Stupid...

Ronin: I would prefer the monkey jump at A(A6).];W[bp];B[ap]
;W[bn];B[do]LB[ao:A]C[Ronin: better A(A5).];W[ao];B[aq];W[fe]
;B[ed];W[ec];B[or]LB[nm:B][nq:A]C[Ronin: here A(O3) is good and threatens to enclose territory at B(O7).]
;W[np];B[mq];W[nn];B[nq];W[mn];B[ee];W[fd];B[en];W[dm];B[em]
;W[el];B[mk];W[mj];B[om];W[nm];B[jj];W[jk];B[km];W[ll];B[kl]
;W[kk];B[lm];W[mm];B[ri];W[qk];B[pl];W[ok]
(;B[pj]LB[qj:A]C[Ronin: no, here A(R10) is the move (see variation).]
;W[qj];B[ph];W[og];B[bh];W[af];B[bg];W[bf];B[sk];W[ni];B[rj]
;W[oi];B[pf];W[gg];B[gh];W[hg];B[ik];W[jl];B[oo];W[mp];B[ih]
;W[nf];B[oe];W[ak];B[bj];W[aj];B[ai];W[al];B[pa];W[na];B[fo]
;W[jm];B[jn];W[pg];B[qg]TR[ra][sa][rb][sb][rc][sc][qd][rd][sd]
[pe][qe][re][se][rf][sf][rg][sg][rh][sh][di][gi][hi][ii][si]
[cj][hj][ij][sj][sl][pm][qm][rm][sm][qn][rn][sn][qo][ro][so]
[qp][rp][sp][dq][qq][rq][sq][ar][br][cr][pr][qr][rr][sr][as]
[bs][cs][ps][qs][rs][ss]CR[aa][ba][ca][da][ea][fa][ga][ha][ia]
[ja][ka][la][ma][ab][bb][db][eb][fb][gb][hb][ib][jb][kb][nb]
[ac][gc][hc][ic][ad][gd][hd][id][ae][ge][ie][hf][if][li][lj]
[nj][ek][lk][mk][dl][ml][am][bm][cm][an][cn][bo][gr][hr][kr]
[hs][is][js][ls]C[Here I counted arount 55 pts for white and approximatively the same for black.

Ronin: ok let's count territory.
BLACK: 
right side and corners: about 45 pts
bottom left corner: about 7 pts
center: about 7 pts
Total: about 59 pts but with average endgame can raise to 66 pts.

WHITE:
upper left corner and upper side: about 39 pts
left side: 8 pts
bottom side: about 7 pts
center: about 8 pts
captured stones: 3 pts
Total: about 65 pts but with average endgame can raise to 73 plus komi.

Black has halved the distance from white, but is still behind.]
;W[nr];B[oq];W[os];B[ps];W[ns];B[fg];W[ff];B[ef];W[ol];B[on]
;W[hp];B[fs];W[gs];B[es];W[ch];B[ag];W[gm];B[gl];W[hm];B[il]
;W[lo];B[kn];W[fn];B[hl];W[go];B[eo];W[oa];B[qa];W[pc];B[od]
;W[mh];B[ng];W[lg];B[mf];W[kf];B[jh];W[of];B[kp];W[kr];B[ne]
;W[fm];B[cr];W[hn];B[in];W[im];B[op];W[no];B[ke];W[ln];B[tt]
;W[qr];B[pr];W[rp];B[qq];W[qn];B[rn];W[rm];B[qm];TW[aa][ba]
[ca][da][ea][fa][ga][ha][ia][ja][ka][la][ma][ab][bb][db][eb]
[fb][gb][hb][ib][jb][kb][nb][ac][gc][hc][ic][ad][gd][hd][id]
[ae][ge][ie][gf][hf][if][li][lj][nj][ek][lk][mk][dl][ml][nl]
[am][bm][cm][an][cn][gn][bo][mo][gp][hq][gr][hr][hs][is][js]
[ls][ms]TB[ra][sa][rb][sb][rc][sc][qd][rd][sd][le][me][pe][qe]
[re][se][rf][sf][eg][rg][sg][ah][eh][fh][rh][sh][bi][di][gi]
[hi][ii][si][cj][hj][ij][sj][hk][sl][pm][rm][sm][pn][qn][sn]
[jo][qo][ro][so][pp][qp][rp][sp][dq][rq][sq][ar][br][dr][qr]
[rr][sr][as][bs][cs][ds][qs][rs][ss]C[Here is the grim conclusion of the game. What are your advices?

Thanks a lot!

Ronin: ok, I'll try to put some conclusion. I think you had a better fuseky, due to your fondness to thickness. However you missed the chance to attack severely more than once. If you go for thickness your aim should be to trap the opponent in disadvantageous fights and hence to gain something from it. I think that this could be the lesson of this game: use you power to costantly let your opponent feel your claws in his flesh :-) You had a better endgame than white, but it wasn't enough. I hope I hadn't say too many unresonable things :-) 
See you,
Ronin.])
(;B[qj];W[rj];B[pj];W[ph];B[rg]))
(;B[ek];W[dl];B[fk];W[gj];B[gk];W[gi];B[gh]C[Ronin: this is just an example.]
))
(;B[oj]C[Ronin: if you choose A...]
(;W[nh]C[Ronin: If white goes up...];B[ph]C[Ronin: one group is swallowed and the other still has to live.]
)
(;W[ph]C[Ronin: if white goes down...];B[nh];W[qg];B[rg];W[rh]
;B[rf];W[pf];B[pe];W[of];B[og];W[qj];B[si]C[Ronin: white collapses after this and lots of other variations (the other group still has to live).]
;W[sh];B[sk]))
(;B[nh]C[Ronin: if you choose B...]
(;W[ni];B[oj];W[ph]C[Ronin: again white is dead.])
(;W[oj];B[ni];W[pj];B[ph]C[Ronin: altought white escapes to the center, he still hasn't one eye and black has got a lot of territory.]
)))
(;B[ks]
(;W[js]C[Ronin: If white focuses on the left...];B[kp];W[fr]
;B[er];W[es];B[dr]CR[lr][mr]C[Ronin: now I cannot see any good move to save the circled group (N2), if this is true black got a huge amount of territory.]
)
(;W[ls];B[kp]CR[lr][mr][ls]C[Ronin: again I don't see any good move to let the circled group (M2) live.]
)))
(;B[ks];W[kq];B[lq];W[js];B[kp];W[fr];B[er];W[es];B[dr]C[Ronin: white ends in sente, but with this sequence black gets territory and safeness for his lower left group, while white has only got two eyes. I think black has nothing to complain about this.]
))
(;B[qk];W[oi];B[ph];W[pi];B[lc]C[Ronin: now black, making use of the unsettled corner joseki, can set up a pincer, aiming to a splitting attack...]
;W[ne];B[ng];W[oh];B[og];W[pg];B[pf];W[qh];B[md];W[nd];B[nf]
;W[me];B[le];W[mf]C[Ronin: here black has the chance to go for upper side territory or to pursue the white escaping group.]
))
(;B[kd];W[qf];B[nd];W[md];B[ne];W[qc];B[oc];W[qd];B[nb]TR[dd]
C[Ronin: this reduces the triangled stone (d16) influence and sets good follow ups.]
))
