(;FF[4]GM[1]SZ[19]ST[2]CA[UTF-8]AP[SGFC:1.14]

GN[gtl]
PB[charmed]
BR[30k]
PW[walknraven]
WR[22k]
KM[6.5]
DT[2003-04-21]
PC[The Kiseido Go Server (KGS) at http://kgs.kiseido.com/]
TM[1800]
OT[2x30 byo-yomi]
RU[Japanese]

C[Hi, my name is Oskar Latvaniemi and i've played go for bout a weak serious that's around 14matches and before that about 6matches during 6months. I would enjoy a review from the game and corrections for my mistakes and how i would play instead.

Thanks for the help


Ps. This game was played 02:30 during nightime so i was really tired lots of mistakes because of that.]
;B[qp];W[dc];B[dq];W[pd];B[nc]C[I usually play in other places, usually at P3 or Q10, altought there is nothing wrong about this move.]
;W[lc];B[qg]C[Now this move is a bit complicated, because you are ignoring the pincer, the usual play would be O15 separating the white stones while running to the middle.]
;W[oe];B[me];W[og];B[nf]C[This peep allows white to gain Strength to attack R13]
;W[of];B[ng];W[pb]C[While this move made a base for white, other possibilities to make your life worse would be P12, R12. Trapping the lonely black stone.]
;B[pi]C[Good move];W[oh];B[ni];W[qf];B[rf];W[qe];B[re];W[rd]
;B[ic]C[This move is a bit low for my taste, altough it puts some pressure at the M17 stone, white can cut you with N16 and O15, see variation...]

(;W[nb];B[mb];W[oc];B[mc];W[ne];B[md];W[se];B[rg];W[gc];B[sf]
;W[sd];B[qc];W[rc];B[he]C[Nice move, making a framework with the N wall, so far black is ahead, altough there is still some aji around P12.]
;W[cf]
(;B[dh]C[At this point my main strategy was to use the strength from the wall on the N and O line to grab a big piece of the center and use a sente later in the game to take som bigpoints in the lower part of the board.

You could have tried E15 to see how white reacts, because it already ignored H15.]
;W[ff];B[fe];W[ee]
(;B[df]C[My stone placement in this corner was really bad but dunno how i should play instead.

F16 looks better.];W[de];B[ce]LB[cg:A][dg:B]C[Mistake should've played A or B instead i think.

A looks like a good option and sente.];W[dg]C[Another mistake]

(;B[fc]LB[ge:E][ke:A][hh:B][dl:C][jp:D]C[Another big mistake that lost me the corner, maybe i shold've played for bigger points or aiming for a connect to my wall.

Is A,B,C,D,E anygood moves instead of F17 ?

B would make a nice moyo,  but you could always try something like this.]
;W[fd]C[This was a mistake];B[ge];W[fb];B[fh];W[gg];B[gh];W[eg]
;B[hg];W[eh];B[ei];W[di]LB[kg:B][bi:A][ql:E][em:C][jp:D]C[Should i play A or somewhere around the B,C,D,E area?

My feel is that the B area is rather safe so maybe to passive to play a stone there at this moment?

A move around B would make nice territory, E and D are also playable.]
;B[ch];W[ci];B[bh];W[bi];B[ai];W[aj];B[ah];W[bk]
(;B[cn]LB[af:A]C[Should've played A instead of c6 ?

Its still possible to live in the side.

A move at A does nothing.];W[bf];B[dk];W[ej];B[fi];W[dj];B[gf]
;W[fg];B[gd];W[ec];B[ek]C[Not the way you want to push white...]
;W[fj];B[cl]LB[hh:B][gi:A][gj:C]C[Mistake again :( Should've played A,B,C right?

Probably B];W[hh];B[gi];W[hi];B[gj];W[gk];B[hj];W[ij]C[Misread the ladder thats why i continued first tought r4 was going to work as an ladder break]
;B[hc];W[hb];B[bl];W[fq];B[fo];W[ck];B[kq]C[If white ignores a move next to his stone F3 you should keep on attacking it.

Or else play N4 as a latter breaker...];W[dl];B[el];W[dm];B[en]
;W[em];B[fl];W[fm];B[gl];W[hk];B[gm];W[hl]C[Nice sequence, making good use of your dead stones]
;B[gn];W[hm];B[hn];W[op]C[I really need to learn corner play i'm so bad at that]
;B[nn]C[I dont really like this move, something like Q7 or Q6 is better, and works with your upper group.]
;W[qq]
(;B[oq]C[Dont get your stones that seperated... Just go with the flow and share the territory with your opponent... See variation.]
;W[pq];B[pp];W[nq];B[or];W[po];B[rq];W[qo];B[rp];W[no]C[walknraven [22k\]: watch your time]
;B[mo]C[charmed [30k?\]: :(];W[mp];B[lo];W[ql];B[ol];W[oi]C[Now the aji of P12 strikes...]
;B[oj];W[pj];B[pk];W[qj];B[qk];W[qi];B[qm];W[pl]C[Your opponent didnt read the ladder...]
;B[rl];W[pm];B[pn];W[om];B[nm];W[rk];B[on];W[rh]C[The loss of the upper group hurts...]
;B[oo];W[nj];B[ok];W[mi];B[nh];W[mf];B[mj];W[li];B[kk];W[ld]
;B[le];W[ke];B[lf];W[kf];B[lh];W[kh];B[kg];W[jg];B[lg];W[ji]
;B[kd];W[kc];B[jd];W[if];B[im];W[jl];B[jm];W[kl];B[je];W[jf]
;B[kb];W[hf];B[kj];W[ie];B[hd];W[ib];B[jc];W[id];B[lb];W[jb]
C[Your group is already alive and there are few points in dispute there, play something like M8, L7 or H3]
;B[kc];W[ki];B[lj];W[km];B[kn];W[ml];B[nk];W[mm];B[hp];W[al]
;B[am];W[ak];B[bm];W[cm];B[dn];W[sk];B[sl];W[si];B[mq];W[mh]
;B[mg];W[nr];B[np];W[il];B[jn];W[jk];B[nj];W[jj];B[nd];W[od]
;B[na];W[oa];B[ob];W[pa];B[nb];W[ja];B[ka];W[bc];B[nl];W[ll]
;B[ln];W[mn];B[no];W[bn];B[fn];W[fk];B[dl];TW[aa][ba][ca][da]
[ea][fa][ga][ha][ia][qa][ra][sa][ab][bb][cb][db][eb][gb][qb]
[rb][sb][ac][cc][fc][pc][qc][sc][ad][bd][cd][dd][ed][qd][ae]
[be][ce][pe][re][af][df][ef][pf][rf][sf][ag][bg][cg][hg][ig]
[pg][qg][rg][sg][ah][bh][ch][dh][fh][gh][ih][jh][ph][qh][sh]
[ai][ei][fi][gi][ii][pi][ri][bj][cj][gj][hj][rj][sj][ik]TB[la]
[ma][lc][ld][mf][pl][ql][cm][dm][em][fm][om][pm][rm][sm][an]
[bn][in][qn][rn][sn][ao][bo][co][do][eo][go][ho][io][jo][ko]
[po][qo][ro][so][ap][bp][cp][dp][ep][fp][gp][ip][jp][kp][lp]
[mp][op][sp][aq][bq][cq][eq][fq][gq][hq][iq][jq][lq][nq][pq]
[qq][sq][ar][br][cr][dr][er][fr][gr][hr][ir][jr][kr][lr][mr]
[nr][pr][qr][rr][sr][as][bs][cs][ds][es][fs][gs][hs][is][js]
[ks][ls][ms][ns][os][ps][qs][rs][ss]C[You played well altough you made some mistakes... hope my comments can help you.

Keep on playing :)])
(;B[pp];W[pq];B[oo]
(;W[nq];B[rp];W[rq];B[pl]C[Something like this would be very good you...]
)
(;W[rp];B[ro]
(;W[qo];B[po];W[qn];B[rq];W[rr];B[sp]C[This does not work for white]
;W[ql];B[oq])
(;W[rq];B[qo];W[nq];B[pl]C[Also good for black.]))))
(;B[bf];W[cg];B[cd];W[bg];B[cc];W[be];B[dd];W[ed];B[db];W[ec]
;B[bd];W[af];B[bb]C[A possible way to make life, altough white gets stronger.]
)
(;B[af];W[be]
(;B[bf];W[cd]C[Bad for you.])
(;B[cg];W[bf];B[cd];W[bd]C[Also bad.])))
(;B[cg];W[ef];B[bf]C[Possible starting a ko. A good ko threat is R16.
If white connects...];W[df];B[cd]C[you can try to take the corner]
;W[cc];B[fd]C[Go for the H17 stone];W[fc];B[bh]C[And protect your cutting points. Just a possible solution.]
))
(;B[fd]
(;W[ed];B[fc]C[A tradeoff])
(;W[fc];B[ed];W[dd];B[ec];W[eb];B[ef];W[de];B[gf];W[fg];B[gd]
;W[hd];B[ge];W[hc];B[id]C[Not that good...])))
(;B[ee];W[de]
(;B[ed]
(;W[dd];B[ec];W[eb];B[fb];W[db];B[fc]C[Good for black.])
(;W[ec];B[dd];W[cd];B[fc];W[fb];B[fd];W[gb];B[ef];W[gd];B[ge]
C[Balanced.]))
(;B[fc];W[ed];B[fd];W[fe];B[ec];W[ef];B[gd]C[White gains lots of Strength but your territory is larger.]
)))
(;W[md];B[nd];W[ne];B[mc];W[ld];B[lb];W[kb];B[kc];W[mb];B[kd]
;W[le];B[mf];W[nb]C[Possible sequence, the black stones are trapped an alone...]
))
