(;FF[4]GM[1]SZ[19]AP[SGFC:1.14]

PB[Araldo]
BR[11k]
PW[pmcguire67]
WR[8k]
KM[6.5]
DT[2003-05-16]
PC[The Kiseido Go Server (KGS) at http://kgs.kiseido.com/]
RE[W+40.50]

C[Dear reviewer,

This game was played on KGS. In this game, I'm black, playing an even game against a player 3 stones stronger. I lost it by 40 points. Unfortunately, I'm not sure why... Please tell me :)

I have put comments where I think I made mistakes.

Thanks in advance,

Araldo van de Kraats

A: Hello, my name is Aaron. I think Black made two main mistakes. One mistake was letting white get a good position on the top. The other mistake was letting white get too good of a position in the lower left. Thanks for letting me review your game, good luck with go! 

-------

time used:
black about 40 min.
white about 14 min.];B[pd];W[dp];B[ce];W[qp];B[op];W[oq];B[nq]
;W[pq];B[mp];W[qn];B[iq];W[gq];B[io]C[Araldo: Too slow? I was afraid of L3...

A: Good defense. If you did not want to have to make this move you can connect solidly at o4 instead of n4. By the way, the weak point in this shape is m3.]
;W[ed];B[dc];W[dd];B[cd];W[ec];B[db];W[jc];B[qi]C[A: White has extended a space too far on the top. m17 is the correct direction. The right side isn't as interesting to develop because white is low and strong. A move on the bottom left is big also.]
;W[nc]C[A: White made another wide extension... Invading might be best.]
;B[oc]C[A: This is not good. It gives white good shape and the corner is still a little weak.]
;W[nd];B[pf];W[cj]C[A: a good point for white, black should invade the bottom now.]
;B[ch];W[ej];B[pm]C[A: This is too early, reducing the bottom left and securing the top right are more important.]
;W[qm];B[pl];W[co]C[Araldo: Too late for C3/C4 now :( - Next I try to invade whites moyo. However, I'm not really happy with the result, since he gets a large area in the corner. Any better ways to invade/reduce it?

A: Be flexible and play light. Take your stones on the outside into consideration. I added some variations but they show that its hard to invade after c5.]

(;B[dk];W[dj];B[cm];W[dl];B[dm];W[el];B[fp];W[fq];B[ep];W[eq]
;B[gp];W[eo];B[fm];W[em];B[fn];W[fo];B[go];W[en];B[hm];W[jj]
;B[kl];W[eb];B[bi];W[bj];B[mf]C[A: I think o18 would be better here.]
;W[qc];B[qd];W[ob];B[pc];W[pb];B[ld];W[lc]C[A:  Now is a good time to go back and protect the corner.]
;B[kd];W[jd];B[kc];W[me];B[kf]C[A: Nice shape! Now white is split in two groups and the game is closer.  
I think Black has to keep white split and try to take some profit while attacking.]
;W[nf];B[ng];W[lf];B[mg];W[le];B[lg];W[ke]C[A: now white has a pretty big lead again]
;B[jg];W[jf];B[kg];W[hj];B[if]C[Araldo: Largest mistake I guess. Must be M10.

A: m10, r18, and r8 are big.];W[lj];B[ml];W[il];B[im];W[jl]
;B[jm];W[nj];B[ql];W[hd];B[je];W[kb];B[nr];W[ir];B[jr];W[hq]
;B[ip];W[os];B[or];W[pr];B[ns];W[pn];B[on];W[nl];B[nm];W[rc]
;B[rd];W[dg];B[cg];W[df];B[sc];W[gf];B[nk];W[mk];B[ol];W[ok]
;B[oj];W[nl];B[md];W[mc];B[nk];W[cf];B[bf];W[nl];B[pk];W[nk]
;B[ll];W[kk];B[oi];W[cb];B[cc];W[da];B[bb];W[ba];B[ca];W[of]
;B[ea];W[og];B[nh];W[fa];B[da];W[qg];B[pg];W[ph];B[qh];W[pe]
;B[qf];W[qe];B[rf];W[oh];B[ni];W[oe];B[fb]C[Araldo: Should be S15?

A: Yes :)];W[re];B[rg];W[se];B[ga];W[hb];B[fc];W[fd];B[gc];W[hc]
;B[gd];W[ge];B[de];W[fe]C[swine [8k\]: kom op Araldo!

Araldo: my fans :)];B[dh];W[eh];B[eg];W[ef];B[fg];W[gg];B[ei]
;W[fh];B[fi];W[gh];B[ee];W[ff];B[di];W[hi];B[hl];W[hk];B[ki]
;W[kj];B[ps];W[qs];B[qr];W[os]C[swine [8k\]: goed!!];B[lk];W[mj]
;B[ps];W[pi];B[pj];W[os];B[rb];W[qb];B[ps];W[mm];B[rs];W[rq]
;B[km];W[rl];B[rk];W[sm];B[rn];W[ro];B[pp];W[qq];B[hr];W[gr]
;B[is];W[hp];B[ho];W[fl];B[gl];W[rr];B[qs];W[sf];B[aj];W[ak]
;B[ai];W[ci];B[bh];W[bl];B[ek];W[fj];B[gj];W[gk];B[gi];W[ie]
;B[ii];W[ji];B[jh];W[ih];B[li];W[mi];B[mh];W[ig];B[ik];W[ij]
;B[jk];W[jf];B[ck];W[cl];B[je];W[il];B[jl];W[jf];B[al];W[bk]
;B[je];W[sg];B[sh];W[jf];B[rm];W[sn];B[je];W[si];B[rh];W[jf]
;B[sk];W[po];B[oo];W[hf];B[rm];W[sl];B[gs];W[fs];B[hs];W[dr]
;B[ha];W[ia];B[cq];W[cr];B[bq];W[br];B[dq];W[es];B[bo];W[cn]
;B[fa];W[tt];B[ss];W[sr];B[os])
(;B[cl];W[ci];B[go];W[fp];B[fl])
(;B[eq];W[fp];B[gr];W[fr];B[hr];W[fq];B[cl];W[ci];B[eo];W[ep]
;B[fl])
(;B[go];W[fp];B[el];W[cl];B[hk]))
