(;FF[4]GM[1]SZ[19]AP[SGFC:1.14]

PB[danke]
BR[6k]
PW[TheRonin]
WR[6k]
KM[6.5]
DT[2003-05-28]
PC[The Kiseido Go Server (KGS) at http://kgs.kiseido.com/]
RE[B+Resign]
TM[2400]

C[Hallo!
This terrible game had me as white.
The game is short because, I think, I made each sort of positional misjudgement.
I'd like one review focused on the opening and the start of the middle game.
However each comment is welcome.
Thanks in advance,
Ronin.];B[pd];W[dc];B[dp];W[qp]C[q: Is this a feasible starting scheme?

a: It is not unreasonable.  As white, I would wajnt to play Q3 instead of Q4.  The reason is the 3-4 points have a direction, and both of your 3-4 moves point towards the black stone on D4.  Maybe Q3 would give your opening some balance.]
;B[cf]
(;W[fd]C[q: Is this a good answer?

a: No complaints here.  C16 is another idea, to prevent black attaching in the corner, but in this game I think F16 is better.  G17 and G16 are also plausible, as is tenuki.]
;B[di];W[nc];B[lc]
(;W[qc];B[pc];W[pb];B[ob];W[qb];B[oc];W[qd];B[pe];W[qf];B[hc]
C[I think those two stones can take care of themselves at this point.  Playing H16 now seems to only make black stronger on the top side.]

(;W[hd];B[id];W[he];B[gc];W[fc];B[ie];W[cd]C[q: I feel that this sequence left white unsatisfied. What could I have done?

a: Locally, the problem is the H15 attachment.  If you had this sequence (or a similar one) in mind, it might be better to just play C16 directly instead of messing with the attachments.  If you played C16 before the other moves, you would still be able to think about reducing black's top-side moyo with moves around J16.

Also, see the previous variation for what I think is the globally best move.]
;B[op];W[lp];B[qq]C[Here start the sequence that threw me into confusion.
I'm used to know that this black move is wrong, say, a bad move to punish.
I tryed to do that... but then things went mess..]
(;W[pq];B[pp];W[oq];B[np];W[nq];B[qo];W[rp];B[ro];W[rq];B[qr]
;W[rr];B[pm]C[Well, this seems to me a good result for white... but I didn't think this move was sente.
q: Should I have played around N3?

a: Yes, absolutely.  The aji of the N3 cut is just unbearable for white.]
;W[pf];B[mq]C[Ouch!

Yes :)];W[mp];B[mr];W[pr];B[kq]C[q: Well... what is white supposed to do now?
Try to save the two stones in the earth of black formation? How?
Or is better to tenuki and wait for a chance to put them in action? Where to play if tenuki?

a: O14 is a very big point right now, threatening to ruin black's top side and also giving the M4 group some hope of escape.  But even if the two stones escape, black will make big territory in the lower left.

One plan could be to split the left side up and try to gain power by attacking the D11 group.]

(;W[kp]C[Pushing like this will doom white, though.  Black just gets stronger and his moyo becomes harder to invade later on.  Even if these stones live, white is behind on territory, so you need to find a strategy which gives you points *and* helps these stones.]
;B[jq];W[jp];B[hq];W[mm];B[nl];W[ip];B[iq];W[go];B[co];W[nf]
;B[qi];W[nb];B[nd];W[md];B[ne];W[me];B[mc];W[oe]C[Nice capture!]
;B[gm];W[in]C[I feel white getting deeper and deeper into  the grave...

G7 maybe is black coming to measure white's coffin.  At this point, black has occupied all the critical areas shown in the previous variation, so white is doomed.]
;B[gg];W[ff];B[fg];W[hf];B[fp];W[fo];B[en];W[il];B[ml];W[nm]
;B[ll];W[km];B[lm];W[ln];B[nn];W[mn];B[om];W[fm];B[fn];W[gl]
;B[fl];W[fk];B[el];W[hk];B[hm];W[im];B[hl];W[ij];B[nh]
(;W[ck]C[The last stone played was an attempt to catch up, but it died. There was a better place to play? Or white is out of the game and should already have risigned?]
;B[ek];W[dm];B[cj];W[bj];B[bi];W[dj];B[ci];W[cn];B[dn];W[bn]
;B[bo];W[ej];B[fj];W[dk];B[gk];W[aj];B[bl];W[bk];B[al];W[bm]
;B[cl];W[dl];B[an];W[ei]C[Here starts a confused phase where I tried almost everything.]
;B[eh];W[bh];B[dg];W[fi];B[gi];W[gh];B[hh];W[fh];B[hg];W[hi]
;B[gj];W[ef];B[eg];W[be];B[bf];W[ai];B[cg];W[ch];B[dh];W[if]
;B[ii]C[H11 is small, no need to protect it.  Probably you were dreaming of attacking the H13 group?  But there is just no way to attack it, your white invading group has very few liberties.]
;W[hj];B[jj];W[ik];B[jh];W[ig];B[ih];W[kf];B[mb]
(;W[od];B[na];W[nd];B[kd];W[ib];B[fb];W[eb];B[ic];W[hb];B[gb]
;W[jb];B[kb];W[jc];B[jd];W[kc];B[ld];W[ka];B[lb];W[li];B[lh]
;W[mh];B[mi];W[kh];B[ki];W[lg];B[lj];W[mj];B[ni]C[Well, the game finished here.
I thank you for reviewing this mess.
See you,
Ronin.

mattn: I hope my comments helped you somewhat.  You might want to read a book called "The Direction of Play" (or re-read it!).  It helps give a conceptual framework for fuseki and early mid-game in terms of the natural motion of stones.  The main problem was you did not move to build structure between your stones on different parts of the board.  Because of this, the game was split into several local battles which each were to black's advantage.  Understanding the direction in which stones try to "move" is the key to whole-board thinking to prevent games like this.  Good luck!]
)
(;W[na]C[White captures the whole lot by playing here.];B[od]
;W[oa];B[of];W[qe]))
(;W[ek]C[A direct push here is one thought.. if black captures G8 then there is a ko, so this actually works better than it looks like it should.]
;B[dl];W[dk];B[ck];W[ch];B[dg];W[cj];B[dj];W[bk];B[cl];W[ci]
;B[dh];W[bg];B[bf];W[bi];B[bl];W[aj];B[gk];W[gj];B[fj];W[gl]
;B[bd];W[bc];B[gk];W[jc]C[This move is very violent, it might work even without the ko.  If white can make a good fight here and maybe reduce the right side in the process, then I think there is still hope.]
;B[kd];W[gl];B[ag];W[ah];B[gk];W[ic];B[ib];W[gl];B[ef];W[ee]
;B[gk];W[jb];B[ej]C[Black can't keep up with all the ko threats on the top group.]
;W[hb];B[kf];W[lg];B[kg];W[lh];B[kh];W[li];B[ih];W[pj]C[White could probably even find a way to kill the top black group, but a reduction like this should be enough.]
;B[pi];W[nj];B[mi];W[mj];B[lj];W[lk];B[kj];W[mk];B[kk];W[kl]
;B[ok];W[oj];B[ki];W[oh];B[qj];W[pk];B[qk];W[rh];B[ri];W[so]
;B[sn];W[sp];B[rn];W[qh]C[I count white up by somewhere between 5 and 10 points now.  Of course, there are other variations ;)]
))
(;W[cn];B[fq];W[ck];B[cj];W[bj];B[bi];W[dj];B[ci];W[dk];B[bk]
;W[bl];B[aj];W[cp];B[cq];W[bq];B[co];W[bp];B[do];W[bo];B[cr]
;W[be];B[bf];W[nf];B[nd];W[jo];B[ip];W[pj]C[This won't be an easy game for white, but this at least seems playable.]
))
(;W[rq];B[pq];W[ro];B[pn];W[qm]C[This is all I can think of.. black still needs eyes, so white will get powerful on the bottom side and make territory on the right side.  Locally your variation from the game seems better, but this one takes the R14 stone into account.  You want to make all your stones happy if you can.]
))
(;W[fq];B[dn];W[kq]LB[pg:a]C[I think to stay in the game, white needs to approach the corner and make a large framework.  Later on, he has moves around (a) to look forward to.]
))
(;W[ne];B[pf];W[ng];B[ph];W[jc]C[You could take some control over the opening by setting up a counter-pincer like this.  It works well with F16 and black can't make so much side territory because of your low R4 stone.]
))
(;W[fq]C[Tenuki is often an option in fuseki.  It is especially useful for white as a way of taking control.]
))
