(;FF[4]GM[1]SZ[19]ST[2]CA[UTF-8]AP[SGFC:1.14]

PB[dreme3]
BR[7k]
PW[arcin]
WR[6k]
KM[0.5]
DT[2003-06-08]
PC[The Kiseido Go Server (KGS) at http://kgs.kiseido.com/]
RE[W+1.50]
TM[60]
OT[25/600 Canadian]
RU[Japanese]

C[
For the reviewer:

Hi, I am Arcin.

This was a game with reasonable time limits. I played White and won by 1.5. But as you will realize at the end, with a nice move black could have won because of my ignorance.

Anyway, this was a very close game. I tried to play the big points without getting lost in the small fights. I put some attention into the endgame, trying to maximize my chances.

Can you comment on my strategy overall? Did i make the right decisions, etc.


Hi, this is Dan, LungChing on KGS (3 kyu).  There's a lot here I can't comment on, so I'm going to request a review of my review.]
;B[pd]C[arcin [6k?\]: gl];W[dp]C[dreme3 [7k\]: thx, ^^ u too]
;B[pq];W[cd]LB[dd:A]C[Dan: Most common in pro games is A instead.  But your move is probably fine.]
;B[ed];W[ec];B[fc];W[dc];B[fd];W[cf];B[jd];W[po]LB[qo:A]C[Dan: Good.  Also A is good.]
;B[np]LB[qm:A]C[Dan: Kobayashi plays A here instead.  This is the first time B didn't play a pro move.]

(;W[qj]C[Arcin:

Did not know what to play, so I played light. I know i invited an invasion at R7 or R8.

What is good way to play here?];B[qh]C[Dan:  This is a poor move because it asks White to solidify his overextension.]

(;W[no]C[Arcin: There was no invasion. so i decided to build a wall.

Dan: I'd probably play as in the variation.];B[mp];W[mo];B[op]
;W[oo];B[lo]LB[ck:A][qc:B][kp:C]C[Arcin : i believe he played wrong here. he could have played a much bigger move.

DRS: If I played tenuki, I'd probably play A or B.  Locally, I like C.]
;W[jq]LB[gq:A]C[Arcin: Extension + attack type move. I was not worried about an invasion around R7. I thought i had enough thickness to fight back.

Dan: I don't think this attacks a weak group.  Also Black can play A with dual purpose.]
;B[ln];W[nj];B[nh];W[jo]C[Arcin: I felt I had laid a bigger territory.

Dan: Looks nice to me.]
(;B[kp]C[Arcin: he did not need to defend here.];W[jp]C[Arcin: i am happier.

Dan: Agreed.];B[cm]C[Arcin: expected this move. otherwise it would be too late for him.]
;W[ck];B[cp]LB[bp:A]C[I probably would play A instead.  B doesn't feel all that strong, in which case it's best not to attach it.]
;W[co]LB[dq:A][co:B]C[After my pincer+extension at C9, i did not know how to play this move. I could also have blocked at C3. But then, we would have some strength and weaken my C9 stone, so I played like this.

Dan: I'd probably just extend at A.  It's a fairly normal thing to extend when you're atached.  B will also end up strengthening Black.]
;B[bo]
(;W[bp]C[Arcin: i am not sure whether this was a good move.

Dan: Please see variation.];B[cq];W[bn];B[bq];W[ao];B[dq];W[ep]
;B[eq];W[fq];B[fr];W[gr]C[Arcin: This was a mistake];B[gq];W[fp]
;B[hr];W[aq];B[gs];W[gp];B[hp];W[ho];B[ei]C[Arcin: later on in the game I started to realize I was giving him all the sente.]
;W[eg];B[fh];W[fg];B[hi]C[Arcin: he is nicely running out.]
;W[hg]C[Arcin: I had to do the same, otherwise he would have an immense presence at the top.]
;B[ji];W[mc]C[Arcin: just like his C7. if i waited more, it would be too late.]
;B[kc];W[ne]LB[pb:A][qc:B]C[How about A instead?  Or B?];B[oc]
;W[lf];B[ld];W[md];B[jg];W[pf]C[Arcin: desperately trying to live/link.]
;B[of];W[oe];B[qf];W[pe];B[qe];W[og]C[Arcin: I am more stable.]
;B[ph];W[oh];B[pl]TR[ph][qh][ln]C[Arcin: This was a good attack. He had the chance to use the marked black stones and go towards the size/corner.]
;W[pj]C[Arcin: Not sure this was the best move. Tried to block the link of the two black stones at the top with the single invasion stone AND link my top group. But the linking was not really there.

Dan: I think this is reasonable.];B[nm]C[dreme3 [7k\]: awful fight >_<

Arcin: actually i think he is doing good.];W[qq];B[qr];W[ql]
;B[qn];W[pn]C[arcin [6k?\]: it is getting widespread... everything is affected.]
;B[qo];W[qp];B[pp];W[qm];B[rq];W[ol];B[ih]C[Arcin: again he has sente.]
;W[di]LB[ci:B][ek:A][ch:C]TR[dp][ep][fq][fp][gp][co]C[Arcin: this is the biggest move I found. But the attachment was maybe not a good idea. Maybe at B ? But then we would play A and try to revive the single black stone.


Maybe I could also play at A for territory.

Dan: I like C if you want to connect.   But connecting two strong groups tends to be low priority.  I think it's too late to attack with the triangled wall, and A feels big at this point, so making territory from the wall seems reasonable right now.]
;B[ej];W[dj];B[el];W[dl];B[em];W[ek];B[fk];W[dm];B[gl];W[nb]
C[Arcin: This is where I belive the endgame started.];B[qb]
;W[ri];B[ie];W[rg];B[qg];W[rh];B[rf];W[mr]
(;B[nr]C[Dan: Please see variation];W[lq];B[kq];W[kr];B[mq]
;W[fb]C[Arcin: In two cases he played an extra stone letting me keep sente. I believe this is how I close the gap. Actually i did not know I was behind. I tried to count a couple of time but never finished my counting.]
;B[gb];W[ea];B[dh];W[eh];B[dk];W[cl];B[dd];W[cc];B[df];W[de]
;B[ee];W[ce]
(;B[ef];W[dg];B[gh];W[gg]C[Arcin: Thx to him.];B[hc]C[Arcin: not really necessary. This is probably how i close the gap.]
;W[lh]SQ[of][nh]C[Tried to make sure the marked stones were mine along with that small territory.]
;B[ir];W[jr];B[li];W[mh];B[mi]
(;W[jl];B[ik]LB[ni:1][jl:2]C[Arcin: Anyway, he followd my game and i get the chance to play both]
;W[ni];B[lb];W[ki];B[kj];W[kh];B[lj];W[ns];B[or];W[ob];B[pb]
;W[br];B[cr];W[ge];B[gd]C[arcin: couple more sente moves. he is just defending.]
;W[om];B[os];W[ms];B[lp];W[lr];B[jk];W[mm];B[mn];W[nn];B[lm]
;W[ml];B[jm];W[kl];B[ll];W[km]C[arcin: i misread this. no way to link.]
;B[kn];W[im];B[jn];W[in];B[ip];W[io];B[il];W[mk];B[gn];W[go]
;B[en];W[dn];B[eo];W[do];B[le];W[me];B[kf];W[lg];B[rm];W[rl]
;B[rn];W[lk];B[kk];W[hm];B[gm];W[he];B[hd];W[if];B[jf];W[sm]
;B[sn];W[sl];B[bs];W[ar];B[ig];W[hf];B[sg];W[sh];B[sf];W[pi]
;B[qi];W[rj];B[mb];W[nc];B[lc];W[od];B[qd];W[rc];B[rb];W[rd]
;B[sc];W[pa];B[qa];W[oa];B[pc];W[iq];B[hq];W[hl];B[hk];W[ga]
;B[ha];W[fa];B[js];W[ks];B[is];W[ff];B[ek];W[ma];B[la];W[na]
;B[fo];W[mj];B[pg];W[ap];B[cs];TW[aa][ba][ca][da][ab][bb][cb]
[db][eb][ac][bc][ad][bd][nd][ae][be][af][bf][gf][mf][nf][of]
[ag][bg][cg][mg][ng][ah][bh][ch][dh][nh][ai][bi][ci][oi][si]
[aj][bj][cj][oj][sj][ak][bk][nk][ok][pk][qk][rk][sk][al][bl]
[nl][pl][am][bm][cm][nm][pm][an][cn][on][bo][ls]TB[ia][ja][ka]
[ra][sa][hb][ib][jb][kb][sb][gc][ic][jc][qc][rc][id][kd][rd]
[sd][je][ke][re][se][fi][gi][ii][fj][gj][hj][ij][jj][gk][fl]
[jl][kl][fm][km][fn][ro][so][qp][rp][sp][nq][oq][qq][sq][dr]
[er][gr][pr][rr][sr][ds][es][fs][hs][ps][qs][rs][ss]C[Arcin: this is the game. Thank you very much for the review. I tried my best trying to play the big moves, but he actually had more territory when the middle game was over. I cought up I believe only in the endgame because he played too passive.

Arcin.
)

(;B[ch

This is the killer move.];W[bi]C[arcin: only white defence.

Dan: Sounds right.];B[cg]C[Arcin: black will die BUT while he dies white will play 2 extra moves in his territory :) considering white won by 1.5, I would actually lose by 0.5]
;W[bg];B[fe];W[bh];B[hh];W[ci]C[arcin: score is B+0.5])
(;W[ni]C[Arcin: i did not want to play this because he would get the next point.]
;B[jl]C[Arcin: this would be too big for him, I felt.]))
(;B[dg]
(;W[ef];B[gg];W[ch];B[ff]C[Arcin : this is what he should have played. I made a mistake there.]
)
(;W[ch];B[ef];W[cg]LB[df:1]C[Arcin: if he had played played '1' to link, this is the result. White loses a lot.]
)))
(;B[kr];W[kq];B[lq];W[lr];B[jr];W[ir]))
(;W[cq];B[bp];W[dq];B[do];W[eo];B[dn];W[fm]C[Build and threaten to shut Black in.]
))
(;B[dm];W[lp];B[kp];W[lq];B[kq];W[kr];B[lr]C[White is dead if Black plays tenuki here... So i don't see why he bothered to defend.]
))
(;W[qq];B[qr];W[qp];B[or];W[oj]LB[pd:A]C[Dan: I believe White gets more out of this than he really should hope for.  The overextension is stronger now, and B has a long-long about A - not good.]
))
(;W[qq];B[qr];W[qp];B[or];W[ql]LB[ql:A][qk:B]C[This is a common sequence locally.  A feels a little cramped to me.  B is not uncommon instead.]
))
