(;FF[4]GM[1]SZ[19]ST[2]CA[UTF-8]AP[SGFC:1.14]

PB[mikan]
BR[7k]
PW[Painless]
WR[7k]
KM[6.5]
DT[2003-06-29]
PC[The Kiseido Go Server (KGS) at http://kgs.kiseido.com/]
RE[B+Resign]
TM[60]
OT[10/60 Canadian]
RU[Japanese]

C[Joonas Tyystjärvi (Painless): I played this game on KGS. I felt my position was pretty good for a while, but then everything just seemed to go wrong and I had no idea what to do.]
;B[qd]C[mikan [7k?\]: hi
Painless [7k\]: Hello.];W[co];B[pq];W[dc]
(;B[dp]C[tanguy : black D4 is not usual];W[cp];B[dq];W[en]C[tanguy : good answer !
this high stone anihilate blacks
way to the center.
This is probably why d4 is doubtfull.];B[hq];W[qo];B[qm];W[op]
;B[oq];W[np]
(;B[nq]
(;W[qq]LB[mq:B][nq:A][qq:C]TR[hq]C[JT: I don't know what this was about either. Would this succeed with A at B?

tanguy: 
I gave you the joseki sequence 
at move 14.

In the joseki r3 is played after a kikashi 
at o3 here it does not work.
White should presse one more time
and pincer instead of rushing 
to the corner whit B.];B[pp];W[po];B[qp];W[rp];B[rq];W[ro];B[oo]
;W[qr];B[rr];W[mp];B[mq];W[on];B[no];W[mo];B[qj]C[tanguy : black is happy to play here.]

(;W[ci]LB[cq:A][kq:B]TR[dp][dq][hq]C[tanguy : this white move is big but I prefer
playing at A before to weaken the marked stones. now A and B are miai
to stabilize the black group.];B[od]LB[nc:A]TR[dc]C[tanguy : a bit slow, playing at A would cover more space and avoid to have an open
space in front of a low stone (the marked one).];W[jd];B[de]
;W[fd]
(;B[cg]LB[ei:A][nn:B]C[tanguy : yet another strange move.
Black should jump near A, play
sabaki at B and keep in mind the escape at C.];W[cd]
(;B[ck]
(;W[ei]LB[ch:B][bi:A]TR[dh][di][dj]C[JT: one of the triangled spots better?

tanguy : the fact is that black will connect
or do something by playing at A,
this is almost a joseki.
why not bump at B  before jumping ?];B[bi];W[bh];B[ch];W[bj]
;B[di];W[cj];B[dj];W[dh]LB[nn:A]C[tanguy : usually this is an overplay but here white is stong on both sides, black will have to 
choose one side only his hopes are leaning on
the potential escape at A.];B[eh];W[dg];B[eg];W[df];B[bg];W[ef]
LB[nn:A]C[tanguy : white keeps in mind the escape at A.]
(;B[ah];W[bk];B[cl];W[bl]
(;B[bm]C[tanguy : overplay! white is safe now :)];W[dk];B[ej]
;W[ek];B[fi];W[fj];B[ei];W[cm];B[dl];W[el];B[dm]
(;W[cn]LB[fm:1][dn:A][do:2]C[tanguy : better at A to avoid kikashi at 1 and 2]
;B[cf];W[ee];B[be];W[bd];B[ce];W[dd];B[fk]
(;W[fl]TR[ck][cl][dl][dm];B[gj];W[lq];B[lr];W[kq];B[lp];W[lo]
;B[kp];W[kr];B[mr]
(;W[jo]C[tanguy : white should read carefully
the shisho before playing such move.];B[jp];W[ip];B[jq];W[iq]
;B[jr]
(;W[io]LB[cq:B][ir:A]TR[dp][dq][hq]C[tanguy : did you read that A does not work ?
It is hard to say...  I think it is ok at A also

anyway black can stabilize by playing at B.];B[ir];W[pi]C[JT: I had no idea what to do.]
;B[qi];W[ph];B[qh];W[gl];B[mg];W[pf];B[me];W[qg];B[pj];W[ni]
;B[nj];W[oj];B[ok];W[oi];B[nk];W[li];B[mi];W[mh];B[mj];W[lh]
;B[ng];W[nh];B[og];W[pg];B[lj];W[kf];B[jj];W[ij];B[ko];W[kn]
;B[ii];W[hj];B[ji];W[hi];B[hh];W[gh];B[gi];W[gg];B[hg];W[gf]
;B[hk];W[ik];B[hl];W[jl];B[ln];W[nn];B[km];W[jm];B[jn]
(;W[hm];B[in]LB[hm:A][in:B]TR[io][jo][ip][iq]C[tanguy : it is big to loose these stones!
I think it is possible to avoid this.
Take a look at the
semeai (move 145).];W[gk];B[hn];W[gn];B[go];W[fo];B[gp];W[fp]
;B[fq];W[ih];B[jh];W[ig];B[jg];W[if];B[jf];W[je];B[ie];W[hf]
;B[kg];W[lg];B[lf];W[ke];B[rg];W[rf];B[rh];W[qe];B[rd];W[pd]
;B[pc];W[pe];B[oc];W[ne];B[nd];W[md];B[oe];W[nf]C[JT: I thought I saw something here. Must have been 'em damn elves.

tanguy : I dont see anything here
the game is over.];B[of];W[le];B[mf]C[JT: I resigned here.]
)
(;W[in]
(;B[hm]C[this move is complicated to read !];W[im]C[white must connect.]

(;B[gm]C[this is the only move];W[fn]
(;B[go];W[gk]C[white win the semeai])
(;B[gk]LB[fg:1][fh:2][fj:7][il:6][fm:3][gn:4][hn:5]C[black must connect and ...]
;W[go]C[white wins also]))
(;B[gn]C[this move doesnt work also.];W[fn]
(;B[gk];W[go];B[ho];W[hn]LB[gn:B][ho:A]C[miai])
(;B[go];W[gk])))
(;B[im]C[this move does not work at all];W[hm])))
(;W[ir];B[ko];W[kn];B[ks];W[jn]
(;B[fm];W[em];B[io];W[ho]C[the shishi does not work.])
(;B[cq];W[bq];B[br]
(;W[ar];B[bp];W[ap]C[dangerous ko for white, should be prepared before...]
)
(;W[bp];B[ar]C[black is alive now]))))
(;W[jp];B[ko];W[kn];B[jo];W[io];B[jn];W[jm];B[in];W[hn];B[im]
;W[il];B[hm];W[gm];B[hl];W[hk]))
(;W[gj]TR[ck][cl][dl][dm]C[tanguy : such move is not possible because of the ajii of marked stones :(]
))
(;W[dn];B[cn];W[em];B[cm];W[gi]))
(;B[cm];W[bm];B[ek];W[fh];B[cn];W[bn];B[do];W[dn]
(;B[fn]C[the fight is hard]
(;W[fm];B[em];W[dm];B[el];W[fo];B[gn];W[eo];B[go];W[fq];B[fp]
;W[ep];B[eq];W[gp];B[dl];W[fp];B[hp];W[er];B[dr];W[fr];B[bq]
)
(;W[eo];B[fo];W[ep];B[eq];W[fm];B[em];W[el];B[dm])
(;W[el];B[fl];W[fm];B[gm]
(;W[fk];B[em];W[ej];B[dl];W[dk];B[dj])
(;W[em];B[gk];W[fo];B[gn];W[eo];B[go];W[fq];B[fp];W[ep];B[eq]
;W[gp];B[hp];W[fr];B[bq];W[bp];B[cq];W[er];B[ap];W[bo];B[gq]
;W[fp];B[dr];W[br])))
(;B[gm])))
(;B[nn];W[pm];B[mn]
(;W[ql];B[lo])
(;W[ko];B[ln];W[jp];B[ql])))
(;W[ch]
(;B[dg];W[eh])
(;B[ek];W[fi];B[gk];W[cq])))
(;B[di];W[dj];B[ei];W[cj];B[nn]))
(;B[nn]
(;W[nm];B[mn];W[ln];B[mm];W[ml];B[lm];W[km];B[ll];W[lk];B[kl]
;W[jl];B[kk];W[kj];B[jk];W[ik];B[jj];W[ji];B[ij];W[hj];B[ii]
;W[ih];B[hi];W[gi];B[hh];W[hg];B[gh];W[fh];B[gg];W[gf];B[fg]
;W[eg];B[ff]
(;W[ef];B[fe];W[ee];B[ge])
(;W[fe];B[ef];W[df];B[ee]))
(;W[pm];B[mn];W[ln];B[lm];W[ko];B[om];W[pn];B[pl];W[ol]
(;B[ql])
(;B[kn];W[lo];B[mm]
(;W[ql];B[jo])
(;W[jo];B[ql]LB[cq:A]C[black can stabilize at need by playing at A.]
;W[nm];B[mk];W[ok];B[lj])))))
(;W[cq];B[ch]C[tanguy : if black still want to play here...]
;W[jq]LB[ce:4][de:3][nn:A][ho:2][lq:1]TR[dp][dq][hq]C[the marked stones are weak and the shisho at A
is favorable to white.
next black want to play at 1,2,3 or 4
but he must keep in mind his weak group.];B[de];W[pm]C[this kikachi is worth remembering...]
;B[nn]C[black cannot escape];W[mm];B[nm];W[nl];B[om];W[ol];B[pn]
;W[pl];B[qn];W[mn];B[on];W[ql];B[rn];W[rm]))
(;W[lp];B[mq];W[mp];B[qj];W[lq])
(;W[mp];B[lq];W[qj];B[om]))
(;B[mq]C[tanguy : joseki variation];W[qj];B[om];W[mp];B[lq]
;W[lp];B[kp];W[nq];B[nr];W[mr];B[lr];W[or];B[ms];W[qq];B[pr]
;W[ko]C[tanguy : this is one possible joseki.]))
(;B[dq];W[gq])
(;B[ep]
(;W[eo];B[fo];W[en];B[dp];W[cp];B[cq])
(;W[dq];B[eq];W[dr];B[ip];W[dn])))
