(;FF[4]GM[1]SZ[19]ST[2]CA[UTF-8]AP[SGFC:1.14]

GN[GTL Review - Dominick vs. Josh]
PB[Josh]
PW[Dominick]
KM[6.5]
DT[2003-07-10]
RE[B+20.5]
RU[Japanese]
AN[Chris Hayashida]

C[icepick:  I played Black.   I have done a brief analysis of this game, pointing out things that I missed during the game.

Thank you for taking the time to review my game and comments.

csh: I hope you find this review helpful.];B[qd];W[cp];B[pp]
;W[dd];B[ep];W[cn]LB[dn:A][gq:B]C[csh: This is sort of an odd move, too. Usually A or B are played directly.]

(;B[en]LB[cq:A][iq:B]C[csh: Actually, I don't like this move so much. I'd prefer to give my group a base, by playing either A or somewhere in the vicinity of B.]
;W[gq]C[csh: The pincer is an attacking move. Now the black stones do not have a base. It now becomes a battle between the black group and the two white groups (one on either side.)]

(;B[er]LB[jq:B][er:A]C[I think that this was a suboptimal move, attaching a C3 would have been better.   Perhaps even an extention from the lower right, around L3 or so.

csh: I do like C3 better. This move does, however, keep the two white groups separated, so it's not too bad. Look at the variations.]
;W[nq]
(;B[pn]C[This is a case where a habitual response was wrong.   Better I think to have played at K3 or L3 and split the two White stones.   Q6 allows White a safe lower side.

csh: I don't think this move is "wrong." This move concentrates on constructing territory along the righthand side instead of trying to destroy territory that White is trying to make. See the variation.]
;W[jq]C[csh: This move is a little flat.  K4 would be better. Note that you have a weakness to aim for at M3 later.]
;B[oc]C[csh: This is a nice move that constructs a lot of potential territory.]

(;W[pj]C[csh: This invasion might be better at R11 to get a base along the righthand side.]
;B[ph]C[csh: Good. Put pressure on the stone while starting to build territory on the right.]
;W[pf]C[csh: This move is sort of odd. White has split himself apart with your stone.]

(;B[og]LB[qf:B][nh:A]C[csh: I'm not sure what the purpose of this move is. If you are trying to run to the center to split the two groups, maybe A is better. If you are trying to connect, maybe B is better. See the variations.]
;W[ne];B[md]C[csh: This move is also a good idea. It puts pressure on the two running white stones, and also makes territory along the top.]
;W[jd];B[cf];W[gd]
(;B[bd]LB[cc:A][ci:B]C[C11 or C10 would have been better I think.

csh: This move looks proper to me. A or B become miai for life.]
;W[lc];B[mc];W[mf]LB[le:A]TR[og][ph]C[csh: After White plays here, immediately I looked at A to cut off his group. Your two marked stones aren't safe, though, so that's a bigger problem.]

(;B[of]C[csh: So I think this is the correct move, to just settle your stones and get a little profit.]
;W[oe];B[pe];W[le];B[cj]LB[ch:A]C[csh: The problem with this move is that there is a weakness at A that White can exploit later.]
;W[bl]LB[ch:A]TR[ph][of][og]SQ[pj]C[csh: At this point in the game, I think you need to look at your groups. How safe are they? Which ones are under attack?
 You should look at the white groups and ask the same questions.

My feeling is that the black group in the upper right is safe. It should live with minimum hassle. I also think the three marked stones should connect back to the corner, even if White tries to pull out his cutting stone.

The black group in the upper left is relatively safe, but there might be mischief if White tries to at A.

The black groups in the bottom left and bottom right don't really have eyespace, so I think they worry me the most.

I made a couple variations here, where White gets first move, so that you can see how those two groups might be attacked.

White's groups, on the other hand, look more or less connected.  The group in the upper left looks safe, as does his group at the bottom. I also think the lower left should live.

In fact, I think the only stone under pressure is the one I marked with the square. White just needs to run it out to safety.]

(;B[nj];W[ol];B[pl];W[pk];B[ok];W[pm];B[ql];W[om];B[qm];W[qq]

(;B[pq]LB[qp:A]C[csh: In this case, I think you are blocking from the wrong side. The wall you get from blocking this way is useless, because the white group is pretty safe. A would be better.]
;W[qp];B[qo];W[pr];B[or];W[qr];B[oq];W[nr];B[os];W[ro];B[rn]

(;W[rq]
(;B[np];W[mq];B[go]C[csh: Good. You were the first one to get back to this area. Did you think that the black group in the lower left was alive? Or just that it was just in less trouble than the one on the lower right?]
;W[oo];B[po];W[mo];B[nn];W[ml];B[mm];W[nk];B[oj];W[mj];B[on]
;W[nl];B[mh];W[mi];B[ni]C[O12 would have been better, connecting both the N12 stone, and the 3 stones below.

csh: I agree. This is just ugly shape.];W[nh];B[oi]
(;W[lh];B[ef]LB[ch:A]C[csh: This move actually protects agains the invasion at A. However, the lower left is still more important.]
;W[de];B[df];W[cc];B[dl]C[csh: Whew! Now the lower left is loosely connected to the group on the left. It is a lot more stable than before.]
;W[bj];B[bi];W[ck];B[dj];W[cr];B[jo];W[fr];B[fq];W[gr];B[gp]
;W[hp];B[lk];W[mk];B[ll];W[no];B[mp];W[lp];B[op];W[ko];B[ln]
;W[lo];B[kn];W[jn];B[io];W[ho];B[hn];W[in];B[im];W[ip];B[jm]
C[csh: With this capture, your lower left group, your lower right group, and the group on the left are all connected. You don't have any weak groups to worry about anymore.

But what about his groups? The one I'd worry about the most is the lower right. Again, let's look to see what will happen if you have first move.]

(;W[jj];B[hj];W[gf];B[fh];W[hh]LB[bc:A]C[csh: In the endgame, moves around the edges are worth more than those in the center. It's deceptive, but a move like A is worth quite a lot.]
;B[ii];W[gi];B[jg]C[csh: Better to just stay connected.];W[ih]
;B[ki];W[kh];B[jh];W[ji];B[kj];W[jk];B[gg];W[ij];B[hi];W[gh]
;B[gj];W[fg];B[hg];W[ig];B[fi];W[if];B[eg];W[ff];B[oh];W[ng]
;B[nf];W[me];B[mg];W[li];B[pd];W[lg];B[lb];W[kc];B[bb]C[csh: This kind of gets messy. It might be better to just play solidly. It is good, though, that you were the first one to get the big point.]

(;W[cb];B[ia]C[Lesson Learned:  Monkey jumps need a soild connection to fall back to.]
;W[kb]
(;B[mb]C[csh: See variation.];W[ka];B[ca];W[da];B[ba];W[db]
;B[bc];W[dk];B[ek];W[el];B[dm];W[fk];B[ej];W[fj];B[fl];W[gk]
;B[hk];W[gl];B[hl];W[gm];B[dh];W[fm];B[hm];W[eo];B[do];W[dn]
;B[em];W[dp];B[fo];W[co];B[ee];W[ed];B[fe];W[ge];B[fd];W[fc]

(;B[jp]LB[lq:A]C[csh: Actually, I think think you can threaten to cut at A instead.]
;W[lq];B[kq];W[jr]
(;B[kp]C[Too cautious, L2 I think would have captured the right hand half of White's group.

csh: I play L2 in a variation. I don't know if you count the board (while still playing) to see who's ahead and who's behind. If you are behind, you should look for a more aggressive move to try and get back in the game. If you can't read it out, and you are ahead, then solid play is best.]
;W[kr];B[ak];W[bk];B[aj];W[ci];B[bh]C[A hasty mistake.]
(;W[ei];B[di];W[eh];B[bm]C[csh: Great play!];W[cm];B[cl];W[bn]
;B[al];W[dr];B[fs];W[hq];B[so];W[rs]
(;B[sq]C[csh: Ugh. This isn't the vital point.];W[sr];B[sp]
;W[ps]LB[rp:A]C[csh: I don't understand why he didn't play at A.]
;B[rp];W[dq];B[eq];W[gs];B[es];W[eo];B[fn];W[ds];B[fp];W[pc]
;B[pb];W[od];B[nd];W[ob];B[qc];W[la];B[ld];W[ma];B[ke];W[lf]
;B[kd];W[nb];B[nc];W[jf];B[je];W[ie];B[jc];W[ic];B[id];W[jb]
;B[ib];W[jd];B[kf];W[hd];B[pc];W[kg];B[cd];W[kl];B[kk];W[jl]
;B[ce];W[ec];B[pa];W[na];B[an];W[ao];B[am];W[ns];B[mn];W[km]
;B[lm];W[jh];B[fl];W[do];B[el];W[fi];B[lj]TW[bo][cq][cs][dc]
[fh][id][iq][ja][jc][jg][qs][rr][ss][ap][aq][ar][as][bp][bq]
[br][bs][ea][eb][fa][fb][ga][gb][ha][hb][ia][ib][gc][hc][gg]
[hg][he][hf][hr][hs][ir][is][js][ks][ls][ms][lr][mr]TB[qn][ro]
[sn][aa][ab][ac][ad][ae][af][ag][ah][ai][be][bf][bg][bj][bk]
[bl][cg][dg][ch][ci][ck][dk][in][jn][ng][nh][pf][pg][qf][qg]
[rf][rg][sf][sg][pi][pj][pk][qi][qj][qk][ri][rj][rk][si][sj]
[sk][qa][qb][ra][rb][sa][sb][qe][re][se][qh][rh][sh][rc][rd]
[sc][sd][rl][rm][sl][sm]C[csh: Overall, a good game.

Your strengths:

- You did better than you opponent in the endgame.
- You tend to tenuki (play elsewhere) when the local plays became less valuable. This gave you the advantage in many situations.

Things to work on:

- Life and death. You should have been able to attack the lower right corner more effectively. That would have been over a 20 point swing, even more than the tesuji on the lefthand side.
- Judging the relative strength of the both the white and black groups. Strengthen your weak groups, and attack his weak groups.

I hope you find this review helpful. Good luck!])
(;B[sr]C[csh: This point keeps White from getting two eyes in the corner. Generally, in the corner, the 1-2 points are important. It's always important to read it out, but the 1-2 points are a good place to start looking.]

(;W[ps]C[csh: If he tries to connect here...];B[sq]C[csh: You connect back out.]
)
(;W[sp]C[csh: Still ko, I think.];B[rp]C[csh: But you get to take first.]
;W[sq]C[csh: White can't connect.];B[ps]C[csh: This kills him.]
)))
(;W[di]C[csh: This would have been better. :)];B[ch];W[ei];B[eh]
))
(;B[kr];W[kp]C[csh: White's obvious move is the cut. Now what?]
;B[lr]C[csh: This seems obvious to me.];W[mr];B[ms]LB[ns:A]
C[csh: Nifty move, because White can't play at A to separate.]
;W[ks]C[csh: But he has a counter.]))
(;B[lq]C[csh: The cut doesn't work directly.];W[lr];B[kq];W[kr]
)
(;B[lr]C[csh: But this move here leaves White in a tough spot.]
;W[lq];B[ns];W[mr];B[ms];W[kr];B[ls]C[csh: Worth a few points.]
))
(;B[ka]C[csh: Do they?];W[mb]C[csh: Where is this stone going to go? Will it live?]
;B[la];W[ma];B[ja];W[nc]C[csh: This looks dangerous, but it isn't.]
;B[nd];W[od];B[nb];W[ld];B[na]C[csh: :)]))
(;W[bc];B[ac];W[cb];B[ba];W[ab]
(;B[aa];W[ca]C[csh: For example.])
(;B[ad];W[cd];B[be];W[ca]C[csh: Another example.])))
(;B[so]C[csh: Seems like the logical place to start.]
(;W[rp]C[csh: If White connects, do you see that it's a dead shape? Black doesn't even have to move.]

(;W[sp]C[csh: If White here.];B[sr];W[ps];B[rs];W[rr]C[csh: This ends up becoming the bent-four-in-the-corner shape, and it's dead.]
)
(;W[ps];B[rs];W[sp];B[sr]C[csh: The mirror image.]))
(;W[sp]C[csh: I think White has to start a ko.]
(;B[rp]C[csh: Black gets to take first.];W[sq]C[csh: If White connects, it's a dead shape.]
)
(;AW[ro]C[csh: Let's say White took the ko.];B[sn]C[csh: Black can't connect.]
;W[sr]C[csh: White lives.]
(;B[rp];W[rs])
(;B[rs];W[rp];B[ps];W[qs])))))
(;W[pi];B[oh];W[ng];B[nf];W[mg]LB[qh:A]C[csh: Now you need to protect against White A.]
;B[qh];W[me]C[csh: Ouch!]))
(;B[so]
(;W[rp]C[csh: If White plays here, he's dead.];B[sp];W[sq];B[rs]
)
(;W[sp]
(;B[sn])
(;B[rp]C[csh: Now it's ko for life.]))))
(;W[rp]C[csh: This is better.];B[qs];W[rr]
(;B[rs])
(;B[so];W[sq])))
(;B[qp];W[pq];B[op];W[oq];B[mo]TR[pm][ol][om]C[csh: Now you have almost captured these stones.]
))
(;W[qm];B[qn];W[pr];B[qq];W[qi];B[qr]C[csh: White has made a base on the right, but the Black group in the corner should be ok.]
)
(;W[dq];B[eq];W[dl]TR[en][ep][eq][er]C[csh: To be honest, this looks like a tough game for Black now. The marked stones are in a lot of trouble and have a long way to run.]
))
(;B[le]C[csh: If you played here... (Note that I think this is bad.)]
;W[oe]C[csh: This move separates your two stones from the corner.]
;B[qf];W[qg];B[pg];W[qe];B[rf];W[re];B[rg]C[csh: Now you are separated, but his stones are also in trouble.]
;W[qi];B[qh]C[csh: At any rate, it turned into a running fight, when you were clearly ahead before.]
))
(;B[ci]C[csh: I think this move would provoke the following sequence.]
;W[ce];B[df]C[csh: Now Black is a little overconcentrated, and can still be under attack if White extends from the bottom.]
)
(;B[cj]LB[ch:A]C[csh: This move is interesting. However, there is a weakness at A.]

(;W[ce]C[csh: If White attaches...];B[df]C[csh: Black is not overconcentrated.]
)
(;W[ch]C[csh: This will lead to a fight.])))
(;B[nh]C[csh: I looked at this move to keep the stones separated and make more potential territory.]
;W[qh];B[qi]
(;W[pi];B[pg];W[qg];B[qf]
(;W[qe];B[rf];W[ri];B[pe];W[of];B[rh];W[qj];B[rg];W[qi];B[ng]
TR[qe][of][pf]C[csh: After this exchange, the marked white groups are in trouble. Also, the white group on the right does not have good shape.]
)
(;W[rf];B[qe];W[of];B[ng];W[ne];B[ri];W[rg];B[qk]C[csh: It still looks like this fight favors black.]
))
(;W[qg];B[pi]TR[pf][qg][qh]C[csh: This way isn't good for White. His marked stones are in trouble, and need to run.]
))
(;B[qf];W[qg];B[pg];W[qe];B[rf];W[re];B[rg];W[pe];B[rd];W[se]
))
(;W[qi]LB[qf:A][ql:B]C[csh: The reason why the third line (from the edge) is better for invasions, is that now the stone can extend to either A or B to create a base. Once this stone has a base, it is a lot harder to attack it.]
))
(;B[jq]C[csh: This isn't ideal. The problem is that now you will have two (or three) weak groups. To win, you don't need to split up every one of your opponent's group. Black stands to make more territory along the right than White does at the bottom, so the way you played is fine.]
;W[pr];B[qq];W[no];B[pn];W[go]C[csh: This looks like a fight to me, with multiple weak groups for both sides. Since you already have a weak group in the lower left, you may have problems saving it and the K3 stone. Losing either one would be a big loss. It's a lot simpler to play the other way.]
))
(;B[jq]TR[gq]C[csh: I don't like this move. The problem with the counter-pincer is that it does not help to settle the two marked stones. Furthermore, it is not much of a strong attack against the marked white stone.]
;W[eq]TR[en][ep]C[csh: White will connect underneath and the two marked black stones are in trouble. They do not have a base, and they need to connect to a live group or make eyes. The counterpincer ended up being detrimental to the safety of the two marked black stones.]
;B[dq]C[csh: If Black tries to cut anyway...];W[dp];B[fq];W[er]
;B[fp];W[fr]C[csh: White still stays connected. (Black shouldn't try to cut. These moves are just to illustrate the point.)]
;B[gp];W[hq]C[csh: Now the black stones are floating, while the white group is settled and is making territory in the lower left.]
)
(;B[cq];W[bq]C[csh: If White hanes this way...];B[dq]C[csh: This seems to be the natural follow up move.]
;W[br]C[csh: But then White can descend and take away Black's eyespace.]
;B[jq]C[csh: At this point, the counterpincer might make sense.]
;W[go]TR[en][ep][gq][cq][dq]C[csh: This would turn into a running battle between the two marked groups.]
))
(;B[cq]C[csh: If Black plays here...];W[bq];B[dq];W[br];B[hq]
C[csh: The black group ends up with a base.]))
