(;FF[4]GM[1]SZ[19]ST[1]AP[SGFC:1.14]

PB[suzuki]
BR[6k*]
HA[0]
PW[Redcrosse]
WR[5k]
KM[5.5]
TM[120]
OT[25/600 Canadian]

C[Hi, I played this game against Suzuki 6K*.

EO: Hi, I'm a Swedish 3 dan. Hope you will find my comments useful.



I was getting trounced, I think, until I killed a group at the end to win.  I'd particularly like to know how to make better use of my stones when b gets corner territory.  He erased my thickness in areas pretty easily -- I especially think my joseki choices hurt on the left side.

EO: I think you underestimate you own skills and overestimate your opponents. In my opinion you are a much better player than your opponent and the victory was well deserved.

In this game there was two very important points on the board which were missed by both of you:

(1) M9. This move is huge, but still it was unplayed for over 60 moves! If you don't agree with me that it is important, put the position on a real goban and look at the difference if there is a black or white stone there. You should fall in love with this point!

(2) S7. Once you played M9, you can easily kill the black group with S7. There is no reason to delay it and give black the chance to live.

At the end you got them both which is why you won.];B[dp];W[pd]
;B[pq];W[dd];B[qf];W[qh];B[qc];W[qd]
(;B[rd]C[EO: Not the usual way of playing...];W[re];B[rc];W[qe]
;B[ob]
(;W[qo];B[qp];W[po];B[ql]C[Here b is trying to get away with corner territory and erasing my left moyo.  He succeeds -- so how should I have stopped him?

If you could show me an alternative sequence or two for this part of the game I'd appreciate it.  Thank you!



(First, though, I should probably p3 and seal black in first before attacking r8.  Ah, hindsight.)

EO: Black is greedy. You have no reason to be scared by this move, rather you should feel happy to get a chance to attack this stone.

Yes, a leaning attack is good in this case (see var.)]
(;W[ol]C[This move seems crucial.  Is this the right spot?  I also thought about R10, Q9, Q10, O8.  I'd really like to know what reasoning I can use to decide a move like this.

EO: It seems natural, since it's where black would like to play. In this case you are a bit too thin to ceil him in, but you should try to get some outside influence.]
;B[qj]LB[ok:A]C[EO: Black should probably cut through first, with e.g., A.]

(;W[pi]C[EO: Bad shape. You should only play it if you are sure it works.]
;B[ok];W[oj]LB[nk:A]C[I regretted P10 right away, wasn't sure what I was thinking.  But 08 seemed submissive, and then I'd given b two corners without getting much, so how should I have attacked?

EO: Well, difficult to find a good move here, due to your previous move. A is better, but still not very satisfactory.]
;B[nk];W[pk];B[pl];W[om];B[pj];W[nj];B[mk]SQ[nj]C[EO: This exchange is good for black. Your stones below are getting weak now.]
;W[mj]C[EO: Also bad. You are killing your group below.]
(;B[qi];W[ph]SQ[qi]C[EO: This exchange strengthen white. Say thank you!]
;B[rh];W[rg]
(;B[ri]C[EO: Terrible move. MUCH better to move out, losing sente here could cost the game. And the group still doesn't have two eyes.]
;W[np]C[P3 better, someone told me.

EO: Yes, make black low.];B[nq];W[mq];B[nr];W[mp];B[kq]C[I've gained very little with all my stones so far.  Things are going poorly for white....

EO: It's not that bad so far.]
(;W[nc]C[EO: Very risky, the lower side group is very weak.]

(;B[hq];W[nb];B[pb];W[sd];B[ra];W[jp];B[jq];W[lm]
(;B[fc]C[EO: Too hasty.];W[hc];B[cf]C[I was at a loss for the best way to answer b C14 here.]
;W[df]C[EO: Good.];B[cc]
(;W[ce]C[EO: Wrong direction.];B[dc];W[cg];B[jc]C[EO: Overplay. White is too strong in this area to invade.]

(;W[cn]C[EO: Very bad.];B[cl]C[EO: Black is very greedy ...]
;W[en];B[ci];W[fp];B[fq];W[eq]C[suicide for w.

EO: Well, depends on the continuation :-)];B[ep]
(;W[gq]C[EO: Hmm, doesn't really work.];B[fr]
(;W[gr]
(;B[er]
(;W[mr]LB[gp:A]C[I thought I was preparing for an attack on b's corner if he didn't answer

EO: Good idea, but A is very important.];B[gp];W[hp];B[fo];W[iq]
;B[hr];W[ir];B[gs];W[fm]SQ[ci][cl][jc]C[EO: Not so bad for white. The right side group is safe and black has more weak group than white, so white should not despair.]
;B[ho];W[ip];B[io]
(;W[jo]C[EO: Is it really necessary to respond?];B[co];W[bn]
;B[bo];W[dl];B[dk];W[el];B[bl];W[ek];B[dj];W[lk]C[EO: GOOD :-)]
;B[lj]C[EO: Very bad.];W[ml];B[qk]
(;W[li];B[kj];W[ki];B[kk];W[ll];B[ij];W[gj];B[il];W[hn]C[This was a mis-click for G6, and my opponent wouldn't let me take it back.  It hurt a lot.]
;B[in]C[(107) -> say please undo, that was mis-click];W[gh]
;B[fe]C[I thought this was bad for b, even though it separates w groups.  .  If b had saved k17, game was over.

EO: No, black must save the group on the right side as well...]
;W[id];B[ih];W[ed];B[fd];W[ec];B[eb];W[gb];B[fb];W[bd];B[bc]
;W[fg];B[ef]C[This got ugly for w.  But at least I connected....]

(;W[cd]C[EO: Strange move. Didn't you want to connect?];B[eg]
;W[dh];B[ee];W[eh];B[dg];W[ch];B[de]C[Probably should have sacrificed six stones for b left center.]

(;W[bf];B[ad];W[be];B[bh];W[bg];B[bj];W[ah];B[bi];W[hf];B[jg]
C[I was lost trying to find the best place to defend.  Maybe L14?

EO: Yes, I think L14 is better.];W[je];B[lg];W[mf];B[mh];W[ng]
;B[mi];W[nl];B[pk];W[nh]
(;B[ji]C[This move lost if for b. I didn't even think it was necessary locally.   Otherwise, I would have resigned soon.

EO: You are not that far behind even if black safes the group, only 5-10 points. With a good endgame you still  have a fair chance to win this game.]
;W[rm]C[EO: Finally! :-)       No more comments.];B[rl];W[sh]
C[not even necessary, I guess.];B[rn];W[qm];B[sm];W[ro];B[qn]
;W[pm];B[si];W[so];B[sg];W[rf];B[pn]C[b just in denial/death throes.]
;W[sn];B[sk];W[rj];B[on];W[nn];B[oo];W[op];B[oq];W[rq];B[nf]
;W[of];B[ne]C[(175) suzuki has resigned the game.

Not a victory I'm particularly proud of....])
(;B[rm]C[This might be it for w.

EO: Don't give up so easily.]))
(;W[bi]C[EO: Yes, this is good enough.]))
(;W[eg]C[EO: Much simpler.]))
(;W[rm]C[EO: Black is dead.]))
(;W[dk];B[ck];W[ei];B[bm];W[lk];B[rm];W[id]C[EO: The game looks very good for white now.]
))
(;W[gp];B[mr];W[lk];B[rm]C[EO: Black has two weak groups to attack now.]

(;W[ei])
(;W[id])))
(;B[gp];W[fo];B[hr]C[EO: White gets nothing.]))
(;W[gp]C[EO: Must play here. At least black is reduced at bit.]
;B[gr]))
(;W[cq]LB[dq:A][cp:B]C[EO: This is safer: A and B are miai.]
))
(;W[id]C[EO: First M9 of course :-)]))
(;W[dc];B[cd];W[de];B[cg];W[lk];B[rm];W[eh]C[EO: The white moyo is really impressive!!]
))
(;B[lk]C[EO: Even more important now!]))
(;B[lk]C[EO: All important!]))
(;W[lk]C[EO: Very important move. Double sente and gives hugh influence over the whole board. Black is in a difficult position now.]
;B[ml]C[EO: Black is forced to make bad shape.];W[ll];B[mm]
;W[ln]C[EO: This fight should be good for white. Black can't break out and therefore must live in gote.]
))
(;B[lk]))
(;B[lk]C[EO: Black should very be happy to be forced to make this move!]
)
(;B[np]C[EO: Or start attacking.]))
(;W[oj];B[pi];W[og];B[oi];W[ni];B[nh];W[oh];B[nj];W[mi];B[ok]
;W[nk];B[pj];W[mj]C[EO: One possibility.]))
(;W[oq];B[or];W[pp];B[qr];W[nq]C[EO: After this your groups are strong, so you can start attack the black stone with more force.]
))
(;W[nc];B[nb];W[mc]C[EO: Black is very low.]))
(;B[pc];W[od];B[rd];W[re];B[rc];W[qe];B[nc]C[EO: This is a very common joseki.]
))
