(;FF[4]GM[1]SZ[19]ST[0]AP[SGFC:1.14]VW[]

GN[JoeChill-Beto]
PB[Beto]
BR[12k*]
HA[0]
PW[JoeChill]
WR[11k*]
KM[6.5]
DT[2003-09-01]

C[To the GTL comentator:
Hi this game was played on IGS and was valid for the 8th amateour
GO tournament.
I am Beto and I played black with a 6.5 komi to white

I lost this game by 3.5 pts + komi

I would like a generic comment on which moves where to slow or
to timid and therefore allowed the opponent to gain this small
advantage.

Generally saying both players did not try agressive or risky
moves but preffered to develop conservatively, BUt obviously
my opponent choosed the best moves cause he won.

Tks
Roberto Petresco
IGS=Beto        12k*
KGS=Betone2 7k*

Hi Roberto,

Black plays a cautious game and just loses. I found some fuseki
ideas that might have helped Black .. some middle game moves
and certainly some endgame moves. I guess your game will improve
as you practice playing more agressively in the opening by pincering
.. and calculate the biggest moves at the endgame. Black was
very good at capitalising on the endgame mistakes white made.

Hope this all helps,

Robin];B[pc];W[dq];B[qp];W[dd];B[oq];W[pe]C[It is probably better to pincer here as it works well with the
two stones in the corner]
(;B[nc];W[ph]TR[pc][nc]MA[cf][fc][cj][do][co]C[It is not usually a good idea to attach to a weak group .. although
you get the corner you help white here .. also black   marked
stones are solid .. you could attack white by q10 .. or play
at other marked places that I think may be better than your choice]

(;B[qe];W[qf];B[qd];W[qk];B[qm]C[R7 works well for black but white gets a big move in]
;W[cj];B[fc];W[ec]C[Not a good move by white as it helps black .. best to not attach
to single stone];B[fd];W[cf];B[jc]C[Blkack gets good territory on upper side]
;W[jq];B[co]C[Essential move by black];W[cm]C[When pincered it is best to move out]

(;B[bq];W[cq];B[br];W[cp];B[bp];W[do];B[bn];W[cn];B[bo]C[This is the problem if black does not extend when pincered. White
will try to confine black to a small group and will probably
get sente too!];W[hp]C[*JoeChill*: I gave you time again
*JoeChill*: let's see what happens
*JoeChill*: :-)
*JoeChill*: do you see my move?
---> say yes now i am thinking
*JoeChill*: :-)];B[lq];W[kp];B[mo]C[White now looks ahead by quite a lot .. mostly because of black
not jumping out from the pincer];W[pm];B[pn];W[pl];B[on];W[hm]
C[f14 looks good as it limits white's moyo and builds blacks but
white can still play k15 which will seriously reduce black.

I think black needs to reduce white now see variation as a possibilty]

(;B[ff]C[White plays too low e12 better];W[dh]C[Another possibilty to build territory for black here would be
as the variation]
(;B[jg];W[kf];B[je];W[jf];B[if];W[ke];B[jd];W[ld];B[lc];W[of]
;B[rf]C[s14 is a big move];W[qg];B[md];W[me];B[ih];W[lh];B[nl]
;W[nd];B[mc];W[od]TR[ak][fb][fh][rl][rg][es][kr][nj]C[R 18 is not necessary .. there are a few big moves for black
now .. I have marked them .. my own preference would be to play
down on bottom left group as this seems the biggest area for
white];B[qb];W[oc];B[ob];W[nk];B[ml];W[mk];B[rl];W[rk];B[jj]
TR[fb][rg][es][kr]C[71 is not really big enough  .. all bigger]
;W[eb];B[fb];W[fa];B[ga];W[ea];B[hb];W[gk];B[gi];W[ej];B[kr]
;W[jr];B[bm]C[a9 is bigger];W[cl]C[White makes a mistake and blck capitilises on it!]
;B[bl];W[bk];B[es];W[er];B[ds];W[cs];B[cr];W[fs];B[dr];W[fq]
C[Black does well in the corner getting and taking points]
(;B[ll]C[s13 is bigger];W[kn];B[jm];W[jn];B[im];W[in];B[hl]
;W[gl];B[jk];W[rg];B[re];W[fh];B[gg];W[gh];B[hh];W[fg];B[ef]
;W[dg]C[h11 not necessary]
(;B[hi];W[km];B[kl];W[lp];B[mp]C[---> say trying to find a killing move ??
*JoeChill*: calculating something :-)
---> say I am terrible bad at estimating moyos
---> say so I am unsure who is winning];W[rn];B[qn];W[rm]C[---> say terrible good shot ;-(]
;B[ql];W[sl];B[ro];W[kq];B[lr];W[lj]C[White makes a mistake and Black sees it and makes the most of
it!];B[sn];W[sk];B[sm];W[il];B[jl];W[ik];B[ij];W[hk];B[pk]C[White makes another error and Black does well.]

(;W[pj];B[ok];W[oj];B[ol];W[ln];B[mn];W[kd];B[kc];W[ki];B[de]
;W[ce];B[ed];W[cc];B[fi];W[ei];B[eg];W[eh];B[fj];W[fk];B[gr]
;W[fr];B[js];W[is];B[ks];W[ir];B[lm]C[---> say now Joe the fate is very much decided althought I am
unsure who is leading
*JoeChill*: :-)
---> say we both have ony two groups in the board];W[kg]C[*JoeChill*: we both played for safety, not agressive]
;B[ri];W[qj]C[---> say true i am not good at killing groups]
;B[sg];W[sh];B[sf];W[rh];B[ji];W[df];B[ee];W[al];B[am];W[ak]
;B[lo];W[ko];B[lk];W[kj]C[*JoeChill*: it will be very close :-)
---> say i just counted and I agree It is 98 x 9? pts
*JoeChill*: I got 97 points of territory
*JoeChill*: plus one prisoner and 6.5];B[jh];W[kh]C[---> say so u won due to the komi
---> say I forgot the 6.5
*JoeChill*: you got over 90 territory too :-)
*JoeChill*: I call that close :-9
---> say I guess I have 92];B[pd]C[---> say I see no more pts]
;C[Pass])
(;W[ok];B[pj];W[ol]C[It is nothing]))
(;B[lk];W[hi];B[hj];W[gj];B[ii];W[fi];B[mj]C[Black does better]
))
(;B[rg];W[rh];B[lk];W[ok];B[kn]C[This looks ok for black]))
(;B[of]
(;W[oe];B[ne];W[nf];B[mf];W[ng];B[mg]C[Looks better for black here]
)
(;W[pf];B[oe];W[jf];B[ke]C[Also better than what happened in the game]
)))
(;B[di];W[ci];B[dh];W[ch];B[gh]))
(;B[eo];W[cp];B[bp];W[do];B[dn];W[dp];B[cn];W[en];B[em];W[fn]
;B[dm];W[bq];B[cl]C[Black is ok if whtie plays c4]))
(;B[pj]))
(;B[pi]))
