(;FF[1]GM[1]SZ[19]US[Brought to you by IGS]GN[fisch-valiant(B) IGS]
RE[W+13.5]PW[fisch]WR[8k]PB[valiant]BR[9k*]PC[IGS:  igs.nuri.net 6969]DT
[1996-06-10]TM[1200]KM[0.5];B[pd];W[dd];B[pq];W[po];B[qo];W[qn];B[qp];W
[pm];B[np]L[op][nq]C[ TT: a) or  b) more normal.];W[qj]C[ TT: TIght - one further more normal.]
;B[dp];W[fq];B[cn];W[jq];B[hq];W[hp]L[hr]C[ TT: No good - a) possible.]
;B[ip];W[iq];B[gp];W[ho];B[gq];W[jo];B[go];W[hn]M[np]C[ TT: Black's corner is quite big now, whereas white's influence is  nullified by the marked stone.]
;B[gn]C[ TT: This is not so big. There  are still some very big points on the upper side.]
;W[nq]C[ TT: This  is not so big.];B[mq]C[ TT: Ok.];W[oq]C[TT: Heavy.];B
[op];W[mr];B[pr]L[lr]C[ TT: Could also try a).];W[nr];B[pp]L[on]C
[ TT: Or a).];W[mp];B[nn]C[ TT: This is  not so big because the corner and surrounding white groups are all safe.]
;W[cq]C[ TT: Doesn't seem possible.];B[dq];W[dr];B[er];W[cr]L[bp]C[ TT: a) next will kill white (see variation).]

(;B[eq];W[bo];B[bn];W[bp]C[ TT: This is still ok  for black - it's too early to take gote for such a small corner.]
;B[kp]C[ TT: Dangerous - the surrounding white positions are too strong.]
;W[mo];B[on];W[qf]M[kp]C[ TT: The marked stone is wasted  now.];B[jp]C
[ TT: Overplay (see variation).]
(;W[kq];B[hm];W[io]L[jn]C[ TT: Has to be bamboo joint!];B[ko];W[jn];B
[kn];W[jm];B[km];W[jl]C[
 valiant 9k*: is entering byo-yomi];B[kl];W[jk];B[mn];W[ir]C[ TT: Worried about  his group, but doesn't seem justified.]
;B[hl]C[ TT: Better to  postpone the attack for the time being - there are still plenty of big points  left.]
;W[cf]C[ TT: Big!];B[jc];W[nc]C[ TT: Looks like  an overplay with the weak white centre group.]
;B[oe]L[pf]C[ TT: Or a).];W[ld];B[je];W[lf];B[kj]L[kg]C[ TT: Or a).]
;W[hk];B[gk];W[hj];B[jj];W[ik];B[gj];W[hi];B[gi];W[jh];B[kh];W[jg];B[ii]
L[hh][kg]M[pd][oe][jc][je]C[ TT: Better a) or b). If white connects all his  stones, black will have to look after two weak groups.]
;W[hh];B[fc];W[li];B[kk]L[lj]C[ TT: a) better.];W[gh];B[fh]C[ TT: More important to save the upper right  corner group.]
;W[fg];B[gg]C[ TT: Too aggressive - you will lose  sente here.];W[hg];B
[gf];W[hf];B[kg];W[kf];B[ki];W[jf]C[
 valiant 9k*: netlag on the increase];B[ge];W[he];B[hd];W[qc]C[ TT: Big!]
;B[pc];W[qd];B[lb];W[nb];B[qb];W[rb]C[
 valiant 9k*: has entered byo-yomi again];B[pb];W[ng];B[og];W[oh];B[mg]
L[mf]C[ TT:  a) would capture the black group.];W[nf];B[mf];W[me];B[ne]
;W[of];B[md];W[le];B[mc];W[lg];B[mh]C[ TT: Too greedy - black will be ahead without  killing white's centre group.]
;W[lh];B[mi];W[mj];B[ni];W[nj];B[oi];W[ph];B[oj];W[ok];B[nk];W[lj];B[pk]
;W[ol];B[pj];W[pl]L[qk]C[ TT: Or a).];B[qk];W[qi];B[rm];W[rn];B[qm];W
[pn];B[nl];W[sm]L[rk]C[ TT: Or a).];B[rk];W[rj]L[ql]C[ TT: Or a).]
;B[sl];W[sn];B[ql];W[sj];B[ro]C[
 fisch 8k : is entering byo-yomi];W[sk];B[so];W[rl];B[pf]C[
 valiant 9k*: undo

 TT: Not a ko threat.];W[nh]C[
 valiant 9k*: has entered byo-yomi again];B[ch];W[eh];B[fi];W[di]C[ TT: See variation  for black.]

(;B[eg];W[dh];B[dg];W[cg];B[ci];W[dj];B[de];W[cj];B[ce];W[be];B[cd];W[bd]
;B[cc];W[bj];B[df];W[bc];B[dl];W[bl];B[an];W[cb];B[db];W[bb];B[bh];W[bf]
;B[lp];W[lq];B[ar];W[br];B[ap];W[ao];B[aq];W[bq];B[ds];W[as];B[cs];W[aq]
;B[es];W[bs];B[qe]C[
 fisch 8k : has entered byo-yomi again];W[re];B[pe]L[rf]C[ TT: Normally black should start the ko by playing  at a) - in the present position he hasn't got any good ko threats however.]
;W[qg];B[rf];W[rd]C[
 valiant 9k*: has entered byo-yomi again];B[id];W[el];B[fl];W[em];B[ek]
;W[dm];B[cl]L[cm]C[ TT: a) is better.];W[cm];B[dk];W[bm];B[dn];W[en]
;B[eo];W[hr];B[fn];W[ck];B[fm];W[lc];B[kb];W[ml];B[om];W[pi];B[ak];W[bk]
;B[am];W[bi];B[al];W[da];B[eb];W[ea];B[fa];W[ca];B[ah];W[ai]L[ej]C[ TT: Should be a) first.]
;B[ej];W[ag];B[ra];W[sb];B[rg];W[rh];B[pg];W[qh];B[ih];W[im];B[mb]C[
 fisch 8k : has entered byo-yomi again];W[mk];B[nm];W[gr];B[fr];W[gs]C[
 valiant 9k*: has entered byo-yomi again];B[os];W[ns];B[kd];W[mm];B[lm]
;W[ig];B[ie];W[ji];B[ij];W[ll];B[or];W[bg];B[kc];W[lo];B[ln];W[co];B[do]
;W[no];B[oo];W[mq];B[qa];W[sc]C[
 valiant 9k*: just checking];B[nd];W[sa];B[tt];W[tt];B[tt])
(;B[ci]
(;W[dj];B[dg];W[eg];B[df];W[ce];B[ef])
(;W[eg];B[dj];W[gd];B[fd];W[gc];B[gb];W[hc];B[hb];W[id];B[ic];W[hd]C[ TT: Ok for black.]
)))
(;W[ko];B[kq];W[kr];B[lr];W[jr];B[lq]C[ TT: Out of liberties.];W[ls]))
(;B[bp]C[ TT: Minimise the  size of white's eye space.];W[cp];B[co];W[bq]
;B[bo];W[fr];B[eq];W[es];B[gr];W[do];B[ep];W[fp];B[eo];W[fo];B[en];W[fn]
;B[fm];W[fs];B[gm];W[em];B[dn]C[  TT: White can't break through, and he hasn't got many liberties on the inside  either.]
))
