(;FF[4]GM[1]SZ[19]ST[2]CA[UTF-8]AP[SGFC:1.14]

PB[kobe1937]
BR[6k]
PW[ecb]
WR[5k]
KM[0.5]
DT[2003-08-29]
PC[The Kiseido Go Server (KGS) at http://kgs.kiseido.com/]
RE[B+Resign]
TM[1500]
OT[5x30 byo-yomi]
RU[Japanese]

;B[pd];W[dp];B[pp];W[dd];B[fc];W[nq];B[qn];W[kp];B[fq];W[fp]
;B[gp];W[fo];B[eq];W[dq];B[iq];W[pr];B[qq];W[df];B[db];W[cc]
;B[cb];W[io];B[go];W[fn];B[gn];W[fm];B[ci];W[ck];B[ei];W[dh]
;B[di];W[gd];B[fd];W[fe];B[ge]
(;W[he];B[gf];W[ff];B[hd]C[this sequence is not good for white and maybe the point where black got ahead]
;W[gg]C[this furtehr helps black];B[hf];W[fh];B[el];W[ek];B[fk]
;W[fl];B[dk];W[dl];B[ej];W[dm];B[hj];W[hk];B[ij];W[gj];B[gk]
C[now black is on the open and there is little for white.];W[gl]
;B[hl];W[hm];B[kr];W[il];B[gi];W[pm];B[qg];W[qm];B[rn];W[rm]

(;B[lq];W[no];B[mp]C[black i s coming form the wrong side. Better to come from the right and increse the moyo that is already forming.]
;W[oo];B[qr];W[ro];B[np];W[op];B[oq];W[po];B[qp];W[qo];B[ie]
;W[bg]C[This was to look after the white group. Is it necessary, or should something have been done earlier? Black's next move felt very big.]
;B[og]C[This is probably a good move.]
(;W[qi];B[oi]C[r11 is not good because after p11 black is way ahead]
;W[ph];B[oh];W[pf];B[pg];W[qc];B[pc];W[qd];B[qe];W[re];B[rf]
C[Again not a good sequence for white. The game is really over.]
;W[pb];B[ob];W[qb];B[oc];W[sb];B[rd];W[rc];B[se];W[ra]
(;B[pi]C[There is no need for white to answer this. It canplay smoewhere else]

(;W[pj];B[qh];W[ri];B[nk];W[lk];B[mj];W[ec];B[eb];W[ic]C[how to break into the large black area? Probably I should never have let it get to this stage, but since this invasion ultimately failed, I resigned.]
;B[kc];W[kd];B[lc];W[gc];B[gb];W[hc];B[bc];W[hg];B[ig];W[jf]
;B[if];W[ih]
(;B[jg];W[ed];B[fb];W[kg];B[jh];W[je];B[hh];W[nb];B[oa];W[nc]
;B[md];W[kh];B[ki];W[li];B[kj];W[mg];B[lj];W[mi];B[le];W[lf]
;B[ld];W[nd];B[ne];W[oe];B[of];W[nf];B[me];W[jb];B[jd];W[id]
;B[ke];W[kf];B[mf];W[ng];B[lh];W[na];B[od];W[lg];B[ni];W[lb]
;B[mb];W[or];B[pq];W[nr];B[rp];W[sp];B[sq];W[so];B[rr];W[mo]
;B[lp];W[lo];B[ip];W[kb];B[mc];W[bi];B[bj];W[bk];B[bh];W[ch]
;B[ai];W[bd];B[bb];W[kq];B[lr];W[er];B[fr];W[dr];B[ma])
(;B[jh];W[jg];B[hh]
(;W[je];B[ii];W[mf];B[lg])
(;W[ii];B[ji];W[jj];B[kj];W[jk];B[lj])))
(;W[li]))
(;B[qj];W[rj];B[pj];W[lj];B[lh]))
(;W[ld]C[white need to invade now]))
(;B[pj]))
(;W[hd];B[gf];W[kc];B[jc];W[jd]))
