(;FF[4]GM[1]SZ[19]ST[1]CA[UTF-8]AP[SGFC:1.14]

PB[enough]
BR[17k]
HA[2]
PW[DaSurge]
WR[15k]
KM[0.5]
DT[2003-09-07]
PC[The Kiseido Go Server (KGS) at http://kgs.kiseido.com/]
RE[W+7.50]

AB[dp][pd]C[enough [17k\]: hello

Comment: Generally not a bad game for you. If you just stop following your opponent in the end game and read a little more life and death you will easily win more games. I have commented more during the game. If you have any questions, contact me.]
;W[pp]C[DaSurge [15k\]: hi goo dluck];B[dd]C[enough [17k\]: you too]
;W[cn];B[fq];W[dk];B[nq];W[oq];B[qn];W[rp];B[oo];W[nr];B[op]
;W[pr];B[mq];W[nc];B[qf];W[pb];B[qc];W[ne];B[og];W[jd]C[Comment: Up to now I quite like black's move. I think the moyo on the right side and the bottom is nice and generally black has done quite well.]
;B[hd]C[I don't like the direction of this move. I think extending down the side would be better and would allow a combination of an attacking move and an extention.]
;W[ic];B[hc];W[cg];B[be]C[This seems a little too territorial.]
;W[bp];B[cq];W[pj];B[qi];W[qj];B[pl]C[Nice attacking move!]
;W[rl];B[rm];W[pi];B[qh];W[ph];B[pg];W[rj];B[ni]C[Good];W[nk]
;B[ok];W[ri];B[rh];W[ql];B[pm];W[qm];B[ro];W[oj];B[nj];W[pk]

(;B[on]C[I think saving the cutting stone might be better.]
;W[ol];B[ld];W[lb];B[lf];W[kc];B[md];W[nd];B[je];W[ef];B[fe]
;W[ee];B[ed];W[en];B[fo];W[mk];B[ln];W[jq];B[jo];W[lr];B[ir]
;W[jr];B[iq];W[lq];B[lp];W[mj];B[lh];W[gg];B[di];W[ci];B[dj]
;W[cj];B[ek];W[dl];B[dg];W[dh];B[eh];W[df];B[ch];W[bh];B[gh]
;W[fg];B[eg];W[el];B[ff];W[fh];B[cf];W[dh];B[ei];W[fk];B[fi]
;W[eo];B[ep];W[fn];B[go];W[ki];B[li];W[lj];B[kj];W[jj];B[kk]
C[Well done. Excellent cutting. I means you can still kill this group.]
;W[hj];B[ji];W[ii];B[jh];W[jk];B[kl];W[jl];B[hm];W[gl];B[jm]
;W[hh];B[gi];W[qb]C[From here on you started following almost all of you opponent's move. This is what lost you the game. You could have killed the group on the right but even without that you could have won if you didn't follow you opponent so much around all the end game moves. If you even think that each time you follow your opponent you loose just one quarter of a point....]
;B[rb];W[ra]C[Bottom left coner is better or check for some sente moves.]
;B[sb];W[pc];B[rd];W[pe];B[qe];W[od];B[qd];W[hg];B[hf];W[gf]
;B[ge];W[if];B[he];W[bq];B[ih];W[hi];B[br];W[ig];B[jg];W[jf]
;B[ie];W[kf];B[lg];W[cp];B[dq];W[ar];B[do];W[ip];B[jp];W[is]
;B[hs]C[This cost you a lot. should be at point above or at one diagonal left.]
;W[hr];B[js];W[hq];B[is];W[gs];B[ks];W[kr];B[gr];W[ls];B[fs]
;W[io];B[in];W[nm];B[nn];W[mm];B[po];W[qp];B[ll];W[lm];B[ml]
;W[si]C[You can still kill this group by playing the variation. Some study of life and death I think would make you very strong.]

(;B[nl];W[om];B[sh];W[sk];B[sm];W[nh];B[oh];W[mi];B[oi];W[mh]
;B[ng];W[cr];B[dr];W[bs];B[ds];W[hb];B[gb];W[ia];B[ga];W[hl]
C[Play in the bottom right coner, Two points in sente.];B[il]
;W[ik];B[gj];W[gk];B[im]C[They way a ko is worth half a point!]
;W[gm];B[gn];W[gq];B[fr];W[bf];B[ce];W[ag];B[ae];W[so];B[sn]
;W[qo];B[sp];W[sq];B[pn];W[so];B[rn];W[mn];B[mo];W[mr];B[km]
;W[ok];B[mp];W[kg];B[kh];W[mc];B[ke];W[me];B[mf];W[ha];B[fc]
;W[lc];B[id];W[kd];B[jb]C[Very nice move!];W[jc];B[ib];W[kb]
;B[ja];W[le];B[of];W[oe];B[ch];W[bg];B[af];W[bi];B[ej];W[dh]
;B[de];W[nf];B[mg];W[gp];B[fp];W[ho];B[hn];W[hs];B[cs];W[br]
;B[co];W[bo];B[dn];W[cm];B[dm];W[em];B[sp];W[rq];B[so];W[ch]
;B[kp];W[ka];TB[aa][ab][ac][ad][ba][bb][bc][bd][ca][cb][cc]
[cd][da][db][dc][df][ea][eb][ec][ee][ef][eq][er][es][fa][fb]
[fd][gc][gd][ha][hb][ia][jn][ki][kn][ko][lo][no][np][qg][rc]
[re][rf][rg][sc][sd][se][sf][sg]TW[ah][ai][aj][ak][al][am][an]
[ao][ap][aq][as][bj][bk][bl][bm][bn][ck][cl][fl][fm][hk][hp]
[ij][iq][ir][is][js][ks][la][ld][ma][mb][md][ms][na][nb][ns]
[oa][ob][oc][or][os][pa][pq][ps][qk][qq][qr][qs][rk][rr][rs]
[sj][sr][ss])
(;B[sk];W[sl];B[rk];W[nl];B[km];W[om];B[pn];W[sm];B[rn];W[so]
;B[sn];W[mn];B[mo];W[nh];B[mi];W[ng];B[ke]))
(;B[ol];W[nh];B[oh];W[oi];B[mk];W[si];B[sk];W[sm];B[rn];W[rk]
;B[sl];W[so];B[sn];W[pn];B[po];W[on];B[nn];W[nl];B[om];W[mj]
;B[mi];W[li];B[mh];W[ml]
(;B[mg])
(;B[lj];W[lk];B[mj]C[White has too many cutting points and a dead group!]
)))
