(;FF[4]GM[1]SZ[19]ST[1]CA[UTF-8]AP[SGFC:1.14]

GN[gbohus-ryosk(B) IGS]
PB[ryosk]
BR[15k*]
PW[gbohus]
WR[15k*]
KM[6.5]
DT[2003-09-20]
PC[IGS:  igs.joyjoy.net 6969]
RE[B+28.5]
TM[60]

C[I was playing white in this game and for a while I thought things were going well. After black invaded the left side I probably didn't handle the situation well, so please comment on that as well as the fuseki in general.

I have inserted some questions later in the game.

Thanks.

Review by John Rae  3kyu UK

Generally white played cramped in the fuseki
Played thinly on the right
Picked the wrong invasion which gave black strength
Often gave up sente
And as a result had to fight to live small
Took a risk leaving a 20 point group for black to kill for most of the middle & end game

From this game I think you should make more effort to keep sente and consider a whole board view.

 I suggest you study how you/your opponent can use influence to attack thin positions. You do not judge the value of influence correctly.]
;B[pd];W[cp];B[pq];W[dd];B[ep];W[dn];B[cq]
(;W[dp];B[dq];W[eo];B[fp];W[fo];B[gp];W[dj]C[JR: White needs to play something like this to make the wall gained by the previous moves do something useful - but it gives Black sente. Which suggests to me the previous moves were bad, see earlier variation

Black looks to be expanding all over the board while white is concentrated in (part of) the left side.]
;B[fc]
(;W[df]C[JR: This makes white look even more cramped.

I'd have tried one of the variations to build a large moyo.]
;B[hd]
(;W[pj]C[I was quite happy with this so far as the left hand side looked pretty good for me. Any comments on that?

JR: Well black is spread around better. The left side can still be invaded and black has top and bottom, plus the opportunity to now develop and attack this stone.

I'd say the solid territory at the bottom gives black the edge, but you have to be happy with invading the left to see it that way.]
;B[qh];W[pn];B[np];W[jq]C[JR: This feels premature to me.

Its also picking the hardest way.  Black is safe/strong either side of this invading stone So its asking for trouble. The 2 stones to the right are very weak and R11 is looking to play under them to remove eyes on the side. 

The odds are black will get a strong position with which to tear them apart.

Perhaps OK later but now I'd either develop my group on the right or invade on the top where black is less strong]
;B[ko];W[mr];B[lq];W[lr];B[kq];W[kr];B[jp];W[iq];B[ip];W[hq]
;B[hp];W[fr];B[eq]
(;W[fq]C[Even though black now has a huge wall I think it was worth the invasion. Is that right?

JR: Well I don't think you needed F3, in fact you seemed alive a bit ago so keeping on gave more strength to black than necessary. 

The stones on the right are in big trouble now, black's influence should be worth much much more than the invasion.]

(;B[cc]C[JR: Now is the time for black to use that wall to ravage the right side]

(;W[cd]C[Shoul I have cut instead at D17?];B[dc]
(;W[ec]C[JR: The trouble with white pushing in is that black's defence is atari, white has to connect so black gets sente]
;B[eb];W[ed];B[bd];W[be];B[bc];W[fd];B[gc];W[gd]C[JR: Again this make no real threat so black can ignore it and take sente.]

(;B[ql]
(;W[qk]C[This immediately felt like a stupid move... I suppose Q8 would have been correct. Is that right?

JR: with the 2 stones being on the 4th line you are not going to capture the invader and live on the side. therefore Q8 to connect your stones seems much better. They will be adrift under the black wall but should be able to live.]
;B[pl]C[JR Black immediately tries to split white into 2 groups, which will mean that at least one of them will die( probably)]

(;W[nn]C[JR: The other group is easire to run with but Black gets a huge corner if you just sacrifice Q6. It looks a long way to run under that black cliff.

You might have tried the variation first.];B[nl];W[mm];B[lk]
;W[ml];B[mk];W[nk];B[ok];W[nj];B[oj];W[km];B[oi];W[mi];B[li]
;W[ni];B[jk]C[JR: Black is enjoying running with one group between two weak ones, this is good for Black.]
;W[kl];B[kk];W[im];B[lh];W[ng];B[pf];W[mg];B[kf];W[oh];B[pi]
;W[ph];B[qi]C[This is good. Black didn't have to defend there.]
;W[of];B[oe];W[pg];B[qg];W[ne];B[mh];W[nh];B[nd];W[me]C[I'm alive now.

JR: Yes alive but look at the territory black gained while chasing you. black also has a stronger central position from which to invade your moyo]
;B[md];W[qc]C[I screwed up the invasion but black let me live anyway.]
;B[qd];W[pc];B[oc];W[ob];B[nb];W[rd];B[re];W[rc];B[pb];W[qb]
;B[oa];W[sb]C[S19 was left open for a long time but I was sure he overlooked it so I risked not to play there until much later.

JR: Its a bad idea to risk the opponent not noticing, at any time you could lose the whole corner, which is huge.

I had the feeling that until now I was ahead (assuming the upper right group lives).

JR:  - an even better reason to make sure of that corner group before black notices :)]
;B[dl]C[Here comes trouble. At the end of this invasion the left hand side is mostly gone. Should I have been more defensive?]

(;W[fm]C[I was worried about my loose group on the 6-7-8 line...

JR: So you must have been thankful black didn't attack it first instead of playing D8?]
;B[ek]
(;W[gk]C[JR: you are pushing black into your propsective terrirory. If you don't kill these invaders you will have harmed yourself. If you're not certain of killing F11 would have been better in my view]
;B[ej];W[di];B[gj];W[hj];B[gi];W[hi];B[gg]
(;W[he]C[Is the variation better for white?

JR: See variation];B[hh];W[hg];B[ih];W[ig];B[jg];W[ie];B[hc]
;W[jc];B[kd]
(;W[le];B[ke];W[ld];B[jd];W[kc];B[id];W[ra]
(;B[gf]C[JR: Black had a better option, see variation];W[ge]
;B[hk];W[hl]C[G8 would have been better, right? I still threatens to save the two stones but I can play elsewhere next.]
;B[ik];W[fk];B[ei];W[eh];B[fh];W[ck];B[cl];W[cn];B[qo];W[qn]
;B[po];W[op];B[oo];W[oq];B[no];W[on];B[nq];W[or];B[nr];W[ns]
;B[pr];W[ms];B[bp];W[bo];B[bq];W[nm];B[ol];W[mo];B[mp];W[lo]
;B[lp];W[rm];B[rl];W[ro];B[rp];W[cs];B[gq];W[gr];B[er];W[es]
;B[fs];W[gs];B[cr];W[ds];B[bs];W[ir];B[lb];W[lc];B[mc];W[kb]
C[This was useless, I know.];B[bl];W[bk];B[jn];W[jm];B[so];W[rn]
;B[em];W[ln];B[ll];W[lm];B[gm];W[fl];B[el];W[gn];B[hn];W[hm]
C[J6 is better, I know now.];B[go];W[fn];B[in];W[sl];B[sk];W[sm]
;B[rk];W[se];B[rf];W[sf];B[sg];W[sd];B[eg];W[dg];B[dh];W[ch]
;B[eh];W[cj]C[Ugly shape and will lose some points for me later.]
;B[ae];W[bf];B[ib];W[af];B[ad];W[la];B[mb];W[qa];B[lf];W[mf]
;B[ja];W[jb];B[bm];W[ef];B[ff];W[jf];B[kg];W[fe];B[hf];W[if]
;B[ps];W[os];B[pp];W[sn];B[sp];W[ap];B[aq];W[ao];B[ak];W[bj]
;B[co];W[do];B[bn];W[al];B[am];W[aj];B[al];W[fj];B[fi];W[pa]
;B[ob];W[ic];B[hb];W[ia];B[ha];W[ka];B[fb];W[ma];B[dr];W[fs]
;B[an];W[co];B[mj];W[ia];B[hs];W[hr];B[ja];W[as];B[ar];W[ia]
;B[js];W[jr];B[ks];W[ja];B[is];W[ls];B[kn];W[tt];B[lg];TB[aa]
[ab][ac][as][ba][bb][br][ca][cb][da][db][ea][fa][fg][ga][gb]
[gh][hi][hj][ho][ii][ij][io][jh][ji][jj][jo][kh][ki][kj][kp]
[lj][nc][od][pe][pj][pk][qe][qf][qj][qk][qp][qq][qr][qs][rg]
[rh][ri][rj][rq][rr][rs][sh][si][sj][sq][sr][ss]TW[ag][ah][ai]
[bg][bh][bi][ce][cf][cg][ci][de][ee][gl][gm][hs][is][js][ks]
[mn][nf][og][rb][sa][sc])
(;B[lc];W[mc];B[lb];W[mb];B[ma]))
(;W[ke];B[je];W[le];B[jd]))
(;W[gh];B[fh];W[hh];B[fg];W[fi];B[ei];W[fj]
(;B[eh])
(;B[dh]C[JR: I think black looks better, it is necessary to defend on the left so black will connect the invaders. white suddenly has little territory]
)))
(;W[fi];B[gk];W[hl];B[hk];W[cm];B[cl];W[bj]))
(;W[ck]
(;B[fl];W[gm])
(;B[gm]C[JR: this looks a problem for white]
(;W[hl];B[gl];W[hk];B[gk];W[hj];B[gj])
(;W[gl];B[hm];W[hl];B[il];W[jl];B[ik];W[in];B[fl];W[fm];B[gk]
;W[gn];B[hk];W[hn]))))
(;W[qp]C[JR: I'm not 100% sure this will work out, but I fell ite worth threatening to live in the corner first. Peerhpas get one eye before you run]
;B[qq];W[rn]C[JR: threaten to connect the 2 groups underneath]
;B[rl];W[nn]C[JR now running seems more pleasant and Q4 looks like a point where white might threaten]
;B[nl];W[op];B[oq];W[pp]C[JR: black will worry about the cut at p3, i think its necessary to defend]
;B[nq];W[rq];B[rr];W[so]))
(;W[pl];B[qk];W[pk];B[qi]C[JR After this sort of thing white suddenly looks to have a good moyo and black does not have too much terriroty.]
))
(;B[oh]C[JR: again this might be an idea for black]))
(;W[ed]C[JR: This is no threat to black, it is not necessary to play E17, which suggest white E17 will not be much of a threat either.

Now was another chance to take sente])
(;W[ol]C[JR: What is black going to do on the top left to harm you - compared ot the damage the coming play on this side.]
))
(;W[dc]
(;B[db];W[cd];B[cb];W[ol])
(;B[cd];W[ce];B[db];W[eb];B[cb];W[ec];B[be];W[bf];B[ad]C[JR: Black looks weaker on the top, OK black took a little in the corner but again white has sente to protect the right side.]
)))
(;B[ql];W[pl];B[qj]C[Black get territory and white is adrift under the shadow of the wall]
)
(;B[oh]C[JR: Perhaps just force white to live small and build a big moyo in the top right]
))
(;W[ol]C[JR: White looks alive so take sente to protect before black invades here.]
;B[gr];W[gq]
(;B[fq];W[hr])
(;B[hr];W[fq];B[ir];W[jr])))
(;W[qj]C[JR if you think you will want to live on the side the third line is better. The 4th line is for influence and here there is nothing you can develop into real influence.]
))
(;W[hc]
(;B[cc]C[IF black had done this things would go OK, but I'm not sure black would have been so kind]
;W[cd];B[dc];W[ed];B[fb];W[ge])
(;B[fe];W[df];B[id];W[ic];B[jd];W[hd];B[he];W[jc];B[kd];W[lc]
))
(;W[fd];B[gd];W[gc];B[ed];W[fe];B[ec];W[ee];B[hc];W[gb];B[dc]
;W[cc];B[cd];W[de];B[cb];W[bc];B[bb];W[bd];B[hb];W[hf]C[This is sente becasue of h16 so..]
;B[hd]C[White gets a strong wall and sente.]))
(;W[bq]C[JR: I would prefer this route. The game followed a route which left black with solid territroy on the bottom, on the 4th line, and sente! 

White ended  up with somethnig much less solid in my view.]
;B[dq];W[br];B[hq]))
