(;FF[1]GM[1]SZ[19]US[Brought to you by No Name Go Server]GN
[gope-hira(B) NNGS]EV[None]RE[W+Resign]PW[gope]WR[3k*]PB[hira]BR[3k]PC[NNGS New York USA: ra.york.cuny.edu 9696]
DT[1996-05-21]TM[900]KM[5.5];B[pd];W[po];B[dp];W[cc];B[pq];W[np]C[I'd like to move at  upper side if I'm black.cf. var2.]

(;B[qo];W[qn];B[qp];W[pm];B[nq]C[Black's  move at O3 is unnecessary.];W
[mq]C[N4 is better than N3.If D4 is white, N3 is  effective.];B[mp]C[P3 before O5.cf. var2.]

(;W[no]C[Here, black must move at  M3.cf.var2.]
(;B[nr]C[O2 should be M3.cf. var2.];W[lq]C[M3 should be M4, even  if the shichouatari is  severe.Now, the left  side is important than the upper side, because N4  leaves white with bad  aji.cf. var2.]

(;B[dd];W[cd];B[de];W[eb];B[ce];W[fq]C[F16 is better than  F3.];B[cn];W
[dr]C[D2 should be F5 or F16.];B[fc];W[ck]C[C9 should be  E17.Against white's invasion at C9, black should  respond with boshi at E9.cf. var2.This sutuation is the most important for  black through this game. Black's next move at C11 is a cause of defeat.]

(;B[ci];W[ek];B[fp];W[gp];B[fo];W[cq];B[eq];W[gq]C[F2 is better than G3.]
;B[er];W[bo];B[bn];W[co];B[do];W[br];B[dl];W[dk];B[fb];W[ec];B[fd];W[be]
;B[bf];W[bd];B[ei];W[hk]C[H9 should be G9.];B[go];W[jp];B[gk];W[fj];B[gj]
;W[fi];B[eh];W[gi]C[G11 is not a good move.G8 or F12 must be considered first.]
;B[hj];W[gg];B[ff]C[F15 should be J12.];W[ih];B[ho];W[iq];B[ik]C[H5,J3 or K9 should  be a move at center.At this time, center is very  important.]
;W[he];B[ic];W[qf];B[je]C[K15 is a thin move.White's H17 or J16 is  a threat to black. I  recommend L12,L13 or Q14 for black's move.]
;W[jj];B[jk];W[li]C[M10 is better  than M11.];B[pf];W[pg];B[of];W[qc];B
[qe];W[qg];B[re]C[S15 should be Q17.];W[ob];B[pb]C[I can't understand black's move at 18.Your move at this time is  very  important.You should move at center, e.g. at O11.]
;W[pc];B[oc];W[qb];B[nb];W[pa];B[nc]C[At this time, although  a little too late, black should move at  O11.  This is the last chance.]
;W[og]C[After white's P13, black is hardly able to  find a winning chance.]
;B[hl]C[Black should take a chance with a move around  N11 or R8.But any one  of the moves is not so prosperous, I think.]
;W[lk];B[ji];W[jh];B[ki];W[kh];B[lh];W[kj]C[L10 should be J11 to shibori.]
;B[ii];W[lg];B[mh];W[mg];B[mi];W[lj];B[ql];W[rm];B[lm];W[ml];B[lo];W[le]
C[M15 should be O14.];B[kf];W[kg];B[lf];W[ne]C[O15 also should be O14.]
;B[nf];W[mf];B[md];W[me]C[N16 is not a  good move.];B[ng];W[nh];B[ks];W
[kr];B[ls];W[ms];B[hs];W[hr];B[is];W[gs];B[mr];W[lr];B[ns];W[ir];B[js];W
[jr];B[ms];W[hp];B[od];W[kd];B[kc];W[jd];B[oh];W[ni];B[oi];W[mj]C[Black can partially invade the right sidewhite territory e.g by  S12,  but white moves at K17 after the  right side sequence.K17 leads white to  win.]
;B[qi];W[pi];B[ph];W[qh];B[pj];W[oj];B[pi];W[ri];B[rj];W[pk];B[qj];W[rh]
;B[si];W[qk];B[rk];W[rl];B[ok];W[pl];B[rf];W[rq];B[rp];W[pr];B[op];W[qr]
;B[oo];W[nn];B[on];W[nm];B[qq];W[sr]C[Although white has won, T2 should be S1.]
;B[rs];W[sk];B[nj];W[sh];B[sg];W[sj]C[Generally speaking, you both will make  much progress, if you  understand the importance of the boardcenter. A corner move is also a center  move.I hope this will help you.]
)
(;B[ek];W[ch];B[eh];W[dl];B[fp]C[now,  Black's B15 is a big threat to both white groups.]
))
(;B[df];W[ed];B[cj]))
(;B[lq];W[mr];B[nr];W[lr];B[kq];W[kr];B[jq]))
(;W[oq];B[nr];W[no];B[or];W[lp]))
(;B[fd];W[ce];B[jd];W[or];B[ro];W[qp];B[ql]))
