(;FF[4]GM[1]SZ[19]ST[2]CA[UTF-8]AP[SGFC:1.14]

EV[2003,PANDA-NET,]
PB[Muecci]
BR[25k]
PW[levig]
WR[20k]
KM[0.5]
DT[2003-09-27]
PC[PANDA-NET]
RE[B+2.50]
RU[Japanese]
AN[Annotated by Jan-Willem Swane for the Go Teaching Ladder]


C[I'm not really sure what to ask for help on as I'm still fairly new to the game, only been playing for about a month.
So, anything you think would be helpful for me to hear please say...

*Also I'm trying to spread out more in my play, connecting and splitting territory more often, as opposed to playing linearly like many other beginners do, if you could give me any pointers on this I would love to hear them.

----

tsjanl:

Hi Muecci,

For someone who plays for a month, you played quite a good game.

In this review I try to focus on a few aspects of the game. I think that is a better way to learn than a thourough analysis (even if I could produce that). I will concentrate on the opening and the middle game, because I think there is the most ground to be made for you at this moment.

If you encounter a go-term you don't understand, you can look it up at Sensei's Library (http://senseis.xmp.net/).

I will end this review with some general remarks.

Let's go.];B[qd];W[dq];B[pq];W[dc];B[co];W[de]LB[jd:A][eo:B]
[cq:C]C[This really supprised me, I was expecting him to play E4 or try to save that corner. Was this a mistake on his part, and if so how could I have capitalized on it?

tsjanl:

I wouldn't call it a mistake. If you end in gote in the lower left, he will possibly compensate the loss there with a gain in the top left, because he will have three stones there and you none.

You have to make a choice here: react to white's move on top (A would be a good reply), or to play in the lower left (around B or C). What you choose is on our level mostly a matter of taste.

See variations.]
(;B[eo]LB[fp:A]C[tsjanl:

I think I would play at A, because it's limits the possibilities of white's stone more, but my joseki/fuseki knowledge is not good enough to be certain of it.]
;W[fp]
(;B[gq]C[tsjanl: This move I don't like. It seems that you are jealous of the territory white is getting at the bottom. You are asking white to react, and as a result, white will even get stronger there.

A better strategy is to get compensation elsewhere in return. See variation.]
;W[gp]
(;B[iq]TR[gq]SQ[co][eo]C[tsjanl:

And this is certainly bad.

The triangled stone is not important. It doesn't threathen white much (because white can always get into the corner or walk out), and doesn't promise you a lot. Trying to save that stone doesn't give you a lot.

The squared stones on the other hand are important. They can make territory in the corner or extend to D10, which are both big. Playing from these stones promise to give you the most.

See variation.];W[hp];B[ep]C[tsjanl:

This is called a 'thank you move'. You are forcing white to play a move he already wanted to play. In a way he is getting it for free.]
;W[eq];B[cq];W[dp]
(;B[cp]LB[ep:A][eq:B]C[See variation for a further illustration why the exchange A-B has been bad for you.]
;W[do];B[dn];W[hq];B[jp]LB[oc:D][jd:B][cj:A][pk:C]TR[eo][ep]
C[tsjanl:

When you have to decide in the opening which move to play, ask yourself these three questions:

- Do I have a weak group? If yes: defend it.
- Does my opponent have a weak group? If yes: pressure it.
- Otherwise: play a big move.

J3 is not important. Like G3 earlier it doesn't threathen white and doesn't promise you a lot of profit.

The marked stones are more important. But I do believe they are not important enough at this moment.

White doesn't have weak groups, so I think it's time for a big move. I have marked some for you.]
;W[jc]C[Would splitting 4 and 22 by playing G17 be a good response to this or would it have been, as I thought, too risky?

I'm not really good at effecting the flow of the stones yet so not quite sure how to attack that top corner.

----

tsjanl:

First: see how white is the first to take a big point.

G17 would be a very bad idea at this moment. It doesn't threathen white really: D17/15 are strong and K17 can extend to N or even O17.

On the other hand you are creating a weak group. White can attack that group. While you defend, white will get stronger.

See variation.]
(;B[oc]LB[cj:D][dj:C][pk:A][qk:B]C[tsjanl:

Good! I have marked some other ones.

I think I would have played A, but that's a matter of style.]
;W[qj]C[tsjanl:

White knows his lesson: if your oponent plays the corner enclosure, a play at the extension point is almost always big.]
;B[qh];W[qm];B[qo]LB[cj:B][dj:A]C[tsjanl:

I don't think this is needed at this moment. You can defend the corner against a white attack. A or B would be bigger.]
;W[cj]TR[jc][qj]C[tsjanl:

Again, white takes the chance. Do you see the difference between whites upper left and your upper right. Because you have allowed white to take all the three marked points his corner is a lot wider and yours seems a bit cramped.

The opening has been a success for white.];B[dg]C[tsjanl:

Good timing!

White is threathening to make a huge territory in the upper left. Now that opening is finished this seems to me the moment to invade.]
;W[gd]C[tsjanl:

This could very well be the move that wins you the game. White puts far too little pressure on your stone. He should chase you to the center, while sketching out territory at the same time for himelf.]
;B[kc]LB[lc:A]C[tsjanl:

This is bad for two reasons.

Firstly: you started an attack that became even forcefuller because of white's weak reply. Now it is the time to continue it. Otherwise, you would have played D13 for nothing. Note that white's C10 could become weak.

Secondly: it is bad to attach when you are attacking. You only ask white to react and get stronger. So if you want to play in this area, a move like A would be a lot better.]

(;W[ch]C[tsjanl:

White plays strange moves. When an important lone stone is attached, you should react. See variation.]

(;B[cg]C[tsjanl: Now that white didn't react, you also could consider playing at the top. See variation.]
;W[en]C[tsjanl: Again a poor decision by white. Although this move is big, defending the corner with a move like C15 is urgent. (Remember: urgent moves before big moves).]
;B[dm]
(;W[fo]C[tsjanl: Not needed, see variation.];B[cd]C[tsjanl: Good.]

(;W[dd]C[tsjanl: I do believe this is needed. But it is a very big loss to white. Especially when you consider he took two moves to capture two black stones.]
;B[ce];W[bl];B[bm];W[cl];B[dl];W[cm];B[bn]C[tsjanl: Why not connect. OK, white could capture B7, but this way you are loosing your important way into the center, because you have to defend at C6 anyway.]
;W[dk];B[cn];W[ek]C[tsjanl: White has secured his C10 group, and you have practically no way to get into the center anymore. A big loss.]
;B[al]LB[jd:B][mp:A]C[tsjanl: These moves are far too small at this moment. A looks urgent to me at this moment, while B still is very big.]
;W[bk];B[ak];W[aj];B[am];W[cc];B[bc];W[bb];B[ac];W[ab];B[bd]
;W[cb]C[tsjanl: Not needed.];B[bh];W[bi];B[ah];W[ai];B[dh];W[ci]
;B[bg];W[ei];B[fe];W[fd];B[ef];W[jj];B[em]LB[jj:A][mp:B]C[tsjanl: Again, this is far too small. Now that white has played A, a move around B becomes even more urgent.]
;W[fm];B[gn];W[fn];B[in];W[hr];B[ir];W[mo]C[How would you have responded to whites attack at N5? I got scared and just played passive. Was this a good or bad decision?

tsjanl: 

You should have prevented this long ago. On the other hand, you are lucky, because white reduces on the fifth line, instead of invading on the fourth line. Because he has played K10, he could escape to two sides, and that woud be very difficult to stop.

And because he plays his stone high, just defending is the good move. It gives you more territory at the side than white can hope to get in the center.]
;B[mq];W[on]
(;B[ok]C[tsjanl: Again, this is a jealous move. What if white plays P11?  Your P9 stone will have a very difficult time and white can  walk into the upper right. See variation.]
;W[jd];B[if]C[tsjanl: L16 would be bigger.];W[kd];B[lc];W[ld]
;B[nc]LB[md:A]C[tsjanl: too timid. A is the move.];W[kf];B[ih]
LB[nf:A]C[tsjanl: there are more points for you waiting on the right. A play around would be bigger.]
;W[nf];B[me]C[tsjanl: an overplay. what if white plays N16?]
;W[mf];B[md];W[le];B[oe];W[of];B[pf];W[pi]C[tsjanl: Finally a move around here. 

Now the territories are sketched out. My comments after this will be more concise, because I think you can learn most at this moment in the opening and early middle game.]
;B[og];W[ie];B[he];W[hd];B[gf]C[tsjanl: you will see later that this is bad shape.]
;W[jf];B[jg];W[kg];B[df];W[mk];B[oi];W[nj];B[pn]LB[oj:A]C[tsjanl: White offers you to connect at A. Grab that opportunity.]
;W[pm];B[nh];W[oj];B[ph];W[ni];B[lh];W[kh];B[oh];W[qn];B[po]
;W[mm];B[ij];W[ji];B[ii];W[jh];B[ig];W[gj];B[eh]LB[fh:A]C[tsjanl: A would be better.]
;W[fi];B[fh];W[gh];B[hi]C[tsjanl: this doesn't help. White just connects.]
;W[gi];B[gg];W[np];B[nq];W[op];B[pp];W[oq];B[or];W[oo]
(;B[ro]C[Hum, I wonder why i didnt play S6 here.

tsjanl: S5 isn't bad. See variation.];W[rn]C[tsjanl: Compared with the variation white wins one point, but now you can choose a big point.]
;B[kn];W[jk];B[ik];W[jl];B[lm];W[li];B[lg];W[lf];B[mi];W[mj]
;B[mh];W[ll];B[km];W[kl];B[il];W[gm];B[jm];W[ri];B[qi];W[pj]
;B[rh];W[rj];B[fl]C[tsjanl: this doesn't help you.];W[gl];B[el]
;W[fk];B[hk]C[tsjanl: this is not important. White doesn't even have to answer, because both white groups are alive.]
;W[hn];B[ho];W[go];B[io];W[dr];B[cr];W[jb]C[I wonder if I should have played out all my sides so I wouldnt have lost all the territory I did in this game.

tsjanl: there are a lot of defects in the endgame of both players. But I do think that concentrating on the opening and the middle game is the most important for you at this moment.]
;B[kb];W[lp]C[How should I have responded here?

tsjanl: Just play M3. White will have won one point then.];B[mp]
;W[lq];B[lr]LB[lo:A]C[tsjanl: I think A would be possible.]

(;W[mr]C[tsjanl: White misses an important opportunity here. (See variation)]
;B[nr];W[kr];B[ms];W[jr];B[lo]LB[lo:C][kq:B][is:A]C[tsjanl: A is better. White can't defend B and C at the same time.]
;W[is];B[kq];W[jq]
(;B[kp]LB[ip:A]C[tsjanl: A is better. See variation.];W[ip]
;B[mn];W[nn];B[no];W[nm];B[mo];W[cs];B[bs];W[ds];B[ar];W[hm]
;B[im]C[tsjanl: Not needed. Both groups are alive.];W[ka];B[la]
;W[ja];B[mb];W[sh];B[sg];W[si];B[rg];W[so];B[sp];W[sn];B[rq]
;W[ee];B[ge];W[hh];B[hg];W[di];B[ks];W[js];B[ls];W[ne]C[Err, probably should have closed that off earylier instead of playing where I did at move 225.

tsjanl: Yes, playing O15 at 225 would be a bit better. But now you have a better answer too, see the answer.]

(;B[od];W[nd];B[mc]TW[aa][ba][ca][da][ea][fa][ga][ha][ia][db]
[eb][fb][gb][hb][ib][ec][fc][gc][hc][ic][ed][id][je][ke][ki]
[bj][dj][ej][fj][kj][lj][sj][ck][kk][lk][nk][ok][pk][qk][rk]
[sk][ml][nl][ol][pl][ql][rl][sl][om][rm][sm][gn][eo][ep][fq]
[gq][iq][er][fr][gr][ir][es][fs][gs][hs]TB[ma][na][oa][pa][qa]
[ra][sa][lb][nb][ob][pb][qb][rb][sb][pc][qc][rc][sc][ad][pd]
[rd][sd][ae][be][pe][qe][re][se][af][bf][cf][ff][hf][qf][rf]
[sf][ag][eg][fg][pg][qg][an][jn][ln][ao][bo][jo][ko][ap][bp]
[lp][qp][rp][aq][bq][lq][qq][sq][br][mr][pr][qr][rr][sr][as]
[ns][os][ps][qs][rs][ss]C[Barely won that one (by 2.5), though would have lost had their been komi. I saw alot of blatent mistakes like leaving the edges of my territory unplayed that cost me a few in this game.

Any comments on any aspects of my game would be greatly appreciated, and once again thank you for your time.

tsjanl:

Let's recapitulate.

After the opening your position was bad. The main reason was that you gave white the opportunity to get a lot of the big points.

But then played a good timed invasion. Weak play by white gave you a lot of opportunities.

Later in the middle game you failed too see where the most profit was to get for you: in the upper right. That made it a close game again.

In the end you made some costly endgame mistakes, that nearly cost you the game.

I would advise you the following things:

- Play through this game again and concentrate on two things:

-- In the opening, try to see which are the urgent moves (that you have to play at that very moment), and the big moves (that you have to play when you get the chance).
-- In the middle game: try to see where the biggest opportunities are for both players to create territory, and which moves would help with creating your own, or destroying the chances of the opponent.

- Try to concentrate in the next few games on the afore mentioned points and see if your game gets better by it.

- Also, try to change your state of mind while playing. Don't be jealous. Your opponent will get territory, just create more than he does.

- Next time you sent in a game to the GTL, sent a game you lost. You will learn more from it.

- If you have the impression you got a bit better in the opening and the middle game, sent in a game and ask for help with the endgame.

It was a pleasure to make this review. You played a good game for someone who plays for a month, and I think you will grow fast. And remember: the most important is to enjoy the game.

Jan-Willem])
(;B[nd];W[pe]C[tsjanl: Further attempts by white don't succeed.]
;B[od];W[qf];B[pg]
(;W[rf];B[qe])
(;W[qe];B[pd];W[rf];B[rd];W[sf];B[se];W[mg];B[re];W[ng];B[qg]
)))
(;B[ip];W[kp];B[ko]
(;W[kq];B[js];W[ks];B[ls];W[js];B[hs])
(;W[hs];B[kq])))
(;W[pr]
(;B[qr];W[nr])
(;B[nr];W[qr]C[tsjanl: and black's corner can get a difficult time.]
)))
(;B[rn]C[tsjanl: If you play S6];W[rm]C[tsjanl: white can close off his territory in sente.]
))
(;B[oh]C[tsjanl: what about this?];W[oj]C[tjanl: white will probably defend.]
;B[jd];W[ic];B[je]C[tsjanl: and your upper right is starting to look huge.]
))
(;W[ce]C[tsjanl: this variation doesn't tell the whole story, but it gives an impression what could happen if white blocked this way.]
;B[be];W[bf];B[bd];W[cf];B[dd];W[ed];B[ec];W[eb];B[ee];W[fc]
;B[bg];W[ef];B[df];W[fe];B[af];W[ee];B[cb]))
(;W[bf];B[fo];W[fn];B[go];W[hn]C[tsjanl: And black cannot escape. This is called a net (geta).]
))
(;B[jd];W[ic];B[je]C[tsjanl: White's prospects in the top left quarter of the board are diminished a lot, while you got stronger in the top right.]
))
(;W[jd]C[tsjanl: A powerful move. Black almost is forced to react, because  W L16 would be very big.]
))
(;B[gc];W[ie];B[ge];W[od]C[tsjanl:

Who has gained here?]))
(;TR[ep][eq]C[tsjanl:

Let's assume you wouldn't have exchanged the marked stones...]
;AE[ep][eq]TR[eo]C[tsjanl:

The marked stone has more liberties now than in the game.]PL[B]
;B[cp];W[do];B[dn];W[en]C[tsjanl:

And now this isn't atari]))
(;B[cq];W[cr];B[dp];W[eq];B[bq]C[tsjanl: Getting into the corner is still big.]
))
(;B[cq]C[tsjanl: You still could get into the corner.];W[cr]
;B[dp];W[eq];B[bq];W[jp];B[dj];W[jd]LB[br:A]C[tsjanl: The result is about equal. Later you still have the big sente move A.]
))
(;B[jd]LB[dc:A][jc:E][jd:D][ce:C][de:B]C[When a player has the corner enclosure A-B or A-C, D or E are a perfect extension. Therefore reacting at those points is very good in general.]
;W[ck]C[One good strategy for white could be to pincer, because the played stone works nicely with his stones in the top left.]
;B[dp]C[Something like this could happen.];W[eq];B[cq];W[cr]
;B[bq];W[hq]C[White has more secure territory than black, but black can compensate that with his influence on the right.]
)
(;B[cq]C[You could also try to get territory in the corner.]
;W[cr];B[dp];W[eq];B[bq];W[iq]
(;B[dj];W[jd]C[You end in gote and white takes the big point at the top.]
)
(;B[jd]C[You could take the big point at the top. This looks a lot like the variation starting with K16. The difference is that white hasn't played C9. Because he has sente he can choose to play elsewhere, for example at Q10.]
)))
