(;FF[4]GM[1]SZ[19]ST[2]CA[UTF-8]AP[SGFC:1.15]

GN[fredb-ryanb-20030912.sgf]
PB[Ryan Bates (ryanb)]
BR[27k]
HA[6]
PW[Fred Bremmer (fredb)]
WR[21k]
KM[0.5]
DT[2003-07-01,09-12]
PC[Dragon Go Server: http://www.dragongoserver.net]
RE[W+99.50]
RU[Japanese]
GC[Game ID: 27506]

AB[dd][pd][dj][pj][dp][pp]TR[de][pe][df][pf][dg][pg][dh][ph]
[di][pi][dk][pk][dl][pl][dm][pm][dn][pn][do][po]C[Thank you for reviewing this game.

My rank at DGS is probably fairly accurate. I've been playing several opponents, and my rank has been improving from 25 kyu to 19 kyu over the last few months. Ryan doesn't play any other opponents online besides me, so I'm not sure what his rank should be. We just try different handicaps and hope for a good game. My previous game against Ryan at this same handicap level was close -  it was almost tied on the board and I would have won by only the 0.5 komi, but Ryan overlooked a double atari at the end and I won by 7.5 instead. Our current game has a 9 stone handicap and I'm losing badly.

I've looked through this game record myself, but I'm not sure what advice I should give Ryan to help him improve his game. Earlier I recommended that rather than starting contact fights against white stones, he should try to loosely surround and separate White without giving me the chance to stabilize through contact moves. Maybe he played a bit too loosely in this game, and that's why I could divide and surround his stones on a large scale.

Please write comments on both the Black and White moves, and point out whatever big mistakes or missed opportunities you see. I've added comments about what I was trying to do with my moves. Some are obvious, but please let me know if I'm accomplishing what I think I am, or if there's a better move to do the same thing.

Thanks again, -Fred


R> Hi, I also play on DGS (as chrisg67)

I've tried to point out some alternative plays for B and W here, it's quite tricky to do both at once so please bear with me :-)

OK, for B in a handicap game you get some stones to start with, what is important is to see them as a whole think of the lines of connection between them as ways of using them together.

For W your purpose is to destroy these lines - split groups apart  attack them hoping that somethnig will drop off, or you can make sufficient outside influence to take a large territory.]
PL[W];W[nc]C[R> Usually a good place to start - the biggest open side.]

(;B[qc]LB[pf:A][qf:B]C[R> Is playable, but small - B needs to make his stones work together, 'A' is a fairly normal repsponse and keeps the B stones working together

In fact in a handicap game I would _recommend_ that you play 'A' or 'B' it helps join your stones together.

Playing R17 is a move that helps Q16 live on it's own, and doesn't put any pressure on W]
;W[fd];B[cf]C[R> This is better, compare what happens at the end of the game in these two corners]

(;W[fp]LB[jd:A]C[I always scatter my White stones near each corner at the beginning of handicap games so I can come back to them later and try to develop them in combination with the rest of the board.

R> As long as B plays submissively this strategy should work for you, but what if B plays K17, or K18 next, where would you play? My preference in this situation would be to play perhaps K16, and let B take K4

OK you loose the initiative, but you are gaining some strength to run to with your weak groups]

(;B[eq]C[R> This is usually a good move, *if* B has a stone around K4, but in this circumstance ...]
;W[fq]C[In response to a contact move by Ryan, I strengthen my stone and build a tiny wall facing an open area along the bottom.]

(;B[jp]C[R> ... Interesting, good move ... works well with 4, and challenges F4 to a fight]

(;W[hp]C[I've seen this in pro games, so I guess it's a good way to stake out a little eye space and access to the center.

R> yes, and some usual responses follow in the variations]
(;B[ec]LB[lc:C][cn:F][dn:B][mp:D][iq:A][mq:E]C[R> As B I would probably play one of the marked variations, this move only helps W make a move he wants to make

'A' because it puts pressure on H4 etc
'B' or 'F' because it reinforces the left hand side, allowing it to take on huge proportions
'C' because it threatens O17
'D'or 'E' because it balances K4, whcih is close to W's strength]
;W[fc]C[Again I strengthen my stone in response to a contact move, but this time I've already got a stone at O17 across from my mini-wall.

R> B making contact moves only helps W, this is a thankyou move - B forced W to make a move that he wanted to play.]

(;B[qq]TR[lc][pf][qf][cn][pn][qn][np][nq]C[R> B seems to be more concerned in local strength. Ryan you need to make your stones work together, R3 may take the corner, but ... there's a long distance between Q4, and Q10, similary for Q16.

I would prefer any of the marked places.

Also consider that Q4 isn't under any immediate threat, and moves like R3 are really emergency measures.

It looks like you're on your back foot throughout this whole game]
;W[lp]C[A pincer against K4 to prevent Black from getting a double wing from the lower right corner.

R> Well there's two pincers here M4 is also in a pincer]
(;B[ko]C[R> interesting, but slow and a contact move];W[lo]
C[Again, responding to his contact move.

R> Again B is playing on W's side :-)];B[kn];W[mm]C[Trying to maintain access to the center and avoid getting surrounded inside the lower right corner.

R> Good move, though be wary of the cut];B[om]C[R> Also a good move, though R7 is safer]
;W[ne]TR[do]C[Making a bigger wall opposite my mini wall, and threatening to enclose the upper right corner.

R> And making a ladder work, but still too loose, W has lots of weak groups and nowhere to run to.

B should leap at playing K16 ASAP];B[jd]C[R> Excellent - someone needed to play here, now W has two weak groups at the top]
;W[jf]C[Capping in an attempt to surround K16, or at least make a useful wall if he runs out.

R> Shouldn't work. Even if you get the wall you want, B has undermimed your territory, and you might not even live in that area.]

(;B[hg]C[R> That was a good invasion, but B just gave up too quickly :-(]
;W[he]C[Closing the net.

R> B can still run out at M15, perhaps K16 will die, but it will still be sufficient to reduce W's territory]

(;B[ff]C[R> Good , but can still run out at M15]
(;W[gm]C[Another move copied from pro games. I'm running my lower left group out to the center, and starting to surround the L6 group.

R> This is certainy joseki, but ... D5 looks interesting too, B has omitted D6.]

(;B[km]C[R> a tad slow, L8 should be possible];W[lk]LB[le:G]
[qg:E][jk:C][il:B][cm:D][km:A][mn:H][nq:F]C[Staying ahead as he runs.

R> These knight moves are all very well, but they can be cut. The cut relies on a ladder, which works for B

B has the next move, so lets have a look at the biggest areas on the board

The Stones at A are in trouble, so a move at B or C is quite big in the current running fight

D would help reinforce the left side

E would do the same for the right

F would put some pressure on the M4 group

G would help to rescue K16, or reduce W's top area

H would cut W apart at the bottom... though with the 'A' stones in danger this doesn't look so hot.]

(;B[gk];W[il]C[Closing the net.]
(;B[ij]C[R> It looks like B is too willing to believe that W has killed his stones]
;W[jk]C[I start a contact fight and seal the connection between my two groups.]
;B[jj];W[kj]C[Use the Tiger shape connection to reach toward my group at the top.]

(;B[kh]TR[pf][qf][cn][dn]C[R> This doesn't do much, B needs to think about reinforcing his territory now, any of the marked moves would be good]
;W[lf]C[Close the gap.];B[og]C[R> Again very high like P7, S13 make look submissive, but is more solid]

(;W[cn]C[Invade the largest open area on the board, and isolate the lower left corner.]

(;B[dn]C[R> Another contact move, this doesn't look good for B

Try something like C4, or F2

Or more importantly, try and connect this stone out earlier, you had a few moves in the centre where you could easily have played D6 sooner]
;W[dm];B[em]
(;W[en]C[Punish the double hane.

R> The double hane was an overplay, but ... so's the punishment, see variation]
;B[do];W[el]
(;B[co]C[R> See variation];W[fm]C[Not sure what I would have done if he hadn't allowed me to connect here.

R> So the "punishment" wasn't that good ;-), and c6 can still be chopped off]

(;B[mi]C[R> This move doesn't make any territory for B, or cause any trouble for W, making these moves just gives your opponent a free choice where to play next]
;W[oq]C[Jump into another large open area and stake out eye space in case I'm cut off here.

R> and this breaks the ladder, but not really a large open space,  B 10 or R7 look interesting]
;B[no];W[of]C[Going on the offensive to strengthen my stones and reduce Black's side territory.

R> O5 was sente for B see variation]
(;B[pf];W[pe];B[qe];W[oe];B[qf];W[ng];B[oh];W[qk]C[I don't have much experience invading and making a living group, so I decided to practice here. Since Black is on or above the fourth line, I thought I might have enough room to do it.

R> Looks like a reasonable start, yes B played too high with P7 and P13, would you have tried invading if they were at S7 and S13?]
;B[nk];W[qn]C[Can this White group be killed?

R> I wouldn't say it was alive just yet]
(;B[mp];W[mq]C[Staying connected.];B[lc]C[R> A little late for this, you needed to continue with your invasion earlier]
;W[ib]C[Stealing eye space from Black];B[jb];W[ic]C[Responding to a contact move by strengthening my stone.]
;B[jc];W[mb]C[Removing more eye space.];B[lb];W[md]C[Staying connected.]
;B[ld];W[ke]C[Trying to make two eyes impossible.];B[kd];W[ka]
C[Killing move.];B[qo];W[ro]C[Attached, think outside hane. I'm welcoming these contact moves to help me stabilize my stones.

R> Yes, B should avoid making contact moves - they do exactly the opposite of what you expect. They don't damage your opponent, they reinforce your opponent - by forcing them to ad stones, thereby gaining liberties]
;B[rp];W[rn];B[po];W[pn]C[Building a nice wall and threatening to cut Black's stones.]
;B[on]
(;W[qj]C[Expanding my eye space.

R> See variation];B[qi];W[ri];B[rg];W[qh]C[Pounce on the weak stones in this contact fight.]
;B[pi];W[rh];B[oc];W[ob];B[pb];W[od];B[pl];W[ql];B[pr];W[mo]
LB[fb:B][bk:A][fr:C][or:D]C[Using sente to patch up my weaknesses

R> Not really sente, B stands to loose 1 stone, B can play at any of the marked points, and I'm pretty sure you'd respond to at least B, C or D.

B could even catch B6]
(;B[np];W[bn];B[bo];W[pc]
(;B[qa]TR[qd]C[R> Best for B to connect, or make a ko threat ... R19 doesn't do either]
;W[qd];B[rc]C[R> Ouch, B must try to stay connected];W[rd];B[sd]
;W[se];B[sc];W[re];B[rb]C[R> Life, but small... compare this to the variation of connecting at move 100]
;W[pg]C[Couldn't kill the top corner, so I cut off these stones.]
;B[nq];W[mr]C[Making my borders more solid.];B[nr];W[ms]
(;B[ns]LB[bk:A]C[R> O1 not necessary, there are bigger fish to fry still]
;W[kq]C[R> Good, but ... M3 is more solid - leaves less ko threats]
;B[fr];W[gr];B[er];W[bj]C[Maybe over-reaching a bit?

R> Not really, but don't expect to hang on to B/C 6];B[ck];W[bl]
;B[bk];W[ak];B[bi]
(;W[jh]C[Trying to connect my groups, and/or capture some black stones.

R> No point in trying to connect your groups if they're both alive

There's no real territroy left in that area of the board, C17 for W or F18 for B look like the biggest moves left
see variations]
(;B[ih];W[ki]
(;B[ji]TR[ij][jj]C[R> This move only damages B, making the famous empty triangle ... how many liberties has it got now?
how many before this move?

Avoid making the empty triangle it is naturally short of liberties, without the W stones around it it has 7 liberties, whilst 3 stones in a line have 8 liberties. It doesn't sound much, but every liberty ocunts in a fight.]
;W[jg];B[lh];W[eb]C[Expanding.

R> 3-3 is possible];B[db];W[ed]C[Reaching around for a possible push into the center.]
;B[dc];W[ej]C[Reaching in to reduce Black.

R> Good to leave F18 for now];B[ei];W[fj];B[fi];W[gj]C[R> Keep an eye on that empty triangle]
;B[gi];W[hj];B[hi];W[ik]TR[ji][ij][jj]C[This worked out well for me. I got a solid border, captured a stone, and kept sente.

R> All because of an empty triangle];B[ii];W[mk]C[I was worried about the connection to my  N5 stones.

R> As an exercise try and break that connection, without N9 in place]
;B[nh]
(;W[mg]C[R> Submissive, can play elsewhere];B[ee]C[R> Good move, you need to start thinking about these sorts of moves earlier Ryan.]
;W[fe]C[I couldn't jump into the center here, but I could connect and strengthen my stones. I was well ahead and just playing it safe.]
;B[gf];W[hf];B[fb];W[gb];B[ea]C[R> Note how F18, G18, E19 changed sente from B to W here.]
;W[nl];B[ok];W[ig]C[R> ? This doesn't do anything P8 is much better]
;B[gg];W[dk];B[cj];W[aj];B[ai];W[al];B[cl];W[cm];B[an];W[bm]

(;B[ao]C[R> Ryan - at this point you're getting caugt up in the fight "I must catch those stones", but right now you can't
A5 doesn't demand an answer from W, so W can play else where.

More importantly in pushing these stones your own stones are running out of liberties, you should really have protected at C11 instead of A5.]
;W[dl]C[I set up a chance to atari at C11 and capture one of the two sides.]
;B[ph];W[qg];B[kg];W[ci];B[di];W[ch];B[bh]C[R> Name that shape]
;W[bg];B[cg];W[ah];B[dh];W[bf];B[be];W[ae];B[ad];W[af]C[This ended up doing more damage than just sacrificing the five stones at C10.

R> A5 was the move that made this problem];B[bd];W[mh];B[li]
;W[mj];B[nj];W[ol]C[I noticed that I could cut off the group above this stone, and it can't form two real eyes.]
;B[pk];W[pm]
(;B[mn]C[R> I know it looks horrible, but B could try and start a ko here, see variation]
;W[ln];B[nn];W[lm];B[ga];W[ha];B[fa]
(;W[hc]C[Maybe not necessary, but better safe than sorry.

R> Necessary, but G15 is better, see variations];B[ge];W[gd]
;B[lj]C[R> best saved as a ko therat, and even then L9 is the best way of making the threat]
;W[kk];B[eo];W[fo];B[nm];W[ml];B[oa];W[na];B[pa];W[fs];B[es]
;W[gs];B[so];W[sn];B[sp];TW[ia][ja][la][ma][hb][jb][kb][lb]
[nb][gc][jc][kc][lc][mc][oc][hd][id][jd][kd][ld][nd][pd][ie]
[je][le][me][qe][if][kf][mf][nf][pf][qf][rf][sf][ag][kg][lg]
[og][rg][sg][bh][kh][lh][nh][oh][ph][sh][ai][bi][li][mi][ni]
[oi][pi][qi][si][lj][nj][oj][pj][rj][sj][ek][fk][gk][hk][nk]
[ok][pk][rk][sk][fl][gl][hl][jl][kl][ll][pl][rl][sl][em][hm]
[im][jm][km][qm][rm][sm][fn][gn][hn][in][jn][kn][go][ho][io]
[jo][ko][gp][ip][jp][kp][gq][hq][iq][jq][lq][hr][ir][jr][kr]
[lr][hs][is][js][ks][ls]TB[aa][ba][ca][da][ra][sa][ab][bb][cb]
[eb][qb][sb][ac][bc][cc][cd][ce][de][df][ef][dg][eg][fg][eh]
[fh][gh][hh][oo][ap][bp][cp][op][qp][aq][bq][cq][dq][oq][pq]
[rq][sq][ar][br][cr][dr][or][qr][rr][sr][as][bs][cs][ds][os]
[ps][qs][rs][ss]C[White: 119 territories + 40 prisoners + 0.5 komi = 159.5
Black: 58 territories + 2 prisoners = 60
Result: W+99.5

R> Right let's see what the main points are: -

For B: -
o   Making contact moves forces your opponent to stengthen his stones,
     so is not normally a damaging way of attacking. 
     There is a proverb - "attack from a distance" which covers this quite well
o   Making inefficient shapes (empty triangle), is an easy way to loose a fight.
o   In a fight situation don't automatically atari, and be aware of making moves
     which give your stones less liberties.
o   You made some good invasions in this game, and then were all too happy 
      to give them up. If you're going to invade  ... have faith in yourself and continue
      down the road you've started - pull those stones out - don't try and let them 
      live on their own.
o   The player with the most groups is the player most likely to loose a group 
     (you can't defend everywhere at once).
      - Connect your stones together
      - Keep your opponent's stones apart (where possible)

For W: -
o  Keep an eye on the 3-3 point for invasions - learn one or two ways of invading 
     at the 3-3 point.
o  Be aware that the knights move can be cut, and that it involves a ladder.
o  Atari does not mean sente, your opponent can give a stone or three up to make 
    more points elsewhere.
o  Don't make lots of weak groups at the outset of a game, you'll eventually end up
    playing lots of defensive moves.

For both: -
Enjoy your games :-)]N[RESULT])
(;W[ge];B[gc];W[hb];B[id];W[hd])
(;W[tt]C[W plays elsewhere - I hit pass];B[gc];W[hb];B[ge];W[hd]
;B[gd]))
(;B[nm];W[ml];B[mn];W[ln];B[lm];W[nn]LB[ge:C][je:D][kk:A][lr:B]
C[This ko looks good for B, he has good local ko therats at 'A', and 'B', and other threats at marked places]
))
(;B[ci]))
(;W[nl];B[ok];W[ol]C[Now B is in trouble he can't connect, and the upper group hasn't enough space to make 2 eyes]
))
(;B[ik]TR[ij][jj]C[Better than the empty triangle is the full triangle.. how many liberties? and will W answer this move?]
;W[jl]C[what happens if W doesn't connect here?])
(;B[hj]C[even here is better than K11]))
(;B[fb];W[gb];B[eb]C[3-3 invasion is no longer an option for W]
))
(;W[cc];B[cd];W[eb];B[db];W[dc];B[cb];W[ed];B[bc]C[This is joseki]
))
(;B[bk];W[cl];B[fb];W[gb];B[eb]))
(;B[qd]C[this is esse];W[qb];B[rb]C[this makes R18 gote, so ...]
;W[pa];B[bk]C[Black can play something like this... taking territory *and* making a threat]
;W[cl]C[It's still black's turn])
(;B[ml]C[ko threat];W[ll];B[oc]))
(;B[cm];W[bn];B[bm];W[bo];B[bp]))
(;W[ri]C[This does a better job]
(;B[qj];W[rj])
(;B[rj];W[qj])))
(;B[rm]C[This looks like a reasonable way for B to start killing the 2 stones]

(;W[rn];B[qm];W[pm];B[pl];W[pn];B[ql])
(;W[qm];B[rn])))
(;B[mn];W[ln];B[lm]C[Looks like W is in trouble here - try it out as a problem :-)]
))
(;B[cm];W[bn];B[bm];W[bo];B[bp]))
(;B[cm];W[dl];B[bn]C[Now B has probably done quite well]))
(;W[do];B[en];W[eo]C[This would be better for W];B[co];W[cp]
;B[bo];W[bp];B[bn];W[dq]C[compare this to when B plays properly at move 44]
))
(;B[cp];W[er];B[dr]))
(;W[rj];B[rl];W[qg]C[W can cause trouble in here]))
(;B[dn])
(;B[pf]))
(;B[kk]C[B can escape like this];W[kl]C[This might look like it will work, but ...]
;B[ll];W[jl];B[lm];W[ml];B[mn];W[ln];B[mk]C[B can still make it through]
;W[lj];B[nl]))
(;B[jk];W[gk];B[ji])
(;B[cm];W[pf])
(;B[qg];W[do];B[co])
(;B[nq];W[lq];B[jk];W[hk];B[ji]C[This is my favourite])
(;B[le];W[ng];B[lg];W[pf];B[jh]))
(;B[kl];W[km]C[if w tries to cut ...];B[lm];W[jm];B[ln]C[can now go up (N8, or right N6)]
))
(;W[do];B[eo];W[ep];B[dq];W[en]C[the ladder works now]))
(;B[le]))
(;B[ie]C[R> This should be enough to escape. Remember having a presence here prevents W from having a  large territory at the top]
))
(;B[jn]C[Jump out into the centre is the fastest way to escape.]
))
(;B[pf]C[For example here, If you're afraid of the R3 invasion, don't be, watch...]
;W[qq];B[qp];W[pq];B[oq];W[or];B[nq];W[nr];B[mq];W[rp];B[ro]
;W[rq];B[qn]TR[mj][pj][pp][qp][mq][nq][oq]C[This is one of the simplest joseki, and look at what great influence B gets.. see how the stones aer working together. W is going to struggle to make inroads no the right now, and one more play at N10 say makes the B territory terrifyingly large.

Now ask yourself what W gets in return? 10 points?

Who's doing better from this exchange?]))
(;B[dn];W[gm])
(;B[iq];W[hq];B[dn];W[gm];B[jn])
(;B[lc]))
(;W[do];B[eo];W[ep];B[dq]TR[ne]C[This is one way of attacking B, but it relies on a ladder which is broken, a W stone at the marked spot would have helped.]
))
(;B[dn]
(;W[jp])
(;W[nq];B[oq];W[np];B[pn];W[jp]C[If I was W I'd be very happty with this formation at the bottom]
)))
(;B[lc];W[ne];B[le];W[ng];B[hd]C[Something like this could cause W all sorts of trouble]
;W[ff];B[hq]C[Now all of W's groups are without a base, and are going to have to fight for survival.]
))
(;W[jd];B[jp]TR[pg][dm][pm][cn][qn][gp][mp][fq][nq]C[Still plenty of openings in a 6 stone game, but now you can run to the top if B starts attacking too strongly]
))
(;B[pf];W[fc];B[kc]C[This way F17 can't extend, and O17 is in trouble]
))
