(;FF[1]GM[1]SZ[19]VW[]US[Brought to you by No Name Go Server]
GN[frakt-Dongzi(B) NNGS (LADDER RATED)]EV[None]RE[W+19.5]PW[frakt]WR[4k*]
PB[Dongzi]BR[5k*]PC[NNGS New York USA: ra.york.cuny.edu 9696]DT[1996-06-18]
TM[600]KM[5.5];B[dp]C[

 frakt 4k*: thx];W[pd];B[qp];W[cd];B[qf]C[I would not play black 5, but it
may be OK.  Usually after a stone
is on the 4-4 point, that corner becomes less urgent as it would take
white more than one to move to enclose the corner.  Therefore a corner
enclosure around P3 or a kakari around E17 seems more urgent.  Also, a
move at L4 or
L3 would set up the Chinese fuseki. (temporarily inhibiting a move around
P3).];W[oq];B[po];W[mp];B[qj];W[iq];B[ec]C[I can find nothing wrong with any  of the moves through and
including
black 11.];W[pf]C[White 12 is clearly wrong.  White is going to turn
black's right
side moyo into territory, losing chances to invade  at R12 or around Q8.
All this for influence which seems to have no utilty.  White will end in
gote,  so black can play D15 in sente.  I would consider a pincer around
H17, or maybe N17 or O17.];B[pg];W[of];B[qe];W[qd];B[de];W[ce];B[df];W[cg]

(;B[ic]C[Black 21 should certainly extend to K17 (joseki), but L17 is
probably even better here.  White retains a weakness around O16 remaining
from white's poor choice of of joseki.  Black seems here ready to cede
white an opportunity to expand influence at the top and fix white's
weakness.];W[kc]C[White 22 may be an overplay.  Black should probably play
O17
immediately.  White may just have to play O16 here, as slow as it may
seem.]
(;B[je]C[Black 23 is just wrong.  If black is really thinking about end
game territory reduction/expansion, then L16 is the move.  But it is way
too early for this, especially when white *wants* to solidify the weakness
around O16.];W[ke];B[kf];W[le]C[D13 is probably *the* move right now for
both sides.

But F3 is clearly a big move.  G3 is probably better in this direction, as
itwould make an invasion at L3 more severe.]
(;B[fq]
(;W[cp]C[White 28 (C4)  is just plain weird.  Kind of like q14.  A quick
move perhaps, without thinking.  There doesn't seem to be any strategy
behind such a move.  C6 is the right move here.  Check out  p.230-231 of
Ishida's Dictionary of Basic Joseki volume
3.];B[co];W[dq];B[ep];W[bp];B[bo]C[white *has* to play 34 at c2.  After
giving black the outside influence, one had darn well better live in the
corner.];W[cj];B[cr]C[white can't live...
better not to try and play elsewhere.

Therefore Black 35 is correct and white 36 is wrong.];W[dr];B[cq];W[hr]
C[H2  is pretty small even if it does threaten G1 to rescue the two
white stones.   Black will love two middle game moves elsewhere if white
plays both G1 and H2.  For example, Q3...  (20
pts!)];B[pq];W[op];B[pl];W[nn];B[cf]C[white has to play b14.  Just
because you're getting stronger doesn't mean you can't play obvious moves.
In fact, I can't imagine why white would not play
b14.];W[db];B[bf];W[eb];B[dc];W[cc];B[fc];W[be]C[B15 hurts (gote), but it  may be necessary to
live.];B[dg]C[D13 is petty.

Black needs to play a large scale move here to take advantage of
overwhleming center influence.  J5 sure seems possible.  E10 also seems
like a better attack on the left side than D13.  The C13 stone is
irrelevent.  No need to try and capture or save it.];W[og];B[ph];W[jd]C
[

  frakt 4k*: no prob];B[id];W[dh];B[eh];W[ei];B[fi];W[fh];B[eg];W[fj];B
[gi];W[ej]C[G10 is the *only* move for
black 65]
(;B[di]C[D11 is a bad move that just helps white fix the
shape.];W[ch];B[gj];W[jf];B[ie];W[kg]C[White 69 and 70 are good moves.
White may never have to defend the weakness at O16.  Black will now have
trouble making center territory.  All this is a result of the K15 play
(black 23).];B[if];W[jg];B[dk];W[dj];B[bb];W[bc]C[black 75 should be left  unplayed.  white 76 should be at
c18.];B[fb];W[cb]
(;B[fl]C[black 79 seems bad.  The center territory is now  gone because of
k13 and l13 (and o6).  The white group seems like it should be able to
survive.  But an attack on the white group may be black's best chance.
White can live immediately by playing b11 now, so if black were to have
played there first... (see last variation)];W[dl];B[io]C[Yeah, I think
J5 was a key point.];W[jo];B[jn];W[ko]C[H5 seems small.  J5 and K6 were
forcing moves to reduce white territory.  Now they are light, so discard
them and play bigger moves.  P12 is now important, for example.
Alternately, consider the solid connection at j6 either immediately or
after J4.]
(;B[ho];W[pr];B[qr];W[pn];B[qn];W[pm];B[qm];W[pp];B[qq];W[oo]C[The  key
move now is probably p8.  White's last few moves were all petty endgame
moves.];B[jj];W[qo];B[ro];W[ql]C[I think black can play O8.  White seems to be
very aggressive here.  I am unsure why.]
(;B[qk];W[rp];B[rn];W[ps]C[white  chooses to give up sente by playing q1, a
bad move.  Black returns the favor at R1, a worse move.

K18 is very big for example.  I think black can play it in sente now.  It
will soon be sente for both sides.  H2/H1 is also big.  S16 is also double
sente.  Black should play s16 now.]
(;B[qs];W[or]C[always take a ko once.   black 105 should be at
q5.];B[rq];W[ol];B[pk];W[gk];B[fk]C[G9 seems odd.  Giving black a stone
and forcing black to play f9, a move black clearly wants to
play.];W[hg]C[Same goes for h13.  I am unsure what has overcome white.
Why not just play J13 here? (assuming nobody sees
s16.)];B[ig];W[gh]C[J11 would seem to put paste to white's
overzealousness.]
(;B[hi];W[ih]C[J14 seems to be a good move, indicating H11  was bad.  K12
just might work here, though...
(it does, so one remains mystified about H13, G12, etc.)  White didn't
have to read all this to know not to play moves like that deep inside
black's territory.  It's just common sense.]
(;B[ii];W[ji];B[hh];W[jh]
(;B[hk]C[H9 bad.  Don't capture on a small scale.  Just play black 119 at
J10.];W[ij];B[hj];W[ik];B[hl];W[il]C[K9 seems wrong, especailly in
retrospect.  Black should play away from white's strength, where black is
outnumbered. Or play lightly, like at K8.]
(;B[jk];W[hm];B[gl];W[jl];B[kl];W[km];B[lk];W[in];B[nj];W[mj]C[white 134
is a good move. Black refused to let go of the stones at k9 and is now
paying.];B[mk];W[nk];B[ok];W[nl];B[mi];W[lj];B[li];W[kj];B[ki];W[kk];B[nh]
;W[cm];B[ck];W[bk];B[ek];W[bj];B[bl];W[bm];B[cl];W[al];B[dm];W[am];B[bi]
;W[ci];B[gr];W[ao];B[bq];W[ap];B[an];W[bn];B[aq];W[an];B[er];W[do];B[dn]
;W[cn];B[eo];W[co];B[gn];W[rd];B[jb];W[kb];B[re];W[se];B[sf];W[sd];B[ka]
;W[la];B[ja];W[lb];B[ng];W[pe];B[qg];W[jc];B[ib];W[nf];B[hs];W[is];B[gs]
;W[oh];B[oi];W[ip];B[hq];W[ir];B[bg];W[hp];B[gp];W[bh];B[hn];W[im];B[mf]
;W[me];B[mg];W[dd];B[ed];W[lf];B[ea];W[da];B[fa];W[gm];B[fm];W[ae];B[jp]
;W[jq];B[kp];W[lp];B[kq];W[kr];B[kn];W[lq];B[ln];W[lg];B[lh];W[ah];B[gq]
;W[po])
(;B[jl]
(;W[im];B[jk];W[jm];B[km];W[kn];B[in])
(;W[jk];B[im];W[kk];B[mi]C[white can't disconnect black 129.]
(;W[oi];B[nj];W[oj];B[ok];W[nk];B[oh];W[ni];B[nh];W[mj])
(;W[oh];B[nj];W[oj];B[ok]))))
(;B[ij]))
(;B[jh]
(;W[ji];B[kh];W[lg]
(;B[ki];W[ii];B[ij];W[hh];B[hj];W[kj];B[li];W[lj];B[mi];W[hk];B[il];W[ik]
;B[jk];W[jl];B[kk];W[kl];B[lk];W[mj];B[mk];W[nj];B[ni];W[nk];B[hl];W[ml]
;B[gl];W[oi];B[oh];W[nh];B[oj]C[these are  just
variations...])
(;B[ii]C[this is safer but I think m11 is better.]))
(;W[kh];B[ji])))
(;B[ii]))
(;B[rd];W[rc];B[re];W[la];B[rb]
(;W[qc])
(;W[sc];B[qc];W[qb];B[pc];W[pb];B[oc];W[ra];B[ob];W[sb];B[pe];W[od];B[oe]
;W[nd];B[ne]C[Also,  since s16 is sente (I put a stone at M19
indicasting a play elsewhere by white) black should play s16.])))
(;B[ol];W[rl];B[rn]
(;W[qk];B[pk];W[rj];B[qi]C[there doesn't seem to be much for  white after
this.])
(;W[pk];B[qk])))
(;B[ip];W[jq];B[in]))
(;B[bi];W[ci]
(;B[bj];W[bk];B[ck];W[bl]
(;B[bh];W[el])
(;B[cl];W[bh]))
(;B[bh];W[bg];B[ag];W[bj];B[ah];W[bl];B[ck];W[bk];B[dm];W[fl];B[gk];W[el]
;B[cm];W[gl];B[hl];W[bm];B[aj];W[bn];B[an];W[am];B[ak];W[ao];B[bq];W[ap]
;B[er];W[cn];B[do];W[dn];B[em];W[hm];B[im];W[en];B[fm];W[gm];B[fn];W[il]
C[this is just one of many variations.
Black can't kill white.])))
(;B[ch]
(;W[di]C[If white is kind enough to repond  then C12 is better than D11]
)
(;W[gj]C[But surely everyone can see that G10 is  bigger.]))
(;B[gj]C[black will could a large center...]))
(;W[cn];B[bp];W[ck]C[but now black will play d13, flattening out white, so
we see that white should have played there anyway, rather than C4 or
c6.]))
(;B[gq];W[io]C[The problem is it provokes J5.  It is no longer clear to  me
where the biggest move on the board is.  Still D13 probably, followed by
P10.]))
(;B[nc];W[oc]
(;B[ob];W[pb];B[od])
(;B[md];W[nd]
(;B[ne];W[od])
(;B[nb];W[ob];B[ne];W[od];B[lc]C[I'm not saying this is optimal for black,
but it's certianly one way
to play.  It certainly indicates that L17 is too far.])))
(;B[kd];W[ld];B[ke];W[jc];B[id];W[nd]C[something like that....

but *NOT NOW*]))
(;B[kc];W[ic];B[nc]C[white can't afford to invade near  J17...]))
