(;FF[4]GM[1]SZ[19]ST[2]CA[UTF-8]AP[SGFC:1.15]

GN[haniwa-yokosukaYT(B) IGS]
EV[Internet Go Server game: haniwa vs yokosukaYT]
PB[yokosukaYT]
BR[4k]
PW[haniwa]
WR[4k]
KM[6.5]
DT[2003-10-11]
PC[IGS:  igs.joyjoy.net 6969]
TM[600]
RU[Japanese]
US[Brought to you by IGS PANDANET]

C[Hi Ripley,

My name is lakeland and I am 1d on KGS.  I'm not normally comfortable reviewing people stronger than five kyu, but I got a friend to help, so between us I think we've made up for the deficencies in my analisis.]
;B[pd];W[cq];B[pq];W[dd];B[jp];W[pn]C[After 7, I don't like this at all. How about a wedge on the third line to the right of 7?

--

Right.  There is a joseki where W plays R3 after the long pincer, but I don't know it.  I would have tried to play that anyway, starting a joseki is more likely to come out better, IMO.]
;B[pk]C[Good move by black.  You've wandered into the chinese high fuseki by an indirect route. 

So the normal reduction move by white is Q5 rather than Q6.  I'd try to apply much of the same stuff.  Also be aware that the fuseki generally makes K4 and K16 miai, so you really want to get there quite soon.]

(;W[qf]C[I don't like very much either. The approach from the other side looks better to me]

(;B[qh];W[of]C[Waffen:Both tough];B[nd];W[ph]C[I wondered about Q11 instead.]
;B[pi];W[oh];B[qm]C[I would have pushed at R13 first as black.]
;W[pp];B[oq]C[From here to 26 looks quite small in retrospect - should I concentrate on the outside and maybe leave this for later?
--
I think your move was bad, P3 is an easy response and you still don't have eyespace.  I would R3 instead.]
;W[qq];B[qr];W[rr]
(;B[qp];W[rq];B[qo];W[pr];B[or];W[qs]C[good sequence for black]
;B[po];W[qd]C[up to 27, the bottom right looks strong for black so here I am trying to settle this group to prevent it being attacked
--
Waffen [1d\]: this beginning is so difficult]
(;B[pe]C[This is wrong, it should be R17.

I read out lots of variations, but if white tries to mess it up then white ends up dying.]
;W[qe];B[pf];W[qg];B[qi];W[pg];B[qc]C[Bad sequence for black.]
;W[rc];B[qb];W[rb];B[oc]C[Black should consider not playing P17, but I would have.]
;W[jd]C[So you did get this point :-)];B[on]C[Too slow.  K6 or similar]
;W[lo]C[I was trying to treat this area lightly. It comes out ok in the game, but I think I was quite lucky...
--
yes.  I think even this is too deep]
(;B[lp]C[Waffen [1d\]: weird move
--
I'd have k6 instead];W[no]
(;B[mp];W[mo]C[N5 must be wrong
--
You said you're playing lightly, but this is not light.]
(;B[op];W[ml];B[mj];W[dn]C[in addition to taking terratory, this was supposed to indirectly support the 42-48 stones

--

The game for white finally things start looking ok (Waffen would play C14 here as black).]

(;B[ci]
(;W[ck]C[I think now that this move is not really urgent. Should I play at 60 or thereabouts?
--
I would play here, you can't tenuki now. I find it hard to leave move 60 too, but I would have left it longer than you.]

(;B[ce]C[This is an extremely bad move.  Like, Really bad :-)]
;W[cd]C[I couldn't think of any other decent way of answering this.
--
Your answer is correct];B[de]
(;W[bd]C[This is wrong. 

There is only one move for white here (see variation).  Your move destroys the benefit of K16.

PS: Black seems to play C15 or similar against me a lot in handicap games.  It is a good way to catch up.]
;B[ed];W[ec];B[fd]
(;W[kl]C[I think that this should have been played earlier?
--
Waffen [1d\]: bad tenuki
lakeland [1d\]: quite a time to tenuki huh?
Waffen [1d\]: amazing
--
Ok, saving your group is important, but you just can't tenuki now.  The damage to the corner, and especially K16, is devestating.]
;B[fc]C[This is devestating];W[db]
(;B[kc]C[This move is suboptimal by black.  It doesn't use K16's weakness efficiently, and it weakens the E15 cut.  Waffen would have K14.  I would have M16, or G3.  Take your pick.]
;W[jc]
(;B[he];W[bg]C[Big but not urgent?
--
Not too bad, destabalises black a little];B[be];W[bi];B[ch]
;W[bh];B[cg];W[jf];B[kd];W[ke];B[le];W[lf];B[me];W[mf];B[kg]
;W[kf];B[ie]
(;W[ld];B[lc];W[fb];B[gb]C[F18 appeared quite good.  I hadn't seen the kill at this point]
;W[je];B[fa];W[eb];B[cb]C[This was clever.  White dies.];W[cc]

(;B[da];W[bb]C[93 above 92 looks like ko now - this sequence looks bad for white.
--
Yes, and this is after b missed B18]
(;B[cj];W[bj];B[dk];W[dl];B[cl];W[bk];B[el];W[dm];B[ej]
(;W[hg]C[I'm not sure that this is the right way to go about reducing the black potential here - should I be strengthening the weak group below?
--
No.  I think you should be expanding your corner (G4).  

In my opinion you are behind so you cannot waste a move on your weak central group. However I think a pro would disagree with this statement, saying you must save the center, and then you can think about catching up.

Besides, your stone just gets cut off, you're in too deep.]
;B[ig];W[if];B[hf];W[gg];B[ih];W[gd];B[ge];W[fe]C[Those two moves just hurt white]
;B[gc];W[gi];B[hj];W[ii];B[hi];W[hh];B[kh];W[gj];B[hk];W[gk]
;B[hl];W[fl];B[fm];W[em];B[ek]C[notice your center is currently weaker than it was (i.e. dead).  But keep watching.]
;W[gl];B[fh];W[hm];B[gh];W[il]C[Now it is healthier than it was.]
;B[fg];W[ij];B[gf];W[hq]C[And you take the huge point too. Suddenly you've got a real chance of winning.]
;B[im]C[Live here, win the ko at the top, and you probably win.]
;W[ik];B[hh];W[hn]
(;B[jn];W[ko];B[jo];W[jm];B[in];W[kn]
(;B[ho];W[fn];B[iq];W[ir];B[lm];W[kp]C[although the white group lives in the end, I think that getting isloated so badly must be bad for white - is there a better way to have played around here?
--
Not really. I think you should have died.];B[kq];W[jr];B[jq]
;W[mm];B[lk];W[ll];B[kk];W[nk];B[nj];W[om]
(;B[jk];W[pl];B[nn];W[ql];B[pm];W[rm];B[qn];W[nm];B[qk];W[ol]
;B[jl];W[km];B[ng];W[nf];B[og]C[Stupid.  I know this isn't your move, but it really annoys me when people play moves without bothering to read them first.]
;W[mh];B[mi];W[nh];B[rk];W[jb];B[fo]C[Big.  Not where I would have started, but the right area to play]

(;W[ep];B[gq];W[gr];B[fq];W[er];B[eq];W[dq];B[fr];W[fs];B[dr]
;W[es]
(;B[hp];W[hr];B[eo];W[do];B[gs];W[hs];B[fp];W[dp];B[kr];W[cr]
;B[js]C[What? Too small.];W[ds]C[You answered!?];B[go]C[And b passed too!  These were the worst moves of the game in some ways.]
;W[lb];B[mb];W[mc];B[md];W[kb];B[nc];W[qa];B[pa];W[ra];B[pb]
;W[ca]C[presumably this should have been played much sooner
--
indeed :-)];B[ga]C[In sente?? There is something really strange about black's yose.]
;W[os];B[ns];W[ps]
(;B[mr]C[N2 not needed.  Admittedly this is more complex than the other mistakes, but with S8 still on the board...]
;W[rh]C[S8 is bigger, but this is big];B[ri];W[sg];B[rl];W[sn]
;B[so];W[ro];B[rp];W[sp];B[rn];W[so];B[sm]C[I don't get black.  Some really lousy moves, but then some really good sequences.]
;W[sq]C[Nicely done by black. Nothing better for white that I noticed.]
;B[en];W[gm];B[ok];W[mk];B[mn];W[ln];B[lh];W[jg];B[jh];W[hc]
;B[hd];W[hb];B[ha];W[ia];B[la]
(;W[ka];B[ic];W[ib];B[lg];W[mg];B[bf];W[ea];B[ag];W[ah];B[si]
;W[oi];B[oj];W[ad];B[sh];W[rg];B[id];W[af];B[ae];W[ag];B[bl]
C[Black not reading??];W[bm];B[al];W[cm];B[ak];W[am];B[fi];W[oe]
;B[np];W[od];B[pc];W[oo];B[pn];W[gs];B[fj];W[is];B[ks];W[fm]
;B[ma];W[tt];B[tt]TW[aa][ba][da][ja][sa][ab][cb][sb][ac][bc]
[dc][sc][rd][sd][re][se][rf][sf][ng][og][ai][aj][ak][al][bl]
[cl][nl][lm][an][bn][cn][ao][bo][co][ap][bp][cp][aq][bq][ar]
[br][dr][qr][sr][as][bs][cs][rs][ss]TB[na][oa][nb][ob][mc][gd]
[ld][ee][fe][cf][df][ef][ff][dg][eg][gg][hg][dh][eh][di][ei]
[ii][ji][ki][li][dj][ij][jj][kj][lj][pj][qj][rj][sj][ik][sk]
[il][sl][rm][io][gp][ip][pp][lq][mq][nq][lr][nr][ls][ms]C[Well, you were _very_ lucky.  But you won :-).

There were two mistakes in the top left, and goign after the center reduction was wrong.  Otherwise I think black made at least as many mistakes as you.]
;TW[aa][ba][da][ja][sa][ab][cb][sb][ac][bc][dc][sc][rd][sd]
[re][se][rf][sf][ng][og][ai][aj][ak][al][bl][cl][nl][lm][an]
[bn][cn][ao][bo][co][ap][bp][cp][aq][bq][ar][br][dr][qr][sr]
[as][bs][cs][rs][ss]TB[na][oa][nb][ob][mc][gd][ld][ee][fe][cf]
[df][ef][ff][dg][eg][gg][hg][dh][eh][di][ei][ii][ji][ki][li]
[dj][ij][jj][kj][lj][pj][qj][rj][sj][ik][sk][il][sl][rm][io]
[gp][ip][pp][lq][mq][nq][lr][nr][ls][ms]C[> My views on the game are as follows:
> 
> At the time I thought that I was behind for most of the game, due
> mainly to playing poorly in the bottom right. 

Agreed

> Looking at it again I
> think that whilst perhaps I should have played moves such as 60
> earlier it was only as a result of the fight starting from 102 that
> left the group really weak. Then the cut that grows from the stone
> at 135 is really serious and the white group to the right is lucky
> to live. 

Settling the center is a tricky question.  I think your choice of time to tenuki was bad, even worse than ignoring C11 to settle it.  It isn't entirely true that the center was made weak by the fighting, the J stones helped you settle it.


> I think that black could have started a ko in the upper left up
> until 216. If so, defending against it is urgent once my opponant
> played away from there I reasoned he hadn't noticed and so i needn't
> treat it as urgent. This must be wrong.

Yes.  But what to do when you're behind? Take gote and fall so far behind you can't catch up? Or leave it, where black is bound to find it sooner or later?

Incidentially. I do sometimes do exactly what black did if I think I'm ahead.

> Reviewing the game, neither side plays the endgame well - I think
> that I could benefit from concentrating on that. I'm quite good at
> yose problems, but in games I seem to spend more time counting the
> score in the endgame and less on counting the size of plays.

Counting is more important in the early endgame.  In the late endgame it is much less important because you can work out near perfect play without too much trouble.]
)
(;W[id]C[Here instead, because L19 is absolute gote.]))
(;B[cf]
(;W[np];B[nq];W[mr];B[nr];W[mq];B[lq]C[nez [8k\]: any chance either of you could go over the beggining sequence of a game i just had?]
;W[oo]C[lakeland [1d\]: Waffen, could you? I shoudl writhe this up
Waffen [1d\]: okay])
(;W[nq];B[np];W[nr];B[ms];W[ls])))
(;B[hs];W[hr];B[gs];W[is];B[gs];W[hs];B[ds];W[gs];B[hp];W[kr]
;B[lr];W[cr];B[ks];W[cs]C[About the same]))
(;W[eq]C[How about here?];B[eo];W[do]))
(;B[pl])
(;B[nn]C[Dead];W[pm];B[oo];W[nm];B[ok];W[ql];B[qn];W[pl];B[qk]
;W[rl];B[rk]))
(;B[lm]))
(;B[jm]))
(;W[go])
(;W[gp])
(;W[jn]C[Were I to try to save the center, this is where I'd go.]
)
(;W[gi]C[This was the deepest white got.  You're better starting here if that is your goal.]
))
(;B[ba]C[I would play the ko immedatly]))
(;B[bb]C[Dead.]
(;W[ea];B[ad];W[ac];B[ae];W[bc];B[ab])
(;W[ad];B[da])
(;W[ae]
(;B[af];W[ad];B[bf];W[ea]
(;B[ac];W[ga];B[bc]
(;W[dc];B[ha])
(;W[hb];B[dc];W[gc]))
(;B[ga];W[ab];B[ba];W[bc]C[Seki or ko.  I'd take the ko]))
(;B[da];W[bf];B[ea]
(;W[bc])
(;W[dc];B[bc];W[ad];B[af];W[ag];B[ac];W[af];B[cj];W[bj];B[eg]
)))))
(;W[je]C[I think M16 is ajikeshi. *shrug*]))
(;B[ei]C[lakeland [1d\]: I prefer this]))
(;B[ld])
(;B[jf]C[Waffen [1d\]: K14
Waffen [1d\]: yeah
lakeland [1d\]: was just thinking that
lakeland [1d\]: but there is a lot of room];W[hd];B[hf];W[ld]
;B[lf];W[mc];B[ib];W[ic];B[hb];W[jb];B[kc];W[kd];B[nb];W[mb]
C[lakeland [1d\]: dunno]))
(;W[fc]
(;B[kk]C[lakeland [1d\]: nah, you can't tenuki])
(;B[kl]C[If black wraps them up somehow, you devestate D15 etc.]
))
(;W[fb]))
(;W[ee]C[white plays here];B[ef];W[ff];B[eg];W[fg];B[eh];W[fd]
C[lakeland [1d\]: disaster for b
Waffen [1d\]: good]))
(;B[cf]C[Black should play here]))
(;W[cl];B[cf];W[fd]))
(;B[cf])
(;B[kk]C[Waffen [1d\]: C11
lakeland [1d\]: I was thinking here]))
(;B[ko];W[op];B[np];W[oo];B[nm]C[This only just lives, b gets good shape everywhere.]
))
(;B[ko]C[lakeland [1d\]: now I'd play here]))
(;B[jn]C[lakeland [1d\]: I'd play here
lakeland [1d\]: M5 feels too deep to me]))
(;B[qc];W[rd]
(;B[rc];W[pe];B[oc])
(;B[oc])
(;B[pe])))
(;B[rq];W[qp];B[rs];W[sr];B[sq];W[pr];B[ss];W[rr];B[sr];W[op]
C[This seems worse for black.]))
(;B[qe]C[I'd have answered here];W[pf];B[nd];W[qi];B[qj];W[pi]
;B[nk]C[Q6 looking very lonely, Chinese working perfectly.]
))
(;W[qq]C[
I would play here];B[pp];W[qp];B[po]C[I was trying to work out how to play without looking up the joseki.  You might find black had a better way of punishing white, but it seems most of the benefit of the Chinese has been nullafied.]
))
