(;FF[4]GM[1]SZ[19]AP[SGFC:1.15]

PB[Black]
BR[27k]
PW[White]
WR[27k]
KM[5.5]
DT[2003-09-05]
RE[W+34.5]

C[Hi, I am Jason. I will try to help you on this game. Let's start!


OK Brief intro:

We are both beginners.

White has spent a little more time studying and reading than black has.

Black is better at local fighting.
White is better at the big picture.

We both  overlook lots of important small things.

Mostly I'd guess we both need to play more games...but maybe you could point out some main things to work on for both of us.

Also if you have any guess to a ranking for either of us that'd be helpful so we could tell people who ask our strength and don't want to give us any handicap stones when we sorely need them.

Thanks,
Dan:    sweet_dan@hotmail.com
Alex:   alexazir@hotmail.com];B[pp];W[dd];B[dp];W[qd];B[cj]
;W[kc];B[jq];W[qj]LB[oc:a][od:b]TR[jj]C[B: I have no idea what is good or bad about any of this.. And where should I play next?

For white:
You can easily get about 20 points if you play at a. But now black can invade your corner with a or b, or takes good advantage with K11.]
;B[cf]C[B: What's better than this?

k11, p16 or p17 are both good.];W[rn];B[ro]C[This move is too close to white. s4 is better.]
;W[qo];B[rp];W[qp];B[pq];W[rq];B[bd];W[cc];B[cd]C[This move is not necessary. Black is quite safe here. If you want to attack white, e17 is better.]
;W[ec];B[qq];W[sp];B[qn]
(;W[so]C[W: The right move?

See the variation.];B[pn];W[qm];B[ol];W[pm];B[om];W[on];B[po]
;W[nn]C[W: are teh two white stones vluable her or should i have kept black to move north with p7 and p8?

It is not easy to save the white group. Try another way.];B[mp]
;W[cn]C[There is a good way to attack white.]
(;B[fq];W[cp];B[cq];W[cl]C[B: How do I attack his base?
See the variation.]
(;B[bk];W[bp];B[bq]
(;W[np]C[W: The right direction? or maybe p10 or m6?

I think this way is ok. But, m6 is good, too.];B[nq];W[mo];B[co]
;W[bo];B[do];W[lp];B[mq];W[dn]LB[ek:a][bm:b]C[W: this seemed important to me--is it?

white group is safe. You can try a to escape, or b to make eyes.]
;B[oo];W[fn]C[For white, n7 is very important, right?];B[mm]
;W[ln];B[mn];W[no]C[This move is bad. l5 will be better.];B[ko]

(;W[jo]C[W: this was obviously the wrong move but where is the right one?

See the variation.];B[lo]C[B: Would white L4 be good influence towards center for me?

W: which is why i play L6 cause i want the center?  or should i forget the center and attack him more seriously?
I end up with signif territory in the center but the proverb is that there isn't any on the center?]
;W[kn];B[kp];W[jp];B[kq];W[jm];B[pf];W[od];B[pe]C[For black:
Not good move. you are helping white enclose his corner.];W[pd]
;B[rg]C[For black:
Not good move, either. Escape outside will be better.];W[oj]
;B[pk];W[pj];B[ql];W[rl];B[pl];W[re]LB[nf:a][ef:b]C[W: whats the right move for me here--I didn't feel like losing hte two stones was a big deal so i picked this move....whats bigger now?

a to attack black, or b to make big moyo.];B[ri];W[rj];B[rm]
;W[sm]C[For white:
o13 is more useful. you can attack black group.];B[qm];W[qk]
;B[nh]C[B: Can I be more aggressive?

your stones are not safe yet. you will be danger with white playing at p13. so, o13 will be better.]
;W[mj];B[lk];W[ph];B[pg];W[ff]C[W: am i leaving the situation on the right side too soon?

I don't think so. This move is good.];B[nj];W[ni];B[nk];W[mi]
;B[oh];W[oi];B[ki];W[mh];B[mf];W[me];B[mg];W[ng];B[og];W[nf]
C[W: stupid move for me here...but i got lucky...he didn't respond at O15
Where should I have played?

I will play at o15. Then you can take black stones on right side easily.]
;B[kg]C[B: Inattentiveness due to a focus on defense is often my downfall.]
;W[ne];B[qh]
(;W[jf]C[See the variation.];B[rf];W[qr]LB[jk:a][ek:b]C[W: obviously this is too small for this point in the game and its gote--where shold i have played?

a or b can expanse your territory.];B[pr];W[rr];B[kf];W[ke]
;B[qe];W[sd];B[qi]C[W: I wasn't thinking about killing this black group centered at R15 but later on it looked like i prob could have had i tried--should i have been trying earlier than i did?  WHere?

See the variation on node 106.];W[eh];B[de];W[ee];B[bc];W[cb]
;B[am];W[df];B[bn];W[bm];B[an];W[al];B[hp];W[ce];B[be];W[cg]
;B[bf];W[bg];B[ag];W[ah];B[af];W[bh];B[bb];W[ba];B[db];W[eb]
;B[ad];W[ab];B[ac];W[ca]C[ok black should dead here---but somehow white screws it up and lets him back in the game...!!!!!!]
;B[de];W[dh];B[fg];W[eg];B[fh];W[ej];B[fd];W[gf];B[fe];W[ce]
;B[aa];W[fi];B[fc];W[gh];B[fb];W[ab];B[de];W[aa];B[ed]C[this seems to be the killer move?

There was no any way to kill white without white's wrong move.]
;W[ce];B[hd];W[je];B[de]C[For W:
So, you miss the chance, see?];W[da];B[ef];W[ic];B[ee];W[fa]
;B[ga];W[gb];B[ea];W[ha];B[dc]C[W: DOH!!!!!];W[gc];B[he];W[ge]
;B[gd];W[hc];B[fo];W[go];B[fp];W[jk]C[Good move. White get the left center. That's the key point.]
;B[ih];W[hf];B[if]C[B: I need to stop worry about connecting things like this...it ultimately leads to big loss for me.]
;W[ig]
(;B[ie]C[For B:
you save one stones, but lose more.];W[jg];B[jh];W[ii];B[hg]
;W[gg];B[hh];W[hi];B[io];W[ji]C[B: DOH!];B[lh];W[kj]C[W: THis is progress for me normally i'd just capture the 4 and be happy-i had to pause for a long time to summon my killer instinct and try to actually read out 2-3 moves---I'm too lazy!!!]
;B[lj];W[li];B[kk];W[kh];B[in];W[mk];B[ll];W[im];B[jn];W[kl]
;B[lm];W[km]C[B: Normally I don't notice the trheat at o7.  So this is progress for me.]
;B[nm];W[hn];B[ho];W[gm];B[gp];W[eo]C[W: The wrong move? i lose sente...]
;B[ep];W[en];B[gn]C[B: I should have ignored the ko to maintain sente.]
;W[hm];B[go];W[si]C[W: this is when i first thought i might be able to kill this group--but then i failed...

yes. you ever had the chance. not now.];B[sh];W[sf];B[sg];W[pi]
C[W: i should have realized i failed by now...

Finally you win the game, right?];B[ap]C[B: This is endgame now, right? So I go to push into white to take away territory one at a time?

I'm sorry, but i don't understand your question.];W[ao];B[aq]
;W[ps];B[os];W[or]C[W: I read one too many books on the throw in tesuji and didn't quite understand it all... : (

It's hard to take a example. Maybe next time.];B[qs];W[rs];B[ps]
;W[oe];B[se];W[rd];B[sj];W[sk];B[si];W[of];B[id];W[jd];B[sf]
;W[qg];B[qf];W[ok];B[nl];W[fa];B[dg];W[dq]C[W: stupid again right?]
;B[dr];W[df];B[ga];W[cr];B[eq];W[fa];B[dg];W[ga];B[df];W[ml]
;C[So, this is the review. A good game for newbie. I do my best to solve your problems, but I might still lose something. If you have any problems about my review, send a email to me. I would be glad to discuss with you.]
)
(;B[jg];W[ie];B[lh]LB[kj:a][lf:b]C[Both a and b can save black stones.]
))
(;W[qf];B[qg];W[sh]C[Black die.]))
(;W[lo];B[km];W[lm];B[ml];W[ll];B[mk];W[kk];B[oj]C[White escape]
))
(;W[ln];B[mn];W[mm];B[mo];W[nm]LB[ni:a][mj:b]C[If the 2 black stones try to escape, stop them with a or b.]
))
(;B[co];W[bo];B[bp];W[do]))
(;B[co];W[dn];B[fq];W[cl]C[Good sharp for black. White is hard to live.]
))
(;W[po];B[pn];W[oo]LB[op:a][on:b][mq:c]C[If black plays at b, try a then c to attack him. If black plays at a, attack the 2 stones with b.]
)
(;W[po];B[oo];W[pn];B[qm];W[om]C[This way is good, too.]))
