(;FF[4]GM[1]SZ[19]ST[2]CA[UTF-8]AP[SGFC:1.15]

PB[Aikawachan]
BR[15k]
PW[AcidCasual]
WR[14k]
KM[0.5]
DT[2003-10-24]
PC[The Kiseido Go Server (KGS) at http://kgs.kiseido.com/]
RE[B+15.50]
TM[1800]
OT[5x30 byo-yomi]
RU[Japanese]

C[My main question about this game is how I could have done better in the midgame.  I play completely in the wrong direction and while I see how I could have done better, I would appreciate the perspective of a stronger player on the best line to have taken.   I am aware the endgame was nothing to write home about either.

*OK Let's go.];B[pd]C[AcidCasual [14k\]: evening
Aikawachan [15k?\]: hi];W[dp];B[pq];W[cc];B[qk]
(;W[np]C[I like to play the chinese opening myself sometimes but I rarely play white against it.  This approach is obviously incorrect - Q5 would be better?

*O17 is a classical approach, and according to me in this case is the best, altrough it doesn't work well with your 3-3 in the upper left corner.
I don't like exthernal approach to 3-4 and maybe Q5 is better (not R5)]
;B[oo];W[no];B[on];W[jp];B[gq]C[*Black is too greedy and doesn't want u to gain many points, but a invasion like this is bad in fuseki because also if he could live u could gain power, it's better for him an approach around C6. Here you are strong so it's better attack him to gain influence.]
;W[iq];B[cq];W[dq];B[cp];W[co]C[* maybe this is an overplay, your cutting point at D5 becomes dangerous because of the stone at G3]

(;B[bo]
(;W[bn]C[I choose the double hane to build a moyo on the bottom side of the board to match against the moyo he will likely build on the right.

* this is not the right choice to build a moyo on the bottom, C6 would be better. with this doule hane u seems to be interested in the corner (see var at move22))]
;B[cn];W[do];B[bm]C[*(see var to gain the corner). this is a classical sequence]

(;W[dn];B[an];W[dm];B[ck]C[*you menaged to build a large moyo too, now a move like n7 seems big for you, but there's something more urgent (Approach in the upper right).
You should also consider that with your huge moyo your opponent could also live inside it or escape because it's open in the upper side.]
;W[nc]C[*Good];B[oe]C[*I don't like this kind of cosmic answer. now R17 would be joseki (see var)]

(;W[pc];B[qc];W[pb];B[qb]
(;W[nd]C[* this move is too slow, and your 4 stones are very weak and heavy.(see var)]
;B[qh]LB[ed:5][hd:3][ne:1][cf:4][ef:6][of:2][mm:7]TR[ln][lq]
SQ[oh][oi][oj][ok]CR[qm][qp]C[*now it'll be hard invading on the right side. reducing moves are possible, but with a possible loss inside your territory.
maybe there's some aji left around R4.(see var)

Which is the total situation? 
Black has a big side and a corner.
White has no secure territory with the exception of the upper left corner with the 3-3 and the lower corner which  is widely open to invasion and reduction. The upper side seems no man's land, so the more urgent move is an extenion in the upper side. Now a invasion is not necessary because there are much territory left and if you can manage it well the game will be close.
The variation with the invasion looks bad for you because of your weakness around  M3.
With the exchange to 7 the game would be in your favour.]
(;W[ne];B[of];W[fd]C[*good. g16 also better];B[jc];W[hc]C[H17 is a good move cause you push black against your wall and steal a base]
;B[lc];W[le];B[ib];W[hb];B[ia]
(;W[je]C[*j15 better];B[id];W[hd]C[looking back now I think I could have contained him with h15 but I still don't think I could have killed him...in the game I try to take compensation in the top left corner

* your purpose for compensation is good, but maybe u could contain him withj15. a keima from h17. is a good attacking move.]
;B[ie];W[jg];B[if];W[gg];B[jf];W[kg];B[ke];W[kf];B[kd];W[ld]
;B[mc];W[mg]C[* now black is safe];B[oc];W[ob];B[od];W[nb];B[mb]
;W[ch]C[*this move is very big for u];B[cf]C[*black too greedy again.he shouldn't live here!]
;W[dg]C[*good attack!];B[bd];W[bc];B[cg];W[dh]C[is this necessary?

* he seems to have no enough eye space so you should avoid a semeai and avoid this cut. i think it's necessary]
;B[bh];W[bi];B[ah];W[ai];B[bg];W[be];B[ad];W[cd];B[ae];W[ce]
;B[ci];W[cj];B[di];W[dj];B[ei];W[bj];B[ek];W[dk];B[cl];W[dl]
;B[ef];W[df];B[de];W[ee];B[eg];W[dd];B[eh];W[de];B[gf]C[*you should try to keep him separate (see var)]

(;W[cm];B[bn];W[bl];B[dr];W[er];B[cr];W[eq]SQ[oh][oj][nk][hl]
[jl][ll][fm][nm][mn][nq][mr][or]C[at this point I think I am in with a fair chance of winning.  What is the best direction to proceed from here?

* This is a good moment to estimate the score. If u would be ahead u should try to keep the game simple, in the other case you should invade or try something bigger than territorial moves.

Black:  10 in the lower left corner
+ 10 in the upper side
+ 65 on the right
1 prisoner
= about 85
White: 40 on the left
+45/50 on the bottom
+ 5/10 center
+(no komi) 1 prisoner.
=about 90/95

u seems ahead but your lower moyo is still widely open. so black could steal you a lot of points with a good endgame      (O2 is vey big now for black)]
;B[fg]C[*A good way to start here is P2 and then a move likeN7 or G8.]
;W[oh];B[pg];W[ej]C[this move seems pointless and self-destructive now

* you are right. this stone is not important, a move around G8 would have been better for your moyo]
;B[fj];W[go]C[no reason this should not be two or three lines higher

* submissive];B[fl];W[el];B[fk];W[hk];B[mm]C[*Veery big. this move is good for both player because it build a moyo reducing opponent's one.]
;W[nn];B[nm];W[ol];B[om];W[oj];B[ok];W[nk];B[pk];W[lk];B[ii]
;W[ig];B[hg];W[hh];B[gh];W[hi];B[hj];W[ij];B[gj];W[ih]C[*you gained points in the center losing in the lower side.]
;B[ik];W[jj];B[hl];W[gm];B[hm];W[hn];B[ln];W[lp];B[ko];W[kp]
;B[oq]C[*lucky you :). O2 bigger];W[nq];B[fm];W[fn];B[gl];W[jk]
;B[il];W[jn];B[nl];W[mk];B[oi];W[ni];B[pi];W[pj];B[qj];W[nj]
;B[og];W[ng];B[nf];W[mf];B[md];W[me];B[ph];W[mn];B[km];W[jm]
;B[gn];W[ho];B[gm];W[kn];B[lo];W[mo];B[jo];W[io];B[lm];W[jl]
;B[en];W[fo]C[*here you are still ahead];B[em]C[*this is small (only one point) (see var)]

(;W[eo];B[es]
(;W[gr]C[*why not f1? you lost many points here.];B[fr];W[fq]
;B[fs];W[gs];B[ds];W[hq];B[nr];W[mr];B[or];W[ns];B[os];W[ms]
;B[op]C[*no problem here. (see var)]
(;W[mq];B[nh];W[mh];B[oh];W[qa];B[ra];W[pa];B[rb];W[al];B[bp]
;W[ma];B[la];W[na];B[ha]
(;W[ga]C[this costs me quite a few points
* yes in this close match this was a bad endgame error];B[gb]
;W[fb];B[fa];W[gc];B[ga];W[eb];B[ea];W[db];B[da];W[ca];B[ic]
;W[gi];B[fi];W[he];B[hf];W[fe];B[ge];W[gd];B[kl];W[kk];B[ba]
;W[cb];B[ec];W[ac]C[*not necessary];B[am];W[bk];B[im];W[in]
;TW[aa][ba][oa][ab][bb][dc][ec][fc][ad][bd][ed][ae][af][bf]
[cf][lf][ag][bg][cg][lg][ah][bh][jh][kh][lh][ii][ji][ki][li]
[mi][aj][kj][lj][mj][ak][ck][cl][ep][fp][gp][hp][ip][mp][gq]
[jq][kq][lq][hr][ir][jr][kr][lr][hs][is][js][ks][ls]TB[ja][ka]
[sa][jb][kb][lb][sb][kc][rc][sc][jd][qd][rd][sd][je][pe][qe]
[re][se][pf][qf][rf][sf][gg][qg][rg][sg][fh][rh][sh][qi][ri]
[si][rj][sj][gk][hk][rk][sk][ol][pl][ql][rl][sl][pm][qm][rm]
[sm][pn][qn][rn][sn][ao][po][qo][ro][so][ap][pp][qp][rp][sp]
[aq][bq][qq][rq][sq][ar][br][pr][qr][rr][sr][as][bs][cs][ps]
[qs][rs][ss]C[* In this match you lost many points during the end-game, but your middle game was good. main errors according to me are:
-the cutting aroud h13 u should have done
-the endgame around H18 and E1
-the 21 points you have on the bottom that could have been about 40. 

The right side is very big for black, but while he was gaining all those points you gained strenght and influence on the other part of the goban, but he was able to reduce you enough to win.


You can contact me for further explanation. Feel free to ask about this game or other one, i will be pleased to help you.
You can find me on Kgs as "fonta"])
(;W[fb]
(;B[ga];W[fa];B[gb];W[gc])
(;B[fa];W[ea];B[ga];W[eb])))
(;W[ha];B[mq];W[mp];B[lq];W[lr];B[kq];W[kr]))
(;W[fs]
(;B[ds];W[fr])
(;B[fr];W[ds])
(;B[gs];W[ds];B[fr];W[es])))
(;W[qa];B[ra];W[pa];B[rb];W[nr];B[or];W[op];B[pp];W[ha]C[*white +10]
))
(;W[ff];B[fg];W[hf];B[fe];W[he];B[hg];W[gh];B[hh];W[gi]
(;B[hi];W[gj];B[ig])
(;B[hj];W[hi];B[ii];W[ih];B[ig];W[ij];B[jh];W[gj];B[hk];W[gk]
C[*your stone at J10 has a lot of aji])))
(;W[ie];B[je]))
(;W[qp]
(;B[qq];W[qm];B[pl];W[pp];B[op];W[oq];B[nq];W[or];B[nr];W[rq]
;B[qr];W[rr];B[os];W[qs];B[pr];W[ro]C[*this would be a loss for white because also if he could live inside black territory, his lagest territory is going to be destroyed by black.]
;B[lp])
(;B[pp];W[qm];B[pl];W[qq]C[*now it's difficult to figure what is the best black move, but maybe white can live here.]
)))
(;W[kd]))
(;W[qc]
(;B[pc];W[pb];B[ob];W[qb];B[oc];W[re]C[* black is overconcentrated and doesn't have a support at top to build a moyo, so he need another move, if he tries to stop u on the left u can play around j16 to make his wall futile, if he plays around j16 u can enter in the left side threatening a invasion in the lower right]
)
(;B[qd];W[pc];B[md]LB[mc:B][nd:A]C[*two possible answer::
A to provoke a fight, B for territory])))
(;W[bp];B[an];W[bq]))
(;W[cn]TR[co][no][dp][np][dq]C[*large moyo]))
(;B[cr];W[dr];B[do];W[cn];B[eo]C[*here u have 2 groups in trouble: C5 and D3.]
))
(;W[qo];B[qp];W[po];B[np]C[this is a strong attack! now u have to escape and black is gaining the lower side and maybe a moyo between S9 and Q16.]
))
