(;FF[4]GM[1]SZ[19]ST[2]CA[UTF-8]AP[SGFC:1.15]

PB[Erithid]
BR[26k]
PW[smallblue]
WR[24k]
KM[0.5]
DT[2003-09-24]
PC[IGS-PandaNet]
RE[W+73.50]
RU[Japanese]

C[Hello, I hope it isnt too early to submit another game. The last review helped me so much. I thought this was an interestign game myself. My main questions are: Is there a way i could have stopped the reduction in the lR? and When should i have invaded or how could I have reduced my oponents L? My last reviewer, Tartuffe, said I needed to make territory in CORNER-SIDE-CORNER. I tried to do that more and keep some influce in the center as well. Anhow, and commenst would eb appreciated.]
;B[pd];W[dp];B[pp];W[dd];B[pj];W[nc];B[pg];W[pc];B[qc];W[od]
;B[pe];W[cf];B[fq];W[fp]C[Brodie: up to here everything looks pretty good.]

(;B[hp]C[Brodie:  This isn't very solid.  White should be able to cut at G3 no problem.  I think H3 would be much safer.]

(;W[eq];B[gq];W[gp];B[iq];W[me];B[jd]C[Brodie:  Very good.  This is the right idea;  taking the territory now would be much easier than invading later.]
;W[lc];B[pb]C[Brodie: This is small.  It's worth a few more points than I thought, but following up your move at K16 would probably be better.]
;W[oc]TR[gc]
(;B[rb]C[Brodie:  This is even smaller! I don't think it's really necessary.  G17, or a similar play would be very good;  K16 is pretty vulnerable.]
;W[hd]C[Brodie:  there's a small variation added somewhere.  Here white makes territory along the top, where black had the chance to first.]
;B[jg];W[gn]C[Brodie:  invading the side now would be good.  It's always nice to be prompt with these things.  Once you miss your chance, it's very hard to fix things.  Also, you could invade upper left corner! 3,3]
;B[fj]C[Brodie:  I would play to make territory still, rather than reduce.  C10 is Probably pretty good.]
;W[kq];B[nq]C[Brodie: .... other side maybe?  Should be okay, but it crowds the left group so  I feel uneasy about it though.]
;W[ko];B[jr];W[kr];B[hr];W[ho];B[ip]C[Brodie: J5.  It's the same thing, more or less, but if you lost by a point......  :-)]
;W[io];B[is]C[Brodie: This is okay; it's good to be safe, but try not to over do it.   Also,  I think F2 would be a little better (just a few points again, but they add up!)]
;W[jp];B[jq]C[Brodie:  This one, I'm sure isn't necessary.   This move could be put to a lot better use.  Black still has the option of trying to make some territory on the left, or invading the top right corner (3,3).]
;W[mo];B[pm]C[Brodie:  This is fine also.];W[jj]C[Brodie:  I think the game is fairly even at this point.]
;B[mm];W[km];B[gg]C[Brodie:  I'm not sure about this.  It makes sense to connect, but I think you could do without it right now.  Once again, the left side is wide open!]
;W[ff];B[ge]C[Brodie:  it looked okay at first, but it doesn't work, it's so easy to cut.]
;W[gf];B[hf];W[he];B[ig];W[je];B[ke];W[ie];B[lf]C[Brodie:  This is fine, but letting your K16 stone get cut hurt a lot.  These past few moves didn't go so well.  The problem was G15...]
;W[kf];B[jf];W[kg];B[kh];W[kd];B[lg];W[le];B[kf]C[Brodie:  This one's kind of small.  If you moved right away, you could still take a lot of the left side.  You still might get away with a small invasion in the corner also]
;W[eh];B[fh]C[Brodie:  Yeah,  connecting is good, and this almost gets you a few points in the middle, but, it's not that big.  The side is still possible.]
;W[ej]C[Brodie:  Now it would be much harder to do anything in the side.  Almost any of your moves up till now could have gone around C9 and would likely have worked out great.]
;B[ek];W[fi]C[Brodie:  How about D10?  Letting white take the side is definitely a bad thing.]
;B[gi];W[ei];B[gk];W[dk];B[kc]C[Brodie:  This is the right idea.  Cut things, threaten things, try and see what you can do.  It works out very well for you!]
;W[ld];B[ic];W[gd];B[lb];W[mb];B[ka];W[oe];B[qf];W[og];B[id]
;W[hc];B[ib];W[hb];B[la]C[Brodie: K18 is essential RIGHT NOW.  You play it on your next move, which is good, but white K18 now is sure to kill that group.]
;W[na];B[jb];W[ob];B[pa];W[mg];B[mh];W[nh];B[mi];W[lj];B[li]
C[Brodie:  I think this move is a little small.  E8 might be good.]
;W[hk];B[dm]C[Brodie:  This one is similar to G15.  Be careful when you extend, you're letting stones get cut a bit too easily some times.]
;W[el];B[fk];W[dl];B[lk];W[kk];B[ll];W[mj];B[mk];W[nj];B[ni]
;W[oi];B[oj];W[nk];B[ol];W[nm];B[nl];W[oo];B[ok];W[kj];B[nn]
;W[on];B[om];W[oq];B[op];W[np];B[pq];W[or];B[mp];W[no];B[mr]
;W[pr];B[lp]C[Brodie:  I think R2 might be a little better here.  You're showing some good fearless spirit; good for you!  It's good not to let yourself get pushed around.  Still, being careful is good too! ^_^]
;W[lo];B[kp];W[nr];B[mq];W[ms];B[ls];W[jo]C[Brodie:  All is not lost.  I think you still have the option of playing R2 at this point, with quite a reward.  (There are a few variations, R2 works, but there's a slight problem if white replies at R3.)]

(;B[ks];W[po];B[qq];W[qr];B[qo];W[rq];B[qp];W[qn];B[ro];W[rn]
;B[sp];W[rp];B[rm];W[so]C[Brodie:  ouch.];B[ph];W[ki];B[lh]
;W[oh];B[ji];W[ij];B[ii];W[fm];B[hh];W[fg];B[gh];W[fr];B[hj]
;W[hl];B[kl];W[jl];B[mn];W[lm];B[ml];W[gr];B[hq];W[er];B[mf]
;W[of];B[nf];W[ne];B[md];W[mc];B[oa];W[ma]C[Erithid: oh well, heh close
*smallblue*: yes, a challenging game];B[ln];W[kn];B[gm];W[gl]
;B[pi];W[qm];B[rl];W[ql];B[qk];W[sm];B[sl];W[sn];B[sk];W[ia]
;B[ja];W[ha];B[cc];W[dc]C[Erithid: forgive me, but i am almost 90 ponts back, i gotta try

Brodie:  fine, but you should have tried a little sooner ^_^]
;B[db]C[*smallblue*: you're welcome to try];W[bd];B[bc];W[ac]
;B[ab];W[ad];B[ba];W[cd];B[cb];W[eb];B[da]C[Brodie:  well done.]
;W[cq];B[ea];W[fb];B[fa];W[ga];B[tt];W[gs];B[ec];W[fe];B[pl]
;W[fl];B[gj];W[if];B[hg];W[hs];TW[gb][nb][ec][fc][gc][ed][fd]
[md][nd][ae][be][ce][de][ee][ge][af][bf][df][ef][ag][bg][cg]
[dg][eg][ah][bh][ch][dh][ai][bi][ci][di][aj][bj][cj][dj][ak]
[bk][ck][ik][jk][al][bl][cl][il][am][bm][cm][dm][em][gm][hm]
[im][jm][an][bn][cn][dn][en][fn][hn][in][jn][ao][bo][co][do]
[eo][fo][go][qo][ro][ap][bp][cp][ep][op][pp][qp][sp][aq][bq]
[dq][pq][qq][sq][ar][br][cr][dr][rr][sr][as][bs][cs][ds][es]
[fs][ns][os][ps][qs][rs][ss]TB[aa][ca][qa][ra][sa][bb][kb][qb]
[sb][jc][rc][sc][qd][rd][sd][qe][re][se][rf][sf][kg][qg][rg]
[sg][ih][jh][qh][rh][sh][hi][qi][ri][si][qj][rj][sj][pk][rk]
[nm][ir][js]C[smallblue: 117.5 to Erithid: 44.0
I lost by a lot, but i thought that until teh end the game was close. Thank you for your help and time again. ~Erithid

Brodie:  The game was pretty close for much of the game.  Trying to take territory on the left at almost any point would have helped a lot.  The earlier the better.  Try to be prompt with this sort of thing.  You often had the right idea, but just not early enough.
  Another thing, is the plays at G15 and D7.  The were cut very easily, and seemed a little wasteful.  Other than that you played quite well.  Keeping the bottom right would have been a big help too!
  I hope this all helps!  Much luck playing Go!])
(;B[qr]
(;W[lr];B[ns];W[ks];B[ms]C[Brodie:  Fantastic! I really can't think of a way out for white!]
)
(;W[qq]
(;B[qp];W[rq];B[rr];W[rp];B[qo];W[ro];B[qn];W[rm];B[rn])
(;B[rq];W[qp];B[po];W[pn];B[qo];W[qn];B[ro];W[rr];B[rp];W[qs]
;B[qq];W[lr];B[ns]C[Brodie:  This one is rough.  It works out okay, but you're gonna get reduced a bit along the side.]
))))
(;B[gc];W[ec];B[kc]C[Brodie:  ideally, it would be nice to make some territory along the top.  It may not be huge, but it would reduce white very much!]
))
(;W[gq];B[gp];W[eq]
(;B[hq];W[fr])
(;B[fr];W[gr];B[er];W[dr];B[hq]C[Brodie:  This would be terrific for white.]
)))
(;B[hq]C[Brodie: white will not likely cut here.]))
