(;FF[4]GM[1]SZ[19]ST[2]CA[UTF-8]AP[SGFC:1.15]

GN[nkit-dayafter(B) IGS]
EV[Internet Go Server game: nkit vs dayafter]
PB[dayafter]
BR[5k]
PW[nkit]
WR[3k]
KM[0.5]
DT[2003-11-10]
PC[IGS:  igs.joyjoy.net 6969]
RE[W+3.50]
TM[60]
RU[Japanese]
US[Brought to you by IGS PANDANET]

C[Hello my name is Rogerio and I am dayafter playing black.

It has been some time since I improved my game, so any general hints would be apreciated.

I will go through some of my moves, but any time you want to feel free to give any comments.

Thanks :)

Frank: Hi Rogiero. 
I had a look at your game and made some comments here and there. I think you made one big -strategic- mistake, leaving your cutting stones around G16 weak during the first half of the game. For the rest, you could try to pay some more advantage to making good shape (something I have to do too...). Believe me, it pays off in the end.]
;B[pd];W[dp];B[cc];W[pp];B[qn];W[nq];B[rp];W[dd];B[dc];W[ed]
;B[be];W[dg];B[fb];W[gc];B[fc]C[F: You could leave the situation as it is and cut later, depending on the circumstances.]
;W[fd];B[gd];W[hc]
(;B[hd]C[This move will prove to be weak later in the game, maybe I should have left the weakness at G16 for the future?

F: Yes, or you should extend the other way. See variation];W[id]
;B[ie];W[jd]
(;B[fe]C[F: This shape is not so good/efficient. See variation]
;W[cf]
(;B[cn]C[F: White 24 is not sente, but leavin your cutting stones alone now is dangerous. See variation]
;W[ck];B[fn];W[gp];B[cq]C[F: If you want to invade at 3-3, you shouldn't exchange 27 for 28. After playing out the corner sequence, it will look like as if 27 is caught on a big scale.]
;W[cp];B[dq];W[ep];B[bp];W[bo];B[bq];W[co]C[This makes 2 weak groups, but since the left was already his I thought I could profit later on.

F: I don't understand what you mean. The left wasn't white up till now. If he plays a splitting attack now, one of your weak groups will be in big trouble.]
;B[bn];W[ao];B[eq]LB[fr:a]C[F: Better at a (F2). It's also gote, but leaves more options later on (you're not completely blocked off).]
;W[fq];B[fr];W[gr];B[er];W[fk]C[F: There is the splitting attack.]
;B[di]C[F: Risky. It's still better to make you're cutting group stronger in the first place]

(;W[ci]C[F: See variation];B[ch];W[dh];B[cj];W[bi]
(;B[bj]C[F: The normal move would be D10. See variation];W[dj]

(;B[bk]C[F: If white just connects, you're in trouble. See variation.]
;W[ei];B[cl];W[dk];B[dl];W[el];B[em];W[fm];B[en];W[gm];B[gg]
C[F: G 14 or H 14 give better shape.];W[nc];B[oc];W[nd];B[pf]
;W[qh];B[qg]C[F: Bad, makes white stronger. If you want to defend the corner, you should play R14. This leaves also less possibilities in the corner]
;W[ph];B[qk];W[je];B[if];W[kg];B[ng];W[ni]C[Now this seems like pushing him up to my weak stones... seems a lot like trouble.]
;B[mf]
(;W[li]C[F: Not necessary. Time to launch the attack on the black center group. See variation]
;B[lh]C[F: Premature, since your weak group around G16];W[kh]
;B[mh];W[mi];B[ki];W[ih];B[jf];W[kf];B[ke]C[F: Fighting spirit, but ...]
;W[le];B[kd]
(;W[jb]C[F: Good shape. If white plays hane, black can connect his G16 group. See variation]
;B[ld];W[md];B[me];W[lf];B[kb];W[lb];B[kc];W[jc];B[hh]C[F: A loss of over 10 points, and you still have to rescue your group.]

(;W[ig];B[ii];W[ji];B[hg];W[kj];B[gi]
(;W[fh]C[F: Better seal black in and make a huge moyo at hte bottom side. See variation]
;B[ee];W[cd];B[bd];W[df]C[F: Not necessary.];B[hk]C[I manage to live, he made some mistakes and the game gets really close, but I seem to lack a lot in yose.

F: Thje problem still is your weak group, but white is to eager to kill it. If he let you leve and seals off the bottom, he will have a much larger victory. Your yose isn't that bad at all, apart from one big mistake.]
;W[ij];B[hj];W[im];B[ik];W[jj];B[jl];W[ll];B[jm];W[in];B[kn]
;W[mn];B[kp];W[jo];B[ko];W[iq];B[mq];W[np];B[mr];W[kr];B[kq]
;W[lr];B[lq];W[jq];B[mp];W[mo];B[lo];W[om];B[pm];W[on];B[ob]
C[F: Big];W[nb];B[qq];W[rg];B[rf];W[pg];B[qf]C[F: A mistake, as the game shows.]
;W[of];B[og];W[nf];B[oh];W[oi];B[oe];W[ne];B[rh];W[ri];B[sg]
;W[qi];B[pj];W[pi];B[nk];W[ml];B[fo];W[fp];B[gn];W[hn];B[ai]
;W[ah];B[al];W[aj];B[bm];W[pq];B[pr];W[or];B[qr];W[pn];B[qm]
;W[ol];B[ok];W[pl];B[pk];W[ql];B[rl];W[rj];B[rk];W[qo];B[ro]
;W[oa];B[pa];W[na];B[pc];W[od];B[pe];W[gb];B[ga];W[ib];B[ha]
;W[ia];B[ec];W[ap];B[aq];W[ka];B[hi];W[ff];B[gf];W[bf];B[hl]
;W[hm];B[gl];W[fl];B[fg];W[ef];B[nl];W[nm];B[jp];W[ip];B[gs]
;W[hs];B[fs];W[ir];B[ls];W[ks];B[ms];W[ps];B[qs];W[os];B[qp]
;W[po];B[jn];W[io];B[mk];W[lk];B[lm];W[ln];B[km];W[mm];B[af]
;W[ag];B[ae];W[fj];B[eg];W[jg];B[he];W[sk];B[sl];W[sj];B[an]
;W[sh];B[si];W[pb];B[qb];W[sh];B[fa];W[go];B[hb];W[lc];B[ic]
;W[hc];B[gc];W[rg];B[sf];W[mj];B[rh];W[nr];B[ak];W[ai];B[eh]
;W[fi];B[jk];W[rg];B[hr];W[hq];B[rh];W[bc];B[bb];W[rg];B[js]
;W[jr];B[rh];W[ac];B[ab];W[rg];B[ic];W[rh];B[hc];W[dn];B[dm]
;W[do];B[ge];W[kk];B[rm];W[ce];B[ad];W[tt];B[tt];W[tt];TW[ja]
[la][ma][kb][mb][kc][mc][kd][ld][ke][me][mf][bg][cg][lg][mg]
[ng][og][bh][ch][jh][lh][mh][nh][oh][di][ki][si][ej][lj][ek]
[nn][ho][no][oo][hp][op][gq][oq][hr][is][js]TB[aa][ba][ca][da]
[ea][qa][ra][sa][cb][db][eb][gb][pb][rb][sb][ac][bc][qc][rc]
[sc][qd][rd][sd][qe][re][se][hf][bl][am][cm][sm][rn][sn][so]
[lp][sp][rq][sq][ar][br][cr][dr][rr][sr][as][bs][cs][ds][es]
[rs][ss])
(;W[ik];B[fh];W[on]C[Game over]))
(;W[hi];B[jh];W[jg];B[ji];W[ig];B[ii]))
(;W[kc];B[ic];W[ld];B[hb]))
(;W[ih];B[li];W[nk]))
(;B[bk];W[dk];B[cl];W[em]
(;B[en];W[dm];B[dn];W[hn])
(;B[dm];W[en];B[bm]C[Cutt off.])))
(;B[dj];W[bj];B[dk];W[dl];B[cl];W[bk];B[el];W[dm];B[dn];W[cm]
;B[em];W[bm];B[am];W[bl];B[ek]C[And something like this could follow, which would we a great succes for black]
))
(;W[eh]C[Something like this seems more promising]))
(;B[hf]C[If you reinforce here, white is almost obliged to answer on the upper side. And if your cutting stones are strong, you might have a chance later to attack the white stones on the left.]
))
(;B[gf]))
(;B[ge];W[ff];B[id]))
