(;FF[4]GM[1]SZ[19]ST[2]CA[UTF-8]AP[SGFC:1.15]

PB[yfh2]
BR[7k]
PW[bahzfaz]
WR[7k]
KM[6.5]
DT[2003-11-23]
PC[The Kiseido Go Server (KGS) at http://kgs.kiseido.com/]
RE[B+6.50]
TM[1200]
OT[25/600 Canadian]
RU[Japanese]

;B[pd];W[pp];B[cd];W[cp];B[eq]C[I'm not sure this is honte ...

I wanted to play the chinese, originally ...

DRS: It's a pro move.  The high approach is more common.];W[ec]
;B[gd];W[ee];B[df]LB[cg:A]C[DRS: You can also consider A here, it's a pro move too (locally), perhaps particularly when the lower left is your opponent's.]
;W[ff]LB[cm:B][cn:A]MA[id][ge][dh]C[This is not josekish to me X according to Kogo).


but as I don't have the understanding of the joseki rationale, i decide to tenuki.

I assume G16 is high and will eventually live ... (or be usefully sacrificed)

DRS: I'd probably go after C4 here, because it also makes a white attack on D14 less attractive.  Perhaps A or B?  Locally, B can also extend across the right side.]

(;B[eo]LB[cn:B][eo:A]C[I did not know how to play the single C4 stone.

Pincer did not appear goo to me, because it would leave 1 low stone alone.]
;W[dn];B[np];W[qn]C[DRS: How about K3 now?];B[pq];W[qq];B[oq]
;W[jq]C[that was expected.];B[hq]MA[jo]C[Cap play better ?

DRS: I'm not wild about the cap.];W[mq];B[qr];W[rq];B[mp]MA[mo]
[lr]C[there is probably better.];W[lp];B[lo];W[kp];B[cj]C[DRS: This strikes me as a nice double purpose move.]
;W[cl];B[ej];W[jn]MA[jd][pf][qj]C[Isn't this small for W ?

DRS: I like this for W.  W isn't that close to getting shut in, but this feels less so.]
;B[cr];W[fm];B[qf]MA[jc]C[Any bigger move ?

DRS: I like K16.  I'm no pro, but I think the pros like to make a 2 space extension on the fourth line when G16 is already undercut (like by E17).  K16 puts pressure on White's weak E17 group.]
;W[mc];B[kc]C[DRS: Nice.];W[me]C[Is W not too easy on B ?

DRS: There is a proverb that says a 1 point jump is never bad.]
;B[ke];W[ic];B[id];W[gc];B[fd];W[fc];B[ed];W[hd];B[he];W[hc]
;B[jd];W[dd];B[de];W[dc];B[ge]C[DRS: Great for Black.  W is shut in, and the two stones are floating aimlessly.]
;W[fh];B[ef]C[bad, I think.];W[fe];B[gj];W[hg]
(;B[jg]LB[hf:B][jg:A];W[cc];B[bd];W[ii];B[ih];W[hi];B[hh];W[gi]
;B[fg];W[fj];B[fk];W[fi];B[ek];W[gk];B[oc];W[kb];B[lb];W[jb]
;B[lc];W[mb];B[la];W[ng];B[ph];W[lh]
(;B[qk]LB[ji:B][qk:A]C[I may also have continued attacking, but I was rather territory minded this day ...

DRS: I like A as well.  It seems hard to derive any profit from attacking the white group.]
;W[br];B[cq];W[bq];B[dp];W[co];B[ip];W[ko];B[op];W[po];B[mn]
;W[gg];B[gf];W[ch];B[dh];W[bj]
(;B[ci]LB[bi:C][ci:A][bk:B]C[I think this was correct. (see variations)

DRS: I added a little to one.];W[bi];B[bh];W[ck];B[ei];W[rr]
;B[ps];W[qj];B[pj];W[pk];B[qi];W[rj];B[rk];W[oj];B[pi];W[pl]
;B[kn]C[Then it is time to make this live ...];W[io];B[ho];W[km]
;B[ln];W[hn];B[go];W[kf];B[jf]
(;W[ki]LB[ki:A]MA[nn]C[After those kikashis, I was afraid of W O6
But B O6 makes life now ...];B[ml];W[jh]
(;B[ig]LB[md:B][ig:A]C[probably useless. 5 point gote ?

I missed the stone I wanted to play for long ... (see var)]
;W[oe];B[gl];W[hk];B[lk];W[fl];B[en];W[dm];B[gn];W[hl];B[ir]
;W[nr];B[or];W[jr];B[nn]C[againi, W was easy on B];W[ql];B[rl]
;W[rm];B[ri];W[gm];B[kl];W[lm];B[jm];W[jl];B[im];W[in];B[ll]
;W[hm];B[mm];W[pa]
(;B[pb]LB[oa:B][pb:A]C[P19 better, probably

DRS: I believe this is the standard answer.];W[oa]
(;B[ma]C[DRS: Aji keshi.];W[nb];B[ob];W[na];B[rb];W[iq];B[hr]
;W[bg];B[cg];W[ah];B[bf];W[ag];B[af];W[ai];B[nd];W[md];B[pe]
;W[bk];B[ne];W[nf];B[lf];W[mf];B[jj];W[ji];B[om];W[ok];B[pm]
;W[qm];B[nh];W[mh];B[ni];W[il];B[sm];W[sn];B[ro];W[sl];B[sj]
;W[rs];B[qs];W[ns];B[os];W[gh];B[lg];W[mg];B[bc];W[bb];B[ab]
;W[ba];B[bs];W[ar];B[js];W[ks];B[is];W[kr];B[kj];W[jc];B[kg]
;W[mj];B[nj];W[mi];B[of];W[og];B[pf];W[pg];B[qg];W[qb];B[qc]
;W[qa];B[ij]C[DRS: S19 is big.];W[hj];B[nq];W[mr];B[ra];W[ka]
;B[lj];W[fn];B[fo];W[hf];B[if];W[eh];B[eg];W[dk];B[ch];W[dj]
;B[el];W[em];B[di];W[jp];B[hp];W[nc];B[od];W[oo];B[km];W[no]
;B[mo];W[pn];B[sk];W[sm];B[ol];W[nk];B[nl];W[mk];B[jk];W[ld]
;B[kd];W[bp];B[cs];W[cb];B[ac])
(;B[qa]C[DRS];W[qb];B[na];W[ra];B[nb];W[qc];B[qd];W[rd];B[re]
;W[sc];B[sb];W[rb];B[se];W[sa];B[sd]C[DRS: White appears to die, though it is a little spookey.  Your sacrifice is good if you're worried W might be able to live inside.]
))
(;B[oa]LB[oa:B][pb:A];W[ob];B[pb];W[na];B[qa]
(;W[oa]LB[oa:A][nb:B];B[ma];W[nb];B[md])
(;W[nb]LB[oa:A][nb:B];B[qb])
(;W[qb]C[DRS: Ko?])))
(;B[md]LB[md:B][ig:A];W[nd];B[ld];W[nc];B[ne];W[oe];B[nf]))
(;W[nn]LB[ki:A][nn:B];B[mr];W[lr];B[nr];W[ms]C[and probably a ko for life

DRS: I don't see a ko over anything meaningful.  I see Black with one eye and little prospect of getting a second.]
))
(;B[bk]LB[bi:C][ci:A][bk:B];W[ck];B[bi];W[dj];B[ci];W[di];B[ei]
;W[dk];B[eh];W[bh];B[aj];W[bl];B[cg];W[bg];B[bf];W[ah];B[af]
C[DRS: Seems like Black is ok])
(;B[bi]LB[bi:C][ci:A][bk:B];W[ci];B[bh];W[dj];B[ck];W[dk];B[di]
;W[bk];B[ei];W[cg]))
(;B[ji]LB[ji:B][qk:A];W[jj];B[ki];W[ni];B[qk];W[nk];B[kj]C[might be better than in the game]
))
(;B[hf]LB[hf:B][jg:A];W[gg];B[ig];W[hi];B[ih];W[hh];B[ij];W[ii]
;B[ji];W[hj];B[hk]C[W gets out]))
(;B[cn]LB[cn:B][eo:A];W[do];B[dn];W[fo]))
