(;FF[4]GM[1]SZ[19]ST[1]CA[UTF-8]AP[SGFC:1.15]

PB[shaip]
BR[24k]
PW[zakuronoha]
WR[24k*]
KM[6.5]
DT[2003-10-26]
PC[IGS-PandaNet]
RE[W+23.5]

C[shai:id like to know my general mistakes btw no need to tell me about the 2 groups i know why i lost them that is unless there was a way for them to live
shai:id also like to know places where i could have gotten more terretory and where theres a better move(hopefully you can cover all or at leest most)
Broege: The review was done using cgoban 1.9.12];B[pd];W[dp]
;B[op];W[dd];B[fe]LB[fc:A][fd:B][cc:C]C[shai: good move?
Broege: This move is very nonstandard - it does not push White too strongly. Common joseki moves are approaches at A, B (or symmetric points) or invasion at C. In this situation an approach would be more welcome.]
;W[dj];B[df]LB[pj:A][qp:B]C[shai: moving in=good?
Broege: It depends on your style. I'd rather try to develop myself (any point near A) or close LR corner (at B), but if you prefer fighting it's OK.]
;W[cc];B[fj]LB[ei:A][ek:B]C[Broege: This move seems too high, White can try to get territory on fifth line (i.e. by playing at B). How about A?]
;W[ei];B[ec];W[ce];B[de];W[kc];B[hq]LB[ic:A]C[Broege: After L17, the D15 group is weakened. A could strenghten it and put pressure on L17 stone. Then Black can play on the lower side.]
;W[dm];B[pj];W[qp];B[qo]LB[pn:A][qq:B]C[Broege: A and B are other common options.]
;W[pp];B[po];W[oq];B[rq]LB[np:A]C[shai:better move?
Broege: Perhaps simple A, building strong influence toward the center is enough. Black begins to create huge moyo - F10, Q10, H3 and O4.]
;W[np];B[oo];W[rp];B[pq];W[qq];B[pr];W[qr]
(;B[or]C[Broege: See variation showing how to contain White (stones Q2 and Q3 are lost, of course).]
;W[nq];B[mr];W[nr];B[ns];W[os];B[ps];W[qs];B[lp];W[no];B[nn]
;W[mn];B[mo];W[on];B[pn];W[nm];B[pl];W[lo];B[mp];W[ln];B[er]
;W[cq];B[mq];W[os];B[ps];W[ms];B[ls];W[ns];B[kr];W[kp];B[kq]
;W[ro];B[rn];W[nc];B[ne];W[qc]
(;B[qf]LB[qd:A]C[Broege: Why not just A? See the variation.]
;W[pc];B[qd];W[rd];B[re];W[rc];B[sd]C[shai any way to block group at Q 17 to s17
Broege: See the variation few moves back.];W[sc];B[se];W[hc]
;B[nl]C[Broege: Now it is high time to take care of D15 group. Unless Black wants to discard it]
;W[ml];B[nk];W[mk];B[mj];W[nj];B[ni];W[lj];B[oj]LB[mi:A]C[Broege: Don't always kill a stone in atari. A would be better - the O10 cannot escape and Black is stronger here]
;W[mi];B[nj];W[li];B[jp];W[jo];B[ko];W[kn];B[kp]C[shai:where should i have moved after this
Broege: I think that Black should try to take control of the center - either by strengthening D15 group or by coming down from the H3 group. It might be already too late, though - D15 group is rather weak.]
;W[io]C[Broege: Now While blocks most of the attacks from H5.]
;B[go];W[dr];B[eq];W[cf];B[dc];W[cb]
(;B[bd]C[Broege: See the variation];W[cd];B[ch];W[cg];B[dg]
;W[ed];B[fd];W[fc];B[fb];W[gc];B[ea]C[Broege: This move is futile - the group is already dead and cannot be resurrected.]
;W[da];B[gb];W[hb];B[ke];W[he];B[hg];W[if];B[bj];W[ci];B[bi]
;W[bh];B[cl];W[dh];B[fg];W[cm];B[bm];W[bn];B[am];W[an];B[bl]
;W[ai];B[aj]C[shai: any way to save group from here
Broege: No, it doesn't look like Black can live now.];W[cj]
;B[dl];W[el];B[ck];W[ak];B[ah];W[ag];B[om];W[nn];B[eo];W[dn]
;B[hi];W[do];B[fm];W[em];B[en];W[fl]
(;B[gl]LB[gm:A]C[Broege: A would be saver, see the variation for a sample followup.]
;W[ep];B[fp];W[fn];B[fo];W[gm];B[gn];W[hm];B[ds];W[cr];B[co]
C[Broege: You don't want to waste your time playing such moves. White could ignore it completely and still be safe, see the variations.]

(;W[bo];B[cs];W[bs];B[es];W[ar];B[bq];W[bp]C[shai where to now?
Broege: I think that now it is too late for Black to do anything. White has solidified his lead (remember marked areas at move 103, in a variation - White has gained some territory in the lower left) while Black gained nothing and is still weak in the center.
White could now just cruise to the victory.];B[ji];W[jk];B[jg]
;W[ig];B[ih];W[kh];B[kg]LB[jh:A]C[Broege: A was required here.]
;W[mg];B[ng];W[mh];B[je];W[id];B[me];W[ld];B[le];W[od];B[oe]
;W[mc];B[nd];W[oc];B[kd];W[jc];B[fi];W[gk];B[hj];W[hk];B[ik]
;W[il];B[ij];W[jl];B[kj];W[kk];B[ki];W[nf];B[of];W[nh];B[oh]
;W[og];B[pg];W[ng];B[lg];W[lk];B[lh];W[ie];B[so];W[sp];B[sn]
;W[pr];B[jn];W[in];B[hp];W[gf];B[gg];W[ff]C[shai:anything i can do at end game here to get alot of points
Broege: No, White is winning with a great margin - see the corrected score after the game.]
;B[eg];W[ee];B[eh];W[ej];B[af];W[bg];B[qb]C[Broege: Another move that could be ignored by White.]
;W[pb];B[md];W[lc];B[fk];W[ek];B[gj];W[hl];B[ho];W[hn];B[ip]
;W[jd];B[mf];W[jf];B[kf];W[dq];B[jj]C[shaip: yes it is];W[ef]
;B[hf];W[jm];B[tt];W[tt];B[tt]TW[aa][ba][ca][ea][fa][ga][ha]
[ia][ja][ka][la][ma][na][oa][pa][qa][ra][sa][ab][bb][db][eb]
[fb][gb][ib][jb][kb][lb][mb][nb][ob][qb][rb][sb][ac][bc][dc]
[ec][ic][ad][bd][fd][gd][hd][ae][be][fe][ge][af][bf][ah][ch]
[ai][bi][di][aj][bj][bk][ck][dk][al][bl][cl][dl][gl][kl][ll]
[am][bm][im][km][lm][mm][cn][jn][ao][co][ap][cp][aq][bq][pq]
[rq][sq][br][or][rr][sr][as][ps][rs][ss]TB[pe][qe][lf][pf][rf]
[sf][qg][rg][sg][fh][gh][hh][jh][kh][ph][qh][rh][sh][gi][ii]
[oi][pi][qi][ri][si][qj][rj][sj][ok][pk][qk][rk][sk][ol][ql]
[rl][sl][pm][qm][rm][sm][qn][gp][fq][gq][iq][jq][lq][fr][gr]
[hr][ir][jr][lr][fs][gs][hs][is][js][ks]C[Broege: The correct score is like this - White wins by 68.5 points.
The game is over.  Final score:
   White = 92 territory + 35 captures + 6.5 komi = 133.5
   Black = 60 territory + 5 captures = 65
White wins by 68.5.])
(;W[tt]C[Broege: White ignores the move. Here a pass is used but in a game White could play in any place of the board.]

(;B[cn];W[bo])
(;B[bo];W[cn])))
(;B[gm];W[gl];B[im];W[jn];B[hl];W[hk];B[ik];W[jl];B[il];W[hj]
;B[ij]LB[ii:A][gk:B]C[Broege: And White cannot play A due to Black's B]
))
(;B[ed];W[cd];B[gh]TR[of][og][oh][oi][pi][ph][pg][pf][pe][qe]
[rf][rg][qg][sf][sg][qh][rh][sh][qi][ri][si][qj][rj][sj][pk]
[ok][qm][rm][sm][ql][qk][rk][rl][sl][sk][fq][gq][fr][gr][fs]
[gs][hr][hs][is][ir][iq][jq][jr][js][ks][lr][lq]MA[ha][hb][ib]
[ia][ja][jb][kb][ka][la][lb][mb][ma][na][nb][pb][ob][oa][pa]
[qa][ra][rb][qb][sb][sa][ba][aa][ab][bb][bd][bc][ac][ad][ae]
[bf][be][af][bg][bh][bi][ah][ag][ai][aj][bj][ck][cl][cm][cn]
[co][cp][bk][ak][al][bl][bm][am][an][bn][bo][ao][ap][bp][bq]
[aq][ar][br][bs][as][cj][ci][sp][sq][sr][ss][rs][rr][pq][pr]
[or]C[Broege: And now Black has to take over the center:
Solid potential territory for Black is (rather generously) marked with triangles - this gives about 50 points.
Solid potential territory for White is marked with squares - this gives about 80 points.
Including komi and prisoners this gives +40 for White. So Black has to do something in the center or the game is lost.]
))
(;B[qd];W[pc];B[rc];W[rb];B[rd];W[qa]TR[pe][pf][pg][qf][qe]
[re][rf][rg][of][og][oh][ph][pi][ri][qi][qh][rh][se][sf][sg]
[sh][si][qj][qk][ql][rm][sm][rl][sl][sk][rk][rj][sj][qg]LB[pg:A]
[nh:B]C[Broege: Now White would have a hard time to live after an invasion near A. And after Black B marked area becomes solid potential territory.]
))
(;B[nq];W[or];B[nr];W[ps];B[mp]C[Broege: And the ladder works, see for yourself. Watch out near F10 and E11 stones.]
))
