(;FF[4]GM[1]SZ[19]ST[0]CA[UTF-8]AP[SGFC:1.15]VW[]

PB[Kyoshinai]
BR[17k]
HA[0]
PW[marttiku]
WR[16k]
KM[6.5]
DT[2003-11-27]
PC[The Kiseido Go Server (KGS) at http://kgs.kiseido.com/]
RE[W+41.50]
TM[1500]
OT[5x30 byo-yomi]
RU[Japanese]

C[Kyoshinai [17k\]: Hello !

I played this game on kgs, where I am black (17k) and my opponent is white (16k).

There are a few major points I'd like to have analyzed. First is a life and death in the upper-left corner, then a life and death in the right. Though I feel there could have been a way, I could not find it, neither in the game nor after.
I lost by quite a huge margin, therefore I'd like to know the big points I missed. Finally, I'm also interested in yose, since I always do poorly in that part of the game.

Please feel free to make any comment on white's moves, too.

Thank you for your time :)

z:  Game reviewed by "zenjutsu" (6k* IGS).  Reviewer comments preceeded by "z:".

z:  I shall do my best to answer your questions, as well as provide general commentary on the game.  As I am only a 6k, please do not view my suggestions as  "the absolute truth".]
;B[pd];W[dp];B[de];W[pp];B[cn];W[fq];B[dj]C[z:  Possible, but remember that this is not yet secure.  A safer extension is D9.  Just remember that this area will need to be strengthened later, or it will be attacked.]
;W[ec]C[z:  This approach is not correct.  The approaches listed as joseki are C17 and D17.  This simply invites B to C17, thus gaining much territory _and_ taking sente.]
;B[cc]C[z:  Yes!];W[ic]C[z:  W's extension seems too far when close to B's strength.  B should punish this at some point in the game.]
;B[qn];W[pj];B[rp]SQ[np][nq][qq]C[z:  This play is not in Kogo's Joseki Dictionary.  When W Q10, B's options are the marked points.  The B play at S4 is too easy for W to respond to; W should R3 to maintain sente and begin securing the bottom, then when B secures his 2 stones, W can play in middle-bottom to strengthen claim.]
;W[qq]C[z:  W responds appropriately.]
(;B[oo]C[z:  No.  W should punish this play.  Too many cutting points are left.  Also, it does not help B live, but it does force W to strengthen his own weakness.  If B's intention is to run to the center, then P6 is the play.  If B's intention is eyespace, then R8 or R9.  If B's intention is to reduce W's bottom, then wait till after securing the two stones and play K4 or L4 later in game.  

z:  I have made two alternative move trees: the first is with W cutting.  It's a tough cut, but I think it is doable for W. The second is an alternative "safe play" that shows a comparison up to move 17.]

(;W[op]C[z:  W opts for a safe acquisition of territory.  Also an acceptable route.  This is what I meant by "force W to strengthen his own weakness".  Furthermore, B is still not alive.  B will have to play another stone to make eyespace.]
;B[qk]C[z:  If you did not look at the alternative move tree at move 15, do so now.]
;W[qf]
(;B[qe]C[z:  Wrong joseki.  Since W has Q10, this attachment does not threaten W, rather it only forces W to strengthen his weakness. Furthermore, with W's weak stones in upper-left, I prefer a play like shown in alternative move tree.]
;W[pf];B[nc];W[lc];B[mb]C[z:  Again, you are forcing W to fix his own weakness.  While you need a stone to secure your corner (if playing a "safe" game, which is wise at your kyu rank), I prefer the one at S15.]
;W[lb];B[np]C[z:  Troublesome.  Too many cutting points, and too easy for W to simply respond at O3, thus fixing his own weakness.  If you intend to reduce W, the place to play is along the bottom-center.]
;W[nq];B[mp];W[mq];B[ok]TR[qh][re][hq][en][dl][dh][ch][cg][dg]
[gc]SQ[qm][ql][nn][no][on][ol][om][pm][pl]C[z:  Too small.  This secures an additional 9 points (I'm being generous in my estimate).  Other options are around triangle marked spots.]
;W[co];B[dn]C[z:  D8 is safer.];W[po]C[Kyoshinai [17k\] : I realized I should not have let white play here, since it threatens all the moyo I had planned to build there

z:  The moyo you planned to build does not appear as valuable as protecting your side or attacking W's weaknesses.]
;B[pn];W[be];B[cg];W[bc]
(;B[cb]C[Kyoshinai [17k\] : At first I intended on killing the white stones, thus I did not want white to connect. But I failed, and got killed instead. Was there a move that could have succeeded ?

z:  First, there might be a way to kill W.  However, I must confess that my life-and-death skills are less than perfect.  My strength tends to lie with.... well, I'm not certain (I'm purely self-taught), but I know life-and-death sure isn't it.  But what I like to do is change direction of the game in a way my opponent might not expect.

z:  For example: W has a _lot_ of weakness on the board right now.  Sometimes, allowing a group to live, but making strength in the process will allow you to attack a _different_ weak group. That's the route I'd take.]
;W[cd];B[dd];W[dc];B[ce];W[bd];B[bb];W[bf];B[bg];W[db];B[cf]
;W[ag];B[af];W[ab];B[ba];W[da];B[ac];W[ad];B[ah]
(;W[ca]C[z:  W didn't need to play here yet.];B[ed]C[z:  Too small, and just forces W to strengthen his own weaknesses.]
;W[fd];B[fc]C[Kyoshinai [17k\] : I do not really know why I played here. Maybe I was thinking I could invade or something, or that white would respond badly.

z:  It is good that you see (in hindsight) that this was a mistake. Try not to play stones that rely on an opponent's mistake to become "good".  If it is only good after an opponent's mistake, then it's not actually "good", rather it is "lucky".]
;W[gd];B[me]C[Kyoshinai [17k\] : Maybe I should have protected around O6 first

z:  I think this stone is acceptable.  It threatens W's right group.  Whether or not it is the best play available, I am uncertain.]
;W[le]C[z:  No!  W _completely_ misreads the threat.];B[mg]
;W[re];B[rd];W[rf]C[marttiku [16k\]: i would have attacked at S11 now as B
Kyoshinai [17k\] : I was afraid of white escaping

Kyoshinai [17k\] : At this point, I was thinking about killing white, but failed to do so. I tried to spend some more time on it afterwards, but I still couldn't see a solution. I'm quite interested on knowing whether there is a way for black to kill.

z:  Sometimes the best way to approach a situation is to consider "if my enemy lives, what will I gain".  Focusing always on the kill, and then failing to get it, usually results in severe pain for yourself.  On the other hand, focusing on threatening the enemy, and then reaping the rewards of your threat (even without killing) is more prudent.]
;B[ph]C[z:  This seems acceptable.];W[qh];B[qi];W[ri];B[pi]
;W[qg]
(;B[sh]C[z:  S10 is the play.  First, S10 ensures that even if white lives, you gain profit from your attack.  Furthermore, I think S10 kills white; but I am not 100% certain.]
;W[sg];B[rh];W[rj];B[rk];W[qj]C[Kyoshinai [17k\] : I should probably have played T15 now, but again I feared white's escaping]
;B[oj];W[se]
(;B[og]C[z:  I prefer enclosing white with sente play at Q9, then playing big play at bottom.]
;W[of];B[nf];W[sd];B[rc];W[sc];B[rb];W[jq]C[z:  W's play here is significant.]
;B[kg]C[z:  No threat to W.  Not sente.  Furthermore, W takes advantage of sente to devestate B's right, and take over game.]
;W[no]C[Kyoshinai [17k\] : This point got out of my mind, and I'm losing quite much here

z:  Yes, the game now appears very firmly in W's hands.];B[nn]
;W[on];B[om];W[mn];B[oo];W[mo];B[mm]
(;W[kn]C[z:  M7 better.];B[fo]C[Kyoshinai [17k\] : I feared white would widen his moyo too much, and thought I had to prevent him from doing so. However, this move did not hurt white, and he could go on with reducing me on the right.

z:  Your hindsight is accurate.];W[el]C[z:  I don't like this play.]
;B[gl];W[lm];B[ml]
(;W[gk]C[z:  Nor do I like this one.  Too easily cut.  This shows why E8 was perhaps less than idea.  However, W could still have F9 instead of this.]
;B[hk];W[gj];B[hj];W[gh];B[fk]C[Kyoshinai [17k\] : I did not want white to connect his E8 stone, lest he could do serious damage inside my moyo.]
;W[fj];B[ek];W[hl];B[gm];W[hm];B[gn];W[ho];B[il];W[im];B[jl]
;W[ll];B[lk];W[mk]
(;B[mj]C[z:  No.  M9 is the play.];W[kk];B[nk];W[ik];B[jj]C[Kyoshinai [17k\] : Maybe I should have played K9, then K10.]
;W[jk];B[kj];W[ij];B[hi];W[ii];B[ih];W[hh];B[ji];W[gi];B[ig]
;W[go];B[fn];W[fp];B[je];W[jd];B[kd];W[ke];B[ld]
(;W[kc]C[z:  Wrong.];B[md];W[ie];B[jf];W[if];B[fe];W[ge];B[ff]
;W[eh];B[gf];W[hf];B[dh];W[ei];B[la];W[ka];B[ma];W[bo];B[bn]
;W[an];B[am];W[ao];B[bl];W[di];B[ci];W[dk];B[dl];W[ck];B[cj]
;W[dg];B[ch];W[ef];B[ee];W[od];B[oc];W[pe];B[qd];W[nd]C[z:  ?  This just gives B some points.]

(;B[jb]C[z:  Excellent!];W[jc];B[kb];W[ib];B[ja];W[ia];B[ka]
;W[mc];B[nb];W[sb];B[ra];W[pb]C[Kyoshinai [17k\] : I still had not realized the snapback at P15.]
;B[pc];W[qb];B[oe]C[z:  Good job.];W[rq]C[z:  Big!];B[sq];W[sr]
;B[sp];W[qr]C[z:  ??  W should just connect.  This play leaves a ko threat, should a ko fight emerge.]
;B[do];W[cp];B[ep];W[eq];B[eo];W[qo];B[ro];W[on];B[nm];W[rn]
;B[rm];W[oo]
(;B[sn]C[z:  Unnecessary.];W[hn];B[fg];W[eg];B[hg]C[z:  This is worth 0 points.  The stone has no point value because it does not give B any points, nor does it prevent W from making points.  It gives up sente.]
;W[fh];B[pg];W[rg]C[z:  W didn't need to play here yet.];B[pk]
;W[ej];B[fl];W[si];B[sk];W[aa]C[z:  Unnecessary.  W just fills in one of his own points.]
;B[qp];W[pq]C[z:  Unnecessary.];B[ag];W[tt];B[sa];W[tt];B[tt]
TB[so][rn][en][sm][qm][pm][fm][em][dm][cm][bm][sl][rl][ql][pl]
[ol][nl][el][cl][al][mk][dk][ck][bk][ak][nj][lj][bj][aj][oi]
[ni][mi][li][ki][bi][ai][oh][nh][mh][lh][kh][jh][bh][ng][lg]
[jg][mf][lf][kf][ne][le][ke][od][nd][qc][qb][pb][ob][qa][pa]
[oa][na]TW[ss][rs][qs][ps][os][ns][ms][ls][ks][js][is][hs][gs]
[fs][es][ds][cs][bs][as][rr][pr][or][nr][mr][lr][kr][jr][ir]
[hr][gr][fr][er][dr][cr][br][ar][oq][lq][kq][iq][hq][gq][dq]
[cq][bq][aq][np][mp][lp][kp][jp][ip][hp][gp][bp][ap][lo][ko]
[jo][io][ln][jn][in][km][jm][kl][jl][il][hk][hj][hi][fi][sh]
[rh][sf][he][id][hd][hc][gc][fc][cc][ac][hb][gb][fb][eb][cb]
[bb][ha][ga][fa][ea][ba]C[z:  Ultimately, I feel that B's greatest weakness in this game was in the fuseki.  B allowed W to control the fuseki, and W built a much stronger position.  This enabled W to control the midgame.

z:  Also, B was too focused on killing weak W groups, as opposed to _threatening_ to kill W groups **without** intention of fulfilling the kill, but using the threat to make profit.

z:  Overall, I think B did a good job of reviewing his own game. This is an excellent sign of somebody who will progress in the game.  I highly encourage B to continue to play the game, continue to experiment, and continue to improve.

z:  Thank you for the opportunity to review your game!])
(;B[as]C[z:  If B plays somewhere else (NOT here, I'm just getting a stone out of the way to demonstrate that T6 was not yet necessary), then W still cannot yet hurt B on Right.]

(;W[pm];B[qm]
(;W[pl];B[pk];W[rg])
(;W[pk];B[pl];W[rg]))
(;W[qm];B[pm];W[pk];B[pl];W[sk];B[sl];W[rg])
(;W[sn];B[sm];W[qm];B[pm]
(;W[qp];B[so])
(;W[pk];B[pl];W[rg]))))
(;B[oe];W[ne];B[oe]C[z:  Snapback.]))
(;W[md]))
(;B[kk];W[nl];B[nm]))
(;W[fk]
(;B[gk];W[fj])
(;B[gi];W[gk];B[hl];W[hj])))
(;W[lm]))
(;B[pk];W[rg];B[lp]C[z:  Now B threatens to make territory in center.  W will reduce, but B should be able to make some points, therefore making the game very close.]
))
(;B[rj];W[sh];B[se];W[sf];B[rg]))
(;W[qj]C[z:  If W plays elsewhere, B cannot kill upper-left.]

(;B[ae];W[ag])
(;B[ag];W[ca];B[ae];W[aa])))
(;B[bb];W[cd];B[dc];W[dd];B[ed]C[z:  This move appears workable.]
;W[ee];B[fd];W[df];B[eb]
(;W[ce]SQ[nf][mf][me][ne]C[z:  W lives, but B can keep the two weak W groups seperated with a play around square.  Surely attacking them will result in profit.]
)
(;W[gc]C[z:  W opts to secure his groups, but his weak L will only have one eye (shown later), so B should be able to push this group around the board, hopefully for profit.]
;B[fc];W[qj];B[cf];W[ce]C[z:  The _potential_ eye is B16.  B can erase eye with A17.  W must run to center to live.]
;B[gf];W[eh];B[dg];W[eg];B[ff];W[ef];B[ci];W[gh]C[z:  W is out (easily), but B has secured his side, and W group is not yet alive.  It still must connect to live.  ...and B still has sente.]
;B[lp];W[lq];B[ni];W[ph];B[rk];W[rj];B[re];W[rf];B[km]C[z:  I don't know.... just messing around with the idea.  Note that in this example (hastily thought out, and sloppy, but an example nonetheless), W _still_ needs to connect his dragon (weak L group), and B has reduced W's options of where to run.]
)))
(;B[mc]SQ[qh][gc]C[z:  Now B has given W two weak points to worry about.  If W reinforces one of the two weak groups (upper-left or upper-right), B attacks the other.]
))
(;W[qo];B[ro];W[pn]))
(;B[qk]C[z:  B safe now.];W[kp]C[z:  If W play in bottom....]
;B[mp]C[z:  ...then B can still invade and reduce because the bottom has too many holes.  Easy to reduce.  This is much better for B than the game.]
))
