(;FF[4]GM[1]SZ[19]ST[2]CA[UTF-8]AP[SGFC:1.15]

GN[wegobad-Bildstein-20030924.sgf]
PB[Ben Bildstein (Bildstein)]
BR[11k]
PW[Mike Malveaux (wegobad)]
WR[9k]
KM[6.5]
DT[2003-09-11,2003-09-24]
PC[Dragon Go Server: http://www.dragongoserver.net]
RE[W+9.50]
RU[Japanese]

C[Bildstein: This game is one of those ones where no groups are killed, territories grow and settle, and the end game solidifies the boundaries. And I honestly don't know where I went wrong. I don't think I couldn't point out even a single move that was a mistake.]
;B[qc];W[dd];B[cc]C[Well, here is your first one. 
This isn`t the proper time for c17, you can play it later in the game, no need to hurry, just be patient and take another corner.]
;W[dc];B[cd];W[de]C[Bildstein: A bit unusual given that there was no stone around f17.


Yes, white made a  mistake here, he can build a lot of outside thickness while closing you in corner with very few points. And for this stage of the game this will be a tremendous advantage for him. That is why I said C17 was a mistake]
;B[db];W[eb];B[cb];W[fc]C[I think white better at C15 here to confine black in corner and extending his influence on the left side too.]
;B[cf]C[Bildstein: I was happy with the result in the top left corner.

yes, the result is good now but just because white made mistakes here]
;W[oc];B[pe]C[Bildstein: Trying to make some territory on the right side.]
;W[md];B[ph]C[maybe take another corner with this move, remember the order of play in fuseki? corner first, extending on side second and center later. There are two empty corner on the table.]
;W[jd];B[qp]C[Bildstein: Trying to make a moyo. I figured playing on the third line would mean that it was harder for white to break up my right side.

First, if you want to play for moyo, play on fourth line, third line is for teritory. Second, your right side could be easily be invaded, but it`s good you moved in one of the empty corners.]
;W[dq];B[do];W[fp];B[cq];W[cr];B[cp];W[er];B[dj]C[Bildstein: Again, trying to build a moyo.

Yes, here you are right played for moyo];W[oq];B[kq]C[Bildstein: White had a solid moyo at the top, and I didn't want him to get another one at the bottom. This play aimed to pincer the White stone at p3, while at the same time having room to create a base for itself at h3.


I don`t like this move. Yes, you have space to take a base but doesn`t put presure on p3, better to pincer or consider p4 or p5 to build your right side.]
;W[mq];B[pq];W[pm];B[hq];W[nn];B[ho];W[fn];B[dm];W[ip]C[Bildstein: I've come to realise that this peep is something of the standard attack against this formation of black stones. I think in hindsight that h5 would have been more effective at j5.

Yes, this is the standard attack];B[iq];W[hp];B[jp];W[io];B[jo]
;W[in];B[km];W[qj];B[qi];W[oj];B[rj];W[qk];B[or];W[op];B[qn]
;W[nr];B[cj]C[Hmm, I don`t know this seems too defensive and too slow. I think I`ll play E13 here, which will extend the moyo on the left while aiming to enter in upper side.]
;W[ij];B[lr];W[jr]C[Bildstein: I lived after White k2, but what if White had invaded at k2 before I played m2? Would I still have been able to live? I can't see that White j10 made that much difference, but as it was, I only just lived. Should I have defended earlier?


well, j10 aim to block your way out to center while begin to build center for white, just for consideration look at the variationto see how can this be done.]
;B[gr]
(;W[gq];B[lp];W[kn];B[ln];W[jn];B[ko];W[lm];B[mm];W[ll];B[mn]
;W[qm];B[pp];W[ml];B[oo];W[no];B[on];W[nm];B[mp];W[np];B[mo]
;W[nh]TR[aa][ba][ra][sa][ab][bb][rb][sb][ac][bc][rc][sc][ad]
[bd][rd][sd][ae][qe][re][se][af][bf][qf][rf][sf][ag][bg][qg]
[rg][sg][ah][bh][ch][qh][rh][sh][ai][bi][ci][si][aj][bj][ak]
[bk][ck][al][bl][cl][am][bm][cm][an][bn][cn][ao][bo][co][lo]
[kp][rp][sp][jq][qq][rq][sq][ir][jr][kr][rr][sr][is][js][ks]
[rs][ss]SQ[ga][ha][ia][ja][ka][la][ma][fb][gb][hb][ib][jb][kb]
[lb][mb][nb][ec][gc][hc][ic][jc][kc][lc][mc][nc][ed][fd][gd]
[hd][id][kd][ld][ee][fe][ge][he][ie][je][ke][le][hf][if][jf]
[kf][lf][ig][jg][kg][lg][ih][jh][kh][lh][mh][ji][ki][li][mi]
[jj][kj][lj][mj][nj][ik][jk][kk][lk][mk][nk][ok][il][jl][kl]
[nl][pl][ql][hm][im][jm][km][gn][hn][go][ho][dr][ds]C[while you made life on lower side white developed a huge moyo in center, now let`s count the points:

Black~ 75 points
White~ 88 points+komi

so, white is in advantage and you can`t win the game making just reduction moves, you must try to destroy his central moyo, so you should take the risk and make a deeper move inside his moyo, but is hard at this point]
;B[df];W[ef]
(;B[eg];W[fg];B[eh];W[gh];B[ff];W[ee];B[fh];W[gg];B[ne];W[me]
;B[nf];W[mf];B[ng];W[mg];B[oh];W[ni];B[fl];W[gl];B[fm];W[gm]
;B[en];W[fo];B[fq];W[gp];B[fr];W[ep];B[gj];W[hj];B[gi];W[hi]
;B[gk];W[hk];B[pb];W[ce];B[be];W[bf];B[bd];W[bg];B[ch];W[ob]
;B[nd];W[pd];B[qd];W[nc];B[rn];W[rk];B[br];W[bs];B[ar];W[pr]
;B[qr];W[os];B[rm];W[ri];B[rh];W[sj];B[pc];W[sh];B[rg];W[sg]
;B[sf];W[si];B[rf];W[qs];B[rr];W[pn];B[po];W[mr];B[ms];W[od]
;B[om];W[ol];B[oe];W[lq];B[kr];W[bq];B[bp];W[pa];B[qa];W[oa]
;B[rs];W[ps];B[pj];W[pk];B[pi];W[fs];B[gs];W[rl];B[es];W[eq]
;B[ds];W[dr];B[ir];W[ns];B[ls];W[sm];B[sn];W[sl];B[ea];W[fa]
;B[da];W[rp];B[rq];W[cs];B[fs];W[dp];B[eo];W[as];B[aq];W[oi]
;TW[ga][ha][ia][ja][ka][la][ma][na][fb][gb][hb][ib][jb][kb]
[lb][mb][nb][ec][gc][hc][ic][jc][kc][lc][mc][ed][fd][gd][hd]
[id][kd][ld][fe][ge][he][ie][je][ke][le][ff][gf][hf][if][jf]
[kf][lf][hg][ig][jg][kg][lg][hh][ih][jh][kh][lh][mh][ii][ji]
[ki][li][mi][jj][kj][lj][mj][nj][rj][ik][jk][kk][lk][mk][nk]
[ok][sk][hl][il][jl][kl][nl][pl][ql][hm][im][jm][km][gn][hn]
[go][ho][nq][or]TB[aa][ba][ca][ra][sa][ab][bb][qb][rb][sb][ac]
[bc][rc][sc][ad][rd][sd][ae][qe][re][se][af][bf][of][pf][qf]
[ag][bg][cg][dg][og][pg][qg][ah][bh][dh][qh][ai][bi][ci][di]
[ei][fi][aj][bj][ej][fj][ak][bk][ck][dk][ek][fk][al][bl][cl]
[dl][el][am][bm][cm][em][an][bn][cn][dn][ao][bo][co][lo][qo]
[ro][so][ap][kp][rp][sp][bq][jq][qq][sq][hr][jr][sr][hs][is]
[js][ks][ss]C[Bildstein: I made a big moyo on the left, and sacrificed the possibility of a similar moyo on the right for another group at the bottom. Was it worth the swap?


I think you should learn to count the points to decide what to do: 

           - if you are in the lead play safe and conserve your advantage like white did in this game
           - if it`s a close game try to see if reduction moves are enough to put you in the lead, if not, invade
           - if you are behind then must invade



I hope my advices was helpfull for you, if you have any other questions about game or my coments, feel free to mail me.

PS: sorry for my english ;)])
(;B[gh];W[ih];B[gf];W[eh];B[fi];W[ei];B[fj];W[ej];B[ek];W[fk]
;B[gk];W[fl];B[gl];W[fm];B[fg];W[eg];B[fe];W[ee];B[ig]C[maybe something like this and try to make life , your teritory doesn`t change too much, but if you make life in center you will probably won the game]
;W[hh];B[hd];W[hc];B[id];W[ic];B[je]))
(;W[ce];B[be];W[df];B[cg];W[dg];B[dh];W[fh]SQ[fd][gd][hd][id]
[fe][ge][he][ie][je][ff][gf][hf][if][jf][fg][gg][hg][ig][jg]
[hh][ih][jh]C[lot of cash here for white, about 20 points I think and he can gain more]
))
