(;FF[4]GM[1]SZ[19]ST[2]CA[UTF-8]AP[SGFC:1.15]

PB[Juhazi]
BR[26k]
PW[bathrmsink]
WR[25k]
KM[0.5]
DT[2003-12-28]
PC[The Kiseido Go Server (KGS) at http://kgs.kiseido.com/]
RE[W+36.50]
RU[Japanese]

C[Hi, I play as Tobamf[8k\] on KGS. Sorry it took so long to review, but I was just switching jobs.]
;B[pp];W[dc];B[pc];W[dp];B[ce];W[cd];B[de];W[gc];B[ci];W[cl]
;B[fp];W[ip];B[gn];W[qq];B[pq];W[qp];B[qo];W[ro];B[qn];W[rn]
;B[qr]C[My mistake. the correct joseki would be S7 for black.]
;W[rr]
(;B[pr];W[qm];B[pm];W[ql]C[blacks next move only encourages your getting split, which is not in the fundamentals (stay connected; cut where you can cut).

see the variation in the move tree here.]
(;B[pj];W[pl];B[om];W[qj];B[qi];W[rj];B[ri];W[rd]C[How to respond to this unusual move?]
;B[qe]C[I like this. Its simple and keeps white small and locked to the side and corner.]
;W[qd];B[pd];W[re];B[qf];W[qb]C[see branch here]
(;B[fd];W[fc];B[gd];W[jc];B[lc];W[hd];B[he];W[id];B[ie];W[je]
;B[ke];W[jf];B[em];W[gq];B[fq];W[lq];B[mp];W[kn];B[cn];W[el]
;B[fl];W[ek]C[see this branch AFTER seeing the branch at the next move in the game.]

(;B[fj]C[This move was a futile attempt to stop white from getting into my territory around F13 as well as protect the continuation of bottom left corner group. How to do both things better?

see the branch here.]
(;W[ej];B[ei];W[fk];B[gk]C[One thing I have noticed this game is that you suffer from weak shapes. If your shapes are too weak, they are easy to break though and cut apart. Remember, getting cut apart means many weak groups, which are hard to defend.

See the branch for an example of weak shapes]
(;W[gl];B[fm];W[gj];B[fi];W[hk];B[hm];W[cj];B[bj]C[Good hane or bad hane?

Well, not really a big move now because white has a ponuki at G9 and is obviously going to live. C4 probably better to get the corner (30 points or so).]
;W[dj];B[di];W[cp];B[dr];W[cr];B[bo];W[bp];B[br];W[dq];B[er]
;W[dn]C[How to respond to this connection attempt?

you have to anticipate it before it happens (like some of the suggestions I made earlier). This is where experience really helps.]
;B[dm];W[cm];B[do];W[co];B[en];W[bn];B[cs];W[dn];B[eo];W[cn]
;B[jl];W[jj];B[ll];W[lp];B[lo];W[ko];B[ln];W[mq];B[np];W[nq]
;B[gr];W[hq];B[hr];W[ir];B[gp];W[hp]C[see branch here in answer to next question.]

(;B[io]C[a Bad move. Is there any good reason to play around here? Is it possible to threaten L5 group?

I wouldn't bother with the L5 group. Better to take something like M13.]
;W[ho];B[jp];W[jo];B[in];W[jq];B[hn];W[km];B[kl];W[lm];B[mm]
;W[mn];B[mo];W[hg];B[gg];W[gh];B[fh];W[gf];B[fg];W[hh];B[ge]
;W[hf];B[ff];W[ed];B[fe]C[A mistaken atari, correct play would be E15.

oh well, 1 pt isn't the end of the world until you get to very low kyu/dan levels.]
;W[ee];B[ef];W[dd];B[kf];W[kg];B[lg];W[kh];B[lh];W[ok];B[oj]
;W[nk];B[mj];W[nj];B[ni];W[mk]
(;B[lk]C[Was this move good or bad?

well, it doesn't really connect, and black is suffering from a weak shape again. See the branch in the tree.]

(;W[lj];B[kj]C[This was played to keep the connection between upper and lower groups. Was it a good or bad idea instead of defending at N11?

Cutting apart is a bad idea when it is you getting cut. Defending at N11 would be my move here.]
;W[mi];B[li];W[mj];B[ki];W[ji];B[if];W[ig];B[kd];W[jd];B[qc]
;W[rc];B[pk];W[ol];B[qk];W[rk];B[go];W[kp];B[ik]C[Bad move. Should have defended at O12.

yes, black is suffering from weak shape a lot. This is an area I would work on. weak shapes are created by having several 1 stone and 2 stone groups "connected" with many cutting points and few liberties for each group. Often it is better to withdraw slightly and make a 1 stone or 2 stone group stronger by adding a stone (and typically 3 more liberties).]
;W[oi];B[pi];W[nh];B[oh];W[ni];B[og];W[ng];B[nf];W[mf];B[mg]
;W[ne];B[of];W[me];B[nd];W[md];B[od];W[jk];B[kk];W[ml];B[nm]
;W[hl]C[What is correct play here? Is the sacrifice of J9 needed?

No, J8 connects black to J5 group, and white stones at N16 are dead (but be careful).]

(;B[im];W[il];B[jm];W[ij];B[pb];W[qa];B[cq];W[bk];B[aj];W[ak]
;B[bi];W[be];B[bf];W[cf];B[df];W[bg];B[cg];W[af];B[cf];W[ad]
;B[bh];W[bc];B[ag];W[ae];B[bq];W[ap];B[aq];W[kc];B[lb];W[ld]
;B[lf];W[kb];B[rf]C[Is the white upper right corner group alive?

see the branch in the tree.];W[mc]
(;B[mb];W[nb];B[nc];W[ma];B[ob];W[la];B[dl];W[dk];B[is];W[js]
;B[hs];W[or];B[oq];W[ns];B[rs];W[sr];B[gi];W[hi];B[pa];W[sb]
;B[se];W[sd];B[sf];W[oe];B[pe];W[ss];B[qs];W[rq];B[sj];W[sl]
;B[mh];W[os];B[nl];W[rm];B[si];W[sk];B[tt];W[ps];B[op];W[tt]
;B[tt]TW[aa][ba][ca][da][ea][fa][ga][ha][ia][ja][ka][ra][sa]
[ab][bb][cb][db][eb][fb][gb][hb][ib][jb][lb][mb][rb][ac][cc]
[ec][hc][ic][lc][sc][bd][jg][ih][jh][ii][hj][ck][gk][ik][al]
[bl][rl][am][bm][sm][an][sn][ao][bo][so][jp][rp][sp][iq][kq]
[sq][jr][kr][lr][mr][nr][ks][ls][ms]TB[oc][pf][bg][dg][eg][pg]
[qg][rg][sg][ah][ch][dh][eh][ph][qh][rh][sh][ai][fn][mn][nn]
[on][pn][fo][no][oo][po][ar][cr][fr][as][bs][ds][es][fs][gs]
C[I think you should by a book called "Lessons in the Fundamentals of Go" by Kageyama. It's really terrific and will help your play greatly. It helped me a lot. Also, it's a book that is good for 30k - 5d. Fundamentals are important. Good luck.]
)
(;B[sb];W[rb];B[sa];W[se];B[sc]C[This looks like a seki, but this shape is dead. See further on.]
;W[aa];B[pa];W[ba];B[sf]C[eventually, when the game is done, white will be fully surrounded by black.]
;W[ca];B[ra]C[black gets rid of all his ko threats, then plays at S19]
;W[sd]C[white takes.];B[sb]C[T18 causes a ko.];W[sa];B[ra]C[black takes the ko, and now white cannot threaten because black took care of all the ko threats at the end of the game. so white dies.]
))
(;B[il]))
(;W[mi];B[lj];W[oi];B[nh];W[pi];B[ph];W[pk];B[oh]))
(;B[mi]C[This is much stronger if you want to move here.]))
(;B[lg];W[kf];B[le];W[lf];B[mf];W[mg];B[lh];W[me];B[nf];W[ld]
;B[kd];W[md];B[kc];W[jd];B[nc]))
(;W[ge]
(;B[gf];W[fe];B[ed];W[hf];B[if];W[ig])
(;B[fe];W[gf]C[These sorts of things will come back to bite you in the @$$ later.]
)))
(;W[dm]C[first, white has this.];B[dn];W[en];B[fm];W[eo]C[so white can live on the side.]
))
(;B[dm]C[so this black keeps pressure on white and forces white to run. It also attacks the lone stone in the corner (think black C4 later for example).]
;W[fk];B[gl];W[gk];B[hl];W[hj];B[ig];W[jj];B[kl];W[jg];B[hh]
;W[ii];B[fi]C[So this might be a possibility because white needs to connect the weak group or risk death. black get some important stones as a result, like J13, J12, F11 and M8. The first 3 make some territory, the last one puts pressure on the other white group at L6.]
))
(;B[pb];W[rb]C[maybe this move at Q18 to get some more influence before tenuki.]
;B[ic]C[like this perhaps?]))
(;B[pl]
(;W[pn]
(;B[po];W[on];B[qk];W[rk];B[rl];W[rm];B[rj];W[sl];B[pj]C[Maybe this is best for black where white cuts.]
)
(;B[on];W[po];B[oo];W[om];B[ol];W[nm];B[mn]LB[qn:1][qo:2]C[Giving up the 2 stones doesn't have a lot of benefit here.]
))
(;W[pk];B[nl]C[This seems simplest.])))
(;B[rm];W[pr];B[or];W[qs];B[oo]C[if you really want S7, you can try this variation also, which gives up R2 to take S7.]
))
