(;FF[4]GM[1]SZ[19]ST[2]CA[UTF-8]AP[SGFC:1.15]

GN[amadis]
PB[amadis]
BR[12k]
PW[tama]
WR[10k]
KM[6.5]
DT[2004-02-03]
PC[The Kiseido Go Server (KGS) at http://kgs.kiseido.com/]
RE[W+Resign]
TM[60]
OT[25/600 Canadian]
RU[Japanese]

;B[qe];W[pd];B[qc]C[Is this joseki?

RGW: I doubt it.  However, W's move (Q16) was not joseki so I'm sort of lost here.  The 5-3 move (R15) is played in the corner for influence instead of territory so I don't think jumping into the 3-3 point makes sense unless you are planning on sacrificing it.]
;W[qd];B[rd];W[rc]C[Which way? B took the corner

RGW: As I said, the 5-3 move is not a territory move so to settle for territory in the corner seems couner to the first move.]
;B[rb];W[re];B[sc];W[qf]C[RGW: Given this outcome, B probably wants a ladder break move already in the lower left corner before starting this fight.]
;B[ob];W[dp];B[qp];W[dd];B[oq];W[dj];B[pj];W[jd];B[od];W[pe]
;B[pc]C[Solid but gote

RGW: Exactly.  The move at P16 was a forcing move, but it's worthless if B ends up in gote.  Playing somewhere on the bottom is much more important to keep W from playing around K4.]
;W[jp]C[W is taking lots of points. Now b has to invade.

RGW: Yes, B has played too slowly and now W has influence on more than half the board.]
;B[fc];W[fd];B[gd]C[RGW: Because of the W stone at K16, B will have trouble getting much territory here (assuming B lives).  Jumping into C17 instead might be better.]
;W[ec];B[fe];W[ed];B[gc];W[ge]C[How to respond?

RGW: B is too weak inside W influence to fight on both sides so B probably needs to play H15 to save the 3 stones and threaten the W stone at K16.]
;B[ff];W[he];B[jb];W[df];B[dg];W[ef]
(;B[cf]C[RGW: See alternative moves.];W[ce];B[bf];W[eg];B[dh]
;W[eh];B[bd]C[RGW: This is unlikely to give B another eye so D11, W E11, B C10 might be better.  Unfortunately, that gives W a lot of potential for territory in the center.]
;W[be];B[ae];W[bc];B[di];W[ei]
(;B[bi]C[RGW: I think B can play C10 and get slightly better shape.  (See variation.)]
;W[cj];B[bj];W[bk];B[ck];W[bl];B[ci];W[ej]C[This seems like a bad result for b. The left side is not alive. F15 stones aren't doing much. Upper side looks shaky too. W is thick. Where did b go wrong?

RGW: Assuming B can live on the left and top (which I think is possible, but could be tricky), this may be about the best B could hope for.  B went wrong early on by letting W get so much influence on the left half of the board.  Unfortunately, W is going to get territory in the center or in the lower left (or both) and B still has to worry about living on the left and top.]
;B[cn];W[cm];B[dn];W[dm]
(;B[cq]C[Maybe f3 instead?

RGW: Interesting idea.  Could work.  (See variation.)];W[dq]
C[I was afraid of w c4. That would have been harder.

RGW: Possibly, but W may do better this way.];B[cp];W[en];B[eo]
;W[do];B[co];W[em]C[RGW: I think W needed to play F5.];B[dr]
;W[eq];B[er];W[fq]C[W thicker and thicker.];B[jj]C[I felt i should do something to erase w's wall and use my isolated stones. Maybe this was too close to the wall though.

RGW: This looks like a good spot to me.  If W had played here, it would be very difficult for B.]
;W[cd]C[Can I make life?

RGW: I think so.  See variation on the next move.]
(;B[gg]SQ[ge][he][jd]C[RGW: This threatens the marked W stones.  However, since B is weak on the top and weak with these three stones, W should be able to live or connect to the stones on the right.]
;W[ii];B[ig];W[ke];B[oe];W[kg];B[pf]C[Since w ignored the last move b goes after his right side stones. Maybe b should fight in the center instead.

RGW: Even if B doesn't kill these stones, this move is probably worthwhile for the possible fight in the center.]
;W[kb]
(;B[kc]C[RGW: I think B can live here (see variations), but there are a lot of variations so I could be wrong.]
;W[jc];B[lb];W[ib];B[ka];W[hc]C[I have given up a lot but maybe I had to.

RGW: I'm not sure you had to, but at least you get sente.];B[jh]
;W[qj]C[Unsure what next.];B[qi]C[RGW: Separating the W stones seems reasonable, but with the weak B stones in the center, a fight here could end up harming the center stones.]
;W[pk];B[ri]C[RGW: To help the stones in the center, Q11 would be a safer move.]
;W[oj];B[pi];W[ji]SQ[oj][pk][qj]C[The next few moves confused me. What is b's goal?

RGW: B could consider giving up the stones in the center, if he can capture the marked W stones.  However, that is unlkely (W can live or escape) so pulling out the stones in the center is probably the best bet.]
;B[kh]C[RGW: Yes, I think this is best.];W[ki];B[li];W[kj];B[lj]
C[RGW: B should probably play M13 first.];W[kk];B[lk];W[lh]
;B[lg];W[mh];B[kf];W[mg];B[lf];W[ll];B[nk];W[nl];B[ml];W[mm]
;B[mk];W[lm];B[ol];W[nm];B[ok];W[le];B[mf];W[me];B[nf];W[mq]
C[Now I feel I have gotten the worst of the fighting in the center, though I have the right side in compensation. How can I reduce w's center? Or should I firm up the right side with p8, or save my left side stones?

RGW: It's too late to do much about the center so saving the stones on the left side is probably the biggest move.]
;B[ie];W[hd];B[gr];W[fr];B[fs];W[gq];B[hr];W[hq];B[iq];W[ip]
;B[jq];W[kq]C[Can b go further without weakening the right side? I would like to use E5 somehow.

RGW: E5 doesn't have much potential since you need to play F5 to keep it from getting captured. When B plays F5, W can play H4 and there's not much B can do.  The left side can still be saved.]
;B[hp];W[fo];B[kp];W[jr];B[ir];W[lp];B[ko];W[io];B[in];W[ho]
;B[kr];W[lq]C[Maybe I did as well as I could hope on the bottom.

RGW: I think so.];B[om];W[on];B[nn]C[Should have been q6?

RGW: Q6 would be safer and more certain.];W[aj];B[bg];W[ah]
;B[ai];W[oo];B[mo];W[lo];B[kl];W[km];B[np];W[no];B[mp];W[mn]
;B[pn]C[RGW: Yes, better to close this off before it is too late.]
;W[op]C[RGW: B should sacrifice these three stones and play Q4 to keep the corner.]
;B[nq];W[pq]
(;B[mr];W[lr];B[ls];W[ks]
(;B[qq];W[or];B[pp];W[nr]C[Nothing is working for b.];B[gi]
C[This probably should have been at c12 or r7.

RGW: A safety move on the right doesn't seem necessary but saving the group on the left is big.]

(;W[hj]C[See variation.];B[gj];W[gk];B[hk];W[jl];B[fk];W[gl]
;B[fj]C[RGW: W can still cut off these stones by playing at H12 & H13.]
;W[po];B[qn];W[qo];B[ro];W[rn]
(;B[ql]C[RGW: I don't think B needed to let W play S4 (see variations), but the fighting here gets complicated.]
;W[rp]C[RGW: B has given up too much in this corner.];B[rq]
C[B was lucky to live in the bottom right.];W[so];B[pr];W[sq]
;B[sr];W[ps];B[sp];W[ro];B[qr]
(;W[qs]C[RGW: W at S1 kills the B group.];B[rs];W[os];B[sq]
C[RGW: B has lucked out.  I think W could have killed the corner.]
;W[bh]C[But B died on the left.

RGW: Correct. A very big lose.];B[hi];W[ij];B[fl];W[fm];B[gm]
;W[hl];B[bm]C[Blunder.];W[bn];B[bo];W[am];B[is];W[js];B[kr]
C[A gift.];W[ms];B[ks];W[rl];B[rk];W[qm];B[pm];W[qk];B[rm];W[sm]
;B[sl]C[Another gift.];W[mc];B[mb];W[nc];B[nb];W[ia];B[ih]C[RGW: Finally!  Before this, W still had H12 & H13.]
;W[id];B[dk]C[This actually was a misclick. I intended e9.]
;W[ek];B[el];W[dl];B[gn]C[Desperation.];W[go]C[RGW: The game would have been close if B had saved the left side group and not given up so much in the lower right corner.  B wasted many moves trying to attack the W center after it was too late.

On the other hand, B did well living in the lower left corner and capturing the W group in the upper right.]
)
(;W[rs];B[qs]C[RGW: B can't get two eyes.]))
(;B[rp]
(;W[pm];B[qm]
(;W[rm];B[ql]
(;W[qr];B[rl]C[RGW: B is OK.])
(;W[rl];B[qr];W[rk];B[pl];W[rj];B[rr]C[RGW: B can live in the corner, but W can't live on the right side.]
))
(;W[pl];B[rm];W[rk];B[oi]C[RGW: B is OK.]))
(;W[qm];B[pm];W[rl];B[ql];W[rm];B[qk];W[rk];B[pl];W[rj];B[rr]
;W[sq];B[pr]C[RGW: B lives in the corner.])))
(;W[ih]C[RGW: What if W plays here?];B[jg];W[hh];B[gh];W[hg]
;B[hf];W[gf]C[RGW: B loses a lot of stones.]))
(;B[pr];W[qq];B[qr];W[rq];B[pp];W[rr];B[nr];W[os];B[rp];W[qs]
C[RGW: Looks bad for B.]))
(;B[nr]
(;W[pr];B[lr];W[mr];B[ms];W[ln];B[ns];W[pp];B[qo])
(;W[mr];B[pr];W[qq];B[qr];W[ns];B[or];W[rq];B[rr];W[pp]C[RGW: Bad for B.]
)))
(;B[jc];W[kc];B[id]
(;W[ie];B[hd]
(;W[fb];B[gb];W[eb];B[ib];W[hc];B[ja]
(;W[ha];B[hb];W[ga];B[ka];W[mb];B[la];W[ma];B[lb];W[lc];B[mc]
;W[nc];B[md];W[nd];B[me];W[ne];B[nb]C[RGW: B escapes.])
(;W[ka];B[ha]C[RGW: B lives.]))
(;W[ib]
(;B[ja];W[ic]C[RGW: B dies.])
(;B[ic];W[ja];B[hb];W[ia];B[ha];W[ka];B[eb];W[db];B[fa]C[RGW: B lives.]
)))
(;W[hd];B[ie];W[ic];B[hc];W[ib];B[hf]C[RGW: B connects two groups so most likely live.]
)))
(;B[bg]C[RGW: This move seems to make life for B and saving this group is probably more important than pulling out the two stones on line F.]

(;W[af];B[ag]
(;W[ch];B[bh])
(;W[aj];B[ch];W[ai];B[ah]))
(;W[ah];B[bh];W[aj];B[ai];W[af];B[ag])))
(;B[fq];W[eo];B[dr];W[cq];B[hq];W[jq];B[go];W[en];B[gm]C[RGW: This is good for B, but depends on W playing fairly passively.]
))
(;B[cj];W[ci];B[dk];W[ej];B[bi];W[ch];B[cg];W[ck];B[bj];W[dl]
))
(;B[eg];W[fg];B[fh];W[gg];B[cf]C[RGW: This might give B a slightly better chance of escaping if it proves impossible to live here.]
))
