(;FF[4]GM[1]SZ[19]AP[SGFC:1.12]VW[]C[This is a very close game, so the losing move was in
the late endgame, but I have lots of comments to
make along the way - David Fotland]HA[0]PB[cathy]PW[spv]DT[1996-09-21]KM
[5.5]RE[B+1.5]AN[David Fotland]BR[4k]WR[4k];B[pd];W[dp];B[pp];W[dd];B[pj]
;W[nc]
(;B[pf]C[This move is fine, but you should also consider the pincer.]
(;W[pb];B[qc]
(;W[kd]C[This move is a little thin.  W has to come back later and  add amove to the right of this move, which is inefficient.]
;B[jp];W[gq]C[usually W extends one point further, which puts more
pressure on the B stone on the side.];B[jj];W[qn]
(;B[ql]C[Usually the attach is better.  This way W gets the corner, and B's wall is making territory that is open on the left side.]
;W[qq];B[pq];W[qp];B[po];W[rn];B[om];W[cj];B[lf];W[jm]C[Good reduction, right on the sector line.]
;B[lo]C[This move feels a little submissive to me.  Taking territory that is open on the edge, and it is far enough from W that he doesn't have to answer.]
;W[kh]C[Another good reduction, right on the sector line.];B[lj];W[mh];B
[jf]
(;W[nf]C[This feels like an overplay since W is thin on the upper side.  I would want to jump out instead.]
;B[ne];W[mf];B[me];W[ld]C[Now W has to reinforce the upper side, showing how thin his original move was.]
;B[lg]C[Good move, on the key shape point.];W[of]
(;B[oe]C[B is stronger here, so she can be a little more agressive.];W[pg]

(;B[mg]C[B could still try to defend the edge here.];W[qf];B[pe];W[qi];B
[pi];W[qj];B[ph];W[qh];B[og];W[qg];B[qk];W[rd]C[This is a great result for W, trading 3 stones in the center for the right edge.  W is now a little ahead.  He has 50 points of secure territory, 5 points komi, and a big framework.  B has about 45 points of secure territory, and is thick in the center.]
;B[fd]
(;W[hc]C[W should play to keep the corner territory, since any outside wall is worthless with B thick in the center.]
;B[cf]
(;W[fc]C[This move looks OK.];B[bd]
(;W[ce];B[be];W[df];B[cd];W[de];B[dc];W[ec];B[db]C[Now B has the corner territory and W gets the wall.  W gets territory on the upper side, so he didn't lose very much.  This wall means that
W can pull out the stones in the center which is big.];W[cg];B[bf];W[ki]
;B[kj];W[ih];B[ed];W[gd];B[ef];W[eg];B[ff];W[fg];B[gf]
(;W[if]C[This move forces B to connect above it, ending in sente.  Better not to play here, and force B to connect in Gote.  After all, B is running away, so W should end  with sente.]
;B[gg];W[gh];B[hg];W[hh];B[ig]
(;W[jg]C[W is already connected, so this move is not necessary.
It just gives up sente, and even forces B to capture one stone.  Giving up sente here is B's first step to
giving back this game.];B[kg];W[jh];B[ie];W[id]C[W loses sente here, so B can play in front of the W wall, reducing its worth.]
;B[cn];W[cp];B[gn];W[ho];B[fj];W[ei];B[fi];W[fh];B[ej];W[di];B[bh]C[Now White's wall comes under attack, so all the stones
used to make it are wasted.];W[ch];B[bi];W[bg];B[ag];W[bj]
(;B[cl]C[If B plays to right, she might even make some territory here, inside W's former framework.]
;W[dk]C[good.];B[em];W[fl]
(;B[fm];W[gl]
(;B[hn]
(;W[hj]C[Jumping out would have made an interesting fight, but this move is safer, and W is still ahead.]
;B[ik]
(;W[hk]C[Connecting to the stone on the right is big.  You could try it now, but it is a little dangerous.]
;B[il]
(;W[im]C[This is a mistake, since it just gets captured.  W should
crawl into V's territory instead.  This would increase W's lead a lot.  W must think he can capture something when the two stones get cut off, but the two stones will have have too few liberties.]
;B[hm]
(;W[hl]C[This move is also no good, since B is not cut by it.  W loses a lot here.]
;B[io]C[Black's capture of the two white stones is very big.];W[mi];B[mj]
;W[nj];B[nk];W[ok]
(;B[oj]C[I think B could be more agressive here and make the other cut.]
;W[ni]
(;B[nl]C[This move gives up a lot of points when W captures 4 stones.  Is it really necessary?  I don't think B is in any danger here (see a few variations).]
;W[oh];B[ng];W[pk]C[Good.];B[go]C[W will still win if he can keep the lower left corner.
B is thick on the outside so W is some danger.  In this kind of situation, B can often make a one eyed group underneith and force a semeai,]

(;W[gp]C[This is just a dame.  Many other moves also threaten to pull out the stone, but are safer.  W is still ahead, so should be playing conservatively here.]
;B[eq];W[ep];B[bq];W[bp];B[cr]C[good moves for B.  She is almost alive, and the W group has trouble making two eyes of its own.  B can't
live but W has to read carefully, or B will stage an upset here.]
(;W[aq]C[This move is bad.  It helps B make eyes.  Giving up this corner puts W behind, so this is the mistake that lets B get the lead back.]
;B[ar]
(;W[cq]C[This is bad since after B captures one W stone, she is alive.  You have to connect on the left now, and B will be hard to kill.]
;B[ap];W[bo]C[Now B can make two eyes, so W has failed here.]
(;B[fq]C[The diagonal move is better since after B lives, W will have to connect and will get less space for eyes to the right..]
;W[fp];B[dr];W[bs];B[cs];W[fr];B[er];W[gr];B[es];W[jq];B[kq];W[jr]
(;B[hp]C[Descending on the outside makes it harder for W to live.];W[kr]
;B[hq];W[hr];B[lq];W[iq];B[lr];W[is]C[Now that W has given up both corners, the game is very close.]
;B[qr];W[rr];B[pr];W[rs];B[rc];W[re];B[qb];W[ob];B[ga];W[gb];B[fa];W[ea]
;B[eb];W[fb];B[da];W[ha];B[md];W[mc];B[fs];W[gs];B[qo];W[ro];B[rj];W[ri]
;B[rk];W[af];B[ae];W[aj];B[ah];W[bb];B[bc];W[cb];B[ab];W[ac];B[ad];W[ba]
;B[cc];W[ci];B[el];W[ek];B[dl]C[this move is very small, just one point in gote.  There are many bigger moves - saving two stones at the top, or any of the hane and connect on the edge.  Now W
keeps sente for 30 moves.];W[ij];B[jk];W[ke];B[kf];W[je];B[he];W[ge];B[hf]
;W[hd];B[if];W[ip];B[jo];W[pn];B[on];W[oi]C[This move is sente, but gains no points.  Save it for a ko threat.  W is catching up by playing many sente moves after black's small move.]
;B[pl];W[ol]C[Again save it for a ko threat.];B[pm];W[qs];B[ps];W[ea];B
[fa];W[bl];B[bm];W[al];B[am];W[ao];B[aq]
(;W[ck]C[capturing the two stones at the bottom first is bigger.
and the move on the right side is bigger.];B[rm];W[sn];B[sm];W[ga];B[ca]
;W[ai]C[Again, sente, but no point - save it for a ko threat.];B[af];W[qa]
;B[ra];W[pa];B[oc]
(;W[nb]C[this move is not needed yet.  Take some points instead.  This seems to be the final losing move, giving
up two points.]
(;B[si];W[sh];B[sj];W[dn];B[co];W[en];B[do]C[Save it for a ko threat.];W
[eo]
(;B[ji]C[I'd connect the two stones on the lower side.]
(;W[ii];B[sd];W[se];B[sc];W[pc];B[qd]
(;W[qe];B[od];W[ho];B[hp];W[ls];B[ms];W[ks];B[mr];W[ea];B[aa];W[fa];B[qm]
;W[rp];B[ee];W[dg];B[cm];W[hq];B[ho];W[lh];B[tt];W[tt];B[tt])
(;W[od]))
(;W[sc]))
(;B[ho];W[ji];B[sd];W[se];B[sc];W[pc];B[qd];W[qe];B[od];W[ls];B[ms];W[ks]
))
(;B[ho]))
(;W[ho];B[hp];W[sj];B[sk];W[si]C[W playing here instead of B is worth 2 points.]
))
(;W[ho];B[hp];W[rm];B[ck];W[bk];B[ji];W[ii];B[sd];W[se];B[sc];W[qa];B[ra]
;W[pa];B[ks];W[js];B[ls];W[sj];B[sk];W[si];B[oc];W[qe];B[pc];W[nb];B[ca]
;W[ga]))
(;B[kr]
(;W[hp];B[ip];W[iq];B[hr];W[hs];B[fs])
(;W[fs];B[iq];W[ir];B[hp];W[hq];B[hs])))
(;B[fr];W[gr];B[dr];W[fq];B[fs]))
(;W[ap];B[fr]C[Looks like b is alive now.]
(;W[gr];B[dq]C[looks like B will live.])
(;W[dr];B[dq];W[cq];B[br])))
(;W[er]C[It looks like this move kills the B invasion.]
(;B[fq];W[fr];B[fp]
(;W[dq];B[fo];W[dr])
(;W[fo];B[dq];W[dr];B[cq];W[eo]))
(;B[dr];W[dq]
(;B[bs];W[ar];B[ds];W[aq];B[fq];W[fp];B[fr];W[gr];B[fs];W[gs];B[es];W[br]
)
(;B[ar];W[bs]))
(;B[dq];W[fq];B[dr];W[fr]))
(;W[cq]C[This move doesn't kill B either.]
(;B[ar];W[bs];B[cs];W[dr])
(;B[bs];W[ar];B[dr]
(;W[br];B[fq];W[fp];B[gr];W[hr];B[gs];W[iq];B[es];W[hs];B[fr];W[lq]C[Black lives this way, but B takes more of B's territory away.]
)
(;W[fr];B[fq];W[fp];B[er];W[gr];B[aq])))
(;W[dr]C[This also kills, but W will be cut and have to take the B stones off the board.]
;B[dq];W[cq]
(;B[er];W[br];B[ds];W[gr];B[fp];W[fq];B[fo];W[fs];B[es];W[bs])
(;B[ar];W[bs];B[er];W[br];B[ds];W[gr]))
(;W[dq]C[Looks like this also kills.];B[dr];W[er]))
(;W[fp])
(;W[eq]))
(;B[pk];W[mk];B[nl]
(;W[ll];B[kl]
(;W[km];B[ml];W[lk];B[lm])
(;W[lm];B[km];W[kn];B[lk];W[ml];B[ln]))
(;W[ml];B[mm];W[ll];B[kl];W[lm];B[km];W[mn];B[nm];W[ln];B[kn])))
(;B[ni];W[oj];B[nh]
(;W[pk];B[oi];W[pm];B[pl])
(;W[nl];B[mk];W[ol];B[pm];W[lm];B[ml];W[mm];B[nm])))
(;W[io];B[in];W[jo]
(;B[kp];W[jn];B[hl];W[lm])
(;B[jn];W[ko];B[kn];W[kp]C[it you have to give up the stones, at least get something in return.]
)))
(;W[io];B[in];W[jo]
(;B[kp];W[jn];B[hl];W[lm])
(;B[jn];W[kp];B[ko];W[jq])))
(;W[hm]
(;B[hk]C[This move deosn't work for B.];W[gk];B[el];W[ek];B[gj];W[gi];B
[im];W[il];B[hl];W[in];B[gm];W[fk];B[im];W[jo])
(;B[hl]
(;W[gm];B[im];W[in];B[il];W[go];B[fn];W[jo];B[el];W[ek];B[gk];W[fk];B[gj]
)
(;W[hk];B[il];W[gm];B[im];W[io];B[in];W[jo];B[kp];W[jn]))))
(;W[il];B[hj];W[in]
(;B[ek];W[el];B[dl];W[gj];B[gk];W[hk];B[gi];W[ij];B[ii];W[ik];B[hi];W[ji]
)
(;B[io]
(;W[go];B[hm];W[hl];B[im];W[jn];B[jl])
(;W[hm];B[go];W[hp];B[fq]))))
(;B[el]))
(;B[ek])
(;B[el]))
(;B[dl]))
(;W[kg]C[Maybe this is sente...]
(;B[kf];W[hk])
(;B[ie]C[But the again maybe B can still connect this way in sente...]))
(;W[cp]C[Or just take the big corner.];B[jh];W[ji];B[jg];W[ij])
(;W[hj]))
(;W[gg];B[hf]
(;W[hg];B[ig];W[jg];B[if]
(;W[cp])
(;W[hj]))
(;W[ig];B[if];W[hj])))
(;W[cc]C[If W plays here, B can break into the right side.];B[ec];W[ed]
;B[gc];W[fb];B[gd];W[gb];B[ic]))
(;W[fe])
(;W[df];B[dg];W[ef];B[ce];W[cd];B[ch];W[ed];B[cn];W[cp];B[ej]))
(;W[df];B[id];W[cp]C[If B plays again on the upper side, you can take the other corner.  This is simple and leaves W way ahead.]
))
(;B[qf];W[qg]C[but it looks like W can still descend here];B[oh]C[This peep works well if W connects...]

(;W[og];B[mg];W[nh];B[ng];W[ri];B[ph])
(;W[nh]C[but it looks like W doesn't have to connect.];B[og];W[oi];B[ph]
;W[pi];B[qh];W[qi];B[rg];W[nj]C[W still has a hard fight.])))
(;B[pg];W[oe];B[od];W[le];B[nd];W[mc];B[lh];W[li];B[ki];W[mi];B[jh]C[It will be hard for W to live here, and B should get the right side.  B is also thick in the center, making it easy to invade the upper left and top side.]
))
(;W[ih]))
(;B[qo]C[This way B will get almost as much on the upper side, and still have a good chance to take the lower edge and corner later.]
;W[pn];B[np];W[pl];B[qk];W[mm]))
(;W[kc]C[This is better.])
(;W[ld]C[Sometimes W plays here, but usually when there is already a W position in the center of the top side.]
))
(;W[kd]C[Leave off the move in the corner if you want to play here.  This way the 3-3 point is still open.]
))
(;B[lc];W[qc];B[qd];W[pc];B[od];W[nb];B[me]C[B gets a nice framework, but W ends with sente so she gets first move on the lower side.]
))
