(;FF[4]GM[1]SZ[19]ST[0]AP[SGFC:1.15]

GN[review for art]
PB[koto]
BR[ 6k*]
HA[0]
PW[alapen]
WR[ 6k*]
KM[6.5]
DT[2004-02-12]
RE[W+18.5]

;B[pd]C[Art:
My name is Joseph and I am a 1k* on IGS.  Thank you for letting me review your game!  I've done my best to comment on the game, but pleased remember to take my suggestions with a grain of salt.  Only professionals have any hope of definitively saying what the best move in a situation is.

I felt some of the key issues in this game were:
1.) Black played very poorly in the corners.  White needed to take better advantage of this.
2.) Moves 54 and 60 for white were nearly passes.  Barring the accident by black at the end, they would have gained white 5 points total, which is much too small.
3.) White failed to adequately pressure the two weaker groups that black created.  Doing so would have resulted in a much closer game.]
;W[qq]C[I say: hi];B[cd];W[dp];B[dj];W[ec]C[This move isn't terrible, but perhaps better might be R14, a nice extension resulting in a moyo-type game.  However, if invasion is your style, I think this can be played.]
;B[dc];W[ed];B[dd]C[Empty triangle means this is very inefficient on black's part.  White should punish this. See the variation]

(;W[ic];B[ee]
(;W[jq]C[K3 may have been my first mistake

K3 probably wasn't the best.  Your suggestion of R14 seems good.  However, if you wish to play something with the E16 stones, G16 is locally better than your suggested F16.]
;B[lc];W[db]C[D18 is a very slow move, especially since it ends in gote.  If black plays E18 at some point, w F18 is a perfectly fine response, so D18 is not urgent.  G16, moving out to the middle, is still a good choice if you want a local move.]
;B[cb];W[eb];B[gc];W[gd];B[hd];W[hc];B[fd]
(;W[gb]C[G18 is too submissive.  See the variation.];B[fc];W[fb]
;B[ge];W[jb];B[cn]C[As W, I feel really behind now

Yes, the top ended very poorly for you and C6 exploits that fact nicely.]
;W[fp];B[fh];W[qj];B[pp];W[pq];B[qp]C[Another joseki mistake by black that white should punish.]
;W[op];B[qn]
(;W[qg]C[I'm not sure if there is a better move than R13

R13 isn't terrible, with the later goal of pressuring the black R4 stones.  However, the whole right side looks pretty uninteresting.  I think i may have perferred playing P5 in an effort to extend your lower moyo.]
;B[qe];W[ql]C[I still think P5 is a better way to pressure these stones.]
;B[oo];W[np];B[no];W[mp]C[N4 is somewhat submissive.  Was there a reason you didn't play N5?]
;B[rq];W[rr];B[sq]C[Wow, very small move by black, especially being so strong on the left and with plenty of room to live in the center.  White should play elsewhere.]
;W[sr]C[Ouch, this move just provokes black to live and removes the aji at S5]
;B[ro];W[cp];B[hq]
(;W[fr]C[Maybe something better than F2.

I put in a few variations of moves that came to my mind.];B[ho]

(;W[fn];B[em]
(;W[jk]C[This move seems rather strange.  It doesn't claim any territory and there is little danger of black forming points here.  What is it doing?]
;B[jp];W[kq];B[kp];W[lp];B[kn];W[kh]MA[fm][ln][nc][bo][rf]C[This is similar to K9.  Remember, it's very difficult to make center points.  I think I would prefer any of the marked points.  They're each sente and help reduce black's points.]
;B[le];W[ln];B[kl];W[ng]C[Don't run away from a fight.  The L4/L6 stones are the crucial issue here.  M7 seems vital.]
;B[qi]C[This seems to be an overplay.  Regardless, white let black off too easily.]

(;W[ri];B[pi];W[rk];B[pg]
(;W[qf];B[pf];W[fm];B[el];W[ko]C[Seems to be rather aji keshi.]
;B[jo];W[lo];B[km];W[re];B[rd];W[lb];B[mb];W[je]C[L18 is sente and pretty big.  I think I would play it first.]
;B[ml];W[jg]C[Both sides seem to reluctant to fight, ecah letting the other connect their weak stones.]
;B[lg]C[This hurts white a significant amount.];W[ok];B[mh]
;W[ii];B[gk];W[kc];B[mc];W[ip];B[io];W[im];B[jn]
(;W[iq]C[See the variation.];B[hp];W[hr];B[ol];W[pl];B[om];W[rf]
;B[hh];W[hi]C[Seems like I'm beat by now. Over 20 behind

Yes, very tough at this point for white to win.  Without the mistake at the end by black, it would have been an easy win.  (No comment beyond this point.)]
;B[gi];W[ih];B[hg];W[if];B[oj];W[nk];B[nl];W[sm];B[rm];W[qh]
;B[ph];W[bo];B[bn];W[mj]C[This move may have been slow, but it was part of my victory later]
;B[eo];W[an];B[eq];W[ep];B[fq];W[gq];B[gp];W[gr];B[am];W[ao]
;B[bm];W[hl];B[fo];W[sd];B[sc];W[se];B[qc];W[ma];B[na];W[la]
;B[nc];W[sn];B[so];W[rl];B[co];W[bp];B[nj];W[mk];B[mi];W[ca]
;B[ba];W[da];B[bc];W[kj];B[kk];W[hj];B[hk];W[ik];B[kd]C[Thank you B for L16]
;W[gj];B[fj];W[hf];B[gf];W[fk];B[fl];W[gl]C[I'm still about 10 behind]
;B[ek];W[gn];B[do];W[gk];B[mn];W[lm];B[mm];W[kf];B[jd];W[lf]
;B[mf];W[lh];B[jc];W[kb];B[mg];W[pm];B[pn];W[li];B[hn];W[pj]
;B[en];W[gm];B[ll];W[jl];B[lk];W[ni];B[oi];W[lj];B[id];W[ei]
;B[fi];W[rb];B[rc];W[oe];B[pe];W[ob];B[nb]C[Creating aji and praying]
;W[qm];B[rn];W[sl];B[ia];W[ha];B[kg];W[ke];B[ie];W[jf]C[Come into my lair.]
;B[ig];W[me];B[ld];W[nh];B[lq];W[od];B[oc];W[of];B[er];W[dr]
;B[lr];W[mq];B[mr];W[or];B[nr];W[kr];B[oq];W[nq];B[mo];W[oq]
;B[os];W[qs];B[ps];W[qr];B[ks];W[js];B[ns];W[ir];B[rs];W[ls]
;B[he];W[nf];B[go];W[es]C[This was slow];B[tt];W[nd];B[tt];W[hm]
;B[tt];W[md];B[tt];W[jm];B[tt];W[og];B[tt];W[oh];B[tt];W[in]
;B[tt];W[tt]C[W wins 18.5])
(;W[hp];B[gp];W[iq]
(;B[go];W[gq])
(;B[gq];W[go];B[fq];W[eq])))
(;W[pf];B[qf]
(;W[ph];B[qh];W[og];B[rg];W[rh]C[This is a tough ko for white, but trailing at this point he might need it.]
)
(;W[qh];B[ph];W[of];B[oj];W[nk]C[This looks like a tough fight for black.]
)))
(;W[rh]C[How about this?  I don't see a good black response to save R11.]
))
(;W[jo];B[hm]C[This looks better than what I did.

I agree.]))
(;W[jo];B[fn]
(;W[hp];B[ip];W[gp];B[io];W[iq]C[this branch looks far behine b]
)
(;W[cl];B[dn];W[bj];B[ci];W[bi];B[bh];W[bm];B[bn];W[el]
(;B[gm];W[fk];B[hk];W[dk];B[ej];W[cj];B[ch];W[bk]C[maybe this was better if it worked out this way]
)
(;B[gl]C[I think Black would have responded here, but it's a similar result.]
;W[fk];B[gk]))))
(;W[hp]
(;B[ip];W[iq];B[gp];W[ho]
(;B[gq];W[go];B[fq];W[eq]C[B looks dead.])
(;B[go];W[gq];B[fq];W[hr];B[ep];W[eq];B[fo];W[fr]C[This looks better than the result in the game.  Black needs one more move to seal off his moyo, giving white sente.]
))
(;B[iq];W[ip];B[jr];W[kq];B[gq];W[fq];B[fr];W[er]C[Here's a nice life and death situation.]
))
(;W[ho];B[ip];W[ko]C[This would be a very nice splitting attack if the S5 stone wasn't in place.  It still works adequately since it will allow white thickness to reduce the left side.]
))
(;W[oo]
(;B[qh];W[pm];B[qm];W[pl];B[rk];W[qk];B[rj];W[ri];B[rl];W[qi]
C[Now it's Black's turn to live submissively.  White still has the 3-3 invasion at R17 as well as big plays in the middle of the board.]
)
(;B[pl];W[qg]C[This is similar to before, only now white has much better control of the lower side.]
)))
(;W[ge]C[This works, and most importantly, keeps you from being sealed in.]

(;B[fe];W[fc];B[gb];W[hb])
(;B[fc];W[fe];B[gb];W[hb])))
(;W[qf])
(;W[fd]))
(;W[ee];B[df];W[jd]C[This gives white a bit more breathing space and prevents black from pressing the white stones as happened in the game.]
))
