(;FF[4]GM[1]SZ[19]ST[2]CA[UTF-8]AP[SGFC:1.15]

PB[Telemakhos]
BR[25k]
PW[Kitaken]
WR[27k]
KM[0.5]
DT[2004-02-18]
PC[IGS-PandaNet]
RE[W+44.50]
RU[Japanese]

C[D:  Hello, my name is Darrell and I will be reviewing your game.  I am 4-5 kyu on KGS.

Good game.  Interesting fighting.

Your primary weakness is that you pick fights where your opponent is strong.  Try to make your groups strong and attack him where he is weak instead, and your game will improve rapidly.

Hopefully you are using an SGF viewer where you can see the variations as they are not all marked with comments.

If you have any questions, don't hesitate to ask.];B[qd];W[cp]
;B[dc];W[qp];B[de]C[This is standard frameworking, right?

D:  Yes, this is good and normal.];W[eq];B[pn]LB[oc:C][od:D]
[op:A][oq:B]C[D:  This is a funny move.  I don't really like it.  You are asking white to attack this stone while making territory on the fourth line.  Any of ABCD are more natural.]
;W[op]SQ[oq][pq][qq][rq][sq][or][pr][qr][rr][sr][os][ps][qs]
[rs][ss]C[Just like this.  White is profiting while attacking black.]

(;B[ro]C[I think I lost the corner here... wasn't sure how to approach the R4

D:  You seem to want to take away white's area.  This is not uncommon among beginners, but it is not reasonable.  Your opponent is entitled to *some* territory.  You should just work to get a bit more than you let him take.

See variation for an idea of how this might be played differently.]
;W[on]
(;B[pp];W[po];B[pq];W[qq]
(;B[ql];W[qn];B[pm];W[qo];B[rn];W[rm];B[qm]C[D:  Good move.]
;W[rl]C[Telemakhos: not starting out so good :P];B[rk];W[rp]
;B[sl];W[oq];B[nl]C[D:  Actually, this came out reasonably well all things considered.  White got a fairly large corner and a wall facing the bottom center.  Black got a little territory and good influence into the center and right.]
;W[pr]C[This was a wasted move for white.  It had the same value as "pass".]
;B[nn]LB[oc:B][jd:C][od:A][cj:D][dj:E]C[D:  Once again -- much too greedy.  Do you think white should get NO territory?  You are attacking white's strongest stones.  Better moves are marked.  See how they start making huge territory and how they work together with the other stones you have already got on the board?]

(;W[so];B[sm];W[lp];B[om]LB[kc:C][oc:D][cg:B][cj:A]C[D:  I like this move as it exerts great influence on the lower center of the board.  White should just ignore this move.  The stone you have ataried is not worth saving.  Any of ABCD would be good for white.]
;W[oo];B[bn]LB[cj:B][dj:A]C[
Fourth line for influence (like A)
Third line for territory (like B)
Second line for failure.  You shouldn't be playing on the second line until later in the game.]
;W[ip];B[bp];W[oc]C[
D:  Good move by white.];B[ld]C[Pincered too far?

D:  No, this is good.  Good move.];W[md]
(;B[nd]C[D:  Complicated.  Learn to play simpler.  You shouldn't really be trying to kill white here.  You want to attack the white stones and profit from the chase.  Killing is surprisingly rare in go.]
;W[me];B[nc];W[mc]
(;B[jc];W[od];B[ne];W[mf]
(;B[og];W[nb];B[pb];W[oe];B[nf];W[qe]C[D:  White ignored your threatened cut.  Make him pay!  (also, don't threaten a cut you aren't actually going to make)]

(;B[pe];W[pf];B[pd];W[re];B[ob]C[D:  good!];W[of]C[didn't even notice the atari...

D:  That happens unfortunately.]
(;B[qf];W[ng]C[Telemakhos: wow... i need to pay attention]
(;B[co];W[rd]C[White kills your corner.];B[bk]C[D:  Second line again.  Very bad.]
;W[cq];B[do];W[eo];B[dp];W[dq];B[em];W[ep];B[gn];W[gp];B[ho]
;W[ch]LB[cg:A]C[D:  Good move by white.  I think A would be a little better though.]
;B[cg];W[dh];B[fh];W[fi];B[eg];W[eh];B[ej];W[fg];B[gh];W[ei]
;B[gj];W[ff];B[ee];W[gi];B[hi]C[expecting ladder, hoping for trap...]
;W[hh];B[gg];W[hj];B[ii];W[hg];B[gf];W[ge];B[hf];W[dg];B[ef]
;W[fj];B[gk];W[fe];B[hd];W[he];B[if];W[ik];B[jk];W[jl];B[il]
;W[jj];B[ie];W[kk];B[lk];W[ji];B[ih];W[hl];B[gl];W[im];B[lm]
;W[oh];B[mi];W[cf];B[bg];W[bf];B[bh];W[df];B[bi]C[D: Good.]
;W[dj];B[ek];W[cd];B[ce];W[bd];B[be];W[dd];B[ed];W[fd]
(;B[ec];W[ae];B[fc];W[dk];B[dl];W[ci];B[cj];W[ck];B[bj];W[cl]
;B[cm];W[cc];B[cb];W[oj];B[oi];W[io];B[hp]LB[hq:A]C[should I have exploited on this more?

D:  Yes, at the earliest possibility, a move at A is *huge*.]
;W[pg];B[pi];W[qh];B[qi];W[qc]C[worth saving?

D:  No, the corner is already dead.  White just passed.];B[nh]
;W[pc];B[mg];W[rf];B[ph];W[hq];B[og];W[nf];B[rh];W[lo];B[ln]
;W[qg];B[lf];W[in];B[hm];W[go];B[hn];W[fn];B[fm]C[oops];W[gm]
;B[bl]LB[fk:A][fl:B]C[probably should have taken this next move?

D:  Yes, because it defends your weakness at AB];W[no]
(;B[mn];W[mo];B[jn];W[kn];B[km];W[jo];B[ko];W[kp];B[kn]C[heavy.. better solution?

D:  It's just too soon to play these small moves.  You have a huge unresolved fight in the top left.]
;W[lj];B[mj];W[li];B[lh];W[kh];B[jh];W[jg];B[ig];W[le];B[ke]
;W[kf];B[lg]C[messy... where did this go wrong?];W[ll];B[mk]
;W[ml];B[mm];W[kl];B[ok];W[lc];B[kd];W[kc];B[jb];W[kb];B[ka]
;W[la];B[ja];W[qb];B[bq];W[br];B[ar];W[cr];B[aq]C[D:  Not needed.]
;W[sp];B[sn];W[bs];B[as]LB[bc:B][fk:A]C[should have taken tenuki?

D:  Yes.  Urgent plays:  AB];W[en];B[dn];W[hk]
(;B[jf];W[sh];B[si];W[sg];B[ri]C[D:  Not needed.  Save moves like these until they are needed.  Take points.  First one to play in various places gets all the points.]
;W[rg];B[oh]C[more heaviness..];W[kg];B[ki];W[bb]C[how should I have prevented this? or counteract it?

D:  Yes, you should have prevented it.  The white group was not dead for this whole time.  First person to play on this group wins.]

(;B[ab];W[ac];B[ba];W[aa]C[Now, this is a ko fight.  You don't have much in ko threats, but you have nothing to lose by fighting it.]

(;B[ca];W[db];B[eb]C[oops];W[da]C[Telemakhos: good trim];B[ea]
;W[gc];B[gd];W[kj];B[kh];W[jm];B[nm]C[eww];W[fk]C[response? should have taken at
D11?];B[fl];W[el]
(;B[dm];W[ek];B[ag];W[af];B[ij];W[tt];B[tt];W[tt]TW[ba][ca]
[ma][na][oa][pa][qa][ra][sa][ab][cb][lb][mb][ob][pb][rb][sb]
[bc][nc][rc][sc][ad][nd][pd][qd][sd][ne][pe][se][qf][sf][di]
[ej][jk][il][hm][gn][hn][fo][ho][fp][hp][jp][mp][np][pp][fq]
[gq][iq][jq][kq][lq][mq][nq][pq][rq][sq][dr][er][fr][gr][hr]
[ir][jr][kr][lr][mr][nr][or][qr][rr][sr][cs][ds][es][fs][gs]
[hs][is][js][ks][ls][ms][ns][os][ps][qs][rs][ss]TB[fa][ga][ha]
[ia][fb][gb][hb][ib][gc][hc][ic][fd][id][jd][fe][ge][he][je]
[ff][kf][fg][hg][jg][kg][ah][hh][mh][ai][ni][aj][nj][oj][pj]
[qj][rj][sj][ak][nk][pk][qk][sk][al][ol][pl][rl][am][bm][rm]
[an][cn][ao][bo][ap]C[You can check your score with the score command, type 'done' when finished.
Click on a group of stones to mark it dead and remove it from the board.
Telemakhos is removing @ G17
Telemakhos is removing @ P10
Kitaken is removing @ Q18
Kitaken: 115.5 to Telemakhos: 71.0])
(;B[ek]))
(;B[af]C[D:  Make a ko threat...];W[ag]C[D:  white answers it...]
;B[ab]C[D:  Take the ko.];W[jm]C[D:  white makes a ko threat]
;B[bc]C[D:  black ignores it];W[nm]C[White takes];B[ad]C[D:  Perhaps something like this.]
))
(;B[da]C[D:  This is as good as you can do at this point.]))
(;B[fk]))
(;B[bc];W[ad];B[ac];W[af];B[fk];W[bb];B[ba];W[ab];B[db]C[White is dead.  This kill is worth about 65 points.]
))
(;B[fc]C[D:  Kill these.]))
(;B[rf]C[D:  You need to rescue your corner.  It is huge.  This move is worth about 35-40 points in the score.]
))
(;B[ng];W[mb];B[pg];W[qg];B[qh];W[rg];B[qf];W[rf];B[pc];W[qf]
;B[rd]))
(;B[ob];W[mb];B[rd]C[D:  I doubt white can live in the corner.]
))
(;B[nb]))
(;B[nb]C[D:  If you are going to fight this way, you *must* keep white's two groups separated.]
))
(;B[mc];W[nd];B[pg]C[D:  This looks quite good for black too.  If white cuts...]
;W[lc];B[kc];W[lb];B[kd];W[mb];B[ch]C[White captures one stone in gote, black's territory gets bigger.]
)
(;B[le];W[me];B[lf];W[qf];B[pc];W[ob];B[pb]TR[dc][ld][de][le]
[lf]C[D:  Black's marked stones are working well together.  Black looks good.]
))
(;W[om];B[ol];W[nm];B[mm];W[oo];B[mn];W[ml]C[Complicated.]))
(;B[qo];W[oo];B[pm]))
(;B[pm]C[Simpler.  And better.]))
(;B[pk]LB[qj:A]C[
D:  a move here or at A helps your marked weak stone plus begins to make some strength on the right side and the top right corner.]
))
