(;FF[4]GM[1]SZ[19]AP[SGFC:1.15]

GN[RUTT-jadoube(B)]
PB[jadoube]
BR[4k]
HA[0]
PW[RUTT]
WR[4k]
KM[6.5]
DT[2004-03-01]
RE[W+3.50]

;B[qd];W[od]C[jadoube [4k\]: Hi, enjoy the game :)];B[oc];W[pp]
;B[dd];W[pd];B[pc];W[qe];B[qc];W[nd];B[mc];W[pj];B[dp];W[md]
;B[lc];W[jp];B[dj];W[fq];B[ld];W[mf]C[roge: black can continue with S15,S16]
;B[fp];W[gp];B[gq];W[ep];B[fo];W[eo];B[eq];W[dq];B[fr];W[er]
;B[fq];W[cp];B[do];W[co];B[en];W[cn];B[cq];W[bq];B[cr];W[br]
;B[dr]C[roge: D1 is better];W[le];B[nq];W[np];B[mp];W[no];B[oq]
;W[pq];B[lp];W[kq];B[ln]C[roge: I prefer K5 to strengthen the black group]
;W[jn];B[pn]C[roge: too early];W[po];B[kl];W[jl]C[JR: I felt the following moves turned out well for black.  I'm sure white could have caused more problems. Therfore was o3 wrong?]
;B[km];W[ik];B[nm];W[mm];B[mn];W[om];B[nn];W[on];B[ol];W[pl]
;B[pm];W[oo];B[pk];W[ql];B[ok];W[qk];B[oj];W[pi];B[oi];W[oh]
C[roge: now it seems better to cut at K7];B[kj];W[lq];B[mq]
;W[iq];B[fc];W[cd];B[cc];W[bc];B[cb];W[ce];B[ef];W[bb];B[bg]
;W[de];B[ed];W[ee];B[fe];W[ca];B[db];W[da];B[ea];W[ba];B[eb]
;W[ke];B[ae]C[JR This was too early. What move is best here?

roge: b15 IS better];W[bf];B[af];W[cg];B[bh];W[ch];B[be]C[roge: b11 is better]
;W[bd]C[roge: now white is alive];B[cf];W[df];B[eg];W[bf];B[bi]
;W[ad];B[ag];W[ab]C[roge: bad for black !];B[re];W[qf];B[rf]
;W[rg]C[roge: S12 is better];B[qg]C[roge: this move don't work: no aji!]
;W[rh];B[pg];W[of];B[jd];W[kd];B[kc];W[je];B[id];W[ci];B[cj]
;W[bk];B[bj];W[jr];B[rn]C[JR The idea of my next couple of moves was clearly wrong, what is the best thing to do here?

roge: ??? difficult to live here !];W[qn];B[qo];W[qm];B[rr]
;W[qr];B[rq];W[ro];B[qq];W[pr];B[ck]C[roge: slow

roge: b8 better];W[bl];B[cl];W[cm];B[jm];W[hn];B[im];W[hm];B[in]
;W[ho];B[io];W[ip];B[il];W[sf];B[sd];W[ie];B[he];W[hf];B[gf]
;W[kh];B[nh];W[og];B[hl];W[hg];B[hq];W[hp];B[hs];W[lr];B[kp]
;W[jo];B[ii];W[fm];B[em];W[fl];B[gk];W[fk];B[gj];W[ih];B[ir]
;W[ms];B[ji];W[li];B[jh];W[jg];B[mh];W[lg];B[mj];W[lj];B[lk]
;W[hi];B[hj];W[nc];B[nb];W[ki];B[jj];W[mi];B[ni];W[cs];B[bs]
;W[as];B[ds];W[bs];B[ak];W[bm];B[gi];W[hh];B[gg];W[al];B[aj]
;W[ei];B[ej];W[fj];B[fi];W[eh];B[el];W[ek];B[dl];W[or];B[fh]
;W[js];B[se];W[sg];B[lh];W[kg];B[nr];W[ns];B[ao];W[bp];B[cf]
;W[mb];B[lb];W[bf];B[di];W[dh];B[cf];W[ob];B[ma];W[bf];B[qh]
;W[ri];B[cf];W[dg];B[bf]C[roge: very small! J1 better];W[fn]
;B[is];W[mo];B[kn];W[gl];B[go];W[gn];B[ng];W[nf];B[ml];W[sm]
)
