(;FF[4]GM[1]SZ[9]ST[2]CA[UTF-8]AP[SGFC:1.15]

GN[Caharin-gtwade-20031208.sgf]
PB[Guy Wade (gtwade)]
BR[22k]
PW[Seeker of Truth (Caharin)]
WR[20k]
KM[6.5]
DT[2003-10-29,2003-12-08]
PC[Dragon Go Server: http://www.dragongoserver.net]
RE[W+41.50]
RU[Japanese]
GC[Game ID: 38457]

C[Game played on DragonGo Server

Hi, I'm Michaeljohn Clement, I'll do my best to point out a few useful things.  Please check the variations.]
;B[gg];W[ee]
(;B[gc];W[fc]
(;B[ed]LB[fd:A]C[Is F6 better here for black?

Yes, much better.  E6 is a losing move.  If w doesn't make big mistakes after this point b cannot win.  There are at least two alternatives, see the variations for F8 and F6 at this point.  Both are complicated and could have many possibilities.]
;W[fd];B[fe];W[ff];B[ge];W[fg];B[ec];W[fb]
(;B[cc]LB[eb:A]C[Is E8 better instead, to chase white?

E8 in fact it does more than chase white, it captures the three stones and wins the game.  Please see the variations.  Can w escape after C7?  See the variation with the next move at G6.]

(;W[dd]C[see the variation which looks better for w.];B[dc]
;W[cd];B[de];W[ef];B[ce];W[bd];B[be];W[bc]
(;B[cg]LB[bb:A]C[Should I have played at A instead?

Yes, check the variation.];W[dg]
(;B[dh];W[eh];B[df];W[gh];B[gf];W[hh];B[hg];W[ig];B[if];W[ih]

(;B[eb]CR[ie]C[H5 would have been better, protected the H4 eye.  Playing at E8 allows W to play J5.

--

Actually, H5 loses the game.  E8 is correct, it was the next two moves of yours that were not quite the best.]
;W[ie]C[w should play at C8 to capture the E8 stones.];B[he]
C[Very big mistake.  G6 or G8 are the only options for b for this move.]

(;W[hf]C[w made a mistake here, see the variation for a line where w can win on this move.]
;B[id]C[Again G6 or G8 is essential.];W[if]C[and again w should play at C8]
;B[gd]
(;W[ic]C[w should play at G8 instead.]
(;B[hd]C[this was the last chance for b.  you can only play G8 at this point.  If you play at G8, all of w's stones are dead (yes, all of them!) Please see the variation.]
;W[gb]C[Game over at this point.  This is the end of the review.

This was a very exciting and dramatic game, with lots of fighting.  The best way to learn from a game like this is to study every reasonable variation which of course takes quite some time.  You may also want to study some life and death problems.]
;B[fi];W[eg];B[ei];W[hc];B[fa];W[ga];B[ci];W[cb];B[ca];W[db]
;B[ae];W[ad];TW[aa][ba][ca][da][ea][fa][ha][ia][ab][bb][eb]
[hb][ib][ac][cc][dc][ec][gc][ed][gd][hd][id][fe][ge][he][gf]
[gg][hg]TB[af][bf][cf][ag][bg][ah][bh][ch][ai][bi][di]C[White: 28 territories + 18 prisoners + 6.5 komi = 52.5
Black: 11 territories + 0 prisoner = 11
Result: W+41.5]N[RESULT])
(;B[gb]C[at this point w is dead everywhere, so the game is over, but one possible variation follows]
;W[hd];B[eg];W[fh];B[ei];W[fi];B[hi];W[hb];B[ha]))
(;W[gb]
(;B[hc];W[cb])
(;B[hb];W[hc])))
(;W[gd];B[hd];W[gb]
(;B[hc];W[cb])
(;B[bb];W[hf];B[hb];W[hc];B[if];W[ea];B[ac];W[hf])))
(;B[he];W[gd];B[hd];W[hc];B[hb];W[gb];B[ic];W[cb]C[w wins in this case by quite a bit.]
))
(;B[bb]C[you still have a chance to make this move.]))
(;B[bb];W[gd];B[gf];W[gh];B[hh];W[fh];B[he];W[hd];B[hi];W[ie]
;B[if];W[id];B[ig];W[cg]C[b is ahead about 4.5 points.]))
(;W[gd];B[he];W[eb];B[db];W[hd];B[gf];W[gh];B[hh];W[fh];B[hi]
;W[ie];B[if];W[id];B[ig];W[de]C[w is ahead in this case.]))
(;B[eb];W[gd]
(;B[hd]C[A very violent and complex variation follows, also see the other variation which is better for b.]
;W[he];B[gf];W[hc];B[gb];W[id];B[fa];W[hd];B[fh];W[de];B[eh]
;W[cc];B[hb];W[hg];B[hh];W[hf];B[gh];W[ga];B[cb];W[bb];B[dc]
;W[dd]C[at this point b is dead, one possible variation follows.]
;B[bc];W[cd];B[ba];W[ea];B[db];W[ab];B[ac];W[da];B[aa];W[bb]
;B[ab];W[bd])
(;B[he]
(;W[hd];B[ef];W[de];B[gf];W[fh]C[This variation turns out bad for w, the top right (or something else) will die.]
)
(;W[gf];B[hd];W[gb];B[hc];W[hf];B[de];W[ef];B[hb];W[df];B[ce]
C[b wins by a few points.]))))
(;B[fd];W[ed];B[fb];W[ec];B[gd];W[dg];B[cb];W[eb];B[cd];W[cf]
;B[be];W[bf];B[bc];W[fg]C[b is ahead.])
(;B[fb];W[gd];B[ec];W[fd];B[hc];W[hd];B[dd];W[eg];B[fh];W[eh]
;B[hf];W[hh];B[ff];W[ef];B[he]C[b is alive here and should win.]
))
(;B[gd]C[possibly a little more secure.]))
