(;FF[4]GM[1]SZ[19]ST[2]CA[UTF-8]AP[SGFC:1.15]

PB[steinelos]
BR[3k]
PW[TONIO]
WR[3k]
KM[6.5]
DT[2004-03-13]
PC[The Kiseido Go Server (KGS) at http://kgs.kiseido.com/]
RE[W+0.50]
TM[1800]
OT[5x30 byo-yomi]
RU[Japanese]
GC[Reveiw for GTL by Steve Fawthrop,AGA 5d.  2004/03/20]

;B[pd]C[steinelos [3k\]: hi];W[dp];B[pp];W[dd];B[pj];W[nc];B[lc]
;W[qf]LB[qc:A][jd:C][ne:B]C["I didn't want to play in the san-san, because black could have made a big moyo on the right"

In that case to original approach was probably the wrong idea.  The pattern in the right occurs in pro games frequently and W almost always plays either A or B.  I do not recall ever having see this move in this situation. Perhaps W should have played C instead of playing an approach move.]
;B[nd];W[qc]LB[nd:B][qf:A]C[If W is going to play this point anyway then the A-B exchange does not really serve much purpose in this position.]
;B[qd];W[pc]
(;B[pf]LB[oc:A]C[This is an awful move. Apart from the fact that is it overconcentrated, an attachment is used in a defensive position.  B should be attacking.  See variation at 'A'.]
;W[rd];B[qg]C[B is backtracking at every step.  These moves are not the moves of a 3k.]
;W[re];B[oc];W[ob];B[od];W[nb]C[If B has played these first then he would have got to the hane on the second line first.]
;B[gc]LB[jp:A]C[Wrong direction completely. B is undercut at the top right and so has little prospect at the top. He should play 'A to increase the moyo and play a consistent strategy.  If he must play at the top left then an approach from the opposite side is required,]
;W[md]LB[pg:A]C["I wanted to cut : I thought it was important"

It is definitely an important point.  But I would hold of a little while and secure my own position first.  If B protects this point there is also the cut at 'A' to aim at.  As it stands W now has 3 isolated stones on the board and B has tremendous thickness so it is hard to imagine W being successful.  At the moment it is not appealing for B to take gote to protect the point to W can anticipate being able to play here later.]
;B[mc]
(;W[ld];B[kd];W[ke];B[kc]
(;W[lf];B[je];W[jf]
(;B[ie]LB[if:A]C[Cowardice.  Should play 'A'];W[if];B[kg];W[kf]
;B[ge]
(;W[lh]LB[mf:A][nf:B]C[This is not the vital point. If B gets 'A' then W's shape is spoilt so W does better to play at 'B' first.  If B ignores Wb then there is a nice followup at 'C',]
;B[mf]C[Nice point.];W[kh];B[ne];W[le]C[This is not so big.  Only reason for W to conenct is if he expect to be able to attack one of the B groups which he keeps split.  This seems unlikely here so this is nothing more than a 5pt gote yose play.]
;B[nj];W[nq]LB[rg:B][jp:A]C["Don't play close to thickness"  - W already has two isolated stones on the board.  This creates a third one at a time when the group at the top is still not secure.  This is a recipe for defeat.  W should hold back to 'A' and try to threaten a moyo on the lower left quadrant.  As long at the 3-3 invasion and the move at 'B' are available to W then the B moyo on the right can be controlled.]

(;B[jq]C[The wide pincer anticipates a 3-3 invasion and a block on the side of the pincer.  This is not desirable for B in this position as he should be amain at territory on the right.  A one point pincer is better.  See the variation.]
;W[qq];B[qp]C[This is completely the wrong side to block with thw wide pincer.  The follow up moves make the pincer end up as a bad move.]
;W[pq];B[op];W[oq];B[gq];W[mo]LB[np:A][rp:B]C['A' is better.  It fills a B liberty and makes a hane at 'B' more of a threat.]
;B[pm]C[Way too timid.]
(;W[cj]C[This is too lose.  Also, being low it is open to being capped, a move which will help B attack the group at the top.  W should be looking at the two B stones at the bottom.   Several alternative sequences have been show (without comments) for evaluation and consideration.]
;B[er]LB[dr:A]C['A' is much better.];W[dr]
(;B[eq]LB[dq:A]C['A' is better.];W[dq];B[cn];W[co]LB[bo:A]C["was it good ? I don't think, but what else could I have played ?"

No, this cannot be good. At the very least play 'A'];B[dn];W[cg]
;B[cl];W[do];B[ci];W[di]LB[dj:A]C[It is hard to see how B can respond to a move at 'A' instead of here.  That move would be a double threat against the single stone and the 3 stones below.]
;B[bj];W[bi];B[ch];W[bh];B[dh];W[dg];B[eh]
(;W[bk];B[dj];W[ck];B[dk];W[bl];B[dl]LB[bm:B][bn:A]TR[bl]C[This exchange is not good for W.  Letting B connect loses aji.  W gains the prospect of a connection at 'A' but B is also threating to play 'B' which threatens either a followup at 'C' or an threat in the corner.  See variations.]

(;W[eg]LB[dc:A]C["I did it to connect with my central group"

The center group is not under immediate tghreat.  'A' is bigger]
;B[fh];W[fg];B[dc]LB[fg:A]C[W should never let B get this move. The connection to the center is not even complete after 'A']
;W[cc];B[cb];W[bc];B[ec];W[gh];B[fj];W[pg];B[ph];W[og];B[ng]

(;W[of];B[oh];W[qh]
(;B[qi];W[rh];B[nf];W[pe];B[ri];W[rg];B[bn]C['A' is also an option and threatens to moves shown earlier.]
;W[bo];B[ao];W[ap];B[an];W[bq]LB[br:A]C[Should be at 'A'];B[ds]
;W[cs];B[es];W[br];B[lr];W[mr];B[ed];W[de];B[lq];W[bb]LB[mo:B]
[np:A]C[This makes no sense.  What happens is B pushes through at 'A'?  After Ba, the W stone at B is just about dead.]
;B[rp]LB[np:A]C[Wrong direction.  'A' is much better.];W[rq]
;B[gi];W[hh];B[fo];W[sp];B[so];W[sq];B[ro];W[si];B[sj];W[sh]
;B[rk]LB[mo:A]C[These hanes are not really sente when the stone at A is not resolved.]
;W[mq]LB[np:A]C['A' is a little better I think - gives better resistance to help W reduce B.]
;B[ko]
(;W[ij]C["black was taking the center : I had to do something"

A deeper reduction is called for];B[hk];W[ik]
(;B[hl]C[Very timid - see variation];W[il];B[im];W[jm];B[jn]
;W[ka];B[kb];W[la]
(;B[ja];W[mb];B[ib];W[ls];B[ks];W[ms];B[nm];W[kr]
(;B[kq];W[jr];B[ir];W[js];B[is];W[ks];B[km];W[db]
(;B[eb];W[ca];B[kk];W[lj];B[lk];W[mh];B[nh];W[mj];B[mk];W[no]
;B[hi];W[ii];B[hf];W[hg];B[gf];W[gg];B[on];W[oo];B[po];W[mm]
;B[nn];W[mn];B[ml];W[jl];B[ea];W[kj];B[hj];W[eo]
(;B[fn];W[en];B[em];W[ee];B[fe];W[bm];B[cm];W[lp];B[kp];W[ni]
;B[oi];W[mi];B[mg];W[lg];B[lm];W[kl];B[ll];W[ln];B[kn];W[jk]
;B[np];W[mp];B[da];W[cb];B[al];W[aj];B[am];W[ak];B[lb];W[ma]
;B[ff];W[ef];B[ep];W[qe];B[tt];W[tt]LB[fn:A]TW[aa][ba][na][oa]
[pa][qa][ra][sa][ab][pb][qb][rb][sb][ac][rc][sc][ad][bd][cd]
[sd][ae][be][ce][se][af][bf][cf][df][pf][rf][sf][ag][bg][ig]
[jg][kg][qg][sg][ah][ih][jh][ai][ji][ki][li][bj][jj][bp][cp]
[aq][cq][ar][cr][nr][or][pr][qr][rr][sr][as][bs][ns][os][ps]
[qs][rs][ss]TB[fa][ga][ha][ia][fb][gb][hb][jb][fc][hc][ic][jc]
[fd][gd][hd][id][jd][he][di][ei][fi][pi][ej][gj][oj][qj][rj]
[ek][fk][gk][nk][ok][pk][qk][sk][el][fl][gl][nl][ol][pl][ql]
[rl][sl][dm][fm][gm][hm][om][qm][rm][sm][gn][hn][in][pn][qn]
[rn][sn][go][ho][io][jo][qo][fp][gp][hp][ip][jp][fq][hq][iq]
[fr][gr][hr][fs][gs][hs]C[From the score it would appear the W won the game in yose, but this is not the case.  W missed many chances throughout the game to get a much easier win.  B actually threw away points in the yose ('A' for example)]
)
(;B[en]))
(;B[ea]C[Better shape]))
(;B[js];W[jr];B[is];W[ir];B[hs];W[hr];B[gs];W[gr];B[fs];W[fq]
;B[ep];W[in];B[hm];W[jo];B[kn];W[lp];B[kq];W[kp];B[jp];W[io]
))
(;B[ma];W[mb];B[lb];W[na];B[ja]))
(;B[il];W[jl];B[jm];W[im];B[hl];W[jn];B[km];W[kn];B[ln];W[lm]
;B[kl];W[lo];B[mn]C[B is ok];W[kp];B[jo];W[jp];B[io];W[ip];B[iq]
;W[lp];B[hp];W[in];B[ho];W[ll];B[kk];W[nn]))
(;W[il];B[ij];W[kl]
(;B[kj];W[lk];B[lj];W[ln])
(;B[lm];W[jj];B[ji];W[kj];B[ii];W[mk])))
(;B[rg];W[rh];B[oe];W[pe];B[nf];W[pf];B[qi];W[ri];B[rj];W[sg]
))
(;W[qh];B[rg];W[rh];B[oh];W[of];B[oe];W[pe];B[nf];W[pf];B[qi]
;W[ri];B[rj];W[sg]))
(;W[tt];B[bm]
(;W[bo];B[bg]
(;W[aj];B[cd])
(;W[bf];B[aj]))
(;W[bf];B[bo];W[bp];B[bq]C[This can be a serious threat if W gets enclosed.]
)))
(;W[dj];B[bk];W[fj]C[This give W some chance of mounting an attack, although the prospect may not be great]
))
(;B[dq]
(;W[eq];B[cq];W[fr];B[cr];W[es];B[cp])
(;W[cq];B[eq];W[cp])))
(;W[fp];B[gp];W[fo];B[er]
(;W[go];B[cq];W[cp];B[bq];W[dj])
(;W[dr];B[eq];W[dq];B[cj];W[cl];B[cf];W[ce];B[df];W[bf];B[bg]
;W[be])
(;W[dj]
(;B[cq];W[cp];B[bq];W[bp])
(;B[df];W[fd];B[gd];W[ef])))
(;W[eq];B[go];W[dn];B[df])
(;W[cf];B[cn];W[ck];B[cq];W[cp];B[dq];W[bq];B[br];W[bp];B[ep]
;W[eo];B[fp];W[dn]))
(;B[lq];W[qq];B[qp];W[pq];B[op];W[nr];B[mo]C[Hard to know exactly what to do for W here.]
))
(;W[nf];B[ki];W[of];B[pg];W[pe];B[qe];W[rf];B[oe];W[ne];B[pe]
;W[mi]))
(;B[if];W[ie];B[jd];W[ig];B[hf];W[jg];B[cf]))
(;W[mf];B[je];W[of];B[pg];W[kf]C[This shape is better than the game,]
))
(;W[me]
(;B[nf];W[kd];B[kc];W[jd];B[jc];W[id];B[hc];W[lg])
(;B[kd];W[of];B[pg];W[mg];B[kg])))
(;B[oc];W[ob];B[od]C[Now W has a few choices of how to playu but not work out very weel and the original pincer ends up very weak.]
))
