(;FF[4]GM[1]SZ[19]ST[1]CA[UTF-8]AP[SGFC:1.15]

PB[hide16]
BR[24k]
PW[fc]
WR[22k]
KM[0.5]
DT[2004-03-22]
PC[IGS-PandaNet]
RE[B+12.50]

C[[Malweth\] My comments will be preceded by "[Malweth\]" (which I use on KGS/IGS). Toward the end of the game you asked about the proper way to go about an invasion - see the Move 66 variation. Many variations have been added - I suggest using the SGF viewer (and IGS client) "ggo" for its ghost varations and branch jumping (I mention this because you requested I mark the moves I would consider - I typically did this in variation).
Hope this helps. I am 10-kyu KGS (and hopefully hitting 9-kyu soon :)

For the reviewer:
I am interested in knowing what my biggest mistakes were. I was playing white, but comments on blacks play would also be useful. I have commented on a couple of moves that with hindsight I would not do. Ranks are IGS.
Thanks in advance.];B[dp];W[pd];B[po];W[dd];B[oq]
(;W[jp]C[[Malweth\] I typically prefer the K3 reply to black's shimari at P3/P5, but this is mainly a stylistic point. K4 should be ok. The reason I personally like K3 is because a black response at M3 doesn't undermine a base for this stone.]

(;B[no]C[[Malweth\] This seems like a slow play by black as this corner territory is already enclosed. I realize black wants to put pressure on K4, but K4 isn't in much danger at this point, and a black play at O6 would accomplish the same (assuming black would like to emphazise the right side).]

(;W[mp]TR[cj][cn][jd][qj]LB[fq:A]C[Maybe this would have been better at F2? Or should I play somewhere else? This move obviously strengthens black.

[Malweth\] This play aims at the cut at P4. This play touches black, which should never be done when attacking. You aren't currently in need of strong defense, so building a base in the other direction looks better. Additionally, you leave your underneath open for black here and in any case this black group cannot be cut. See variation.

Playing elsewhere is possible, but brings up additional danger to white. the move at A is probably your best, but it has drawbacks for white as well. Both are explored in variation.]

(;B[np]C[[Malweth\] As shown in variation, this isn't necessary for black.]

(;W[mq]C[This move, having seen blacks reply doesn't look good to me.

[Malweth\] You are now forced into over concentrated position - the 2 point jump is small here (K4) - the problem with N3 is the direction. You've been playing influence moves in this area, and then decend for territory. N5 is better, and if black ignores it, it's even better. See variation.]
;B[hp]
(;W[cn]C[[Malweth\] You have a very weak group, tenuki is a bad idea - the problem is that if you don't tenuki, black is likely to get a good result... If I were playing black, a pincer of this stone looks good as it will give white two weak groups to look after.]
;B[dn];W[dm];B[en];W[cm];B[em];W[dj]C[[Malweth\] Black now has fairly secure corner territory in both of his corners.]

(;B[ok]C[[Malweth\] This 5th line play is dubious - it looks better to kakari the Q16 stone at R14. If pincered, black's thickness will help in the battle. White should try to take advantage of this play if possible. Black will likely get some secure side territory, but R11 is probably sente.]

(;W[jc];B[qf]
(;W[rd]C[[Malweth\] It would be very good for white if black invaded at the 3x3 here... (Before S16)]
;B[of];W[nd];B[lk];W[ir];B[hr];W[iq];B[hq];W[jn];B[hn]
(;W[jl]LB[jl:A]C[Not sure how efficient k8 is. Maybe n14 better? I have tried a variation.

[Malweth\] The real question is whether the bottom side group needs escape. It doesn't seem to, so enclosure by black is safe. the A stone travels through neutral territory and only threatens to escape. N14 would reduce black's moyo while increasing your own - which is very big right now.]
;B[lf];W[je];B[hk]
(;W[jj]C[[Malweth\] Again, do you need escape? If you (completely) protect this large upper left you should win.]
;B[ln];W[mo];B[mn];W[ko];B[dc]C[[Malweth\] Here's black's invasion. I think black could probably reduce easily with a kakari around D14. Escape seems possible to the right group at M14 or the LL group at H9. Black could do damage to his groups, though.

If black wants this type of invasion, the 3x3 point is also very open.]
;W[cc];B[ec]
(;W[cd];B[hc];W[id];B[cb];W[bb];B[ca];W[gd];B[gc];W[fd];B[fc]
;W[ib];B[hd];W[he];B[hb];W[cg];B[ed];W[ee];B[ic];W[jb];B[ba]
;W[bc]
(;B[eb]C[[Malweth\] This seems unnecessary. This is 7 or 8 stones strong... white has a hard time invading it.

[Malweth\] Invading black moyo... see varation on right side.]

(;W[hi]C[[Malweth\] This cap is a good idea now... it protects G15 somewhat.]
;B[ek];W[ej];B[li];W[jh];B[kd];W[kc];B[jd];W[ie];B[ld];W[lc]
;B[md];W[mc];B[ne];W[oe];B[pe];W[od];B[mf];W[qe];B[pf];W[rf]
;B[rg];W[fk];B[el]TR[hk]C[Is it possible to capture h9?]
(;W[fl];B[hl];W[gj];B[co]
(;W[bo];B[bp];W[bn];B[gm];W[im];B[sf];W[re];B[nq];W[mr];B[nr]
;W[ng];B[nf];W[ll];B[ml];W[lm];B[mm];W[kn];B[ke]C[[Malweth\] This move seems very small for black... considering white can damage his right side a little...]
;W[kk];B[lj];W[lh];B[mh];W[lg];B[mg];W[kf]TR[jg]C[This is a bad move. I should have played k13 or l13

[Malweth\] Yes, setting yourself up for double atari is bad ;)]
;B[kg];W[kh];B[jf];W[if];B[ig];W[jg];B[kf];W[fe];B[ih];W[ji]
;B[ii];W[ij];B[hj]
(;W[gi];B[ik];W[jk];B[in]
(;W[il]C[Here maybe f7 and h7 better.];B[hm];W[qp]C[I not much good at invading but if I don't try I'll never learn. Any suggestions?

[Malweth\] Not much you can do when territory is so defined. Invading doesn't come in yose but in the mid game - moyo invasions can happen at the 3x3 point, tsukes against lonely stones, and invasions in open areas.]
;B[qq];W[ns];B[os];W[ms];B[gk];W[pq];B[pp];W[ps];B[or];W[qr]
;B[pr];W[rq];B[qo];W[rp];B[rr];W[ro]C[[Malweth\] Black is not worried by this ko.]
;B[rn]
(;W[qn];B[qm];W[rm];B[sn]
(;W[sm]C[This is hopeless. q6 maybe?

[Malweth\] Nothing will work - this area is too tightly defined.]
;B[pn];W[se];B[sg];W[ha];B[ga];W[ia];B[qs]C[[Malweth\] Completely unnecessary.]

(;W[fm];B[fn];W[dk];B[dl];W[cl]
(;B[rl]C[[Malweth\] Also not needed... White cannot possibly live.]
;W[io];B[ho];W[hs];B[gs];W[is];B[gr];W[ip];B[ao];W[lo];B[an]
;W[am];B[ap];W[ck];B[gl];W[fj];B[ab];W[fa];B[gb];W[ea];B[da]
;W[ac];B[fb];W[aa];B[al]C[fc: You play very well for 24k];W[bm]
;B[ab];W[ea];B[fa];W[aa];B[km];W[kl];B[ab];W[so]C[[Malweth\] Black fills ko now.]

(;B[sl];W[aa];B[ge];W[gf];B[ab];W[cp];B[cq];W[aa];B[hf];W[hg]
;B[ab];W[do];B[eo];W[aa];B[de];W[ce];B[ab];W[qg];B[qh];W[aa]
;B[ki];W[ab];B[kj];W[jm];B[tt];W[tt];B[tt]TB[aq][ar][as][bq]
[br][bs][cp][cr][cs][db][do][dq][dr][ds][ea][ep][eq][er][es]
[fo][fp][fq][fr][fs][gn][go][gp][gq][le][me][mi][mj][mk][ng]
[nh][ni][nj][nk][nl][nm][nn][og][oh][oi][oj][ol][om][on][oo]
[op][pg][ph][pi][pj][pk][pl][pm][pq][ps][qg][qi][qj][qk][ql]
[qn][qp][qr][rh][ri][rj][rk][rm][ro][rp][rq][rs][sh][si][sj]
[sk][sm][so][sp][sq][sr][ss]TW[ad][ae][af][ag][ah][ai][aj][ak]
[al][bd][be][bf][bg][bh][bi][bj][bk][bl][cf][ch][ci][cj][de]
[df][dg][dh][di][ef][eg][eh][ei][ff][fg][fh][fi][ge][gg][gh]
[hf][hh][ig][ih][ii][ja][jo][jq][jr][js][ka][kb][km][kp][kq]
[kr][ks][la][lb][lp][lq][lr][ls][ma][mb][na][nb][nc][oa][ob]
[oc][pa][pb][pc][qa][qb][qc][qd][ra][rb][rc][sa][sb][sc][sd]
C[fc: 97.5 to hide16: 110.0

[Malweth\] I think if black didn't make some of the unnecessary moves he made, the score wouldn't have been as close. Most of your loss was in the beginning and in fighting, though.]
)
(;B[aa];W[qn];B[ql]C[[Malweth\] White cannot live here.]
(;W[sq];B[rn])
(;W[rn];B[sq])))
(;B[ip];W[rl]C[[Malweth\] White's only move...];B[rj];W[rk]
;B[qj]C[[Malweth\] White has no room to live.]))
(;W[ab]C[[Malweth\] A19 is a possible mistake by black...];B[aa]
;W[da];B[db];W[fa];B[gb];W[ea]))
(;W[pn];B[pm];W[on];B[rl]C[[Malweth\] This is Q6... the danger to black now is the cut...]
;W[nn]
(;B[om];W[oo];B[nm];W[pq];B[op];W[rs]C[[Malweth\] Which makes this white group alive. Black should play on the inside to win completely.]
;B[qq];W[sr];B[qs];W[rr])
(;B[oo]
(;W[pq];B[qs]C[[Malweth\] Atari doesn't last long...])
(;W[om];B[ol]C[[Malweth\] Escape is impossible...])
(;W[so];B[sm]C[[Malweth\] White's only sente move...];W[pq]
;B[qs]C[[Malweth\] But it still fails.]))))
(;W[pq];B[qs]C[[Malweth\] Black is connected out... white must connect, but will die.]
))
(;W[hm];B[il];W[jm];B[gl];W[gn];B[fm];W[ho];B[io]C[[Malweth\] this almost works.]

(;W[ip];B[go];W[jo];B[fn])
(;W[go];B[ip];W[gp];B[gq];W[fq];B[fp]C[[Malweth\] Missing one liberty in both directions :)]
))
(;W[fm];B[fn];W[hm];B[il];W[jm];B[gl];W[gk];B[gn]))
(;W[hg];B[gi];W[hh]C[[Malweth\] not much G11 can do... H13 is stronger.]
))
(;W[gm];B[hm];W[gn];B[go];W[io];B[ho]C[[Malweth\] Further reduction is quite possible.]
))
(;W[hl]C[[Malweth\] This would be the only possible move...]
;B[gl]LB[gk:B][il:A]C[[Malweth\] And this hane would destroy the possibility... A+B are miai]

(;W[gk];B[il];W[ik];B[hm];W[hj])
(;W[il];B[gk]C[[Malweth\] this is better for black, though.]
)))
(;W[pg];B[pf];W[oj];B[pj];W[pi];B[oi];W[nj];B[oh];W[pk];B[qj]
;W[ol];B[nk];W[mk];B[nl];W[ml];B[nm];W[lj]C[[Malweth\] This is an example of a successful invasion. It needs to come early enough so that black's territory isn't already fully defined.]
))
(;B[ge];W[fe];B[gf];W[hf];B[gg];W[ha];B[ga];W[fa];B[ia]
(;W[db];B[eb])
(;W[eb];B[fb];W[db];B[ea])))
(;W[ed];B[cd];W[ce];B[bd];W[bc];B[be];W[cf]
(;B[cb];W[bb])
(;B[bb];W[cb];B[db];W[ab];B[ba];W[ca];B[da];W[aa];B[bf];W[bg]
C[[Malweth\] Seems like white wins this unless black has success with C13 cut... C16 doesn't seem necessary.]
;B[cg];W[bh];B[dg];W[de];B[ad]
(;W[af]C[[Malweth\] Black can't win, but D13 has an escape route]
;B[fh]C[[Malweth\] This destroy's white's moyo];W[eg];B[eh]
;W[dh];B[ef];W[fg];B[ff];W[gg];B[fd])
(;W[eg]C[[Malweth\] The nose tesuji doesn't work because of SoL.]
;B[ef];W[dh];B[fd];W[ff];B[ee])
(;W[fi];B[fd];W[fe];B[df];W[ee];B[ge];W[gd];B[fc];W[gf];B[he]
;W[fg]C[[Malweth\] the Upper left was spread too thin - something has to break eventually.]
))))
(;W[gi]C[[Malweth\] This type of move is asking for a reduction/invasion... but it is a good white moyo and black's best invasion point may be the 3x3 (though support stones for the UL corner are far away)]
))
(;W[mf];B[nh]
(;W[jf])
(;W[lh]C[[Malweth\] This is better than K14. You don't need to fear being cut, and a reduction would be possible, but not easy. This move reduces black's right moyo (picture how big a black move here would be) while increasing your own.]

(;B[lg];W[mg];B[mh];W[kg]C[[Malweth\] The cut does not work for black...]
)
(;B[gc];W[dc];B[ge];W[hd];B[gd];W[cf];B[gg];W[fi];B[gi];W[gj]
;B[hi];W[jf]C[[Malweth\] Even if black escapes, you've built very large territory on the right top and left side.]
))))
(;W[ph]
(;B[qc];W[qd];B[pc];W[oc];B[rd];W[re];B[rc];W[qe];B[ob];W[nc]
;B[nb];W[mc]C[[Malweth\] This white wall supports the pincer stone at Q12 and increases the possibility of another attack on black's white side. Black will not likely enter at the 3x3 if pincered here.]
)
(;B[of];W[nd];B[ng]
(;W[oj]C[[Malweth\] It is possible for this stone to live or damage black. White also has a secure position on the top side. Instead of the tsuke at P10, O12 might be better.]
)
(;W[nh]
(;B[oi];W[oh])
(;B[oh];W[oi];B[og];W[ni])
(;B[mh];W[ni];B[mg];W[nk]C[[Malweth\] You do need to be careful in a situation like this, however... eventually black can use the N13 thickness...]
;B[oc];W[od];B[qc]
(;W[pc];B[qd];W[pb])
(;W[qd];B[pc];W[rc];B[rb];W[re];B[mc]C[[Malweth\] In either case white's position is harmed.]
))))))
(;W[qi]
(;B[qk];W[oi]C[[Malweth\] Yields good result for white])
(;B[qg];W[pg];B[pf];W[ph];B[of]C[[Malweth\] Bad result for white... try R12.]
))
(;W[qh]
(;B[qf];W[pf]C[[Malweth\] Now the pincer does not work and Black is still forced to defend his side territory.]
)
(;B[qj];W[oh]C[[Malweth\] This will probably invite a black attack on the top side.]
)))
(;B[qj]C[[Malweth\] A play like this is definitely possible because of black's thickness. It's not easily invadable.]
))
(;W[ln]C[[Malweth\] This also serves the purpose of splitting blacks groups and reducing his right side potential]
))
(;W[mo]
(;B[mq];W[nn];B[lp];W[lo];B[lq];W[on];B[pn]C[[Malweth\] hane at the head at O6 is big for white. you lose territory, but the influence is more important considering your local position (4th line)]
)
(;B[mn]C[[Malweth\] Black is likely to move here, since his LR position is secure.]

(;W[ln]C[[Malweth\] This is required for white. O6 is not good]
;B[lm]C[[Malweth\] This double hane is required for black here.]
;W[mm];B[nn];W[km];B[ll]
(;W[kl];B[kn];W[lo];B[ko]C[[Malweth\] But white must defend]
)
(;W[kn];B[kl]C[[Malweth\] Black gets the better part of almost anything in this area - this is because of the N4 move.]
))
(;W[nn];B[ln]
(;W[on];B[lp];W[lo];B[ko];W[mq];B[lq])
(;W[ko];B[nm];W[on];B[om];W[pn];B[qm]C[[Malweth\] This small white group has no chance.]
;W[qn];B[qo];W[rn];B[rm];W[ro];B[qq];W[rp];B[rq];W[oo];B[op]
;W[qp];B[pp];W[pm];B[pl];W[ql];B[rl];W[ol];B[pk];W[nl];B[mm]
C[[Malweth\] Ultimately, even if white trys to fight, it's good for black.]
)))))
(;B[fq]
(;W[op]C[[Malweth\] This cut is bad for white, but that's what the N4 stone is aiming for.]
;B[np];W[pp];B[qo];W[pq];B[mq];W[or]C[[Malweth\] black can let you live small in the LR corner at the great expense on the bottom side and a wall to the top side.]
;B[lo]C[[Malweth\] White can immediately take the corner here, but the loss of this side influence is very big - especially considering they were played as influence stones on the 4th line.]
;W[lp];B[lq];W[kq];B[mo];W[kp];B[nq];W[rq];B[rp]
(;W[qr]C[[Malweth\] White is alive here, but disconnected..]
;B[in]C[[Malweth\] And black can put a lot of pressure on this side group. Both may end up living, but this is much better for black.]
;W[ns]C[[Malweth\] Tesuji doesn't work to connect.];B[kr])
(;W[kr];B[qr];W[pr];B[qq];W[qp];B[rr];W[ls]C[[Malweth\] Tesuji works here, but white is still weak.]
;B[in];W[jn];B[kn]C[[Malweth\] White is probably alive, but black is better off in this situation. Black gains the corner and a very big wall.]
))
(;W[np];B[op]C[[Malweth\] Pushing is also worthless.])))
(;W[fq]C[[Malweth\] This works to live with the K4 stone, but I believe it's ultimately good for black.]
;B[fp];W[gp];B[fo];W[eq];B[dq]C[[Malweth\] This seems ok for white, but white is still open on the bottom right. K4 is aimed at influence, but this play from black is ruining any influence you had with K4. You could play next at M3 to close this group, but this move would be somewhat slow now. It is gote (black can certainly tenuki) but prevents a black sente move. See continuation.]
;W[jd]
(;B[lq];W[kq];B[lo]C[[Malweth\] Black can ignore L3 at the expense of M4 or make this thickness. A white cut now is bad.]
;W[lp];B[mp];W[kp];B[qj]C[[Malweth\] later black is happy to give you one stone.]
;W[mq];B[nq];W[lr])
(;B[mq]C[[Malweth\] This move by black is sente and gives a big corner. If white responds elsewhere...]
;W[qj];B[jr]C[[Malweth\] black can harm your base from underneath.]
;W[hq];B[iq]
(;W[ip];B[ho];W[hp];B[go]C[You live at the expense of more black wall.]
)
(;W[go];B[ip];W[io];B[jo];W[ko];B[jn]
(;W[kp];B[in];W[ho];B[lq]C[[Malweth\] Or you live at the expense of cutting off your bottom right side]
;W[gr])
(;W[in];B[kn]))))
(;W[qj];B[gq]C[[Malweth\] Playing Tenuki means you will immediately be put under attack by black. This cannot be anything but good for black. If you ignore your white stone to play tenuki again, black will follow you - his groups don't need any more strengthening yet.]
;W[cj];B[jc];W[nc];B[gc]C[Now both 3x3 points are still open for invasion.]
))
(;B[nn]))
(;W[jq]
(;B[fq];W[mq])
(;B[lq];W[gq])))
