(;FF[4]GM[1]SZ[19]ST[2]CA[UTF-8]AP[SGFC:1.15]

PB[gerger]
BR[11k]
PW[GOethe]
WR[11k]
KM[6.5]
DT[2004-03-27]
PC[The Kiseido Go Server (KGS) at http://kgs.kiseido.com/]
RE[W+64.50]
TM[1500]
OT[25/900 Canadian]
RU[Japanese]

C[Hi, im gerger and would really appriciate some comments on this game. Im playing goethe 11k
Comment by RUTT 3k* kgs
:this is my second comment in gtl then something to tell u before
1)I'm not good at review :) this is second of mine
2)not good at English :-D
(i use CGoban)];B[pp];W[dd];B[cp];W[pd];B[eq];W[qn];B[ql];W[nq]
;B[oo];W[qq];B[pq];W[qp];B[ro]C[i never see this move before]
;W[qo];B[om];W[pr];B[or];W[qr];B[oq];W[hq];B[cj]LB[jq:1]C[C10 is large but attack at 1 is better]
;W[cg]C[now white can invade around C8 later then
C10 is not big as u think];B[np]LB[jq:1][kq:2]C[---
felt good till now
---
i think attack directly at 1 is better coz now white can play at 2 and make a good shape in black influence]
;W[mq]LB[kq:1]C[but white miss 1];B[jq]C[good move attack];W[kp]
;B[jp];W[ko];B[jo];W[jn]C[white overplay now];B[in];W[io];B[kn]
;W[jm]C[---
the following moves is to be able to play h5 safely
---]
(;B[kq]C[i think in variation is better];W[mp]
(;B[mo];W[ln]C[easy for white now];B[ls]C[why this?];W[nr];B[ns]
;W[lp];B[ip]C[---
changed my mind and did j4 instead of h5, seems like h5 would have been better
---
this way is safe];W[ho];B[hp];W[go];B[dm]LB[gp:A]C[push another one is better]
;W[gl];B[rn];W[qm];B[rm];W[rl]
(;B[rk]C[---
maybe r9 would have been better?
---
no as variation];W[pl];B[qk];W[pm];B[pk];W[ol];B[ok];W[ml];B[qf]
C[may be the wrong way];W[pf]C[now black is overconcentrated]
;B[pg];W[of];B[qe];W[qd];B[og];W[nf];B[gc]LB[jc:A][kc:B][cg:C]
C[A and B  are better
coz of white C and good for white to make teritories while attacking
this is maybe The losing move];W[jc];B[dc]C[I don't know much about this move]
;W[cc]
(;B[ed];W[de];B[nm];W[nl];B[lr];W[nn];B[mn]C[this  move is very small
careful about upper left group];W[on];B[mm];W[lm]C[good luck hving sente]
;B[gp];W[lo];B[no];W[ec];B[fc];W[eb];B[ge];W[fd];B[gd];W[ee]
;B[jd];W[kd];B[ke];W[lc];B[ld];W[kc];B[id];W[le];B[lf];W[me]
;B[kg]C[---
mistake it seems, think I should have done k14
---
yes K14 is better];W[je];B[kf];W[if]C[--
can I still save the g17 group?
---]
(;B[ng];W[gf];B[mf];W[md];B[hf];W[hg];B[he];W[ig];B[ff];W[fg]
;B[gg];W[gh];B[eg];W[gf];B[ll];W[mj];B[gg];W[fh];B[ic];W[hb]
;B[ef];W[eh];B[ib];W[jb];B[ha];W[ga];B[ia];W[gb];B[dh];W[dg]
;B[di];W[ej];B[hh];W[hi]C[just a ladder]
(;B[ih];W[jh];B[ii];W[ij]C[maybe u misread this ladder];B[ji]
;W[ki]
(;B[lk];W[jj];B[fo];W[hm];B[fn];W[gm];B[ek];W[fk];B[el];W[oi]
;B[pi];W[oj];B[pj];W[ps];B[os];W[po];B[pn];W[on];B[op]C[please more careful reading
why p4?];W[rp];B[li];W[lh];B[mh];W[mi];B[ni];W[nj];B[nh];W[lj]
;B[pe];W[oe];B[od];W[ne];B[rd];W[rc]
(;B[qc];W[pc];B[sc]
(;W[qb];B[re];W[sb]
(;B[qg]C[miss again];W[bi];B[bj];W[dj];B[ci]
(;W[bh];B[dk];W[ei];B[mr]C[this move is 0 point];W[pn];B[lq]
C[1 point move];W[km];B[sp]
(;W[so]C[white miss];B[sn];W[sq];B[sl]C[this is ko no hurry to capture]
;W[nn];B[ms];W[fm];B[em];W[gn];B[jf];W[ie];B[sd]C[big];W[oh]
;B[ph];W[lg];B[mg];W[kh];B[ch];W[bg];B[ck]C[very safe];W[aj]
;B[ak];W[ai];B[nk];W[mk];B[so];W[tt];B[tt]TW[aa][ba][ca][da]
[ea][fa][ha][ia][ja][ka][la][ma][na][oa][pa][qa][ra][sa][ab]
[bb][cb][db][fb][ib][kb][lb][mb][nb][ob][pb][rb][ac][bc][dc]
[fc][gc][hc][ic][mc][nc][oc][qc][ad][bd][cd][ed][gd][hd][id]
[jd][ld][nd][od][ae][be][ce][fe][ge][he][af][bf][cf][df][ef]
[ff][gf][hf][ag][eg][gg][ah][hh][ih][fi][gi][ii][ji][li][fj]
[gj][hj][kj][gk][hk][ik][jk][kk][lk][hl][il][jl][kl][ll][im]
[hn][in][kn][rq][rr][sr][qs][rs][ss]TB[se][rf][sf][rg][sg][qh]
[rh][sh][qi][ri][si][qj][rj][sj][bk][sk][al][bl][cl][dl][rl]
[am][bm][cm][sm][an][bn][cn][dn][en][ao][bo][co][do][eo][ap]
[bp][dp][ep][fp][aq][bq][cq][dq][fq][gq][hq][iq][ar][br][cr]
[dr][er][fr][gr][hr][ir][jr][kr][as][bs][cs][ds][es][fs][gs]
[hs][is][js][ks]C[so i hv some advice for U
1)please play the game more careful coz u miss something easily
2)think hard about endgame
3)play alot and u will improve your skill])
(;W[sq]C[better]))
(;W[dk]C[what black can do now]))
(;B[sd];W[qg];B[rg];W[qh];B[ph];W[rh];B[sf]C[nothing to fear]
))
(;W[rb]))
(;B[re]C[enough]))
(;B[jj];W[jk];B[kj];W[lj];B[kk];W[kl]))
(;B[kl];W[km];B[kj]C[maybe this is better
attack lower right group]))
(;B[gg]C[maybe this move but it's hard game for black now]))
(;B[ec]C[this is better];W[cb];B[fe]))
(;B[qk];W[pl];B[pm];W[rk];B[qj];W[rj]
(;B[qi];W[ri];B[rh];W[rp])
(;B[ri];W[qi])))
(;B[ln]C[better];W[mn];B[lo]
(;W[lp];B[mo])
(;W[mo];B[lp])))
(;B[ln]C[nothing to fear]
(;W[kq];B[ip])
(;W[ip];B[kq];W[lp];B[lq];W[mp];B[mo])))
