(;FF[4]GM[1]SZ[19]ST[1]CA[UTF-8]AP[SGFC:1.15]

PB[sylvainc]
BR[11k]
PW[zundokodon]
WR[10k]
KM[0.5]
DT[2004-04-05]
PC[The Kiseido Go Server (KGS) at http://kgs.kiseido.com/]
RE[B+24.50]
TM[1500]

C[zundokodon [10k\]: hi
sylvainc [11k\]: hi];B[pp]C[Despite the ponctual questions, did i missed big points or big sente plays in the game

I feel I had sente many times and kept a good pressure over White stones, but the result was not so big (24,5 pts) and White made a few mistakes. So without those mistake I wouldn't  won , but i dont know which mistakes i made (except in my questions)

---

Hello, I'm Araldo, 3 kyu. Hope this review will be useful to you. If you have any question, don't hesitate to send me an email.]
;W[dp]C[sylvainc [11k\]: have good game];B[pd];W[dd];B[pj];W[nq]
;B[pn];W[jp];B[jd];W[dj];B[fc]C[QUESTION :
is it better than invasion (D6 ou C6 ?) ?

A: Yes, I believe it is better than the invasion. After an invasion, you give the initiative to white. He will chase the invasion stones and make territory or a framework in the process.

The normal idea for black is to try to make a moyo, which is bigger that white's moyo (normally to compensate for komi). Therefore, it is desirable to play on tengen before white can do (see variation).

However, no time to play tengen in this game because white takes sente in the next moves by not finishing a joseki...]

(;W[ec];B[fd];W[mc]SQ[fc][fd][jd]TR[df]C[A: Did you notice white didn't finish the joseki at D14? It maybe a good idea to take advantage of that first, to strengthen the marked black stones. Several variations are given.]

(;B[oc];W[me];B[pf]C[A: Q14 is good. Only one weak black group left.]
;W[hc];B[hd];W[ic];B[jc];W[id];B[ie];W[gd];B[he]C[QUESTION : ANSWER FROM White N17 TO BLack H15 : is it the good secquence ?

A: As I have said before, it would be better to punish the joseki mistake by white before attacking N17 (by building a wall). If you play P17+Q14 after that, you do not have weak groups at all and you will be able to chase N17 all over the board.

Apart from this, chasing the eyeless N17 to the centre, like you did, seems like a good idea. Alternative approach is to seal white in and let him live small on the top edge (see variation after N17).

The sequence after the H17 invasion seems reasonable.];W[gc]
;B[ld];W[md];B[kf];W[lf]C[A: risky move by white.];B[lg];W[kg]
C[A: M13 seems more vulnerable (see var.)]
(;B[jf];W[mg];B[lh];W[mh];B[li];W[mi]
(;B[nf]C[A: Peep is too early. Maybe you want to play M15 later on, so better save it for later. For now just keep extending.]
;W[lj]C[A: Mistake by white to ignore the peep. You can kill the upper part of whites group now.]
;B[mf];W[le];B[jh];W[kd];B[kc];W[ke];B[je];W[lc];B[mj]C[IS it better to cut here to attack the three stones , or O18 to attack the other White group ?

A: This is also a good move, but not as good as O18. O18 kills the white group, worth about 30 points (plus, your centre group is safe), which is definitely more than the value of N10]

(;W[nb]C[A: Mistake by white. You can kill his group now.]
(;B[ob]C[A: Mistake by black. Allows white to make his second eye.]
;W[lb];B[ib];W[ge];B[gf];W[kj];B[ji];W[nj];B[mk];W[og]
(;B[ng]C[is it better than P14 ?
Or O11 ?

A: O13 is probably the worst. It gives white the time to connect at O11, but is prety much useless for black. Q13 or P14 is nessecary to prevent white from capturing the three stones after that.

After O11, it is possible to sacrifice some stones, to secure territory and seal white in (see variation). Gives a reasonable result for black.

The simplest solution, P14,  is probably the best. White has to fight his way out. If you can prevent him from connecting to O3 or K4 and are able to save Q10, than it will be very difficult for white to get two eyes.]
;W[ni];B[pg];W[nk];B[ml];W[nl]
(;B[kl]C[Seems no good because White N7 make me an empty triangle with Black M8. So what is better ?

A: Extending is best. When you have enough liberties, you can jump or hane.

L8 is not that bad. However, M8 is. L9 instead makes a better shape.]
;W[mm]
(;B[ll];W[pl];B[nm]C[A: Seems you want to kill white. This more or less requires that you safe the Q10 stone...]
;W[om];B[nn];W[on];B[oo];W[ph]C[A: At this stage it is still possible to rescue Q10 (see variation).]

(;B[oh];W[oi];B[nh];W[qh]TR[pj]C[is my marked stone already dead ? or can it be saved ?

A: Difficult question. Let's try some variations.]
(;B[pm];W[ql];B[ol];W[ok];B[pi];W[qj];B[qi];W[rh]
(;B[ri];W[rj];B[sh]C[Is it the best secquence for Black ?];W[sg]
;B[rg];W[si];B[qg];W[sh];B[sf];W[sj];B[pk];W[om];B[qk];W[rk]
;B[re];W[rn];B[rm];W[rl];B[qm];W[jk];B[ln];W[hk];B[fe]C[is it big enough, or better play eslwhere ?

A: This is quite a large move. However, more important: it is an urgent move, because it secures eyespace for your group. Besides, there is now the follow up at C17.

C3 is also large but less urgent.];W[df]
(;B[fp]C[is it the right place for invasion. I just wanted to reduce White s moyo

A: You have to be sure the invasion stones can survive. Either live on their own or connect to L8 etc.

The F4 invasion might be captured, I'm not entirely sure.

Therefore I would have chosen C3, which is well known and often played with the D10 and K4 stones in place. As it ends in sente for black, you can directly start to reduce his moyo after that.]
;W[fq];B[gq];W[eq];B[fo];W[hq];B[ho];W[jn]C[A: You are in big trouble now. Two solutions: attack the white stones, or make a few eyes.]

(;B[jl]C[Is J7 better for Black (or else) ?

A: difficult to say what is best now. Maybe it is possible to capture the four white stones in the middle of the board (see variation starting with J7).]
;W[il];B[gr];W[hp];B[gp];W[en];B[io];W[jo]SQ[hp][hq]C[A: Capturing the marked stones is possible.]

(;B[im];W[jm];B[hm];W[mo];B[mn];W[lp];B[oq]C[A: It is more urgent to rescue the invasion group...]
;W[hr];B[hl];W[ik];B[el];W[gl];B[gk];W[gj];B[fk];W[fm]C[A: Mistake by white, should have been G11 or H11.]
;B[hj]C[A: good];W[gn];B[gm];W[fn];B[fl];W[go];B[cl];W[ig];B[jg]
;W[gi];B[hi];W[dm];B[dl]C[is connection the bigest point ?

A: Yes, it is huge. Because you can jump either up or down from C8, you can destroy a lot of white's territory.]
;W[ff];B[gg];W[fg];B[gh];W[fh];B[fi]SQ[hk][ik][il][jk][kj][lj]
C[A: very good. Now you don't have to capture the marked stones anymore.]
;W[ei];B[fj];W[jb];B[hb];W[kb]C[A: Very small move by white]
;B[cc]C[A: Excellent];W[fb];B[gb];W[db];B[ce];W[cd];B[de];W[cf]
;B[be];W[bd];B[ed];W[cb];B[bg];W[ef]
(;B[ee]C[A: B14 first];W[bf];B[af];W[cg];B[bh];W[ch]
(;B[cj]C[A: C11 kills];W[bi];B[ag];W[ad];B[ae];W[ci];B[dh]C[better play elswhere ? White managed to live here

(black C9 connect and kept 2 menaces : D12 and E 10)

A: Yes, better play elsewhere. Keep this as ko-threats];W[ck]
;B[bk];W[bj];B[bl];W[dk];B[bo];W[bp];B[co];W[cp];B[cm]C[A: Don't think this is necessary. O2 is big now.]
;W[do];B[fa]C[A: Not sente. White can ignore this one and play P2.]

(;W[eb];B[nr]C[A: good];W[mq];B[mr];W[lr];B[sm];W[oa];B[pa]
;W[na];B[pb];W[oe];B[ne];W[nd];B[of];W[pr];B[or];W[qq];B[rp]
;W[np];B[pq];W[ms];B[ap];W[aq];B[ao];W[bq];B[ip];W[iq];B[hn]
;W[ea];B[od];W[ga];B[ha]C[A: This is worth less than a point

instead:
O1: 1 point sente
L7: 1 point reverse sente
C6: 1 point sente
T8: 2 point gote
E10: 1 point gote
K19: 1 point gote (not sente!)
L5: not sure, maybe 1 point];W[sl];B[on]C[A: Worth less than a point.]
;W[km];B[ol];W[oj];B[lm];W[ko];B[cn];W[dn];B[lo];W[no];B[kq]
;W[jq];B[lq];W[kr];B[ns];W[kp];B[ls];W[ks];B[aj];W[ai];B[ej]
;W[di];B[ak];W[ja]C[I should play here before in sente but forget. In yose any other mistake before ?

A: K19 is not very large. And it is gote.];B[ms];W[fa];B[om]
;W[qp];B[rq]C[is it right answer ? White did not continue  but White R5 could be played

A: S3 is fine. I think there isn't much white can do now. However he can gain a point by playing P4, which you probably have to answer.

---

Overall, you played very well I think. Your timing was quite good. You missed a few opportunities, but that is what happens to everybody in a timed game. Your yose was not too bad either.

Only the F4 invasion was a bit too risky. Nowhere to run and not much space to create eyes. If white had taken care of the centre stones better, you would not have won so easily.

---

comments end]
(;W[in];B[gl];W[tt];B[tt]TB[al][am][an][bm][bn][gc][gd][ge]
[gi][gj][hc][hf][hg][hh][hk][ic][id][if][ig][ih][ii][ij][ik]
[il][jj][jk][kg][kh][ki][kj][kk][lj][lk][mm][oe][og][os][pc]
[pe][po][pr][ps][qa][qb][qc][qd][qe][qf][qn][qo][qp][qq][qr]
[qs][ra][rb][rc][rd][rf][rn][ro][rr][rs][sa][sb][sc][sd][se]
[sn][so][sp][sq][sr][ss]TW[aa][ab][ac][ar][as][ba][bb][bc][br]
[bs][ca][cc][cj][cq][cr][cs][da][dc][dg][dh][dq][dr][ds][eg]
[eh][eo][ep][er][es][fo][fp][fr][fs][gp][gq][gr][gs][hs][ir]
[is][jr][js][ka][kq][la][ld][lq][ma][mb][mp][pi][pj][pk][qi]
[qk][ri][sk]C[sylvainc [11k\]: thanks
zundokodon [10k\]: thx
sylvainc [11k\]: bye, c u])
(;W[op];B[qo]))
(;W[or];B[eb];W[qr]C[A: Probably he can ignore even E18]
(;B[dc];W[bc];B[ec];W[ab])
(;B[bc];W[dc];B[bb];W[ba];B[da];W[ab])))
(;B[ci];W[dh];B[eg];W[cj];B[bj]))
(;B[bf];W[ee]C[A: When white cuts, you can kill him.];B[dh]
;W[eh];B[di]C[A: White will die.]))
(;B[ip];W[iq];B[jq]
(;W[jr];B[kq]
(;W[kr];B[ir])
(;W[ir];B[kr]))
(;W[kq];B[jr];W[kr];B[ir])))
(;B[im];W[jm];B[jl];W[il]C[A: J7 can be cut easily.];B[fk];W[hm]
;B[in]
(;W[hn];B[io];W[jo];B[fm];W[gj];B[fj];W[gl];B[fl]C[A: Seems difficult for white to make a living group in the middle now.]
)
(;W[fm];B[gl];W[hl];B[gm];W[gn];B[hn];W[fn];B[hp];W[iq];B[gj]
;W[hi];B[hj];W[ij];B[ii]C[A: Looks like black will win the semeai]
;W[go];B[gp];W[eo];B[gk];W[ik];B[jj];W[kk];B[lk])))
(;B[cq];W[cp];B[dq];W[eq];B[er];W[fq];B[fr];W[gq];B[bp];W[bo]
;B[bq];W[cn];B[il];W[ik];B[hn]SQ[cc][lq]C[A: Reduce whites territory. M3 and C17 are good point too.]
))
(;B[qk]C[A: Probably white can be killed with this move.]
(;W[pk];B[rj];W[ri];B[rl];W[qm];B[rm];W[qn];B[qo];W[rn];B[ro]
;W[sm];B[sl];W[om];B[sn]C[A: Black wins.])
(;W[rj];B[rk];W[ri];B[pk];W[om];B[oj];W[ol];B[rl];W[qm];B[rm]
;W[qn];B[qo];W[rn];B[ro];W[sm];B[on];W[sk];B[sn])))
(;B[pi]C[A: If it is possible, this must be the move.];W[qi]
;B[qj]
(;W[rj];B[ql]
(;W[qk];B[pk];W[rk];B[pm];W[ol];B[qm]C[A: Seki!])
(;W[qm];B[pm];W[qk];B[pk];W[rl];B[ol]C[A: White lives, but black captures 8 stones.]
))
(;W[qk];B[rj];W[rk];B[ri];W[rh];B[rg]C[A: black captures, white R9 was wrong]
)))
(;B[qh];W[pi];B[qi];W[qj];B[qk];W[rj];B[pk];W[rk];B[ql];W[qm]
;B[pm];W[ol];B[rm]C[A: White will die.]))
(;B[kk]C[A: Bamboo.]))
(;B[mm];W[nm];B[mn];W[nn];B[no];W[mo];B[np];W[mp];B[jk]SQ[kj]
[lj][mg][mh][mi][ni][nj][nk][nl][nm][nn][og]C[A: The marked stones should die, if black doesn't make any mistakes.]
;W[jj];B[ij];W[kk];B[jl];W[kl];B[km];W[jm];B[kn]C[A: The white stones cannot escape.]
))
(;B[ni];W[oi];B[nk];W[oj];B[ok];W[of];B[oe];W[ne];B[pi];W[oh]
;B[pg]C[A: a reasonable result.])
(;B[of]))
(;B[lb]C[A: The killing move!];W[mb];B[kb]
(;W[ob];B[pb];W[oe];B[of];W[oa];B[ma]C[A: one eye only.])
(;W[pb]C[A: When white tries to go into the corner...];B[ob]
;W[oa];B[qb]
(;W[pc];B[qc];W[od];B[pa];W[oe];B[of]C[A: One eye only])
(;W[qc];B[pc];W[qa];B[rb];W[rc];B[ra]C[A: Black wins, again.]
))))
(;W[kb];B[jb];W[la]C[A: White can live like this.]))
(;B[lj];W[mj];B[mk]))
(;B[mg];W[ke];B[jf];W[kd];B[kc];W[lc];B[je];W[le];B[kh]C[A: This is a much better result than in the actual game.]
))
(;B[de];W[ce];B[df];W[ed];B[fe];W[cd];B[fg]C[A: very good for black. He has created a nice moyo and next N17 can be attacked without fear for a counterattack.]
)
(;B[df];W[ee];B[ed];W[de];B[dc];W[cc];B[eb];W[cb];B[gf]C[A: A nice wall is created, N17 is transformed in a bad move, since it can not be used anymore to attack very well.]
)
(;B[cf]C[A: Two variations have been given after C14, both are not very good for black in this particular situation.]

(;W[ce];B[df];W[ee]SQ[dj]C[A: not a very good idea with D10 in place, since you want to extend there next with black.]
)
(;W[df];B[dg];W[ef];B[ce];W[de];B[cd];W[cc];B[bc]SQ[fc][fd]
[jd]C[A: The marked stones are very weak now, with the white thickness.]
))
(;B[ef];W[cf]C[A: When white ignores this move, it should be possible to capture the corner]
)
(;B[me]C[A: instead of chasing N17 out with P17, sealing white in is also a good idea.]
;W[oc];B[pc];W[od];B[oe];W[ld];B[le];W[jb]C[A: Next you can attack the bottom and make a huge moyo in the middle of the board.]
)
(;B[lc]C[A: After black P17, white N15, the marked stones become somewhat weak. It maybe a better idea to strengthen them, instead of the corner (N17 is far away from the corner, so he cannot do much)]
;W[md];B[ld];W[me];B[pf]))
(;W[df];B[jj]C[A: symmetrical position (except for K10). Difficult for white to take the lead after this.]
))
