(;FF[4]GM[1]SZ[19]ST[2]CA[UTF-8]AP[SGFC:1.15]

PB[ukash]
BR[4k]
PW[chimasu123]
WR[3k]
KM[0.5]
DT[2004-04-07]
PC[The Kiseido Go Server (KGS) at http://kgs.kiseido.com/]
RE[W+18.50]
TM[1200]
OT[5x30 byo-yomi]
RU[Japanese]
GC[Game comment by Matthias Krings (sita@KGS)]

C[i belive i list the game due to the ko at S5 which led to the death of my group. I'd appreciate any comments on this and other sugestions.

MK: Comments to this game by Matthias Krings. In the main-branch they are preceeded with 'MK:', like this one

The ko is indeed the most interesting part to analyse. I hope my comments there get not too confusing, because they sometimes hope forward and backward in the game...]
;B[pd];W[dp];B[pp];W[cc];B[dd];W[dc];B[ed];W[bf]C[MK: Overplay by white...]
;B[ec]C[MK: ...and a good answer. The move is big in itself and threatens to capture the corner.]
;W[ch]
(;B[be]LB[id:A]C[MK: But no need to capture it right now. The capture makes only some points (ok, quite many, but still only points). A move around 'A' might be more dynamic. See var.]
;W[ce];B[cd];W[bd];B[bc];W[ae];B[bb];W[ef]TR[ch]C[W should take sente here. Together with the marked stone this shape is horribly overconcentrated.]
;B[fq]C[MK: Good: w has all of his stones played on the left, you control the board. The game is already very good for you.]
;W[nq];B[dn];W[fp];B[gp];W[fo];B[eq];W[do];B[dq];W[cq];B[jq]
LB[cr:A]C[MK: 'A' is sente and an absolut must, because it is enormous.

You may ask, why this move is so big, and taking the upper left corner was critisized as being to small. "Corner is corner", you might argue.

The difference is: The upper left corner were indeed only points, all surrounding stones had comparatively good shape (after b's extension), no matter what either side played there. But here, it is a matter of shape and eye space. If you play 'A', you make shape for your own stones, while limiting the eye-space of w. Look at the next move...]
;W[cr]C[MK: Now the w-group looks beautifull, and your stones are a bit cramped.]
;B[go];W[gn];B[oq];W[kq];B[jp];W[jr];B[ir];W[lr];B[np];W[mp]
;B[mo];W[no];B[op];W[lo];B[mn];W[mq];B[ln];W[ko];B[pj];W[pn]
;B[pl]C[Is this move wrong?

MK: Yes, capturing the cutting stone is usually bigger: It removes all the aji. After that, you have a really powerfull group which will give w a hard time. No way to hope that you might kill the invasion-stone, but you will surely build up even more influence somewehre on the right: Much better than killing!]
;W[ql];B[pm];W[qm];B[qk];W[qo];B[qp]LB[rp:A]C[MK: 'A' seems better here.]
;W[rp];B[rq];W[rn];B[sp];W[so];B[ro]C[Could I avoid the ko? Was this group killable? When did I make a mistake? Could I play the ko better?

This ko is perfekt for you: If you connect (like you do later), you have nothing to fear.]
;W[ok];B[pk];W[rp];B[sq];W[on];B[om]LB[nl:A]C[MK: Mh, looks like an empty triangle. ;-) 'A' instead seems to be the shape move. You can still be cut in two, but your left group has much better shape.]
;W[nn];B[nm];W[mm];B[lm];W[ml];B[ll];W[mk]
(;B[po]LB[rl:A][qn:B]C[MK: To kill (which you should now), 'A' is better. The eye at 'B' is both, gote for w and not real unless he wins the ko: Nothing to fear here. See var.]
;W[rk];B[rj];W[sl];B[rm];W[lk];B[jm];W[qr];B[ro];W[km];B[kl]
;W[rp];B[qq];W[or];B[ro];W[gq];B[hq];W[rp]
(;B[rr]LB[pr:A]C[MK: first 'A', see var.];W[pr];B[ro]TR[kl]
[ll][lm][ln][mn][mo]CR[lk][mk][ml][mm][ok]LB[sn:A]C[MK: Now the position gets difficult. In the position on the right there are 24 stones involved. That makes 48 points only "under" these stones plus some points of territory. Furthermore, if b wins the ko, the triangled stones are definitive alive, which makes the circled stones very weak. All in all, b will dominate much of the board. That means that there is definitly no ko threat on the board.

When you play a move like S5, you must prepare yourself to play 'A' in your next move, no matter what w plays in between.]
;W[gr]
(;B[fr]C[MK: Having said all that, this moves might be called the losing move. But it is not! The reason is that there is no ko on the right! Read on...

(In the variation you will find only a refernce showing that this threat isn't that big.)]
;W[rp];B[sm];W[sn];B[ro];W[ho];B[hp];W[rp]
(;B[sj]C[MK: Big mistake. W has an eye, so the most important thing you need now is an eye.]
;W[rs];B[sk];W[rl];B[rm];W[pq];B[ro];W[hr];B[hs];W[rp];B[qs]
;W[ps];B[ro];W[ip];B[qn];W[iq]C[MK: if you had ignored the first threat (asuming that there is a ko on the right), there would have been less damage done. See var. to move #99.]
;B[oo];W[nc];B[fl]TR[jm][kl]LB[lc:A]C[Is this too deep?

MK: Maybe this is the wrong question? First of all, it might be not deep enough, considering that the marked stones are exremly strong. Second, why not continue in the upper right, maybe with a pincer around m17. It is hard for w to secure as many territory on the left-half, compared to your prospects in the right-half.]
;W[hl];B[fi];W[fk];B[di];W[ej];B[ei];W[gg];B[gk];W[el];B[fj]
;W[ek];B[hk];W[hi];B[hj];W[gi];B[gj];W[gl];B[cj];W[cl];B[jc]
;W[il];B[jj];W[jk];B[kk];W[kj];B[ji]C[MK: The game is now almost won for you. W has maybe a little bit more definite territory than you have, but you have still an enormous potential.]
;W[ii]
(;B[ih]C[I think this was wrong. Which of the variations is better? Connecting or a sacrifice?]
;W[jh];B[ki];W[kh];B[li];W[lh];B[mi];W[ig];B[ij];W[qc]C[I think the game was already lost here.

MK: The game is very difficult to count, but I will try it nonetheless:

White:
LL: 70
UL: 10
UR: 10
-->90 points

Black:
LR: 50
UL: 20
--> 70 points.

Thus: b needs 20+ points somewhere in the upper right (either on the right or on the upper side): It seems to be a close game.]
;B[qd];W[pc]
(;B[mh]C[MK: Big endgame mistake, see var.

No further commented moves, some general comments at the end of the game.]
;W[od];B[pf];W[rd];B[re];W[rc];B[hd];W[ng];B[oh];W[of];B[pg]
;W[qe];B[pe];W[mg];B[bk];W[bl];B[al];W[am];B[ak];W[ck];B[bi]
;W[bm];B[lb];W[gd];B[gc];W[hc];B[id];W[fc];B[gb];W[fd];B[fb]
;W[ee];B[eb];W[mb];B[jn];W[jo];B[he];W[gf];B[lc];W[rf];B[qf]
;W[se];B[rg];W[qe];B[lf];W[lg];B[kf];W[bh];B[mc];W[nb];B[ne]
;W[oe];B[sg];W[nh];B[ni];W[og];B[ph];W[if];B[je];W[md];B[ld]
;W[me];B[mf];W[dh];B[fg];W[eg];B[sf];W[re];B[hn];W[in];B[im]
;W[hm];B[ma];W[na];B[la];W[ci];B[dj];W[ai];B[dk];W[dl];B[bj]
;W[fh];B[eh];W[ff];B[de];W[df];B[ge];W[fe];B[hf];W[hg];B[ac]
;W[kn];B[jl];W[le];B[ke];W[nd];B[ad];W[be];B[ik];W[nf];B[sr]
;W[ie];B[ss];W[nr];B[qs];W[jf];B[kg];W[rs];B[aj];W[ah];B[qs]
;W[cb];B[ca];W[rs];B[gm];W[fm];B[qs];W[jd];B[ic];W[rs];B[hh]
;W[gh];B[qs];W[jg];B[kd];W[rs];B[tt];W[qs];B[tt];W[tt]TW[oa]
[pa][qa][ra][sa][ob][pb][qb][rb][sb][oc][sc][sd][ne][af][cf]
[ag][bg][cg][dg][fg][hh][ih][fl][cm][dm][em][gm][an][bn][cn]
[dn][en][fn][hn][ao][bo][co][eo][go][io][ap][bp][cp][ep][gp]
[hp][jp][kp][lp][aq][bq][dq][eq][fq][hq][jq][lq][ar][br][dr]
[er][fr][ir][kr][mr][as][bs][cs][ds][es][fs][gs][hs][is][js]
[ks][ls][ms][ns][os]TB[aa][ba][da][ea][fa][ga][ha][ia][ja][ka]
[ab][cb][db][hb][ib][jb][kb][cc][dc][hc][kc][jd][qg][qh][rh]
[sh][oi][pi][qi][ri][si][kj][lj][mj][nj][oj][qj][jk][lk][mk]
[nk][ok][rk][ml][nl][ol][ql][rl][sl][mm][qm][sm][nn][on][pn]
[rn][sn][no][qo][so][rp]C[MK: It is very difficult to give some general comments to that game. You dominated the whole game, showing not many weaknesses. The ko in the lower-right was indeed the turning-point. You lost the lower-side-group *and* sente (w played o17). After that you had still a lead, but two big endgame mistakes (j12 and not playing p16) cost you the game.

Besides all the tactics around the ko there are two general things to learn from this game, I think.

The first is b15 (#11): There is no need to punish an opponents mistake right-away, by capturing something. If you see such a chance, keep calm and have a close look whether your oppent indeed might want to safe these stones. If not, play a big move somewhere else.

The other ones concern your handling of the ko-threats f2, etc. (Assuming for now that there really was a ko). If you have to ignore a big ko threat to win a ko (because you cannot afford to lose it), win it right away. Answering ko-threats make the situation typically worse.]
)
(;B[od]LB[oc:A]C[This one is sente, you threaten to cut through at 'A'. And it makes a big difference in territory. You should be able to make the 20 points on the right side now.]
))
(;B[jh];W[ij];B[ik];W[jl];B[gh];W[hh];B[hg];W[fh];B[ih];W[gh]
;B[hf])
(;B[ij];W[jh];B[kh];W[jg];B[kg]C[MK: This one is clearly better. There is nearly no use for the increased influence you will make with the other variation, but you give w many, many definite points.

There is no way w can turn this game around now.]))
(;B[rs]C[Here it is!];W[sj];B[ri]C[W has many ways to play now, I show just two continuations.]

(;W[ro];B[si];W[qs];B[sk];W[rl];B[rm];W[sj];B[oo];W[qn];B[sk]
C[3 liberties for you, nothing to fear.])
(;W[qs];B[si];W[pq];B[sk];W[rl];B[rm];W[sr];B[sa]C[ko threat...]
;W[ro]C[w ignores...];B[sj]C[Seki, still ok for you.])))
(;B[sn]C[If you ignore the threat...];W[fr]C[...w captures the stones, but...]
;B[kn]TR[lk][mk][ml][mm][ok]C[This move is some sort of sente against the triangled stones, thus you can connect at least a part of your group, or get a very good compensation (Maybe it's even to late for w to run away with these stones).]
))
(;B[pr];W[ps];B[rr]C[It seems that w can still caputure you by winning this ko. But if he captures...]
;W[pq];B[ro]C[...you have a local threat here. Thus you have for now infinite many threats, by capturing on of these kos. With that many threats, you cannot lose the lower ko, because...]
;W[sa]C[some threat...];B[ra]C[some answer...];W[rp];B[pr]C[(I omit the further ko-playing.)]
;W[qs];B[rs];W[os];B[nr]C[This is a ko?...];W[pq];B[ns]C[no! Thus, b is alive.]
))
(;B[rl];W[rm];B[rk]LB[sm:A][po:B]C['A' and 'B' are miai, thus this position is dead for w, even if he wins the ko.]
))
(;B[id];W[cd]C[If w safes the corner, it is gote...];B[fq]TR[bf]
C[With this additional move you can be more than satisfied. Look, how awkward the triangled w stone is placed, whereas all your stones work well together.]
))
