(;FF[4]GM[1]SZ[19]ST[2]CA[UTF-8]AP[SGFC:1.15]

PB[kantarou]
BR[14k]
PW[evoluciona]
WR[13k]
KM[0.5]
DT[2004-04-05]
PC[The Kiseido Go Server (KGS) at http://kgs.kiseido.com/]
RE[W+17.50]
TM[1200]
OT[5x30 byo-yomi]
RU[Japanese]

C[evoluciona (me,13k) vs kantarou (14k)
I am most interested in the opening.
Thank you,

------------------------------------------

Hi,

This will be my first review!
Sorry for my poor english and don't forget that this is a review by only a 3 kyu.

-a.];B[pc];W[dp];B[qp];W[dc];B[cn];W[fq];B[ck]
(;W[jq]C[I think K3 is in wrong direction.

You can exchange first, c5-d6. The reason behind this exchange is to make black overconcentrated then attack it. See variation.]
;B[ce];W[de]LB[dh:A]C[I want the middle.  Since he plays on the second line, I want to minimize his territorial influence.

------------------------


Maybe a move like A is better, because it attacks both c15 stone and c6 and c9 stones.]
;B[df];W[ee];B[ef];W[fe];B[cg]C[very passive];W[jd]C[This is a good point grabber and ther
e are no urgent moves.
Also, if black plays here, I will have to respond to keep him from entering the territory in the upper left - this will give him sente.

----------------------------
seems ok];B[mc];W[qi]C[It is not urgent to respond to N17 so I go for what I believe is the largest point.

---------------------

I think,  this is the best point.];B[qf];W[ql];B[nq]
(;W[lq]C[I want to reinforce the weakness at H3.

-------

I think the most important point  is G13 for both sphere of influence. Don't worry about H3. See var.]
;B[rm];W[rl];B[qm]
(;W[ff]TR[ql][rl]C[I think this is an important point as it puts me ahead in the moyo race on this corner while reducing blacks potential here greatly.

--------------------

You are right and G13 also! But Q7 is urgent now, so you have to play first urgent moves then big points!

See var .]
(;B[eh]C[I think black should have played less conservatively.]
;W[kc]C[Q7 is urgent!];B[cd]
(;W[dd]C[Very bad shape. Don't worry about the cut. See variation]
;B[bb]C[I think this is too passive as well.

---------------------------
If black wants territory N14 is best, also because it attacks the stones at right. And Q7 is urgent :)]
;W[le];B[ne];W[mg];B[bp];W[cq];B[pl]C[Black took it! :(];W[pk]
;B[ol];W[oh];B[ok];W[pj]
(;B[ml]C[Small
E6 is better.];W[mo];B[oo];W[en]C[Good.];B[dm];W[ej]LB[gh:A]
C[I think this move was a bit hasty (there wasn't much motive behind this one).

----------------

G12 is better !];B[ci]C[Very passive.];W[gh];B[fg];W[gg];B[fi]

(;W[jj]C[See var.];B[li];W[kh];B[ki];W[ji];B[lh];W[lg];B[jh]
;W[kg];B[ih];W[hi];B[gi]
(;W[hh]C[Dont worry about this cut either. See var.];B[em];W[fn]
;B[fm];W[gm];B[gl];W[hm];B[hl];W[jm];B[kn];W[lm];B[lp]C[This black group that is forming ends up liiving.  I win by only 20 points.

I think I should have not tried to capture the black group.  No comments follow.

-----------------
I think you have not to fear about cuts so much. Read the situation then play. 

Another important point, don't miss first urgent than big points. 

And try not to make bad shapes or play with good shapes!

-a.]
(;W[mp]C[See var.];B[mq];W[lr];B[km];W[kl];B[ln];W[mm];B[mn]
;W[nn];B[lo]
(;W[jo]C[K6 is better. See var.];B[jn];W[io];B[in];W[hn];B[no]
;W[bq];B[jl]
(;W[bo]C[small. See variations.];B[co];W[cp];B[bn];W[ap];B[im]
;W[ho];B[ll];W[os];B[or];W[ns];B[pr];W[ps];B[qs];W[qr];B[qq]
;W[rr];B[rq];W[sr];B[sq];W[rg]C[Both you and your opponent didn't see the bottom right. See var.]

(;B[rf];W[qg];B[pg];W[ph];B[og];W[ng];B[of];W[lb];B[mb];W[cb]
;B[cc];W[db];B[sg];W[rh];B[sl];W[rk];B[nh];W[sh];B[sf];W[sk]
;B[sm];W[kk];B[lk];W[mh];B[kj];W[jk];B[ik]
(;W[ii]C[Bad shape, see var.];B[gf];W[hf];B[ge];W[gd];B[lc]
;W[kb];B[ld];W[kd];B[me];W[mi];B[lj];W[hj]TR[ii]C[You see, this is a vasted move.]
;B[gj];W[ba];B[ab];W[ma];B[nb];W[na];B[oa];W[la];B[oc];W[pa]
;B[ob];W[qb];B[pb];W[qc];B[qa];W[ra];B[pa];W[sb];B[rd];W[rc]
C[You are lucky :))];B[sc];W[sd];B[qd];W[pe];B[qe];W[kp];B[aa]
;W[ca];B[bc];W[an];B[bm];W[am];B[al];W[ao];B[bl];W[do];B[nr]
;W[ms];B[mr];W[ls];B[oj];W[oi];B[mj];W[mf];B[nf];W[ke];B[nj]
;W[ni];B[fh];W[hk];B[gk];W[he];B[il];W[ko];B[se];W[sc];B[tt]
;W[tt]TW[da][ea][fa][ga][ha][ia][ja][ka][sa][eb][fb][gb][hb]
[ib][jb][rb][ec][fc][gc][hc][ic][jc][ed][fd][hd][id][ge][ie]
[je][gf][if][jf][kf][lf][hg][ig][jg][ih][jh][nh][qh][pi][ri]
[si][qj][rj][sj][qk][gn][eo][fo][go][bp][ep][fp][gp][hp][ip]
[jp][aq][dq][eq][gq][hq][iq][kq][ar][br][cr][dr][er][fr][gr]
[hr][ir][jr][kr][as][bs][cs][ds][es][fs][gs][hs][is][js][ks]
[qs][rs][ss]TB[ac][nc][ad][bd][md][nd][od][pd][ae][be][oe][pe]
[re][af][bf][cf][pf][ag][bg][dg][eg][ah][bh][ch][dh][ai][bi]
[di][ei][aj][bj][cj][dj][ej][fj][ak][bk][dk][ek][fk][mk][nk]
[cl][dl][el][fl][nl][cm][jm][lm][mm][nm][om][pm][nn][on][pn]
[qn][rn][sn][mo][po][qo][ro][so][mp][np][op][pp][rp][sp][oq]
[pq])
(;W[hj]))
(;B[rs];W[ss];B[qs];W[rs];B[qs]))
(;W[jk]
(;B[im];W[ll];B[kk];W[lk];B[kj];W[mi])
(;B[ll];W[kk];B[mj];W[rg])))
(;W[jn];B[kp];W[jp];B[no]C[You keep sente now.];W[mj]))
(;W[lo];B[mp];W[kp]))
(;W[hj];B[hh]
(;W[fk])
(;W[kl];B[fl];W[gm])))
(;W[kl];B[lm];W[jn]))
(;B[en]))
(;W[cc];B[bc];W[bb];B[dd];W[ec]))
(;B[pl];W[pk];B[ok];W[ol];B[pm];W[oj];B[nk];W[pj];B[oh];W[nj]
;B[mk];W[mj];B[lk]))
(;W[pm];B[pn];W[on];B[om];W[pl];B[po];W[nn];B[gg];W[hf];B[hg]
;W[en]))
(;W[gg];B[hq];W[hr];B[gr];W[gq];B[ir];W[hp];B[hs];W[iq];B[hr]
;W[fr];B[kr];W[kq];B[lr]))
(;W[co];B[dn];W[ci];B[ek];W[ei]C[For example,]))
