(;FF[4]GM[1]SZ[19]CA[UTF-8]AP[SGFC:1.15]

PB[Briquet]
BR[10k]
PW[Gilmara]
WR[10k]
KM[6.5]
DT[2004-03-15]
PC[The Kiseido Go Server (KGS) at http://kgs.kiseido.com/]
RE[W+2.50]
TM[1500]
OT[5x30 byo-yomi]
RU[Japanese]

C[Hallo reviewer
I played white in this game, and I won with 2,5 points. The game was decided by some accidential kyo-mistakes by both sides.
I'd like like some comments to the game how I can make my play more stringent.
Thank you in advance
Gilmara];B[pd];W[dd];B[dp];W[pp];B[nq];W[np]LB[qn:A]C[A is also possible]
;B[mp];W[no];B[mo]LB[oq:A]C[mistake by black A is the keypoint]
;W[oq]C[good move];B[mq];W[qf]LB[qm:A]C[perhaps A to finish corner]
;B[qi]C[before you attack first build strength on the other side (see var as an example)]

(;W[pj];B[qj];W[qk]C[stretch one move more];B[rk];W[ql];B[rl]
;W[rm];B[pi];W[of];B[nd];W[rd];B[qc];W[rh];B[oj];W[ri];B[rj]
;W[qm];B[pk]C[In the follow b built up a big moyo on the bottom. How can I avoid it? Perhaps immediatly g3?]
;W[mn]C[good move];B[jp];W[cn]C[good];B[dn];W[dm];B[en];W[co]
;B[cp];W[cl];B[bp];W[fq]LB[dh:A][jc:B]TR[mn]MA[jn][gp][ho][io]
C[
comment: don't be afraid you can make your own moyo by playin around A or B

your invasion is too deep  try to make use of the marked stone

i am not sure but one of the marked point is beter];B[gp];W[gq]
;B[hq];W[hr];B[iq];W[eo];B[do];W[fp];B[go];W[ir]C[play towards the corner it is easier to get eyes there]
;B[dr]C[good move]
(;W[fr]LB[er:A]C[A gives more eye spece];B[jr];W[gs];B[ch]C[I don't know why b didn't kill my g3 group

me neither :-)];W[is];B[fc];W[cf];B[cj];W[dk];B[ei];W[fl];B[db]
;W[cc];B[dj];W[em]C[not necessary
at this moment you have 2 more or less weak groups: in the top left corner and in the top right corner be aware of that]
;B[fn];W[gn]LB[cb:A]C[useless A is better];B[fo];W[gm]C[slow?]
;B[om]C[defense at b is als possible]
(;W[on];B[nm];W[ln]C[defend the cut];B[rc];W[re]C[you now have a two space nother (read life and death by Jim Davies this is a very usefull book)]
;B[nn];W[pn];B[jn];W[jl]LB[ll:A]C[A is better it gives a better shape]
;B[km];W[kl];B[lm]
(;W[fe]C[good direction but defend first see variation];B[hc]
;W[gi]C[ok but still defend first];B[fg];W[hg];B[gf];W[hf]C[w h14 wrong direction?
no youget strond in the center. this is fine for you group in upper right
the only problem is that you upper left group is cut off
you still have to defend it];B[ge]
(;W[kd]C[too deep
black attacks you stone and you right group with next move]
;B[mf];W[ng]LB[qg:A]C[96 an d 98 have no purpose
A tries to make life];B[mg];W[nh];B[kf];W[je];B[jf];W[he]C[if black play A he is threating to cut you see var]

(;B[ki]C[I think black missed here a opportunity to make secure territory with m17.]
;W[mc];B[nc];W[mb];B[nb];W[jc]LB[ii:A]C[you still have defend your groups and defend the cut with A
you are pushing it too much];B[ii];W[hi];B[ij];W[hl]C[good moves]
;B[ll];W[cb]C[very big];B[ec];W[gd];B[fd];W[hd];B[ee];W[gg]
;B[ff];W[bg]C[your group is save now];B[bh];W[gc];B[pg]C[you are in trouble
i think it is better to give up three stones]
(;W[pf];B[sg]C[overplay?];W[sf];B[qg]LB[rg:A]C[if blck played A your group will die]
;W[rg];B[sm];W[sn];B[sl];W[ro];B[ma];W[la];B[na];W[kb];B[ek]
;W[fj]C[good sente defending move];B[ej];W[sc];B[sb];W[sd];B[ra]
;W[or];B[nr];W[bk]LB[mi:A]C[A is big move: it reduces black center territory]
;B[el];W[fm];B[bj];W[mj]C[over play];B[ni];W[mi];B[mh];W[kj]
;B[lk];W[jj];B[lj];W[ji];B[ih];W[jh];B[ig];W[nj];B[oi];W[ol]
C[overplay?];B[nl];W[in];B[li]C[misstake by black
see your ftere action];W[io];B[ip];W[bo];B[ck];W[bl];B[os];W[ps]
;B[ns];W[qr];B[ik];W[il];B[gb];W[hb];B[ha];W[ib];B[fb];W[cg]
;B[dg];W[de];B[ca];W[ba];B[da];W[ab]C[black is getting all the big sente moves
try to avoid that];B[md];W[ld]C[small move];B[nf];W[og];B[if]
;W[js]C[198 to 210 are fine moves
you punish black for his mistake of move 169];B[kr];W[ks];B[ls]
;W[lr]C[The follwing sequence decided more or less by chance the game]
;B[ms];W[jo];B[ko];W[kq];B[jq];W[kp];B[hp];W[kn];B[lo];W[jm]
;B[mm];W[jn];B[lq];W[eq]MA[ai][ap]C[neutral point
marked points are two exampels of better moves];B[dq];W[ap]
;B[aq];W[ao];B[br];W[pl];B[ok];W[ai];B[ah];W[aj];B[ag];W[af]
;B[bi];W[ak];B[ie];W[id];B[ke];W[le];B[lf];W[qd];B[df];W[be]
;B[fk];W[gk];B[fi];W[gj];B[pm];W[ia]C[w244 should be at r5]
;B[ga];W[es];B[ds];W[kg];B[kh];W[jg];B[qn];W[rn];B[oo];W[po]
;B[op];W[oe];B[od];W[pe];B[sj];W[si];B[er];W[fs];B[ho];W[hn]
;B[ep];W[fh];B[eh];W[gh];B[dl];W[dc];B[jd];W[qh];B[ph];W[je]
;B[pr];W[pq];B[jd];W[me];B[ne];W[je];B[jk];W[kk];B[jd];W[ea]
;B[eb];W[je];B[ce];W[cd];B[jd];W[kc];B[je];W[tt]C[A is worth 1 point]
;B[lg];W[tt];B[tt]TW[aa][ka][ce][qe][se][bf][rf][gl][cm][gr]
[pr][hs][qs][ja][jb][bb][bc][bd][lb][lc][ac][ad][ae][hc][ic]
[sg][sh][al][am][an][bm][bn][hm][im][qn][qo][qp][qq][so][sp]
[sq][sr][ss][rp][rq][rr][rs]TB[sa][rb][fe][lh][ci][pj][dk][sk]
[eo][lp][bs][ea][fa][oa][ob][oc][pa][pb][pc][qa][qb][ef][eg]
[dh][di][mi][mj][mk][ml][nj][nk][no][np][kp][kq][bq][cq][ar]
[as][cr][cs][lr][mr])
(;W[qg];B[sf];W[sg];B[rf];W[qe];B[qh];W[si]))
(;B[ji];W[lc];B[hh];W[gh];B[gg];W[ih];B[hi];W[hj];B[ii]))
(;W[me];B[md];W[le];B[ld];W[ni]C[something like this  is aiming at center]
))
(;W[cb];B[eb];W[fe]))
(;W[nn];B[pn];W[qo];B[qn];W[rn];B[po];W[qp]))
(;W[jr];B[fr];W[gr];B[eq];W[jq];B[io];W[lr];B[mr];W[kp];B[ko]
;W[lq];B[lp];W[kq];B[ks];W[ls];B[gs];W[hs];B[js]))
(;W[of];B[nd];W[oi]C[joseki]))
