(;FF[4]GM[1]SZ[19]ST[1]CA[UTF-8]AP[SGFC:1.15]

GN[REAA03~1]
PB[Bildstein]
BR[5k*]
PW[arkie]
WR[5k*]
KM[6.5]
DT[2004-03-05]
PC[IGS-PandaNet]
RE[B+29.5]

C[Dear Ben,
   Thanks for letting me review your game.  I am a 1kyu on IGS, so please take all of my comments with a grain of salt.  Only the professionals can say definitively what the best move is.  All of my comments are proceeded with "JM:" Feel free to contact me with any additional questions you may have.

Summary: After white saved the j5 stones, it should have been a fairly easy game for white.  However, the disaster at the top, combined with the two moves you correctly pointed out as "passes" allowed black to develop a sizable lead.  However, your comment about the endgame ko at a4 show that you also had the ability to lose a won game, although your lead was so large that in this case it didn't matter.

Some suggestions:
-Work on avoiding becoming overconcentrated in the opening.  With the defensive approach you said you prefer, this is especially a concern.
-Improve your counting.  You should not "feel" you're behind.  You should know it.
-Move away from using the sgf editor as a crutch.  This is as dangerous as using a joseki dictionary.]
;B[qd];W[dc];B[oc];W[qp];B[dp];W[fq];B[fp]C[I like to settle my groups quickly. This is why I tend to make a shimari with 1 and 3 (only as Black), and why I like the joseki following Black 7.

JM: The advantage that B has in games in that they get the first move.  It may be more a matter of style, but such a defensive approach seems to give up this advantage.]
;W[gp];B[eq];W[fo];B[ep];W[gq];B[go]C[This time I decided to fight, just for the sake of experimentation.]
;W[fn];B[ho];W[iq];B[dn];W[np];B[de];W[cg]
(;B[cj]C[This seemed to work well with my lower left corner.

JM: I disagree with c10.  Playing something like e14 prevents white from making the large amount of points he did in the upper left.  See the variation.]
;W[ce];B[dd];W[cd];B[df];W[cf];B[ec];W[db];B[gm];W[dg];B[fe]
;W[eb];B[fc];W[dk];B[el]C[Trying to kill F6.

JM: F6 is important to kill, to keep the g5/g6 stones from being weak.  At this point though, you should notice how terribly overconcentrated you are there.]
;W[dl];B[dj]C[I wanted to make D9 and D8 weak and hopefully get profit out of attacking them.

JM: Good idea.];W[ek];B[ej];W[fk];B[fl]C[At this point, I was checking out a lot of variations in an sgf editor. I wanted to make sure that F6 stayed dead.

JM: Your opponent would probably be a bit upset if he knew that.  Using an SGF editor is a crutch that you should probably try to move away from.]
;W[gl];B[hl];W[gk];B[fm];W[gh];B[bl]C[Trying to take away the possibility of a White base at the same time as starting to make on for my group and threatening to connect.

JM: As you realized a few moves later, a connection is not possible.  However, this move accomplishes the correct purpose of trying to live.]
;W[cm];B[bm];W[cn];B[dm];W[cl]C[At this point, I realised that I couldn't quite connect. See variations.

JM: Correct.]
(;B[bn];W[co]
(;B[cp];W[bo];B[bh];W[bg];B[ch];W[dh];B[di];W[fi]C[White seems to be trying to stop me from getting out, but I thought I was alive anyway. Was I?

JM: I spent a great deal of time looking at this.  It's a great life and death problem.  In my opinion, you may actually be dead, but it's quite possible I overlooked something.  See the variations starting with the next white move.]
;B[jp]C[White K5 would have been too big. I wouldn't have been happy invading after that.]

(;W[jq]C[(JM: The variations of life and death for c10 start here.)]
;B[pq];W[qq];B[op];W[oo];B[nq];W[pp];B[oq]C[White thought about his next move for a while, and in that time, I considered White N3, and eventually concluded that it could kill my group. Could it have? See variation.

JM: Yes, N3 does seem to kill the stones.]
(;W[no];B[lq];W[ip];B[jo];W[kq];B[lp];W[kp];B[ko];W[lo];B[mo]
;W[mp]C[I don't think I could live after White N3, Black N6. See variations.

JM: Correct]
(;B[ln];W[mq];B[lr]C[I thought I could kill the White J3 group or save the Black P3 group. Either way, I would be happy.

JM: Yes, one of these two things should have happened.];W[mr]
;B[ms];W[ks];B[ls];W[nr];B[er];W[io];B[in];W[hp];B[hr]C[I really thought my stones around G7 were safe and connected.

JM: I think they should have been.];W[hm];B[gn];W[im]C[Unexpectedly good, threatening to capture my G7 group H6. Looking back on it now, however, I can't figure out what was wrong with Black K7 as a response. Can you remind me?

JM: I don't see anything wrong with K7, it seems like the natural response.]

(;B[en];W[hn];B[eo];W[jn]C[Now I feel like I'm behind.

JM: Let's look:
White: UL 17+ LR 26 +5captures+6 komi=53
Black: LL 9+  L 7+ UL 5+ UR 20 3 capture=44

After the j5 group lived for white, you definitely needed to do something to gain some points back. But it's not out of reach at all.]
;B[ll];W[ik];B[jl];W[il];B[lj];W[mn];B[lo];W[mm];B[lm];W[ah]
;B[bi]C[JM: Now it's definitely alive.];W[an];B[bk];W[am]C[Achieves nothing, and gives be me sente, which I really needed.

JM: Yes, these are the moves we should all be thankful for.]
;B[qj];W[jd];B[ic]C[JM: I'm not sure about j17.  Obviously you need to be concerned about the f17 group, but this move seems to be asking white to play well. This is a tough decision though.  h17 is a bit more indirect.]
;W[jc];B[id];W[ie];B[he];W[hf];B[je]C[I'm really trying to fight here, because I want to make up for my losses earlier. I'm hoping to kill K16.

JM: A lofty goal.];W[if];B[ke]
(;W[jb]C[JM: White probably did not play as well as he could have here. I only included a few variations.]
;B[ib];W[lc];B[md];W[ld];B[le];W[mc];B[nd]
(;W[gc]C[This attack only helped solidify me. I think White could have done better. See variation.

JM: Yes, white is throwing away the lead he had.];B[gb];W[ge]
;B[gd];W[hd];B[hc];W[nc];B[ob];W[nb];B[la];W[oa];B[qb];W[od]
;B[mf];W[ka];B[lb];W[kd];B[kb];W[ia];B[ha];W[ja]C[White was already dead. He's given be sente again.

JM: Yes, another thank you move.];B[nl];W[na];B[mb];W[pc];B[pb]
;W[pd];B[qe];W[of]C[He looks like he's increasing his losses here.

JM: After losing the upper group, White is definitely struggling to save anything here.]
;B[nf];W[pf];B[nh];W[qc];B[rc];W[qf];B[re];W[rf]C[At this point, I became very mindful of the possibility of being squeezed starting with a White cut at S18. See variation at next move.]

(;B[sb];W[ra];B[rb]C[Eyes at S19 and T17.];W[pi];B[pj];W[oi]
;B[nj];W[ni];B[mi];W[mk]C[Looking at lots of variation here.]
;B[ml];W[oj];B[ok];W[mj];B[nk]C[I think M11 might have better.

JM: Yes, and if you want to save the o10 stone, m9 is better shape.]
;W[mh];B[li];W[lh];B[kh];W[lg];B[kg];W[ng];B[lf];W[oh];B[mg]
;W[nh];B[ji];W[qi];B[rj];W[ri];B[qn];W[pk];B[pl];W[rk];B[qk]
;W[sj];B[rl];W[nn];B[sk];W[si];B[ns]
(;W[pr]C[JM: w P1 looks fine and is several points better.]
;B[os];W[or];B[bp];W[ap];B[aq]C[Going for a ko, thinking I was behind.

JM: This illustrates the value of counting.  You are definitely not behind.  Not realizing this can cause you to lose a won game.]
;W[ao];B[br]C[Nice.];W[se];B[sd];W[sf];B[ro];W[ff];B[ee];W[ei]
;B[ai];W[ck];B[al]C[Because White A9 would have taken my second eye.]
;W[ef];B[rr];W[qr];B[rp];W[rq];B[sq];W[pn];B[qo];W[pm];B[gr]
C[JM: P7 and A13 should probably be played before you begin this gote sequence.]
;W[fr];B[fs];W[ii];B[ih];W[hi];B[jj];W[jk];B[kk];W[jm];B[kl]
;W[hh];B[ag];W[af];B[fj];W[gj];B[jf];W[ig];B[ne];W[jh];B[jg]
;W[ij];B[om];W[qm];B[rm];W[oq];B[kr];W[ir];B[jr]
(;W[hs];B[gs];W[is];B[js];W[fa];B[fb];W[ea];B[he];W[es];B[ds]
;W[hd];B[ae];W[ah];B[he];W[gf];B[ag];W[pe];B[rd];W[ah];B[ga]
;W[ag];B[sp]C[JM: t4 is a mistake.];W[ih];B[sr]C[JM:This is also a mistake.  It is a wasted ko threat.]
;W[rs];B[nm];W[on];B[hd];W[in];B[es];W[ql];B[tt];W[tt];B[tt]
TB[aj][ak][ar][as][bj][bq][bs][ci][cq][cr][cs][dq][dr][ed][em]
[fd][fn][fo][gc][hb][ia][ja][jb][jc][jd][ka][kc][kd][kf][ki]
[kj][ks][lc][ld][lk][ma][mc][me][mj][mk][na][nb][nc][oa][ol]
[pa][pk][qa][ra][rk][rn][sa][sc][sl][sm][sn][so]TW[aa][ab][ac]
[ad][ae][ba][bb][bc][bd][be][bf][ca][cb][cc][da][eg][eh][fg]
[fh][gg][gi][hg][hj][hk][hl][nq][og][op][pg][ph][pq][qg][qh]
[rg][rh][sg][sh])
(;W[is];B[gs];W[js]))
(;W[os]))
(;B[sd]C[To a higher kyu, this would look like sure life.];W[rb]

(;B[ra];W[sb];B[sc];W[qa];B[sa];W[rb];B[sb];W[pa];B[rb])
(;B[sb];W[ra];B[sc];W[qa])))
(;W[hd]
(;B[hc];W[ge];B[gd];W[gb];B[he];W[gf])
(;B[ge]
(;W[hc];B[hb];W[gb];B[gc];W[fb])
(;W[hb];B[hc];W[ia];B[gc];W[gb]C[Connects.]))))
(;W[ib];B[hb];W[jb]
(;B[lc];W[gb];B[hc];W[ha])
(;B[gb];W[mc];B[lc];W[lb];B[kc];W[kb];B[md];W[ld];B[kd];W[nd]

(;B[le];W[nc])
(;B[mb];W[me];B[nc];W[md];B[nb];W[lf]))))
(;B[jm]
(;W[en];B[do])
(;W[do];B[eo];W[en];B[em])))
(;B[mq];W[mn];B[qr];W[rr]
(;B[pr];W[lr];B[mr];W[ks]
(;B[os])
(;B[rs];W[rq];B[os];W[qs]))
(;B[kr];W[jr];B[pr];W[lr];B[mr];W[ks];B[os];W[qs])))
(;W[mq];B[mr];W[lq];B[qr];W[rr];B[lr];W[kr];B[os];W[pr];B[qs]
;W[ls];B[ms];W[nr]C[Tell me if any of this variation was wrong.]
))
(;W[an]
(;B[ck];W[bi]
(;B[ai];W[aj];B[ah];W[bj])
(;B[bj];W[ah];B[ci];W[ai];B[aj];W[ag];B[am];W[ak]))
(;B[bj];W[am]
(;B[ck];W[al])
(;B[al];W[bk];B[ao];W[ck];B[ak];W[an])
(;B[ak];W[ck];B[ai];W[bk])
(;B[bk];W[ai]))
(;B[bi];W[bk])
(;B[ak];W[bi];B[ai];W[bj]
(;B[am];W[bk];B[ao];W[ck];B[bp];W[aj])
(;B[bk];W[am]))
(;B[aj];W[bk];B[ak];W[al])))
(;B[bp];W[bo];B[ao];W[cp];B[cq];W[bq];B[ap];W[an];B[am];W[aq]
;B[an];W[bk]))
(;B[bo];W[bn];B[an];W[co];B[bp];W[cp];B[cq];W[ao]
(;B[am];W[bq];B[ap];W[aq];B[ao];W[bk])
(;B[ap];W[bk];B[ck];W[al])))
(;B[ef];W[cj]C[JM: If white plays here, the natural extension that you seemed to fear....]
;B[cl]C[JM: Black can still save most of his points.  The advantage is that White's points in the upper left are now reduced more.]
))
