(;FF[4]GM[1]SZ[19]ST[2]CA[UTF-8]AP[SGFC:1.15]

PB[ericboesch]
BR[2k]
PW[ushiro]
WR[2k]
KM[6.5]
DT[2004-04-30]
PC[The Kiseido Go Server (KGS) at http://kgs.kiseido.com/]
RE[W+11.50]
TM[900]
OT[5x30 byo-yomi]
RU[Japanese]

C[ericboesch [2k\]: Hi

DW: Hi! Thanks for the chance to review your game.];B[pd]C[ushiro [2k\]: hi]
;W[dd];B[pq];W[dp];B[qk];W[jp]
(;B[cj];W[nc];B[kc]C[DW: b[L17\] is not recommended. It's rarely seen in pros' games.

( The comments below are quoted from Kogo's Joseki Dictionary )

The two-space low pincer, at best indicates a special strategy. 

The two-space low pincer is not as forceful as the one-space pincer, nor as relaxed as the three-space pincer, which is most often used as a dual purpose move to pincer and extend at the same time. Neither fish nor fowl, the two-space low pincer is less able to secure territory compared to the one-space pincer, if the selected variation comes to that, and perhaps more likely to later come under attack if White establishes a base for White [o17\].]
;W[pf];B[oe];W[qc];B[pc];W[qd];B[qb];W[pe];B[nd]C[Seems like a bad result for me (black)

DW: It should be a joseki, but it just destroys your Chinese fuseki. That's why it turns bad to you.]

(;W[qi]C[DW: Can't agree. W[s18\] is bigger. See in variation.]

(;B[cf]
(;W[gc]C[DW: No good. W[f17\] is better.]
(;B[cn]LB[cl:A][ch:B]C[DW: Normally this is not a good shape for b, leaving two invade points, 'a' and 'b'.]

(;W[cl]C[DW: Overplay!]
(;B[bl]C[DW: Too timid. You should attack when an invasion comes, not just securing yourself.]
;W[bk]C[I can hardly believe this sequence is good for w.];B[ck]
;W[bm];B[dl];W[cm];B[dm];W[bj]
(;B[ci]
(;W[bn];B[co];W[cp];B[bo];W[al];B[en]C[Is w's sequence reasonable here?

------------
DW: Not likely. The result is not bad for b.];W[gp]C[Is this a good move?  It seemed like it.

I didn't know how to deal with this moyo.  I thought black m3 would be loose, but now I think it would have been good.  What about n3?  q5 looks like good shape, but it seems to be begging for w moves at n3 and r7.  An invasion under all those fourth-line stones might make sense too, but  I wouldn't know where to begin.

-------------
DW: You know it's just a moyo, haven't turned to territory yet. there are many ways to invade in. See below. 

B[m3\] is a choice, too. It's better than [n3\], because it emphasizes w's weaknesses.]

(;B[bd]C[DW: Bad move. because there's a leak at b11, b[b16\] worths little.

See in variation below.]
(;W[ce]C[DW: w[c17\] is just ok.];B[be];W[df];B[cd];W[de];B[dc]
C[Mistake -- gote.

DW: You consider it as a mistake, but where else can you choose to play? I don't think a tenuki will make more sense.]
;W[ec];B[db];W[cg];B[eb];W[fb]C[ I played 7 stones, I got 9 points, and I'm surrounded.  Not a good result, I think.

DW: hehe, I should say that you have stolen 9 points from w, in other words, you've gained 18 points. And don't forget w has responded to your moves, and the influence w built here is almost useless....]
;B[qn]LB[qg:A][qh:B]C[It seemed natural to split the difference since I didn't want r9 to get cut off, but I don't think I've ever seen a good player do this move.  q9, m3, n3, r5, s18, and b3 all seem possible.

--------------
DW: 
q9 -- guess you mean p9. yes, after b[p9\] b can even invade at 'a' or 'b'. But it's better to take s18 first.
m3 -- better than n3 imo. Very big, too.
r5 -- (compared with r6) less aji in the corner, an invasion point left on the side. 
s18 - Very big. As I've explained.
b3 - not as big as other choices I think. Not a sente either.

I will choose s18 or m3.];W[mq];B[bq];W[bp];B[ap];W[cr];B[ke]
C[j17 is better.];W[an];B[ao]
(;W[pp]C[DW: definitely an aji keshi.]
(;B[qp];W[oq];B[po];W[op]C[Can b do better here];B[pr]C[Another sequence that seemed to go well for white.

DW: This is good enouth for b. your corner is quite strengthened. And don't forget your corner was a big keima enclosure.]
;W[pl];B[pk];W[ol];B[ql];W[rb];B[nn]C[DW: better connect at q18, aiming at r12 or r13 invasion.]
;W[on];B[oo];W[mo];B[mn];W[no]
(;B[om]C[Considering what comes next, maybe I should have played m6 instead, or p6 instead of n6.

DW: you're right.];W[pb];B[ob];W[qa];B[oc];W[ln];B[lm];W[km]
;B[ll];W[kn];B[ed];W[fc];B[fe];W[ge];B[ff];W[bf];B[gf];W[he]
;B[hf];W[if]C[DW: Overplay. b's cut would be deadly.];B[ie]
;W[ic]
(;B[id];W[fd];B[ee]C[h16 seems possible too.

DW: More than possible. See in variation.];W[hd]
(;B[jf]C[DW: see in variation.]
(;W[jc]C[DW: Good move locally, destroying b's shape, but e3 may be more urgent.]
;B[bh];W[eh];B[fi];W[fh]
(;B[bg]C[Doubtful.

DW: A bit complicated here. The corner is a ko.];W[gi]C[Overplay?

DW: Yes. Safer playing at g12.];B[gh];W[ch];B[ei];W[hh];B[gg]
;W[bi];B[af];W[ig];B[hi];W[ah];B[cf];W[gj]C[Mistake.];B[bf]
;W[ef];B[dg];W[eg];B[dh];W[ii]C[DW: B is a bit ahead now.]
(;B[kd]C[This move is ok, a big one.];W[oi];B[ng];W[jk];B[rj]
;W[ri];B[kb];W[jb]
(;B[ha]C[Mistake -- I assumed I'd end in sente.

DW: This is probably the move leads to your loss.];W[hb];B[fa]

(;W[gm]C[Now I lose a bunch of points because he plays first in this area.]

(;B[fo];W[fp];B[go];W[ho];B[fk];W[gk];B[ok];W[or]C[DW: p2 is bigger than p9, and is almost sente.]
;B[kl];W[jl];B[ph];W[pi];B[pg];W[qg];B[qh];W[rg];B[rh];W[sh]
;B[of];W[nh];B[qf]C[aji keshi, no doubt.];W[qe];B[rf];W[sg]
;B[og];W[lh];B[mi];W[mh];B[ni]C[dumb...];W[li];B[mk];W[ps];B[qr]
;W[qs];B[rs];W[os];B[rq];W[eo];B[fn];W[fl];B[ek];W[lf];B[kg]
;W[mf];B[kj];W[lj];B[kk];W[oh]
(;B[me];W[ia];B[jj];W[ij];B[jh];W[ih];B[ga];W[gb];B[ea];W[jd]
;B[je];W[oa];B[nb];W[br];B[na];W[pa];B[ar];W[cq];B[aq];W[le]
;B[ld];W[qj];B[sk];W[si];B[nk];W[sj];B[rk];W[mj];B[nj];W[fj]
;B[ej];W[ji];B[ki];W[kh];B[jg];W[gn];B[nf];W[do];B[dn];W[ka]
;B[la];W[ja];B[bs];W[cs];B[fm];W[el];B[lk];W[re];B[as];W[sf]
;B[fg];W[ai];B[lg];W[mg];B[dk];W[gl];B[tt];W[tt]TW[ra][sa][ib]
[qb][sb][hc][rc][sc][gd][rd][sd][se][qf][rf][hi][aj][hj][ak]
[hk][ik][bl][hl][il][am][hm][im][jm][hn][in][jn][io][jo][ko]
[lo][ep][hp][ip][kp][lp][mp][np][dq][eq][fq][gq][hq][iq][jq]
[kq][lq][nq][dr][er][fr][gr][hr][ir][jr][kr][lr][mr][nr][ds]
[es][fs][gs][hs][is][js][ks][ls][ms][ns]TB[aa][ba][ca][da][ma]
[ab][bb][cb][lb][mb][ac][bc][cc][lc][mc][nc][ad][dd][md][od]
[ae][ce][de][ne][df][ef][cg][eg][ch][eh][fh][di][dj][ml][nl]
[ol][pl][rl][sl][mm][nm][pm][qm][rm][sm][on][pn][rn][sn][qo]
[ro][so][rp][sp][qq][sq][rr][sr][ss]C[ushiro [2k\]: thx
ericboesch [2k\]: thanks])
(;B[cq];W[dq];B[br];W[dr]C[DW: sente.]))
(;B[ja]C[Not so big.];W[gb];B[ga]))
(;W[ga];B[gb];W[ia]))
(;B[fo];W[fp];B[or];W[nr];B[lo];W[mp];B[kl];W[jl];B[hb];W[hc]
;B[ja];W[ia];B[ka];W[ib];B[hn]C[B is slightly ahead.]))
(;B[pi]
(;W[qh])
(;W[ph];B[qh];W[qg];B[rh];W[ri]))
(;B[qg];W[pg];B[qh]
(;W[ph];B[ri])
(;W[pi];B[ph];W[oh];B[ri];W[rj];B[rh];W[qj];B[oi];W[oj];B[ni]
;W[pj];B[nj];W[ok];B[og];W[qm];B[pm];W[rm];B[rn];W[rl]C[w isnt quite alive]
)))
(;B[gh];W[bg];B[ch]C[W dies.]))
(;W[bb];B[bc];W[cb];B[ab];W[ba];B[cc];W[ae];B[ad];W[da];B[ea]
;W[af]))
(;B[jc];W[ib]
(;B[eh];W[bi];B[jk]C[DW: the middle is yours.])
(;B[bh]C[DW: or you can start the attack.])))
(;B[hd];W[gd];B[id];W[jc];B[kd];W[kb];B[lb]C[w dies, as far as i can see.]
))
(;B[ln]C[This is almost sente.];W[ok];B[pi]C[Won't get w any good if w try to run.]
;W[ph];B[oj];W[nj];B[ni];W[mj];B[ml];W[mk];B[lo];W[lp];B[or]
C[W is almost suffocated.]))
(;B[op];W[oq]))
(;W[qp]C[DW: B can hardly keep his territory safe.]
(;B[pp];W[qo];B[po];W[rn];B[qm];W[qq];B[qr];W[rr];B[pr];W[rs]
C[DW: w lives in the corner.])
(;B[qq];W[qm];B[rm];W[rn];B[ql];W[qo];B[pm])))
(;W[cc]LB[bi:A]C[B has a leak at 'a', so b[b16\] doesnt earn b any points.]
))
(;B[cc];W[cd];B[dc];W[ed];B[bd];W[be];B[bc];W[ce];B[ec];W[fc]
)
(;B[fp]C[Here is am easy example:];W[fq];B[gq];W[ep];B[hp];W[fo]
;B[go])
(;B[hq];W[gq];B[jq]C[Also viable.]))
(;W[al]C[I'll play this solely to see how b responses.
Next move w can cut at [d6\].]))
(;B[bn]C[No matter what you've planned, just dont miss this atari.]
;W[al]LB[cq:A][ci:B][fp:C]C[Then you can consider about 'a', 'b', or even 'c']
))
(;B[en];W[fp];B[bp]C[DW: Good for b.]
(;W[cq];B[dk])
(;W[dk];B[cq])))
(;W[fq];B[bp];W[cq];B[dl]LB[ch:A]C[W can still invade at 'a'.

b[c10\] at c11 would be a perfect shape, 

And that's why b[c6\] isnt good.]))
(;B[cc]C[DW: Suggest you invade 33 immediately.];W[cd];B[dc]
;W[ed];B[bd];W[be];B[bc];W[ce];B[ec];W[fc];B[ef];W[ff];B[fg]
;W[gf]C[DW: This is a joseki. b[L17\] makes w's influence much less effective, so this variation is good for b.]
;B[cn]C[DW:]))
(;W[fc]C[W's only choice.]))
(;B[rb]C[This variation continues explaining how big s18 is.]
;W[tt]
(;B[rd];W[re];B[rc];W[qe];B[se];W[sf];B[sd];W[rf]SQ[qf]TR[sc]
[sb][sa][ra][qa][pa][pb][oa][ob][oc][od][nc][nb][na][ma][mb]
[mc]C[b: 18
w: 1

Then how much does b[s18\] or w[s18\] worth?

Compared with the variation in which w played [s1\], 
b gets 14 more points(18-4), while w's territory is decreased by 14 points(15-1). 

Therefore, [s18\] worths exactly 28 points in gote. It's a very big move for both.]
)
(;B[qg]C[This variation tells that s18 isnt just a super big yose move.]

(;W[pg];B[qh]
(;W[pi];B[ph];W[oh];B[ri];W[rj];B[rh];W[qj];B[oi];W[pk];B[og]
;W[nh];B[of]
(;W[rf];B[qf];W[qe];B[re];W[rd];B[sd];W[se];B[sc]C[W dies.]
)
(;W[re];B[rf];W[qe];B[rc]C[W dies.])
(;W[qe]C[Won't work, either.];B[rf]))
(;W[ph];B[ri];W[pi];B[qj]C[W is floating.]))
(;W[qf];B[qh];W[pi];B[ri];W[rj];B[og];W[of];B[nf];W[pg];B[ph]
;W[oh];B[oi];W[ng];B[pj];W[mf];B[md]C[This variation is also good for b.]
)))
(;B[cn];W[fq];B[fc];W[cf];B[db];W[cc];B[hd];W[cl];B[bl]C[This variation isn't really better than that you've played, but b[b8\] now makes more sense here. Remember, it's for securing your group, but not attacking white.]
))
(;W[rb]C[DW: This variation is to explain why s18 is big for both.]

(;B[tt]C[If b tenuki --];W[pb];B[ob];W[qa];B[oc];W[oa];B[nb]
;W[na];B[ma];W[pa];B[mb]SQ[ra][sa][sb][qb][rc][sc][sd][rd][qe]
[re][se][qf][rf][sf]TR[nc][od][mc]C[the marked territories:
b: 4
w: 15

Another variation is given to show if b have played s18, see it afterwards.]
)
(;B[pb];W[qi]C[This should be the normal course.])))
(;B[fc];W[df];B[jd]C[DW: The advantages of Chinese fuseki is moyo and fightings based on moyo, so this variation seems more reasonable.]
))
