(;FF[4]GM[1]SZ[19]ST[2]CA[UTF-8]AP[SGFC:1.15]VW[]

PB[prana]
BR[3d]
HA[2]
PW[symanto]
WR[5d]
KM[0.5]
DT[2004-04-04]
PC[The Kiseido Go Server (KGS) at http://kgs.kiseido.com/]
RE[W+Resign]
TM[1200]
OT[5x30 byo-yomi]
RU[Japanese]

AB[pd][dp]C[A game with a typical handicap-like fighting.



In the beginning I (black) felt well, but I lost more and more the overview of the game and finally got really crashed.



Judging when to defend and when to attack is a very difficult task for me.]
;W[pp];B[dc];W[de];B[ce];W[dd];B[cd];W[ec]
(;B[cf];W[df];B[dg];W[cc];B[db];W[bc];B[cb];W[cg];B[ch];W[bb]
;B[eb];W[bg];B[bf];W[bh];B[bd];W[fc]
(;B[fb]LB[ba:C][fb:A][eg:B]C[prana: better joseki at b E13?

A seems ok(joseki), as otherwise A or C would be sente for white.

The variation might be dangerous for black];W[ci];B[eg];W[fe]

(;B[gg]LB[gc:B][gg:A]C[prana: b g13 is wrong. Better hane at b g17]
;W[ba];B[ac];W[gb];B[ca];W[hc];B[cm]C[prana: is b C7 the right direction?

I thought about b F10, but was a little afraid, that w c7or w c8  is too big to allow.


Yes, g18 strengthened white and so G13 is better at e11 as in the joseki.
Given this, c7 is better than f10];W[ck];B[ej]LB[fj:A][pj:C]
[qn:B]C[prana: is this shape ok? Or better b F10?



prana: but seems to be the wrong direction anyway.

Maybe better  b R6 or b R10?


White is already stable, so I would advice for black to take a big point elsewhere (e.g. B indeed)]

(;W[bm]
(;B[cn]LB[bl:C][bn:B][cn:A]C[prana: also wrong, I think. Better hane on the outside.]
;W[bn];B[bo];W[cl];B[an];W[al];B[em];W[dh];B[nq]
(;W[kp]
(;B[no]LB[lo:B][no:A]C[prana: I considered b M5, but felt a little unsure.]
;W[pn];B[nm];W[pk];B[ip]C[prana: I was very happy to play J4.

I expected w to play on H4 instead of q9.

In fact, I don't understand q9.


janr: Q9 (or Q8) makes territory
Still, reinforcemennt of L4 is very urgent.];W[qf];B[nc];W[oq]

(;B[mr]LB[mr:A][or:B]C[prana: N2 looks weired. Probably  better b p2?]
;W[en]
(;B[fn];W[dq]C[prana: now it is getting complicated...];B[eq]
;W[cp]
(;B[co]LB[co:A][cq:B]C[prana: this is a little risky, I think.

Better would have been b c3. Right?

janr: yes, probably, though it is complicated.];W[ep];B[fq]
;W[do]
(;B[dn]LB[fl:B][dn:A]C[prana: bad shape?

janr: but effective in squeezing white.];W[bp]
(;B[eo]LB[eo:A][er:B]C[prana: this is a little slack, I think.



I would now play b f4.



But b e2 is also tempting...];W[er];B[fr];W[dr];B[br];W[dp]

(;B[fp]LB[ap:B][fp:A]C[prana: again, too easy-going.

I should have played more consequently on b A4, I think.

janr: White can play the variation otherwise];W[ap];B[ao];W[gl]
C[prana: I thought b A5 is sente...

but, w just ignored it!

janr: black can make ko]
(;B[fk]LB[fk:A][cr:B];W[qc]C[
A bit aggressive, reducing blacks moyo is urgent.];B[qd]
(;W[pc]
(;B[oc]LB[oc:A][od:B]C[prana: this (b p17) is ugly shape.

Better  b P16.];W[rd];B[re];W[rc];B[qe];W[rf]
(;B[pf];W[pg]
(;B[qg]LB[of:B][qg:A]C[prana: b overplay.

better b P14?];W[of];B[pe]C[prana: ugly shape];W[se];B[rg];W[sf]
;B[sd];W[sc];B[ne];W[ph];B[qi]C[prana: Hm, is this too hard? Its not very big, but sente on the upper w group.



But I doubt, that this is the right point/time to invade.];W[pi]
;B[qj];W[pj];B[rk];W[pb]
(;B[qo]LB[ql:B][qo:A]C[prana: Big mistake. It is too far away. Expecting w to answer was very optimistic.]
;W[rl];B[po];W[qp];B[ro];W[rp];B[ql];W[qk];B[rm];W[rj];B[sl]
;W[ri]
(;B[or]LB[or:A][qr:B]C[prana: is there no way to kill w?];W[pr]
;B[rr]C[
janr: after this, i dont find better than ko for white];W[op]
;B[sp];W[sq];B[so];W[oo];B[on];W[np];B[mp];W[mo];B[nn];W[lp]
;B[mq];W[os];B[nr];W[rq];B[qr];W[sr];B[qs];W[ps];B[ns];W[pq]
;B[kr];W[jr];B[jq];W[lc];B[ld];W[kd];B[le];W[mc]
(;B[nf];W[md]
(;B[nd]LB[nd:A][lg:B]C[prana: losing move?

I better should have given way now...];W[lg];B[lf]C[prana: b is too greedy - and gets punished...]
;W[kg]
(;B[je]LB[je:A][jf:B]C[prana: another bad move. Better k14.]
;W[ig];B[kc];W[jc];B[kb];W[jb]
(;B[jd];W[ka];B[og]C[janr: this is not good.  It doesnt threaten to run away but only to make one local eye]
;W[nh];B[ng];W[oe]C[janr: now it is very difficult for black to survive]
;B[mh];W[mg];B[jf];W[jg]C[prana: b is captured. Disaster.];B[hf]
;W[if]
(;B[gd];W[he];B[ge];W[ie];B[gc];W[hb]
(;B[rs]LB[ff:B][rs:A]C[
janr: killing this uncoditionally is very big, as the lower left can also be turned into ko, and now black will get mote than one of both.

A is big too, but im not sure if it is as big as the game move.]
;W[ff];B[gf];W[fg];B[fd];W[eh];B[ed];W[go]
(;B[gn];W[kq];B[lr];W[ir];B[lo];W[iq];B[hp];W[jp]
(;B[in]LB[in:A][kn:B]TR[mo]C[prana: another questionable move.

Maybe better: b L5 to secure the capture of the cutting stone.

It might be easier to handle the cut at w F5.

(But I am not sure, it is still unclear)];W[pm]
(;B[pl]LB[pl:A][kn:B]C[prana: forced. I cannot ignore this move.]
;W[ol];B[nl];W[om];B[qn];W[mn]C[prana: w has completely fooled me.



But there was a still a chance...



...and I missed it: b L5 works for b.]
(;B[kn]LB[lm:B][kn:A][ko:C];W[lm]C[kyumi [2k\]: game over

prana: yes.];B[kl]C[prana: this doesnt work.

The rest of the game isn't interesting anymore.

B collapses.];W[nk];B[ml];W[ll];B[mk];W[lk];B[nj];W[ok];B[lj]
;W[qm];B[sn];W[rl];B[ql];W[kk];B[kj];W[jk];B[jj];W[ik]
(;B[oh]C[janr: too early

the variation shows black first pushing through
black can at least seem some stones.
Still, it is not sufficient];W[ni];B[oi];W[mi];B[sg];W[sd];B[ij]
;W[li];B[mj];W[hk]C[prana: now, the game is over.

b should have given up earlier.

Please ignore the rest of the game.];B[hj];W[oj];B[od];W[qh]
;B[mb];W[lb];B[ob];W[oa];B[na];W[pa];B[rb]C[prana: ???];W[km]
;B[ln];W[mm];B[jo];W[ks])
(;B[ij];W[hk];B[hj];W[gj];B[gi]
(;W[gk]
(;B[hh];W[ni])
(;B[oh];W[ni];B[oi];W[mi];B[li];W[lh];B[mj];W[mh];B[oj];W[hh]
;B[hi];W[gh];B[fi];W[fj];B[ei];W[ek];B[dk]))
(;W[ni])))
(;B[lm]LB[lm:B][kn:A][ko:C];W[ln];B[kn];W[ko];B[mm];W[lo];B[jo]
;W[km];B[jn];W[nk];B[kl];W[ks])
(;B[ko]LB[lm:B][kn:A][ko:C]
(;W[lm]LB[lm:A][jo:B];B[jo]
(;W[ks]
(;B[js]LB[mm:B][js:A]
(;W[is]LB[is:A][ls:B];B[hr];W[nk];B[ml];W[ll];B[mk];W[mj];B[lk]
;W[kk];B[lj];W[kj];B[li];W[ki];B[ni];W[oh];B[nj];W[ok])
(;W[ls]LB[is:A][ls:B];B[hr];W[is];B[hq]C[prana: w cannot approach.]
)
(;W[gr];B[fs];W[jq];B[hq];W[hr];B[gs];W[lq]
(;B[hs];W[ls])
(;B[ls];W[is];B[gq];W[ks])))
(;B[mm]LB[mm:B][js:A];W[ln];B[ll];W[km];B[kl];W[jm];B[jl];W[im]
;B[js];W[is];B[hr];W[hq];B[gq];W[hs];B[gr];W[fs];B[gs];W[fo]
;B[gp];W[ho];B[io];W[en];B[hn];W[eo];B[fm]))
(;W[gr];B[gs];W[es]C[
white's bottom left group is alive in sente];B[fs]))
(;W[jo]LB[lm:A][jo:B];B[lm])))
(;B[kn]LB[pl:A][kn:B];W[qm]C[prana: w tesuji.];B[sn];W[qn];B[pl]
;W[ol];B[rl];W[om]))
(;B[kn]LB[in:A][kn:B];W[fo];B[ho];W[en];B[hl];W[eo];B[gp];W[fm]
C[
janr: this variation is unreasonable for black.];B[gm];W[fl]
;B[el];W[gk];B[gj];W[hk];B[il];W[ik];B[cr];W[hn];B[hm];W[in]
;B[jl];W[io];B[jo];W[jn];B[ko];W[km];B[mn];W[jm];B[jk];W[hi]
;B[gi];W[dm];B[dl];W[am];B[dm];W[ek];B[dk];W[dj];B[ek];W[ei]
;B[fj];W[gh];B[hh];W[fi]))
(;B[fo]C[This looks safer]))
(;B[ff]LB[ff:B][rs:A]C[prana: at least I have lots of Ko threats.]
))
(;B[hd];W[ie];B[id];W[he];B[gd];W[ge];B[gc];W[hb];B[ke];W[lb]
;B[nb];W[kd];B[ic];W[ib];B[kc];W[od]C[
Black seems to lose the semeai since he has no eye and white has one.]
;B[ab];W[oh];B[fa];W[kf];B[ga];W[fd];B[ha];W[ia];B[kd];W[kb]
;B[ma];W[me];B[mf];W[ob]C[

If black can find two more liberties ...]))
(;B[ka]C[janr: i think extending is possible]
(;W[jd];B[mb])
(;W[lb];B[jd];W[la];B[ke];W[nb];B[ob];W[oa];B[me];W[ma];B[mg]
;W[oe];B[od];W[og];B[mh])))
(;B[jf]LB[je:A][jf:B];W[kf];B[ke];W[je];B[jd];W[ie];B[kc];W[ma]
;B[me];W[mb];B[mg];W[oe]
(;B[mi])
(;B[od]C[Connecting is sente (otherwise local life for white)]
;W[og];B[mh])))
(;B[lg]LB[nd:A][lg:B];W[od];B[nd];W[oe];B[lj]C[prana: should be more than enough for b.]
)
(;B[oe]C[This saves the stones but has more effect to the outside (to run away)]
)
(;B[kc]C[janr: One could also consider to cut to see whites reaction]

(;W[od];B[nd];W[oe];B[kb])
(;W[kb])))
(;B[md]LB[kc:A]C[This is nearly sente for black a he threatens the cut at A]
))
(;B[qr]LB[or:A][qr:B];W[pr];B[sr]
(;W[qq];B[rr];W[op];B[np];W[oo];B[on];W[so];B[sn]C[prana: very difficult for me to read out.]
)
(;W[rq]C[
janr: i think this is better for white];B[rr];W[rs];B[qs];W[ps]
)))
(;B[ql]LB[ql:B][qo:A];W[rm];B[qm];W[qn];B[ol]C[prana: w cant play like that.]
)
(;B[rm]))
(;B[of]LB[of:B][qg:A];W[se];B[pi]
(;W[qi];B[qj];W[qh];B[pj])
(;W[od];B[pe];W[og]C[This is sente for white

white can try more than in proposed variation];B[nf]
(;W[oi])
(;W[ng]
(;B[mf];W[oj])
(;B[ni];W[mf];B[ne];W[md];B[nd];W[me])))))
(;B[se]C[
Cutting white is sente];W[od]C[Black can not be cut];B[ne]
(;W[oe];B[of])
(;W[sd];B[oe];W[qh];B[ob];W[pb];B[qa];W[pa];B[rb];W[sb];B[sa]
C[
some points can be gained by black with this ko.])))
(;B[od]LB[oc:A][od:B];W[rd];B[re];W[rc];B[qe];W[qh]C[prana: w cannot tenuki.]
;B[ob];W[pb];B[ra];W[rb];B[qa];W[pa];B[sd];W[sc];B[sa]))
(;W[rd]C[I would expect hane];B[re];W[rc];B[qe];W[ob];B[nb]
;W[oc];B[od];W[rf];B[se];W[pc];B[me];W[qi]))
(;B[cr]LB[fk:A][cr:B];W[ar];B[bq]
(;W[bs]LB[bs:A][es:B];B[aq];W[cs];B[as];W[ds]
(;B[fs]LB[ar:B][fs:A])
(;B[ar]LB[ar:B][fs:A];W[fs];B[hr]))
(;W[es]LB[bs:A][es:B];B[aq];W[cs];B[fs];W[bs];B[as])))
(;B[ap]LB[ap:B][fp:A];W[fp];B[gp]C[prana: this is risky, but it works, I think.

still, what follows is in fact a huge set of ko threqts by white.]

(;W[gq];B[gr];W[hq];B[hr];W[iq];B[jq];W[ir];B[jr];W[hp];B[go]
;W[ho];B[is];W[gn];B[fo];W[fm];B[en]C[prana: in this variation w is in trouble.]
)
(;W[aq]
(;B[ao];W[bq];B[cr];W[es];B[ar];W[cs];B[bs];W[go];B[hp];W[fo]
C[Many steps approach ko for black.])
(;B[bq]C[This ko is very difficult for black to win due to the large number of local ko threats by white and the fact that if white makes all his ko threats, winning the ko becomes almost sente for him.]
;W[ao];B[qh];W[qd];B[ap];W[gq];B[gr];W[ao];B[qc];W[rc];B[ap]
;W[hq];B[hr];W[ao];B[pc];W[re];B[ap];W[iq];B[jq];W[ao];B[ql]
;W[pl];B[ap];W[ir];B[jr];W[ao];B[qm];W[pm];B[ap];W[go];B[hp]
;W[ao];B[qk];W[am]
(;B[fo]C[winning the ko is about sente for white])
(;B[kc];W[fo]TR[cm][em][cn][dn][fn][bo][co]C[now the marked group is not happy]
)))))
(;B[er]LB[eo:A][er:B]
(;W[ap]LB[ap:A][br:B];B[ao];W[dr];B[ds];W[br];B[bs])
(;W[br]LB[ap:A][br:B];B[cr];W[dr];B[ds];W[cq];B[bs])))
(;B[fl]LB[fl:B][dn:A];W[fp]
(;B[gp]
(;W[fo];B[go];W[dn];B[dm])
(;W[go]C[perhqps white will try this?];B[hp];W[dn];B[dm];W[fo]
;B[bq]))
(;B[gq];W[bp];B[dn];W[dr];B[eo];W[dp]C[janr: not as good as in the game for black?]
)))
(;B[cq]LB[co:A][cq:B];W[do];B[ep];W[bq]
(;B[cr];W[co];B[eo];W[bp]
(;B[br]LB[nk:B][br:A];W[nk];B[qi])
(;B[nk]LB[nk:B][br:A]))
(;B[co]C[janr: This move looks better ?];W[cr];B[bp];W[er];B[cq]
C[White lives in ko ?])))
(;B[do]C[perhaps something more conservative like this move is sufficient as it secures the corner?]

(;W[el];B[fm];W[fl];B[gm];W[gl];B[hm])
(;W[er];B[fq];W[fr];B[gq];W[cq];B[ar];W[br];B[aq];W[gr];B[hr]
;W[cs];B[dr];W[eq];B[ep];W[dq];B[gs])
(;W[fq];B[hq])))
(;B[or]LB[mr:A][or:B];W[pr];B[op];W[pq];B[jn])
(;B[nr]C[this leaves open the 3-3 point]))
(;B[lo]LB[lo:B][no:A]))
(;W[qn]C[janr: the pincer seems to give black a possibility to use his thiickness. perhaps  it is better to quietly R6 qnd lqter reduce/invade blqck?]
))
(;B[bn]LB[bl:C][bn:B][cn:A]C[janr: seems better];W[bl];B[cn]
)
(;B[bl]LB[bl:C][bn:B][cn:A];W[cl];B[bn];W[dm];B[cn];W[bk];B[am]

(;W[fl];B[gk];W[gl];B[ik];W[fp])
(;W[el])))
(;W[dm]C[janr: perhaps moving out is better for white?]))
(;B[gc]LB[gc:B][gg:A]C[janr: yes, this is the joseki move.
(the rest, i'm not sure ,-)];W[gd];B[hc];W[fg];B[ei];W[fh];B[di]
;W[cj];B[gf];W[ff];B[fi]))
(;B[eg]LB[fb:A][eg:B][ci:C];W[fe];B[ci]
(;W[bi];B[cj];W[fb];B[bj]C[prana: good for b])
(;W[ba];B[fb];W[gb]C[
This is dangerous for black])))
(;B[cc];W[df];B[cg];W[fd]C[This is a simple joseki, which might be more careful for handicap games.]
))
