(;FF[4]GM[1]SZ[19]ST[2]CA[UTF-8]AP[SGFC:1.15]

EV[2004,PANDA-NET,]
PB[Fuminshou]
BR[10k]
HA[4]
PW[Fungo]
WR[6k]
KM[0.5]
DT[2004-05-28]
PC[PANDA-NET]
RE[W+15.50]
RU[Japanese]
AN[PANDA-EGG ver 6.30a]

AB[dd][pd][dp][pp]C[A four stone handicap game I played against my younger brother.

I really don't have much of an idea of where I went wrong in this game.  Maybe some of the over aggressive splits (especially the one at the beginning) were the cause.

Any advice, on anything really, would be greatly appreciated.  Thank you for your time...]
;W[nc];B[qf];W[ic]LB[lc:A][jp:B]
(;B[lc]C[Dont know why I did this without playing a move like P18 first...
----
yoyoma: Well this is certainly possible, I think it's personal preference.  You could also take some other big point on the board.]
;W[qc]LB[pc:B][qd:A]
(;B[qd];W[pc];B[nd]TR[nc][qf]C[hum...  probably should have just followed the joseki.

yoyoma: The real problem was blocking on the wrong side.  This way doesn't split O17, and R14 is not in a good spot, you would prefer to have it further away from the wall.]
;W[qn]C[It's dangerous for white to leave the upper right as it is, but for now black can't kill because his wall is not strong enough yet.]
;B[np];W[qi]LB[mc:A][md:C][od:B]
(;B[mc]C[This ends in gote, so probably not so good.];W[od]
;B[oe];W[oc];B[ne];W[cn]LB[oi:A][qk:C][fp:B]C[White is leaving behind weak groups, but its not clear exactly how to take advantage yet.]

(;B[oi];W[pk];B[pm];W[qg]LB[ql:A][qm:B]
(;B[ql]C[Good, white spend a move to "attack" your wall, but its too strong, so you cut R6.  But I would put more direct pressure on R6.  This way R6 has a little more aji left.]
;W[rf];B[re];W[pf];B[qe];W[rg]LB[rc:B][pg:A]
(;B[pg];W[rk];B[rl];W[qq]LB[qj:A][rj:B]
(;B[qj]C[Looks like you are trying to seal the white group in.  I would prefer to force it to run.]
;W[rj];B[pj];W[ph];B[og];W[je];B[fc];W[le];B[me];W[cc]TR[fc]
[dd]C[Can you defend this when you have the two marked stones?

----
yoyoma:  Usually its ko];B[cd];W[dc]LB[bc:A][ec:B]
(;B[bc];W[bb];B[bd];W[ec]LB[ab:A][ed:B]
(;B[ab]LB[ca:A][ed:B]C[Mistake.  Generally play on the "outside" part first.]

(;W[ca];B[ed];W[fb];B[db];W[eb]
(;B[gc];W[gb]
(;B[ge];W[ci];B[id];W[jd];B[hc];W[ib]
(;B[cg];W[dg]
(;B[jq];W[fq];B[dn];W[dm];B[en];W[cp]
(;B[cm]
(;W[cl];B[co];W[bm];B[cq];W[dq];B[bp];W[iq];B[ip];W[hq]
(;B[hp];W[gp];B[eq]C[K4 should have been played instead...

----
yoyoma: K4 is safer, but I think you can fight...];W[jp];B[kq]
;W[jo]
(;B[ch];W[dh]
(;B[df];W[bi];B[di]C[This cut didn't work out for black.  :(]
;W[ei];B[dj];W[ej];B[dk];W[ek];B[ck];W[bk];B[qp];W[pq];B[oq]
;W[rp];B[ro];W[or]
(;B[rq];W[rr];B[sp]
(;W[sr];B[nr];W[pr];B[qs];W[rs];B[os];W[qr]LB[rc:C][bh:A][in:B]

(;B[bh]C[This move is relatively small.];W[gn];B[rc];W[rb];B[sb]
;W[sc];B[sd];W[mb];B[lb];W[ma]
(;B[la];W[oa];B[qb];W[pb];B[nb];W[qa];B[na];W[ob];B[ra];W[sa]
;B[ps]C[Dangerous, yes this way you get 2 instead of 1 ko threats, but you also lost points with these threats instead of just O1 directly.]
;W[ns];B[ra];W[mb];B[qb];W[cf]
(;B[eg];W[eh];B[bf];W[rb];B[os];W[ps];B[qb];W[ah];B[pa];W[bg]
C[Where would be some good moves to limit the center moyo as much as possible???

----
yoyoma:  Well you should probably enter from G15, because that will strengthen your weakest group as well.  Otherwise white can grow his center while attacking that group.]

(;B[in];W[io];B[hn];W[ho];B[ok]C[This is too slow.];W[km];B[kn]
;W[jn];B[ln];W[lm]TR[jn][kn][ln]SQ[ok][km]C[With these 3 trades you made white's center much much stronger.  You should have been reducing from the more open sides first.]
;B[jj]C[Too far away from influence i guess...

--- 
yoyoma: Well this is ok, but its getting a little harder after the trades.  The real danger is that black G15 dies, so that's why I recommended you reduce first by pushing from that direction.]
;W[ik];B[ij]C[M10 probably better move here

--- 
yoyoma:  That would be safer yes, but you're still ok.];W[lo]
;B[mn];W[lp];B[lq];W[mq];B[mr];W[mp];B[nq];W[mm];B[kp];W[ko]
;B[no];W[lj];B[hk]C[again pretty useless move

---
yoyoma:  As long as white answers you're fine.  Its becoming more and more dangerous that white will not answer and instead attack.]

(;W[il]
(;B[hj]C[Useless...];W[gg]C[is all hope gone now?

would a m12 or 13 invasion be able to magically connect?

and about the top group.  any stones need to be played to live at the moment?]
;B[fg];W[gh];B[lg];W[ki];B[kj];W[li];B[lk];W[mk];B[jl];W[hm]
;B[fh];W[fi];B[gi];W[gf];B[ie];W[if];B[ff];W[he];B[hd];W[hf]
;B[jf];W[fe];B[ef];W[gd];B[ee];W[jg];B[kf];W[kg];B[ke];W[kd]
;B[lf];W[jb];B[ig];W[ih];B[kh];W[jh];B[lh];W[ji];B[fd];W[kk]
;B[ge];W[hi];B[hl];W[fm];B[jk];W[im];B[jm]C[Would you have captured L9 instead?

i figured he had me beat in a capturing race at this point, so decided to just see if i could pull something off in the end game.

---- 
yoyoma:  These center stones are dead now  :(];W[kl];B[nm];W[nl]
;B[gj];W[ii];B[ol];W[oh];B[nk];W[ll];B[mj];W[mi];B[nj];W[nh]
;B[ml];W[lk];B[em];W[el];B[fr];W[gr];B[fs];W[gs];B[dr];W[jr]
;B[lr];W[qk];B[ni];W[mh];B[pi];W[ng];B[of];W[ld];B[mf];W[be]
;B[ce];W[af];B[hb];W[ha];B[kb];W[ga];B[sk];W[si];B[sf];W[sg]
;B[hg];W[hh];B[rh];W[qh];B[sl];W[sj];B[aa];W[da];B[bn];W[cm]
;B[am];W[al];B[an];W[fo];B[eo];W[mo];B[nn];W[ks];B[ls];W[is]
;B[hr];W[js];B[fp];W[ep];B[dl];W[cj];B[fp];W[gq];B[ep];W[pl]
;B[sh];W[ri];B[qm];W[ad];B[fn];W[sq];B[rp];W[nl];B[fl];W[gm]
;B[md];W[jc];B[ka];W[se];B[kc];W[ia];B[sf];W[ml];B[se];W[go]
;B[ms];W[os];B[kr];W[ba];B[ac];W[ae];B[cg];W[ch];B[ea];W[fa]
;B[hs];W[ir];B[nf];W[mg];B[ja];W[om];B[on]TW[ea][cb][db][bf]
[ag][cg][hg][ig][bh][rh][sh][ai][di][gi][aj][bj][dj][fj][gj]
[hj][ij][jj][kj][ak][ck][dk][fk][gk][hk][jk][bl][dl][fl][gl]
[hl][jl][jm][hn][in][hp][ip][hr][hs][qs][ss]TB[ma][oa][qa][sa]
[mb][ob][pb][rb][nc][oc][pc][qc][sc][gd][od][rd][de][fe][pe]
[pf][oj][om][rm][sm][pn][qn][rn][sn][ao][bo][do][oo][po][qo]
[so][ap][cp][op][aq][bq][dq][ar][br][cr][er][as][bs][cs][ds]
[es]C[And that is how the game ended him winning by 15.5 points.   Any suggestions at this point would be greatly appreciated.  Thank you for your time...]
)
(;B[hg]C[You should simply run away fast.  It's hard for white to catch you.]
;W[hi];B[jh];W[ih];B[ig];W[jg];B[kg];W[jf];B[kh];W[mh];B[mg]
C[Black should be able to connect.  The problem is that G15 is very weak and might die.]
))
(;W[ih]C[White might try to kill you now.]))
(;B[gg];W[gi];B[hh];W[hi];B[jk]C[And now come from this direction too.  Black is very strong on the right so he has many friends to run to.]
))
(;B[bf]C[Better answer this way, don't leave a weak E13 stone behind.]
))
(;B[qb]C[This way you can take most of the corner without ko.]
;W[pb];B[ra];W[la];B[ka];W[kb];B[na];W[ja];B[nb];W[ka];B[pa]
))
(;B[in]C[Cut white.  Hard for white to save both sides.])
(;B[rc]C[Kill (part of) the corner.]))
(;W[nq];B[op];W[mr]C[white could come out this way now.]))
(;B[nr]C[Seal him is the top priority.]))
(;B[bi]C[This way is more points.]))
(;B[in]C[Black can still fight.]))
(;B[jr]C[Take white's eyespace and make points on the lower right too.]
;W[hp];B[io]))
(;W[do];B[eo];W[co];B[ep];W[cl];B[bm];W[bl]C[Black's stones are captured.]
))
(;B[co]C[Here is normal.];W[bo];B[do];W[bm];B[cq];W[bp];B[gp]
C[Next attack F3.]))
(;B[dh]C[Black can resist, but already white doesn't have much trouble making sabaki.]
;W[ch];B[di];W[bg];B[cf]))
(;B[ck]C[Black should use the wall to attack.  The game move was too timid.]
))
(;B[cl]C[Black should use his wall to attack immediately, before white has a chance to reduce its influence.]
))
(;B[fd]C[Due to black's bad D18 exchange, F16 is no longer sente.]
;W[as];B[gb];W[hb];B[ga];W[gc]))
(;W[ed]C[White could come out here, cutting F17.]))
(;B[ed]LB[ab:B][fb:A]
(;W[fb]
(;B[gb]C[Black could do this to take back the corner or isolate J17.]
;W[gc];B[fd];W[hb];B[eb];W[ga];B[cb])
(;B[fd]
(;W[gb]C[Or black could simply F16 in sente and use the wall.]
)
(;W[as]C[If white tenukis...];B[gb];W[eb];B[fa];W[ab];B[da]
;W[ea];B[cb];W[ga];B[hb];W[ba];B[ac]C[White dies because he cannot atari from either side, but eventually black will atari at F19.]
)))
(;W[ab]C[This way white dies.];B[eb])))
(;B[ec];W[bd];B[be];W[bb];B[ad];W[ac]C[ko.]))
(;B[rj];W[qj];B[qk];W[ri];B[sk];W[oj]))
(;B[rc]C[Black can kill this corner now.];W[rb];B[sb];W[ra]
;B[mb];W[nb];B[pa];W[pb];B[oa];W[na];B[qa];W[pe]C[This cut doesn't work.]
;B[pg];W[of];B[og];W[nf];B[mf]C[ladder.]))
(;B[qm]C[Also cuts R6, but damages it more by touching it.]
))
(;B[fp]C[Black could adopt a more calm approach, waiting to see what the best way to attack various weak white groups will be.]
)
(;B[qk]C[Or if black wants to act immediately, He could split the white stones.  You already have thickness with P15, so I'm not sure you want *more* outside thickness, instead you want to use it to attack white.  I showed a long variation to illustrate, but obviously there are many possibilities.]
;W[oi];B[ok];W[mi];B[mk]
(;W[ki];B[rp])
(;W[qq];B[qp];W[rp];B[ro];W[rq];B[qo];W[or];B[nr];W[oq];B[nq]
;W[op];B[oo];W[pq];B[ki])))
(;B[od]C[This way would be sente];W[nb])
(;B[md]C[Or this way.]
(;W[od];B[oe];W[oc])
(;W[as]C[If white tenuki....];B[ob];W[oc];B[nb];W[od];B[oe]
;W[mc];B[mb])))
(;B[pc]C[You really should separate the white stones now.];W[pb]
;B[ob];W[qb];B[oc];W[re];B[rf];W[qe];B[pe];W[qd];B[nd]C[Black has excellent thickness, and J17 looks lonely.]
))
(;B[jp]C[You could take a big point instead.]))
