(;FF[4]GM[1]SZ[19]ST[2]CA[UTF-8]AP[SGFC:1.15]

EV[bga tournament game]
PB[rhubarb]
BR[11k]
PW[Jugu2ar]
WR[4k]
KM[6]
DT[2004-06-14]
PC[The Kiseido Go Server (KGS) at http://kgs.kiseido.com/]
RE[W+54.00]
TM[1800]
OT[5x30 byo-yomi]
RU[Japanese]

C[Jugu2ar [4k\]: enjoy it :)
rhubarb [11k\]: u2 BGA tournament game];B[qd];W[dd];B[pq]C[Jugu2ar [4k\]: BGA Tournament game]
;W[dp];B[oc];W[po]LB[qo:B][np:A]C[Try variations A and B, they are joseki.]

(;B[op]C[r5 or o4 possible?];W[oo];B[np]C[this is not standard joseki is it?]
;W[qq];B[qk]LB[qr:A]C[r9 good?

I would play R2... You dont want white to setle to easy in corner]
;W[pr];B[or];W[pp];B[oq];W[qi];B[qm]C[Good move];W[qn];B[ok]
;W[qf];B[iq]C[Veels like overplay];W[lq];B[no];W[lo]
(;B[nm]LB[mr:A][qr:B]C[white is a violent player, i didnt know how to handle it properly
o6 mybe better?

O6 veels slow. Black still holds R2 and space to left at A

If you play B instead of O7

O7 veels good so no problem here];W[nn];B[mn];W[on];B[mo];W[mm]
;B[ln];W[ko];B[io];W[jn];B[fq];W[ml];B[km];W[in];B[om];W[qr]
;B[lk];W[mk];B[mj];W[ll]C[Jugu2ar [4k\]: damn you thinkey people!]

(;B[nj];W[kl];B[jm];W[hn]
(;B[il]C[k8 better?

Look at L9 variation];W[jk];B[ik];W[jj];B[ij];W[oh];B[ji];W[ki]
;B[kj]C[Jugu2ar [4k\]: yeah looks like thinking is worthwhile after all]
;W[gp];B[gq];W[hp];B[fp]LB[dq:A][dr:B]C[is f4 good here? i had lots of options

Yes black can do a lot. Black can go for the corner at  A or B but seperation with F4 is GOOD.... you dont have to make life yet//// you can try to atack the J6 group and then atack with more damage the white corner.]
;W[en]
(;B[dr]C[This is not bad but you can perhaps do more damage look at F6]
;W[cr];B[er];W[hq];B[hr];W[dq];B[jr];W[dj]C[i fealt i could have done better and not been pushed around so much]
;B[jc];W[hc]LB[cf:B][dl:A]C[Some variations, there are more posible then i show... and perhaps not all are the best :).]

(;B[fl]LB[cf:A]C[This move can be placed at bigger points, see move 72 variations]
;W[el];B[go];W[gn];B[ho]C[is f6 possible here?];W[cd];B[of]
C[wanted to attack white group now];W[pe];B[pg];W[qg];B[ph]
;W[qh];B[oe];W[pd];B[pc];W[od];B[nd];W[nc];B[pf]C[Q14 bad move you give yourself less liberties and you make white stronger and you remove aji of R15 and the cutting point at R17 gets more tasy :)]
;W[qe];B[nb];W[pi];B[oi]C[this was a bad error i think , better to taken17?3

yes];W[ne];B[nh];W[md];B[qb];W[rd];B[mb];W[nf];B[og];W[ng];B[oh]
;W[jh];B[ii];W[li];B[lj];W[rm];B[ql];W[ch]C[Jugu2ar [4k\]: good reading btw :)]
;B[dm];W[em];B[eo];W[do];B[fn];W[fm];B[gm];W[fo];B[qp];W[qo]
;B[fn];W[gl];B[hm];W[fo];B[cq];W[ep]C[are there better ko threats than this
did i fight the ko right?
 i am inexperienced with ko's

looks good enough];B[cp];W[co];B[bp]C[this is very bad i know!!]
;W[br]C[rhubarb [11k\]: was that good reading too:)
Jugu2ar [4k\]: erm......
Jugu2ar [4k\]: no comment :D];B[bo];W[bn];B[cn]C[Jugu2ar [4k\]: you needed b7 first]
;W[bm]C[i explored some variations such as b7 here
mybe you could help here?

black is dead... no way to safe];B[aq];W[bq]C[this wasnt goingto work but had to try...]
;B[an];W[ap];B[fk];W[fj];B[ek];W[gk];B[gj];W[dk]C[rhubarb [11k\]: my games gone to pot]
;B[fi];W[ei];B[gi];W[he];B[ff]C[i tried to reduce -];W[fg];B[gf]
;W[gg];B[hf];W[hg];B[if];W[jd]C[i really had to think hard here about making it work..]
;B[kg];W[ig];B[ie];W[id]C[this is a bit too complicated for my reading skills]
;B[gd];W[eg];B[jg];W[jf];B[je];W[kf]
(;B[lf]C[would l15 here work too?

Yes, look at variation];W[ke];B[kd];W[le];B[ld];W[me];B[gc]
C[this was my best move i think, it was tempting to cut at h16 but i couldnt see it working]
;W[gb];B[hb];W[ib];B[ic];W[ha];B[hd];W[fc]LB[ec:A]
(;B[kh]C[this was bad - is there any othergood moves here?

You could use ko at H17, see variation];W[lg];B[ih];W[lh];B[jh]
;W[rb];B[mc];W[nd];B[ef];W[df];B[fd];W[ec];B[jb]C[into the endgame now and behind by a lot]
;W[hb];B[qc];W[rc];B[rl];W[rn];B[si];W[sh];B[sj];W[ri];B[ra]
;W[mr];B[kq];W[kr];B[kp];W[jo]
(;B[ip];W[lp];B[hl];W[ej];B[ks];W[lr];B[rj];W[pj];B[pk];W[mh]
;B[mi];W[mf];B[oj];W[jp];B[jq];W[ls];B[ed];W[ee];B[fe];W[de]
;B[fh];W[eh];B[ja];W[hh];B[js];W[hi]C[i think i could have a better yose here]
;B[hj];W[nr];B[os];W[ns];B[cs];W[bs];B[ds];W[rp];B[sm];W[sn]
;B[sl];W[ps];B[jl];W[sb];B[qa];W[fb];B[pm];W[kk];B[kn];W[gh]
;B[nl];W[hk];B[eq];W[nq];B[mp];W[im];B[nk];W[mq];B[lm];W[tt]
;B[tt]TW[aa][ba][ca][da][ea][fa][ga][ab][bb][cb][db][eb][ac]
[bc][cc][dc][sc][ad][bd][sd][ae][be][ce][re][se][af][bf][cf]
[lf][rf][sf][ag][bg][cg][dg][mg][rg][sg][ah][bh][dh][rh][ai]
[bi][ci][di][aj][bj][cj][ak][bk][ck][ek][fk][al][bl][cl][dl]
[fl][am][cm][dm][an][cn][dn][fn][ao][bo][eo][ro][so][bp][cp]
[qp][sp][aq][cq][rq][sq][ar][rr][sr][as][ms][qs][rs][ss]TB[ka]
[la][ma][na][oa][pa][kb][lb][ob][pb][kc][lc][id][jd][ge][he]
[ni][jj][jk][kk][mk][rk][sk][kl][ll][ml][ol][pl][mm][gp][hp]
[hq][fr][gr][ir][es][fs][gs][hs][is])
(;B[lp]LB[hp:A][lq:B]C[A = 9 points
B = 15 points]))
(;B[ec];W[ed];B[fb];W[fd];B[hb]))
(;B[le];W[ke];B[kd];W[lf];B[hd];W[ic];B[lg];W[mf];B[gc];W[kc]
;B[hb];W[jb];B[ib];W[ld]))
(;B[dl];W[el];B[dk];W[ek];B[cj];W[ci];B[di];W[ej]
(;B[ch];W[ck];B[bi];W[cl];B[cd];W[cc];B[ce];W[bc];B[de];W[ed]
)
(;B[bk];W[ch];B[cn];W[co];B[bo]
(;W[cm];B[dm];W[bn];B[dn];W[bm];B[do];W[cp];B[eo])
(;W[bp];B[dn];W[do];B[bi];W[bh];B[bn])))
(;B[cf];W[ce]
(;B[df];W[ch];B[ed];W[ec];B[fd];W[fc];B[gd];W[gc];B[ie])
(;B[be];W[bd];B[de];W[cd];B[df])))
(;B[fn]C[I would push here more... build up strength and make life only when you realy need too.... now you can first aim at escaping atacking moves.]
)
(;B[dq];W[cq];B[cp];W[do];B[cr];W[bq];B[br];W[bp];B[fn];W[gm]
;B[fm];W[hq];B[hr];W[ip];B[jr]))
(;B[jl];W[kk])
(;B[jk]C[L9 again kils]
(;W[jl];B[il];W[kk];B[kj];W[lj];B[ki];W[li];B[lh];W[mi];B[mh]
;W[ni];B[oh];W[oi];B[ph];W[oj];B[nk];W[qj];B[qh];W[rk];B[rl]
;W[rh];B[rg];W[ri];B[qg];W[sj];B[sh];W[pk];B[ql];W[pl];B[pm]
;W[sl];B[sm])
(;W[kk];B[jj]
(;W[kj];B[ki];W[li];B[lj];W[ji];B[kh];W[jl];B[il])
(;W[lj];B[li];W[ki];B[kj];W[jl];B[il]))
(;W[lj];B[kk];W[jl];B[il])))
(;B[kk]C[I think this move captures white];W[nj];B[nk];W[lj]
;B[mi];W[kl];B[jl]C[W dead and B won game]))
(;B[qr];W[rr];B[ps];W[rq]C[Its sente]))
(;B[qo]N[B];W[qn];B[qp];W[pn];B[nq];W[pj]C[This is joseki, R5 is posible yes]
)
(;B[np];W[qq];B[qr];W[qp]LB[or:B][rr:A]
(;B[rr];W[ql])
(;B[or];W[ql]C[I like B better in this joseki])))
