(;FF[4]GM[1]SZ[19]CA[UTF-8]AP[SGFC:1.15]

PB[hmph]
BR[4k]
PW[ilcaiyunn]
WR[3k]
KM[6.5]
DT[2004-05-31]
PC[The Kiseido Go Server (KGS) at http://kgs.kiseido.com/]
RE[B+8.50]
TM[900]
OT[5x30 byo-yomi]
RU[Japanese]

;B[pd];W[dd];B[pp];W[dp];B[fq];W[cn];B[ip];W[eq]
(;B[fc]C[hmph: I'm not sure if i was right to tenuki the bottom left corner.

Yes, you should answer the move localy. s. Var.];W[fp]C[White gets too much power now...]
;B[gq]TR[fq][ip]C[...and the marked three stones look a bit awkward.]
;W[er]C[hmph: I'm not sure if this move is needed either. Seemed slow to me.

Yes, way too slow. It's pure endgame.];B[cf];W[ee];B[cc];W[cd]
;B[bd];W[be];B[bc];W[ce];B[dc];W[di];B[ci]LB[pj:A]C[hmph: On hindsight, it seems a little too early to me, but i was afraid white moyo would get too deep. Also i'm not sure if its the right spot to invade.

You chossed to take a corner (which was ok), so you have to face the white moyo. If you fear this moyo, you cannot take the corner.

It would be bigger to play somewhere on the right side, maybe 'A'. W has all his stones on the left 5 rows. B would be much better developed, if you played there.

W cannot really close the moyo and make territory out of it with one move. Note: You should never fight where your opponent is strong. But exactly that is what you are doing with this actual move.]
;W[ch];B[bh];W[bi];B[bf];W[ae];B[cg];W[cj];B[dh];W[ci];B[eg]
;W[fd];B[gc];W[gd];B[ei];W[ej];B[fi];W[hc]C[W should push once more on the left, then turn to h17. After that w has a real moyo (nearly territory) on the left, and you have a quite weak group.]
;B[hb];W[ic];B[fj]C[Very good. This move is enourmous. It keeps w low and makes your group strong. B is far ahead now. W has <40 points on the left, and a weak group. B has only strong groups, and controls the whole board.]
;W[ek];B[ie]LB[ib:A]C[Too direct or aji-keshi. Still a move on the right side seems to be best. There is no way to really attack this group as long as w has 'A'.]
;W[hd];B[gf];W[ib];B[gb];W[je];B[mc]C[Much too aggressive. 43 moves later you wonder why you have so many weak groups to look after. Here is the reason: You try to kill something which is not killable.]
;W[he]C[Look at the next moves: You defend on both sides, while w comes through without much problems: W has only to defend one group, you have two.]
;B[if];W[hf];B[ig];W[hg];B[gg];W[kc];B[jd];W[id];B[ke];W[hh]
;B[hj];W[ih];B[jg]LB[kg:A]C[shape! A is the correct move.];W[ij]
LB[jh:A]C[W has to push once more.];B[ik];W[jj];B[hk];W[jc]
;B[kd];W[jk];B[jh]C[Now b got this nice point.];W[ji];B[hi]
;W[ii];B[jl];W[kl];B[km];W[kh];B[kg];W[ll];B[jm];W[lh];B[lj]
C[Another weak group, which you just create...];W[kj];B[lk]
;W[kk];B[li];W[mh];B[nj];W[ki];B[nl]LB[lc:A]MA[li][lj][lk][nj]
C[hmph: After white's niext move i thought i should have p layed near  A instead. But i thought the marked group needed defending, too.plz enlighten me.

You are right, this is a real problem now. The reasons for the problems lie in the last 50 moves, as I have tried to show you. The marked group needs definitly support, too.]
;W[ld];B[le];W[md];B[me];W[nd];B[nc]C[Another group to defend...]
;W[ne]LB[od:A]C[hmph: Would A have been a better move?

For w? No, I think this move is just fine. 'A' is aji-keshi.]
;B[nf];W[lc];B[oc];W[of];B[ng];W[lg];B[lf];W[jf];B[kf];W[oe]
LB[pe:A]C['A' is much better shape for w.];B[nh];W[qe];B[qd]
;W[re];B[pe];W[pf];B[qg];W[qf];B[rd];W[rg];B[qh];W[rh];B[qi]
;W[sd];B[sc];W[se];B[rb];W[ml];B[nk];W[mn];B[nn];W[mo];B[no]
;W[mp];B[pq];W[rj]C[hmph: this move was painful to me.

Yes. Now, please have a look at move #44 and compare the postions. Nearly hundred moves back you dominated the whole right side, and w had a weak group on the upper left. Not a group that could be killed directly. But it was weak and a reason for concerns.

Now w's group is definitly alive, and you have a bit, but not very much territory on the right. The reason is that you tried to kill a group which could not be killed. When your opponent has a weak group you have to be very patient and watch it closely from the distance. Then, here and there, you can make a move that threatens this group. You have to choose these moves carefully, so that they help you to build something you really want. Just a clash, when it is very unclear what you gain, does not help.]
;B[ri]LB[rl:A]C[Aji-keshi and much too direct. You have to play more from a distance, maybe 'A'. if you wisely give up something, you can therefore have something else for sure, here the lower right side/corner. This holds also for the following moves.]
;W[si];B[qk];W[rl];B[rk];W[sk];B[qj];W[sj];B[qm];W[rn];B[rp]
MA[rn][rl][sk][rj][sj][si]C[hmph: I gave up many points here. I'm unsure of the way of blocking a jump into my territory. how should i have played here?

Your actual move is the right shape. You should have played such a move much earlier.]
;W[kp];B[rm];W[sm];B[fm];W[em];B[en]LB[jq:A][nr:B]C[Gote and small. 'A' should be sente, and 'B' is big.]
;W[dm];B[fn];W[gp];B[hp];W[gr];B[hr]LB[hq:A][fr:B]C[Better 'A' so that 'B' isn't atari.]
;W[fr];B[kr];W[lr];B[kq];W[lq];B[jp];W[hq]C[hmph: were the 2 stones(captured ones) big or small?

Gote, but big, considering the follow-up at j2.];B[iq];W[gq]
;B[ko];W[lp];B[go];W[or];B[pr]
(;W[nr]LB[ps:A][qs:B][os:C][rr:D]C[hmph: I thought the white A black B white C black D sequence was the right way, or am i missing something here?
This is my last question. I've been told that my endgame is rather weak, please notify me of any mistakes that i make. Thanks.

The w move is correct. W can play the sequence from 'A' to 'D' still in sente. Please refer also to the variations.]
;B[ql];W[sl];B[qn];W[ps];B[qs];W[os];B[qr];W[mb];B[nb];W[lb]
;B[mm]LB[om:A][jn:B][jo:C]C[Very bad, -1 points in sente. You make 1 point territory (A). But w could get this point only by playing a gote move himself. On the other hand you destroy your own territory (B+C).]
;W[lm];B[nm];W[kn];B[jn];W[ln];B[ro];W[sn];B[ir];W[mi];B[ni]
;W[mg];B[mf];W[gh];B[fh];W[ah];B[ag]LB[bh:A]C[Why playing this ko? You cannot win a single point (where is the point you want to make?), but you risk that your stones are captured, namely 'A'.]
;W[bg];B[do];W[co];B[bh];W[ai];B[bg];W[ad];B[ac];W[df];B[ef]
;W[de];B[dg];W[ff];B[fg];W[ec];B[eb];W[fe];B[fk]C[Good, big point.]
;W[fl];B[gl];W[el];B[ia];W[ja];B[ha];W[eo];B[dn];W[fo];B[gn]
;W[ks];B[js];W[ls];B[np];W[nq];B[gs];W[fs];B[hs];W[pg];B[ph]
;W[na];B[oa];W[ma];B[pb]LB[od:A]C['A' is good enough to protect the corner. 1 point bigger. And unless w plays 'A' you have no reason to play there at all.]
;W[og];B[oh];W[oq];B[op];W[so];B[sp];W[sh];B[ed];W[lo];B[jo]
;W[ec];B[jb];W[ka];B[ed];W[jq];B[jr];W[gi]C[You both overlooked this point?]
;B[gj];W[ec];B[rf];W[sf];B[ed];W[pa];B[qa];W[ec];B[cq];W[cp]
;B[ed];W[rc];B[qc];W[ec];B[dr]C[No threat, see var.]
(;W[br];B[ed];W[bq];B[ec];TW[la][jb][kb][rf][sg][aj][bj][dj]
[ak][bk][ck][dk][al][bl][cl][dl][am][bm][cm][an][bn][ao][bo]
[ap][bp][ep][aq][cq][dq][fq][mq][ar][cr][dr][mr][as][bs][cs]
[ds][es][ms][ns]TB[aa][ba][ca][da][ea][fa][ga][pa][ra][sa][ab]
[bb][cb][db][fb][ob][qb][sb][pc][rc][je][jf][eh][oi][pi][oj]
[pj][gk][ok][pk][hl][il][ol][pl][gm][hm][im][om][pm][hn][in]
[on][pn][ho][io][oo][po][qo][qp][jq][qq][rq][sq][rr][sr][is]
[rs][ss]C[This was a very interesting game to comment on, as it shows a main weakness of your game quite prototypical:

You attack to hard and with no focus. It seems that you don't know what you want to achive with an attack (except maybe from killing), but you fight it anyway. In contrast you should try to develop your game on a large scale. Not so much local fighting, but occupying big points. Develop frameworks, moyos.

In the end you won this game, but the main reason for this lies in your strong opening. You were definitly ahead after move #44. W did not handle the fight very well, so that you could build some territory on the right. Nevertheless: Fighting too hard and without vision seems to be your weakest point. In your future games you should lean back from time to time (maybe when you want to start an attac) and have a look at the whole board. Ask yourself first, if there is a big move appart from that attack. If not, holding a group of your opponent weak is fine. But develop a plan what you want to achieve with this attack. Ask yourself: Where do I want to build up influence or make definite territory?]
)
(;W[ed]C[Where to continue now?]
(;B[bp];W[br]
(;B[bq];W[cr]C[b dead])
(;B[cr];W[bq]C[dead too.]))
(;B[br];W[bp];B[bq];W[cs];B[ds];W[aq];B[ar];W[bs]C[dead])))
(;W[ps];B[qs];W[os];B[qr]C[If this is played directly, as you suggest, it is gote. If w plays tenuki...]
;W[tt]C[w tenuki];B[nr]C[...b captures the w stones.])
(;W[oq]C[This move isn't good either. It may seem that it makes more territory than the game move, but...]
;B[os];W[ns];B[ps];W[nr]C[...this is sente for b now.]))
(;B[fp]TR[fq][ip]C[The three marked moves are a strong formation and not overconcentrated, as opposed to...]
;AB[iq]AE[ip]TR[iq]C[...this position. Thus, playing J3 high was a good choice.]
))
