(;FF[4]GM[1]SZ[19]AP[SGFC:1.15]

GN[GNU Go 3.4 vs Player]
PB[somee]
BR[30k]
HA[9]
PW[GNUGo]
WR[NR]
KM[6.5]
DT[2004-07-02]
RE[W+77.5]
US[Smart Go File produced by LGC]

C[Hi, I'm Sascha Pawlowski, about 15 kyu in Germany. 

In the beginning, it takes a while to get a feeling for the game.

It's a good idea to start on a small board first.

19x19 is very strategic, and it's impossible to play strategically unless one knows the tactical implications, which are more easily learned on a small board.

 When you're feeling comfortable on 9x9, you can switch to 13x13 and then to 19x19.]
;W[cn]C[In Go, it is said that the corners are worth gold, the borders silver and the center is grass. This is because making territory is most efficient in the corners and then on the borders.

So usually, players will try to take the corners first and expand on the borders and in the center.

This opening move is a little odd because it's quite outside the corner and invites d4 by black.]

(;B[dl]C[Here, a good approach would have been to play at one of the corners. This move only helps white strengthen his influence in the lower left corner.]

(;W[en]C[This is not very good shape, since black could take d4 and make this formation look very thin]

(;B[fn]C[Attaching to an opponent's stone has to be carefully considered.

At this point, it's one of your opponent's stones versus one of your's, and the opponent has the initiative, so he can put you under pressure.]

(;W[eo];B[fp]C[This is not a very good connection, white could easily separate these stones.]

(;W[em]C[This move is very slow. It separetes the black stones, but since both borders are open to them, they don't mind being disconnected. It would have been preferable to keep black from intruding the corner.]

(;B[fl]C[It's not necessary to connect these groups, it would have been more profitable to extend along the border.]
;W[bl]C[Again, securing the corner would have been preferable.]
;B[bj];W[cf]
(;B[df];W[dg];B[ef];W[ce];B[ed]
(;W[bc]C[This is overly defensive.];B[cc]C[In most cases, attachment plays should be answered to avoid trouble]

(;W[eg];B[fg];W[fh];B[gh]
(;W[bp]C[Too small again, take more space];B[cq]C[The right answer]
;W[nq];B[mp];W[np];B[no]
(;W[pr];B[qq];W[qr];B[oq]
(;W[nr];B[or];W[op];B[pq];W[oo];B[po];W[mo];B[nn];W[on];B[rr]
;W[lp];B[ps];W[pn];B[qn];W[ln];B[mn];W[lo];B[lm];W[jn];B[jm]
;W[km];B[kl];W[mm];B[kn];W[ml];B[mk];W[nk];B[nj];W[ok];B[oj]

(;W[qf];B[pg]
(;W[rd];B[rg]
(;W[qc];B[pc];W[md];B[me]
(;W[bb]C[It's more important to take further care of the conflict in the upper right corner. This move is rather small.]
;B[cb];W[bq];B[cr];W[lk]
(;B[ll]C[It's not necessary to play here];W[mj]
(;B[ni];W[lh];B[mh];W[ki];B[jh]
(;W[ql];B[rn]
(;W[kg];B[li];W[mi];B[kj];W[lj];B[ji];W[pf];B[of];W[ld];B[le]
;W[kc];B[kd]
(;W[jc];B[ic];W[ib];B[id];W[hb];B[gc];W[fo];B[go]
(;W[mb];B[gb];W[oe];B[ne];W[og];B[nf]
(;W[od];B[oh];W[qg];B[ng];W[rh]C[Right, cut b off];B[qh];W[qi]
;B[ph];W[rj];B[qj]
(;W[ei];B[ej];W[bg];B[in]
(;W[gi];B[hi];W[gg];B[ff];W[hh];B[ii]C[This is small, there are more important areas.]

(;W[nd];B[tt];W[fm];B[gn];W[gm];B[hn];W[ep];B[eq];W[ke];B[kf]
;W[jg];B[je];W[hf];B[lg];W[kh];B[if];W[fj];B[fk];W[kq];B[jo]

(;W[jr];B[iq];W[hr];B[hq];W[ge];B[gd];W[gr];B[gq];W[gj];B[gl]
;W[hm];B[hl];W[br]
(;B[er];W[bs];B[cs];W[ir];B[fq];W[ci];B[ek];W[cj];B[ck];W[bk]
;B[tt];W[ca];B[da];W[ba];B[db];W[rl];B[qk];W[rk];B[pi];W[ri]
;B[pk];W[pl];B[qo];W[hj];B[ij];W[hk];B[ik];W[cl]
(;B[el];W[cp]
(;B[il]C[Not necessary to protect this connection]
(;W[do];B[dq];W[fr];B[fs];W[dm];B[gs];W[hs];B[es];W[rm];B[sn]

(;W[di];B[dk];W[cd]
(;B[dc];W[ga];B[fa];W[ha]
(;B[fb]C[Also no need to protect here];W[he]C[it's not neccessary to anser this move, because black can connect anyway]

(;B[hd];W[ns];B[os];W[fe];B[ee];W[kk];B[jk];W[fd];B[fc]
(;W[qm];B[gf]C[This move doesn't change the score at all];W[im]
;B[ie]
(;W[hg];B[ig];W[mk];B[ih];W[gh];B[jf];W[li];B[tt];W[sm]C[It's not necessary to kill these stones, since they're dead anyway. Killing them costs one point.]
;B[qs];W[kp];B[ko];W[jq]
(;B[ip];W[kb];B[tt];W[hc];B[tt];W[gk];B[tt];W[de]
(;B[tt];W[tt])
(;B[pp]C[This area is not closed yet.]))
(;B[jp]))
(;W[sm])
(;W[pp])
(;W[jd]))
(;W[jd]C[black would have to connect here, otherwist the upper left group is dead]

(;B[ie];W[ke];B[jf];W[kd])
(;B[ke];W[ie]
(;B[eb];W[dd])
(;B[dd];W[eb]))))
(;B[tt];W[hd];B[hc])
(;B[fe]))
(;B[tt];W[fb];B[ea];W[fc];B[fd]))
(;B[dd]))
(;W[dk]))
(;W[dq];B[dr];W[dp])
(;W[kk])
(;W[fe]))
(;B[tt];W[il];B[im];W[jl];B[jk]))
(;B[dk]))
(;B[fr]))
(;W[hq]))
(;W[iq])
(;W[cj])
(;W[pj])
(;W[jd];B[ke];W[je])
(;W[kk];B[jj];W[jk]))
(;W[ko];B[jo];W[jp]))
(;W[pj]))
(;W[qg];B[ph];W[rh]))
(;W[gn];B[fm];W[ho];B[gp];W[hp];B[hq];W[iq]))
(;W[jd]))
(;W[le]C[White can put b under pressure here];B[mf];W[id]C[and make a base]
))
(;W[qo];B[pp];W[qm];B[rn];W[rm];B[ro];W[pj];B[pi];W[qj]))
(;B[mi]))
(;B[mj])
(;B[lj];W[mj];B[mi];W[mk];B[kj]))
(;W[pd];B[oc];W[od];B[nc];W[nd])
(;W[cj]C[Cutting black off here would be another good idea.]
;B[ck];W[bk]))
(;W[oe]C[This is better shape]))
(;W[pd]))
(;W[mj];B[lk];W[mi]))
(;W[pq]))
(;W[oo];B[mq];W[nn];B[mo]))
(;W[ep])
(;W[eq]))
(;W[cd];B[dc]))
(;W[dd])
(;W[dc]))
(;B[dd]))
(;B[di])
(;B[dq]C[Play this immediately to take white's base in the corner.]
))
(;W[fo];B[go];W[gn];B[fm];W[gp];B[ho];W[fq]C[This move starts a 'ladder', a common threat in go.

Black cannot escape unless there's a black stone in the way of the ladder.]

(;B[ep];W[dp];B[eq];W[er];B[dq];W[cq];B[dr];W[ds];B[cr];W[br]
;B[cs];W[bs])
(;W[ep])
(;B[cr];W[tt];B[ep];W[dp];B[eq];W[er];B[dq];W[cq];B[dr]C[Now white can't kill black and the enclosing white stones are very weak.]
))
(;W[eq];B[ep];W[dp];B[fq];W[er];B[kp];W[pp]))
(;W[fo]C[This increases the pressure on black by taking one liberty, threatening to atari with the next move.]
))
(;B[dp]))
(;W[dp]))
(;B[ac]C[In this sequence, we see that enclosing 4 points of territory takes 4 stones in the corner, 6 on the border and 8 in the center.]
;W[tt];B[bc];W[tt];B[cb];W[tt];B[ca];W[tt];B[ia];W[tt];B[ib]
;W[tt];B[jc];W[tt];B[kc];W[tt];B[lb];W[tt];B[la];W[tt];B[ff]
;W[tt];B[gf];W[tt];B[eg];W[tt];B[eh];W[tt];B[fi];W[tt];B[gi]
;W[tt];B[hh];W[tt];B[hg])
(;B[dd])
(;B[cd]))
