(;FF[4]GM[1]SZ[19]ST[2]CA[UTF-8]AP[SGFC:1.15]

PB[palkarg]
BR[11k]
PW[goru]
WR[11k]
KM[6.5]
DT[2004-07-04]
PC[The Kiseido Go Server (KGS) at http://kgs.kiseido.com/]
RE[B+0.50]
TM[900]
RU[Japanese]

C[[DP Hello there - you made the following comment so I will look at the game in this light. I hope you find the comments useful\]
I felt this game messy. Too heavy and didn't find a clear line of development. Could you help me clarify? Many thanks
[DP Key moves are:
29 when the empty triangle causes problems top left
41 as you correctly identified - strategically you needed to reduce W / increase B influence rather than go for territory
77 during the fight in the bottom right, where you protect your stones directly rather than attacking his weak group to give yourself strength
You need to put a little less emphasis on territory, and work more on your thickness (influence).  You handled W thickness well, staying away from it, but when you had your own it didn't get used to your advantage.  Opening chapters of Attack and Defense cover this quite well, so might be worth getting a look at that book\]]
;B[pd]C[palkarg [11k\]: Thank you for your time  reviewing this game
[DP No probs - I enjoy doing them\]];W[dp];B[pq];W[dd];B[fq]
;W[dj]LB[ip:A];B[jp]LB[ip:A][hq:B]C[I feel K4 is a good stretch but feel also it leaves B open for invasion. How do you deal with B when it happens ?
Otherwise is A easier and stronger than K4 ?
[DP K4 is the correct extension here - A would be too narrow. Note you could also play a double kakari at C6, or your own san-ren-sei at Q10. See variation for the invasion details (check out Attack and Defense if you've got a copy too).  Note in particular that ladders feature heavily in this invasion, as does timing - if W invades immediately you could tenuki\]]

(;W[pj];B[qm]LB[ql:A]C[A better ?
[DP It's an interesting move which builds a framework with K4 earlier, and makes F5 a big move.  I think R7 is in the right place.  Other options would be K16, F17 or  C6\]]
;W[qf];B[qh]C[Idea was a pincer for both W stones, is it overplay ?
[DP Feels a bit early. O16 would be a nice response preparing for the invasion\]]
;W[pf]
(;B[nd]C[[DP After W R14 you need to act immediately if you want to use R12, by jumping out into the centre at P12\]]
;W[ph];B[fc]C[[DP Good!  You left R12 alone, although it must have been a temptation!\]]
;W[jd]
(;B[lc]LB[ic:A]C[A better to extend F17 base ?
I played M17 because O16 was high and the corner was a bit open.
[DP Better to jump into the centre with F15, reducing influence of W san-ren-sei. Corner is still open - see variation - although W won't do this since you could then link to R12.  He might reduce your corner with S16 though, which leaves you overconcentrated\]]

(;W[jc];B[cc]C[[DP Problem with this move is that W can make a wall to work ideally with K16 and K17.  Better would be the one-space jump to F15\]]

(;W[ec];B[eb]C[What was the correct way to play ?
[DP Very much so.  W made a mistake and you take full advantage to start with\]]
;W[db];B[dc];W[ed];B[fb];W[cb];B[bc];W[bb]
(;B[bd]C[[DP Aha - an empty triangle.  Causes you no end of problems with the wall W now builds!\]]
;W[ce]
(;B[ab]C[[DP Still just about possible to escape with B14, but once you go this direction the W wall is inevitable\]]
;W[be];B[ba];W[ac];B[ad];W[ae];B[da];W[cd];B[ca];W[fd];B[mq]
LB[hd:H][le:B][qe:C][rj:D][om:A][cn:G][fo:E][cq:F]C[Here I was a bit lost. I didn't kbnow where to play  so I went for territory at N3.
Could you briefly comment the different moves I looked at ?
[DP OK, well strategically you should now be looking at reducing the huge W influence from that wall.  Play away from thickness, so my favourite would be E.  It's the junction point between your two frameworks and so is a vital point. So, E 10 points. A would build your framework, but it is smaller than W one, and leaves E open, so 7 points. G invades the framework from a safe distance, and makes E hard to play, but you will come under strong attack with the C5,D6,E5 sequence, so 6 points.  B gets you into the centre and separates the W groups - 5 points. F invites C4 in response and W builds a huge framework, so 3 points there. Both C and D are small and let W do exactly what he wants - 2 points. H is  far too close to the W powerbase - 1point. N3 goes for a tiny bit of territory and lets W do what he pleases again, so only 1 point there too, I'm afraid\]]
;W[eq]C[[DP W lets you off the hook here!\]];B[fp]C[[DP A good response to E3\]]
;W[qp]
(;B[qq]LB[pp:A]C[Not sure. A better ? Corner or moyo, felt afterwards moyo would have represented more points ?
[DP Yes, A would work better with existing stones\]];W[pp];B[op]
;W[oo]
(;B[om]C[[DP Go for the double hane at O5 - puts a lot of pressure on W. See variations\]]
;W[no];B[np];W[pn];B[pm];W[nm];B[rp]C[[DP Rescuing Q7 stones should be higher priority than corner for you now\]]
;W[ro];B[qo];W[po];B[qn];W[rq]C[[DP Oops. W splits your groups and pretty much annihilates your corner\]]
;B[rr]LB[rn:A]C[A better ?
[DP Doesn't matter too much\]];W[sp];B[ok]C[[DP Good - they need saving!\]]
;W[qk];B[nl]LB[do:A]C[A seemed intersting but the Q7 group looked still very weak ?
[DP Dead right - you must sort out the Q7 group first, so good move\]]
;W[mm];B[ml];W[lm];B[ll];W[kl]
(;B[lj]LB[nj:A]C[Or A ?
[DP L9 much better\]];W[dn];B[km]C[[DP Excellent move - I think it actually kills the W stones if you follow it through\]
At this point what was the best strategy ?
[DP Attack, as you did\]
Was there a way to invade D13 moyo ?
[DP Reduction not invasion better, with a move around F6\]]
;W[kn];B[jm];W[jn]
(;B[jl]C[[DP This is another key point.  Extension to J7 better\]]
;W[in]C[[DP Excellent move by W\]];B[kk];W[ip]C[[DP W weak group has escaped, become strong, and is now attacking you.  Strategically you were too concerned about R7 group weakness - you could have made it stronger by attacking the W group instead\]]
;B[iq];W[kp];B[kq];W[jo];B[jq];W[lp];B[lq];W[mp];B[cq]C[Overplay ?
[DP Allows W to wall off left hand side\]];W[dq];B[cp];W[co]
;B[dr];W[er];B[cr];W[fr];B[gr]LB[ar:A]C[A better ?
[DP No, you must stop him eating underneath your territory, so your G2 move is best.  And so yes, C3 was an overplay, since it couldn't live after that\]]
;W[bp];B[hp]C[[DP Small - how about S16 if you want some points, or an extension from your centre group?\]]
;W[bq]C[[DP B corner already dead, so you get a free move here!\]]
;B[io]C[[DP Small again - look for reducing moves against W moyo. Now might be the time for G16\]]
;W[ho];B[hn];W[ip];B[go];W[hm];B[gn];W[im];B[qe]C[[DP Good, this gets solid territory for you, and now is the time in the game to secure some\]]
;W[pe];B[qd];W[oc]
(;B[pc]C[[DP This W invasion is a huge overplay.  P16 kills it.  But it is tricky, so it is worth W trying it\]]
;W[od];B[oe];W[ne];B[of];W[nf];B[og];W[pg];B[oh];W[nc];B[md]
;W[mc];B[le];W[ng];B[nh];W[mh];B[oi];W[pi];B[mg];W[mf];B[lg]
;W[lf];B[kf];W[oj];B[ni]C[[DP Nasty shape!  Better to capture immediately at N15 to remove aji as well.  Would have avoided later problem with M18\]]
;W[nj];B[mi];W[mj];B[li];W[lb];B[me]C[Afterwards probably unecessary but felt it was safier and clearer with N15
Was there a way to cut at L18?
[DP No, because of the aji of those W stones at O14.  W used their threat well\]]
;W[kc];B[rl]C[W Q12 seemed alive to me, is that true ?
[DP Possibly, with best play, but he is certainly in trouble.  See move 151\]]
;W[rk];B[rf]
(;W[rh]C[[DP Mistake by W - should be S13\]];B[rg];W[qg]
(;B[sh]C[[DP Very close, but wrong side!\]];W[ri];B[si];W[sg]
;B[re];W[sj]C[[DP Now W can breathe again\]];B[eo]C[What was the strategy at this point?
[DP Use your centre wall (M13 area) and extend to around G12 to reduce W influence\]]
;W[do];B[hd]C[[DP Good, now is the time for this sort of move\]]
;W[hc];B[gc];W[gd];B[he];W[id];B[if];W[eg];B[el];W[dl];B[em]
;W[ek];B[dm];W[cm];B[cl];W[dk];B[bm];W[cn];B[en];W[gk];B[gl]
;W[hl];B[ld]C[[DP Q18 might be nicer and would get more points\]]
;W[mb];B[gh];W[jf]
(;B[jg]C[[DP G14 to strengthen first. Then you make miai of K15 and K13 afterwards\]]
;W[ie];B[je];W[hf];B[hg];W[gf];B[fh];W[eh];B[fg];W[ff];B[hk]
;W[ik];B[hj];W[fl];B[gm];W[fm];B[ij];W[jk];B[jj];W[il];B[kl]
;W[rn];B[rm];W[fi];B[fj];W[gi];B[hh];W[fk];B[gj];W[ej];B[hi]
;W[ei];B[ob];W[rb];B[rc];W[qb];B[pb];W[gs];B[hr]LB[hs:A]C[[DP There is a very dangerous ko fight route you could go by playing A, but you have a lot of cutting points around here so I think your move is better here.  This is the last comment\]]
;W[hs];B[is];W[fs];B[hb];W[ic];B[ib];W[jb];B[ja];W[ka];B[ia]
;W[pl];B[pk];W[ql];B[ol];W[on];B[io];W[lo];B[mn];W[mo];B[kd]
;W[ge];B[sf];W[sh];B[sd];W[na];B[oa];W[nb];B[or];W[sb];B[sn]
;W[so];B[sm];W[sk];B[sr];W[rp];B[fn];W[mk];B[lk];W[qc];B[sc]
;W[tt];B[la];W[kb];B[qi];W[qj];B[br];W[bl];B[aq];W[bo];B[bs]
;W[ap];B[ar];W[ds];B[tt];W[tt]TW[la][ma][hd][de][ee][fe][he]
[af][bf][cf][df][ef][ag][bg][cg][dg][ah][bh][ch][dh][qh][ai]
[bi][ci][di][qi][si][aj][bj][cj][rj][ak][bk][ck][al][cl][am]
[bm][an][bn][ln][mn][nn][ao][ko][cp][aq][cq][ar][br][cr][dr]
[as][bs][cs][es]TB[aa][ea][fa][ga][ha][pa][qa][ra][sa][bb][cb]
[db][gb][qb][rb][sb][ac][qc][rd][ke][ne][se][jf][lf][mf][nf]
[ig][kg][ng][ih][jh][kh][lh][mh][ii][ji][ki][kj][fo][ho][gp]
[ip][gq][hq][nq][oq][ir][jr][kr][lr][mr][nr][pr][qr][js][ks]
[ls][ms][ns][os][ps][qs][rs][ss])
(;B[gf]
(;W[jg];B[je];W[ie];B[ke])
(;W[je];B[jg])))
(;B[ri]
(;W[qi];B[sh];W[rj];B[si]C[[DP B links out so W dies\]])
(;W[sh];B[qi]C[[DP W has dead big eye space now so will die\]]
)))
(;W[rg];B[rh];W[re];B[sg];W[sf];B[rd];W[ri]C[[DP and the B corner top right may die...\]]
))
(;B[od];W[mb];B[lb];W[mc];B[ld];W[md];B[me]))
(;B[im];W[in];B[hm];W[hn];B[gn];W[go];B[fo];W[hp];B[fm]C[[DP W is in a lot of trouble, and should die\]]
))
(;B[kk];W[jl];B[jk]C[[DP Eating nicely into W area of influence from top left wall, without any danger to yourself\]]
))
(;B[no]
(;W[oq];B[np];W[on];B[po]C[[DP you can cut here immediately because of R7. You could also push again at O6 before cutting, but although better that is a lot more complicated\]]
;W[qo];B[pn];W[qn];B[pm];W[rm];B[rl];W[rq];B[or];W[qr];B[pr]
;W[qs];B[nm]C[[DP This give W the corner in return for very powerful presence in centre.  Good trade-off for B\]]
)
(;W[np];B[oq];W[nn];B[po];W[mo];B[qo]C[[DP Giving W this ponnuki is probably worth it for the massive profit you take corner and right side. It would then become vital to maintain a presence in the centre\]]
)))
(;B[pp];W[qq];B[po];W[pr];B[or];W[qr];B[oq];W[rn]))
(;B[bf];W[be];B[ae];W[ad];B[ac];W[af];B[ag];W[ab];B[ad];W[cd]
))
(;B[ce]C[[DP This is the key move.  Leads to a very different result for B!  B15 would also work\]]
;W[cd];B[bd];W[be];B[bf];W[ac];B[ae]))
(;W[dc];B[cd];W[de];B[db];W[eb];B[cb];W[ec];B[cf]))
(;W[qc];B[qd];W[rd];B[re];W[rc];B[qe];W[ob];B[rg])
(;W[rd];B[qc];W[rc];B[rb]))
(;B[fe];W[df];B[db];W[cc];B[ib]C[[DP This is one possibility - by attacking D16, you gain strength to turn on K16\]]
))
(;B[oh];W[nj];B[mh]C[[DP and so on...  W can't defend both sides, so you will have some easy pickings later\]]
))
(;W[hq];B[hp];W[ip];B[iq];W[io]
(;B[jq]C[[DP This is what W would like to happen, since the ladder works\]]
;W[gp];B[hr];W[ho];B[gq]C[[DP W has sente and is a very happy bunny\]]
)
(;B[hr];W[jq];B[gq];W[ir]C[[DP A variant but W is still happy since K4 is caught in a ladder\]]
)
(;B[ho]C[[DP This is perhaps best option for B given both ladders favour W\]]
;W[jq];B[ir];W[in]C[[DP A key move in this sequence\]];B[kq]
;W[hn];B[fo];W[fn])))
