(;FF[4]GM[1]SZ[19]ST[2]CA[UTF-8]AP[SGFC:1.15]

PB[TjP]
BR[16k]
PW[mccoy]
WR[14k]
KM[0.5]
DT[2004-07-13]
PC[The Kiseido Go Server (KGS) at http://kgs.kiseido.com/]
RE[B+54.5]
TM[60]
OT[5x30 byo-yomi]
RU[Japanese]

AB[pd][dp]C[Hi

My name is Bram Vandenbon
I play on KGS using the nickname WuQingyuan.
I was asked to review this game.
So here I go !];W[pq]C[TjP [16k\]: hi];B[cd];W[fc];B[dc];W[ff]
;B[df];W[nc];B[ne];W[kc];B[qh];W[qn]
(;B[mp]CR[qn][pq]C[it would be more natural to keep some distance from white his shimari (marked stones)]

(;W[nn]C[I dont get the idea behind this white move. Its not taking territory, and it building influence there seems useless too !]
;B[op];W[pp];B[oq];W[oo];B[id];W[ic];B[hc];W[hd];B[jc];W[ib]

(;B[gc];W[jd];B[gd];W[ie];B[fd]C[This exchange looks still reasonable to me.]
;W[ge]
(;B[fb]C[Not needed. You are strong enough there are bigger moves at this time of the game.]
;W[fe]C[White playing bad shape here, but also his move is small.]
;B[ee];W[fi];B[ej]LB[di:A]C[Thats an interesting move

If I was going to play on that side I would prefer A though.]
;W[ei];B[di];W[fj]
(;B[ek]
(;W[fk]C[Running this high is very good for black, so dont stop running]

(;B[hj]TR[ej][ek][el]C[also if you want to stop running there make sure to have at least 3 stones, thats a lot stronger shape.

See variation !];W[el];B[dk]TR[ej][ek]C[WuQingyuan [4k\]: Now you have very bad shape]
;W[dl];B[cl]
(;W[fm]C[I think white is being too soft here]
(;B[dn]C[looks like an overplay again !
See variation and continuation]
(;W[hl];B[hk];W[il];B[ll];W[ln]
(;B[kn]C[your black group at the bottum is still very weak. This move seems like you are creating another weak group while making white stronger. After that white can attack the bottum.

Also the taking the bottum territory is easy and big ! See variation]
;W[lo]C[Now it looks like you have 2 groups, white splits them up and starts attacking both !]
;B[lp];W[ko];B[jn];W[kp];B[kq];W[jp];B[jq];W[iq];B[ip];W[hp]

(;B[io];W[ir]LB[km:A][lr:B]C[Both groups still have a dangerous cuttingspot]
;B[ho];W[gp];B[jl]C[this is a nice move, making good shape in sente is always a nice thing]
;W[ik];B[jj];W[ij];B[hi]CR[mf][lg][kh][ki][qi][qj][qk][ml][nl]
[ol][pl]TR[le][kf][eg][kg][eh][jh][ii]C[No ! This cant work. Dont try to save 2 stones.

(1) its small
(2) you will make white stronger
(3) its impossible here

white will gain a lot of strength (the triangles) because of this ! You still had some possibilities to make a black moyo (the circles) at the right side, but after this that possibiliy is gone.]
;W[ii]LB[qc:D][dh:A][cm:B][lr:C]SQ[fa]C[In fact the left side still is very very weak

White can push through at A or B

White can also attack the group at the bottum with C and even kill it !

White D is also a Big move for white that will make you lose a lot of points !

So you can take your chance and secure some of these points]
;B[hh]SQ[fa][rc][sc][qd][rd][oe][af][bf][cf][of][pg][rh][sh]
[an][bn][cn][do][cq][cr][cs]C[Lets estimate the score like that

Top Left : 25

Bottum Left : 10

Top Right : 15

Bottum : nearly alive
Left : Living small


Total:
about 50 points for black here !];W[ih]CR[gp][hp][iq][ir]SQ[ia]
[na][nb][lc][mc][if][fg][ig][fh][gm][pn][rn][sn][qr][qs]C[Lets estimate white !


Top: 10

Center: 20

Bottum Right: 15

Circled group is a bit weak (see variation)

Komi : about 5 points

Total:
White has about 50 points]
(;B[fh]C[So the game is still pretty even !

The big question that goes on forever :
"who will grab most points ?"];W[eh]LB[qc:E][dh:B][pk:A][cm:D]
[lr:C]C[
A is big because it claims some territory but also it gives you a chance to claim the center ... A move for white in that area would be big too !



C is big for both sides too

B and D are also very big for both sides

E is big for white. Defending the corner is big for black ofcourse]
;B[fg]LB[qc:E][dh:B][pk:A][cm:D][lr:C]C[Personally I think C is really urgent at this time  and probably sente too !

After that I would go for B because it is very big in points,]
;W[eg]C[Having said all this while black is giving points away ...]
;B[ef]C[This move is bad shape again, removing your own liberties]
;W[gh];B[gg];W[gi];B[ig];W[jg];B[jf];W[if];B[je]
(;W[hg];B[pm];W[qm];B[pl];W[rk];B[ql];W[rl];B[qj];W[rj];B[ri]
;W[kf]TR[mg][nl]C[Great ! That influence you just created is very huge.
Although that bottum group is still crying out for help.];B[mn]
;W[mo]C[your bottum group is totally dead now I think];B[mm]
;W[eq]C[White probably knows that black group is dead ... he has almost won the game, but just wants to be sure his white group doesnt die there I assume.]
;B[dr];W[er];B[dq];W[fo];B[pr]C[WuQingyuan [4k\]: I think this move is wrong because it is gote and M2 is too dangerous]
;W[qr];B[os]TR[nr]C[I wouldnt play p1 but o2 or p2 instead
because this leaves weaknesses]
(;W[qs];B[js];W[jr];B[kr];W[is];B[ks]
(;W[gr]C[White is really being soft here !]
(;B[ob];W[nb];B[oc];W[qc];B[qd];W[rc];B[rd];W[pb];B[pa];W[qa]
;B[oa];W[rb];B[pc];W[qb];B[sa];W[qk];B[pk];W[pj];B[qi]
(;W[pi]C[dont attach to thickness

If you want to fight here then you have to play more lightly]
;B[ph];W[oi];B[ni]C[attaching like this looks dangerous. N11 looks so much more safer !]
;W[oh];B[ng];W[nh];B[mh];W[mi];B[nj];W[lh];B[mg];W[lg];B[og]
;W[pn];B[nm];W[om];B[ol];W[on];B[li]C[white has a nice sequence now, see variation]

(;W[mj];B[mk];W[lj];B[ki];W[jk];B[kj];W[kk];B[lk];W[kl];B[km]

(;W[jm]C[What is white thinking !

Please see the variation !];B[lm];W[mf];B[me];W[le];B[nf];W[md]
;B[nd];W[lc];B[na];W[mb];B[ma];W[la];B[sj];W[rm];B[sk];W[sl]
;B[si];W[ps];B[or];W[qq];B[es];W[fs];B[ds]
(;W[mr]C[Nice move !

M3 is easier to execute maybe !];B[mq]C[This is a very hard go problem.

Solution see variation !]
(;W[lr]
(;B[ms]C[black made a mistake here !]
(;W[nr]C[See variation here];B[lq];W[no]
(;B[np]C[silly mistake.
Black can still get killed here]
(;W[go];B[ns];W[hn];B[im];W[jl];B[hm];W[gm];B[in];W[gn];B[dm]
;W[em]LB[cj:A]TR[ed][cf][ci][ck][cm]C[There really is so much aji in that group that stopping white is unavoidable

But protecting at A looks most reasonable to me !]
(;B[dg];W[dh];B[ch]TR[cg][ci][ck][cm];W[ci];B[bi];W[dj];B[ck]

(;W[cj]C[too soft again];B[bj]C[this isnt that bad];W[di];B[bg]
;W[hb];B[gb];W[eo];B[do];W[en];B[ep];W[fp];B[kh];W[kg];B[ha]
;W[ia];B[ga];W[lf];B[tt];W[jh];B[jo];W[ji]
(;B[tt];W[tt]TW[ja][ka][jb][kb][lb][jc][mc][id][kd][ld][he]
[je][ke][gf][hf][jf][fg][gg][ig][fh][hh][hi][gj][hj][gk][hk]
[fl][gl][sm][fn][rn][sn][po][qo][ro][so][qp][rp][sp][fq][gq]
[hq][rq][sq][fr][hr][rr][sr][gs][hs][rs][ss]TB[aa][ba][ca][da]
[ea][fa][qa][ra][ab][bb][cb][db][eb][pb][qb][rb][sb][ac][bc]
[cc][ec][fc][qc][rc][sc][ad][bd][dd][ed][od][sd][ae][be][ce]
[de][oe][pe][qe][re][se][af][bf][cf][of][pf][qf][rf][sf][ag]
[cg][pg][qg][rg][sg][ah][bh][nh][oh][rh][sh][ai][mi][oi][pi]
[aj][lj][mj][oj][pj][ak][bk][nk][ok][al][bl][ml][nl][am][bm]
[cm][an][bn][cn][ao][bo][co][ap][bp][cp][aq][bq][cq][ar][br]
[cr][as][bs][cs]C[TjP [16k\]: o1 is alive
TjP [16k\]: ...


o1 was alive in seki yes];B[tt]C[Nice game, some things to remember though !

You made some mistakes at the start of the game ...

* move 40 tenuki too early left you with weak shape and created 2 dangerous cutting points !
* move 46 left a dangerous cutting point
* move 52 made your group at the bottum weak !

Those I concider as important because they have a big influence on the rest of the game.


There were also some less important mistakes due to not reading or not reading carefull enough. Those are less important because it could just be a matter of being stressed by the clock.

Thank you for letting me review this game. I hope this review was useful. I have tried putting a lot of time in it. So I hope it will be usefull. See you on KGS maybe. 

Greetings
Bram Vandenbon])
(;B[tt];W[tt]TW[ja][ka][jb][kb][lb][jc][mc][id][kd][ld][he]
[je][ke][gf][hf][jf][fg][gg][ig][fh][hh][hi][gj][hj][gk][hk]
[fl][gl][sm][fn][rn][sn][po][qo][ro][so][lp][mp][np][op][qp]
[rp][sp][fq][gq][hq][jq][kq][lq][mq][nq][oq][rq][sq][fr][hr]
[kr][lr][mr][nr][or][pr][rr][sr][gs][hs][js][ks][ls][ms][ns]
[os][rs][ss]TB[aa][ba][ca][da][ea][fa][qa][ra][ab][bb][cb][db]
[eb][pb][qb][rb][sb][ac][bc][cc][ec][fc][qc][rc][sc][ad][bd]
[dd][ed][od][sd][ae][be][ce][de][oe][pe][qe][re][se][af][bf]
[cf][of][pf][qf][rf][sf][ag][cg][pg][qg][rg][sg][ah][bh][nh]
[oh][rh][sh][ai][mi][oi][pi][aj][lj][mj][oj][pj][ak][bk][nk]
[ok][al][bl][ml][nl][am][bm][cm][an][bn][cn][ao][bo][co][ap]
[bp][cp][aq][bq][cq][ar][br][cr][as][bs][cs]C[mccoy [14k\]: no, no 2 eyes]
))
(;W[bh];B[cg];W[bj];B[cj];W[di]))
(;B[dh]C[this doesnt work neither];W[dg];B[cg]TR[ed][cf][ch]
[ck][cm];W[ck];B[dj];W[ch]
(;B[ci];W[bh];B[bi];W[bg];B[cf];W[bj];B[bk];W[ai])
(;B[cj];W[bh];B[cf];W[bk];B[bj];W[bl];B[cm];W[bi]))
(;B[ci]TR[ed][cf][ch][ck][cm];W[ck];B[dj];W[ch];B[dh];W[dg]
;B[cg];W[bh];B[bi];W[bg];B[cf];W[bj])
(;B[ch]TR[ed][cg][ci][ck][cm];W[ck];B[dj];W[dh];B[ci];W[cg]
;B[dg];W[bk];B[cm];W[bg];B[bh];W[cj];B[bl];W[bi])
(;B[cj];W[ch]
(;B[dh];W[dg];B[cg]TR[ed][cf][ci][bj][cm];W[ci];B[dj];W[bj]
;B[ck];W[bk];B[cm];W[cf];B[bg];W[ce];B[ed];W[bh];B[ah];W[bi]
;B[bf];W[be])
(;B[cg]C[most reasonable to me];W[bh];B[bg];W[dg];B[ce];W[ci]
;B[bj])))
(;W[ns]C[this kills black]))
(;B[nq]))
(;W[lq]))
(;B[lq]CR[ln][ko][lo][mo][jp][kp]C[Like this black is alive unless if white wants to kofight with o4 ! But this means ofcourse that white can lose his 6 marked stones !]
;W[np];B[nq];W[ms];B[no]C[kofight]))
(;W[ls];B[lq]
(;W[nr]C[seki !];B[ns];W[no];B[nq])
(;W[np]C[dead !])))
(;W[lq]C[this move works too]
(;B[np];W[lr];B[no];W[ls])
(;B[lr];W[mq];B[mr];W[np];B[nq];W[ns];B[nr];W[ms])))
(;W[lm];B[nl];W[np];B[nq];W[no];B[mr];W[ck];B[dj];W[dh];B[ci]
;W[ch];B[bi];W[cm];B[bl];W[bm];B[bk];W[dm];B[bo]))
(;W[nl];B[ok];W[lm];B[ml];W[km];B[jm];W[kl];B[jk];W[kk];B[ki]
;W[mk];B[nk];W[lk];B[nl];W[mj];B[oj]))
(;W[nj]C[this is more lightly but is still an overplay i think]
;B[mi];W[nl];B[nm];W[ol];B[om];W[mj];B[li];W[ni];B[nh];W[oh]
;B[ng];W[lj];B[kj];W[ml];B[lm];W[ok];B[pi])
(;W[mi]TR[oi]C[this move is probably safer]))
(;B[mr]C[alive])
(;B[np];W[no];B[mr]))
(;W[lq]C[dead either way like this];B[lr];W[mq];B[mr];W[np]
;B[nq];W[ms]
(;B[ns];W[or];B[nr];W[ps])
(;B[nr];W[ps])))
(;W[lr]
(;B[lq];W[nr];B[or];W[kr];B[jr];W[js];B[mr];W[np];B[mq];W[is]
;B[nq];W[no])
(;B[kr];W[lq])))
(;W[kf]))
(;B[gr];W[hq];B[go];W[lr]C[We can conclude :
Defending the  black group with M2 is probably sente]))
(;B[ir]C[WuQingyuan [4k\]: This is probably the right thing to do]
;W[io]))
(;B[ko]C[A lot of points, but maybe a bit agressive];W[kn];B[jo]
)
(;B[jq]C[easy !]))
(;W[ck];B[dj];W[dh];B[ci];W[ch];B[bi];W[cm];B[bl];W[bm];B[bk]
;W[dm]C[D6 looks totally useless now]))
(;B[cm]C[This is more solid]))
(;W[ck];B[dj];W[dh]
(;B[ci];W[ch]
(;B[bi];W[cm];B[bl];W[bm];B[bk];W[fm]TR[fl][dm]C[protecting both points at the same time now]
)
(;B[bh];W[bi]))
(;B[ch];W[ci])))
(;B[el];W[fl]
(;B[em])
(;B[dh];W[em];B[dm])))
(;W[dh]C[White can push through like this if he really wants that]
))
(;B[dj]LB[el:A]C[This move prevents white from pushing through at D12

Still it has nice follow-up moves to run]))
(;B[jq]TR[mp][op][oq]C[There are bigger points. This point looks important because the n4 group still is very weak !]
))
(;B[jd]C[This is more like what I expected];W[jb]
(;B[he];W[gd];B[kd];W[lc]
(;B[ld])
(;B[jf]))
(;B[kd];W[lc];B[gd];W[he];B[gc]TR[jc][id][jd][kd]C[the marked stones look too weak to play like this]
;W[jf];B[ld];W[md])))
(;W[kp]C[White could pincer now  for example]))
(;B[jp]))
