(;FF[4]GM[1]SZ[19]ST[2]CA[UTF-8]AP[SGFC:1.15]

PB[Ryan Fix]
BR[11k]
PW[David Fix]
WR[11k]
KM[6.5]
DT[2004-07-21]
RE[B+18.50]
RU[Japanese]

C[This is a game my brother and I played against each other.  He is Xif on KGS and I am Bruinfix.  We are both 11k on the KGS server.]
;B[pd];W[cp];B[pq];W[dc];B[pk];W[jq];B[de];W[ci]LB[cg:A]C[All pretty reasonable up to here.
This move is perhaps a little slack "A" would be the usual move here.]
;B[ge]LB[ge:9][ci:8]TR[cp][jq]CR[dc]C[This is probably not the best response here. If the triangled stones were black then 9 would be a good move because it would be attacking 8.
In this situation black should settle hmself by playing in contact with the circled stone]
;W[gc]CR[dc]C[OK - althoughthe circled stone is probably safe enough to et away with playing again from below and building white's moyo.]
;B[ep]TR[de][ge]C[It seems a bit premature to create another weak group when you already have one on the board - best to settle the triangled stones first.]
;W[eo]C[Teh contact play here is not good - as it allows black to settle his weak stone.]
;B[fo];W[en];B[fp]LB[io:C][hp:B][cq:A]C[This move looks heavy to me - when in your opponent's sphere of influence you don't need to hang on to every stone  so connecting is not top priority. Trying to build a base in the corner with "A" looks better. White now has attacking possibilities around "B", "C" etc.]
;W[po]C[Which he strangely ignores in facvour of making a weak group of his own...]
;B[op];W[no];B[lq];W[oo];B[lo]TR[jq]SQ[fo][ep][fp]CR[no][oo]
[po]C[Now it is white triangled stone under attack and white has another weak group - the circled stones - to worry about also.
Black only haad to play some obvious moves so it is white's own fault]
;W[gq];B[np]C[A wasted move];W[qm];B[jc]C[why tenuuki when you have two weak groups on the run?]
;W[om]LB[nk:A]CR[pk]C[This just make the group heavier - better to play in contact with the circled stone or run away properly with something around "A"]
;B[nk]LB[nk:A]CR[om]C[Now black gets "A " see how weak white's stones are and how useless the circled stone is.]
;W[qi]C[this just makes another weak group which black can attack!]
;B[qj];W[qf];B[qe];W[oj];B[ok];W[pj];B[pi]C[An awful move - just connect]
;W[qk]
(;B[qh]C[This just has to be a blunder - see variations for  better line for black - letting white capture here and settle his weak stones is terrible.]
;W[rj];B[ri];W[qj];B[pg];W[rh];B[rg];W[si];B[pf]CR[nk][ok][pk]
[gq][jq]C[You are both scrabbling around for fairly umiportant points here - leave this for the endgame - both players have weak groups to attack and defend (circled)]
;W[jo]C[OK - white defends his weak stiones];B[mm]LB[pf:45]
C[and black defend his but he could have attacked white and helpedhis own stones by playing K5 instead of 45 (which is unnecessary )]
;W[gn]CR[fo][ep][fp]C[Now the circled stones are weak again - and this time white attacks them - better late than never...]

(;B[go]C[ugh - empty traingle  see variation for a better way]
;W[hp];B[fn];W[fm];B[gm];W[ho];B[em];W[fl]LB[gn:A]C[Just capture "A" now!]
;B[do];W[dn];B[co];W[cn];B[dp];W[hn]C[why didn't black capture one of the white stones - I don't understand these moves...
The black group should struggle now];B[bn];W[cm]LB[dl:A]C[No play A much better shape]
;B[cq];W[hl];B[eh];W[ej]LB[id:D][cf:C][ej:68][el:B][em:A]C[The white stones are strong - if you are worried about A getting free - just capture it now with B.
Otherwise build some side territory and undermine black with C or split him with D.

68 - is a half measiure move  it doesn' kill the aji of A properly  -but it doesn't do much else either - apart from takign a couple of points of territory.]
;B[di];W[dj];B[ch];W[fh];B[fi];W[ei];B[fg];W[gh];B[dh];W[hi]
C[This still seems like premature endgame.];B[kk];W[cd];B[ce]
;W[hd];B[fd];W[fc];B[dd];W[cc];B[gg];W[lc]C[TYis is OK but]
;B[nc];W[le]LB[nc:89][jd:A][le:90]C[After 89 , 90 should be at A]
;B[je];W[lg];B[jg];W[kh];B[hh];W[gi];B[ih]C[The string of white stones look unsafe and black has linked up]
;W[mh]
(;B[nj]LB[ni:A]C[I reckon black could cut white off with A - see variations]
;W[oh];B[ph];W[oi];B[cl]
(;W[bl]LB[ej:68][dl:B][el:A][cm:C]C[What ! - save the stones with A (although it looks ugly and you get squeezed - thats why B was preferable to C before and A was preferable to move 68.]
;B[bm];W[ck];B[dl];W[bk];B[bi];W[el];B[mf];W[lf]C[The rest is just endgame]
;B[md];W[ld];B[me];W[mo];B[mp];W[ln];B[lm];W[ko];B[ii];W[ij]
;B[hj];W[gj];B[jj];W[ik];B[ki];W[lp];B[rp];W[qp];B[qq];W[ro]
;B[pp];W[qo];B[rq];W[jf];B[if];W[jd];B[kd];W[id];B[ke];W[kf]
;B[ie];W[kc];B[fr];W[fq];B[eq];W[gr];B[kr];W[kq];B[jr];W[ir]
;B[lr];W[bj];B[cj];W[dk];B[dm];W[sg];B[rf];W[he];B[hf];W[gd]
;B[ed];W[jh];B[ji];W[be];B[bf];W[ci];B[ec];W[eb];B[pl];W[pm]
;B[ql];W[rl];B[mb];W[lb];B[jm];W[im];B[so];W[sn];B[sp];W[bh]
;B[bg];W[ai];B[bd];W[bc];B[ae];W[og];B[of];W[li];B[lj];W[jl]
;B[kl];W[jn];B[km];W[nl];B[nm];W[ol];B[ml];W[er];B[dr];W[fs]
;B[ac];W[ab];B[ad];W[cb];B[mi];W[lh];B[ag];W[mc];B[nb];W[ah]
;B[nn];W[on];B[ng];W[mg];B[nh];W[ni];B[nf];W[mj];B[mk];W[mi]
;B[jk];W[il];B[sf];W[sh];B[ds];W[es];B[la];W[ka];B[ma];W[am]
;B[an];W[al];B[is];W[hs];B[js];W[kg];B[ig];W[kn];B[mn]TW[aa]
[ba][ca][da][ea][fa][ga][ha][ia][ja][bb][db][fb][gb][hb][ib]
[jb][kb][hc][ic][jc][bi][fi][ri][aj][cj][fj][hj][sj][ak][ek]
[fk][gk][hk][rk][sk][gl][sl][gm][hm][rm][sm][in][pn][qn][rn]
[io][lo][ip][jp][kp][hq][iq][fr][hr][gs]TB[na][oa][pa][qa][ra]
[sa][ob][pb][qb][rb][sb][oc][pc][qc][rc][sc][nd][od][qd][rd]
[sd][be][ee][fe][ne][oe][pe][re][se][af][cf][df][ef][ff][gf]
[qf][cg][dg][eg][hg][qg][kj][lk][ll][cm][cn][dn][en][ao][bo]
[eo][ap][bp][cp][aq][bq][dq][mq][nq][oq][sq][ar][br][cr][mr]
[nr][or][pr][qr][rr][sr][as][bs][cs][ks][ls][ms][ns][os][ps]
[qs][rs][ss]C[General comments

You are both too ready to make weak groups by invading early on - and don't seem to know how to attack/defend them so the paly becomes rather undirected. A number of move seem to be blunders - allowing weak groups off the hook. or giving stones away needlessly.

I ahven't commented on the endgame - because if either of you had played the middle game properly it wouldn't have been needed!]
)
(;W[el];B[bm])
(;W[dm]
(;B[el];W[dl])
(;B[dl];W[el];B[bm];W[em])))
(;B[ni]
(;W[oi];B[oh];W[ph];B[nh]
(;W[qg];B[rf])
(;W[rf];B[qg]))
(;W[nj];B[mj];W[mi];B[oh];W[oi];B[nh];W[ph];B[qg];W[og];B[ng]
;W[of];B[nf];W[oe];B[ne];W[mk];B[lj];W[nl];B[ml])))
(;B[cq]
(;W[dq];B[dp];W[co];B[dr]C[black is settled])
(;W[dp];B[dq];W[eq];B[fq];W[er];B[fr];W[cr];B[dr];W[bq];B[es]
;W[br];B[ho];W[go];B[gp];W[hp];B[hq];W[ip];B[hr]C[again - black settled]
)))
(;B[rj];W[ri];B[rk];W[ql];B[ph]
(;W[rl];B[nj];W[oi];B[oh];W[ni];B[mi];W[nh];B[ng];W[mh];B[lh]
;W[mg];B[mf];W[lg];B[kg];W[lf];B[le];W[kf];B[jf];W[ke];B[kd]
;W[je];B[ie])
(;W[ni];B[rh];W[mk];B[nj];W[oi];B[mj])))
