(;FF[4]GM[1]SZ[19]ST[1]CA[UTF-8]AP[SGFC:1.15]

GN[WPM$08D5]
PB[chris]
BR[17k]
PW[SN]
WR[17k*]
KM[6.5]
DT[2004-08-02]
PC[IGS-PandaNet]
RE[W+10.5]

C[Chris: Hi, in this game I played black and allowed W to solidify too strongly where was just moyo before. I am not quite sure whether that is the real reason I lost, or something else.
I will prefix my questions with "Chris:".

Thx for doing this review.


Chris

*Hi, I play NukeMarine on KGS (5k) and IGS (16k*, man I need to play there more).  All my comments start with an asterisk.  It was a good game that I think black dominated but let white push him around a bit too much in midgame and yose.]
;B[qd];W[dp];B[pq]C[Chris:My favourite opening];W[dd];B[od]
;W[qk];B[fq]LB[qn:a][qh:b]C[I don't follow the Shusaku opening too much (your 4-3, 4-3 opening).  After the enclose P-16, White should approach at Q-5.  Hard to say, but 'a' encourages 'b' then you can play G-3.  You have two good corners and sente then.]
;W[cn];B[iq]TR[jp]C[Chris: Here I decided to go for some solid terretory (or as solid as it gets at this stage) and work my way into his from this point on.

*might as well play K-4 if you play the side. If you want territory, R-5 is your play.]
;W[qn]C[ Chris: Here is the first uncertainty i had. I assume it is necessary to answer, but in what way?]
;B[mp]TR[oo]C[Chris: So I just extended to some side.

*with J-3, may as well play P-5.  Not much white can do directly.]
;W[jc];B[qi];W[ok]C[Chris: I wanted to put some pressure on W but, in the end I think I forced him in the right direction.

*With a two stone base, all he can do is play out.  He can also slide into the corner to solidfy eyespace.]
;B[lc];W[je]C[Chris: Same here. In fact here I think its worse, since d16 is further away, making a nicer moyo.

*Moyo is a framework and not territory. He does have a nice setup though. C-11 looking important, followed by the corner slides D-2 and S-2]
;B[cf]
(;W[ce];B[df];W[fd];B[cj]LB[ch:a]C[Chris: I was hoping to do the 3-3 here, but protected before me, getting loads of terretory.

*Heck yes.  You should thank white for C-15.  A pincer at 'a' would be an extension from C-6.]
;W[bf];B[bg];W[be];B[cq]C[Chris: I felt I was slowly but steadily falling behind so I reduced here. Is this really the largest reuction play available atm?]
;W[dq];B[dr];W[cp];B[cr];W[ck]
(;B[bj]MA[dj][dk]C[*D-10 or E-9.  Big threats on white.];W[bk]
;B[rp]MA[dk]C[Chris: Better get a large corner. Now I thought I am a bit ahead so, I can relax. Unfortunately I didnt see the size of L4.

*D-9 follows the proverb "Hane at the head of two without looking". White will force you to go in the center ahead of him. You'd want this.]
;W[kp]C[Chris: And it came immediately. I didnt really have a clue, how to respond best.]
;B[lq]C[*Good, attaching would make white stronger.];W[kq]
(;B[oi]MA[io]C[Chris: After this reduction, agaian, I thought I need to extend my goods. Were any of L2, D9 or H15/H16 bigger?

*H-5 attacks that heavy group of L-3. You can chase it into the R-9 group and C-6 group.]
;W[op];B[oq];W[np];B[nq];W[mo]
(;B[le]MA[lo]C[*Ladder doesn't work so play M-5 to keep white seperated.  Remember, expand territory, and keep connected.]
;W[lp];B[mq];W[ln]C[*Now white is connected and has big territory.  He gained more than M-15 gained you.]
;B[pp];W[po];B[hd];W[hc]MA[dk][fn]C[Chris: here we go. I am not certain, if I am not helping him a lot here, since B is giving W a target and W gets uninvadable. I just assumed, it is the largest reduction play, and an invasion is impossiblle. Was it really?

Leave it then.  Wait till you get reinforcements from other plays on the board.

The two spots can get you in position.];B[id];W[ic];B[hf];W[jd]
;B[gd];W[gc];B[fe];W[ee];B[ff];W[if];B[hg];W[md];B[me]C[Chris: Now I realise, that connecting would have done the job extremely nicely.]
;W[ld];B[nd];W[mc];B[nc];W[mb]C[Chris: This was the loosing sequence for B I believe.]
;B[mj];W[ri];B[rh];W[rj];B[qg];W[ke];B[lg];W[fo];B[gp];W[dj]
;B[di]TR[fo][dj]C[*Look familiar?  Black is losing more of his lead. N-18 will play havack on the corner and M-2 play by white will do the same.  Game count for now 54-50 in favor of white. White has sente.]
;W[ei];B[ej];W[dk];B[eh];W[ci];B[fi];W[bi];B[fl];W[nj];B[mi]
;W[mk];B[go];W[dh];B[ei];W[cg];B[dg];W[ch];B[ig]C[*M-8 is nastier to white and it plays into you center strength.]
;W[jg];B[ii];W[kk];B[il];W[fn];B[qo];W[pn];B[rn];W[ni];B[nh]
;W[oh];B[pi]C[*I guess you see O-12 or P-12 is better.];W[mh]
;B[ng];W[li];B[mg];W[lj]C[*Solide corner save for N-18 (9 point monkey jump there). Play sente moves of E-7 and R-7 followed by L-2 (which seals both sides after the exchange) then O-18.]
;B[km];W[kn];B[jm];W[lm];B[rm];W[pa];B[pb];W[na];B[qa];W[oa]
;B[qb];W[ql];B[kr];W[jr]
(;B[ir];W[lr];B[mr];W[ks];B[em];W[dn];B[en];W[eo];B[gl];W[io]
;B[qm];W[pm];B[rl];W[dm];B[ie];W[jf];B[jh];W[el];B[fm];W[ek]
;B[fk];W[jn];B[bp];W[bo];B[aq];W[ao];B[ip];W[gn];B[ho];W[hn]
;B[jo];W[in];B[jp];W[ik];B[hk];W[eq];B[er];W[fp];B[gq];W[jl]
;B[im];W[kl];B[ij];W[jk];B[ef];W[de];B[ap];W[is];B[hs];W[js]
;B[hr];W[gm];B[hl];W[lh];B[jq]C[*Bad. Gote with only one point. L-5, S-7 are sente for you. Then go for these moves or solidfy your edge.]
;W[ko];B[ms];W[ki];B[nb];W[ji];B[jj];W[kh];B[ih];W[ob];B[oc]
;W[ma];B[lf];W[sh];B[sg];W[si];B[sk]C[*R-9];W[rk];B[sl]C[Found 0 observer.]
;W[oj];B[pj];W[pk];B[pg]C[*Loss of a point.];W[kg];B[ls];W[kr]
;B[db];W[cc];B[cb];W[fb];B[ec];W[dc];B[bc]
(;W[ba]C[*Mistake by white.  E-18 and Black cannot live.];B[eb]
;W[fc];B[bb];W[ca]
(;B[aa]C[*Too bad.  B-16 can force a bent four.  For kyu level, this can equate to life]
;W[ac];B[bd];W[ad];B[ed];W[bh];B[ab];W[ag];B[tt];W[tt];B[tt]
TB[ar][as][bq][br][bs][cs][ds][eg][es][fg][fh][fj][fr][fs][ge]
[gf][gg][gh][gi][gj][gk][gr][gs][he][hh][hi][hj][hp][hq][mf]
[ne][nf][nr][ns][oe][of][og][oh][or][os][pc][pd][pe][pf][ph]
[pr][ps][qc][qe][qf][qh][qp][qq][qr][qs][ra][rb][rc][rd][re]
[rf][rg][ro][rq][rr][rs][sa][sb][sc][sd][se][sf][sm][sn][so]
[sp][sq][sr][ss]TW[aa][ab][ae][af][ah][ai][aj][ak][al][am][an]
[bb][bc][bd][bg][bj][bl][bm][bn][cb][cd][cj][cl][cm][co][da]
[db][dl][do][ea][eb][ec][ed][ep][fa][ga][gb][ha][hb][ia][ib]
[ja][jb][ka][kb][kc][kd][la][lb][lc][lk][ll][lo][mi][mj][ml]
[mm][mn][nk][nl][nm][nn][no][ol][om][on][oo][pl]C[* Believe it or not, you had a huge lead in the beginniing that white slowly bit into.  Your endgame cost you some points also.  I like your opening.  It has a strength that I need to study more. The biggest thing I saw was that you let white connect.  White has one group while you have four.  Connecting takes off immense pressure that can be aimed at your group now.  A good game overall.]
)
(;B[bd];W[ad];B[ac];W[aa];B[ea]C[Bent four counts as death technically for black (a ko that white starts at his leisure) but force it to the end.]
))
(;W[eb]
(;B[bd];W[ba];B[bb];W[ab]C[*Dead])
(;B[ab];W[ba];B[bd];W[ad]C[*Dead.])))
(;B[lr];W[jq];B[ir];W[ip];B[hp];W[hr];B[hq];W[is];B[gr];W[hs]
;B[gs];W[js];B[jj]C[*Just an example.]))
(;B[lo];W[lp];B[mq];W[mn];B[ko];W[jo];B[lm];W[ln];B[kn];W[km]
;B[jn];W[jm];B[in];W[io];B[im];W[il];B[jp]C[Just one path if white fights.]
))
(;B[io];W[kn];B[mn];W[kl];B[ml]C[*White has no territory and threatens his own group on the right.]
))
(;B[dj];W[dk];B[ek]C[Big difference.]))
(;W[ch];B[cc];W[dc];B[cd];W[de];B[bf];W[eg]C[Corner hit at D-11or play D-9 or C-9 which is hard to kill. Black ahead by 10-20 points in territory.]
))
