(;FF[4]GM[1]SZ[19]ST[1]AP[SGFC:1.15]

PB[Magma]
BR[11k*]
PW[amoogye]
WR[9k]
KM[0.5]
DT[2004-08-04]
PC[IGS-PandaNet]
RE[B+2.5]

C[Hi, i was playing black in this game and won by 2.5 points, it was a very close match.

I would appreciate that you could tell me what i did wrong and where i could improve, thank you very much.

My current rating is 11kyu in IGS.


This was good game to review in that I get the feeling that both players were playing well and it was a close score. Both players ignored some big points early in the game. W potentially had a good lead until you invaded on the left side. This was the crucial point in the game and w let you get a bigger position than he should have. His position was too open to kill you, but he needed to keep you smaller than he did. Your mistakes were earlier in having too much of a center of the board orientation. and being a little too cautious at various times. Good luck in the future.]
;B[pd]C[amoogye: hi];W[dd];B[pp];W[cp];B[pj]C[This is my favorite opening, i always like to play for influence rather than territory.

Me too.];W[eq];B[jj]LB[fc:A][jc:B][jd:C][fd:D][cj:E][jq:F]C[
I see better players than myself play this move in the opening from time to time, but it is not the best. It violates the principle of playing first in the corners, then the sides, and then developing into the center. Better moves would be any of A-F.]
;W[nc];B[lc];W[ne];B[pf];W[pb];B[qc];W[qb]
(;B[rc]LB[rb:A]C[
You can play A here for a few more points];W[kd];B[ld];W[kc]
C[The joseki as far as i remember is m15 instead of l17, this seems better for me because i get to split white.

I don't know this joseki well, but it might be workable either way. Let's see what happens.]
;B[le];W[ke];B[lf];W[ng];B[lh];W[jg]LB[lg:A]C[
W's corner stones are under attack, but he is building a nice wall to work with his upper left. It also becomes apparent that b's splitting attack is hurt by his weakness at A after this move of w's.]
;B[ph];W[og];B[pg];W[lg]C[This is where the fight begins... My only consolation is that the right side is secure and worth 20+points.

I agree.];B[kg];W[mg];B[kf];W[kh];B[li];W[jh];B[jf];W[hh];B[hf]
;W[hd];B[id];W[ic];B[ie];W[ge];B[gf];W[fh];B[jc];W[jb];B[jd]
;W[lb];B[hc];W[gc];B[ib];W[ff];B[gb];W[fc];B[fb];W[eb];B[ea]
;W[db];B[fg];W[gg];B[fe];W[ef];B[he];W[ee];B[gd]LB[jp:A]C[
B has 2 eyes for his group as does w. W's side is a little bigger. The key point now is around A.]
;W[fd];B[mb];W[mc];B[la];W[kb];B[oc];W[ob];B[nd];W[md];B[od]
;W[me];B[ja];W[nb];B[ka];W[ma];B[ia];W[ge]C[
Both sides are making endgame moves and avoiding the big points such as on the bottom. Later it becomes evident that w needs another move to make his corner secure.]
;B[hd];W[qn];B[rb]C[I thought i could kill the white group...

Hmm, maybe you can.];W[ni];B[nj];W[oj];B[mj];W[mi];B[lj]TR[li]
[lh]C[Maybe i should had played diffrently here.

I don't know. Your triangle stones just weren't strong enough to hold w in.]
;W[pi];B[ok];W[qi];B[oi];W[oh]C[And here i didnt wanted to risk the ko.

I am not as good as I should be on ko, but this looks like a much more risky ko for w than b. W's big life is at stake, whereas I think b will live even if he loses the ko.]
;B[oj];W[mh];B[ql];W[qp]
(;B[pn]LB[qq:A]C[
I would have played at A, attacking w by pushing him against your center thickness and at the same time making territory in the corner or along the bottom. You end up making a territory in the center which takes more stones and therefore is smaller.]
;W[po];B[oo];W[qo];B[on];W[pq];B[op];W[hp];B[jp];W[iq];B[jq]
;W[hm]C[
B's next move is really the key point. W should have played near there. W's moyo is huge but it is a little too open.]
;B[cj]C[I decided i had to invade before it was too late.

Yes it almost is already.];W[ch];B[dh]
(;W[eg]LB[dg:A]C[
A mistake by w. A would be much better.];B[cg];W[dg];B[bh]C[
B couldn 't ask for a better result for his invasion.];W[cf]
;B[bg];W[bf];B[cm];W[dn];B[jm];W[oq];B[nq];W[nr];B[mq];W[rm]
;B[rl];W[jr];B[kr];W[ir];B[bo];W[bp];B[bn];W[dm];B[ap];W[aq]
;B[ao];W[bq];B[qm];W[rn];B[ho];W[io];B[ip];W[gp];B[in];W[jo]
;B[ko];W[go];B[jn];W[hn]
(;B[cl]LB[dl:A]C[
You could have played A for a few more points but be careful.]
;W[sl];B[rj]LB[sk:A]C[I was worried about the 2 white stones escaping.

You don't need to. You could play A. Your groups on both sides of the w stones are much stronger than they are.]
;W[ag];B[ci];W[dl];B[dk];W[ek];B[sk];W[sm];B[ah];W[af];B[ej]
;W[fk];B[hk];W[gl];B[mr];W[or];B[ns];W[qr];B[co];W[do];B[il]
;W[ra];B[rg]C[Again better safe than sorry, altought i was probably -1point gote. :(

Yes, you are still safe, but would need to act if w did something with his 2 stones.]
;W[ks];B[ls];W[os];B[js];W[is];B[ms];W[da];B[fa];W[hj];B[gk]
;W[gj];B[fj]LB[ij:A]C[
This is worth no points. A instead.];W[ij];B[ik];W[ji];B[kj]
;W[oe];B[pe];W[ei];B[io];W[gm];B[di];W[fi];B[dj];W[hg];B[ig]
;W[ih];B[if];W[qa];B[sb];W[mf];B[of]LB[cn:A]C[
This is plain gote. A is better because it is reverse sente.]
;W[cn];B[bm];W[mb];B[ks];W[eh]C[
This is dame.];B[fe];W[im]C[
So is this.];B[ge];W[hl];B[jl]C[
You can wait for w's atari. He isn't going do anything here.]
;W[nf];B[pc];W[sa];B[tt];W[tt]C[Thanks again for the review :)]
;B[tt]TB[ai][aj][ak][al][am][an][bi][bj][bk][bl][ch][ck][ga]
[ha][hb][ic][jk][jo][kk][kl][km][kn][kp][kq][lk][ll][lm][ln]
[lo][lp][lq][lr][mk][ml][mm][mn][mo][mp][nk][nl][nm][nn][no]
[np][ol][om][pi][pk][pl][pm][qd][qe][qf][qg][qh][qi][qj][qk]
[rd][re][rf][rh][ri][rk][sc][sd][se][sf][sg][sh][si][sj]TW[aa]
[ab][ac][ad][ae][ar][as][ba][bb][bc][bd][be][br][bs][ca][cb]
[cc][cd][ce][cq][cr][cs][dc][de][df][dp][dq][dr][ds][ec][ed]
[el][em][en][eo][ep][er][es][fg][fl][fm][fn][fo][fp][fq][fr]
[fs][gh][gi][gn][gq][gr][gs][hi][hq][hr][hs][ii][na][nh][oa]
[pa][pr][ps][qq][qs][ro][rp][rq][rr][rs][sn][so][sp][sq][sr]
[ss])
(;B[dl];W[cl]
(;B[el];W[bm];B[cn];W[co]C[
ouch!])
(;B[bl];W[el];B[dk])))
(;W[dg];B[eh];W[eg]))
(;B[qq];W[pq];B[oq];W[pr];B[or];W[qr];B[jq];W[op];B[np];W[oo]
;B[no];W[on];B[cj]))
(;B[rb];W[ra];B[rc]))
