(;FF[4]GM[1]SZ[19]ST[2]CA[UTF-8]AP[SGFC:1.15]

PB[GOvernor]
BR[1k]
PW[go4fun]
WR[1k]
KM[6.5]
DT[2004-08-13]
PC[The Kiseido Go Server (KGS) at http://kgs.kiseido.com/]
RE[B+Resign]
TM[60]
OT[25/600 Canadian]
RU[Japanese]

C[Dear reviewer.
Thanks a lot for your time in advance.
I played white in this game.

I felt quite comfortable in the beginning. But after losing the Ko, I thought I felt behind.

Please can you tell me where were my basic errors. I am mostly interested in the beginning and the middle game. My endgame was poor.

regards
Peter (go4fun)

dear reviewee,
i enjoyed reviewing this game.

too many of your sequences end up giving away stones to give your opponent strong shapes. this is one of your biggest problems. see moves 44, 140, 150, and 180. having a sense of sacrifice is good, but these are places where you give away key stones that make your opponent strong, when you didn't need to. if you try to change this feeling you will get much stronger.

missing a couple of life and death problems could have turned the game around, so i suggest that you study some basic life and death.

cheers,
adum];B[pd];W[dp];B[qp];W[dc];B[de];W[qf];B[qh];W[qc];B[qd]
;W[pc];B[od];W[rd];B[re];W[rc];B[qe];W[nc];B[fq];W[iq];B[cq]
;W[dq];B[cp];W[do];B[dr];W[er];B[cr];W[eq];B[cn];W[op]C[good]

(;B[fd];W[ce];B[cf];W[cd];B[df]
(;W[qj]C[good idea to not finish the joseki in the upper-left. F18 is not a good move now due to O17. however, this move seems a little overly aggressive. black is not weak]
;B[ql]C[now it's black attacking white, not white attacking black]
;W[of];B[rf];W[qg]C[i don't like this move, because you end up with bad shape. you know the proverb, "hane at the head and foot of two stones"? well, here you help your opponent to do just that. however, i'm having trouble figuring out exactly what you should have done. i think people sometimes attack at S14 instead of P14.]
;B[rg];W[ph];B[qi];W[pi];B[pj]
(;W[pk]C[this move is impossible. you can't have both sides.]
;B[oj];W[qk];B[pg]
(;W[og]C[maybe it's better not to play here at all. i have suggested some options. it's a tough fight]
;B[pf];W[ni];B[ok];W[pl];B[qm];W[ol];B[mk];W[li];B[nl];W[on]
;B[mn];W[mq];B[po];W[nn]C[good answer]
(;B[nm]C[this move is bad because it induces white to fix at Q6]
;W[pn];B[qn]
(;W[pq]C[this is a little slow...];B[lq]C[go4fun: Up to this point I felt quite good.

it feels about even to me];W[mp]C[this is a great exchange for white. black could be in trouble.]
;B[dn]C[this move is saying that black does not believe white can attack]

(;W[fp];B[ko];W[qq];B[rq];W[rr];B[rp];W[lo];B[ln];W[kn]C[go4fun: I thought I had to fight now, because any advantage I may have will be gone, if black's one weak group becomes secure.

this is a good cut for white. black cannot hope to save both sides without a white mistake]
;B[jo];W[km];B[kk];W[im];B[lp];W[mo];B[ll];W[ho]C[good. black cannot live, unless i'm misreading the aji on the outside]
;B[jq];W[ir]C[good];B[mr];W[nr]C[good];B[kr]
(;W[ms]C[no need to play this ko. see variation];B[ls];W[lr]
;B[in];W[hn];B[mr]
(;W[rk];B[ns];W[sm]C[good];B[sr]
(;W[qr];B[oo];W[no];B[sn];W[sl];B[pp]
(;W[or]C[go4fun: Maybe I should have ignored the threat and play S6 instead?

yes. that would have killed. this is the second time you've missed a life and death situation unfortunately =( each time would have earned you 35 points -- probably enough to win the game.]
;B[ro];W[ik]C[now that black has lived with both groups, it's a tough game for white. it's hard to attack L9 because the white group above is still weak]
;B[hm]
(;W[il];B[jj];W[hi];B[jh];W[nd];B[ne]C[go4fun: From now on I felt uncomfortable. And at last I lost.

your position is difficult now. these stones are very heavy.]
;W[me];B[mf];W[lf];B[oe]
(;W[lg];B[md];W[le];B[oc];W[pb];B[ob]
(;W[ra]C[playing these kinds of moves is tantamount to resigning. you might as well try to fight if there's still a chance for that]
;B[mh];W[mg];B[ig];W[mc];B[gg];W[dj];B[gm]C[black is greedy]
;W[en];B[em];W[dm]
(;B[fn]
(;W[co];B[eo];W[bo];B[kh];W[ch];B[bg]C[black is giving you chances to get back in the game -- but you need to kill this group]

(;W[bh];B[bk];W[cl];B[bl];W[bm];B[cm]
(;W[bn]C[i don't like giving up that stone];B[dl];W[ck];B[dk]
;W[cj];B[ej];W[ei];B[fi];W[fj];B[ek]
(;W[fh]C[this isn't going to work];B[di];W[ci];B[eh]C[black has won with this group becoming safe]
;W[lh];B[kj]C[totally unnecessary];W[ic];B[eb];W[db];B[be];W[bd]
;B[lc];W[ld];B[kc];W[jd];B[mb];W[nb];B[na];W[lb];B[md];W[ec]
;B[kd];W[jf];B[ke];W[jg];B[ih];W[je];B[fc];W[hf];B[nf];W[gi]
;B[ei];W[hg];B[hh];W[gh];B[fg];W[ff];B[eg];W[ed];B[gf];W[he]
;B[gb];W[hc];B[if];W[ie];B[ge];W[oi];B[ij];W[mj];B[nk];W[io]
;B[jn];W[jp];B[kp];W[ip];B[jr];W[lm];B[mm];W[ae];B[hd];W[jb]
;B[hb];W[ng];B[nh])
(;W[eh];B[gj]))
(;W[dl];B[bn];W[cj]C[but this is painful for white anyway.]
))
(;W[dl]C[this is pretty key. now black doesn't have eyeshape]
))
(;W[eo]C[you must connect this]
(;B[co];W[el])
(;B[dl];W[co])))
(;B[co]C[black should just connect]))
(;W[ig]C[you have to try something or the game is lost]))
(;W[mg];B[nf];W[kg]C[this makes it hard for black to cut you.]

(;B[le];W[md];B[kf]C[this is too aggressive];W[lg];B[je];W[jf]
;B[ke];W[jg])
(;B[md];W[le];B[oc];W[ig]C[maybe you can attack over here -- it's worth a shot at this point!]
)))
(;W[gm]C[play this inducing move first];B[hl];W[il]C[now black's two stones are heavier than just the one before]
))
(;W[rn];B[oq];W[or]C[black is dead.]))
(;W[qs]C[this usually makes better eyeshape]))
(;W[ns]C[this also kill, probably];B[jr];W[js];B[ip];W[hp];B[io]
;W[kp];B[jm];W[jl]))
(;W[ls]C[how about this move to kill?]
(;B[in]C[black can't get out];W[hn];B[jm];W[jn];B[io];W[jl]
;B[hp];W[ip];B[hq];W[jp];B[kp];W[lr])
(;B[ks];W[ms])
(;B[ms];W[ks])))
(;W[kk]C[it's going to be a tough run out for black]))
(;W[kk]C[white can attack here]))
(;B[lm]C[since black takes gote anyway, it's better to have a stone here than on O7]
))
(;W[rl]C[maybe here])
(;W[pn]C[or here, something like this]))
(;W[rj];B[rh];W[nh]C[fix the shape, make black go back and take care of the side in gote. this is as much as you can get out of this situation.]
))
(;W[pn]C[this seems pretty good, and safe]))
(;B[pn]C[a black move here can't be wrong]))
