(;FF[4]GM[1]SZ[19]ST[2]CA[UTF-8]AP[SGFC:1.15]

PB[jyuushi]
BR[13k]
PW[OmShanti2]
WR[12k]
KM[0.5]
DT[2004-08-27]
PC[The Kiseido Go Server (KGS) at http://kgs.kiseido.com/]
RE[B+24.50]
TM[2700]
OT[1x20 byo-yomi]
RU[Japanese]

C[Hi, it's my first time requesting a review. Here I played as black side. I've added some questions, please answer them all and some comments for my good or bad move would be very helping though. If you don't mind, it would be great to have some variation for the explanation. Thank you very much for the review.

Best regards,

Jyuushi

Hi Jyuushi,
my comments will be marked with <tomjk> which is my username on KGS and IGS.
I hope my comments will be useful to you.];B[pc]C[jyuushi [13k?\]: hi
OmShanti2 [12k\]: hi and have fun];W[dp];B[qp];W[cd];B[ec];W[ed]

(;B[dd]C[Q#1 : Is this move all right? My idea was I didn't want white to have too thick wall, as there is a stone in D4. But white did get a thick wall there though.

<tomjk> White has played first in this corner and therefore you should not expect to get too much at the moment here. It is ok to grant white a wall .. as exchange black gets a wall on it's own.

Your move is not so good, as with the next move white can put your stone in atari and you must respond to avoid being captured.
Please see the variation for a possible "normal" continuation.]
;W[de];B[dc];W[fd];B[cc]C[<tomjk> white gets a nice wall and black is small in the corner. It is important to be not closed into the corner in the beginning of the game.

Try to think of your stones and groups as parts of a team which must throughout the game work together. The more teammembers can reach each other, the more power you have.]
;W[ce]
(;B[cn]LB[ch:B][ck:C][dk:A]C[<tomjk> this is not so good. White now gets to pincer your stone with a move around "A" which is also a good extension from the wall above. Better play here at "C" yourself. This way you can either extend to your actual move or to "B" if White responds locally.
See also variations.];W[ck]LB[dk:A]C[<tomjk> "A" works better with the upper wall and is more oriented into the center.]

(;B[cq]LB[ci:B][di:C][en:A]C[<tomjk> I would have considered also "A", with in mind to later invade at "B" or reduce at "C" if white does not defend its left side after "A" is in place..
Your move is ok too I guess.]
(;W[dq]C[<tomjk> wrong side from White. should keep the black stones separated. See also variation.]
;B[cp]C[<tomjk> good.]
(;W[dh]TR[dq]C[<tomjk> too slack. White shows that he is afraid of an invasion. White should first continue in the lower left corner and try to seal black in. However the result is anyway not good for white, because the marked white stone was played from the wrong side.
See variation ...];B[en]C[<tomjk> very good!];W[hq]LB[oq:A]
C[<tomjk> this is a good result. White has low positions on the left side and also on the bottom. Black should now make a shimari at "A" for example.]
;B[fp]LB[fq:A]C[Q#2 : What about this move?

<tomjk> too early right now. There is no urgency playing this move as white is quite safe here. Though white will likely respond, so you don't loose sente.
However this way you force White to play at "A", which you maybe wanted to play yourself later... so you move settles a position which is better left open for the meanwhile, as it has potential to be used in the different way later on.]
;W[fq];B[eq];W[ep];B[gq];W[er];B[gp];W[gr]LB[gn:A][hp:B]C[<tomjk> this accomplished nothing. White gets a rock solid position, captures a stone and Black ends up with three stones which have only three liberties ... Black need connect them with "A" now or push with "B".]
;B[hp];W[iq];B[ip];W[jq];B[lq]LB[nq:B][oq:A]C[<tomjk> sufficient to play at "A". Black gained already enough on the lower side by pressing the white stones. The played black stone is weak against the white formation on the left side. Consider White playing at "B" and you see yourself.]
;W[qe]C[<tomjk> good.];B[od]C[<tomjk> the famous shusaku move :)]
;W[qh]
(;B[pf]C[<tomjk> Since there is no black stone at "A", Black should play at "B" to give White a cramped position and then extend on the top.
See variation.];W[qf];B[kc]LB[jd:B][oh:A]C[<tomjk> the idea is good, but not efficient. Black would like to play at "A". to deny White access to the center. But as you always noted, Black has no stone around "B" and can't therefore not finish off the exchange equally with White.]
;W[ic]LB[oh:A][oq:B]C[<tomjk> no need to play here now. "A" or "B" are better.]
;B[je]C[<tomjk> ok, but the trade-off is to get a small corner for Black.]
;W[fc]C[<tomjk> good.];B[bc];W[bd];B[fb];W[gb];B[ea];W[ga];B[ca]
;W[jd];B[kd];W[ie];B[jf];W[if];B[ig]C[Q#3 : Actually I was afraid of a cut at K13, but I realized 'bout it after I placed the stone. Is this ok?

<tomjk> this is ok. It is important to push White back, or else he will get too much territory here.]
;W[pg];B[of];W[qk]C[<tomjk> good.];B[qm]LB[nq:B][oq:A]TR[lq]
C[<tomjk> that is about the best Black can do here. Now Black would be happy to have the marked stone at "A" or "B" to secure off a big corner.]
;W[qc]C[<tomjk> the lower right corner seems more important now.]
;B[qd]LB[pb:A][qb:B]C[<tomjk> it is about the third time you wedge into two white stones. This does not help Black. it just solidifies White.
If you want to play here, then defend at "A" or "B" instead.]
;W[rd];B[qb]C[<tomjk> ??];W[pd];B[pe];W[qd];B[ob];W[mg];B[og]
;W[oh];B[nh]
(;W[mh]LB[ng:A]TR[pe][of][pf][og]C[Q#4 : What will actually happen if w go o13 instead of n12 here? (I was quite afraid too...)

<tomjk> you are right to be afraid. White O3 ("A") would be better here, as Black is short of liberties (marked stones). See variation.]
;B[oi];W[ph];B[mi]
(;W[pj]LB[ng:A][ok:B]C[Q#5 : Should white move here? Or L12 is better one?

<tomjk> White should definitely first play "A" (O13) and then still has time to defend the left side. The actual move is too cautious. Also "B" is possible here.
See variation.];B[li];W[hg];B[ih];W[fh]C[Q#6 : I think white went too easy on me, didn't he?

<tomjk> yes definitely. See previous variation on how White could have split up your position on the upper side.]
;B[hh];W[gg];B[gj];W[nk]LB[jp:A][oq:B]TR[lq]C[<tomjk> maybe first "A", then attack the marked stone with "B". Later then this move.]
;B[ol];W[ok];B[pl]C[<tomjk> good for Black. White helps Black to build big territories.]
;W[nj]C[<tomjk> not a real threat anymore.];B[lk]C[<tomjk> very good.]
;W[ni];B[ng];W[ml];B[ll];W[fl];B[el]LB[gl:A]C[<tomjk> a little bit greedy now. Black is ahead in territory. is sufficient to block at "A" to win the game. Proverb: "if you are ahead don't start unnecessary fights."]
;W[ek]C[Q#7 : Is this right? I thought b would have hard time if w answered at F9.

<tomjk> yes, F9 looks better for White.];B[fk];W[fj];B[gk];W[dl]
;B[em]LB[ej:A]C[<tomjk> White has efficiently helped Black to build a nice wall. Also leaves a double-atari threat at "A".]
;W[gi];B[hi]C[<tomjk> good.];W[ej];B[ko]LB[bl:A][rl:B]C[Q#8 : Since about 10-20 moves before I've been thinking to move here. When is actually the best time to do this?

<tomjk> yes. Perfect timing. Other equal big moves would be "A" or "B".]
;W[oq]C[<tomjk> too late for White. At best White can live with two eyes in gote, but most likely will die here.]

(;B[mm];W[qq];B[rq];W[mq];B[lp];W[pr];B[pp];W[nr];B[lr];W[os]
;B[qr];W[pq];B[rr];W[mr];B[ms];W[np];B[op];W[mp]LB[mm:A][qr:B]
C[Q#9 : Actually from the beginning I'd let him to make 2 eyes there while I build some thickness in lower right and a chance of a monkey jump , but would it have been possible to kill white here? ( if I answer correctly since the first w invasion here)

<tomjk> yes you can kill White here. Instead of the black stone at "A" you could have played immediately "B".
However then you would not be able to get into the lower side so far. So to play "A" is a decision which results in a trade-off: "White lives and Black reduces the lower side". I don't know what is better. I show a variation starting at "A", which I would have played.]
;B[is];W[hs];B[js];W[jr];B[ks];W[mn];B[ln];W[nm];B[lm];W[nl]
;B[cr]LB[bl:A]C[<tomjk> "A" is bigger now.];W[dr]LB[bm:C][dr:B]
[fs:A]C[<tomjk> no need to respond. Two eyes for White with "A" if Black at "B". "C" is big for White now.]
;B[bl]C[<tomjk> very good!];W[bk];B[cl]LB[rl:A]C[<tomjk> first "A" now. then you can still go back here.]
;W[pn];B[on];W[om];B[pm];W[oo];B[qn];W[po];B[qo];W[nn];B[rb]
LB[rl:A]C[<tomjk>"A" is bigger.];W[fa];B[eb];W[cs];B[bs];W[ds]
;B[br];W[eo];B[fo];W[co];B[bo];W[do];B[jb]C[<tomjk> good.];W[ib]
;B[jc];W[id];B[qs];W[ps];B[dn]C[<tomjk>good.];W[al];B[bm];W[am]
;B[an];W[ak];B[gh];W[fi];B[fg];W[ff];B[eg];W[ge];B[ad]LB[rl:B]
[dm:A]C[<tomjk> first "A" then "B". Both are sente. "A" is worth 4 points (2 points in sente)..]
;W[ae];B[ac];W[rl];B[rm];W[sl];B[sm];W[ql];B[pk]C[Empty move. I feel I embarassed myself.

<tomjk> it seems you could improve your endgame considerably. Try to find sente moves first, then play gote moves which would be sente for your opponent. Then only play sente moves.
As a rule of thumb: sente moves count double they points they make, gote moves count the points they make.]
;W[sc];B[ia];W[ha];B[ja];W[dm];B[gc]LB[hb:B][hc:A]TR[ib][ic]
[id][jd][ie][if]C[Q#10 : Is there any chance that this move would work? I thought if w h18,b h16, then if white answer with h17 or tenuki, he'd be troubled with h14 since it is a double atari.

<tomjk> there is no way that white would tenuki here and why should he play "A" if he has connected already at "B"?
Anyway, the white marked stones have too many liberties ... to danger here.]
;W[hb];B[hd];W[gd]LB[he:A][ef:B]C[<tomjk> White can play also "A" or "B". Has many ways to respond.]
;B[hf];W[gf];B[jg];W[mo];B[sb];W[rc];B[fs];W[fr];B[bn];W[jp]
;B[jo];W[lo];B[kp];W[mj];B[lj];W[hr];B[ls];W[tt];B[tt]TW[gc]
[hc][hd][sd][be][ee][fe][he][re][se][af][bf][cf][df][ef][hf]
[rf][sf][ag][bg][cg][dg][eg][fg][qg][rg][sg][ah][bh][ch][eh]
[rh][sh][ai][bi][ci][di][ei][oi][pi][qi][ri][si][aj][bj][cj]
[dj][oj][qj][rj][sj][rk][sk][on][no][eq][nq][or][es][fs][gs]
TB[aa][ba][da][ka][la][ma][na][oa][pa][qa][ra][sa][ab][bb][cb]
[db][kb][lb][mb][nb][pb][lc][mc][nc][oc][ld][md][nd][ke][le]
[me][ne][oe][kf][lf][mf][nf][kg][lg][mg][jh][kh][lh][mh][ii]
[ji][ki][hj][ij][jj][kj][hk][ik][jk][kk][fl][gl][hl][il][jl]
[kl][fm][gm][hm][im][jm][km][fn][gn][hn][in][jn][kn][rn][sn]
[ao][go][ho][io][ro][so][ap][bp][rp][sp][aq][bq][sq][ar][sr]
[as][rs][ss]C[ And if you don't mind could you please comment my play overally (such as what I should learn next or my weakness)

Thank you very much for your review.

<tomjk> You play already quite well.
But since White did in this game avoid any fighting and gave away the game easily, I cannot say anything about your fighting abilities.
The two or three  things you could improve are:
1 - direction of play in the beginning. Try to have your stones work together and don't look only at the local situation.
2 - endgame. You have still to develop a judgement of "sente", "reverse sente" and "gote" moves. Try to read something on endgame or get some reviews especially on your endgame.
3 - score estimate: you should try to estimate now and then the score on the board. If you are ahead, you should not take risks. If you are behind, than you must take risks in order to turn the game around. Estimating the score is difficult in the beginning and middle game, as not only territory, but also walls (influence) and realive position of groups do influence the possible outcome.

Try to improve in the order 1 - 2 - 3 (counting being less important to master).

Take my comments with a grain of salt - also I am still learning :) I hope my comments are useful.

Good luck and many good games!

Best wishes.
tomjk])
(;B[pq];W[mn];B[no]
(;W[kn];B[lm];W[ln];B[mm];W[jo];B[jp];W[lo];B[kp];W[mp];B[np]
;W[mq];B[nq];W[lr];B[kr];W[kq];B[lp];W[mr];B[mo];W[nn];B[nr]
;W[jr];B[ms];W[ks];B[nm];W[fo];B[eo];W[gn];B[go];W[fn];B[hn]
;W[ho];B[io];W[in];B[ho];W[hm])
(;W[mo];B[mp];W[kn];B[jn];W[lm];B[km];W[ln];B[jo]C[<tomjk> White gives up his marked stone and reduces the center a bit and then can take the lower side ...]
;W[kr];B[lr];W[ls];B[ms];W[ks];B[nr];W[rl];B[rm];W[sm];B[sn]
;W[sl];B[rn];W[nn];B[oo];W[on];B[pn])))
(;W[ng];B[ni];W[ne];B[oe];W[li];B[nk];W[kg];B[jg];W[nc];B[oc]
;W[le];B[ke];W[mc]TR[kc][kd][je][ke][jf][ig][jg]C[<tomjk> White can separate Black like this and later play on the left side. There is no imminent danger for White there. Black has now all hands full to resue his marked group which has no eyes so far.]
))
(;W[ng]
(;B[mh]C[<tomjk> if Black wants to play tough ...];W[jg];B[kg]
;W[kf];B[ke];W[ne];B[oe];W[lg];B[lf];W[lh]LB[nc:A][me:B]TR[mh]
[nh]C[<tomjk> White can wiggle out ... and then later come back to play "A" or simply "B". Black must also struggle for his two marked stones ...]
)
(;B[kg]C[<tomjk> Black can play secure here, but then White comes easily out into the center.]
;W[ne];B[oe];W[mh]LB[nc:A][me:B]C[... and can later aim at "A" or "B" since the black marked stone are still short of liberties.]
)))
(;B[qd];W[pe];B[md]))
(;W[do];B[bn];W[em]LB[ck:B][cl:C][jp:A]TR[dq]C[<tomjk> there are two reasons that blocking with the marked stone was not right:
1 - white has not stone at "A" to make his wall useful (black can now play there)
2 - white "B" should be at "C" to close black effectively into the corner.]
))
(;W[cp];B[dq];W[ep];B[bp];W[bo];B[bq];W[co];B[fq];W[dn]LB[dk:A]
TR[ck]C[<tomjk> the marked white stone should be at "A" for full effect, which also would be then the final position for a joseki.
Even if White at]))
(;B[en];W[fp];B[bp];W[cq]LB[bk:B][dk:A][ek:C]TR[ck]C[<tomjk> in the joseki with the marked white stone at "A" Black would play now at "B". Here Black can also play at "C" to attack the lone white stone and to flatten out the white position on the left side. The white wall is then not so efficient anymore.]
))
(;B[ck]
(;W[cm];B[ch]C[<tomjk> if white plays from below black can expand to the top and secure a base.]
)
(;W[ci];B[cn]TR[dp]C[<tomjk> if white plays from the top, which by the way is too close to his wall, then black can extend to the bottom, makes a base and also attacks the lone marked white stone.]
)))
(;B[fd];W[ee];B[dc];W[cf];B[ic]C[<tomjk> this is a possible joseki where black builds up a position on the top and white a position on the left side.]
))
