(;FF[4]GM[1]SZ[19]AP[SGFC:1.15]

GN[zjd-sweden2(B)]
PB[sweden2]
BR[8k]
HA[6]
PW[zjd]
WR[9d]
KM[6.5]
DT[2004-09-05]
RE[W+51.50]

AB[dd][dj][dp][pd][pj][pp];W[fq];B[cn]C[roge: to use the hancicap stones, I'll prefer to attack the white stone with a pincer like H3 or J4

roge: to use the hancicap stones, I'll prefer to attack the white stone with a pincer like H3 or J4]
;W[nq];B[hq]C[swe2: did want him to get to comfortable on lower side]
;W[qn];B[oo];W[qq];B[pm];W[fo];B[ho]C[roge: I prefer L3 : it settle a group on the bottom side while attacking]
;W[fm];B[lq];W[pq];B[qp];W[op];B[po];W[no];B[mr];W[qh];B[qj]
C[roge: R14 seems better: it puts preasure on the white stone]
;W[nm];B[om];W[rp];B[ro];W[rq];B[qo]C[roge: S6 seems to give a better shape]
;W[nc];B[qf];W[fc];B[hc]C[roge: a low pincer seems dangerous here because of O17. So I prefer J16 or K16]
;W[fe];B[cf]C[roge: D14 is better to attack the white group]
;W[id];B[ic];W[jd];B[hd];W[he];B[jc];W[kd];B[gd]C[swe2: left the joseki here, maybe stupid but came to realise that O17 may make things difficult if I followed the joseki]
;W[fd];B[ge];W[gf];B[kc];W[ld];B[hf];W[ie];B[ff];W[gg];B[ef]
;W[db];B[gb];W[fb];B[mb];W[cc];B[mc];W[pc];B[qc];W[od];B[pb]
;W[pe];B[oc];W[qe];B[nd];W[oe];B[ph];W[pg];B[oh];W[qd];B[pc]
C[roge: why do you connect? no use! instead getting the sente and attacking is better. Something like G10 treatens both the two white stones in the upper side and the three whites stone in the lower left side]
;W[cm];B[dm];W[dl];B[en]C[roge: this move seems no use: play E8 instead]
;W[fn];B[el];W[em];B[dn];W[ek];B[cl];W[fl];B[dk]C[roge: this move leave bad aji. C9 is better]
;W[jq];B[kp];W[hr];B[gr];W[gq];B[ir];W[ck];B[bm];W[bl];B[el]
;W[hp];B[iq];W[dl];B[cm];W[di];B[cj];W[ci]C[roge: now the corner is in a very big danger: it seems you loose the game here]
;B[el]C[roge: E10 seems better];W[ei];B[dl]C[roge: it is bad to connect here. E10 better]
;W[fh];B[ej]C[roge: a bit late!];W[fr];B[hs];W[cq];B[dq];W[dr]
;B[cp];W[br];B[bd]C[roge: play atari at B3 first is important for yose]
;W[cd];B[ce];W[bc];B[bh];W[bi];B[bf];W[ae];B[ad];W[ac];B[be]
;W[cg];B[dg];W[ch];B[bg]C[roge: E15 seems better to leave, because of black F13 is threatening to cut]
;W[ee]C[roge: now black is dead];B[ai]C[roge: this move only gives some more point to white]
;W[bj];B[bk];W[aj];B[fi];W[gi];B[fj];W[eh];B[gp];W[fp];B[ip]
;W[bp]C[roge: very big move. I must have play atari at B3 before]
;B[nl];W[mm];B[ml];W[ri];B[rj];W[og];B[ng];W[md];B[ne];W[nf]
;B[me];W[mf];B[le];W[lf];B[nb];W[ke];B[nc];W[bo];B[fk];W[hk]
;B[ak];W[jo];B[jp];W[lj]C[roge: it seems the game is now over: white wins.]
;B[lm]C[roge: I prefer L8 or N11 to reduce white center territory]
;W[kk];B[ll]C[roge: this move is slow. L6 is better. P2 seems also a good idea]
;W[nr];B[lh];W[mh];B[nh];W[mi];B[gj];W[hj];B[jl];W[jk];B[hm]
;W[kl];B[jm];W[mo];B[rc];W[rd];B[hl];W[mq];B[lr];W[sj];B[sk]
;W[si];B[rk];W[qi];B[pi];W[rf];B[nj];W[ko];B[ln];W[lo];B[mg]
;W[lg];B[lc];W[sc];B[kf];W[if];B[sb];W[sd];B[rb];W[ni];B[mj]
;W[li];B[kh];W[hi];B[ns];W[os];B[ms];W[or];B[sp];W[sq];B[so]
;W[lk];B[mk];W[ga];B[ha];W[fa];B[gc];W[oi];B[oj];W[fs];B[gs]
;W[km];B[go];W[lp];B[bn];W[kn];B[ik];W[ij];B[il];W[in];B[hn]
;W[eq];B[io];W[jn];B[eo];W[an];B[am];W[ao];B[co];W[on];B[pn]
;W[nn];B[tt];W[tt])
