(;FF[4]GM[1]SZ[19]ST[2]CA[UTF-8]AP[SGFC:1.15]

PB[Deagle02]
BR[12k]
PW[Cicero]
WR[10k]
KM[0.5]
DT[2004-08-23]
PC[The Kiseido Go Server (KGS) at http://kgs.kiseido.com/]
RE[B+Resign]
TM[660]
OT[5x17 byo-yomi]
RU[Japanese]

C[Hi,
I will prefix my comments with "chris: ". First of all you won by 50 pts so what is the point in requesting a review? Obviously you werent the one making the bad mistakes!
Im just going to give some pointers where you might have played better, although it wont be very useful, i think.]
;B[qp];W[cd];B[pd];W[dq];B[qj]
(;W[qg]C[chris: this is wrong by white.]
(;B[qe]C[chris: and this is bad by black. yes you get the corner, but its too slow.]
;W[qi];B[pj];W[pi];B[pm]C[chris: this is terribly played by white. no wonder B won. B is settled on both sides and has no weaknesses. w is small and has no terretory.]
;W[rd]C[chris: ?]
(;B[qc];W[re];B[ld];W[ed];B[cn];W[co];B[bn]
(;W[bo];B[cj];W[cl];B[dm];W[dl];B[bl];W[fl]
(;B[bk]
(;W[em];B[do];W[cp];B[cg];W[ic];B[nq];W[oq]C[Deagle02 [12k\]: was white getting greedy here??? 
Deagle02 [12k\]: this just seems premature???  am i correct... and are one of the variations better to use???  insead of hane???]

(;B[op]C[chris: hane is the only way.];W[pq];B[pp];W[rr]
(;B[qq];W[qr];B[or];W[pr];B[nr];W[rq];B[rp];W[np];B[mp];W[no]

(;B[oo];W[mo];B[lp];W[lo];B[kp];W[on];B[pn];W[sp];B[sq];W[sr]
;B[so];W[ro];B[sn];W[rn];B[sm];W[rm];B[sq];W[rk];B[rj];W[pl]
;B[ql];W[om];B[rl];W[sp];B[sl];W[qo];B[po];W[lb]
(;B[mc];W[mb];B[nb];W[lc];B[md];W[kd];B[lg];W[ol]
(;B[ps]LB[bd:D][gd:A][sg:C][mm:F][eq:E][hq:B]C[Deagle02 [12k\]: where would a bettter stone be played...  this seems early and unecessary here>>>>
chris: this moves terrible. it doesnt do anything at all. w was dead beforehand. i marked a couple of good points to aim at.]

(;W[ri];B[sj];W[oj];B[ko];W[kn];B[hq]LB[gq:A]C[chris: now that u have such a wall you can extend safely to A.]
;W[fq];B[eg];W[ie];B[pf];W[qf];B[pg];W[ph];B[ej];W[ig]
(;B[in];W[jn];B[jo];W[io]C[Deagle02 [12k\]: greed/despiration again or is this weak for black and i should not have done knights move on J6???
chris: i dont see your problem.]
(;B[hn];W[ip];B[iq]
(;W[jr];B[jq])
(;W[jq];B[jp];W[mq];B[lq];W[mr];B[lr];W[qs];B[ms];W[os];B[hp]
C[chris: so where was the problem inb this sequence?];W[qk]
;B[pk];W[ok]LB[lj:A]C[Deagle02 [12k\]: an extension for Black to M11 or J8 or something from the D11 group seems strong right now.
chris: dont regard it as an extension but as a reduction of W's moyo.]

(;B[qm]C[Deagle02 [12k\]: i see this isnt needed either...  just getting nervous because I cant see how im in so much control and letting white lead me to a win???]
;W[si];B[sk];W[ni];B[ng]LB[li:A]C[chris: not so good. better reduce at A.]
;W[li];B[fo];W[hl];B[il];W[ik];B[jl];W[kl];B[jk];W[kk];B[jj]
;W[kj]C[chris: why not kill now?]
(;B[en]
(;W[ji];B[hk];W[ij];B[gk]
(;W[gl];B[im];W[fk];B[hj];W[ii];B[fj]C[chris: now the game is practically over and cicero should have resigned. Now if you win by killing such a large group, dont submit the game to brag. there is not much to learn from it.
hope you at least saw some hints.
Cya chris];W[dj];B[di];W[dk];B[ei];W[go];B[ho]
(;W[gn];B[gp];W[fp];B[fn];W[gm];B[dn];W[cm];B[bm];W[ci];B[bi]
;W[ch];B[dh];W[hi];B[gj];W[bf];B[bg];W[cf];B[gg];W[gf];B[ff]
;W[ge];B[fe];W[fd];B[hg];W[hf];B[gi];W[rc]C[Deagle02 [12k\]: at this point is black doing the right moves????]
;B[qb];W[rb];B[ke];W[je];B[kf];W[df];B[kc];W[kb];B[jd];W[jc]
;B[kd];W[id];B[km];W[lm];B[jm];W[ln];B[gr];W[fr];B[dp];W[cq]
;B[kh];W[lh];B[ki];W[jh];B[kg];W[jg];B[mi]C[Deagle02 [12k\]: i wasnt sure what this stone was going to do...  i wanted to play like this variation]

(;W[mh];B[nh];W[mg];B[lj];W[mj];B[mf]
(;W[lk];B[oh];W[oe];B[pe];W[nf];B[of];W[ne];B[me];W[ob];B[na]
;W[qa];B[pb];W[pa];B[oc];W[oa];B[ra];W[sb];B[qa];W[qd];B[ma]
;W[jb];B[ee];W[de];B[jf];W[if];B[ep];W[eq];B[gs];W[fs];B[dg]
;W[ag];B[ah];W[af];B[ao];W[ap];B[an];W[sa];B[la];W[ka];B[hh]
;W[fh];B[ef];W[oi];B[og]C[Deagle02 [12k\]: ty for the game
Deagle02 [12k\]: thank you for looking this over!!! ;)])
(;W[mi]))
(;W[mj];B[mh];W[lj]C[Deagle02 [12k\]: now i see there was not an option...  i just over looked it]
))
(;W[gp];B[gn]))
(;W[im]C[chris: better]))
(;W[ij];B[hk];W[gk];B[hj];W[gj];B[hi];W[gi]
(;B[gh])
(;B[ii];W[gh];B[hg];W[hh]
(;B[gg])
(;B[ih];W[hf];B[gg];W[fg];B[gf];W[ge];B[ff]C[chris: still dead.]
))))
(;B[hi];W[en];B[eo];W[dn];B[cm]))
(;B[li]
(;W[qm];B[qn])
(;W[si];B[sk]))))
(;B[ho];W[ip];B[hn]C[chris: how is w supposed to do anything?
hes dead.]))
(;B[io];W[jn];B[jo];W[in];B[ho]))
(;W[os];B[ns]))
(;B[tt];W[ps];B[rs]))
(;B[kb];W[kc];B[lc];W[jb];B[mb];W[ka]C[chris:  stop him in sente]
))
(;B[lq]C[chris: better shape]))
(;B[nr]
(;W[rp];B[ro];W[qq];B[sp];W[rq];B[qs]C[chris: dead.])
(;W[or];B[qr];W[qq];B[rq];W[rp];B[sq];W[sp];B[os];W[sr];B[rq]
;W[sq];B[pr];W[rq];B[ps]C[chris: now W has to fight a lot for life.]
)))
(;B[np];W[op];B[oo]
(;W[qq];B[rq];W[pp];B[qo]
(;W[qs])
(;W[rr])
(;W[qr];B[rr];W[po];B[on];W[pn];B[qn];W[or];B[nr]))
(;W[nr];B[mr];W[pr];B[rr];W[qr];B[qq];W[rs];B[sr];W[qs];B[ns]
;W[os];B[or])))
(;W[cm];B[dn];W[bm];B[am]))
(;B[cm];W[bk];B[ck];W[al];B[bm];W[bj];B[bi];W[ci];B[aj];W[ak]
;B[am]))
(;W[dn];B[cl];W[jp]C[chris: huge for W.]))
(;B[re];W[pc];B[qc];W[rc];B[qb];W[oc];B[od];W[nc];B[nd];W[lc]
;B[mc];W[mb];B[md];W[nb]
(;B[ld])
(;B[kd]C[chris: i dont see the problem. W lives small and B gets perfect thickness. btw: w is not alive yet so he has to answer]
;W[kc];B[jc];W[jb];B[jd];W[ib];B[ni]C[chris: and now its very likely that these stones will die.]
)))
(;B[nc];W[rd];B[re];W[qe];B[qd];W[rf];B[rc];W[se];B[do]C[chris: Here you can take sente and the corner terretory.]
))
(;W[nc];B[lc];W[ne];B[pf];W[kd];B[ld];W[le];B[kc];W[jd];B[jc]
;W[hd]C[chris: this is way better. and it uses the fact that blacks stones are quite cramped togeter. there is still reduction potential, so w can be happy with outside influence.]
))
