(;FF[4]GM[1]SZ[19]AP[SGFC:1.15]

GN[PANDA-NET]
PB[fifthdawn]
BR[20k]
HA[0]
PW[Robot7]
WR[7k]
KM[0.5]
DT[2004-08-27]
PC[PANDA-NET]
RE[B+1.5]

C[Dear reviewer. First, let me thank you for spending your time on helping me in this game. I play black in this game.  

At the beginning, I had no problem keeping up(I think), but I may have some problems with the opening, so please tell me if i do. To me the problem arise when the game progress towards the middle game, where I became clueless on where to play next, could you please give me some suggestions? Also at end game, I had problems keeping sente. These problems of keeping sente and knowing where to go during middle often arise during my games, so tips on playing during that could help too. :)  

I think I have caught some of my simple errors, but please show me where I played wrong.  

Thanks again for reviewing this game.  

cheers Kevin (fifthdawn)];B[pp];W[dq];B[co];W[ep];B[pd];W[dn]
;B[ck]LB[cn:A][cm:B]C[Here the answer for white is A (c6) so black stones awill be cut then the corner will be white. So your stone 7 (C9) is too far from stone 3 (C5), you'd better play an ikken tobi at B.  So it is the way to be sente next. a weak play like 7 (C9) makes you gote next as you will have to answer to white pressure.]
;W[cn];B[dd]LB[ch:A]C[I think here, as your stone 7 (c9) is weak , a play like a (c12) protect for white at  a (c12).
yes you will not have big points with C12 but you will have a base. so next you will be able to attack]
;W[cf];B[ce];W[df];B[fd];W[hc];B[ch];W[ff];B[he]C[i think h15 is good as he threatens H17 and cut white in two groups]
;W[kc];B[mc]TR[cf][df][ff]LB[pj:A][jp:B]C[as white L17 give life to white, a play like A (Q10) or B (K4) is better   your two first plays Q16 and Q4 needs help now . A (Q10) is better as he give more points : you have either north or south for bulding moyo. An other way is to look at three stones white delta at C14,D14 and F14 and plan to eat them with G13. But here also Q10 is a good way to look at three stones delta]
;W[pn]C[as your answer to white L17 let Q4 alone, white take the sente]
;B[pj]C[this a not the good time to play here];W[qf];B[qd];W[np]
C[white plans would be the south];B[oo];W[qq];B[qp];W[pq];B[on]
;W[oq];B[mn];W[jq];B[jn]LB[qh:A][pg:B]C[Would this be better at K5? or should I have played somewhere else? ------ i think here, i try to keep sente playing to frighten R14   a move like Q13    
--
K6 or K5 doesn't give a big move, they plans to invade south , but keep in mind right corner and left corner are safe for this time, so B (Q13) is better than K6 , and A (R12) better than Q13. With R12 white has two choice either save R14 either save Q6. So it is the way to be sente.]
;W[of]C[I was trying to think of a way to attack the R14 and P 14 groups, should I have attacked it? if so where will be a good place to attack?  

my next move is what i did, but i dont think it helps much.... ----------- to answer to P14, i would play R12  

white will the go n14 ,but with no points  

and after you can stabilise north-east corner
so the good idea is to take points on east];B[me];W[fb];B[ec]
;W[pm]C[as you have not given help to R10 before , white can run out]
;B[ol];W[ng]C[At this point, I had no clue where to play, where will be a good place to play?  

white can play R11 next];B[kf];W[mf];B[qh];W[ph];B[pg];W[oh]
;B[qg];W[qk];B[rn];W[pf];B[qi];W[rm];B[qm];W[ql]LB[qn:A]C[thanks white for the mistake . A white play at a (r6) robs black plans for east]
;B[qn];W[ne];B[nd];W[ei];B[ek];W[eb];B[db];W[lp];B[rf];W[re]
;B[rg];W[ho];B[mi];W[le];B[md];W[ni];B[nj];W[mh];B[kh];W[li]
;B[lh];W[lf];B[mj];W[ke];B[jf];W[kj];B[jj];W[kk];B[jl];W[jk]
;B[il]C[This was a mistake right? it should have been at j9 i think.  

J9 is not a good idea, it plans atari on K10 and the issue is complicated but white will run out]
;W[kl];B[ik];W[ji];B[ij];W[de];B[bd];W[bf];B[ki];W[fh];B[hh]
;W[hf];B[if];W[ci];B[bi];W[dh];B[cj];W[eg];B[di];W[gg];B[hg]
;W[lb];B[mb];W[rp];B[ro]C[arould at this time, i have trouble keeping sente i dont see places that forces white to respond, tips on playing at this phase of the game could help.

to get sente here, you have to play before for it.];W[rq];B[rl]
;W[od];B[oc];W[oe];B[fn];W[qe];B[rd];W[fo];B[bm];W[bn];B[eo]
;W[gn];B[gm]C[the right way for white is to eat i think a play like white E6 would be hard . So to be sente, again : don't play weak , don't let you weak stone under attack]
;W[bp]C[thanks to white for this play, black can now play strong]
;B[en];W[hm];B[hl];W[fm];B[em];W[gl];B[fl];W[gm];B[gk];W[do]
;B[fp];W[go];B[eq];W[dp];B[hq]C[I tried to live here... it didnt work out well maybe i attacked too late.
yes too late and almost to near white wall
J4 would be better, but complicated 
K3 is a good way to pressure];W[gq];B[gp];W[hp];B[fq];W[gr]
;B[hr];W[er];B[jp];W[kp];B[ko];W[dm];B[ip]TR[fq][fp][gp][eq]
SQ[em][en][eo][fn]C[here both delta stones and squared are atari so, no chance to save H2,H3]
;W[iq];B[el];W[bl];B[cl];W[cm];B[bk];W[am];B[id];W[ic];B[gc]
;W[lg];B[kg];W[gb];B[ee];W[gf];B[ge];W[fi];B[gi];W[da];B[ca]

(;W[ea];B[cb];W[ma];B[na];W[la];B[ob];W[oj];B[ok];W[oi];B[og]
;W[be];B[cd]C[starting from here, white takes alot of points through sente... is there a way to counter this?]
;W[sd];B[sc];W[se];B[qc];W[ad];B[ac];W[ae];B[bb];W[dj];B[ci]
;W[ej];B[fj];W[bg];B[ah];W[fc];B[gd];W[in];B[jm];W[jo];B[io]
C[A snapback mistake... ----  

about timing, this happens when you play too fast];W[jo];B[mo]
;W[lo];B[ln];W[no];B[nn];W[mp];B[op];W[so];B[sn];W[sp];B[cg]
;W[dg];B[ag];W[kn];B[km];W[ko];B[lm];W[ld];B[lc];W[jd]C[white big mistake
white has to play K18 here];B[kb];W[jb];B[ka];W[sf];B[sg];W[bh]
;B[ai];W[je];B[ie];W[ja];B[gh];W[ef];B[fe];W[ak];B[aj];W[al]
;B[pe];W[nf];B[pi];W[nh];B[im];W[dl];B[dk];W[hd];B[af];W[tt]
;B[tt];W[tt]C[I'd like to thank you one last time! Thank you very very much!!]
)
(;AW[cc]
(;AB[dc]AW[cd])
(;AB[cd][ea]AW[dc][cb]AE[da])))
