(;FF[4]GM[1]SZ[19]AP[SGFC:1.12]C[
 ran 11k*: sorry
 ran 11k*: how do you do
 lucy 12k*: fine, thx]US[Brought to you by IGS]GN[ran-lucy(B) IGS]RE[W+Time]
PW[ran]WR[11k*]PB[lucy]BR[12k*]PC[IGS:  igs.nuri.net 6969]DT[1997-01-20]
TM[900]KM[0.5];B[pd];W[qp]C[
 lucy 12k*: adjourn and watch game 35 ok :)];B[dc];W[dp]C[
 lucy 12k*: nice game :)];B[ce];W[op]C[Moves up to 6 excellent.];B[jd]C
[Black 7 is a fine point that is hard to criticize.  But white 8 is also excellent.  One would be tempted to play black 7 at white 8  as it is an extension both from Q16 and stops t
he extension from the white shimari, thus a double purpose move.  Whereas K16 is only a single purpose move.  But a darn good single purpose move.]
;W[pj]
(;B[fq]C[Black 9 is fine.  Black 9 around D10 seems to build an
ideal  moyo for black.  Since this is a no komi game, I think black
should play D10 without hesitating.  It would be hard for white to take
the lead after black D10.];W[hq]C[A
 white pincer at 10 is appropriate, to work in conjunction with the white shimari and build a moyo.  Black's choice to jump out at 11 is usally slightly inferior but here I think it is the best choice.]

(;B[fo];W[dn]
(;B[dr]C[Black 13 is a mistake.  Black should leave open the option of invading at a for later.  Also, black's shape is a little funny.  See a joseki book.]
;W[cq];B[io]C[Black 15 is, again, a little awkward shape.    Concerning white 16:  The lower side of the board is currently the direction of play.  This is white's moyo.  White should pressure the black invading stones so as to build up territory while threatening to kill.  With another move here, black could settl
e black's stones, destroying white''s moyo, and securing a comfortable lead.]

(;W[nc]
(;B[qf];W[pb];B[qc];W[kc]C[White 20 should be at M17, one space to the white.  L17 forces K17, which is a favor to black (and leaves L17 short a liberty and weak).]
;B[jc];W[ne];B[og];W[qh]
(;B[qg];W[pm];B[mg]C[See previous comments.  Black is happy.  We can conclude that Q7 was a slow move.]
;W[qb];B[rb];W[pc];B[qd];W[dj]C[Black should probably play M18.  White's upper g
roup does not look alive yet.  I don't think white can afford to tenuki.  Black could consider N16 or N17 but they do not look so good.]

(;B[dl]C[Obviously the upper and lower sides are big and the right side is not important, as previously noted.  Locally, however, D10 should have been at C10, as the stone at C15 undermines D10's high position.  Since black can settle the stones  at the bottom with another move, D10 cannot be used to attack the black stones.

Black 33 seems like an overplay.  M18 or K3 seem right.  Maybe M18 then K3, as I think black gets sente after M18.

The psotion as it stand now is pretty diffiuclt to find the biggest move.  A splitting move between black 33 and F5 seems right, though.  Black is weaker, so a contact move should be avoided.  Maybe E7 is right.  I'm not sure.]

(;W[fn];B[eo]C[I think white should block at E6.  Otherwise black E6 seems too painful.]

(;W[do];B[en]
(;W[gn]C[No go player should miss E7.  This is too big!]
(;B[go];W[dg];B[dm]C[It really seems like D7 should be at E7.  I looked ahead a few moves and black leaves this key cutting point unprotected for awhile.  This might come to haunt black.]
;W[fl]C[White 42 should probably
 cut immediately.  This cut is probably white's last chance to win.];B[bm]
C[In situations like this, C2 is usually the best move to live.]
(;W[bn];B[cm];W[dq]C[Note that white 46 forms an empty triangle.  On bad shape principles, it should be rejected unless you have _read_ an urgent need to play it.  C2 is better.]
;B[er];W[cr]C[See - the exchange
 of C2 for E3 was favorable to black.  If white played C2 first, then black played E2, there is no way white would respond with D3.  It is almost as if white has lost an entire move.]
;B[ek];W[fi];B[fk]
(;W[gd]C[G16 is in the middle of nowhere.  It almost seems like white thinks white is attacking.  It's black who is powerful here.  White needs to settle groups, not make more weak ones.  If white wants complications, and it looks like white is b
ehind and needs them, I suggest the cut at E7 which black has inexplicably left for white.]
;B[ke];W[de]C[
 lucy 12k*: is entering byo-yomi]
(;B[dd];W[cf];B[ee];W[df];B[cd]C[
 ran 11k*: is entering byo-yomi

C16 is really bad shape.  Locally B16 is better.];W[gf];B[cn]C[I don't think black has an attack against this corner, so 61 should be left unplayed.]
;W[co];B[bp];W[bo];B[br];W[bs];B[bq];W[ap];B[aq]C[There is no ko here.  White can live in a variety of ways.]

(;W[cp];B[ao];W[an]C[Note that white is still unconditionally alive in the lower left corner.]

(;B[mc]C[I'm pretty sure black 73 at N18 kills, but now I think white should be able to live.]
;W[mb];B[lc];W[lb];B[kb];W[nb]C[78 should be at P18.  Shape!]
(;B[md]C[Black 79 looks wrong.  Bad shape and unnecessary.];W[nd];B[oa]

(;W[me];B[kd];W[lf]
(;B[kg];W[lg];B[lh];W[kh]
(;B[mf];W[le];B[mh];W[ld]C[White 92 is bad.  It fills a liberty and wastes a ko threat.  Worse yet, black will play L14.]

(;B[kc];W[kf]
(;B[if];W[jf]C[White should take the black stone with 96.  Shape!]
(;B[ie];W[ig]C[
 lucy 12k*: typo

Things are now starting to look good for white, but black had to make a long series of mistakes before this point could be reached.]

(;B[gc];W[fd];B[fc];W[ed]C[
 lucy 12k*: has entered byo-yomi again];B[ec]
(;W[gl];B[gk]C[White has one last opportunity to cut, but it is missed...]

(;W[il];B[em]C[
 ran 11k*: has entered byo-yomi again

Finally black connects...];W[hk];B[kp];W[lq];B[kq];W[lr];B[pl];W[ol];B[qm]
;W[ql];B[qo];W[qn];B[rm];W[po];B[pk];W[qk];B[ok];W[oj];B[nk];W[rj];B[om]
;W[pn]C[Black seems more to have solidified whites moyo than dented it.  Blackwould have been better doing nothing rather than this.
(113-128)];B[hj];W[ij];B[gj];W[jr];B[kr];W[ks];B[ir];W[jq];B[iq];W[jp];B
[jo];W[lp];B[ko];W[nl];B[ml];W[nm];B[mm];W[nn];B[mn];W[mo];B[mj];W[rh];B
[ii];W[jj]C[
 lucy 12k*: has entered byo-yomi again];B[ki];W[hm];B[fm]C[White probably has no chance to win with the center gone.  As a last chance you might try living with the center.  I don't think it can be done, but better that than a slow withering doom.]

(;W[od]C[It is probably true that white P16 is unnessary, as it does not look like black can kill white.  Better in principle to play  a stronger connection however, if you are worried about the white group (like H13).  Of course, the game is pr
etty much over.];B[lo]C[
 ran 11k*: has entered byo-yomi again];W[np];B[ci];W[ka];B[ja];W[la]C[
 lucy 12k*: h16];B[hd];W[ge];B[di];W[ch];B[bh];W[hg];B[eh];W[ej];B[fh];W
[gi];B[gh];W[hi];B[ji];W[hh];B[cj];W[bg];B[bi];W[ad];B[bd];W[af];B[ac];W
[ae];B[bc];W[ip];B[hp];W[js];B[is];W[ls];B[hr];W[se];B[re];W[sg];B[sd];W
[sf];B[ds];W[cs];B[eq];W[am];B[al];W[ap]C[
 lucy 12k*: has entered byo-yomi again];B[no];W[oo];B[ao]C[There is no ko here.  White should play at A2.  All the black stones will be captured after black spends a move to play E4.]

(;W[el];B[dk]C[
 ran 11k*: has entered byo-yomi again];W[ap];B[mp];W[mq];B[ao];W[bl];B[ak]
;W[ap];B[qq];W[rq];B[ao];W[bk];B[aj];W[ap];B[rr];W[rp];B[ao];W[bj];B[ai]
;W[ap];B[ag];W[bf];B[ao];W[nj];B[mk];W[ap];B[ef];W[eg];B[ao];W[gr]C[
 lucy 12k*: some problem];B[ep]C[
 lucy 12k*: ok

Now there's a ko!];W[ap];B[fg];W[ff];B[ao]C[
 ran 11k*: typo
 ran 11k*: that's my next ko threat...
 lucy 12k*: :)];W[gp];B[ho];W[ap];B[gq];W[ar]C[Black wins even without winning the ko.

This game seemed pretty evenly matched, offering both sides numerous opportunities to win.]
)
(;W[ar]C[There is no ko.];B[as];W[ap]C[Black cannot win.]))
(;W[jm]C[You might try this.  Black might conceivably go wrong.]))
(;W[em];B[hl];W[hn];B[ho];W[im]))
(;W[em]C[I think white can actually do this.];B[gl];W[hn];B[ho];W[in]C[This is good for white.]
))
(;B[jh]))
(;B[ig];W[jg];B[ih]C[See - this is better for black.]))
(;B[jg];W[jf];B[ig]C[Black must play like this to be consistent with 89.  However, this looks good for white, so we can conclude that black 89 was an error.]
))
(;B[kf];W[kc];B[lc];W[mc];B[bh]C[White now has a problem.  Even so, the game looks about even after all is said and done.]
))
(;B[kf];W[mh];B[li];W[ng];B[nh];W[mf];B[mi];W[oh];B[ni];W[pg];B[of];W[pf]
;B[oe];W[od]C[It almost looked like this killed white..  Even so, it is pretty darn good for black.]
;B[pe];W[ob]))
(;B[jh]C[It looks like this is sufficient....]))
(;W[od];B[ob]TR[md];W[me];B[kd];W[lf];B[jh]C[This looks dead.  So white can't play like this.]
))
(;B[oa];W[od];B[ob];W[md];B[kd];W[mf];B[oe];W[of];B[pe]C[See - it looks like white can live.]
;W[lg]))
(;B[as];W[cs]C[This is the best that black can do, but white is still unconditionally alive here.]
))
(;W[ao]
(;B[ar];W[cs]C[seki.])
(;B[as];W[cs]C[life.  (actually white could take the ko once, let black waste a ko threat, then connect at C1)]
)))
(;B[cf]C[This looks very playable. The white stones are floating and are going to habve a hard time finding eyes.]
)
(;B[mb]C[It looks like this kills the white group.  So one would conclude that L15 was sente.]
))
(;W[em];B[gl];W[hn];B[ho];W[im];B[in];W[hm];B[jm];W[hk]C[If the game went like this, white might get a chance...]
))
(;W[cr]))
(;B[em]C[White's position is in tatters.  Black has won the game.]))
(;W[em]C[No matter what, white has to play here.  If white was not planning to do this, then white made a mistake previously (most likely G6, the contact move).]
))
(;W[en];B[do];W[co];B[cn];W[cm];B[bn];W[bm]TR[bn];B[bo];W[cp]C[Black cannot cut.]
))
(;W[em];B[el];W[fl];B[ek]C[This still looks good for black, partly because white is missing move on the lower side, so black can settle there easily.]
)
(;W[dg]C[THis move acknowledges the groing problem of black's big moyo, however, black will now play on the lower side, securing a win.  So it looks like D10 was no good.]
))
(;B[md]
(;W[nd];B[mc]C[White can't play like this...])
(;W[mc];B[ld];W[lc];B[nd]C[But white can maybe play like this];W[jb];B[ib]
;W[kb];B[hc]C[Since white has sente to play on the lower side, I think white has the lead here.  So black won't play like this (starting with N16).]
))
(;B[lb]
(;W[kb];B[lc];W[ld];B[kd]C[white may be able to live in gote, but this is bad for white.]
)
(;W[lc];B[kb];W[mb];B[md];W[ob];B[na];W[od];B[nd]C[I think white cannot play this way.]
))
(;B[mc];W[mb]
(;B[lb];W[lc];B[md];W[kb];B[nb];W[la];B[oc];W[nd];B[ob];W[le])
(;B[nb];W[ob];B[lb];W[na];B[lc])))
(;B[mg]C[N13 seems to good to miss.  Always look for enclosing moves.All of the sudden, the top side looks bigger than the bottom side.  Black R13 seems to have been played form a fear of being cut.  But black can't be cut in this position.  Besides, blac
k can live in the corner even if black were cut, particularly since white's upper group is under such severe pressure.  White is probably not going to be able to escape, and will have to make a small life on the side, giving black a large lead.]
))
(;B[jq]C[The lower side seems to be the place to play.  There is no immediate threat against the stone at Q16.  I'm not positive K3 is the right move, but at least it's in the right direction.]
)
(;B[oc];W[nd];B[pf];W[ld];B[kc];W[mg];B[og]C[Locally, something like this seems more appropritate, since black started with a pincer at K16.  See the joseki books.  Therefore, white O17 might better have been at R14, which would have helped build up white
's territory. Of course, the lower side is still more important.]))
(;W[jp]C[K4, for example seems to put pressure on black while building territory.  Black's stones are thin and may have problems finding eyes, so are likely going to be forced to flee.]
))
(;B[ip];W[iq];B[jp];W[hp];B[ho];W[jq];B[kp];W[lq];B[go]C[Something along these lines would be joseki...]
))
(;B[cq];W[dq];B[cp];W[do];B[dr];W[er];B[cr];W[eq];B[cn];W[em]C[White has a dynamic, deep, moyo.  White is pleased.  Furthermore, black's two left side formations are a little inefficient.  The dagger at C6 pointing upwards is pointing at an area that has  low value because C15 is low.  This (left) side of the board is not the direction of play.  So black is wise not to choose this variation.]
))
(;B[dj]C[What is white to do?];W[jq]C[This is probably the best, but black has sente, and white's nikken tobi shimari has more weaknesses than black's kogeima shimari.  White's moyo seems just a tad flatter and less vibrant than black's moyo.]
))
