(;FF[4]GM[1]SZ[19]ST[2]CA[UTF-8]AP[SGFC:1.15]

PB[Gilmara]
BR[8k]
PW[gecko]
WR[8k]
KM[6.5]
DT[2004-08-21]
PC[The Kiseido Go Server (KGS) at http://kgs.kiseido.com/]
RE[W+68.50]
TM[1200]
OT[5x30 byo-yomi]
RU[Japanese]

C[Dear reviewer,

please give me any advise why I lost at this high margin. I only recognise an error at move 15.

Thank you in advance.

I am black.

Thomas

Reviewer: Rakshasa [KGS 2D\]];B[pd];W[pp];B[cd];W[dp];B[cn]
;W[fp];B[dj];W[df];B[ec];W[ci];B[cj];W[di]
(;B[ei]C[This is the first questionable move by black. You create a cutting point that white can use to make the fight favourable to him.]
;W[ej]
(;B[fi]C[Better e12?

Yes, letting white play e9 is bad for your side group.];W[ek]
;B[dl];W[bj]
(;B[cl]C[This doesn't give a very good base for blacks stones.]
;W[bo]
(;B[fm];W[gk];B[hm];W[fg];B[hi];W[ik];B[jm];W[hg];B[jj];W[ij]
;B[ii];W[ji];B[jh];W[ki];B[ig];W[kk];B[hq];W[gq]
(;B[nq]
(;W[lq];B[lp];W[kp]
(;B[kq]
(;W[jq];B[jp];W[kr];B[ko]
(;W[kq];B[mp];W[ip]
(;B[pj];W[qm];B[jd];W[qf]
(;B[qe];W[pf];B[nd]
(;W[qi];B[qj];W[pi];B[om];W[pl];B[qq];W[qp];B[pq];W[ol];B[nm]
;W[ld]
(;B[lf];W[ke];B[je];W[kf];B[gd];W[oe];B[od];W[ne];B[nl];W[nk]
;B[mk];W[mj]
(;B[lk];W[lj];B[hp];W[ho];B[io]
(;W[iq];B[go];W[hr];B[gp];W[fq];B[cp];W[co];B[dq];W[cq];B[ep]
;W[do];B[eo];W[fo];B[gn];W[en];B[em];W[lc];B[jb];W[nb];B[ob]
;W[nc];B[oc];W[be];B[ce];W[cf];B[bd];W[hh];B[ih];W[gi];B[gj]
;W[gh];B[fj];W[fk];B[hj];W[hk]
(;B[kh];W[lh];B[lg];W[kg];B[mh];W[li];B[me];W[md];B[ng]C[Hopeless to expect anything in there. Be carefull, white got j14 in sente.]

(;W[mf];B[re];W[rf];B[bg];W[bf];B[bi];W[bh];B[dh];W[ch];B[eg]
;W[ef];B[hf];W[gf];B[he];W[fh]C[gecko [8k\]: are you there ?]
;B[eh];W[dg]
(;B[jg];W[kl];B[lm];W[jo]
(;B[jn];W[in];B[im];W[kn];B[km];W[lo];B[mo];W[se];B[sd];W[sf]
;B[rc];W[oa];B[pa];W[na];B[pb];W[ad];B[ac];W[ae];B[bc];W[rq]
;B[rr];W[rp];B[op];W[or];B[nr];W[sr];B[qr];W[bk];B[bn];W[an]
;B[am];W[ao];B[bl];W[ge];B[fe];W[ff];B[ee];W[de];B[dd];W[fd]
;B[ed];W[hd];B[gc];W[if];B[jf];W[ie];B[hc];W[id];B[ic];W[kc]
;B[jc];W[kb];B[ka];W[la];B[ja];W[pn];B[oo];W[po];B[pm];W[ql]
;B[ok];W[nj];B[oi];W[oj];B[ri];W[oh];B[ph];W[qh];B[jl];W[jk]
;B[dn];W[fn];B[hn];W[io];B[ln];W[ko];B[on];W[ms];B[mr];W[ls]
;B[ns];W[lr];B[ll];W[dk];B[ck];W[ak];B[al];W[ai];B[rs];W[gl]
;B[gm];W[pe];B[mq];W[sq];B[ss];W[kj];B[tt];W[kd];B[tt];W[tt]
TW[ma][lb][mb][mc][he][le][me][af][hf][lf][nf][of][ag][bg][cg]
[gg][lg][mg][ng][og][pg][qg][rg][sg][ah][mh][nh][ph][rh][sh]
[bi][mi][ni][oi][ri][si][aj][jj][pj][qj][rj][sj][ok][pk][qk]
[rk][sk][rl][sl][rm][sm][qn][rn][sn][eo][qo][ro][so][ap][bp]
[cp][ep][jp][sp][aq][bq][dq][eq][ar][br][cr][dr][er][fr][gr]
[ir][jr][as][bs][cs][ds][es][fs][gs][hs][is][js][ks]TB[aa][ba]
[ca][da][ea][fa][ga][ha][ia][qa][ra][sa][ab][bb][cb][db][eb]
[fb][gb][hb][ib][qb][rb][sb][cc][dc][fc][pc][qc][sc][fd][qd]
[rd][ml][bm][cm][dm][mm][mn][nn][no][np][oq][or][pr][os][ps]
[qs]C[gecko [8k\]: thx for the game

Gilmara [9k\]: thx])
(;B[kn]))
(;B[if]C[Avoids leaving an unnessesary ko threat. You don't gain any point on playing k13 as it is white's privlege to play k14.]
))
(;W[if];B[jf];W[jg];B[hf];W[eh];B[ie]))
(;B[kl]C[Important sente move.]))
(;W[jo];B[in];W[go]))
(;B[nj]C[Exploit the aji in the cut immidiately. It won't be there later.]
;W[ok];B[lj];W[mi];B[lk];W[kj];B[li];W[kh];B[mh];W[ni];B[nh]
;W[oi];B[lh]))
(;B[nf]C[Playing o14 allows you to get closer to exploiting the aji in q10. You need not worry about connecting j13 as m16 is too weak.]
;W[lf];B[mg];W[kh];B[kg];W[lg];B[lh];W[mh]
(;B[kj];W[li])
(;B[li];W[kj];B[mj];W[mi];B[lj];W[nj];B[ni];W[nh];B[nk];W[oi]
;B[ll])))
(;W[ph]))
(;B[pf];W[pg];B[of];W[qe];B[qd];W[qh];B[nd]C[Here black gained quite a bit of territory on the top and there's no san-san invasion for white.]
))
(;B[jo]C[R5 protects against a cut at m5.]))
(;W[lo]))
(;W[mp];B[lo];W[mq];B[jp];W[mo];B[ko];W[qm]))
(;B[ko];W[mp];B[lo];W[mq];B[kq]))
(;W[hp];B[iq];W[ip];B[jq];W[jp]))
(;B[hp];W[mq]TR[gq]C[When white plays g3 here, you have little choice in playing tennuki. Your h7 group is still too weak.]
))
(;B[bk]C[Playing b9 gives you potensial eye space. This should be played before f7 while f11 is still strong. If white ignores b9 now, it will ruin his c13 group's base. This might not be as efficient later as you push e9 out.]

(;W[bi])
(;W[gk];B[bi])))
(;B[bk]
(;W[bi];B[el])
(;W[ck];B[dk];W[cl];B[bl])))
(;B[eh];W[cg];B[dl];W[fj];B[gh];W[fl];B[bi];W[bh];B[bj];W[ce]

(;B[be];W[dd];B[cc];W[bf])
(;B[dd];W[bd];B[bc];W[be])))
(;B[ej];W[be];B[ce];W[cf];B[bd]C[White is still not entirely safe and black got alot of strenght he may use to attack the e4 stones. White has little potensial in his d14 group.]
))
