(;FF[4]GM[1]SZ[19]ST[2]CA[UTF-8]AP[SGFC:1.15]

PB[walasek]
BR[19k]
PW[peltco]
WR[18k]
KM[0.5]
DT[2004-10-19]
PC[The Kiseido Go Server (KGS) at http://kgs.kiseido.com/]
RE[W+88.50]
TM[900]
OT[5x30 byo-yomi]
RU[Japanese]

C[I won, by a lot actually, but a lot of that seemed to come from life and death issues. I'm trying to get away from the "play where your opponent played last" syndrome and go for the big points, even if they might locally not be the best.

* So please help me to identify big points i missed
* also, i think i played the lower right cored pritty badly. how could I (white) have done this better and how could my opponent have taken advantage of my play
* move #90, too slow?

Thanks in advance for all the comments you could giv me


Hello peltco,

I will review your game. You can find me on KGS (if you play there) as Tobamf or LeehungLo. I am around 7k. Please keep in mind that I am going to offer alternatives, which are probably just as naive to a 1d as a 1d's alternatives are to a 8d. The best and fastest way to get to 10k in my experience is simply to play a lot. 3 games/day will get you there within 2 months probably.]
;B[qd]C[peltco [18k?\]: hi
peltco [18k?\]: have a good game
walasek [19k\]: hi gl];W[dp];B[pq];W[dd]C[This might be a bit advanced, but pros say the two star point opening you have made means you are going for an influence oriented game. To use this opening to form territory is a bad strategy (remember, this is all from books written by pros). I think you should consider this an FYI for the moment and not worry about it.]
;B[fp];W[eq];B[fq];W[dn];B[fd];W[hc];B[df];W[ce];B[ee];W[oc]
;B[pc];W[ob];B[pb];W[kd]C[this move at L16 is nice. It is said that when you have a two point wall (like your white group at P18/P17), you can extend 3 spots away from it, which you did. You also moved to L16, which not only gives you good access to the middle for the later game, but serves to connect H17 to P17. In Go, connecting is equivalent to "united we stand" and getting cut is equivalent to "divided we fall."]
;B[ci];W[ck];B[cf];W[be];B[bf]
(;W[qo]C[the black variation at the top left hand corner is tricky. There are many possibilites, and I have shown a few. The point to remember is the move is big from a cutting/connecting point of view.]

(;B[po]
(;W[qn];B[qp];W[rp];B[rq];W[so];B[ql]C[The white position here is really cramped. Compare to the alternative sequence at move 26.]
;W[rl];B[qm];W[rm];B[pn];W[qk];B[pl];W[pk];B[ol];W[re]C[notice the black group on line Q is quite thick. That will aid black a lot in the fight that may come in that area.]
;B[qe];W[rd];B[rc];W[qf];B[pf];W[qg];B[pg];W[ph];B[oh];W[pi]
;B[oi];W[kq];B[iq];W[nq];B[np];W[mp];B[no];W[jr];B[kp];W[jp]
;B[jq];W[lp];B[kr];W[ko];B[ir];W[lr];B[js]C[white is safe already and scores a major victory in this area. With white F17, white would have a strong lead and probably win.]
;W[ne];B[oe];W[od];B[pd];W[nf];B[of];W[fc]C[Excellent. Game over. White wins.]
;B[ed];W[ec];B[de];W[cc];B[ng];W[mg];B[mh];W[lg];B[sd];W[rf]
;B[pj];W[qj];B[oj];W[ok];B[nk]
(;W[he]C[Is this move too slow?
i want to use my influence on he up right to build terretory on top
what would be the most effective way of doing so

Try and compare the move in your mind to black playing there. This will give you a good idea of how many points its worth, whether it has a lot of influence, whether it makes a group live and thus whether the move is slow or not.]
;B[ge];W[gd];B[gf];W[hf];B[hg];W[ig];B[hh];W[ei];B[jg];W[jf]
;B[ih];W[kg];B[if];W[ie];B[ig];W[ki];B[lh];W[kh];B[ji];W[ff]
;B[fg];W[eg];B[ef];W[fh];B[fe];W[gh];B[gg];W[gj];B[hi];W[bj]
;B[bi];W[dj];B[di];W[eh];B[dh];W[fn]C[Is this move to slow? If you didnt ask me about this move, why did you ask me about the other one? What is different here? Just asking to help you think about big moves/ small moves.]
;B[gi];W[fj];B[cj];W[bk];B[fi];W[ej];B[ep];W[dr];B[er];W[dq]
;B[fr];W[hp];B[ip];W[io];B[ho];W[hn];B[go];W[gn];B[eo];W[nm]
;B[nl];W[mm];B[ml];W[ll];B[lk];W[kk];B[kl];W[lm];B[kj];W[jk]
;B[jj];W[lj];B[mk];W[li];B[in];W[jo];B[ik];W[jl];B[jm];W[il]
;B[hl]
(;W[ij]C[Ok, this is just a big mistake, i must have dazed of for a second
could black do anything as long as i play L7, and then either get J10 or H9 to secure my terretory. or am i missing home hidden genius in black's plan?]
;B[im];W[hj];B[nd];W[md];B[kf];W[je];B[mf];W[me];B[nc];W[nb]
;B[do];W[co];B[en];W[em];B[cn];W[dm];B[cp];W[bo];B[cq];W[cr]
;B[bp];W[ap];B[mi];W[fo];B[gp];W[fm];B[gl];W[fl];B[mj];W[af]

(;B[ag];W[ae];B[bg];W[ai];B[ah];W[aj];B[kn];W[ln];B[ls]
(;W[ms]
(;B[ks];W[nr];B[mo];W[lo];B[or];W[os];B[ps];W[oq];B[ns];W[mr]
;B[os];W[op];B[oo];W[pp];B[qq];W[qs];B[pr];W[rr];B[sr];W[rs]
;B[ds];W[bq];B[cs];W[bs];B[es];W[pa];B[qa];W[oa];B[qb];W[se]
;B[mc];W[mb];B[lc];W[lb];B[ld]
(;W[le];B[jh];W[ke]C[silly mistake];B[lf]C[peltco [18k?\]: darn, i'm not paying attention anymore]
;W[sc];B[sb];W[sd];B[qh];W[rh];B[qi];W[ri];B[gk];W[fk];B[gm]
;W[km];B[jn];W[hk];B[il];W[hm];B[sq];W[jk];B[kk];W[jl]C[walasek [19k\]: me neither
walasek [19k\]: :)
peltco [18k?\]: :-)];B[om]C[peltco [18k?\]: that makes us even i guess]
;W[ro];B[sn];W[rn];B[sp];W[rk];B[nn];W[dg];B[cg];W[hs];B[hq]
C[walasek [19k\]: looks to be done
peltco [18k?\]: yep];W[tt];B[tt]TW[aa][ba][ca][da][ea][fa][ga]
[ha][ia][ja][ka][la][ma][na][ab][bb][cb][db][eb][fb][gb][hb]
[ib][jb][kb][ac][bc][dc][gc][ic][jc][kc][lc][mc][nc][ad][bd]
[cd][hd][id][jd][ld][nd][sf][rg][sg][sh][si][rj][sj][ak][dk]
[ek][gk][ik][sk][al][bl][cl][dl][el][gl][hl][il][sl][am][bm]
[cm][gm][im][jm][sm][an][bn][cn][in][jn][kn][sn][ao][bp][cp]
[kp][qp][sp][aq][cq][lq][mq][pq][qq][rq][sq][ar][br][or][pr]
[qr][sr][as][ns][os][ps][ss]TB[ra][sa][rb][qc][pe][ff][kg][lg]
[mg][og][bh][ch][kh][nh][ph][ki][li][ni][pi][lj][nj][pm][on]
[hp][gq][gr][hr][jr][fs][gs][hs][is]C[Lots of silly errors at the end of the game, but it happens when you get tired. Play more and you'll make fewer mistakes like those. I think if you keep the statements I made about the big moves in mind, it (hopefully) will help you to see them.

answers to the excercises are it's  big (move 90) and it's big (move 126).

I hoped this helped.])
(;W[lf];B[le]
(;W[mf];B[jh])
(;W[ke];B[mf];W[kc])))
(;B[mr];W[ks]C[Just be aware you invite a ko with this response, and it could be costly to you.]
;B[bn];W[bq];B[ls];W[lq];B[mo]
(;W[lo];B[ns]C[white dies.])
(;W[ks];B[lo];W[jr];B[is];W[nr];B[kr];W[pr];B[ls];W[ns];B[qr]
;W[ps];B[oq];W[or];B[jn]C[this is a lot for black to possibly gain.]
)))
(;W[mr]C[This is safe and alive.]))
(;B[lf]C[You said silly mistake at move 246. We all make them :)]
))
(;W[km];B[im];W[kl];B[hj]
(;W[hm]C[if you are worried, connect. Maybe black was hoping for this.]
;B[gl];W[fl];B[em];W[en];B[fm];W[gm];B[fk];W[el];B[ek];W[dl]
;B[gk];W[dk];B[hk])
(;W[gl];B[hm];W[gk];B[hk];W[gm];B[mr];W[ls];B[nr];W[or];B[oq]
;W[mq];B[pr];W[mo];B[nn];W[mn]C[Even though black could cut if white didnt want to connect, white can still make 2 eyes.]
)))
(;W[tt]C[ooops. white passes by accident in this comparison variation. <8B.]
;B[he]C[now what do you think? Is it big or small? Is there something better? How many points did black lose when you played that move, and how many have you lost? what is the difference in the level of influence of blacks group and whites group? does it make any of the groups absolutely alive? This is left as an excercise to the reader ;)]
))
(;W[pn];B[oo];W[qm];B[qp];W[ro];B[qg];W[qi]))
(;B[db];W[eb];B[ec]
(;W[dc];B[cb];W[fc];B[ed];W[fb];B[cd];W[cc];B[bc];W[bd];B[de]
;W[cd];B[ad])
(;W[cb];B[dc];W[cc]))
(;B[cc];W[dc];B[db];W[eb];B[cb];W[fc];B[bd];W[ad];B[ac];W[ae]
;B[cd];W[de];B[ef];W[da];B[bb];W[ca];B[ba];W[ea]))
(;W[fc]C[this move here is big from a cutting/connecting point of view. Compare to the black move in the same area at move 25.]

(;B[ec];W[ed];B[gc];W[fb];B[gd];W[gb])
(;B[gc];W[gb];B[ec];W[fb];B[eb];W[ed])))
