(;FF[4]GM[1]SZ[19]ST[2]AP[SGFC:1.15]VW[]

PB[ponky]
BR[26k]
HA[2]
PW[Tamaki92]
WR[24k*]
KM[0.5]
DT[2004-10-09]
RE[B+20.5]
RU[Japanese]

AB[dp][pd]C[*Tamaki92*: Hello.

ehrling wrote:
> As a beginner, this game shows recently gained strengths and also weaknesses that I would like to improve.  I'm not sure what my rating should be.  I would very much appreciate some help identifying weaknesses and things to watch out for.  I would also like some idea of what level I am playing at (my guess was 26k). Thank you for taking your time to help me --------ehrling

RW> hi my name is Ronald Wopereis, woepwoep on KGS - 14kyu at this point. My comments begin with RW>.]
;W[dd];B[pp];W[nc];B[ob];W[oc];B[pc];W[nb];B[qb];W[oa];B[pb]
;W[qg];B[qf];W[pf]
(;B[of]C[RW> R15 better, see var.];W[qe];B[rf];W[re];B[pg];W[pe]
;B[rg];W[qh];B[rh];W[qi];B[ri];W[rj];B[pi];W[pj]C[black sees the opportunity before white does regarding q15.

RW> white can escape by playing Q12 - double attack. see var on next white move.]
;B[oe]
(;W[si]C[RW> See var];B[rd];W[sf];B[qd];W[sd];B[se];W[oi];B[ph]
;W[qj];B[sh];W[sj];B[ld];W[ne];B[mg];W[le]
(;B[me]C[RW> this way you cannot catch the O18 group. See var.]
;W[md];B[nf];W[mf];B[lf];W[kd];B[lc];W[kc];B[me];W[ke];B[nd]
;W[mc];B[lb];W[kb]
(;B[ka]C[RW> instead of getting yourself captured, you should stop playing here. Play somewhere else and leave M18 as a ko threat. See var.]
;W[ja];B[pa];W[na];B[od];W[la];B[dj];W[fq];B[er];W[eq];B[dq]
;W[fr];B[cr];W[es];B[dr];W[dn];B[cn]C[I dont know whether to go high or low here

RW> looks fine to me, you have the corner so extending to the left side makes sense.]
;W[cm]C[And now high looks like the better option];B[bn];W[dl]
;B[hg]C[RW> as a rule of thumb - try to remember this: as long as you can play on the third or fourth line, you should not play in the center of the board. 

the game is about making territory. territory, like buildings, need a base, which usually starts at the corner and/or the side of the board.

H13 has no base yet.];W[he];B[cd];W[cc];B[dc]C[Always an uncertain situation ...]
;W[ce];B[bd];W[bc];B[de];W[ed];B[be];W[cf];B[db];W[ef]C[RW> white B14 kills black. Obviously white needs both the upper and left side so he chooses not to kill.]
;B[bf]C[Now white seems to have given up on the corner.];W[df]
;B[cg];W[cb]C[now he's back again...];B[ac];W[ab];B[ba];W[ad]
;B[ae]
(;W[da]C[this seems a bit close, but black is one move ahead for liberties

RW> white B13 probably kills black B14 group. See var];B[ea]
;W[ca];B[ac];W[ec];B[bb]C[whew - that was close.];W[eb];B[ga]
;W[gb];B[ia];W[ib];B[hb];W[hc];B[fb];W[ha];B[fc];W[fa];B[da]
;W[ga];B[fd];W[fe];B[ee];W[gd];B[ff];W[fg];B[gf]C[I want to make certain of a connection with j13, and if he plays h15, I plan to play f13.

RW> good move by black. threatens both G15 and E13.];W[eh];B[ge]
;W[gi];B[dh];W[eg];B[ei];W[fi];B[fk]C[I use these knight moves compulsively, and often they are completely inapropriate.]
;W[ej]C[and in this crucial spot, the error costs black the opportunity to expand to the right.]
;B[di];W[ek];B[dk];W[fl];B[fj];W[el];B[gk];W[hl];B[hk];W[ik]
;B[jp];W[gl];B[fo];W[iq];B[hq];W[hp];B[ip];W[hr];B[ho];W[gq]
;B[gp];W[hq];B[kr];W[jr];B[jq];W[js];B[ks];W[kq];B[lq];W[kp]
;B[ko];W[lp];B[mq];W[lr];B[mr];W[ls];B[mp];W[lo];B[km];W[jo]
;B[io];W[kn]
(;B[hi]C[RW> black can escape by refraining from capture, see var.]
;W[hj];B[ij];W[gj];B[ji];W[jj];B[ii];W[kk]
(;B[jl]C[poor move for black .  I should have connected closer to the right or left, n7 or d5, but I did not see the danger to black group at h5.

RW> black D4 group is alive, so just connect h5 group to d4 group. see var. In general, make sure that all of your groups are alive before you attack or make territory.]
;W[jk];B[nj];W[ni];B[oj];W[ok];B[lj];W[kl];B[ml];W[lm];B[mn]
;W[jm];B[im];W[il];B[in]C[In retrospect, I should have used this move to save these stones with a connection at d5

RW> e5 even better than d5, since it has one more liberty right from the start. and two ways to connect instead of one.]
;W[ep];B[eo];W[do];B[co];W[qn];B[ro];W[qo];B[qp];W[rn];B[rq]
;W[on];B[ol];W[pl];B[nk];W[om];B[pk];W[qk];B[ql]C[RW> very good move by black]
;W[rl];B[pm];W[qm]
(;B[pn]C[RW> better protect R8 stone. see var.];W[pl];B[ma]
C[I'm sure this ko threat could have won me the whole lower right corner had I played it right... although I can't quite see it...
........];W[mb];B[ql];W[so];B[pl];W[rp];B[po];W[ck];B[cj];W[bk]
;B[bj];W[aj];B[bl];W[cl];B[ai];W[ak];B[bh];W[bm];B[am];W[al]
;B[an];W[cp];B[bp];W[mo];B[no];W[mm];B[nm];W[ln];B[nn];W[lk]
;B[mk];W[jn];B[sq];W[sp];B[kf];W[jf];B[jg];W[if];B[ig];W[gh]
;B[hh];W[kj];B[ki];W[gc]
(;B[dg]C[RW> have a look at this typical move. The reason for any move is to be there before your opponent. In this case, white has no interest in this field. See var.]
;W[ms]C[I swear this will be the last time I let this happen to me.]
;B[nr];W[ns];B[or];W[os];B[pr];W[ps];B[qr];W[qs];B[rs];W[gg]
;B[ds];W[fs];B[hf];W[li];B[mj];W[kg];B[ie];W[je];B[hd];W[id]
;B[he];W[kh];B[jh];W[lg]
(;B[mf]C[RW> black can capture, see var.];W[gn];B[en];W[dm]
;B[sk];W[rk];B[sm];W[sl];B[tt];W[tt]C[RW> i think 26k is an okay rank for black. it is hard to tell from one game.]
;B[tt])
(;B[lh]))
(;B[gg]C[RW> now if white D13...];W[dg]C[RW> black captures.]
;B[fh]))
(;B[pl];W[mm];B[pn];W[mo];B[po];W[sk];B[sn];W[rm];B[sm]C[RW> white dead]
))
(;B[eo];W[jm];B[lm]C[RW> now both black and white are safe.]
))
(;B[hj];W[hi];B[ij];W[ii];B[jj];W[jg];B[jn];W[eo];B[ko];W[ln]
;B[jk];W[il];B[jl];W[jo];B[in];W[ep];B[jm]))
(;W[bg];B[ac];W[ag];B[bb];W[ad];B[ca];W[af]))
(;B[cf]C[RW> you can always come back and play N19 later. When you have the initiative, you should use it to make territory, not prisoners.]
))
(;B[md];W[nd];B[me]C[RW> you might want to try this ... However, the strategy is NEVER to really capture (unless you are forced to), but ALWAYS threaten to capture. This way, your opponent is forced to make the moves that you want him to. This is called "having the initiative".]
))
(;W[ph];B[oh];W[og];B[ng];W[pg];B[oi];W[si]C[RW> black S14 group is dead]
))
(;B[qe]C[RW> black is alive. no need to add black stones in this corner anymore for a while.]
))
