(;FF[4]GM[1]SZ[19]ST[2]CA[UTF-8]AP[SGFC:1.15]

PB[bucky]
BR[1k]
PW[go3]
WR[1k]
KM[6.5]
DT[2004-10-29]
PC[The Kiseido Go Server (KGS) at http://kgs.kiseido.com/]
RE[W+2.50]
TM[1650]
OT[5x30 byo-yomi]
RU[Japanese]

C[bucky:  Hi reviewer! My name is Mark Fyffe and I played black in this game.  I had a lot of tough decisions to make in this game, and in each case I tried to maintain balance and a clear path to victory.  But as it happened, I miscalculated and lost the game by 2.5 even though I felt in control the whole time (perhaps I should count komi next time ;-).  In addition to advice on these key parts of the game, I'd appreciate general comments on how to think 'slightly bigger'.  Thanks!

forfun (ff): This was an interesting and exciting game.  Thanks for the chance to analyze it.  It seems like Black had a pretty good idea of the big issues.  The main point that I see in looking at the game is that Black (and White as well) could not find the correct way through the tactical situations.  I think that both players would quickly improve by concentrating on their fighting technique: drilling on tesuji and life and death problems to improve their reading ability in particular.

This is not a game where strategy plays a big part.  The two players fight hard from start to finish.  I have concentrated on the tactics of the fighting - there was a lot :-)]
;B[pd];W[dp];B[pq];W[dd];B[fq];W[hq];B[fo];W[dn];B[ip];W[iq]
;B[jp];W[dq]C[bucky: a blunder by white?

ff: This is clearly the wrong idea for White.  The corner is small and there are no heavy black stones to attack with this play.  Meanwhile the two White stones will be in difficulty.]
;B[jq];W[gp]
(;B[fp]C[ff: This is the fighting response.  It seems quite reasonable considering White's bad shape here.  Black could also consider the quiet approach to take advantage of White's strategic misplay - see the variation.]
;W[go]
(;B[fn]C[ff:  Black needs to ask here who is dominant?  Who has good shape and who has bad.  This move seems too weak - see the variation.]
;W[hn];B[fl];W[dl];B[im];W[in];B[jm];W[jn];B[kn];W[hm];B[hl]
;W[ko];B[jo]
(;W[gm];B[gl];W[fm];B[em];W[en];B[el]
(;W[gr];B[fr];W[gq];B[ir];W[er];B[gs];W[hs];B[fs]
(;W[hr]C[bucky: another blunder by white?  I'd expect K2 after my pooly placed play at G1.

ff: It makes no difference in this case - see the variation.]
;B[ho];W[gn];B[jr];W[ek];B[dm]C[ff: This play reduces Black's liberties.  Black needs to have read out that there are no complications arising from the various cutting points in his shape when deciding to do this.]
;W[cm]
(;B[cn]C[ff: Black is short of liberties so this causes problems.  Black should just back up and start to take off the dead stones.]
;W[eo]C[bucky: here is big decision number 1: kill or take over the left side.  I chose the left side for two reasons: it seemed much bigger in potential due to the thickness of having _all_ of white's space fully enclosed.  I also chose the left because I truly did not earn the kill (though I do not generally hesitate to take advantage of my opponent's mistakes).

ff: Capture the stones.  Black has made a mistake here but backing up to take off the stones is worth over 40 points and almost guarantees another 50 in the lower right.  White has to connect on the left in gote.  There is no way the game ends up a reasonable exchange for Black.]
;B[cl];W[ep];B[km]C[ff: If Black has to play here then the previous comment is even more true.  Black loses 40 points virtually in gote!]
;W[bm];B[bl]C[ff: This is bad suji.  If Black simply captures at D9, B6 later will capture two White stones.]
;W[bn];B[dk]C[ff: Black has ended in gote so White has the opportunity to play first on the right side.  Still, White's lower left is only worth about 35 points so Black's overall judgement was correct and Black is OK.]
;W[oq];B[pp];W[lp]
(;B[mq]C[ff: Black need not be tentative.  During the game I think Black did not realize how much White's ability to fight is affected by the shortage of liberties of the surrounded stones.  White has to play E1 and E3 from the other side before it is possible to attack Black.  See the variation.]
;W[op];B[oo];W[lq]
(;B[lr];W[mp]
(;B[or];W[mr]
(;B[ms];W[nr];B[ns];W[nq];B[pr];W[kr]
(;B[ls];W[ks];B[os];W[no];B[on]C[bucky: white is alive, and black dies.  Again, I prefer to enclose; is this the right thing to do?

ff: Yes, by now the outside is definitely bigger than the stones inside.  There are still two huge ko threats left over at J1 and J5 as well.]
;W[kq]
(;B[nn]C[ff: This is gote so better not to play it.];W[mn];B[mm]
;W[qi]
(;B[qk]C[ff: This is played from the wrong side. It is an example of trying to use thickness to make territory.  Black should approach from above and force the White stones up against the strong Black wall.]
;W[oi]C[ff: White jumps instead of making a base along the side.  In this case, however, Black's wll is so large that jumping out is not an easy way to escape.  Black should chase this group before White gets in another play.]
;B[gd];W[cg];B[dc]C[ff: This is a significant slip by Black.  This play is inconsistent with the original distant approach at G16.  Black is interested in the two White stones on the right side, not on the situation in the upper left corner.  In this sequence Black makes a small group in the upper left but White gets to settle the stones on the right side.  A big plus for White that has a big impact on the game.]
;W[cc];B[ed];W[cd];B[ec];W[qf]C[ff: White is very lucky.  Suddenly the value of Black's huge wall is greatly diminished by the two solid stones on P11 and C13.]
;B[qe];W[pf];B[nd]C[bucky: I count a slight lead for white, but with a difficult game against black's thickness.  Is this a fair estimate?  how can I make better use of the thickness?

ff: The point is that White as almost no chance for further territory.  The game hinges on whether White can directly limit Black's upper side.]
;W[pk];B[qj];W[pj];B[ri];W[qh];B[ql];W[jc];B[cb];W[bb];B[ba]
;W[bc];B[db];W[oc];B[nc]
(;W[qc];B[pc];W[re];B[qd];W[rd];B[rc];W[qb];B[rb];W[od];B[oe]
;W[je]C[bucky: big decision number 2: I cannot afford all of white's groups to live, so I put all efforts into attacking K15/K17.]
;B[fg];W[jh];B[of];W[gb];B[fb];W[gc];B[hd]
(;W[hc];B[id];W[jd];B[ic];W[ib];B[kb];W[jb];B[ga];W[ha];B[fa]

(;W[lb];B[kc];W[lc];B[kd];W[ob];B[pb];W[nb];B[ld];W[ka];B[ja]
;W[la];B[me]
(;W[if];B[kf];W[hh];B[ii];W[fh];B[ih];W[hg];B[eh];W[fi];B[eg]
;W[hi];B[gg];W[jk];B[ij];W[ke];B[lf];W[ik];B[hj];W[gj];B[hk]
;W[gh];B[fj];W[fk];B[ej];W[ei];B[dj];W[di];B[dh]
(;W[ci];B[ch];W[bh];B[bg];W[bf];B[bi];W[ag];B[bj];W[gf];B[fe]

(;W[jg];B[mi]C[bucky: fearing a white stone at Q15];W[de];B[ge]
;W[fc];B[hf];W[he];B[ie];W[jf];B[hf]
(;W[ea]C[bucky: final big decision: fight the ko?  I counted a small lead for black if I take the ko now and cut at J13, so I chose not to fight even though I feel that I am in a better position for ko than white.

ff: Black's judgement is correct but mainly because White did not choose a very big ko threat.  This ko is so big that Black's threats on the bottom side will not work!  If White had fought harder, Black would have been in trouble.]
;B[ff];W[eb];B[ig];W[rh];B[rj];W[mh];B[pe];W[li];B[og];W[mj]
;B[pl];W[nk];B[kj];W[kk];B[ki];W[lk];B[ln];W[mo];B[ph];W[pi]
;B[qg];W[rg];B[pg];W[rf];B[ol];W[mc];B[md];W[ml];B[nl];W[ll]
;B[lm];W[lj];B[oa]
(;W[ma];B[pa];W[ia];B[na];W[ja];B[mb];W[nb];B[ok];W[oj];B[nh]
;W[ni];B[mg];W[kh];B[lg];W[lh];B[am];W[an]
(;B[al];W[co];B[df];W[ee];B[fd];W[cf];B[ai];W[cj]C[ff: Interesting mistake by White.  It gives Black the chance to start a ko here.  However, it White simply answers it is only worth 2 points so it looks like White would still win (by half a point).]

(;B[ck];W[ah];B[oh];W[si];B[sj];W[sh];B[lo];W[kp];B[sd];W[se]
;B[sc];W[il];B[ob];W[ab];B[ca];W[le];B[nm];W[mb];B[tt];W[tt]
TW[fa][ga][fb][hb][ac][ad][bd][ae][be][ce][af][sf][bg][sg][mi]
[nj][mk][cn][fn][ao][bo][do][fo][ho][io][jo][ap][bp][cp][fp]
[hp][ip][jp][np][aq][bq][cq][eq][fq][jq][mq][ar][br][cr][dr]
[fr][ir][jr][as][bs][cs][ds][es][fs][gs][is][js]TB[qa][ra][sa]
[qb][sb][oc][qc][od][he][ne][gf][mf][nf][hg][ng][fh][gh][hh]
[ci][di][ei][fi][gi][hi][aj][cj][gj][ak][bk][ek][fk][gk][rk]
[sk][dl][rl][sl][om][pm][qm][rm][sm][pn][qn][rn][sn][po][qo]
[ro][so][qp][rp][sp][qq][rq][sq][qr][rr][sr][ps][qs][rs][ss]
C[bucky: Thanks for the review!  I look forward to reading your comments.]
)
(;B[ah]
(;W[bk];B[bg];W[ck];B[gk];W[bh];B[is];W[eq];B[bg];W[ak];B[dl]
;W[bh];B[io];W[es];B[bg];W[af];B[bh]
(;W[il];B[be];W[ab];B[ad])
(;W[be]C[ff: White has lost three points here and would lose the game.  However, White did not have to fight the ko.]
))
(;W[bg];B[ck];W[ac];B[lo];W[kp];B[oh];W[si];B[sj];W[sh];B[sd]
;W[se];B[sc];W[ob];B[oc];W[mb];B[il]C[ff: White wins by half a point.]
)))
(;B[co]C[ff: Last chance to win the game?];W[bo];B[bp];W[al]
;B[cp];W[ak];B[bk];W[ap];B[bq];W[br];B[aq];W[cq];B[ao];W[ee]
;B[fd];W[ap];B[hp];W[es];B[ao]))
(;W[mb]))
(;W[pe]
(;B[ff];W[pa];B[ig]C[ff: White plus 15 - 20?])
(;B[qa];W[he]
(;B[is];W[hf];B[io]C[ff: White plus 15?])
(;B[ln];W[mo]C[ff: White could just connect the ko, but can even answer here.]
;B[hf];W[lh];B[ff];W[mh];B[ig];W[ng]))))
(;W[ff];B[ef];W[de];B[ge];W[hf];B[fc];W[ee];B[hb];W[pe];B[qa]
;W[jf]))
(;W[ch];B[ci];W[cj];B[bi];W[bj]))
(;W[pe];B[qa];W[lf];B[mc];W[mb]
(;B[mf];W[le];B[lg];W[mg])
(;B[le];W[mf])))
(;W[lc];B[lb];W[mb];B[mc];W[ob]
(;B[nb];W[pe])
(;B[pb];W[nb];B[ma];W[pe];B[qa];W[ne];B[md];W[me];B[ld];W[le]
;B[kc];W[kd])))
(;W[ic]))
(;W[nb]C[ff: More usual?];B[mb];W[ob]
(;B[od];W[qc];B[je];W[ke];B[kf];W[lc];B[mc];W[le];B[lf];W[me]
;B[nf];W[mf];B[mg];W[jf];B[ie];W[lg];B[kg];W[ng];B[mh];W[ne]
;B[of];W[oe];B[og];W[nh])
(;B[lc];W[od];B[oe];W[pe];B[ne];W[qd];B[je])))
(;B[qg];W[ql];B[pk];W[qk];B[pi];W[pj];B[oj];W[qj];B[ph];W[qn]
;B[qo];W[rn];B[fd]))
(;B[lo]C[ff: If black plays here, this way looks better.];W[kp]
;B[nm]C[ff: This threatens to play N5, taking away White's eye.  White has to answer.]

(;W[mn];B[fd];W[mm];B[ml];W[nl];B[ol];W[nk];B[ok];W[nj];B[oj]

(;W[ll];B[ni];W[mi];B[mh];W[nh];B[oi];W[li];B[lh];W[ki];B[ng]
;W[il];B[ik];W[jl];B[kl];W[jk];B[jj];W[kk]
(;B[kj];W[lk];B[mj];W[mk];B[lj])
(;B[lk];W[kj];B[mj];W[lm];B[cf]))
(;W[ni];B[oi];W[nh];B[df]))
(;W[qi];B[mo];W[js];B[is];W[eq];B[nn];W[es];B[np])))
(;B[ks];W[ls];B[is];W[eq];B[lr];W[kq]
(;B[ls];W[no];B[on])
(;B[no];W[ls];B[lo];W[kp]
(;B[lr];W[mo];B[np];W[ls];B[hp];W[es];B[lr];W[io];B[mq];W[mn]
;B[nl])
(;B[mo])))
(;B[no];W[ls]))
(;B[nq]
(;W[np];B[nr];W[kr];B[ms];W[kq];B[ks];W[js];B[is];W[es];B[lo]
;W[kp];B[no])
(;W[kr];B[np];W[ls];B[lo];W[kp];B[mo];W[kq];B[js];W[ks];B[ns]
)))
(;B[nr]
(;W[nq];B[mr];W[or];B[no];W[np];B[pr];W[ns];B[mo])
(;W[no];B[or];W[on];B[po];W[mn];B[pm])))
(;B[lo]
(;W[kp];B[mp];W[lr];B[mr];W[ks];B[kr];W[js];B[is])
(;W[mp];B[kp];W[mr];B[nq];W[nr];B[or];W[np];B[pr];W[kr])))
(;B[lo]C[ff: This looks possible for Black.];W[kp];B[mp]
(;W[mo]
(;B[lq]C[ff: This is good enough.  White is left with a shapeless mass of stones with no base.]
;W[ln];B[kq];W[lo];B[np];W[op];B[oo];W[no];B[or];W[on];B[po]
)
(;B[ln]C[ff: Stronger resistence also looks possible, but...]
;W[mq];B[np]
(;W[lq]C[ff: White can not win the corner fight this way...]
;B[nq];W[nr];B[or]
(;W[mr];B[kr];W[os];B[pr];W[lr];B[ls];W[ks];B[js];W[es];B[ps]
;W[ms];B[ks])
(;W[kr];B[mr];W[lr];B[ns];W[js];B[is];W[es];B[ls]))
(;W[nq]C[ff: This looks too slow as well...];B[op];W[lq];B[or]
;W[nr];B[pr];W[kr];B[kq];W[lr];B[ms];W[es];B[ks];W[ls];B[js]
;W[eq])
(;W[op]C[ff: Unfortunately White has this resource that puts Black on the spot...]

(;B[lq];W[no];B[kq];W[po];B[qo];W[qn])
(;B[no];W[oo];B[po];W[nn];B[mn];W[nq];B[mo];W[pn])
(;B[nq];W[no];B[nr];W[or];B[mr];W[po]))))
(;W[lq]C[ff: White does not have time to play this way.  The bad aji of the stones on left will win for Black.]
;B[mq];W[lr];B[mr]
(;W[ls];B[ms];W[eq]C[ff: Because of White's shortage of liberties, Black wins the fight here.]
;B[fd]C[ff: White still needs another stone bfore Black needs to play.]
)
(;W[kr];B[ls])
(;W[ks];B[kr];W[ms];B[kq]))))
(;B[io];W[km]C[ff: White can not take advantage of Black's cutting points because Black has reduced the liberties of the captured White stones. This goes no where now.]
;B[ln];W[il];B[jl];W[ik];B[cl]C[ff: Since the ladder toward the upper right is broken, Black would even have time for this cut.]
))
(;W[jr];B[kr]C[f: There is no difference between this and the game.  This type of cut is only any issue when Black is forced to fill in from the outside.  This is not the case here.  White is simply captured.]
))
(;W[jr]C[ff: Would White have been better off to play this first?  It looks the same in the end but this whole situation is very complex.]
;B[kr]
(;W[ir];B[gn];W[ho];B[gq];W[hp];B[kq];W[gr];B[fr];W[hs];B[js]
;W[er];B[fs];W[es];B[ks];W[ep];B[is];W[eo];B[io])
(;W[gr]
(;B[fr]
(;W[gq];B[ir];W[fs];B[er];W[dr];B[es];W[gs];B[gn];W[ho];B[hp]
;W[js];B[ks];W[kq];B[is];W[jr];B[js];W[kp];B[hr];W[lr];B[hs]
)
(;W[ir]
(;B[gq])
(;B[gn];W[ho];B[gq];W[hp];B[kq];W[hs];B[fs];W[ks];B[js]
(;W[ls];B[lr])
(;W[is];B[lr];W[er];B[io];W[es];B[gs];W[ep];B[hr]))))
(;B[gq];W[hp];B[fr];W[ir];B[kq];W[hs];B[fs];W[js];B[gs];W[gn]
;B[io];W[er];B[ks];W[es];B[ho];W[ep];B[hr]))
(;W[hr];B[gq];W[hp];B[kq];W[gr];B[fr];W[fs];B[er];W[dr];B[es]
;W[is];B[ks];W[gs];B[js];W[ep];B[gn];W[ho];B[io];W[ds];B[ir]
)))
(;W[gl]C[ff: If White had played here, what was Black planning to do?]

(;B[gm];W[km])
(;B[hk];W[fm];B[gk];W[gm];B[lo]C[ff: Black is captured in the corner.  As in the game this is not necessarily bad because of Black's thickness toward the right and top but Black can not be happy considering the starting position.]
)))
(;B[gn]C[ff:  Why not here?  White is in far more trouble than Black...]

(;W[fn]C[ff:  Can White simply cut?];B[ho];W[gr];B[fr];W[jr]
;B[kr]
(;W[ir];B[hp];W[gq];B[js]
(;W[hs];B[fs];W[eo];B[ks];W[ep];B[is];W[er];B[gs])
(;W[fs];B[hs]
(;W[is];B[ks])
(;W[er];B[gs])
(;W[gs];B[er];W[dr];B[es];W[eo];B[is])))
(;W[fs];B[er]
(;W[dr];B[es];W[hs];B[hp];W[gq];B[ir]
(;W[gm];B[hn]
(;W[eo];B[js];W[ds];B[hr])
(;W[js];B[gs]C[ff: White has no ko threats]))
(;W[js];B[ks];W[is];B[gs]C[ff: White has no ko threats]))
(;W[ir];B[hs]
(;W[gs];B[hp];W[gq];B[es])
(;W[es];B[gs])
(;W[hp];B[hn];W[dr];B[gs];W[eo];B[es];W[ds];B[js]
(;W[ep]
(;B[is])
(;B[gq]))
(;W[is];B[gq]))))
(;W[gq];B[ir]))
(;W[ho]C[ff: If White has to turn back like this, the original idea of D3 and G3 just does not work.]

(;B[in]C[ff: Should Black go all out to torment White?  This looks possible but complex.]
;W[hn];B[hm];W[gm];B[fn];W[im];B[hl];W[io];B[jn];W[jo];B[ko]
;W[kn];B[jm];W[kp];B[lo];W[jr];B[kq];W[kr];B[lq];W[lr];B[mq]
;W[fm];B[gq];W[hp];B[gr];W[hr];B[hs];W[ir];B[em]C[ff: White seems to be in more trouble here than Black.  Game over?]
)
(;B[fm]C[ff: This way prevents Black from being cut off while leavingWhite with no shape at all so far.  This should be an easy game for Black.]
))))
(;B[go];W[fp];B[hp];W[gq];B[pk]C[ff: This way of playing may give White more in the lower left corner than is necessary but it perhaps illustrates best why the White play at D3 was incorrect.  White has surrounded the corner with 8 stones (seven if you discount for the one Black stone captured.  Yet the corner can still be limited by a play at C8 and so far amounts to only about 25 points.  Meanwhile Black has tremendous thickness facing the center and the right side.  This game is pleasure for Black to play.]
))
