(;FF[4]GM[1]SZ[19]ST[2]CA[UTF-8]AP[SGFC:1.15]

GN[or0528-glui(B) IGS]
PB[glui]
BR[3k*]
PW[or0528]
WR[2k*]
KM[0.5]
DT[2004-11-26]
PC[IGS:  igs.joyjoy.net 6969]
RE[B+Resign]
TM[60]

C[review was requested by Gabriel <gabriel@tuthk.com>.

I am 3k with black and playing with a 2K with white.

* I - Tommie, 3d EUR - will indicate my comments by an asterix.
Usually I focus what I think I can do better - 
local shape and global direction (I hope I get that right).

Any idea within the fundamentals of Go is fine.
If the fundamentals are hurt, then sharp criticism is necessary.

I will refer to white as she/her/herself etc.

As an extra, I added several diagrams/variations to a hamete-joseki which resembles to whites bad 19-20 exchange !

Black 35 missed a simple, crucial, directly punishing ladder.

White played several non-shape moves and black had quite a good position. Allowing W40 was a turning position.

B139 was greedy/dangerous at least - I think you did not see nor calculate the semeai. 

B 151 was almost correct.
B 151 often can be a big mistake losing 4 liberties.
Please read the relevant chapters (bigger eyes)
in Richard Hunters
http://senseis.xmp.net/?CountingLibertiesAndWinningCapturingRaces
or the "2nd book of Go".

B153, 155 are very bad moves in a semeai (taking away own liberties).

W152 missed a big opportunity to play a game-dominating ko.

In the end, you have deserved your win, white played bad shape in the beginning, not to speak of the careless lower left corner.]
;B[dd]C[
 or0528 2k*: hi];W[dp];B[pd];W[qp];B[cn]
(;W[pf]MA[nc]LB[fq:b]C[I am thinking should b7 be between w4 and w6 to avoid white building up a large territory there.

* W6 is an unusual corner approach in itself. 
Besides this it seems an easier strategy to me to to reply low on on 6-3 (b) or pincer B5.

There are no fixed rules in Go, but to see this moves played 
it is either a double kakari - i.e. a first corner approach "X" has already been made,
OR
(see var)];TR[nn][pn][rn]LB[pi:m][qf:L]C[there is some white strength (triangled stones) around there,
and white does not want to have its stone W6 pincered in the middle (m),
which in turn is easier if W6 was low ("L" on the 3rd line).]
N[W-strength + high kakari];B[nd];W[qd];B[qc];W[qe];B[rc];W[qj]
C[Perhaps White has been confused with a similar 3-4 Joseki justed shifted one line.

White stones are quite lose, Black has one line more territory.
The lower right 3-4 stone does not fit the upper white stones direction wise, esp. if black does a high kakari against it next move.
Black gained here.];B[fp];W[dn];B[dm];W[en];B[co]
(;W[cp]C[Why did white let her/himself be cut?

see the var];B[do];W[eo];B[ep]MA[eo][dn][en]SQ[fp]C[Whatever happens after this cut -
White should remain at a serious disadvantage.

Although there exists a hamete-joseki (hamete by black and black can be punished) where black cuts at 21,
then there is NOT the very important, helping triangled stone present (it halfway threatens to capture the 3 cutting stones in geta),
hence White has severely overplayed here.

There are no white stones helping globally at the star point and
white could/should lose either the 
pivotal 3 white cutting stones (X) and/or the corner.

E.g. .... if white wants to live in trhe corner like this :]

(;W[eq]
(;B[em]LB[cm:c][fq:d][bp:e]C[* I don't like this 23 - it strengthens white and weakens 13+21.
It does not help to protect the cut "c" nor is it at hane at "d" or "e".

Black 23 has the fee of an atari after which you do not capture something or cannot tell its precise use - vulgar !

You dont't expect white to pass and let the 3 stones be captured?!

I think that falls into the category of fuzzy-defined "fundamentals":
play efficient moves!

Just playing "d" has a purpose 
- harass the corner (because you can't capture the cutting stones in one move)
- then, either the corner dies or
- lives in gote (in the course of this having strengthened black)
- so that Black can capture the cutting stones.];W[go];B[fq]
C[what will happen if w26 play on C7?]
(;W[er];B[fr];W[bp]
(;B[cm]LB[cl:c][gn:d]C[29 better at c8 (c).
Lose geta at (d) is not working.];W[cr];B[hp]
(;W[gp]C[bad style from white,
loses a liberty,
 does not take care of weak points (bamboo g6 or else).];B[gq]
;W[ho]C[again bad style from white ,
this push covers blacks cutting point at H3.

White has not yet realized that slow-looking honte moves (e.g. bamboo) can be sente (e.g. against the cut H3)]

(;B[ip]N[too soft & docile]C[too soft & docile
not taking advantage of tactical possibilities

You should play ladder instead.];W[fm]C[Should b37 be on F8, then w-G7,b-g8 and so on

* Yes, give white bad shape
and build influence.]
(;B[fo]C[vulgar atari]N[vulgar atari];W[fn]C[is F8 is better than G6?

*Yes, I think so.

This cutting group (W38) is not so important anymore,
after all white is alive in the corner, and
both black side groups are reasonably settled/stable.

Hence, if white feels obliged to make unimportant stones alive or add stones there - black should feel happy.
By forcing white with F8, black adds stones to a (triangled)  black sphere of influence.]

(;B[gn]C[well, some moves before there was the ladder ...];W[fl]
C[* W40 turns the roles a bit.
At this moment of commenting I don't yet know the outcome of the game,
but W40 won't allow much of a black moyo on left top,
because must take care now of the C7 group
and
capturing the 3 white cutting stones G5 ff is unimportant.]

(;B[dj];W[io];B[jo];W[hm];B[jn];W[im];B[jp]LB[lq:m][mq:n][hq:o]
[jq:p][kp:q]C[* as with B29 before,
I'm not fully satisfied with the efficiency of this cutting point protection.

While m or n don't work because White could cut at "o",
I would consider defending with "p".

A white peep at "q" does not help white much,
but endgame-wise, "p" is much better if white extends later to m or n,
because she wants to extend (e.g. from a shimari).];W[cc];B[cd]
;W[dc];B[ec];W[eb];B[fc];W[bd];B[be];W[bc];B[cf]C[I feel OP-34 is very important but if white on E16 will be very trouble

* this is just a normal sequence, necessary to protect cutting points and take away aji.

I do not know what OP34 should mean.];W[fb];B[gc]C[I lost the chance to play on OP-34

* I do not know what OP34 should mean.
This white push on the 2nd line wants to prevent a black sente move there.
Black should not feel at all sorry not to have played there:

its great if the opponent crawls on the 2nd line !];W[mq]LB[oq:m]
[kq:n][fj:o]C[Where should black go, I have no idea just try N4

*  No ideas?
White played too far, black is safe on the left.

Either stirr locally trouble with BP3 (m) or 
defend with (n) (less good and not necessary if Black had played 47 earlier  at k3)
or 
tenuki locally and 
attack globally at e.g. "o" (building a framework):

White might flee out to the right,
then you could make your attachment move to gain strength and split.]

(;B[mp]N[ looks like a leaning attack?];W[nq]TR[hm][fl][fm]
[fn][go][ho][io]C[White is strengthened.

Black's move looks like a leaning attack.
A leaning attack compensates a local loss (here strengthening the corner)
by having an advantage in attacking something bigger.

However here is no such target:
the formerly unimortant triangled white cutting stones
have already one eye and are not easily attacked.

Playing nothing here is better than 61.];B[np];W[op];B[oo];W[pp]
;B[lq];W[lr];B[kq];W[fs];B[hr];W[qm]LB[no:c]C[B61 - W72 has gained:
the white corner is big and settled.

Black has not gained strength,
a cutting point "c" remains.];B[fj]C[* whow!

As I wrote,
I just go through the game, without having looked at the result.]
;W[jd]LB[gj:m][hj:n][hi:o]C[White wants to reduce early.

Alternatives to think about are m-n or even "o".];B[nf]LB[lc:m]
[ld:n][jf:o][hk:p]C[75 enables something in white's right side.

It is difficult for me to say something definitive on alternatives to 75:
analyzed could be m, n, o and p. 

(just flash thinking, some could perhaps result in something terrible)]
;W[lc];B[mc];W[ic]
(;B[gb]LB[ga:s]C[unfortunately, 79 is not sente.

Only with a sagari "s", 
Black could kill later.

Personally I would consider letting white connect on the 2nd row (always fun) and build moyo - just an idea:]

(;W[lb];B[mb];W[hd];B[ge];W[if];B[gg]LB[hg:e]C[85 could be at e.]
;W[hh];B[hg];W[ig];B[ih];W[ii]LB[hi:m][fi:n][jh:o]C[90 is vulgar atari,
just H11 (m) is better for the white lower left group,
enabling to play later endgame (n),

but more important,
what else now can Black do than extending to (o) ?
(o) harms the upper white group !];B[jh];W[hj]C[bad shape];B[gh]
;W[hi]C[white lost the flow of the game,
stabilizing the upper group is important.];B[kg]LB[kf:k]C[good stable move, black stays connected.

Keima (k) is more ambitious but more cuttable too.];W[le];B[ji]
;W[jj];B[kj];W[jk];B[kk];W[oi];B[gk];W[hk];B[gl];W[gm];B[jl]
;W[il];B[ik];W[ij];B[hl];W[jm];B[kl]LB[ga:s][mg:t][db:u][jb:v]
C[Payback time !

White's bad shape pays off  for black !

Now remember the previous diagram with the sagari-aji (s)
and you could imagine that a move at (t) 
- links up your stones
- blocks way out for white
- threatens corner kill (u)
- or life threatening invasion (v)];W[km];B[lm]C[perhaps too tight (cutting points),
 sometimes tobi is better];W[ln]
(;B[mn]C[more aji for white];W[ll];B[mm];W[ki];B[li];W[lj];B[kh]
;W[lk];B[ki];W[nk];B[mf];W[ek];B[ej];W[dk];B[ck];W[cj];B[bk]
;W[bj];B[fk];W[el];B[ci];W[bi]C[If I am brave enough, should black go to C12 instead ?

* Why, taking liberties directly from the stones you NEED to capture is better. 
You need to take them anyway - at least in the endgame (the black group (C7) won't have enough space to live on its own) -
so why wasting 1 point (C12) if you must place B and C11 anyway?

A saying from professionals is: 
"If you can remove/capture stones - do it !"
(preferably over stylish, slightly greater capture , but with more aji)]

(;B[bo]LB[ch:1][bh:2][ai:3][aj:4][in:1][gi:2][gj:3][ik:4][kn:5]
[hn:6]C[*  aaaaaaah !!
B39
Why?

If black simply captures 38 ff (4 moves),
black seems to lose endgame points around 39,

BUT
does not need to capture white with 6 moves ,
hence about 2 points gained,
leaving aside the thrill of the semeai to win.];W[ch]C[now you created your own semeai]
;B[cl];W[bm];B[am];W[an];B[ao];W[al];B[aj]
(;W[ai];B[ak];W[di]LB[gi:a][ap:b][dl:d][bn:x][am:y][bl:c][fi:cc]
C[at this moment,
Black has a 6-eyespace eye 
with 12 - 3 = 9 inside liberties
+
2 outside liberties ( "b" &  "d"),
totalling 11 liberties in first instance.

A complicating factor is that after white "b" she could make an eye  "y" by  "x" which Black could not punish with  "c" , because  "d" is then the last liberty.

Black is further lucky that white cannot approach at "a",
therefore not capture by (cc).]
(;B[bn]N[B151 is necessary, but early]
(;W[am]LB[ap:b][bl:c][dl:d][aq:e][bq:f]C[W 152 is a mistake - white should go for ko by playing at "b" (=B153).

Excurs: The single move 51 "seems" to (might) have reduced blacks liberties by several liberties in one move !!

It seems as if black makes his 6-space eye without need into a smaller 5-space eye:
A  6-space eye has a maximum of 12 virtual fighting liberties,
a 5-space eye has only 8. In general the difference is 4 liberties !
(Here it was 12-3=9libs+gote vs. 8-1=7libs+sente; hence the difference seems to be only 1 move/liberty)

Actually white can take here an outside liberty by "b" and then could continue from the inside with W51, because pressing with black "c" would be self-atari, because of White "d". 
So you were right, white "b" forces B51 anyway which then could develop into ko at 52 if white approaches at "d".

Your move B51 is thus almost correct, but because of above reasoning you should have forced at "b" (next move B53) before B51. 
White could not stop at "e", but had to give in at "f".

In general terms - keep your eye as big as possible.

Please read the relevant chapters (bigger eyes)
in Richard Hunters
http://senseis.xmp.net/?CountingLibertiesAndWinningCapturingRaces
or the "2nd book of Go"

Black has  now 
5-nakade (8-4=4)

4+2outside= 6 liberties in total

white will most probably get an eye above.]N[mistake, W at b => ko]
BM[1];B[ap]C[no real effect on the corner,

but should have been played before B51.];W[bq];B[aq];W[ar]C[another liberty lost]
;B[in];W[hn];B[gi];W[dl];B[bl];W[am];B[gj];W[bm];B[ik];W[an]
;B[al]C[Black wins the fight 3 to 2 liberties - by sheer luck ?]
)
(;W[ap]LB[bl:c][dl:d]N[ko - white should play here]C[Black is forced to ko at "@" now, because he cannot squeeze at "c".

In some example sequence I give hereafter, Black wins anyway,
but with ko it might become very complicated and unforeseen.]
;B[am];W[fi];B[gi];W[an];B[ga];W[dl];B[am];W[ei];B[gj];W[an]
;B[jb];W[ib];B[am];W[hq];B[gr];W[an];B[ia];W[bl];B[db]C[after 71 the white corner is dead

(and the upper side too)];W[cb];B[ba];W[da];B[fa]
(;B[ea]TB[jb][hg][ji][fk][hl][jl][oo][ep][aa][ba][ca][da][ea]
[fa][ga][ha][ia][ja][na][nb][nc][nd][ne][nf][oa][ob][oc][pa]
[pb][pc][qa][qb][qc][ra][rb][rc][sa][sb][sc][ab][ac][bb][bc]
[cb][cc][db][dc][eb][ec][fb][fc][gb][gc][mb][mc][ad][ae][bd]
[be][cd][ce][dd][de][ed][ee][fd][fe][od][pd][ge][gf][gg][gh]
[gi][gj][gk][gl][af][bf][cf][ef][ff][mf][mg][kg][kh][ki][kj]
[kk][kl][lg][lh][li][ih][jh][dj][ej][fj][lm][mm][jn][jo][jp]
[jq][mn][mo][mp][nn][no][np][fo][fp][fq][fr][hp][hq][hr][ip]
[iq][ir][kp][kq][lp][lq][gq][gr]TW[hd][le][mk][ln][io][fs][ib]
[ic][id][ie][if][ig][lb][lc][jd][je][kd][ke][qd][qe][qf][qg]
[qh][qi][qj][qk][ql][qm][qn][qo][qp][qq][qr][qs][pf][pg][ph]
[pi][pj][pk][pl][rf][rg][rh][ri][rj][rk][rl][rm][rn][ro][rp]
[rq][rr][rs][sg][sh][si][sj][sk][sl][sm][sn][so][sp][sq][sr]
[ss][ah][ai][aj][ak][al][am][an][ao][ap][aq][ar][as][bh][bi]
[bj][bk][bl][bm][bn][bo][bp][bq][br][bs][ch][ci][cj][ck][cl]
[cm][cn][co][cp][cq][cr][cs][hh][hi][hj][hk][di][ei][fi][ii]
[ij][oi][oj][ok][jj][jk][lj][lk][ll][nj][nk][dk][dl][dm][dn]
[do][dp][dq][dr][ds][ek][el][em][en][eo][fl][fm][fn][il][im]
[gm][gn][go][gp][hm][hn][ho][jm][km][op][oq][or][os][pp][pq]
[pr][ps][eq][er][es][mq][mr][ms][nq][nr][ns][lr][ls])
(;W[ca];B[ea];W[jc];B[he];W[kb];B[ja]
(;W[kd];B[kf])
(;W[kf];B[kd];W[lg];B[mi]TB[fk][hl][jl][oo][ep][aa][ab][ac]
[ba][bb][bc][ca][cb][cc][da][db][dc][ea][eb][ec][fa][fb][fc]
[ga][gb][gc][ha][hb][hc][ia][ib][ic][ja][jb][jc][ka][kb][kc]
[la][lb][lc][ma][mb][mc][na][nb][nc][oa][ob][oc][pa][pb][pc]
[qa][qb][qc][ra][rb][rc][sa][sb][sc][ad][bd][cd][dd][ed][fd]
[gd][hd][id][jd][kd][ld][md][nd][od][pd][ae][be][ce][de][ee]
[fe][ge][he][ie][je][ke][le][me][ne][af][bf][cf][ef][ff][gf]
[hf][if][jf][kf][lf][mf][nf][gg][hg][ig][jg][kg][lg][mg][gh]
[gi][gj][gk][gl][ih][jh][kh][lh][mh][ji][ki][li][mi][dj][ej]
[fj][kj][kk][kl][lm][mm][jn][jo][jp][jq][mn][mo][mp][nn][no]
[np][fo][fp][fq][fr][hp][hq][hr][ip][iq][ir][kp][kq][lp][lq]
[gq][gr]TW[nk][ln][io][fs][qd][qe][qf][qg][qh][qi][qj][qk][ql]
[qm][qn][qo][qp][qq][qr][qs][pf][pg][ph][pi][pj][pk][pl][rf]
[rg][rh][ri][rj][rk][rl][rm][rn][ro][rp][rq][rr][rs][sg][sh]
[si][sj][sk][sl][sm][sn][so][sp][sq][sr][ss][ah][ai][aj][ak]
[al][am][an][ao][ap][aq][ar][as][bh][bi][bj][bk][bl][bm][bn]
[bo][bp][bq][br][bs][ch][ci][cj][ck][cl][cm][cn][co][cp][cq]
[cr][cs][hh][hi][hj][hk][di][ei][fi][ii][ij][oi][oj][ok][jj]
[jk][lj][lk][ll][dk][dl][dm][dn][do][dp][dq][dr][ds][ek][el]
[em][en][eo][fl][fm][fn][il][im][gm][gn][go][gp][hm][hn][ho]
[jm][km][op][oq][or][os][pp][pq][pr][ps][eq][er][es][mq][mr]
[ms][nq][nr][ns][lr][ls]C[and the upper side is dead too ...

like this, black would win too.

However, with kos you don't know when the opponent will starts them or how they end - its all so complicated.

Hence why give white a chance ?])))
(;W[fi];B[gi]LB[gj:a]C[Black is lucky that white cannot approach at "a".]
))
(;B[ap];W[bq];B[in]
(;W[hn]N[W54 at H6 results in ko];B[bn];W[aq];B[am]C[ko])
(;W[aq]N[W54 at A3 loses the semeai];B[hn];W[bn];B[kn];W[ik]
;B[gi]LB[bl:c][dl:d]C[W54 at A3 loses the semeai -
White cannot approach at either "c" or  "d"])))
(;W[ak]N[48 - ko or nakade?];B[bn];W[ai]
(;B[am];W[di];B[bl]C[was this your (black's) idea?])
(;B[bl]N[not oitsubushi]C[not oitsubushi,
but white loses by liberties

or at least in a non-promising ko 30 moves later];W[am];B[aj]
;W[am];B[di];W[ak];B[al];W[cg];B[bg];W[bh];B[dg];W[dh];B[eh]
C[like this, 
white loses on liberties,

ko-aji seems marginal

I don't see W winning this ko after 20 moves];W[df];B[eg];W[ag]
;B[bf];W[ae];B[aj];W[hq];B[iq];W[ak];B[ce];W[af];B[aj];W[gr]
;B[gs];W[ak];B[ad];W[ac];B[aj]C[where is a big W ko threat ?]
)))
(;B[ch]N[simply nobi captures]C[simply nobi captures !

White has only 3 liberties.];W[bh];B[bg];W[cl];B[bl];W[am];B[bm]
;W[bo];B[ah]C[white does not win this fight]))
(;B[mm]N[nobi - safer, white achieves nothing]C[nobi is much safer, 
white achieves nothing];W[mn];B[nn];W[lp]
(;B[nm];W[lo];B[no];W[kn];B[kr]C[white achieves nothing (dead)]
)
(;B[lo]N[dangerous? no - usually vulgar atari works here]C[dangerous? no - usually vulgar atari works here]
;W[mo]LB[kn:s][kp:t][no:u]C[because any of black s, t or u work and
white cannot give double (triple) atari at u.])))
(;AB[ga]N[sagari s has killing aji]PL[B]FG[4353:]PM[1];B[db]
LB[jb:j]C[Killing 1 and a jump to "j" could form a nice miai on both groups.]
;W[cb];B[ba];W[da];B[fa];W[ad];B[ab]))
(;B[ie];W[gb];B[ij]LB[hc:f][hb:g][id:h][jc:i][je:j][hd:e]C[if White wants to enter at e
black f to j cut off nicely.]
(;W[kl]LB[hd:e][hc:f][hb:g][id:h][jc:i][je:j]C[if White wants to enter at e
black f to j cut off nicely.];B[hk];W[ik];B[jk];W[il];B[kj]
;W[gk];B[hj];W[lm]C[if];B[pk];W[qk]C[starting a leaning attack ...]
;B[pm];W[pl];B[ol];W[ql];B[ml]LB[no:c][mo:d]C[taking a vital point 
(just a flash idea - I didn't do any calculation on whether White can escape or not).

Cut white c is sacrificed by black d])
(;W[hd];B[hc];W[hb];B[id];W[jc];B[je];W[ed];B[gd];W[ee];B[ge]
C[I think black could afford to play the honte 91 on the right
and still win a fight on the left.];W[df];B[ce];W[ch];B[dg]
;W[eg];B[dh];W[cg];B[ci];W[eh];B[di]
(;W[bg];B[ah]
(;W[bi]
(;B[bj];W[af];B[ae];W[ad];B[ag];W[de]C[some danger])
(;B[af]
(;W[bj];B[bh])
(;W[bh];B[bj]C[white is captured])))
(;W[af];B[bh]
(;W[bi];B[bf])
(;W[ae];B[ag])))
(;W[af];B[bg])
(;W[ag];B[bg];W[bh];B[bf])
(;W[bi];B[bg];W[bh];B[bj];W[ag];B[bf];W[ae];B[ai]))))
(;B[fj]N[idea: building a framework]C[idea: building a framework

I don't say that's the 
best and only move.

It's just an idea within the fundamentals of Go.];W[gj];B[gi]
;W[hj];B[hi];W[fk];B[ej];W[ij];B[jh];W[kl];B[mo];W[op];B[oo]
))
(;B[in]LB[hn:s]C[White would not answer at "s" just to get herself squeezed
(after all those stones are unimportant - so why save?)

but press with keima on the left.]N[squeeze technique?]
(;W[dk];B[bk])
(;W[hn];B[hm];W[gm];B[io];W[gn]
(;B[hl])
(;B[dj])
(;B[ek]))))
(;B[fl]N[white is cramped (again) - influence for Black];W[hm]
;B[gl];W[gm]C[white is cramped again]))
(;B[fl]N[give white bad shape];W[gm];B[gl];W[hm];B[hl]
(;W[im];B[jk]TR[fc][dd][jd][dh][fl][gl][hl][cm][dm][em]C[look at the triangled sphere of influence !

If black can realize this ...])
(;W[jn]C[if here ?]N[if here ?];B[im]
(;W[jo];B[fo];W[fn];B[hn]C[just for example])
(;W[in];B[fo];W[fn];B[hn];W[gn];B[io];W[hn];B[jm];W[kn];B[lq]
;W[km];B[jk]))))
(;B[fo]N[punish White's bad style immedeatly - ladder!];W[fn]
;B[gn];W[fm]
(;B[fl]N[better way to start the ladder]C[this is a 
better way to start the ladder.

Black threatens oce more on the pivotal stones ...];W[gm];B[hn]

(;W[io]C[if W saves with 42]N[if W saves with 42 => ladder]
;B[hm];W[gl];B[gk];W[hl];B[il];W[hk];B[hj];W[ik];B[jk];W[ij]
;B[ii];W[jj];B[kj];W[ji];B[jh];W[ki];B[li];W[kh];B[kg];W[lh]
;B[mh];W[lg];B[lf];W[mg];B[ng];W[mf];B[me];W[nf];B[of]C[the ladder works]
)
(;W[gl]N[White had to stop the ladder];B[io];W[fk];B[dj]C[this could be a likely result -
not bad at all for black !]))
(;B[hn]C[if 39 like this ...]
(;W[io];B[fl];W[gm];B[hm];W[gl];B[gk];W[hl];B[il];W[hk];B[hj]
;W[ik];B[jk];W[ij];B[ii];W[jj];B[kj];W[ji];B[jh];W[ki];B[li]
;W[kh];B[kg];W[lh];B[mh];W[lg];B[lf];W[mg];B[ng];W[mf];B[me]
;W[nf];B[of]C[nice, isn't ?

Lee Sedol himself would have difficulties to turn that around!]
)
(;W[fl]C[white extends here first !
in sente,
then save W35
and subsequently make shape in the center];B[ek];W[io];B[jq]
))))
(;W[gn]N[bamboo protects but is slow/heavy])
(;W[fm]N[trying to make  shape];B[fl]C[trying to make eye shape
is slow too (useless).

White does not prevent that the right low 3-4 looks globally bad and
there is not much attack on the lower nor
the left black stones.];W[gm];B[gl];W[hm]N[trying to make eye shape]
))
(;B[cl]C[29 better at c8 (c).]N[29 better at c8 (c)])
(;B[gn]N[geta d does not work];W[fo];B[ho];W[gp];B[hq];W[cm]
C[white escapes]))
(;W[cm]N[w26 on C7 ?];B[bp];W[bq];B[bo]
(;W[bm]C[White wants to capture in 3 moves]
(;B[cq];W[dq];B[cr]C[and is captured herself !])
(;B[fm]
(;W[fo];B[cq];W[dq];B[cr])
(;W[bn];B[fo];W[ao];B[fn];W[ap]C[this is meaningless for white]
)))
(;W[fm];B[cl]C[if 30, this would resolve calmly])))
(;B[fq]N[only hane is better/simpler];W[bp];B[cl];W[er];B[fm]
))
(;W[bp]N[capture cutting stones !];B[cl];W[eq];B[fq];W[er];B[fm]
MA[eo][dn][en]C[black has captured the pivotal cutting stones -
never mind whether the corner lives or not !])
(;AE[do][eo][ep][fp]C[perhaps it is interesting to learn about this variation:

please notice BF4 is not present!]PL[B]FG[4353:another hamete joseki]
PM[1];B[bp];W[bq];B[do];W[eo];B[ep]
(;W[bo]C[W6 is not good enough.]N[black outside influence];B[cm]

(;W[eq];B[fp];W[fq];B[gp];W[gq];B[hp]C[black has outside influence]
)
(;W[fp];B[eq]N[white fails: 4  useless center stones];W[dr]
;B[er];W[dq];B[gq]C[white with her 4 stones in the center]))
(;W[cm]N[cutting directly => White outside influence !]C[cutting immedeately is best:]

(;B[bm];W[cl];B[bl]
(;W[ck];B[bo];W[fp]C[W12, inducing is good now];B[eq];W[dr]
;B[er];W[dq];B[gq];W[br];B[bk];W[cj]C[White has nice outside influence !]
)
(;W[bo];B[bn];W[ap];B[ck];W[fp]C[also good for White]))
(;FG[4353:cutting immedeately is best\:]PM[1];B[bm];W[cl];B[bl]
;W[ck];B[bo];W[fp];B[eq];W[dr];B[er];W[dq];B[gq];W[br];B[bk]
;W[cj]C[White has put her 4 cutting center stones to use =>
resulting in nice outside influence !]))))
(;W[ep]N[wall building bad here];B[bq];W[em];B[dl];W[el];B[dk]
;W[jp]MA[dj]C[Why did white let her/himself be cut?

It would be painful for White to push 20-22 Black on the 4th line (there is no white stone "X" blocking black in hane) and
it is not a white sanrensei below, rather the lower right 3-4 is open for invasion.
Hence, the white strength 18-22 will not materialize in so much territory as to compensate the loss for pushing on the left.

Perhaps this was the consideration that she tried something else.]
))
(;W[fq]))
