(;FF[4]GM[1]SZ[19]ST[2]CA[UTF-8]AP[SGFC:1.15]

PB[Kyoshinai]
BR[11k]
PW[Stefy]
WR[10k]
KM[0.5]
DT[2004-12-02]
PC[The Kiseido Go Server (KGS) at http://kgs.kiseido.com/]
RE[B+15.50]
TM[1200]
OT[5x30 byo-yomi]
RU[Japanese]

C[Kyo: Hello, I am Kyoshinai, 11k on KGS.

This is a game I played recently. I won by quite a huge margin (15,5 points), but that is only because I managed to kill a group in the end of the chuuban.

I think I had quite a good position at the start, but as usual I have difficulties to make good use of my walls.]
;B[pd];W[dp];B[pq];W[dd];B[qk];W[po];B[np];W[no];B[mo];W[op]
;B[nn]C[Kyo: Here I chose to give up the corner in order to get a great thickness]
;W[oq];B[oo];W[qq];B[pn]
(;W[pr];B[qo];W[pp]
(;B[fq];W[iq]C[piaf : yes];B[fo]
(;W[gp]C[piaf : no. to much direct];B[fp];W[dn]
(;B[go]C[Kyo: I thought of L3 also. But since I chose to focus on a strong center thckness, letting white escape may have proved desastrous, especially since the F4 group is weak.
piaf : the black group is weak. It is necessary to think has to leave it before building another thing. Or to sacrifice it...]
;W[mq]C[piaf : yes]
(;B[nq]C[piaf : useless];W[nr];B[lq];W[lr];B[mp];W[mr];B[io]
;W[kq]
(;B[kp];W[jp];B[jo];W[lp];B[ko]
(;W[hp]
(;B[ip];W[jq];B[ho]C[Kyo: With this kind of wall I think the game was good for Black (up to now)]

(;W[hq]C[Kyo: Small move by White
piaf : too small];B[fc]C[piaf : yes];W[ic]C[Kyo: I have difficulties playing against pincers. I now the san-san invasion is often played at that moment, but I did not actually play it (I think I was afraid of giving White too much power towards the center, but the actual game resulted in a strong white position, in addition to keeping the corner. So that may not have been a wise choice).
piaf : your choice is for moyo.]
(;B[df]C[piaf : i'm not agree with this stone];W[ee]C[piaf : yes. Black is split in two groups]
;B[ef];W[fe];B[dj]C[Kyo: Should Black keep on pushing (with F14 or G14) ?
piaf : not, it is necessary to keep the potential of the other stone F17]
;W[nc]
(;B[qf]C[Kyo: Maybe Q14 was more according to my initial plans
piaf : too slow and too secure]
(;W[qc]C[piaf : no !];B[pc];W[pb];B[ob];W[qb];B[oc];W[re];B[rf]
;W[qe];B[pe];W[qd]
(;B[pg]C[Kyo: I felt uneasy about the cut, but now I think a capping at O16 would have been enough. If White cuts, Black has a splitting attack going on.]
;W[pj]C[Kyo: I thought this was an overplay, but I feel like I did not answer properly.
piaf : ouch ! abusive move]
(;B[nh];W[nj];B[li]C[piaf : yes. Use your wall at south.];W[lj]
;B[kj];W[mi];B[mh];W[ki];B[lh];W[kk];B[jj];W[lk];B[ni];W[oi]
;B[mj];W[mk];B[nk];W[mi]
(;B[ok];W[pk];B[ql];W[ol];B[nl];W[om]
(;B[on];W[nm];B[ml];W[mm]C[Kyo: White misread here];B[ll];W[km]
;B[mj]
(;W[oj];B[kl];W[jk];B[jl];W[ik];B[jm]
(;W[ji];B[ij];W[hk];B[ii]C[Kyo: Better at H11 ?
piaf : J11 is ok];W[lo];B[ln];W[mn];B[lq];W[pm];B[qm];W[fl]
;B[mi];W[hi];B[jh]C[Kyo: J12 ?
piaf : yes, a little better.];W[ih];B[kh]
(;W[hj]
(;B[ig];W[ff];B[kc]
(;W[kd];B[jd]C[Kyo: Overplay ?
piaf : no];W[jc];B[lc];W[ld]
(;B[mc]C[Kyo: Misread here];W[je];B[fg];W[ei];B[di];W[eh];B[dh]
;W[eg];B[dg]
(;W[gg]
(;B[ej];W[fi]
(;B[dm]C[Kyo: Very bad. In my mind the center group would still be cut. It oubviously can't be.

Kyo: C7 instead might be quite big ?
piaf : yes];W[cm]
(;B[em];W[cl];B[bk];W[ck];B[cj];W[bl];B[bj];W[be];B[cc]C[Kyo: Misread here
piaf : ouch]
(;W[dc]
(;B[cd]C[piaf : no];W[ce];B[de];W[cb];B[ed];W[bc];B[db]C[piaf : overplay]
;W[bd];B[ec];W[gb];B[gc];W[hc];B[hd];W[id];B[he];W[gd];B[ge]
;W[gf]
(;B[fd];W[hf];B[if];W[ie];B[hh];W[gh]
(;B[bg];W[bh];B[ah];W[bf];B[ch];W[bi]
(;B[ak]C[piaf : oups];W[ai];B[ag];W[cf]C[piaf : black is dead]
;B[cg];W[ci];B[aj];W[bi];B[el]C[piaf yes !];W[en];B[fm];W[fn]

(;B[gn]C[piaf : no !];W[ek]C[piaf : yes];B[fk];W[gl];B[gm];W[dk]
;B[gk]
(;W[hl]C[piaf : oups];B[fj];W[hm]C[Kyo: Lucky
piaf : yes :-)];B[cn];W[bn];B[co]C[piaf : game is down now]

(;W[do];B[bo];W[bp];B[an]
(;W[bm];B[am];W[cp];B[ao];W[ap];B[al];W[er];B[fr];W[eq];B[es]
;W[ds];B[fs];W[cr];B[nd];W[md];B[ne];W[ro];B[rn];W[rp];B[se]
;W[sd];B[sf];W[rc];B[is]C[Kyo: From here on I don't think there is much to say. I was quite short on time. So my yose is not very good.]
;W[hs];B[hr];W[js];B[ir];W[jr];B[gs];W[lf];B[nf];W[kb];B[lb]
;W[la];B[nb];W[jb];B[ma];W[ka];B[so];W[sp];B[sn];W[mg];B[mf]
;W[lg];B[ng];W[kf];B[hn];W[im];B[in];W[gd];B[af];W[ae];B[qn]
;W[qp];B[pa];W[qa];B[oa];W[gq];B[gr];W[hg];B[ih];W[me];B[ep]
;W[jf];B[il];W[gi];B[lp];W[eo];B[tt];W[tt]TW[aa][ba][ca][da]
[ea][fa][ga][ha][ia][ja][ra][sa][ab][bb][db][eb][fb][hb][ib]
[rb][sb][ac][cc][ec][fc][gc][sc][ad][cd][ed][fd][hd][jd][rd]
[ge][he][ke][le][fg][fh][aq][bq][cq][dq][pq][rq][sq][ar][br]
[dr][kr][or][qr][rr][sr][as][bs][cs][ks][ls][ms][ns][os][ps]
[qs][rs][ss]TB[na][mb][nc][od][oe][of][pf][og][qg][rg][sg][bh]
[oh][ph][qh][rh][sh][ai][bi][ci][ji][ki][oi][pi][qi][ri][si]
[nj][oj][pj][qj][rj][sj][ck][dk][ek][pk][rk][sk][bl][cl][dl]
[ol][pl][rl][sl][bm][cm][km][lm][mm][nm][om][pm][rm][sm][bn]
[jn][kn][mn][lo][no][hs]C[Kyo: Thank you ! :)])
(;W[am]C[Kyo: Ko is best]))
(;W[bo]C[Kyo: Much better for White]
(;B[do];W[cp];B[eo];W[dr]C[Kyo: Ok])
(;B[cp];W[do];B[bp]C[Kyo: White could get something here I think]
)))
(;W[fj];B[hl];W[gj]))
(;B[gm]C[piaf : for life];W[gn];B[hm];W[hn];B[im]))
(;B[cf]C[piaf : alive])
(;B[ai]
(;W[cf];B[ak])
(;W[ak];B[cf])))
(;B[bh]C[Kyo: Ok for life I guess
piaf : yes]
(;W[bg];B[cg];W[bf];B[ci])
(;W[bf];B[cg])))
(;B[if];W[fd]))
(;B[ce]C[piaf : yes, better];W[cd];B[bf];W[de];B[cf];W[bd]))
(;W[cd]
(;B[dc];W[bg]C[piaf : dead])
(;B[bf];W[af];B[bg];W[dc])))
(;B[cl];W[dl];B[bm];W[em];B[bl];W[bn];B[ce]))
(;B[cl]))
(;B[cl]))
(;W[cl]))
(;B[je]C[Kyo: This seems to be better
piaf : not at all.];W[mc];B[mb]
(;W[kb]C[piaf : no];B[lb];W[nb])
(;W[nb];B[lb]
(;W[me]C[piaf : no];B[na])
(;W[oa];B[md];W[nd];B[me];W[ne];B[nf])))
(;B[md];W[je];B[le]))
(;W[dh]))
(;B[cl]))
(;W[gh];B[hj];W[gj];B[gk];W[gl];B[fk];W[hm];B[fj];W[gi];B[cl]
))
(;W[ii]))
(;W[kl];B[oj];W[lm];B[nj];W[hl]))
(;B[nm];W[on];B[no]
(;W[qn];B[pm];W[pl];B[qm])
(;W[pm];B[qn];W[pl];B[qm])))
(;B[nl]))
(;B[nj]))
(;B[of]))
(;W[ne]))
(;B[ne];W[pb]
(;B[qb];W[pc];B[qc];W[od];B[oe];W[qd];B[pe];W[rc];B[rd])
(;B[qc]C[piaf : too slow])
(;B[ld];W[qc];B[qd];W[rd];B[re];W[rc];B[ie])))
(;B[fe];W[df];B[ie];W[nc];B[oc];W[nd];B[of];W[kd];B[jd];W[jc]
;B[ke];W[ld];B[le];W[fj];B[hj]))
(;W[jd]))
(;B[fl])
(;B[jd]C[piaf: this move is not possible now];W[ho];B[hn];W[gn]
;B[gm];W[fn]
(;B[im])
(;B[ip];W[hr];B[jq];W[jr];B[gr];W[hq];B[en];W[fm];B[em];W[fl]
;B[el];W[eo];B[fk];W[gl];B[gk];W[hl];B[in];W[ek]C[piaf : etc.]
)))
(;W[jd]))
(;B[ko]))
(;B[kp];W[kq];B[hp]))
(;B[fm];W[dl];B[in]))
(;W[dn]
(;B[jp];W[mq])
(;B[nq];W[gp];B[fp];W[hm];B[go];W[ho];B[hp];W[ip];B[hq];W[in]
C[piaf :   black is cut in two groups])))
(;B[fc];W[df];B[jd];W[mq];B[jp]C[piaf : a moyo formation]))
(;W[qo]C[piaf : you can play here.]))
