(;FF[4]GM[1]SZ[19]AP[SGFC:1.15]

GN[burt802-kmartine-20041101.sgf]
PB[Kirk Martinez (kmartine)]
BR[2 kyu]
HA[2]
PW[burt simon (burt802)]
WR[1 dan]
KM[6.5]
DT[2004-07-29,2004-11-01]
PC[Dragon Go Server: http://www.dragongoserver.net]
RE[W+11.5]
GC[Game ID: 72508]

AB[pd][dp]C[I'm playing black in this game.  I was rated 2k at the time and playing against a shodan.  I am slowly but surely outmaneuvered and my move 100 I'm probably already lost.  Where did I go wrong?]
PL[W];W[pp];B[dd];W[fc];B[df];W[jd];B[nq]C[Is this right?  Perhaps I should play m17 instead?  How bad is it to let white play both f17 and o17?
JH : 6 is playable but M17 or N17 are perhaps a little better.]
;W[nc];B[pn]C[Trying to make the most of o3.  Perhaps I should just play r14 instead, then if white r6, black k4 and I still have a nice formation.
JH : still OK. R14 is good also];W[np];B[mp];W[no];B[oq];W[pq]
C[13 : Overplay. Black shoul cut.];B[kq];W[po]C[Exchanging 14 for 15, you lost  some points]
;B[qi]C[Trying to do two things at once.  Is it efficient or is it ineffective?
It looks OK for me];W[qn];B[qm]C[r7 should tenuki.  Perhaps c6?
JH : You can tenuki abd play C10. I think it easier to win with this move]
;W[rn]C[Black should be happy with this kikashi and play elsewhere]
;B[pm];W[rm];B[mo]C[No need to play here];W[nm];B[mn];W[om]
C[Now I've weakened my own three stones, and for what?  Perhaps n5 should just be s8?
N5 should be C10. S8 is not a good point];B[pf]C[Not bad];W[ch]
;B[ck]C[Not sure why c9 instead of d9.  I think I'm playing fearfully...
JH : Both are OK];W[dc];B[cc];W[db]C[W31 : Strange move.];B[cd]
C[Is this proper shape?  Should it be c15 instead?
JH : It looks OK];W[bf];B[eh]C[34 : the shape is not so good.
I think playing E13 or C13 and D12 are better];W[di];B[ek];W[ei]
;B[bi]C[Is this premature?  Should be at f12?
JH : Yes. F12 is normal];W[fh];B[eg];W[fi];B[cb]C[42 : Black should go out now.G14]
;W[dl];B[dk];W[dn]C[White is pushing it a bit now, I think.

White is trying too much. I agree];B[co];W[cn];B[gk]C[No!  The corner is much weaker and the line-9 group is further into the center than white's three stones.  Should be e5, probably.
JH : Or simply F4, the regular move.];W[ep];B[eo]C[50 : This is where you loose the game. Should be simply at E3]
;W[do];B[cp];W[eq];B[dq]C[Ugh];W[dr];B[cr];W[er];B[cs]C[B58 : B3 look better]
;W[fn]C[ouch];B[fo]C[refusing to admit defeat!
JH : Ok it is a mistake];W[go];B[hq]C[finally admitting defeat!]
;W[gq];B[hp]C[gote.  Should tenuki to...h16 or h17?

H17 is the point there but it is not possible with Black weak group.]
;W[ii];B[gf]C[now the line-9 stones are becoming weak.  g14 just let's white defend the weakness at h16.]
;W[fe];B[fg];W[hd];B[ik];W[in]C[W71 is not so good. H5 is simple.]
;B[ho];W[gn];B[hn]C[74 : Good You recover.];W[fl];B[fk];W[ig]
;B[if]C[May be playing at C14, B13 and B15 is easier.];W[hg]
;B[hf];W[gg];B[ff];W[ee];B[cg]C[84 : Bad shape : should be played at C14. May be the loosing move.]
;W[bh];B[lc]C[In light of future events, this should probably be a connection to the UL corner...
JH : Yes you have to connect your stones and be more patient.]
;W[de];B[ce];W[cf];B[be];W[bg];B[jf];W[ld];B[lf];W[md];B[oc]
;W[nb];B[ob];W[qk]C[For White 014 is a sente point.];B[nd];W[ne]
;B[od];W[mc];B[me]C[taking gote again to connect -- but not securely.  Probably just playing o14 is more solid, although it is also gote and threatens nothing.
JH : O14 looks better];W[oj]C[It looks close, but white has a lot of sente endgame plays...]
;B[oi];W[rj];B[gl];W[bn];B[bq];W[ni];B[oh];W[mj];B[mh];W[bj]
;B[mm];W[ri];B[rh];W[oa];B[pa];W[na];B[qb];W[bo];B[bp];W[sh]
;B[rg];W[sg];B[sf];W[si];B[rf];W[lk];B[kl];W[gr];B[da];W[eb]
;B[pr];W[qr];B[or];W[qs];B[hr];W[hs];B[is];W[gs];B[ir];W[nh]
;B[ng];W[gm];B[hm];W[qj];B[gp];W[fp];B[ic]C[I see I'm behind now and this is just a pathetic attempt to make something out of nothing.  Please look no further.
JH : Yes Black is behind, but no so far.];W[id];B[kc];W[kd]
;B[gb];W[ea];B[ca];W[gc];B[hb];W[jb];B[jc];W[lb];B[bk];W[ci]
;B[jh];W[jg];B[kg];W[ji];B[mi];W[nj];B[ki];W[ll];B[lm];W[kk]
;B[jk];W[ad];B[ae];W[ab];B[ac];W[bc];B[bb];W[ed];B[bd];W[af]
;B[ac];W[ml];B[ih];W[hh];B[kh];W[hj];B[pj];W[pk];B[pi];W[hk]
;B[hl];W[el];B[nn];W[on];B[gj];W[gi];B[op];W[oo];B[ps];W[le]
;B[mf];W[dg];B[ao];W[an];B[ap];W[ef];B[aj];W[ai];B[ak];W[cl]
;B[bl];W[bm];B[ds];W[es];B[kj];W[lj];B[li];W[ge];B[cj];W[jj]
;B[jl];W[bi];B[ij];W[hi];N[RESULT]C[White: 67 territories + 15 prisoners + 6.5 komi = 88.5
Black: 72 territories + 5 prisoners = 77
Result: W+11.5])
