(;FF[4]GM[1]SZ[19]ST[2]CA[UTF-8]AP[SGFC:1.15]

GN[Jabitoll-Nesco-20041115.sgf]
PB[Erik de Jong (Nesco)]
BR[10k]
PW[Nanick Jabitoll (Jabitoll)]
WR[13k]
KM[6.5]
DT[2004-11-02,2004-11-15]
PC[Dragon Go Server: http://www.dragongoserver.net]
RE[B+31.50]
RU[Japanese]
GC[Game ID: 85978]

C[-hi my name is lect, i will be reviewing your game. i currently play on KGS
- comments are made for black];B[pc];W[pp];B[dp];W[dd];B[qe]
;W[jd];B[qn]C[- this stone is played on the wrong side. O3 would be better as it works with D4 stone and offers a more interesting option(s)]
;W[nq]
(;B[pk]C[- not the best move. this is why R6 was not the right choice, because you will have to end in gote to form a decent shape.

- in this situation, S4 is joseki];W[jp];B[gq]C[- wrong direction, play C6 or C7. now is not the time to provoke fights, plus C6/C7 prevents white from dominating the left side]
;W[cn];B[co]C[- contact plays in this situation force W to form a strong shape. avoid contact plays. your shape is still very open to attack because of G3. it should be one line closer at F3]
;W[dn];B[ci]C[Maybe C10 is better or perhaps D10 for "easy" escape to the center?]
;W[dj];B[cj];W[dk];B[cf];W[fd];B[bd];W[cc]C[- ok];B[lc]C[- overplay. N17 much better]
;W[jc]C[What about this move? Wouldn't it be best to tenuki?
Is there a better move for this respond?

- N17 would've been better than M17. this move allowed W to fix some weak points. you can tenuki here, but for now M17 is a floating (and wasted) stone]
;B[di]C[- rule of thumb: dont attack until your groups are settled. this is a wasted move because W can reply at C3 or E3, or just escape. also, W does not have much (if anything) in the center right now.]
;W[cq];B[bo];W[er];B[dq]C[- best not to force W to connect. also, be wary of ladders in this type of situation]
;W[dr];B[fq];W[bq]
(;B[qp]C[- S4];W[qq];B[po];W[rp];B[qo];W[op]
(;B[qh];W[pb]C[- you're in a dilemma now. this is a result of the weak stone at M17. if your stone were at N17, then killing it wouldnt have been a problem. now you should cut your losses and consider M17 expendable]

(;B[oc]C[Here I went wrong, was there a way to kill that stone? Or maybe M15 or M16 would prove a very nice follow-up move.

- this is a result of the weak stone at M17];W[qc];B[qd];W[rc]
;B[ob];W[qa];B[rd];W[rb]TR[ob][oc][pc][qd][rd][qe]C[- the most inefficient shapes!]
;B[jr]C[- good];W[oe];B[of];W[ne];B[nf];W[me];B[pe];W[mf];B[lq]
;W[nn];B[ho]C[- E11 first, put some pressure on W and see what happens.]
;W[nk];B[oi];W[hm];B[in]SQ[bc][bl][ro]C[- wasted move, K4 is not worth it right now.]
;W[bc];B[ce];W[pl];B[ql];W[pm];B[qm];W[fi];B[li]C[- too far]
;W[ni];B[nh];W[mi]
(;B[lj];W[mh];B[ng];W[mg];B[ij];W[oj]
(;B[pj]C[I moved too fast here. This would have cost me the game, hence my attack on the mid-left group.]
;W[oh];B[ph];W[pi];B[og];W[oi]
(;B[fj];W[fk];B[gj];W[ej];B[ei];W[fh]
(;B[em]C[- if you're looking to kill, F8 is a starter. destroy the eye and shape]
;W[el];B[fm];W[dm];B[cl];W[ck];B[bk];W[dl];B[bl];W[gk];B[hk]
;W[gl];B[gn];W[im];B[jm];W[jl];B[km];W[kl];B[ll];W[lm];B[lk]
;W[jn];B[kn];W[go];B[jo];W[hn];B[fo];W[ik];B[jj];W[qi];B[rh]
;W[ri];B[ro];W[rq];B[rj];W[si];B[qj];W[rk];B[sj];W[sh];B[rg]
;W[sg];B[rf];W[ln];B[kp];W[lo];B[ko];W[hi];B[hj];W[jh];B[kh]
;W[kg];B[gi];W[gh];B[hh];W[hg];B[ih];W[ig];B[ii];W[ki];B[lh]
;W[ji];B[kj];W[jg];B[jk];W[il];B[gm];W[hl];B[fl];W[en];B[gp]
;W[ml];B[bn]C[I had enough liberties to make at least one tenuki]
;W[mk];B[eo];W[mb];B[mc];W[lb];B[se];W[dg];B[cg];W[de];B[df]
;W[ef];B[eg];W[fg];B[eh];W[ff];B[oa];W[pa];B[fr];W[br];B[mr]
;W[nr];B[ns];W[os];B[ms];W[pr];B[om];W[ol];B[on];W[oo];B[pn]
;W[mq];B[kr];W[od];B[pd];W[kb];B[nb];W[ld];B[ac];W[ab];B[ad]
;W[cd];B[be];W[ba];B[lp];W[mp];B[nm];W[mm];B[eq];W[es];B[kc]
;W[kd];B[so];W[fs];B[gs];W[ap];B[bp];W[aq];B[sp];W[sq];B[ma]
;W[md];B[nc];W[ok];B[rl];W[mj];B[la];W[lg];B[cm];W[ja];B[ao]
;W[sc];B[na];W[ka];B[sd];TW[aa][ca][da][ea][fa][ga][ha][ia]
[ra][sa][bb][cb][db][eb][fb][gb][hb][ib][jb][qb][sb][dc][ec]
[fc][gc][hc][ic][ed][gd][hd][id][ee][fe][ge][he][ie][je][ke]
[le][gf][hf][if][jf][kf][lf][gg][nj][mn][mo][no][np][oq][pq]
[ar][cr][or][qr][rr][sr][as][bs][cs][ds][ps][qs][rs][ss]TB[ae]
[re][af][bf][pf][qf][ag][bg][dg][pg][qg][ah][bh][ch][dh][ai]
[bi][hi][aj][bj][dj][ej][ak][ck][dk][ek][fk][gk][ik][kk][qk]
[rk][sk][al][dl][el][gl][hl][il][jl][kl][sl][am][bm][dm][hm]
[im][rm][sm][an][cn][dn][en][fn][hn][jn][rn][sn][do][go][io]
[ep][fp][hp][ip][jp][hq][iq][jq][kq][gr][hr][ir][lr][hs][is]
[js][ks][ls]C[White: 67 territories + 1 prisoner + 6.5 komi = 74.5
Black: 79 territories + 27 prisoners = 106
Result: B+31.5

- you miss important steps in your plays, but you move in the right direction for the most part. i suggest you study some joseki and basic shapes.]
N[RESULT])
(;B[el]))
(;B[qi]))
(;B[pi]))
(;B[mh];W[lh];B[lg];W[kh];B[mg]C[- W is broken, and now must respond to the intrusion.]
))
(;B[qc];W[oc];B[od];W[nc];B[nd];W[mc];B[md];W[lb];B[ob];W[nb]
;B[qb];W[oa]))
(;B[ro]C[- too many stones at one location. also block at S5, it is almost sente]
))
(;B[rp];W[qq];B[qj]C[- R9 does not for a decent shape. it is still susceptible to attack at R8. R10 must be played to fix the shape]
))
(;B[rp];W[qq];B[qk]C[- note that white can tenuki now.
- notice the right side of the board in this joseki variation. now look at your poor, lonely stone at D4. white now has opportunities to attack your lone stone and form a sizeable territory.]
))
