(;FF[4]GM[1]SZ[19]ST[2]CA[UTF-8]AP[SGFC:1.15]

PB[halo5]
BR[11k]
PW[antarine]
WR[10k]
KM[0.5]
DT[2004-11-22]
PC[The Kiseido Go Server (KGS) at http://kgs.kiseido.com/]
RE[B+Resign]
TM[1200]
OT[3x30 byo-yomi]
RU[Japanese]

C[Reviewer,

Thank you for taking the time to review this game, I'm playing as black and would like any tips and variations you might have. In particular, if you can comment on my fuseki I would greatly appreciate it. I feel like I'm in a slump with regard to my playing strength and can't seem to get past this barrier, currently 11kyu for me.]
;B[qd]C[antarine [10k\]: hi];W[dp];B[dc];W[pp];B[cf];W[cm];B[oc]
TR[jc][kc][jd][kd]C[I figured this would be good to have a nice shimari and a wide shimari on the opposing side

------------------------------------------------------------

Seems ok, but i prefer one of the triangled points because these are extensions from a shimari.]
;W[cd]C[I wasn't expecting this and thought that I would just try to stay connected and have outward influence

-------------------------

Very bad move from white because it will provide a great influence for black.]
;B[de];W[dd];B[ed];W[ec];B[fc];W[eb];B[fb];W[db];B[fe]C[Very good for black]
;W[bf];B[be]C[this seems bad, how do I make use of that wall I've built? maybe at L16?]
;W[cc]C[Look at the alternatives ...]
(;B[fd]C[I thought white G16 would be bad for me, to protect maybe I should have played G16 myself?

-------------------------------------------------------

Very slow and bad move :(   Don't fear of g16. 

Use your thickness to attack...

Look at the alternatives];W[qm];B[kd];W[jp]C[Look at the board now! White began to control the board. It's because of your slow move L16.]
;B[qh]C[Feels slow to me, white looks so huge on the bottom now!

----------------------------------------------------------
R 11 is better i think!];W[bg];B[qk];W[ce];B[df];W[cg];B[np]
C[I felt like I needed to make something happen and thought this would be interesting atleast.

-------------------

Yes you're right but i' prefer n4];W[op]C[This spooked me, didn't know how to respond.. attach, hane.. or attach, extend?
------------------------------------------

Your aim is to reduce the white moyo so ...]
(;B[no]C[o5 is slow , i guess.];W[qg];B[ph];W[pg]
(;B[rd]C[I had visions of white playing this probe and connected to his R13 group
-----------------------------

look at the alternative pls.];W[ng]
(;B[kg]C[thought I should put pressure on white and this seemed to work well with my thickness on the left, is this good?
------------------------------
Maybe after P12 - p13 exchange. BUt the problem is that o4 stones are very week...]
;W[oh]C[You see...];B[oi];W[ni];B[oj];W[nj];B[nk];W[rh]
(;B[qi];W[ri];B[rj];W[mk];B[mj]C[I really didn't know about this, seems bad. I should have played at P8

-------------------------
bad :)];W[ok];B[pk];W[nl]C[This is painful];B[pj]
(;W[lq];B[pn];W[qn];B[ol];W[nk];B[om];W[rl];B[rk];W[po];B[fp]
;W[eq];B[ck]
(;W[ci]C[Look at the alternative..];B[dl];W[dg];B[dm];W[cn]
;B[ep];W[dr];B[fq];W[fr];B[co];W[do];B[dn];W[bo];B[eo];W[cp]
;B[kj]C[very good result for black , white played very gently]
;W[md];B[of];W[og];B[nf];W[lg];B[lf];W[kf];B[mg];W[lh];B[mh]
;W[mi];B[kh];W[li];B[mf];W[nh];B[ki];W[qe];B[pe];W[pf];B[oe]

(;W[lj];B[fg];W[ef];B[ff]
(;W[eg]C[?];B[ee];W[kk];B[ll];W[jk];B[jm];W[lk];B[ii];W[pl]
;B[nq];W[nm];B[nn];W[on];B[pr];W[pm];B[qq];W[im];B[il]C[I actually did read the next 6 moves or so before playing, given the situation.. what else should I consider playing or is this good?
------------------------
did you read L7 move also?]
(;W[jl];B[in];W[hm];B[ik];W[jn];B[km];W[kn];B[ln];W[ij];B[hj]
;W[jj];B[hk];W[hi];B[gi];W[hh];B[ih];W[gh];B[ig];W[gj];B[gk]
;W[fj];B[hn];W[gm];B[fk];W[lo];B[mn];W[gn];B[fi];W[fh];B[ej]
;W[ei];B[hp];W[go];B[ip];W[gp];B[gq];W[hq];B[hr];W[iq];B[jq]
;W[io];B[ir];W[ho];B[kp];W[jo];B[lp];W[ko];B[mp];W[dj];B[dk]
;W[hg];B[hf];W[gf];B[he];W[eh];B[if];W[qp];B[rq];W[fl];B[cj]
;W[di];B[bl];W[en];B[em];W[el];B[fm];W[gl];B[ek];W[fn];B[bm]
;W[hq];B[iq];W[kq];B[kr];W[lr];B[ls];W[ms];B[ks];W[js];B[jr]
;W[gr];B[mr];W[bj];B[bk];W[bi];B[mo];W[fj];B[hq];W[bn];B[fo]
;W[gj];B[hl]C[So at the end of the review ( i hope it's useful) i have little sugests :

- Don't use your thickness for territory...
- Don't let your stones week and without base at the fuseki stage (o4 stones case.)

FOr this game i think you managed good at the end, but this is because of your opponent who played very gently :)

See you,

-a.])
(;W[km]))
(;W[ee]))
(;W[pl];B[nn];W[lm]))
(;W[em];B[ek];W[gm]))
(;W[lp]C[better..]))
(;B[qj]C[r10 is better shape]))
(;B[oh];W[og];B[lg];W[nh];B[ni];W[mi];B[nj];W[lh];B[kg];W[mj]
;B[nk];W[nm];B[mk]))
(;B[og];W[oh];B[ng];W[oi];B[pj];W[rg];B[rh];W[nm];B[mm];W[mn]
;B[nn];W[om];B[ln];W[ml];B[lm]))
(;B[nn]
(;W[no]C[this is not good];B[mo];W[oo];B[mn];W[mp];B[lp];W[mq]
;B[lq];W[lo]C[white  can't play m5 cut, check the ladder for yourself.]
;B[ko])
(;W[nq];B[mp];W[mq];B[lp];W[lq];B[kp];W[kq];B[eh])))
(;B[qn]
(;W[nq]
(;B[pk])
(;B[pj]))
(;W[ql];B[on];W[np];B[pk];W[qk];B[pj];W[pl];B[ol];W[qj];B[pi]
;W[qh];B[ph];W[qg];B[pm])))
