(;FF[4]GM[1]SZ[19]ST[2]CA[UTF-8]AP[SGFC:1.15]

PB[Zwom]
BR[16k]
PW[yhase]
WR[13k]
KM[0.5]
DT[2005-01-13]
PC[The Kiseido Go Server (KGS) at http://kgs.kiseido.com/]
RE[W+10.50]
TM[1200]
OT[5x30 byo-yomi]
RU[Japanese]

;B[dq];W[pd];B[pp];W[cp];B[fp];W[qq];B[pq]C[chose this side to insure that the joseki that follows helps out the d3 and f4 stones.  I was disappointed that the joseki that follows ends in gote for black, because who has sente gets the first move in the top left corner.]
;W[qp];B[qo];W[ro]LB[qn:A][rn:B]
(;B[qn];W[rn];B[qm];W[pr];B[or];W[ps]C[the joseki now is black 03]

(;B[os]LB[po:B][oq:A]C[this is bad because black shape is full of cutting points]
;W[rr];B[nq];W[cq]LB[ip:A][jp:B][iq:C][jq:D]C[this is very good for blackbut needs to play in the center to make a moyo before white invades]

(;B[dd]C[I figured I'd go for influence again given the board position and the opportunity.  Though

this move lives the lower side open to invasion but it is feasible]

(;W[dr]LB[nc:C][qf:D][dn:B][hq:A]C[this is small for white,  black can ingnore this move ( C, D) or play light (A, B)

white should invade right away at j3 o j4];B[eq];W[er]
(;B[fr];W[gq]
(;B[fq]C[f3 is too pasive, j3 is better];W[gr]
(;B[fs];W[gp];B[go];W[ho];B[gn]LB[fq:A]C[A group too weak to double hane I figured.]
;W[ip];B[kq]C[figured this was as far as I could jump.];W[gs]
;B[dn];W[cn];B[cm];W[do];B[eo];W[bn]
(;B[em]C[ladder wouldn't work with white being in the top corner.  had to protect.]
;W[bm];B[cl];W[bl];B[ck];W[hn]
(;B[hm]C[h7 helps white to make shape better play elsewhere or solid with g7]
;W[im];B[il];W[jm]
(;B[ik]C[this move looks funny to me now.

it is all right. g8 is an option];W[jq];B[kr]LB[gc:E][nc:B]
[jd:C][qf:A][dg:D][rm:F]C[l2 is small. Look for bigger points. If you answer all of white moves you will loose for sure.]
;W[jr];B[ko];W[jo]LB[fd:A][lk:B]
(;B[fd];W[pg];B[rm]C[was aiming at r11 with this but it was luck that white thought this to be a sente move.]

(;W[sn]C[very bad shape for white]
(;B[qi];W[qh];B[pi]
(;W[kn]C[white is giving away sente, black should take it]
(;B[lo]C[playing like this, answering every white move black is guaranty to loose]
;W[qc];B[cg];W[dp];B[jd];W[bk];B[bi];W[cj];B[bj];W[dj]
(;B[ei];W[ej];B[fi];W[fj]C[white is dead but black needs to play solid]
;B[gj];W[gk];B[hj];W[di];B[dh];W[gm];B[hl];W[fl];B[fm];W[gl]
;B[el];W[eh]LB[bg:C][eg:A][ch:B]C[I played at a which s]
(;B[eg];W[ch];B[dg];W[bh];B[bg];W[ci];B[ah];W[aj];B[ag];W[ai]
;B[fh];W[mc]LB[kc:C][me:B][qf:A]TR[oc]C[At this point black is winning big
the best defense is to attack B or A ar some options
os C aiminig at an invasion at p17];B[jc];W[fo];B[fn];W[ep]
;B[fo]
(;W[ln]C[white is trying to make sure that black wins by a wide margin]

(;B[mn]C[vlack should no answered every single move by white. it is a sure way to loose]
;W[mm];B[lm];W[ll];B[nm];W[ml];B[nl];W[ks];B[ls];W[lr];B[js]
;W[mo];B[nn];W[lp];B[kp];W[mp];B[mr];W[lq]LB[sa:B][no:A]
(;B[no]C[wasted move, had plenty of liberties.];W[is];B[ks]
;W[hr]
(;B[lj];W[mj]
(;B[mi];W[nj]C[black is pushing white against his own territory]
;B[ni];W[oj];B[mk];W[oi];B[oh];W[lk];B[nk];W[li];B[kj];W[pk]

(;B[qk];W[nh];B[mh];W[ph];B[og];W[qj];B[rj]
(;W[pj];B[ri];W[ng];B[of];W[mg];B[lh];W[ki];B[ji];W[kh];B[lg]
;W[lf];B[kg];W[jh];B[mf];W[jj];B[kk];W[kl];B[jk];W[ii]
(;B[jg];W[ig];B[if];W[hg];B[hf];W[ij]C[should have noticed what white was up too.]
;B[gg]C[not necessary.];W[hh]LB[hi:A][hk:B]
(;B[hi]C[straight into the trap.];W[jl];B[gh];W[hk];B[ih];W[ql]
;B[rk]C[now I have to fight off ressurected stones.];W[pf];B[nf]
;W[oe];B[le];W[pl];B[rl];W[rh];B[nd];W[nc];B[od];W[oc];B[lb]
;W[lc];B[kc];W[ld]
(;B[ke]C[no need to worry about him connecting or creeping in.
.];W[ne];B[me];W[md];B[mb];W[nb];B[pm];W[cc];B[dc];W[cd]LB[cb:A]
[ce:B]C[I figured with the help of the b13 group I could kill these guys but I couldn't see away that didn't require white to screw up.]

(;B[cb];W[bb];B[db];W[ba]
(;B[ce];W[be]
(;B[bf];W[bd]LB[ac:A][ae:B];B[ac];W[ab];B[ae];W[bc];B[ol];W[ad]
;B[af];W[ca];B[da];W[ma];B[ka];W[na];B[sm];W[sp];B[si];W[sh]
;B[dk];W[cr];B[ok];W[lj]LB[np:A][es:B]
(;B[np]C[shoudn't have done this when there were still points on the board.]
;W[es];B[ek]C[or this.];W[la];B[kb];W[jp];B[mq];W[tt];B[tt]
TW[aa][oa][pa][qa][ra][sa][ob][pb][qb][rb][sb][ac][pc][rc][sc]
[nd][od][qd][rd][sd][pe][qe][re][se][qf][rf][sf][qg][rg][sg]
[bi][ji][bj][kj][ak][ik][jk][kk][al][hl][il][am][hm][km][lm]
[an][in][jn][ao][bo][co][io][so][ap][bp][hp][rp][aq][bq][hq]
[iq][rq][sq][ar][br][ir][qr][sr][as][bs][cs][ds][hs][qs][rs]
[ss]TB[ea][fa][ga][ha][ia][ja][eb][fb][gb][hb][ib][jb][ec][fc]
[gc][hc][ic][ed][gd][hd][id][de][ee][fe][ge][he][ie][je][cf]
[df][ef][ff][gf][jf][kf][lf][fg][hg][ig][mg][ng][eh][hh][nh]
[gi][sj][sk][dl][sl][dm][om][en][on][pn][mo][oo][po][lp][mp]
[op][lq][oq][lr][nr][ms][ns]C[result was white by 10.5 and I easily had that many points in dumb mistakes.  I was still proud to get this close in an even game on someone who ordinarily would give me three stones.

white was behind almost to the end and won only because black gave away stones at the center and let white live in the corner when did not have enough space to live

white was just lucky, he played worst than black but black gave away the game. it is not good to base the game in the fact that black is weak because there is no improvement possible like this

black needs to play a little more solid and make his own game.
By answering all the moves by white he gives away the flow of the game]
)
(;B[es];W[ds];B[la]))
(;B[ac];W[ab];B[ca];W[bc]))
(;B[ad]
(;W[bd];B[ac];W[ae];B[be];W[ce];B[bf])
(;W[be];B[ae];W[ac];B[af];W[de];B[ee];W[df];B[ef]C[black still wins]
)))
(;B[ce];W[db];B[eb];W[cb]LB[ac:B][bd:A]
(;B[bd];W[bc];B[ad];W[ac];B[be];W[ba];B[da];W[ab])
(;B[ac];W[be];B[bf];W[bd])))
(;B[me];W[ke]))
(;B[hk];W[fk]C[if he saves that group this one dies.];B[hi]
;W[jl];B[gi]))
(;B[ij];W[jg];B[kf];W[jf];B[ke];W[ie];B[hg];W[hc];B[hd];W[id]
;B[ic];W[he];B[gd];W[gi];B[hi];W[gf];B[gg];W[ff];B[fg];W[de]
;B[ee];W[ef];B[df];W[ce];B[cd];W[be];B[bd];W[ae];B[ad];W[le]
;B[ld];W[me];B[md];W[ne];B[oe];W[nd];B[od];W[oc];B[nf];W[nc]
;B[qf];W[pf];B[pe];W[qe];B[re];W[qd];B[rg]))
(;W[ri];B[ng];W[ql];B[rk];W[pm]))
(;B[ph];W[nh];B[mh];W[ng];B[og];W[mg];B[lh];W[of];B[qg];W[pf]
;B[qk];W[qj];B[rj];W[ri];B[rh];W[pj];B[si];W[rk];B[rl];W[ql]
;B[pl];W[ol];B[pm];W[sl];B[sm];W[sk];B[ok];W[rp]))
(;B[mk];W[lk];B[nk];W[kj];B[li];W[mi];B[mh];W[lh];B[ki];W[nh]
;B[mg];W[ni];B[kk];W[kl];B[lf];W[jk];B[jj];W[ji];B[kk];W[dl]
;B[dk];W[kj];B[rp]
(;W[kh];B[rq];W[qr];B[sm];W[ig];B[hf])
(;W[rq];B[kk];W[ek];B[dm];W[kj];B[kh];W[ij];B[hk];W[fk]
(;B[ih];W[jh];B[kg];W[jg])
(;B[jh];W[ih];B[ig];W[hi];B[gi];W[hg];B[hf];W[gg];B[gf];W[fg]
;B[ff]
(;W[hh];B[jg])
(;W[jg];B[kg];W[if];B[ie];W[jf];B[kf];W[je];B[ke];W[ig];B[gh]
)))))
(;B[mj]))
(;B[sa]C[black elsewhere];W[jp];B[ks];W[is];B[ms]C[didn't need to worry.
you need to worry it is a big ko treat]))
(;B[me];W[mn];B[qf];W[pf];B[rh];W[qe];B[nc];W[nd];B[md];W[oc]
;B[nb];W[mb];B[ne];W[od];B[lc];W[lb];B[kb];W[ob];B[kj];W[no]
;B[om];W[mp];B[mq];W[kp];B[lp];W[ks];B[ls];W[js];B[lr];W[jp]
;B[ml]))
(;W[jg]C[at this point is extremely difficult for white to win]
))
(;B[ch]C[would have saved myself some trouble.];W[fh];B[gi]
)
(;B[bg]C[more trouble saved.];W[ch];B[dg];W[bh];B[ah];W[ci]
;B[ai]))
(;B[fi]
(;W[ei];B[fh];W[eh];B[eg];W[bh];B[ch];W[dg];B[df];W[dh];B[fg]
;W[fj];B[gj]
(;W[fk];B[ci];W[el];B[fm];W[gk];B[hk];W[gl];B[gm];W[hl];B[dl]
;W[dk];B[dm];W[ep];B[ej];W[ek];B[di];W[fo];B[fn];W[cr];B[fo]
;W[fl];B[ej])
(;W[cf];B[bg];W[ci];B[fk]
(;W[bf];B[ah];W[aj];B[ej])
(;W[ej];B[bf];W[ce];B[be];W[cd];B[cc];W[de];B[ee];W[ef];B[bd]
;W[df];B[ff];W[dc];B[ed];W[bc];B[cb];W[bb];B[db];W[ad];B[nc]
)))
(;W[hl];B[gm];W[hk];B[hj]
(;W[fk];B[gk])
(;W[gk];B[ii];W[ek];B[fk];W[fj];B[gj];W[fl];B[fm];W[el];B[gl]
;W[fk];B[ei];W[ch];B[bh];W[dh];B[eg];W[eh];B[fh];W[dg];B[ej]
;W[dk];B[di];W[df];B[ci];W[cf];B[bg];W[cd];B[cc];W[bd];B[bc]
;W[ef];B[ff];W[fg];B[gg];W[fe];B[gf];W[ee];B[ed];W[ge];B[gd]
;W[he];B[hd];W[ie];B[je];W[if];B[jf];W[ig];B[jg];W[ih];B[jh]
;W[id];B[ic];W[jc];B[hb];W[kc];B[nc];W[ji];B[me];W[le];B[ld]
;W[kd];B[ke];W[lf];B[lc];W[kb];B[lh];W[mg];B[ki];W[jj];B[mb]
;W[ib];B[hc];W[lb];B[ia];W[md];B[mc];W[nd];B[od];W[ne];B[oe]
;W[nf];B[oc];W[pe];B[of];W[pf];B[og]))))
(;B[qf];W[rh];B[pf];W[of];B[og]
(;W[oh];B[oe];W[ng];B[nf];W[og];B[pe])
(;W[oe];B[ph];W[qg];B[rf];W[re]
(;B[ri])
(;B[qe];W[rd];B[qd];W[qc];B[pc]
(;W[sf];B[rc];W[qb];B[sd])
(;W[oc];B[rc];W[qb];B[sd])
(;W[rc]
(;B[od];W[pe])
(;B[ri];W[oc];B[pb];W[ob];B[jc])))))
(;B[bk];W[cg];B[eg];W[cd];B[cc];W[ce];B[bc];W[di];B[bh];W[fi]

(;B[dg])
(;B[ch];W[dh];B[dg];W[cf];B[cj];W[ff];B[fg];W[ef];B[df];W[de]
;B[ee];W[gf];B[gg];W[hg];B[hf];W[he];B[if];W[ge];B[hh];W[ig]
;B[jg];W[ie];B[ih];W[je];B[pc])))
(;W[bj]))
(;B[sm];W[sp]))
(;W[qi]C[to hope opponent makes a mistake is bad strategy.]
)
(;W[sp]))
(;B[lk]C[better to block the way out?

no]))
(;B[jl])
(;B[ir];W[ln]C[I don't know]))
(;B[gm];W[hm];B[nc]))
(;B[bm];W[dm];B[en];W[cl];B[dl]LB[pd:A]C[ladder didn't work had to protect.]
))
(;B[es];W[cr];B[iq];W[gp];B[fo];W[go]))
(;B[iq]
(;W[fq];B[gp];W[hq];B[hp];W[ep];B[hr];W[dp];B[eq];W[dq];B[gr]
;W[eq];B[io])
(;W[gp];B[go];W[ho];B[hp]
(;W[hq];B[ip])
(;W[gr];B[fo];W[hq];B[ip];W[ir];B[jr];W[fq];B[is];W[hn];B[do]
;W[co];B[hr];W[fs];B[gm]))))
(;B[gq]C[bad];W[fr];B[fq]))
(;W[hq];B[hp];W[ip];B[ho];W[kq];B[iq];W[ir];B[jq];W[jp]))
(;B[ip];W[kq]C[push white against the wall];B[ko];W[mp];B[mn]
;W[iq];B[hq];W[jp];B[ir];W[jo];B[jq];W[kp];B[kr];W[lr];B[dn]
;W[do];B[cn];W[eo];B[cr];W[br];B[er];W[en];B[dk];W[in];B[gn]
;W[gm];B[hn];W[hm];B[im];W[io];B[ho];W[fn];B[jm];W[go];B[hp]
;W[gp];B[gq];W[fo];B[lo];W[fq];B[fr];W[ep];B[qf]))
(;B[nq];W[os];B[ns]C[white cannot get in];W[rr];B[ip]C[need to play around  j4 otherwise white has too much space and black wall is wasted]
))
(;B[rn]C[this is correct when black wants to keep the corner]
;W[qn];B[po];W[rm]
(;B[pn];W[sn];B[dd];W[jp]C[another approach?])
(;B[rp];W[sn];B[rq];W[qr];B[rr];W[pr];B[or];W[oq];B[ps])))
