(;FF[4]GM[1]SZ[19]CA[UTF-8]AP[SGFC:1.15]

GN[GTL-SF~1]
PB[ggozad]
BR[10k]
HA[2]
PW[sfrex]
WR[5k]
KM[0.5]
DT[2005-01-19]
PC[The Kiseido Go Server (KGS) at http://kgs.kiseido.com/]
RE[W+23.50]
RU[Japanese]

AB[pd][dp]C[I felt I did not go well at all on the left side. But having never studied joseki could not find a better way. Also missed several opportunities. Please note that this was almost a teching game. My oponent was 5k, I about 10 and the handicap 2.]
;W[ed];B[pp];W[nc]
(;B[nd]C[o16 seems a bit to defensive, perhaps an answer at Q14 would be better. black could also consider a pincer around L16.]
;W[md];B[ne];W[ob]TR[pb][qc]C[ggozad [10k?\]: about 10k... I think]

(;B[oc]C[Q18 or R17 is better since it stops white];W[pc]C[ggozad [10k?\]: that's ok..]
;B[mc];W[nb];B[ld]C[the ladder is easily broken by a severe attack on the lower left corner. its a bit risky to play this way]
;W[od];B[oe];W[qd];B[pe];W[dm]
(;B[le]C[its usually better to capture otherwise white might later use the aji by beeping at N14]

(;W[fq]
(;B[fp]C[always remember that contact play also strenghtens you opponent. black could consider a splitting move without playing contact.]
;W[gp]
(;B[eq];W[fo];B[ep];W[gq]
(;B[en];W[eo];B[do];W[dn]
(;B[em];W[dl];B[el];W[go];B[dk];W[ck];B[dj];W[cj]
(;B[ci];W[di];B[ei];W[dh];B[cl];W[bl];B[eh]
(;W[dg]
(;B[lp];W[bo]
(;B[cn]C[C6 is to late, black need to defend the corner];W[cm]
;B[bm];W[cl];B[bn];W[co]
(;B[cp];W[bp];B[bq];W[an];B[cr];W[qn];B[ql];W[np]
(;B[no];W[mp];B[mo];W[lq];B[kq];W[ek];B[fk];W[ej];B[gl];W[kp]
;B[lo];W[jq]
(;B[kr];W[lr];B[jp];W[ko];B[kn];W[jo]
(;B[ip]C[supplying some variations. try to keep sente and push white around. at this pointe there's no way to kill white on a grand scale]
;W[jr]
(;B[jn];W[io];B[in];W[ho];B[qe];W[mb]
(;B[qc];W[lc];B[qp];W[gi];B[hj];W[hi];B[ij];W[qj]
(;B[ol];W[rl];B[rk];W[qk];B[rm];W[pl];B[qm];W[pm]
(;B[rn]C[i think cutting here is better since the 3 black stones cannot be captured.]
;W[rj];B[sl];W[ok];B[nl];W[oi];B[nj];W[nk];B[oj]
(;W[pj];B[mk];W[pk];B[mj];W[qg];B[ph];W[mf];B[me];W[og];B[pg]
;W[lh];B[jh];W[jg];B[ih];W[kh];B[ig];W[jf];B[id];W[if];B[lf]
;W[kg];B[mh];W[kj];B[jj]
(;W[gf];B[mg];W[jd];B[cc];W[dc]
(;B[cb];W[bd];B[cd];W[be];B[bc];W[db]
(;B[dd]C[at this point it should be obvious that black is dead so pressing from the outside or trying to connect the E12-stones seem more appropriate. se variations.]
;W[ec];B[cf];W[bf];B[kk];W[lj];B[lk];W[or];B[pr];W[oq];B[pq]
;W[kd];B[eg];W[cg];B[ff]C[black should press from the other side so that if he fails to connect atleast he manages a reduction of whites territory. se previous variations for examples.]
;W[fj];B[gj];W[hg];B[df];W[ee];B[ef];W[ge];B[fe];W[gd];B[fd]
;W[fc];B[gh];W[hh]C[ggozad [10k?\]: oh well...];B[pb];W[oc]
;B[qb];W[op];B[oo];W[hm];B[il];W[gm];B[hl];W[er];B[dr];W[fr]
;B[ap];W[am];B[os];W[nr];B[ke];W[je];B[li];W[ki];B[mi];W[ns]
;B[ps];W[im];B[jm];W[rd];B[re];W[pa];B[rc];W[qa];B[ra];W[oa]
;B[hn];W[gn];B[es];W[fs];B[ds];W[ar];B[br];W[aq];B[as];W[aq]
;B[ar];W[mc];B[aq];W[tt];B[tt]TW[aa][ba][ca][da][ea][fa][ga]
[ha][ia][ja][ka][la][ma][na][ab][bb][cb][eb][fb][gb][hb][ib]
[jb][kb][lb][ac][bc][cc][gc][hc][ic][jc][kc][ad][cd][dd][fd]
[hd][id][ae][ce][de][fe][he][ie][af][cf][df][ef][ff][hf][ag]
[bg][eg][fg][gg][ah][bh][ch][eh][fh][gh][ai][bi][ci][ei][fi]
[aj][bj][dj][ak][bk][dk][al][bm][bn][cn][hp][ip][jp][hq][iq]
[kq][mq][nq][gr][hr][ir][kr][mr][gs][hs][is][js][ks][ls][ms]
TB[sa][rb][sb][sc][qd][rd][sd][se][mf][nf][of][pf][qf][rf][sf]
[ng][og][qg][rg][sg][nh][oh][qh][rh][sh][ni][oi][pi][qi][ri]
[si][pj][qj][rj][sj][gk][hk][ik][jk][nk][ok][pk][qk][sk][jl]
[kl][ll][ml][pl][rl][km][lm][mm][nm][om][pm][sm][ln][mn][nn]
[on][pn][qn][sn][po][qo][ro][so][rp][sp][cq][dq][qq][rq][sq]
[qr][rr][sr][bs][cs][qs][rs][ss]C[ggozad [10k?\]: Thanks a lot.
sfrex [5k\]: thxs])
(;B[gg]
(;W[eg];B[gh];W[fh];B[ff];W[fg];B[hf];W[ge];B[he])
(;W[fg];B[gh]
(;W[eg];B[fh];W[fj];B[gj];W[fi])
(;W[fh];B[fi];W[fj];B[ff];W[eg];B[hf];W[gk];B[fl]
(;W[gj];B[hk];W[hl];B[hm];W[il];B[jl])
(;W[hk];B[gj])))))
(;B[db]C[this could result in an intresting ko depending on how white answers.]

(;W[cd];B[ec]
(;W[dd];B[bc];W[eb];B[ca];W[bb];B[ab];W[ba];B[bd])
(;W[cb];B[bc];W[eb];B[dd];W[da];B[dc];W[fb];B[bb];W[ca];B[ea]
;W[fa];B[ba];W[ea];B[fc];W[gb];B[hc]))
(;W[eb];B[dd];W[ec];B[cb];W[cd];B[bd])))
(;W[mg]C[cutting seems better for white as it threatens to cut black apart.]
))
(;W[mk]TR[nl][ol]C[white should probably have extended and threatened to capure the marked stones in a net.]
))
(;B[pn]))
(;B[pl]C[a slower move like q8 can be considerd to prevent white from making a severe connection-threat]
;W[rl];B[rm]))
(;B[lc];W[cc]))
(;B[io];W[jn];B[in];W[jm];B[im];W[jl];B[mq];W[nq];B[mr];W[ks]
;B[nr];W[or];B[oq];W[ns];B[op];W[ms];B[pr];W[os];B[ps];W[ls]
;B[ol]))
(;B[jr]
(;W[iq];B[mq];W[mr];B[nq];W[ir];B[nr];W[js];B[ms];W[ks])
(;W[ip]))
(;B[jn];W[io];B[mq];W[mr];B[nq];W[nr];B[oq]))
(;B[mq]C[better ?];W[kr];B[nq]))
(;B[pn]C[attaching could be considered as it weakens the O4 stone.]
))
(;B[bp]C[B4 is usually better since white needs to answer the liberty race and cannot push one step more.]
;W[am];B[cp];W[an];B[br]))
(;B[bq];W[er];B[dr];W[fs];B[cp]
(;W[ds];B[cr];W[cs];B[bs];W[es]
(;B[bp];W[co];B[cn];W[cm];B[bn])
(;B[cn];W[cm];B[bm];W[cl];B[bn];W[am];B[ao]))
(;W[cn];B[ds];W[bp];B[aq];W[co];B[cr]))
(;B[bp];W[cp];B[co];W[cq];B[cn];W[cm];B[bm];W[cl];B[bn];W[er]
;B[dr];W[cr];B[ds];W[fs]
(;B[dq];W[bq];B[ao];W[ar];B[cs];W[bs];B[aq];W[ap])
(;B[bq];W[dq];B[br])))
(;B[fk]C[its much more important to defend you weak shape. see previous variation.]
))
(;W[ek]C[this cut is fatal and black should be able to forsee it.]

(;B[ej];W[fk];B[gm];W[fm];B[fl];W[gl];B[fn];W[gn])
(;B[fk];W[ej];B[fj];W[fl];B[fm];W[gl];B[gm];W[hl];B[hm];W[io]
)))
(;B[bn]C[dont know];W[bl];B[cn]))
(;B[go]C[this cut could be an alternative];W[fn];B[gn];W[fm]
;B[io]))
(;B[cd]))
(;B[fo]C[F5 is also playable, although D7 makes it somewhat weaker]
))
(;B[eo];W[fo];B[fn];W[ep];B[go];W[fp];B[dn];W[dq];B[cp];W[cq]
)
(;B[fo];W[ep];B[eo];W[do];B[dn];W[co];B[fp];W[eq];B[cn];W[cp]
;B[em]))
(;W[mf]C[white might play this later on.];B[me]))
(;B[me]))
(;B[pb])
(;B[qc]))
(;B[pf]
(;W[jd]
(;B[cj])
(;B[qj])
(;B[jq])
(;B[cd])
(;B[ob])
(;B[cc]))
(;W[pb];B[qc];W[kc];B[qj]))
(;B[kd]
(;W[ne];B[pf]
(;W[pb];B[qc])
(;W[qc];B[pc];W[pb];B[ob];W[qb];B[oc];W[re];B[md];W[nd];B[mb]
;W[kf]))
(;W[qc]
(;B[qd];W[pc])
(;B[pc];W[qd];B[pe];W[pb];B[ob];W[qb];B[oc];W[qf];B[nd]))
(;W[qf];B[nd];W[md];B[ne];W[qc];B[oc];W[qd];B[nb])))
