(;FF[4]GM[1]SZ[19]ST[2]CA[UTF-8]AP[SGFC:1.15]

PB[jettero]
BR[13k]
HA[2]
PW[dyoo]
WR[11k]
KM[0.5]
DT[2005-01-30]
PC[The Kiseido Go Server (KGS) at http://kgs.kiseido.com/]
RE[W+16.50]
TM[1800]
OT[3x60 byo-yomi]
RU[Japanese]

AB[pd][dp]SQ[km]C[Presently I'm playing a 14kyu game in even games.  In high handicap games (4 or more stones) I seem to play a 10 kyu game.  I have no idea what accounts for this difference other than practice.  So I've been trying to play a lot of even games.

I think that it's a general perception problem with Influence and Direction of Play.  These are the things I'm generally curious about.  There's something critically wrong with my even game.

Bernard - Hi Paul

 Looking @ your game it is clear that you prefer territory over influence. This is fine during high handi games but can otherwise cause problems. Playing even games should help.

 It is difficult to comment on direction of play. Firstly it is an advanced subject and secondly during handi games white mostly decides the direction of play.
 
 There is however some advice i can give you regarding timing and aji. During the fuseki if a move is not urgent rather play a big move elsewhere. Playing gote endgame moves during the middle game is very bad. I've commented during the game when this happens...]
;W[pp];B[dd];W[pi];B[dj];W[cn];B[fp];W[ck];B[co]C[Bernard - good move]
;W[cf];B[fd]CR[ch][ci][cj]C[Bernard - Better for black to cut white.]
;W[cj];B[ch];W[cd];B[cc];W[de];B[ed];W[dh]CR[bd];B[bd];W[cg]
;B[ce]C[Here, I'm thrilled to get a ponnuki.  From my perspective, white is now squished between my top strong group and my bottom strongish group.  I'm hoping he's undercut and I'm confident that he won't be building a huge center moyo.  How does this setup look to stronger eyes?

Bernard - Resist! This ponnuki is small. Its influence is reduced by its placement adjacent to 2 strong groups and the corner. C15 is middle game.]
;W[mc];B[ic]CR[jc][kc]C[Bernard - A more severe pincer would help later on.]
;W[pc];B[qc];W[pb];B[qb]CR[od]C[Bernard - P16 feels natural. Making territory here will give white a lot of influence.]
;W[od];B[pe];W[oe];B[pg]CR[qg]C[Bernard - It is difficult to find a good move for black. Q13 seems a bit weak though. Maybe just slide to S13.]

(;W[ni];B[of]TR[me][mf][mg]C[I rather wish this move had been at the bottom.  I like this move because I'm under the (mistaken?) impression that it squishes white's group and gives him bad aji.  False?

Bernard - This is good shape for black. It also allows you to attack 2 groups @ once by playing around N14.]

(;W[kp];B[bo]C[Bernard - Way to small!!! This move is endgame.]
;W[kc]
(;B[oc]C[Bernard - This sequence destoyed your aji.];W[ob];B[nc]
;W[nd];B[nq]CR[qn]C[I'm not sure how else to break up the huge moyo white built.  I actually use a trick move that the high kyu at my club used to use on me until I got the hang of it.  I end up pretty small in here.   I live, but I don't think it had the effect I was really hoping for.  In fact, white later uses the super-bad aji of my dumpling-group to grab 15 points or so ...

Bernard - A good idea to invade. White mojo is to large and thin currently to reduce. Your move is as good as any other. This move has nothing to do with the fight later on.]
;W[oq];B[qn]
(;W[ql];B[qq];W[qp]C[the trick?  cute I guess.

Bernard - Aye.];B[or];W[pn];B[pq];W[op];B[mq]CR[nr]TR[kr]C[Bernard - This move allows white to play around L2 and keep sente. Giving white a base and focussing on reducing the side seems to be a good strategy in this position.]
;W[gc]
(;B[gd]CR[hd];W[hc];B[hd];W[ib];B[jb];W[jc];B[id];W[kb]CR[hb]
;B[hb];W[ja];B[fc]CR[gb]C[I realize how silly this move is.

What I can't figure out is why this wall didn't help me more than it did.  There must be some way to utilize it to do something good to white.  That UL is super strong with a great big wall attached.  It should be worth more.  I clearly don't know what to do with it.

Bernard - Influence only helps if there are weak groups close by or big mojo's that can be invaded resulting in former.]
;W[gb];B[fb];W[ha]C[Bernard - purely endgame];B[mo]C[Bernard - Good move. Time to reduce the white mojo. An invasion will be difficult with the wall on the left.]
;W[gq]C[Bernard - White seems to like this move.];B[fq]
(;W[lr]C[Bernard - white should cut first];B[rp];W[ro];B[rq]
;W[qo];B[kq]C[Bernard - Contact moves tend to strengthen both sides. You don't want this.]
;W[lq];B[lp];W[jq]CR[lo];B[ko];W[jp]
(;B[mr]TR[kr]C[Bernard - Hmmm. A bit of a aji killer. @ least probe with L2 first.]
;W[kr];B[cm]C[Bernard - endgame];W[dm];B[bn];W[cl];B[dn];W[el]

(;B[on]C[Bernard - Nothing much left here to do but reduce.]
;W[om];B[oj];W[oi];B[pm];W[po];B[ol];W[nm];B[pl];W[qm];B[nl]
;W[mm]C[Bernard - 4 corners for black and white has nothing much to show for his efforts. It is safe to say that this fight lost you the game.]
;B[mk]CR[ml];W[pj];B[kk];W[ln];B[lo];W[km];B[lh];W[li];B[mi]
;W[mj];B[ki];W[mh]CR[lj];B[lj];W[mi];B[nj]CR[kh]C[Bernard - I cant understand this move. Rather keep running away.]
;W[kh];B[ji];W[jh];B[lg];W[ih];B[jm];W[no];B[kl];W[nf];B[ng]
;W[mg];B[mf];W[ne];B[lf];W[ke];B[rh]CR[qh]C[Bernard - R12 seems better. You keep sente.]
;W[qh];B[qg];W[ri];B[rg];W[ho];B[kn];W[lm];B[in];W[ii];B[ik]
;W[gj];B[gg]C[There, this is my attempt to do something useful with this great big wall.  I don't think it does very much.

At this point, I think black STILL has the advantage and I don't understand how white gets so many points.  He crushes my center dumpling-group (as previously mentioned).  Is it better here to try to help out my dumpling-group? or to try to undercut the left side?  Try to rescue those poor L-shape stones?   Is it already too late?

Bernard - Umm, where to begin. G13 is the right idea. Stop white from making territory. Your centre group is connected out. Just let it be. L-shape group is screwed. Still some big endgame to play elsewhere. One move here is enough for now.]
;W[if];B[hf];W[fr]C[Bernard - This is big. White has no satisfactory answer if you play here first.]
;B[er];W[gr];B[es];W[hg];B[gf];W[gh];B[eh];W[di];B[eg];W[ei]
;B[df];W[dg];B[ef];W[bf];B[ij];W[hn];B[rj];W[si];B[so];W[sn]
;B[sp];W[pk];B[ml];W[fn];B[np];W[nn];B[io];W[ip];B[gl];W[fl]
;B[hm];W[gm];B[bl];W[bk];B[gk];W[fk];B[pa];W[nb];B[oa]C[Bernard - small. don't give away sente so easily]
;W[hl];B[im];W[hk];B[hj];W[hi];B[na];W[ma];B[qa];W[ok];B[nk]
;W[il];B[jl];W[jj];B[jk];W[lk];B[ll];W[kj];B[jo]C[In case it wasn't clear what I meant by dumpling group before, it should be clear now.    1 point / 30 stones = 3% efficiency.  It could even be argued the entire dumpling is negative 5 or 10 points.

Bernard - The purpose of an invasion it to destroy and not make territory. Last comment.]
;W[be];B[cd];W[en];B[eo];W[al];B[bm];W[gp];B[fh];W[fi];B[jd]
;W[kd];B[je];W[jf];B[fa];W[ga];B[ph];W[qi];B[fs];W[gs];B[am]
;W[ak];B[fo];W[go];B[ls];W[sh];B[sg];W[ad];B[ac];W[ae];B[nh]
;W[oh];B[og];W[lk];B[ks];W[js];B[ms];W[lj];B[ie];W[tt];B[tt]
C[The whole game, I thought I had the advantage.  I'm having a vision problem or a conceptual problem.  Well, something is wrong with my even game.

Thanks,

Paul])
(;B[nm];W[ol];B[qh];W[qi]))
(;B[kr]
(;W[jr];B[gr])
(;W[ks];B[ir];W[jr];B[gr]C[Bernard - Big reduction in sente.]
)))
(;W[nr];B[pr];W[lr]CR[kr]))
(;B[hd]C[Bernard - Strengthens J17 while attacking];W[gd];B[ge]
C[Bernard - White is dead.]))
(;W[np]
(;B[qq];W[qp]C[Bernard - Black has 3 groups.])
(;B[rp];W[qm]C[Bernard - Also possible])))
(;B[ob]C[Bernard - This sequence threatens to kill.];W[oc];B[nb]
;W[pa]C[Bernard - White could have been in trouble now.]))
(;W[me]C[Bernard - good shape by white];B[bf]C[Bernard - using C12 aji]
;W[bg];B[di];W[ci];B[eh];W[bh]))
(;W[of]C[Bernard - A peaceful sequence by white.];B[qg];W[nh]
C[Bernard - White's influence is negated by your strong UL corner.]
)
(;W[qf]C[Bernard - white tries something.];B[pf];W[rh];B[qg]
;W[qi];B[rg]))
