(;FF[4]GM[1]SZ[19]ST[2]CA[UTF-8]AP[SGFC:1.15]

PB[xinix]
BR[12k]
PW[MadRussian]
WR[12k]
KM[6.5]
DT[2005-01-25]
PC[The Kiseido Go Server (KGS) at http://kgs.kiseido.com/]
RE[W+0.50]
TM[900]
RU[Japanese]

C[MadRussian [11k?\]: To reviewer:  A close game between xinix and I, I believe that my openings are weak and luckily I was able to catch up during the mid-game stage.  Any play suggests welcomed

KKMD: I agree that you caught up in the middle-game. But I think that, worse than your opening, was your (and your opponent's) ability to read life and death problems.]
;B[pp];W[dd]C[MadRussian [12k?\]: hi];B[pd];W[cp];B[ep];W[eq]
;B[fq];W[dq];B[gp];W[gc]LB[cn:B][co:A]C[KKMD: The joseki isn't complete. Black could take advantage of it with A. Instead of your G17, you should have played B, for instance, the simplest continuation.]
;B[kq];W[qj];B[ci];W[qn];B[qo];W[pl]LB[pn:A]C[KKMD: No. A is the key point for both players in positions like that. It is mandatory. This is a question of shape. Plus, it would make R10 perfectly placed, at the right distance from your two stones Q6-R6.]
;B[mp];W[qf];B[qe];W[ph]LB[pf:A][pn:B]C[MadRussian [11k?\]: My shape that I have on the right side here gets destroyed later... I thought it was a decent shape

KKMD: Actually it is terrible. Black could immediately force with A and B, leaving you with a miserable, overconcentrated position. Of course, here too A was mandatory.]
;B[rf];W[rg]LB[pf:B][qg:A]C[KKMD: A seems better, since after it B, which is such a good point, would be no more a forcing move for black.]
;B[pf];W[qg];B[md];W[cg]LB[cc:A][ce:B]TR[gc][dd]C[KKMD: Be aware that this kind of double-wing formation is kind of weak. For instance, as it stands now, black should be able to make life by invading at A, and of course B is also an obvious weak point. It can be very difficult to read, but at least be aware that such possibilites exist for black, so you will need to reinforce this formation later in the game. That's why you might prefer to play something like B instead of your move C13.]
;B[rn];W[qm]C[KKMD: Better.];B[rm];W[rl];B[cl];W[rp];B[ro];W[qq]
;B[pr];W[qr]LB[pq:A]C[KKMD: Here black could have killed you with A (see  variations).]

(;B[qp];W[pq];B[or];W[oq];B[nq];W[op];B[rq];W[oo];B[po]
(;W[rr];B[sp]C[MadRussian [11k?\]: Probably should have saved my next two moves for Ko

KKMD: Right.];W[sm];B[sn];W[sr];B[sq];W[on];B[pn];W[pm];B[om]
;W[nm];B[jc];W[hf]C[KKMD: Interesting move, but rather vague.]
;B[fe];W[fg];B[he];W[ge];B[gd];W[gf];B[hc];W[fd];B[hd];W[fc]
;B[eg];W[eh];B[ch];W[dg];B[cc];W[cd];B[dc];W[bc];B[bb];W[bd]
;B[db]LB[eb:A]C[KKMD: Here you could have killed the corner with A.]
;W[ab];B[fb];W[gb];B[ec];W[ed];B[ea]LB[ba:A]C[KKMD: You should go for a ko with A.]
;W[ca];B[ba];W[ga];B[fa];W[ip];B[iq];W[jq];B[jr];W[hq];B[jp]
;W[hp];B[gr];W[hr]C[KKMD: All right, you separated black. But he's strong on the right, and will easily strengthen himself on the left, and your seperating stones are quite heavy, so you put yourself into trouble. I think you would have done better with a gentle erasure.]
;B[er];W[dr];B[do];W[bn];B[cn];W[co];B[dn];W[bm];B[cm];W[bq]
C[KKMD: Why ?];B[fm];W[in];B[hm];W[jm];B[ln];W[lm];B[kn];W[km]
C[KKMD: You are lucky. Black let you surround him, saving your stones. But this is not the way things should have happened.]
;B[jf];W[lh];B[mg];W[mh];B[kj];W[rd];B[re];W[qc];B[pc];W[rb]
;B[pb];W[sc]LB[ra:A]C[KKMD: Here black could have killed you with A.]
;B[se];W[qb];B[mj];W[ol];B[ni];W[nh];B[oi];W[oh];B[pi];W[qi]
;B[ik];W[mf];B[nf];W[lf];B[me];W[ke];B[kd];W[je];B[le];W[kf]
;B[fj];W[ja];B[ib];W[ia];B[kb];W[ka];B[mb];W[la];B[ma];W[ha]
C[KKMD: Why ? (no more comment)];B[lb];W[bl];B[bk];W[bh];B[bi]
;W[bg];B[ei];W[dh];B[gi];W[di];B[dj];W[hj];B[hk];W[ii];B[ji]
;W[ih];B[jh];W[jg];B[ig];W[if];B[ij];W[hi];B[gj];W[hh];B[gh]
;W[hg];B[fh];W[hn];B[gn];W[lj];B[lk];W[li];B[mk];W[kk];B[kl]
;W[ki];B[jk];W[kh];B[ng];W[og];B[of];W[pj];B[ok];W[pk];B[nk]
;W[oj];B[jl];W[mm];B[mn];W[jo];B[ko];W[np];B[jn];W[im];B[nr]
;W[hl];B[gl];W[gm];B[go];W[hm];B[io];W[ho];B[ir];W[nj];B[mi]
;W[pa];B[oa];W[qa];B[qd];W[sd];B[jd];W[es];B[fr];W[ac];B[gq]
;W[aa];B[cb];W[dp];B[eo];W[mo];B[lo];W[no];B[lq];W[ps];B[hs]
;W[os];B[ns];W[qs];B[sg];W[sh];B[sl];W[rk];B[sk];W[sj];B[sm]
;W[ak];B[bj];W[lg];B[al];W[am];B[aj];W[bo];B[ll];W[al];B[rh]
;W[sf];B[pg];W[qh];B[sg];W[ri];B[sf];W[ie];B[id];W[fs];B[gs]
;W[ds];B[jo];W[ah];B[nn];W[nl];B[jj];W[gg];B[hb];W[ai];B[tt]
;W[dk]C[MadRussian [11k?\]: Just testing the waters :)];B[ck]
;W[tt];B[tt]TW[ra][sa][sb][rc][ad][ae][be][ce][de][ee][fe][af]
[bf][cf][df][ef][ff][jf][ag][eg][ig][kg][rh][si][rj][qk][ql]
[om][an][ao][ap][bp][aq][cq][ar][br][cr][as][bs][cs][rs][ss]
TB[ca][da][na][eb][nb][ob][ic][kc][lc][mc][nc][oc][ld][nd][od]
[ne][oe][pe][fi][cj][ej][dk][ek][fk][gk][kk][dl][el][fl][dm]
[em][en][fn][fo][so][fp][kp][lp][rp][jq][mq][kr][lr][mr][is]
[js][ks][ls][ms]C[MadRussian [11k?\]: excellent game
MadRussian [11k?\]: thanks
xinix [12k\]: thanks
MadRussian [11k?\]: White 57.5 - Black 57.0])
(;W[sp];B[rr];W[rs]))
(;B[pq]
(;W[ps];B[sq];W[or];B[nq];W[mr];B[nr];W[ns];B[lr];W[oq];B[op]
;W[mq];B[np];W[lq];B[lp];W[ms];B[kr])
(;W[sr];B[rs];W[qs];B[rr];W[sp];B[rq])))
