(;FF[4]GM[1]SZ[19]ST[2]CA[UTF-8]AP[SGFC:1.15]VW[]

PB[blackneo]
BR[6k]
PW[jahtobi]
WR[6k]
KM[6.5]
DT[2005-01-19]
PC[The Kiseido Go Server (KGS) at http://kgs.kiseido.com/]
RE[B+Resign]
TM[1800]
OT[5x45 byo-yomi]
RU[Japanese]

;B[pd];W[dp];B[pp];W[dc];B[pj];W[nc];B[lc];W[ne];B[pf];W[kd]
LB[oc:A][kc:B]C[jahtobi (6k): Im not sure how to handle this situation

'A' or 'B', both are playable, pls look at the variations.]

(;B[kc]
(;W[ld]C[Bad move.];B[jd]C[It is very bad to allow a hane here.]
;W[je];B[id]LB[gc:A]C[White should play 'A' to stop black from getting a good shape.]
;W[ce];B[fc]C[This result is too good for black.];W[ie];B[hd]
LB[ke:A][md:B]C[You have to be mindful of cut at 'A' or 'B'.]
;W[jq];B[ck]TR[dc][ce]C[Because of the direction of this shimari, C11 is not really big as compared to C6 or C7.]
;W[ci];B[cn];W[co];B[dn];W[fp]LB[cq:A][ek:B]C[jahtobi (6k): i thought this was good for wht. cause bl is a little overconcentrated.
Still the wht top group gives me a headache

Invasion at 'A' is the issue here, black has to ensure the safety of C6 group before playing 'A'.

I would play 'B' for the next move.];B[mq];W[qn]LB[qp:A]C[Black 'A' better.

The point 'A' is important for both parties.

White should invade at 'A' instead of R6.];B[qo]C[This can be a helping move, making white stronger in shape.]
;W[pn];B[ro]LB[pq:A][oq:B]C[Still aji at 'A' or 'B'.

If black wants to secure land here, playing at R4 instead of R5 is more straight-forward.]
;W[pl];B[qk];W[mm];B[gf]LB[ke:A][ek:B][cq:C]C[Black can either cut directly at 'A', or strengthen at 'B', aim for 'C'.]
;W[qe];B[pe]LB[lf:A]C[White should defend at 'A', when you are weak in shape, you should not launch an attack.]
;W[ph];B[qh]LB[lf:A]C[Still defend at 'A' first.];W[qi];B[qg]
;W[pi];B[rm];W[pb]C[jahtobi (6k): not sure about playing here or san-san

This is a good move, san-san would be too greedy, as there is a cut at N16.]
;B[qc];W[ng];B[oc];W[nb];B[ob];W[oa];B[qb]LB[cg:A][ek:B]C[Slow move.

Black should play 'A' or 'B'.];W[od];B[pc];W[fg]LB[bn:A]C[White 'A' better. 

F13 is a thin move with the weakness at C13 still around...]
;B[cg]C[jahtobi (6k): this felt like an overplay but i was'nt able to stop it

This is not an overplay, but a punishment to F13 which is an overplay to me.]
;W[dh];B[df];W[ee]C[Too thin.];B[ef];W[ff];B[de];W[ed]LB[cd:A]
C[Black 'A' would be simpler.];B[dd];W[cd];B[ec];W[cf];B[dg]
;W[bg];B[fe];W[ch];B[fd];W[db];B[eb]LB[ek:A]C[Black 'A' better.]
;W[fn]C[Good move.];B[ek];W[lp];B[mp];W[lo]LB[cq:A]C[Nice timing to invade at 'A'.

Right now, white can only choose to give up part of the corner.]

(;B[hh];W[oj]C[jahtobi (6k): up to now i had the idea that the game is quite close. the center will win it]
;B[cq];W[dq];B[bo];W[bp]C[White C4 is better.];B[cp];W[bq];B[do]
;W[cr]C[Black is very thick like this.];B[kf];W[lf];B[kg];W[ke]

(;B[io]LB[im:A]C[Too deep, black should reduce at 'A'.];W[im]
;B[jm];W[jn];B[in];W[hm];B[kn];W[jo];B[ko];W[jp];B[kl]C[Black lose out for this battle.]
;W[lm];B[km]
(;W[mo]LB[kj:A]C[Slow move, if you played 'A', you would have win quite comfortably.]
;B[kj]C[Good move, from here now, white has no chance, I should end the review here.]
;W[jk];B[kk];W[jh];B[ii];W[ji];B[jj];W[ig];B[hg];W[kh];B[mi]
;W[ni];B[mk];W[ok];B[mh];W[lg];B[hk];W[eh]C[jahtobi (6k): now the balance of territory changed in bl favor and i don't really know why

Because you miss the chance to attack at L10.];B[kp];W[kq];B[lq]
;W[ql];B[rk];W[rl];B[sl];W[qj];B[rn];W[rj];B[rh];W[pg];B[qf]
;W[bj];B[bk];W[ka];B[la];W[lb];B[kb];W[ma];B[ja];W[la];B[jb]
;W[op];B[oq];W[oo];B[da];W[cb];B[ca];W[ba];B[ea];W[bc];B[eo]
;W[fo];B[ep];W[eq];B[fq];W[gq];B[fr];W[gr]C[jahtobi (6k): ahh... i must take the 2 stones NOW]
;B[co];W[er];B[gm];W[hn];B[gn];W[go];B[hl];W[fm];B[gl];W[ho]
;B[lr];W[dl];B[dk];W[kr];B[mc];W[md];B[mb];W[na];B[pa];W[nd]
;B[of];W[nh];B[pq];W[bl];B[cl];W[ak];B[bm];W[al];B[am];W[aj]
;B[cj];W[bh];B[el];W[em];B[dm];W[fl];B[ap];W[br];B[il];W[mj]
;B[lj];W[nj];B[li];W[pk];B[sk];W[sj];B[sm];W[nq];B[nr];W[np]
;B[ln];W[ls];B[mr];W[mn];B[nl];W[nm];B[qm];W[ms];B[ns];W[ks]
;B[or];W[po]C[jahtobi (6k): game loosing move :-((];B[og];W[oh]
;B[mf];W[mg];B[nf];W[aq];B[ao];W[sh];B[sg];W[si];B[om];W[ol]
;B[pm];W[ml];B[no]C[jahtobi resigned the game])
(;W[kj]N[Var A];B[jj];W[ji];B[jk];W[ii];B[hk];W[ig]C[Easy win for white.]
))
(;B[im]N[Var A];W[io];B[gm]C[This is better, black limit white's potential and creat a moyo in the center.]
))
(;B[cq]N[Var A];W[dq];B[bo];W[cp];B[bp];W[bq]C[Black get a bite on the corner and strengthen his group.]
))
(;W[jd]N[Var B];B[ld];W[le];B[jc];W[id];B[hc];W[ge];B[me];W[mf]
;B[md];W[lf];B[nd]LB[qc:A]C[White got a nice wall and the possibility of reduction at 'A'.]
))
(;B[oc]N[Var A];W[kc];B[nb];W[qe]C[To create some aji in this corner.]
;B[pe];W[mc];B[mb];W[lb]LB[me:A][nd:B][nf:C]C[Black get sente.

Later in the game, black can play 'A', white 'B' and black 'C' to create an influence here.]
))
