(;FF[4]GM[1]SZ[19]ST[2]CA[UTF-8]AP[SGFC:1.15]

PB[ZenPudding]
BR[19k]
PW[kajira]
WR[16k]
KM[0.5]
DT[2005-02-12]
PC[The Kiseido Go Server (KGS) at http://kgs.kiseido.com/]
RE[W+38.50]
TM[1800]
OT[25/600 Canadian]
RU[Japanese]

C[Hello GTL Reviewer,
Thank you for taking the time to review my game.  I am ZenPudding (black).
I feel I need some tips with regards to mid-game attacks on enemy area's of influence, as well as some sente grabbing yose pointers.  I will leave comments to describe what I was thinking at certain points.
Also please comment on any other aspects you feel I should work on.
Thank you.

Please note that on move 63 I asked for, and was allowed, an undo for a misclick.  That explains the new path the moves follow afterwards.

J: Hi, ZenPudding. I'll prepend my comments with a "J" (from Jaime, my name). I hope I'll be of help.]
;B[dp];W[pp];B[dc];W[qd];B[ce];W[pj];B[oc];W[oe];B[mc]C[My first mistake, I believe...should n17 should have been M17.

J: Yes, n17 is too close. White's been very nice allowing you to extend from you shimari.
M17 (more conservative) or M16 are better moves here for black.]
;W[kd];B[me]C[Trying to run towards center.

J: It's ok, but you can always tenuki and wait as you have to possibilities for living: running towards center (as you did) or r2 to grab the corner.]
;W[gc];B[ic]C[Trying to split white stones.

J: You're playing too aggresive, IMHO. D10 or K4 are bigger points. Anyhow, a nice attack.]
;W[id];B[kb];W[jc];B[jb];W[ib];B[cj]C[J: Both ended with living groups, but you kept sente. Nice.]
;W[hc];B[kf]C[J: I don't like this move; your group is already alive, as well as white's. K3 is a nice move now.]
;W[if];B[ip]C[J: Almost as nice :-)];W[dg];B[nq];W[no];B[pr]
;W[qq];B[lp]C[J: Not bad, but it invites white's m6, making a nice moyo.]
;W[lo];B[pg]C[J: Difficult to find a good place to invade. Taking into account your prospective territory, maybe a reduction would be more than enough, perhaps around O12 or even O10.

If possible (I cannot see a way here) try to reduce white's terr. increasing your own at the same time.]
;W[og]C[J: White should avoid touching what he's attacking]
;B[kh]C[J: Why tenuki now? Your Q13 stone was already weak, but now it's hopeless]
;W[ph]
(;B[pl];W[ol];B[qn];W[ql]
(;B[pm];W[qk];B[nm];W[om];B[on];W[nn];B[ok];W[nl]
(;B[ml]C[J: Wrong direction, IMHO. Better O9, then connect at Q9. Anyhow you're at disadvantage here.]
;W[nk];B[oj];W[nj];B[lj];W[oi];B[pk];W[oo];B[mm];W[ni];B[qj]
;W[pi];B[rj];W[qm];B[pn];W[rn]
(;B[cl])
(;B[cm]C[ZenPudding [19k\]: thank you
kajira [16k\]: you are welcome

J: The result of a failed invasion is a bigger and stronger opponent's territory. Now you need to make more points than before. As your lower left corner is still open, maybe F10 is a bigger move now.]
;W[cq]C[Any tips on how to defend against this 3x3 invasion?]
;B[dq];W[cp];B[co];W[bo]
(;B[bn]C[J: If you had played C6 here, (see var), the output would have varied a lot. The problem is allowing white to play D5.]
;W[do];B[cn];W[dr]
(;B[eo];W[eq];B[ep];W[fq];B[er];W[cr];B[bp];W[fr];B[hr];W[bq]
;B[ao];W[hq];B[iq];W[hp];B[ho];W[gp];B[go];W[jr];B[ir];W[kp]

(;B[ko];W[mp];B[lq];W[mq];B[kq];W[lr];B[fp]C[J: better leave this moves unplayed as future ko menaces.]
;W[gq];B[gr];W[es];B[kr];W[ks];B[jp];W[nr];B[ln];W[mo];B[ih]
C[J: It's already difficult to close the center. Depending on my humour, I could have tried a sppliting attack (all or nothing) on the D13 stone, playing maybe E14 or F14. You could close your territory while he's deffending.]
;W[gg];B[cg]C[J: better H11];W[dd];B[cd];W[ec];B[db];W[eb];B[gi]
;W[ei];B[dh];W[eh];B[ek];W[df];B[cf];W[di];B[ci]C[J: Ignore and close now!]
;W[fj];B[gk];W[gj];B[hj];W[fk];B[fl];W[hk];B[gl];W[hi];B[ij]
;W[hh];B[ii];W[gh]C[J: It's always very hard to close the center...]
;B[ej];W[fi];B[qc]C[J: good!];W[pc];B[pb];W[pd];B[qb];W[nd]
;B[md];W[nc];B[nb];W[kg];B[lg];W[jg];B[jh];W[lf];B[mf];W[le]
;B[ld];W[ke];B[ig];W[jf];B[hg]C[J: Endgame moves, worth 1 point...D15, S16 better options (I'm no good at yose either!)]
;W[hf];B[de];W[ed];B[ee];W[fe]
(;B[ch];W[eg];B[rd];W[re];B[rc];W[qf];B[mh];W[da];B[cb];W[ca]
;B[ba];W[ea];B[bc];W[ik]C[J: quite unreasonable];B[jl]C[J: Tenuki here, even if J9 looks scary.]
;W[jk];B[kk];W[li];B[mi];W[ki];B[lh];W[kj];B[lk];W[ja];B[kc]
;W[ng];B[ne];W[od];B[mg];W[ob];B[oa];W[mb];B[na];W[ma];B[pa]
;W[ia];B[lb];W[mj]C[J: Unreasonable...];B[mk];W[nh];B[jj];W[dn]
C[J: Unreasonable...];B[en];W[dl];B[ck];W[dj];B[dk];W[ka];B[la]
;W[aq];B[se];W[sf];B[sd];W[is];B[jq];W[js];B[sg]C[J: Unreasonable..., this time you]
;W[rf];B[qg];W[rg];B[qh];W[rh];B[of];W[nf];B[pf];W[qi];B[ri]
;W[pe];B[rm];W[qo];B[rl];W[po];B[rk];W[sm];B[sl];W[sn];B[hs]
;W[ls];B[fs];W[gs];B[ms];W[mr];B[fs];W[er];B[gs];W[kn]C[J: Ignore it again]
;B[jn];W[km];B[jm];W[kl];B[mn];W[ap];B[bo];W[dm];B[cl]C[I believed this to virtually  be the end of the game, during which I thought I was ahead, but I later realized I need a lot of practice at counting points, as white is up 26.5 at this point.  The rest is mainly practice from here on.]
;W[in];B[jo];W[io];B[il];W[hm];B[hl];W[gn];B[fn];W[hn];B[gm]
C[J: Oppps!];W[fo];B[go];W[em];B[fm];W[ho];B[im]C[J: Why?];W[ef]
;B[oc];W[fo];B[cs];W[bs];B[go];W[ob];B[ar];W[oc];B[fo];W[tt]
;B[qr];W[rr];B[rq];W[rp];B[rs];W[sq];B[tt];W[tt]TW[fa][ga][ha]
[fb][gb][hb][fc][ic][fd][gd][hd][jd][ge][he][ie][je][qe][ff]
[gf][kf][of][pf][fg][pg][qg][sg][fh][oh][qh][sh][gi][ri][si]
[oj][qj][rj][sj][ok][pk][rk][sk][pl][rl][sl][pm][rm][on][pn]
[qn][ro][so][np][op][qp][sp][nq][oq][pq][rq][ar][br][or][pr]
[qr][sr][as][cs][ds][ms][ns][os][ps][qs][rs][ss]TB[aa][ma][qa]
[ra][sa][ab][bb][mb][rb][sb][ac][cc][lc][sc][ad][bd][ae][be]
[af][bf][ag][bg][ah][bh][ai][bi][ji][ki][li][aj][bj][kj][ak]
[bk][hk][ik][jk][al][bl][dl][el][kl][ll][am][bm][dm][em][km]
[lm][an][dn][kn][do][kp]C[Again, thank you for taking the time to review my game.

J: It's a pleasure. I'll go back now to try a few more comments, but I should say you must stop answering all (well, most of)  your opponent moves. He is trying very unreasonable things and you keep answering. I'll mark them now as "unreasonable". You try a few ones, but very few.

There's been a problem with your lower left corner, white grabbed you too much territory here. Also, depending on the center leads to smaller territories. He succeded reducing your center terr. while increasing his own.

The invasion on the right side was a failure, it was too ambitious and/or too late. 

I'll go back now.

Well it's done. I hope it helps you at least a little bit.]
)
(;B[eg];W[ch];B[ef];W[dh];B[bh];W[ff];B[fg]))
(;B[kq];W[lq];B[lr];W[mq];B[mr];W[mp];B[jq]C[J: A little bit submissive, but saves your important q2 etc stones.]
))
(;B[fq]C[J: Another option, but leads to a difficult fight]
;W[eq];B[ep];W[fr];B[gr];W[gq];B[fp];W[hr];B[er];W[gs]))
(;B[cn];W[dr];B[er];W[cr];B[fq]C[J: Looks better, doesn't it.]
)))
(;B[nk];W[ml];B[pk];W[mk];B[ni];W[nj];B[oj];W[mj];B[oi]))
(;B[qm];W[qk];B[om];W[nl];B[rp]C[J: More options to live]))
(;B[oh];W[nh];B[oi];W[ng];B[ni];W[mi];B[pi];W[qh]C[J: Just another option, but too messy anyhow.]
))
