(;FF[4]GM[1]SZ[19]ST[2]CA[UTF-8]AP[SGFC:1.15]

PB[eucmann]
BR[14k]
PW[R0ckLee]
WR[13k]
KM[6.5]
DT[2005-03-02]
PC[The Kiseido Go Server (KGS) at http://kgs.kiseido.com/]
RE[W+22.50]
TM[1500]
OT[5x30 byo-yomi]
RU[Japanese]

C[Thanks ahead of time to the reviewer for reviewing my game.]
;B[pd];W[dp];B[dd];W[pp];B[qn];W[ql]
(;B[on];W[np]
(;B[rp];W[qi]
(;B[fq]C[Should I have played somewhere else? Now that I look at it, H3 was a both an extension and pincer for white.]
;W[hq];B[fo];W[dn];B[dr]C[This is a bad move. Learn that joseki i showed you. It occurs often.]
;W[kq];B[cl]C[Another problem move? maybe I should have played a shimari with this move.]
;W[dl];B[dk];W[el];B[ek];W[cq];B[cr];W[cm];B[bl];W[bq]
(;B[br];W[qf]
(;B[nc];W[rd];B[qc];W[fc]
(;B[cf];W[ic];B[kc];W[db];B[cc];W[qq];B[rq];W[rm];B[qr];W[pr]

(;B[rr];W[pm];B[pn];W[ol];B[fl];W[fn];B[em];W[dm];B[en];W[eo]
;B[fm];W[fp];B[gn];W[gp];B[eq];W[ep];B[gr];W[dh]C[Maybe I hold off too long to play this move myself?

No, you should expect invasions into big areas.]
(;B[ff]C[maybe one step jump would be better?];W[cj];B[ck];W[df]

(;B[eg];W[cg];B[dg];W[bf];B[ce];W[be];B[ch];W[bg];B[di];W[bd]
;B[bc];W[cd];B[de];W[dc];B[ec];W[ed];B[ee];W[eb];B[bh];W[bb]
;B[hd]C[Not very sure if I should have played here?

This is not bad move. White answers it probably.];W[fe];B[ef]
;W[ge]
(;B[id];W[hf];B[gf];W[he];B[jd]C[Here, you got nothing and your power was destroyed.]
;W[of];B[hg];W[ig];B[if];W[hh];B[gg];W[jg];B[gc];W[gb];B[ie]
;W[hc];B[gd];W[fd];B[mq];W[mp]
(;B[oq];W[nq];B[pq];W[or];B[qp];W[op]
(;B[qq]C[Didn't get very good result here? How should I have played?

r3 useles - it is 1 point move - leave it for white, there are bigger moves.]
;W[me];B[mm];W[mc];B[mb];W[lc];B[lb];W[jc];B[kd];W[nd];B[oc]
;W[mk];B[kh];W[kg];B[mh];W[kk];B[ji];W[ii];B[jj];W[jk];B[ij]
;W[hj];B[ik];W[il];B[hk];W[nm];B[nn];W[mn];B[mo];W[ln];B[lo]

(;W[kn];B[ko];W[jo];B[lp];W[lq];B[no]
(;W[oh];B[lg];W[lf];B[kf];W[rc];B[rb];W[rn];B[ro]C[Corner is dead, but none of you have seen it.]

(;W[hr];B[io];W[jp];B[in];W[ni];B[jn];W[km];B[ip];W[iq];B[ao]
;W[qd];B[qb];W[hl];B[gl];W[go];B[le];W[mf];B[md];W[hn];B[hm]
;W[im];B[ho];W[gq];B[fr];W[bo];B[co];W[bn];B[bm];W[am];B[do]
;W[cn];B[al];W[ap];B[ne];W[nf];B[od];W[ah];B[ai];W[ag];B[bi]
;W[pe];B[jl];W[jm];B[fn];W[li];B[lh];W[mi];B[gj];W[qm];B[kj]
;W[lj];B[ll];W[kl];B[ng];W[nh];B[mg];W[og];B[jh];W[jb];B[kb]
;W[ja];B[ps];W[ns];B[po];W[mr];B[ar];W[oe];B[sn];W[sm];B[so]
;W[an];B[hs];W[is];B[gs];W[kp];B[sc];W[sd];B[sb];W[ka];B[la]
;W[nd];B[ld];W[ne];B[om];W[nl];B[ab];W[cb];B[ac];W[ad];B[ae]
;W[aa];B[qs];W[os];B[dq];W[aq];B[tt];W[tt]TW[ba][ca][da][ea]
[fa][ga][ha][ia][ab][fb][hb][ib][ac][bc][cc][ec][ae][qe][re]
[se][af][pf][rf][sf][pg][qg][rg][sg][ph][qh][rh][sh][oi][pi]
[ri][si][mj][nj][oj][pj][qj][rj][sj][lk][nk][ok][pk][qk][rk]
[sk][jl][ll][ml][pl][rl][sl][lm][mm][ao][co][do][bp][cp][jq]
[mq][ir][jr][kr][lr][nr][js][ks][ls][ms]TB[ma][na][oa][pa][qa]
[ra][sa][nb][ob][pb][lc][mc][pc][je][ke][df][jf][fg][ig][jg]
[kg][dh][eh][fh][gh][hh][ih][ci][ei][fi][gi][hi][ii][aj][bj]
[cj][dj][ej][fj][hj][ak][bk][fk][gk][gm][sp][sq][er][sr][as]
[bs][cs][ds][es][fs][rs][ss])
(;W[qs];B[rs];W[so];B[sp];W[sr];B[jn];W[lm];B[jp];W[io];B[kp]
;W[jq];B[ip];W[hp];B[iq];W[ir];B[jr];W[kr];B[hr];W[js];B[ho]
;W[in];B[jm];W[im];B[ll];W[ml];B[km];W[mm]C[This is the last comment.]
))
(;W[lf]C[This bigger.]))
(;W[ko];B[kn];W[lm];B[km];W[ll];B[kp];W[jo];B[jp];W[lp];B[no]
;W[ip]C[White played careless moves.]))
(;B[nm])
(;B[mn])
(;B[pg];W[pf];B[mg]C[Try to attack middle white group.]))
(;B[lq];W[lp];B[kr];W[jq];B[jr];W[ir];B[oq];W[nq];B[nr];W[mr]
;B[lr];W[or];B[ms]C[Black alive. But corner group stil just one eye.]
))
(;B[hc];W[id];B[he];W[ie];B[hf]C[Split him and try to attack.]
))
(;B[de];W[ef];B[ee];W[fg];B[gg];W[gf];B[fe];W[gh];B[eg];W[fh]
;B[dg];W[hg]
(;B[kf]C[Something like this. His ponnuki has less power.])
(;B[oq];W[pq];B[op];W[oo];B[po];W[no];B[or])))
(;B[hd];W[hc];B[fd];W[gd];B[ge];W[gc];B[fh]C[Let him struggle for life.]
))
(;B[qp];W[pq];B[po]C[You have just one eye in the corner.]))
(;B[hc]C[Why not pincer?]
(;W[fe];B[df];W[id];B[ic];W[jd];B[hd];W[he];B[jc];W[kd];B[ec]
;W[fb];B[lc];W[gd]C[This is ok for black.])
(;W[cc];B[cd];W[dc];B[ed];W[fb];B[ge]C[This is also nice for black.]
)))
(;B[pf]C[Make white overconcentrated with this move.];W[pg]
;B[qe];W[of];B[pe];W[rf];B[og];W[oh];B[ng];W[re];B[qc];W[ph]
;B[nf]C[This is ok, but black s4 stones now seem very thin.]
))
(;B[fl]C[Maybe I should have played this way?];W[fm];B[em];W[dm]
;B[gm];W[fn];B[gn];W[en];B[gk];W[go];B[ho];W[gp];B[gq];W[hp]
;B[hr];W[ir]C[This looks ok, if d2 can live. But it seems possible.]
))
(;B[cn]C[This looks to me as a correct direction of kakari. Black has more potential on left side than on the bottom.]
;W[fq];B[dj]))
(;B[pk];W[pl];B[ol];W[qk];B[pj];W[qj];B[pi];W[qo];B[rn];W[qh]
;B[og];W[qg]C[This continuation is expected.]))
(;B[qq];W[qp];B[pq];W[op];B[rp];W[ro];B[rq];W[qo];B[nq]C[This is also possible. White has lost a lot on lower side.]
))
