(;FF[4]GM[1]SZ[19]AP[SGFC:1.15]

PB[cae]
BR[9k*]
PW[as39]
WR[7k*]
KM[0.5]
DT[2005-02-28]
RE[B+17.5]

C[I'm black (9k IGS). My Opponent ist 7k. Please ignore the end game plunders of both players.
I'm mostly interested in general hints to improve my game.

[jfc\]: I am the game reviewer.  My comments are preceeded by my initials in brackets like this comment.]
;B[qd];W[dc];B[pp];W[dq]
(;B[dj]C[[jfc\]: D10 would be better placed at C10.];W[cf];B[co]

(;W[cp]
(;B[dm];W[do];B[cn]C[[jfc\]: White has sente, where is the biggest point?]

(;W[jp]LB[oc:A][od:B]C[[jfc\]: The top side is biggest.  A white approach at A or B would be bettter than K4.]

(;B[jd]C[[jfc\]: I prefer K17 here.  If you are going to play on the 4th line, then L16 is better as 5 spaces is the ideal side extension.  See variation.]
;W[gc];B[oc]C[[jfc\]: securing the corner is big.];W[pj]LB[qm:B]
[qn:A]C[[jfc\]: white is invading.  White should play R10 so he can settle quickly with a two space extension along the side.  Q10 will take more moves for white to settle.  Moves like Q10 are not horrible but they lose a little ground.

OK, black to move.  Look at the whole board.  Where is black weakest?  Where is white weakest?

I wouldn't call Q4 weak but it is black's "least strong" group, especially when you consider that the nearest stones on each side are white.

Similarly, white Q10 is white's weakest group.  The best move for black is a move that strengthens Q4 and weakens Q10.  A and B are good moves.]

(;B[qg]C[[jfc\]: here we can see that if Q10 was at R10 then white could settle simply by extending to R7.  With Q10 on the 4th line white has fewer options.

regarding R13: the proverbs say "drive your opponent towards your strong stones" but black R13 is driving white towards black's weakest stone.]
;W[qn]
(;B[pl];W[ql];B[qm]
(;W[rm];B[qk];W[pm];B[pk];W[rk];B[qj];W[rj]
(;B[nj]LB[ll:A][jj:B]C[[jfc\]: black has worked hard to build up a moyo in the upper right.  Don't let white in.  R11 instead of O10.

If the right side was already sealed off, then black O10 is way too slow.   A or B would be better. 

Also, notice that black Q4 is very weak.  white can gain a lot by attacking this stone.  Was it worth it playing Q8 instead of strengthening Q4?  How about black R7 instead of black R13?]
;W[qi];B[pi];W[ph];B[oi];W[qh]C[[jfc\]: after the blunder of N10, black is clearly behind.]
;B[of];W[pg];B[pf];W[rg];B[mq]C[[jfc\]: white S13 was a mistake.  If white attacks Q4 instead of playing S13 then white's hold on the lead is strengthened.

black is happy getting to play in this area first.]
(;W[gq]C[[jfc\]: this move illustrates why long side extensions (e.g. K4 from theD3 and D5) are generally more effective on the 3rd line (K3) than the 4th line (K4).  White would be much happier with K3 and G4 rather than the stones at G3 and K4 in the game.]

(;B[kq];W[po]C[[jfc\]: white Q5 is bad because it is small and helps black strengthen is Q4 stones.  White should be looking for a big move as there are no weak black groups to attack.]
;B[op];W[qp];B[qq];W[rp]C[[jfc\]: white S4 is small... white should be taking a big point.  Black has settled his weak Q4 stone with nice profit thanks to white's moves at S13 and Q5.

With white S4 black gets sente to boot.];B[jg];W[ib]
(;B[jc]C[[jfc\]: L17 does a better job of sealing off the top side than K17.]
;W[kb];B[jb];W[ja]
(;B[kc];W[lb];B[mc]
(;W[lc];B[ld];W[ic];B[mb];W[ka];B[id];W[hd]
(;B[iq]C[[jfc\]: the center is bigger than the bottom side.  How about black K7 instead?  What if white ignores J3 and reduces the center?]

(;W[jq];B[jr];W[ip];B[hr]
(;W[gr]C[[jfc\]: limiting black's center is bigger than preserving white's bottom side territory.  White should play H3 instead of G2.]
;B[eo];W[ep];B[fo]
(;W[fp]C[[jfc\]: white F4 is unnecessary.  White should reduce the center instead (e.g. J7).]
;B[go];W[in];B[hl];W[kp];B[lq];W[km];B[ch]C[[jfc\]: C12 is a big point.  Black got here first because white messed up the bottom side (K4)]
;W[bg];B[bh];W[hf];B[eg];W[ef];B[ff];W[ee];B[gg];W[hg];B[gh]
;W[hh];B[gj];W[ie];B[je]
(;W[jf]C[[jfc\]: K14 is gote. white should reduce the center (e.g. L10).]
;B[kf];W[if];B[ki];W[kg];B[lf];W[jh];B[lg];W[kh];B[lh];W[ji]
;B[kj];W[rq];B[ll];W[lm];B[qr];W[nm];B[ml];W[ol];B[ok];W[nk]
;B[oj];W[nl];B[mj];W[no];B[mo];W[mn];B[lo];W[np];B[nq];W[qf]
;B[qe];W[re];B[rd];W[sd];B[sc];W[se];B[rb];W[bo];B[bn];W[bp]
;B[fe];W[fd];B[jj];W[hi];B[hj];W[an];B[am];W[ao];B[bm];W[ah]
;B[ai];W[ag];B[bi];W[cg];B[dg];W[df];B[hn];W[im];B[il];W[hm]
;B[gm];W[ho];B[gn];W[hq];B[ir];W[jl];B[jk]C[[jfc\]: at this point the game is close.  Sharp endgame play by either side can win the game.

recommendations: 

pay attention to which groups are weak and which are strong.  When there are no weak groups to defend or attack, look for the biggest move.  Experiment with playing more side extensions and splitting moves on the 3rd line.

END OF REVIEW.];W[kl];B[ge];W[he];B[gd];W[fc];B[ko];W[rr];B[rs]
;W[gi];B[fi];W[og];B[ng];W[ma];B[na];W[nb];B[la]C[At that point I'm about 5 points behind on the board but white messed up.]
;W[md];B[ia];W[hb];B[gs];W[fs];B[hs];W[er];B[jo];W[oo];B[pq]
;W[ha];B[ja];W[oh];B[nh];W[kk];B[lk];W[mk];B[lj];W[ij];B[io]
C[And another mistake by white.];W[hp];B[jm];W[jn];B[kn];W[jm]
;B[mm];W[nn];B[ln];W[ik];B[hk];W[ii];B[dn];W[sr];B[gp];W[dp]
;B[gf]C[Now this was my mistake.];W[fh]
(;B[eh];W[fg];B[ei];W[ss];B[qs];W[or];B[oq];W[tt];B[tt];W[tt]
)
(;B[fg];W[ei]
(;B[fj];W[dh])
(;B[eh];W[fj];B[dh];W[fh])))
(;W[ki]))
(;W[im]
(;B[hq];W[hp];B[gp];W[hs];B[ir];W[kp];B[lq])
(;B[ho];W[km];B[hp];W[hq];B[ir];W[gp];B[go];W[hh]))
(;W[in]))
(;W[hq];B[ir];W[hk]))
(;W[hh]))
(;B[eg]))
(;W[mb];B[nb]))
(;B[lc];W[lb];B[mc]))
(;B[kc];W[kb];B[lb];W[jc];B[kd]))
(;B[qp]C[[jfc\]:];W[oq];B[op];W[nq];B[np];W[mr];B[lq];W[lr]
))
(;W[qq];B[qp];W[pq];B[oq];W[or];B[nr];W[op];B[nq];W[rp];B[ro]
;W[rq];B[qo];W[pr];B[oo]))
(;B[jl];W[ml])
(;B[qi];W[nm]C[[jfc\]: this looks tough on black.];B[nq]
(;W[qq];B[qp];W[rp];B[ro];W[rq];B[qo];W[or];B[oq];W[pr];B[nr]
)
(;W[rp];B[qq];W[lq];B[rq]TB[ja][jb][jc][jd][ka][kb][kc][kd]
[la][lb][lc][ld][ma][mb][mc][md][na][nb][nc][nd][oa][ob][oc]
[od][pa][pb][pc][pd][qa][qb][qc][qd][ra][rb][rc][rd][sa][sb]
[sc][sd][le][me][oe][pe][qe][re][se][pf][qf][rf][sf][pg][qg]
[rg][ph][qh][qi][qj][qk][aj][ak][al][am][an][ao][bj][bk][bl]
[bm][bn][bo][cj][ck][cl][cm][cn][co][dj][dk][dl][dm][pk][pl]
[op][oq][or][os][pp][pq][pr][ps][nq][nr][ns][qq][qr][qs][rq]
[rr][rs][sr][ss]TW[pj][nm][pm][rp][aa][ab][ac][ba][bb][bc][ca]
[cb][cc][da][db][dc][ea][eb][ec][fa][fb][fc][ga][gb][gc][ad]
[bd][cd][dd][ed][ae][be][ce][de][af][bf][cf][rj][rk][rl][rm]
[rn][sj][sk][sl][sm][sn][ql][qm][qn][do][dp][dq][dr][ds][ho]
[hp][hq][hr][hs][io][ip][iq][ir][is][jo][jp][jq][jr][js][ko]
[kp][kq][kr][ks][ap][aq][ar][as][bp][bq][br][bs][cp][cq][cr]
[cs][ep][eq][er][es][fp][fq][fr][fs][gp][gq][gr][gs][lq][lr]
[ls]V[-2.4])))
(;W[pm]
(;B[rm];W[rl];B[pk];W[qj]
(;B[om];W[pn])
(;B[pn];W[om];B[qo]))
(;B[pk];W[qk])
(;B[qk];W[rm];B[pk];W[rk];B[qj]))
(;W[pk]
(;B[qk];W[rl])
(;B[pm];W[rl];B[rm]))
(;W[rl]
(;B[rm];W[pm])
(;B[pm];W[rm])))
(;B[np]C[[jfc\]: the normal response -- black strengthen's his weak stone.]
;W[rp];B[qq];W[qj];B[lq]C[[jfc\]: both sides are settled.]))
(;B[qn]
(;W[nq];B[pr])
(;W[qg];B[mq])))
(;B[jc]
(;W[gc];B[mc])
(;W[mc];B[gc])))
(;W[oc]))
(;B[do];W[fp]))
(;W[fp];B[dm];W[jq]C[[jfc\]: here, with D10 on the 4th line, black needs another move to close off the side from invasion.  If D10 was at C10 then black would be finished.]
))
(;B[cj]LB[cg:A][cm:B]C[[jfc\]: Here black has 2 ways to extend and settle his shape QUICKLY.]
;W[cg];B[cm]C[[jfc\]: Playing efficiently is one key to winning.  The two space extension of C10, C7 settles black's stones quickly and efficiently.]
))
