(;FF[4]GM[1]SZ[19]ST[2]CA[UTF-8]AP[SGFC:1.15]

PB[Yunaleska]
BR[12k]
PW[gonyanya]
WR[12k]
KM[6.5]
DT[2005-03-07]
PC[The Kiseido Go Server (KGS) at http://kgs.kiseido.com/]
RE[B+Resign]
TM[1200]
OT[5x30 byo-yomi]
RU[Japanese]

C[Hi!  I am (or was at least before college ate into my time) a 4k on kgs.  I will use "Ix" before further comments.  

---------------------------------------------------,
Hello, I'm black in this game

i won this game on resign,
the fun is that he already lead much, but because
he still played some attacking move <greedy??>
i take the lead.^^

-----
Thanks for reviewing!];B[jj]C[gonyanya [12k\]: hi there
Yunaleska [12k\]: hi

Ix:  Tengen--I do not play it but faced it many times.  The key for black to win is in making use of this opening stone.  The reason is because moves this early are worth lots of points.]
;W[dp]
(;B[hj]C[Ix:  VERY bad.  This is too close to the tengen.];W[qp]
;B[lj]C[Ix:  Black has now wasted two moves.];W[ec];B[cd];W[pd]
TR[hj][jj][lj]C[Ix:  White has 3 corners now and is up on territorty.  While black has the 3 marked stones.  They are not sufficient compensation BUT they are what black has.  My favorite tactic is to use such a strong group for attack.  

TRY TO CHASE A GROUP INTO THEM.  Black can then pick up points while a group tries to thrash around escaping.]

(;B[dc]C[Ix:  This is not common.  This touches a weak stone.   Better is to pincer.]
;W[ed];B[nd]
(;W[qf]C[Ix:  I think white makes a mistake here.  Extension from the E16 group or try to seal the black c16 group in are both nice options.]

(;B[of]C[Ix:  Better here is to play c14.  This stone just is not that useful.  A muyo is possible but easily prevented.]

(;W[dd]
(;B[de]LB[dc:2][cd:1][nd:6][of:7][hj:3][jj:4][lj:5]C[i played D15 because i think Because tengen is black`s, corner is not really valuable for black.

 your comment??

Ix:  The reason why this is a very bad move--it allows white to settle immediately in blacks sphere of influence.]
;W[cc];B[bc];W[cb];B[bb];W[db]C[Ix:  White is almost impossible to kill now.  Worse--black now has to play a move to fix his shape so he ends in gote.]
;B[ce]
(;W[cj]
(;B[bh]TR[bb][bc][cd][ce][de]C[Ix:  Mistake--way too conservative.   The marked stones do not need to seek life.   They can go towards the center (plenty of help there) or make life if need be in the corner. 

I would look to play elsewhere.];W[cm]C[* i not really happy about my B12 *

Ix:  This was a bit passive for white.  P3 is big.];B[dm]C[Ix:  Black wants a fight.]

(;W[dl]C[Ix:  Generally better then hane is to just extend.  It leaves black with sort of a funny position.  This just invites trouble.]
;B[cl];W[ck];B[cn]
(;W[bm]C[Ix:  Wonder why white did not take (?)];B[dn];W[el]
;B[bn]
(;W[bp]C[B4 supprized me, are myB6 not really sente??.

Ix:  White did not want to lose the corner.  He has to capture the stone in my opinion.  Otherwise the D8 group will be VERY difficult and costly to save.]
;B[bl];W[bk]C[Ix:  Bad for 3 reasons:

1.  It forces black to take which spoils a possible ko threat.  

2.  Makes a empty triangle which is bad shape.

3.  It is not quite good enough for a killing attack.];B[am]

(;W[fn];B[eo];W[en]
(;B[ep];W[do];B[dq];W[cq];B[eq];W[cr]
(;B[bo];W[cp]LB[co:A]C[Ix:  Notice the way that black has played allowed white a extra liberty at A.  In a capture race this can be the difference between winning and losing.]
;B[ao];W[hp]
(;B[gp];W[go]
(;B[gq];W[hq]
(;B[fr];W[es]TR[en][fn][go][hp][hq]C[Ix:  There is a very important point to rememeber here.  The group is dead as it is. Play elsewhere!  This group can be a very nasty ko threat.  Also other play on the board may weaken the marked white group later on.]
;B[hr];W[ir];B[fs]C[UPS.. misread, used to think after i play G1 and he play F1 ,G2 becomed false eyes >.<]
;W[hs];B[ho];W[gr];B[dr];W[ds];B[cs];W[bs];B[ar];W[fp]C[Ix:  Notice how white has been forced to kill black.  Now few ko threats.]
;B[ap];W[fq]C[after this i am reallized that i had lost in semai, and that he already lead much in this game...]
;B[em]TR[ce][de][bh][hj]C[so i just try to cut him as much as possible.

Ix:  It is a very good idea!  The whole point is to make the C10 group make life which will be challenging.  Black has a lot of power in the area with the marked stones.]
;W[fl];B[fm]
(;W[gm]C[Ix:  This is a mistake.  White can not play and hope that black does not cut.  Better is to run to the center.]
;B[gl];W[gk];B[hl];W[hk];B[hm]
(;W[gn]C[Ix:  Huge mistake.  This is worth only 2 points.  White must play to escape.]
;B[ik]C[Ix:  Good move closing that off!];W[gj];B[hi];W[gi]
C[Ix:  I would take sente and play at a big point.]
(;B[ej]C[Ix:  This seems a bit optimistic.   I think white can get away without too much trouble.]

(;W[hh];B[fk];W[dk];B[di]C[Ix:  Huge loss for white!];W[ci]

(;B[dh]C[Ix:  This move is too slow.  White is trying to threaten two groups at the same time.]
;W[ch]
(;B[cg];W[dg]
(;B[eg];W[bg];B[df];W[bf];B[ai];W[bi];B[ak];W[aj]C[ah, he got live again. started to thinking about resign.
what do you think about the position now?
are he really lead much??

Ix:  White is winning right now. 

 I have black with only about 30 points. 

Bottom left                 3
Bottom right             (6)
Center/top left         14
Top right                   10
                                 -------
Total                         33

 White has nearly  twice that with komi.    

Bottom left:                22
Top left:                      12
Top right                    14
Bottom right              12
Komi                           6.5
                                  --------
Total                          66.5];B[gh]C[Ix:  Big cut!];W[il]
C[from here he make many mistakes, he played like he want to take all part of the board, and oftenlly the one who get advantages from his attack is me :D.

i think if he played more defendsive he will won this game.

what do you think?

Ix:  I agree.  Play very solidly and white wins.  What white tries to do is save the H9 group.  He is winning even if it dies.  He should abandon it.]
;B[hn];W[jd];B[op];W[fh]C[Ix:  This is futile.];B[gg];W[fi]
;B[jo];W[ih];B[ge]C[looks like, white want everything.]
(;W[im];B[jn]C[Ix:  Excellent move!  Did you check the ladder first before making it though (see var for move 118)?]

(;W[ij];B[ii]
(;W[ji];B[ij];W[kj];B[jk];W[kl];B[kk];W[jl];B[ki];W[lk];B[jh]
;W[lo];B[lm];W[kn];B[km];W[ll]
(;B[mm];W[mk];B[om];W[jm];B[ko];W[ln];B[lp];W[mo];B[mp];W[no]
;B[oo];W[io];B[in];W[kp]C[again, i thinking about resign now]
;B[jp];W[kq];B[jq]
(;W[kr]C[thanks god, he played L2 instead K2 :)

Ix:  Very grim the if he went k2     :-(];B[np]LB[qp:A]TR[om]
[oo][lp][mp][op]C[Ix:  Notice how trying to save this dead group has hurt white severely.  Not because the stone are dead per se.  More importantly the marked stones are threatening "A" now.]
;W[gc];B[qn];W[pr];B[rq]LB[qi:B][ro:A]C[i tried to take his corner, but i was failed. is there better move to take it?  

Ix:  Its probably alive.  I would just take the point at A and then follow with a play at B.  You dont have to kill the corner.]
;W[rp];B[or]C[Ix:  This seems to be a case where making "good" shape is bad.  Q3 seems better.]

(;W[pp];B[qr];W[qq];B[rr];W[rn];B[rm];W[qo];B[pn]
(;W[qs];B[so];W[sn];B[sp];W[rs];B[sr];W[ro];B[oq];W[sq];B[sp]
;W[sm];B[rl];W[qj]C[huh, he gave me the corner?? is really the corner less valuable than side?

Ix:  He can not save the corner.  White is just trying to save what he can.  White may be "rattled" after significant reversals.]
;B[ph]C[Ix:  Good move!  It creates dangerous threats on the n8 group.]

(;W[mj];B[qh]C[to slow eh,?

Ix:  Perfectly fine.  Now the key is to make sure everything links up.]
;W[li]
(;B[ig];W[kj];B[hg];W[kh]
(;B[ji]C[Ix:  Very small!   Do not forget that group is alive because white is dead in the center.]
;W[kg];B[ke];W[jf];B[je];W[if];B[ie];W[hf];B[gf];W[he];B[hd]
;W[id]
(;B[gd];W[lf];B[le];W[pq];B[mh];W[mf];B[me];W[nf];B[oe];W[og]
;B[oh];W[nh];B[pg];W[ng];B[pf];W[oi];B[oj]LB[ne:A]TR[nd][me]
[oe]C[Ix:  White has a good move at A.  It creates two nice cutting points.  This shape (where the trianges are is prone to being cut in this fashion.]

(;W[ml];B[nl];W[nj];B[pi];W[ok];B[pj];W[ol];B[nm];W[ne];B[od]
;W[md];B[lc];W[mc];B[ld];W[lb]LB[kc:2][kd:1][kf:3]C[i lost my byo-yomi here because thinking about move in L18, can i get more with L18, or maybe J17?

Ix:  I think the move you chose was correct.  The reason is because it took the corner as well which is huge.]

(;B[mb];W[nc];B[nb];W[oc];B[pc]C[gonyanya [12k\]: thx
Yunaleska [12k\]: thx good game
gonyanya [12k\]: yes, gg
gonyanya [12k\]: peace

 Ix:   I thought black played a decent game after in the last half.  Especially well done was punishing white for trying to hold on to everything.   Here are a couple of suggestions on how to improve this part of your game:

1.  Work on your fuseki.  Opening Theory Made Easy  by Hideo is a well worth a read.  

2.  Do not let opponent groups settle easily.  Also if you can take time out to make life it is generally worth the move even if you will cost a bit of territory.

3.  Try to keep your groups attached.  Big groups are very hard to kill.]
)
(;B[ic];W[mb];B[ob];W[kc];B[kb];W[jb];B[jc];W[ka];B[kd];W[ib]
C[Ix:  White should keep something alive up at the top here.]
))
(;W[ne];B[md];W[od]C[Ix:  White has hope of killing one.]))
(;B[kf]C[Ix:  This is slightly better.  Then playing G16.  White loses a liberty a bit more flexibility.]
))
(;B[oj]C[Ix:  Taking the side with this is very big!]))
(;B[mg]C[Ix:  I like a stone around here to help link everything up.  Showin is one of many possible continuations.]
;W[kj];B[ji];W[jg];B[kh];W[lh];B[kg];W[lg];B[kf];W[lf];B[ke]
;W[le];B[kd];W[ld];B[kc];W[mc];B[oj]))
(;W[rh]C[Ix:  Probably necessary.]))
(;W[os]C[Ix:  White appeard to have a ko for life (with first capture if he plays here.]
;B[ns];W[ps];B[nr];W[so];B[sm];W[sn];B[oq];W[pq];B[sq];W[sp]
;B[po];W[rs]C[Ix:  This prevents R1.];B[ss];W[sr]))
(;W[pq];B[qq];W[pp];B[oq];W[rr]))
(;W[jr];B[kr];W[lq]))
(;B[jm]C[Ix:  Black should not allow this cut.   Remember---big groups are very hard to kill!]
;W[mm];B[ln];W[ko];B[mo];W[mn];B[kp];W[lp];B[lq];W[mp];B[np]
;W[no];B[mq];W[mo];B[jq]))
(;W[jk];B[ij];W[kj];B[ji];W[ki];B[jh];W[jg];B[kh];W[lh];B[kg]
;W[kf];B[lg];W[mg];B[lf];W[le];B[mf];W[nf];B[me];W[md];B[ne]
))
(;W[kl]LB[fg:4][eh:3][ei:2][fj:1]C[Ix:  This move is necessary to continue the fight.  It threatens both groups of black. 

 I personally think that white has gotten WAY to sidetracked here.  Black only needs to fill in 4 liberties to kill white (linking everything).  So this all seems extremely futile.]
;B[ml];W[ij];B[ii];W[ji];B[ij];W[kj];B[jk];W[kk]))
(;W[jl]C[Ix:  This is a nice try if white is determined to try to save the H9 group.]

(;B[ll]C[Ix:  Black can not block like this.];W[ij];B[ii];W[ji]
;B[ij];W[kj])
(;B[kk];W[km];B[lo];W[mm]C[Ix:  Turns into a running fight.]
)))
(;B[bg]LB[eg:1][gh:2]C[Ix:  This looks to be the last try to kill.  What can white really do?  Black can either cut at 2 or link with 1 and there is no way for white to stop both.]

(;W[eg];B[gh];W[fi];B[fh]
(;W[ei];B[eh])
(;W[eh];B[ei]))
(;W[gh];B[eg];W[df];B[ef])))
(;B[bg]C[Ix:  This looks better.];W[dg];B[eg];W[cg]))
(;B[eg]TR[di][ej]C[Ix: This is better.  The shape of the marked stones (which to me I think of as a pyramid) is not a shape that can be cut--any attempt to cut equals a tigers mouth.  With one group linked up then black only needs to worry about the b12 stone living in order to kill white.]
;W[ch];B[bg];W[dg];B[eh];W[df];B[ef];W[ee];B[gf]C[Ix:  Black escapes resulting in white dying.]
))
(;W[ei]C[Ix:  This move seems to allow the escape.]
(;B[dk]C[Ix:  Black can not cut.];W[fk];B[gh];W[fh])
(;B[di];W[fh]
(;B[eh];W[ek])
(;B[dk];W[dj];B[ek];W[fk]))
(;B[fk];W[dk];B[di];W[fj];B[eh];W[gh];B[fi];W[ek])))
(;B[op];W[oq];B[pp];W[pq];B[qo];W[qq]))
(;W[ik];B[gn];W[fo];B[ej];W[ek];B[dj];W[dk];B[fj];W[fk]C[Ix:  White should escape.]
))
(;W[fh];B[ff];W[ch];B[cg];W[dh]))
(;B[dr]C[Ix:  This looks like a nice try.  I thought it saved for a while.  The problem is that the capturing race favors white.]
;W[fr]C[Ix:  This move is nasty!];B[gr];W[hr];B[ap];W[ds];B[es]
;W[cs];B[fs];W[fo];B[co];W[fp];B[bq];W[fq]))
(;B[hr]TR[gp]C[Ix:  This seems a better attempt at escape.   It white is happy to only eat the marked stone---thank him!]
))
(;B[dr]C[Ix:  Black must hope for a mistake to survive.];W[fq]
;B[fr];W[gq];B[gr];W[hr];B[es];W[gs];B[aq]
(;W[ap];B[br]
(;W[fo];B[cs];W[fp])
(;W[cs];B[co];W[fo];B[bs];W[fp];B[bq]))
(;W[cs];B[ap];W[ds];B[bq];W[fo];B[co]C[Ix:  White wins the capturing race by one if played correctly.]
)))
(;B[cp]C[Ix:  This can get a bit dangerous for white.];W[co]
;B[bo];W[cp];B[ao]
(;W[gp]C[Ix:  This does not work.];B[dr];W[cs];B[ap];W[aq];B[br]
C[Ix:  Dead];W[ar];B[bs])
(;W[dr];B[er]
(;W[gp];B[ap]
(;W[fo];B[ds];W[cs];B[es];W[ar];B[aq])
(;W[aq];B[ar]
(;W[bq];B[br];W[bs];B[ds];W[as];B[es];W[fo];B[cs];W[fp];B[br]
)
(;W[br];B[bq]C[Ix:  Ko for life....not what white would want at all!]
)))
(;W[ar];B[hp];W[fk]C[Ix:  This seems the best for white.  Everything alive but one group somewhat weak and floating.]
))))
(;B[do]C[Ix:  White's position is too full of holes.  Just connect and break out.  Attempts to block leave white with two extremely weak groups.]
;W[fp];B[ep];W[eq];B[fo];W[fk]))
(;W[fo]C[Ix:  This is a better try but it seems impossible to capture the black group.]
;B[fn];W[fm];B[gn];W[en];B[eo];W[em];B[do];W[fp];B[ep];W[eq]
;B[dq];W[cp];B[fq];W[er];B[gp]))
(;W[bl]C[Ix:  Necessary.]))
(;W[bl];B[bm];W[cl]C[Ix:  This can not be bad....]))
(;W[cn];B[dl];W[cl];B[dk];W[ck]C[Ix:  Has black really gained from this?]
))
(;B[oq])
(;B[fq])
(;B[jq]))
(;W[cm]LB[eq:A]C[Ix:  White chose the right side.  I think I would have went here.  Perhaps just a preference.  It stops black's extension and prepares to grab the whole corner with A.]
))
(;B[cc]LB[ic:2][dh:1]C[Ix:  This seems safer.  White has two escpe routes so there is no danger.  However that could change as the game progresses.  The main question is "why let him settle his group?!".]
))
(;W[id]C[Ix:  White can play here and black has no real useful muyo.]
))
(;B[cg]C[Ix:  Now if white ignores,,,,,];W[oq];B[ic]TR[ec][ed]
C[Ix:  A nasty attack on the marked stones.  White will give black a lot of sente moves (and territory) in his struggles to escape.]
;W[eg];B[di]C[Ix:  Try and force white into that trio of stones in the center.]
;W[ei];B[dj];W[fj];B[ek];W[gk];B[cn]))
(;W[ce]C[Ix:  Ignoring this would be expensive.];B[be];W[dd]
;B[bc];W[cf]C[Ix:  White would absolutely love black to crawl along that second line to make life.  If black makes a move such as D 18 then he can now play R14 as he originally did.]
)
(;W[ic]C[Ix:  This is also a good move.  Settles white's group and acts as a bit of a pincer on the O16 stone.]
))
(;B[gd];W[fe];B[ge];W[ff];B[cg];W[gf];B[ie]))
(;B[dj];W[dc];B[pj];W[qc];B[gk];W[pq];B[mi]C[Ix:  I was conned into this bizarre opening once by a freind to see how it would play.  I won as black but it is really a difficult struggle to win--you are playing for a blunder.by white.]
)
(;B[dd];W[pq];B[pd]C[Ix  Better for black is something like this.]
))
