(;FF[4]GM[1]SZ[19]ST[2]CA[UTF-8]AP[SGFC:1.15]

PB[brianlee]
BR[26k]
PW[stanleyysw]
WR[26k]
KM[6.5]
DT[2005-03-13]
PC[IGS-PandaNet]
RE[W+13.50]
TM[480]
RU[Japanese]

C[My first game submitted for GTL review. I am  playing black and my comments are prefixed with "BL"

I first learnt to play go about a year ago. Have been playing on and off since then on KGS and IGS.

My rank is 26k on IGS and an unconfirmed 17K on KGS.

Many thanks for your review.

11K: Hi, this is my first review. All my comments will begin with 11k. As you can guess, Im 11kyu. Therefore none of my comments or suggestions are gospel, but hopefully you can learn something anyway.]
;B[qd]C[BL: I don't really know much about fuseki at present so I'm just trying to make corner enclosures

11k: I wouldnt worry much about "memorizing" any fuseki. I dont know anyone below 5kyu who has bothered. Concentrating on getting a feel for the game is more useful]
;W[dp];B[pq];W[dd];B[qo];W[oc];B[pf];W[oe];B[qj];W[lc];B[jq]
C[11k: In my opinion, you are playing that too low. Of course if you want to avoid fights as a rule of thumb its ok. However playing it higher makes for a riskier, but potentially more rewarding game]
;W[pm];B[qm];W[pl];B[ql];W[oj];B[pk]C[11K: Here, your play is too reactive. There are loads of bigger points on the board and neither formation of yours on either side of the 9th line was in any danger. A play at C6/F3/C14 or even F17 would be better]
;W[ok];B[cn]C[BL: Was not sure whether to approach at F2 or C6. Chose C6 in the end to avoid White sketching out left + top-side framework.

11K: I believe you made the correct choice. F3 is safe, but much too small]
;W[fq]LB[ck:C][bp:B][cp:A][cq:D]
(;B[cp]C[11k: I believe this move was inefficient for your purposes. It forces W to fortify his position while still leaving your position a bit weak. (See Variations)]
;W[cq];B[do];W[bp]C[BL: I have no real joseki knowledge so am just playing this as I go along...]
;B[bo]C[BL: I know, no ko threats in the openning...but could not see a good alternative to this.

11k: You're seeing the problem a little after the fact. best would be to have made Move 23 C5 instead of D5]
;W[ep];B[cf]C[BL: now trying to extend in other direction];W[bd]
LB[fc:E][ce:B][ee:A][df:C][ci:D]
(;B[ee]C[11k: Strange Move. But it was a strange position. See variations.]
;W[ph];B[qh]C[11k: Ineifficient imo. Neither group was in danger of dying. You should have used that move to build territory/Moyo at the left side of the board.]
;W[pi];B[qi];W[ed];B[de];W[gd];B[cd];W[cc];B[ce];W[db];B[be]
;W[ad]LB[ci:B][di:C][ol:A]C[BL: I feel game is balanced. White has top + influence on right. Black has a position on left + territory to right + some stakes in the bottom.]

(;B[ol]C[11k: Id still concentrate on making territory on the left at this point.]
;W[pj];B[qk];W[pn];B[om];W[qn];B[rn];W[po];B[qp];W[no];B[op]
;W[oo];B[mm];W[np];B[nq];W[nl];B[nm];W[ll];B[ng]C[BL: I felt confident to leave P7 group (wrong) and  wanted to reduce what looked like a large white moyo developing

11k: 3 choices: 1) Reduce moyo 2) Try to kill O4 formation 3) Develop weak left. On the balance of things, I would think 2) was the best option.]
;W[og];B[of];W[pg];B[nf];W[qg];B[rf]C[11k: Looks odd. I would go for R14 instead.]
;W[ml]C[BL: I am torn between retaining connection to upper right corner and giving P7 group more breathing space.

11k: Id still go for the P7. The upper group as a somewhat good chance of making an eye by running to the center and another eye on the side/corner]
;B[rg]C[BL: I pick to retain territory and connection on right side...]
;W[lm];B[mn];W[lo];B[mo];W[mp];B[lp]C[BL: I believe that P7 group is dead but White misses it.]
;W[ln];B[mq];W[kp];B[lq];W[ip]C[BL: I mistakenly believe that the P7 group is alive in seki...White misses this also.]
;B[jp];W[jo];B[kq];W[ko];B[iq];W[hp];B[pp]C[BL: I manage to save the P7 group but now White has a strong outer facing wall. My assessment is that the game is in White's favour now.]
;W[ck]LB[gf:A][dl:B]
(;B[gf]C[BL: I realise it is a mistake not to answer White's invasion...
11k: Yup. Frankly barring mistakes, this looks almost like resign time. (see variation)]
;W[ch];B[bi]C[BL: ...as eventually, I must.];W[bh];B[ci];W[di]
;B[dh];W[dg];B[eh];W[bj];B[ah]C[BL: My reading of the fighting here is not good...]
;W[ag];B[bg];W[ai];B[cg];W[ah];B[ei];W[dj];B[ej];W[ek];B[fk]
;W[el];B[af]C[BL: Here I feel there has been an enforced exchange of influence for the left side territory. I am now worried about the stones around C5.

11k: By all rights, C5 should be unsalvagable.

Also I believe  A14 is unnnecesary, never TRY to make 2 eyes. The tradeoff for the security is too great. Here you have 1 solid eye and place to run. Makes more sense to extend outwards making territory/ threatning to invade. The second eye will form itself in the process. (Possible alternative moves - J15 or H10)]
;W[cj];B[ae];W[bc];B[dl];W[fl];B[dk];W[cl];B[dm];W[bl];B[ak]
C[BL: I am trying to find a way of attacking the cutting stones (E8)

11k: All A9 did was force your opponent to make a move that he would want to make anyway. Not a good idea. I would consider E8 alive, barring mistakes.]
;W[al];B[gk];W[gl]C[BL: My assessment is wrong: the cutting stones (E8) are too close to white's wall to be successfully attacked]
;B[id]C[BL: I try to attack the top instead (trying to create some territory in the upper centre of the board.

11k: Too far. J15 better.];W[he];B[hd];W[hf];B[ge]C[11k: Your opponent is overconfident. You have a chance again.]
;W[fd];B[hg];W[fe]C[11k: More urgent imo is F14. You will most probably be able to kill H14 group anyway.]
;B[if];W[ff]C[BL: Critical move (possibly game losing?) C15 group is in danger of being cut-off. I feel my chances now lie in some upper middle territory so sacrifce the C15 group]
;B[ie];W[eg];B[fg];W[ef];B[gc];W[fh];B[gg]C[BL: Misreading. Should connect the E11 group.]
;W[fj];B[fc];W[ec];B[fb]C[11k: too many one pointer moves. Better to threaten the weak stones at M17 group  or make territory at the center.]
;W[eb];B[ea];W[da];B[fa];W[ib];B[hc];W[jc];B[jd];W[kd];B[gj]
;W[fi];B[mi]C[BL: Trying to map out some territory in the centre]
;W[mj];B[li];W[nh];B[mh];W[ni];B[lj];W[lk];B[ke];W[le];B[md]
;W[kf];B[je];W[me];B[ld];W[kc];B[nd];W[ne];B[od];W[pd];B[pe]
;W[pc];B[lf];W[qf];B[qe];W[nc];B[mf];W[mc]C[BL: Game is clearly in white's favour. Not sure what I can do at this point.]
;B[ap]C[BL: Trying to see if I can make this group live?];W[co]
;B[cb]C[BL: Mistake...this is not even a ko threat.
11k: Whats the point of a ko threat anyway? That group has no reasonable chance of survival. 

Biggest point on the board imo now is S18 or G2];W[cp];B[bq]
;W[bn];B[bm];W[ao];B[en];W[eo];B[hl];W[jk];B[kj];W[gi];B[ij]
;W[hk];B[hj];W[ik];B[kk];W[kl];B[hm];W[fn]C[BL: Mistake by white I think.

11k: Good job!];B[jl];W[il];B[jm];W[im];B[in];W[hn];B[jj];W[io]
;B[gn];W[ho];B[fm];W[fo];B[em];W[dn];B[cm];W[am];B[gm]C[11k: Bravo!]
;W[ej]C[BL: Again, there is no way that Black should have any live stones in the lower centre + left. Now I feel I am in with a chance.]
;B[go]C[11k: Wasting sente. G2 or S18/R17 could win you the game.]
;W[gp];B[gr];W[hq];B[hr];W[fr];B[fs]C[11k: Wasting sente on a 1-pointer again.]
;W[es];B[gs];W[dr];B[hi];W[gq];B[ir];W[jn];B[im];W[hb]
(;B[ha]C[11k: About your last chance to maintain the lead goes here (See var.)]
;W[ia];B[ga];W[rc];B[qc];W[qb];B[rd];W[sc];B[sd];W[ra];B[gh]
;W[km];B[do];W[ic];B[dn];W[tt];B[sb];W[rb];B[pb];W[pa];B[tt]
;W[tt];B[tt]TW[aa][ba][ca][ja][ka][la][ma][na][oa][qa][sa][ab]
[bb][cb][jb][kb][lb][mb][nb][ob][pb][sb][ac][dc][cd][ae][be]
[ce][de][ee][af][bf][cf][df][bg][cg][dh][eh][oh][bi][ci][ei]
[oi][aj][nj][ak][bk][mk][nk][an][kn][bo][ap][fp][aq][bq][dq]
[eq][ar][br][cr][er][as][bs][cs][ds]TB[he][le][me][ne][oe][re]
[se][hf][jf][kf][sf][ig][jg][kg][lg][mg][sg][hh][ih][jh][kh]
[lh][rh][sh][ii][ji][ki][ri][si][rj][sj][hk][ik][jk][rk][sk]
[il][rl][sl][rm][sm][sn][ro][so][rp][sp][oq][qq][rq][sq][jr]
[kr][lr][mr][nr][or][pr][qr][rr][sr][hs][is][js][ks][ls][ms]
[ns][os][ps][qs][rs][ss]C[White wins by 13.5 points.

--------------------------------------------

So white wins. I would appreciate any advice. I feel the fuseki is something I particularly need to work on?

Also any general points would be gratefully received.

11k: In conclusion if you would go for the biggest points in yose you could have won.

Your play is a little too reactive for my taste, and you play too much for local security which negates your stones working together over long distances. 

As for the fuseki, dont get caught up in the formally played moves, simply avoid fights and map out as many corner/side postions as you can.

Good Game.])
(;B[qc];W[qb];B[rb];W[qa];B[ra];W[pb]))
(;B[dl];W[cl];B[dk]C[Maybe this would work. Cant be sure though. The idea, infantile as it seems, is to make it very complicated, and hope for mistakes.]
))
(;B[ci])
(;B[di]C[11k: Going for center influence here, probably the better bet seeing how both your weak groups are geared to move out more easily than to making territory]
))
(;B[ce];W[cd];B[ci])
(;B[df];W[fd];B[ci])
(;B[ci];W[fc])
(;B[fc]C[11k: I might try this, as long as you remain cognizant of the fact that you have 2 weak groups at C14 and C6, and it will most likely lead to a fight for the survival of C14.]
))
(;B[bp]C[This variation serves to make a solid base for your C6 stone while at the same time undermining W's D4 group.]
;W[cq];B[ck])
(;B[ck]C[Some might alternatively try this first.];W[co];B[cf]
)
(;B[cq]C[And the classic corner steal...];W[cp];B[dq];W[eq]
;B[br];W[bp];B[er];W[fr];B[ds]))
