(;FF[4]GM[1]SZ[19]ST[2]CA[UTF-8]AP[SGFC:1.15]

PB[Hastiin]
BR[6k]
PW[crazyd]
WR[5k]
KM[0.5]
DT[2005-02-21]
PC[The Kiseido Go Server (KGS) at http://kgs.kiseido.com/]
RE[B+14.50]
TM[1800]
OT[5x30 byo-yomi]
RU[Japanese]

C[Dear reviewer;  Thanks for taking time to review this game.  I am white, as usual.  This was a calm game - no "oops" or big dead groups.  I didn't feel outplayed, yet it was unusual in that I seemed behind for most of the game.  Pick any aspect you want to comment, as it all needs work.]
;B[pd];W[dp];B[qp];W[dd];B[oq];W[qj];B[qg];W[qm];B[cn];W[dn]
;B[dm];W[co];B[en];W[do];B[fp]LB[fo:A][cm:B]C[In theory this is not joseki, it leaves a weak point at A.

Rigth now, capturing at B seems OK to me.];W[em]TR[en]C[This cut is played to capture the marked stone, if this is not possible, then  might be wrong.]
;B[dl];W[fn];B[eo];W[el];B[dk]
(;W[gn]C[W22:  G4 or F3 better?

I prefer G4, see variations.
In the game black settles big territories too easily];B[ep]
;W[dq];B[hp];W[gl];B[bn];W[bo];B[er];W[eq];B[fq];W[dr];B[cf]
;W[ch];B[di]LB[dh:A]C[A seems better for black, now white can escape too easily, breaking black territory.]
;W[df]LB[dh:A]C[W36:  or C15 or D12?

D12 looks like the only move to me.];B[cg];W[dg]C[D12 still.]
;B[dh]C[Letting C12 stone die like this can't be good.];W[ce]
;B[bh];W[be];B[kp]C[Maybe upper side more important now.];W[nc]
;B[pc];W[kd];B[fc];W[ec];B[fd];W[ic]C[My opening used to be the best part of my game, but lately I seem to give too much solid territory to my opponents.  Is that an accurate assessment here?

Yes, it's what happened in lower and left sides.
The main problem in this game is that you have small, unrelated groups. Even if black failed later to play the more severe moves, the game was better for black or close all the time.]
;B[ee];W[bg]C[Good !];B[fg];W[bf]C[Too early, should not be sente now.]

(;B[ci]C[It's big, but there are more interesting things to do.
See variations.]
(;W[mq]C[Dangerous, I think that before you should have strengthened the center stones attacking black's upper ones.
See variations.];B[kq];W[mo];B[oo];W[lr];B[kr];W[rh]LB[mm:A]
C[One more jump to A would be safer.];B[qh];W[rg];B[rf];W[qi]
;B[qe];W[ro];B[ql]C[Very good.];W[rl];B[pm]C[Black is in control now.]

(;W[qn]C[Not solid enough, see variations.]
(;B[rp]C[Too soft, there are weak stones waiting to be attacked ...]
;W[sp]C[Same ...];B[sq];W[so];B[rr];W[ln]C[So white can play the first in the important area.]
;B[kn];W[nq];B[nr];W[mr];B[or];W[ll];B[km];W[nl];B[om];W[no]
LB[kl:A]C[Misread ? The important point is A.];B[qo];W[rm];B[nn]
;W[lm];B[fk];W[fl];B[gj]
(;W[hk]LB[ik:A][il:B]C[Too slow ? 
Are A or B possible ?];B[ii]
(;W[im]LB[kl:A][jk:B]C[This is begging to be surrounded, I would play A or B]

(;B[kl]LB[jk:A]C[Maybe not severe enough, I prefer A.];W[io]
LB[lc:A][mc:B][oj:C]C[I count that I have caught up some since move 50 and that I am only a few points behind - no komi.  Your assessment?

It's difficult to correctly assess this position: you still have 3 unsettled groups: the center upper one has weak points at A and B, the lower dragon can be cut from the rigth with C and lacks eyes, an the center group still will provide black with sente moves in the center to reinforce the position before deciding to play C, or after looking for a miai move that can threaten both groups.

So much depends on what can black really do in those complicate fights.
If all white groups settle without problems, you seem right.]

(;B[ip]C[Too soft, see variation.];W[jo];B[ko];W[jk];B[lk];W[mk]
;B[lj];W[oj]TR[ii][lj]C[Black profit from the attack is only the 2 marked stones, I think more severe play is possible.]
;B[hm];W[hn];B[il];W[jl];B[jm];W[in];B[jj];W[ik];B[ob];W[nb]
;B[gb];W[hb];B[eb];W[db];B[da];W[ca];B[ea];W[cb];B[ao];W[ap]
;B[an];W[bq];B[jb];W[ga]C[Very good, K18 is a gift.];B[fb];W[id]
;B[he];W[fr];B[gr];W[es];B[na];W[ma];B[oa];W[lb];B[ie];W[ek]
;B[dj];W[kk];B[kj];W[je];B[jf];W[kf]C[At this point I thought I had done well and it was now a close game.  Your thoughts?

Right. Black failed to find the most severe moves in the lower fights and you settled your stones easily playing in the key points.]
;B[kg];W[lf];B[lg];W[fj];B[fi];W[hj];B[hi];W[gk];B[me];W[gi]
;B[gh];W[gs];B[hr];W[jp];B[jq];W[mf]C[Maybe W166 is overplay?

Seems a natural move, I think the mistake comes later.];B[le]
C[This looks like over play, I think that white can capture.
see variation.]
(;W[ke]C[I white can capture, then this is game losing, or at least gives black a good chance.]
;B[mc]
(;W[nd]LB[lc:A]C[Again, W170 a little risky?

Yes,  A is the move to play, then the game is close.

Seems W170 can be labeled the losing move, or at least is the end of all hope.]
;B[mb]C[This cut is enormous.]
(;W[lc];B[md]
(;W[la]C[W174 was my misreading.

Hard to tell which is the lesser evil. See variations.];B[ne]
;W[jg];B[if];W[mg];B[mh];W[nh];B[mi];W[pf];B[qf];W[oe];B[od]
;W[nf];B[oc]
(;W[qk]LB[ph:A]C[I worried about the M2 group getting cut off if W188 was at Q8.

Right, Q8 is not possible.
But maybe A is better, next black move is good.];B[og]C[Good, very annoying move.]
;W[oh];B[pg]
(;W[ng]C[I think white can save the 2 stones, worth 5 points.
With this and komi it would still be a close game.];B[sg];W[ri]
;B[cg];W[pl];B[ol];W[ok];B[ni];W[oi]C[I counted here that B is ahead by about 12 or 13 points, which is what the final score is.  Just a long ko fight after this, my only hope, but nothing happens.  End of crazyd's questions.

Again, rescuing at A is still possible, same variations aply.]
;B[of];W[pn];B[on];W[pp];B[po];W[op];B[pq];W[np];B[lo];W[mn]
;B[nj];W[nk];B[hs];W[mj];B[li];W[nm];B[ed];W[dc];B[hd];W[hc]
;B[fs];W[qq];B[rq];W[gs];B[ld];W[kc];B[fs];W[ef];B[ff];W[gs]
;B[ej];W[ns];B[os];W[ks];B[js];W[eg];B[eh];W[sh];B[sf];W[ah]
;B[ai];W[ag];B[fs];W[qr];B[qs];W[gs];B[ls];W[ms];B[ks];W[gp]
;B[go];W[ho];B[gq];W[fo];B[fs];W[pr];B[ps];W[gs];B[ij];W[gj]
;B[fs];W[bj];B[bi];W[gs];B[aq];W[bp];B[fs];W[cm];B[bm];W[gs]
;B[ph];W[pi];B[fs];W[cl];B[bl];W[gs];B[fa];W[ha];B[fs];W[ck]
;B[bk];W[gs];B[jc];W[jd];B[fs];W[kh];B[lh];W[gs];B[rn];W[sn]
;B[fs];W[er];B[gp];W[gc];B[gd];W[gs];B[sm];W[sl];B[fs];W[cf]
;B[ch];W[gs];B[pk];W[pj];B[fs];W[hh];B[ih];W[gs];B[lp];W[fs]
;B[tt];W[de];B[lq];W[jn];B[mp];W[ir];B[iq];W[tt];B[tt]TW[aa]
[ba][ia][ja][ka][ab][bb][ib][jb][kb][ac][bc][cc][jc][ad][bd]
[cd][ae][af][si][rj][sj][fk][pk][rk][sk][hl][il][ml][ql][fm]
[gm][hm][mm][sm][rn][cp][aq][cq][ar][br][cr][as][bs][cs][ds]
TB[pa][qa][ra][sa][nb][pb][qb][rb][sb][nc][qc][rc][sc][nd][qd]
[rd][sd][fe][ge][oe][pe][re][se][gf][hf][pf][gg][hg][ig][jg]
[fh][hh][jh][kh][ei][ji][ki][aj][bj][cj][ak][ck][al][cl][am]
[cm][hq][qq][ir][jr][pr][qr][sr][is][rs][ss]C[Hastiin [6k?\]: Thank you
crazyd [5k\]: thx])
(;W[of];B[jc];W[ib]
(;B[ja];W[ng];B[jd];W[kc]C[White wins semeai.])
(;B[jd];W[ja]C[White is alive.])))
(;W[pl];B[ol];W[pk];B[nj]))
(;W[ne];B[la];W[pf];B[qf]
(;W[ng];B[kb];W[oh]C[Even this is terrible.])
(;W[ka];B[ma]LB[nf:A][kb:B]C[Black doesn't need  the ko, A and B are miai.]
)))
(;W[la];B[lc]C[This way the 3 upper stones are captured, but the other 3 can be rescued. A desaster anyway.]
)
(;W[md];B[lc];W[kc];B[la];W[kb];B[ld];W[ne];B[ma];W[nf];B[ka]
C[Enough for black to take the lead.]))
(;W[lc];B[nd];W[oc];B[qb];W[od];B[oe];W[mb];B[og]C[It's very close like this.]
))
(;W[ne]
(;B[ke];W[jd];B[nf];W[mg];B[nd];W[oe]
(;B[mc];W[md];B[ld];W[lc];B[md];W[od]C[Too good !])
(;B[md];W[od]C[With only 2 liberties black cannot escape.]))
(;B[nf];W[md]C[Captured !])
(;B[nd];W[md]C[Captured !])))
(;B[ho]
(;W[hn];B[il]C[This keeps white with only one eye.])
(;W[jk];B[kk];W[hn];B[oj]C[White's center is alive, but can the lower stones survive ?]
)))
(;B[jk]))
(;W[kl]LB[jk:A]C[This or A seem better to take the stones out.]
))
(;W[ik];B[hk]
(;W[hl];B[il];W[im];B[jl];W[io];B[ho];W[hn];B[gm];W[ip];B[hq]
C[White dies.])
(;W[il];B[hl];W[im];B[hm];W[in];B[hn];W[jo];B[ko];W[ip];B[hq]
;W[ii];B[nh]C[The sacrifice would rescue the lower stones because of the increase of strength in the center, but no points would appear.]
))
(;W[il];B[hk];W[in];B[jk]C[Looks bad for white.]))
(;B[pl];W[rj];B[ln]C[The 6th group dies, says the proverb.]
))
(;W[rm];B[mm]C[Maybe the lower stones will manage to scape at the sacrifice of the center 5 ?]
))
(;W[gi];B[fh];W[lp]C[Now the center stones won't suffer.
And I prefer this attach here, but can't really proof that it's better.]
;B[lq];W[mq])
(;W[ff]
(;B[gf];W[fh]C[This can also be troublesome for black.])
(;B[ef];W[eg];B[gf];W[fh];B[gg];W[gh]LB[ge:A]C[White is threating to leave black without eyes with A, so black must be careful.]
;B[hd];W[jp]C[This might be possible.]
(;B[jq];W[kq])
(;B[kq];W[ip];B[ir];W[hq];B[hr];W[gq];B[gr];W[gp]))))
(;B[gj]LB[mq:A]C[Attacking the 5 white stones not only protects the 4 black stones at the top, but also against an invasion at A as white will be busy with the center group.]
)
(;B[pl];W[ql];B[pj];W[pi];B[pk];W[qi]C[A bit more strength to the center can help black manouvers against the 5 white stones. And help in keeping all of the lower side.]
))
(;W[gp]
(;B[fo];W[go];B[fm]
(;W[gn]
(;B[fl];W[fq];B[ek];W[ep];B[cf];W[fc]C[This seems better  than the game, white has a very big lower left corner.]
)
(;B[fq]C[Black can fight back with this move.];W[ek];B[ej];W[gl]
;B[fj];W[gm];B[dr];W[cq];B[hr];W[dj]C[This cut is very troublesome for black.]
))
(;W[fq];B[gn];W[ep];B[fn];W[fl];B[gl];W[hn];B[gm];W[ej]C[This would set up a very interesting fight.]
))
(;B[go];W[fo];B[ep];W[fq]C[Black can't try fancy things because of this ladder.]
)))
