(;FF[4]GM[1]SZ[19]ST[2]CA[UTF-8]AP[SGFC:1.15]

PB[zinger]
BR[3k]
PW[kakken]
WR[3k]
KM[6.5]
DT[2005-04-05]
PC[The Kiseido Go Server (KGS) at http://kgs.kiseido.com/]
RE[B+1.50]
TM[900]
RU[Japanese]

C[z -- hello, I'm Bill, "zinger" in the internet Go world and black in this game.  My comments are marked with "z --".

z -- I'm submitting this game for review because it was close and interesting.  Unfortunately, in the end I had to leave before the game was done (darn that real life).  I'm particularly interested in your thoughts about the situation on the right side where each player had a weak group.  I think that such situations are critical in the balance of power.  Of course, any and all comments are welcome, including white's play.

z -- thank you for your time and effort.

d -- Hi, this is Wang Dingwei reviewing. Since you've marked your comments with "z", I'll mark my comments with "d" ;-)

d -- The fuseki ended up even for both. In the midgame b didn't handle w's invasion well, w was ahead a bit, but w's invasion at the bottom side only strengthened b and gave b more points, which made it an even game again.]
;B[qd];W[dp];B[pq];W[dd];B[od]SQ[pn][qn][po][qo]C[z -- a fuskei I use from time to time.  My intent is to provoke a kakari around the marked area, then play a pincer and develop the top right.]
;W[qk]C[z -- but white has his own ideas.];B[qi];W[qn];B[qp]
LB[jc:A]C[z -- during the game I thought this was the only move, but maybe A would have been better.

d -- R4 is a two-purpose move: 1, it gets the corner territory; 2, it makes w's two stones weaker so b can attack later. 

d -- next variation is from O Meien 9p's book "How to Attack Nikkentobi" O Meien often has some cool thoughts to show us.]

(;W[lc];B[fq];W[jp];B[cn];W[dn]
(;B[do]LB[dm:D][co:A][eo:B][cp:C]C[z -- not joseki, but I felt like experimenting.  The ladder from white A - black D favors black, so I figured, why not?  But maybe white could have done better.

d -- There are josekis like this. See in the coming variation.]
;W[eo];B[co];W[ep]
(;B[cp];W[cq];B[bq];W[dr];B[cr];W[dq]C[z -- this result seemed OK ...]

(;B[dl]SQ[ck][dk][cl][dm]C[z -- ... I just had to decide which point to move out on.  Would one of the marked points be better?

d -- See in variation.];W[gp]
(;B[cf]C[d -- Wrong direction. See in variation.];W[fd];B[bd]
;W[cc];B[ci]LB[dh:A]C[z -- perhaps this should have been at A, but I thought that would invite white to invade on the star point eventually.

d -- If b goes A, w can invade at D10, so c11 is the only choice for b.]
;W[id]C[d -- W has controlled the 4th line of the top side. It's bigger than b's left side. Also, because w gets thicker , w can invade in the right side easily.]
;B[lq];W[no];B[mp]C[z -- white's last move struck me as odd.  I thought that this response secured territory and kept access to the center.  Was there a better move?

d -- N4 is ok. Otherwise w will invade at o3 and isolate b m3. The exchange eliminates w's invasion at o3, good for b.]
;W[pc]
(;B[oc]C[d -- This move makes the game much more complicated....]
;W[qg];B[ph];W[pf]C[z -- white's last three moves seemed like a nice combination.  Was there a better response?]
;B[pd];W[nf];B[og];W[of];B[md]C[z -- maybe I should move out with the weak group instead, but in the game I thought that letting white connect to the top would be too easy on him.]
;W[mh];B[ni];W[nk]LB[mi:A]C[z -- I was more worried about white A.  But then white's lower group might become weak, so maybe it would be OK.]
;B[mi];W[lh];B[mk];W[ml];B[lk];W[li];B[nj];W[ok];B[ll];W[mm]
;B[ke]C[z -- still trying to split white.];W[lf];B[jc]C[z -- this just didn't work.]
;W[jd]LB[kc:A][kd:B][ld:C][le:D]C[z -- I had expected A-B-C-D next, and thought I would have enough profit to win.  But now I realized that instead, A-C-B-D would happen, which would be terrible.  So ...

d -- This is interesting, see in variation.]
(;B[le]TR[jc][jd]C[z -- ... I went back to do this.  The marked enchange looks bad now.]
;W[kd];B[ng];W[mg];B[me];W[mf];B[il];W[nr]C[z -- not sure what white was up to down here.

d -- strange, and doesn't work.];B[np];W[qc];B[rd];W[nb]C[z -- this was annoying to me.]
;B[ob];W[nc];B[nd];W[oo];B[jr];W[pr];B[qr];W[lr];B[kq];W[kr]
;B[jq];W[op];B[oq];W[nq];B[or];W[dj];B[cj];W[dk];B[ck];W[el]

(;B[eh]C[d -- Wrong. See in variation.];W[dm];B[cl];W[jj]C[z -- surely, I thought, after this there must be a way for black to connect to the bottom.  But I didn't find it.]
;B[kn];W[lo]LB[lp:A]C[z -- after this, A is sente for white any time, which made it hard for me to do much.]
;B[ip];W[jo];B[jk];W[ij];B[io];W[jn];B[jm];W[in];B[ln];W[mo]
;B[kj];W[ki];B[lj];W[lp];B[mq];W[pj]
(;B[kl]LB[nh:A][pi:B]C[z -- in the game I wasn't sure if I had time to protect the connection on the right.  But now it looks like A or B would connect and maintain a half-eye there.

d -- B is right. See in variation.];W[dg];B[cg];W[pi]C[z -- this was huge !]
;B[nh];W[qh];B[ro]C[z -- groups are all settled, so it's endgame now.  I'm working on this phase, so comments would be good throughout, even though this one got cut short.]
;W[rn];B[sn];W[bc];B[sl];W[rj];B[br];W[hq];B[iq];W[hr];B[rm]
;W[qm];B[ds];W[es];B[cs];W[go]C[d -- this move worths 0 point....]
;B[gl]LB[ce:A][er:B]C[d -- Too small. A and B are much bigger.]
;W[hm];B[hl];W[be];B[ce];W[cd];B[bf];W[ad];B[er];W[fr];B[fs]
;W[fm];B[ek];W[ej];B[fk];W[fi];B[ei];W[fj];B[gj];W[fl];B[gk]
;W[fh];B[hh];W[eg];B[jh];W[ji];B[di];W[ff];B[gg];W[fg];B[rf]
;W[ig];B[hi];W[rl];B[sm];W[sk];B[so];W[qo];B[rp];W[rg];B[gm]
;W[gn];B[mn];W[nn];B[he];W[hd];B[jg];W[if];B[gf];W[jf];B[ih]
;W[gr];B[eq];W[ge];B[mb];W[mc];B[na];W[lb];B[ma];W[la];B[oa]
;W[lm];B[km];W[im];B[ik];W[hj];B[gi];W[gs];B[es];W[qf];B[sf]
;W[af]C[z -- at this point, I had to quit the game to attend to another commitment.  I expect my opponent was surprised at my sudden resignation.  Disappointing, since it seems so close, and more so since a win might well have pushed me up to 2k.  But no matter: ranks will come eventually, if I deserve them.

z -- thanks again for the help !])
(;B[pi];W[nh];B[oj];W[oh];B[oi]
(;W[qj];B[kl])
(;W[kl];B[rh];W[rg];B[sg];W[sf];B[sh];W[re];B[rj]C[d -- Two eyes already.]
)))
(;B[dm];W[em];B[en];W[fn];B[lm];W[ln];B[kn];W[lo];B[in]C[d -- Easily shaped up.]
;W[ip];B[ii]C[d -- B can even fight back, or just play tengen to secure yourself.]
))
(;B[kc]
(;W[ld];B[kd];W[le];B[hc]LB[lb:A]C[d -- I don't think w can kill b.... A is sente, and w's two stones are short of liberties.]
)
(;W[kd]
(;B[ld];W[lb]TR[jc][kc]C[d -- The two stones are dead. You can calculate it yourself.]
)
(;B[lb];W[ld];B[mc];W[lj];B[mj];W[ij]C[d -- Still good for w.]
))))
(;B[pd]N[take it easy];W[oc];B[qc];W[nd];B[md];W[mc];B[ne];W[nc]
;B[oi]C[d -- W didn't get much territory. B still has most of the corner, good for b.]
))
(;B[jc]C[d -- ...or just invade directly.]N[Attacking is good]
;W[le];B[je];W[lg];B[fc];W[cf];B[oi]))
(;B[dm];W[en];B[br]C[d -- I would choose this one, but not sure if it's better.

d -- if w still going to play at around g4....];W[gp];B[jc]
C[d -- I'll try attack w m17.]))
(;B[dm]C[d -- begins the joseki.]N[Joseki];W[en];B[cp];W[cq]
;B[bq];W[br];B[cr];W[dq];B[bp];W[dr];B[cj]C[d -- ends the joseki.]
))
(;B[dm]C[d -- the normal joseki.]N[Normal Joseki];W[en];B[cp]
;W[co];B[bo];W[do];B[bm];W[cq];B[bp];W[em];B[dl]LB[dq:A][dr:B]
C[d -- Note: comparing to the one you've played, w has flaws at around A and B, so I guess this will be better.]
))
(;AB[fq][jp]AW[cn][lc][fd]N[Attack Nikkentobi];B[on];W[ok];B[oi]
;W[mk];B[kk]))
