(;FF[4]GM[1]SZ[19]ST[2]CA[UTF-8]AP[SGFC:1.15]

PB[ima]
BR[19k]
PW[meditation]
WR[3k]
KM[0.5]
DT[2005-04-05]
PC[The Kiseido Go Server (KGS) at http://kgs.kiseido.com/]
RE[W+Resign]
TM[1200]
OT[5x30 byo-yomi]
RU[Japanese]

C[Hi, I m sylvain (sylvainc on kgs) around 6k. I will precede all my comments by '$'.

$ I was about not to comment this game. U should play against player near ur rank, and as u already have your 3k opponent comments, and didn't ask any question it is not a easy game to comment. I will try my best, 

but it is not possible to estimate ur rank with a game against a much stronger player. The best way to estimate ur rank is kgs ranking after a few games with opponents around ur rank. ur graph on KGS makes u around 16 k.

I will comment only black side, but as I m 6k, comment a 3k side against 16 k is nonsense.]
;B[pc];W[qp];B[cq];W[cd]
(;B[jj]C[$ this is not a mistake, but an uncommon play. General rule is corner, then enclosure, then extensions to border.]
;W[ec]
(;B[pj];W[md]
(;B[jd]LB[pe:A][qe:B]SQ[md]C[$ This doesn t make a severe pincer on White stone (square)  which is on 4th line but it  isolate your triangle stone. So it is better to play A or B first.

This move would be a good one with a black upper left corner instead of white one.]
;W[pe];B[qe];W[qf];B[qd];W[pg]
(;B[nc]TR[jd]C[$ here, after this joseki, White is not in a real danger , and White N17 will isolate your triangle stone]
;W[mc]
(;B[gc];W[nd];B[nb];W[mg]C[ima [19k\]: ok]
(;B[qn];W[op];B[fp];W[dn]C[meditation [3k\]: what instead?
ima [19k\]: c5?
xiaowan [12k?\]: so how to respond?
ima [19k\]: or pincer
xiaowan [12k?\]: d4
xiaowan [12k?\]: ?
meditation [3k\]: d4 too slow
meditation [3k\]: pincer is correct]
(;B[do]SQ[dn]C[$ square stone is isolate. Never tsuke on such a stone, it will reinforce it . Pincer is the right solution


meditation [3k\]: this D5 is wrong
ima [19k\]: yeah
ima [19k\]: never approach a weak stone
meditation [3k\]: the d6 stone is weak compared to the corner ... yeah
meditation [3k\]: never hit a weak stone];W[co];B[dp];W[cm]

(;B[ci]C[$ this will create a weak group with white playing C13. Better extend on botom side.]
;W[cg];B[dk];W[fn]TR[ci][dk]SQ[dp][fp][cq]C[$ Now u create a weak group (triangle) white can make this move which trheaten both the triangle black groups, and botom side]
;B[hp];W[fl];B[em];W[en];B[el];W[hn];B[fm];W[gm];B[fk];W[gl]
;B[gk];W[hk];B[eh];W[hi];B[ij];W[hj];B[il];W[hl];B[kl]C[$ this secquence is ok to make Black stable, but there is no point in center. So u could play botom border instead of  J10 because u lost sente]
;W[jq];B[lp];W[jo];B[nq];W[oq]
(;B[kp]C[$ the peep helps white to connect];W[jp];B[ln];W[hr]
;B[iq]C[$ this move is no use except to help white playing J2. It is called a thank-you move.]
;W[ir];B[kr];W[jr];B[gq];W[bp]SQ[jn]C[$ White shoule connect]
;B[in]C[$ :-))];W[io];B[ho];W[kn]
(;B[jn];W[km]
(;B[im];W[ko];B[lm];W[lo];B[mo];W[mn]
(;B[mm];W[jl];B[jk];W[ik];B[jm];W[mp];B[no];W[np]C[ima [19k\]: your stones have much more liberty than mine
meditation [3k\]: yes];B[on];W[br];B[cr];W[bq]
(;B[cp]C[$ see variation];W[bn]
(;B[bl];W[fr]C[$ remember move 93 ... 



ima [19k\]: ah..];B[gr]C[meditation [3k\]: undo?
ima [19k\]: er,
ima [19k\]: no];W[gs]
(;B[go];W[fo];B[er];W[es];B[ds];W[fs];B[fq];W[hs]C[ima [19k\]: yeah]

(;B[lr]C[$ Bambou is a good shape but it s default is it has not much liberties.




meditation [3k\]: M2 is greedy]
(;W[eq];B[dr];W[hq];B[ep]C[ima [19k\]: ah..
ima [19k\]: i'm too greddy
ima [19k\]: *greedy
meditation [3k\]: see m2 is greedy
meditation [3k\]: yeah];W[ip];B[js];W[gn]C[ima [19k\]: ahh..
ima [19k\]: you have a liberty more than mine rite?
meditation [3k\]: i'm not sure
meditation [3k\]: let's play it out];B[gp]C[ima [19k\]: sure]
;W[mr];B[kq];W[ks];B[ls];W[ms]C[ima [19k\]: Ko fight?
meditation [3k\]: no];B[ks];W[mq]C[meditation [3k\]: b cannot push
ima [19k\]: yeah
ima [19k\]: haha
meditation [3k\]: :)
ima [19k\]: well..];B[df]C[meditation [3k\]: n2 was my backup :)]
;W[cf];B[de];W[ce]C[ima [19k\]: ic];B[fe];W[ic]
(;B[id];W[jc];B[kc];W[kb];B[lc];W[lb]
(;B[kd]C[meditation [3k\]: the best shape here is m15
ima [19k\]: ok
meditation [3k\]: oh wait
meditation [3k\]: nevermind
meditation [3k\]: ladder no good
ima [19k\]: k];W[mb]
(;B[oe]C[$ hopeless. u will loose your P15 stone and help white to build around]
;W[od];B[pd];W[pf];B[nf];W[ng];B[mf];W[lf];B[lg];W[le];B[kg]
;W[rf];B[re];W[nj]C[ima [19k\]: i better resign here
meditation [3k\]: ok
meditation [3k\]: :)
ima [19k\]: hehe
meditation [3k\]: heh good game
ima [19k\]: yeah
ima [19k\]: good game
ima [19k\]: thnx too])
(;B[ro]C[$ take sente]))
(;B[le]C[$ yes better shape];W[kd];B[ld];W[ke];B[kf];W[je];B[ie]
;W[jf];B[jg];W[if];B[hf];W[ig];B[ih];W[hg];B[gg];W[hh]))
(;B[jc]C[$ I think Black can fight this. Much more points for Black than real game]
))
(;W[kq];B[lq]LB[mq:1][mr:2][ks:4][ls:3]C[$ White to play, 4 lib to Black]
))
(;B[dq]C[meditation [3k\]: d3 lives])
(;B[hq]C[ima [19k\]: i though i can kill it
meditation [3k\]: or h3
meditation [3k\]: better]))
(;B[er]))
(;B[gr]C[meditation [3k\]: go here and defend!
meditation [3k\]: urgent
ima [19k\]: i din't see that .. lol ^^]))
(;B[gr]C[$ Much more efficient to be alive !]))
(;B[no];W[ll];B[mm];W[ml];B[nm];W[jl];B[kk];W[ik]C[$ doesn t work either]
))
(;B[jl]
(;W[lm];B[ko];W[mn];B[np];W[no];B[gr])
(;W[ko];B[lm];W[lo];B[mo]C[$ better];W[mn];B[no])))
(;B[im]C[$ more simple and white L7 will be no more dangerous to J6 stone]
))
(;B[ln]))
(;B[mq]TR[jq][pq]C[$ here ofr example with two follow up moves]
))
(;B[dk]TR[dn]C[xiaowan [12k?\]: pince because there is a stone in k10, right?
meditation [3k\]: w stone has a hard time now
meditation [3k\]: K10 stone helps
meditation [3k\]: but not only reason
meditation [3k\]: b wants left side AND bottom
rhubarb [7k\]: possible ladder breraker for w attach d3 example
meditation [3k\]: d3?
rhubarb [7k\]: mybe not
meditation [3k\]: no problem
meditation [3k\]: just pincer
meditation [3k\]: :)
ima [19k\]: ^^
ima [19k\]: ic]
(;W[fn]
(;B[fk]C[ima [19k\]: ic.];W[ho]
(;B[dg])
(;B[hq]))
(;B[hp];W[di];B[fk]))
(;W[dq]C[ima [19k\]: how to get both left and bottom?])
(;W[di];B[fk]))
(;B[dl]
(;W[fn]C[meditation [3k\]: seems like only good move is to jump out
meditation [3k\]: so this pincer seems good
ima [19k\]: ic
meditation [3k\]: ok everyone thanks for watching ... i am playing a lot of teaching games lately ... look for me on kgs
meditation [3k\]: good night!
rhubarb [7k\]: night
ima [19k\]: night
ima [19k\]: thnx
Nikos [18k\]: morning
meditation [3k\]: yeah morning here too :)
meditation [3k\]: bye
ima [19k\]: byez];B[fl]
(;W[ho];B[hq])
(;W[ep];B[eq]
(;W[fq];B[dp];W[eo];B[gq];W[fr];B[hp])
(;W[dp];B[dq];W[gp];B[gq];W[fo];B[fq];W[hp])))
(;W[dp];B[dq];W[ep];B[eq];W[fo]
(;B[gp])
(;B[go];W[gp];B[fq]))))
(;B[op]TR[qp]C[$ this is a more natural place to approch the triangle stone]
;W[oq];B[nq];W[pq];B[mp];W[qn];B[iq]C[$ for example a good following for Black here]
))
(;B[nd];W[ne];B[me]C[meditation [3k\]: this would start a lively fight
meditation [3k\]: good fight for b

$ this is a very figthy way and against a much stronger player u will surely loose the fight.]
))
(;B[oe]TR[md]C[$ This is a better way than joseki here because it isolate white stone (triangle). If white push on Q16, Black P16 is sente and let Black connect on O17.]
;W[of];B[ne]))
(;B[pe];W[jd]C[meditation [3k\]: this is another way
meditation [3k\]: b gets good territory here
meditation [3k\]: you may like this
ima [19k\]: white also
ima [19k\]: gets good territory
meditation [3k\]: w is undercut on the top
meditation [3k\]: not as good T as b
ima [19k\]: undercut?
meditation [3k\]: "open skirt"];B[mb]C[meditation [3k\]: like this
meditation [3k\]: under
ima [19k\]: ic]))
(;B[op]C[$ this I prefer];W[oq];B[nq];W[pq];B[mp];W[qn];B[ip]
))
(;B[qe]C[$ this is more common]))
