(;FF[4]GM[1]SZ[19]ST[1]CA[UTF-8]AP[SGFC:1.15]

GN[karlhuang vs LULULANMAN]
PB[LULULANMAN]
BR[7k]
PW[karlhuang]
WR[7k]
KM[6.5]
DT[2005-04-05]
RE[W+0.5]

C[I play the white in this game.];B[dd];W[pd];B[dp];W[pq];B[qo]
;W[qm];B[qn];W[pm];B[qq];W[pp];B[qp];W[po];B[pr];W[or];B[ps]
;W[os];B[rr];W[nq];B[pn];W[on];B[om];W[nn];B[ol];W[qk];B[qj]
;W[pk];B[pj];W[ok];B[oj];W[nl];B[rk];W[qg]SQ[qf]C[R14 is probably better distance from black's wall, particularly because black can connect underneath anytime.]
;B[qh];W[pg];B[rm];W[hq]SQ[gq]C[Given the size of your wall, you could consider G3, or F3 or F4.]
;B[ql];W[nm];B[pl];W[nk];B[kq]C[How do I use the lower right influence to attack black and gain profit?]
;W[kp]SQ[jp]C[The right way to use your influence is to use it to push black against it. Attaching like you do here is not good: this way you give him an opportunity to make shape by attacking your stone, or to run alng the second line, like he did. Always keep some distance when attacking. K4 would have been better.]
;B[jq];W[jp];B[iq];W[ip];B[hr];W[gr];B[gq];W[hp];B[fr];W[gp]
;B[fq];W[fp];B[lq];W[lp];B[mq];W[mp];B[ep];W[cj]SQ[dj]C[Since your strategy is based on influnce, fourth line is better.]
;B[ci];W[dj];B[di];W[ei];B[kk];W[nj]C[Is W O16 correct move?

Absolutely: isolate him.];B[km];W[jl];B[kl];W[jm];B[bj];W[dk]
C[That's a strange move: what is it for? And it makes bad shape (an empty triangle).]
;B[jk];W[ji];B[ki];W[kh]SQ[ik]C[J9 looks better: now you force black towards your weak four stones on the left. Push them towards your wall.]
;B[ii];W[ih];B[jj];W[jh];B[hi];W[hk];B[ik];W[hh];B[gi];W[gh]
;B[fi];W[fh];B[ej];W[eh];B[ek]C[Now D9 is a problem, and you have to let black run.]
;W[dl];B[el];W[dm];B[em];W[dn];B[en];W[eo];B[fo];W[do];B[gn]
;W[go];B[fn];W[bk];B[bi];W[cp];B[cq];W[dq];B[eq];W[bq];B[cr]
;W[bo];B[jn];W[kn];B[in];W[fc]C[That's an excellent move.];B[gc]
;W[hc];B[gb];W[hb];B[fb];W[gd];B[ec];W[nc];B[kc];W[kd]C[W how to capture B L17 ?

Again: don't attach. Your strength is the wall in the middle and the formation in the upper right. K16 or J16 seem better.]
;B[lc];W[ld];B[mc];W[md];B[nb];W[oc];B[ob];W[pb];B[jc];W[jd]
;B[ic];W[id];B[ib];W[ia];B[ja];W[ha];B[ga];W[hd];B[kb];W[cf]
;B[df];W[ce];B[de];W[cd];B[dh];W[cb];B[cc];W[bc];B[dc];W[ba]
;B[cg];W[fd];B[bf];W[be]C[E18 is bigger.];B[db];W[bg];B[ni]
;W[li];B[kj];W[oi];B[oh];W[nh];B[mi];W[mh];B[pi];W[og];B[mj]
;W[lj];B[mk];W[lk];B[ml];W[mm];B[ll];W[lh];B[ln];W[ko];B[lm]
;W[mo];B[mn];W[op];B[rg];W[rf];B[sg];W[ph];B[ri];W[sf];B[mr]
;W[nr];B[ms];W[ff];B[bh];W[af];B[da];W[ca];B[br];W[ar];B[as]
;W[bs];B[cs];W[dr];B[as];W[eg];B[dg];W[bs];B[no];W[oo];B[as]
;W[ir];B[gs];W[bs];B[aa];W[ab];B[as];W[eb];B[ea];W[bs];B[qc]
;W[pc];B[as];W[hs];B[is];W[bs];B[qf];W[qe];B[as];W[hl];B[aq]
;W[il];B[oi];W[hn];B[hm];W[ho];B[im];W[gm];B[gl];W[gk];B[fm]
;W[jo];B[fk];W[io];B[gm];W[gj];B[fj];W[bp];B[er];W[ap];B[ar]
;W[aj];B[ai];W[ak];B[pa];W[qa];B[na];W[qb];B[ag];W[bf];B[bn]
;W[bm];B[cn];W[cm];B[am];W[co];B[pf];W[of];B[ef];W[ee];B[ed]
;W[fe];B[ah];W[oa];B[lo];W[np];B[pa];W[mb];B[ma];W[oa];B[lb]
;W[pa];B[tt]C[In the end I guess you lost it because of the ko fight in the lower left corner. That was a risky ko to take on, and probably not necessary. But as you already thought, the root cause was the fact that you didn't manage to make good use of your wall on the right in the early middle game. So: do not attach when attacking, and push your opponent towards your wall. Also: you don't have to kill, and often you won't. Just make sure you make territory out of the attack, or at least leave your opponent with a weak group.]
)
