(;FF[4]GM[1]SZ[19]AP[SGFC:1.15]

PB[drsb]
BR[17k]
HA[2]
PW[isoparm]
WR[14k]
KM[0.5]
DT[2005-03-25]
PC[The Kiseido Go Server (KGS) at http://kgs.kiseido.com/]
RE[W+Time]
TM[1800]

AB[pd][dp]C[Hello! I have gone through the game and made some annotations/ questions of my own...
Unfortunately I lost the game because of time-out during the endgame, but I would have lost anyway, if GnuGo´s estimate is only roughly  correct.
Thank you in advance for your comments!];W[pp]C[isoparm [14k\]: Hi.
drsb [17k\]: Hello!];B[dc];W[de];B[fd]LB[gd:A]C[Better the ogeima here?
perfectly ok];W[dh];B[ck]
(;W[ci]C[very submissive from white];B[cd]C[good, takes corner]
;W[dr]C[white is asking for trouble]
(;B[cq];W[cm]C[white asking for more trouble]
(;B[ek]C[difficult to say if it is bad, seems natural, but i have a feeling that white goes away from trouble too easily]
;W[em]
(;B[fo]LB[fp:A][gq:B]TR[cm][em]C[This one was meant to exert pressure on the marked white group and at the same time aim at the bottom...

Better more peacefully at A or B?

yes i think A or even white's next move point would be better
the present move is not really exerting pressure];W[fq]C[white's move was good and it is him that is "exerting pressure"]
;B[gl];W[gm];B[fm]C[usually is bad];W[fn];B[fl]
(;W[eo]C[white is helping black];B[ep];W[fp];B[go];W[gn];B[ho]
;W[hq];B[dn];W[en];B[dm]
(;W[dl];B[do];W[dk];B[el]C[good];W[hm]C[var3]
(;B[ik]C[not right point];W[in]
(;B[fi]C[Here I did not want to endanger my black center group.

see var
you missed capturing the side]
(;W[cj]C[white misses it too!!];B[cl];W[dj];B[bm];W[fg]
(;B[jc]LB[qj:A]C[I was not sure wether to secur the top here or to go to the right at A (the latter probably :-) )

yes];W[qf]C[ok]
(;B[nd]C[ok];W[ld]
(;B[je]C[i prefer your var];W[rd];B[qc];W[lf]
(;B[kg]C[not getting anything here];W[io]C[hum...
i do not know if it is very bad or brilliant?];B[qi]C[this is good
therefore the previous move was not so good]
(;W[ph]C[bad];B[ql]C[ok];W[qn]C[ok];B[pn]C[hum??];W[qm];B[pl]

(;W[pi]C[no];B[qh];W[pg]C[see var 3]
(;B[on]C[is helping white]
(;W[mp]
(;B[nf]C[see var before]
(;W[oe]C[white is asking for trouble]
(;B[pf]C[black helps];W[pe];B[of];W[qg]C[nothing is very good now
but var 3 better]
(;B[od];W[ne];B[me];W[qe];B[mg]C[hum big mistake];W[mf];B[ng]
;W[md];B[mc];W[ob]C[hum????];B[lc];W[qj]
(;B[oj]C[do not see why?

the end game is filled with mistakes]
(;W[lg]
(;B[lh];W[mh];B[kf];W[le];B[nh];W[mi];B[ni];W[mj];B[pj];W[ri]

(;B[ml];W[kk];B[ki];W[po];B[rc]C[ok];W[km];B[kl]C[to be avoided except in particur situations]
;W[ll];B[jl];W[lm];B[mk]
(;W[lj]C[no];B[ce]C[you  have a strong attack going, so it is a good move]

(;W[fh]C[white has better answer, but...];B[lk]C[white should not answer this one but try to live 
therefore black should have kept the attack going]
(;W[kj]C[bad for white to answer]
(;B[jj]
(;W[fj]
(;B[ei]C[strange];W[ej];B[gj];W[hl];B[gk];W[gi];B[ij];W[il]

(;B[jk];W[hi];B[ii];W[hg];B[df];W[cg];B[ef];W[bf];B[cf]C[Don´t know why I played here...
you are right];W[mn];B[he];W[cr]
(;B[bq];W[kd];B[kc];W[jd];B[id];W[jh];B[kh];W[ih];B[bh]C[this one should destroy future eyes - if i have a look at it now, i think this was veeeerrry silly....

yes];W[bg];B[eg];W[eh];B[be];W[bk];B[bl];W[aj];B[qq]C[one attempt to reduce White´s gigantic territory on the lower side]
;W[pq]C[try var 4]
(;B[ro];W[qo];B[rn];W[rm];B[qp];W[rr];B[qr];W[rq]
(;B[pr]C[no];W[rp];B[oq];W[nq];B[op];W[oo]C[no use];B[nr];W[np]
;B[rl];W[sn];B[mr];W[or];B[if];W[hj];B[hk];W[jm];B[nj];W[rk]
;B[qk];W[rj];B[br];W[bs];B[er];W[eq];B[dq];W[fr];B[qd];W[re]
;B[ar];W[es];B[os];W[lr];B[ff];W[gf]C[isoparm [14k\]: Thanks for the game.
drsb [17k\]: thank you
isoparm [14k\]: Bye. Nice game.
drsb [17k\]: yes])
(;B[rp]
(;W[pr];B[rs];W[sq];B[sp];W[sn];B[sr]C[lives])
(;W[sr];B[pr];W[or];B[rs];W[ps];B[sp];W[sn];B[sq];W[os];B[ss]
;W[rr])))
(;B[qo];W[qp];B[ro];W[rp];B[rn];W[rm])
(;B[qr];W[pr])
(;B[pr];W[or];B[rr];W[ps]
(;B[qs]C[you can always try ths one])
(;B[rp];W[qr];B[qo];W[qp];B[ro];W[rq];B[sq];W[rs];B[rm])))
(;B[br]))
(;B[jm];W[jn];B[jk]))
(;B[ej];W[ei];B[gi];W[hl]
(;B[gj];W[gk];B[fk];W[fj])
(;B[gk];W[gj];B[hj])))
(;W[cf]))
(;B[cg]C[white should die];W[hh];B[ii];W[hi];B[hk]C[difficult fight]
))
(;W[ei];B[cg];W[fj];B[gi];W[hl];B[gk];W[gj];B[hk];W[hi];B[gh]
;W[ch];B[ej];W[dg]))
(;W[lk]C[not good];B[cg])
(;W[cf]C[only hope for white];B[bf];W[cg];B[bg];W[bh];B[bj]
;W[bi]
(;B[ei]
(;W[di];B[ef];W[df];B[eg];W[eh];B[fh];W[ee];B[ff]C[seems good for black]
)
(;W[bk];B[bl];W[aj];B[di];W[ah]C[white lives]))
(;B[bk];W[ei]C[lives])))
(;W[lk];B[lj];W[kj];B[li];W[ji];B[kh];W[ij]C[what do you think?]
;B[gh]))
(;B[nl]C[maybe better but not sure]))
(;B[ni]C[better]))
(;W[qo]))
(;B[pj];W[rj];B[rl];W[qo];B[lg]))
(;B[qe];W[qd];B[ne];W[re]
(;B[mh])
(;B[pb]))
(;B[ne]C[better];W[od];B[oc];W[qe];B[lg];W[qo];B[op];W[oq];B[np]
;W[nq];B[pj];W[rc];B[rb];W[qd];B[pc];W[oj]))
(;B[ne]C[seems better];W[od];B[oc];W[mg];B[ng];W[mi];B[nh]C[i prefer your var 2]

(;W[ni];B[mh];W[lh];B[lg])
(;W[mh];B[ni])))
(;W[mg]C[should escape];B[ng];W[mh];B[nh];W[ni];B[mi];W[lh]
;B[oi];W[nj];B[oj];W[pj];B[qj];W[ok];B[oh];W[pk];B[nk];W[qk]
;B[rk]))
(;B[qo]))
(;W[np];B[qo];W[po];B[ro])
(;W[qo];B[op];W[oq];B[np]))
(;B[nn]C[Better? Any other suggestions?])
(;B[pm];W[qo];B[op];W[oo];B[po];W[np];B[qp];W[pq];B[qq];W[pr]
;B[ro]))
(;W[po];B[qh];W[pg]))
(;W[rc];B[rb];W[qd];B[pc];W[pe];B[oe];W[of];B[nf];W[og];B[ng]
;W[oh]))
(;B[lc]C[better];W[mc];B[md];W[kc];B[lb];W[kd];B[kb];W[jd];B[id]
;W[ic];B[jb];W[ie];B[hd]))
(;B[lc];W[mc];B[md];W[kc];B[lb];W[kd];B[kb]C[sounds ok to me]
;W[jd];B[ic]))
(;B[qj]C[Better here?

not particularly]
(;W[qm]C[see var]
(;B[qh]C[would be bad for black];W[qc];B[pc];W[qd];B[pe];W[pf]

(;B[qb]C[no!!!])
(;B[qe]C[joseki];W[re];B[rd];W[rc];B[rf];W[sd];B[rg]))
(;B[qe];W[pf];B[nd]))
(;W[qc];B[qd];W[pc];B[od];W[rd];B[re];W[rc];B[qe];W[nc];B[pf]
;W[qm])))
(;B[qn];W[np];B[rp];W[qq];B[qk]C[is even better for centre group]
))
(;W[cl];B[dj];W[cj];B[bk];W[ej]))
(;B[dj];W[cl];B[cj]C[better]))
(;B[hl]C[i would do this];W[im];B[jo];W[cl]C[hum....])
(;B[dj];W[cl];B[cj];W[ej]
(;B[di];W[ei];B[ch];W[bi];B[eh];W[dg];B[fi];W[fj];B[gj];W[in]
)
(;B[cn];W[hl];B[gk];W[jo])))
(;W[do]C[more difficult to manage];B[co];W[dl];B[cn];W[el];B[cl]
;W[dk];B[dj];W[ej];B[hm];W[fk];B[hn];W[ek];B[cj];W[ei]))
(;W[en];B[gn];W[go];B[hm];W[eo];B[fp];W[ep];B[gp];W[gq];B[hp]
;W[dq]))
(;B[fq];W[cr];B[br];W[fr];B[gq];W[gr];B[hq]C[and then black can attack from the top]
;W[hr];B[fl];W[fm];B[gm];W[gn]
(;B[hn];W[hm];B[gl];W[ho];B[fn];W[in];B[fo];W[bk];B[bj];W[cj]
;B[bl];W[dk];B[cl];W[dl])
(;B[hm];W[hn];B[bl];W[bm];B[in];W[io];B[ho];W[im];B[jn];W[il]
;B[gk])))
(;B[dm];W[dl];B[cl];W[dn];B[em];W[en];B[cn];W[co];B[bm];W[bn]
;B[cm];W[do];B[bo];W[bp];B[an];W[cp];B[dq]C[difficult situation but black is not worse than white]
)
(;B[cl];W[dm];B[ek];W[fm];B[fq]C[maybe something like that]
))
(;B[eq]C[what about this?];W[cq];B[cp];W[bp];B[bo];W[br];B[ap]
;W[bq];B[er]))
(;W[cc];B[cd];W[dd];B[bc];W[ec];B[cb];W[db];B[cc];W[fc];B[ed]
C[would not be good];W[gd];B[fe];W[ge];B[ff];W[df]))
