(;FF[4]GM[1]SZ[19]ST[2]CA[UTF-8]AP[SGFC:1.15]

PB[Frutis]
BR[20k]
PW[tolede]
WR[19k]
KM[0.5]
DT[2005-04-18]
PC[The Kiseido Go Server (KGS) at http://kgs.kiseido.com/]
RE[B+Resign]
TM[1650]
OT[5x30 byo-yomi]
RU[Japanese]

C[Hello , my name is Martin , I play black in this game.];B[pd]
C[tolede [19k\]: hi
tolede [19k\]: gg
Frutis [20k\]: gg];W[qp];B[dp];W[cd];B[op]C[I almost always attack like this when opponents play 3-4 in the corner. Is that a correct strategy ?


paul:  There's nothing wrong with this move at all.  Your opponent has a huge array of choices (in terms of joseki), but it generally works well with your d4 stone -- in my opinion, but I'm hardly a fuseki expert.  The thing to realize here though is that starting with this diagonal setup means you're in for a heavy fighting game.  Some players desire this.  

I have thrown in a few typical joseki choices.  In all of them, white touches black at p3.  White is under no obligation to do this however.]

(;W[oq];B[nq];W[pq];B[nr]C[Note that this isn't really one of the joseki choices I threw in. :)]
;W[qm];B[qj]TR[nr][nq][op]LB[jq:A][jp:B][np:C]SQ[qg]C[This move isn't helping as much as it could either.  It doesn't build very much because white can attack both sides at the same time by playing r13 (or something similar).  Also, your marked stones are pretending to be a wall, but they don't face anything very effectively.  It's almost required to point your influence at something here (in my opinoin anyway).  Choose A or B to get your thickness pointed at something.

However, the real problem with this formation so far is the cutting point at C.  White should have cut there right away.]
;W[ec];B[ic];W[cj];B[cl];W[fq];B[hq];W[dq];B[cq];W[ep];B[do]
;W[hr];B[ir];W[gr];B[hp]C[So far I'm satisfied with this position

Paul: Yeah, it didn't turn out too badly.  The pincer was a smart choice there.]
;W[cg];B[dr]C[Isn't it to small ?. My idea was to chase white group so i decided to reduce his space for eyes

paul: no, it isn't too small... it's a fine strategy.  However, make sure you get something out of the chase!  Also, make sure the attacks actually work so you can leave the chase with sente.]
;W[eq];B[er];W[fo];B[fl];W[ho];B[io];W[hn];B[in];W[hl];B[jj]
C[paul: This move doesn't seem to attack the poor group very strongly.  Make sure they have to answer.]
;W[im];B[he];W[gc];B[ib]LB[fe:A]TR[nc][md][qe][pg][oj]C[Should I play A instead ?, or maybe somewhere else ?

paul: j18 doesn't seem to do much.  Especially because white can easilly play behind your iron pillar.  I think A does almost nothing.  The white stones are strong.  Grab territory instead.  I marked some territory grabbing moves.  There are plenty of other choices too.]
;W[ge];B[hf];W[gf];B[fj];W[ej];B[ek];W[dk];B[dl];W[fi];B[gj]
;W[gi];B[hi];W[em];B[el];W[fm];B[gl];W[gm];B[qc]C[I have decieded to defend my moyo

paul: Not a bad plan at all. White should have tried that a while ago.  I'm not entirely sure, but I don't think that white group in the lower left has any eyes.  You can probably pick on it for a while (in sente) yet before you need to do something defensive.  However, that moyo looks pretty juicy.  And there are still a dozen ways to get in there.  The ideal way to defend this huge moyo is like in the edit below.  

It takes more moves, but this formation still has room for invasions (around r13 for example).]

(;W[hj]
(;B[hk]C[paul: I saw your comment at the end of the game, and if big moyo is what you're looking for, make it now.  that cut was a little agressive, chase him back into it and build up your thickness instead... (variation)]
;W[ij];B[ik];W[ii];B[il];W[hh]
(;B[ji];W[jh];B[ig];W[ih];B[jg];W[kh];B[lj];W[mh]C[its getting a bit worse ..., i guess this moyo is too big


paul: also, it might have helped to back up.  Playing too close is the real problem here.  Also, the peep at j13 didn't help you in your goal of defending the giant moyo.  It might have been best to push him up toward your iron piller and just sacrificed a few stones... (see the variations back at move 66 for my ideas....)]
;B[mf];W[lf];B[le];W[kf];B[ke];W[jf];B[je];W[if];B[ie];W[hg]
;B[nf];W[hm];B[jm];W[kr];B[om];W[kj];B[kk];W[jl];B[kl];W[jn]
;B[km];W[jo];B[jp];W[ip];B[kp];W[jq];B[kq];W[iq];B[lr];W[jr]
;B[ko];W[kn];B[ln];W[lm];B[lq];W[oo];B[np];W[no];B[mm];W[lo]
;B[mn];W[mo];B[pp];W[po]C[I guess he made a mistake here , so i was able to regain control of the game

paul: well, things also got a little lucky for black.  A good white would have realized how hopeless everything got here and would concentrate on living.  I built a variation...]
;B[qq]
(;W[qr];B[rq];W[pr];B[qo];W[qn];B[ro];W[rn];B[pn];W[ki];B[jk]
;W[li];B[mj];W[nj];B[nk];W[ok];B[oj];W[ni];B[pk];W[ol];B[nl]
;W[pl];B[pm];W[oi];B[ql];W[qi];B[qg];W[pi];B[rj];W[ri];B[sj]
;W[rg];B[rf];W[sg];B[sf];W[qh];B[sh];W[rh];B[qf];W[si];B[pg]
;W[og];B[of];W[ng];B[lg];W[kg];B[mg];W[hb];B[hc];W[gb];B[ia]
;W[ha];B[ck];W[dj];B[bj];W[bi];B[bk];W[ch];B[dm];W[dn];B[cn]
;W[en];B[co];W[fr];B[cr];W[rr];B[rm];W[sq];B[rp];W[os];B[rs]
;W[qs];B[or]C[I managed to win this one , but i always have problems when i have big moyo and opponent starts crawling into it. Should I avoid big moyos ?

I'm looking forward to your suggestions


paul: well, big moyos are hard.   You need to have enough stones in there to defend them and when your opponent starts to get too close to the edges, you'd need to defend them.  Sometimes defending a huge moyo is more expensive than you'd think it should be.  Then again, keeping a huge moyo can sometimes be worth 50 points.  It all depends.]
)
(;W[rq];B[qr];W[ro];B[rl];W[rm];B[pn];W[qn];B[sm];W[sn];B[sl]
;W[ql];B[rk];W[qk];B[rj];W[ok]C[paul: this isn't so bad for white... and white has some other choices.  It's not exactly good for white either, so attacking it was a great plan.]
))
(;B[jm]C[paul: These variations are in answer to your comment at move 74.  First things first... the moyo IS giant and there's little hope of saving the whole thing.  But this poor white group looks like a disaster in progress...]

(;W[hm]SQ[gp]C[paul: the vital point is marked ... I would call k7 a probe.  Some might call it a vulgar move.  Either way, it's sente so it's worth a shot.]
;B[gp]
(;W[eo];B[go];W[gn];B[dn];W[en];B[fr];W[gq];B[is]C[paul: one eye city? this is your life force calling...]
)
(;W[go];B[eo];W[dm];B[cm];W[dn];B[cn];W[en];B[fp]C[paul: toast...]
))
(;W[gp]C[paul: I believe this makes white live... so then I'd move on.  At least my wall is finished though...]
;B[ji];W[jh];B[kh]
(;W[kg];B[jg];W[ih];B[lg];W[kf];B[lf];W[ke];B[le]C[paul: I dunno, perhaps this isn't better at all.  The only thing you can say is that here you're not pushed through.  You still have a HUGE amount of influence pointed at a white stone (r7) which basically nullifies it -- if he acts quickly.]
)
(;W[kg];B[lh];W[jg];B[lf];W[je];B[ld]C[paul: at least you can keep a little?    It's subjective I suppose.  I still like this better than the other mess at the real move 74.  At least you're not pushed through.]
))))
(;B[ij];W[hk];B[hh];W[oj];B[ph];W[nh];B[pk];W[ok];B[pl];W[om]
;B[pm];W[pn];B[ol];W[nl];B[nm];W[on];B[nk];W[ml];B[mj];W[nj]
;B[mk];W[ll];B[li]C[paul:  I carried this variation out rediculously far.  Obviously it wouldn't actually turn out like this.  The moral I'm getting at is:  See how white now has thickness pointed at your semi-vulnerable open-on-top group below?  You can keep that giant moyo if you want, but your opponent is likely to get something out of it in return.]
;W[lp];B[lq];W[kp];B[kq];W[jn]C[paul: fortunately, his is smaller.  And you'll probably live.]
))
(;AB[oc][qf]AE[qc]))
(;W[oq]
(;B[nq];W[pq]
(;B[mp];W[qn];B[iq]C[Paul: Tsuki-Hiki joseki.  It seems to work pretty well with your setup ...  At the 20 kyu level, it isn't likely that either side knows the mistakes and variations either.]
)
(;B[np];W[qn];B[jp]C[Paul: Another way to go ....]))
(;B[pp];W[pq];B[qo]C[Paul: This is the dreaded avalanche (nadare) joseki... I'd stay away from this unless you want to study your butt off. :)  White has about 5 choices here, and black has 3 or 4 choices after each of those... yikes!]
)))
