(;FF[4]GM[1]SZ[19]ST[2]CA[UTF-8]AP[SGFC:1.15]

GN[4A23B8CA]
PB[fintiger]
BR[13k]
PW[djones]
WR[12k]
KM[0.5]
DT[2005-04-18]
PC[The Kiseido Go Server (KGS) at http://kgs.kiseido.com/]
RE[B+Resign]
TM[1650]
OT[5x30 byo-yomi]
RU[Japanese]

C[fintiger: I have made a comment on some most mind-troubling points, but naturally I would like to know any ways to improve my gameplay or if I made big mistakes along the play.

krv: Thank you for opportunity to observe your game. I have commented it and give some playstile comments at the end.]
;B[pd];W[dp];B[qp];W[dd];B[nq]C[fintiger: I often like to play this move as black but I'm not actually sure if it's good in large scale so early?

krv: I don't play like this, but I think that this move is ok.]
;W[nc];B[qf];W[pb]
(;B[qc]C[fintiger: R17 necessary or not? I wanted to play somewhere on top first to prevent the opponent's next move but then decided I'd hold onto the corner and go for other places later.]
;W[kc];B[gd]LB[fq:a][ip:b][cj:c][dj:d][pk:e][cn:f][cf:g]C[fintiger: I had some trouble positioning this one, but considering I find myself rather weak in tsumego I wanted to leave a clear way for escape to the center.

krv: I think now it's too early to invade here. I like moves a-g (a - more, g - less]
;W[qk];B[qm];W[qh]
(;B[ec]C[krv: Better P13.
And if you aren't strong in tsumego you shouldn't leave weak groups for a long.]
;W[dc];B[eb];W[jq]
(;B[cn]C[krv: I like C14 here.];W[dk]
(;B[en]C[fintiger: Playing when pincered and whenever in lack of space around has always been a bit of a problem to me. How can I make this result better?

krv: Usual way is C3];W[fp];B[bk];W[ck];B[cl]C[krv: B8 better. If then played B10 you can don't answer.]
;W[bj];B[bl];W[dl];B[dm];W[gf];B[cg]C[fintiger: This is about the last chance to play inside right? What are the choices here?

krv: Do you mean left? You have two weak groups and one group to attack. P13 is still urgent and you need to play around J17]
;W[ce];B[bi];W[aj]
(;B[ci];W[cj];B[ef];W[dg];B[dh];W[eg];B[df];W[no]C[fintiger: I was surprised he didn't cut me off at C14 and so I got the result I wanted - to connect my groups. What is he aiming at with O5?

krv: I don't know. May be he think about the ladder?];B[cf]
;W[fg]
(;B[fe];W[db]
(;B[hp]C[fintiger: I'm extremely bad at reducing their moyo. How to do it for W's bottom left?

krv: For 12k we can consider this game as even.You should not play so agressive.]
;W[hq];B[gq];W[gp];B[iq];W[hr];B[ip];W[ir];B[hn];W[gn];B[gm]
;W[fn];B[fm];W[hm];B[hl];W[im];B[in];W[jm];B[ko];W[gl];B[fl]
;W[gk];B[fk];W[ej];B[gj];W[hk];B[ei];W[fj];B[fi];W[gi];B[hj]
;W[ik];B[hi];W[gh];B[ih];W[eo]
(;B[bp]C[krv: your C6 group is alive. Leave this move for yose.]
;W[co];B[bo];W[em];B[el];W[ek];B[em];W[dn];B[do];W[hh]
(;B[ii];W[dn];B[cm];W[ig];B[kh];W[kg];B[lh];W[jh];B[ji];W[jg]

(;B[kj];W[jn]
(;B[jo];W[lm]
(;B[lp];W[mp];B[mq];W[lq];B[kq];W[lr]
(;B[kr];W[oq];B[np];W[op];B[mo];W[nn];B[oo];W[qq]
(;B[pp];W[pq];B[on];W[rp]
(;B[qo];W[ro];B[rn];W[om];B[nm];W[mn]
(;B[pm];W[ol];B[pn];W[qb];B[rb];W[ra]
(;B[sb]C[fintiger: This T18 turns out to be quite a disaster but with a bit of good luck I managed to turn it into my win in the end. Suggestions and advice needed all throughout this fight.

krv: still P13.];W[rd];B[rc];W[rf];B[rg];W[qe]
(;B[pf]C[krv: I think with R14 your chances are better.];W[qg]
;B[pe];W[rh];B[nf];W[lg];B[nh];W[mg]
(;B[mh];W[ng];B[og];W[oh];B[oi]C[krv: your two groups are dead.]
;W[ph];B[pj];W[qj];B[pk];W[mk]
(;B[nj];W[nk];B[ok];W[pl];B[ql];W[nl];B[pi];W[qi];B[oc];W[ob]
;B[nd]
(;W[mc]C[krv: I don't believe that black can escape.];B[le]

(;W[ld];B[ke]
(;W[jd];B[je]
(;W[id]C[krv: White do it. Three poor moves and black escapes. But white still can catch M17 group.]
;B[ie];W[he];B[hd];W[me];B[mf];W[ne];B[oe];W[md];B[lf]
(;W[pg];B[of];W[pc];B[qd];W[re];B[hf];W[ge];B[ff];W[gg];B[if]
;W[fd];B[hg]C[krv: Bad. You should lose here.]
(;W[fc]C[krv: seems like last losing move.];B[hc];W[ic];B[hb]
;W[ib];B[ed];W[de];B[fb];W[bf];B[bg];W[be];B[jr];W[gr];B[cq]
C[fintiger: This is where djones resigned. It was a rather fast paced dogfight. I prefer solid territory building contests but unfortunately it's not always up to me...

krv: 
You should protect your own weakness before attacking.
And your shapes aren't always good.
If you fix two main problems you can play several stones stronger.]
)
(;W[gc];B[hc];W[hb];B[ic];W[ib]))
(;W[mj];B[kk];W[ki];B[lj];W[jj];B[li];W[ij];B[ki];W[kl];B[hf]
;W[lk];B[jk];W[il];B[hg];W[jl];B[ge]))
(;W[mj]
(;B[lj];W[mi];B[ni];W[li];B[ki];W[kk])
(;B[mf];W[li];B[ki];W[ni];B[mi];W[lj];B[if];W[kk];B[hf];W[jj]
;B[hg];W[ij])))
(;W[id];B[ie];W[he];B[je];W[hd];B[jd];W[jc];B[me];W[oe]))
(;W[ke]))
(;W[md];B[mc];W[nb];B[me];W[ld];B[oe];W[pc];B[mf];W[pg]))
(;B[nl];W[ok];B[nk];W[oj];B[nj]))
(;B[ng];W[mh];B[mi];W[ni];B[oi];W[nj];B[oj]))
(;B[qg];W[pe];B[od];W[oe];B[nd]
(;W[og];B[mc];W[nb];B[mb])
(;W[mc]
(;B[og])
(;B[me]))))
(;B[og];W[rc];B[rd];W[sb];B[pk];W[pl];B[ql];W[ok];B[pj];W[oi]
;B[pi];W[ph];B[oh]
(;W[oj];B[qj];W[rk];B[rj])
(;W[qj];B[oj];W[nj];B[ni];W[qi];B[oi];W[mk];B[ml];W[nk];B[ll]
;W[lk];B[ln])))
(;B[ol]))
(;B[ro]
(;W[po];B[qo];W[pn];B[om];W[pm];B[pl])
(;W[qo];B[po];W[rn];B[qn];W[so];B[rq];W[qo];B[rr])))
(;B[po]))
(;B[jr]))
(;B[mn];W[ln];B[lo];W[mo];B[nn];W[lp];B[mp];W[oo];B[on];W[po]
;B[lq];W[pn];B[ol];W[pm];B[nl];W[pl];B[kl]))
(;B[kp]))
(;B[lj]))
(;B[ji]))
(;B[ie];W[hh];B[ji];W[ig];B[jg];W[if];B[jf];W[he];B[hd];W[je]
;B[id]))
(;B[qb]CR[la][lb][mb][ma][na][nb][oa][dq][cr][bs][cs][ds][dr]
[er][eq][fq][fr][fs][es][gs][gr][gq][hr][hs][bc][ac][aa][ab]
[bb][ba][cb][cc][cd][bd]MA[am][bm][or][os][pr][ps][qs][qr][rr]
[rs][ss][sr][rq][sq][rp][sp][so][ro][rn][sn][rc][sc][sb][rd]
[sd][se][re][qe][qd]C[White: 34.
Black: 29.]))
(;B[ed]))
(;B[cj];W[ci];B[dj];W[bh];B[di];W[ch];B[dh];W[bg];B[ek]))
(;B[cq]
(;W[cp];B[dq];W[ep];B[bp];W[bo];B[bq];W[co];B[fq];W[go])
(;W[dq];B[cp];W[do];B[co];W[em])))
(;B[cf]
(;W[ee];B[bd];W[gf];B[cb])
(;W[bd];B[ee];W[bf];B[bg];W[ce];B[df])))
(;B[og];W[ok];B[qb];W[ob]))
(;B[ip];W[qc]C[krv: I don't like this shape for black. Q16 seems ugly.]
))
