(;FF[4]GM[1]SZ[19]ST[1]AP[SGFC:1.15]

PB[Zwom]
BR[13k]
HA[2]
PW[Vador]
WR[11k]
KM[0.5]
DT[2005-02-22]
PC[The Kiseido Go Server (KGS) at http://kgs.kiseido.com/]
RE[W+10.50]
TM[1200]

AB[dp][pd]C[rika:
hi, I'm Chun-Kit, 2k in Germany.
You were playing white against 2 handicap stones.
You should always keep in mind you can't play softly against someone weaker. (In even games with komi that an other matter)]
;W[dc];B[pq];W[qo];B[np];W[qk]C[rika:
this is ok so far];B[qm]
(;W[qq]C[rika:
here I would play S17 (see var). But your approach is still ok.]
;B[qr];W[pp]
(;B[oq]C[rika:
normal is S3 for black (see var)];W[rm];B[pm];W[rl];B[jq]
(;W[ce]C[rika:
too slow for an handicap game. You should always remember: white is always behind in the opening]

(;B[jc]C[rika:
of course black occupies the big point at the top or starting to make a moyo with C10.]
;W[hc]
(;B[mc];W[ck];B[cm];W[ek];B[dq];W[qf];B[re];W[qe];B[qd]
(;W[rf]SQ[jo]C[What about the my opening ?

What should be my plan ?

rika:
think big. black will be happy if he can play K5.
Black can give up the stone (S15) if he wants to get sente, so no need to play there]
;B[ie];W[on];B[om];W[nn];B[ml];W[nm];B[pk];W[nl];B[ok]
(;W[pj];B[nk];W[mk];B[mj];W[lk];B[ni];W[ll];B[fc];W[he];B[fe]

(;W[if];B[id];W[hd];B[hf];W[gf];B[hg];W[ge];B[jf];W[gh];B[gg]
;W[fg];B[hh]
(;W[gi]C[rika:
difficult, if there is still a cut at F14];B[ff];W[fd];B[ed]
;W[gd]
(;B[hb];W[ee];B[ef];W[ec];B[gc];W[dd];B[ic];W[ed];B[eg];W[fh]
;B[dj];W[dk];B[cj];W[bl];B[bj];W[dh];B[eh];W[ei];B[cg]
(;W[dg]
(;B[cf];W[df];B[be];W[bd]
(;B[ae];W[ch];B[bh];W[bi];B[bg];W[ci];B[ai];W[bn];B[bm];W[am]
;B[bk];W[cl];B[ad];W[bc];B[bo]
(;W[dm];B[cn];W[dn];B[co];W[gq];B[fo];W[go];B[gn];W[ho];B[fn]
;W[hn];B[of]
(;W[lq];B[lp]
(;W[kp];B[kq];W[mp];B[mq];W[lo];B[lr]
(;W[gm]C[rika:
you can't think making center territory now, 
the best you can do now is to reduce his center.];B[fm];W[gl]
;B[fl];W[fk];B[qh];W[pg];B[og];W[ph];B[rq];W[qp];B[lj];W[hi]
;B[ih]
(;W[ii];B[ji];W[jh];B[ig]
(;W[jj];B[ki];W[kj];B[jp];W[jo];B[fr];W[fq];B[eq];W[fp];B[eo]
;W[gr];B[fs];W[gs];B[er];W[oh];B[nh];W[lp];B[nq];W[rp];B[sq]
;W[ir];B[jr];W[ip];B[qn];W[rn];B[oo];W[no];B[po];W[op];B[pn]

(;W[oe]C[rika:
too optimistic];B[pe];W[pf];B[rd];W[li];B[kh];W[nj];B[oj];W[mi]
;B[nj];W[ng];B[nf];W[qj];B[sf];W[sg];B[se];W[rh]C[rika:
after that exchange, black has now the initiative];B[eb];W[db]
;B[ea];W[da];B[gb];W[sp];B[rr];W[js];B[ks];W[is];B[mr];W[iq]
;B[kr];W[oi];B[mg];W[do];B[ep];W[ao];B[ap];W[al];B[an];W[em]
;B[el];W[dl];B[ol];W[ql];B[hm];W[im];B[hl];W[gk];B[il];W[ik]
;B[jl];W[jm];B[km];W[kn];B[ln];W[lm];B[tt];W[tt]TB[ss][rs][qs]
[ps][os][ns][ms][ls][es][ds][cs][bs][as][sr][pr][or][nr][dr]
[cr][br][ar][cq][bq][aq][cp][bp][ao][bn][mi][li][mh][lh][jh]
[ng][lg][kg][jg][mf][lf][kf][if][oe][ne][me][le][ke][je][sd]
[od][nd][md][ld][kd][jd][sc][rc][qc][pc][oc][nc][lc][kc][sb]
[rb][qb][pb][ob][nb][mb][lb][kb][jb][ib][fb][sa][ra][qa][pa]
[oa][na][ma][la][ka][ja][ia][ha][ga][fa]TW[hs][hr][hq][hp][gp]
[so][ro][mo][ko][io][sn][mn][ln][jn][in][sm][mm][km][hm][sl]
[ml][kl][jl][il][hl][sk][rk][kk][jk][hk][bk][ak][sj][rj][ij]
[hj][gj][fj][ej][dj][cj][bj][aj][si][ri][qi][pi][fi][di][ai]
[sh][qh][eh][bh][ah][rg][qg][eg][cg][bg][ag][ff][ef][cf][bf]
[af][fe][de][be][ae][cd][ad][cc][ac][cb][bb][ab][ca][ba][aa]
C[Result : B +25.5.

Where did W lost the game ?

rika:
well, keep in mind it was an handicap game. That means you have passed for the first turn, it's worth about 20 points. If you realized that, you will see, playing softly doesn't help you much.
That's the main weakness in this game.

Chun-Kit])
(;W[rd];B[rc];W[se];B[sc];W[pe];B[oe]C[rika:
much better, because it's your turn now (sente)]))
(;W[ki];B[jj];W[kj];B[kh];W[li];B[lh];W[mi];B[mh];W[nj];B[oj]
;W[oi];B[mj];W[jk];B[ij];W[hk]))
(;W[ji]))
(;W[ki];B[jh];W[kh];B[kg]))
(;W[mp];B[mo];W[kp];B[mq];W[kq]C[rika:
this is a much better result]))
(;W[fp]))
(;W[cn];B[co];W[of]))
(;B[bf]
(;W[ch];B[bh]
(;W[ci];B[ag];W[bi];B[ae])
(;W[ag];B[ah];W[ae];B[ci];W[aj];B[ak];W[bk];B[ai]))
(;W[bh];B[ch];W[bi];B[ci];W[ag];B[ai];W[ah];B[af];W[aj];B[bg]
;W[ai];B[ak];W[ah];B[bk];W[cl];B[ai])))
(;B[ch]))
(;W[di];B[bf];W[bh];B[ch];W[ci];B[bi];W[ah];B[be];W[bd];B[ag]
;W[ae];B[bk];W[cl];B[ak];W[ai]))
(;B[ec];W[ee];B[ef];W[de];B[dg]C[rika:
black will break through or catch the 7 stones. quite a disaster for white]

(;W[fh];B[hb])
(;W[eg];B[df];W[dh];B[eh];W[fh];B[ch];W[di];B[bg];W[cg];B[cf]
;W[bf];B[cg];W[dd];B[hb])))
(;W[ff]))
(;W[id];B[je];W[gf]))
(;W[nk]C[rika:
keep the groups separated];B[pi];W[qj];B[oi];W[mi]C[rika:
nothing to fear about the three white stones (S16 will help)
The bN8 stone doesn't do much in the center];B[nj];W[mj];B[mk]
;W[ng]))
(;W[jo]))
(;B[je];W[he];B[jg];W[qf]))
(;B[cj];W[jc];B[nc];W[cq]))
(;W[cn];B[fp];W[ci]))
(;B[rq];W[oq];B[qp];W[pr];B[qq];W[op];B[po];W[oo];B[pn]))
(;W[rm];B[rl];W[ql];B[rn];W[pm];B[qn];W[pn];B[po];W[ro];B[sm]
;W[so];B[sn];W[rk];B[qp];W[oo];B[pp]))
