(;FF[4]GM[1]SZ[19]AP[SGFC:1.15]

GN[dwb5040-handtalk(B)]
PB[handtalk]
BR[6k]
HA[0]
PW[dwb5040]
WR[5k]
KM[0.5]
DT[2005-04-24]
RE[W+4]

;B[qd];W[dp];B[pq];W[dd];B[fc];W[hc];B[oc]C[my favourite opening

roge: I don't understand the feeling of P17

roge: Here, Iprefer to simply play sansan (C17)];W[fd];B[cj]
;W[ch];B[cn]C[roge: C7 is stronger: it give a base for life.]
;W[cl];B[en];W[fq];B[dk];W[co];B[bn];W[po];B[qm]C[is r9 better do you know?]
;W[qq];B[qp];W[pp];B[qo];W[qn];B[rn];W[pn];B[rq]C[roge: S4 seems to be the proper move]
;W[ro];B[rp];W[rm];B[so];W[oq];B[pm];W[pr];B[om];W[qh];B[qj]
;W[qf];B[re];W[of];B[gd]C[roge: Here i prefer to play K17 to prepare an attack on the white group near the top corner]
;W[gc];B[cc]C[roge: If you want to play C17, it is not good to play G15 before (aji keshi)]
;W[ec];B[cf];W[cd];B[fe];W[fb];B[ef];W[eh];B[be];W[bd];B[gh]
;W[bg];B[dg];W[dh];B[bf];W[ej];B[ek];W[gi];B[hh]C[roge: H11 seems better]
;W[hi];B[ii];W[ij];B[ih];W[fh];B[fg];W[gk];B[gl];W[fk];B[fl]
;W[jj];B[gp]C[roge: I dislike this move: it gives territory to white.

roge: Why not H3 to attack both the corner and the side ?];W[gq]
C[roge: White is very happy to play this move];B[hp];W[kq]C[roge: of course! black gives territory to white!]
;B[ep];W[eq];B[do];W[cp];B[fp];W[iq]C[roge: and black is gote.]
;B[hq];W[hr];B[ip];W[jq];B[il];W[mn];B[hk];W[hj];B[fj];W[gj]
;B[dj];W[ei];B[bi];W[jl];B[jm];W[kl];B[lc]C[here i think game is about even, white plays quite slow i feel letting black take lots of sente,but i wasnt playing right direction or not good moves.help

roge: yes !];W[pj];B[rj]C[roge: It seems better to go back with R9]
;W[pk];B[pi];W[qi];B[qk];W[oi]C[roge: very bad result for black: now white is alive]
;B[pg];W[pf];B[aq]C[roge: Maybe you can have try something at B3]
;W[bq];B[ao];W[ar];B[ap];W[cr];B[ad];W[ac];B[ae];W[bc];B[jc]
;W[he];B[hf];W[ge];B[gf];W[ie];B[bh]C[roge: yes];W[cg];B[ag]
;W[kh];B[ml];W[km];B[nn];W[no];B[mm];W[ln];B[jn];W[mj];B[ne]
;W[pd];B[pc];W[od];B[nd];W[mf];B[nf];W[ng];B[rf];W[qg];B[ko]
;W[lp];B[qr];W[qs];B[rr];W[ib];B[jb];W[ja];B[ka];W[ia];B[lb]
;W[kd];B[ic];W[hb];B[jf];W[kf];B[lk];W[lj];B[je];W[ke];B[id]
;W[hd];B[jg];W[kg];B[on];W[oo];B[lo];W[mo];B[oe];W[pe]C[i think white could have played better but still white wins]
;B[ld];W[rg];B[ji];W[ik];B[hl];W[kk];B[ki];W[li];B[le];W[lf]
;B[pl];W[ok];B[mk];W[nk];B[rs];W[ps];B[pq];W[or];B[ri];W[sf]
;B[rc];W[kp];B[jp];W[de];B[df];W[ee];B[if];W[ff];B[eg];W[kc]
;B[kb];W[kn];B[jo];W[se];B[sd];W[sg];B[me];W[qe];B[rd];W[si]
;B[sj];W[sh];B[mg];W[mh];B[og];W[lg];B[qq];W[bo];B[fe]C[something went wrong, im not too sure where,thanks for your time and helpneil mclean<end of comments>]
;W[rl];B[ql];W[ff];B[gr];W[fr];B[fe];W[bp];B[an];W[ff];B[ir]
;W[gs];B[fe];W[nl];B[nm];W[ff];B[nh];W[mg];B[fe];W[dm];B[dn]
;W[ff];B[hs];W[is];B[fe];W[ah];B[ai];W[ff];B[rh];W[ph];B[fe]
;W[sn];B[sm];W[ff];B[as];W[bs];B[fe];W[ll];B[ff];W[lm];B[sl]
;W[fi];B[tt];W[kj];B[tt])
