(;FF[4]GM[1]SZ[19]ST[2]CA[UTF-8]AP[SGFC:1.15]

GN[drsb-lucat-20050413.sgf]
PB[Luca Turilli (lucat)]
BR[19k]
HA[9]
PW[Sven Bungard (drsb)]
WR[13k]
KM[0.5]
DT[2005-03-30,2005-04-13]
PC[Dragon Go Server: http://www.dragongoserver.net]
RE[B+Resign]
RU[Japanese]
GC[Game ID: 114459]

AB[dd][jd][pd][dj][jj][pj][dp][jp][pp]C[Dear reviewer,

thanks in advance for your efforts! Tough I resigned the game after some combat, i would be glad to get some hints about how to handle so many handicap stones. I made some annotations of myself, but I don´t think could have changed the result much with those minor modifications...

Hi, 
My name is Johanna Tuominen, I'm 5 kyu in Finland. Overall you were way too passive in this game. In handicap games you, as a white, should take the initiative more often. 

In 9 handicap game white have to fight against blacks whole board influence. Of course white have to make territory but not necessarily in the beginning, When making territory on the sides, white have also remember the center. Analyzing this game is a bit difficult since it is hard to guess where black would respond. But altogether in 9 handicap game black will do something that you can punish him for (otherwise the number of handicap is wrong). Just have to be patient. Furthermore, In high handicap games it is useful to use fourth line approaches aswell. I tend to mix between the third and the fourth line. The idea behind this is that by approaching always on the third line I more often end up givin black huge center. But the fourth line approaches takes care of the center much better. 

These handigames are unpredictable but I suggest that you could go through some high handicap games between single digit or dan players. I've added some comments and variations. Hope they help!

Enjoy the game of Go]PL[W]
(;W[nc];B[oc];W[nd];B[pf]LB[qc:B][qe:C][ph:A]C[JT: blacks corner is still not secured so thats why I recommend to play some where else. Like those approach moves (see variations). Good attacking points towards blacks corner are for instance A ,B,C. in the local situation. Though white would be more secure if he collects some strength first.]

(;W[jc]LB[fc:A][fd:B][gd:C]TR[nc][jd][nd]C[JT: Not good. This move ended up strengthening black. I would consider playing an approach towards the upper left corner. The whites two marked stones are by no means week. By playing one of those approach moves makes pressure towards the marked black stone.]
;B[ic]
(;W[kd]C[JT: Instead the hane just L17 (If you really want to strengthen this group). Because you don't want to give ponnuki for black.]
;B[je];W[ke];B[hd]
(;W[kf]LB[jb:A]TR[ic][hd][jd][je]C[Better defend territory at the border?

JT: There is not much territory defend so I would consider it small move. But giving ponnuki for black is big and stregthens the marked stones too much when considering the upper left corner. So yes. See the variation.]
;B[kc];W[lc];B[jb]
(;W[co]LB[dm:C][cn:A][dn:B]C[JT: This move again strengthens black. If you were afraid of the contact approach that black made in the upper right corner, one could try 4th line approaches. Like B,C or the A.]
;B[cp];W[bp];B[bq];W[do];B[dm];W[cq];B[dq];W[aq];B[br];W[cm]
;B[cl];W[bm];B[bl];W[bn];B[dn];W[eo];B[gq];W[cf];B[ch]
(;W[cd]C[JT: I would prefer here the 3-3 invasion. This helps black to make territory on the side. See the variations.]
;B[cc];W[bc];B[dc];W[be];B[bb];W[ab];B[ba];W[de];B[gn]
(;W[ff]LB[fe:A]C[I did not know wether to extend into the center or to attack the black left upper group at A.

JT: The A is sente and it reduces black a little. But it is easy to defend from F17.]
;B[ig];W[if];B[hf];W[jf];B[fd];W[ki];B[ji]
(;W[jh]LB[kh:A]C[On A?

JT: Definetely on A. Secures the connection better.];B[ih];W[kj]
;B[kh];W[jg];B[lh]
(;W[mi];B[mg];W[nf];B[ng];W[og];B[oh];W[of];B[pg];W[oi];B[nh]
;W[ph];B[pi];W[qh];B[rg]
(;W[rh];B[ri];W[qc];B[qg];W[pc];B[qd];W[od]
(;B[hi]C[:-( for white ...

JT: The corner approach from other side.  See the variations.]

(;W[qn];B[qo];W[pn];B[np];W[qk];B[kk];W[ok]TR[ki][mi][oi][kj]
C[I wanted to save an option for rescuing the marked stones..]
;B[mj];W[oj];B[rk];W[qj];B[qi];W[rj];B[rl];W[pk];B[sh];W[sj]
;B[rn];W[rm];B[qm];W[ro];B[sm];W[qp];B[po];W[rq]C[Now White´s desperate trying to get both groups to life...]
;B[om];W[on];B[nn];W[nm];B[oo];W[ol];B[pm];W[mk];B[lk];W[mm]
;B[pq];W[qr];B[qq]LB[pr:A]C[probably here was a ko possible?
JT: Yes.]
(;W[rp];B[sr];W[sq];B[so];C[Result: B+Resign

Here finally I acknoledged my defeat and resigned...
was there a possibility to get the white center group to life?

JT: Getting two eyes for the center group is difficult. One eye maybe depending how black answers but ...]
N[RESULT];W[nj];B[ml];W[nk];B[ll];W[lj];B[li])
(;W[pr]
(;B[or]
(;W[rs]
(;B[rp]C[JT: blacks mistake. Now white lives unconditionally.]
;W[sq])
(;B[sr];W[ps])
(;B[ps];W[sr];B[rp];W[sq];B[os];W[qs]))
(;W[rp]C[JT: Whites mistake black can kill.];B[sr];W[rs];B[ps]
;W[rr];B[so];W[sp]))
(;B[rp]
(;W[sq];B[rs])
(;W[rs];B[sq];W[sr]C[But letting white live isn't big deal for black since...]

(;B[rr]C[JT: Ko variation. White could threat by jumping out to 02. But]
;W[nr];B[ss];W[mq];B[kr];W[lr];B[kq];W[ms])
(;B[sp];W[rr];B[or];W[ps];B[mn]C[Black makes large territory on the bottom side...]
)))))
(;W[nq])
(;W[np]TR[ki][mi][oi][kj]C[JT: on the fourth line so that white can try to rescue the marked stones later.]
)
(;W[pn]C[JT: This is better than the third line approach from this side.]
))
(;B[tt];W[gh];B[ii];W[gf];B[hg];W[he];B[ie];W[ge];B[ef];W[ee]
;B[fe];W[eg]))
(;W[ni];B[qg];W[mh]
(;B[qi])
(;B[lg])))
(;W[mh]
(;B[lj];W[li];B[mi];W[kk];B[mg];W[nh];B[lg];W[ng];B[nf])
(;B[mi];W[mj];B[nh];W[mg];B[li]
(;W[ni];B[lj];W[kk];B[lk])
(;W[lj];B[ni]))))
(;W[kh];B[nf];W[ih];B[hg];W[jh];B[hi]))
(;W[fe]C[should be sente, isn´t it?]
(;B[fd];W[gf])
(;B[tt]C[if Black tenukis...];W[fc];B[fb];W[eb];B[ec];W[gb]
;B[db];W[fa])))
(;W[cc]C[JT:]
(;B[cd];W[dc];B[ed];W[bd];B[be];W[bc];B[ce];W[fc])
(;B[dc];W[cd];B[de];W[bf];B[eg]C[JT: Better result for white this way.]
;W[jg];B[hg];W[fm]))
(;W[bd];B[cc];W[bc];B[bb];W[cd];B[dc];W[de];B[ee];W[ef];B[fe]
;W[dh]))
(;W[cp]C[JT: This approach is also possible. Though it is difficult to tell how black would respond for this in actual game.]

(;B[cq]
(;W[co];B[do];W[bq];B[dq];W[cm])
(;W[dq]
(;B[bp]
(;W[ep])
(;W[co];B[eq];W[dr];B[cr];W[ep];B[do]))
(;B[eq];W[dr];B[bp];W[co];B[bq];W[er])))
(;B[co];W[do]
(;B[ep];W[bo];B[cn];W[cq];B[dr];W[cr];B[bn];W[ap];B[bq];W[br]
)
(;B[cn];W[bp];B[eo];W[dq];B[ep];W[eq]))))
(;W[jb];B[kf];W[lf];B[kg];W[lg]CR[kb][lb][mb][lc][mc][ld][md]
[me]LB[qc:A][qe:B][ph:D][qh:C]TR[ic][hd][jd][je][kf][kg]C[JT: Securing the area feels a bit small at this point. White gets 8-10 points max. But now the marked stones have a cutting point (K14) as an aiji for later use. Now white has strong wall towards the black upper right corner, easier to attack against it.]
))
(;W[kc]C[JT Nice cutting point in J16.]))
(;W[fd];B[df];W[jf]C[JT: maybe something like this.])
(;W[gd];B[df];W[jf]LB[qc:B][ph:A])
(;W[fc];B[ec];W[fd];B[df];W[jf];B[ld];W[id];B[ie];W[je];B[ic]
;W[hd];B[jc];W[hf];B[me]LB[qc:A][qe:D][ph:B][qh:C]TR[nc][nd]
C[JT: difficult to tell what black would do, but now for instance white can try to use the aiji of the marked stones by attacking towards the upper right corner.]

(;W[qc];B[qd];W[ob];B[pb];W[pc]
(;B[qb];W[od];B[rc]C[JT: If black answers correctly the corner invasion will be struggle for white. But for some reason in high handigames black does not answer like this. But it is better to start with the attacking points B and C. And leave this probe for later.]
)
(;B[od];W[qb];B[nb];W[pa]C[JT: For some reason this is common mistake for black. now white lives easily.]
))
(;W[qh];B[ph]
(;W[qg];B[pg];W[rj];B[qf];W[rf];B[re];W[rg])
(;W[qe];B[pe];W[qf];B[qg];W[rg];B[pg];W[ri]))))
(;W[md];B[pf];W[gd];B[df];W[pm];B[np];W[dm];B[jf];W[gp]C[JT: This is the beginning of my game agains Korean 8 dan. I don' t say that this is the way to play but the idea is the same. You cannot play passively against 9 handicap. spread your stones more, dont concentrate to muh into one situation at the beginning.]
))
