(;FF[4]GM[1]SZ[19]ST[2]CA[UTF-8]AP[SGFC:1.15]

PB[kristall]
BR[9k]
PW[dsimal]
WR[8k]
KM[0.5]
DT[2005-04-05]
PC[The Kiseido Go Server (KGS) at http://kgs.kiseido.com/]
RE[B+3.50]
TM[1200]
OT[5x20 byo-yomi]
RU[Japanese]

;B[pd];W[qf];B[dd]LB[nc:A]C[Black might want to play at A instead, as the double approach is pretty big.]
;W[nc];B[oe];W[qc];B[dp];W[pp];B[pc]
(;W[pb]LB[qd:A]C[Better to just play A.];B[qd];W[qb];B[pg]C[Now black pushes white low towards his 4-4 stone, which is good for black.]

(;W[qh]C[It may be better to just sacrifice this stone, so black doesn't get influence.]
;B[pi]
(;W[qi];B[ph];W[pj];B[qg];W[rh]LB[qj:A][qk:B]C[This is never a good move. If you want to cover the cut at A, play B and take sente.]
;B[rg];W[qk]C[Now black got sente and a strong shape.];B[dj]
;W[jd]LB[nc:A]C[This move doesn't work well with A. If black invades and separates white, both sides will be heavy.]
;B[np];W[pn];B[jp];W[dn];B[fp];W[cp];B[cq]
(;W[bp]LB[co:A]C[It's better just to play A.]
(;B[bq]LB[do:A]C[Black should play at A instead.];W[do];B[ep]
;W[bn]LB[cl:A]C[Although this is solid, this is too small. A is better, as it also threatens the upper left moyo.]
;B[gc];W[ic];B[ge]LB[lc:C][ce:A][me:B]C[This is pretty small, since the corner is still open. A is bigger here, however, you might want to play B first to threaten C.]
;W[me];B[mh]LB[ce:A]C[I don't think that this is very big, or necessary - black should instead secure the upper left corner now with A. If black doesn't play here, white can't really shut him in, and even if he does, he can't gain anything by doing so.]
;W[cc];B[cd];W[dc];B[ec];W[bd];B[be];W[eb];B[fb];W[ed];B[fc]
;W[ce]C[It's better not to play this and leave some aji.];B[de]
;W[bc];B[cf]C[Now black's shape is too strong.];W[da];B[pq]
LB[hp:C][lp:B][qq:A]C[I think black should play the invasion at A instead. Because of the gaps at B and C, the territory isn't secure anyway, so making white stronger doesn't really matter that much.]
;W[qq];B[oq];W[lp]LB[qr:A]C[A is pretty much a must here.];B[qr]
;W[rq]
(;B[oo]LB[ko:A]C[This move doesn't really threaten white enough or move out enough. I prefer A here, see the variation.]
;W[ln];B[nm];W[kq];B[jq]LB[hp:B][jq:A]C[This is a horrible exchange for white - white loses the chance to play at A, and B becomes a lot more difficult.]
;W[kr];B[jr]C[Now white solidifies black's territory even more.]
;W[mq];B[op]LB[po:A]C[A is better shape than this.];W[po];B[ko]
;W[lo];B[jm];W[nr];B[oj]LB[fn:A]C[Now it's time to attack the lower left instead. I prefer A here to build some territory.]
;W[ok];B[nk]
(;W[ol]C[Although this is usually better, I think here white should just cut and push through.]
;B[nl];W[ll];B[cm]C[This is too aggressive. Unless you're trying to kill, you shouldn't play so close when attacking.]
;W[bm];B[bl];W[cl];B[ck];W[dl];B[fj];W[bk]C[This is pretty small, since white is pretty much alive already.]
;B[bj];W[al];B[em];W[dm];B[jf];W[lj];B[nj];W[kn];B[jn];W[jk]
;B[ke];W[kd];B[ii];W[if];B[ie];W[je]
(;B[he]C[It's better to start with atari here.];W[jg];B[kf]
;W[ih];B[lg];W[kg];B[lf];W[ji];B[hf]LB[gh:A]C[Better to take A, to protect as much of the territory as possible.]
;W[gh];B[ij];W[jj];B[ig];W[hi];B[hj];W[gj]LB[eh:B][il:A]C[This exchange is not good for white, better to just jump further with B or play at A.]
;B[gk];W[gi];B[il];W[ek];B[ej];W[fm];B[fn];W[en]LB[fl:A]C[I think just A looks best here for white]
;B[gm]LB[gn:A];W[fo];B[fl];W[gn];B[eo]LB[fm:A]C[Connecting at A is not much smaller and gives no ko.]
;W[fm];B[jh];W[kh];B[fn];W[on];B[nn];W[fm]
(;B[cb]LB[ba:A]C[I think there may be more threats if black plays at A.]
;W[bb];B[fn];W[mo];B[no];W[fm];B[ob]LB[oc:A]C[This is a losing threat, just A is better.]
;W[oc];B[fn];W[dr];B[dq];W[fm];B[ld];W[lc];B[fn];W[ci];B[cj]
;W[fm];B[db];W[ca];B[fn];W[io];B[go];W[jo];B[kp];W[hp];B[hq]
;W[iq];B[ir];W[eh];B[dh];W[fk];B[ik]LB[eg:A]C[I think A is bigger, as letting white capture one stone here isn't very big.]
;W[dg];B[ch];W[ei];B[di];W[ef];B[ee];W[ne];B[li];W[ki];B[hg]
;W[hh];B[kl];W[kk];B[lm]C[This is just silly];W[km];B[rr];W[jl]
;B[im];W[or];B[pr];W[ro]LB[sr:A]C[If white wants to defend, it's better to just play at A.]
;B[ap]LB[hb:C][rc:B][nf:A]C[Although this is reverse sente, it's not so big yet. A, B and C are all bigger.]
;W[ao];B[aq];W[ng];B[nh]C[White can't actually cut, so this defense is pretty small.]
;W[rd];B[re];W[rc];B[of];W[le];B[nf];W[od];B[qe];W[fg];B[ia]
;W[ha]LB[ja:A]C[It's not really necessary to play this, white could play straight at A.]
;B[hb];W[ja];B[ib];W[jb];B[sh];W[rj]LB[si:A]C[White should protect at A first, then here.]
;B[ks];W[lr];B[sq];W[sp];B[sr];W[ls];B[ip];W[js];B[is];W[si]
;B[sg];W[hc];B[ga];W[fi];B[cg];W[gg];B[aj];W[ak];B[ad];W[ac]
;B[ae];W[fe];B[fd];W[ff];B[ea];W[db];B[fa];W[mm];B[mk];W[mi]
;B[lh];W[mj];B[lk];W[ni];B[oi];W[kj];B[os];W[ns];B[ps];W[el]
;B[fm];W[mf];B[mg];W[md];B[om];W[pm];B[hd];W[id];B[df];W[se]
;B[sf];W[sd];B[ks];W[eg];B[js];W[ml];B[nq];W[tt];B[tt]TW[aa]
[ba][ka][la][ma][na][oa][pa][qa][ra][sa][ab][cb][kb][lb][mb]
[nb][ob][rb][sb][jc][kc][mc][sc][ld][nd][fh][jh][ri][qj][sj]
[pk][rk][sk][bl][kl][pl][ql][rl][sl][am][cm][lm][qm][rm][sm]
[an][cn][qn][rn][sn][bo][co][qo][so][qp][rp][lq][mr][ms]TB[ha]
[gb][ed][gd][ce][pe][af][bf][if][pf][qf][rf][ag][bg][ng][og]
[ah][bh][oh][ai][bi][ci][hk][gl][hl][hm][gn][hn][in][fo][ho]
[io][jo][gp][hp][eq][fq][gq][iq][ar][br][cr][dr][er][fr][gr]
[hr][as][bs][cs][ds][es][fs][gs][hs][qs][rs][ss])
(;B[ba];W[bb];B[fa];W[ca];B[db];W[cb];B[ea];W[aa]))
(;B[hf]
(;W[ig];B[jg]C[White can't live.])
(;W[kf];B[ig]C[Black gets to keep his territory this way.])))
(;W[nj];B[oi];W[nl];B[mk];W[ol];B[mm];W[ml];B[lm];W[ll]C[Black can't really stop white from coming through or his group dies.]
))
(;B[ko];W[lo];B[ln];W[mo];B[on];W[mn];B[pm]))
(;B[do]C[Black should play here first.];W[cn];B[en];W[em];B[fm]
;W[fn];B[eo];W[el];B[cl];W[dl];B[gm]))
(;W[co];B[bq];W[cl];B[cj];W[fn]C[White has good shape here.]
))
(;W[ph]C[JT: this is another variation to consider.];B[oh];W[oi]
;B[qi];W[qg];B[og];W[ri];B[rj];W[sh]
(;B[qk];W[oj];B[pk];W[re];B[rd];W[rg])
(;B[re];W[qj];B[pj];W[qk];B[rk];W[pk];B[oj];W[rl])))
(;W[qi];B[qg];W[oi]LB[qf:A]C[The A stone still has some bad aji left for black, and white is developing strongly towards the bottom left.]
))
(;W[qd]LB[pp:A]C[Now it's hard for black to develop here, and white is building towards the A stone.]
))
