(;FF[4]GM[1]SZ[19]ST[2]CA[UTF-8]AP[SGFC:1.15]

PB[kariku]
BR[17k]
PW[derhannes]
WR[16k]
KM[6.5]
DT[2005-04-05]
PC[The Kiseido Go Server (KGS) at http://kgs.kiseido.com/]
RE[W+6.50]
TM[900]
OT[5x30 byo-yomi]
RU[Japanese]

C[hello, i am playing white here and will mark my comments with "H:"

thanks for your review!

C: I'm Christoph, 7 kyu. I was trying to finish soon, as you've been waiting for this review a long time. As a result, my analysis may be less than thorough.
Looks like a god game to me. Both you and your opponent often played slower than necessary, so the results of such mutual politeness canceled out. You can afford to play a more aggressive style. I hope I was able to point out a few instances.]
;B[pd];W[dp];B[qp];W[dd];B[oq];W[qj]LB[qg:D][pm:C][qp:B][oq:A]
C[H: my idea was to prevent the extension from A and B. but after black C and white D i felt somewhat inferior

C: The move is good, since it neutralizes the influence of B's shimari. It implants a group that once and for all erases Black's potential of getting a moyo on the right side. You can't expect to come out ahead in Black's sphere of influence.]
;B[pm];W[qg];B[mc];W[cj]C[C: The result is favourable. Even though you got White, you managed to make a sanren sei on your side while implanting a group in Black's side.]
;B[cm];W[co];B[ck];W[dj]LB[cf:C][cj:D][dj:E][ck:A][cm:B]C[H: what about this stone at E? my idea was to put pressure on his A-B group to get some walls when he tries to evade.
but i feared  a counterattack around C and did not know how to handle that (which happily did not happen)

C: The move seems OK to me. Black must defend if he wants to survive, giving you the time to play at C. Counterattacking just leaves Black with two weak groups instead of one.
All in all, a well played opening !];B[dk];W[cf]LB[dd:C][cf:B]
[dj:A]C[H: now i liked the A stone as it fits nicely with B (and C)]
;B[cc]
(;W[cd]C[C: Here I would block from the other side, for two reasons:
1) The stone on C14 may give you chances of killing
2) If Black survives, White makes extra territory on the upper side. See the variation]
;B[dc];W[ec];B[eb];W[fc];B[fb];W[gc];B[gb];W[hc];B[jc];W[gq]
;B[jq];W[go];B[cq];W[dq];B[bp];W[bo];B[cr];W[dr]
(;B[bs]C[C: No way for Black to survive in the corner.]
(;W[ap]C[C: insufficient, see variation.]
(;B[ar]C[H: here i was lucky that i could kill the corner

C: Yes, Black blunders here.];W[bq]C[C: Nice play.];B[dn];W[cp]
;B[en];W[fj];B[fp];W[fo];B[gn];W[fn];B[fm];W[eo];B[gm];W[ip]
;B[hp];W[ho];B[iq];W[hq];B[jp];W[io];B[jo]
(;W[mm]LB[mn:A][nn:B][mo:C][no:D]C[H: would another stone (A, B, C, D) have been better? my move reduced his moyo, but i was not happy with the territory he got here in the end

C: I'm not an expert. Unless chances are of making life, I wouldn't dive too deep into enemy territory. I might have played the same move, except that it's probably better to start with J7, attacking Black's group while at the same time building support for your action against his moyo. But, this is just a feeling - I can't prove my point rigorously.]
;B[mo];W[nn];B[no]
(;W[ol]C[C: Too passive. Both your groups are safe, since you can allways run to the center, and S15 and S8 are miai. So you can keep pushing into Black's territory.]
;B[om]
(;W[nm]C[C: Definitely too passive. You have nothing to fear or defend, so why not keep attacking (variation)]
;B[pl];W[ok];B[on]C[C: Black has safe territory here, so for him, a defensive move is OK.]
;W[pk];B[hh];W[fh];B[gf];W[gg];B[hg];W[hf];B[if];W[he]C[C: well played.]
;B[ie];W[hd];B[id];W[qd];B[qc];W[rd];B[rc];W[pe];B[od];W[oe]
;B[nd];W[ng];B[ne];W[nf];B[jg];W[lf];B[le]
(;W[mf]C[C:  too slow];B[me];W[li];B[lk];W[mj]C[H: would there have been a better defense?]
;B[mk];W[nk];B[lj];W[mi];B[ki];W[kh]C[C: small];B[ji]
(;W[kg]C[C: small. Have a look at all the alternatives.];B[jh]
;W[im];B[jm]
(;W[jn]C[C: becomes gote];B[kn];W[in];B[lm];W[jl];B[km];W[ik]
;B[hi];W[ke];B[kd];W[rm];B[ql];W[rl];B[rk];W[qk];B[rj];W[ri]
;B[rn];W[sk]C[C: No need to take gote here];B[sm]
(;W[ek]LB[el:A]C[H: unfortunately i did just think of reducing his territory here. could i have killed him? A would probably have given him more to think about

C: I think your move is better than A (see variation). In the continuation, you had killing chances.]
;B[qm];W[sj];B[el];W[fl];B[gl];W[fk];B[bj];W[dl]C[H: i misread the following sequence. the idea was to give a series of ataris and cut him off]
;B[em]
(;W[cl];B[bk];W[bl];B[bm];W[bi];B[al]
(;W[hb];B[bd];W[be];B[bc]
(;W[ci]C[C: The slow move that lets Black escape.
After this, I see no way of killing him.];B[gh];W[fg];B[fi]

(;W[ei];B[gi];W[aj];B[dm];W[cl];B[hk];W[ej];B[gk];W[ij];B[ii]
;W[kj];B[jj];W[kk];B[jk];W[kl];B[ll];W[sl]LB[kk:A]C[H: none of us saw that the A group was in atari :-)]
;B[sn];W[ka];B[kb];W[ia];B[la];W[ja];B[lb];W[ga];B[da];W[ir]
;B[jr];W[hr];B[js];W[il];B[is];W[hs]C[C:  small. T16 / T17 are sente for both sides, whoever gets to play there first will gain some points.]
;B[do];W[ep];B[mn];W[nl];B[sd];W[re];B[fa];W[ha];B[ad];W[ae]
;B[ak];W[ai];B[an];W[ao];B[bn];W[oo];B[qo];W[se];B[sc];W[kf]
;B[je];W[tt];B[gj];W[tt];B[ic];W[ed];B[jf];W[tt];B[tt]TW[fd]
[gd][ce][de][ee][fe][ge][qe][af][bf][df][ef][ff][gf][of][pf]
[qf][rf][sf][ag][bg][cg][dg][eg][lg][mg][og][pg][rg][sg][ah]
[bh][ch][dh][eh][lh][mh][nh][oh][ph][qh][rh][sh][di][ni][oi]
[pi][qi][si][nj][oj][pj][rj][rk][bp][fp][gp][hp][aq][cq][eq]
[fq][ar][br][cr][er][fr][gr][as][bs][cs][ds][es][fs][gs]TB[aa]
[ba][ca][ea][ma][na][oa][pa][qa][ra][sa][ab][bb][cb][db][mb]
[nb][ob][pb][qb][rb][sb][ac][kc][lc][nc][oc][pc][jd][ld][md]
[ig][ih][bl][cl][dl][am][ln][pn][qn][ko][lo][oo][po][ro][so]
[kp][lp][mp][np][op][pp][rp][sp][kq][lq][mq][nq][pq][qq][rq]
[sq][kr][lr][mr][nr][or][pr][qr][rr][sr][ks][ls][ms][ns][os]
[ps][qs][rs][ss]C[H: thanks again for reviewing this game!]
)
(;W[aj]C[C: too late];B[dm];W[cl];B[gj];W[gk];B[hk];W[ej];B[hl]
)
(;W[ej];B[aj]))
(;W[aj]C[C: this kills.];B[dm];W[cl]))
(;W[aj]C[C: this kills.];B[ak]))
(;W[bk];B[cl];W[bi]))
(;W[el];B[ek];W[fl];B[fk];W[gl];B[gk];W[gj];B[hl]
(;W[hk];B[em];W[dl];B[cl])
(;W[hm];B[em])))
(;W[il]C[C: better]))
(;W[rl]C[sente])
(;W[ib]C[sente])
(;W[im]C[attacking the weak group])
(;W[sc]C[sente])
(;W[ik]C[C: erases potential Black territory. You finally got there, because B was also playing slow.]
)
(;W[hr]))
(;W[lh]))
(;W[on];B[nm];W[mn];B[nl];W[pn]))
(;W[on];B[pn];W[oo];B[op];W[po];B[qo]
(;W[ol])
(;W[im])
(;W[rm])
(;W[re])))
(;W[im]))
(;B[aq]C[C: Black makes life.];W[ao];B[ar];W[bq];B[cp]))
(;W[ar]C[This kills.];B[aq];W[br]))
(;B[br]C[C: better, but insufficient.];W[cs]
(;B[bs];W[aq];B[ap];W[ar]C[dead])
(;B[aq];W[bs]C[dead])))
(;W[dc];B[cd];W[ce];B[be];W[bf];B[db];W[eb];B[cb];W[fc];B[bd]

(;W[jc])
(;W[gq]C[C: Even better. Makes K3 and K17 miai.]
(;B[jc];W[jq])
(;B[jq];W[jc]))))
