(;FF[4]GM[1]SZ[19]ST[2]CA[UTF-8]AP[SGFC:1.15]

PB[WindDance]
BR[5k]
PW[Confort1]
WR[4k]
KM[0.5]
DT[2005-05-10]
PC[The Kiseido Go Server (KGS) at http://kgs.kiseido.com/]
RE[B+Resign]
TM[1200]
OT[5x30 byo-yomi]
RU[Japanese]

C[Hi, I am white in this game and I was totally outgunned by my opponent, I think I didn´t handle the 3-3 invasion on my moyo very well, could you please give me some sugestions on how I should have dealt with it? thanks in advance

--
Sure. This was an interesting game to comment.
Opening was weard (but not bad) and thinking correct moves wasn't easy to me. 
 
The reason for your loss was interesting.
I hope you get some new ideas!

(I don't know how to remove variations so my bad ideas are included also. Don't take them too seriously.) 

--Simo];B[qp]C[Confort1 [4k\]: hi
WindDance [5k\]: Hello.
Confort1 [4k\]: have a good game];W[pe];B[ec];W[dp];B[pj]
(;W[nq]C[--
High approach with P4 or O4 probably better because B's Q10 stone. Now B P4 is a nice move.]

(;B[oq]C[--
Black could also pincer and make it complicated.
For me B P4 seems to be most powerful.];W[op];B[pq];W[np];B[qn]
;W[jq];B[pc]
(;W[qi]C[--
Defending corner with R17 is better.];B[qe];W[qf];B[qd];W[pf]
;B[nc];W[qj]C[--
Nice move, but I still prefer keeping the corner.]
(;B[pk]C[--
Big, but not necessary.]
(;W[cj]C[--
Luckily B didn't take sente.

Good point but it is a little bit uneffective. 
See variation.];B[cd];W[ej]C[Was this the right time for this move? or shoul I have first tried to ensure the corner?

--
This is a good move and it has good follow ups like C14 and F4. I think this is the correct idea.]
;B[cq]C[The 3-3 invasion that gave me all the trouble

--
Black is forced to this invasion. There should be no problems.]

(;W[dq]C[I think that I responded in the wrong direction, maybe playing at C4 would have been better?

--
Hard to say. Maybe C4 slightly better because now C10 and E10 stones look weard.]
;B[cp];W[co];B[bo];W[cn];B[bn];W[cm];B[dr];W[er];B[cr];W[fq]
;B[gj]C[Right, I don´t really know how to deal with this move, I think he just hit in the right spot, is there any good move to counter this?

--
B has to fight. So you should give him what he wants. There are a lot of aji in B's position.]

(;W[bd]C[--
This is not the correct strategy in positions like this. You have a lot of influence so you should fight.

This move and following tactical sequences are
the main reason for your loss. This move ignores whole board! 

See variations.];B[ce];W[cc];B[dc];W[cb];B[jd]C[--
Now B's G10 is a lot stronger. 
:(];W[be]C[--
Yes, you don't want to be even surrounded.];B[cf]C[B looks now better because he can counter your lower side moyo with G10. G10 is not weak anymore. 

--
Finding opponents weak points like R8 is important and there is still a change.]
;W[ee]C[I was trying to make him defend the upper side to maybe capture the G10 stone in a large scale

--
Shape point. Unfortunately B is pretty strong in upper side so this is an overplay. :(]
;B[di];W[dj]
(;B[dg]C[B F12 seems better. This is far too passive.];W[fh]
;B[fg]
(;W[gh]C[Hane at G13 maybe better.];B[ij];W[gg];B[gd];W[hi]

(;B[hj]C[Heavy.]
(;W[eh]C[A little bit passive.]
(;B[dh]C[Not necessary.];W[jh];B[kj];W[ql]C[I tried to separate the center group from the corner group to be able to attack, but i misread the semeai

--
Good move but bad timing. It is almost too late
to attack against B effectively because you have streghten B's center group.]
;B[pl];W[qm];B[pm];W[pn];B[rn];W[qk];B[nn];W[po];B[ei];W[fi]
;B[fj];W[eg]
(;B[ed]
(;W[ji]C[was this move apropriate? was there another move that I could have made to weaken this group?

--
This move is strenghtening B. B is strong. Attacking B's center seems hard for W. 

There are some possibilities with W K9 B K10 W N9.]
(;B[kk];W[jj];B[jk];W[il];B[ik];W[nk]C[Now I wanted to separate both walls to capture at least one of them, but I think that I got it wrong somewhere

--
B's groups are too strong. It is hard to kill.];B[nj];W[mj]

(;B[ni];W[mk];B[mi];W[li];B[lj]
(;W[lh]C[was this move necessary? was there another sequence that I could have played?

--
W M12 is very important, but if you want to win this game you can not sacrifice N9 stones. 

It seems that M12 is a must if you want to save your G12 group.]
;B[lm]C[There, he managed to capture the 3 stones, or is ti a way to save them?

--
Seems impossible.];W[ll];B[km];W[mm];B[mn];W[om];B[on];W[oj]
;B[oi];W[pi];B[ok];W[ol];B[oj]C[I lost the semeai by one move

--
Game over. No more comment after this point.

Your fuseki was powerful and I think you were slightly better off in the beginning. 

G10 was a normal reducing move which totally confused you. This game was a good example how to play tactically well but by ignoring whole board aspects it can result a terrible position.

I hope you get some fresh ideas.

--Simo Eerola, 2 dan];W[lc];B[kc];W[de];B[dd];W[oh];B[nl];W[ic]
;B[id];W[kb];B[jc];W[jb];B[ib];W[hc];B[hb];W[gc];B[gb];W[mb]
;B[ld];W[mc];B[nb];W[md];B[le];W[nd];B[od];W[ob];B[oc];W[nf]
;B[mf];W[oe]C[From this point on I don´t see how I can recover this game, so I lost my concentration and the moves from here on are simple sad. I even managed to lose the top left corner. Can you give me some sugestions? Thank you for your attention.]
;B[fe];W[ef];B[lq];W[lp];B[kp];W[lr];B[kq];W[kr];B[jp];W[iq]
;B[ip];W[hq];B[go];W[ge];B[he];W[ff];B[gf];W[hf];B[eo];W[ge]
;B[fd];W[bh];B[bf];W[ke];B[kf];W[je];B[hd];W[jf];B[kd];W[fa]
;B[db];W[da];B[ae];W[ac];B[bb];W[ba];B[ab];W[df];B[cg];W[nh]
;B[nm];W[lg];B[do];W[ci];B[el];W[fb];B[fc];W[ea];B[ia]C[WindDance [5k\]: thanks
Confort1 [4k\]: thx])
(;W[mm];B[ki]
(;W[lh];B[kh]
(;W[lg];B[kg];W[lf];B[kf]
(;W[ff];B[ig];W[hf];B[ge])
(;W[hf])
(;W[ge])
(;W[gf];B[ig];W[if];B[jf]))
(;W[kg];B[lg];W[mh];B[lf]
(;W[jf])
(;W[mg])
(;W[ng];B[ff];W[kf];B[le];W[gf];B[fe];W[ig];B[ii];W[ih];B[if]
;W[ie];B[jf];W[ke];B[je];W[kd])))
(;W[jf];B[lh];W[mn])))
(;B[mk]C[This is correct.];W[oj];B[ni];W[nl];B[ml]))
(;B[kl]))
(;W[lk];B[lj];W[mj];B[mk];W[ll];B[mi];W[nj];B[ni])
(;W[mj];B[mk])
(;W[jk];B[jj];W[mk]
(;B[lk];W[ml];B[mj];W[nj];B[mi];W[ni])
(;B[mj];W[nj];B[mi];W[ni])))
(;B[kn];W[dd]
(;B[ed];W[de];B[ef]
(;W[ff];B[fe])
(;W[fe];B[ff];W[ge];B[gf];W[hf];B[df];W[hd]))
(;B[ef];W[fe])))
(;B[lj]))
(;W[ff])
(;W[jh]))
(;B[il]))
(;W[gg];B[gh]
(;W[gf];B[fi];W[eh];B[ei];W[eg])
(;W[fi];B[hh]
(;W[gf];B[eg]
(;W[if];B[jg];W[ig];B[ih];W[jh];B[ik];W[ke];B[kg];W[kd])
(;W[gd]
(;B[ed];W[jf])
(;B[gb];W[jf])
(;B[if]
(;W[gb])
(;W[ed];B[dd];W[gb];B[fb];W[fc];B[ea];W[db];B[eb];W[bh];B[bf]
;W[ab];B[hc];W[gc];B[hb];W[ga];B[ef];W[ff];B[he];W[ge];B[hd]
;W[cg];B[ha];W[bg];B[hg];W[af];B[hf];W[da];B[ei];W[fj];B[dh]
;W[ci];B[de];W[eh];B[fe];W[fd])))
(;W[fd]))
(;W[eg];B[ff];W[gf];B[fe];W[ge];B[fd])
(;W[hg];B[ig];W[ge]))
(;W[hh];B[gi];W[fi];B[hg];W[gf])
(;W[gi];B[hh])))
(;B[fh]))
(;W[ij]C[This is a move where B wants to play. Now only way for B is to run.]
;B[gh]
(;W[ih];B[gf]
(;W[pm]
(;B[qm];W[ql];B[qk];W[rl];B[pl];W[rk];B[om];W[pn];B[po];W[on]
;B[nn];W[oo];B[nk];W[nm])
(;B[rl];W[qk])
(;B[ql];W[qm];B[rm]
(;W[rl];B[rk];W[rn];B[sl];W[qo];B[ro];W[pn];B[sn];W[rp])
(;W[rn];B[rl];W[qo];B[ro];W[pn];B[sn];W[rp];B[qn];W[od];B[oc]
;W[rn];B[so];W[pp];B[qq];W[gk];B[fk];W[hk];B[fj];W[fl];B[ek]
;W[el];B[dk];W[nk])))
(;W[ql];B[pl]
(;W[pm];B[qm];W[qk];B[on];W[om];B[nm];W[ol];B[nl];W[ok];B[nk]
;W[oj];B[nj];W[oi];B[pn];W[nn])
(;W[qm];B[pm];W[pn];B[rn];W[qk])))
(;W[ql]C[B is in trouble.];B[om]
(;W[pm];B[pn];W[on];B[qk]
(;W[rk])
(;W[ol];B[rl];W[nm];B[qm]))
(;W[pn]
(;B[qk])
(;B[qm];W[pm];B[qk];W[rk];B[rl];W[pl];B[rj];W[rm];B[sk];W[qo]
;B[rn];W[ro];B[sm];W[rp])))))
(;W[cp];B[dq];W[eq];B[er];W[fq];B[fr];W[gq];B[bp]
(;W[bq])
(;W[bo];B[bq];W[cn];B[gj];W[cf])))
(;W[cd])
(;W[de];B[cd];W[ce];B[bd]
(;W[ci];B[fd];W[co]C[--
White has nice moyo.])
(;W[fe];B[ck];W[cm];B[ch]
(;W[fc];B[ed])
(;W[gd];B[ek];W[em]))))
(;B[cn]))
(;W[qc];B[qb];W[qd];B[ob];W[qh];B[md])
(;W[nd];B[qe];W[qf];B[qd];W[pf])
(;W[oc];B[ob];W[od];B[nc];W[pb];B[qb];W[nb];B[pa];W[mc];B[qd]

(;W[nd])
(;W[le])))
(;B[lp]
(;W[no];B[pn];W[jp])
(;W[op]))
(;B[op]
(;W[pr];B[lq];W[np];B[no];W[mo];B[mp];W[oo];B[nn];W[pp];B[po]
;W[oq];B[on];W[qo];B[op];W[lp];B[pq];W[mq])
(;W[np];B[oo]
(;W[jq]
(;B[oq];W[qh])
(;B[qg]))
(;W[pr];B[kp]))))
(;W[op];B[lp]
(;W[pm];B[oo];W[no];B[on];W[pp];B[qn];W[nn];B[om];W[qq];B[qo]
;W[pr])
(;W[qq];B[rq];W[pq];B[ro];W[lq]
(;B[mq];W[mp]
(;B[nq];W[np];B[kq];W[lr];B[kr];W[lo];B[kp];W[om])
(;B[mr];W[lr];B[np];W[mo];B[nq];W[no];B[oq];W[pp])
(;B[kq];W[lr];B[mr];W[kr]
(;B[np];W[mo];B[no];W[nq];B[nr];W[oq])
(;B[kp])))
(;B[kq];W[mq];B[kp];W[on]))))
