(;FF[4]GM[1]SZ[19]AP[SGFC:1.15]

PB[Harukaze]
BR[1d]
HA[0]
PW[Buran]
KM[6.5]
DT[2005-05-11]
RE[W+R]

C[JiangQian: I'll do some review.];B[qd];W[dp];B[pq];W[dc];B[oc]
;W[po];B[nq];W[qq];B[qp];W[pp];B[rq];W[qr];B[pr];W[qo];B[rp]
;W[ro];B[rr];W[qk]C[My friend says no one played this joseki anymore, is it true?
Why?



Because ppl think one side is better in the joseki?
I do not think that's a lot of difference.];B[de];W[ce];B[cf]
;W[cd];B[df];W[fc];B[dj];W[cm];B[qi]LB[qh:a][qg:b]C[down side white is strong, this move is too close to it.]
;W[jd];B[lc];W[ke];B[hd]LB[oi:a][oe:b][pg:c]C[I think this move is too slow since white is light and right
side is bigger than this open area.

Yes you are right.];W[qg];B[ph];W[qe];B[rd];W[of];B[me]C[My sense tell me that if I let white connect, 31 will go to waste
and two stones on the right will be very meaningless.


yes];W[ng];B[ni];W[pd];B[pc];W[nd];B[le];W[lh];B[kf];W[mj];B[pk]
;W[qj];B[pj]C[this move isn't neccessary, white may kill me, right?



I cannot see what's wrong with this move.]
(;W[ri];B[nl];W[pl];B[ol];W[qh];B[pm];W[ql];B[no];W[eq];B[mg]
C[should I cut now? Maybe extend on the lower side first and wait
for opportunity?


I'll cut, too. I feel these fight is bigger than downside. And there is a high chance that you can get sente after attacks and then extend on the lower side.]
;W[mh];B[nh];W[jh];B[jf];W[ll];B[kj];W[lj];B[km];W[nj];B[oj]
;W[ii];B[jk];W[mm];B[on];W[nn];B[oo];W[kl];B[jl];W[jm];B[kn]
;W[im];B[hl];W[hj];B[jn]C[big misread!];W[hq];B[hn]C[I got out of my misread, but lose attacking tempo.
Still, I think there're chance the white group can die.

hehe];W[hg]
(;B[gi];W[gj];B[fi];W[gl];B[hm];W[fj];B[dm];W[dl];B[el]C[Is 93-95 good? Is there other way?]
;W[ek]C[this isn't what I expecting at all.


right];B[dk];W[cl];B[ej];W[fk];B[en]C[I don't know how to play other than this.]
;W[fm];B[em];W[fn];B[cp];W[co];B[bo];W[cn];B[cq];W[dr];B[bs]
C[I'm under byo-yomi, must it be at 2-2?


This move looks good.];W[cr];B[br];W[bn];B[ao];W[hc];B[ic];W[gd]
;B[hb];W[gc];B[id];W[bj]
(;B[gf];W[io];B[in];W[dh];B[ci]C[Form now on it's desparate plays.]
;W[ch];B[bi];W[bh];B[ah];W[cj];B[di];W[ag];B[bf];W[ai];B[bc]
;W[be];B[ad]C[Well...not so good.];W[af];B[cc];W[dd];B[db];W[eb]
;B[ca];W[bd]C[Thanks for your effort in reviewing!


Thank you.])
(;B[ci]))
(;B[dm];W[dl];B[el];W[ek];B[dk];W[cl];B[fl]C[looks better, seems G11 F11 in real play not good.]
))
(;W[nl];B[ql];W[rl];B[rk];W[rj];B[ri];W[sk];B[si];W[sj];B[rf]
)
(;W[nl];B[ql];W[ri];B[rj];W[rk];B[rl];W[sj]
(;B[sl];W[rh];B[om])
(;B[sm];W[rh];B[so])))
