(;FF[4]GM[1]SZ[19]AP[SGFC:1.15]

PB[kilroy]
BR[9k]
PW[Simba]
WR[9k]
KM[6.5]
DT[2005-05-28]
PC[The Kiseido Go Server (KGS) at http://kgs.kiseido.com/]
RE[W+32.50]
TM[900]
OT[5x30 byo-yomi]
RU[Japanese]

;B[qd]C[kilroy [9k\]: hi
Simba [9k\]: Hallo!];W[dc];B[pq];W[cp];B[oc];W[fp];B[qo];W[pj]
;B[pl]C[Mirage: R12 better];W[pg];B[cj];W[cl];B[cg];W[ce];B[hq]
;W[lq];B[jq]C[Mirage: F2 better];W[gq]
(;B[in]C[Mirage: L5 better, to attack M3 white stone];W[ln]
;B[il];W[fl];B[ll]C[I was wondering if this is a good follow up to the H3 invasion.

Mirage: You should attack the 2 white stones. But the connection between J6 and the 2 stones (H3 and K3) is weak. Maybe it is better to strengthen it first. Your J6 and J8 seem to be escaping. It is better to attack white instead of escape because white stones are even weaker than black. See the variation at move 19]
;W[kl]
(;B[lm]C[Mirage: L7 better];W[km];B[kn];W[jn];B[ko];W[jo];B[jm]
;W[kp];B[lo];W[lp];B[mo];W[jp]
(;B[hp]C[Mirage: better connect at H5];W[ho];B[io];W[ip];B[go]
;W[hn];B[im];W[iq];B[gn];W[hr];B[gp];W[fr];B[kk]C[Mirage: better E6 invade]
;W[fn];B[gm];W[fm];B[jc];W[gc];B[je];W[md];B[ne]C[Mirage: P15 better because of better shape]
;W[me];B[nf];W[ng];B[mf];W[lf];B[lg];W[mg]
(;B[le]C[Mirage: L14 better. See variation.];W[kf];B[ke];W[jf]
;B[lh];W[of];B[oe];W[pe];B[pd];W[qe];B[oh];W[og]
(;B[ni]C[Mirage: R13 better, tesuji];W[ph];B[if];W[nj];B[mj]
;W[oi];B[nh]C[Mirage: O9 better];W[eg];B[ej];W[fj];B[ek];W[el]

(;B[qi]C[Mirage: Left black group not safe yet];W[qj];B[pi]
;W[oj];B[ri];W[rj];B[qg];W[re];B[rd];W[rg];B[mh];W[qh];B[df]
;W[de];B[ef];W[fe];B[fg];W[nm]C[in the following i lose the bottom couner, i would like to know where my overplays were and why they are overplays]
;B[nl];W[ol];B[om];W[ok];B[nn];W[on];B[pm];W[op]
(;B[np]C[Mirage: P3 better. See variation];W[oq]
(;B[nq]C[Mirage: Q2 better];W[nr];B[mr]C[Mirage: still Q2, vital point]
;W[pr];B[mq]C[Mirage: R3 better];W[pp];B[qq]C[Mirage: R4 better. In this stage, the corner is lost. What you should do is to make white live smaller.]
;W[qp]
(;B[rq]C[Mirage: S4 better];W[rp];B[qr];W[pn];B[qn];W[qm];B[ro]
;W[so];B[sr];W[rs]
(;B[sp]C[Mirage: From my calcalation, black need to win another Ko even if black win the this Ko]
;W[sq];B[qf];W[rh];B[sp];W[sn];B[sm];W[sq];B[kr];W[ir];B[sp]
;W[ql];B[mm];W[sq];B[or];W[os];B[sp];W[pk];B[nm];W[sq];B[cc]
;W[sp];B[bd];W[be];B[db];W[ec];B[bb];W[gg];B[gf];W[ff];B[fh]
;W[hf];B[hg];W[ge];B[hh];W[cq];B[ga];W[cf];B[dg];W[bg];B[bh]
;W[af];B[fb];W[ee];B[fc];W[fd];B[fk];W[gl];B[hk];W[gk];B[gj]
;W[hl];B[hm];W[hj];B[fo];W[eo];B[ep];W[fq];B[en];W[do];B[dl]
;W[ik];B[em];W[gi];B[gh];W[dm];B[cm];W[dk];B[bl];W[bm];B[ck]
;W[cn];B[dj];W[dl]
(;B[ji]C[Mirage: H15 quite big];W[gb];B[eb];W[ha];B[fa];W[ib]
;B[jb];W[sd];B[hd];W[ie]
(;B[id]C[Mirage: J13 better];W[ig];B[dd];W[ed];B[cd];W[nc];B[od]

(;W[lc]C[I would also like to know if there is a better way for me to try to win this fight.

Mirage: See variation. I think this is the best way. This is not a difficult fight if you play S18 instead of P18]
;B[gd];W[nb];B[sc];W[se];B[ob];W[rc];B[rb];W[sb];B[qc];W[sc]
;B[pb];W[ra];B[qa];W[qb];B[na];W[ma];B[rb];W[ch];B[dh];W[qb]
;B[mb];W[oa];B[rb];W[sa];B[lb];W[kb];B[kc];W[qb];B[pa];W[na]
;B[ld];W[nd];B[rb];W[bi];B[mc];W[ah];B[he];W[gf];B[if];W[qb]
;B[la];W[ie];B[ci];W[bh];B[if];W[eh];B[ei];W[ie];B[ad];W[ae]
;B[if];W[lr];B[ls];W[ie];B[oo];W[po];B[if];W[jk];B[jl];W[ie]
;B[rn];W[rm];B[if];W[ns];B[ms];W[ie];B[ps];W[or]C[kilroy [9k\]: thanks]
;B[if];W[mp];B[no];W[ie];B[qs]C[Mirage: ?];W[if];B[jh];W[ih]
;B[ii];W[jj];B[kj];W[bk];B[bj];W[al];B[aj];W[nk];B[mk];W[jr]
;B[ks];W[kq];B[ak];W[bl];B[ij];W[hk];B[hi];W[js];B[fi];W[gj]
;B[kg];W[rb];B[tt];W[tt]C[kilroy [9k\]: thanks
Simba [9k\]: thank you

Finally i would like to know what you think my main problem with the game was, was it faulty reading like Q11, or some other reason(s).

Mirage: Before or during attacking, realize and clear your own weakness. Beware of opponent's counterattack. Don't miss out vital points, especially in fight (eg. move 121, 219, 231). And of course, avoid careless move (eg. move 299)]
)
(;W[lc];B[gd];W[nb];B[sc];W[se];B[rb];W[pb];B[qb];W[kb];B[mb]
;W[ja];B[hb]))
(;B[ig];W[hc];B[id];W[gd])
(;B[ig];W[id];B[he];W[gf];B[ic];W[gd];B[hc];W[cd]))
(;B[he];W[gf];B[hd];W[gd];B[eb];W[cd]))
(;B[sp];W[po];B[sn];W[rm];B[qs];W[ps];B[ns];W[or];B[oo]C[Mirage: black needs to win 2 Ko in order to live]
))
(;B[rp];W[rq];B[sq];W[rr];B[rn]))
(;B[pr];W[pp];B[qp];W[or];B[oo];W[po];B[pn];W[nq]))
(;B[oq];W[np];B[nq];W[mp];B[oo];W[pp];B[qp];W[po];B[pn]))
(;B[tt];W[di];B[ck];W[bh]))
(;B[qg];W[qh];B[re])
(;B[qg];W[re];B[ph];W[qh];B[qi];W[rh];B[ri];W[rg];B[pi]C[Mirage: S16 is sente for black]
))
(;B[kf];W[le];B[lh]))
(;B[ho];W[ip];B[hp])
(;B[ho];W[hp];B[ip];W[gp];B[io])
(;B[ho];W[io];B[ip];W[hn];B[gr];W[fr];B[gp];W[fq];B[gn];W[im]
;B[hm];W[jl];B[fo];W[eo];B[en];W[do];B[ik]))
(;B[km];W[lm];B[jm];W[ml];B[lk];W[nm];B[oj]))
(;B[ko];W[oq];B[pr];W[mo];B[np]))
