(;FF[4]GM[1]SZ[19]ST[2]CA[UTF-8]AP[SGFC:1.15]

PB[AndyChrist]
BR[20k]
PW[tso]
WR[20k]
KM[6.5]
DT[2005-06-14]
PC[IGS-PandaNet]
RE[W+36.50]
RU[Japanese]

C[Hello. I'm KGS's Agilis, currently ranked 13k, and I'll be reviewing both sides of this game. I shall mark my comments to distinguish from the ones already in place.]

(;B[pd];W[dp];B[pq];W[dd];B[qk];W[nc]C[I think is is pretty much the standard Chinese Opening, upto here anyways.]
;B[pf]C[[Agi\] Yes, O17 is quite standard, as isQ14 response.]
;W[po]TR[pb][kc][jd][kd]C[[Agi\] Q5 here is not really standard. First priority should be given to settling O17 somewhat or laying a framework near the triangled points. Black can make a lot of profit on the sides if O17 loses its base and is chased.]
;B[np]C[[Agi\] That said, answering Q5 might be more urgent, in which case O4 is a perfectly normal response. Safety before attacking is always reasonable if you lack the confidence to defend your Q3 stone after another white move down there.]

(;W[ql]TR[pl][qm][qq]C[[Agi\] I find this attachment very suspicious. More common moves are at the triangled points. I am sure white is trying to pick a fight. It is likely white is confident about their reading.]
;B[pl];W[qm]C[[Agi\] White has taken Gote here, the temptation to attack is strong. [see variation\]]

(;B[pj];W[qq];B[qr];W[rq];B[fq]TR[or]C[[Agi\] There's a weakness in this position I feel the need to fix. White is essentially alive now and black looks thin on the bottom with just 3 stones. [see variations for some ideas\]]

(;W[eq];B[fp]TR[jp][jq]C[[Agi\] E3 shouldn't be played unless  there is a white stone  at the marked points. The idea here is, with a stone around K3/K4, to make the black group heavy and unable to make a base, making it cumbersome to run with.]

(;W[gq]C[[Agi\] I cannot call this anything but overplay. It is like an invasion, that attaches to a wall on the first move in.]

(;B[fr];W[gr]TR[do]SQ[dp][fp][eq][fq]C[[Agi\] The triangled point tends to be a weak spot to that particular formation of squared stones. Black has the chance of severely damaging white's corner.]

(;B[jq];W[iq];B[ip];W[er]C[I think I am doing decently well upto here.]
;B[fs]C[[Agi\] Black properly punishing white for the G3 mistake]
;W[hp];B[ho];W[gp];B[go]C[I am a little worried about my lower group.

[Agi\] In this situation, I'd say white is also very worried about the lower group also. Black can run away. White HAS to make eyes in that tiny space.]
;W[jp]C[[Agi\] continuing the attack seems almost obligatory. [see variation\]]

(;B[jo];W[io];B[in];W[ip];B[ko]C[I chose to sacrifice a stone for more outward influence.

[Agi\] Sacrificing things sometimes is well and good, but you should try to get the most work out of the sacrifice as possible.]
;W[jr];B[kq];W[kr]C[Here, I debated if I should have done the alternate B41.
But, I was somehow uncomfortable. Maybe, that's my instincts being not as they should be.]

(;B[lq];W[kp];B[lp];W[lr];B[cj]TR[hn][jn][fo][lo][or]C[I went for one of the remaining large points. I think all my groups are safe. Although now that I am looking at this again. I thik my lower right seems a little thin, and fraile.

[Agi\] At this juncture, White has lived on the bottom. Black has influence, yes, but there are weaknesses which worry me and can probably be exploited later. F5's cutting point in particular worries me. as does M5. 
K6/H6 aren't as important seeming as those three other points but can still cause trouble later on. As a rule of thumb, 2-stone walls are usually okay, but if  one section gets in a bad spot, a large chunk of it can break down in a very messy cascade. Always keep an eye on them especially near end-game.]
;W[ci]C[[Agi\] Again with the attaching. This is an imitation of some Korean games I've seen but I don't understand it enough to comment with any certainty. My feeling is that this is simply bad play.]
;B[di];W[ck]C[[Agi\] This clamp is very strange to say the least. Black can soundly split white up if he chooses. [see variation\]]

(;B[dk];W[bj];B[dj]C[Again outward influence. I thought it was a good idea.]
;W[ch];B[cl];W[bk];B[dg];W[cg];B[dn];W[cn];B[fc];W[ec]C[[Agi\] Again, this isn't a recommended play. The presense of O17 makes things slightly less bad, but hardly enough.]
;B[fd];W[gc]TR[ec][fc][dd][fd]C[[Agi\] This marked sequence strikes me as very peculiar and hurts white more than helps. White is inviting black to cut with F18. [see variation for rough idea\]]

(;B[gd];W[hc];B[id];W[ic];B[jd];W[jc];B[kd];W[kc];B[ld];W[lc]
;B[ne]C[I am really happy up to here.

[Agi\] Black's center moyo is certainly impressive, the game hinges on white's reduction, though it seems extremely difficult, there is only 1 tiny doorway inside on the upper left, and another slightly wider one on the bottom right.]
;W[md];B[me];W[pc];B[nd];W[mc];B[qc];W[pb]
(;B[fn];W[do];B[eo];W[ep];B[dm];W[bl]
(;B[ef]C[[Agi\] I think you can get away with a simple extension, though this works also. [see variation\]]
;W[df];B[eg];W[ed];B[ee];W[de];B[on];W[pm];B[om];W[cm];B[dl]
;W[dh];B[eh];W[hd];B[he];W[fb];B[ge];W[rk];B[rj];W[sk]
(;B[ok];W[qb];B[rc];W[rb];B[rd];W[sc];B[sd];W[sb];B[sj];W[rm]
;B[oo];W[pp];B[oq];W[pn];B[kj]C[[Agi\] I feel this is almost 1 point loss in gote. with so much black power along the sides, an invasion shouldn't expect to work if black is very careful.]
;W[rr];B[pr];W[gs];B[es];W[cr];B[cs];W[bs];B[ds];W[bq];B[mr]
;W[ms];B[ns];W[ls];B[nr]C[All the way up to here, I was really happy with my game. However, now in hine sight, I am kinda wondering whey he didn't challenge me more about the center. But then it started to crumble.]
;W[lo]C[I deal with this move badly, I think. Maybe I should have just gone for the k6. But I was worried about the black stones on the bottom. Again in hind sight, I think they could have bee able to live on their own.]

(;B[ln];W[hn]
(;B[hm]C[Again, here maybe I should have gone to j7 in stead.]
;W[jn];B[im];W[kn]
(;B[km];W[jm];B[jl]C[I probably should have read this out a bit more, and reduced my losses. I think I paniced and just tried to stop white from taking more blindly.

[Agi\] It is easy and natural to panic when things start to crumble, when something goes wrong like this, just admit it's going to hurt and be willing to pay a few extra points to minimize the pain. Leaving weaknesses in your positions was what started the trouble, so remember not to repeat the mistake! =)]
;W[lm];B[ll];W[kl];B[kk];W[km]
(;B[mn];W[ml];B[lk];W[mm];B[mo];W[ko];B[mk];W[nj];B[nk];W[ie]
;B[le];W[od];B[oe];W[oc];B[ik];W[qe]C[I now think B166 is a mistake. I should have played R16 maybe.]

(;B[qd]C[Mis-read.];W[pe];B[re];W[qf]
(;B[qg];W[rf];B[rg];W[se];B[og];W[sg];B[sh];W[sf];B[rs];W[sr]
;B[nm];W[dr];B[fo];W[bf];B[nl];W[rh];B[si];W[ph];B[qh];W[pg]
;B[qi];W[of]
(;B[ng];W[nf];B[mf];W[pf];B[oi];W[oh];B[nh];W[ni];B[mi];W[mg]
;B[mh];W[lg];B[if];W[je];B[jf];W[ss];B[qs];W[cc];B[pi];W[tt]
;B[tt];W[tt]C[Yeah, the following there is of no consequence. I was just having a hard time with the program. I usually played on KGS, but I thought I would try IGS for once.]
;B[ji];W[tt]C[Observing game 174 (tso vs. AndyChrist) :
Found 0 observer.];B[tt];W[tt]TW[aa][ba][ca][da][ea][fa][ga]
[ha][ia][ja][ka][la][ma][na][oa][pa][qa][ra][sa][ab][bb][cb]
[db][eb][gb][hb][ib][jb][kb][lb][mb][nb][ob][ac][bc][dc][qc]
[rc][ad][bd][cd][pd][qd][rd][sd][ae][be][ce][re][af][cf][ag]
[bg][ah][bh][ai][bi][aj][ak][al][rl][sl][am][bm][sm][an][bn]
[qn][rn][sn][ao][bo][co][jo][qo][ro][so][ap][bp][cp][qp][rp]
[sp][aq][cq][dq][hq][sq][ar][br][hr][ir][as][hs][is][js][ks]
TB[fe][ie][je][ke][ff][gf][hf][kf][lf][fg][gg][hg][ig][jg][kg]
[lg][mg][fh][gh][hh][ih][jh][kh][lh][rh][ei][fi][gi][hi][ii]
[ki][li][ni][ri][ej][fj][gj][hj][ij][jj][lj][mj][nj][oj][qj]
[ek][fk][gk][hk][jk][pk][el][fl][gl][hl][il][ol][em][fm][gm]
[en][gn][hn][nn][no][mp][mq][nq][or][os][ps]C[You can check your score with the score command, type 'done' when finished.
Click on a group of stones to mark it dead and remove it from the board.
AndyChrist is removing @ H6
AndyChrist is removing @ M13
AndyChrist is removing @ K15
AndyChrist is removing @ O10
tso has typed done.
AndyChrist is removing @ S12
tso has typed done.
tso: 115.5 to AndyChrist: 79.0
AndyChrist: good game
AndyChrist: thank you])
(;B[nf]C[Maybe this is what I should have done?];W[ng];B[pf]
;W[oh];B[of]C[Sorta worried about somethink like this. Probably not the best way of exploiting black by white. Just I ws just worried.]
;W[pi]))
(;B[rf]C[[Agi\] the beginning of a rather long journey. So long as black stays calm and keeps connection, white doesn't have a prayer.]
;W[qg];B[rg];W[of];B[pg];W[qh];B[ph];W[qi];B[qj];W[pi];B[og]
;W[oh];B[nf];W[ng];B[of];W[ni];B[oj];W[oi];B[mg]))
(;B[pe]C[I guess this move works too]
(;W[qd]
(;B[qf])
(;B[re]
(;W[rf];B[qf])
(;W[qf]
(;B[rf];W[qg];B[rg];W[pg];B[og]
(;W[ph])
(;W[oh];B[nh];W[qi];B[qj];W[oj]))
(;B[qg]))))
(;W[re])))
(;B[ml]C[Maybe this is a better move? Again, I was worried about my lower stones.]
))
(;B[lm];W[kl];B[km];W[jm];B[jl]))
(;B[im]))
(;B[jn]C[[Agi\] I believe you've found a proper firm reply.]
))
(;B[sj]C[[Agi\] This is sente. If white ignores... take your sente when 1) it's big and will be answered, and 2) when you have the opportunity. Better to push than to be pushed.]
;W[rr];B[rl]))
(;B[df]C[[Agi\] Don't see any particular reason why this wont work.]
;W[ee];B[ff];W[dh];B[eh];W[ef];B[eg];W[fe];B[ge]))
(;B[qb]C[[Agi\] This point is large, but you are correct in defending, that weakness on the bottom has become huge.]
))
(;B[fb]TR[db][jc]C[[Agi\] At this point White must defend something - either the corner, or that top center group. D18 takes a very large chunk of the corner away, and with so much black thickness around, the top center group is in deep trouble and can probably be attacked for profit.]

(;W[jd];B[db];W[cc];B[cb];W[bb];B[df];W[cf])
(;W[eb];B[jc])))
(;B[bi];W[ch];B[dj]))
(;B[kp]C[[Agi\] This variation allows for this potential follow up later, which abuses the weakness I mentioned earlier.]
;W[mq];B[mp];W[or]
(;B[pr];W[oq];B[op];W[pp])
(;B[oq];W[pr])))
(;B[io]C[[Agi\] White hard pressed to find a continuation.]

(;W[kq];B[jr])
(;W[jr];B[kq];W[hr];B[kr];W[is];B[pp];W[qp]
(;B[do]
(;W[eo];B[ep];W[fo];B[en]C[[Agi\] Black is still fine.])
(;W[co];B[eo]C[[Agi\] one way to try to protect cut, but ends in gote, so not as desirable.]
))
(;B[oo])
(;B[ep];W[cq];B[do];W[co];B[dn]))))
(;B[do];W[co];B[dr];W[cr]
(;B[eo])
(;B[dn];W[cn];B[ep];W[dq];B[er])))
(;B[er];W[dr];B[gr]C[[Agi\] Also a possibility.]))
(;W[dn];B[jp]C[[Agi\] This is a usual continuation for both sides. Notice how this is 'too good' for black.]
))
(;W[or];B[pr];W[oq];B[op];W[mq];B[pp];W[qp]C[[Agi\] Black is baseless and on the run.]
)
(;W[oq];B[pp];W[op]
(;B[oo];W[pr])
(;B[or];W[qp];B[pr]
(;W[no];B[nq];W[oo])
(;W[nq]
(;B[nr];W[mq])
(;B[oo];W[no])))))
(;B[qp]C[[Agi\] Strike at the base, AND take the corner. White is left with little choice but to run.]

(;W[nn];B[pj])
(;W[pk]C[[Agi\] This cut does seem worrying doesn't it?]
(;B[pj];W[ok])
(;B[ol];W[qj];B[rk];W[rj];B[rl];W[rm]C[[Agi\] so no good on this line.]
)
(;B[qj]
(;W[ol];B[pm];W[om];B[pn];W[on];B[qn];W[qo];B[rn]C[[Agi\] the cut doesn't quite stick.]
)
(;W[pm];B[ol]C[[Agi\] Or black laughs all the way to the bank attacking 2 weak groups.]
)))))
(;W[qq];B[qr];W[qp];B[or];W[qm]))
(;B[hm])
(;B[gm]))
