(;FF[4]GM[1]SZ[19]ST[2]CA[UTF-8]AP[SGFC:1.15]

PB[b3b0p]
PW[Marten]
KM[4.5]
DT[2005-06-16]
PC[The Kiseido Go Server (KGS) at http://kgs.kiseido.com/]
RE[B+34.50]
RU[Japanese]
US[William D. F. Dawson]

C[Hello,

First time submitting a game, I've just started to know go 3 weeks ago and hav

e been reading it since then (mostly GTL reviewed sgf ^^). So I'm beginning to

 play on KGS and this is my first game. I'm not ranked but I'm assuming around

 30K.

I felt that this was a really fun interesting game. I thought I made a lot of 

mistakes with making a living group in the bottom center, but overall I felt I

 played decent. But I'd really like to know what I'm playing wrong, good, and 

what I can do better to improve..

Thanks in advance...
Agung (b3b0p)
-------------------
I think you're better than 30kyu, but just keep playing games and you'll even
tually get ranked.

Since you won there is only so much I can correct, but I'll do what I can.]
;B[pd];W[pp];B[dd];W[dp];B[nc];W[mq];B[dn];W[fo];B[bo]C[b3b0p: is this good?
--------------
I really don't know, but I think that's where I would play.]
;W[en];B[dm];W[em];B[dk];W[dl]
(;B[el]CR[dl]TR[dk]SQ[dm][dn][bo]C[That's a pretty agressive move right there.  If black is able to keep D8 
alive, the triangle stones and square ones will be cut apart, and neither of t
hem are that strong of groups.  Additionally, if you had just played C8, you c
an secure the left.];W[cl]
(;B[fl];W[cn];B[ck];W[do]C[b3b0p: i wanted to cut the group but my 2 stones is dying

B7 at move 17 seems to be the only way to retaliate, but it gets difficult.]
;B[bl];W[cm];B[bj];W[bm];B[fj]C[This move doesn't look big enough to me.  If you want to secure the lef
t, I would go with d or c 13 to strengthen the top left stone as well.  You mi
ght also consider playing along the top or right side here.]
;W[gl];B[gk]C[b3b0p: panic!!

Calm down than :).  White things he's got the attack here, but he's just wasti
ng moves.  Use this time to counterattack around k4, or make some territory on
 the right or top.];W[hl];B[hk];W[jk];B[jm]C[b3b0p: want to divide white's teritory

He doesn't have much territory on the bottom though.  He's vunverable along th
e bottom.  Instead of cutting, invade.];W[im];B[il];W[hm];B[jl]
;W[kk];B[jn];W[jo];B[pj]C[That's pretty daring, but since white seems pretty loose on the bottom 
it's an okay risk to take.  Don't forget that you're still weak at j9 though.]
;W[mj];B[mh];W[ki];B[kg]C[That's a good appraoch.  While white tries to live, you build territory
 along the edges.];W[ii];B[hh];W[ik];B[pn]C[Q6 is too far away from the k6 group.  I suggest playing around m7 to b
oth threaten his l9 group and attempt to escape.  Your group can also expand d
ownwards because k5 is a pretty weak.];W[on];B[am]SQ[id][jm]
[pm]C[b3b0p: i want to surround the group here... is there any advice?

You can't do it, don't try.  No need to be greedy, you've got the lead already
.  You have 3 areas you need to focus on (see the squares).  First, the top ne
eds to be secured from an invasion, something you can't do in one move.  Secon
d, you need to extend Q6 upwad to keep the right safe.  Finally, you can look 
for a way to save Q6, or at least use it to secure territory elsewhere.]
;W[an];B[ak];W[al];B[lo];W[bk];B[aj];W[bl];B[ci]C[Because you had to play C11, the KO you created only ends up hurting yo
u.  Starting a KO can be very helpful, but it didn't end up letting you play m
5 in sente this time :(.  As you get better at reading out sequences, you'll b
e able to see when it'll work and when it won't.];W[ih];B[ko]
;W[in];B[jp];W[io];B[kp];W[kl]C[This move by white seemed odd to me.  My first instinct would've been t
o play L6.  After trying out that move, though, I found that it gets really co
mplicated.  I suggest that you try it out and see what you can find when you h
ave some free time, it's pretty neat.];B[kn];W[lm]
(;B[mo]C[b3b0p: want to connect to the right side..

It'd be more worthwhile to try and create an independent shape instead of conn
ecting.  Something like h3 is a good place to start.  If you must try and go r
ight, though, you should've palyed o5 instead.];W[no];B[po]
;W[oo];B[qp];W[pq];B[ip];W[hp];B[ir];W[hq];B[iq];W[hr];B[qq]
;W[is];B[js];W[hs];B[om];W[nm];B[mp];W[np]
(;B[nq]C[Try m3 instead.  W O2 here will spoil this move.];W[nr]

(;B[kr]C[M3 once again is better];W[lq];B[kq];W[ls]C[b3b0p: argh!! my group is dead, is there a way out? any suggestion 
on how t
o make a living groups?];B[mr];W[lr];B[pr];W[oq];B[ig];W[hi]
;B[gh];W[gi];B[fi];W[gj];B[fk];W[lh];B[lg];W[mi];B[jh];W[ji]
;B[kh];W[li];B[mf]SQ[nh]C[That's not that useful, do o12 instead.]
;W[nh];B[mg];W[oh];B[ng];W[ph];B[pf];W[qg];B[qf];W[rg];B[rf]
;W[sf];B[sd]C[Do T15 instead.  While this works, it is worth 1 point less.]
;W[se];B[rd];W[sg];B[qi];W[qh];B[ri];W[oj];B[ol];W[nl];B[ok]
;W[nk];B[oi];W[nj];B[pi];W[ni];B[rs]C[b3b0p: overplayed?];W[mn]
;B[or];W[ms];B[ho]C[b3b0p: want to take the G8 group];W[hn]
;B[gn];W[go];B[fm];W[fn];B[gm];W[ho];B[os];W[ns];B[qr];W[ks]
;B[pm];W[sh];B[si];W[rh];B[pk];W[og];B[of];W[re];B[qe];W[hj]
;B[fh];W[cc]C[b3b0p: i've a bad feeling about this attack and my net is down =(

You were going to get invaded on the top eventually, and it'd take multiple mo
ves to secure it.  Use this 3x3 invasion to strengthen the top so that this'll
 be his last invasion.];B[cd];W[dc]
(;B[fc];W[bd];B[bc]C[b3b0p: i don't how to kill this attack, so i just play here (B17)


You can't kill it :(.  This is joseki, so be familiar with it.]
;W[bb];B[ec];W[ac];B[be];W[ae];B[ce];W[eb];B[fb];W[db];B[af]
;W[ad];B[bf];W[fa];B[ha];W[ga];B[gb];W[ea];B[cq]C[b3b0p: i think i can make a living group here, so i just try it o
ut

The area's too small I'm afraid.];W[dq];B[cp]
(;W[co]C[This mistake will let you live, you lucked out :D]
;B[bp];W[cr];B[br];W[bs];B[aq];W[dr];B[ao]C[Marten [?\]: had you played D2 you had taken me

b3b0p: i want to know what i can do if i play D2, because i'm too focused on m

aking eyes...

Don't worry about it, either way you got bonus points.];W[bn]
;B[ar];W[cs];B[as];W[pg];B[tt]C[b3b0p: i wanted to know if there's a way if white attacks aroun
d my upper a
ea (F15 - M16), because i think if white attacks there white can win...

- thanks -

He doesn't need to do a fancy invasion actually.  Look at H18.  Secure that an
d you're safe though.]
(;W[tt]TW[aa][ba][ca][da][ab][cb][bc][ij][jj][kj][lj][lk][mk]
[ll][ml][am][dm][mm][dn][nn][eo][ep][fp][gp][op][eq][fq][gq]
[nq][er][fr][gr][mr][ds][es][fs][gs]TB[ia][ja][ka][la][ma][na]
[oa][pa][qa][ra][sa][hb][ib][jb][kb][lb][mb][nb][ob][pb][qb]
[rb][sb][gc][hc][ic][jc][kc][lc][mc][oc][pc][qc][rc][sc][ed]
[fd][gd][hd][id][jd][kd][ld][md][nd][od][qd][de][ee][fe][ge]
[he][ie][je][ke][le][me][ne][oe][pe][cf][df][ef][ff][gf][hf]
[if][jf][kf][lf][nf][ag][bg][cg][dg][eg][fg][gg][hg][jg][ah]
[bh][ch][dh][eh][ai][bi][di][ei][cj][dj][ej][qj][rj][sj][ek]
[qk][rk][sk][pl][ql][rl][sl][qm][rm][sm][qn][rn][sn][qo][ro]
[so][ap][rp][sp][bq][jq][rq][sq][rr][sr][ps][qs][ss]C[You were able to come out on top because while your opponent 
attempted just to live, you attempted to make territory.  There were a few mis
takes you made, but when dealing with the top you had your opponent play right
 into your hands.  Be careful though about weaknesses in your big territory, a
nd try to remember that instead of cutting your opponent you can sometimes jus
t jump into their territory.  I hope my comments are useful to you.]
)
(;W[hb];B[ia];W[ib]C[:(]))
(;W[cr];B[br];W[cs]C[Here you're dead.]))
(;B[ec];W[eb];B[fc];W[fb];B[gc];W[bd];B[be];W[ad];B[ae];W[bc]
;B[ce];W[gb];B[hb];W[ga];B[ha]))
(;B[lq]
(;W[jr];B[kr];W[ks];B[jq]
(;W[lr];B[mr];W[oq];B[ls])
(;W[js];B[mr]
(;W[or];B[ls])
(;W[ls];B[or];W[pr];B[ns];W[ms];B[oq])))
(;W[mr];B[kr])))
(;B[lq];W[jr];B[mr];W[nq];B[kr];W[ks];B[ls]
(;W[nr];B[js]C[KO for life.])
(;W[js];B[nr];W[or];B[ns])))
(;B[hq]))
(;B[bm]
(;W[do];B[cm];W[ek];B[fl];W[ck];B[dj])
(;W[cm];B[cn];W[ck];B[dj];W[ek];B[fl])))
(;B[cl];W[el];B[dj]))
