(;FF[4]GM[1]SZ[19]ST[1]CA[UTF-8]AP[SGFC:1.15]

GN[sphenoid-arnauld-20050624.sgf]
PB[Arnauld Michelizza (arnauld)]
BR[17k]
PW[Michael (sphenoid)]
WR[14k]
KM[6.5]
DT[2005-05-28,2005-06-24]
PC[Dragon Go Server: http://www.dragongoserver.net]
RE[W+Resign]

C[Hi, I loosed with Black by resign after a big mistake. However, I think that I was about 10 points behind.
I think that every thing were lost after the 50st move and that I was behind all over the game. I'd like to understand why.
-----
P: Hi, my name is Peter. I play on KGS as Tartuffe and InExtremis (6-7k). Feel free to ask me any questions about the game or to ask for a game! My comments begin with P.]
;B[dp];W[dd];B[pq];W[qd];B[qo];W[oc];B[jq]C[At that point, I feel very happy with my black formation lower.
-----
P: Yes, you are doing fine.];W[fp]C[I think that R10 was biggest. Is it a white mistake ?
-----
P: You are correct, r10 is the biggest point on the board, followed by a move around c10. If I were white, I would probably approach from the other side, so as to work with the d16 stone. White cannot really expect to have an easy time developing inside black's strong position.]
;B[dn];W[dq];B[cq];W[eq]
(;B[ep]LB[cr:B][ep:A]C[P: c2 is joseki. black gets a settled position, white has a settled--but cramped--position, and black is free to expand his moyo with k5 (or to take another big point).]

(;W[cr]LB[cr:A][hq:B]C[P: White should probably cover the cutting point rather than introduce a new one!]
;B[dr];W[br]
(;B[bp]LB[bp:A][fq:B]C[P: The cut is pretty severe (see variation).]
;W[fq];B[cf]C[White stones are not completely settled. I could have attack them at G2. However, I choose to develop quickly on left side.
------
P: You were right to take sente here. However, I would have taken white's natural extension at r10. Thanks to black's thick position in the lower left, white's prospects are much better on the right side than on the left. As for plays on the left side, I think black was correct to take C14 (far away from black's thickness). A better player might argue that this move is just fine (I'm only 6-7k on KGS).]
;W[dh]C[I feel a bit disapointed by that pincer.
-----
P: The pincer complicates things, but you should be fine.];B[ef]
C[That move seems to me obvious, but it doesn't convince me.
-----
P: Seems fine to me.];W[fd];B[gf]C[I think that it's a mistake. I would instead have played C10 to attack the white stone.
-----
P: I think your move is fine. White really owes a move at H16, and then you should have time to play C10. Otherwise, you get H16, which is fine compensation.]
;W[dk]C[Now, black thickness is useless... :-(
------
P: Not yet... those two white stones do not have neither a base nor a thick group to which it can run.]

(;B[bd]LB[bd:A][hd:B]C[P: H16 is a great point to take here. It does many things:
1) attacks the two white stones on the upper side
2) prevents a large white territory from forming on the upper side
3) increases black's strength in the center
4) helps move the three black stones.
(see variation)]
(;W[cc]LB[cc:A][hd:B]C[P: Hmm... white should have played H16. (see variation)]
;B[cl];W[ck];B[hd]C[P: Good! This is huge for black. G14-H16 influence the whole board.]
;W[jc];B[hc];W[bc]C[P: White is forced to defend... painful!]
;B[fb]C[I think that R10 was biggest.];W[be];B[bf];W[ad];B[je]
C[P: Questionable... K5 seems bigger. Alternatively, R10 reduces white's potential for a moyo.]
;W[qj];B[ql];W[oj]
(;B[mc]LB[mc:A][ol:B]C[P8 instead ?
-----
P: I like this invasion. Lots of profit and reduction. White gets to invade you as well, of course.]
;W[md];B[le]C[P: Interesting move... I'm not sure about the best play around here.]

(;W[me]LB[ld:B][me:A];B[ld];W[nc];B[mb];W[mq]C[I don't really know how to deal with such an invasion.
-----
P: One idea is to begin by reducing white's right side moyo in sente (beginning with N14).]

(;B[jo]LB[jo:A][mf:B]C[What about a more agressive move like M4 ?
------
P: I like L5 here... If you are trying to kill, the main idea is to keep white to one eye on the edge. However, killing white seems unlikely.]
;W[kr];B[jr];W[or];B[pr];W[nq]
(;B[gn]C[I think that it's another mistake. N5 ???
-----
Yes, this move is a mistake. It does not attack any weak groups, nor does it defend any of your own weak groups (though it does play near the k3 stones, which are somewhat weak). N5 seems a little loose. How about N14? F11?]
;W[dg];B[df];W[bh];B[mo];W[no];B[nn];W[oo];B[on];W[kq]
(;B[mk]C[I hesitated a lot between L4, and N9. N9 aim is to invade white moyo.
-----
Attacking the white stones a little bit more is probably the right idea (check out the many variations).]
;W[jp];B[ip];W[kp];B[hp];W[mg]C[P: Ouch... white finally covered his weakness. The game is still close, though, and black should be able to find a way to win.]
;B[mi]C[P: If you are feeling behind, go in a little deeper. Just be careful not to die and not to give white too much thickness!]
;W[mp];B[ln];W[ni]
(;B[bl]C[I think that it's another mistake. Perhaps building a black moyo with G9 ?
-----
I like that idea, yes. Also, it might be time to take some of the double sente points. (s9, q1)]
;W[dl];B[dm];W[gl]C[P: Black is definitely falling behind now.]

(;B[gs]C[P: This doesn't feel like the biggest endgame move available. Q19 is a far more destructive (and sente!) monkey jump, s9 is clearly double sente, pushing around n12 reduces in sente, q1... does it kill? Anyway, g1 is a low priority right now. Also, it is awkward shape. I'd rather see a move around H2 to prepare for N1.]
;W[gr];B[hr];W[fs];B[gq]
(;W[fr]TR[bj][db][mh][os][pa][rk]C[At that point, I think that I have no good move and that I'm well behind.
-----
P: Try to assess how far behind you are. If you are only a little behind, try to catch up with solid endgame play. If you are very behind, you need to be risky. In my opinion, it is close enough not to play dangerously. However, you cannot afford to play passive moves. I marked some of the big endgame moves with triangles.]
;B[fi]C[F12 was more secure.
-----
P: Hmm... you have a forcing move as well.];W[fh];B[gh];W[fg]

(;B[ff];W[gg];B[pa]C[P: Good!];W[hg]
(;B[he];W[hi];B[fl];W[fk];B[gk];W[gj];B[hk];W[fj];B[fm];W[pb]

(;B[oa]C[P: See variation...];W[na];B[nb];W[qa];B[ob];W[qc]
;B[kc]
(;W[po];B[pn];W[qp];B[pp];W[qn];B[ro];W[rn];B[rp];W[rl]C[P: Now you wish you had already played S9, which was your sente!]
;B[oq];W[os];B[np]C[P: Nice];W[lo];B[op];W[ko];B[jn];W[qk]
(;B[ol]TR[bj][ca][mf][ps]C[P: A small mistake, but at this point of the game, it's an important one. To win you need to take all of these points. You could probably get some (certainly N14, C19, maybe Q1 and B10) in sente.]
;W[pl];B[pk];W[pm];B[om];W[qm];B[fo];W[bk]C[P: Black should have gotten here first. This game is pretty much over unless black gets lucky.]

(;B[ms]C[P: Too late for this. Since it doesn't work, try to get Q1 and L1 in sente.]
;W[ls];B[ps];W[mr]
(;B[bn]C[P: Too passive. You are behind.];W[kn];B[km];W[mh]
C[P: Doh, it is too bad that you did not get to play N14.];B[lm]
;W[ji];B[jk];W[li];B[mj];W[lf];B[ca]C[P: Yes!];W[bb];B[ec];W[ed]
;B[jg];W[jh];B[kg];W[lh];B[ok];W[pj];B[hs];W[bq];B[cp];W[ds]
;B[kj];W[db];B[da];W[eb];B[ea];W[fc];B[gb];W[hf]
(;B[if];W[ge];C[Result: W+Resign])
(;B[ge]))
(;B[mf];W[nf];B[lf];W[ng]
(;B[ca])
(;B[ak])
(;B[bj])))
(;B[er];W[ds];B[gp];W[es];B[ce];W[cd]))
(;B[pl])
(;B[mh];W[nh];B[lg];W[mf];B[ih];W[hh];B[nj];W[nk];B[mj];W[ok]
;B[ig];W[ds];B[er];W[es];B[nr];W[mr];B[ns];W[ms];B[cd];W[ce]
;B[de];W[pl]
(;B[bj];W[bk];B[ak])
(;B[ca];W[cb];B[ea];W[ba];B[bj];W[bk];B[ak];W[da];B[cj];W[dj]
;B[ec];W[ed];B[sn];W[sm];B[so];W[pm];B[bq])))
(;W[ds];B[er];W[op];B[pp];W[oq];B[po];W[es];B[dr];W[ce];B[af]
))
(;B[na]C[P: This way you end in sente (no liberties issue)]
;W[qa];B[oa];W[qb];B[rk]))
(;B[qb]C[P: Worth consideration...])
(;B[mf]C[P: A bold move! If white thinks he's leading he will block in gote... a fight breaks out if white is also bold.]

(;W[nf];B[lf];W[ng])
(;W[lf];B[nf];W[oe];B[lg];W[kf];B[mh];W[ng];B[nh];W[og];B[oh]
;W[pg];B[pi];W[pj];B[jf];W[kg];B[jd];W[qi]))
(;B[hf]C[P: Maybe better shape? It's still painful.]))
(;B[fe];W[ff];B[ed]
(;W[ec];B[ee];W[fc];B[gg];W[ge];B[gd];W[he];B[ie];W[hf];B[ig]
)
(;W[ge];B[ee];W[ec];B[fc];W[gd];B[gg])))
(;W[hs];B[is]
(;W[gs];B[es];W[fr];B[fo])
(;W[ds];B[gs];W[fr])))
(;B[po];W[op];B[pp];W[oq];B[ce];W[cd])
(;B[fs]
(;W[hr];B[hs];W[js];B[is];W[ks];B[ir];W[gr];B[gs];W[es];B[er]
;W[fr];B[ds];W[cs];B[iq];W[es])
(;W[js];B[is];W[hs];B[ks];W[ir])))
(;B[gk];W[lh];B[ki];W[li];B[lj];W[kh];B[ji];W[gi];B[ej];W[dj]
;B[fi];W[gh];B[fh];W[jh];B[ih];W[ii];B[ij];W[hi];B[jj]))
(;B[ms]C[P: I don't think the throw-in is a clean kill, though I may have missed a tesuji or two.]
;W[js];B[is];W[ks];B[hr];W[ps];B[qs];W[os];B[qr];W[mr];B[oq]
;W[ls];B[lq];W[lp];B[mp];W[kp])
(;B[kp]C[P: L4 is actually sente... you might be able to kill white if white ignores it.]
;W[mj]C[If white plays tenuki...];B[ks]C[P: This move would be enough to make me sweat...]

(;W[ls];B[lr]
(;W[js];B[lq];W[mr];B[ks];W[kr];B[ir])
(;W[lq];B[ms];W[mr];B[ls];W[ns];B[js];W[mp];B[lo];W[oq];B[op]
;W[pp];B[po];W[np];B[qp]))
(;W[lr];B[ms];W[mp];B[lp];W[po];B[pn];W[pp];B[qp];W[oq];B[os]
;W[ns];B[nr];W[mr];B[ns];W[ls];B[ps];W[js];B[ir];W[is];B[hr]
)
(;W[ms];B[lr];W[lq];B[ls];W[mr];B[js];W[ps];B[qs];W[os];B[qr]
;W[lo];B[ln];W[ko];B[kn];W[lp];B[jp];W[mp];B[mn];W[oq];B[op]
;W[pp];B[po];W[np];B[qp])
(;W[lp];B[lo]
(;W[ls];B[lr];W[js];B[mr]
(;W[ms];B[ir];W[is];B[hs];W[ks];B[hr]
(;W[nr];B[os];W[mp];B[op];W[pp];B[oq];W[po];B[qp];W[pn];B[pm]
;W[qn];B[np];W[ro];B[rq];W[rp];B[qq];W[qm];B[pl];W[sq];B[ps]
;W[rr];B[ns];W[lq];B[mr])
(;W[op];B[oq];W[os];B[mp];W[lq];B[nr];W[ps];B[qr]))
(;W[hs];B[lq];W[ks];B[ms];W[is];B[mp]))
(;W[ps];B[qs];W[os];B[lr];W[qr];B[qq];W[rr];B[rq];W[sr];B[ms]
))))
(;B[ms]C[P: It's too early for this.];W[nn]C[P: White can always just run.]
;B[ol];W[ln])
(;B[ol]C[P: This move adds a little pressure to the weak white group. Now white has to worry about eyes, because there is no easy escape.]
))
(;B[mf]LB[jo:A][mf:B];W[nf];B[ne];W[nd];B[ng];W[of];B[mg];W[og]
;B[ko];W[mo];B[lm]
(;W[oo]LB[nm:B][oo:A];B[nm];W[pn];B[qn];W[pm];B[pl])
(;W[nm]LB[nm:B][oo:A];B[ol];W[nl];B[ok];W[nk];B[nj];W[mj];B[ni]
;W[lk];B[mn];W[nn];B[no];W[oo];B[np];W[op];B[mp];W[nq];B[lp]
;W[oq];B[on];W[om];B[pn];W[pm];B[qm];W[pl];B[qk];W[pk]
(;B[rj];W[qi];B[pr])
(;B[pr];W[rj];B[ei]))))
(;W[ld]LB[ld:B][me:A];B[kd];W[kc];B[me]
(;W[nd];B[of];W[lq]C[This leaves R14 as a huge point.])
(;W[ne];B[nd];W[lc];B[nf];W[oe];B[of];W[mf];B[nh];W[mg];B[mh]
)))
(;B[ol]LB[mc:A][ol:B];W[ld]
(;B[lf]LB[jo:B][lf:A];W[kp];B[jp];W[ko];B[lr])
(;B[jo]LB[jo:B][lf:A];W[lf])))
(;W[hd]LB[cc:A][hd:B];B[cc];W[if]C[P: Now white has an active position and the potential to create a sizeable moyo. Black's corner invasion is nice, but white is creating points faster than black is taking them away.]
;B[eb];W[pj]))
(;B[hd]LB[bd:A][hd:B]C[P: Bask in the glory of H16!];W[bd];B[qj]
C[P: White's two stones are still floating without a base. Black is leading in territory and prospects, I think.]
))
(;B[fq]LB[bp:A][fq:B];W[er];B[fr];W[ds];B[bp];W[gp];B[hq]C[P: The two white stones float in the center. White cannot extract them yet, because black will chase the stones and develop great thickness.  Black is left with a strong position on both sides of the small white corner. Black is clearly ahead.]
))
(;W[hq]LB[cr:A][hq:B]))
(;B[cr]LB[cr:B][ep:A];W[hq];B[jo]))
