(;FF[4]GM[1]SZ[19]ST[2]CA[UTF-8]AP[SGFC:1.15]

PB[naoki]
BR[29k]
PW[Jeromin]
WR[28k]
KM[0.5]
DT[2005-07-02]
PC[The Kiseido Go Server (KGS) at http://kgs.kiseido.com/]
RE[W+8.50]
TM[1200]
RU[Japanese]

C[Hi Jeromin,

My comments are marked throughout. If I added comments to yours, mine are the one's below the dashed line (----------------).

A couple of points on terminology that I will use. I will make reference to frameworks and to territroy. They are not the same thing. A framework is a group of stones that map out POTENTIAL territory. It's not a sure thing yet. 

By contrast, territory is that area mapped out by a secure group of stones. It is fairly secure.

I HIGHLY recommend referring to the Sensei's Library for more information on all the topics I address here. You can find it online at senseis.xmp.net. Just type in a topic to find more information.]
;B[dp]C[Hi, this is a game I won in spite of terrible tactics, simply because my oponent new even less strategy! Any advice welcome. I'm Jeromin, playing white.]
;W[pd];B[pp];W[dd]C[This is a standard opening. But you should know that the 4-4 point (or star point) does not settle the corner. This one stone alone is not enough to claim the corner. But one advantage of the star point is that it is easy to expand into the middle of the broad from it.]
;B[jp]C[Black is staking out a big side framework here. It can still be invaded in many ways. Follow the variants to see a couple.]

(;W[qn]C[This approach move I do because I've seen it done, no idea on the follow up.

-------------------------------------------------------------

Don't worry too much about copying moves you don't understand. I do it all the time. Every kyu player does it despite the "stern warnings" against playing moves you don't understand. It's the way we learn.

The idea with an approach move is 2-fold. First, you want to limit the expansion of your opponent's corner. We play in corners first because it is easiest to make territory in a corner. The second goal is to stake out your own framework as well.]
;B[nq]C[Black responds nice and safely. The variation shows White's standard moves.]

(;W[on]C[Extending up into the middle is not recommended here. You need to extend along the side first. Provide a base for your stones before stepping into the middle of the board. Without a base, your stones can be attacked. See the variations from move 7 and 8.]

(;B[qp]C[Black is playing small ...];W[mo];B[mp];W[op];B[oq]
;W[lp]C[Black makes a mistake here that you exploit. Good Job. But your attacks at N5 and M4 are not the best strategy at this point in the game. You give black a lot of local strength in exchange for some points on the side. 

The variation shows Black's best response to your moves. The outcome gives black a solid position and some good cutting points against your wall.]

(;B[oo];W[mq];B[np];W[kq];B[jq];W[jr]C[Again here, Black can cut your stones into 2 smaller, weaker groups.]

(;B[ir];W[lr];B[mr];W[lq];B[ls];W[nr];B[js];W[ms];B[kr];W[ks]
;B[jr];W[ls];B[or];W[ro]C[Again, small move. You make the right move locally. But you are not strengthening your group in the process. 

White's bottom group is still in danger. See variation.]
(;B[rp];W[no];B[os];W[po];B[ns];W[ko]C[I suddelny realize my group's in danger!

-----------------------------------------------------
Good! :-D];B[kn];W[ln];B[lm];W[km];B[jn];W[jo];B[mr];W[op];B[kp]
;W[lo];B[oo];W[jm];B[in];W[op];B[io];W[oo];B[qr]C[Recapturing here is a wasted move ... it gets you nothing. You need to extend along the right side to settle your group. See variation.]

(;W[nr];B[so];W[sn];B[sp];W[im]C[BIg mistake, and costly too]
;B[qo];W[ll]C[Here is the mistake. White need's to connect at S6.]
;B[rn]C[this would prove hard to stop];W[rm];B[sm];W[sl];B[qm]
C[Be careful with the diagonals near the edge (on the 3rd, 2nd and 1st lines).]
;W[pn];B[rl];W[mm];B[sk]C[Black is out on the side ...  Good strategy would be to let it be for now and play elsewhere.]
;W[pl];B[pm];W[om];B[ql];W[pj];B[pk];W[ol];B[qk];W[ok];B[qj]
;W[qi];B[pi];W[oj];B[qh];W[oi];B[ri];W[ph];B[qi];W[og];B[pg]
;W[oh];B[pf];W[of];B[pe];W[oe];B[qd]C[then i had an idea: I'd attack, sacrifice and curve down the black stones' push a little.]
;W[qg];B[qf];W[rg];B[rf];W[re];B[sg];W[qe];B[rh];W[rd];B[qc]
;W[pc];B[rc];W[qb];B[sd];W[rb];B[se];W[nd];B[sb];W[ra]C[suddenly it didn't look so bad: nice big wall. But this only works on someone as weak as me, I think.


------------------

The wall is nice ... it has potential. But it is not territory. You need to use its strength to carry the game. I'm still learning that too :-). I recommend the sensei's section on Thickness.]
;B[gn];W[gm];B[fm];W[fl];B[hm];W[hl];B[gl];W[gk];B[gm];W[ek]
;B[dk];W[dl];B[dm];W[dj];B[ck];W[cj];B[cl];W[em];B[el];W[dn]
;B[en];W[fk];B[do];W[cn];B[co];W[bm];B[cm];W[bn];B[bl];W[fq]
C[Don't know  how to do invasions. looked like a good spot, no idea how to continue.


--------------------------------------------------
Attack and Defense is a difficult topic, very complex. From my read, Black's territory looks pretty secure. A better invasion point might be B3. You threaten to connect to your stones at B6. While black fights against that connection, you MIGHT be able to make life in the lower left corner. But its risky. 

Rather than invade, you would to better to reinforce your remaining corner. You are ahead in points. When you are ahead, play defensively. There's no need to pick fights. Let Black take the big risks, it's the only way he can win at this point.]
;B[bo];W[gp];B[eq];W[er];B[dr];W[ds];B[fr];W[bk];B[es];W[al]
;B[em];W[bj];B[an];W[ak];B[am];W[ik];B[fp];W[id];B[gq];W[ig]
;B[gc]C[Okay, Black invades. See variation.]
(;W[fc]C[this group grew too big in spite of my two walls, i think


-------------------------------------
Here's a key principle of Attack and Defense. 
To attack, play non-contact moves. To defend, play contact moves. 

In this situation, you want to attack that invading black stone. The best attack is to limit its space. When you make an attaching move, you almost always make the opponent's stones stronger by extending from that stone. You then need to waste moves defending your attached stone giving your opponent time to make life.

Don't give your opponent weak stones to attack.  I'm not staying that you can definitely kill the invasion. But you'd be less likely to give your opponent life. See variation.]
;B[hc];W[ic];B[fb];W[eb];B[ec];W[fd];B[db];W[gb];B[ea];W[gd]
;B[hb];W[cc];B[ga];W[ed];B[ib];W[jb];B[ja];W[ka];B[ia];W[kc]
;B[dc];W[cd];B[cb];W[bb];B[bc];W[bd];B[ac];W[ad];B[ba];W[ab]
;B[ca];W[hd];B[cg]C[Black's invasion is unreasonable.];W[bh]
C[Good ... you didn't attach. Make him run for life.];B[cf]
;W[ef];B[ch];W[eh];B[ce]C[against this other invasion was more confident.]
;W[be];B[bg];W[bi];B[mc];W[md];B[nc]C[i took no chances with my fragile wall, also time pressure.

-------------------------------- 

See variations.]
(;W[od];B[oc];W[pb];B[ob];W[oa];B[na];W[pa];B[lb];W[kb];B[la]
;W[lc];B[mb];W[aa];B[ld];W[le];B[kd];W[jc];B[mr];W[sa];B[sc]
C[No need to connect here. The ladder works for you.

See variation.]
(;W[ej];B[nr];W[tt];B[tt]TW[qa][ac][bc][jd][kd][ld][ae][ce]
[de][ee][fe][ge][he][ie][je][ke][me][ne][af][bf][cf][df][ff]
[gf][hf][if][jf][kf][lf][mf][nf][ag][bg][cg][dg][eg][fg][gg]
[hg][jg][kg][lg][mg][ng][ah][ch][dh][fh][gh][hh][ih][jh][kh]
[lh][mh][nh][ai][ci][di][ei][fi][gi][hi][ii][ji][ki][li][mi]
[ni][aj][fj][gj][hj][ij][jj][kj][lj][mj][nj][hk][jk][kk][lk]
[mk][nk][il][jl][kl][ml][nl][lm][nm][mn][nn]TB[da][fa][ha][ma]
[eb][gb][nb][rd][qe][re][sf][qg][rg][sh][si][rj][sj][rk][dl]
[sl][bm][rm][bn][cn][dn][fn][hn][sn][ao][eo][fo][go][ho][ro]
[ap][bp][cp][ep][gp][hp][ip][aq][bq][cq][dq][fq][hq][iq][pq]
[qq][rq][sq][ar][br][cr][er][gr][hr][pr][rr][sr][as][bs][cs]
[ds][fs][gs][hs][is][ps][qs][rs][ss]C[And I won the game but was not happy.

-------------------------------------------------------

Congrats on the win. You managed your one group well, using its strength to limit your opponent's attacks. In the end, you have one giant territory. That is a risky strategy to take because all your eggs are in one basket as it were. A safer course is to have 2-3 stable groups and use their strength to stage attacks and reductions of your opponent.

This strategy requires that you play around the board. Check out Sensei's Library or whatever Go books you might have on topics like:

Side extensions, Thickness, Corner enclosures, and Attack and Defense. 

Sensei's Library has good basic introductions to these topics as well as a Beginner's Course of study. 

Feel free to ask any questions you might have or drop me a note or a message over at KGS. I'm Hikertrash there. I'd be happy to go over this game in some more detail or play a practice game, whatever.

Good Gaming!

-Corey, aka Hikertrash.])
(;W[nr];B[ej];W[ei];B[fj];W[gj];B[fi];W[fh];B[gi];W[hi];B[gh]
;W[gg];B[hh];W[ih];B[hg];W[hf]))
(;W[oc];B[ob];W[pb];B[na];W[mb];B[lb];W[lc]C[Black is stuck ...]
))
(;W[ec];B[ib];W[ic]C[Here you attach, but you have 2 stones to his 1 ... you attach from a position of strength.]
;B[hb];W[jb];B[jc];W[kc];B[jd];W[je];B[kd]C[The ladder is bad for Black.]
;W[ld];B[kb];W[ke];B[ja];W[jc];B[lb];W[nb];B[mc];W[nc];B[md]
;W[mb];B[lc];W[me];B[ka]C[Black has only one eye.];W[fd];B[gd]
;W[ge];B[he];W[hd];B[fe];W[gf];B[fc];W[ed];B[fb]C[Okay ... black is almost alive. White steals his eye space. If not, Black can live immediately. See variation.]
;W[eb];B[ga]C[Black is in serious trouble. White can sacrifice a stone to kill.]
;W[ia];B[ha];W[hc];B[ea];W[da];B[fa];W[db]C[Black has only 1 eye.]
;B[ma];W[na]C[Black is now dead. He's got 1 real eye and 2 false eyes.

I know it was a long variation. But notice that non-attachment moves can be most effective in a fight. Generally, you only want to attach from a position of strength.]
))
(;W[pj];B[pl];W[ql];B[qk];W[pk];B[qm];W[rl];B[rm];W[pm];B[ol]
;W[rn];B[rk];W[sm]))
(;B[lo];W[ko];B[ln];W[kp];B[mn]C[White can escape for now ... but the bottom group has only one eye.]
))
(;B[kp]
(;W[lo];B[kr];W[lq];B[ir];W[lr];B[js];W[nr];B[or];W[ns];B[ls]
;W[ms];B[ks];W[os];B[ps];W[mr];B[qr]C[This is your best result. You steal some points from Black but are left with a weak lump. You have to give up sente in order to connecct at O6. Even then your stones are weak, they have no eye shape.]
;W[nn];B[ql];W[qj];B[ol];W[ml];B[rn];W[rm];B[ro];W[qm];B[pn]
;W[pm];B[po];W[om];B[oj];W[ok];B[nk];W[pk];B[nl];W[nj];B[mk]
;W[ll];B[mj];W[ni];B[ki]C[White has to fight just to live.]
)
(;W[lq];B[lo];W[ko];B[ln];W[jo];B[hq]C[White may be able to live on the lower side but he is weak elsewhere.]
)))
(;B[lq];W[kq];B[kp];W[lo];B[kr];W[lr];B[jq];W[mr];B[mq]C[At this point, you have to give up sente in order to connect your groups at N4 ...]
;W[np];B[oo];W[no];B[po];W[nn];B[pn];W[pm];B[qm];W[ql];B[rm]
C[You wall is not so solid here ... better not to press the fight at this point. There's lots of open board, stake out some stable frameworks! :-D]
;W[rn];B[rl];W[rk];B[qk];W[pl];B[rj]))
(;B[ql];W[ol];B[qi]C[Black is squeezing your stones here. By extending, black is pretty stable while white needs to make life in the middle, which is much harder.]
))
(;W[rp]C[First threaten the corner ...];B[qq]C[Black defends ...]
;W[qk]C[White extends ... White now has a nice stable group.

2 space extensions along the 3rd line are practically unbreakable. Thus when you approach your opponent, you should follow it up with an extension along the side giving you group a base to build from.]
))
(;W[mp]C[Here ... or at G4 are 2 ways to invade and reduce black's framework. But you have to run into the middle to survive.]
;B[mo];W[no];B[mn];W[op];B[nn];W[on];B[po];W[oo];B[om];W[pn]
;B[qn];W[pm];B[pl];W[qm];B[rm]C[Not that you are not in a ladder ... you are never in atari here so it is bad for black to chase you. He cannot capture you.]
;W[rn];B[qo];W[rl];B[ql];W[sm];B[oq];W[np];B[lp];W[rj]C[White escapes and Black's lower right corner is seriously threatened. Also, Black's outer wall is very cut-able. He can only defend one ... you should attack the other. See variations.]

(;B[nl];W[rp];B[ro];W[so];B[qq];W[rq];B[nq];W[mq];B[pr];W[nr]
;B[rr];W[or];B[pq];W[ps];B[qs];W[os];B[sr];W[sp];B[rs]C[Black dies ... in the corner]
)
(;B[rq]
(;W[ro];B[rp])
(;W[ol];B[nm];W[ok];B[pk];W[pj])))
(;W[qq]C[The 3-3 point invasion is a standard one. If played right, there is no way that black can stop you from living in the corner. 

BUT, this should not be played too early. In exchange for life, White gives Black a nice thick wall facing the center. It is not a good trade-off for white too early in the game. Knowing the right time to play this move takes a lot of thought.

This variation follows the standard sequence of moves (the joseki).]
;B[qp];W[pq];B[oq];W[or];B[nq];W[nr];B[mq];W[rp];B[ro];W[rr]
;B[qn]C[White lives in the corner with S2, Black has to defend the cut by playing at R6. Note Black's nice thick wall; it projects influence along the right side and into the middle. It's worth more than whites 8-10 points in the corner. So  be sure that you have some way to limit black's influence before playing this move.]
))
