(;FF[4]GM[1]SZ[19]ST[2]CA[UTF-8]AP[SGFC:1.15]

PB[fauli]
BR[12k]
PW[RickMott]
WR[11k]
KM[0.5]
DT[2005-06-26]
PC[The Kiseido Go Server (KGS) at http://kgs.kiseido.com/]
RE[W+8.50]
TM[900]
OT[5x30 byo-yomi]
RU[Japanese]

C[RickMott [11k\]: Hi, pleased to meet you. :)
fauli [12k\]: hiho
fauli [12k\]: thx
fauli [12k\]: have fun

Dear Reviewer:  I won, but mostly by getting a few extra points in the endgame.  There were several complicated tradeoffs during the game, and I would like some help deciding whether they were reasonable or not.   I am not terribly good at using influence and playing a moyo game; i'm usually more fighting/territorial, but found myself forced into a moyo strategy here.  Thanks in advance for your advice!

thanks for the chance to review this game. It's an interesting game which you deserved to win on the whole. You were doing very well in building a moyo, but then a few loose moves in the middlegame let black reduce it a lot.]
;B[qd];W[dp];B[pq];W[dd];B[oc]C[RickMott [11k\]: I was in your country a week ago for a conference...]
;W[qj]
(;B[qg]LB[qh:A]C[probably the wrong direction - this should be attacking from below, or enclosing the bottom corner. If playing from this direction, it may as well be at a]
;W[qm]C[fauli [12k\]: i am in the north, hamburg];B[qo];W[jq]
;B[jc];W[dj]C[RickMott: I was happy at this point.  I thought Black should have played on the left first and kept me from getting san-ren-sei.

it's always hard to be definitive about the opening unless someone does something stupid, but here both your moves 10 and 12 are really cracking spots to play and black 7 and 9 are a little underwhelming]
;B[cn]LB[fc:A][lq:B];W[co]
(;B[bo]
(;W[dn];B[cp];W[do];B[cq];W[bn];B[bp];W[cm]
(;B[dq];W[eq];B[er];W[fq];B[fc];W[df];B[db];W[cc]
(;B[hd]TR[fe][gf][hg][ih]C[RickMott: I thought this was a small move, but was uncertain how to make best use of sente.  Black has settled a lot of territory with 3 corners, so I felt I had to aim for a big moyo and still prevent Black from getting one in the upper right.

well black needs to add a move to defend the weakness at h17 and it's the largest area on the board at the moment, but i agree that this is not the way to do it. The marked spots represent the boundary between your moyo and black's and moves here are very large. Any move increasing your moyo, decreases black's, and vice versa. The difference between the two variations here should be obvious]

(;W[hf]C[very good move, for the reasons discussed before];B[jn]
C[RickMott: I didn't know what was the correct direction of play after this

funny move, somewhere near g/h10 looks more key - this is encouraging you to play near h8 to make your moyo bigger]

(;W[ij]C[RickMott:  One good overplay deserves another, I guess...  Trying to build a moyo in the upper left, put some pressure on black's stone, and prepare to reduce the upper right all at the same time.  Too ambitious?

if it comes down to a game of 'mine is bigger than yours' your moyo easily beats black's top right, so i wouldn't worry much about reduction yet. i think that you can be greedier in the centre however. this move begs black to play g7 or something, jumping into your moyo]
;B[ff];W[fe];B[ge];W[gf];B[ee];W[fg];B[ef];W[eg];B[de];W[ce]
;B[fd]LB[kf:B][hm:A]
(;W[ed];B[fe]LB[kf:B][hm:A]C[this sequence is gote for black (as you rightly say, you don't need to defend the cuts) and solidifies the top. Thanks a lot!

the big areas are A and B  I would probably have played A, but after looking at for a while, maybe around B is better. Letting black play G6 hurts a lot though. it convinces me that J10 would have been better at H7]
;W[je]C[RickMott: I decided I could leave the cutting points C14, D13 in order to press down at the top.  Was that correct?]
;B[gn]C[this is pretty painful]
(;W[me]C[RickMott: I chose mutual reduction; would attacking Black's stones directly have been better?

letting blacks middle stones get away without any real attack seems a little slack, plus i think your moyo is bigger, so you have more to lose]

(;B[lq]TR[ko][kp]C[this move forces you to play around the marked spots, where you wouldlike to play anyway, so it seems likely to weaken the centre stones]
;W[lp];B[kp];W[kq];B[lo];W[mp];B[ko];W[mq]C[not a great sequence for black, white takes some territory on the bottom, and the middle group doesn't exactly make any eye shape]
;B[lk]
(;W[in]TR[gn]C[RickMott: trying to separate Black by contacting his strong stones, but maybe something like M11 would be better?  Other suggestions?  Is it valid to try to keep some kind of attack going on the center stones?

cutting like this is probably not the way to attack the centre stones. The point of cuttting would be to capture the marked stone. The problem is that it will allow black leverage to sacrifice some stones and penetrate your moyo. 'don't play contact on stones you want to attack' is a basic rule which applies here. 

directly attacking the middle stones is hard to do, the best way to play is probably to surround more territory and build a bit more pressure on the middle stones]
;B[im];W[hm];B[io]C[this is a mistake for black i think - focussing more on the bottom than the more important middle left]
;W[hn];B[il];W[hl];B[ho]
(;W[go]C[RickMott: This cut was a mistake, I think.  J9 would be better.

yup. This reveals another weakness of the cutting move you played - it leads to a complicated fight in which it is easy to make mistakes]
;B[hk];W[fn];B[gk];W[fm];B[ik];W[jp]
(;B[jo];W[km]
(;B[jm];W[lm]C[76 wasa kikashi - and should be unimportant. This sort of move is only valuable if you think you are going to kill the black group, otherwise it is dame. Now black can reduce your centre even more.]
;B[ek]C[ouch];W[dk];B[el];W[mm]C[that's three stones you've played here, if you don't kill the group, they'll be 3 wasted moves. The idea of kikashi (forcing moves) is that you should be able to sacrifice the stones easily. Now you've given up sente twice to defend the l7 stone.]
;B[jj];W[ii];B[kh]C[RickMott: So Black has reduced my potential territory enormously.]
;W[kj];B[ji];W[kk];B[ih];W[hi];B[hh];W[gi];B[gh];W[fi];B[jk]
;W[gg];B[if];W[ie];B[he];W[jf];B[ig];W[jg];B[jh];W[kc];B[ei]
;W[fh];B[ej];W[dh]
(;B[mh];W[ic]
(;B[jd]C[RIckMott: Don't know what Black was thinking here.]
;W[id];B[hc]C[RickMott: He sees the threat to his upper left group.]
;W[kd]C[RickMott: Now I have life, no problem -- I think.  Is it true?

there are situations in which black descending at k18 is dangerous to you but you defend appropriately when needed]
;B[lf];W[le]C[i count the score about white 56, black 50ish now, so black is behind, but not by much. i think black should attack the s7-10 stones now.]

(;B[og]TR[kj][kk][km][lm][mm]SQ[jk][jm]C[Now black's middle group is obviously ok, and you have played all the marked stones fairly recently, which look like the will get you no points at all. Black responded with the two marked moves, but it still looks like three net wasted moves.At the same time, black managed to penetrate into the moyo you had built and the game is close again]
;W[li]
(;B[lh];W[mi];B[ni];W[nj];B[oi];W[oj];B[mc];W[hb];B[gb];W[jb]
C[good moves, these last two.];B[cb];W[bb];B[ec]C[unnecessary?]

(;W[cf]C[i think you can leave this.];B[nr];W[mr];B[or];W[pn]
;B[fr];W[gq];B[gp];W[fo];B[hq];W[hr];B[iq];W[ir];B[ri];W[rj]
;B[qi];W[pi]TR[lb][si][sj][rn]C[RickMott: Bad play,ends in gote.

big moves are at the marked points];B[ph];W[pj]
(;B[nf]C[this is a bit odd by black];W[nd];B[nc];W[od];B[pd]
;W[oe];B[on];W[om];B[nn];W[po];B[nm];W[nl];B[qp]
(;W[mo]C[RickMott: Should have been at M6, if I should play here at all.

you mean n6?];B[kl];W[mj];B[ll];W[op]C[RickMott: Should connect at N6.]
;B[mn];W[ml];B[ln];W[si]C[RickMott: Finally remembering about endgame, sente, and all that good stuff... :)

yup this is big];B[rh];W[pf];B[qf];W[mf]C[small];B[dl];W[cl]
;B[di];W[ci];B[lb]C[RickMott: Big move!  Should have played here instead of the poke at N14, maybe.]
;W[kb]C[this is probably worth ignoring, to play s6, say];B[rn]
;W[rm];B[sm];W[qn];B[ro];W[sl];B[sn];W[ga];B[fa];W[ha];B[dc]
;W[cd];B[pp];W[fp];B[oo];W[ol];B[np];W[ca];B[da];W[ba];B[mg]
;W[kf];B[nq];W[lc];B[mb];W[ao];B[ap];W[an];B[md];W[ne];B[pe]
;W[of];B[ng];W[ld];B[ms];W[ls];B[ns];W[la];B[ma];W[ka];B[pc]
C[RickMott: Don't think this move was necessary.
nope];W[gr];B[ds];W[lg];B[sh];W[sj];B[mk];W[nk];B[rl];W[sk]
;B[ql];W[pm];B[pk];W[qk];B[pl];W[lj];B[jl]
(;W[ok]C[you don't need to play here for 1 more move];B[gl]
;W[gm];B[eh];W[ch];B[em];W[en];B[pg];W[hp];B[ip];W[fs];B[jr]
;W[kr];B[js];W[kg];B[no];W[lr];B[br];W[gp];B[es];W[gs];B[dr]
;W[fj];B[tt];W[tt]TW[aa][ia][ja][ab][ib][ac][bc][jc][ad][bd]
[jd][ae][be][ke][af][bf][lf][ag][bg][cg][dg][ah][bh][ai][bi]
[aj][bj][cj][ak][bk][ck][pk][rk][al][bl][pl][ql][rl][am][bm]
[cn][gn][eo][ep][lq][jr][hs][is][js][ks]TB[ea][na][oa][pa][qa]
[ra][sa][eb][fb][nb][ob][pb][qb][rb][sb][gc][qc][rc][sc][gd]
[rd][sd][qe][re][se][rf][sf][rg][sg][nh][oh][qh][so][rp][sp]
[aq][bq][qq][rq][sq][ar][cr][pr][qr][rr][sr][as][bs][cs][os]
[ps][qs][rs][ss]C[fauli [12k\]: gg
fauli [12k\]: thx
RickMott [11k\]: Thanks for the game!
RickMott [11k\]: Bye...
fauli [12k\]: cu
RickMott [11k\]: Interesting series of trades.
tudorus [2d\]: d2 war fragwürdig
fauli [12k\]: ja
tudorus [2d\]: k1 auch
fauli [12k\]: stimmt
fauli [12k\]: dann noch ein punkt auf d13
tudorus [2d\]: rechts auch
tudorus [2d\]: s9
RickMott [11k\]: You had a chance to swing 4 points attacking my right center group...
fauli [12k\]: i lost some point in yose
RickMott [11k\]: If you atari at L11 before I connect M10 atari...

Thanks in advance for the review.  You get bonus points if you can tell me what the 2d's German commentary said... :)

d2 is dubious - i.e unnecessary and cost a point
k1 as well, and q13 so that was 3 free points you got at the end

the score is slightly wrong, i think - there's a point at d13 you need to fill eventually, plus you need to capture at S9 eventually.
But then there's 3 points that didn't get counted at p4, so you actually won by 8.5+3-2=9.5. On the whole you played much the better game of the two, but in the middle game you were a little soft territorially (e.g. around the middle left) which allowed black to get back in the game]
)
(;W[fl];B[fk];W[hp];B[ip];W[gl];B[ki];W[ok];B[kn];W[rk]))
(;W[mn];B[no];W[mo];B[op];W[oo];B[np]))
(;B[nd]))
(;W[bc];B[cf];W[dg]
(;B[bf];W[be];B[bh];W[ch];B[bi];W[bg];B[ag];W[cg];B[af];W[ah]
;B[ai];W[ae];B[ah];W[bj])
(;B[be];W[cd];B[bg];W[cg];B[bf];W[bh];B[bd];W[ag];B[ae];W[ac]
;B[ba];W[ad])))
(;B[mi];W[mj];B[nj];W[lh];B[lg];W[lj];B[kg];W[mg];B[mf];W[ng]
;B[nf];W[nh];B[oh];W[ni];B[pj]))
(;B[pk]
(;W[pj];B[nk];W[oj];B[ok];W[mj];B[nj];W[ni];B[mi];W[nh];B[ng]
;W[mk];B[oi];W[oh];B[pi];W[ph];B[qi];W[qh];B[ri];W[rj];B[rh]
;W[of];B[og];W[pe];B[qe])
(;W[qk];B[oj];W[pl];B[nn];W[nm];B[ri];W[qi];B[rh])))
(;B[id];W[jd];B[jb]
(;W[kb];B[ib];W[mc];B[nb];W[ng];B[nh];W[og];B[oh];W[pg];B[ph]
)
(;W[ib];B[kb];W[lb])))
(;B[ic]))
(;B[ll]C[something like this surely captures the white stone]
))
(;B[ek]C[i think the ballsy thing to do here might be to ignore your peep.]
;W[jo];B[fr];W[kn];B[jm];W[ln];B[gq]
(;W[gp];B[fp];W[ep];B[hp];W[fo];B[hq])
(;W[hp];B[gp];W[fo];B[hq];W[ip];B[jj])))
(;W[ik];B[fo];W[fm]))
(;W[fl]C[this move is big territorially, plus it surrounds the black stones a little bit more.]
;B[hl];W[hk];B[il];W[kj]C[this looks good for white])
(;W[nn])
(;W[hm]C[this way might be playable];B[hn];W[gm];B[fm]))
(;B[kp];W[kq];B[mp]C[this makes a reasonable connection, without giving up as much on the bottom. You get to play a big move in the centre]
;W[fm]C[this is still a playable game for both sides])
(;B[gl]C[black is probably better off playing aggressively here - this makes some shape for his stones and further hurts your moyo]
))
(;W[ko];B[jo];W[kp];B[kn];W[mo]C[cutting the black stones off from the corner is probably worthwhile now.]
;B[fr];W[gq]TR[ij][hm]C[now where would you like the marked stone to be? it's not badly placed, but black will reduce your territory around rows 8 and 9.  
killing the middle group would be very difficult, but you are likely to get to bully it quite a lot]
;B[hl]))
(;W[hn];B[jf]C[reducing the top right is going to be a bit of a pain now, but you have almost 60 points in the left, so you don't have to invade too deeply i think. The only concern is that the R7-10 stones may prove to be a bit of a burden]
))
(;W[hm]C[i would play here- makes your centre a bit bigger and makes it a bit harder for the k6 stone to reduce it. Black now wishes that k6 was around h10]
))
(;W[gf]C[this looks a bit more solid perhaps];B[hf];W[hg];B[if]
;W[ig]))
(;B[gf];W[fg];B[gg];W[gh];B[hh];W[gi];B[hi]))
(;B[er]C[this is better];W[fq];B[fr];W[gq];B[eq];W[fo]))
(;W[bp]C[B15 is unusual - I asked a 3-dan what he thought and he suggested this way to play - it's a bit more natural than the way you play]
;B[do];W[cp];B[eo];W[fp];B[dm];W[fo];B[fn];W[gn];B[fm];W[ho]
C[this is another way you could play, the territory on the bottom is large]
))
(;B[dn]C[this of c ourse is normal];W[fp];B[dl];W[ck];B[gm]
))
(;B[ql];W[qg];B[ol];W[og];B[jp]))
