(;FF[4]GM[1]SZ[19]ST[1]CA[ISO-8859-1]AP[SGFC:1.15]VW[]

PB[wenzi]
BR[22k]
HA[4]
PW[ChiyoDad]
WR[22k]
KM[0.5]
DT[2005-07-09]
PC[IGS-PandaNet]
RE[B+21.5]
US[Dezhi Wen]

AB[dd][dp][pd][pp]C[ChiyoDad: Xiexie ni.
wenzi: i'll add handicap?
wenzi: since i lost to u in the morning..
ChiyoDad: Adjourn this game then and I'll send you a new one.
ChiyoDad: How many stones?
ChiyoDad: Oh. Okay, you set it up.

RW> Hi my name is Ronald Wopereis, woepwoep on KGS. I will review the game for black. My comments i will precede with RW.]
;W[df]C[Is there a standard response to his one point attack?]

(;B[de]C[RW> as a rule of thumb, you should avoid touching the opponent stone. see var]
;W[ef];B[ee];W[gf];B[ge];W[jd];B[ie];W[id]C[ChiyoDad: Which client are you using?]
;B[hd];W[hb];B[ic];W[hc];B[jb];W[fe];B[fd];W[ff];B[je];W[kd]
;B[ld];W[gc];B[gd];W[le];B[ke];W[lc];B[md];W[nd]C[Would not have been able to contain white if he linked at L17.]
;B[kc];W[fc];B[ec];W[hf];B[he];W[eb];B[db];W[fa]C[White moved at F1 to prevent an atari later (if black places at F18)

RW> White is creating compensation for the loss of the K16 group. The F19 move is creating the shape to build two eyes at F18 and G19 (or even H19)]

(;B[da]C[RW> The essential to this white shape, the heart of the white shape, is G18, because it touches both eyes F18 and G19. If black can move there before white can, then black is dead. See var.]
;W[ea];B[cf];W[ib];B[jc];W[gb]C[wenzi: hmm.. where are u from?]
;B[ia];W[ha]C[wenzi: hmm.. where are you from?];B[ja]C[ChiyoDad: California, see http://chiyodad.blogspot.com]
;W[cg]C[RW> black now has a base (touchdown on first line, with lots of expansion possibilities to the center. White however has no base yet. So that is why he will go to the left side of the board.

If you look it this way, you see that white is on the run, looking for safety.]
;B[bf];W[dh];B[bg];W[bh];B[ah];W[ai];B[ag];W[bi];B[ce]C[RW> safe play - C15 is vital. Well done.]
;W[do]C[RW> at first i thought this was a rude move by white. but really , white is not that much stronger player. Surely he meant not to insult. 

The way i see it, white was just glad he touched base (at A11) and now wants to create territory between the lines 5 and 13.

If white wants territory and strong base then he needs to play C6 and not D5.]
;B[eo]C[Problem of not knowing where to tsuke again.

RW> it is like in the beginning. With each one stone there is no need to touch.]

(;W[dn];B[en];W[em];B[dm];W[dl];B[cm];W[cn]
(;B[co]C[RW> have a look at the ladder in the variation. It starts with B6 instead of C5. This ladder will save your C7 group instantly.]
;W[bn];B[bm];W[cp];B[cq]C[Gave up on D5 since it was dead. Went on to surround the bigger white..]
;W[bo];B[bp];W[cl];B[el];W[fm];B[bl];W[bk];B[ak]C[Was there any way the 4 stones could have escaped?

RW> yes by playing the ladder B6 instead of C5];W[am];B[ao]
;W[al];B[co];W[an];B[ap];W[cp];B[aq];W[co];B[fn];W[ep];B[gn]
C[Saw the possibilty that white might place a stone at G6 and kill the 3 black stones.

RW> yes very good];W[dq];B[br];W[cr];B[lf];W[bq];B[ar];W[cq]
;B[me];W[bs];B[mc];W[as];B[fl];W[gl];B[gm];W[dm];B[gk];W[hl]
;B[fk];W[gj];B[hk];W[il];B[jl];W[ik];B[hj];W[hi];B[ij];W[hn]
;B[hm];W[im];B[ho];W[in];B[go];W[ip];B[io];W[jo];B[jn];W[hp]
;B[jk]C[RW> good move. now white is dead];W[jm]C[White placing at K7 was useless]
;B[km];W[gp];B[jp];W[ko];B[kp];W[lo];B[lp];W[mp];B[mo];W[mn]
;B[no];W[oo]C[similar situation as the fight above..];B[ln]
;W[mm];B[nn];W[nm];B[om];W[on];B[kn];W[nl];B[ol];W[ok];B[pl]
;W[pk];B[ql];W[rk];B[rl];W[qm];B[pn];W[sl];B[po];W[op];B[pm]
;W[np];B[lo];W[rm];B[nk];W[mk];B[nj];W[ni];B[ll];W[mj];B[ml]
;W[oj];B[fp]C[ChiyoDad: You missed a snap-back opportunity.

RW> i think white is referring to O9. Since M7 is not empty it is not a snapback.]
;W[nk];B[lj];W[fq];B[fo];W[gq];B[iq];W[pq];B[oq];W[nq];B[or]
;W[pr]C[White should have placed at O2];B[nr];W[mr];B[mq];W[qp]
;B[lr];W[qo];B[oo];W[qn];B[ps];W[qs];B[os];W[rr];B[qq];W[qr]
;B[rq];W[sq];B[sp];W[rp];B[ss];W[sr];B[lh];W[li];B[ki];W[mi]
;B[mh];W[lk];B[kj];W[kk];B[kl];W[ii];B[ji];W[kh];B[jh];W[kg]
;B[jg];W[jf];B[kf];W[ig];B[if];W[ih];B[lg]C[RW> now black has one solid huge group. Very good]
;W[ej];B[fj];W[fi];B[gi];W[gh];B[gj];W[ek];B[jj];W[nh]
(;B[ng]C[Lost quite a lot of territory on the left centre..

RW> yes, go is often a choice between two extremes. one is where no one gets any points, and the other is where both get a lot of points. but it does not matter for the score.

For further breakdown of white left area, see var];W[qk]
(;B[oh]C[RW> here black is choosing that both shall have no points. Q16 is all alone and needs protection. See var]
;W[of];B[sj];W[ph];B[og];W[pg];B[sk];W[sm];B[pi];W[si];B[rj]
;W[qj];B[ri];W[qi]C[White managed to creep into the territory using ataris..

RW> yes and in fact you can see white has one big group on the right side of the board. The way to go here is to acknowledge the fact that you cannot kill white R11 group. So black needs to retreat 2 or 3 lines from white. R14 or S15 would be good]
;B[rh];W[qh];B[pf];W[oi];B[rg];W[qd];B[qe];W[qc];B[pc];W[qb]
;B[pb];W[ra];B[pa];W[qa];B[re];W[sb];B[rc];W[rd];B[sd];W[sc]
;B[se];W[qf];B[qg];W[pe];B[rf];W[pf];B[ne];W[oe];B[od];W[nf]
;B[mf];W[cb];B[mg];W[ca];B[dc];W[cd];B[cc];W[bc];B[bd];W[ba]
;B[ac];W[ab];B[bb];W[hq];B[aa]C[White didn't have enough space for 2 eyes.]
;W[ir];B[jq];W[jr];B[kr];W[ks];B[ls];W[js];B[hr]C[Cut white's territory to kill off the stones

RW> superb];W[gr];B[is];W[gs];B[hs];W[eh];B[sh];W[tt]C[ChiyoDad: I see no other moves.

Could more have been played at the left centre portion?

RW> yes, with black H13. But only earlier in the game, as shown in one of the variations

How do I better defend my territory?

RW> since you won, you can not do better. Thank you for inviting me to your game. Best regards, Ron]
;B[tt]C[You can check your score with the score command, type 'done' when finished.
Click on a group of stones to mark it dead and remove it from the board.]
;W[tt]TB[si][sg][sf][op][on][oc][ob][oa][ns][nq][np][nd][nc]
[nb][na][ms][mr][mp][mb][ma][lq][le][lc][lb][la][ks][kq][ko]
[kh][kg][kd][kb][ka][js][jr][jo][jm][jf][jd][ir][in][im][il]
[ik][id][hn][hl][gl][ed][cd][cb][ca][be][bc][ba][af][ae][ad]
[ab]TW[ss][sp][so][sn][sa][rs][rq][ro][rn][rc][rb][qq][pj][pi]
[nj][hh][hg][gg][ga][fs][fr][fh][fg][fb][es][er][eq][ei][eg]
[ds][dr][dp][dk][dj][di][dg][cs][cm][ck][cj][ci][ch][br][bp]
[bm][bl][bj][ar][aq][ap][ao][ak][aj])
(;B[nc];W[hg];B[qg]C[RW> much better for black.]))
(;B[hg];W[hh];B[fh];W[gg];B[ei]))
(;B[bn];W[co];B[cp];W[bo];B[ao];W[bp];B[bq];W[ap];B[aq]))
(;W[hm]))
(;B[gb]C[RW> now white is dead.];W[ib];B[ia];W[jc];B[ic];W[ea]
;B[ga]))
(;B[fd]))
