(;FF[4]GM[1]SZ[19]ST[1]AP[SGFC:1.15]

PB[Fwumptapuz]
BR[27k]
PW[joojoonas]
WR[25k]
KM[6.5]
DT[2005-07-23]
PC[The  Kiseido Go Server (KGS) at http://kgs.kiseido.com/]

RE[W+55.50]

C[Okay, I'm Fwumptapuz (27 Kyu) and I'm playing black against Joojoonas's 
white (25 Kyu). I made a lot of REALLY horrible mistakes in this game, as 
you'll see, and I woudl really like some advice and what I should have done 
to defend against it. I woudl also like general comments on my strategy and 
how I can sharpen it. Thank you for your time and consideration.


newsman (12k): Hi Fwumptapuz. I've had a chance to review the game. I wish I 
could say the tendency to make mistakes goes away at some point, but being 
human, you know.    :)

Anyway, there are five or six main concepts I hope to convey that should 
help your game.

enjoy.];B[op]MA[cc][dd][dc][cd][ce][de][ed][ec]LB[qp:A][qo:1]
[qq:2]C[This is my 
standard opening move. I always tend to play to the inside side of a hoshi 
in the corner. It seems most defensive to me. Is this a good tactic?


newsman: An opening move at any of the Xs are time-tested and considered 
strong. The only difference is strategy. Starting at the 4-5 point like you 
did, generally emphasizes the bottom side, since it allows white to easily 
invade at 1 or 2.

If white plays 1, you play 2, claiming part of the corner and side. If white 
instead jumps to the corner with 2, you play 1, building outside influence 
you can later use to build territory.

Once moves are made in other corners, if you get a chance to play a second 
stone at A before white invades, you will have a strong claim on the corner 
and side.];W[dd]LB[cc:B][fc:A]C[My opponent tends to like to play directly on the 
hoshi. What makes this tactic strong?


newsman: playing on the hoshi is very strong because of its flexibility. It 
can be used to claim the corner, the side or for outside influence, 
depending on circumstances and strategy.

two basic points are A and B. See variations]
(;B[oj]C[Here I go trying to claim the right side without letting him 
seperate my groups.


newsman: In the beginning of the game, stones are usually played first in 
the corners, then the side, and finally the centre. That is because  corner 
territory is easiest to claim, and the centre is the hardest. At this point 
two corners are still wide open, so stones in either of those should be 
considered first.

Remember, your two stones still don't claim the side, since there is a lot 
of room between them and the side for white to invade and live, though they 
are beginning to establish influence.];W[dp]
(;B[dj]C[I was attempting to seperate his pieces and destroy the opportunity 
for connectivity.


newsman: keeping white separated is a great strategy, just make sure you 
don't end up becoming weak in the process.

see variation];W[pd];B[jd]C[Once again trying to divide and conquer.]
;W[gq];B[fo]MA[nc][fc][cf][cn]LB[jd:A][dj:B]C[Here I was approching to maybe try 
and bait him so I could figure out his motive in this corner, but I believe 
this move to be a bad decision after looing at it now. What do you think?


newsman: I agree it's not a great move. It doesn't really threaten the white 
stones, and doesn't build on the strength of your own. It really just sits 
in the middle of nowhere.

At this point in the game, the best moves are those which build up the 
strength and influence of your own stones while taking away strength from 
your opponent.

For example, the A and B stones are looking a little lonely and vulnerable, 
so approach moves at any of the Xs would help make those stones stronger, 
start to build territory for black and take away potential territory from 
white.];W[mq]C[newsman: white is following the principle I just mentioned, building 
from his stones towards yours.]
(;B[jq]MA[qf][nc][fc][cf][cn]C[Another seperation, but this one doesn't seem 
so good either, in retrospect.


newsman: The placement of this invasion is fine, it's just a little 
premature. There are other areas on the board with more points up for grabs. 
Again, any of the previous Xs would still be strong moves. Or attacking the 
white stone from the other direction works as well. see variation]
;W[jr]C[Here is first contact made by white in what seems to be an attempt 
to divide my sides and directly assault my stone at K-13.

newsman: your invasion is forcing white to respond by getting stronger. When 
attacking, try to remember that it usually makes your opponent strong as 
well.];B[ir]C[Putting pressure on white and trying to force it down away from the 
rest of his group.];W[kr];B[kq]C[This up coming sequence of moves I believe to be one of my first big 
mistakes.


newsman: as mentioned before, my biggest concern is with the timing, but the 
sequence itself could have worked out better, as you will see.]
;W[lr];B[lp]MA[iq]C[newsman: connecting at X instead would ensure he is divided.]
;W[iq];B[ip]C[I believe I should have played H-2 to defend instead of trying to 
attack...


newsman: no, the stone at J2 is dead now. The move at J4 actually works well 
to use the dead stone to your advantage by using it to build up strength on 
the outside.];W[hq]C[This gave him the opportunity to connect and seal off my group.]
;B[nq];W[hr];B[mp]TR[oj]C[Realizing the stone at J-2 is lost, I'm attempting to form a 
barrier in order to hopefully force the entire white group into the floor.


newsman:  This is a smart move. White has gained a little bit of territory 
against the side, but in exchange you have a nice wall that works well with 
the stone at P10, and with the corner, to form a potentially huge territory.

Unlike chess, where the idea is to eliminate an opponent, go is a game of 
balance. You won't eliminate all of your opponent's territory, nor should 
you try. But an exchange like this, letting your opponent live small while 
building up larger territories, is a fabulous strategy.];W[jo]
;B[mr]SQ[jo]TR[ip][fo]MA[qf][nc][fc][cf][cn]LB[qp:A][lm:B][io:C]
[ho:D]C[Not 
really sure why I did that...


newsman: It happens. For the last 15 moves there has been a large battle 
going on along the bottom side. That is now over, but sometimes it is hard 
to detach yourself from that battle and look again at the whole board.

Sometimes after a protracted struggle like this it's best to take your hand 
off the mouse, grab another cup of tea or coffee, (or beer) and take a look 
at the whole board for the next best move.

We both agree N2 isn't a great move. What is better? Those Xs are still 
there, calling out for attention. A move to point A consolidates the corner, 
while a black stone around B threatens the lonely white stone at K5 and 
begins to firm up a large territory around P7. Extending to C or D also puts 
pressure on the lonely white stone and starts to connect the two triangled 
black stones, building on your strength while weakening your opponent. Moves 
that serve two purposes are generally stronger. Also, if you cut off the 
stone on K5, where will it run?];W[lq];B[js]C[Once again another dumb move. I knew that he would take J-2 in 
response, but I was hoping he woudl forget to fill it up before I could take 
the rest of his group.];W[is];B[ms]C[Another blind move on my part...


newsman: yes, as noted previous, time to move on to another part of the 
board.];W[nr]C[...allowing him to get me once again.

newsman: actually, no. see variation]
(;B[ns];W[or];B[pr];W[os];B[hs];W[gs];B[kl]C[Trying to divert his attention upward as well as to reinforce my 
compatriots in the upper half of the board.


newsman: yes, a better idea, remember the side territory is white's.]
;W[jp];B[kp];W[io];B[hp];W[ho];B[gp];W[go];B[fp];W[en]
(;B[kn]MA[jp][jo][io][ho][go]LB[fn:A]C[newsman: attacking the marked white 
stones is a good idea - attacking weak stones frequently works to your 
advantage, but try coming from the other side with A, to cut it off from the 
other white stones. Your stones towards L6 are already strong and don't need 
further reinforcement at this point

see variation];W[jn];B[jm];W[im];B[km];W[jl];B[gn];W[fn]MA[fo]
[fp][gp][hp][ip]C[newsman: Now it is your group, marked with the 
Xs, that has been cut off and should be dead. However, we both know what 
happened.   ;)];B[hm]C[Obviously I'm attempting to eradicate the white group around J-5.]

(;W[ik]TR[mr][ms][ns]MA[qf][nc][fc][cf][cn]LB[gm:1][hm:A][oq:B]
C[newsman:  a 
move by white at 1 instead ensures your black stones are dead and the white 
group connects to the side.

Rather than play A, which only works because of white's mistake, it's time 
once again to concede some territory to white and take a look around the 
board for a larger move.

You can flee to Point 1 yourself and keep the white groups separated, and 
your black stones alive, or any of those Xs still vacant.

A stone at B forces white to take your triangled stones, but shuts off the 
corner from invasion. Now that wall is really producing dividends! (and it 
prevents the invasion that devastated you later)];B[hl];W[il]
;B[ko]SQ[fo][fp][gp][hp][ip]TR[hl][hm][gn]MA[in]C[He took a long pause right 
here obviously knowing that his group is as good as gone.


newsman: of course, he could have survived by connecting at X, which was a 
big mistake. If he connected, your triangled stones would have become very 
weak and he quickly could have turned the tables on you by attacking them. 
This, combines with the nearly dead square stones, give white a great 
advantage, until his big mistake.];W[hn]C[I'm not really sure why he made this move, because his plays seemed 
pretty strong up to this point. Seems kind of like a waste of a turn.]
;B[in]SQ[fo][fp][gp][hp][ip]TR[ik][il][im][jl]C[Mmmm...my first meal of the 
game.


newsman:  and a huge turning point. Your square stones have risen from the 
dead and his triangled stones are in BIG trouble.];W[oq];B[jj]
C[Another really stupid move by me. I didn't even realize O-4 was in 
danger. I think I got too arrgant and believed that white group at P-2 to be 
dead to rights and instead decided to close in on the J-8 group..


newsman: yes, though at this point all is still not lost, as you'll see]
;W[np]TR[op][pr]MA[no][pq]C[Ouch.


newsman: at this point, that nice wall and corner territory is on the brink 
of crumbling. Both of your triangled stones are very weak.

White has two good entry points into your territory, both marked X. You 
can't protect both, and will lose some territory. The goal is now to limit 
the damage.

The variations are too numerous to go through, but here are a couple other 
ideas.]
(;B[oo];W[no]
(;B[hj]C[Securing the kill at J-8.];W[dl]MA[pq]C[newsman:  even now, a a black stone at Q3 would have sealed up 
the corner and prevented most of the damage.
At his point, white has already broken into your territory. You can't chase 
him out because his stones are connected to the side and are alive. You must 
give him part of your territory. If you try to kill him outright it will 
backfire, as happened later.];B[nn];W[on];B[mo];W[nq];B[pn]
;W[om];B[pp];W[pq];B[qn];W[qp];B[po];W[nm];B[mn]TR[oo][op][pp]
[po][pn][qn][on][om][nm]C[A lot of going back and forth 
with both of us, trying to decide what we want to accomplish.


newsman: and this is another good time to take a breather and look at the 
situation. The triangled black stones and triangled whilte stones have both 
been cut off and are being pushed up against live opposing groups. There is 
a good chance one will die.];W[mm]C[newsman: white sees this and starts to give his group more 
liberties. He now has five, compared to four for you.];B[qq]
MA[qr]C[For some reason I thought I could somehow take that huge white 
group at the bottom. Another huge mistake on my part.


newsman: except it forces white to answer. If he doesn't and you connect at 
X, then you are happy.];W[qr];B[rp]TR[qn][pn][pp][po][oo][op]
[on][om][nm][mm]MA[pl]C[Not sure why I did 
that, either.

newsman: A move at X effectively kills the white triangled group and saves 
the black triangle stones.];W[rq];B[ro];W[pm];B[rn];W[qm]MA[rl]

(;B[qo]TR[mm][nm][om][pm][qm][on]MA[rl]C[newsman: your survival lies in 
surrounding the triangled white stones. A move to X still keeps you alive.]
;W[qq];B[rm];W[rl];B[ql];W[pl];B[qk];W[rk];B[qj];W[sm];B[rj]
;W[sn];B[sk];W[pi];B[sp];W[sq];B[sj]LB[sl:1]C[I know I don't even have to TELL you how horrible that 
mistake is. I really think this is what really cost me the game later on. I 
should have played at 1, but for some reason I thought he still had one more 
move before he could put me in atari. And so, according to the natural 
course of events...];W[so]C[Fwumptapuz [27k?\]: Crap...didn't see that...
joojoonas [25k?\]: : o

Yeah, that's pretty much it. His reaction perfectly sums up the moment. It's 
like, what the hell, you know?



newsman: Yeah, it hurts to overlook something like that. It happens, though. 
Remember however, that you can stop these kinds of disasters with one or two 
preventative moves earlier on to secure the corner.

Learning what is secure is an ongoing process. Though I spot weaknesses in 
your position, stronger players find the weaknesses in mine. There's  a 
lesson in each game, if you learn it.];B[ij]TR[sk][sj][rj][qj]
[qk][ql]MA[pj]C[So, feeling slightly agitated at 
myself, I decided to secure J-8 a little more.

newsman: the emotion is understandable, though connecting at X stops your 
triangled group of stones from getting cut off and killed as well.]
;W[nj];B[ok];W[oi];B[nk];W[mj];B[mk];W[lk]
(;B[ml]MA[ll]C[newsman: connecting at X is better];W[kk];B[ll]
;W[jk]C[Not sure why I let him do that, but it worked out for the better.]
;B[lj];W[li]MA[kj]C[I'm not sure why HE did that...

newsman: me neither, since playing at X saves his group. His blunder, I 
guess.];B[kj];W[pj];B[pk]C[No connections for him.];W[gk];B[hk]
C[Yum. There's lunch!];W[kg]SQ[jd][dj]TR[pd][dd][dp]MA[nc][qf]
[fc][cf]C[newsman: This is another 
good point to take a break and survey the whole board, since there are no 
life and death battles going on. You have a live group in the centre, but 
not much else. White has the bottom right corner and has influence in the 
others. However, the game is not yet lost.
Any of the X moves would build up your territory on the side, while putting 
pressure on white's corners. As well, white's corners can still be invaded 
from behind.

see variation. it is a handy one to learn.]
(;B[ni];W[nh];B[mi]C[And a little snack after lunch...];W[mh]
MA[pd]LB[ni:1][mi:2]C[newsman: by comparison, your moves at 1 and 2 
were worth only two points of territory and two prisoners, while white is 
building a nice wall supported by his corner stone.];B[oh];W[ph]
;B[og];W[ng];B[pg]C[newsman: pushing into white's territory, that's the idea!]
;W[qg];B[qh];W[nj]C[I caught that just in time.];B[mj];W[lg]
;B[kh];W[of]MA[pf]LB[qi:A]C[newsman: pushing further into his territory at X is 
also a good idea. if you ever end up in trouble, you can always capture at 
A.];B[qi]C[I think my recent chain of decent captures caused me to get a little 
too confident.];W[qf];B[lh];W[mg];B[jg];W[jh];B[ki];W[jf];B[ig]
;W[if];B[ih];W[kf];B[ke]TR[jd]MA[md][mc][gd][gc]C[newsman: defending your triangled stone and 
building on it is a great idea. However, moves at the Xs would stake out 
more territory while staying safe.];W[le];B[kd];W[ld];B[lc]
;W[md];B[mc];W[nd];B[od];W[id];B[kc]MA[ic]C[newsman: a move at X also keeps your group secure but grabs 
more territory. Try to think bigger.];W[oe];B[oc];W[nc];B[ob]
;W[nb];B[mb];W[ne];B[mf]TR[ob][oc][od]MA[na]LB[qc:A]C[I did that to try and keep him from 
getting multiple eyes. Was that a correct move?


newsman: it fails on two points. First, while it stops white from forming 
two eyes there, by playing somewhere around A white can easily make a second 
eye somewhere along the side.

also, you have a chance here to play at X, and connect your three triangled 
stones.];W[lf];B[qd];W[pb];B[pc];W[qc];B[pe];W[oa];B[pd];W[qa]
;B[rc]MA[qf][qg]LB[pf:A]C[newsman: connecting at A would have saved your 
stones in the corner and killed the triangled white group.]
;W[pf];B[qb];W[pa];B[ma];W[rd];B[re];W[na];B[ra];W[qe];B[sd]
;W[rf];B[sb];W[sf];B[rh]MA[ic][ib]C[newsman: playing at one of the Xs and ensuring your black 
group is alive is more important than the few points gained by S12]
;W[se];B[sg]C[I was dumb again there. Should have played at S-16.


newsman: yes];W[rd]C[newsman: your only hope of living here is to get into a ko fight. 
Unfortunately, you don't have any large ko threats.];B[sc];W[qc]
C[Fwumptapuz [27k?\]: Damn...I did it again...
joojoonas [25k?\]: :)


Yeah, I have no clue why I keep doing that, considering the rest of my moves 
seem to have been solid. It's like I have split personalities or something. 
I totally could have taken that whole group if I had kept my head.]
;B[he];W[rb]C[newsman:  this is a wasted move on white's part, since you are 
already dead. wasting a move is like giving your opponent two moves in a 
row.];B[pd]C[Here I was being weird again and trying to get him to fill up those 
spaces, not realizing that he already had two eyes.


newsman: yes, wasted moves, but white is doing the same. The battle there is 
over. Take a breath, look at all the other open spaces.];W[sa]
C[I got chewed on again...];B[od]C[By this point I probably shoudl have resigned, given how off I had 
been during most of the game, but I decided to stick it out and see what I 
could do.


newsman: you are definitely behind, but there is a lot of undecided 
territory still out there.];W[pc]C[newsman:  for example, here is a series of small battles to give you 
an example of the potential still out there. It's only one of a thousand 
possible continuations, so take it only as an example, not gospel.]

(;B[oc];W[ob];B[sc];W[rc];B[sd];W[sb];B[pe];W[qd];B[pd];W[od]
;B[ie]C[I'm not really sure why I let him just chew on me like that when I 
could have made much more useful plays, but by this point I was kind of out 
of it.


newsman: it's easy to feel addled after a long battle. But now you are 
getting around to dealing with the other parts of the board.]
;W[fd];B[gd];W[df];B[ic];W[fc];B[gc]C[newsman: securing your black group, this is good!]
;W[fb];B[ge];W[fe];B[hf]C[newsman: shutting out the white group from the centre is good as 
well];W[rg];B[si]C[newsman: the following series of moves (by both sides) are small, 
considering the wide open spaces still on the board.];W[sh]
;B[pi];W[sg];B[sl];W[rm];B[gm];W[fm];B[gj]C[newsman: that's getting better]
;W[ej]TR[dj][gk]C[newsman:  at this point, don't worry about the white 
triangle stone, it is only worth a couple points, think of your own triangle 
stone.

see variation]
(;B[fk];W[ek];B[fl];W[el];B[fj];W[ei];B[di];W[dh];B[ci];W[bi]
;B[ck];W[bl];B[bj];W[ch];B[bh];W[bg];B[ah];W[ag];B[ai];W[cg]
;B[bk];W[cl];B[dk];W[ak];B[aj]C[I was really worried I couldn't secure that shape before he messed 
it up, but luckily I pulled it off.

newsman: you survived, but white is also much stronger.];W[al]
;B[eo];W[fg]
(;B[dm];W[em];B[do];W[dn];B[cm]LB[co:A][cm:2][dm:1]C[newsman: at this point, stones 1 and 2 are dead. 
it is better to push in from your live group to A.];W[cn];B[fr]
;W[er];B[fq];W[ks];B[fs]LB[co:A]C[newsman: A move to A would still destroy more of white's 
territory.];W[es];B[gr];W[hs];B[cp];W[bo]MA[cq]C[newsman: Very nice attack on your part to get the corner. 
white needed to play at C3 to survive.];B[dq];W[dr];B[cr];W[eq]
;B[cq];W[bm];B[ds];W[cs];B[bs];W[br];B[ep];W[as];B[ds];W[bs]
;B[dr];W[bq];B[bp];W[ap];B[aq];W[ar];B[co];W[an];B[aq];W[ao]
MA[dc][cc];B[er]MA[gb][gh]C[newsman: this move is unecessary, as your group is quite 
alive. Moves at the Xs claim more territory.];W[ff];B[hc];W[gb]
;B[jc]MA[hb]C[newsman: H18 is better];W[hb];B[ji];W[fa];B[gh]
;W[fh];B[fi];W[gg];B[hg];W[gf];B[hi];W[ib];B[cc];W[bc];B[ce]
;W[cd];B[bb];W[dc];B[cb];W[ac];B[bd];W[be];B[ab];W[ad];B[ee]
;W[de];B[eb];W[db];B[da];W[ea];B[ca];W[ba];B[bf];W[cf];B[eg]
;W[eh];B[af];W[ae];B[ja];W[ia];B[la]MA[jb]C[newsman: K18 is better]
;W[jb];B[kb];W[ka];B[ha];W[ja];B[ed];W[ec]
(;B[tt];W[tt]TB[es][cs][bs][as][br][ar][eq][bq][jp][dp][jo]
[io][ho][go][jn][hn][im][jl][il][lk][kk][jk][ik][pj][nj][cj]
[ri][oi][li][ii][gi][bi][ph][jh][hh][lb]TW[js][ir][sp][rp][pp]
[op][ro][qo][po][oo][rn][qn][pn][bn][dm][cm][am][bf][af][re]
[ce][sd][bd][sc][oc][qb][eb][ra]C[Well, 
there's the end of the game. However, we noticed the computer made a few 
errors and that a few more of my groups shoudl be dead, so please review the 
other path to see if we were correct.


newsman: I left more comments at the end of that path. Check them out.]
)
(;B[tt];W[tt]TR[gk][id]TB[es][cs][bs][as][br][ar][eq][bq][jp]
[dp][jo][io][ho][go][jn][hn][im][jl][il][lk][kk][jk][ik][pj]
[nj][cj][ri][oi][li][ii][gi][bi][ph][jh][hh][lb]TW[ss][rs][qs]
[ps][ns][ms][ls][js][sr][rr][pr][mr][ir][sp][rp][pp][op][ro]
[qo][po][oo][rn][qn][pn][bn][dm][cm][am][eg][dg][nf][mf][ef]
[bf][af][re][pe][me][ee][ce][sd][pd][ed][bd][sc][oc][cc][qb]
[eb][cb][bb][ab][ra][ha][ga][da][ca][aa]C[
Here is our altered end-game. It didn't really matter, but I wanted to know 
simply so I can understand the rules better and see if I was missing 
something. Anyway, thank you for reviewing my game.

~Fwumptapuz


newsman: the white stones at J16 and G9 are also dead, but, like you said, 
at this point it doesn't matter.

Hopefully my comments throughout the game were helpful. To sum up, here's 
some ideas.

- always remember to look at the whole board. Go is a complex game and this 
isn't always easy, but when a life and death struggle has finished in one 
part of the board, take a break and look around. Usually the next biggest 
move is somewhere else.

- try to work on your opening sequences, especially joseki. There are many 
resources that can answer your questions about playing on hoshi points or 
4-5 points, etc.
I've found the Elementary Go Series by James Davies to be a fantastic series 
of books. The ideas there are useful for players up to single kyu.
The best free resource I've found is Sensei's Library on the internet.
You can find it at http://senseis.xmp.net
You can spend many hours there (if not days).

- in the beginning, generally try to extend from your own stones to expand 
your power and take away your opponent's power. We saw examples of this in 
the game.

- you understand the concepts of connecting and dividing, though a couple 
times you missed a chance to either connect or divide. Keeping your stones 
connected, and dividing your opponent's, is a central concept in the game. 
Don't overlook this powerful weapon.

- efficency. I'm still working on this concept myself, but in general try 
not to waste stones. A useless stone is like giving your opponent a free 
move, while a stone that serves two or three purposes saves you a move or 
two down the line.

- try to learn some techniques for invading your opponent's territory, 
either along the side or in the corner. If your opponent's territory is 
large, but still very wide open, it calls out for an invasion. There are 
some basic sequences you can learn, that you can find in the above 
resources.

Anyway, I hope this review helps. It's been fun for me to do.

If you have any questions about my review, don't hesitate to contact me,

Thanks,
newsman]))
(;B[dq]C[newsman: this is better, it really cuts into white's corner.]

(;W[cq];B[eq];W[do];B[cr];W[bq]C[newsman: you have cut down his corner]
)
(;W[eq]C[newsman: if he tries to cut you off, slide ito the corner]
;B[cq];W[cp];B[bp];W[bo];B[er]MA[bq]C[newsman: if white cuts at x]
;W[bq];B[fq];W[ep];B[do];W[co];B[fr]C[newsman: and you connect]
)))
(;B[ei]TR[ej]C[newsman: this is better, threatening to live by capturing the 
white stone.]
(;W[fj];B[fi]C[newsman: you are now connected, if white tries to cut]
;W[di];B[ek];W[fk];B[fl]C[newsman: he is dead])
(;W[di]C[newsman: if white tries to cut here, simply capture the other white 
stone];B[ek];W[fj];B[fk];W[fi];B[eh];W[dk];B[cj];W[fh];B[dh]
C[newsman: white will likely connect, and you should be able to 
survive on the side.])))
(;B[ic]C[newsman: first, secure your black group];W[hd];B[hc]
;W[gd];B[cc]C[newsman: then, invade the corner];W[cd];B[dc]
;W[ec];B[eb];W[fc];B[fb];W[bc];B[bb];W[bd];B[gj]C[newsman: now, you can begin to seal off the centre]
;W[eg];B[hf];W[ej]C[newsman:  if white tries to claim it, then live inside]
;B[dk];W[ek];B[di];W[ei];B[dh];W[eh];B[cl];W[dm];B[cf];W[cm]
C[newsman: if white tries to seal off the other corner, you can slide 
into it.];B[dq];W[cq];B[eq];W[cr];B[bl]C[newsman: now the game is more to your liking. Again, this was just a 
sample of some ideas, they contain lots of posible variations and would not 
likely happen exactly as shown. But they show what you can do when your 
opponent leaves those wide open spaces for you to invade.]))
(;B[cc];W[cd];B[dc];W[ec];B[eb];W[fc];B[fb];W[gc];B[bd];W[be]
;B[bc];W[cf]MA[ff][gg]C[newsman: now if you invade around one of the Xs you will 
begin to eliminate his outside influence.]))
(;B[ll]MA[ml]C[newsman: then if he cuts at X, you kill the white stones.]
;W[ml];B[lj]))
(;B[rl];W[rm];B[sm]C[newsman: connecting underneath];W[ql];B[rk]
;W[qk];B[qj]C[newsman: white may still find a way to sneak out and connect 
somewhere, but you are alive as well.]))
(;B[pq]LB[no:A]C[newsman:  The group at J8 is not as important right 
now as preventing white from getting further inroads and totally destroying 
your territory. A move at Q3 now would have sealed off the corner and 
stopped most of the damage, though white could have kept pushing in from the 
A stone.]))
(;B[no]LB[no:1]
(;W[pp]LB[pp:2][no:1];B[oo]LB[oo:3][pp:2][no:1];W[po]LB[po:4]
[oo:3][pp:2][no:1];B[pn]LB[pn:5][po:4][oo:3][pp:2][no:1]C[newsman: white gains the corner, but 
you keep territory in the centre])
(;W[oo]LB[oo:2][no:1];B[pp]LB[pp:3][oo:2][no:1];W[pq]LB[pq:4]
[pp:3][oo:2][no:1];B[qp]LB[qp:5][pq:4][pp:3][oo:2][no:1]C[newsman: you keep more of the middle 
this way]))
(;B[pq]LB[pq:1];W[pp]LB[pp:2][pq:1];B[qp]LB[qp:3][pp:2][pq:1]
;W[po]LB[po:4][qp:3][pp:2][pq:1];B[qo]LB[qo:5][po:4][qp:3][pp:2]
[pq:1]C[newsman: you keep the corner, but 
lose part of the area in the middle.]))
(;W[gm];B[hn];W[hl]))
(;B[fn]C[newsman: now white is in trouble. If he tries to flee, keep 
following him.];W[gn];B[fm];W[gm];B[fl]MA[en][dp]C[newsman: He is still weak and will have to fight hard to 
live, and you are becoming stronger. His two marked stones sure look 
vulnerable now.
You are now in control of the game.]))
(;B[or]MA[ns]C[newsman: if you play here, white is still in atari but has 
nowhere to run. Extending to O1 does nothing.];W[ns]C[newsman: white is still in atari. In a race for liberties, it is 
often a good tactic to force your opponent to the side of the board.]
))
(;B[nq];W[mp];B[pm]MA[nc][fc][cf][qf][cn]LB[jp:A]C[newsman: now the side is really 
starting to become your territory. If white consolidates his territory with 
A, you get the initiative to attack one of his other stones first.

He gains territory, but you gain more.]))
(;B[pd]LB[pd:A]C[newsman: If you play at A, white can connect on the side, 
but you are also connected.];W[dj];B[jd]LB[pd:1][dj:2][jd:3]
C[newsman: now you get the first shot at the 
side.];W[jp]C[newsman: if white grabs the other side];B[qp]
C[newsman: you get to consolidate your corner. Though far from over, 
at this point you are laying claim to more territory and are ahead in the 
game.]))
(;B[fc]LB[fc:A]C[newsman: If black attacks the hoshi at A, one standard 
sequence is as follows];W[ec]LB[ec:2][fc:1];B[fd]LB[fd:3][ec:2]
[fc:1];W[df]MA[jd]LB[df:4][fd:3][ec:2][fc:1]C[newsman: White claims the corner, 
black builds influence on the side. A follow up move for black at X, or 
thereabouts, depending on other stones, is strong.])
(;B[cc]LB[cc:A]C[newsman: If black wishes he can invade the corner with A. 
This often leads to the standard sequence shown here.];W[dc]
LB[cc:1][dc:2];B[cd]LB[cc:1][dc:2][cd:3];W[ce]LB[cc:1][dc:2]
[cd:3][ce:4];B[be]LB[cc:1][dc:2][cd:3][ce:4][be:5];W[cf]LB[cc:1]
[dc:2][cd:3][ce:4][be:5][cf:6];B[bf]LB[cc:1][dc:2][cd:3][ce:4]
[be:5][cf:6][bf:7];W[cg]LB[cg:8][bf:7][cf:6][be:5][ce:4][cd:3]
[dc:2][cc:1];B[db]LB[cc:1][dc:2][cd:3][ce:4][be:5][cf:6][bf:7]
[cg:8][db:9];W[eb]LB[cc:1][dc:2][cd:3][ce:4][be:5][cf:6][bf:7]
[cg:8][db:9][eb:10];B[cb]LB[cc:1][dc:2][cd:3][ce:4][be:5][cf:6]
[bf:7][cg:8][db:9][eb:10][cb:11];W[fc]LB[cc:1][dc:2][cd:3][ce:4]
[be:5][cf:6][bf:7][cg:8][db:9][eb:10][cb:11][fc:12]C[newsman: 
Black makes territory in the corner, but white has made a solid wall of 
stones facing the side and centre, white should allow him to build territory 
there later on.

When, and whether, a move like Black 1 should be played is a larger 
question.]))
