(;FF[4]GM[1]SZ[19]ST[0]AP[SGFC:1.15]

GN[GTL]
PB[AusTex]
BR[25k]
HA[0]
PW[LuizBorges]
WR[24k]
KM[0.5]
DT[2005-07-30]
PC[The Kiseido Go Server (KGS) at http://kgs.kiseido.com/]
RE[W+69.50]
RU[AGA]

C[I think both players played a pretty sophisticated game considering their ranks.  For white I would recommend incorporating the "kakari" approach instead of these high distant moves.  They won't do enough for you in the middle and they don't take enough away from the corner.  Black in this game, several times made moves of little or no value.  And both players ignored a move, the double approach on f-16 for a very long time.  In fact it was never made.  This is an excellent mistake though!  It is easily correctable and it gives me an idea of what you need to do to improve.  When  a person doesn't answer your approach move especially a high distant one, think about the double approach.  If you want to see examples look at the games between the old masters games like Shusaku and Shuei.  For some reason their opponents seemed to get into those situations a lot.  I highly suggest you play over professional games like this.  Don't overlook the older players (Shusai and earlier) either, sometimes their games can be even more instructive than the modern masters. Find them at Gobase.org.  Keep sending in games too!]
;B[dd];W[pp];B[dp];W[qd]
(;B[jd]C[This is a little unusual.  p-16 is the usual move.  See the variation.]

(;W[hp]C[Again a little unusual.  I dont see anything wrong with f-3.]
;B[pc]C[This is a little close.  Again p-16 was the move and you will end up with something similar to what I showed earlier.]
;W[dm]C[These moves are so distant black could even consider playing away and try to gain an advantage elsewhere.  But responding is is good too.]

(;B[gp]C[This contact play will only help white get stronger.  f-3 or f-4 seem natural.]
;W[go];B[fo]LB[fp:a]C[At "a" was a little better.];W[fp];B[gq]
;W[fn];B[eo];W[hn];B[fq]C[Black ends in gote and white has substational thickness.]

(;W[dg]C[In Go the most important and hardest thing to do is try to find the optimum relationship between all of your stones.  Here I understand white is trying to play distantly to avoid a pincer and make a large amount of territory along the left side.  However this plan is flawed.  Black can still easily erase this territory.  If you wanted to establish side territory I would suggest playing tighter and lower, perhaps c-11.  The thing you have to understand is that thickness is flexible, it might become profit or it can be used for other things.  Probably your opponent will get worried if you start getting a lot of it and try to attack it.  You can then use it to attack him in turn because thick groups like the one on g5 tend to be hard to kill.  Therefore my move would probably be c-14.]
;B[qn];W[on];B[qp];W[po]TR[on]C[I can hardly suggest better.  Proabably p-6 (the marked stone) was an innapropriate response here.]
;B[qo];W[pm];B[qm];W[oe]C[This is a good flexible way to handle this position.]
;B[od];W[qf];B[qc]
(;W[of]C[Unecessary.  Probably you are familar with the "table shape."  This is an excellent shape to make when you are trying to make eyes for a weak group.  However these stones are not weak at all.  Just make territory with r-11]
;B[pq];W[oq];B[pr];W[or]C[p-2 is pretty small when you factor in that black has an open skirt to the left.]
;B[io];W[ip];B[ho];W[in];B[gn];W[gm];B[go];W[jo];B[fm]
(;W[en]C[Here white has played well to keep black contained but this is a mistake.  White should just cover the k-6 cutting point.]
;B[hm];W[gl]
(;B[im];W[kn];B[jn];W[jm];B[in];W[kp];B[km];W[lm];B[jl];W[mk]
;B[ln];W[ko];B[mm];W[ll];B[mn];W[mo];B[ml];W[lk];B[no];W[lo]
;B[nn];W[np];B[oo];W[nl];B[op];W[pn]C[Capturing is of course better.  Now black gets at least something with the hane. The move at q-8.]
;B[pl];W[nm];B[ol]C[Black 75 is worthless.];W[ok]C[Both players are making very small moves.  The best move is around f-16 for both.  Locally the best move would be around r-11 or r-10.]
;B[pk];W[oj]C[r-11 is still better for white.  Why did you play p-10.  You are not making very  many points if any, you are not attacking a weak group or making life for a weak group of your own.]
;B[pj]C[r-11 is faster.]
(;W[pi]C[The territory in this sector is badly ruined for white now and this move, locally at least, is probably acceptable.  Although f-17 is still big.  See the variation.]
;B[kj]C[I guess this move reduces white's little moyo that's beggining to form.  Wouldn't n-16 do that too and help defend though?]

(;W[el];B[em]C[Obviously bad.];W[fl];B[dn]C[Locally the proper move would have been c-6.  d-6 is practically pointless.]
;W[qi]C[This is a fine move.];B[ep]C[e-4 was nothing.  It didn't even remove a ko-threat.  Actually i take that back,  e-4 was minus one point for black.]
;W[ps]
(;B[qs]
(;W[os]C[q-2 is a tactic to remember.];B[qq];W[qj]C[White threatans to capture 4 stones. s-8 threatens the same thing and is worth more points.]
;B[ql];W[rk]C[Here black could have ignored the monkey jump to play f-16.  It would have been much bigger.]

(;B[rl];W[sl];B[sm];W[sk];B[rn]C[This move was unecessary.]
;W[lj]C[small.];B[li];W[mi];B[lh];W[mh];B[mg];W[ng];B[mf]C[Black has made a nice wall which makes things much more difficult for white.  Also white didn't get that much profit.]
;W[jk];B[kk];W[ik];B[kl]C[These last couple of moves confuse me.  They don't seem to really do anything very beneficient for either player.]
;W[ih]C[This is a good move which reduces your opponent and strengthens your own position.]
;B[if]C[Probably not the best move but acceptable.  Of course I would still like to see one of you make the play around f-16.]
;W[cn]C[This illustrates why d-6 was bad.  Think how much different things would be over here if black had played c-6.]

(;B[do]C[play c-5 here..Who cares about a meaningless ko?];W[co]
LB[cm:a]C[A proper move.  Note that other moves are difficult because of the cutting point at "a."]
;B[cp];W[bp];B[bq];W[ao]
(;B[cr]C[I dont under the point of this move.  Locally the move for both sides would be at a-3.]
;W[ce]C[As I have already pointed out a doube-approach with perhaps f-16 or f-17 was the right way to play here.]
;B[cd];W[ee];B[de];W[df];B[cf];W[be];B[bf]
(;W[af];B[ag];W[bg];B[ae];W[ah];B[bd]
(;W[cg]C[A mistake.  White doesn't need to allow a ko fight here.]
;B[bh];W[af]
(;B[ai]C[black should take this opportunity to find a "ko-threat." r-9 seems pretty good.]
;W[ag];B[ci];W[di];B[cj];W[dj];B[cl];W[cm];B[bm]
(;W[dl]
(;B[ck];W[bn];B[am];W[ak];B[bl];W[bj];B[bk];W[aj];B[bi]C[=(
Black dies in gote.];W[hf];B[dk];W[ek];B[al];W[aj];B[hg];W[ig]
;B[hh];W[ie];B[jf];W[hd];B[ii];W[kg]C[I think white had to think about g-14.]
;B[jg];W[jh];B[kh];W[ji];B[jj];W[hi];B[ki];W[gh];B[gf];W[he]
;B[gi];W[hj];B[fh];W[gj];B[fi];W[eh];B[ef];W[fe];B[ff]
(;W[ge]C[This group at the top really ought to die now.  Your best bet was to try to make something happen with k-17.  See the variation.]
;B[ej];W[fj]C[excellent defensive move.];B[fc];W[je]
(;B[ke];W[kd];B[kc];W[ld];B[jc];W[lc];B[hc];W[ic];B[ib];W[id]
;B[jb];W[gc];B[hb];W[fb];B[gb];W[ec];B[fd];W[ed];B[dc];W[db]
;B[cb];W[ea];B[ca];W[da];B[ga]C[White dies, needless to say black allowed that to be more complicated than necessary.]
;W[nd];B[nc];W[pd];B[oc]
(;W[nf]C[See the variation.];B[md];W[kf];B[le];W[hq];B[hr];W[ir]
;B[gr];W[rc];B[jq];W[jp];B[iq];W[jr];B[hs];W[is];B[ij];W[hl]
;B[aq];W[ne];B[me];W[qb]C[Unbelievably large.];B[pb];W[ra];B[ap]
;W[bo];B[il];W[hk];B[qk];W[ri];B[pa];W[qa];B[ei]C[A clear mistake which shouldn't cost black the game.]
;W[fg];B[gg]
(;W[eg];B[tt];W[ih]C[Black overlooked this I am guessing.];B[fa]
;W[jh];B[eb];W[ig];B[gd];W[mc];B[mb];W[lg];B[sb];W[rb]C[Capturing on m-16 was worth a bit more.  Now black should capture m-18 although it doesnt matter i think, white still wins.]
;B[tt];W[lf];B[lb]C[contact me for any questions you have: benjaminschooley@hotmail.com]
)
(;W[eg];B[ih];AE[ec][ed][ee][fe][ge][hd][he][hf][ic][id][ie]
[je][gc][fb][da][db][ea][kd][lc][ld][kf][kg][ai][al][am][bh]
[bi][bk][bl][bm][ci][cj][ck][cl][dk][iq][jq]TB[aa][ab][ac][ad]
[ar][as][ba][bb][bc][be][br][bs][cc][ce][cq][cs][da][db][dq]
[dr][ds][ea][eb][ec][ed][ee][eq][er][es][fa][fb][fe][fp][fr]
[fs][gc][gd][ge][gs][ha][hd][he][hf][hn][ia][ic][id][ie][ig]
[ja][je][jh][ji][jm][ka][kb][kd][kf][kg][la][lb][lc][ld][lf]
[lg][ma][mb][mc][na][nb][oa][ob][qr][rm][ro][rp][rq][rr][rs]
[sn][so][sp][sq][sr][ss]TW[ai][ak][al][am][an][bh][bi][bj][bk]
[bl][bm][ch][ci][cj][ck][cl][dh][dk][ei][ej][em][fh][fi][fk]
[fm][gi][gk][iq][jq][js][kq][kr][ks][ln][lp][lq][lr][ls][mj]
[ml][mm][mn][mp][mq][mr][ms][nh][ni][nj][nk][nn][no][nq][nr]
[ns][og][oh][oi][oo][op][pe][pf][pg][ph][qe][qg][qh][rb][rd]
[re][rf][rg][rh][rj][sa][sb][sc][sd][se][sf][sg][sh][si][sj]
))
(;W[me];B[kf]C[Otherwise white escapes with his group.  Im not sure which is bigger, m-18 or s-17, they both seem rather large.]
))
(;B[kd]C[White dies this way.  Pushing further may actually help black cover his weakness around o-15.]
;W[ke];B[md]C[White has zero eyes.]))
(;W[jc];B[kc];W[kd];B[ld];W[kb];B[lc];W[id]
(;B[je];W[ib];B[gc];W[hc];B[gb];W[hb];B[lb];W[ja]C[White lives in gote.]
)
(;B[jb];W[je];B[ic];W[ib];B[jd];W[hc];B[jc];W[ec];B[dc];W[db]
;B[cb];W[gb];B[eb];W[fb];B[da];W[ha];B[fa];W[fc]C[Again I am not sure if this is accurate., black could've been more aggressive perhaps.]
)))
(;B[bk];W[aj];B[bi];W[ak];B[al];W[dk];B[ck];W[bn];B[am];W[an]
;B[bj]C[It would appear black lives.  Im not confident in my own life and death abilities however so I can't say for sure what I just showed is correct.]
))
(;W[bk]LB[ck:a][bj:b]C[This would probably be adequate to kill.  "a" and  "b" illustrate the concept of miai again.]
))
(;B[qk];W[rj];B[ag];W[ai];B[bi];W[af];B[jq];W[jp];B[ag];W[aj]
;B[bk];W[af]C[White in this way has gotten away without having to make counter ko-threats but now losing the ko would be devastating.]
;B[hh];W[ag];B[ii]C[This result is bad for white.]))
(;W[ch]))
(;W[bd];B[bc];W[dc]
(;B[ed];W[cc];B[ad];W[bb];B[ae];W[fb])
(;B[ad];W[ed];B[cc];W[hc])))
(;B[fd];W[aq];B[br]))
(;B[co];W[do];B[bo]C[This is better than what black got in the game.]
))
(;B[fd];W[sn];B[rn];W[sm];B[so];W[rl];B[rr]C[It's probably worth playing a defensive move inside.]
))
(;W[qr];B[os];W[qq];B[ps];W[ns]C[White wins.]))
(;B[qr]C[Either this or s-10 was required.]))
(;W[fj]C[f-10 does the same thing as e-8 but also helps solidify the relationship with the d-13 stone.]
;B[em]C[If your worried about the aji building up you may play d-8 here or try to kill with d-6.  I admit it is difficult to forsee the consequences either way.  I might consider d-8 in order to get f-16 in.]
))
(;W[fc]C[White f-17 is so good I even have a hard time finding an acceptable answer for black!]
;B[fd];W[gd];B[fe];W[ec];B[de];W[ic];B[jc];W[ge];B[gf]C[There are many possible variations.  Both black and white's groups are weak.  White wants to live with his stones around g-16 and black would like to try to surround the d-13 stone and make some profit on the left side.  However he needs to make his group stronger first.  I think here, depending on what white does black can consider d-11 if white takes the corner, or if white defends the side black can try d-18 which is quite large and also aggressive.]

(;W[fg]C[white defends the side.];B[db];W[dc];B[cc];W[eb];B[cb]
;W[gb])
(;W[cb]C[White goes for the corner.];B[di]C[The fighting could become very complicated here.]
)))
(;B[jn];W[im];B[jm];W[il];B[ko];W[jp];B[kp];W[kn];B[km];W[kq]
;B[jq];W[lp];B[ln];W[lo];B[kn];W[iq];B[lq];W[jr];B[kr];W[jq]
;B[mo];W[mp];B[np];W[mq];B[nq];W[lr];B[nn]C[This looks promising for black.  Although admittidly he will have to keep an eye on this group as it isn't alive yet.  Right now white has to play p-2 so he can consider running away or try to make life with the eye potential he has there.]
))
(;W[kn];B[hm];W[gl];B[im];W[jn]TR[hm][im]C[These stones are weak.]
))
(;W[qi]C[A move like r-11 and r-17 are "miai."  Meaning if black played around r-11 you would take the corner with r-17.]
))
(;W[cf];B[ch]C[Black may be inclined to execute this pincer.]
;W[cc];B[cd];W[dc]
(;B[ed];W[bd];B[be];W[bc];B[ce];W[fc]TR[dm][fn][go][hn][hp]
C[White's thickness has allowed him take profit along the top.  Also normally black would get a corresponding amount of territory on the left side but he wont here because of the marked group.]
)
(;B[ec]C[This is a common mistake I see in this joseki.];W[bc]
;B[bd];W[ed];B[fc];W[be];B[ee];W[ad]CR[ed]TR[pp]C[White got the corner and sente since black now has to capture the circled stone.  The  "x" stone is a ladder breaker.  If your not sure how play it out to see what happens (x could even be a move lower).]
)))
(;B[fp];W[hn];B[fm];W[ek];B[nq]))
(;W[fq];B[cn];W[dr];B[cq];W[iq];B[od]))
(;B[od];W[oc];B[nc];W[pc];B[nd];W[qf];B[jc]C[Black solid along the top and white has sente.  This is a variation to be familiar with.]
))
