(;FF[4]GM[1]SZ[19]ST[2]CA[UTF-8]AP[SGFC:1.15]

PB[talw]
BR[22k]
PW[sabetts]
WR[22k]
KM[0.5]
DT[2005-08-21]
PC[IGS-PandaNet]
RE[W+40.50]
TM[0]
OT[25/600 Canadian]
RU[Japanese]

C[Hi! I'm talw playing on IGS I'm BC but it's because that's what I set myself to be all the time. The only other rank I choose can be 22k, but I'm not sure if I'm at lvl or not.

This is one of my first 19x19 games, I played a couple of games on 13x13, and then decided to try a large board game, I stayed away from it because it looked really long and boring, but it turned out to be great with alot of great moments for me.

I lost the game by quite a bit, but I think that still trying to force my way into my White's territory didn't made me lose more points, because even though he gets 1 more point for the capture, he lose 1 more point for putting another stone to eat it.
So I tried what I could.

This game had a lot of different settings and fights and I'm sure I'll find most of my flaws in here (maybe not me, but the reviewer [you\] may :D)

Thanks alot for your work!];B[dq];W[qd];B[dc];W[pp];B[jp]C[All the opening moves were pretty random reactions by me, is it okay up to now? I know there are josekis and the like, but I try to stay away from them, I don't feel like memorizing josekis if I don't really know the meaning behind the joseki's moves.


***
I once heard someone say "Memorize joseki and lose 2 stones of strength".  It's much better to understand the joseki than to simply memorize them.

When I was near your level, I found that I went back and forth between different reasonas for why I thought I was losing games.  Fuseki was definitely one of those categories.  

The 3rd line is the line of territory and the 4th line is the line of influence.  Also, the 3rd line tends to be more stable and is easier to play when you start out.  Many times, when approaching your opponent's stones, you'll want to play on the 3rd line.]
;W[cd]
(;B[bc]C[I attempted to secure the corner which will be secured later on, so is this move really helped secure? Is there a better move?

***
I'd say there's probably a better move.  B17 commits you to keep the corner.  C17 is the likely response, and you're going to end up with an awkward shape that white can keep attacking over and over again.  Typically, you can simply try to expand your corner and leave white pressured to play a stabilization move.  I'd be tempted to play F16 in response.  Or maybe agains a weaker player, I'd try E15.  I don't know if E15 is an overplay, but it's certainly aggressive...]
;W[cc]
(;B[bb]C[I didn't want to lose B17 so I extended

***
This is a bad situation for black already.  White was kind to you at least in the follow up moves here...]

(;W[dd];B[ec];W[ch];B[qq]
(;W[qo]
(;B[rp]C[Again securing the corner, is this the right move?

*** 
I'd probably say that no it's not the right move.  It feels small.  Q3 seems a bit stronger of a move.]

(;W[pq];B[pr];W[ro];B[or]C[tried to enlarge it as far as I can,
Is it good in the long run? I may have a long 1 line territory secured but then White gets a larger piece of the whole middle (I think :X)


***
You're thinking about the right things.  Keep considering that kind of stuff and you'll quickly improve.]
;W[rq];B[rr];W[oq];B[nr];W[kq]
(;B[kr]C[Wasn't sure how to react to this one.];W[lr];B[jr]
;W[jq]
(;B[ir]C[***
You seem to keep leaving yourself with similar shape.  This is going to hurt you.  Of course, play them out more and you'll start to get a feeling for it.  it's bad to be pushed along the second line]
;W[ip];B[jo];W[mo];B[iq];W[io];B[lq];W[kp];B[lp];W[ko]
(;B[jn];W[mr];B[nq];W[np]
(;B[mq];W[lo];B[hp];W[ho];B[gp];W[cp]
(;B[bq]C[This does not leave strong shape.  Try playing with some alternatives to this.]
;W[ep]
(;B[fp];W[eq];B[fr];W[fq];B[gq]C[I tried to do whatever I can to make sure I claim a bigger part of the bottom, not so sure it was the right thing to do though.]
;W[er];B[gr];W[fo];B[go];W[hn];B[gn]C[I could've had that 4 whites group if I played H7 but for some reason I was confident that they are already "dead".
This is a mistake I found out by myself ;)];W[cq]
(;B[dp];W[do];B[dr];W[ds];B[bp];W[bo];B[ao];W[hm];B[gl]C[After realizing my mistake I tried to do whatever I can to seize them, unfortunately I'm not experienced enough to determine wether it's possible or not in the long run.
G8 seemed like a move that could stop them.

*** 
It really is too late.  Try to look at the weakness of both sides.  Those 3 black stones are nestled in pretty well in the middle of white stones.  Black can also possibly be cut on the other side.  White has only one group to worry about and will likely be able to make enough threats to get their wa]
;W[jm];B[bn];W[co];B[en];W[dm];B[eo];W[cr];B[fn];W[kn];B[hl]

(;W[il];B[br];W[bm]TR[an][ap][bs]C[***
Black is dead here.  Picture the stones if white simply prevents escape.  Notice that 3 space eye shape.  it's extremely easy to kill.  If you notice, A2 and B1 are miai]
;B[cn];W[dn];B[cm];W[cl];B[bl];W[an];B[ap];W[bk];B[bs];W[jc]
;B[ar];W[fh]C[I really didn't know how to response to white's moves  in F12 and C12.

***
Tenuki.  Look for your own big moves.  Sometimes it's good to ensure the ability to invade an area.  Of course, stability of your own stones is extremely important (so maybe C18)]
;B[fd]C[Again trying to stretch the top as much as I can (which later on resulting in white getting the whole middle board)]
;W[fe];B[gd];W[ge];B[hd];W[je];B[ic];W[id];B[hc];W[he];B[jb]
;W[ib]
(;B[hb];W[kb];B[ia];W[kc];B[ka];W[la];B[ja];W[mb];B[cb];W[bd]
;B[ad];W[ae];B[ac];W[ce];B[ee];W[ed];B[ef];W[fg];B[cf];W[cg]
;B[df];W[bf];B[de];W[be];B[bg];W[dg];B[af]C[I know I didn't have to waste a move to eat them, but I was afraid that if I waited another move white would be able to save them, somehow...

***
If you can overcome your fear, you'll become a stronger player.  Moves right now are worth huge amounts of points.  Invasion of the right side is *critical*]
;W[bh];B[ag];W[ah];B[qc]C[Trying to get the top left corner next

***
Do our editors show stuff differently?  i see R17 as the top right...]
;W[pc];B[qb];W[pb];B[pa]C[Again I'm not so sure if that's the correct way to claim a corner but I did what I thought was right at the time.]

(;W[oa];B[qa]
(;W[nb];B[rd];W[qe];B[re];W[rf];B[qf];W[pf];B[qg];W[pg];B[pe]
;W[pd]
(;B[oe]C[***
Those stones will die.  It's much better to grow your side group.]
;W[qh];B[rg];W[sg]
(;B[sf];W[rh];B[sh];W[ri];B[si]
(;W[ph];B[rj];W[qj];B[rk]C[Again, trying to stretch out whatever territory I have, bad habit huh?

**
It's almost the right thing to do in this case.  The bigger move is actually near F8.  A black invasion there hurts white badly]

(;W[rl]C[***
You got lucky.  White should have been content to chase black along the edge.]
;B[qk];W[pj];B[pk];W[ok]C[.];B[sj]C[This was a useless move on my part, I know.]
;W[ol];B[oj];W[nj];B[oi];W[ni];B[oh];W[og];B[nh];W[ng]C[Trying and trying...
I may learn stuff from trying out, right? :D];B[mh];W[jh];B[nk]
;W[mk];B[nl];W[nm];B[pi];W[qi]C[I thought I could catch that whole bunch of whites in the right side.]

(;B[nf];W[mg];B[lg]C[A mistake I guess... now I'm in danger.]
;W[mf]
(;B[ne]C[I should've connected at M12 but I didn't notice it during the game.

Perhaps now that I think of it, maybe if I connected there, the game could've been turned around and I would've won? or at least got alot closer to it?]
;W[lh];B[lf];W[mi];B[oc]C[***
Lost a ko threat];W[ob];B[od];W[me];B[ld]C[Trying out whatever I can to save myself from losing the middle.
I wonder if I should've worked there instead of maybe developing the bottom?]
;W[md]C[talw: hehe];B[lc];W[lb];B[mc];W[le];B[nc];W[kd];B[kf]
;W[jf];B[kg];W[kh]C[I realized I'm doomed in this part...
I could never learn it, if I didn't try it out.

*** 
Good attitude]
(;B[gm];W[hk];B[gk];W[ik]
(;B[em];W[gj];B[fj];W[fk];B[ek];W[fi]
(;B[fl];W[ej]
(;B[fk]C[***
too small];W[hi]C[sabetts: you could have cut my line and put a stone in atari at 3 places there
sabetts: it probably would have been a good idea to try that]

(;B[ei]C[I wonder if all my effort works against me?
I mean I could've just give up on the middle but I wouldn't get anything from it, I would've lost so I'm trying to take parts of the middle, and if I lose stones I didn't really lose more points because white took parts of the middle too in order to capture those stones. And heck, if I do succeed in taking something of the middle, I increased my chances of winning.


Is all this right?

***
Sounds right to me.  As long as your opponent responds to you, you've lost nothing.]
;W[dj];B[di];W[ci];B[eg];W[eh];B[ff];W[gf];B[gg];W[hg]C[I realized I'm doomed here too.]

(;B[dl];W[dk];B[el]C[***
Too small];W[ck];B[mp]C[***
Too small (zero points?)];W[ql]C[White should have connected at O5, but he didn't.]
;B[sl]C[I should've played there exploiting white's mistake, but I didn't notice white's mistake.]
;W[no];B[pl]C[Trying to get whatever I can, stretch my territory as much as possible and eat some whites on the way.

The only flaw I see in this is the fact I don't develop to the middle from here.]
;W[sm]
(;B[sk]C[***
Too small];W[qm];B[pm];W[om];B[qn];W[pn]
(;B[rn]C[***
Big mistake, but both sides missed it.  See the variation...]

(;W[sn];B[rm];W[so];B[on]C[Yes it is a "suicidal" move so to speak, but I don't lose anything as long as for each black that I play there white plays a stone, right?
Of course, unless I play like 3 stones, and white captures them with 2, in that case I lost a point.

***
While you can do that, remember that you'll just irritate your opponent if you do lots of pointless moves.  This is another lost ko threat]
;W[po]
(;B[oj]C[Here I lured white to the atari. So that then I could continure the ladder and them maybe catch those "L" shaped 4 white stones.
But it wouldn't work anyway now that I look at it :/.

***
Try to avoid assuming sheer stupidity from your opponents.  It works at first on these servers but as you improve, so do your opponenets.  That was a hard habit for me to break...]
;W[ml];B[km];W[in];B[lm];W[kl];B[sp];W[qp];B[sq];W[ll];B[cs]
;W[es];B[fs]C[sabetts: i'm satisfied];W[tt];B[cn]C[I realized I lost, but I'm still new so I don't know if there was another thing I could've done or not. So I tried out what was in my head. Turned out to be a failure.]
;W[cm];B[dq];W[gh];B[dp];W[dr]C[Here I actully lose an extra point, not that it changed anything.]
;B[nn];W[mn];B[tt];W[tt]C[You can check your score with the score command, type 'done' when finished.
Click on a group of stones to mark it dead and remove it from the board.]
;B[tt]TW[ma][na][lc][mc][nc][oc][jd][ld][nd][od][ie][ke][ne]
[oe][pe][hf][if][kf][lf][nf][of][gg][ig][jg][kg][lg][dh][hh]
[ih][mh][nh][oh][ai][bi][di][ei][gi][ii][ji][ki][li][oi][pi]
[aj][bj][cj][hj][ij][jj][kj][lj][mj][oj][ak][jk][kk][lk][nk]
[al][bl][jl][nl][am][im][km][lm][mm][bn][cn][jn][ln][nn][on]
[jo][oo][dp][jp][op][dq]TB[aa][ba][ca][da][ea][fa][ga][ha][ra]
[sa][ab][db][eb][fb][gb][ib][rb][sb][cc][fc][gc][rc][sc][bd]
[cd][dd][ed][sd][ae][be][ce][se][bf][rf][sg][ql][rl][fm][qm]
[fo][aq][hq][rq][hr][lr][mr][qr][sr][as][gs][hs][is][js][ks]
[ls][ms][ns][os][ps][qs][rs][ss]C[And that's it.
You can ignore the ending where I tried stupid stuff, I think it's impossible to offer me variations which could've made me win this game from that point.

Something I learnt for myself, after I start from corners and move to the side I gotta move to the middle, instead I tried to stretch the really thin side.

I guess that if I my line of territory was on 3rd or 4th line, then stretching the sides would've been okay wouldn't it?

Again, thanks for your help!!

***
3rd line is the cut-off for getting enough profit for giving up influence in many cases.  The 2nd line is usually bad (thus it's called the line of defeat).  It's hard to maintain territory  on the 4th line and thus most call it the line of influence.  if you can hold it on the 4th line, then definitely go for it.

Your welcome, good luck with mastering go])
(;B[sq]C[***
This is the one of the last points left on the board.])
(;B[fs]C[***
This is the other point]))
(;W[sg]C[***
Be careful...]))
(;B[rm]C[***
This move is almost required.  Look at the variation I made in response to your next stone...]
))
(;B[qm]C[***
This is an excellent alternative...]
(;W[rm];B[rn]
(;W[sn];B[so])
(;W[sk];B[sn]))
(;W[sk];B[rm]
(;W[sl];B[sn])
(;W[sn];B[sl]))))
(;B[dk];W[cj];B[dl]C[***
Technically this last move is too small to do until later in the game]
))
(;B[dj];W[ei]
(;B[ck]C[***
oops, ignore this stone...])
(;B[dk]C[***
Lots of invasion options])))
(;B[dj];W[fk];B[dk]C[***
Keep up your invasion :)]))
(;B[ej]C[***
Again, keep your eye on your extension into your opponent's area.]
))
(;B[ej]C[***
you can be far more aggressive in this situation.  You have a solid base.  Look for the deepest move that you can make to invade your opponent.]
))
(;B[fl]TR[gl][fn][gn]C[***
Bamboo joints are also guaranteed to be connected.  This form is only slightly different from what you did but will likely help black invade the center a bit more.]
))
(;B[lh];W[lf]C[***
Sadly, black will probably still die here.]))
(;B[mf]C[***
This is probably your best bet at capturing all those white stones.  It's called a net and can be rather effective.]
))
(;W[qk];B[ql];W[rl];B[rm];W[pl];B[qm];W[pm]))
(;W[rj]))
(;B[rh]C[***
Always keep an eye on extending.  Look for simple alternatives to obvious moves.  The more you can stretch and remain safe, the better off you'll be]
))
(;B[qh]))
(;W[rd]C[***
Again, black dead];B[ob];W[na];B[nb];W[ma];B[mc];W[lb];B[pd]
;W[oc];B[nc];W[od];B[pe]))
(;W[rd]C[***
If white does this, black dies]))
(;B[kb]))
(;W[gm];B[fm];W[fl]C[***
Black can get disconnected.  This remained most of the game...]
))
(;B[hm]C[***
As you noticed, highly critical move...  White really should have extended immediately]
))
(;B[eq]C[*** 
this would work much better for you.]))
(;B[dp];W[cq];B[co]C[*** If white allows this, they'll make small life in the corner, but the J5 stones will get really weak.]
))
(;B[lo];W[kn];B[ln];W[km];B[mn]C[*** 
Again, something like this will be helpful.  Don't let white build huge walls of influence.  You'll lose the entire center that way.]
))
(;B[lo];W[jn];B[ln]C[***
This is a very important variation!
Black has regained some influence into that center in this area.  White M1 will die eventaully, and the disconnected white stones look weak.  You can get creative in attacking them....]
))
(;B[iq]C[*** 
This is probably safe now.  Black has some vulnerability, but so does white.]
))
(;B[jq]C[***
I'd probably do this.  You easily secure black territory and leave white vulnerable to further pressure.  You can easily connect to your second line stones on the other side of white's L3.  White isn't really winning anything here.]
))
(;W[rf]C[***
This was a misclick.  ignore this stone in the SGF file...]
))
(;B[pq]C[***
I tend to like this better.  One more move and you have a solid side.  Whie is likely to try and block you off.]
))
(;W[qp];B[pq];W[oq];B[or];W[nq];B[nr];W[mq];B[rp];W[ro];B[rq]
;W[qn]C[***
This is a standard joseki.  I typically try to think about this outcome and see if I like how it looks.  If i don't, I won't invade at the 3-3 point.  Notice how K4 still looks weak here, and white has a lot of potential on the upper side.]
)
(;W[pq];B[qp];W[qo];B[ro];W[qn];B[rn];W[qm];B[pr];W[or];B[qr]
;W[nq]C[***
This is the same joseki, but with white blocking the other direction.  This doesn't really look as nice for white as the other alternative shown here.]
))
(;W[cb]C[***
This would really hurt black.  Life in the corner may be possible.  Either white allows black to live very small (and can then attack D17, or white can try to block off black's second line crawl and make a large fight for life.  I'd favor letting black live and then use the nice wall.  The second line is called the line of defeat for a reason...]
))
(;B[cb]C[***
I would have expected this as a response.  The shape is ugly, but it's what you invited....  White can still take a bite out of the black stones...]
))
(;B[fd]C[***
Here black starts to build their side and threatens to possibly enclose white's stone.  Another black stone may force white to live small and give huge influence to black.  White is unlikely to leave C15 alone...]
)
(;B[ee]C[***
I tend to like this as an aggressive move, but it may be too aggressive.  Against a weaker opponent, I may try it.  A stronger player may say if it's an overplay or not.  White's C16 seems a bit too close to D17, and I'd be tempted to try and punish somehow.]
))
