(;FF[4]GM[1]SZ[19]ST[2]CA[UTF-8]AP[SGFC:1.15]

PB[Trand25]
BR[30k]
PW[shalom]
WR[28k]
KM[6.5]
DT[2005-08-07]
PC[The Kiseido Go Server (KGS) at http://kgs.kiseido.com/]
RE[B+93.50]
TM[1650]
OT[5x30 byo-yomi]
RU[Japanese]

;B[pd];W[pp];B[dd];W[dp];B[jd];W[qj]
(;B[qh]LB[dj:A][cn:B]C[Is it better to extend on the left side ?
On Gobase, there is only 2 games with this position and Black has played A (D10) or B (C6) (see the variations)
comment - I woiuld have played D1 (A) or perhaps D6 , here you are trying to establish "big" points, the stone at R10 does not need to be answered straight away.]
;W[jq];B[cn];W[oh]C[white has ignored your move - and put pressure on R12 stone no 7. if white plays r14 next your #7 stone would have been wasted. So do you play d10 and seet to fight off a strong attack on r12 or do you play q11 to split white's stones? my instinct is to split white's stones and play q11]
;B[pg]C[your move was defensive and white is likely to0 gain outside influence.]
;W[og];B[cj]LB[dj:A]C[Is A (D10) better ?
comment - at this stage my game is not strong enough to differentiate c10 from d10 - I would have been tempted to play c9 at a stronger base of the group withthe option to extend and pincer any white invasion around c13.
where do you expec white to play next? if i were white n16 woud be a good move.]
;W[en];B[cp]C[very territory oriented - and did you consider c3? I would prefer e7]
;W[cq];B[co]C[rather than 17 did you consider the cross cut to d3? or b4 to get shape?even d5 woould threaten putting d4 in atari - and so give you sente.]
;W[bq];B[el]C[what happens if white plays d7?]
(;W[do];B[dm]C[very conservative, again white does not need to answer. playing k10 would be better.]
;W[fg]C[k13 for black?]
(;B[dg]C[very defensive - this stone is not connected - capture on a large scale, you still have q11 as a threat]
;W[eh];B[dh];W[ei];B[gl]C[I tried to enter in the moyo of White
good];W[gk];B[hl];W[fk]
(;B[fl]C[31 was very safe white is building good shape and territory - 31 at h9 looks promising.]
;W[hk];B[il];W[ik];B[jl]C[I thought this shape was better for me because I'm invading White moyo while mine is still strong on left and up.

white has developed huge thickness and you have gained no territory - how will you gain if white plays h5 say?]
;W[pf];B[qf];W[ph];B[qg];W[qi];B[of];W[nf];B[pe];W[oe];B[od]
;W[ne];B[nd];W[ng];B[ho]C[Is there a better move to invade White territory ?]
;W[hp];B[go];W[gp];B[fo];W[eo]LB[fp:A]C[Is not A better for White ?
yes - white makes an empty triangle and poor shape.];B[fp];W[eq]
;B[fq];W[gq];B[fr];W[gr];B[er];W[dr]
(;B[fn]LB[ds:A]C[Is A (D1) killing the white stones or is there a path for white to escape ?]

(;W[ds]C[see variations];B[bp];W[aq];B[jo];W[br]C[white plays vital point .]
;B[lo]C[why not a 3,3 invasion at r3? - you would still have this move later.]
;W[lp];B[mp];W[mo];B[kp];W[lq];B[kq];W[mq];B[kr];W[np];B[ln]
;W[mn];B[mm];W[nm];B[ml];W[nl];B[mk];W[nj];B[nk];W[ok];B[mj]
;W[ni];B[mi];W[mh];B[lh]C[you ran a nice wall - but are you sure white 60 58 52 50 and 8 are dead? note you created a nice wall and territory for white in the exchange from 70 through 93 worth 57 points to white.]

(;W[mg];B[ol]C[what will 95 do?];W[om];B[pl];W[pk];B[pm];W[pn]
;B[qm];W[qn];B[rn];W[ro];B[rm];W[sn]C[white 106 at c9 better]
;B[sm];W[so];B[qo]
(;W[qp]LB[po:A]C[After A, I'm not sure who is winning (see the variations)]
;B[on];W[nn];B[po]C[poor play by white];W[oo];B[pn];W[rp];B[rk]
;W[qk];B[rl];W[rj];B[sk];W[sj]C[you should never have lived!!!!]
;B[mr];W[nr];B[lr];W[ms];B[ls];W[ns];B[oq]C[Is there a way for white to kill this stone ?]

(;W[or];B[pq];W[pr];B[qq];W[qr];B[rq];W[rr];B[op];W[ps]C[white at o3 much better]
;B[sp];W[sr];B[nq];W[cc];B[dc];W[cd];B[ce];W[de]C[poor play by white]
;B[cf];W[db];B[ee];W[da];B[bd];W[bc];B[be];W[ec];B[df];W[ed]
;B[de];W[fd];B[fe]C[white should not have got away with this]
;W[gd];B[ge];W[hd];B[ie];W[ic];B[jc];W[ib];B[jb];W[gc];B[ia]
;W[ha];B[ja];W[hb]C[White has made a big territory in mine. Was there a better move for me after the san-san invasion ?]
;B[ej];W[fj];B[ek];W[gf];B[he];W[hf];B[if];W[ig];B[eg];W[fh]
;B[jg];W[ih];B[jh];W[ji];B[ki];W[jj];B[kj];W[hi];B[jk];W[di]
;B[ci];W[ap];B[ao];W[an];B[bo];W[bm];B[bl];W[cl];B[cm];W[bk]
;B[ck];W[al];B[bj];W[ak];B[aj];W[em];B[dl];W[dj];B[dk];W[qc]
;B[pc];W[pb];B[qd];W[rc];B[rd];W[sc];B[ob];W[pa];B[rb];W[md]
;B[mc];W[ld];B[lc];W[lg];B[kg];W[kf];B[jf];W[ke];B[kd];W[le]
;B[ac];W[ab];B[ad];W[bb];B[ff];W[rh];B[rg];W[sh];B[sg];W[pf]
;B[ri];W[si];B[of];W[sd];B[pf];W[ip];B[jr];W[ir];B[jp];W[iq]
;B[is];W[hs];B[js];W[lm];B[km];W[ll];B[lk];W[kn];B[mp];W[sq]
;B[rp];W[es];B[fs];W[fm];B[gm];W[oa];B[nb];W[qb];B[ra];W[tt]
;B[tt]TW[cb][fc][hc][lf][nh][fi][ri][hj][bs][os][aa][ba][ca]
[ea][eb][fa][fb][ga][gb][me][mf][gg][gh][gi][gj][hg][hh][ii]
[ij][oi][oj][pi][pj][ar][as][cr][cs][qs][rs][ss]TB[kc][ef][rf]
[kh][cl][sl][om][gn][qn][oo][ro][jq][mq][ks][ka][la][ma][na]
[oa][pa][qa][sa][sb][sc][sd][se][sf][kb][lb][mb][pb][qb][nc]
[oc][qc][rc][ae][af][ag][ah][ai][qe][re][bf][bg][bh][bi][cg]
[ch][li][lj][ak][al][am][an][bk][bl][bm][bn][kk][kl][ll][lm]
[nl][nm][nn][no][np][hm][hn][im][in][jm][jn][kn][ko][mn][mo]
[sn][so][io][ip][iq][ir][gp][gq][gr][gs][hp][hq][hr][hs][lp]
[lq][pp][qp])
(;W[nq];B[op];W[or]
(;B[pq];W[qq];B[pr];W[no];B[qr];W[rr])
(;B[no];W[mp];B[oo];W[pr];B[pq];W[qq]))
(;W[op];B[nq];W[mp];B[or]))
(;W[po];B[qp];W[rp];B[qq];W[rq];B[pq]
(;W[oq];B[pr];W[or];B[rr];W[ps];B[qr])
(;W[qr];B[oq];W[pr];B[op];W[oo];B[nr];W[nq];B[or];W[mr];B[ms]
;W[ls];B[nn])))
(;N[sb6];W[jr];B[js];W[is];B[ks]
(;W[hr];B[gs];W[hs];B[iq];W[ip];B[jp];W[ir])
(;W[jp];B[gs];W[hr]
(;B[ip];W[iq])
(;B[iq];W[ip];B[ir]C[white is dead - but did you read it out?]
))))
(;N[sb4];W[ds]))
(;B[ds];W[cs]
(;B[br];W[ar];B[bs];W[es];B[fs];W[ds];B[bp];W[aq];B[cr];W[as]
;B[br])
(;B[bp];W[br];B[ep];W[dq];B[aq];W[ar]))
(;N[sb4];B[ds];W[cs]
(;B[es];W[br];B[ep];W[dq];B[bp];W[aq])
(;N[sb5];B[br];W[ar];B[bs];W[bp];B[bo];W[ap]C[black 63 then black 65 kill white.]
)))
(;N[sb3];B[hk];W[hj];B[ij];W[hi];B[gh];W[hh];B[gg];W[hg];B[gf]
C[where will white go?]))
(;N[sb2];B[jg]C[where does white go? capturing on a large scale.]
))
(;N[sb1];W[dm];B[cm];W[dl];B[dk];W[cl];B[bl];W[fj];B[ek];W[gl]
C[ethis creates good position for white and a big yose move of a monkey jump by white to a6.]
))
(;B[dj]C[Event Fujitsu,2,Japan,Fujitsu
Round Preliminaries
Black Obuchi Morito, 6p
White Imamura Toshiya, 8p
Komi 5.5
Date 1989-02-20
Place Japan
Result B+R];W[qf];B[nd];W[nq];B[cn];W[en];B[dl])
(;B[cn]C[Event  Honinbo,01,Japan,Mainichi
Round 1, 1st final knockout, round 1
Black Kubomatsu Katsukiyo, 6 dan
White Maeda Nobuaki, 6 dan
Komi 4.5
Date 1940
Place Japan
Result W+4.5];W[dj];B[fp];W[fo];B[cp];W[cq];B[do];W[ep];B[eo]
;W[bp];B[co];W[dq];B[fq];W[go];B[hp];W[jp]))
