(;FF[4]GM[1]SZ[13]AP[SGFC:1.12j]

GN[cub-nir(B) IGS]
PB[nir]
BR[30k]
PW[cub]
WR[30k]
KM[5.5]
DT[1997-08-24]
PC[IGS:  igs.nuri.net 6969]
RE[B+63.5]
TM[2400]
US[Brought to you by IGS]

C[Hi!
This game is commented by Nicklas Ekstrand (Tramsigt, 16k,  on IGS).]
;B[jd]BL[2394];W[dj]WL[2397];B[jj]BL[2388];W[ed]LB[dd:A][dc:B]
C[For a beginner I guess the 5-4 point is a though opening. Look at the Joseki dictionary a see why you use the 5-4 point. I would have played A(D10) or maybe B(D11). But you never know on a small board...
With this move white is looking for an extension and attack to the right.]
WL[2391];B[ce]C[This is not standard Joseki. But that might not be that important on a small board.]
BL[2384];W[de]LB[cd:A]C[White should consider securing the corner with A(C10). This D9 does not do anything.]
WL[2385];B[dc]BL[2376];W[dd]WL[2377];B[cd]BL[2373];W[ec]WL[2323]
;B[db]BL[2361];W[cf]WL[2301];B[gj]BL[2342]
(;W[fj]LB[hd:A][fk:B]C[You are loosing moves by attacking and touching...don't touch while attacking. Consider making the extension A(H10). A lower play at B(F3) would only help black.]
WL[2294];B[fk]BL[2327];W[ek]WL[2274];B[gc]LB[gd:A]C[Black extension seems dangourus since the strength in the white wall. Consider A (G10) instead. Black will not be able to connect with upper left group anyway. By this move white looses the possibility to exented to the right.]
BL[2301];W[fb]C[I can't say that this is a bad move. But white will not get any territory from it nor securing the group. This might be a move that differs stronger players from weaker.]
WL[2257];B[fi]BL[2273];W[ej]C[Now white is strong and black is weak in the lower battle. But can white get around?]
WL[2248];B[eh]LB[dg:A][dh:B][ef:C]C[

White is here in trouble. He is almost cut off from the right side. There is the 3-3 invasion points, but is it enough? Black is however still weak with a lot of cutting points. Upper white group could also be in trouble. As white I would have played A(D7) or maybe B(D6) or C(E8). See variation.  Now the slowness of the F12 move is obvious.]
BL[2263]
(;W[gi]LB[kh:A][jh:B][kf:C][jf:D][kc:E][kk:F]C[

This is easy for black to survive. If you consider invading look at any of the A-F points. But most of these will only strengthen weak black group at G4. Look at variation for an 3-3 invasion.]
WL[2219];B[gh]BL[2222];W[hi]WL[2212];B[hj]BL[2216];W[ih]WL[2197]
;B[ii]BL[2201];W[hh]WL[2187];B[jh]BL[2184]
(;W[ki]C[As you will notice by the following play this was not a very good idea. White H6 group is in trouble. Look at variation.]
WL[2162];B[hg]C[

And we have a ladder...]BL[2178];W[ig]C[Don't make the mistake...]
WL[2152];B[if]BL[2175];W[jg]WL[2148];B[kg]BL[2171];W[jf]WL[2115]
;B[je]BL[2165];W[kf]WL[2078];B[lf]BL[2159];W[ke]WL[2069];B[kd]
BL[2155];W[gk]WL[2032];B[ch]C[

Now upper white group is in big trouble.]BL[2117];W[dh]WL[1998]
;B[dg]BL[2105];W[di]WL[1991];B[cg]BL[2092];W[eg]WL[1974];B[df]
BL[2047];W[bf]WL[1925];B[be]BL[2011];W[af]WL[1917];B[bg]BL[1982]
;W[ag]WL[1891];B[ah]C[
Ooops...]BL[1976];W[ef]WL[1822];B[ge]TR[eg][ef][de][dd][ed]
[ec][fb]C[White group E10 are almost dead. Make sure he doesn't escape. This move by black maybe should have been G8.]
BL[1958];W[gf]WL[1811];B[ff]C[Dangerous move by black. It is not neccessary to attack. Just make sure white doesn't get any eye-space.]
BL[1943];W[gg]WL[1798];B[le]BL[1934];W[fe]WL[1752];B[fd]BL[1899]
;W[fg]WL[1731];B[fc]BL[1871];W[eb]WL[1704];B[gb]BL[1857];W[ga]
WL[1696];B[ha]BL[1851];W[da]WL[1674];B[cc]BL[1835];W[hb]WL[1632]
;B[fa]BL[1807];W[he]WL[1598];B[ib]BL[1758];W[gd]WL[1584];B[hd]
BL[1734];W[hf]WL[1549]
(;B[ca]BL[1692];W[id]WL[1510];B[hc]BL[1688];W[ie]WL[1471];B[ig]
BL[1652];W[fh]WL[1416];B[gi]BL[1612];W[ei]C[And white is alive...]
WL[1399];B[ea]BL[1607];W[ee]WL[1395];B[ic]BL[1573];W[ci]WL[1324]
;B[ae]BL[1568];W[bi]WL[1305];B[ck]BL[1566];W[cl]WL[1247];B[ai]
BL[1522];W[bj]WL[1238];B[aj]BL[1491];W[bk]WL[1229];B[hk]BL[1456]
;W[gl]WL[1208];B[hl]BL[1425];W[fl]WL[1204];B[gm]BL[1416]
(;W[el]WL[1197];B[fm]BL[1400];W[em]WL[1187];B[hm]BL[1397]
(;W[lj]C[No eye-space here for white.]WL[1160];B[lk]BL[1368]
;W[mk]WL[1147];B[ml]BL[1364];W[ll]WL[1131];B[mj]BL[1360];W[li]
WL[1121];B[kl]BL[1356];W[kk]WL[1092];B[lm]BL[1341];W[lh]WL[1085]
;B[jk]BL[1330];W[mi]WL[1081];B[mk]BL[1327];W[lg]WL[1073];B[lc]
BL[1303];W[ji]WL[1045];B[ak]BL[1268];W[al]WL[1021];B[ge]BL[1250]
;W[kh]WL[881];B[jg]BL[1240];W[gd]WL[833];B[bm]BL[1219];W[bl]
WL[796];B[ge]BL[1212];W[bh]WL[762];B[ag]BL[1199];W[gd]WL[756]
;B[tt]BL[1179];W[tt]WL[740];B[ge]BL[1160];W[tt]WL[706];B[gd]
BL[1140];W[tt]WL[694];B[tt]BL[1122];W[tt]C[Get the Joseki dictionary in electronic form from  ftp://igs.nuri.net/Go/games/. They do not apply in the same sence as on a 19x19 board, but should give you a clue. The 5-4 point is very hard to use (I guess, I have never used it). There where some slow moves by white (e.g. F12, G5) where alot of territory was lost.]
WL[694])
(;W[ak]))
(;W[fm]))
(;B[fh]))
(;W[gg];B[fh];W[if]
(;B[ig];W[hg])
(;B[hg];W[ig];B[hf])))
(;W[kk];B[jk];W[kj];B[ki];W[li];B[kh];W[lh];B[kg];W[jl];B[il]
;W[kl];B[hk]C[Good for black?])
(;W[dg];B[dh];W[ch];B[di];W[ci]C[But black is getting a big area here. But white still have some invasion points.]
)
(;W[dh];B[df];W[ef];B[dg];W[eg];B[cg];W[bf];B[be];W[bg];B[ch]
;W[di];B[bh];W[fh];B[gi];W[ei]))
(;W[fk]
(;B[gk];W[fj])
(;B[fj];W[ej];B[gk])))
