(;FF[4]GM[1]SZ[19]ST[2]CA[UTF-8]AP[SGFC:1.15]

PB[eastwind]
BR[9k]
PW[backpacker]
WR[9k]
KM[6.5]
DT[2005-08-19]
PC[The Kiseido Go Server (KGS) at http://kgs.kiseido.com/]
RE[B+18.50]
TM[1200]
OT[25/900 Canadian]
RU[Japanese]

C[Hello, my name is Ian Davis, I hope you both enjoy my review.]
;B[pp];W[dd];B[dp];W[qd];B[jp];W[cn];B[en]C[So Black is hungry for a moyo game !]
;W[bp]C[yes white can establish himself on the side this way quickly]

(;B[cq]SQ[pj][qj]C[I wonder if Black really wants to make this move.
It is possible to play on the other side, aiming for super moyo. Just an idea anyway.]
;W[dk];B[bq]
(;W[co]LB[bo:A][co:B][cp:C]C[Do you know if it matters how I connect?

Peronally I would play C normally. Again as with Black's move at san-san (c3) I am wondering if white can also tenuki here..]
;B[oc]C[a good point to take]
(;W[pe]C[white can also consider a pincer here.];B[lc];W[qi]
;B[qg]LB[fc:A][qm:B]C[This move looks foolish but I could get an advantage.  As soon as I  use the thickness from the the lower 3 star point moyo develops as fast as this thickness.

I don't like this move at all actually, it is very jealous. I would play either at A or B]
;W[pg];B[qh];W[ph];B[ri]
(;W[qj];B[rj];W[qk];B[rk];W[ql];B[qf];W[pf];B[re];W[rd];B[fc]
C[Now he's alive, so my only trade off is thickness.  Can you spot something which is poor play regarding the use of this thickness?

i can try ;-)]
(;W[ic]LB[cf:A]SQ[fc][lc]C[well I am not happy with this pincer - why? White pincers Black, but he is also pincered himself. so I prefer a move at A]
;B[db];W[cc]
(;B[cf]LB[hd:B][fe:A]C[this is again very jealous play by black. How many groups do you want to create? I would prefer A or B]
;W[df];B[ce];W[de];B[ch]
(;W[gd]C[Looks like this must be dead, but I couldn't kill it.

With this approach you are going to seal it in at least, it is also possible to make it run out]
;B[fd]
(;W[fe]LB[ge:A]C[a little soon, but a common mistake ! correct move is A.]
;B[gc];W[hd];B[hb];W[ib];B[cb];W[bb];B[fb]C[looks alive now]
;W[dc]LB[le:B][bj:A]C[well this won't kill, just a dame point i'm afraid

As white I would try A or B to press against those black groups.]
;B[ec]C[alive! ??
... yes];W[pb]
(;B[pc]C[black shows no fear, but it is important to make eyes. Note how living in gote on the top left hurt the group on the top right !]
;W[qb];B[ob];W[md]C[it is a good idea to press down like this]
;B[mc];W[ld];B[nd];W[ne];B[kb]
(;W[kd]C[variation is an attempt to kill, but isn't it bad to try to kill before he is boxed in? 

You get a good result from enclosing black, so it is hard to criticise it, if you can't see how to kill outright I advise squeezing first]
;B[qc];W[rc];B[pa];W[rb];B[od]
(;W[dh]C[Now I am thinking forcing him to run would have been better.


look at that moyo ! White should be celebrating.]
(;B[ci]C[a slight error];W[di];B[cj];W[jk];B[mk];W[lj]LB[gk:D]
[ll:A][jm:C][mm:B]SQ[dp][gp][jp][mp][pp]C[i don't like this. Is this how we use thickness?

Why not playy A or B and start asking how black is going to live + hurting the bottom. I feel black has pushed too far with this move. For me Black should have played around C, or D. For if you want  to reduce D has more aji to do so.]
;B[mj];W[mi];B[ni];W[mh];B[gk];W[hj];B[gj];W[gi];B[hk];W[hi]
;B[dj];W[ej];B[ek];W[el];B[fk];W[dl]LB[bl:A]C[now a move at A asks questions of white on how he plans to live ! Here it isn't easy for white to attack any Black invasion]
;B[ei]C[yes Black is connecting, but B8 is much bigger. White cannot take gote to defend this cut.]
;W[eh];B[fj]
(;W[oj]LB[bk:A][mm:B]C[This must be too small.

Yes it must be. I see only 2 ideas
A - make life
B - try to make a really big kill];B[oe];W[nf];B[mq];W[qq];B[qp]
;W[pq];B[oq];W[or];B[nr];W[op];B[nq];W[rp];B[ro];W[rq];B[oo]

(;W[qo]C[I guess this was foolish of me.

no given the local situation this move is fine, you can ask if K7 is bigger I guess]
;B[po];W[qn];B[ik];W[ij]LB[jj:A]C[A move for white at A was slightly better shape]
;B[jl]
(;W[iq]C[desperation.  I am behind if he closes this off, I think.

Desperation indeed! The white group on the left doesn't seem so alive]

(;B[gq];W[jq]
(;B[kr]
(;W[kp];B[kq];W[ln]
(;B[kk]LB[ll:A]C[A natural looking move, but slightly flawed as we see. Playing at A directly looks safe]
;W[lk];B[ll];W[ml];B[mm];W[nl];B[nm];W[lm];B[kl];W[nn];B[ol]
;W[nk];B[on];W[mn];B[om];W[jj];B[nj];W[ok];B[kj];W[li];B[ki]
;W[kh];B[fi];W[fh];B[bl];W[il];B[jm];W[im];B[in];W[jn];B[hm]
;W[jo];B[io];W[ip];B[lp]C[Just can't seem to cut off that group of 9 stones at Q4.]
;W[ho];B[hn];W[gp];B[hq];W[fp];B[hp];W[go];B[fq];W[eo];B[do]
;W[eq];B[ep];W[hr];B[er];W[fr];B[dq];W[gr];B[eq];W[km]C[black is careless here I think]

(;B[hl];W[lo];B[mp];W[jr]C[Alive, but now my left side group is dead.  I blew it.]
;B[pr];W[qr];B[os]
(;W[nb];B[mb];W[na];B[oa];W[kc];B[la];W[ea];B[ba];W[bc];B[ga]
;W[hc];B[fa];W[ia];B[ha]C[With these 2 attempts to kill unsuccessful, I guess its over.]
;W[rl];B[rg];W[qs];B[ps];W[ks];B[lr];W[no];B[np];W[js];B[bn]
;W[af];B[bf];W[ad];B[bg];W[ae];B[cg];W[dg];B[ji];W[jh];B[ii]
;W[hh];B[ih];W[ig];B[ed];W[ee];B[of];W[og];B[pm];W[qm];B[qa]
;W[ra];B[jb];W[ja];B[ka];W[jc];B[ag];W[ls];B[ms];W[fs];B[es]
;W[ab];B[ca];W[bd];B[pl];W[pk];B[sk];W[sl];B[sd];W[sc];B[se]
;W[qe];B[sg];W[pn];B[op];W[tt];B[tt]TW[sa][sb][ac][id][jd][ge]
[he][ie][je][ke][le][me][ef][ff][gf][hf][if][jf][kf][lf][mf]
[eg][fg][gg][hg][jg][kg][lg][mg][ng][gh][lh][nh][oh][ni][oi]
[pi][mj][nj][pj][mk][rm][sm][kn][rn][sn][ko][ro][so][jp][sp]
[sq][ir][rr][sr][gs][hs][is][rs][ss]TB[da][ea][ma][na][eb][gb]
[lb][nb][nc][rf][sf][ah][bh][rh][sh][ai][bi][si][aj][bj][ej]
[sj][ak][bk][ck][dk][al][cl][dl][el][fl][gl][il][am][bm][cm]
[dm][em][fm][gm][im][an][cn][dn][fn][gn][ao][bo][co][eo][fo]
[go][ho][ap][bp][cp][fp][gp][aq][lq][ar][br][cr][dr][mr][or]
[as][bs][cs][ds][ns]C[So. What did we do wrong in this game?

Black - too many greedy moves. Go needs patience sometimes.

White -( besides the unreasonable play at the bottom) , maybe focus on your attacking technique a little more. Some times your threats were not sente for instance.]
)
(;W[mb];B[nb]))
(;B[jr]C[This seems better?];W[ir];B[is];W[hs];B[fs];W[js];B[lo]
;W[lr];B[ls];W[no];B[np];W[pr];B[mo];W[ms]C[but this move is a problem !]
;B[lq];W[ks];B[mr];W[ls];B[ns];W[is];B[ko]C[but looks ok]))
(;B[ll];W[nm]
(;B[mm]C[dangerous !];W[mn];B[nn];W[no];B[on];W[mo];B[np];W[kl]
;B[km];W[kk];B[lm]
(;W[il])
(;W[jm];B[il];W[kn];B[jn];W[im];B[in];W[hm];B[nl];W[om];B[ol]
;W[pm]))
(;B[mn];W[mm];B[lm];W[mo];B[nn];W[no];B[on];W[np];B[lo];W[mp]
;B[lp])))
(;W[kq]C[no difference]))
(;B[kp]C[I prefer this]))
(;B[jq]C[As back I would have made an iron pillar];W[fq];B[gr]
;W[fr];B[ir]))
(;W[bk]C[I  should not have neglected this, I think.

you are quite right!]))
(;W[pr];B[qn];W[rl];B[sg];W[np];B[no];W[mp]
(;B[lp];W[mo];B[mn];W[lo])
(;B[lo];W[lp];B[kp];W[lq];B[lr];W[ns];B[mr];W[kq];B[jq];W[kr]
;B[ks];W[ls]C[So Can this white group run out and not worry about this stuff?]
)))
(;W[fi];B[ej];W[gm];B[fl];W[fm];B[em];W[bk];B[bj];W[bm];B[ck]
;W[cl];B[ak];W[dm];B[dn];W[bl]C[Last chance to live over here?  Is this variation sound?

variation looks ok yes])
(;W[nm]C[Try to get the whole group?

this is the best try I feel, you need to get an attack going]
)
(;W[nq]C[Or enter his moyo?  His moyo looks to be bigger than my upper center.

Probably this won't be enough, not as you need to protect B9 still]
)
(;W[lk];B[pi];W[oi];B[pj];W[oj];B[pk];W[ol]))
(;B[di];W[cg];B[bg];W[dg];B[bi];W[ei]LB[ej:A]SQ[ae]C[it would be nice to hane at A, but I am not sure Black is alive yet]
;B[dj];W[ej];B[ck];W[dl]C[Anyway White's stones on the left seem ill]
;B[jj]C[also invasion possible]))
(;W[bj];B[bi];W[cj];B[bg];W[bd];B[eh]))
(;W[nb];B[oa];W[mb];B[kd];W[jc];B[kc];W[ke];B[le];W[me];B[je]
;W[kf];B[jd]C[or maybe this would be good for white? Forcing him to run while I build territory using my right side thickness?

yes it is possible to get a great result if you kill black like this]
))
(;B[le]C[time to run like crazy ?]))
(;W[ge]
(;B[fe];W[ff];B[ef];W[eg];B[ee];W[dg];B[bi];W[gc]C[now it begins to look more promising]
)
(;B[gc];W[hc];B[hb];W[ib];B[ga];W[cb];B[eb];W[da];B[ea];W[fb]
;B[fe];W[ff];B[ef];W[eg];B[ee];W[dg];B[gf];W[fg];B[hf];W[ie]
;B[bi])))
(;W[cb];B[fe];W[hf];B[fg];W[dg];B[bi];W[fh];B[gg]C[this doesn't seem so succesful though]
))
(;B[fe])
(;B[hd]))
(;W[cf];B[ic];W[nq]C[white must invade now I guess]))
(;W[rj];B[qj];W[pi];B[rk];W[rh];B[sj];W[rg]SQ[qj][rk][pp]C[this is also possible, but the black stones on the left work well together, maybe better than white's profit in gote]
))
(;W[mc];B[oe];W[pf];B[ld]C[the joseki begins]))
(;W[bo])
(;W[qn];B[ql];W[qq];B[pq];W[qp];B[po];W[rn];B[om];W[jk]C[I am not sure if this is a good idea for white, but it is certainly possible to play this way.]
))
(;B[qj];W[cq];B[dq];W[od];B[ic]C[for instance]))
