(;FF[4]GM[1]SZ[19]ST[2]CA[UTF-8]AP[SGFC:1.15]

PB[zipo]
BR[25k]
HA[2]
PW[skalpel]
WR[23k]
KM[0.5]
DT[2005-08-17]
PC[The Kiseido Go Server (KGS) at http://kgs.kiseido.com/]
RE[B+14.50]
TM[2400]
OT[3x10 byo-yomi]
RU[Japanese]

AB[pd][dp]C[Hi! I'm 24-25 kyu. I play go from few weeks. I want somedoby stronger to review my game. I played white. I know i made few mistakes, but probably i made more ;) Thx!


Ps. sorry for my english grammar ;)

--
Hi! I'm about 10 kyu ; if you have any more question about this game, please feel free to ask me by email. I also hang around on KGS sometimes, as 'linfir', or 'silk'.

I hope this review will help you.];W[pp];B[cd]C[skalpel [23k\]: hi]
;W[qf];B[np];W[pn];B[nn];W[pj];B[md];W[oh]LB[of:A][qj:B]C[I wanted to avoid black cut off my stone at R14.  I'm not sure if it was a good move.

-- 

It looks strange ; A is probably what you were looking for. Or you could play at B, also preventing the cut and securing the right side.]
;B[re]LB[ec:A][cn:B][fq:C]C[
--
I think this is much too early to play this move, which is nothing but big yose (endgame). White should tenuki and play something like A, B or C next.]
;W[rf];B[qe]C[
-- 
Compare with the situation a few moves back : black made quite a lot of profit]
;W[of]C[
-- 
Useless ; there was no need to defend here, and this doesn't really expand white's territory/moyo.]
;B[jp]C[
-- 
Good.];W[cj]LB[ec:A][ed:B][cn:C]C[
-- 
Too slack. White should play at A or B ; and if black answers, there should be time to play at C later.]
;B[ch];W[cn]LB[cm:A]C[
-- 
The two space extension at A is safer. Or maybe you thought about the continuation black C8 - white F3 ? It is quite complicated...]
;B[co];W[bn]LB[dn:A]C[
-- 
A would be better, because now if black plays at A, he will clearly dominate the lower side.]
;B[bo];W[dl]LB[en:A]C[--
The shape is not very good. Maybe A would be better ; tenuki (playing elsewhere) is probably okay too.]
;B[go];W[ec]C[-- 
Finally.];B[dc]
(;W[hc]LB[ed:A]C[--
It is possible, but maybe a bit too passive ; I like A better ; see variation for a possible continuation.]

(;B[kc];W[jc]LB[ed:A][ee:B][he:C]C[-- 
Not good - why play a contact move ? 
A is still better. B or C are also possible.];B[jb];W[jd];B[kd]
;W[ed];B[eb];W[fb]LB[ce:A][ch:B]C[-- 
A is better, because you can aim to cut off the stone at B, like in the previous variation.]
;B[cb]C[-- 
And now it's too late.];W[jf];B[pl];W[ql]LB[om:A]C[-- 
I'd play A first : here black will cut white, but you can cut black too.]
;B[qk];W[pk]
(;B[om]C[
--
Here, black missed something big. See variation];W[pm];B[ol]
;W[rk]LB[rk:B][qm:A]C[-- 
It seems okay, but you need to check that black A is harmless.

Playing at A instead of B leaves less aji.];B[pq];W[qq];B[oq]
;W[fq]C[-- 
Why not ? It is quite complicated, but I think white can live.

I won't comment much on this because there are simply too many variations, and I'm not certain about them...]
;B[gq];W[dq];B[fp];W[eq]C[-- 
It looks a bit strange to me, but it seems to work, so I guess that's a good move !]

(;B[ep];W[bq];B[cq];W[cr];B[cp];W[gr];B[hq];W[hr];B[ir];W[lf]
LB[cf:B][df:A][qr:C]TR[kh][lh][ki][li]C[-- 
What is this move about ? 

Do you want to make some points around the triangled area ? I don't think there are much point here, because it's fairly open in the bottom.

Or is it just to connect your groups ? The top group is already quite safe.


Now, the game is almost in big yose - I mean, the territory are quite delimited. Counting secure territory, I'd say black lead by maybe 10 points. So, I see a few options :

- play white A, black B and try to make more points than black in the center.

- try something fishy in the upper right corner (but I don't really see this working)

- start yose right now : C is *huge*, that is maybe 25 points for both sides !]
;B[hb]C[-- 
This is too small.];W[gb];B[ic];W[id];B[ib];W[he];B[df];W[ef]
;B[de];W[eh]C[-- 
Here, black has been exceptionnaly kind, letting himself being shut in. White now has a good chance to make profit in the center.]
;B[dh];W[ej]C[I'm not sure if D11 wouldn't be a little better move to play...

-- 
You're right, it would be more solid.];B[fm];W[dg]LB[hk:A]SQ[ch]
[dh]C[-- 
Too small ! What is bigger, in your opinion:  the center (with a move like A), or the two black marked stones ?]
;B[cg];W[eg];B[kl];W[jj];B[hl];W[hk]LB[hj:A]C[-- 
Why do you play a contact move ? Better to stay at distance, with something like A.]
;B[ik];W[hj];B[ij];W[ii];B[jk];W[kj];B[nj]LB[qr:A]C[-- 
You don't need to answer this move. Ask yourself : how much damage can he make if I don't answer ? Here, maybe 5 points ? Hence, better play elsewhere. A is probably the biggest move.]
;W[ni];B[lj];W[kk];B[lk];W[gl];B[ki];W[ji];B[hm];W[li];B[kh]

(;W[lh]LB[mi:A]C[-- 
I like A better, see variation.];B[kf];W[kg];B[jg];W[jh];B[je]
;W[ig]C[L15 will be a better move

--
Yes.];B[ke];W[ie];B[gm];W[fl];B[mf];W[mg]LB[se:C][bi:B][qr:A]
C[maybe M14 to reduce black territory?

-- 
You mean M15 maybe? Well, this is only worth a few points.

You should play sente moves first (or really big gotes moves).

Here are a few good yose moves : A, B or C.];B[le];W[lg];B[oe]
;W[nf];B[ne];W[me];B[pf];W[pg];B[mf];W[pe];B[qd];W[mj];B[mk]
;W[mi];B[oj];W[oi];B[kn]C[-- 
Useless.];W[em];B[en];W[dn];B[do];W[ok];B[nk]
(;W[qj]C[I was afraid that black play R10, make atari and some problems on the right side ;)

-- 
Yes, I understand. See the variation for a possible continuation if you hadn't answered.]
;B[op];W[oo];B[no];W[on];B[nl];W[qo];B[ee];W[fe];B[gc];W[gd]
LB[hd:A]C[-- 
Why not simply connect at A ?];B[hd];W[fc];B[ei];W[fi];B[di]
;W[dj];B[bj];W[bk];B[bi];W[ci];B[bh]C[-- 
Useless.];W[dd];B[cc]LB[ce:A]C[-- 
A would have been better shape.];W[aj];B[ai];W[ak];B[ff]
(;W[cf]C[I know i made a big mistake here :-( I attacked that black group too early. Should have play G14 first, neutralize opponents attack and then easily gather his stones on the left. Am I right?

-- 
Well, this is not an "attack" - this is merely yose...
But yes, C14 did not work now, so you should not have played it. And in a few moves, if black doesn't see it coming and doesn't defend (sweet dream), you can punish his carelessness.
See variation.];B[ce];W[fg];B[bf];W[hc];B[gf];W[gg]C[-- 
You don't need to answer.];B[hf];W[if];B[me];W[pf];B[sf];W[sg]
;B[se];W[rh];B[qr]C[-- 
Finally ! This has been *the* biggest move for a while...];W[rr]
LB[rq:A]C[--
This is a mistake, you should have played at A; see variation.]

(;B[pr];W[rq];B[bp];W[aq];B[ap];W[bs];B[hs];W[gs]LB[fs:A]C[-- 
This is a mistake too, should be at A instead. See variation.]

(;B[is];W[er];B[da];W[fa];B[ea];W[ha];B[ia]C[-- 
This is a mistake too (but this time, it is black's), but you didn't take advantage of it. See variation.]

(;W[ga];B[kb];W[qs];B[ps];W[rs];B[an];W[am];B[ao];W[tt];B[tt]
TW[gc][fd][hd][ge][ff][gf][hf][hg][jg][ng][og][qg][rg][fh][gh]
[hh][ih][kh][mh][nh][ph][qh][sh][gi][hi][ki][pi][qi][ri][si]
[fj][gj][rj][sj][ck][dk][ek][fk][gk][qk][sk][al][bl][cl][el]
[rl][sl][bm][cm][dm][qm][rm][sm][qn][rn][sn][po][ro][so][qp]
[rp][sp][sq][ar][br][dr][fr][sr][as][cs][ds][es][fs][ss]TB[aa]
[ba][ca][ja][ka][la][ma][na][oa][pa][qa][ra][sa][ab][bb][db]
[lb][mb][nb][ob][pb][qb][rb][sb][ac][bc][lc][mc][nc][oc][pc]
[qc][rc][sc][ad][bd][ld][nd][od][rd][sd][ae][be][af][cf][ag]
[bg][ah][il][jl][ll][ml][im][jm][km][lm][mm][nm][fn][gn][hn]
[in][jn][ln][mn][eo][fo][ho][io][jo][ko][lo][mo][gp][hp][ip]
[kp][lp][mp][iq][jq][kq][lq][mq][nq][jr][kr][lr][mr][nr][or]
[js][ks][ls][ms][ns][os]C[-- 
There are many technical mistakes, but this is not really a problem - this area will improve naturally as you play more games.

I think your (and your opponent's) biggest problem is that you play small moves too early. 

So, in your next games, try to count (or rather roughly estimate) how much a move is worth, and how much effect it has.
This way, if your opponent plays a small move, you can confidently ignore him - yes, I know this is difficult...

Well, that's about it.

Hope it helps,
    Yann, aka 'linfir' or 'radek' on KGS])
(;W[kb];B[ga];W[ka];B[lb];W[ha]C[-- 
This is a ko. Ouch again.]))
(;B[fr];W[is];B[dr]C[-- 
Ouch.]))
(;B[rq];W[qp];B[rs];W[pr];B[sr];W[or]C[-- 
There is nothing white can do...]))
(;W[fg];B[gf]C[-- 
If black doesn't defend... he will regret it ;o)];W[cf]C[-- 
If you do it now, this lead to a nice exchange.];B[ce];W[bf]
;B[ge]C[-- 
Here, white shouldn't connect, but take (see variations).]
(;W[fd];B[gg];W[fh];B[hc]TR[fb][gb][ec][fc][dd][ed][fd][gd]
[fe][cg][bh][ch][dh][ai][bi][di][ei][bj]C[-- 
All the marked stones are captured...])
(;W[hc];B[fd];W[gg];B[hf];W[if];B[hg];W[hh];B[fe]C[-- 
This is quite a good result for white.])))
(;W[tt];B[qj];W[pi];B[rl];W[qm];B[rj];W[rm];B[sk];W[rh]C[-- 
Black is locally dead, but you're right, he can still be annoying. For example...]
;B[qr];W[rq];B[qo];W[po];B[rn];W[sm];B[rr]SQ[qr]C[-- 
White has to protect because if black S4 he threaten to either connect or capture the two white stones.

Well, anyway, I think white will win this semeai (liberty race) - black has few liberties, but it can be tricky. And, if nothing else, black made a good yose (with the marked stones).]
))
(;W[mi];B[hi];W[jg]TR[hi]C[-- 
White cannot atari the marked stone.];B[gk];W[gj];B[fk];W[fj]
))
(;B[cq];W[cr];B[bq];W[gr];B[hq];W[br]C[-- 
White is alive.]))
(;B[qm];W[rl];B[pm];W[rk]C[
-- 
Now white is split in two and the lower right corner is not so safe anymore.]
))
(;B[ed]TR[ch]C[-- 
Now the black marked stone is fine.];W[kc];B[lc]))
(;W[ed];B[hc]C[-- 
And if black comes here to annoy you...];W[kc];B[he];W[ce];B[be]
;W[cf];B[eb];W[fb];B[db];W[gc];B[hb];W[hd];B[id];W[gd];B[ic]
;W[ie];B[je];W[if];B[jf];W[hf];B[kd];W[bf];B[bd];W[ih]TR[ch]
C[-- 
This is just one possible continuation ; I think this is okay for both sides. Maybe a bit better for white.]
))
