(;FF[4]GM[1]SZ[19]ST[2]CA[UTF-8]AP[SGFC:1.15]

PB[Ploum]
BR[29k]
PW[yakisoba]
WR[28k]
KM[0.5]
DT[2005-09-08]
PC[The Kiseido Go Server (KGS) at http://kgs.kiseido.com/]
RE[W+16.50]
TM[1800]
OT[5x30 byo-yomi]
RU[Japanese]

C[Hello,

I am Ploum and I play black.

I had many problems in this game, especially in the corners. I'm sure I made big mistakes.

If you see any, please feel free to correct me.

I thank you forward !


Daedin: Hello !

Daedin: I am Daedin, aka Kyoshinai on KGS.

Daedin: I have added comments where I felt it was necessary. However, I must have missed some points, so feel free to e-mail me if you want further explanations.]
;B[pd];W[cp];B[pq];W[ec];B[qk];W[cd];B[jd];W[ic]C[Daedin: Compare the situation after the exchange wJ17 - bK17.
White hasn't gained anything, since the top can still be invaded at G17.
However, Black position has strengthened quite a lot.];B[jc]
;W[jb]C[Daedin: Too early.];B[kb];W[ja];B[ka];W[hb]
(;B[id]C[Daedin: At the moment the cut doesn't work, because the ladder works for Black.
Daedin: However, as shown in the game, White has very powerful ladder breaks here, sp Black should simply protect the cut first.

Daedin: Moreover, the exchange bJ16 - wH16 does not benefit Black.]
;W[hd];B[ep];W[jq];B[cg]C[Daedin: Black should first take take of his stone on the corner before tenuki (play elsewhere).
For instance, a pincer around C6 could be a move here.];W[nc]
C[Daedin: This can work out because of the cut at L17.];B[pc]
;W[qi];B[oi]LB[pg:A][pi:B]C[Daedin: This ladder break doesn't achieve much.
Black could either protect the left side, thus chasing white to the center or building influence towards the center, or lean on the white stone to build strong influence towards the center.]
;W[qf];B[of]C[Daedin: White is settling too easily on the right.]
;W[me]
(;B[jf]C[Daedin: Escaping might not be the best option here. White can cut, then chase Black.
Daedin: Did you consider a move arount M16 ?];W[kc]C[Daedin: Painful]

(;B[lc]C[Daedin: Wring side. Try and read a few moves ahead in cases like this one - it will prevent you increasing your losses.]
;W[kd];B[ld];W[ke];B[le];W[kf];B[je]C[Daedin: Black can't save all of his stones. Either chose the M15 or the K16 group. Now both groups are heavy, and will hinder Black in his fights at the top.]
;W[lf];B[md]C[Daedin: Bad move : Black is dead here];W[nd];B[mb]
C[Daedin: Black is laready dead here];W[mc];B[nb];W[lb];B[oc]
;W[ma];B[na]C[Daedin: Whoops ^^]
(;W[ob];B[la];W[ma];B[la];W[oa];B[cn]C[Daedin: Good. Black isn't totally safe at the top, though.]
;W[do];B[eo];W[dn];B[cm];W[dm];B[cl];W[fm];B[dq]
(;W[cq];B[hr]C[Daedin: A bit low. H3 is better (you don't need a move at J4 later on)]
;W[mq];B[ip]
(;W[ir]C[Daedin: Wrong direction. White has to prevent Black from enclosing him.]
;B[iq];W[is]C[Daedin: Same here]
(;B[jp]C[Daedin: Good];W[kq];B[kp];W[lp];B[kn];W[dr];B[er];W[ds]
;B[fk]C[Daedin: The K3 group isn't safe yet. Black could pressure it with Q5 or P5 for instance.]
;W[go];B[gp]
(;W[gq];B[fq];W[hp];B[ho];W[fp];B[fo];W[hq];B[gr];W[bo];B[bn]
C[Daedin: Small];W[ao]C[Daedin: Very small];B[an]C[Daedin: Unnecessary]
;W[co];B[dl]C[Daedin: Small. There are bigger points, like Q5]
;W[em];B[gn];W[gm]
(;B[hn]C[Daedin: I like H7 better.];W[hl];B[jh];W[hj]
(;B[fi]C[Daedin: Wring direction. Black has to escape with his K14 group.]
;W[qp]C[Daedin: Big];B[pp];W[qo];B[on];W[po];B[oo];W[op]
(;B[np]C[Daedin: Wrong direction];W[oq];B[nq];W[or];B[nr];W[pr]
;B[mn];W[mr];B[ns]
(;W[lr]
(;B[mp]C[Daedin: see var.];W[ks];B[jr];W[ms];B[lo];W[jl];B[hh]
;W[hf]
(;B[fg]C[Daedin: A bit small. There are larger moves.];W[ff]
;B[ef];W[ee];B[df];W[de];B[mh];W[lh];B[li];W[kh];B[ki];W[jg]
;B[ig];W[ji];B[kg];W[lg];B[ii];W[jj];B[ij];W[ik];B[kj]C[Daedin: This move achieve nothing. Watch out for K13.]
;W[jk];B[hi];W[gj];B[fj];W[gk];B[gi]C[Daedin: Unnecessary];W[gl]
;B[fl]C[Daedin: Unnecessary];W[jg];B[ih];W[if];B[kg];W[fr];B[gp]
;W[jg];B[hs];W[js];B[kg];W[mi];B[mj];W[jg];B[lq];W[ie];B[kr]
;W[pm];B[pn];W[qn];B[qm];W[ql];B[pl];W[rm];B[om];W[qm];B[ok]
;W[rk];B[qj];W[rj];B[pi];W[nk];B[nj];W[ml];B[mk];W[kk];B[lj]
;W[lk];B[nl];W[lm];B[km];W[mm];B[nm];W[im];B[in];W[jm];B[jn]
;W[bf]C[Daedin: Big];B[bg];W[cf];B[gf];W[fe];B[gg];W[dg];B[eg]
;W[dh];B[ch];W[di];B[ci];W[dj];B[cj];W[el];B[ek];W[dk];B[ck]
;W[ge];B[eh]
(;W[pe];B[oe];W[od];B[qe];W[pf];B[rf];W[qd];B[re];W[qc];B[pb]
;W[ma];B[qg];W[pg];B[og];W[ph];B[qh];W[qb];B[oh];W[pa];B[pe]
;W[rd];B[ri];W[si];B[sh];W[sj];B[sd];W[sc];B[se];W[nh];B[ni]
;W[ng];B[mg];W[nf];B[ne];W[mf];B[mi];W[ag];B[ah];W[af];B[os]
;W[ps];B[qq];W[qr];B[rq];W[rr];B[sr];W[rp];B[sq];W[sp];B[es]
;W[dp];B[eq];W[br];B[kl];W[ll];B[ln];W[hm];B[fn];W[tt];B[tt]
TW[aa][ba][ca][da][ea][fa][ga][ha][ia][ka][la][na][qa][ra][sa]
[ab][bb][cb][db][eb][fb][gb][ib][kb][mb][nb][rb][sb][ac][bc]
[cc][dc][fc][gc][hc][jc][lc][rc][ad][bd][dd][ed][fd][gd][id]
[jd][ld][md][ae][be][ce][he][je][le][jf][kg][hk][sk][il][rl]
[sl][sm][rn][sn][ro][so][ap][bp][pp][aq][bq][pq][qq][rq][sq]
[ar][cr][sr][as][bs][cs][qs][rs][ss]TB[pf][qf][sf][dg][pg][rg]
[sg][bh][dh][fh][gh][ph][rh][ai][bi][di][ei][qi][aj][bj][dj]
[ej][oj][pj][ak][bk][dk][nk][pk][al][bl][ol][am][bm][nn][go]
[io][jo][ko][mo][no][fp][hp][lp][gq][hq][jq][kq][mq][fr][ir]
[lr][mr][fs][gs][is][js][ks][ls][ms])
(;W[rd]))
(;B[qh];W[ph];B[pi]
(;W[qg];B[rh];W[ri];B[pg];W[oh];B[nh])
(;W[pg];B[ri];W[qj];B[rj];W[pj];B[rh];W[ng]
(;B[og];W[oh];B[nh])
(;B[re];W[rf];B[pb];W[ma];B[pa];W[nb];B[qe])))
(;B[be];W[bd]))
(;B[ks];W[kr];B[hs];W[ls];B[js];W[jr];B[mp]C[Daedin: White is dead here]
))
(;W[ks]C[Daedin: May be better]))
(;B[oq];W[np];B[qq]
(;W[rq];B[rr];W[sp];B[nr])
(;W[nr];B[rp];W[qs];B[ro];W[qn];B[rn];W[qm];B[rm];W[pl];B[ql]
;W[pm];B[ok])))
(;B[gg])
(;B[hg]))
(;B[hm];W[io];B[gp]))
(;W[hq];B[gq]))
(;B[ko]))
(;W[ko]))
(;W[gp]))
(;W[la];B[ob]))
(;B[kd];W[lc];B[ld];W[md];B[lg];W[ng];B[og];W[nh];B[oh];W[mj]
))
(;B[ld];W[kf];B[if];W[kh]C[Daedin: Now Black is chasing White, and not the other way round.]
))
(;B[lc]C[Daedin: Compare with the situation before wK18. Now Black has a strong upper side, and White isn't much strengthened : Black could hardly hope to live, should he invade around G17. He could only have reduced White's moyo.
Now the situation is pretty much the same, since White has not developped any potential towards the center.]
))
