(;FF[4]GM[1]SZ[19]ST[2]CA[UTF-8]AP[SGFC:1.15]

PB[kilroy]
BR[9k]
PW[malyoung]
WR[9k]
KM[6.5]
DT[2005-08-24]
PC[The Kiseido Go Server (KGS) at http://kgs.kiseido.com/]
RE[W+26.50]
TM[900]
OT[5x60 byo-yomi]
RU[Japanese]

;B[qd]C[kilroy [9k\]: hi
malyoung [9k\]: hi];W[pp];B[dc];W[cq];B[nq];W[pn]
(;B[iq]C[J3 is strange, this move is often played when there is a black stone at D4, forming the mini chinese pattern, but now the lower side is white area so you want to settle your group early, not to build a moyo. 
The normal joseki starting with q2 is natural here];W[qj];B[ce]
;W[oc]
(;B[pe]C[This is a solid move which aim at an extension on the right side and at a pressing move or pincer against P17. Since there is already a white stone on the right side it loses its effectiveness, a simple extension at r13 is better]
;W[kc];B[qh]C[Now you see why Q15 was not good, this move is to narrow, Black is overconcentrated]
;W[oe];B[pf]C[This exchange is very good for white, making black even more overconcentrated]
;W[dj];B[eq];W[do];B[eo];W[dn];B[ch];W[ci];B[pr]C[Answering at  D12 is natural, since white makes very good shape by playing there]
;W[dh];B[cg];W[qq];B[lp];W[gd];B[ic];W[jd]
(;B[gb]C[Too passive, by not pushing at J15 you let white make a shape without defects]
;W[id]
(;B[ff]C[Actually this move doesn't do much
It doesn't make territory nor it is attacking anything

I think the invasion at R8 is the biggest move now];W[ef];B[ee]
;W[df];B[de];W[eh];B[fd];W[ge];B[fe];W[qb];B[ck]C[The invasion on the right side is easier to play, as you have seen in the previous variation
But on this side White is stronger and your bottom territory is not very solid, so you're going to suffer some damage]
;W[bi];B[el];W[en];B[fo];W[fn]C[this is the damage i was referring before, since black doesn't have time to defend at G5 he is going to suffer some damage to his territory]
;B[cm];W[go];B[gp];W[hp]C[This double hane is very painful for black]
;B[gq];W[hn];B[bo];W[bp];B[bn];W[dq];B[gm];W[gn]
(;B[fj];W[ek]
(;B[fk];W[fl];B[fm];W[dl];B[gl];W[dm]C[Losing this group is very bad for black]
;B[dk];W[ej];B[cl];W[al];B[bl];W[aj];B[am];W[ak];B[ao];W[cn]
;B[gh];W[fi];B[gi];W[cj];B[fh]C[Is this sente? No
Is this move necessary? No
You were lucky that white answered you, but if he tenuki instead to defend the right side the game is over]

(;W[bk];B[ql]
(;W[oj];B[ol]C[White is giving you a chance];W[qr];B[pq];W[oh]
;B[of];W[ne];B[mg];W[nf];B[ng];W[og];B[mi];W[nk];B[nl];W[rc]

(;B[rd]C[You lost a chance here (see var)];W[mk];B[kj];W[qi]
;B[ph];W[oi];B[ri];W[rj];B[rh];W[rf];B[re];W[ml];B[nn];W[km]

(;B[jl]C[Aji keshi, whit this move you make clear that white is connected, while there is still some cutting aji here...]
;W[jm]
(;B[jg];W[no];B[mo];W[oo];B[mn];W[gc];B[fb];W[fc];B[ec];W[hb]
;B[ib];W[hc];B[ha];W[jb];B[eb];W[hq];B[hr];W[ep];B[er];W[fp]
;B[fq];W[ip];B[jq];W[pc];B[qc];W[rb];B[qf];W[pd];B[rg];W[rm]
;B[pl];W[rl];B[on];W[kf];B[kg];W[lf];B[lg];W[jk];B[kk];W[il]
;B[ik];W[hk];B[jj];W[hl];B[hj];W[dr];B[cf];W[af];B[bf];W[ah]
;B[ae];W[ag];B[ei];W[di];B[qs];W[rs];B[ps];W[rq];B[hf];W[jp]
;B[kp];W[ko];B[ie];W[mp]C[Very tricky, but it seems it doesn't work]
;B[np];W[ir];B[gr];W[kq];B[jr];W[kr];B[is];W[mq]
(;B[lo]C[mistake];W[oq];B[nr];W[or];B[op];W[os];B[po];W[qo]
;B[bh];W[bm];B[oo]C[O1 was bigger];W[ns];B[mr];W[ms];B[js];W[ls]
;B[lr];W[ks];B[lq];W[je];B[gf];W[kn];B[hd]C[malyoung [9k\]: doh]
;W[if];B[he];W[jf];B[ig];W[lj];B[li];W[kl];B[jk];W[gk];B[gj]
;W[pm];B[qm];W[qn];B[mf];W[me];B[lk];W[mj];B[ll];W[si];B[sh]
;W[sj];B[hm];W[im];B[ds];W[cs];B[es];W[pg];B[qg];W[nh];B[mh]
;W[qk];B[om];W[mm];B[ja];W[ka];B[ia];W[jc];B[ni];W[pi];B[pk]
;W[sd];B[se];W[sc];B[eg];W[dg];B[fg];W[lm];B[bg];W[fi];B[ai]
;W[ah];B[ag]C[malyoung [9k\]: doh again];W[ai];B[ei];W[hs];B[gs]
;W[fi];B[bs];W[cr];B[ei];W[sf];B[sg];W[fi];B[la];W[kb];B[ei]
;W[em];B[fl];W[fi];B[qp];W[rp];B[ei];W[nj];B[fi];W[tt];B[tt]
TW[la][ma][na][oa][pa][qa][ra][sa][lb][mb][nb][ob][pb][sb][lc]
[mc][nc][kd][ld][md][nd][od][ke][le][bj][ck][dk][rk][sk][bl]
[cl][sl][am][cm][sm][an][bn][in][jn][rn][sn][ao][bo][co][eo]
[fo][ho][io][jo][ro][so][ap][cp][dp][qp][sp][aq][bq][pq][sq]
[ar][br][pr][rr][sr][as][bs][ps][qs][ss]TB[aa][ba][ca][da][ea]
[fa][ga][ab][bb][cb][db][hb][ac][bc][cc][fc][gc][hc][ad][bd]
[cd][dd][ed][gd][be][ge][qe][af][rf][sf][gg][hg][hh][ih][jh]
[kh][lh][hi][ii][ji][ki][ij][no][mp][mq][fr][ir][fs][hs]C[malyoung [9k\]: thanks
kilroy [9k\]: thanks

I made a few invasions one around J17, one around R8 and one around C8, was there better timing, and better verations? also where the better points to invade ealier or ugent points i missed. i would also like to know my overplays and some fesuki tips, thanks


I've tryed to answer your questions about the invasions
I hope my comments will be helpful
For any question you can find me on KGS as Wiles])
(;B[mr]C[This way black has nothing to fear];W[lq];B[lo];W[oq]
;B[or];W[op];B[nr]))
(;B[qo]C[After this there are many variation
But it seems that there is no way white can save all of his stones]

(;W[qn];B[rn];W[rm];B[ro]
(;W[po];B[rl];W[qm];B[sm];W[pl];B[pk];W[pm];B[qp];W[ok];B[rq]
C[This is pheraps the best result for white])
(;W[qm];B[po];W[oo];B[on]
(;W[rl])
(;W[qp];B[rl])))
(;W[po];B[qn];W[qp];B[rp];W[rq];B[ro]C[White is dead])
(;W[qp];B[ro];W[po];B[rm]C[White has only one eye in the corner]
)))
(;B[jm]C[White is still not clerarly connected, so it was a pity to lose a move like this]
))
(;B[pi]C[This peep is very effective
You are going to capture some stones any way white answers so you will settle your gropu white weakening white]

(;W[oi];B[pj];W[pk];B[qk])
(;W[pj];B[oi])))
(;W[pl];B[qk];W[pk];B[rj];W[qm];B[pj];W[oj];B[pi]C[It was better for W to play safe
Especially since he is ahead after the fight on the left]))
(;W[oj]))
(;B[fl];W[fk];B[gk]C[this way your group is safe]))
(;B[gk]))
(;B[ql]
(;W[oj];B[ol]C[If white play like this black is very happy since white now has two weak groups]
)
(;W[pl];B[qk];W[pk];B[rj];W[qm];B[pj];W[oj];B[pi]C[So White is almost forced to play quietly and white's territory became black's, a very big difference]
)))
(;B[id];W[ie];B[gc];W[he];B[fc]C[You have to push at j15 to create defects in white's shape (the cut at K14)]
))
(;B[qg]C[I would play like this]))
(;B[pr];W[qq];B[kq]))
