(;FF[4]GM[1]SZ[19]AP[SGFC:1.12j]

GN[nonny-pluis(B) IGS]
PB[pluis]
BR[20k]
PW[nonny]
WR[20k*]
KM[0.5]
DT[1997-08-05]
PC[IGS:  igs.nuri.net 6969]
RE[B+28.5]
TM[3600]
US[Brought to you by IGS]
CP[
  Copyright (c) I.Net Technologies, Inc. 1995
  Permission to reproduce this game is given, provided proper credit is given.
  No warrantee, implied or explicit, is understood.
  Use of this game is an understanding and agreement of this notice.]


C[nonny 20k* (W) - pluis 20k (B)

Annotated by Dan Schmidt (dfan@alum.mit.edu), 8k.  Note that this is 8k in the American Go Association, so it's probably only 11k or so on IGS.]
;B[pd]BL[3587];W[pp]WL[3597];B[dd]BL[3545];W[dq]WL[3591];B[co]
BL[3512];W[fp]WL[3578];B[dk]LB[cm:A][dm:B][dl:C]TR[dd]C[This is stretching yourself too thin, I think.  White can jump in sometime at A or B.  The two-space extension to C is the farthest extension I'd recommend from one stone (unless you have some particular reason to play otherwise).

The idea of working with the marked stone is good, though.]
BL[3500];W[lq]WL[3544];B[jd]C[Good.]BL[3475];W[nc]WL[3527];B[oc]
BL[3444];W[kc]WL[3518];B[jc]BL[3425];W[kd]WL[3503];B[je]LB[nd:A]
C[I would have played A, I think.  It makes the White stones fight hard for eye space, and prepares to extend down the right side.  K15 doesn't do a lot; it works towards a moyo on the left side, but there is still plenty of room to invade.

A is what White normally plays himself in response to P17, so it seems like you ought to be able to punish him.]
BL[3394];W[ch]WL[3484];B[cf]BL[3343];W[ck]TR[dk][co]C[Now, you kind of wish these marked stones were linked together more strongly.]
WL[3479];B[cl]BL[3296];W[bk]WL[3473];B[dl]BL[3288];W[dj]WL[3458]
;B[ej]BL[3283];W[di]WL[3454];B[ei]BL[3280];W[eh]WL[3452];B[dg]
BL[3270];W[dh]WL[3450];B[fg]LB[eg:A][fh:B][ek:C][fl:D][bg:E]
[bh:F][ff:G][gh:H]C[This is playing too close to the White stones, I think.  Contact moves are for defense.   White can still poke through at A and B, and has the cut at C, so don't be fooled into thinking you have him wrapped up.    The moves I would think of are:

D, protecting the cutting point at C.  White could really make a lot of trouble there, since if he makes the cut, your stones on the left could have trouble making eye space.

E, hoping to exchange it for F and then go on.

G, making territory up top while threatening to play H.]BL[3265]
;W[bg]WL[3447];B[pj]LB[be:A][ek:B]C[An interesting move.  It is a big point, but now White has A, and I am still very nervous about the cutting point at B.]
BL[3243];W[qc]WL[3375];B[qd]TR[pj]BL[3202]
(;W[rc]WL[3369];B[rd]BL[3194];W[pb]WL[3366];B[ob]BL[3190];W[qa]
TR[kd][kc][nc]C[I'm not sure White has played this very well.  He is not obviously alive, and he's made Black stronger to attack the marked stones.  I might have sacrificed R17 to make a nice base for the O17 group (see the variation earlier).]
WL[3345];B[rb]BL[3175];W[sb]WL[3295];B[ra]C[Accurately played.]
BL[3158];W[nb]WL[3292];B[oa]BL[3145];W[cc]WL[3250];B[dc]C[Correct direction again.]
BL[3140];W[cd]WL[3248];B[ce]BL[3136];W[be]WL[3247];B[nd]C[Good!]
BL[3110];W[md]TR[nb][oa]LB[mc:A]C[Before the exchange of the marked stones, this would not be possible because of A.]
WL[3238];B[ne]BL[3099];W[ec]C[A little weird.]WL[3215];B[db]
BL[3092];W[ed]LB[de:A][ef:B][mc:C]C[I wonder if this even has to be replied to right away.  White A doesn't work, although you have to be careful of a peep at B.  I keep on wanting to sacrifice a stone at C; I tried out some variations here.]
WL[3210]
(;B[ee]C[But this does certainly put the pressure on White.]
BL[3068];W[eb]C[Not threatening much.  Now go for the kill.]
WL[3189]
(;B[na]LB[mc:A][lb:B]C[Taking away eye space on the side is a good idea, but inching along the first line like this rarely works out.  One idea is A, as before, but now that I look closer I like B even better.  It's the "eye-stealing tesuji" (it makes the eye at A false) and threatens to link up to either the left or the right.  See the variation.]
BL[3048];W[mb]WL[3172];B[ma]BL[3045];W[kb]WL[3140]
(;B[ja]LB[lb:A]C[This is also a strange move.  No matter what your plan is, I think you want to start with A.]
BL[3023];W[jb]WL[3082];B[ib]BL[3018]
(;W[me]LB[lf:A]C[Too timid.  A is the way to get out.]WL[3043]
;B[nf]LB[mf:A]C[You're very solid, so I would hane at A without fear.]
BL[2994];W[hb]C[Wasted effort, everything still looks pretty dead.]
WL[3018];B[ic]BL[2973];W[ha]WL[3012];B[la]BL[2938];W[ka]WL[3006]
;B[ia]BL[2916];W[cb]WL[2968];B[da]BL[2913];W[hc]WL[2957];B[hd]
BL[2905];W[gd]WL[2942]
(;B[fd]C[It's weird to walk into atari like this.  I'm not sure exactly what you were trying to accomplish.  You have a tactical shot here, see the variation.]
BL[2898];W[he]WL[2937];B[ie]BL[2857];W[fe]WL[2928];B[ff]BL[2849]
;W[ge]WL[2923];B[hg]TR[fd]C[I'm not sure what variation you had in mind back when you played F16, but it didn't work out.]
BL[2823];W[fh]WL[2913];B[gh]BL[2811];W[hf]C[Not an inspired move.]
WL[2898];B[if]BL[2804];W[ke]WL[2863];B[jg]LB[kf:A]C[I think you're solid enough to play A.  Now this White group will break out too.]
BL[2753];W[lg]WL[2826];B[lf]BL[2743];W[kf]WL[2817];B[mf]BL[2717]
;W[kg]WL[2813];B[mh]LB[mi:A][ki:B][ji:C][ek:D]C[Again, this isn't the time to make a contact move.

You don't need to care about wrapping a tight blanket around White; you just want to prevent him from making another eye.  I'd rather play A, B or C.  The latter two are probably nicer because they help stabilize your group on the left.

I'm STILL worried about the cut at D...]BL[2665];W[ql]WL[2799]
;B[jh]LB[ki:A]TR[jg][mh]C[I'd play A.  You often see the two-knight's-move formation (with the marked stones) when encircling.]
BL[2612];W[lh]WL[2784];B[li]LB[kj:A]C[Again, I'd avoid contact.  Contact just creates cutting points...]
BL[2607];W[mg]WL[2777];B[ng]BL[2599];W[mi]WL[2772];B[nh]BL[2594]
;W[ki]WL[2768];B[lj]BL[2586];W[kh]WL[2749];B[jj]BL[2582];W[kj]
WL[2742];B[kk]BL[2579];W[ji]WL[2741];B[ii]BL[2569];W[lk]WL[2738]
;B[mj]BL[2564];W[jk]WL[2737];B[ij]BL[2537];W[kl]C[Like all the ones he just took advantage of. :)]
WL[2734];B[cq]C[Big, but given that White's top center group is going to live, you might want to think about invading at J3 or something, although that's scary.

R3 is even bigger than C3, and you keep sente.

S10 or so is also big.]BL[2516];W[dp]WL[2729];B[do]BL[2509]
;W[il]C[Not big.  Both the Black and White groups are relatively safe by now.]
WL[2717];B[cr]C[R3 and S10 are bigger now.  Also, by asking White to play D2, you make it more difficult to invade the lower side and threaten to link up.]
BL[2497];W[cp]WL[2710];B[bp]BL[2495];W[dr]WL[2708];B[fo]LB[fn:A]
C[R3!!  I'll shut up about it now.

Even over here, I wouldn't play a contact move, but rather something like F6.  Playing contact moves is asking for cutting points.]
BL[2459];W[gl]LB[fl:A]C[Note that A would fit the eye-stealing tesuji pattern, and would be very strong if the Black groups on either side of the cutting point weren't stable.

White should really fix up the lower right corner, or play S10 himself.]
WL[2699];B[fl]BL[2449];W[gp]C[Timid.]WL[2679];B[mk]C[Small.]
BL[2420];W[rj]WL[2675];B[ri]BL[2408];W[qi]WL[2658];B[qj]BL[2405]
;W[rh]LB[rk:A]C[White is too greedy.  Playing A is fine, and keeps sente.]
WL[2654];B[rk]BL[2401];W[si]WL[2648];B[qk]BL[2396];W[rl]WL[2643]
;B[sl]BL[2388];W[sm]WL[2633];B[sk]BL[2384];W[sj]WL[2628];B[rf]
BL[2360];W[rg]WL[2540];B[sg]BL[2354];W[pg]WL[2537];B[ph]BL[2337]
;W[qf]WL[2521];B[qe]BL[2318];W[ml]WL[2475];B[nk]C[Unnecessary.]
BL[2284];W[rm]WL[2463]
(;B[nl]C[You're taking baby steps.  See the variation.]BL[2272]
;W[pm]C[Weird.]WL[2452];B[nm]BL[2260];W[go]C[I don't understand why White isn't trying to stop you from walking into his territory.]
WL[2439];B[no]BL[2219];W[np]WL[2431];B[mm]BL[2215];W[lm]WL[2422]
;B[ll]BL[2213];W[kk]WL[2420];B[ln]BL[2207];W[fn]WL[2398];B[km]
C[Good, this is much more important.  Now the White group may get into trouble again!

It is obscene how much White has let you stroll right in.]BL[2192]
;W[jp]LB[jm:A]C[A would make me feel more safe again, although it's probably not necessary.]
WL[2375];B[po]BL[2163];W[on]WL[2366];B[oo]BL[2159];W[nn]WL[2329]
;B[mo]BL[2154];W[mn]WL[2298];B[lo]BL[2126];W[qp]WL[2289];B[qo]
BL[2109];W[ro]WL[2283];B[jm]BL[2031];W[im]WL[2274];B[ik]BL[2026]
;W[jl]WL[2272];B[eo]BL[2003];W[gk]WL[2260];B[gj]BL[1976];W[fk]
WL[2249];B[ek]BL[1965];W[fm]WL[2239];B[fi]C[This is all rather small.]
BL[1954];W[an]WL[2230];B[bn]BL[1926];W[am]WL[2205];B[bm]BL[1921]
;W[ao]WL[2195]
(;B[bo]LB[al:A]C[A closes everything off in sente.]BL[1913]
;W[al]WL[2188];B[in]BL[1882];W[ip]WL[2166];B[io]C[Doesn't accomplish anything that I can see.]
BL[1854];W[hm]WL[2152];B[hk]BL[1836];W[jo]WL[2138];B[jn]BL[1834]
;W[nq]WL[2103];B[em]BL[1823];W[en]WL[2097];B[dn]BL[1820];W[lp]
C[I don't understand this and O3.  Why not actually enclose territory?]
WL[2083];B[gn]LB[hn:A]C[Boom!  Nice.  Of course, White should just give up some stones and play A.]
BL[1816]
(;W[gm]WL[2078];B[hn]BL[1814];W[el]C[Pointless.]WL[2072];B[dm]
BL[1811];W[ko]WL[2017];B[qn]BL[1782];W[pi]WL[2011]
(;B[ni]C[Whoops.  It looks like you're going to have to let White live.]
BL[1770];W[oj]WL[1997];B[oi]BL[1734];W[qh]WL[1865];B[ok]BL[1698]
;W[pk]WL[1860];B[nj]BL[1691];W[oh]WL[1846];B[pf]BL[1673];W[of]
WL[1763];B[pe]BL[1652];W[bf]WL[1736];B[rn]BL[1620];W[so]WL[1720]
;B[sn]BL[1610];W[rp]WL[1718];B[pj]BL[1603];W[qj]WL[1702];B[oj]
BL[1577];W[pl]WL[1681];B[og]BL[1572];W[qg]WL[1667];B[ph]C[Don't bother with 1/2 point kos until the last move of the game.]
BL[1562];W[sh]WL[1660];B[sf]BL[1554];W[ca]WL[1612];B[ea]BL[1543]
;W[fa]WL[1605];B[de]BL[1541];W[fc]WL[1599];B[gg]BL[1519];W[ap]
WL[1566];B[aq]BL[1513];W[br]WL[1514];B[ar]BL[1468];W[cs]WL[1512]
;B[bq]BL[1465];W[bs]WL[1508];B[ep]BL[1459];W[eq]WL[1504]
(;B[hp]C[I think you might have some success if you take this in a different order.  See the variation.]
BL[1434];W[hq]WL[1499];B[fq]BL[1427];W[fr]WL[1487];B[ds]C[In the case the throw-in isn't useful.  It just helps White make eyes.]
BL[1366];W[es]WL[1469];B[as]BL[1357];W[ds]WL[1466];B[gq]BL[1281]
;W[gr]WL[1462];B[fl]C[Again, don't waste your time with these unless there's absolutely nothing else to do.]
BL[1226];W[op]WL[1392];B[el]BL[1221];W[mp]WL[1386];B[ho]BL[1210]
;W[kn]WL[1338];B[lm]BL[1196];W[kp]C[Huh?]WL[1330];B[sd]C[Unnecessary.  Were you worried about White playing there, and you can't play T15?  Just play at S15 instead, his eye is still false.]
BL[1169];W[eg]WL[1311];B[ef]BL[1157];W[cg]WL[1305];B[gb]C[He has two eyes.]
BL[1117];W[gc]WL[1271];B[fj]LB[bl:A][ak:B]C[This is dame (a neutral point).  Is there anywhere at all you could have played?  Let's see... A forces White to play B, and deprives him of one point.]
BL[1093];W[df]WL[1199];B[om]BL[1086];W[pn]WL[1196];B[dg]BL[1082]
;W[id]WL[1176];B[oh]BL[1073];W[hd]WL[1161];B[df]BL[1037];W[bl]
WL[1067];B[gi]C[Why?]BL[974];W[tt]WL[1009];B[tt]BL[837];W[tt]
WL[1009];TW[aa][ab][ac][ad][ae][af][ag][ah][ai][aj][ak][ba]
[bb][bc][bd][bh][bi][bj][ci][cj][er][fb][fd][fq][fs][ga][gb]
[gq][gs][hr][hs][iq][ir][is][jq][jr][js][kq][kr][ks][lr][ls]
[mq][mr][ms][nr][ns][oq][or][os][pq][pr][ps][qk][qq][qr][qs]
[ri][rk][rq][rr][rs][sk][sl][sp][sq][sr][ss]TB[cm][cn][en][fk]
[fm][fn][gk][gl][gm][hh][hi][hj][hl][hm][ig][ih][il][im][jb]
[jf][ji][jk][jl][ka][kb][kc][kd][ke][kf][kg][kh][ki][kj][kk]
[kl][lb][lc][ld][le][lg][lh][lk][mb][mc][md][me][mg][mi][ml]
[nb][nc][od][oe][of][pa][pb][pc][qa][qb][qc][rc][re][sa][sb]
[sc][se]C[This game went back and forth a lot, but you hit the jackpot when it counted.  If it weren't for that big capture, you would have had very little territory.

Here's what I would take away from this game:

1) Don't play contact moves when attacking!  Surround from a distance.  All you have to do is prevent him from making eyes.  When you stretch your stones tightly around his, you'll get cutting points.  If you make a loose net, you can firm up any connections if he approaches them.

2) Always look for opportunities to use the eye-stealing tesuji - it usually comes up a few times a game.

3) It's hard to figure out a player's style from one game, but you could probably stand to be more aggressive.  In this game, all the invading was done by White, and a lot of it succeeded.  You left White alone on the lower side and he got 40 points (and should have had a lot more, but he let you walk right into it).  Don't be afraid to die, at this level.]
)
(;B[as];W[ds];B[fq];W[fr];B[gq]
(;W[gr]C[Maybe White would make this mistake...];B[hq];W[hp]
;B[es];W[er];B[hr])
(;W[hq]C[This defends everything, though.])))
(;B[oj];W[oh])
(;B[oi];W[oj];B[pk];W[ok]))
(;W[hn]
(;B[ho];W[gm])
(;B[gm];W[ho];B[hl])))
(;B[al];W[bl];B[bo];W[ak];B[ap];W[al]))
(;B[om]
(;W[ol];B[nl];W[nm];B[mm])
(;W[nl];B[ol])))
(;B[fb]C[That eye-stealing tesuji pattern again.

Whenever you see this 3x3 pattern - in this case, Black stone at H16, White stones at G16 and H17, empty space at F18 G18 F17 and G17, and either empty space or White stones at F16 and H18 - consider playing at F18.  It's not necessarily a great move, but it often is, because it usually really ruins White shape.  White's stones form two legs of a stool, and F18 takes away the opportunity for him to make the third leg.]
;W[ea];B[gc]TR[hc][ha][hb]C[The marked stones die.]))
(;W[lf];B[le];W[me]
(;B[mf];W[ke])
(;B[ke];W[mf])
(;B[ld];W[ke])))
(;B[lb];W[mc];B[lf]C[It's all over.]))
(;B[lb];W[kb];B[mb]
(;W[mc];B[na])
(;W[na];B[mc])))
(;B[mc];W[mb];B[ld]
(;W[me];B[le]
(;W[lc];B[mf];W[mc];B[lf])
(;W[mf];B[lc];W[lb];B[kb]))
(;W[lc];B[le])))
(;W[ob];B[pb];W[nb];B[pc]))

(;FF[4]GM[1]SZ[19]AP[SGFC:1.12j]W[ob];B[pb]
(;W[od];B[pc])
(;W[nb];B[nd]))
