(;FF[4]GM[1]SZ[19]ST[2]CA[UTF-8]AP[SGFC:1.15]

PB[Jaydee]
BR[19k]
PW[AlgizGebo]
WR[19k]
KM[6.5]
DT[2005-09-15]
PC[The Kiseido Go Server (KGS) at http://kgs.kiseido.com/]
RE[W+46.50]
TM[900]
OT[25/600 Canadian]
RU[Japanese]

C[AlgizGebo [19k\]: hi
Jaydee [19k\]: hi
Jaydee [19k\]: onegaishimasu

[[Hello - my name's Adam, and I'll be reviewing this game.  My comments will be in double brackets.  I'm only a 9 kyu myself, so I certainly can't pretend that I know the "right" move in every position that follows.  My remarks are intended merely to highlight some of the issues at play at various points in the game and to stimulate your own thinking about it.  I hope you find them helpful!\]\]

[[For those reading this on GTL, this review was requested by Black, and so that is to whom my comments are addressed, though I have commented on the White moves as well.\]\]]
;B[qp]C[AlgizGebo [19k\]: enjoy];W[dp];B[pd]C[Jaydee [19k\]: thanks, you too]
;W[dc];B[nq];W[ci]C[[[Wow, it's pretty rare that *White* gets to play a Chinese opening...\]\]]
;B[pj];W[jq]C[[[At this point I would take stock of where you stand so far.  This looks like it's turning out to be a Clash of the Moyos game.  Such games often favor Black, but in this case it looks like White is on the road to marking off a beefier moyo, whereas your position is somewhat flatter.  In the variations I've suggested some alternative possibilities for move 9 that you should have at least considered.\]\]]

(;B[fc]C[[[This is an unusual approach move and is considered to be from the "wrong direction" because it doesn't prevent White from making a corner enclosure.  In the variations I've shown a couple of the josekis that follow such an approach.\]\]]

(;W[ee]C[[[An unusual reply.\]\]];B[hd]TR[ic][jd]C[[[Why such a short extension?  One of the triangled points would be more usual.\]\]]
;W[cf];B[lc]TR[jc][nc]C[[[Note that White can still sneak in at one of the triangled points later on.\]\]]
;W[pg]C[I have trouble with this move.  Can you please show standard answers to this type of play?

[[I've attached a couple of possible follow-ups, but this looks like a good spot to do some thinking.\]\]

[[What do you want to accomplish here?\]\]

[[Do you think that White has invaded "your" territory and that you have to kill the invading stone somehow?  That seems like a tall order.  Much as it might look otherwise after move 13, you don't own the right side: putting Black stones on two adjacent star points is not enough to claim the space in between.  (If it were, there'd be no way for White to win a 9-stone handicap game.)\]\]

[[On the other hand, think about this: what does *White* expect to accomplish?  That's a pretty lonely-looking stone with no room to simply extend up the side.  It looks like it's going to have to either run into the middle or try to help pincer one of your other stones.\]\]

Here I tried to not attach, but it was not very successful.

[[You were correct not to attach here.  Touching an enemy stone strengthens both your position and the enemy's.  But you're already strong here!  You want to hem White in, not give White a chance to play all sorts of extensions and dodges, which is what happens when you attach.\]\]]

(;B[nf]TR[oe]C[[[This move is questionable because the stone you've just placed doesn't relate to your other stones very well.  The closest friendly stone is the one at 4-4, but that's a bad shape that is just asking to be cut at the triangled point.  Some other ideas are below.\]\]]
;W[nh]C[[[Questionable.  You can't really run with a keima.\]\]]
;B[oh];W[qc]
(;B[qd]C[Did I block on the correct side?

[[Well, here are some things to keep in mind as you're deciding.\]\]

[[First of all, do you have enough support in the corner to be able to kill the invading stones?  Nope.  White is going to be able to take some territory either on the top or on the right.\]\]

[[On the right White has a stone to try to connect up with.  On the top, no such problem.  That suggests that you chose correctly.\]\]

[[On the other hand, the worst scenario would be if White took the top and then used the Q13 stone to somehow take the right as well.  If you're going to block on this side, you'd better be very sure that Q13 is effectively captured.\]\]

[[I see you've included some variations here, so I'll comment on them as well.\]\]]
;W[pc];B[oc];W[ob];B[nc];W[nb];B[mb]TR[nf]C[[[Realize that you're only getting away with this many hanes because of the triangled stone.\]\]]
;W[rd];B[re];W[rc];B[qf];W[ni];B[nk]
(;W[qh]C[[[You're lucky White didn't seem to know what to do here.  See the variation for one way White could've put a dent in your position.\]\]]
;B[og]C[[[Good.  As the Offspring say, you gotta keep 'em separated.]
;W[qk];B[qj]C[[[Good.\]\]];W[qn];B[ql]TR[qk]C[Here it seemed attachment was effective, so I am confused

[[Ah ha - but in this case you touched a stone that *you were already touching*.  It wasn't an attachment out of nowhere.  White seemed to think that a two-space extension on the third line was safe, but the triangled stone was smashed up against an iron pillar!\]\]

[[The proverb "don't attack with contact" means that first you must *contain* the enemy (which is very hard to do with contact) and only then do you go in for the kill, if possible.  In this case, White is already pretty confined.  And even so I might  consider playing something like P5 instead.\]\]

[[And another thing to think about: *was* it really effective?  Yes, you captured the triangled stone, but R6 managed to escape.\]\]]
;W[no]C[[[I started to write some move-by-move comments here, but I think I'd rather just talk about the fights that follow in general terms.\]\]

[[In go, you can't have everything.  Unless White plays very poorly, you're not going to be able to keep R6 from connecting with R9 *and* keep it from connecting with O5 *and* keep White out of your corner all at the same time.  What you want to do is keep White on the run - *while* you make a profit.  That's why I suggested P5 instead of R8 earlier - while White scrambles to make a tiny life, you make your corner invulnerable and get a wall on the outside that you can use to project power over on the left side.\]\]

[[Which is another thing.  Look at where you've been playing: exclusively on "your" side of the board.  Has every White move threatened to do so much damage that you *had* to respond instead of threatening some damage of your own on the left side?\]\]]
;B[on]TR[po]C[[[Looks like you want to cut off R6.  White's potential cut at the triangled point makes that uncertain.\]\]]
;W[op]
(;B[pq]C[[[Hang on - did you want to cut off R6 or not?  This was your chance!  (See the variation.)  If you were more concerned about keeping O3 connected, you could've played P4 yourself earlier...\]\]]
;W[po]
(;B[qo]C[[[This just forces White to connect at Q6, endangering your stone at P6.  Otake Hideo calls this a "family feud."  The variation would have been better.\]\]]
;W[pn];B[rk]C[[[Looks like R8 wasn't totally effective after all if you needed to spend a crucial move doing this.\]\]]
;W[nn];B[oq];W[lp];B[cn];W[fq];B[ck];W[bp];B[ej];W[eh]
(;B[bn]C[we discussed this move, AligizGEbo thinks it should be the alternate and I do agree

[[Yes.  There's a principle that recommends that players "make box-like territories."  There's another principle that says that you should be very wary of playing on the second line before the endgame.\]\]]
;W[en]C[[[And of course this is just devastating.  It is a perfect go move: it dramatically expands White's potential territory while dramatically restricting yours.\]\]]

(;B[lj]C[[[Remember, you want to do two things at once: put pressure on your opponent, and make profit yourself.  This move does the former but not the latter.  See the variation.\]\]]
;W[lh];B[jh]TR[ki]C[[[Watch out!  Bad shape!\]\]];W[ki];B[jj]
;W[ji];B[ii];W[kj];B[jk];W[kk];B[km];W[ll]
(;B[mj]C[I should be able to kill this white group - but how?

[[Why do you think you should be able to kill it?\]\]

[[Let me put it this way.  There are two ways a group can keep from being killed.  One is to make two eyes.  The other is to "connect to life" - that is, to hook up to a friendly group that's already alive.\]\]

[[This White group is only one move away from connecting to life.  If you want to kill it, you have no choice but to sever that connection.  But at this point, even that won't help.  See the variations.\]\]]
;W[mm];B[in];W[jo];B[jn];W[kh];B[jg];W[lf];B[ke];W[kf];B[jf]
;W[me];B[ne];W[om];B[pl];W[pm];B[pf];W[ip];B[gm];W[go];B[em]
;W[gi];B[gj];W[hh];B[gf];W[ih];B[hj]C[I think this is where I lost the game.  Well the clueless plays I made early on made this mess so bad.

[[Remember - keep your groups connected; keep enemy groups split apart.\]\]

[[I see you've worked out some variations here - I'll add some comments to those as well.\]\]]
;W[je]
(;B[jd];W[ie]LB[ke:A][jf:B][jg:B][jh:B]TR[je]C[[[In capturing races, count the liberties.  To win, you have to capture the triangled stones.  That group has three liberties.  To win, White only needs to capture your stone A, which has two liberties.  So you need to save stone A by playing something like L16 or M16.  But then White can play J14, adding a liberty to the triangled group while taking one away from your group B.\]\]

[[In other words, you've already lost the race.  So save what you can. You've still got territory at the top.  Save it.  J16 would be a good move here.\]\]]
;B[if];W[he];B[ge];W[kd];B[kc];W[ld];B[md];W[le];B[hf];W[id]
;B[ic];W[jc];B[jb];W[hc]C[[[Yeeeowtch.\]\]];B[jd];W[gd];B[fi]
;W[fh];B[jc];W[hb];B[gc];W[fd];B[ec];W[db];B[dd];W[ed];B[dh]
;W[dg];B[di];W[ch];B[ei];W[hi];B[ij];W[cd];B[eg];W[fg];B[ef]
;W[ff];B[gg];W[gh];B[fe];W[df];B[lr];W[kr];B[cq];W[cp];B[bq]
;W[dq];B[ap];W[ao]C[ok.  So I see several way that I could have played this better.

[[This looks like a hopeless position to me.  I'll comment on the variations.\]\]]

(;B[bo];W[aq];B[ar];W[ap];B[bs];W[cr];B[br];W[dr];B[lq];W[kp]
;B[kq];W[jr];B[fn];W[eo];B[fo];W[fp];B[ho];W[hp];B[gn];W[gp]
;B[dn];W[mg];B[ln];W[mp];B[oi];W[nj];B[mk];W[oj];B[ok];W[bj]
;B[bk];W[cj];B[dk];W[an];B[bm];W[am];B[al];W[pa];B[na]C[No way to kill the corner - correct?

[[Correct.  White has done more than enough to guarantee life.\]\]

[[My comments end here.  I hope they've been helpful - feel free to email me if you have any further questions!\]\]]
;W[ra];B[qb];W[pb];B[kl];W[lk];B[lm];W[ml];B[ng];W[mh];B[ia]
;W[ha];B[io];W[ko];B[rn];W[rm];B[ro];W[qm];B[rl];W[sm];B[sn]
;W[ol];B[pp];W[np];B[mq];W[kn];B[jm];W[dj];B[ek];W[aj];B[ak]
;W[do];B[ri];W[se];B[sf];W[sd];B[ma];W[ib];B[ja];W[mn];B[nl]
;W[lo];B[sl];W[nm];B[ks];W[js];B[ls];W[li];B[pk];W[tt];B[tt]
TW[aa][ba][ca][da][ea][fa][ga][qa][sa][ab][bb][cb][eb][fb][gb]
[qb][rb][sb][ac][bc][cc][ec][fc][gc][sc][ad][bd][dd][hd][ae]
[be][ce][de][fe][ge][ke][af][bf][ef][gf][hf][if][jf][ag][bg]
[cg][eg][gg][hg][ig][jg][kg][lg][ah][bh][jh][ai][bi][on][mo]
[oo][ep][jp][bq][cq][eq][gq][hq][iq][ar][br][er][fr][gr][hr]
[ir][as][bs][cs][ds][es][fs][gs][hs][is]TB[ka][la][kb][lb][mc]
[nd][od][oe][pe][qe][of][rf][pg][qg][rg][sg][ph][qh][rh][sh]
[pi][qi][si][fj][rj][sj][fk][gk][hk][ik][qk][sk][bl][cl][dl]
[el][fl][gl][hl][il][jl][cm][dm][fm][hm][im][hn][so][rp][sp]
[qq][rq][sq][mr][nr][or][pr][qr][rr][sr][ms][ns][os][ps][qs]
[rs][ss]C[Jaydee [19k\]: thank you
AlgizGebo [19k\]: thank you too
AlgizGebo [19k\]: gg
Jaydee [19k\]: yes])
(;B[aq];W[bo]
(;B[br]C[[[Terrible move. Empty triangle.\]\]];W[dr])
(;B[bs]
(;W[ar];B[dr];W[cr];B[br];W[er];B[ds];W[es];B[cs])
(;W[cr];B[dr]
(;W[er];B[ds];W[es];B[cs])
(;W[br]C[[[You forgot about this.\]\]])))))
(;B[ie];W[jd];B[jc];W[kd];B[kc];W[id];B[ic];W[if]C[[[White would never play this - that group is in atari!  White would play M16.\]\]]

(;B[he]C[[[M16 captures!\]\]])
(;B[ld]))
(;B[kd]C[[[Yes - extend from a crosscut.\]\]]
(;W[jd]C[[[This is futile for White.\]\]];B[jc];W[id]C[[[This wouldn't have been White's move here.  J15 is better, but (I think) still doomed.\]\]]
)
(;W[ie]
(;B[jd]
(;W[id]C[[[White would never play this in the middle of trying to win a capturing race!\]\]]
;B[ic];W[he];B[ge];W[if];B[ig])
(;W[if];B[id];W[he]C[[[Bad move - empty triangle.\]\]];B[ge]
))
(;B[hg]TR[jf][jg][jh]C[[[This looks to me like your best bet to save the triangled stones - White can still win the fight, but is more likely to misplay.\]\]]
))))
(;B[mm];W[lm];B[ln];W[mn]
(;B[nl];W[kn]C[[[Nope.\]\]])
(;B[kn];W[nl]C[[[Nope.\]\]])))
(;B[lg]C[[[This puts just as much pressure on the white group as the move you played, and expands your territory on the top at the same time.\]\]]
))
(;B[en]))
(;B[pm]))
(;B[po];W[oq]))
(;W[og];B[ng];W[pi]))
(;B[pc];W[qd]
(;B[qe]C[[[Don't over-hane...\]\]]
(;W[re]C[[[This isn't necessarily what would happen - see the variations.\]\]]
;B[qf];W[rf]
(;B[rg]C[[[Don't over-hane!  See the variation.\]\]];W[qg]C[trouble]
;B[rh];W[pe]C[ouch

[[No kiddin'.  You can't overdo it on the hanes when you're dealing with a 3-3 invasion.\]\]]
)
(;B[qg]))
(;W[pe]
(;B[pf];W[qf];B[oe];W[re];B[pe];W[rg])
(;B[qf];W[pf];B[qg];W[ph];B[qh];W[oi];B[og];W[pi];B[ni];W[nj]
;B[mi];W[oj])))
(;B[pe])))
(;B[ng]C[[[One standard idea in this kind of situation is a capping play, as shown here.  Now White's most obvious path to the safety of the middle of the board is blocked.\]\]]
)
(;B[nj]TR[pm][qm]C[[[Here's another possibility.  It puts a little bit of pressure on the White stone and at the same time starts to solidify the bottom right as yours.  Think White wants to try invading at one of the triangled points now?\]\]]
))
(;W[de];B[ic])
(;W[ed]
(;B[fd];W[jd];B[ff];W[fe];B[ge];W[ee];B[hf])
(;B[db];W[cb];B[eb];W[cd];B[ic])))
(;B[jd]TR[jc]C[[[Here (or at the triangled point) you have caught up to White.  Of course, White does have the next move...\]\]]
)
(;B[cq]C[[[I have a friend who is a stronger player than I am who I suspect would recommend this point.  The advantage you hold over White as of move 8 is that while White's framework looks a little larger, you have a (loose) enclosure in your bottom corner whereas White has nothing but a 4-4 point, and that allows you to slip in at 3-3 and grab that corner while White can't retaliate in exactly the same manner.\]\]]
)
(;B[cn]TR[dn]C[[[This (or the triangled point) is another standard idea against the Chinese opening.\]\]]
))
