(;FF[4]GM[1]SZ[19]ST[2]CA[UTF-8]AP[SGFC:1.15]

PB[czark]
BR[7k]
PW[BramGo]
WR[4k]
KM[0.5]
DT[2005-09-03]
PC[The Kiseido Go Server (KGS) at http://kgs.kiseido.com/]
RE[B+40.50]
TM[2400]
OT[5x40 byo-yomi]
RU[Japanese]

C[Hi, I would like to have your opinion about this game. I tried to write down about everything I was thinking and concidering during the game.]
;B[qd]C[I am playing white. As you can see my opponent is rated 7k, so it should be a relatively easy game for me.]
;W[dc]TR[qd]C[I usually reply black's move like this...];B[pq]
LB[cp:A][dp:B][dq:C]C[Normally I would play A or B here but I wanted to give C a chance. That is because I started to dislike both of them lately = see my 2 variations]

(;W[dq]C[So this game is actually my first experiment with this stone. And I was satisfied with the results.]
;B[oc]
(;W[rd]LB[qe:B][re:A][qj:2][qn:1]C[This is a bit too early maybe I guess. But I'm trying to force something here as well. I sometimes tend to think too much during the opening, then comming up with the wildest ideas. Maybe I'm trying to be too creative. Sometimes I lose a lot of thinking time this way.

So, my plan is: if black goes A, then I will play at 1, if he plays B, then I will play at 2.

eo:  S16 does seem to early.  as black, I'd try to take sente, perhaps by playing a bit move now and ignoring this move (the fear being that no matter how I answer this move now, white might ignore my response and take sente!)

Perhaps a good black sente now is D15 or D5 .];B[re]C[czark [7k\]: shouldnt be too hard to code into the clients :)]
;W[qn]C[
eo: as white, I might not play R6.

If black answers r6 with black r4 and white extends to r9, and black then plays r11, the r11 is a nice double purpose move, both attacking white and an ok distance from the upper corner.

Perhaps q5 or r5 better for white for this reason.];B[qp]C[I was a bit surprised here. But I probably would have done the same thing. The territory might be worth more, I guess ...]
;W[qk];B[np]C[eo: maybe black r11 is better than O4 as it is double purpose, extend from corner and attack white ?  (which relates to the fact that perhaps r5 was better for white than r6 ?)

You'd need to ask someone stronger than me  and then let me know.  (I'm only 2d in aga) .]
;W[qe];B[rc];W[pd];B[qc];W[rf];B[sd];W[pf]LB[og:A][pg:B]C[Normally, I would have played at A or B here. But since I have a strong group nearby, I don't have to play sabaki here I think.


eo:  white loses ground by playing q14.  

Because black is alive in corner, the value of saving the white stones is diminised.

bigger would be white d5 or c5 or d15 or c15or perhaps r13 to make more territory.  notice that with q14 instead of r13, black can still ruin the territory here with r13.

Also, a move at j3 looks bigger than q14.];B[pc]C[eo: white's lucky, cause black wasted a move with q17.  if white pushes there, black blocks at q18, and is not in danger because if white cuts on either side, black can keep his p17 stone connected (READING PROBLEM!)]
;W[cj]LB[np:B][iq:A]SQ[dc][dq]C[From the left side my 2 stones are placed on the 4th line. So that's the most important place on the board I guess. I was thinking about a move around A as well. Because of the high placement of B. But I think the left side was even more important.

So far everything seems to be perfect :).];B[ej]LB[dj:A]C[Well I should have expected this move. It looks pretty natural. Almost like a textbook situation.

I guess I could have avoided if I played the stone one line higher at A. But I'm a territory hungry player. That would be too risky for me :)]
;W[dl]C[Answering the cap with a keima. I think the bottum is the most important side, no ?]
;B[ci];W[bi]LB[ch:C][di:B][bj:A]C[I think black should play A here, B and C are mistakes according to some strong amateur player.

eo: to me b11 looks docile, but i could be wrong.  since white is stron enough in the area, how about white d10 instead, willing to cut if black answers at d11.

if black answers w d10 at c12, white has double purpose (corner and attack) answer at c15.]

(;B[ch]C[
eo: white letting black totally get into an area where white had dominance...]
;W[dj]LB[bh:2][ei:1]C[That's what the "joseki" says, right ? Next black should play at 1, and then I get to play 2...]

(;B[bh]C[
eo: as white i would answer this black move at c15, then if black blacks b10, I atari at b9 and take sente with something like j3 or j17.]
;W[di]C[Actually here I noticed that I might have given black what he wanted all along ?]

(;B[dh]LB[ce:B][bj:C][jq:A]C[Next I wanted to play somewhere around A.

I didn't want to bother playing B. Since I think Black is overconcentrated when he plays there. I believe B would make sense If I could hunt on the black group, but then again I think black would simply tenuki because he can always play C later on.]
;W[oq]LB[jq:A][lq:B]C[I played this move instead because I thought It could let me play B instead of A :)]
;B[op];W[lq];B[nq]C[
eo:  there's no reason for white to just give up p3 stone plus have to defend at j3.

How about just starting with j3 ??]
(;W[iq]LB[ip:A][kq:B]SQ[np][nq]C[I concidered A. But then black would reduce with B later on. thanks to his strong position.]
;B[do]LB[eo:C][fp:A][fq:B]C[The expected move. I was going to play A at first. But then I guessed black would play as in the first variation. That would destroy my precious territory.

Next I concidered B, so that I could start a nice cutting joseki. But I guess it's simply too low.

Next I was thinking about C.  But attaching to a weak stone ... after all he would probably simply live in the corner.]

(;W[cp]LB[co:4][ep:1][gp:3][eq:2]C[I saw this move in some chinese fuseki pro-games. I wanted to give it a try. If I'm not mistaken, next black should play 1, and after 4 moves, I can connect underneath to my stones at the left side.

eo:  how does white decide between c4 and c5 ?  When c5 "works" it's better than c4.]

(;B[co]C[Black seems to have a different plan. But I'm happy. with the territory at the bottum and the heavy shape of black.

eo: black looks heavy and attackable now here.  as black, I would consider f5 instead of c5.]
;W[fp];B[fn]LB[fo:A]C[I don't agree with black here neither. Why not attach with A. It would give him a better shape, and make me overconcentrated ? And a keima can be cut, right now it's still tricky but when my white group get's stronger it will be easier.

eo:  white making territory, black just running.  not good for black.]
;W[ei]C[I felt like this was the only move.];B[ce];W[cd];B[de]
;W[fd]LB[hc:3][od:1][pe:2]C[I regretted this move right after I played it. I expected the sequence of 1 to 3. See variation]

(;B[bj];W[bk]C[Imho a mistake by black again ?];B[ai];W[od]
LB[jc:A]C[A is obvious better here. Next black will play a double hane.

eo:  what strikes me about this white p6 is that now that black's group is settled in upper left, black can play something like f8 which both helps his heavy lower group and attack's white's middle stones.

for white, i would like to play something like g11 instead of p16, which both strengthens whites left side middle stones and attacks blacks lower ones.

[ I stop here for now, I have to go to work ! \]];B[nd]
(;W[mc]C[I wanted some kind of compensation ... in top-side territory.]
;B[nc];W[ic];B[of];W[pg];B[qi]C[An overplay, imho.

The game really looks easy here.];W[pj];B[pi];W[oi];B[oh];W[ph]
;B[og];W[rh];B[ri];W[qh];B[oe];W[pe];B[ni];W[oj]C[All together his influence looks a reasonable compensation maybe ?]
;B[kc]LB[ke:A]C[I was planning to play at A later on. For now I think it's not very urgent and my group at the left needs help first.]
;W[fl];B[hn];W[hl];B[eq];W[ep];B[dp]LB[cq:A]C[I was going to play at A first... but I noticed there were some complicated variations involved. :) And being so far ahead ;-) ... I think could relax, no ?

So instead I played something slightly different that looked easier to predict. "Simplify and finish of the game"]
;W[cr];B[bp];W[cq];B[bq];W[er];B[br];W[eo]C[AHA :) time for the cut :) The game will get even easier.]
;B[en];W[dn];B[cn];W[dm];B[cs];W[dr];B[bl]C[A greedy mistake ?]
;W[bm];B[cm];W[cl];B[bn];W[al];B[ao];W[io]LB[an:A]C[I overlooked the kofight :-s

By the way ... it was a bit hard to find the right direction here ? I guess grabing territory at the bottum is the correct way of thinking, since that would be sente for him.]
;B[im];W[ke];B[jd];W[il]LB[jk:A]C[I need to pretect my influence at the top maybe a keima at A was better ?]
;B[jm]
(;W[id]LB[ke:A]C[Ok, this is probably a bad move. I think i should have simply jumped out with my A-stone.]
;B[je];W[kg];B[ig];W[jf];B[if];W[kd];B[ie];W[jc];B[lc];W[ki]
;B[ec];W[ed];B[dd];W[cc];B[gc];W[gd];B[fc]
(;W[hb];B[db];W[cb];B[eb];W[gb];B[bd];W[bc];B[ae];W[ca]C[Here I decided to make it a ko. I didn't see any other options. I underestimated B16.]
;B[ac];W[ab];B[ba];W[ad];B[ge]C[G15 looks like a bad threath ??? When I defend I don't need to win the kofight anymore... Because then I take away another liberty of black.]
;W[hc];B[ac];W[fb];B[ql];W[pl];B[qm];W[pm];B[rk];W[rj];B[rn]
;W[ne];B[me];W[nh];B[mh];W[mi]C[I started to make more careless moves. I didn't read this one out completely.]
;B[nj];W[ng];B[nf];W[mg];B[mf];W[lh];B[jl];W[ln];B[jj];W[kk]
;B[jk];W[pn];B[rm];W[ii];B[ji];W[jh];B[ih];W[hj]LB[hj:A][gk:B]
C[Before playing A I checked B and it looked safe. See variations for what I saw.]

(;B[ll];W[mm];B[ko];W[kn];B[jn];W[jo];B[lm];W[mn];B[sj];W[qj]
;B[si];W[sh];B[sk];W[sl];B[rl];W[ro];B[so]C[Another surprise :-s I didn't see this move.]

(;W[sp]C[Ko seemed to be the only option];B[sm];W[sn];B[gp]
;W[gq];B[so]C[Looks like I can tenuki once instead of looking for a kothreath ? So ... I thought if I play R13 first, then I will have almost nothing to lose.]
;W[qg];B[rp];W[sn];B[fo];W[fq];B[so];W[bf]LB[an:A]C[A reasonable threath ? Here I should have played A instead ofcourse. But I didn't see it ...]
;B[qo];W[be];B[cf];W[bg];B[cg]C[it's hard for black to get 2 eyes here...]
;W[fg];B[fe];W[jg];B[ee];W[hd];B[gh];W[fh];B[gk];W[hk];B[hi]
;W[ij];B[gj];W[gl];B[ek];W[dk];B[el];W[em];B[gi]LB[fm:A]C[I was going to play A here ... then suddenly I noticed that my 2nd eye was an illusion ???

WRONG : I should have protected at A. Because it was a double ko :)]

(;W[am]C[I concidered this sente ...];B[ak]C[sente or no sente ... I am in trouble]
;W[aj];B[fm]C[and then I realise I made a mistake];W[an];B[bo]
;W[aq]C[My compensation ?

I still have plenty of kothreaths so I think I can play this way.]
;B[ak];W[fj]
(;B[fk];W[aj];B[bs];W[ar];B[ak];W[fi];B[gg];W[aj];B[sf];W[sg]
;B[ak];W[gf];B[he];W[aj];B[lf]
(;W[bi]LB[kf:A][lg:B]SQ[kd][ke]C[I underestimated black his threath. I saw A but didn't see B.]
;B[lg];W[mk];B[nk]
(;W[mh]C[And in all confusion I made an agressive reaction. Notice that I was allready in byo yomi while my opponent still had 22 minutes of main time :)]
;B[ml];W[nl];B[ol];W[nm];B[pk];W[gn]C[Some desperat moves];B[gm]
;W[om];B[ok];W[mr];B[nr]C[BramGo [4k\]: you must think i'm a complete idiot :) lol]
;W[ns]C[czark [7k\]: that was a tricky bit];B[os]
(;W[lo]C[BramGo [4k\]: i've been such a greedy fool once again :)]
;B[hp];W[ho];B[go];W[hq];B[ms];W[ls];B[mq];W[lr];B[jb];W[ib]
;B[kb];W[ah]C[czark [7k\]: still looks close to me :)];B[ff]
;W[ip];B[ia];W[ha];B[ja];W[ea];B[eg];W[mp];B[no];W[km];B[kl]
;W[po];B[pp];W[mo];B[se];W[ns];B[ag]C[Impressive move];W[ad]
;B[ai];W[mb];B[ld];W[ah];B[fa];W[da];B[ai];W[hm];B[ik];W[ah]
;B[kp];W[kq];B[ai];W[ps]C[a bad threath :-s But I knew that I was over 20 points behind ...]
;B[ms];W[ah];B[ns];W[af];B[nn];W[lp];B[tt]C[czark [7k\]: Anyone ever tell you you look like Michael redmond did 30 years ago?

A great compliment :)];W[tt]TW[aa][ba][fa][ga][bb][db][eb][ac]
[ec][fc][gc][bd][ae][qf][ag][rg][ai][bj][ak][ck][bl][cm][bn]
[cn][ao][bo][co][do][ko][ap][bp][dp][jp][kp][bq][eq][jq][br]
[fr][gr][hr][ir][jr][kr][as][bs][cs][ds][es][fs][gs][hs][is]
[js][ks]TB[ka][la][ma][na][oa][pa][qa][ra][sa][lb][mb][nb][ob]
[pb][qb][rb][sb][mc][sc][kd][md][rd][ke][le][ne][df][ef][gf]
[hf][jf][kf][dg][hg][jg][kg][mg][ng][hh][jh][kh][lh][mh][nh]
[ii][ki][li][mi][oi][hj][ij][kj][lj][mj][oj][pj][qj][rj][hk]
[kk][lk][mk][qk][fl][gl][hl][il][sl][hm][gn][sn][ro][sp][oq]
[qq][rq][sq][or][pr][qr][rr][sr][ps][qs][rs][ss]C[And that's how it ended.

I would really appreciate help.
This game is actually a good example of what could be any of my games:

1) a good opening
2) a safe advantage
3) Big mistakes at the end of the middlegame

Is this a problem you have as well ? Is there a way I can train to avoid this? I allready do life and dead exercices every day. (the encyclopedia of life of death of cho chickun)]
)
(;W[ms];B[mq];W[kr];B[lp]))
(;W[ml];B[mj];W[lk];B[mh];W[li]C[I still would have been ahead.]
))
(;W[lg]C[I made another mistake ...]))
(;B[bl];W[fk];B[ek]C[Maybe a bad threath ?]))
(;W[fm];B[am];W[aj]))
(;W[rp];B[qo];W[sm];B[sn];W[rq]C[I didnt notice this way.]))
(;B[ij];W[hi];B[gk];W[gl];B[hk];W[ik];B[fj];W[gj];B[fi];W[fk]
;B[ek];W[fm])
(;B[hi];W[ij];B[gk];W[fk];B[gl];W[gj];B[gm];W[fj])
(;B[gk];W[gl];B[gj];W[gi];B[hk];W[ik];B[ek];W[el];B[ij];W[hi]
;B[fi];W[fj];B[fk];W[dk]))
(;W[hc]C[I should have played like this after all. I read it out but didn't see everything as bright.]
;B[hb];W[ib];B[db];W[cb];B[fb]LB[da:A][ea:B]C[When I was reading this out I thought white would have to play A and start a ko. But after the game I noticed that white can simply play B.]
))
(;W[kg]LB[me:B][mh:A]C[I have threaths left at A and B to get some shape.]
))
(;W[ne];B[me]))
(;B[od];W[pe]
(;B[hc];W[gc]
(;B[kc];W[hd];B[ic])
(;B[hd]C[looks too slow ...]))
(;B[ec];W[ed];B[hc]
(;W[fc];B[kc]C[Better than the other variation ? Looks like the same pattern as we saw earlier at the bottum ? Is it truly better]
)
(;W[gc];B[gb];W[fb];B[gd];W[fc];B[kc]C[looks fine too for black... doesn't it ?]
))))
(;B[ep];W[eq];B[gp];W[co]C[I would have been happy like this :)]
))
(;W[fp];B[fo];W[go];B[cq];W[cr];B[dr];W[eq];B[br];W[cp];B[bq]
;W[er];B[cs];W[dp];B[bp];W[co];B[bo];W[cn]C[I think this is joseki for reducing my corner, right ?]
)
(;W[fq];B[cq];W[cp]LB[fo:A]SQ[dq][fq][iq][lq]C[I would like the fact that I can cut here.

But after the joseki black will simply be able to jump out at A. And I can't be happy about all my low stones here.]
)
(;W[eo];B[cq]))
(;W[ip];B[kq]TR[di][dj][dl][ip][jp][kp]C[annoying imho. I guess you could argue that it would give me plenty of influence in return...  But I'm not really sure if that would be enough to compensate my loss in territory.]
))
(;B[bj];W[bk];B[ai]C[If he plays like this, it is converted back to the 2nd variation I mentioned earlier.]
))
(;B[ei];W[bh]))
(;B[bj]C[I think this is better.]
(;W[bk];B[dj];W[ck];B[bh];W[aj];B[dh]C[That's what he told me to do...]
)
(;W[dj]C[He didn't tell me about this move though ? Is it any good ?]

(;B[bh];W[di];B[ch];W[bk];B[ai]C[At first sight I would say white can be happy here. His result looks slightly better no? If so, then is it joseki as well ?]
)
(;B[di]C[If the previous variation was bad, then maybe black should start a fight instead ?]
;W[bh]))))
(;W[qn]LB[pk:B][ql:A]SQ[oc][qd]C[I don't like this move ... Cause black will pincer with A or even B and after that black gets a lot of influence. That's what black wants, right ?

After that it will be hard for me to reduce the top right corner.]
;B[ql];W[qq];B[qp];W[pp];B[rq];W[qr];B[po];W[op];B[qo];W[rr]
;B[no];W[oo];B[on];W[oq];B[pn]LB[rd:A][qe:B]C[After this I'm not sure what is the right invasion point at the right. If I play A I know black will counter with B.

So I think that if I would play A first as a probe, then I might avoid this situation ?]
)
(;W[po];B[pl]C[This is even worse, no ?])
(;W[qk]C[T];B[qo];W[qh];B[jq]C[Feels small to me.]))
(;W[dp];B[fq]
(;W[cn];B[jp]LB[qj:6][qk:5][pn:4][qn:3][po:2][qo:1][pq:A]C[Approuching A is a bit tricky now. And allthough I know this situation has occured in pro games a 1000nd times, I feel like i'm at a disadvantage.

I don't like any of the 4 approuches. And playing at the side with 5 or 6 feels bad too because of black's stone at the top. (It would be a slightly different story if that stone was at the starpoint)]
)
(;W[hq]LB[cq:A][pq:B]C[I could play like this to avoid the previous result. But then black will jump to the corner, giving me an immediate loss in territory. On top of that my influence will be hard to use with B.]
;B[cq];W[dq];B[cp];W[do];B[dr];W[er];B[cr];W[eq];B[cn]
(;W[kq]C[Feels a bit slow ...])
(;W[mp];B[po]C[Feels like i'm giving away even more territory.]
)))
(;W[cp];B[ep]LB[eq:A]C[If black approuches high I will get a simular result.]
;W[eq];B[fq];W[dq];B[fp];W[cn];B[jp]LB[pq:A]SQ[qd]C[Again the same problem. I don't like approuching A. The 2 marked stones will give me a hard time.]

(;W[po];B[pl]C[I don't want this.])
(;W[qo];B[qk]C[And I don't want this])
(;W[qn];B[po]C[This I don't like neither])
(;W[pn]C[I don't have much experience with this move yet :) But I can't imagine it's any better. :)]
)))
