(;FF[4]GM[1]SZ[19]ST[2]CA[UTF-8]AP[SGFC:1.15]

PB[lifandiss]
BR[13k]
HA[2]
PW[mute]
WR[11k]
KM[0.5]
DT[2005-09-13]
PC[The Kiseido Go Server (KGS) at http://kgs.kiseido.com/]
RE[W+Resign]
TM[600]
OT[2x20 byo-yomi]
RU[Japanese]

AB[pd][dp]C[Hi reviewer,

I've already commented my plays before sending you the game, but reading the gtl guidelines, I see "no speed games"
I send it howerver since I have true questions.

thx for reviewing :)

--

hello, my name is lect and I will be reviewing your game.
since you dont state which you are in the game, i will have to assume you are black.

overall i think you played a good game. you should have won the game and i believe that you gave up too early. you have a pretty good "flow" in the game and you seem to move in the correct direction (although you miss a few steps along the way). the steps that you DO miss are the game-altering ones - study more life and death situations to better improve your overall game. you make too many cautious moves which does not allow you to activate the potential of your skill.

i enjoyed reviewing this game :)];W[de]C[lifandiss [13k\]: hello :)]
;B[pp];W[qn];B[np];W[qk];B[jp];W[fp];B[dn];W[iq]C[--

J3 favors B]
(;B[eq]C[--

the corner is small compared to what W has gained (taken away) in this attack]
;W[jq];B[kq]
(;W[fq];B[fd]C[--

this move feels awkward. D17 would be better];W[dc];B[jd];W[nc]

(;B[pf]C[--

not very good positioning for B];W[pb];B[qc];W[kc];B[jc];W[kd]
LB[ke:A]C[should I bend with 'a' here ?

--

here you are posed with a small problem. you have several weak groups currently on board. playing at A or extending downward would strengthen your group there but will allow W to attack the R17 group.

personally i feel that extending downward would be a good idea, but a bend play at A is too early.]
;B[qi];W[ok];B[dj];W[cq]
(;B[er]C[what about that move:
are there any joseki dealing with that ?
I thought it would threaten both 2 white groups.

--

seems like a good idea at first, but you are not strong enough to attack the F3 group.

typically you would concede the corner to W in this situation. see the variatuon]
;W[bo];B[bn];W[co];B[cn];W[do];B[eo];W[ep];B[dq];W[br];B[cr]
;W[cs];B[cp];W[bq];B[bp];W[dr]
(;B[hs]C[--

too early for that];W[ip];B[jo];W[fo];B[en];W[gm];B[jm]LB[el:B]
[fl:A]C[bad direction ?
should black protect at 'a' or 'b' instead ?

--

W cannot do anything with a move at B or A, so no need to respond there]
;W[gk]
(;B[fl]C[ho, I did it.

--

why force W to connect?];W[fm]
(;B[gl]LB[el:A]C['a' better ?

--

see previous comment];W[hl];B[hm]C[there's no hurry to cut, is there ?
E8 seems more urgent.

--

there is a cut, but it is hard to assess the potential. your groups are weak, which will pose a problem.]
;W[hn];B[im];W[el];B[fk];W[ek];B[fj];W[em]LB[cl:A]C[Now, black should play 'C8]

(;B[ej];W[cl]
(;B[hk]C[--

if you want to capture those stones, J10 would be better. however, those stones are not important. save your own first.]
;W[kr];B[lr];W[jr];B[lq];W[fr];B[es];W[ds]
(;B[fs];W[bm];B[rp];W[ff];B[jf];W[kf];B[jg];W[qb];B[kg];W[je]
;B[ie];W[ke];B[he];W[hc];B[gc];W[jb]C[this is a very severe white move.
I should remember it.];B[hd];W[ib];B[sm];W[rm];B[sn];W[sl];B[rl]
;W[so];B[sk];W[rn];B[sl];W[ro];B[rj];W[qp];B[qq];W[qo];B[rq]
;W[op];B[oq];W[po];B[oo];W[on]SQ[pm]C[Ok, now, I should be able to attack that white group (lower right) te get some benefice..

But HOW ?


(even if white seems almost alive)

--

start at the focal point of the group : its eyes!]
(;B[nn];W[om];B[ql]LB[mk:A]C[would a move around 'a' be better ?
elsewhere ?

--

get rid of W's eyespace first];W[pl];B[qm];W[ch]
(;B[oj]LB[lj:A]C[hmmmm,
I still prefer a move around 'a',
what do your think ?

what better move (and what for ) in such a situation ?

--

killing a cluster of stones isnt like a game of football, avoid the contact plays!]
;W[pj];B[nj];W[pi];B[qh];W[ph];B[qg];W[nh]
(;B[lg]C[That black move looks tight.
but it should have been played earlier, no ?];W[nf];B[og];W[oh]
;B[ng];W[mg];B[mh];W[mf];B[mi]C[Ok, white is cut off, and black built a kind of thicker moyo.
For how long ?];W[ml]
(;B[mm]LB[mk:A]C[lifandiss [13k\]: is this strengtening white ?
lifandiss [13k\]: is 'A' better  ?
lifandiss [13k\]: what side should I protect/build ?

--

survey W's position. he has no real eyes. just keep yourself alive and all will be well.]
;W[nm];B[mn];W[ll]
(;B[nk]LB[kj:A]C[lifandiss [13k\]: this is a "wanna kill" move.
lifandiss [13k\]: what about 'A' for protecting ?];W[nl];B[pm]
;W[pn];B[kj]C[lifandiss [13k\]: Ho, I played it however.
lifandiss [13k\]: the later were sente.];W[pe];B[qe];W[oe];B[of]
;W[rf];B[qf];W[rd]
(;B[re];W[rc];B[qd];W[se];B[sd];W[sc];B[rg];W[lj];B[kk];W[mj]
;B[ni];W[li];B[lh];W[ki];B[ji];W[kl];B[ik];W[hg]C[Or should I abandon those, and save the maximum ?]

(;B[if];W[jj];B[jk]CR[gc][fd][hd][he][ie][if][jf][jg][kg][lg]
[lh][mh][ji][mi][ni][nj][oj][nk]C[Is this the loosing move ?
from that point, can I still save 'O' group ?

However,
what led me to such a situation:
a big lonely eyeless black snake ?

I'm looking for the direction  error which led me there.

--

you are still connected, dont give up hope.];W[jh]
(;B[ii];W[ih]
(;B[hh];W[hi];B[ij];W[kh];B[gh];W[ig];B[gg];W[gf];B[hf];W[gi]

(;B[fh];W[fi];B[eh];W[ei];B[di];W[dh];B[gj];W[eg];B[hj];W[gb]
;B[lf]C[No more after that play, since I already lost the game.

Thanks for reaching that point,
and thanks for your help :)];W[md];B[ne];W[me];B[od];W[fc];B[ef]
;W[ee];B[df];W[fe];B[dg];W[ed];B[cg];W[gd];B[bh];W[id];B[ci]
;W[cm];B[io];W[ho];B[gr];W[gq];B[fn];W[gn];B[hq];W[hp];B[hr]
;W[dm];B[ao];W[co];B[bk];W[am];B[cd];W[cc];B[ce];W[le]C[lifandiss [13k\]: thx.
mute [11k\]: thx])
(;B[eg];W[fh];B[fg];W[eh];B[dg];W[dh];B[fi]))
(;B[hi];W[kh];B[hh];W[ig];B[gg];W[gf];B[hf];W[gh];B[fg];W[fh]
;B[eg]LB[hi:A]C[even this ('a')  doesn't do the job.];W[eh]
;B[dg];W[dh];B[ee];W[ef];B[df];W[cf]))
(;B[ih];W[ii];B[hh]C[--

you're still connected!]
(;W[gg];B[ig])
(;W[ig];B[gg])))
(;B[ih];W[if];B[hf];W[ig];B[gg];W[hh];B[hi]LB[ih:A]C[Is 'A' the proper "I save everything" tesuji ?

What do you think ?

--

you were connected to begin with, i believe. but yes, A works too.]
))
(;B[rc]))
(;B[lj]))
(;B[mk];W[nl];B[lk]))
(;B[nf]))
(;B[ml]C[--

it is difficult for W to live in this situation. B will undoubtedly gain from this attack]
))
(;B[pm];W[ql];B[om]
(;W[qm];B[nn])
(;W[nn];B[qm];W[pn];B[nl])
(;W[pn];B[nn];W[qm];B[nl];W[oi];B[ng])))
(;B[bl]))
(;B[bl]))
(;B[cl];W[ej];B[di];W[hk];B[fi]))
(;B[el]TR[fl]C[--

this move was wrong to begin with];W[em];B[dm]))
(;B[gi]C[--

this move helps B's top group and cuts W off.]))
(;B[kp]C[--

prepare your soldiers before sending them out to battle!]))
(;B[cp];W[er];B[dq];W[dr];B[cr]))
(;B[lc]))
(;W[kr];B[lq];W[lr];B[mq];W[mr];B[nr]
(;W[rp])
(;W[nc])
(;W[dj])
(;W[dc])))
(;B[jq]C[--

the situation is unfavorable for W]))
