(;FF[4]GM[1]SZ[19]ST[2]CA[UTF-8]AP[SGFC:1.15]

PB[vatapa]
BR[7k]
PW[puzi]
WR[7k]
KM[6.5]
DT[2005-09-29]
PC[The Kiseido Go Server (KGS) at http://kgs.kiseido.com/]
RE[B+21.50]
TM[900]
OT[5x30 byo-yomi]
RU[Japanese]

C[Dear Reviewer, this is one of those game I lost without knowing why, I thought that I played fairly well but in the end I was 20points short.

Joonas Tyystjärvi: you seem to play somewhat passive moves with too much focus on territory and defending. Try to consider multi-purpose moves that do more than just defend a weakness. I've added some variations and answers to your questions.]
;B[dp];W[pd]C[vatapa [7k\]: thx u2];B[dc];W[pp];B[ci];W[gd]
;B[nq];W[pn];B[jp];W[de]C[JT: good move. Letting white split like this goes kind of against the idea of the "low chinese fuseki".]
;B[cd]
(;W[cn]LB[ce:A]C[JT: better at A, see the variations];B[co]
;W[dn];B[fq];W[ck];B[ce]C[JT: this way, black gets to connect]
;W[dg]LB[lq:A]C[JT: this drives black towards white's own weaknesses]
;B[ei]
(;W[ek];B[dj]C[JT: this is a kind of nonsense shape];W[gn]LB[ek:A]
[gm:B]C[JT: if you're not going to defend the cut, it might be better to play here straight away instead of A (although B might be a better shape)]
;B[cg]
(;W[jd]LB[lq:A]C[JT: this is not so important. With your strong group in the left, you could invade at A.]
;B[nd];W[pf];B[pc]
(;W[qc]LB[oc:A]C[better at A?

JT: not really - black becomes too thick. See the variations.]
;B[oc]
(;W[qj]LB[qb:A]C[JT: this is nonurgent - A is a must.];B[qb]
LB[qh:A][ql:B]C[JT: this is way too big to let black play here. Note that the white moyo is still open at A and B.]
;W[qd];B[kc]
(;W[pr]C[JT: the "elbow hit" should usually be answered (and it shouldn't usually be played unless absolutely necessary). Also, this move is kind of slow in this situation.]
;B[hc];W[hd];B[jc]
(;W[ig]LB[nf:A]C[JT: this move feels kind of slack - these stones are in no real trouble and the shape is not so good. Also, it leaves black an attacking move at A, which would be a nice point for white to build his moyo.]
;B[ii];W[kg];B[nf]C[JT: this is a huge point];W[lq];B[lp];W[mq]
LB[kq:A]C[JT: better at A];B[mp]
(;W[nr]LB[kq:A]C[JT: should be at A, see the variation.];B[oq]
;W[or]
(;B[kq];W[pq]C[JT: this move isn't really necessary];B[oh];W[qh]
;B[gf];W[hh];B[hi];W[fg];B[fe]
(;W[cf]C[i thought of this as a probe];B[bf];W[df]C[JT: you can't play a move as a probe if it isn't sente.]
;B[gg];W[gh];B[fh];W[ff];B[ge];W[he];B[fd];W[fi]C[JT: better leave this as a ko threat]
;B[eh];W[gi];B[bg];W[kj];B[hn];W[hm];B[gm]
(;W[fn]LB[fm:A]C[JT: better at A];B[im];W[hl];B[il]C[JT: now black gets this forcing move]
;W[gl];B[kl];W[oj];B[ol];W[ql];B[on];W[oo];B[nn];W[cq];B[cp]

(;W[dr]C[JT: this move doesn't work so well here, see the variations]
;B[bq]
(;W[ho]LB[in:A]C[JT: there's enough bad aji in the corner that you could cut at A instead, see the variations.]
;B[gp];W[ep];B[eq];W[dq];B[br];W[rb];B[gc];W[ic]LB[ik:B][in:A]
[kr:C]C[JT: this is not very big at all - A, B and C are all bigger.]
;B[ib]LB[if:A]C[here i noticed theres a snapback waiting and had to draw back to A

JT: I added a variation]
(;W[if];B[in];W[go];B[kd]
(;W[lr]LB[kr:A]C[JT: better at A];B[kr];W[ks];B[js];W[ls];B[ir]
;W[fp]LB[ik:A]C[JT: A is bigger];B[hk];W[gk];B[mj];W[gq];B[gr]
;W[hq];B[fr];W[ik];B[jk];W[kh]C[JT: black is pretty safely ahead now]
;B[pm];W[qm];B[mk];W[pb];B[ob];W[qa];B[je];W[id];B[kf];W[ih]
;B[pg];W[qg];B[of];W[oa];B[na];W[pa];B[mb];W[fc]C[needed time]
;B[ed];W[bj];B[bi]C[this exchange was quite stupid :'/];W[bo]
;B[bp];W[bn];B[lg];W[lh];B[mh];W[io];B[jo];W[no];B[mo];W[pl]
;B[ok];W[np];B[li];W[ki];B[pi];W[pj];B[ph];W[qi]LB[qi:A]C[I think A isnt even neccessary]
;B[ij];W[hr];B[hs];W[lk];B[ll];W[od];B[nc];W[oe];B[ne];W[om]
;B[nm];W[do];B[dk];W[dl];B[cl];W[bl];B[el];W[cm];B[fk];W[fl]
;B[ej];W[gj];B[em];W[fm];B[eo];W[fo];B[en];W[dm];B[ek]C[:-(]
;W[ai];B[ah];W[aj];B[ip];W[hp];B[ni];W[nj];B[pk];W[qk];B[cr]
;W[ap];B[aq];W[ao];B[iq];W[nk];B[nl];W[lj];B[mi];W[jf];B[ke]
;W[ji];B[pm];W[hj];B[ik]C[the following moves are ko];W[om]
;B[ie];W[hf];B[pm];W[fs];B[ds];W[om];B[mr];W[ms];B[pm];W[er]
;B[es];W[om];B[po];W[qo];B[pm];W[hb];B[gb];W[om];B[ns];W[op]
;B[pm];W[ga];B[ha];W[om];B[ra];W[qb];B[pm];W[fb];B[fa];W[om]
;B[nq];W[mr];B[pm];W[ea];B[ga];W[om];B[pe];W[qf];B[pm];W[ja]
;B[eb];W[om];B[oi];W[pm];B[tt];W[tt]TW[ra][sa][sb][rc][sc][rd]
[sd][pe][qe][re][se][rf][sf][jg][rg][sg][jh][rh][sh][ri][si]
[rj][sj][ak][bk][rk][sk][al][cl][rl][sl][am][bm][gm][rm][sm]
[an][qn][rn][sn][po][ro][so][gp][qp][rp][sp][nq][oq][qq][rq]
[sq][qr][rr][sr][ns][os][ps][qs][rs][ss]TB[aa][ba][ca][da][ea]
[ia][ja][ka][la][ma][ab][bb][cb][db][fb][hb][jb][kb][lb][nb]
[ac][bc][cc][ec][fc][lc][mc][ad][bd][dd][ld][md][ae][be][de]
[ee][le][me][af][cf][df][ef][ff][lf][mf][ag][dg][eg][fg][mg]
[ng][og][bh][ch][dh][nh][di][jl][ml][jm][km][lm][mm][jn][kn]
[ln][mn][ko][lo][kp][cq][dq][jq][ar][dr][er][jr][as][bs][cs]
[fs][gs][is]C[Thank you for reviewing.

Ps.: I'm always open-minded for book recommentions. :=)

JT: From the books I've read, I can recommend "Tesuji" and "Attack and Defense" if you haven't read them yet. "501 opening problems" isn't bad if you feel uncertain in the opening, although you shouldn't take its answers as the absolute truth. "A way of play for the 21st century" is great, but I think it's out of print. Most problem books are pretty good - reading is pretty much the most important skill in go.]
)
(;W[kr];B[jr];W[lr]LB[iq:A]C[A is now possible]))
(;W[id];B[hg];W[ih];B[if]
(;W[hf])
(;W[jf]C[JT: this move still connects])))
(;W[br];B[dq];W[cr];B[bp];W[in]C[There's all kinds of bad aji here]
;B[ho];W[er]LB[ar:A]C[JT: if black now connects, white lives with A]
;B[fr];W[eq];B[ep];W[fp]
(;B[ar];W[hp]
(;B[io];W[gq])
(;B[hr];W[io]C[Getting these two stones isn't bad]))
(;B[hq]C[Black has no time to defend here];W[gp];B[hp];W[ar]
;B[es]
(;W[eo];B[bn];W[bm];B[am];W[bl]
(;B[ds];W[ap];B[aq];W[ao]
(;B[cs];W[do];B[bo])
(;B[an];W[do];B[bo];W[al]))
(;B[ao];W[aq];B[ap]))
(;W[ds];B[bs];W[fs];B[gr];W[eo];B[bn];W[bm];B[am];W[bl]
(;B[gs])
(;B[ao];W[aq])))))
(;W[dq]C[JT: this move works better here]
(;B[eq];W[bp];B[bo];W[br];B[ap];W[bq]
(;B[dr];W[ep]TR[bo][co][cp][dp]SQ[eq][fq][dr]C[JT: one of the black groups dies]
)
(;B[eo];W[er]C[JT: black must connect, so white lives.]))
(;B[bq];W[br];B[bp];W[eq];B[ep];W[fr];B[gr];W[es]C[JT: white lives]
)
(;B[ep];W[bp];B[bo];W[br];B[ap];W[bq];B[er];W[dr];B[eq]C[JT: black must connect here]
;W[cs]C[JT: white lives])))
(;W[fm]C[JT: this atari looks vulgar, but I think it's better here]

(;B[gl];W[hl]LB[dk:A]C[JT: black is pretty much captured (although there is some bad aji because of the cut at A]
)
(;B[im];W[gl]C[JT: white gets a good shape and black has bad aji on the side]
)))
(;W[gh]LB[fd:3][cf:2][df:1][gi:A]C[JT: better just connect here. This makes a sort of miai of the cut at A and 1-3.]
))
(;B[qq];W[pq]C[can b do some sabaki here?

JT: not really]
(;B[qo];W[qn]C[JT: white is strong enough to block black here]
;B[rn];W[rm]C[JT: black is dead])
(;B[ro];W[rn];B[qo];W[qn];B[rr];W[so];B[rp];W[sq]C[JT: black is dead]
)))
(;W[kq];B[kp];W[jq];B[iq];W[ir];B[ip];W[np]C[JT: white can cut here pretty safely.]
))
(;W[id];B[gb];W[nf]C[JT: this is a more "active" way of defending the group while building the moyo.]
))
(;W[jc]
(;B[jb];W[ib];B[kb];W[kd];B[ld];W[le];B[md];W[lq]C[JT: the upper-side group is now stronger, and black has been forced to make territory.]
)
(;B[kd];W[lq]C[JT: white can just ignore this move];B[je];W[kb]
;B[lb];W[jb];B[ke];W[fc]C[JT: this is good enough for white, considering the earlier moves]
)))
(;W[qb];B[qj]LB[ld:A]C[JT: this is very much an overplay, black must defend at A now]

(;W[lc]C[JT: this move does not work so well, see the variation]
;B[nf]C[i was somehow afraid of this sequence
whom does it favour?

JT: it still favors white, but letting black get to the center like this is bad.]
;W[pi];B[qi];W[qh];B[pj];W[oi];B[lf])
(;W[me];B[lc];W[ke];B[jb];W[ql];B[qh];W[rg];B[ni];W[lq]C[JT: black is in trouble everywhere]
)))
(;W[oc];B[od]
(;W[nc];B[pe];W[qd];B[qe];W[qc];B[of])
(;W[qc];B[pb];W[ob];B[pe];W[qd];B[nb];W[qb];B[nc];W[pa];B[nf]
;W[qe];B[jf]C[JT: black gets a nice attack])))
(;W[lq];B[jd];W[lc];B[jf];W[gg]C[JT: white escapes and builds his right side]
))
(;W[cf]LB[dg:A]C[JT: white can't play here, so A was wrong]
;B[gi]C[JT: white is in trouble];W[ec];B[eb];W[dd];B[db];W[fc]
;B[fn]LB[kc:A][ql:B]C[JT: white won't die, but black makes nasty influence towards the center. After white lives on the side, black has A and B to aim at.]
))
(;W[jd]C[JT: this looks a bit slack, considering the shape in the corner.]

(;B[jj]C[JT: I don't think this is a very good move for black - too loose.]
;W[cn]C[i was wondering whether this result was better or worse]
)
(;B[qi]C[JT: black can just play here. I think this favors black a bit.]
))
(;W[ce]TR[gd]SQ[dc][cd][ci]C[JT: this is the simplest move, and it works well here with the triangled stone. This weakens both of the squared groups. Black can't really cut here, see the variations]

(;B[fd];W[fe]
(;B[ge];W[ed];B[fc];W[ff]
(;B[hd];W[ec];B[gc];W[eb]TR[fc]C[JT: white gets a big corner and thickness, and black's shape is not so good because of the triangled stone]
)
(;B[ec];W[he]C[JT: white's thickness is really big]))
(;B[fc];W[ge]C[JT: white's thickness is nice]))
(;B[cl];W[ec];B[eb];W[fb];B[db];W[ed]TR[ci]C[JT: white gets nice thickness if black defends the triangled stone.]
)))
