(;FF[4]GM[1]SZ[19]ST[2]CA[UTF-8]AP[SGFC:1.15]

PB[BotanyBoy]
BR[14k]
PW[Remillard]
WR[12k]
KM[0.5]
DT[2005-10-18]
PC[The Kiseido Go Server (KGS) at http://kgs.kiseido.com/]
RE[B+32.50]
RU[Japanese]

C[Hi,

This was an interesting game overall.  I made some poor choices later on but I thought the beginning went off rather well.  I've gone through and commented some spots where there was a question or something I think should have been done differently.  I have comments through move 174 or so.



NM: I will try to help you as best as I can. i will try to answer all your points you have made.

Neil];B[qd];W[dd];B[pq];W[dp];B[oc]C[ok, ive just read direction of play by takeo, so what he says about the star points is that they want extensions down sides, 
the black corner enclose wants an extension r10, you probably already know this.]
;W[qi]TR[qj][qo]C[I think in retrospect that since the lower right is at 3-4 and not 4-4 I should have scooted over to R10 instead.  I could play at R5 but the pinch is awfully good for black.  It's probably fine, but looks more difficult.

NM: Not a common fuseki move, playable probably.
playing q5 is common i think

I will be using moyogo to help analyse your game, this gives me better knowledge. For instance q5 is indeed the most popular move . r5 is playable, r11 does not occur in pro games , r9 and r10 are reasonable moves

yeah so r5 is not so good because black pincer at r9]
(;B[qo]C[ok so white has maia to make a base so k3 still biggest point, from your star point and blacks corner q3]
;W[jq]C[good move
sometimes l3 is playable- dont know which is better here];B[jd]
C[this move is ok, but c10 mybe better];W[qf]TR[dj]C[I also considered D10, R11 still has miai.  however the reverse sente move R13 looked very big indeed so I took this while it was still possible.

since it is miai i would probably leave it. h17 is a  good move here

certainly d10 is very big too, make 3 star pints];B[cj]C[ok , black takes it.]
;W[cl];B[cf]
(;W[fc]C[i would perhaps play c15 then b d14 , then white f17
because black b16 here

moyogo suggests c16 or c12 as good moves. c12 is interesting and a fighting move.]

(;B[ej]
(;W[el]C[with c3 open mybe not such a good idea.];B[cq];W[dq]
;B[cp];W[co]C[I really wanted to double hane, but he didn't play along.]
;B[dr];W[er];B[do]
(;W[cr];B[br];W[ds];B[bo];W[cn];B[bn]
(;W[bm]TR[cm]C[I should have just gone straight, almost entirely removes the D5 aji.]
;B[bs]
(;W[mq]C[perhaps attaching at p3 is an idea. usually only when white needs to settle quick unlike this situation where white is thick at bottom.

another area is the top which look unsettled and first to play there will have an advantage, so is mybe sente whereas n3 is very gote]
;B[lp];W[lq];B[kp];W[jp];B[mp];W[nq];B[op];W[bd]TR[ql]C[My other idea here was R8, but this seemed better.  Plus, C14 to C10 is a little stretched, and I'd like to abuse the funny character of it.

NM:
perhaps try c15 d14 exchange then r8];B[qk];W[pk]C[I didn't like jumping straight out, so I attached.  This may not be that good... hard for me to know, but it seems alright.

good move.];B[pl];W[pj];B[ol]
(;W[di]TR[nj]C[Maybe this is premature, but I feel okay at R11 without more work right now.  It will take multple moves to completely surround me.]
;B[dj];W[ch]C[As followups go, this is kind of weak I think.  Plus now I'm worried about D5 and wishing I had played C7 instead of B7.]
;B[bh];W[bg];B[cg];W[bi];B[ci];W[ah];B[dh];W[bf];B[ce]
(;W[cd]TR[be]C[Variation with other side connected is better I think now.]
;B[eg];W[gl];B[dm]C[Argh.  I REALLY wish I'd played C7.  Nothing to do except take the lumps.]

(;W[dn];B[cm];W[en];B[bl];W[dl];B[am]C[best way]
(;W[em]C[this is gote?];B[hn];W[jn]C[H6 feels like a deep invasion, too deep really.  So maybe I can do something about this.  I play to cut off a running direction.
k6 is ok];B[im];W[kl]C[Normally I would respond to a touch with a touch, but I think the right idea that since K6 was an attacking stone, I should treat it lightly and continue to split black from his home base.
l9 ok];B[ik];W[np]C[This cut is vulnerable now, so I abuse.  Maybe too small?
perhaps defend white at top better and reduce black p15.

it is a shame white cannot get an attack on black now, perhaps the d10 group or the k16 stone and j9 group.

but this was decided earlier];B[no];W[mo];B[mn];W[lo];B[kn]
;W[ko];B[ln];W[kq]C[does seem small now, 6 points in the late middle game is small. where plays are worth 15-20 points]
;B[jm];W[nn];B[oo];W[km]
(;B[mm];W[mk];B[pg];W[nm];B[ok];W[qg];B[ph];W[oj];B[pf]C[black attack failed]
;W[kj];B[ii]C[white ahead by a lot, should win]
(;W[lg]C[I think I need to be more worried about my center group's connection to life... but since N7 is captured I feel confident, perhaps too confident.

i dont like m13, id prefer to play deeper if white groups are safe]
;B[le];W[hj];B[ij];W[gi];B[fo]
(;W[gn]C[FlameBlade [-\]: here, as in this game?];B[ho]TR[gn]
C[this is a bad exchange];W[go];B[hp];W[ig];B[hh];W[fh]C[I think maybe I'm getting overconfident and greedy
ok to attack before defend in this case b is not alive];B[fg]
;W[bk];B[hc];W[gh];B[hg];W[gg];B[hf];W[gf];B[ee];W[ei];B[fe]
;W[ge];B[gd];W[fd];B[gk];W[fk];B[bj];W[bm];B[cm];W[ak];B[ck]
;W[aj]C[leego [23k\]: took the bait];B[bh];W[il];B[jl];W[ch]
;B[nl];W[ml];B[bh]
(;W[jk];B[hl]C[Yates [?\]: there it is];W[ch]
(;B[nj]C[This is a lot more serious than I thought at the time.
lots of ko threats for both sides. Did you need to start the ko?

perhaps not.]
(;W[fj]C[ok , so it seems this was a difficult ko to win];B[bh]
;W[hi]C[snip [8k\]: Hi everyone];B[ai];W[ih]C[And this cut actually asks black to cut M13 off, so my judgement is definitely screwy.]
;B[ji];W[bi]C[FlameBlade [-\]: I would connect C12
leego [23k\]: a8 is worth so much, i dont know why j12 needed a black reply?]

(;B[ni]C[FlameBlade [-\]: and now J7 group is in deep trouble
FlameBlade [-\]: btw];W[ch];B[rh];W[bh]C[Just stupid by me I think... this group is way too expensive to lose.]
;B[qh]
(;W[df]C[slade [7k\]: at still works

This is a wasted move.  See variation.];B[ki];W[li];B[lh];W[kh]
;B[mh];W[hd];B[ie];W[ic];B[id];W[gc];B[hb];W[ib];B[jc];W[jb]
;B[kb];W[gb];B[ja];W[ha]C[**** End of my commentary, the rest of the game just sort of plays out.  White loses very big. ****]
;B[gm]C[leego [23k\]: if H4 doesnt die, black should win, methinks....
FlameBlade [-\]: H4 won't die.];W[gp]C[FlameBlade [-\]: it's a matter of keeping track of liberties.]
;B[hq];W[gq];B[gr];W[fl];B[fq];W[fn];B[fr];W[fp];B[ir];W[jr]
;B[or];W[hk];B[ls];W[jh];B[lj];W[lr];B[ms];W[ks];B[ns];W[nk]
C[leego [23k\]: int-resting
slade [7k\]: i don't count libs
slade [7k\]: for most things
Remillard [12k?\]: I think I probably gave u ptoo much for that ko
BotanyBoy [14k\]: I felt very happy, but didn't count either
leego [23k\]: white has to win that ko
Yates [?\]: what ko
leego [23k\]: the B,C10
leego [23k\]: or
leego [23k\]: 12
leego [23k\]: i mean
Yates [?\]: thats filled in already though
FlameBlade [-\]: yeah
leego [23k\]: had];B[lk]C[Yates [?\]: ah
FlameBlade [-\]: but the result of the ko];W[ql]C[FlameBlade [-\]: was bad for white]
;B[qm];W[rl];B[om];W[lm];B[rk];W[on];B[pm];W[pn];B[qn]C[Yates [?\]: o]
;W[pp];B[qp];W[oq];B[po]C[leego [23k\]: ?
leego [23k\]: why not just Q5 ....];W[kk]C[leego [23k\]: i am so lowly
slade [7k\]: strange sequence];B[mj]C[slade [7k\]: for both players
Remillard [12k?\]: hmm];W[he];B[if];W[ia]C[slade [7k\]: yes w should have pleyd q5
Yates [?\]: yeah
Yates [?\]: i thought he would];B[ka]C[slade [7k\]: same here]
;W[nr];B[pr];W[jj];B[mi];W[is];B[hs];W[js];B[fs];W[iq];B[hr]
;W[eq];B[cs];W[dr]C[Yates [?\]: oo fun
Yates [?\]: e 1?];B[ll]C[Yates [?\]: oh no wont work];W[mm]
C[Yates [?\]: never mind me
slade [7k\]: 1 pt sente is still good];B[al];W[ai]C[Yates [?\]: :)]
;B[es];W[eo]C[slade [7k\]: enough of those add up trust me on that]
;B[os];W[fm];B[hm];W[an]C[BotanyBoy [14k\]: oops];B[ao];W[dm]
;B[bq];W[bm]C[slade [7k\]: geeez
slade [7k\]: read!
BotanyBoy [14k\]: and here I wasted all my ko threats];B[an]
;W[cm]C[Remillard [12k?\]: you had one
Remillard [12k?\]: at least :-)
BotanyBoy [14k\]: b15?
Remillard [12k?\]: yeah
BotanyBoy [14k\]: but it was local
Remillard [12k?\]: oh
BotanyBoy [14k\]: so taking the ko for white ended the threat, no?
Remillard [12k?\]: yeah I suppose if I ignored
Remillard [12k?\]: well then maybe less than 1 :-)
BotanyBoy [14k\]: lol
Remillard [12k?\]: depending on how creative you were feeling
BotanyBoy [14k\]: I'd like to be more creative.
BotanyBoy [14k\]: I'm kindof a lug-head when it comes to creativity]
;B[tt];W[io]C[BotanyBoy [14k\]: oh that was 2 points
BotanyBoy [14k\]: heh
BotanyBoy [14k\]: oops];B[tt];W[tt]TB[qf][rf][sf][ig][jg][kg]
[lg][mg][ng][og][qg][rg][sg][ih][jh][kh][nh][oh][sh][oi][sc]
[pi][qi][ri][si][oj][pj][qj][rj][sj][pk][sk][il][ql][rl][sl]
[rm][sm][rn][sn][so][ap][bp][pp][rp][sp][aq][qq][rq][sq][ar]
[qr][rr][sr][as][gs][ps][qs][rs][ss][ro][la][ma][na][oa][pa]
[qa][ra][sa][lb][mb][nb][ob][pb][qb][rb][sb][kc][lc][mc][nc]
[pc][qc][rc][li][kd][ld][md][nd][od][pd][rd][sd][je][ke][me]
[ne][oe][pe][qe][re][se][jf][kf][lf][mf][nf][of]TW[aa][ba][ca]
[da][ea][fa][ga][ab][bb][cb][db][eb][fb][hb][ac][bc][cc][dc]
[ec][hc][ed][gd][ae][be][ce][de][ee][fe][af][cf][ef][ff][ag]
[cg][dg][eg][fg][dh][eh][ci][fi][bj][cj][dj][ej][gj][ck][dk]
[ek][gk][kn][ln][mn][do][fo][jo][ep][kp][lp][mp][ad][kr]C[Remillard [12k?\]: yeah
Remillard [12k?\]: not even close even with the extra 10 captures
Remillard [12k?\]: ahh well
Remillard [12k?\]: thanks
Remillard [12k?\]: good game :-)
BotanyBoy [14k\]: thanks also
BotanyBoy [14k\]: that was fun
BotanyBoy [14k\]: and hard
Remillard [12k?\]: definitely a funky flavor
slade [7k\]: a8 should have been played by black earlier

go is mainly about reading ability, hence why some strong russian chess players do very well at go also.

white was in a winning position, and tried somethibng risky, but youve learnt a lot by playing some crazy go and the more you try things out the better you will become. so experiment its fun. If your trying to win in a tournamnet, perhaps mybe not so risky :)

just looking at the game here on last move. black got down to h1 inside of white moyo that should never have happened. defending first correct in reverse sente. 

If youve not heard of moyogo, it really is excellent. moyogo.com
Id be happy to play a few teaching games on kgs sometime with you (im rhubarb)

Sorry if my explanations are a bit short, i am not really strong enough to give you lots of help. 5k kgs. if you ve learn one/two things then good.

bye,
neil])
(;W[sa]C[Somewhere else.];B[be];W[dk]C[And];B[df];W[ff]C[Still no eyes.  So the T19 move could have been played to connect to M13 or something more useful.]
)
(;W[li]C[Though even doing this doesn't necessarily do enough to compensate for the loss of the right group.

black ahead now by 5-10 points]))
(;B[ch]))
(;W[bh]
(;B[fj]
(;W[gj])
(;W[eh];B[dg]
(;W[hd];B[be];W[ae];B[af];W[ad];B[al];W[ag];B[ai];W[aj];B[gc]
;W[de];B[he];W[ef])
(;W[be]
(;B[he];W[de])
(;B[gj];W[de];B[he];W[ff]))))
(;B[eh];W[fi];B[be];W[fj];B[al];W[ae]C[is this ok for white?
w possible to still win i think.])
(;B[be];W[ae];B[af];W[ag];B[al])))
(;B[fj];W[be];B[bh];W[gj];B[hk];W[ch];B[eh];W[fi];B[bh];W[hd]
;B[gc];W[ch];B[he];W[ek];B[bh]C[i dont think white can win this ko anyway, so no point starting it.

do you see anything better for white? i would be interested, because its an interesting position.]
))
(;W[ai]C[erm not really an option is it .]))
(;W[eo]
(;B[gq];W[hp];B[go])
(;B[hp])))
(;W[ld]C[is this too much?];B[jf];W[lf];B[me];W[pe];B[qe];W[le]
;B[qh];W[rh];B[ri];W[rj];B[rg];W[si];B[rf]C[probably too much]
;W[ql];B[qm];W[rl];B[rm];W[rk];B[kh];W[lh];B[li];W[ki];B[lg]
;W[mh];B[kg];W[mg];B[mf];W[jc];B[ic];W[id];B[je];W[hc];B[ib]
C[sorry useless variation])
(;W[qe];B[pe];W[rd];B[qc];W[ic];B[jc];W[ib];B[jb];W[lg];B[le]
;W[rc];B[rb];W[rj];B[sc];W[se];B[qh];W[rh]
(;B[rk];W[mf];B[me];W[go])
(;B[fo];W[eo];B[gq]C[f5 g3 big, so w defend here important.

it is often the case in my own games that i dont read out my opponents attacks well enough and often lose. Now i am stronger i defend more again big sente attacks. ie reverse sente in the endgame.]
)))
(;B[nm];W[mm];B[on];W[lm];B[nn];W[kj]C[This looks better for black, not sure why I was thinking this was such a good idea... but I have my running direction if I need it, towards Q10, so maybe if black had chosen this way I was okay.
q10 is not so strong and b gets a splitting attack]
(;B[ph];W[qh];B[nj];W[kh])
(;B[lk];W[kk];B[kh];W[li];B[ph];W[qh];B[ni];W[ij];B[hk];W[jh]
;B[kg];W[mh];B[of]C[this is a difficult fight. very complicated reading.
white under a lot of pressure on both groups];W[mf];B[rg]
(;W[qg];B[rf])
(;W[rf];B[rj]))))
(;W[oe]
(;B[em];W[fm];B[bm];W[fn])
(;B[fm];W[em];B[hn];W[jn];B[im]
(;W[jm])
(;W[go]))))
(;W[cm];B[dl];W[dk];B[ck];W[ek];B[dn];W[bp];B[bq];W[an];B[ap]
;W[bk];B[bj];W[aj];B[al];W[ak];B[am];W[bl]
(;B[am];W[bh]C[right, this is dangerous for w, mybe i missed some black tesuji]
)
(;B[bh];W[ai];B[be];W[ae];B[ag];W[af];B[am]C[horrible for white]
))
(;W[dl];B[cm];W[en];B[dn];W[eo]))
(;W[be];B[cd];W[cc]C[Better, and less room for monkey business.]
))
(;W[nj])
(;W[ch]
(;B[dh];W[cg];B[dg];W[bf]
(;B[dn];W[cm];B[qh];W[ph];B[qg];W[pg];B[rf];W[qe];B[re];W[ri]

(;B[rg])
(;B[pe];W[pf];B[rg];W[oe];B[pd];W[me]
(;B[ld];W[nc];B[nd];W[md];B[mc];W[lc];B[nb];W[kd];B[lb]C[bad for b]
)
(;B[mc]C[leaving this white group to get attacked means b gets some profit
difficult to say what is best.

certainly white is not behind in the game, so be patience])))
(;B[df]
(;W[gk]C[white can attack this black group now, g9 direction i dont know, it does expand white. perhaps not severe enough.]
)
(;W[fe];B[gg]
(;W[gj];B[fk];W[fl];B[gk];W[gl];B[hk];W[im]C[doubtful direction, white gote]
)
(;W[gk];B[gj];W[hk]
(;B[hc])
(;B[qh];W[ph]
(;B[rg])
(;B[qg];W[pg];B[rf];W[pf];B[re];W[hf]C[keep attacking]))))))
(;B[bh];W[bg];B[cg];W[bi];B[dh];W[ci];B[di];W[bj];B[bf];W[ah]
;B[ck];W[bk];B[dn];W[cm])))
(;W[ce];B[df];W[mq]))
(;W[cm]))
(;W[eo];B[bo];W[cn];B[bn];W[bm];B[cr];W[eq])
(;W[bo]C[why not here ?]
(;B[eq];W[ep];B[cr];W[fq];B[bp];W[ds]C[dead?])
(;B[eo];W[cr];B[eq];W[ds];B[ep];W[dr];B[dm];W[dl]
(;B[cm];W[bm];B[bk])
(;B[ip];W[iq];B[hp];W[gr];B[gl]))))
(;W[ce];B[df];W[cp]))
(;B[bd];W[cc];B[dh]C[this would be good for black]))
(;W[ce];B[df];W[fc];B[cc];W[be];B[ec];W[ed];B[fb])
(;W[ch]
(;B[bh];W[bg];B[cg];W[bi];B[dh];W[ci];B[di];W[bj];B[ck];W[bk]
;B[dl];W[cm];B[bf];W[fc])
(;B[ef]
(;W[ce];B[bf];W[fc];B[di])
(;W[fc];B[bd];W[di];B[cc];W[ic]))))
(;B[po]C[this move is doubtfull , open skirt white can get under with r7

direction of play is wrong, this invites white k3 and still open skirt r7 too good]
))
