(;FF[4]GM[1]SZ[19]AP[SGFC:1.12j]

GN[east-amodeo(B) IGS]
PB[amodeo]
BR[14k*]
PW[east]
WR[14k*]
KM[5.500000]
DT[1997-07-28]
PC[IGS:  igs.nuri.net 6969]
RE[W+17.5]
TM[1200]
US[Brought to you by IGS]

C[GO TEACHING LADDER
====================
Game commented by "Niall" at the
request of "amodeo", who played B.
Niall's comments are here indicated
by "NM".];B[pd]BL[1192];W[dp]WL[1196];B[pp]BL[1180];W[dc]WL[1188]
;B[de]C[NM: D15 is the move I would make,
playing for influence
given the nirensei opening.]BL[1155];W[ce]WL[1180];B[cf]BL[1153]
;W[cd]C[
 amodeo 14k*: I hope this isn't how I lost yesterday :-)]WL[1177]
;B[dg]BL[1129];W[fd]C[NM: The joseki is F17; F16 seems to
me to leave some weakness at H17]WL[1172];B[cj]BL[1122];W[cn]
C[NM: Given that B has played C10 rather than C9, C6 may be reasonable.
I think I would play a larger-scale move
such as Q10, K4, or O17; but these
judgements are very hard (and I'm only
5 kyu).]WL[1159];B[pj]C[NM: Good]BL[1115];W[nc]WL[1154];B[jp]
MA[jc][kc][jd][kd]C[NM: I would play one of the marked
points, with a view to exploiting the
weak point of H17 later.]BL[1083];W[qf]C[NM: A good position for the double
kakari.]WL[1147];B[nd]C[NM: The right stone to attack.]BL[1080]
;W[qc]C[NM: I don't know any joseki from here,
but in itself R17 seems reasonable.]WL[1142];B[qd]C[NM: Necessary.]
BL[1078];W[pc]WL[1140];B[oc]BL[1075];W[ob]WL[1138];B[od]BL[1074]
;W[mc]WL[1133];B[pb]BL[1048];W[qb]WL[1123];B[nb]BL[1037];W[pa]
WL[1122]
(;B[md]C[NM: N17 is not good.  If B is going to
make the attack at all, the only reason
is if he is going to
continue as in the variation.]BL[1035];W[lc]WL[1119];B[ld]BL[1033]
;W[ri]WL[1113];B[kc]BL[1007];W[mb]WL[1093];B[qi]BL[916];W[rj]
WL[1046]
(;B[qh]C[NM: I would have haned (see variation).]BL[881];W[rh]
WL[1044];B[qg]BL[870];W[rg]WL[1043];B[qe]BL[821];W[ql]WL[1026]
;B[pf]BL[811];W[kd]WL[1004]
(;B[ke]C[NM: With blacks thickness here, I
would atari from the other side
(see variation).]BL[808];W[jd]WL[1001];B[je]BL[805];W[id]WL[995]
;B[ie]C[NM: B is just giving W more secure territory.]BL[803]
;W[he]WL[990];B[hf]BL[770];W[ol]WL[973];B[hd]BL[763];W[hc]WL[966]
;B[ge]BL[759];W[ic]WL[963];B[gd]BL[757];W[gc]WL[962];B[fe]C[NM: F15 is bad. It is gote, and the B
thickness is crying out to be turned into territory while attacking the W R side
stones.
Something like N9 is called for.]BL[755];W[lh]C[NM: Excellent, and very hard to attack
effectively.]WL[941];B[mj]C[NM: ... but that's a fair enough way to
attack, keeping an eye on the R side stones.]BL[735];W[ki]C[NM: Solid.  I think I would have played something a bit lighter, like L10.]
WL[925];B[ml]MA[qn][hj][kk][gj]C[NM: Attacking, perhaps more than
anything else after the fuseki, is a
matter of style.   My inclination would
be to go for one of the marked points,
as N8 neither really attacks the R side
stones nor puts any pressure on the
centre ones. It does however ensure the separation of the groups, and prepares
for an attack on the R, so maybe it's
good.]BL[703];W[lf]C[NM: An overplay, in my judgement.]WL[920]
;B[qn]C[NM: Excellent reply. B should certainly
not connect, since both groups are
strong.]BL[684];W[pn]WL[891];B[qo]BL[675];W[qm]WL[855];B[po]
C[NM: Q5 is bad. It just induces P6, which
improves W's eye space.
What is the right move is mooter, but
I think I would go for R9 followed by
S7 or S6.]BL[657];W[on]WL[854];B[mo]C[NM: I don't like N5; it's a move
defending territory (and not very  securely at that), putting hardly any
pressure on the W stones.
I would play J11.]BL[593];W[kk]C[NM: Good.]WL[810];B[lj]BL[576]
;W[kj]WL[808];B[gp]C[NM: G4 is certainly big, but it only
puts very indirect pressure on. I still
prefer J11 (which is about as big).]BL[488];W[nq]C[NM: Good, exploiting the great area
left under N5.]WL[757];B[no]C[NM: I think I would play M3 here,
though O5 does put some pressure on
the side group.]BL[425];W[lp]WL[725]
(;B[kn]C[NM: L6 looks attractive, but I would
defend the corner.  W can't link his two
groups easily.  See variation.]BL[386];W[pr]C[NM: W should be able to live now,
taking away a LOT of B territory.]WL[721];B[qr]BL[384];W[qq]
C[NM: R3 seems bizarre to me;  I would
play Q3, then P4 in sente.]WL[716];B[pq]BL[359];W[rr]WL[635]
;B[or]BL[198];W[qs]WL[630];B[oq]BL[194];W[iq]WL[602];B[jq]C[NM: Good answer to a very  hopeful move!]
BL[190];W[ip]WL[600];B[gn]C[NM: I would play J5 here; you still have
D3 to make trouble with in the corner,
even if G3 gets surrounded.]BL[146];W[jo]WL[597];B[jr]BL[120]
;W[ir]WL[594]
(;B[ko]C[NM: I think that here M3 is the move
to save the K3 group (see the variation
for some possibilities), though the
result is not a total success for B.]BL[103];W[kp]WL[582]
(;B[jn]C[NM: One possibility here would be
to exploit the aji of the K3 group
to kill W's centre group (see variation).]BL[90];W[io]C[
 amodeo 14k*: is entering byo-yomi]WL[580];B[lr]BL[1145]
(;W[mr]C[NM: W can put the B group into a ko
to live (see variation 2).  Alternatively
he can use the aji of the L4 stones
to carve up B's side here, though in gote
(see variation 3).]WL[513];B[lq]BL[1019];W[mp]WL[460];B[mq]
BL[1006];W[js]WL[408];B[kr]C[
 amodeo 14k*: Close, verrry, close!

NM: Yes, B was lucky.]BL[945];W[nr]WL[291];B[np]BL[931];W[ls]
WL[289];B[ns]C[NM: Excellent move!]BL[902];W[gr]C[NM: For me this should be F3, which
would avoid all the subsequent pressure.]WL[208];B[fq]BL[897]
;W[er]WL[200];B[fr]C[NM: Good B attack. He needs one,  because W is clearly ahead.]
BL[882];W[fs]WL[199];B[eq]BL[880];W[dr]WL[197];B[gq]BL[849]

(;W[hr]C[NM: The corner is SO big that I would
be inclined to play D3 here (see the
variation).  But if W wants to protect,
H3 is surely better than H2.]WL[194];B[dq]BL[848];W[cr]WL[155]
;B[cq]BL[843];W[bq]WL[153];B[bp]BL[811];W[ar]WL[151];B[cp]BL[805]
;W[cl]WL[128]
(;B[do]C[NM: I wonder if B7 would have been
better? (see variation)]BL[772];W[el]WL[117];B[dn]BL[764];W[dm]
WL[115]
(;B[ej]C[NM: The W corner group can now be
killed, which would put B into the lead.
(W should have played B1 to live.)
See variation.]BL[737];W[gl]WL[112];B[im]C[NM: J7 does not link the 2 B groups
(W can play H6 then G7), and even
linking them but allowing the large
W group to live is not enough for B
to win.  Therefore I would play
something like J9 here.]BL[727];W[hk]WL[110];B[hi]BL[707];W[ij]
WL[47];B[ii]BL[687];W[ji]WL[43];B[jg]C[
 east 14k*: is entering byo-yomi]BL[682];W[ng]WL[1192];B[li]
BL[642];W[kh]WL[1181];B[mh]BL[641];W[mg]WL[1179];B[nh]BL[640]
;W[mm]WL[1119];B[ll]BL[614];W[lm]C[
 amodeo 14k*: has entered byo-yomi again]WL[1109];B[km]BL[1198]
;W[kl]WL[1108];B[nm]BL[1172];W[il]WL[1089];B[hm]BL[1153];W[om]
WL[1079];B[nl]BL[1119];W[hl]WL[1075];B[gm]BL[1091];W[oj]WL[1055]
;B[pk]BL[1034];W[pl]WL[965];B[ok]BL[1026];W[oh]WL[962];B[oi]
BL[958];W[ni]WL[954];B[mi]BL[954];W[pi]WL[951];B[ph]BL[914]
;W[og]WL[938];B[oi]BL[905];W[fj]WL[910];B[ek]BL[846];W[fk]WL[898]
;B[fi]BL[822];W[bk]WL[888];B[bj]BL[814];W[bn]WL[879];B[fm]BL[787]
;W[fl]WL[877];B[em]BL[785];W[gi]WL[847];B[gh]BL[777];W[ei]WL[845]
;B[dj]BL[765];W[fh]WL[843];B[gg]BL[726];W[ih]WL[813];B[rn]BL[715]
;W[rm]WL[807];B[sq]C[
 east 14k*: has entered byo-yomi again]BL[711];W[sr]WL[1199]
;B[rp]BL[681];W[rq]WL[1192];B[sp]C[NM: T4 is gote, played too soon.
(better, e.g., H12, S14, E16, B15...)]BL[672];W[hh]WL[1183]
;B[hg]BL[659];W[hj]WL[1172];B[dd]BL[654];W[ec]C[
 amodeo 14k*: has entered byo-yomi again]WL[1162];B[bf]BL[1191]
;W[be]WL[1160];B[cc]BL[1176];W[bc]WL[1121];B[cb]BL[1158];W[bb]
WL[1120];B[ed]BL[1148];W[fc]WL[1117];B[ae]BL[1146];W[bd]WL[1116]
;B[ck]BL[1098];W[es]C[NM: At last, W protects his corner
group.  Now he must win.]WL[1113];B[bl]BL[1069];W[bm]WL[1112]
;B[ak]BL[1062];W[pi]WL[1107];B[lb]BL[1007];W[na]WL[1105];B[oi]
BL[1005];W[dh]WL[1094];B[ch]BL[998];W[eg]WL[1086];B[ef]BL[981]
;W[pi]WL[1083];B[ma]BL[930];W[la]WL[1081];B[oi]BL[885];W[nn]
WL[1076];B[mn]BL[860];W[pi]WL[1072];B[dl]BL[761];W[dk]WL[1066]
;B[oi]BL[756];W[dl]WL[1039];B[nj]BL[752];W[of]WL[1033];B[rf]
BL[743];W[ne]WL[1024];B[me]BL[707];W[qk]WL[1018];B[mf]C[
 east 14k*: has entered byo-yomi again]BL[604];W[lk]WL[1191]
;B[kg]BL[586];W[mk]WL[1187];B[nk]C[NM: B should play M13 here.]
BL[577];W[lg]WL[1185];B[rc]BL[535];W[rb]WL[1182];B[sc]BL[518]
;W[sb]C[
 amodeo 14k*: has entered byo-yomi again]WL[1180];B[re]BL[1181]
;W[fg]WL[1176];B[ff]BL[1167];W[am]WL[1174];B[di]BL[1157];W[al]
WL[1159];B[bk]BL[1055];W[bo]WL[1153];B[ap]BL[1040];W[aq]WL[1151]
;B[ms]BL[1034];W[is]WL[1145];B[ks]BL[1022];W[ao]WL[1137];B[eh]
BL[958];W[fi]WL[1134];B[dh]BL[955];W[ig]WL[1129];B[if]BL[922]
;W[jl]WL[1126];B[ho]BL[912];W[sm]WL[1087];B[sn]BL[909];W[sf]
WL[1077];B[se]BL[906];W[sg]WL[1076];B[oe]BL[900];W[nf]WL[1067]
;B[os]BL[891];W[ps]WL[1065];B[oo]BL[840];W[kf]WL[1061];B[jf]
BL[828];W[ad]WL[1046];B[af]BL[805];W[in]WL[1016];B[hn]BL[785]
;W[gs]WL[969];B[tt]BL[709];W[tt]WL[964];B[tt]C[
 amodeo dead @ L4
 amodeo dead @ M7
 amodeo dead @ D4
 east dead @ C17
 east dead @ L17
 east dead @ M18
 east done]BL[709])
(;B[es];W[ds];B[gs];W[hs];B[bs]C[NM: And I don't see any way that W
can live in the corner...]))
(;B[bm];W[bn];B[bl];W[cm];B[ck];W[fm];B[gm];W[fl]))
(;W[dq];B[hr];W[gs]C[NM: Or W could play H2 and fight the
ko...];B[hs];W[es];B[hq];W[go];B[fo];W[ho];B[eo];W[im];B[in]
;W[hn];B[hm];W[gm];B[fn];W[ep];B[fp];W[hl];B[el];W[fm];B[em]
;W[dn];B[en];W[is];B[cl]C[NM: The W group is short of eyes, but
there's plenty of empty space round it,
so I think it should succeed in living,
starting with say H11. If it lives W wins
comfortably.]))
(;W[kr];B[kq];W[lq];B[ks];W[mr];B[ms];W[ns];B[nr];W[ls])
(;W[nr];B[mq];W[np];B[mp];W[oo]
(;B[op];W[os];B[mr];W[ns];B[ms];W[ps]C[NM: Disaster for B!]
)
(;B[os]C[NM: B has to reply P1, and his territory
is savaged...];W[op];B[ns];W[mr];B[ms])))
(;B[io];W[jn];B[jm];W[in];B[ho];W[im];B[jl];W[il];B[jk];W[ik]
;B[jj];W[ji];B[ij];W[ii];B[hk];W[kr];B[hi]))
(;B[lq]
(;W[mp];B[kp];W[ko];B[lo];W[mq];B[lr];W[js];B[ks];W[is];B[mr]
)
(;W[kp];B[kq]
(;W[mp];B[nr];W[mq];B[mr];W[ko])
(;W[mq];B[mp];W[ko];B[mr]))))
(;B[or];W[ko];B[km]C[NM: Now we move to separate!];W[jo];B[ip]
))
(;B[jd];W[ke];B[lb];W[ma];B[ic]C[NM: which leaves the W stones floating
and revives the threat in the corner.]))
(;B[rh];W[qh];B[rg];W[qg];B[rf];W[re];B[qe];W[rd];B[rc];W[rb]
;B[se];W[sc];B[ph];W[pf];B[of]C[NM: The 4 white stones die.]
))
(;B[mb];W[lc];B[lb];W[kc];B[jb];W[jc];B[ib];W[kb];B[ka];W[ic]
C[NM: which gives B lots of problems.
The cut was too soon!]))
