(;FF[4]GM[1]SZ[19]ST[2]CA[UTF-8]AP[SGFC:1.15]

PB[dagger34]
BR[18k]
PW[davel314]
WR[16k]
KM[6.5]
DT[2005-11-06]
PC[The Kiseido Go Server (KGS) at http://kgs.kiseido.com/]
RE[B+50.50]
TM[1650]
OT[5x30 byo-yomi]
RU[Japanese]

;B[pd]C[I was black.  Just looking for some general comments.  Ok I know the administrators prefer specific questions, but I don't really know...I indicated some specific stuff - but just generally I didn't (and still don't) really know how to play better...

Any general insights you might have on improving my game would be appreciated :-)

I'm about 17kyu now, the opponent thought he was 12-16 kyu....not really sure how true that can be, but still there were quite a few tough fights which there isn't usually against 18kyu or weaker opponents...  *shrug*  :-D]
;W[dp];B[pq];W[dc];B[qk]C[everybody has his own style. for example i try to avoid big moyos and i dont have much experience with those]
;W[qo]
(;B[qm]C[this somehow seems strange, too heavy. you have other options still available, i added some variations which i would have played]
;W[oo];B[np];W[mq]C[a more secure way would be to connect at p3

now white has 2 weak groups and he also cant seal you in]
(;B[mp];W[lq];B[pp]C[the black stones arent connected and white can cut. you were lucky that white cut right away, but the variation shows you how it would have looked like

so connecting at p3 would still be good]
(;W[op];B[po];W[oq];B[on];W[no]C[black is ahead and has sente, play a bigger point (for example attack a corner)

so one general tip here:

think like this - stones are just points, so if some of them get separated then think if you still need them for something. if not then dont escape with them. doesnt matter if your opponent catches them, then you get the chance to play the bigger points, and you can probably use your stones later]

(;B[mo];W[nn];B[om];W[ln]C[not very big but still worth mentioning here, you can leave out the o3 and o2 moves...better that way]

(;B[nq];W[nr];B[mn];W[mm];B[nm];W[or];B[lm];W[ml];B[lo];W[kn]
;B[ko]
(;W[jq];B[jn];W[km];B[ll]C[Black creates two threats.]
(;W[mk];B[kl];W[jm];B[im];W[jl];B[jk];W[jo]
(;B[il]
(;W[io]C[this was a small move];B[fd]C[Approaching from the wrong side - but I think this is a standard play against chinese fuseki type positions.  And ok he didn't have a chinese fuseki but as you'll see the resulting position looks quite good for black.  White still managed to live on the right hand side a bit though.

I dont know if it is standard, havent seen this in my games.]
;W[de];B[id]C[and i would attack from the other side (O16 or O17) this way white can make use of the n9 stones]

(;W[qf];B[qh]
(;W[rd]C[r17 better than s16. r17 allows you to live much bigger]
;B[qc]C[add a couple of moves to make eyeshape]
(;W[of];B[nc];W[ph]
(;B[pg];W[qg];B[oh];W[pi];B[og];W[qi];B[pf];W[rj];B[rk]
(;W[qe]
(;B[nf];W[qn]
(;B[pn];W[rl];B[rm];W[rp];B[pr];W[rr]C[Question:
To kill white from this position?  Can it be done?  Doesn't seem so...]

(;B[qq];W[rq];B[qs];W[rn]
(;B[sn];W[so];B[sm];W[qp];B[ok];W[nj];B[oi];W[oj];B[pj];W[qj]
;B[pk];W[rh]C[you should already have a feeling for key points - Q8 seems to be it in this case.

So to know if it is safe try reading it if white plays there, and already you can see that if black plays r8 then both white stones are capturted and black lives, so basically you had to read and imagine only 2 stones here.]
;B[nk]C[In hindsight probably not necessary.]
(;W[fp]
(;B[dj]C[Maybe a bit aggressive.  I should have rather played on the third line.

4th line isn't agressive, it is influential];W[ch]
(;B[cn]C[Compared to the alternative white looks strong everywhere now.]
;W[co];B[dn];W[bo];B[bn];W[eh];B[ih];W[dl];B[fn];W[fl];B[fj]
;W[gn];B[gm];W[en];B[em];W[eo]
(;B[go]C[To prevent a ladder of F6.];W[fm];B[hn]C[I decide to sacrifice the black stones on the left.  Well the bottom four - and try and attack the right hand white stones.]
;W[dm];B[hp]
(;W[iq];B[hq];W[fr];B[hr];W[ir]
(;B[os];W[mr];B[kr];W[ks]
(;B[js];W[is];B[ls];W[hs];B[kq];W[kp];B[lp]C[I didn't kill the stones on the left hand but compensate by killing those on the right.]
;W[jp];B[ms];W[gr];B[fo];W[gp];B[ho];W[ck]
(;B[fg]
(;W[eg];B[ff];W[fb];B[gc];W[fc];B[gb];W[ed];B[fe];W[fh];B[gh]
;W[fi];B[gi];W[gj];B[gk];W[hj];B[fk];W[ek];B[ej];W[dk];B[cj]
;W[gl];B[hl];W[el];B[ij];W[bi];B[bj];W[bk];B[aj];W[ak];B[ef]
;W[df];B[in]C[Bla.  Time was running a bit short.

yes s17 is a huge point by now];W[kc]C[You can probably skip the next number of moves he achieves nothing in my mojo.]
;B[jc];W[mb];B[nb];W[md];B[mc];W[lc];B[lb];W[mf];B[nd];W[oe]
;B[pe];W[ne];B[ng];W[le];B[od];W[lg];B[kd];W[jf];B[mj];W[li]
;B[kf];W[ke];B[kg];W[jh];B[jg];W[rc];B[rb];W[qd];B[pb];W[ld]
;B[jd];W[ee]C[this move e15 is dame and doesnt give any points to white]
;B[di];W[dh];B[ai];W[ah]
(;B[hi]C[you could have left it at the moment, and play f19 for example.]
;W[hb];B[ga];W[jb];B[kb];W[hd];B[hc];W[if];B[ig];W[he];B[je]
;W[hg];B[gg];W[fa];B[lf];W[sb];B[ra];W[ma];B[me]C[Not really necessary - I lose two points.  Sorry time was just running out, maybe made a few mistakes here and there that cost me a few points.  Also the pushing battle at S15 should maybe have been something where I should have used sente long ago.
He lives but still....I need to still work on seeing "big moves" in the yose

yes, sometimes capturing his stones shows him that its time to quit trying =), but only do that if you know that you are leading, and remember...corners are big, pay attention to them]
;W[sj];B[ql];W[sk];B[sl];W[jr];B[ks]
(;W[qr];B[rs]C[big move];W[sr];B[gq];W[fq];B[ip];W[gs];B[ci]
;W[bh];B[sa];W[sc];B[tt];W[ss];B[ps];W[ei];B[hk];W[tt];B[cq]
C[I try something.  Nothing.];W[dq];B[cp];W[bp];B[bq];W[do]
;B[dr];W[br];B[cr];W[aq];B[bs];W[ar];B[er];W[eq];B[es];W[cs]
;B[tt];W[tt]TW[aa][ba][ca][da][ea][ab][bb][cb][db][eb][ac][bc]
[cc][ec][ad][bd][cd][dd][sd][ae][be][ce][re][se][af][bf][cf]
[rf][sf][ag][bg][cg][dg][rg][sg][qh][sh][ri][si][al][bl][cl]
[am][bm][cm][em][an][bn][cn][dn][ao][ro][ap][cp][ep][sp][bq]
[cq][sq][cr][dr][er][as][bs][ds][es][fs]TB[ha][ia][ja][ka][la]
[ma][na][oa][pa][qa][hb][ib][jb][mb][ob][qb][ic][kc][lc][oc]
[pc][gd][hd][ld][md][ge][he][ie][ke][le][ne][oe][gf][hf][if]
[jf][mf][of][hg][lg][mg][hh][jh][kh][lh][mh][nh][ii][ji][ki]
[li][mi][ni][gj][hj][jj][kj][lj][nj][oj][ik][kk][lk][mk][jl]
[ml][nl][ol][pl][rl][hm][jm][km][mm][pm][gn][kn][ln][nn][no]
[oo][op][lq][mq][oq][lr][mr][nr][or][ns]C[no way your opponent was 12 kyu =)

the main point is that you have to recognize big moves and also moves that are urgent.

so first the urgent ones and then the big ones.
try to play keeping this in mind and practice reading, then im sure you will get stronger.]
)
(;W[rs]C[this is much better than r2]))
(;B[fa];W[ea];B[ga];W[eb];B[gq];W[fq];B[sj];W[si];B[sk];W[ci]
;B[hk]))
(;W[fh]C[here this is the right move for white

i added the best yose for white here];B[gh];W[gi];B[gg];W[fi]
;B[hi];W[gj];B[hj];W[fb];B[gc];W[rc];B[rb];W[pe];B[oe];W[sb]
;B[qb];W[hb];B[jb];W[ib];B[jc];W[qd];B[pc];W[ja];B[ka];W[ia]
;B[lb];W[gb]C[now black is leading with only about 5 points, to prevent this black should play the big points earlyer]
))
(;B[eb];W[db]C[this is basically enough because here was the biggest weakness as you can see in whites yose variation later]
;B[gh];W[ff];B[gf];W[fe];B[ge];W[ed];B[fc];W[fi];B[gi];W[ej]
;B[ek];W[ei];B[fk];W[dk];B[rc];W[el];B[gl];W[sc];B[sb];W[sd]
;B[rb];W[pe];B[oe];W[qd];B[pc];W[ec];B[fb];W[ea];B[fa];W[da]
C[so]))
(;B[ls]C[Works out better.  There's not a double threat at the other end.]
))
(;B[kr]C[This might have been better.  Keep the threat at N2 for later.]
)
(;B[gr]C[A bit too obvious though, and probably not necessary.  I just responded wrong in my opinion.  Still this is a bit complex life and death for me.]

(;W[fq];B[kr])
(;W[kr])))
(;W[hq];B[gq];W[gp];B[iq];W[hr];B[ip];W[ir];B[jp];W[kq]C[white should have played this]
))
(;B[dm];W[fm];B[el];W[dk];B[ek]))
(;B[df];W[cf];B[dg];W[cg];B[ee];W[dd];B[dh]C[also a way of thinking, black center is huge]
))
(;B[cg]C[An alternative which might have been a bit better.  Since I attack his weak shape and make myself stronger elsewhere.  There's still the aji of a peep at D16.]
;W[ci];B[eg];W[dl]C[about the same result, whites bottom left looks huge]
;B[be];W[bc];B[eb];W[ec];B[fc];W[db];B[fb];W[bd];B[ce];W[cd]
;B[df]))
(;W[dj]C[this is bigger]))
(;B[so];W[sn];B[rs];W[sr];B[sp]C[but this way white can try to get a ko]
;W[sm];B[ql];W[sk];B[sl]))
(;B[qs];W[rs];B[so];W[sp];B[sr]C[dead];W[sn];B[rn]
(;W[ro])
(;W[qq];B[qr];W[sq];B[qp])))
(;B[qp]C[This might have been playable.]))
(;B[oi]C[To prevent a good move from white.]))
(;W[oi]C[And black has a problem.]))
(;B[qg]C[Maybe this would have worked better.  With the way I played I cut him off from the center, but that was through his own mistakes.  (some indicated)

Question:
What are standard weaknesses you look for in a group like the white group top right.  Is this move ok?  Still R15 would also have been a good move...well maybe not right now :) , but lessens his base a bit.]
))
(;W[rc];B[rb];W[qd];B[qb];W[pe];B[od];W[nf]))
(;W[qc]
(;B[pc];W[qd];B[pe];W[rf];B[og])
(;B[qd];W[pc];B[od];W[rd];B[re];W[rc];B[qe];W[nc]C[black will probably play the other way]
)))
(;W[nc];B[lc];W[ne];B[pf];W[ng]))
(;W[nc]C[much better]))
(;B[in]C[This move might have worked, but I didn't want to leave the aji.

yes, better to capture];W[de];B[il]))
(;W[lk];B[kl];W[jm];B[mk]C[Same type of result.  Black secures himself.]
)
(;W[kl];B[lk];W[jo];B[io];W[jp];B[mk];W[il]C[better for white]
))
(;W[jn]C[Maybe?

yes, a lot better for white];B[jo];W[in]C[black(L5) is in trouble now]
))
(;B[mn];W[mm];B[nm];W[nq];B[lm];W[ml];B[lo];W[kn];B[ko]C[and now for the explanation why it is better. in the game white had stones at p2 and o2, that means your corner was open to attack. but this way all that white can do is play q2, which is easy to stop

just in case you dont know...corners are important =)]))
(;B[ce]))
(;W[po];B[nq];W[rq]C[blacks corner is gone]))
(;B[oq]
(;W[mp];B[no];W[mo];B[nn])
(;W[no];B[mp];W[mo];B[lp])))
(;B[rp];W[qp];B[qq];W[ro];B[rq];W[oo];B[np])
(;B[po];W[pn];B[qp];W[oo];B[pp];W[on];B[qn];W[qm];B[ro];W[rn]
;B[mp])
(;B[fq]))
