(;FF[4]GM[1]SZ[19]ST[2]CA[UTF-8]AP[SGFC:1.15]

PB[backpacker]
BR[9k]
PW[g0098]
WR[9k]
KM[6.5]
DT[2005-10-16]
PC[The Kiseido Go Server (KGS) at http://kgs.kiseido.com/]
RE[B+21.50]
TM[1800]
OT[5x30 byo-yomi]
RU[Japanese]

C[g0098 [9k\]: hi];B[qd]C[backpacker [9k\]: hi];W[dc];B[dq]
;W[qp];B[de];W[co];B[ep];W[dl];B[jq];W[nq];B[oc];W[kc];B[cc]
;W[cb];B[cd];W[fc];B[ch]C[seems normal to me so far.];W[cj]
;B[pj];W[ql];B[nj]C[this is kind of funny.  usually a 1 space jump up near an enemy stone has two purposes, first to begin a high wall facing the side, and second to threaten to invade or cut off the stone.  here it doesn't really do that because w can slide under.]
;W[ok];B[oj];W[nd]
(;B[nc];W[md]C[i don't know about leaving this.  b's wall is kind of floating below.  not sure how to deal with it.  maybe try some connecting move, but anything is going to be painful because b is open due to r8]
;B[jo];W[kp]
(;B[kq];W[lp]C[I don't understand what these shoulder hits are doing for him.  Do you think they are good? N16 & L4

o16 was ok maybe.  I don't know about l4.  if b just k3 then b has gained a lot more than w.]
;B[pf];W[qh]
(;B[qi];W[oh];B[ng];W[nh]
(;B[mg];W[og]
(;B[of]C[this isn't going to work.  so maybe just n12 now?]
;W[mh];B[lj];W[lg];B[nf]C[ouch.];W[lf]C[so w got m13, m14, and b got m10 and o14.  not a good deal at all.]
;B[lh];W[li];B[kh];W[ki];B[jh];W[mj];B[mk];W[mi]
(;B[lk]C[o9 so in danger  this move is in danger of being useless.]
;W[ji];B[ih]C[I am getting too many weak groups.  Ugh.];W[nk]

(;B[pl]C[I thought he can't play q9 to reply here, but the geta move I was thinking about does not work because of the 2 stones at M4 and L4.  I will show the variation.]
;W[pk];B[qk];W[rk];B[qj];W[pm];B[ol];W[nl];B[om];W[nm];B[on]
;W[qm]
(;B[op]C[So I looked for a move in desperation, and here it is.]
;W[nn];B[no];W[pn];B[oo];W[ln];B[mo];W[km]C[b really in trouble now.]
;B[kn]C[this doesn't work.];W[lo];B[kl]
(;W[jn]C[bad move by W];B[lm];W[mn];B[jm];W[oq]C[now w has a huge corner/side.  except b should really s12 to get out.]

(;B[ii];W[jj];B[ij];W[jk];B[ik];W[rh];B[ic]C[good idea.];W[id]
;B[hd];W[ie];B[gc];W[fe];B[he];W[hf];B[if];W[jf]
(;B[gf];W[ig];B[ge]C[too painful.];W[gg];B[ff];W[bc];B[bb];W[ab]
;B[db];W[ba]
(;B[ec];W[eb];B[dd];W[da]C[w + 30 now.];B[fg];W[gh]C[hard to attack that group.]
;B[fi];W[fh];B[eh];W[ei];B[fj];W[dh];B[eg]
(;W[di];B[dg];W[jp]
(;B[iq];W[in];B[io];W[ip];B[ho];W[ko];B[km];W[hp];B[hq]
(;W[hn]C[w could have taken those stones.];B[go];W[gn];B[gp]
;W[en]C[Now he is tempting me to start a liberty fight];B[mp]
;W[lq];B[mq];W[mr];B[lr];W[kr]
(;B[pq];W[or];B[pp];W[pr];B[qq];W[rp];B[ls];W[ms];B[mm];W[ks]
;B[lr];W[ls];B[ml];W[lr];B[qr];W[jr];B[rs]
(;W[ir];B[hr];W[is];B[qo];W[ro];B[rq];W[sr];B[rn]
(;W[rm];B[so];W[rj];B[jc]C[I am trying to kill this group.  But my group  at J9 will be cut from K7 and I am not sure now if this is sound.

your whole center is in rather severe danger.];W[kd];B[jd];W[je]
;B[le]
(;W[me];B[jg]
(;W[mc];B[lb];W[kb];B[mb]
(;W[ib];B[hb];W[jb];B[hc];W[il];B[im];W[hl];B[gi]
(;W[mf]C[I think this white move was worthless and lost the game.]
;B[hh];W[qf];B[qe];W[rf];B[re]C[b up big now.];W[cq];B[cr];W[bq]
;B[br];W[dp];B[eq];W[eo];B[aq];W[ap];B[ar];W[bp];B[fr];W[hs]
;B[gs];W[bh];B[bg];W[ci];B[cg];W[bi];B[dc];W[fb];B[ga];W[fd]
;B[bd];W[ad];B[ae];W[ac];B[od];W[af];B[be];W[ag];B[gl];W[fo]
;B[gm];W[hm];B[fp];W[gk];B[fk];W[fm];B[fl];W[el];B[hk];W[ek]
;B[sf];W[pg];B[sg];W[rg];B[sm];W[sl];B[sn];W[qn];B[sp];W[ri]
;B[bf];W[ah];B[sh];W[se];B[sd];W[si];B[se];W[qc];B[pc];W[qb]
;B[pb];W[ee];B[ef];W[gb];B[ha];W[fa];B[ej]
(;W[cf];B[hg])
(;W[dj]C[g0098 [9k\]: i thought i found a bug];B[ps];W[os];B[qs]
C[backpacker [9k\]: okay];W[tt];B[tt]TW[aa][bb][qg][ph][ai]
[ni][oi][pi][qi][aj][bj][kj][lj][nj][oj][pj][qj][sj][ak][bk]
[ck][dk][kk][lk][mk][qk][sk][al][bl][cl][jl][kl][ll][ml][rl]
[am][bm][cm][dm][em][im][jm][km][lm][mm][an][bn][cn][dn][fn]
[kn][ao][bo][do][cp][nr][js][ns]TB[ia][ja][ka][la][ma][na][oa]
[pa][qa][ra][sa][ib][jb][kb][nb][ob][qb][rb][sb][kc][lc][mc]
[qc][rc][sc][id][kd][ld][md][nd][pd][rd][ce][ie][je][ke][me]
[ne][oe][pe][cf][df][hf][if][jf][kf][lf][mf][gg][hg][ig][kg]
[lg][fh][gh][hi][gj][hj][gk][ro][qp][rp][fq][gq][sq][dr][er]
[gr][rr][sr][as][bs][cs][ds][es][fs][ss]C[backpacker [9k\]: thx
g0098 [9k\]: thx]))
(;W[if]C[this is complicated.  still worth trying for w though.]

(;B[hh];W[hg];B[kf];W[ke];B[mf];W[ld];B[kg]
(;W[gk])
(;W[le]
(;B[ka];W[ja];B[la];W[nb];B[ob];W[gk]
(;B[od];W[gj];B[ne];W[hj];B[hi];W[fk])
(;B[gj];W[hk];B[hj];W[fk]))
(;B[gk];W[hj];B[hk];W[gl];B[fl])))
(;B[gk]
(;W[gl];B[hh];W[hg];B[hj])
(;W[hj];B[gl]
(;W[hm]
(;B[fn];W[fm];B[fo];W[gm])
(;B[fm];W[fn];B[hh];W[hg];B[kf];W[ke];B[mf];W[ld];B[kg];W[le]
;B[hk];W[el];B[ia];W[la];B[ma];W[ka];B[od];W[nb];B[ob]))
(;W[hi];B[hh];W[hg];B[hk]
(;W[ke])
(;W[gm];B[kf];W[ke];B[mf];W[ld];B[kg];W[le];B[od];W[fl]))))))
(;W[ha]
(;B[ia];W[ib];B[hb];W[ja];B[jb])
(;B[hb]
(;W[ia];B[ga])
(;W[jb];B[ib]))))
(;W[ke]
(;B[kg];W[lb];B[jb];W[mc];B[ld];W[nb])
(;B[mf];W[ld];B[kg];W[lb];B[mc];W[jb];B[ib];W[ka];B[lc];W[mb]
;B[nb];W[ma];B[kf]))
(;W[kg];B[ke];W[lb];B[mc];W[jb];B[lc];W[ld];B[ib];W[mb];B[nb]
;W[ma];B[ka]))
(;W[ke];B[me];W[jg];B[kg])
(;W[jg]
(;B[ke])
(;B[me];W[ke];B[kg])))
(;W[qn];B[so];W[po];B[sp];W[qo];B[rl]C[nice]))
(;W[rq]C[Maybe this would have sealed me.]))
(;B[nr];W[ls];B[pq];W[or]))
(;W[im]
(;B[il];W[go];B[hn];W[hm];B[gn];W[gm];B[fn];W[jl];B[fm];W[gl]
;B[fl];W[gk];B[fk];W[kk];B[gj];W[ll])
(;B[jl];W[go];B[hn];W[hm];B[gn])))
(;B[ip];W[iq];B[io];W[hq]))
(;W[dg];B[di];W[ci];B[ej];W[cg]))
(;B[eb]C[Now this looks much better.

yeah]))
(;B[ig]C[you can save this stone.  b has some libs and will have sente above.]
;W[gf];B[jc];W[kd];B[kb];W[lb];B[jb];W[gb];B[mb];W[la]
(;B[lc];W[mc];B[jd];W[je];B[ke];W[ld];B[kf];W[nb];B[ob];W[na]
)
(;B[jd];W[je];B[ke]
(;W[kf];B[lc];W[ld];B[mc])
(;W[mc];B[le];W[nb];B[ld];W[lc];B[me]))))
(;B[rh];W[qg];B[rg];W[qf];B[rf];W[qe];B[re];W[pe]C[this is all sente.]
))
(;W[lm];B[jm];W[jl];B[jk];W[il];B[ik];W[im];B[jn];W[jp];B[ip]
;W[io];B[in];W[ho];B[hm];W[iq];B[hp];W[ir]
(;B[hq])
(;B[lq];W[mq]
(;B[hq];W[mp])
(;B[mp];W[lr]))))
(;B[mn]C[This is the move I thought would work, but now at this point in the game, I saw it would not work.]
;W[nn];B[no];W[oo];B[pn];W[mo];B[np];W[mm];B[ln];W[op])
(;B[nn]C[gotta push here i think.]
(;W[ll];B[lm])
(;W[mm]
(;B[ln]
(;W[ll];B[lm])
(;W[lm];B[km]
(;W[ll];B[kl])
(;W[kl];B[ll])
(;W[mn];B[mo];W[lo];B[kn];W[no])))
(;B[mn];W[lm];B[ln];W[kn];B[km];W[kl];B[jm];W[ll];B[jl];W[kk]
;B[jk];W[kj];B[rj];W[rl]
(;B[qg];W[rh];B[ph];W[pg]
(;B[rg])
(;B[pi];W[qf]))
(;B[rh];W[qg];B[rg];W[qf];B[rf];W[pe]
(;B[qe])
(;B[oe];W[qe];B[re];W[od];B[pd]))))))
(;B[pk]
(;W[pl];B[ol];W[nl];B[om];W[nm];B[on];W[nn]
(;B[qm];W[rm];B[qn];W[rn]
(;B[rl];W[rk];B[sl];W[sk];B[qk];W[sm];B[rl];W[sl];B[pm];W[rl]
;B[rj];W[qo];B[qg])
(;B[oo]))
(;B[no]C[b can do this i think.];W[oo];B[po];W[op];B[pn];W[pp]
;B[rn];W[mo];B[rl];W[rk]
(;B[qk];W[rm];B[sl];W[sk];B[qm];W[sm];B[rl];W[sl];B[pm];W[rl]
)
(;B[qm];W[sl];B[rm]
(;W[ri];B[qk];W[rj];B[qo])
(;W[qk];B[rj])
(;W[rj];B[ri]))))
(;W[om];B[pl];W[pm];B[qm];W[qn];B[rm];W[rl]
(;B[rn])
(;B[ol];W[nl];B[nm];W[ml];B[mm]))))
(;B[nk];W[lk];B[kj];W[kk];B[jj];W[ji];B[ij];W[ih]))
(;B[mh]
(;W[of]C[this looks better for b in the future.  w has no eyes on the side, and b's got a much better outside.]
;B[pe])
(;W[mi];B[ni];W[li];B[of]
(;W[kg])
(;W[nf];B[kg]))))
(;B[mh]C[i would do this.];W[mi];B[ni];W[mg];B[lh];W[og];B[nf]
;W[of]
(;B[mf];W[lg];B[li];W[mj]C[I don't think I can play this severe.]
)
(;B[oe]
(;W[pe];B[ne];W[qf]
(;B[pd];W[qe];B[lf];W[pg])
(;B[pg];W[ph];B[pd];W[qg];B[ri];W[od];B[mf];W[lg];B[lf];W[kg]
;B[kf];W[jg];B[ki];W[ji];B[kj]
(;W[jf];B[ld];W[mc];B[lc];W[mb];B[lb];W[pc];B[pb];W[ob];B[qc]
;W[nb];B[kd])
(;W[mc];B[jf];W[if];B[ie];W[ig];B[jd]
(;W[re];B[rd])
(;W[rh];B[re];W[rf];B[sg];W[sf];B[sh];W[rd]
(;B[qe];W[pc])
(;B[rc]
(;W[sd];B[qe];W[pc];B[pb])
(;W[qe]))))))
(;W[ne];B[mf];W[lg];B[lf];W[kg];B[kf]
(;W[li]C[no good])
(;W[jh]
(;B[li];W[jf]
(;B[je];W[ke])
(;B[ph];W[pe];B[od];W[pg];B[qg]
(;W[pi];B[qf];W[rh];B[ri]
(;W[qe];B[re];W[rf])
(;W[rg];B[rf]))
(;W[qf];B[rh];W[rg]
(;B[qh];W[ke])
(;B[oi];W[qh])))
(;B[ld];W[lc]
(;B[mc];W[le];B[ke]
(;W[kd];B[je];W[ie];B[if];W[jg];B[jd];W[id];B[jc]
(;W[ib];B[jb];W[ic];B[lb])
(;W[jb];B[ic];W[ib];B[hc];W[gd];B[hb]))
(;W[je];B[me]))
(;B[je];W[ke];B[kd];W[jd];B[le];W[ie])
(;B[kd];W[jd];B[mc];W[le])
(;B[ke];W[je];B[kd];W[jd];B[mc]))
(;B[kd];W[jd];B[ld];W[lc]))
(;B[jg];W[kh]
(;B[ki])
(;B[li];W[mj];B[ld]
(;W[kj];B[lj];W[mk];B[lk])
(;W[lj];B[ki];W[jj]))))))))
(;B[ph];W[qj];B[qg];W[qi];B[pk];W[pl];B[qk];W[rk]C[This does not look appealing to me.  But in the game my groups were split into 2.]
))
(;B[jp];W[kq];B[ko]C[bad shape for w.  w shouldn't get much in the LR beyond the corner.]
))
(;B[od];W[ne]
(;B[mb]C[maybe?])
(;B[oe])))
