(;FF[4]GM[1]SZ[19]ST[2]CA[UTF-8]AP[SGFC:1.15]

PB[wim]
BR[3d]
PW[Jago]
WR[3d]
KM[6]
RE[W+Resign]
RU[Japanese]

;B[dp];W[oq];B[cd];W[qc];B[ic];W[cj];B[di];W[ci];B[dh]LB[ch:A]
C[This move is kind of slow. should B[A\].];W[bg];B[cf];W[cg]
;B[dg];W[cm]C[White is now in a very comfortable shape here, due to the fault of B[D12\].]
;B[co]LB[nd:A][gq:B]C[Slow move, no threat to white. B[A\] is much bigger. Locally, B[B\] is better.]
;W[cc]C[Is this invasion a litlle early?

I think it is good to see how B respond.];B[dc];W[db];B[bc]
;W[cb];B[ec];W[eb];B[fc];W[bb];B[bd];W[fb];B[gb];W[ab]
(;B[pd]C[good move? or.. variation


I think this is doable, However, the current siutation favors white anyway.]
;W[qd];B[pe];W[pc]
(;B[oc]LB[ob:A]C[usually this move is an overplay, but black has support at J17. so: good move?

Defnitely, if W[a\], then B is better then playing at B[O16\].]
;W[nc]C[P 18 feels too submissive for white, but is this fight acceptable?


It is hard to say here. From the results, W is not bad.];B[ob]
;W[od];B[nb];W[nd];B[mc];W[md];B[lc];W[nf];B[qe]
(;W[pg]C[white has to sacrifice the corner, otherwise (see variation) ??


Yes, I agree White here.];B[re]LB[rd:A]C[should B[a\].];W[rg]

(;B[rd];W[nh]C[what is the evaluation of this result? good for black or white? are there mistakes in the fight after white O17?


B get the corner while W has limited the potential of W. I think W is better due to the fault of B[S15\], B wasted 1 move.]
;B[po];W[qm]C[Is this pincer a good choice?

Yes, defnitely]
(;B[qn];W[pm];B[qq]C[is this a good choice for black, or rather (see variation)]
;W[oo];B[pp];W[op];B[rm];W[rl];B[rn];W[jq]C[This feels good for white, restricting black to the corner. But: black has some 10 points, and the aji of R8/S9.



This is bad for B.]
(;B[jh]C[Good move? Restricting white's mojo, and expanding black's? Or is the lower left corner bigger?


It is a OK move.];W[dr];B[dq];W[er];B[cr];W[gq]C[Please comment on mistakes, even when i don't ask questions :)

Sure, I feel Black made W thick in the right lower conner. The situation favors W.]
;B[cn];W[bm];B[dm];W[kj]C[Strange move? or OK?];B[jn]C[Now some difficult fighting. Black has a lot secure territory, white needs points in the center? Please comment on black K6 and the ensuing fight.]
;W[em];B[hq];W[gp];B[gr];W[fr];B[ir];W[hp];B[iq];W[ip];B[jr]
;W[kq];B[hs];W[kr];B[js];W[br];B[cq];W[eo];B[dn];W[ik]C[So far, The results again favors W. I guess Black giving up the stone B[K6} contradict the original purpose of invading. The two points gained in two small compared to the loss of B[K6\]. B should live K6 or excape.]
;B[gl]LB[hm:A]C[W[a\] bigger];W[im];B[en];W[gn];B[fn];W[fo]

(;B[rk]C[no good move for white, whithout reducing own liberties. before move white K3 some moves had been exchanged in the corner. I will edit them now.]
;W[qr];B[rr];W[pq];B[rp]C[(so this exchange had been made earlier, sorry)]
;W[jf]C[as white doesnot see a good answer to S9, he reduces black's territory. But should black have defended here at K14, instead of S9?]
;B[hh];W[hf];B[kg];W[ld];B[kc];W[kf];B[mg];W[ng];B[jj];W[jk]
;B[mi];W[pk];B[ki];W[lj];B[li];W[nk];B[ql];W[pl];B[bn];W[dl]
;B[el];W[dk];B[ek];W[bf];B[ce];W[dj];B[ej];W[bk];B[cs];W[qk]
;B[ni];W[rj];B[gf];W[ge];B[gg];W[jd];B[fe];W[jc];B[jb];W[id]
;B[hc];W[pr];B[gm];W[hn]C[Are there so far bad endgame mistakes? moves that we have missed?


This progress is OK for both parties.];B[hj]C[the rest is endgame. Thank you for your comment and time.



Overall, Both are playing quite good, but White is better. Black made several mistakes

1) B[D12\] too slow
2) B[S15\] wasted one move
3) In right lower corner, Black make white too thick.
4) B should not give up B[K6\].

Due to these mistakes, B lost the game to W. Otherwise, the story will be different.]
)
(;B[jf]C[This is winning game for White];W[kg];B[jg];W[qk]C[? who is leading now?


If you count, you find W leads even in board.]))
(;B[fq]C[?]))
(;B[pm];W[pl];B[om];W[qn];B[np];W[nq];B[mp]LB[qp:A]C[something like this? what is the best variation  for black after the white pincer at R7?


I Would probably B[a\] first.]))
(;B[of];W[og];B[ng];W[mf]
(;B[rd]LB[mh:A][nh:B][ni:C]C[isn't this better? there is no (loose) ladder. or.. (see variation)

Yes, But W can do W[a\], B[B\], W[C\]. the fight does not seem to favor B]
)
(;B[nh]
(;W[pi];B[rd])
(;W[pf];B[oe];W[rd]C[? looks like bl is captured


Yes, That is the fault of B[S15\].]))))
(;W[re];B[rf];W[sd];B[pg];W[pb];B[nh]C[I thougt that the fight would be difficult, as white has to add a move in the corner


This way, W is in danger.]))
(;B[nd];W[oc];B[mf];W[mc];B[lc];W[mb];B[md];W[lb];B[kc];W[qp]
C[this is maybe too soft for black? or is white too low? I would say that sente makes a lot of difference here.


If play in this way, I think W is better.];B[pk]))
(;B[nd];W[pf];B[ng];W[ph];B[qp]C[or this?

This does not look a beter way to expand black moyo than the actual game. White has vairous way to invade into the Black territory, which is the only territory of B.]
))
