(;FF[4]GM[1]SZ[19]ST[1]AP[SGFC:1.15]

GN[xed_over-rafial-20051027.sgf]
PB[Wilhelm Fitzpatrick (rafial)]
BR[15k]
PW[Dennis Wheeler (xed_over)]
WR[16k]
KM[6.5]
DT[2005-09-20,2005-10-27]
PC[Dragon Go Server: http://www.dragongoserver.net]
RE[B+Resign]

C[xedover:  Thank you for reviewing our game.

I think I focused too much on trying to kill some of black's groups.  How could I have played differently to keep black's territory small (instead of trying to kill) while keeping my groups safer.

Sometimes I think protect when I don't need to, but at other times don't realize when I need to protect still.

Don't pay too close attention to our dragon go server ratings, rafial and I are close to the same level even though our AGA ratings are even further apart in the other direction. So far, the last several games he and I have played together, it seems that whichever one of us plays white loses.]
;B[dd];W[pp];B[qd];W[dp]
(;B[jc]C[The usual opening here is L17or L16, the so-called Chinese opening. There is a lot of space for white in the top left now for an invasion.]
;W[cf];B[fd]
(;W[ff]C[This leaves too much space between the two white stones (for a cut), and too much space below them. D10 would have been a better option.]
;B[ee];W[ef]C[Black has solved your problem with E15, which makes white stronger and doesn't do much for black. It's a bit early for a cut, but 9. E14 would have been better.]
;B[df];W[dg];B[de];W[ch]C[Now you have a reasonably thick position, while black hasn't made his corner any bigger, and it's still open at B16.]
;B[np];W[pn];B[pq];W[qq];B[oq];W[qj]C[xedover:  humm, looks like I've left a weakness at r4. maybe r2 or q5 would have been better than r10?

R2 is the right move here.];B[qp];W[qo];B[rq];W[rp];B[qr];W[gq]
;B[jq]
(;W[qf]C[It's time now to make use of black's weakness at the top, and come in at P16. With R14 you allow him to repair the gap and stake out a big territory at the top.]
;B[oe];W[ld]C[xedover: too soon for this invasion? maybe its not needed?

Too late, but it is well-placed. The drawback is that your stones on the left are getting a bit thin.]
;B[nd]C[Should have been at O17.];W[je]C[Good, you're creating a lot of central influence.]
;B[eg]
(;W[lp]C[xedover: I was hoping to fake an invasion to soon create a ladder break for black's cutting stone at e13

As you realized, it only invited another ladder breaker from black. I think you should have started a fight with F13: you have support on the right from K15, and a corner enclosure below. This way you can make territory on the left and build a good position in the middle.]
;B[lq];W[mp];B[mq];W[no];B[jm]C[xedover: my opponent sees right through me and creates his own ladder break

And it will help him when he wants to cut through at N5.]
(;W[ic]C[Given black's ladder breaker, you need to help your two stones at E14 and F14, but this invites a cut.]
;B[id];W[jd];B[hc]
(;W[ib]C[On the outside is better, that's where you need help.]
;B[hb];W[jb];B[ie];W[if];B[hf];W[he]C[xedover: I didn't read this out correctly. I was hoping to connect to my f14 group (or create another ladder breaker)

I think this works out fine, it's a good sacrifice to link up with the left. Black is spending a lot of stones on that corner, far too many for its size.]
;B[hd];W[hg];B[gf];W[gg];B[ge];W[jg]C[xedover:  I should have played f13.  I don't think it was necessary for my to protect the k14/j13 cuts

F13 or E12 would have given you an impressive wall, although with K7 already there, it's already weakened a bit.]
;B[fg];W[fh]C[xedover: this was probably a bad move, but black was kind later.]
;B[fe]C[xedover: I think black should have come out at e12 instead of taking my two stones yet]
;W[eh];B[gh]
(;W[hh]C[xedover: humm... wasted move? I see now the cut at N5 was more important. Any other big moves I should have seen?

That black stone is all alone, cutting two strong groups. There is no need to chase it into your framework. When attacking, it's seldom good to play too close to your opponent: you do that when you want to escape. You could consider something like D7, staking out a big framework, or (better, I think) K5, which defends against the cut and attacks on a grand scale.]
;B[mo];W[op];B[nq];W[lo]C[This is not good: that black stone has a lot of space to run into, your group on the right has weaknesses, and K7 is bound to get in your way. N6 would have been better.]
;B[mn];W[ln];B[nn];W[oo];B[lm];W[jo];B[om];W[pm];B[pl]
(;W[ol]C[R8 would have been safer, but this cut is playable.]
;B[nl];W[ok];B[ql]
(;W[nk];B[rn];W[nm];B[mm];W[lk];B[km];W[jp];B[jk];W[hj]C[It's unclear what the purpose of this move is: something like D7 would have been better for territory, something like P13 to defend the group on the right, and for attacking the centre group you should have driven it upwards, to your wall.]
;B[hn];W[iq];B[kq];W[in];B[im];W[hm];B[hl];W[gm];B[gl];W[fm]
C[xedover: I still have my eye on killing black's k7 group, and soon lose sight of saving my own weakening groups

This is the right move though: black's centre group is not alive as long as he hasn't killed your right corner group, and it's crucial to keep D8 isolated. Your right corner group still has the ko as a life line, although it's very unfavorable.]
;B[ir]C[xedover: I still have my eye on killing black's k7 group, and soon lose sight of saving my own weakening groups

This is the right move though: black's centre group is not alive as long as he hasn't killed your right corner group, and it's crucial to keep D8 isolated. Your right corner group still has the ko as a life line, although it's very unfavorable.]
;W[hq]C[xedover: I still have my eye on killing black's k7 group, and soon lose sight of saving my own weakening groups

This is the right move though: black's centre group is not alive as long as he hasn't killed your right corner group, and it's crucial to keep D8 isolated. Your right corner group still has the ko as a life line, although it's very unfavorable.]
;B[hr]C[xedover: I still have my eye on killing black's k7 group, and soon lose sight of saving my own weakening groups

This is the right move though: black's centre group is not alive as long as he hasn't killed your right corner group, and it's crucial to keep D8 isolated. Your right corner group still has the ko as a life line, although it's very unfavorable.]
;W[gr]C[xedover: I still have my eye on killing black's k7 group, and soon lose sight of saving my own weakening groups

This is the right move though: black's centre group is not alive as long as he hasn't killed your right corner group, and it's crucial to keep D8 isolated. Your right corner group still has the ko as a life line, although it's very unfavorable.]
;B[dl];W[fl];B[cn]
(;W[cj];B[cp];W[cq]C[xedover: e4 instead of d2?

D1 might have given you a chance at this point, but it would have been better to play 112. E3]
;B[bp]C[xedover: e4 instead of d2?

D1 might have given you a chance at this point, but it would have been better to play 112. E3]
;W[bl]C[xedover: e4 instead of d2?

D1 might have given you a chance at this point, but it would have been better to play 112. E3]
;B[dq]C[xedover: e4 instead of d2?

D1 might have given you a chance at this point, but it would have been better to play 112. E3]

(;W[cr]C[xedover: e4 instead of d2?

D1 might have given you a chance at this point, but it would have been better to play 112. E3]
;B[eq]C[xedover: e4 instead of d2?

D1 might have given you a chance at this point, but it would have been better to play 112. E3]

(;W[dr];B[do];W[ep];B[fp];W[eo];B[en];W[fo];B[fn];W[go];B[gn]
;W[ho];B[fk];W[gk];B[el];W[il];B[em];W[ik];B[hk];W[ij];B[gj]
;W[gi];B[pf];W[pg];B[qe];W[of];B[pe];W[nf];B[be];W[bf];B[ce]
;W[mb];B[mc];W[lc];B[nb];W[md];B[nc]
(;W[rr]
(;B[qp];W[bn];B[qq];W[rl]
(;B[qm];W[qn];B[rm];W[rk];B[on];W[jl];B[qg];W[qh];B[rg];W[rh]
C[xedover: hummm... more mistakes. b7 better than a4];B[rf]
C[xedover: hummm... more mistakes. b7 better than a4];W[bq]
C[xedover: hummm... more mistakes. b7 better than a4];B[cm]
C[xedover: hummm... more mistakes. b7 better than a4];W[bo]
C[xedover: hummm... more mistakes. b7 better than a4];B[co]
;W[ap];B[bm];W[am];B[bk];W[ck];B[cl];W[bj];B[al];W[ao];B[bg]
;N[RESULT]C[Result: B+Resign

xedover: too many mistakes. I didn't think I could catch up now, so I resigned.

The main reason why you lost, apart from the mistakes you made, is that you didn't use the influence you built up on the top and right. You didn't turn it into territory, or use it to attack black. The fact that you had black's top left corner completely surrounded should have been enough to give you victory.]
)
(;B[rk]))
(;B[sq]))
(;W[qm]))
(;W[ds]))
(;W[eq]))
(;W[bp]))
(;W[qp]
(;B[rr];W[rn])
(;B[rn];W[rr])))
(;W[ql]))
(;W[dm])
(;W[jo];B[mo];W[lo];B[mn];W[oo];B[io];W[km];B[kl];W[lm];B[mm]
;W[ll]))
(;W[ie]))
(;W[fg]))
(;W[fg];B[eh];W[dj]))
(;W[od]))
(;W[dj]))
(;B[kc]))
