(;FF[4]GM[1]SZ[19]ST[2]CA[UTF-8]AP[SGFC:1.15]

PB[toreun]
BR[24k]
PW[darkpengin]
WR[23k]
KM[0.5]
DT[2005-11-13]
PC[The Kiseido Go Server (KGS) at http://kgs.kiseido.com/]
RE[W+52.50]
TM[1800]
OT[5x30 byo-yomi]
RU[Japanese]

;B[pp];W[dd];B[pc];W[eq];B[jq];W[hq];B[jo];W[qj];B[ql];W[qf]
;B[qd];W[oe];B[nc];W[nd];B[oc];W[ld];B[dj];W[dh];B[dn];W[cl]
;B[dl];W[fn];B[cp];W[cq];B[ci];W[ck];B[dk];W[ch];B[cm];W[fi]

(;B[hl]C[I think this move was not good for connecting or expanding my territory, and perhaps the center would be better?

I don't think this move does much at all.  The connection you're making is loose at best, and the two groups are relatively strong.  Instead, strengthen the lower right, or attack the top left.]
;W[fl];B[fk];W[gk];B[gl];W[fm];B[hj];W[fj]C[I think h9 would be slightly better here.  It gives you the initiative on the right.]

(;B[ek];W[gj];B[hk];W[hi];B[qp]C[Should I have bothered then protecting the corner?

Yes, a 3x3 invasion could hurt you a lot.];W[nk]
(;B[nl]C[Don't play so close like this, especially when that stone doesn't have any back up.  Play cautious, and your opponent will either go in too deep or play cautious in return.]
;W[ll];B[lm];W[hc];B[cc]C[Was the 3-3 invasion a bad idea here? It seemed to me the only option to get into that corner

I'd recommend doing a few preliminary attacks from the bottom, because you can't loose the initiative here.  Attacking from the bottom is really important.]
;W[cd];B[dc];W[ec];B[bd];W[be];B[eb];W[fc]
(;B[fb];W[bc];B[bb];W[ad];B[ca];W[gb];B[ga];W[ha];B[db];W[ji]
TR[da][ea][fa][na][oa][pa][qa][ra][sa][cb][nb][ob][pb][qb][rb]
[sb][qc][rc][sc][rd][sd][aj][bj][cj][ak][bk][ck][al][bl][cl]
[am][bm][rm][sm][an][bn][cn][mn][nn][on][pn][qn][rn][sn][ao]
[bo][co][ko][lo][mo][no][oo][po][qo][ro][so][kp][lp][mp][np]
[op][rp][sp][kq][lq][mq][nq][oq][pq][qq][rq][sq][kr][lr][mr]
[nr][or][pr][qr][rr][sr][ks][ls][ms][ns][os][ps][qs][rs][ss]
SQ[ia][ja][hb][ib][jb][gc][ic][jc][kc][bd][ed][fd][gd][hd][id]
[jd][kd][ae][ce][de][ee][fe][ge][he][ie][je][ke][le][me][ne]
[af][bf][cf][df][ef][ff][gf][hf][if][jf][kf][lf][mf][nf][of]
[ag][bg][cg][dg][eg][fg][gg][hg][ig][jg][kg][lg][mg][ng][og]
[pg][qg][rg][gh][hh][ih][jh][kh][lh][mh][nh][oh][ph][qh][rh]
[sh][ri][dr][er][fr][gr][ds][es][fs][gs]C[Let's count:
Black: 85
White: 85

You're a little bit behind white right now, especially with komi.]

(;B[jj]C[But this move doesn't reflect that.  Now, I realize that at low 20kyu, you can't count very well, but]
;W[kj];B[kk];W[lj];B[kl];W[ol]C[Now he's forming the wall on his terms.]
;B[om];W[ml];B[nm];W[pk];B[pl];W[ok];B[lc];W[md]
(;B[mc]C[Don't connected, expand.];W[kc];B[kb];W[jb]
(;B[ka];W[jd];B[ja]C[Go for something bigger, keep him reacting to you]
;W[jr];B[kr];W[kq]
(;B[lq];W[kp];B[ir];W[jp];B[js]SQ[ip]C[He's securely in your territory now, try and minimze the damage]
;W[lp];B[mp];W[mo];B[nq]C[At this point should I start worrying about that center group of mine, as it eventually gets killed?]
;W[mm];B[mn];W[ln]
(;B[nn]C[The right group is secure, but not the left group.  Don't waste a move here... though it's tough to make it live anyway.]
;W[km];B[jm];W[kn];B[jn];W[hr];B[ip];W[iq];B[jr];W[io];B[hp]
;W[gp];B[ho];W[hn];B[in];W[go];B[io];W[hm];B[ko];W[lo];B[il]
;W[jk]C[At this point that group in the lower center is dead - what should I have done differently that could have saved it and what appears to be the game?

It's a tough situation, the only way to save it that I could find is to go back to right away when he first started invading, and make sure you're strengthening the left side, even if it means sacrificing territory on the right.]
;B[no];W[lm];B[ep];W[im];B[rk];W[rj]
(;B[sk];W[sj];B[re];W[qe]
(;B[rc]C[Not necessary];W[rf];B[se];W[sf];B[em];W[en];B[el]
;W[fp];B[eo];W[fq]
(;B[dq]C[Approach from the left instead];W[bp];B[bq];W[cr];B[bo]
;W[dr];B[dp];W[br];B[ap];W[ej];B[bh];W[bg];B[ah];W[di];B[cj]
;W[ag];B[aj];W[ib];B[ab];W[ac];B[aq];W[ia];B[ma];W[is];B[ls]
;W[hs];B[ar];W[bs];B[as];W[qk];B[rm];W[od];B[fa];W[pd];B[tt]
;W[tt]TW[hb][gc][ic][jc][bd][ed][fd][gd][hd][id][kd][ae][ce]
[de][ee][fe][ge][he][ie][je][ke][le][me][ne][pe][af][bf][cf]
[df][ef][ff][gf][hf][if][jf][kf][lf][mf][nf][of][pf][cg][dg]
[eg][fg][gg][hg][ig][jg][kg][lg][mg][ng][og][pg][qg][rg][sg]
[eh][fh][gh][hh][ih][jh][kh][lh][mh][nh][oh][ph][qh][rh][sh]
[ei][gi][ii][ki][li][mi][ni][oi][pi][qi][ri][si][hj][ij][jj]
[mj][nj][oj][pj][hk][ik][kk][lk][mk][gl][hl][il][jl][kl][gm]
[jm][gn][in][jn][ho][io][jo][ko][hp][ip][gq][er][fr][gr][cs]
[ds][es][fs][gs]TB[aa][ba][da][ea][la][na][oa][pa][qa][ra][sa]
[cb][lb][mb][nb][ob][pb][qb][rb][sb][qc][sc][rd][sd][ai][bi]
[bj][ak][bk][ck][al][bl][cl][rl][sl][am][bm][dm][pm][qm][sm]
[an][bn][cn][on][pn][qn][rn][sn][ao][co][do][oo][po][qo][ro]
[so][bp][np][op][rp][sp][mq][oq][pq][qq][rq][sq][lr][mr][nr]
[or][pr][qr][rr][sr][ks][ms][ns][os][ps][qs][rs][ss]C[In conclusion it looks like my major flaw was not going deeper into the center, as that was white's biggest territory. What would have helped, etc. with that?

I think you played pretty well.  The first half was fine, but you started slipping up by playing too close to your opponent, and not keeping the initiative.  Losing the shape in the middle was also a huge blow, but that was called by a small mistake.  Things you can do to improve is to practice Yose go problems, in order to learn how to keep your opponent on the run.  You also might want to try counting, even if you're really vague, once or twice a game, to know just how far you need to go, and how big of risks you ought to take.

I hope my comments were helpful, if you have any questions feel free to email me!]
)
(;B[bq];W[cr]))
(;B[rf];W[rc];B[qc];W[rd];B[rb]))
(;B[sj];W[si];B[sk];W[ri]C[Learn to snatch every point you can]
))
(;B[km]))
(;B[kp];W[lq];B[ir]))
(;B[jc];W[kd];B[ib]))
(;B[kc];W[mc];B[mb]))
(;B[ml];W[mk];B[ok];W[oj];B[pk];W[pj];B[kl];W[lk];B[kk];W[kj]
C[Now you're playing on your terms.];B[lb];W[jc]))
(;B[ad]C[Play here instead for the best shape.];W[ae];B[bb]
;W[cf];B[fb];W[gb]))
(;B[nm]))
(;B[hk]
(;W[gj];B[nk])
(;W[ek];B[ok])))
(;B[nl])
(;B[np])
(;B[fc]))
