(;FF[4]GM[1]SZ[19]ST[2]CA[UTF-8]AP[SGFC:1.15]

PB[blurry]
BR[15k]
PW[greendemon]
WR[12k]
KM[0.5]
DT[2005-12-08]
PC[The Kiseido Go Server (KGS) at http://kgs.kiseido.com/]
RE[W+35.50]
TM[1800]
OT[5x30 byo-yomi]
RU[Japanese]

C[Hi, I'm Tom, and I play white in this game.  Black is a good friend of mine, so if you could review for both sides, that would be great.  In particular, the big midgame fight was very difficult to read.  Where were better plays (for white or black)?  A few plays could have easily changed the outcome of the game.  And also, what in the fuseki and joseki led to this fight?

Thanks.

Hi my name is Ian Davis, I will try to give you as much insight as I can into what went wrong and how to improve]
;B[pp];W[pd];B[dp];W[cd];B[ed];W[ec]
(;B[dd]SQ[fc]C[The complicated choice, Black can also hane]
;W[dc];B[ce];W[be]
(;B[fc]LB[bd:A][cf:B]C[This move was new to me.  In retrospect, maybe my move was too slow?  Would a fighting play like f16 be better?

Black's move seems strange, there are two more usual ones at A and B]
;W[bc]C[this move seems reasonable to me, now black must protect something]
;B[cf]
(;W[bf]SQ[fd]C[Perhaps now you are slow, F16 looks good];B[cg]
;W[nq]C[F16 is still big. O3 seems a good direction to approach in.]
;B[qn];W[pr];B[qq]C[Black can also tenuki];W[kq]C[correct];B[pg]
C[interesting move by black. Aiming at moyo];W[nd];B[gd]SQ[pj]
C[this is a very painful honte, I don't think black can return now to play here. White's sente is very big


A black play at Q10 would be big.];W[jc];B[ng]
(;W[qg]LB[qh:1][qi:2][qj:3][qk:4][ql:5][qm:6]C[I felt the time was right to attack the right side, but I wasn't sure how.  This seems to work ok.

This looks a bit clumsy to me.
The gap is still quite wide, no reason to start a fight yet.
I'd prefer to play elsewhere and think about invasion later.]
;B[qh];W[qf];B[qc]C[Maybe too soon for this?

Noo I like the timing, but I'm sure it should die];W[qd];B[rb]
C[Also an unusual play.  Is this shape alive?

at worst ko]
(;W[gp]C[what is with this 2 space approach?];B[eq];W[dn]C[this move looks a bit strange. Doesn't it just invite a cut and two weak groups?]
;B[cl];W[fn]
(;B[co]C[no!! connect];W[pj];B[ph];W[nj]
(;B[lg]SQ[rj];W[rj];B[cn];W[je];B[hf]SQ[lg][ng][pg][ph][qh]
C[don't leave your stones weak];W[jf]SQ[jg]C[too slow I guess, no reason not to jump]
;B[ih];W[kh];B[mi];W[mj];B[li];W[jh];B[ii]SQ[kj]C[white should net now]

(;W[lj];B[ki];W[ji];B[kj];W[jj];B[kk];W[rh]
(;B[no]SQ[km]C[Black decides to try and connect to the right stones.  Might the stones on the left be better choices?

This seems reasonable to me, black could also try walking from the weak group]
;W[mn];B[mo];W[ln];B[ij];W[jk];B[jq]C[This seems like a key crossroads.  Black attempts to use white's aji as a threat, then build a way out.  Here white chose to tighten his net around the black middle stones and sacrifice the whole bottom.  Good choice?

I wouldn't sacrifice everything myself! White can live and retain the threat against the weak black stones.]

(;W[ml];B[kp];W[ik]SQ[dn][fn][gp]C[This was to help the floating stones.

yes owing to your sacrifice suddenly they became weak!];B[gj]
SQ[hk]C[Maybe better at H9?];W[ko];B[qi];W[qj];B[ri];W[si];B[kg]
;W[jg];B[le];W[lc];B[ne]C[Is there a way to make eyes inside here?  This doesn't seem to work so well, although it comes close.

It's hard to say yes or no. I can imagine it's possible to. I will show some tries.]

(;W[ni];B[md];W[oe];B[nc];W[od];B[mc];W[oc]
(;B[ld];W[lb];B[of];W[mf];B[mg];W[nh];B[lq]C[Black makes big profit on the bottom.  At this point the game seems pretty close to me, especially since those stones in the upper right corner might live somehow.

yes the sacrifice was very daring! you have to be certain you can kill when you take such a risk]
;W[jp];B[kr];W[ip]
(;B[qr]C[oh is this really needed?];W[ek];B[dj];W[fk]
(;B[fi]LB[ej:A]SQ[gk]C[Would g9 be better for black?

I prefer A myself];W[gk];B[bg];W[rd]C[Here I was afraid of the stones living somehow.

Yes wise choice, seems biggest now];B[ob];W[pb];B[rl];W[pc]
;B[ok];W[oj];B[gr];W[hr]
(;B[gq]C[is capturing bigger?];W[hq];B[fp];W[fo];B[om];W[hb]
;B[fb];W[eb];B[hc];W[ic];B[id];W[jd];B[ig];W[lp];B[mp];W[lo]
;B[mq];W[ql];B[qm];W[pl];B[ol];W[rk];B[rm];W[fr]
(;B[er]LB[fs:A]C[no no,];W[dm];B[cm];W[dk];B[ck];W[ei];B[ej]
;W[fj];B[gi];W[ie];B[he];W[hd];B[pf];W[oh];B[id];W[gs];B[fq]
;W[fs];B[rg];W[sh];B[qe];W[rf];B[re];W[sf];B[se];W[sg];B[pe]
;W[sd];B[nb];W[qb];B[rc];W[sb]
(;B[pa];W[ra];B[es];W[hs];B[gb];W[ib];B[nm];W[mm];B[hk];W[hl]
;B[hj];W[dl];B[af];W[ae];B[ag];W[ea];B[cb];W[cc];B[ac];W[ab]
;B[ad];W[bd];B[bb];W[ac];B[eo];W[en];B[do];W[js];B[ks];W[ir]
;B[nn];W[pm];B[pn];W[nk];B[pk];W[qk];B[sk];W[sj];B[sl];W[jr]
;B[kq];W[ga];B[fa];W[ha];B[hd];W[iq];B[tt];W[tt]TW[aa][ba][ca]
[da][ia][ja][ka][la][ma][na][oa][pa][qa][sa][bb][cb][db][jb]
[kb][mb][nb][ob][rb][kc][mc][nc][qc][rc][sc][ad][kd][ld][md]
[ke][le][me][ne][pe][qe][re][se][kf][lf][nf][of][pf][kg][lg]
[mg][ng][og][pg][rg][lh][mh][ph][qh][ki][li][mi][oi][pi][qi]
[ri][kj][kk][lk][mk][el][fl][gl][il][jl][kl][ll][em][fm][gm]
[hm][im][jm][km][lm][gn][hn][in][jn][kn][go][ho][io][jo][hp]
[is]TB[gc][fd][de][ee][fe][ge][df][ef][ff][gf][dg][eg][fg][gg]
[hg][ah][bh][ch][dh][eh][fh][gh][hh][ai][bi][ci][di][ei][hi]
[aj][bj][cj][ak][bk][al][bl][am][bm][sm][an][bn][on][rn][sn]
[ao][bo][oo][po][qo][ro][so][ap][bp][cp][ep][np][op][qp][rp]
[sp][aq][bq][cq][dq][nq][oq][pq][rq][sq][ar][br][cr][dr][lr]
[mr][nr][or][pr][rr][sr][as][bs][cs][ds][ls][ms][ns][os][ps]
[qs][rs][ss]C[White wins by quite a few pionts.

Interesting play by both sides. Try to focus on the simpler things though - don't leave groups weak. Don't make wild saacrifices when you have a simple attack to finish first.

Also some techniques to work on])
(;B[ra]C[normally try and add a liberty, but as we see it doesn't work here anyway ;-)]
;W[qa];B[pa];W[oa];B[na];W[sc];B[pa];W[sa]))
(;B[fs]
(;W[fq];B[er])
(;W[er];B[dr];W[es];B[gs];W[hs];B[fq])))
(;B[hq];W[gq];B[ir];W[fr];B[hs];W[fq];B[er];W[fs]))
(;B[gk]
(;W[gl])
(;W[ei];B[ej];W[fj];B[fi];W[gi];B[fh];W[gl];B[hk];W[hl];B[hj]
;W[hg];B[ig];W[if];B[hh];W[he];B[gg]C[you have to be careful ;-)]
)))
(;B[lo];W[qr];B[rr];W[rs];B[rq];W[mr];B[qs];W[ps];B[ls];W[ms]
;B[oq];W[or];B[mq]C[this is enough to kill]))
(;B[lb]SQ[rb][qc]C[i like going underneath instead, using R17 aji]
))
(;W[md];B[kd];W[jd];B[lh];W[ni];B[nh];W[me];B[mf];W[of];B[kf]
;W[ke];B[pf];W[oe];B[rg];W[sh];B[sg];W[sj];B[qe];W[rf];B[re]
;W[sf];B[pe];W[rd]C[dead])
(;W[oe];B[md];W[mc];B[of];W[mf];B[lf];W[ni];B[nh];W[lh];B[mh]
;W[ld];B[me];W[oi];B[oh]C[life]))
(;W[kp]))
(;B[jk];W[ij];B[ik];W[hj];B[hk]C[This is very bad for the moyo black built, but maybe the stones have a better chance of living, and maybe can cut around M16?

I don't think black can cut, this way seems just to damage black to me]
)
(;B[km]C[hard to kill now]))
(;W[kj];B[lj];W[lk];B[ki];W[ji];B[jj];W[kk];B[le];W[kd];B[ld]
;W[lc];B[md];W[mc];B[ne];W[oe];B[of]
(;W[lh])
(;W[ij];B[jk];W[jl];B[ik];W[hj]SQ[ih][ii][jj][ik][jk]C[ok so black will live, but he is still in some trouble]
;B[il];W[ig])))
(;B[rj]C[connection might be a wise idea, now white has to run for eyes]
))
(;B[cn];W[co];B[do];W[cm];B[bn];W[dm];B[bm]C[this is bigger for black]
))
(;W[pb];B[rd];W[re];B[qb];W[sd];B[pc];W[ob];B[oc];W[nc];B[od]
;W[oe];B[pe];W[qe];B[pf];W[ne];B[sc]C[maybe a ko?])
(;W[fq];B[cn];W[dr];B[cq];W[hp]C[I prefer this]))
(;W[fq];B[cn];W[dr];B[cq];W[hp]
(;B[dj];W[pk]C[I would be happy with something like this])
(;B[no]LB[re:D][cj:C][nj:A][ok:B]C[this is a bit better for black, but white has enough points of his own

lots of ways to reduce black's potential still])))
(;W[fd]C[How does Black answer?];B[gc];W[fe];B[ef];W[hd];B[hc]
;W[bf];B[cg];W[id]C[white is doing well I think]))
(;B[cf];W[bc];B[fd];W[gc];B[he]C[this is a joseki])
(;B[bd]C[this is the traditional answer];W[cc];B[bf];W[fd]))
(;B[fc];W[dc];B[gd];W[cf];B[kd]))
