(;FF[4]GM[1]SZ[19]ST[2]CA[UTF-8]AP[SGFC:1.15]

PB[yh]
BR[15k]
HA[2]
PW[faultier]
WR[13k]
KM[0.5]
DT[2005-12-13]
PC[The Kiseido Go Server (KGS) at http://kgs.kiseido.com/]
RE[B+9.50]
TM[900]
OT[5x30 byo-yomi]
RU[Japanese]

AB[pd][dp]C[Hello thanks for reviewing my game (I played white). I think it was very close most of the time, but I never had the feeling i'm in advantage.
At most I wanna know how to improve me joseki and how to answer black b13. Are there any big weak points i mist? Again thanks for your effort.

****************************************************************
Hi faultier. In general you played according to your level, but we are going to try to improve it by stressing some general strategic concepts and some tactical as well.

Review by DonPimpon];W[dd];B[pp];W[nc];B[pg]
(;W[kc]C[(see comments below)];B[oc]
(;W[qn]TR[oc][pd][pg][pp]SQ[dp]C[Now is time for some strategic considerations.
If you want to improve your level, you should learn a bit about "direction of play". 
The concept is not so difficult: before making an important move like R6, you should ask yourself  "what is going to happen next?". 

R6 is an aggressive move and you must be careful, because there are 4 black stones around you. What is going to happen? Black is going to attack you and at the same time he is going to make points while you try to live. Result: you live and make few points, black makes tens of points and become really strong.]
;B[qo]
(;W[qi]C[(see comments below)];B[mp];W[ql]C[This is very painful for white. Now black is getting a lot of points and white must live. Therefore, what was the point of R6?

At this very moment, black is winning and white must catch up.]
;B[pn];W[rn];B[ro];W[dn];B[fp];W[cp];B[cq];W[co];B[cc];W[dc]
;B[cd];W[ce];B[be];W[cf];B[bf];W[cg];B[db];W[eb];B[da];W[ea]
;B[bb];W[fc];B[jj]C[Nice timing for black. Actually, I'm very surprised that you gave him 2 handicap stones.

In this kind of situation, you must spend a bit of time and make your plan again. This moment in the game is crucial, because we are passing from fuseki to chuban (middle game phase).

What is black trying to do?

Apparently he wants all the diagonal from A1 until T19.

What do you want for you?]
(;W[jm]TR[cc][pg][pn][fp][mp]C[You made this move and is not a bad move, but is pretty ambitious. 
This means that you don't want him to invade you, that you want it all. Sadly, black has many "friends" around (triangled friends), so it will connect to one of his friends for sure.

(see variation)];B[jo];W[dk];B[jq]C[As you can see, both know your weaknesses and cover them before the other.]
;W[fm];B[km]
(;W[gi]C[If you tenuki here (ignore the opponent's move), then, what was the purpose of K7?

You should always answer that kind of move (called tsuke).

(see variation)];B[jl];W[im];B[ll];W[ih];B[nd];W[md];B[nb];W[mc]
;B[mb];W[lb];B[ne]
(;W[me]C[(see comments below)];B[mf];W[lf];B[mg];W[lg];B[lh]
;W[jg];B[nh];W[rg];B[re];W[kh];B[li];W[ki];B[kj];W[pm];B[on]

(;W[om]C[(see comments below)];B[bg]
(;W[bh]C[(see comments below)];B[ch]
(;W[ci]C[(see comments below)];B[dh]
(;W[de]C[This is a mistake, now black will crush white.

(see variations below)];B[bi];W[bj];B[ah];W[di];B[ei];W[eh]
;B[eg];W[fh];B[dg];W[fg];B[ef];W[ff];B[ee];W[fe];B[ed];W[ec]
;B[fd];W[gd]C[This is very painful for white.];B[gc];W[gb];B[hc]
;W[hb];B[ib]
(;W[hd]C[(see comments below)];B[ic];W[id];B[ha];W[ga];B[fb]
;W[ia];B[ja];W[jc];B[ha];W[fa];B[cj];W[dj];B[ck];W[cl];B[bk]
;W[bl];B[aj];W[jb]C[This is an unnecessary move. White already wins the race by 1 extra move because black can't E14.]
;B[bh];W[bq];B[cr]
(;W[ho]C[Too shallow, you should go 1 more.

(see variation)];B[hp];W[go];B[gp];W[nn];B[no];W[oo];B[po];W[mo]
;B[np];W[qf];B[pf];W[qe];B[qd];W[rf];B[rd];W[mm];B[nl];W[nm]
;B[ml];W[lo];B[lp];W[ko];B[kp];W[io];B[jn];W[ip];B[iq];W[hk]
;B[il];W[hl];B[fo];W[fn];B[hm];W[in];B[jp];W[gn];B[ik];W[hj]
;B[eo];W[do];B[eq];W[oj];B[nj];W[ok];B[ol];W[oi];B[oh];W[nk]
;B[mk];W[ni];B[mj];W[pl];B[qh];W[rh];B[pi]
(;W[qj]C[(see comments below)];B[pj];W[pk];B[ph];W[pe];B[oe]
;W[mi];B[mh];W[lm];B[ln];W[mn];B[kn];W[sn];B[so];W[br];B[bs]

(;W[ob]C[(see comments below)];B[pb];W[ma];B[oa];W[se];B[sd]
;W[al];B[qq]C[Unnecessary move for black.];W[ii];B[en];W[em]
;B[bp];W[bo];B[df];W[ia];B[ak];W[ji];B[ar];W[ap];B[cs];W[aq]
;B[as];W[sf];B[qg];W[la];B[na];W[ij];B[rj];W[ri];B[rk]
(;W[qk]C[(see comments below)]
(;B[rm];W[rl];B[sm];W[qm];B[tt];W[tt]TW[ha][ja][ka][fb][ib]
[kb][gc][hc][ic][lc][jd][kd][ld][ge][he][ie][je][ke][le][gf]
[hf][if][jf][kf][gg][hg][ig][kg][sg][gh][hh][jh][sh][ei][fi]
[hi][si][ej][fj][gj][rj][sj][ek][fk][gk][rk][sk][dl][el][fl]
[gl][sl][am][bm][cm][dm][gm][hm][rm][sm][an][bn][cn][hn][ao]
[bp]TB[aa][ba][ca][pa][qa][ra][sa][ab][cb][ob][qb][rb][sb][ac]
[bc][pc][qc][rc][sc][ad][bd][od][ae][af][nf][of][ag][ng][og]
[ai][bj][lj][jk][kk][lk][kl][oo][ep][op][qp][rp][sp][dq][fq]
[gq][hq][kq][lq][mq][nq][oq][pq][rq][sq][dr][er][fr][gr][hr]
[ir][jr][kr][lr][mr][nr][or][pr][qr][rr][sr][ds][es][fs][gs]
[hs][is][js][ks][ls][ms][ns][os][ps][qs][rs][ss]C[Black wins by 9,5 points.

***********************************************************
End of comments.

Review by DonPimpon.])
(;B[rl];W[rm];B[sl];W[sj];B[si];W[sh]))
(;W[rl]C[Keep things simple.]))
(;W[ma]
(;B[na];W[ob];B[la];W[oa]C[Better, but black will never play this way.]
)
(;B[oa]C[This is the correct reply for black.]))
(;W[ar])
(;W[ii];B[se];W[ji]C[Bad move, T14 for black is 2 points because you have to finally connect at S11 or T11.]
;B[sf];W[sg];B[qg];W[si]))
(;W[pj];B[qj];W[ph]C[Black must play the ko in this case.];B[df]
;W[ia];B[pi]))
(;W[hp]
(;B[ho];W[ip];B[jp];W[io]C[Good for white.])
(;B[hq];W[ip];B[iq];W[jp];B[kp];W[gp];B[gq];W[fo];B[go];W[ho]
;B[gn];W[hn];B[fn];W[eo]C[Good for white.])))
(;W[ic];B[hd];W[ge]
(;B[id];W[jc]C[White wins.])
(;B[jc];W[id];B[jd];W[he]C[White always wins.])))
(;W[bi]C[White is very strong here, so black will die for sure.

(see variations)];B[de];W[df];B[ee];W[ef];B[fe];W[fg];B[ec]
;W[ed];B[fd];W[ec];B[gc];W[gb]
(;B[hc];W[hb];B[ib];W[ic];B[jb];W[hd];B[gd];W[ge]C[White wins.]
)
(;B[fb];W[fa]
(;B[hb];W[hc];B[gd];W[ib]C[White wins.])
(;B[hc];W[hb]C[White wins.]))))
(;W[bi];B[de];W[dh]
(;B[ed];W[ec];B[ef])
(;B[ci];W[cj];B[di];W[ei];B[dg];W[dj];B[df];W[ch];B[ed];W[ec]
;B[fd];W[gd];B[gc]
(;W[gb];B[hd];W[hc];B[ge];W[ff];B[fg];W[fe];B[ee];W[eg];B[gf]
;W[ef];B[nn];W[qf];B[pf];W[qe];B[qd];W[rf];B[rd];W[pe];B[oe]
;W[nm];B[mm];W[nj];B[nl];W[ol];B[nk];W[ok];B[mj];W[ho];B[hp]
;W[io];B[ip];W[go];B[gp])
(;W[fe];B[ee];W[eg]C[Easier.]))))
(;W[ci];B[bi];W[bj];B[bh];W[ch]C[This is a simple answer without complications.]
))
(;W[bg]C[Definitely YES. 

Is one of the big points now.
But what happens when you forget to do it?]))
(;W[lf]C[This one is faster and safe.]))
(;W[kn];B[jn];W[kl];B[lm];W[im]C[Now things are a bit more complicated for black, and you haven't sacrificed your stone.]
))
(;W[iq]TR[cc][pd][pp]C[Our plan could be this:

- First invade the only weak point that black has (triangled groups are alive)

- Second, make a base for our group to be alive.

- Third, having that base, try to attack while living or at least make points on the left. If you attack from both sides, is easier, and now you have 2 groups compressing black's weak group.

Anyways, you are deleting black's bottom points (that's called a reduction).

(see variation)];B[hq];W[ip]
(;B[hp];W[lq];B[mq];W[lp];B[lo];W[ko];B[ln];W[kn]C[Here you are not attacking, but you are removing black's bottom points.]
)
(;B[kq]C[Black can be aggressive too, but is not typical (though that is one of my favourites).]
;W[kp];B[lp];W[ko];B[jq];W[hp];B[gq];W[ir];B[jp];W[jo];B[io]
;W[in]C[Black can't cut because he loses the ladder.])))
(;W[pn]C[In this situation, the typical move is this.];B[np]
;W[pj]TR[pn][qn]C[The triangled shape is considered to be elegant.]
))
(;W[nq]C[Why to play here instead of R6?
Go to move 7 in the main game and you'll know.

*****************************************************

When making important moves in the fuseki (first stage of the game), you must have a plan. At least one simple idea of what do you want, and what you don't want your opponent to get.

I reccomend you to play O3 instead of R6 because our plan is to let black have some points on the right side (he has already played 4 stones there, so it's in his plan to get it). So black happily will protect his precious right side (that was already his), while you nicely and without risks take the bottom side.

(see variation)];B[pn];W[fq]
(;B[dn];W[jp]C[This is one option. White takes the bottom comfortably with only 3 stones. 

The corners are still open and can be invaded later.])
(;B[hq];W[fo];B[dn];W[dr];B[cq];W[kq]C[Now it's white the strong one, and can take advantage of it by making some points while attacking black.

Note that the corner is still open and can be invaded.])))
(;W[jd]LB[lc:B][qc:D][dd:A][ld:C]C[Your move in L17 is too low. There is a proverb that says that third-line players are losers. When you have a stone at A, you should play at K16, because is very flexible and dynamic.

For example, if black invades/cuts at B, you should reply at C, but there are many variations and some of them involve ladders and are very difficult to read. Just remember that you can always invade at D.

Anyways, black won't cut at B at this early stage.

(see variation)];B[lc];W[ld];B[kd];W[kc];B[md];W[ke];B[mc];W[qc]
;B[pc];W[qd];B[qe];W[re];B[qf];W[rf];B[rg];W[pb];B[ob];W[qb]
;B[oc]TR[kc][jd][ld][ke]SQ[pp]C[This is one of the variations.
Black made a wall and got some points, but you took the corner in sente AND made a nice ponnuki (the triangled stones). A ponnuki is a very strong shape.

I think that is a fair result for both sides, because black rectangled stone combines perfectly with the wall and can quickly develop a big moyo on the right and center.

Can you guess where would you play next?
Hint: you don't want black to make a big moyo.];W[qn]C[Exactly, you should do "something" about black's potential moyo.]
))
