(;FF[4]GM[1]SZ[19]ST[2]CA[UTF-8]AP[SGFC:1.15]

PB[markusmeng]
BR[16k]
PW[andrem]
WR[15k]
KM[0.5]
DT[2005-11-19]
PC[The Kiseido Go Server (KGS) at http://kgs.kiseido.com/]
RE[W+5.50]
TM[1200]
OT[5x60 byo-yomi]
RU[Japanese]

C[I am 10 years old and have learned Go for 2 years in Singapore. I am strong when I play with other primary students on 13x13 board. But on 19x19 board, I am  always  like driven by the opponent, and help them to get their shape. Some people said I am not aggressive anough. Please kindly help to comment and point out how should I overcome the problem.

I am black in this game.

Vindicare: Hi, my comments are preceded by a V.];B[pp];W[dd]
;B[pc];W[qe];B[dp];W[oe];B[mc];W[gc];B[ql]LB[dj:F][pj:B][qj:A]
[qm:D][pn:E][qn:C][jp:G]C[V: I'm not too sure about this move.

These are the moves I see normally (although it doesn't mean that you have to play them)]
;W[qh]TR[ql]C[V: This extensions is too small. You can punish him for playing like this.

Any white thickness that faces these marked stones will be somewhat wasted. We won't call it thickness anymore, we call it overconcentrated.

So you want your opponent to become overconcentrated at this point.

The game go is so vast that you cannot predict what will happen. But when you are presented with opportunities like this, take all the time in the world to find a way to really punish white. You can give yourself a very nice advantage right now.]

(;B[qq]C[Is this move too conservative?

V: I think so. Why did you play the 4-4 in the first place? If you want corner territory, play a 3-4 or a 3-3.

The 4-4 means that you are willing to sacrifice corner territory to get influence (which you can use to manipulate global development in your favor).]
;W[kq]
(;B[gq];W[nq];B[oq];W[cg]
(;B[dm]LB[dj:A]C[Is this move correct? I feel like I should try to attack his moyo on the upper-left corner.

V: It's hard to say that it is bad, but your corner is open. If you want to play for influence, maybe you can try to go at A.]
;W[dj]
(;B[ic]C[V: This is too low.];W[cc];B[cq]C[Is it another small move?

V: No, it was small earlier, but now it's one of the biggest moves.]
;W[cl];B[cm];W[jj];B[hg]C[How to attack the upper-left moyo? Is it too late now?

V: I don't think this is a good move. Your opponent didn't know how to handle it though.]

(;W[gi]C[V: White attacks you from the wrong direction, you et a second move which allows you to correct your first mistake.]

(;B[fg]C[V: You are also going in the wrong direction.];W[eh]
;B[lf];W[mh];B[pi];W[qi];B[qj];W[jg];B[jf];W[if];B[ig];W[je]
;B[ie];W[kf];B[hf]
(;W[jf]C[V: terrible move];B[hd];W[le];B[kc];W[mk];B[ol]LB[pj:A]
[ok:B]C[is this move helping him to build his shape?

V: You needed to defend against the cut at A, perhaps B would be a better choice.]
;W[nn]LB[jm:B][np:A]C[V: This move at A is a nice move. You should have played here earlier, but it is usefull because it's an open road into his moyo. You can also enter from the B direction. White won't get much from his moyo.]

(;B[on]C[V: This is not a good move, its and yose type move, keep it for the end.]
;W[np]C[V: it's become a hard game for you now];B[hm];W[hr]
C[V: If you answer this, you give your opponent sente.];B[gr]
;W[rc]
(;B[qb];W[kn];B[ip];W[hq];B[hp];W[iq];B[gs];W[hs];B[ek];W[jm]
;B[jp];W[jq];B[dl];W[ck];B[hk];W[nm]C[V: Here is my last comment:

You certainly don't need to answer white's last move. Take sente to get a bigger move.

You need to evaluate the threat of your opponent's move and check if there are bigger moves elsewhere.]

(;B[om];W[rj];B[rk];W[pj];B[qk];W[oj];B[ri];W[rh];B[sj];W[ld]
;B[lc];W[nd];B[nc];W[oc];B[ob];W[pd];B[qc];W[qd];B[rb];W[sc]
;B[sb];W[rd];B[df];W[cf];B[de];W[ce];B[gd];W[fc];B[fd];W[ed]
;B[ee];W[eg];B[ff];W[gk];B[gl];W[fk];B[fl];W[ej];B[dk];W[hj]
;B[ik];W[jk];B[ij];W[ii];B[im];W[nl];B[ok];W[nk];B[cj];W[bj]
;B[ci];W[bi];B[fj];W[fi];B[gj];W[dg];B[hi];W[ih];B[hh];W[or]
;B[pr];W[op];B[pq];W[os];B[ps];W[nr];B[oo];W[no];B[kp];W[lp]
;B[in];W[ko];B[jn];W[jl];B[il];W[jd];B[jc];W[id];B[he];W[hb]
;B[ib];W[bm];B[bn];W[bl];B[an];W[ak];B[am];W[ch];B[al];W[di]
;B[hc];W[ha];B[ia];W[gb];B[gh];W[fh];B[ef];W[md];B[kd];W[jh]
;B[pk];W[oi];B[od];W[jo];B[io];W[oc];B[sh];W[sg];B[si];W[rg]
;B[od];W[sk];B[sl];W[oc];B[cj];W[ci];B[od];W[qo]C[V: This is not a threat.]

(;B[rp];W[oc];B[ke];W[od]C[at the end he builds two walls in middle and I don't know how to break in

V: This is solid territory, there is no breaking in.];B[tt]
;W[tt]TW[aa][ba][ca][da][ea][fa][ga][ab][bb][cb][db][eb][fb]
[ac][bc][dc][ec][ad][bd][cd][sd][ae][be][me][ne][pe][re][se]
[af][bf][lf][mf][nf][of][pf][qf][rf][sf][ag][bg][kg][lg][mg]
[ng][og][pg][qg][ah][bh][dh][kh][lh][nh][oh][ph][ai][ei][ji]
[ki][li][mi][ni][pi][aj][cj][kj][lj][mj][nj][bk][kk][lk][kl]
[ll][ml][km][lm][mm][ln][mn][lo][mo][mp][lq][mq][ir][jr][kr]
[lr][mr][is][js][ks][ls][ms][ns]TB[ja][ka][la][ma][na][oa][pa]
[qa][ra][sa][jb][kb][lb][mb][nb][pb][fe][ge][gf][gg][hj][rj]
[fk][gk][sk][el][hl][pl][rl][em][fm][gm][pm][qm][rm][sm][cn]
[dn][en][fn][gn][hn][pn][qn][rn][sn][ao][bo][co][do][eo][fo]
[go][ho][po][qo][ro][so][ap][bp][cp][ep][fp][gp][qp][sp][aq]
[bq][dq][eq][fq][rq][sq][ar][br][cr][dr][er][fr][qr][rr][sr]
[as][bs][cs][ds][es][fs][qs][rs][ss])
(;B[oc]))
(;B[fc];W[fd];B[gd];W[fb];B[fe];W[ed];B[df]C[V: Play sente moves.

Don't just respond to your opponent.

If white threatens to remove 10 points, then instead of responding to him (giving him sente) go threaten 10 points at some other area of the board, if he responds he's given you sente :)]
))
(;B[jq]C[Ignore him, you can do as much damage to him as he does to you.

This is how you take control of the game, you can't get all the board be prepared to sacrifice some areas of the board in order to secure some of it.]
;W[jr];B[jp];W[iq];B[ip];W[kp];B[ko]))
(;B[np]LB[oq:15]C[V: This is the last opportunity to play here. This would have been a good move ever since you played P3 at move 15.]
))
(;W[he]C[V: White should fight this ko! He has nothing to lose, this is the best kind of ko...]
))
(;B[hd]C[V: Let's suppose White plays to keep territory.];W[gd]
;B[he];W[ge];B[gf];W[ff];B[fg];W[eg];B[ef];W[fe];B[eh];W[dg]
;B[fh];W[fj]C[V: You get nice thickness. Because of this thickness you can attack savagely.]
;B[ij]C[V: Attack!

There is no way of knowing what will happen, but I'm just going to give a sequence to show how to use thickness to attack even though this sequence probably won't appear.]
;W[ii];B[ji]C[V: Split your oponnent.

Your thickness helps the battle here so don't be worried about anything.]
;W[ik];B[hj];W[hi];B[hk];W[ki];B[jh];W[kk];B[il];W[jk];B[dh]
;W[ch];B[ej];W[ek];B[ei];W[fk];B[dk];W[dl];B[ck];W[cj];B[bk]
;W[bl];B[bj];W[ci];B[el]C[V: This is one possibility, very nice result for black, all because the battle was reinforced by thickness.

I know that sequence may or may not happen, but don't pay attention to the sequence, pay attention to the attitude black displayed.

Use thickness to attack.]))
(;W[if])
(;W[ie]))
(;B[ff]C[V: If you're worried about the moyo, come in immediatly.]
)
(;B[cc]C[V: It's probably better to invade though.];W[dc]
(;B[bb]
(;W[cb];B[bc];W[db];B[bf]C[V: I think Black is alive here. I can't find a way to kill him.]
)
(;W[cd];B[bd];W[cb];B[bc];W[db];B[bf];W[bg];B[ce];W[de];B[cf]
;W[df];B[ae]TR[gc][dj]C[V: White's thickness is wasted... The marked stones are too close.]
))
(;B[cd]C[V: This leads to a ko, I don't think it's advisable since the game not well defined yet and it's hard to see what could constitute a valid ko threat.]
)))
(;B[np]C[V: I would play here. It's rarely bad to cap like this]
))
(;B[mq];W[hq];B[fq];W[ko];B[co]C[V: I always like this type of sequence.]
))
(;B[qd]C[V: I find this is a nice move. First of all, it takes corner territory, which is not small at all.

More importantly, it's a contact play. You have probably noticed that after a contact play, your opponent becomes more solid. In this case, we want the opponent to become solid because every stone he adds here makes him more overconcentrated.

You want to look for moves that accomplish 2 things at the same time.]
;W[oc];B[ob];W[pd];B[qc];W[nc];B[nb];W[md]
(;B[lc];W[ld];B[kc];W[jd];B[cj]LB[qm:A]C[V: I don't think white's strategy will succeed. You have 15 points of solid territory in the corner, white has none. White's thickness will be hard to use effectively.

Notice that Black would prefer to have his stone at A. This is why A is part of the normal moves I showed earlier.]
)
(;B[ld]C[V: if you feel adventurous you can try here... If White makes a mistake he can die :)

Proverb: "Master the double hane and you are nearly shodan"]
)))
