(;FF[4]GM[1]SZ[19]ST[2]CA[UTF-8]AP[SGFC:1.15]

PB[Coyotebd]
BR[20k]
PW[meme]
KM[6.5]
DT[2005-12-28]
PC[The Kiseido Go Server (KGS) at http://kgs.kiseido.com/]
RE[W+Resign]
TM[1800]
RU[Japanese]

;B[pd];W[dq];B[qp];W[dc]CR[oc][qe]TR[md][nd][pf][pg][np][op]
SQ[mc][nc][qf][qg][nq][oq]C[Coyotebd (After game): At this stage I understand a bit about what playing the 4-3 is for, but I don't understand how I should be developing as a strategy. The only stone that I think didn't do it's job was q16. Because I didn't connect out to the center successfully it gain no influence nor territory.

===========================================
At this point what you want to try and do is make a shimari.

Squares for safety.

Triangles for influence/power.

circle=ultra conservative play.

here are some move tree's, and you can see the ways in which the shimaris are usefull]

(;B[ce]C[you chose instead to attack whites corner... Not a bad idea, but not usually what I would play... lets see how It goes.]
;W[de];B[cf]C[Coyotebd (After game): I'm trying to exhange territory on the left side for white influence towards the top.

not a good trade.... influence is much more valuable than territory this early in the game. Keep that in mind.

Also, when trading territory for influence, you must consider how mch territory your getting... Usually you want to at least be making a line on the fourth line for it to be profitable.]
;W[cd];B[bd];W[bc]C[now whites corner is secure, Black is low and has no influence and little points.

White however has Incredible shape, lots in influence which points at an empty part of the board (good for making cashable territory/fighting)

Your mistake was how you chose to invade..... I would have prefered a direct confrontation against the corner, siuch as D15]
;B[ed]LB[be:A][df:2][ci:1]C[Coyotebd (After game): I can't remember what I was doing with the peep. I think I was trying to steal the influence towards the top and make white small in the top left.

dont take this the wrong way... but untill your making moves that you remember, you arent making moves you understand. Dont peep unless the reason for it is clear. Doing this has resulted in a couple of bad things for black... 

1)black has two (weak) groups
2)Black has has a small weakness at A
3)black is making white stronger, by attacking his weaknesses and forcing him to patch them up.

What black wanted to do if he was going to ignore the Cut at A (which is very ignorable) Is to play either 1 Or 2. This way he establishes his own security by running for the center, or establishing a base along the side.]
;W[df]C[uh oh.... Look what happened...];B[dg]C[uh oh... look what hapened now.

you threatened to cut white, and then didnt do it when he let you? Why?]
;W[ee];B[dd]C[Coyotebd (After game): The shapes started looking heavy for white.]
;W[cc];B[fd];W[eg];B[dh];W[hd];B[ge];W[he]C[Coyotebd (After game): While I was happy with winning this fight, I'm seeing that it was reducing the strength of q16

Q16 's influence is only slightly weaker, It was actually destroyed much earlyer when you attacked the corner.]
;B[gf];W[eh];B[di];W[fe];B[ef];W[ff];B[fg];W[ef];B[fi];W[fh]
;B[gh];W[gg];B[ei];W[gd];B[fg]C[Coyotebd (After game): I'm happy with that, although g13 will hurt me later.

Why are you afraid of g13? its alone, and against and invincible shape.]
;W[nc];B[qf];W[pc]C[ah, now we see what white wants to do.... The fight before sared him... He wants safety]
;B[od];W[qd];B[qe]C[Coyotebd (After game): I would rather have left white take the top and build strength on the right, but that didn't happen.]
;W[rd];B[oc];W[pb];B[ob];W[nb]LB[oa:B][nd:A]TR[nc]C[Coyotebd (After game): I think because I tried to make him small in the corner, keep him seperate from the top left and build some thickness towards his territory. I imagine that the marked stones defeated my strength towards the left and left me fighting for liberties. Should I have just extended towards A? 

Nope.... There are a few moves here I like... but the top center is very invadable... no need to press in yet... I like... B!!!!]

(;B[pa];W[qa]C[playing in does not work to kill white.]
(;B[oa];W[rb];B[md]LB[of:A]TR[od][pd][qe][qf]C[Coyotebd (After game): Was this too loose? This was my biggest lost. If this group had been stronger white wouldn't have had a huge central territory later.

Not to lose... I dont understand how you let it die.... But in these instances, before  fight you want to get the point A in relation to the triangled stones.]
;W[rf];B[rg];W[nd];B[ne];W[me]C[Coyotebd (After game): How should I have responded. It seems if I fight, I lose and if I am passive I am giving too much for too little.


Crosscut then extend.]
(;B[nf]C[wrong side];W[ld];B[mc];W[mb];B[lc];W[kc];B[le];W[lb]
;B[mf];W[ke];B[md];W[re]CR[fj][fk][el][em][dn][ao][bo][co]LB[do:B]
[np:A][gq:C]TR[lf][lg][lh][li][mj][mk][ml][mm][nn][no][nq][nr]
[ns]SQ[mp][op][pp][rp][sp][hq][iq][jq][kq][lq][gr][gs]C[Coyotebd (After game): So far I thought I was okay. Sure, he'd made his top territory a lot stronger, but my groups looked okay.

Your groups arent doing much... Time to use them... make Big territories, and force white to fight you in them! 

A/B/C are all good places to start.

use that influence before its too late!];B[gq]TR[oe][of][pf]
[qf][lg][mg][ng][qg][kh][rh][ki][kj][kk][jl][jm][in][jn][ho]
[io][gp][hp][fr][fs]C[you chose C, good man];W[qg]C[uh oh.... sacrifice it buddy.]
;B[pg];W[qh];B[ph];W[pi]
(;B[oi];W[pj];B[oj]C[Coyotebd (After game): He's just crawling out and grabbing large chunks of territory. The further down he moves the worse r4 becomes. How should I have reacted?]
;W[pk];B[ol];W[ok];B[nk];W[oh];B[nh]C[Coyotebd (After game): I tried to keep connected to the center.]
;W[pf]C[Coyotebd (After game): Here I see I'm in trouble.];B[pe]
C[Coyotebd (After game): I figure I'll sacrifice q12 in order to save my group at the top]
;W[og];B[ng];W[ni];B[nj];W[mi];B[lh];W[ki];B[lj];W[li];B[kh]
C[Coyotebd (After game): Ugh, The definition of stupidity is making bad moves you know are bad but thinking that they'll turn out better.]
;W[jh]C[Coyotebd (After game): If I could have connected to my group on the left I would have been better. How could I have?]
;B[jg];W[ih];B[hg]C[Coyotebd (After game): Here I thought I was]
;W[kg]
(;B[ji]LB[kf:A][ji:A]C[Coyotebd (After game): Would A have been better?

well play it out.];W[lg];B[mh];W[jj];B[ii];W[hi];B[kf];W[ig]
;B[jf];W[if];B[mg];W[je];B[lf]C[wh did you do that?

count your eyes.];W[nl];B[kj];W[ij];B[mj];W[ji]C[Coyotebd (After game): White just won't let me live. Good play by White here wins the game IMO.

yup.... Now youve got no influence (which you spent all game building... and no territory to boot.]
;B[ml];W[nm];B[mm];W[mn];B[ln];W[nn];B[km];W[po];B[oq];W[pp]

(;B[qq];W[pq];B[pr];W[mq];B[qo];W[qn];B[pn];W[pm];B[rn]C[Coyotebd (After game): Was trying for territory on the right bottom.

Completely un-necissary... you had the corner big befor.... and now no.]
;W[qm];B[rm];W[rl];B[sl]C[Coyotebd (After game): Here's a mistake I used not to make.]
;W[sk];B[rk]C[Coyotebd (After game): Someone hit me.];W[sm]
;B[sn]C[Coyotebd (After game): !! Dang, I used to be able to spot that shape. Managed to save it, but it was costly.]
;W[ro];B[sl];W[rp]
(;B[rq]SQ[ql]C[Why this?
 he could not have lived in that corner if you had taken Square.]
;W[sm];B[qc];W[qb];B[sl];W[qr];B[rr];W[sm];B[oo];W[on];B[sl]
;W[or];B[qs];W[sm];B[op];W[pn];B[sl];W[nr];B[ql]C[Coyotebd (After game): I figure I had my territory if I won the Ko, so to threaten my territory as a threat was nothing.]
;W[qk];B[sj];W[iq];B[co]C[Nice pincer..... But the game is already over... No point in fighting him here.]
;W[do];B[cn]TR[dn]C[again.... I dont like this shape... play triangle instead... let him fight you if he wants.]
;W[gp]C[Coyotebd (After game): Trying for territory on the side. Needed to connect to my stones in the center.]
;B[cq];W[kk];B[im];W[mk];B[dp];W[ep];B[cp];W[fq];B[dr];W[er]
;B[eq]C[Coyotebd (After game): Another Ko fight.];W[dn];B[eo]
;W[dq];B[lk];W[ll];B[eq];W[fp];B[fr];W[dq];B[db];W[ec];B[eq]
;W[gr];B[es];W[dm];B[cm];W[dk];B[ck];W[cl];B[bl];W[dl];B[cj]
C[Coyotebd (After game): While I was happy for territory, I've become even more cut off from my stones in the center.

yup... pretty big white.

Nice use of ko though.];W[fc];B[hr];W[hq];B[gs];W[ir];B[gq]
;W[gk];B[fk];W[fl];B[gl];W[fj];B[gj];W[ek];B[hk];W[fk];B[hj]
;W[gi];B[hh];W[ii];B[ik];W[hl]C[Coyotebd (After game): I would have resigned here, but wondered if I had space to live small inside. If there was, I'd love to see it.]
;B[is];W[jr];B[js];W[ks];B[hs];W[kq];B[os];W[ns];B[ps];W[ri]
;B[kl];W[mk];B[lm];W[pl];B[lp]C[Coyotebd (After game): Here I was trying to make life in the center.]
;W[kp]C[Coyotebd (After game): And I failed];B[rl];W[rj];B[si]
;W[sh]C[Coyotebd (After game): I thought this was a bigger threat, but it wasn't.]

(;B[so]LB[sk:B][so:A];W[be];B[bf];W[ad];B[af];W[sk];B[sj];W[gr]
;B[fs];W[ae];B[er];W[gq]C[Coyotebd [?\]: I'm going to resign. You did very well in the center, I cannot save my groups there and they will all die. Good game.
meme [?\]: thx
Coyotebd [?\]: Do you have a rank outside KGS? I haven't played enough to get a rank anywhere, and no clubs to play locally.
Coyotebd (After game): I thought this was a bigger threat, but it wasn't.I resigned here, not earlier, because I thought I'd practice the end game a bit.]
)
(;B[sk]LB[sk:B][so:A]
(;W[sp]LB[so:B][sp:A];B[sq]C[Would have been fine.])
(;W[so]LB[so:B][sp:A];B[sp])))
(;B[ql]
(;W[rq];B[qr];W[rr];B[rs];W[sr];B[nr];W[mr];B[oo];W[on];B[op]
;W[pn];B[so];W[nq];B[qs];W[np];B[ss];W[no];B[or];W[ns];B[sq]
;W[os];B[sp]C[tada....])
(;W[sj];B[rj];W[si];B[ri];W[sh];B[rh];W[sg];B[sf])))
(;B[pq]C[just play here.]))
(;B[kf];W[lg];B[je];W[ig];B[jf];W[if];B[mh];W[na];B[oe]C[looks dead to me.]
;W[kd];B[ie];W[hf];B[id];W[ic];B[jc];W[jd];B[jb];W[ib];B[kb]
;W[lc];B[ia];W[ja];B[ka];W[ha];B[ja];W[la]))
(;B[qi];W[rh];B[ri];W[sg];B[pj];W[oi];B[qk]C[how about this? If your looking for a fight that is...]
;W[oj];B[ok];W[pf];B[pe];W[og];B[of];W[oh];B[kf];W[pf];B[je]
;W[kd];B[li];W[lg];B[lf];W[kg];B[jg];W[na];B[pg];W[ph];B[pf]
;W[jh];B[kh];W[mh];B[lh];W[mg];B[ih];W[ji];B[hf];W[if];B[jf]
;W[ig];B[ie];W[hg];B[hh]C[there ya go.]))
(;B[ld];W[nf];B[oe];W[mc];B[mf];W[le];B[ng];W[of];B[og];W[pf]
;B[pg]TR[ld][md]SQ[hf][lf][lg][mg][hh][mh][nh][oh][ph][qh][rh]
[gi][bj][cj][dj][ej][fj][po][pp][pq]C[Big square influence, and white has to play m17 now.]

(;W[kd];B[lc];W[lb];B[kc];W[jc];B[kb];W[ka];B[jb];W[ib];B[ja]
;W[ia])
(;AB[bb])
(;W[hg];B[na];W[lc];B[kd])
(;W[na];B[lc])
(;W[lc];B[kd];W[kc];B[jc]
(;W[ke];B[jd])
(;W[jd];B[ke];W[ic];B[jb];W[ib];B[kb];W[lb];B[la];W[ka];B[ja]
;W[ia];B[ka];W[ma];B[lf]))))
(;B[qb];W[oa];B[qc];W[pa];B[ra];W[na];B[rc];W[sc];B[rb]))
(;B[oa];W[rb];B[pa];W[qa]TR[ra][qc]C[sente... and ko threats for later!!!!]
))
(;B[oq]CR[pj]C[if black makes this shimari, then white hs to hussle.... circle is the key point now.

Both of blacks corners are shaped in such a way that they 'want' To extend in the direction of circle.]

(;W[pj]C[so by playing here, white cuts blacks potential into two smaller under developed sides, and black is free to chose the next move.]
)
(;W[co]
(;B[pi]C[missclick on my part. sorry.])
(;B[pj]TR[fa][pa][db][eb][pb][cc][pc][ad][bd][pe][pf][pg][ph]
[pi][pk][al][pl][bm][pm][cn][on][oo][dp][op][eq][fr][or][gs]
[os]C[if white decides however, to make a shimari of his own, black occupys the key point for his mega moyo. 

Triangles outline the 'potential' territory... all of which can be invaded at this point, but doing so does solidify black greatly.]
))))
