(;FF[4]GM[1]SZ[19]ST[2]CA[UTF-8]AP[SGFC:1.15]

PB[gcc]
BR[16k]
HA[3]
PW[GNU Go]
KM[0.5]
DT[2005-11-30]
RE[B+0.50]
RU[Japanese]

AB[dd][pd][dp]C[-- Hello, my name is Sven and I´m about 9 kyu at Dragon Go Server and around 12 kyu at KGS.
My comments are all preceded by "--" and I hope they will provide a little bit of help to you.

In summary, you played and won a good game without major reading mistakes (so far as I can see). What made you lose your handicap bonus but for 0.5 points was the strategical aspect of the game: Most of your moves in the opening and early middle game aimed at gaining and defending territory and ended in gote. Instead you should look for forcing moves which prevent your opponent from getting sente and build larger moyos (influence) for yourself. 
As concerns the endgame I´ve noticed only minor mistakes (well, this can add up, of course) and there were virtually no changes in the result from move 170 on.


gcc:
  I was white in this game, while black
  was gnugo 3.6, playing at level 10.

  Looking at the game afterwards, I see
  two areas where I probably need the
  most help:

  1. Opening - I've heard that each move
  in the opening is worth about
  15 points (2xkomi), and although black
  comes out slightly ahead, you would
  hardly believe from the game position at
  move 24, that I started with a 3 stone
  advantage!

  2. Endgame - nothing very special
  happened in the middle game, and black
  maintined a lead of about 20 points until
  the endgame. The result was jigo.
  I lost 8 points through a simple mistake
  (failing to respond to W91),
  but I hope you can tell me where
  the rest of the points vanished.

  Thanks in advance for your comments!];W[oq]
(;B[qo]C[-- difficult to say something about such early a move, but I think you should not leave the corner to White here. Better at R4 I think..]

(;W[fd];B[df];W[dc];B[cc];W[ec];B[cb];W[jc];B[mc];W[dn]
(;B[fp]TR[dn]C[-- Here you just repeat the sequence from the upper left corner - this is too defensive. Attack the marked white stone while expanding you left side influence!]
;W[cp];B[cq];W[co];B[bq];W[cj]
(;B[jq]LB[lq:A][mq:B]C[-- this extension is not wrong, but it leaves enough room for  White to live at the bottom (A). So either pincer at B instead]

(;W[qf]LB[qh:A]
(;B[qd]LB[qh:A]C[-- again too keen for immediate territory in the corner I think. I would rather attack White´s weak stone an build influence on the right side.]
;W[qi]TR[qo]C[-- now it is Black, that is weakened!];B[qq]LB[lq:A]
C[-- a thank-you-move for White, you wanted to extend to A sooner or later anyway...]
;W[lq]
(;B[ql]LB[kd:C][ch:A][oo:B]C[-- a  bit of territory, ok ... but I think, better protect the upper left and attack there, or think about the center..]
;W[jr];B[ir];W[kr];B[jp];W[is];B[hr];W[dl];B[of];W[db];B[op]
;W[np]
(;B[oo]LB[kd:B][ch:C][pj:A][fn:D]C[-- small territory in gote here... there are still A to D]
;W[lb];B[mb];W[qk];B[pk];W[rk];B[rl];W[pj];B[ok];W[ni];B[no]
;W[mp];B[mo]LB[lo:A]C[-- White can still play A....]
(;W[fn]C[-- now White got this large point!

-- HERE is where you lost most of your points in the transition from opening to midgame.]
;B[oh];W[mj]
(;B[mk];W[hn]TR[ei][fi][gi][hi][ii][ji][ki][ej][fj][gj][hj]
[ij][jj][kj][ek][fk][gk][hk][ik][el][fl][gl][hl][il][em][fm]
[gm][hm]C[-- again large by White!!! Do not think so much of defending you own territory, but of the influence you oppenent gets by playing here.]
;B[jn];W[kc]LB[ke:B][bg:C][eh:A]C[-- Veeery bad move by White... should have been around A, B or C]
;B[mg]LB[ei:A]C[-- territory-building... better destroy White´s  huge left side influence]
;W[bp];B[bi];W[bj];B[ci];W[di];B[dh];W[ch]
(;B[bh];W[cg];B[bg];W[dg];B[cf];W[eh];B[eg]C[-- only 6 points in gote....]
;W[il];B[dh];W[fh];B[lj];W[ij];B[mi];W[nj];B[kk];W[kl];B[ll]
;W[hs]C[-- here GnuGo start playing endgame moves which is why you should win in the end. There is still center territory to be claimed.]
;B[gs];W[pq];B[qr];W[js];B[gq];W[he];B[ns];W[mr];B[nr];W[nq]

(;B[jh]C[gcc:
  Oops! Didn't read it out.
  Should have played Q2.
  Whilte punishes later, playing P2
  with move 97.

-- nevertheless, your move is good here. The two stones at the bottom are not important, and White has to capture them in gote]

(;W[kf];B[kg];W[re];B[rd];W[or]
(;B[os];W[ps];B[qs];W[pr];B[hg];W[jf]
(;B[lc]LB[ei:A]C[-- Here you could have destroyed White´s center territory at A]
;W[km];B[lm];W[jk];B[jj];W[hh];B[ii];W[hi];B[jm];W[jl];B[ho]
;W[jg];B[kh];W[ph];B[oi];W[oj];B[pg];W[qg];B[aj];W[ak];B[ai]
;W[bl];B[sk];W[sj];B[sl];W[ri]
(;B[la]C[-- just a misclick, I hope ?      ;-)];W[gg];B[kb]
;W[jb];B[ja];W[ib];B[ia];W[ha];B[ka];W[kn]C[-- nonsense by White here....]
;B[ko];W[lf];B[lg];W[sd];B[sc];W[se];B[rc];W[ln];B[mn];W[nh]
;B[ng];W[ca];B[ba];W[da];B[bb];W[aq];B[ar];W[ap];B[bs];W[go]
;B[gp];W[io];B[jo];W[hp]
(;B[iq];W[ih]
(;B[ji]C[-- so few points...better to something at the top...]
;W[pp];B[qp];W[ne];B[oe];W[mh];B[li];W[me];B[nd];W[ff];B[ld]
;W[nk];B[nl];W[hk];B[kd];W[jd];B[mf];W[le];B[qe];W[sg];B[in]
;W[ee];B[de];W[eo];B[ep];W[pf];B[og];W[pi];B[ip];W[ho];B[im]
;W[hm]
(;B[lo]C[-- ??? 
no point here...];W[ke];B[do];W[fo]
(;B[fg]C[-- again no point for Black here, and in gote!];W[ef]
;B[dg];W[hb]C[-- an unnecessary gift of White to Black... thanks  :-)]
;B[ed];W[gf]
(;B[po];W[lp];B[kq]C[-- no point here];W[lh]C[-- here not either ... I´m not sure - do you have to fill in the dame for GnuGo?]
;B[pe];W[md];B[nc]C[-- correct, this could have been a disastrous ko]
;W[hq];B[kp];W[nf];B[tt];W[tt]TW[ea][fa][ga][eb][fb][gb][fc]
[gc][hc][ic][gd][hd][id][fe][ge][ie][je][hf][if][rf][sf][hg]
[ig][rg][gh][qh][rh][sh][ei][fi][gi][si][dj][ej][fj][gj][hj]
[qj][rj][bk][ck][dk][ek][fk][gk][ik][al][cl][el][fl][gl][hl]
[am][bm][cm][dm][em][fm][gm][an][bn][cn][en][gn][ao][bo][mq]
[lr][nr][ks][ls][ms][ns][os]TB[aa][ma][na][oa][pa][qa][ra][sa]
[ab][lb][nb][ob][pb][qb][rb][sb][ac][bc][oc][pc][qc][ad][bd]
[cd][od][ae][be][ce][af][bf][ag][cg][ah][ch][ki][kj][lk][ml]
[ol][pl][mm][nm][om][pm][qm][rm][sm][nn][on][pn][qn][rn][sn]
[ro][so][rp][sp][dq][eq][fq][rq][sq][br][cr][dr][er][fr][gr]
[rr][sr][as][cs][ds][es][fs][rs][ss]C[Black wins by 0.5 points.]
)
(;B[lp]C[-- slightly better - Black can make one additional point, if he does not need sente]
;W[po];B[pn];W[mq];B[kq]))
(;B[ef]LB[ed:A][fe:B][po:C]C[-- here at least forcing White to play at A or B...

-- better, however, stopping White at C]))
(;B[lp]LB[po:A][kp:C][mq:B]C[-- now White A becomes gote and White has play at B, and there might be one point for Black at C later.]
))
(;B[hb];W[ga];B[kd];W[jd];B[mf];W[ld];B[md];W[le])
(;B[qe])
(;B[pp]))
(;B[hq]))
(;B[kb];W[jb];B[la]))
(;B[ei]
(;W[fi];B[dj];W[ej];B[di];W[dk];B[fj];W[ek];B[gj];W[hi];B[gi]
;W[gh];B[hh];W[gf])
(;W[dj];B[fi];W[fg];B[gi])))
(;B[ps]C[-- should have been this way...];W[os]))
(;W[pr];B[ps];W[os];B[qs];W[ms]))
(;B[pr];W[kh];B[lp];W[ls];B[kq]))
(;B[ei]C[-- better here];W[dj];B[cg];W[bh];B[bg];W[ai];B[eh]
))
(;B[hn];W[ml];B[hl]TR[ml]C[-- White may destroy some black territory around the marked stone, but Black secures his access to the center.]
))
(;W[lo];B[ln];W[ko];B[jn];W[kn];B[km];W[lm];B[mn];W[jm];B[kl]
;W[jo];B[in];W[io];B[hp];W[hn];B[im];W[hm];B[il];W[ho]))
(;B[kd];W[jd];B[ke])
(;B[pj];W[pi];B[oi];W[oh];B[ni]
(;W[og];B[pf];W[qj];B[pk])
(;W[nh];B[pg];W[ph];B[qg]))
(;B[fn])
(;B[ch]))
(;B[ch]LB[cl:A]C[-- threatening Black at A])
(;B[oo];W[lo];B[qk])
(;B[kd];W[jd];B[ke]))
(;B[qi];W[qd];B[qc];W[rd];B[pe]
(;W[pf];B[pl]TR[oq]C[-- now the White stone at the bottom is even weaker than before]
)
(;W[rc];B[qb];W[pf];B[pl])))
(;W[lq]))
(;B[mq]
(;W[oo];B[qq];W[mp];B[lp];W[mo];B[lo])
(;W[qq];B[pl];W[kq];B[mo])))
(;B[cj];W[fn];B[fp]C[-- now White´s two stones still need a base, while Black has closed his upper territory and builded influence at the bottom.]
))
(;W[qp];B[pp];W[pq];B[rp];W[qq];B[pn]))
(;B[qp];W[qq];B[rq]
(;W[pp];B[qo])
(;W[qr];B[pp])))
