(;FF[4]GM[1]SZ[19]ST[2]CA[UTF-8]AP[SGFC:1.15]

PB[Hakuin]
BR[18k]
PW[Yana]
WR[18k]
KM[0.5]
RE[B+0.50]
RU[Japanese]

;B[pd];W[dd];B[pp];W[dp];B[pj];W[nq];B[lq];W[pr];B[qq];W[no]
;B[iq]C[This is a bad exchange for white...

I'm barely qualified to comment on it however.  Read here: 

http://senseis.xmp.net/?44PointLowApproachLowExtensionSlidePincer]
;W[pn];B[qn];W[qm];B[rn];W[po];B[qo];W[op];B[ql];W[pm];B[rm]
;W[pq];B[qp]C[White seems to have made this work acceptably well though.  Black is contained and white has some outside thickness.]
;W[qi];B[qg];W[pi];B[qj];W[oj];B[ri];W[rj];B[rk]C[I think this was a mistake. I should have answered at S12.

I'm not sure, I think the mistake was at r11 -- it was too deep in my opinion.]
;W[rh];B[sj];W[qh];B[rg];W[sh]
(;B[oi]C[Stupid play. I guess I was in a hurry to try to split his invading group, but this is just wrong.]
;W[pg]
(;B[qf]C[Maybe P12 to keep in line with the intention at P11?


Don't make an empty triangle if you can help it.  Yucky!  See the variation for ways to think bigger.]
;W[pf]
(;B[pe];W[oh];B[ni];W[nh];B[mi];W[oe];B[md];W[pb];B[oc]TR[od]
C[I'm not sure this is the best responce to his invasion at Q18.

It's as good as anything really.  The real problem here is the cutting point at r15 -- which is the result of the empty trinagle from earlier.  Q18 is a standard probe.  It's frustrating to have that stone there.  Personally, I think I would have played p16.  White might live in there, on the other hand, you get out very securely and threaten to kill that poor white group you're surrounding.  White is more likely to answer at the dying group and ignore q18 for now.]
;W[od];B[pc];W[nc];B[nd];W[ob];B[mc];W[qe];B[ne]C[Maybe I should have played O18 instead?


O18 is accpetable.  Go is this simple: Keep white divided, stay connected, don't die.  OK, it's a lot more complicated than that... but those are the big three in my opinion.]
;W[nb];B[of];W[rf];B[re]C[Black should not force white to capture stones.  Black should save those for aji later.  Play at n18 or r18 or r16 instead.]
;W[sg];B[qd];W[qc]
(;B[rd];W[rc];B[mh];W[ng];B[mg];W[nf];B[mf];W[og];B[qf]C[Useless move.]
;W[qg];B[oe]C[Useless move #2];W[sc];B[fc];W[le];B[ld];W[hc]
;B[fe];W[he];B[fg];W[ke]C[This move right here is why m16 should have been n15 -- less aji.  Now black has to worry a lot more about these white stones.  Had black connected, the white stones would be totally pinned in and they'd have a very hard time living while black continues with f11, f9, etc -- crushing the lefthand side.]
;B[me];W[kd];B[df]SQ[fe][fg]C[This shape is known as the dog's face.  Try not to make it intentionally.  

This move is ok because it puts so much pressure on d16, but there may have been a better move.]
;W[jc];B[cc];W[cd];B[dc];W[ed];B[fd];W[ec]
(;B[bd];W[eb]C[White very efficiently pokes his tail out here.  He may not live, but this should frustrate black.]
;B[fb];W[be];B[bc];W[cf];B[cg];W[bg];B[de];W[ce];B[ch]
(;W[bh]TR[bd][bc][cc][dc]C[dead.];B[db];W[da];B[ca];W[ea];B[bb]
C[lucky.];W[ci];B[di];W[ee];B[ef];W[gf];B[ff];W[dh];B[dg];W[dj]
;B[ei];W[cj];B[fq];W[gq];B[gp];W[fp];B[gr];W[go];B[hp];W[eq]
;B[fr];W[eo];B[ln];W[mm];B[lm];W[ej];B[fi];W[fj];B[gj];W[hh]
;B[gh];W[gg];B[hi];W[ih];B[kg];W[jg];B[jf]C[Wrong approach. K11 instead?

To be honest, I'm not sure what you're after.  Are you trying to kill white?  I don't think that's possible.  It is very difficult to kill things.  You can reduce white's position by _threatening_ to kill him.  But you should so so strongly.  Say a bamboo joint at l14 and some yose moves much later on...

g8 might be a lot bigger here.  I'm guessing, rather than actually counting, but that white moyo in the lower left is getting pretty big.  Black has a 5 point group in the upper left, a two point group in the upper right, 15 points or so in the lower center and 20 points (maybe) in the lower right.

g8 lets you maybe carve into it a little.  Or at least threaten too.  It may be too late soon...]
;W[kf];B[jh];W[ig];B[ii]C[Should have been K11 I think...

I'm not sure it makes a great deal of difference.];W[kh];B[ji]
;W[lg];B[ml];W[nm];B[ok];W[ho];B[io];W[gk];B[hk];W[gl];B[hl]
;W[in];B[hn];W[jo];B[ip];W[gn];B[hm];W[gm];B[mn];W[nn];B[mp]
;W[qr];B[rr];W[mr];B[lr];W[mq];B[mo];W[np];B[nl];W[er];B[hb]
;W[ib];B[ha];W[ia];B[gc];W[kb];B[hd];W[ic];B[id];W[jd];B[ie]
;W[if];B[ge];W[hf];B[lc];W[ij];B[ki];W[hj];B[gi];W[jj];B[jl]
TR[hm][hl][hk]LB[io:A][jn:B]C[This is actually an unsuccessful escape for "three in a cradle" when white is connected at A or B.  I suspect black is familiar with it... but it's difficult to tell.]
;W[il]C[White certainly is ....];B[im]C[black laughs a little ...]
;W[ls];B[ks];W[ms];B[kr];W[rs];B[sr];W[pl];B[pk];W[lf];B[lh]
;W[kg];B[lb];W[je];B[gd];W[fs];B[gs];W[es];B[sf];W[se];B[sd]
;W[rb]C[Why in the world not T14???];B[sf];W[jm];B[jn];W[se]
;B[fa]C[I don't think I had any real threats... did I?];W[sf]
;B[ae];W[bf];B[af];W[bi];B[ag];W[ah];B[ad];W[eh];B[fh]C[Useless move?

Yeah, it's best to say thanks and tenuki on that one.];W[si]
;B[rj];W[ol];B[ka];W[jb];B[qe];W[mb];B[ma];W[na];B[la];W[lj]
;B[li];W[qs];B[rq];W[ll];B[nj];W[kl];B[km];W[tt];B[tt]TW[oa]
[pa][qa][ra][sa][qb][sb][jf][hg][rg][ph][ai][aj][bj][ak][bk]
[ck][dk][ek][fk][al][bl][cl][dl][el][fl][am][bm][cm][dm][em]
[fm][om][an][bn][cn][dn][en][fn][on][ao][bo][co][do][fo][oo]
[ap][bp][cp][ep][aq][bq][cq][dq][oq][ar][br][cr][dr][nr][or]
[as][bs][cs][ds][ns][os][ps]TB[aa][ba][ga][ab][cb][gb][ac][od]
[eg][dh][eh][hj][ij][jj][kj][lj][mj][oj][ik][jk][kk][lk][mk]
[nk][qk][sk][il][kl][ll][rl][sl][jm][sm][in][kn][sn][jo][ko]
[lo][ro][so][jp][kp][lp][rp][sp][gq][hq][jq][kq][sq][hr][ir]
[jr][hs][is][js]C[I don't know wheter White was trying to tie. Is that the case?  

Unlikely.  You must play chess?  In Go, a tie is impossible because of komi.  Also, at our level -- i.e., not a pro -- it's pretty impossible to actually force a 0.5 point win.  But it does happen coincidentally from time to time.  Most games at the pro level are won/lost in the first 20 moves or the last 20 moves.  The middle game is tricky, but fairly well understood.  The end game is understood but impossibly difficult.  The beginning is ethereal and confusing -- not even the pros understand it I suspect... but they understand it much better than we do.

If not, I would greatly appreciate to hear how could both sides have played better.

The secret is to think bigger.  Don't get involved in local conflicts if you can find a fuseki that's worth 20 points.  Who cares if you lose 10 points in a corner if you can get 20 somewhere else.

Thank you very much,

NP.  Sorry it took me so long to get to this review.

-Paul])
(;W[ca];B[db];W[da];B[bh];W[af];B[fa];W[ea];B[bb];W[ba]C[White has 5, black has 4 and an eye.  White wins the capture race.]
))
(;B[eb];W[cf];B[cg];W[bf];B[dg];W[bg];B[bh];W[bc];B[bb];W[cb]
;B[db];W[bd]C[I think hits is a lot better for black.  White isn't totally alive and black is now facing that white d4 hoshi.  In fact, d4's only purpose is the outward influence that is now pointed at the j3/m3 formation and the new wall in the upper left.]
))
(;B[rc]C[tiger's mouth];W[qb];B[rb];W[mb];B[lb];W[kb];B[la]
;W[lc];B[kc];W[ld];B[kd];W[le];B[jb]C[If I were black, I'd be happy here...  "On the second line, 6 die and 8 live."]
))
(;B[qe]))
(;B[qe];W[oh];B[ni];W[mg];B[nk];W[dj];B[jd]))
(;B[og];W[oh];B[jd]C[I'm not sure I'd worry overmuch about white there... I'd try to think bigger.   Moyo building is difficult though.]
))
