(;FF[4]GM[1]SZ[19]ST[2]CA[UTF-8]AP[SGFC:1.15]

PB[hegeise]
BR[25k]
HA[4]
PW[ttkng]
WR[21k]
KM[0]
DT[2006-01-01]
PC[world.cyberoro.com]
RE[B+8.00]
RU[Japanese]

AB[dd][pd][dp][pp]C[Hi

I will try to emphasize the important moves and, as much as possible, to depict some alternatives. Also, I will focus on Black moves, but on White's too when it is about something relevant.
My comments will start with R.

I hope you'll enjoy it
Radu

Hi,
This game was played by my with a feeling that he is much better than I, but ,I think, he allowed me to do too much influence and moyo.
I would be greatful for comments of the direction of my play in fuseki mainly and about my responds in center, but also any opinion which moves are good or bad too.
Big  thanks for review.
Paul];W[nc];B[qf];W[pb]
(;B[qc]C[R: it is not required, as r14 is in place.
Having q14 instead would require defensive r17.
Although r17 is not a mistake, the sente could be used better.]
;W[kc];B[hc]LB[gc:C][qj:B][jp:A]C[R: too far, g17 looks better. Also, k4 is more important.]
;W[qn]
(;B[nq]C[R: Hmmmm, it is a matter of taste. But B already has power in right up corner. Use it!]
;W[qh]C[R: W sees that!];B[qj]C[R: good!];W[pj]LB[qb:A][of:B]
C[I didn't know what I should do here. Maybe Q12 would be better?
R: this capping move is too close. Hane!
Q12 would be the same mistake as W: too close, forcing opp to reinforce. B corner group has the miai of r18 / p14]

(;B[qi]C[R: Don't play in contact with the opp stones, this is a general saying. R12 is already blocking you.]
;W[pi];B[rh]C[R: good.];W[ph];B[ql]C[R: r11-10 looks bad because r12. r8 doesn't help much, this leaves potential bad aji behind.]
;W[qk]C[R: W sees again. Now the r11 moves is pulling B back.]
;B[rk];W[pk];B[pl];W[rl]C[Again here, what would be the best for black?
S10, T9 or S13?
R: Hard to say, depends in the further plans. At a first sight, s10, but this has also drawbacks. Because a second B group (q8) is weak. B started this exit, should continue it: p8.]

(;B[rm];W[rj];B[sl]CR[on]C[But overall this position isn't bad for black, I think.
R: B still needs a capping move for r6.];W[ri]
(;B[qg]C[R: correct defense is s13. B needs space for eyes.]
;W[rg];B[rf];W[sh];B[og]C[R: choosing between the miai points, I would go for r18. It also threats W group. Moreover, the correct escape move is p14, or even o15]
;W[pg];B[pf];W[of];B[oe];W[nf];B[ne]C[R: now, r18 is vital, as the center exit is not obvious.]
;W[me];B[ng]C[R: wrong. W is alive on wright and up side. The B stones are in a very bad situation. Don't make them more valuable than they deserve it.]
;W[mf];B[jp]C[R: r18!];W[nd]C[Is it bad move to leave the corner? Maybe not yet?
R: this was an invating move to live in corner. Also, this move is wortheless, you couldn't escape to center that way.]
;B[ch];W[cc]C[R: Hmmmm, again W invites B to build strong position. Wrong move, f16 would worth more.]
;B[cd];W[dc];B[ec];W[eb];B[fc];W[fb];B[gb]C[R: Good sequence. I would play g17 instead, but it is ok.]
;W[bd];B[be];W[bc];B[cf]C[R: W has e16 cutting pont. Because you didn't play g17, you should connect instead making eye shapes (c15).
The W corner invasion did what actually B wanted: now the B is having so much influence that W has to start worry.]
;W[ba]C[R: hmmmm, what for?];B[da]C[R: W is living!];W[db]
(;B[cl]C[R: again, to large move. See alternatives. r18?];W[qb]
C[R: oooops ;)]
(;B[oc]C[R: Let's see if B can survive. I think it is possible, but not with this move.
Anyway, the situation is so complicated because of loosing the miai: exit to center or take the corner.]

(;W[ob]C[R: hope for B.]
(;B[fq]C[Now, I dicided to leave top-right corner, because I estimated, that my position and influence in bottom and left side are quite big.
And if I would defend top-right group, I might lose my positon there.
Can the top-right group be defend with one move? ( S16? )
R: usually, you don't let a such group to die. Esp. when there are chances. The situation is very complicated, but it deserves a try.
OTOH, the extension is correct, but you also could consider g3.]
;W[re];B[dn]CR[kh]C[R: overcrowded. Jump to center, possible using p13 as aji]

(;W[od]C[R: no need anymore!]
(;B[ho]C[R: too small! W consummed 2 moves to kill, so B had 3 opportunities! I would say that was deadly for W, even B didn't obtain the maximum]
;W[pe]C[R: come on!!! Is the second move of W which has no meaning...]
;B[mo]LB[if:A][kh:D][lk:C][ml:B]C[R: far to small. It is very hard to pick the right center move. I would go for j14, n7 or m9.]
;W[ee]C[R: aim is e16. It is used as aji... W spotted well.]
;B[ef];W[fe];B[ff];W[ge];B[gf];W[hf];B[hg]C[R: h15 instead?]
;W[if]C[If I would play at E16, my F17 group was safe. But it gave him a chance to invade to the center, which would be very hard to stop.
R: For center it is neded 4 walls. Even W makes 2 (up and right), B has the other 2. That means the influences are balanced. Moreover, B has stronger position.  But on upper side there are over 30 points.
Don't count to much on center. They say: in center you have always fewer points that you counted on.]
;B[ig];W[ed];B[de];W[jg]C[R: Should protect h15 cutting point!]
;B[jh];W[kg];B[kh];W[gj]C[I didn't know how to respond here.
R: you are now quite ahead, but still you have some aji there: g13, j12... These have to be protected.
W is trying to recover, B is needing only to keep W in a sand box.]
;B[ij]C[I dicided to cut white off from possibility of expantion to right.
R: correct, and protect j12.];W[ii];B[jj]C[R: Hmm, maybe h11 would work better. B has to quickly cover the ajis. Even allowing j11 escape, it is not so bad.]
;W[hi];B[gh]C[R: good!];W[ji];B[ki];W[kj];B[kk];W[lj]
(;B[lk]C[R: k10 are looking ugly, but j12 is vital];W[mj]C[I knew that if I want to save L12 group, I had to connect at J12, but I didn't know which moment is right.
If I played now at J12, I might gain more, because white wouldn't be able make two eyes round F9 and would be cut off from rest.
Is it right?
R: in fact, W already missed j12 once!];B[mk];W[ih];B[he]C[White had connected but I found, I think, good respond. I've invaded beeply in white's moyo.]
;W[hd];B[ie];W[id];B[jf]C[R: W answered correctly. And W did more damage: B took around 15 points, W 40.]
;W[gd];B[kf];W[lg];B[jd];W[ic];B[jc];W[ib];B[kd]C[R: small move, but keeps the sente. Good.]
;W[lc];B[ld]LB[ej:C][nj:B][hl:A]C[R: this doesn't threat enough!]
;W[nk]C[R: I think a sacrifice would work here.]
(;B[nl];W[ml];B[mm];W[ll];B[kl];W[lm];B[ln];W[jk]
(;B[ik]C[R: The other direction works better.];W[jl];B[km];W[il]

(;B[ok]C[R: o10 instead];W[nj];B[oj];W[oi];B[ol]C[R: not needed, worths 3 points only]
;W[hk];B[fl]C[Would move at G8 be better?
I was afraid of playing to close to him.
R: good.];W[gm];B[fn];W[gn];B[go];W[fm];B[em];W[el];B[fk];W[fj]
;B[ek];W[ej];B[gl];W[hl]CR[hm]C[R: Oh, no. The k8 wasn't threaten.]
;B[hm]C[R: good.];W[im];B[hn]C[R: good, W mistaken.];W[jn];B[ko]
;W[dj];B[cj]C[R: good];W[ci];B[bi]C[R: good];W[di];B[ck];W[dg]
;B[dh]C[R: be careful for atari at d14];W[eg];B[eh];W[df];B[ce]
;W[bg];B[cg]C[R: good];W[bh];B[bj];W[ae];B[af];W[fh];B[fg];W[qq]
C[R: 3x3 invasion... Let W lives, r6 is the aji.];B[qp];W[rp]
;B[ro];W[rq]C[I didn't see here the possibility of killing S3 group, when I was playing. I think, that the stone at R6 might stop me.
But when he invaded in last san-san point I didn't give him any chances.
R: even without r6 would had chances for success.];B[rn];W[or]
;B[pq];W[pr];B[oq];W[nr];B[mr];W[ms];B[lr];W[ls];B[ks];W[ns]
;B[kr];W[cq]C[R: let's see... d6 is on forth line.];B[cp]C[R: good.]
;W[bp]C[R: There are other ways to play too. Sometimes it works, and W counts on it.]
;B[bo];W[bq];B[dr]C[R: good];W[dq];B[er];W[ep];B[eq];W[co];B[do]
;W[cn];B[bn];W[cr]
(;B[ar]C[R: not required. W has to take b1 and a2];W[ds];B[es]
;W[cs];B[ap]C[R: not required];W[ad];B[bf];W[fi];B[gi];W[hj]
;B[in];W[jm];B[sj];W[jo];B[io];W[jb];B[md];W[mc];B[le];W[so]
;B[sn];W[sp];B[lf];W[ip];B[iq];W[dk];B[dl];W[hh];B[gg];W[gq]
;B[fp];W[hp];B[hq];W[qo];B[on];W[mq];B[mp];W[kp];B[jq];W[si]
;B[sk];W[tt];B[mg]C[Could stones round L13 be killed by black somehow? I don't see any possibility.

R: neither do I.];W[lh];B[tt];W[tt]TW[aa][ca][da][ea][fa][ga]
[ha][ia][ja][ka][la][ma][na][oa][pa][qa][ra][sa][ab][bb][cb]
[gb][hb][kb][lb][mb][nb][rb][sb][ac][ec][fc][gc][hc][oc][pc]
[qc][rc][sc][fd][pd][qd][rd][sd][ne][oe][qe][se][pf][qf][rf]
[sf][mg][ng][og][qg][sg][jh][kh][mh][nh][oh][rh][ki][li][mi]
[ni][qi][ij][jj][qj][ik][sq][qr][rr][sr][os][ps][qs][rs][ss]
TB[je][ke][df][hf][if][ag][bg][dg][eg][ah][bh][ai][aj][ak][bk]
[al][bl][el][ll][ml][rl][am][bm][cm][dm][fm][gm][lm][nm][om]
[pm][qm][sm][an][cn][en][gn][mn][nn][pn][qn][ao][co][eo][fo]
[lo][no][oo][po][qo][bp][ep][gp][hp][ip][kp][lp][np][op][aq]
[bq][cq][dq][gq][kq][lq][mq][br][cr][fr][gr][hr][ir][jr][as]
[bs][cs][ds][fs][gs][hs][is][js]C[Black wins by 8,0 points.
R: Overall, I would say this game was a really good game. Both player showed solid basic knowledges. The routines are well formed, so quickly your rank should grow accordingly.
As for Black, I would suggest little more attention of the aji left behind. Sometimes they are not obvious, like an immediate threat, but using more stones the situation could get really complicated. And it is not worthing, when safe easy moves are available. Cutting points and hane moves are often deadly.

Have good plays, Radu])
(;B[ad]
(;W[ar];B[bs];W[cs];B[ap])
(;W[bs];B[ar])))
(;B[nj]
(;W[ni];B[ok];W[oj];B[nk];W[mh])
(;W[ok];B[mi];W[ol];B[om])))
(;B[jl];W[ik];B[il];W[hk];B[gl]))
(;B[nj]C[R: W has to protect the 3 stones];W[ni];B[nl];W[ok]
;B[mm]))
(;B[ih];W[jk];B[ik];W[jl];B[il]))
(;B[mj];W[ni];B[ml])
(;B[if];W[kh];B[ji]))
(;W[ol];B[rd];W[qe];B[rb]))
(;B[rd]
(;W[rb];B[qe]
(;W[rc];B[pc];W[se];B[od];W[sd])
(;W[od];B[pc];W[rc];B[se]))
(;W[qe];B[rb];W[pe];B[re];W[od];B[sc])))
(;W[pc];B[rc];W[od]
(;B[pe];W[rb];B[rd];W[qe];B[re];W[sf];B[se];W[sc];B[sg];W[rh]
)
(;B[rb];W[pe];B[qe];W[qd];B[rd];W[se];B[pd];W[oe];B[sf];W[ra]
;B[sb];W[sd])))
(;B[rb];W[rd];B[rc];W[ra];B[pc];W[oc];B[re]))
(;B[dn];W[fq];B[hq];W[dr];B[cq];W[fo];B[dk])
(;B[cn];W[ck];B[if]C[R: also, protects e16])
(;B[nl];W[mj];B[if]))
(;B[rg];W[qb];B[rc];W[rb];B[of]))
(;B[rj];W[ol];B[rm];W[pm];B[sl];W[on]C[R: not good at all])
(;B[ol];W[rj];B[rm];W[sk];B[rn]))
(;B[pk]C[R: W chooses.]
(;W[qk];B[pi];W[oj];B[qi])
(;W[pi];B[ql];W[rp];B[qq];W[on];B[nk])))
(;B[pj];W[on];B[np];W[rp];B[qq];W[rl];B[rj]))
(;B[qm];W[qc];B[pi]))
