(;FF[4]GM[1]SZ[19]ST[2]CA[UTF-8]AP[SGFC:1.15]

PB[boch]
BR[4k]
PW[IgoShinKen]
WR[4k]
KM[0.5]
DT[2005-12-28]
PC[IGS-PandaNet]
RE[B+16.50]
TM[480]
RU[Japanese]

C[Hi,

I played this game on IGS.  Against a 4k, but for some reason I fealt I got outplayed everywhere :(.  So any highlights on where I can improve will be helpful.  Thank-You!]
;B[pc];W[dp];B[dd];W[pp];B[qf];W[cf]C[R14 is one step wider then R15.  So thats why I didnt' consider playing K17 right away.  And made a kakari instead.

The one step wider shimari might be faster, but it's also a bit weaker, that's why e splitting move on k17 is possible and i would recommend it. But a kakari might be another possibility]
;B[gc]C[This move I don't know what the answer is.  Playing C17 seemed to cause me grief because I get entrapped in corner.  And playing the B16 Joseki here didn't seem right because I wanted to keep the C17 option avaible to me for later with G17 being soo far away.


C 17 is a possible answer but if you don't like it. D10 is also possible, but c17 is a very big point.

G17 tries to prevent that you play the sliding move with b16, because the result would be better for black

i think black g17 is a bit passive. Because if you play d10 - Next...]

(;W[dj]TR[cc]C[- The corner is left open and if black takes the corner...]

(;B[jq]C[I wanted to help my one stone at Q4, so I decided to push from N3 side, I held back and not played M3 because I later didn't want to defend M3.

M3 wouldn't be a good move, as you already said.];W[mq]
(;B[gq];W[eq];B[cm]C[This move is a problem move for me, I don't know how to answer it.  I played C9 considering to pincer it, as C5 looked like odd shape, plus the C12 threat didn't look very nice either :(.]

(;W[ck]LB[ch:A]C[there is always the weakness on c12 left];B[bp]
;W[bq]C[This fealt wrong to me, but  playing C3 didn't seem right either.  So I choose lesser of two evils (I think).]
;B[cq];W[cp];B[br];W[bo];B[aq];W[cn];B[qn]LB[qp:A]C[I expected this, so I was going to pincer any approch black made.  So i decided with 2 point high pincer b/c of black formation above.  I wanted to cramp black up and keep my stone kinda high so it's easy to run.

This move isn't good
Just responding with A is probably best because the lower group is yet weak and is only waiting to be attacked.]
;W[pk];B[on]LB[qq:A]C[Just invade on A is enough];W[mo]C[After looking at it .. maybe this wasn't a good move?  should I have played S5 instead?]
;B[rp];W[qq];B[rq]C[I usually don't see this? how do I answer it?  Isn't it a bit early for end game?]

(;W[rr];B[qp];W[pq];B[po];W[qh]LB[go:A]C[correct shape?

this move is ok  but attacking somewhere around A is better.]
;B[of];W[pb]C[Probe to see what is important corner or side?]
;B[qb];W[oc];B[pd];W[lc]C[Right move? or should i play L17 to have more space to run out?

this is the right move, if you play one line above it would be too open]
;B[jc];W[le];B[nb]
(;W[kb]C[Strange answer I think, but connecting at P18 was just getting heavy and I didn't think that works.

if you answer like that, your exchange in the corner get useless and turns into a bad exchange.]
;B[ob];W[mb];B[qj]C[good point for black];W[pj];B[qi];W[pi]
;B[rh];W[ph];B[rg];W[nc];B[lr];W[dr];B[cr];W[mr];B[lq];W[cc]
;B[cd]LB[dc:A]TR[cf]C[First you always have to play A if there is a stone around the marked one.]
;W[bd];B[be];W[bc];B[ce];W[eb];B[ec];W[fb];B[fc];W[ef];B[gb]
;W[db];B[bg]
(;W[cg];B[bh];W[bf];B[af];W[eh];B[ci];W[bj];B[di];W[ei];B[ej]
;W[ek];B[fj];W[fk];B[gj];W[hg];B[gk]CR[ph][qh][pi][pj][pk]TR[bf]
[cf][ef][cg][hg][eh][ei]SQ[kb][mb][lc][nc][oc][le]C[It's gets very difficult because you've got 3 weak groups
and this means that black has an advantage in this fight so best is to not start a fight in this situation.]
;W[em]C[good idea? or bad?  I later thought H15 would have been better Idea ... but after this I don't know :( Please make comments on anything you think I need to work on.  I am kinda lost in this game =.= he kinda lead me around like a puppy :(.]
;B[fg]C[Always think about a peep if it really is a peep. ^^]

(;W[eg];B[gg];W[gf];B[ff];W[fe]
(;B[ge];W[gh]C[Your were lucky!];B[hf];W[gi];B[ij];W[ig];B[if]
;W[jg];B[jf];W[kg];B[kf];W[lf];B[lg]C[Very nice it shows exactly the overplay which was played.]
;W[lh];B[mg];W[ki];B[hm];W[ng];B[mf];W[nf];B[me];W[ne];B[md]
;W[mh];B[nd];W[od];B[ld];W[oe];B[ke];W[pe];B[qe];W[ip];B[iq]
;W[gp]C[very nice play];B[jp];W[io];B[jm];W[jo];B[lm];W[kn]
;B[km];W[nm];B[nn];W[mn];B[mm];W[ol];B[kk]C[only chance is to kill this black group otherwise white is going to lose.]
;W[jj];B[jk];W[gl];B[hl];W[ii];B[hi];W[hh];B[hj];W[qk];B[rm]
;W[in];B[kj];W[ji];B[fp];W[go];B[fq];W[ml];B[ll];W[mc];B[fo]
;W[fn];B[mk];W[rl];B[lp];W[mp];B[nl];W[om];B[op];W[oq];B[ro]
;W[ls];B[ks];W[ms];B[jr];W[rj];B[ri];W[na];B[pa];W[ao];B[ap]
;W[er];B[do];W[dn];B[eo];W[co];B[fr];W[bi];B[ch];W[ib];B[ic]
;W[jb];B[fa];W[ba];B[gn];W[gm];B[hn];W[ko];B[np];W[sr];B[es]
;W[ds];B[fs];W[ee];B[nq];W[nr];B[pf];W[nj];B[mj];W[nk];B[og]
;W[pm];B[pn];W[hc];B[hd];W[hb];B[oh];W[nh];B[oi];W[sm];B[sn]
;W[sl];B[qm];W[ni];B[oj];W[ok];B[sj];W[no];B[rk];W[ql];B[oo]
;W[cs];B[bs];W[fd];B[gd];W[im];B[il];W[kc];B[kd];W[ea];B[dq]
;W[ep];B[en];W[dm];B[fm];W[fl];B[ga];W[ad];B[ae];W[cj];B[dc]
;W[cb];B[lj];W[ma];B[oa];W[kp];B[kq];W[ai];B[ha];W[ag];B[ah]
;W[dh];B[ag];W[de];B[ia];W[ja];B[sk];W[sq];B[sp];W[ps];B[hq]
;W[fn];B[ho];W[hp];B[fm];W[fh];B[gf];W[fn];B[df];W[dg];B[fm]
;W[id];B[jd];W[fn];B[ln];W[lo];B[fm];W[ar];B[as];W[fn];B[ml]
;W[fm];B[jn];W[or];B[li];W[tt];B[tt]C[You can check your score with the score command, type 'done' when finished.
Click on a group of stones to mark it dead and remove it from the board.]
;W[tt]TW[aa][ca][da][ka][la][ab][bb][lb][ac][df][ih][jh][kh]
[aj][ak][bk][dk][al][bl][cl][dl][el][pl][am][bm][cm][an][bn]
[pr][qr][ns][os][qs][rs][ss]TB[qa][ra][sa][pb][rb][sb][qc][rc]
[sc][id][qd][rd][sd][he][ie][je][le][re][se][lf][rf][sf][sg]
[sh][si][rj][hk][ik][lk][jl][kl][rn][qo][so][bq][ar][gr][hr]
[ir][kr][gs][hs][is][js]C[All in all you it very important for you to look at the whole board. (I know it's very difficult... even for professionals) But you have to consider when fighting is a good decision and when it is overplay (e.g if you have too many weak groups)
Another critic is that you know very fancy things but you should really learn the basics (attack, defend, basic tesuji, weak groups, strong groups, walls and so on)

But I somehow like your style it's some kind of fighting and your timing is also very good.

If there are any questions left please ask me.

Sorry that it took so long but i was very busy lately.])
(;B[gh]TR[ee][ge]C[too many cutting points a big part of your group would get killed.
Think about it.]))
(;W[ff]
(;B[eg];W[dg];B[dh];W[gg];B[fh];W[he])
(;B[gf];W[gh];B[fh];W[fi];B[gg];W[gi];B[hh];W[hi];B[ih];W[ii]
;B[ig];W[hl])))
(;W[dh]C[just connect mmore simple than in the actual game.]
))
(;W[nc]C[just play from above
if he cuts];B[ob];W[je]C[this is a good result becaus white reduced a lot and got influence.]
))
(;W[go]C[attack is the most natural move in this case. if black plays p3 ... -NEXT]
;B[oq];W[op];B[qr];W[pr];B[pq];W[qp]
(;B[or];W[rr];B[ps];W[ro];B[sr];W[sp];B[rs];W[qo]C[not good]
)
(;B[rr];W[or]C[the only way black can play.])))
(;W[co];B[ch];W[bj]C[I think this possibility is probably best]
;B[df];W[cg];B[dg];W[ce];B[de];W[ci];B[dh];W[bh];B[em]
(;W[cd];B[cc];W[bc];B[db];W[cb];B[dc])
(;W[cc];B[cd];W[bd])))
(;B[fq];W[hq];B[fo];W[dn];B[ip];W[eq];B[fr]TR[hq]C[there is some taste left in that stone.]
))
(;B[cd];W[pj]C[white is more dynamic.]))
(;W[cc];B[cd];W[dc];B[ed];W[ec];B[fc];W[bd];B[be];W[bc];B[ce]

(;W[ff])
(;W[cm]))
(;W[bd];B[cc];W[ci]))
