(;FF[4]GM[1]SZ[19]ST[2]CA[UTF-8]AP[SGFC:1.15]

PB[kilroy]
BR[6k]
PW[lololol]
WR[6k]
KM[6.5]
DT[2006-01-04]
PC[The Kiseido Go Server (KGS) at http://kgs.kiseido.com/]
RE[W+Resign]
TM[300]
OT[5x20 byo-yomi]
RU[Japanese]

C[Joonas Tyystjärvi, 1D: This was a very difficult game to analyze. I've added variations where I saw possible improvements.]
;B[qd];W[dc];B[pq];W[od]
(;B[oc]LB[ce:A]C[JT: Since this joseki ends in black gote, I think A is better at this point.]
;W[nc];B[pc];W[nd];B[qf];W[jd]
(;B[de]C[JT: See variation];W[ce];B[cf];W[cd];B[df];W[fc]C[what would you do here, C10, D10 or what?]

(;B[dj];W[cp];B[ep]C[best approach?];W[gq]C[which joseki to pick?]
;B[co]C[JT: this is not a good idea, usually.]
(;W[do];B[dp];W[cn];B[bo];W[cq]
(;B[dn]C[JT: This is bad, see the variation.];W[eo];B[cm];W[en]
;B[dm];W[fp]C[JT: This result is bad for black. White has too much territory and influence.]
;B[qo];W[bh]LB[bg:A][ch:B]C[this seems early, what should i counter with?

JT: the usual answers are A and B. Since black is strong in the lower left, black should cut.]

(;B[bf]LB[bg:A]C[JT: A is usually better, see the variation]
;W[dh];B[eh]LB[gf:A]C[JT: This is too focused on territory. Black should try to attack indirectly with a move like A, aiming at destroying white's moyo. See the variation on move 35.]
;W[ei];B[di];W[eg];B[ch];W[fh];B[dg]LB[fe:A]C[JT: Connecting these groups in gote is not enough compensation for white's ponnuki. Note that if white just plays A, he makes a much bigger moyo than black's territory to the left.]
;W[nq]C[this attack seems too much, what is the best counter?

JT: it's not really too much, considering white's thickness in the lower left. See the variation for the next move.]

(;B[lq]C[JT: this is an overplay, see the variation.];W[mp]

(;B[lp]C[JT: this is very heavy, see the variation.];W[lo]
(;B[mo]LB[no:A]C[JT: this is not good - black gets cut to two weak groups.]
;W[no];B[mn];W[nn];B[mm];W[ko]C[JT: this is very difficult for black now. Black is split into two weak groups.]
;B[jp];W[jo];B[ip];W[io]
(;B[mq]LB[nr:A]C[JT: This is pretty vulgar. Better to just play A, see the variation.]
;W[np];B[nm]C[JT: this is an overplay, since black can't really hope to kill white. Actually, white could kill black right now - see the variation.]

(;W[pn];B[pl];W[qn];B[ro];W[or]C[JT: this is the last chance to make life. It's very tricky, and black has to sacrifice part of the group, but at least that way it's not a disaster.]

(;B[pr];W[mr]C[JT: now black is dead.];B[hp];W[ho];B[gp];W[fq]
;B[go];W[gn];B[hn];W[gm];B[hm];W[jm];B[gl];W[em];B[el];W[fo]
;B[hr];W[lr];B[kr];W[jr];B[ks];W[kq];B[kp];W[jq];B[ir];W[ls]
;B[jl];W[kl];B[km];W[kn];B[lm];W[il];B[jk];W[hl]C[JT: white is now about 20 points ahead.]
;B[of];W[qj]LB[pe:C][kl:B][rl:D][om:A]C[how to counter, this seems too deep for me

JT: white makes the game unnecessarily difficult for himself with this, but black can't really hope to kill. The best black can hope for is to somehow push white small here and make a severe invasion to the top.]

(;B[ql]LB[qg:B][rk:A]C[JT: Although this is the strongest move, white still has moves like A and B that pretty much guarantee him life.]
;W[oj];B[mj]LB[mi:A]C[JT: I don't think it actually works, but A is a somewhat stronger attack since it pushes white against the wall.]
;W[nh];B[mf];W[lh];B[kf];W[le];B[lf];W[jh]C[JT: now the game is pretty hopeless.]
;B[ki];W[kh];B[if];W[hh];B[gk];W[ik];B[ij];W[jj];B[kk];W[hj]
;B[ii];W[ji];B[hk];W[im];B[hi]
(;W[gj]C[JT: white makes things difficult for himself again]
;B[gi];W[fj];B[ih];W[ig];B[hg];W[jg];B[gh];W[gg]
(;B[hf]LB[gf:A]C[JT: better play A first.];W[jf]
(;B[je];W[ie];B[ke];W[fi];B[hh];W[gf];B[he];W[id];B[hd];W[fe]
;B[hc];W[kc];B[lc];W[lb];B[kd];W[jc];B[mb];W[jb]
(;B[mc]LB[la:A]C[JT: A is a must here. Unfortunately, black still loses the semeai.]
;W[hb];B[gb];W[ib];B[gc];W[ka];B[fb];W[ec];B[eb];W[mi];B[ek]
;W[db]C[JT: this is a silly mistake by white];B[fd];W[ed];B[ee]
;W[gd];B[ge];W[ff];B[fd];W[ea];B[ef];W[gd];B[eh];W[fd];B[fg]
;W[fl];B[fk];W[eg];B[in];W[jn];B[fg];W[lk]C[do i have more threats?

JT: not really.]
(;B[ej];W[rn];B[ac]LB[bc:A]C[better way to kill?

JT: this seems to end in ko with both this and A. See the next variation.]
;W[bc]
(;B[ca]C[JT: big mistake! See the variation.];W[cb];B[ad];W[ab]
;B[ba];W[da];B[be];W[rp]
(;B[rq]LB[qp:A]C[JT: I think A should live.];W[qp];B[qq];W[po]
;B[rr];W[qs];B[ps];W[sq];B[sr];W[rs];B[ns];W[nr];B[ll];W[kj]
;B[kl]C[JT: this is pretty much useless at this point];W[mk]
;B[nk];W[nj];B[ok];W[rk];B[ml];W[lj];B[bd];W[dd];B[ha];W[ia]
C[
any overall remarks on how to improve?

JT: learn to read further, and try to take your opponent's thickness and weaknesses in your own shape into account. Try not to start big fights in places where your opponent is strong.]
)
(;B[qp];W[rq];B[sn];W[rm];B[rr]))
(;B[ad];W[ab];B[bb];W[ae];B[aa];W[bd];B[be];W[ab];B[ac]
(;W[cb];B[af];W[ad];B[dd]C[Ko])
(;W[ca];B[cb];W[cc];B[af];W[ad];B[dd]C[Ko])))
(;B[rm];W[eg];B[iq];W[js];B[fg];W[rn];B[sn];W[eg]C[JT: black is pretty much out of threats at this point.]
))
(;B[la];W[kb];B[mc];W[hb];B[gb];W[ib];B[gc];W[fb];B[ha];W[gd]
))
(;B[gf]C[this better? white still has F8 though

JT: yes, this is better. See the previous variation. I've added a continuation.]
;W[fl];B[je];W[ie];B[ke];W[fg];B[fe]))
(;B[gf];W[fg];B[hf];W[fi];B[hh];W[jf];B[fe];W[fl];B[je];W[ie]
;B[ke];W[lk];B[ll];W[kj];B[kl];W[mk]LB[kc:B][rn:A]C[JT: white still lives, though. Also, since white is threatening A, black has to defend here, so white gets to play B.]
))
(;W[gi];B[gj];W[ih];B[hj];W[fj];B[fl];W[ph]C[JT: this would have been an easy way for white to end the game.]
))
(;B[oj];W[ql];B[pk];W[qk]C[JT: this is not enough (I forgot if this variation was in the original file, if it wasn't, ignore this)]
))
(;B[ir];W[mr];B[hq]C[Black must play here.]
(;W[kr]
(;B[gr]C[JT: this is black's best option.];W[kp];B[eq];W[er]
;B[fq];W[fr];B[gp];W[bp];B[bn];W[dq];B[fo]C[JT: the game is still playable (although difficult) for black.]
)
(;B[kp];W[gr];B[ho];W[hn];B[in];W[go];B[hp];W[im];B[jn];W[kn]
;B[jm];W[km];B[jl];W[kl]LB[gn:A]TR[eg][dh][fh][ei]C[JT: white is safe, thanks to the marked stones (if black cuts at A, white can connect to them).]
))
(;W[gr];B[lr];W[jq];B[ms];W[nr];B[kp];W[hr]LB[ho:A]C[JT: this is dead (see the variations above for A)]
)))
(;W[nr];B[pn];W[kp];B[kq];W[jq];B[jr];W[iq];B[ir];W[hq];B[mr]
;W[ls];B[kr];W[ms]C[JT: black loses the semeai]))
(;B[nr];W[or];B[mr];W[oq];B[pr];W[ps];B[qs];W[os];B[ir]LB[ho:A]
C[JT: black is at least alive, although the corner suffers. There is also bad aji at A, so white needs to play there next.]
))
(;B[jp];W[ko];B[nr];W[or];B[mr];W[oq];B[ir]))
(;B[ko]C[JT: this kind of light jump is appropriate here.]
(;W[mn];B[iq]C[JT: black is almost settled here.])
(;W[jq];B[kq];W[jp];B[mo];W[no];B[mn]C[JT: black has good shape for the fight.]
)))
(;B[no]C[JT: with this cap, black keeps white's moyo in check and develops his own moyo.]
;W[lp];B[og]C[JT: this is playable for black.]))
(;B[bg];W[dh]LB[be:A][ch:B]C[JT: black now has A for some eyeshape, and B if things get difficult]
;B[ge]
(;W[hd];B[fi]LB[ed:A]C[JT: black captures with some aji. If white tries to escape, black has sente moves like A to keep him checked.]
)
(;W[fh];B[hd]C[JT: If white escapes, black breaks cleanly into white's moyo]
))
(;B[ch];W[mq]LB[bf:A]C[JT: white can ignore this and leave the aji of A for later.]
))
(;B[bn]LB[bo:B][dp:A]C[JT: After starting a fight with A and B, black MUST play here.]

(;W[dn];B[cm];W[dm];B[cl];W[fo];B[dr];W[cr];B[fr];W[gr];B[er]
;W[fq];B[bp];W[bq];B[bs];W[cs];B[ap]C[JT: White gets a wall (black can't push), black gets a lot of territory. This is good for black.]
)
(;W[eo];B[fp];W[cm];B[bm];W[cl];B[dr];W[bl];B[bp];W[bq];B[br]
C[JT: White gets some influence here, but his group is still weak so he can't expect to attack the upper left black group strongly.]
)))
(;W[dp];B[do];W[eq];B[eo];W[fp]C[JT: White gets a pretty good result just by playing like this.]
))
(;B[do]C[JT: I think black could consider playing here];W[di]
;B[gf];W[hd];B[dk]C[JT: Although white has some territory on the upper side, his overall position is pretty difficult.]
))
(;B[do]C[JT: Playing in this corner seems bigger that playing in the upper left - a white play there would be overconcentrated, so there's no threat of him making a shimari.]

(;W[de];B[cj]LB[cg:A]C[JT: A is next big for black.])
(;W[ci];B[qo];W[de]C[JT: white has a lot of territory, but it's all in the same place. White can't win like this.]
)))
(;B[ce];W[qo]C[JT: white might play here now, but black can ignore this and take the lower left.]
;B[co]))
