(;FF[4]GM[1]SZ[19]ST[2]CA[UTF-8]AP[SGFC:1.15]

PB[dalsung]
BR[21k]
HA[2]
PW[jug]
WR[19k]
KM[-5.5]
DT[2006-01-10]
PC[IGS-PandaNet]
RE[B+93.50]
TM[600]
RU[Japanese]

AB[pd][dp]C[Hi,

i hereby request a review of this game for white.
It has been played at 10-Jan-2006 on IGS between dalsung[21k?\] as B and jug[myself,19k?\] as W.
Edited SGF with cgoban-2.6.12.

* Info about the game:
19x19 with handicap 2 stones, Komi -5.5, with time limit (10min + 10/25)
Actually i haven't played many handicap-games (was my 3rd), so sometimes i was a little helpless,
and B opponent was strong in keeping connections.

* Info about my reviewing:
I've included my review-comments (mostly at the move before the played move).
Included my thoughts along with questions starting with label 'JUG'.
Maybe you can add reviewer comments starting with a prefix you prefer.

What i would expect:
- best or possibly working play at moves with labels ?
- i included some of my "understandings", if these are flawed, please correct them
- correct and/or show better ways to cut/connect
- there is a summary from myself at the last move, please add what i should concentrate on for improving in handi-games

Thanks in advance for your effort of reviewing this game, Kind regards, jug.

#-----------------------------
jug: hi, nice game
dalsung: Let's begin and enjoy a great game.

Hi,
         I am Silvus, I'll be the reviewing your play tonday.  I am around 8kyu on kgs.  I'll try and give what insights i can. I will be commenting on your moves before looking at the full game so you can recieve and unbiased opinion.  Feel free to contact me if you have questions at silvus@gmail.com.  and thanks for reading:)]
;W[qp]C[JUG: better on hoshi (for influence)];B[cd];W[ec];B[ic]
LB[gc:C][kc:E][de:A][ee:D][ef:B]C[When playing white in a handicap game, it is necessary to make moves that you know are silly and too far.  While you may know that the move over reaches, by the fact that your playing a handicap game your oppenant doesnt know everything you do.  I am not saying treat your oppenant with no respect and make blatantly extended moves, but if you would normaly make a 2 space jump try a 3.  and so forth.. always try and eek just a little more than normal out of your moves.  It's important to be safe, but always remember you are behinad and have some catching up to do.  A common method of catch up is capturing a dragon, but against someone who understands handicap play all you can shoot for is grabbing territory more efficiantly than the other guy.  


In this move I would probably go A.  I would try and fight over the corner and get a gauge of the oppenants knowlegde of joseki and life and death.]
;W[de]TR[cb][cf]C[great minds think alike.  You also had the theese options if you would like to sart a fight.  But i prefer your move as it is safe and keeps a firm hold on the controls.]
;B[ce]LB[gc:2][hc:1][kc:5][dd:3][gd:A][df:B][cg:4]C[A is to high on the board, you lose the territory you started claiming if Black dives under.  

B is to small a move in my opinion.

1grabs territory and is safe but you lose initiative.

2 is safe but another loss of initiative.

3 is too small but the most safe.

4 if you want to continue the fight.

I think i prefer 5, it keeps the pressure on him.  Keep in mind that my route would lead to a fight over a dragon.]
;W[gd];B[ie];W[df]LB[cb:1][dg:2]C[I would have rathered 1, or 2, bother larger. you could also have simply moved on to somewhere else on the board this group is feels alive why not press our oppenant elsewhere.]
;B[cg]LB[cb:A][nd:B][gf:C][qf:D][cn:1][dn:2]C[i've alerady expressed my view on A and i feel the same about C.  B is a good idea, I like it on the fourth row.  

D pressures Black to run for support strengthening the two stones in the center.  

I would have gone in 1, 2, or B. I like to keep the stones balanced across the board and presently it feels very heavy up top while the bottom is all empty. Probably 1.]
;W[cf];B[bf]LB[cb:B][cc:A][gf:D][dg:C]C[The opening of the game is about claiming space.  To me this fight feel settled enough i think you need to grab more space elsewhere.  of your choices, I would pick A or C as both demand a replay and this game is all about not leaving the choices up to the oppenant.]
;W[cc];B[bh]LB[mc:D][nc:C][nd:B][qf:E][gg:A]C[I like B it leaves you with a lot of mobility.  E is a very bad as we have covered already.C and D are to low i think to feel safe about.  While it might seem like a good idea to cut at A i think there is plenty of space and time to cut there later.  It seems more important to deny black all that territory at the top.]
;W[gg];B[mc]LB[pf:B][qf:A]C[Of your choices B, but I would be moving above Black to mitigate the amount of space he actualy captures.]

(;W[qf]C[JUG: hm. 1 stone vs 4 (better not induce re-inforcement here) ?

yeh, laying a stone here is like walking up to an army alone and asking them to surround you.]

(;B[qd];W[pj];B[op];W[po];B[qq];W[oo];B[rp];W[ro];B[pp];W[qo]
;B[np];W[fq];B[hq]LB[eo:B][fo:1][gp:A]C[JUG: first attack corner, then right side

you need to save this stone, I think 1 is the safest route out followed by B.]
;W[gp];B[hp];W[cn];B[dn];W[cm];B[eq];W[bp];B[fr];W[eo];B[do]
LB[dm:B][en:A][fp:C]C[JUG: W split, 'C'-group very weak

C group needs a way out lets make one.

I dont like any of your options here. This my estimate for each.]

(;W[en]
(;B[dm];W[cq];B[em];W[gn];B[fm];W[gm];B[gl];W[ho];B[il];W[in]
;B[kp];W[kn];B[lo];W[ln];B[mn];W[mo];B[no];W[mm];B[nn];W[nm]
;B[on];W[pm];B[rq];W[ko];B[lp];W[jl];B[ik];W[jk];B[qh];W[ph]
;B[qg];W[pg];B[rf]LB[hb:D][re:A][ig:C][mg:E][eh:B][ki:G][cj:F]
[ij:H][mj:I][ik:J]C[JUG: mistake at 'A', Bs reading was superior
may work to attack 'J'-group to get strength to attack NW-group

Though not played, the plan should be to connect Ws big groups (NW & SE), then SW-corner, but where to get the territory ? That's unclear to me.

What to aim for ?

Don't let him in your side.]
(;W[re];B[qe];W[pf];B[rg]LB[rc:A][me:B][jh:C][ei:D][ij:E]C[JUG: hopeless, need something to attack ('C' too calm)

C leaves the open space your claiming to open and isnt pushing on anything giving the openant initiative.  I dont know if this is recoverable at this point. I probably would have resigned, but against a weaker player in a handicap game the key is to start a bunch of fights and out read him.  So far all your contact with him led to him making stronger and well designed groups where life seems certain.  Try not to force your oppenant to defend and completely finish his defenses.  Stab, parry, jump to the side stab,parry, jump again and try and not broadsword swing so he puts up his shield.  You want your oppenant to think he has you blocked so when your ready you can start to kill things.]
;W[rc];B[rd];W[pb];B[qc];W[qb];B[rb];W[od];B[oc]LB[nc:A][md:C]
[nd:B]C[B seems the most prudent.];W[nc]
(;B[nb];W[nd];B[ob];W[ra];B[sb]LB[jd:B][le:A][jf:1]C[A is the better of your choices, B forces him to get stronger again.

I would cut my losses and try and make territory at 1.];W[qi]
;B[md];W[me];B[le];W[ld];B[ne];W[oe];B[mf];W[pe];B[mh];W[lc]
;B[lb];W[mj];B[dd];W[dc];B[ed]LB[gc:A][fd:D][fe:C][dg:B]C[I dont know what to tell you here.  You're almost certainly going to lose something.  I would drop a stone at c and try and get everything together.]
;W[gc];B[fe];W[eg];B[fh];W[ge];B[ff];W[fg];B[gf];W[hf];B[hg]
;W[hh];B[ig];W[if];B[he];W[jf];B[jg];W[je];B[hc];W[hd];B[id]
;W[kg];B[ii];W[ih];B[jh];W[ji];B[kh];W[lh];B[ki]C[JUG: please check variation]

(;W[jj];B[lg];W[li];B[kf];W[kj];B[kg];W[bd];B[be];W[fd];B[ee]
;W[bj];B[ci];W[cj];B[ei];W[hi];B[ij];W[dq]C[JUG: tried to cut (without success), seems to be uncuttable]
;B[ep];W[er];B[gq];W[fp];B[dr];W[gk];B[hl];W[fk];B[fl]LB[dj:B]
[ej:A]C[JUG: please check variations (is that likely play) ?]

(;W[ej];B[dj];W[dk];B[di];W[fi];B[gi];W[fj];B[gh];W[hj];B[eh]
LB[ek:A]C[JUG: next play must be on 'A' (oi-otoshi)

was aware of:
now B is ahead by about 40p and W has not much places to reduce B that much
=> so W can resign (but wanted to practice, so went on)

@reviewer:
The remaining game is not very interesting (result is clear at this time), so please rush to the last-move-summary.]
;W[bi];B[dg];W[gb];B[jb];W[ib];B[hb];W[jc];B[kc];W[ha];B[ia]
;W[ga];B[gj];W[hk]C[JUG: played too fast (short time ;-)];B[ek]
;W[dl]C[JUG: yose now];B[fn];W[go];B[fo];W[cr];B[es];W[om];B[mi]
;W[lj];B[oi];W[oj];B[oh];W[pi];B[ri];W[rj];B[sj];W[sk];B[si]
;W[rk];B[so];W[sn];B[sp];W[rn];B[cs];W[br];B[bc];W[bb];B[ad]
;W[ab];B[ip];W[jo];B[im];W[jm];B[io];W[hn];B[jp];W[jd];B[ib]
;W[bs];B[ds];W[nf];B[me];W[ng];B[mg];W[ac];B[bd]LB[pc:A][og:B]
C[JUG: better 'B' instead of 'A'];W[pc];B[se];W[ah];B[ag];W[ai]
;B[co];W[bo];B[pn];W[qn];B[og];W[of];B[nj];W[ni];B[nh];W[nk]
;B[ni];W[bl];B[hm];W[jn];B[tt];W[tt];B[tt]TW[aa][ba][ca][da]
[ea][fa][cb][db][eb][fb][fc][aj][qj][ak][bk][ck][kk][lk][mk]
[ok][pk][qk][al][cl][kl][ll][ml][nl][ol][pl][ql][rl][sl][am]
[bm][km][lm][qm][rm][sm][an][bn][ao][ap][aq][bq][ar][as]TB[ja]
[ka][la][ma][na][oa][pa][qa][ra][sa][kb][mb][pb][qb][jc][lc]
[pc][rc][sc][jd][kd][ld][sd][ae][de][je][ke][re][af][cf][df]
[ef][hf][if][jf][lf][sf][bg][eg][fg][gg][sg][ch][dh][hh][ih]
[rh][sh][fi][hi][ej][fj][hj][fk][gk][hk][en][eo][mo][mp][iq]
[jq][kq][lq][mq][nq][oq][pq][sq][er][gr][hr][ir][jr][kr][lr]
[mr][nr][or][pr][qr][rr][sr][fs][gs][hs][is][js][ks][ls][ms]
[ns][os][ps][qs][rs][ss]C[jug: 42.5 to dalsung: 136.0
jug: great game (handi-games are really difficult ;)
jug: thanks

summary:
- left too many weak groups in fuseki
- fuseki / middle-game: use sent to keep on attacking, but when to secure groups ?
- must stay connected like B does (all B is connected, W 3 groups + 3 killed)
- need better reading regarding connections


I think the biggest thing you need to work on is seperating the the Method of the game from how you play it.  Fuseki should be spent attacking, but attack while connecting and stabling.  attacking does not have to be only an attack.  A good move is both offensively very strong and defensively very strong.  Try and make moves that balance both offense and defense the whole game.  Focus less on trying to win by a large margin, as attacking only attempts, but instead try and win by .5.  Make each of your moves .5 bigger than the oppenants.  You only need that .5 to win, dont over streach yourself going for big reaches and gains.  Moreoften people bankrupt themselves rather than prosper upon that route.

Keep playing and you will get better. practice is the most important factor at your level of play. Keep it up, and you'll advance quickly.  It's been a pleasure reading your game.

Be well,
Silvus])
(;W[dj]
(;B[ej];W[ek];B[dk];W[dl];B[el];W[ck]
(;B[hj];W[gj];B[gi];W[gh];B[fi];W[di];B[ef];W[eh];B[dg];W[dh]
C[JUG: B ca. 30p ahead])
(;B[gj]C[this seems like a more likely reply.]
(;W[hj];B[hk];W[gi];B[fj];W[eh];B[fi]
(;W[gh])
(;W[di];B[dh]))
(;W[fj];B[fi];W[hj];B[hk];W[gi];B[gh])))
(;B[ek]LB[fh:2][ci:3][ei:1]C[This seems unlikely because 1,2,3 are so weak.]
;W[ej];B[fj];W[di];B[dh];W[eh];B[gj];W[fi];B[hk];W[bi];B[bc]
;W[ah];B[ag];W[bb];B[ad];W[ab];B[ac];W[af];B[ae];W[ch];B[bg]
;W[gb];B[dg];W[ef];B[gi];W[gh]C[JUG: B ca. 40p ahead])))
(;W[kj];B[jj];W[li];B[ji];W[hi];B[ij];W[lf]TR[df][eg][hh]C[JUG: marked stones now even more in danger, but 'A'-group needs support, so maybe W gets sente


Not worth the risk in my opinion.]))
(;B[nd];W[oe];B[ne]))
(;W[qi];B[ri];W[rj];B[rh];W[kg];B[ji];W[jj];B[ij];W[ki];B[mf]
;W[mg];B[kf];W[oe];B[od];W[ne];B[me];W[nd];B[nc];W[qe];B[re]
;W[cj];B[bj];W[bk];B[ci];W[dj];B[eh];W[fj];B[fb];W[gc];B[gb]
;W[dd]C[This is a quicker idea of how i see the board right now.  White is behind a good number of points I dont know where to get them from.  Either you have to kill something, or make life where you shouldnt be able to.]
))
(;B[fp];W[ep];B[gq];W[fo];B[em];W[go];B[ho])
(;B[ep];W[fp];B[fo];W[gn];B[go];W[dm];B[em]))
(;W[ep];B[dr];W[ho];B[gq];W[fp];B[io];W[hn])
(;W[dm];B[en]
(;W[gn];B[go];W[fo];B[ho];W[fn])
(;W[go];B[gn];W[ho];B[hn];W[io]C[White breaks free but no points and less influence.]
)))
(;B[qh]C[This would put you in a tight spot.]))
(;W[nd];B[nc];W[od];B[oc];W[pe]))
