(;FF[4]GM[1]SZ[19]ST[2]CA[UTF-8]AP[SGFC:1.15]

PB[cjmichael]
BR[19k]
PW[issiel]
WR[19k]
KM[6.5]
DT[2006-01-14]
PC[The Kiseido Go Server (KGS) at http://kgs.kiseido.com/]
RE[W+3.50]
TM[1200]
OT[5x30 byo-yomi]
RU[Japanese]

C[--
cjmichael:  Hello!  Thanks in advance for reviewing my game.  This was a close game, one where I felt during the game like I had the upper hand.  What I'm mostly interested in is how to stop such narrow losses, as many of my games have been ending like this.  I played as black.  I'm very interested in how to improve my early game, and also how and when to invade or attack.  I've left a few comments within the game.

Hi, my pleasure. I'll prepend my comments with "j:". I'll also include here a few final comments after reviewing.

The final comments: 

It was an extrange game, he helped you *very much* to make points in the center. Then you both played a lot of yose (endgame) moves  in the m6 area, when there were still lots of really big points.

As actual suggestion, I'd say:

- do not be so afraid of cuts, try to read if the cut works, else avoid playing there. You played quite a few unneeded moves.

- avoid the urge to reply, double check if it's needed or not.

- as for reductions and invasion, use your ingenuity, look for weak spots (aiming at connecting, as seen in the vars, or at escaping...)

- before playing a non-vital move,  look at the whole board!

Best regards and good  luck!];B[dp]C[issiel [19k\]: hello
cjmichael [19k\]: hello];W[pd];B[pp];W[cd];B[qf];W[nd]
(;B[ed]C[j: this move is  extrange,  r14 needs continuation. See vars for two tipical ones.]
;W[dg]C[--
cjmichael:  His responses, and his two opening moves, were new to me.  I'm not sure I dealt with them correctly.

j: O16 was quite normal. The extrange thing was your tenuki. this d13 is new to me, too :)]
;B[jd]C[J: too wide, IMHO.  I'd prefer H16];W[gc];B[gd];W[fc]
;B[ec];W[fd];B[fe];W[hd];B[ge];W[ic];B[de];W[id]
(;B[cc]C[j: too conservative, IMHO. See var for a more aggresive one]
;W[ce];B[lc];W[jc];B[kd];W[kc];B[le];W[mc];B[lb];W[kb];B[pj]
;W[dd];B[dc];W[df];B[ee];W[cn]C[j: now it's white who has the upper hand in this side, and your corner is not too big]
;B[fq];W[dk];B[ip];W[kq]
(;B[mp]C[j: I'd play low here (n3) and then chase him to the center]
;W[mq];B[nq];W[lp];B[mr];W[lq];B[np];W[lr];B[nr];W[iq];B[hq]
;W[ir];B[hr];W[jp];B[ho];W[io];B[hp];W[in];B[mm]C[j: anyhow, you're developing beautiful!]
;W[qm]C[j: difficult to answer... maybe s5?]
(;B[pn];W[qn];B[qo];W[qk];B[qj];W[ro];B[rp];W[so];B[sp];W[rm]

(;B[bp]C[j: I believe you could still press white, see var]
;W[rj];B[ri];W[rk];B[oe];W[od];B[ne]C[j: good, linking];W[mb]
;B[md];W[pe];B[pf];W[qe];B[jj];W[pk];B[oj];W[ok]
(;B[nj];W[nk];B[mj];W[mk];B[lj];W[lk];B[kj]C[--
cjmichael: I saw this to be very good for me, but perhaps I should have tried to be more aggressive on the stones in this area than just expand my territory?

j: yes, he was surely helping you. Maybe you could have pressed a little bit more  (see var at 87), but the result was fine, as his wall is worthless]
;W[ln];B[mn];W[pm];B[on];W[om];B[nm]LB[bc:A][rf:B][di:C]C[--
cjmichael: I've been trying not to make open triangle shapes.  I think this move by me was unhelpful.

j: yes, bad shape and not needed, you should have played elsewhere. A B C seem good points to me, I'd play C]
;W[nl]C[j: wasted move];B[lm];W[mo];B[no];W[lo]C[j: all this sequence is small!]
;B[jm];W[im]LB[cm:A]
(;B[ei]C[--
cjmichael:  I wanted to reduce his territory on the left side of the board.  I'm not good at such invasions.  Instead of reducing his, I decided to let him strengthen it at the cost of strengthening mine as well.  The white stones on the left side of the board are very loose.  Please suggest a good way to approach this vulnerability.

j: good idea.  As said before, d11 seems ok to me, as it has easy escape into the center. Your move feels too timid. More fancy things, see var, but at your own risk! :)

I think there's enough space to live, aiming at connecting with b4. If not living surely you could escape. I just drop a few ideas]
;W[di];B[eh];W[dh];B[hi];W[ej];B[fj];W[je];B[if]C[--
cjmichael:  Is this an appropriate response?

j: not in this case, IMHO, 'cause L15 is atari, so... (see var for w answer). I think k14 works better]

(;W[ie];B[kf];W[jf];B[jg];W[hf];B[ig];W[he];B[gg];W[hg];B[hh]
;W[la];B[ld];W[eg];B[en];W[gf];B[fg];W[ff];B[gi]C[--
cjmichael:  I realized this was a mistake after I made the move.

j: it happens to us all...];W[bc];B[bb];W[ac];B[ab];W[bd];B[db]
;W[ea];B[da];W[fb];B[ca]C[j: no need!];W[fh];B[fi];W[gh];B[ek]
;W[dj]
(;B[fl]C[j: why? simply f8 is best];W[el];B[fk];W[em];B[fm]
;W[dn];B[fo]C[j: again. this time, d5 is ok, or even e5, but this f5 is too timid!]
;W[eo];B[fn];W[do];B[ep];W[bn];B[hl];W[il];B[ik];W[jl];B[kl]
;W[kk]C[cjmichael [19k\]: sorry, i'm lagging];B[kn]C[issiel [19k\]: no problem]
;W[jn];B[km];W[ko];B[hm];W[hs];B[gs];W[is];B[fr];W[jk];B[hj]
C[j: again, no need to defend];W[cq];B[cp];W[bq];B[cr];W[dq]
;B[dr];W[ap];B[ao];W[aq];B[bo];W[eq];B[er];W[hn];B[gn];W[an]
;B[br]C[j: no, you don't need to answer];W[co];B[ar];W[dm]
(;B[re]C[--
cjmichael:  Are there any weaknesses I can exploit in the top right corner of the board?  Maybe moving to the 3-3 point?

j: this is hard to answer. You could try, the  corner is big, but *before* s15, using the aji left here. For example, see var.]
;W[rd];B[rf];W[se];B[lg]C[j: you're too afraid of cuts!];W[sf]
;B[sg];W[sd];B[sh];W[sj]
(;B[si]C[j: not needed];W[ke];B[mf]C[--
cjmichael:  I think that this move was unecessary.

j: yes it was];W[ms];B[ns];W[ls];B[eb];W[fa];B[tt];W[ml];B[nn]
;W[tt];B[tt]TW[ga][ha][ia][ja][ka][ma][na][oa][pa][qa][ra][sa]
[gb][hb][ib][jb][nb][ob][pb][qb][rb][sb][hc][nc][oc][pc][qc]
[rc][sc][ad][qd][ae][be][af][bf][cf][ag][bg][cg][fg][gg][ah]
[bh][ch][ai][bi][ci][aj][bj][cj][ak][bk][ck][sk][al][bl][cl]
[dl][ol][pl][ql][rl][sl][am][bm][cm][sm][rn][sn][jo][kp][jq]
[jr][kr][js][ks]TB[aa][ba][cb][me][lf][nf][of][kg][mg][ng][og]
[pg][qg][rg][ih][jh][kh][lh][mh][nh][oh][ph][qh][rh][ii][ji]
[ki][li][mi][ni][oi][pi][qi][gj][ij][gk][hk][gl][gm][go][oo]
[po][ap][fp][gp][op][qp][aq][bq][cq][dq][eq][gq][oq][pq][qq]
[rq][sq][gr][or][pr][qr][rr][sr][as][bs][cs][ds][es][fs][os]
[ps][qs][rs][ss]C[cjmichael [19k\]: thanks for game
issiel [19k\]: i thought it was close!
issiel [19k\]: good game thx
cjmichael [20k\]: yeah, i need to count better :-D
issiel [19k\]: see you])
(;B[eb];W[rh];B[si]C[j: no prob]))
(;B[rc]C[j: aiming at s15...]
(;W[re];B[pb];W[qc];B[qb]C[j: now it's a difficult corner position, and I'm an expert at dying, so... but I'd say you have at least a chance, and on the other hand the risk is not too big (the  "hole" at s14, which you can block if you die)

Don't take seriously the following moves...];W[sc]
(;B[sd];W[sb];B[rb];W[rd];B[sa];W[sc];B[pc];W[nc];B[ob];W[nb]
)
(;B[sb];W[sd];B[ra]))
(;W[qb];B[re];W[rd];B[sd];W[qd];B[sc];W[qc]C[j: else you reduce the corner in a big way]
)))
(;B[el];W[fk];B[gl]C[j: nothing to worry about]))
(;W[ke];B[ld];W[ie]C[j: still open]))
(;B[cm];W[dn]
(;B[bn]
(;W[co];B[bo];W[cp];B[cq])
(;W[bo];B[co];W[bm];B[ao];W[cl]))
(;B[bm];W[bn];B[dm];W[em];B[cj];W[ck];B[bk];W[bj];B[bi];W[bl]
;B[aj]
(;W[cl];B[bg])
(;W[bg];B[cl];W[am];B[al];W[an];B[dj];W[dl];B[bl])))
(;B[bl]
(;W[bn]
(;B[ci];W[bk];B[ck];W[bj];B[dl]C[j: now b6 start to look lonely]
)
(;B[ck];W[cj]
(;B[dl])
(;B[bj];W[cl];B[bk];W[dj];B[bh];W[ch];B[cm];W[dl];B[bm]C[j: there are plenty of chances]
;W[dm];B[dn])))
(;W[bj];B[bn])))
(;B[mk];W[nk];B[nj]))
(;B[rk];W[rl]
(;B[rj];W[pk];B[pl]
(;W[ol];B[pm];W[ql])
(;W[ok];B[pm];W[ql];B[ni]C[j: and make points, he deserves to live small if at all]
))
(;B[pk];W[ql];B[rj])))
(;B[ro]C[j: now no base for w];W[qk];B[qj];W[pk];B[ok];W[ol]
;B[nk]C[j: not sure, ,but playing high you give him an easy life]
))
(;B[mq];W[ir];B[hq];W[ko];B[mo]))
(;B[ce]C[j: even if he manages to live (I don't know how), he'll do so in gote, and you'll get a  thick wall and a target (d13)]
;W[cb];B[bd];W[bc];B[be];W[dc];B[eb];W[ab]C[j: in this situation, you could kill (b19), but even if you don't...]
;B[dj]C[j: attack, and make territory in the meanwhile]))
(;B[rd];W[qc];B[qi])
(;B[pi]))
