(;FF[4]GM[1]SZ[19]ST[2]CA[UTF-8]AP[SGFC:1.15]

GN[benni-redduck-20060207.sgf]
PB[redxduck (redduck)]
BR[1k]
PW[Benni Bärmann (benni)]
WR[5k]
KM[6.5]
DT[2005-12-23,2006-02-07]
PC[Dragon Go Server: http://www.dragongoserver.net]
RE[B+Resign]
RU[Japanese]
GC[Game ID: 173172]

C[Hello! Thanks for commenting this game. I played white. I have added some questions.

--
You're welcome. I hope my comments give you some ideas to improve your game. I'm mostly commenting your moves (w).

--Simo];B[dp];W[dd];B[qp];W[qd];B[qj];W[nq]
(;B[kq]
(;W[qq]C[--
I can't say this is bad but because R10 is low you can try to press b.]
;B[pp];W[pq];B[op]
(;W[nr]C[is the variation better?

--
Yes. No need for this move.]
(;B[rp]C[--
Too slow.];W[mo];B[hq]
(;W[cj]C[--
Nice move but you can also consider Q11. Idea is to make B overconcentrated.]
;B[od]
(;W[qf]C[--
Good move. This avoids avalanche variations.];B[oj];W[oc];B[nc]
;W[pc]
(;B[nd]C[--
Too heavy.]
(;W[jc]C[Up to here i was happy with the game. N5 looks good in preventing black from froming a moyo. o17 and friends have no base and i have a double wing in the upper left and a fair amount of territory in the right corners. My question is: Is this correct so far or do i miss something? Which side would you prefer at this stage?

--
Mistakes: O2 (w), O16 (b), S4(b), B leading 2-1 in mistakes. Anyway, this game is far from decided. Both will have their changes.]
;B[hc]
(;W[fc]C[mybe to hard? Is the variation better?
--
I think this is ok. Corner is important.]
(;B[hd]C[--
So slow.]
(;W[lc]C[again better to run?

--
Now it's better to run. It's important to run faster than your opponent. Now b gets initiative.]

(;B[je];W[le]
(;B[nf]C[--
Slow.];W[lg];B[kd];W[ld];B[kc];W[kb];B[lb]
(;W[ib]C[--
It's far better to take that ponnuki.];B[mb];W[hb];B[gc]
(;W[fb]C[--
I prefer G18.];B[gb];W[ga];B[fd];W[ed]C[--
These b moves makes w just stronger and b even more heavy.]

(;B[jg];W[li]
(;B[nh]C[--
Slow!];W[ji]
(;B[fe]C[--
Slow.];W[ef]C[--
Too good for w. :)];B[gg];W[ih]
(;B[ig]C[--
Slow.];W[fh]C[--
White is now better but only because b made so many slow moves.]
;B[fg];W[eg];B[gh];W[gi]C[Do i attack to hard and from the wrong side?]
;B[fi];W[eh];B[hi];W[gj];B[hh];W[hj];B[ii];W[ij];B[jj]C[From this cut a very complicated fight started which i finally lost and resign. Please comment on any error in this fight you can find.]

(;W[ki]C[--
There was a better move ..];B[jk]
(;W[ll]C[--
This is not a cut-free move.];B[il];W[gl];B[lk];W[ni]
(;B[oh];W[mk];B[lj];W[mi];B[ml];W[nk];B[lm]
(;W[nl];B[mm];W[nm];B[nn]
(;W[pk]C[--
Why?];B[pj];W[on];B[no];W[mn];B[qm];W[pm];B[ql];W[qn];B[rn]
;W[qk];B[rk];W[rm];B[qo];W[rl];B[pn];W[pl];B[rj];W[qn];B[qm]
;W[oo];B[np];W[mp];B[lr];W[mq];B[rr];W[rq];B[sq];W[qr];B[oq]
;W[rs];B[or];W[sr];B[ns];W[ms];B[os];W[mr];B[ln];W[kp];B[jn]
;W[jp];B[iq];W[io];B[gm];W[go];B[fp]
(;W[cn]C[maybe this was the game-lossing move. correct? I thought my g5 group had more liberties than p4-group. But i think this was just wishfull thinking.

-- 
Yep.];B[hn];W[ho];B[fn];W[om];B[fo]
(;W[sn]C[--
T5 looks better.];B[so];W[sm];B[jo];W[ip];B[lp];W[lo];B[ko]
;W[qh];B[ob];W[pb];B[pa];W[qa];B[ph];W[oi];B[pi];W[pg];B[of]
;W[ke];B[jd];W[oa];B[na];W[pa];B[ka];W[jb];B[mg];W[kg];B[og]
;W[mh];B[jh];W[mf];B[me];W[lf];B[pe];W[rg];B[la];W[nb];B[kh]
;W[lh];B[ob];W[jq];B[lq];W[nb];B[nj];W[mj];B[ob];C[Result: B+Resign]
N[RESULT])
(;W[so]
(;B[sn];W[sm];B[sp];W[ps]
(;B[lo];W[lp];B[jq];W[pr];B[jo];W[ip];B[in];W[po])
(;B[lp];W[lq];B[kr];W[lo];B[ko];W[po];B[jo];W[ip];B[in];W[pr]
;B[jq];W[qn]))
(;B[lp];W[lo];B[ko];W[lq];B[ls];W[lp]
(;B[jo];W[ip];B[jq];W[in])
(;B[kr];W[jo];B[kn];W[sp];B[jq];W[ps];B[ip];W[pr];B[hp];W[ro]
;B[in];W[po])
(;B[jq];W[jo];B[in];W[kn];B[km]
(;W[ps];B[gp];W[pr])
(;W[sp];B[gp];W[ps];B[hp];W[pr];B[ip];W[kr];B[gn];W[ks];B[jr]
;W[ro];B[js];W[po])))))
(;W[fn])
(;W[fo];B[eo];W[fm]))
(;W[oi];B[pi];W[ph]))
(;W[oi];B[pi];W[ph];B[pg];W[qh];B[qg];W[qi];B[pj];W[rg];B[rf]
;W[og];B[pf];W[ng];B[qe];W[rd];B[ob];W[pb];B[rb]
(;W[sb])
(;W[oa];B[nb];W[sb])))
(;B[mh]))
(;W[lk]))
(;W[jk];B[kj];W[lk]
(;B[kk];W[kl];B[jl];W[ki];B[ik];W[lj];B[jk];W[km])
(;B[ki]
(;W[kh]
(;B[jh];W[lj])
(;B[lj];W[mj];B[jh];W[kk];B[ji];W[mi]))
(;W[lj]))))
(;B[fh];W[if];B[ig];W[jf];B[kf];W[ie];B[hf];W[jd];B[kg];W[ke]
;B[lf])
(;B[hg];W[if];B[ig];W[jf];B[kf];W[ke];B[ie]))
(;B[hh]))
(;B[mh];W[lh];B[ii]))
(;B[ig]))
(;W[gb]))
(;W[mb];B[jb];W[la];B[ib]
(;W[nh])
(;W[cn])))
(;B[mf];W[me];B[pe];W[qe];B[og];W[nf];B[ng]))
(;B[kd];W[jd];B[je];W[ie]
(;B[if]
(;W[jf];B[ke];W[id];B[he])
(;W[ke];B[jf];W[le]))
(;B[ke];W[id])))
(;W[je]))
(;B[jd]))
(;W[je];B[dc]))
(;W[kd])
(;W[jd]))
(;B[ng]))
(;W[oc];B[pd];W[pc];B[qe];W[nc];B[oi]))
(;W[pi];B[pj];W[oj];B[ok];W[oi];B[qi];W[nk];B[ol];W[pg]))
(;B[mo]))
(;W[mq]))
(;W[po]
(;B[pp]
(;W[oo]
(;B[op];W[np];B[no];W[lp];B[nn];W[qo];B[ro];W[rn];B[rp];W[pl]
)
(;B[rn];W[mn]))
(;W[op];B[qo];W[pn];B[qm];W[ol];B[ql];W[ko]))
(;B[qo];W[pn];B[qm];W[ol];B[ql])))
(;B[op]))
