(;FF[4]GM[1]SZ[19]ST[1]AP[SGFC:1.15]

PB[Andreas]
BR[22k]
HA[0]
PW[GnuGo]
KM[5.5]
DT[2006-01-18]
RE[W+40.5]
TM[60]

C[Hi!
This is the first time I ask for a analyse of any of my game. I know that I should play against real people but I am too afraid I suppose :)
Here I played against Gnugo, and it's one of my first 19x19 game I've played.
-**-

Henri
**
my comment will begin by my name
i'm not a professionnal so it will be done as i am
i hope it will improve you game as any comment  make you think "is this comment good or not ?"]
;B[dp];W[pd];B[dd];W[pq];B[qo];W[pl];B[qq]C[playing againt your opponent reinforce him
and makes begining of complicated game
 you also intend to live small in the corner];W[qr];B[pp];W[oq]
;B[rq]C[Henri
--
I think , yes you worried white opening
but your way to go in the corner is small
i would have prefered an option who can work with your moves to the D4 stone (your firts move)

the move number 7 at P5];W[fp]C[Henri
--
S3 was not so good because you loose sente];B[dn]C[henri
--
The purpose of white at F4 is to build in the bottom
so black D6 don't put pressure on white stone
and is a bit slow if he wants influence];W[dq];B[cq];W[eq];B[cr]
;W[jq]C[Henri
--
white is happy in the bottom
he begin a big moyo];B[nc];W[fd];B[df];W[dc];B[cc];W[ec];B[cb]
;W[jc];B[pg];W[ch];B[cj]C[Thought that this was a sound thing to do. I hoped that I sooner could play E12, but white won that one.
--
henri the area between D14 and D6 (your moves 13 and 21) is too large. You can't think it's black territory.]
;W[qi];B[qe];W[qd];B[pe];W[od];B[nd];W[re];B[rf];W[rd];B[pb]
;W[qb];B[pa]C[in retrospect I would have played elsewere, locally at P18 elseE12?
--
Henri
I think it's more important to have a solid group before attack.]
;W[eh];B[ff];W[gh];B[jf]C[tried to connect my group at the same time that I tried to cut whites groups
--
you can think this only if your opponent play very bad. the area is too large. white can split your groups easily. playing H14 for example]
;W[rr];B[op];W[nq];B[mp];W[lr];B[oi];W[hd];B[ea];W[kd];B[le]
;W[oe];B[nf];W[qf];B[pf];W[qg];B[qh];W[rg];B[rh];W[sf];B[pi]
;W[qj];B[pj];W[ri];B[qk];W[rk];B[ql];W[sh];B[ph];W[gf];B[fe]
;W[ge];B[ed];W[fg];B[eg];W[bf];B[fc];W[dr];B[gd];W[ji];B[li]
;W[kk];B[mk];W[rl];B[qm];W[pm];B[lm];W[pk];B[rm];W[jm];B[gm]
;W[dg];B[ef];W[dj];B[dk];W[ej];B[ek];W[hp];B[ko];W[if];B[jg]
;W[cf];B[ce];W[ck];B[bk];W[qa];B[hc];W[ie];B[id];W[jd];B[ic]
;W[je];B[ke];W[ob]C[oops.. Maybe I should have tried to connect those stones before, or placed them at P
--
Henri

in anywayr they were too far from O17 
so even you connect it, you looses sente, points, and stiil have weak groups]
;B[oa]C[unneccesary];W[nb]
(;B[mb];W[na];B[oc]C[could push at N19 too, but I thought that I gained one point by P17
--
henri see variation before];W[pc];B[lc]C[normally I would play N19, but here I thought (probably wrong) about the potential Ko-threat at N17 and at the same time block the big white group.
--
Henri
as your group is till weak,  M16 would have be better than M17, as it connect your stones]
;W[np];B[no];W[ac]C[Aargh, those monkeys. Not good.];B[be];W[ae]
;B[ab];W[jo];B[bc];W[ad];B[bd];W[kn];B[ln];W[jb];B[ib];W[hl]
;B[gl];W[fj];B[ih];W[af];B[kh]C[secure area, but Ishould maybe play at O15 first?!]
;W[ci];B[bj];W[cs];B[bs];W[ds]
(;B[ar];W[cp]C[Another miss from my point of view.  There goes my corner.
--
henri see variation before];B[do];W[bq];B[co];W[bp];B[bo];W[br]
;B[fo];W[sq];B[sp];W[sr];B[ro];W[ne];B[me];W[md]C[one can't save everything
--
Henri

if M17 is in M16, this is more difficult for white];B[ld];W[mc]
C[Too much loss in that corner. Hrm.];B[of];W[ao];B[an];W[ap]
;B[bm];W[kp];B[lo];W[lb];B[ja];W[ka];B[ia];W[bi];B[hg];W[gg]
;B[ii];W[jj];B[ij];W[km];B[ll];W[mq];B[lp];W[lq];B[jl];W[kl]
;B[ik];W[ig];B[jh];W[hh];B[hm];W[go];B[gn];W[fk];B[el]C[To afraid of potential ko-threat at D8 or E8, but I still should just play F8.]
;W[il];B[jk];W[hk];B[kj];W[eo];B[en]C[should F6 be better? If bf6, we6, be7, we4, bh5?]
;W[fn];B[fm];W[he];B[lk];W[in];B[im];W[jn];B[ho];W[fo];B[gk]
;W[hj];B[gj];W[hi];B[hn];W[io];B[fl];W[aj];B[ak];W[ai];B[kc]
;W[kb];B[sl];W[sj];B[sm];W[sk];B[gi];W[fi];B[ep];W[tt];B[hq]
C[Just a little test...];W[iq]C[...that fails];B[tt];W[tt]C[W+7.5]
)
(;B[bq];W[cp];B[bp]
(;W[co];B[do])
(;W[do];B[co];W[eo])
(;W[ep];B[do])))
(;B[oc];W[pc];B[mb];W[na];B[ma];W[mc];B[lc];W[md];B[ne];W[lb]
))
