(;FF[4]GM[1]SZ[19]ST[2]CA[UTF-8]AP[SGFC:1.15]

PB[suzuki2600]
BR[12k]
PW[Arman1978]
WR[11k]
KM[0]
PC[IGS2]
RE[B+2.00]
RU[Japanese]

C[Hello. Thanks for reviewing my game. I have added some of my thoughts. Some advice on the endgame would be appreciated. I don't think I played it well enough.]
;B[pd];W[dp];B[pp];W[dd];B[qj];W[fq]C[I know what you will say, "C10 or O17 better"

there are ways, the point is to have an strategy and play consitently.
In genral terms a play like f3 might be considered questinable because is too close to d4 and does not yet assure the corner.
you can play d10 or c10. It is an option at the expense of leting black keep the initiative, but if you feel like inviting black in for a fight that is a way.

usually white try to take the initiaive to compensate for the half play initial advantage of black.
For example o3. The idea being inviting black to play at r6 and reduce black moyo from the start.]
;B[fc];W[df];B[id]C[Black has been playing light and big];W[cj]
C[ok. This conservative play by white is playable.];B[db]C[At his point is better for white to tenuki ( do not respond to black and strat taking the initiative. For example, playing at o3]

(;W[cc];B[cb];W[nq]C[I think this move is bigger than b17];B[lq]
;W[qq];B[qp];W[pq];B[op]LB[md:E][nj:C][oj:B][np:D][iq:A]C[Some options for black A,B,C,D,E]
;W[mp]SQ[nj][iq];B[qm]C[r7 is too close to wall and makes a good paly into a bad one]

(;W[mn]C[Better to take away m3 base and chase it to the center,]
;B[iq];W[jp];B[mr];W[nr];B[jq];W[nc]C[would appreciate some advice on what I should have played instead of this.

This is ok];B[lc];W[ne];B[qg]C[At this point white needs to make abase for his 2 weak stones and do not let black consolidate a big corner. On option is to invade the corner and try to oveconcentrate black, another to make a base on the corner]

(;W[ic];B[jc];W[hd];B[hc];W[ib];B[jb];W[gc];B[hb];W[gb];B[ia]
;W[fd];B[fb];W[ga];B[bc];W[bd];B[ac];W[pj];B[qi];W[pk];B[qk]
C[j4 seems big enough for white
need to seal the invading group]
(;W[om];B[pl];W[pn];B[qn];W[ol];B[pi];W[oi];B[kp];W[hr]C[Even though this does not protect c3, i wanted to scare him away from it while getting something in return.]
;B[hq];W[cp]C[maybe I should have just done that to begin with]
;B[jo];W[dm];B[ck];W[dj]C[d9 better?];B[dk];W[ek];B[bm];W[cl]
;B[bl];W[bk];B[bi]
(;W[bj];B[dh];W[fi];B[fh];W[eh];B[eg];W[ei];B[dg];W[fg];B[ff]
;W[gg];B[ef];W[ee];B[gf]
(;W[gh];B[he];W[gd];B[if];W[ec];B[eb];W[ad];B[dc];W[cd];B[ba]
;W[bg];B[cf];W[bh];B[bf];W[af];B[de];W[ed];B[ci];W[ai];B[ep]
;W[eq];B[bq];W[bp];B[gr];W[fr];B[ir];W[eo];B[hg];W[qc];B[pc]
;W[qd];B[qe];W[pb];B[ob];W[qb];B[oc]
(;W[re];B[rf]C[suppose black's outside didn't need to be defended, what is the best move inside the corner after s14? Is it T18?]
;W[pe];B[qf];W[od];B[nb];W[mc];B[mb];W[sb];B[ld];W[me];B[oh]
;W[mg];B[ni];W[kf];B[ii];W[lk];B[ok];W[nk];B[oj];W[li];B[mj]
;W[lj];B[mk];W[ml];B[ll];W[ln];B[kl];W[jn];B[md];W[ik];B[mm]
;W[nl];B[lm];W[jm];B[ko]
(;W[rq];B[rp];W[io];B[np];W[mq];B[nn];W[nm];B[on];W[jl];B[pm]
;W[kk];B[nj];W[lr];B[kr]
(;W[ih];B[hh];W[hi]C[I stop the review at this point. Failure to connect o4 at move 160 was a turinig point for the game]
;B[hj];W[gi];B[jh];W[ij];B[ji];W[jg];B[ig];W[kh];B[go];W[gp]
;B[nd];W[pf];B[ho];W[hp];B[ip];W[in];B[rd];W[rc];B[se];W[ra]
;B[sq];W[sr];B[sp];W[rs];B[jj];W[jk];B[ls];W[pg];B[ng];W[nf]
;B[le];W[lf];B[jf];W[ke];B[kd];W[ph];B[qh];W[mo];B[kn];W[ns]
;B[oq];W[or];B[oe];W[of];B[kg];W[lg];B[je];W[pa];B[hs];W[mh]
;B[nh];W[fa];B[ea];W[oa];B[na];W[ms];B[lr];W[ce];B[df];W[no]
;B[oo];W[fs];B[gq];W[fp];B[gm];W[gk];B[ge];W[jg];B[hk];W[hl]
;B[kg];W[ab];B[bb];W[jg];B[pr];W[ps];B[kg];W[sd];B[re];W[jg]
;B[aj];W[ak];B[kg];W[ki];B[jg];W[sc];B[ha];W[ae];B[mi];W[lh]
;B[fe];W[od];B[ch];W[ag];B[cg];W[aj];B[be];W[ah];B[oe];W[km]
;B[od])
(;W[ms];B[ip];W[lp];B[kq];W[gq];B[hs];W[ho];B[kn];W[hi]))
(;W[np]
(;B[nn];W[nm];B[no];W[oo];B[po];W[mo];B[on];W[oo])
(;B[nm];W[nn])))
(;W[pe];B[oe];W[pf];B[of];W[pg];B[qf];W[og];B[nf];W[ng];B[mf]
;W[re];B[rf];W[sd]))
(;W[he];B[gh];W[hg];B[hf];W[if];B[ig];W[hh];B[ie];W[jf];B[gd]
;W[ge];B[fe];W[gd];B[cf];W[de];B[ce];W[cd];B[be];W[cg];B[ch]
;W[bg];B[ad];W[bf];B[ae];W[bh]))
(;W[ad];B[bj];W[ak]))
(;W[ip];B[hq];W[hp];B[gq];W[gp];B[fr];W[eq];B[er];W[dr];B[jj]
;W[es];B[gr];W[hj];B[il];W[ik];B[jl];W[jk];B[kk];W[kl];B[km]
;W[ll];B[jm];W[hl];B[hm];W[gm];B[gl];W[hk];B[gn];W[fm];B[hn]
;W[fn];B[lm];W[mm];B[ml];W[lk];B[mk];W[lj];B[mj];W[ln])
(;W[gr];B[ip];W[jo];B[go];W[ho];B[gp];W[hp];B[gq];W[hq];B[hr]
;W[ir]))
(;W[qc];B[pc];W[qd]
(;B[qe];W[pb];B[ob];W[qb]
(;B[pe];W[re];B[rf];W[oc];B[nb];W[mb];B[mc];W[na])
(;B[oc];W[pe]
(;B[pf];W[oe];B[nd];W[md];B[od];W[nb])
(;B[oe];W[pf]
(;B[of];W[pg];B[og];W[ph];B[qf];W[qh];B[rh];W[ri];B[qi];W[rg]
;B[rf];W[sh];B[oh];W[pi])
(;B[pg];W[of];B[nb];W[qf];B[rf];W[re];B[rg];W[od])
(;B[qf];W[of];B[od];W[nd];B[nb];W[mb]))))
(;B[pe];W[pb];B[ob];W[qb];B[oc];W[rf];B[rg];W[qf];B[pf];W[pg]
))
(;W[pb];B[qc]))
(;W[iq];B[lp];W[lo];B[ko];W[kp];B[mo];W[ln];B[mn];W[mm];B[lm]
;W[kn];B[nm];W[ml];B[nl];W[no];B[nn];W[np];B[oo];W[oq];B[mk]
;W[rp];B[ro];W[km];B[ll];W[nc];B[rq];W[rr];B[sp];W[kq]))
(;W[nq];B[cc];W[pn];B[oo];W[qq]))
