(;FF[4]GM[1]SZ[19]ST[1]AP[SGFC:1.15]

PB[KamiNoItte]
BR[4k]
PW[slowplay]
WR[3k]
KM[-5.5]
DT[2006-01-16]
PC[IGS-PandaNet]
RE[W+7.5]
TM[600]

C[Chris: Hi!
About 5 months ago it felt to me that I actually got  worse than I was before. I had a break from Go for 3 months and started playing again a couple of weeks ago. Now, people I used to beat easily seem to pose an un-breakable barrier.

I am posting this game with all questions I have because I feel that it might represent the fundametal error in my thinking.

Please help me uncover this fundamental flaw.

Thank you in advance.

Chris];B[pd];W[pp];B[cp]C[Quite unusual move, but sometimes played in pro games.]
;W[dd];B[nq];W[lq]
(;B[qq]C[also playable];W[pq];B[qp];W[po];B[pr];W[or];B[qr]
;W[oq];B[qn]
(;W[om]C[white missed urgent point]
(;B[qm];W[ep]C[Chris: Hoping for the mini-chinese formation this was quite a drawback. I started doing something a bit foolish now, and I am suprised I got away with it.]

(;B[gq]C[overplay]
(;W[cq]
(;B[bq]LB[dq:A]C[Chris: Black 21 at A would have been better I think.
of course];W[dq];B[jq]LB[bo:A][nq:B][dn:C]C[Chris: I was considering A but I wanted to get a foot in there quickly, hoping I could bring the stone at B into good use. Also if I played A I was a bit afraid of white playing C in sente, and completely killing my pincer stone. I felt that when I played the pincer I had to make use of it now as for it not to be completely useless.]
;W[bo];B[bp]LB[eq:A]C[Chris: I missread, thinking a cut at A would do a lot of damage.]
;W[co];B[dp];W[do]
(;B[cr]C[Chris: Realised I missread badly here.];W[dr];B[cs]
;W[fq];B[ar];W[hq]
(;B[eo]C[it is better to left aji for later];W[gp];B[en];W[cl]
C[white gained from this exchange];B[gr];W[hr]C[Chris: Was this exchange correct? I thought it would give me a couple of sente moves to exploit later.]
;B[fc]LB[en:A]C[Chris: Now here a real big problem for me. I was wondering if I should save my cutting stones at A. But I thought Whites groups on both sides were too strong for it to be any useful. I do not think I have any chance of attacking either and all I would do is give white more terretory/influence.]

(;W[ek]C[useless move]
(;B[cf]C[Chris: Is the double kakari ok here? I am not so sure now, as it gave me a weak group and black 43 wasnt of much use...]
;W[ce];B[df];W[ed];B[ic]C[Chris: Whites move seems heavy but I do not see a good way to attack it.]
;W[fd]
(;B[gc];W[ch];B[ff];W[gd];B[hd];W[ge];B[gg];W[eg];B[ef];W[hf]
;B[bf];W[hg];B[gh];W[hj];B[ci];W[di];B[dh];W[bh]
(;B[dg];W[ei];B[hh];W[ih];B[ii];W[hi];B[ig];W[jh];B[bd];W[cd]
;B[be];W[bc];B[bb];W[cc];B[bg];W[cj];B[cb];W[jf]C[Chris: I think White was too afraid here and could have killed. So theoretically I think the game was over for me now. Luckily White played 84, prolonging my beating.]
;B[ac];W[ad];B[ae];W[ab];B[aa];W[db];B[ca]LB[kc:a][pl:b][qf:c]
C[ok, i will stop comment here
althrough you live in top left, overall position is bad
You fighted well later, so result was almost close game];W[ok]
;B[nr]C[Chris: The whole fight in the top left together with me being shut in small in the bottom right gave White a very respectable moyo. I felt that a reduction wouldnt be enough. Is an invasion correct here (considering I am trying to fix earlier mistakes).]

(;W[os];B[no]
(;W[on];B[lp];W[kq];B[kp];W[jr];B[ln];W[ml];B[kl];W[jk];B[kk]
;W[jj];B[jl];W[il];B[im];W[hm];B[hl];W[ik];B[hn];W[gm];B[in]
;W[gn];B[mk];W[kj];B[lj];W[oi];B[qg];W[og];B[nj];W[oj];B[ll]
;W[nd];B[nc];W[od];B[pc];W[oc];B[lc];W[pb];B[qb];W[pe];B[qe]
;W[pf];B[qf];W[mc];B[ld];W[nb];B[rc];W[qi];B[nl];W[ol];B[nm]
;W[le];B[ke];W[kf];B[ie];W[if];B[je];W[ph]C[Chris: I looked at the board and now that the middle game is over I figured I was only a handul of points behind. I tried to play as hard a yose as I could, but it wasnt quite enough at the end.]
;B[ao];W[an];B[ap];W[bn];B[ds];W[fr];B[jp];W[iq];B[mh];W[qo]
;B[ro];W[rl];B[ql];W[rm];B[rn];W[qk];B[ps];W[lb];B[kb];W[md]
;B[jb];W[lg];B[mg];W[mf];B[eb];W[nn];B[mn];W[da];B[ea];W[dc]
;B[eh];W[rh];B[rg];W[mp];B[np];W[mq];B[mo];W[mr];B[ah];W[bi]
;B[sm];W[rk];B[ns];W[ms];B[ho];W[go];B[fi];W[fj];B[gi];W[ec]
;B[gj];W[gk];B[gb];W[li];B[mi];W[lh];B[sh];W[si];B[sg];W[sn]
;B[so];W[ag];B[af];W[es];B[qh];W[ri];B[ng];W[nf];B[pa];W[ob]
;B[la];W[mb];B[ma];W[qa];B[ra];W[oa];B[qa];W[ni];B[nk];W[nh]
;B[mj];W[ip];B[io];W[sl];B[ai];W[aj];B[ag];W[pl];B[sn];W[pn]
;B[rq];W[hp];B[ka];W[he];B[tt];W[oo];B[tt];W[op];B[tt];W[kn]
;B[jn];W[tt];B[tt];W[tt]TB[ba][ab][fb][ib][rb][ad][id][fh][lk]
[jo][lo][aq][as][qs][fa][ga][ha][ia][ja][sa][sb][sc][sd][se]
[sf][hb][hc][jc][jd][kc][kd][qc][qd][rd][re][rf][eg][fg][ml]
[mm][jm][km][lm][kn][ko][rp][sp][sq][sr][ss][br][bs][rr][rs]
TW[nc][lf][of][oh][ci][ji][ej][ck][sk][gl][fs][hs][js][me][ne]
[oe][ig][jg][kg][kh][ki][ii][ij][pi][pj][pk][bj][bk][bl][bm]
[dj][dk][dl][dm][dn][qj][rj][sj][ak][al][am][fk][fl][fm][fn]
[fo][fp][hk][hl][el][em][en][eo][cm][cn][eq][er][gq][gr][gs]
[ir][is][kr][ks][lr][ls]C[slowplay: 69.5 to KamiNoItte: 62.0

Chris: Thank you very much for looking at this game.])
(;W[oo]))
(;W[np];B[os];W[mp]C[still interesting moyo]))
(;B[bi]
(;W[dg];B[eh];W[fh];B[ei];W[fi];B[dj];W[ej];B[di];W[fg];B[cg]
;W[gf];B[bk])
(;W[eh];B[dg];W[dj];B[bk])))
(;B[cj]C[i prefer this];W[gc];B[gb];W[fb];B[hc];W[ec];B[lc]
))
(;B[cc]C[maybe easier]))
(;W[gm]C[much better idea])
(;W[df]C[almost only move ^^]))
(;B[gp];W[gr];B[fr];W[hr];B[es]
(;W[fo];B[hp]C[some aji remains];W[ip];B[iq]C[for instance ..]
;W[ho];B[jp];W[io];B[ir];W[go];B[hs];W[fp];B[gs]C[white of course gets magnificient thickness]
)
(;W[hp];B[go];W[fo];B[ho])))
(;B[eq]C[why not here?];W[er];B[fq];W[br];B[eo];W[aq];B[fp]
;W[ap]C[black plays elsewhere]))
(;B[dq];W[dp];B[eq];W[fq];B[fr];W[co];B[bp];W[fp];B[dr];W[bo]
;B[bq];W[gp];B[hq];W[dj];B[hp]))
(;W[fo]C[correct
of course, there are many variations, but white has advantage]
))
(;B[eq]C[i think this is correct];W[fq];B[dq];W[fp];B[cn];W[em]
;B[jm];W[jo];B[mm];W[ol];B[ko];W[kp];B[lo];W[jn];B[km]
(;W[np];B[mp];W[mq];B[no];W[nr]C[cutting now is generaly bad idea, but it is great aji in white position]
)
(;W[mp]C[still remains a lot of aji]))
(;B[dn]C[white gains too much];W[cq];B[bq];W[dq];B[bo];W[en]

(;B[dm];W[hn])
(;B[em];W[fn];B[dl];W[in])))
(;B[fq]C[magnificient point];W[qm];B[rn]C[white thickness is not well-used
black is better]))
(;W[eq]C[correct];B[do]))
(;B[fq]C[natural]))
