(;FF[4]GM[1]SZ[19]ST[2]CA[UTF-8]AP[SGFC:1.15]

PB[cytorch]
BR[18k]
PW[leslielau]
WR[17k]
KM[0.5]
DT[2006-02-07]
PC[The Kiseido Go Server (KGS) at http://kgs.kiseido.com/]
RE[W+6.50]
RU[Chinese]

C[Hi!
This is my first review. I'll try to answer your questions and point out major mistakes. I will also comment some of the black's moves. Enjoy!]
;B[pc];W[cp];B[pq];W[dd];B[qe];W[ci];B[fc]
(;W[cf]LB[hc:A]C[This move is too slow. White already has a stone at c11 and therefore should pincer the black stone for example at a. See variation]
;B[jd];W[pb]C[is tis a good move?

I think it is too early to play this move. Later it could be useful. But if you want to play it so early on, you could regard it as a probe to see which strategy your opponent chooses. Still, you should leave it there and not try to live with it immediately.]

(;B[qb]C[Wrong side. Black has more potential on the other side. See variation]
;W[ob];B[oc]
(;W[nb];B[nc];W[mb];B[mc];W[lb];B[lc];W[kb];B[kc];W[jb];B[ib]
;W[ja];B[ic];W[rb];B[rc];W[qa];B[qc]C[The result is horrible for white. White has only 5 points of territory, whereas blacks strong position is worth much more. Crawling on the second line is almost always bad.]
;W[nq];B[sb];W[ra];B[sc]C[This and black t18 aren't necessary.]
;W[qj]LB[qg:D][ql:C][po:B][qo:A]C[is this a good move?

Yes, it is good to try to split black, and this move also reduces greatly the influence of the black's wall. White can look forward to double approaching at a or b or if black extends to c, white can be happy with c]
;B[pn];W[qg];B[ql]
(;W[oj]LB[rk:A]C[is A better?

No, the one point jump is a good way to defend. Playing at a would be too small. If you want to have a solid base, you should play something like s8. See variation]
;B[sa]
(;W[pa]C[Instead of connecting white could tenuki, because this move doesn't threaten to kill white group. See variation]
;B[no]C[A thank you move. forces white to defend, which is what he wants, and black gains nothing.]
;W[kq];B[mp];W[op]C[should i connect 1st?

No, I don't think so. Black n3 would be bad, which is why he cant cut. Still, I don't see why p4 should be played. It doesn't gain anything. See variations]

(;B[pp];W[mq];B[oo];W[pr]C[is this too dangerous?

Yes, this move doesn't work. See variations]
(;B[qr];W[or];B[oq];W[np];B[lp];W[lq];B[ps];W[os]LB[nr:A][ns:B]
C[is A better?

Yes. I think I don't have to explain this one :) B works too.]
;B[nr];W[mr];B[ns];W[ip];B[fq]
(;W[fp];B[ep]
(;W[eq]C[is cuuting risky?

Yes, but the result can be good. Other possibilities include extending after blacks hane and playing cap instead of attachment. See variations]
;B[er];W[dq];B[gp];W[fo];B[gr];W[go];B[hp];W[ho];B[hq];W[iq]
;B[ir];W[jr]LB[io:A]C[Too small. Protecting the cut at a is more urgent]
;B[js];W[ks];B[is];W[fs]C[is black alive already?

Yes, black is unconditionally alive.];B[es];W[dr];B[gs];W[kp]
;B[ln];W[fj]C[is this a good move?

Yes. It enlarges the moyo and strengthens the r10 group.];B[io]
;W[jp]LB[jn:A]C[With this move, white still has only one eye. It would be better to escape with a]
;B[ls];W[jo];B[kr];W[in];B[jq];W[ik]C[Protecting the upper corner would be wiser. Black could get a nasty ko in the corner. See variation]

(;B[of]C[Slow!];W[oh]LB[dc:B][og:A][rl:C]C[is  this a good move? I thought that A would be touching what i'm attacking

Actually, attacking the black wall is pointless because it's alive no matter what way you look at it. Yes, your move is better than a but even better would be to play at b or locally a good move would be c]
;B[mg];W[li];B[kh];W[lh];B[lg];W[ng];B[nf];W[ki];B[jh];W[ji]
LB[hg:A]TR[jh][kh][ki][li]C[Your wall doesn't give you any territory, whereas black is gaining lots of points. You can live with your group, so it isn't necessary to escape. Instead you should reduce, for example at a]
;B[ih];W[ii];B[mk];W[mj];B[nk];W[nj];B[jm];W[im];B[jl];W[il]
;B[do];W[dp];B[eo];W[cn];B[co];W[bo];B[en];W[fm];B[bn]
(;W[bm]C[See variation for better move.];B[bp];W[bq];B[ao];W[cr]
;B[cm];W[dm];B[cl];W[dn];B[em];W[dl];B[bl];W[el];B[am];W[fn]
;B[bo];W[bj];B[br];W[ar];B[bs];W[cs];B[fr];W[as]C[is capturing necessary?

No, this move just wastes the sente];B[fl];W[fk];B[dk];W[ek]
;B[ck];W[ak];B[dj];W[di];B[gg]LB[al:A]C[Oops. A would kill black]
;W[fh];B[hi];W[hj];B[gi];W[fi];B[gj];W[gk];B[gh];W[ff];B[fg]
;W[eg];B[gf];W[fe];B[ge];W[fd];B[gd];W[ec];B[fb];W[eb];B[ea]
;W[da];B[fa];W[db];B[og];W[nh];B[pg];W[ph];B[qf];W[qi]LB[rg:A]
[qh:B]C[shoud I play at A instead?

Yes, A is better. It protects the cut at b, and gives territory.]
;B[rg];W[pk];B[qh];W[ol];B[nm];W[om];B[pl];W[jr];B[ok];W[qk]
;B[rl];W[sj];B[sk];W[rj];B[mh];W[mi];B[lk];W[kk];B[kl];W[jk]
;B[kn];W[jn];B[ll];W[al]C[Good :)];B[ej];W[ei];B[cj];W[bi];B[dg]
;W[df];B[ia];W[sh]C[is this a good endgame move?

In this case this move is good];B[rh];W[ri]C[Unnecessary];B[sg]
;W[si];B[rk];W[tt];B[jc];W[bk];B[lj];W[kj];B[ko];W[tt]LB[jq:A]
[ms:B]C[The game has not yet ended, a and b must be filled]
;B[tt]TW[aa][ba][ca][ka][la][ma][na][oa][ab][bb][cb][ac][bc]
[cc][dc][ad][bd][cd][ed][ae][be][ce][de][ee][af][bf][ef][ag]
[bg][cg][dg][ah][bh][ch][dh][eh][ai][ni][oi][pi][aj][cj][dj]
[ej][ij][jj][pj][ck][dk][hk][bl][cl][fl][gl][hl][am][bm][cm]
[em][gm][hm][an][bn][en][gn][hn][ao][bo][co][do][eo][io][ap]
[bp][ep][aq][cq][jq][br][bs]TB[ga][ha][gb][hb][gc][hc][hd][id]
[kd][ld][md][nd][od][pd][qd][rd][sd][he][ie][je][ke][le][me]
[ne][oe][pe][re][se][hf][if][jf][kf][lf][mf][pf][rf][sf][hg]
[ig][jg][kg][qg][hh][ml][nl][ol][sl][km][lm][mm][om][pm][qm]
[rm][sm][mn][nn][on][qn][rn][sn][lo][mo][po][qo][ro][so][qp]
[rp][sp][gq][qq][rq][sq][hr][or][pr][rr][sr][fs][hs][ks][os]
[qs][rs][ss])
(;W[bp];B[cm];W[dm];B[em];W[dl];B[el];W[dk];B[dn];W[fk]C[Black is dead]
))
(;B[cc];W[dc];B[db];W[eb];B[bb];W[da];B[ca]))
(;W[eo]C[This is good too.]
(;B[fo];W[gp];B[do];W[en];B[dp];W[dn];B[co];W[cn];B[bo])
(;B[gp];W[fo];B[dp];W[do];B[cq];W[bp];B[gq];W[ho];B[bq];W[cn]
))
(;W[gp];B[eo];W[dn];B[fn];W[hn];B[fl];W[dl]C[Good for white]
))
(;W[fo]C[Safer, enlarges white moyo on the left side];B[eo]
;W[ep];B[fp];W[do];B[go];W[en];B[hp];W[in];B[io];W[jo];B[jp]
;W[kp];B[iq];W[kn]C[For example]))
(;B[or];W[nr];B[qr]))
(;B[mq]C[If black cuts...];W[mr];B[lr];W[nr];B[lq];W[oo];B[on]
;W[qp];B[qq];W[rp]C[Excellent for white]))
(;W[jp];B[pa];W[oa]C[k4 is bigger than q19]))
(;W[rl]
(;B[rm];W[rk])
(;B[rk];W[qk];B[rm];W[pl];B[qm];W[rj];B[sl];W[mj])))
(;W[nc]C[Try to get up];B[nd];W[mc];B[md];W[jb]C[Acceptable for white]
))
(;B[oc];W[ob];B[nb];W[qc];B[qd];W[rc];B[nc]C[Better fo black]
))
(;W[hc];B[cc];W[cd];B[dc];W[ed];B[fb];W[ge]))
