(;FF[4]GM[1]SZ[19]ST[2]CA[UTF-8]AP[SGFC:1.15]

PB[mike]
BR[16k]
PW[unkonwn]
WR[16k]
KM[6.5]
DT[2006-02-18]
RE[W+6.50]
RU[Japanese]

C[sup, i played this game as an 17k on tygem with an 16k. i lost by about 7.5  points. i thought i was always on the winning side of the game, please give me some pointers. thx!
p.s. i made alot of mistakes when making this kifu on a fresh board, sorry for the inconvenience.

Hi Mike!

My name ist Rainer (Beholder, 8k), I did the review of this game. All my comments have the prefix "Beh:".

It was not easy to write a review for this game as you haven't written many questions in this file. Perhaps you would like to write more specific questions next time, it would help.

Generally I would say White was playing good during the opening and in the endgame, so both players lost some points during yose. Black was playing too passive during early opening but did well in the middlegame. White did earn the win.
White won the game with 6.5 points, but had the chance to finish the game quite early (move 84)

I hope this review helps you to get even more fun out of this great game!

Best regards

Rainer (Beholder)];B[pd];W[dc];B[de];W[pq];B[po]CR[cp][dp][cq]
[dq]C[Beh: B is following where W is leading. Better for B to play in the lower left corner.]
;W[cp];B[ep]C[started with a fierce attack...

Beh: As I stated before, B is just following passively. W still has sente and can choose where and what to play...]
;W[eq];B[fq];W[dq];B[gp];W[cn]
(;B[iq]LB[kq:A]C[Beh: B plays too near. A would be joseki.]
;W[qo];B[pp];W[qp];B[oq];W[qn];B[pn];W[pm];B[qq]C[snow transformation to help my shape in the middle]
;W[pr];B[rq];W[op]C[Beh: This move is not joseki.];B[np]C[the new play..]
;W[rr]
(;B[oo]LB[qm:B][or:A]TR[de]C[Beh: B is giving up the corner too easily. The marked stone functions as a ladder breaker. A and B attack.]
;W[qr]C[Beh: W wins the fight for the corner.];B[qm]C[Beh: This help W to gain influence.]
;W[ql];B[rm];W[rl];B[om];W[pl];B[ol];W[pf];B[or]C[Beh: It's too early for this move. There are bigger points.]
;W[rp]C[Beh: Not necessary. The corner is safe.];B[qf]C[i think i should of pinched it?

Beh: To pincer would lead to a hard fight for B. W is strong in the lower right corner. To play underneath is ok, but it still helps W to stabilise her position.]
;W[qg];B[qe];W[pg]
(;B[qc]LB[nc:A]C[i guess this was too small, but i was afraid of an invasion by white

Beh: A would be better.];W[cd]
(;B[ce]LB[gd:A]C[Beh: B is trying to set up a position on the left side with an extension down. W is already settled in the lower left and has influence up the left side. Perhaps A would be better.]
;W[ch]C[Beh: W attacks with playing where B wants to play.]
;B[ci];W[di];B[dj];W[cj];B[bi];W[ck]
(;B[bh]LB[dh:A]C[Beh: A would be better.];W[ej];B[dh];W[ei]
;B[em];W[el]SQ[ce][de][bh][dh][bi][ci]C[left piece is still unstable

Beh: If you meant the marked position, it is settled.];B[fl]
;W[fm]C[wild cut by white...

Beh: No, not a wild cut.];B[ek];W[dl];B[fk];W[dk];B[en];W[gm]
CR[hl][il][hm][im]C[Beh: Better to play around the marked points. To play light is more efficient here...]
;B[il];W[in];B[jm];W[gk]C[a good move];B[fj];W[gj];B[fi];W[eh]
;B[cg]
(;W[gl]LB[gi:A]C[Beh: W should continue with A and gain more influence towards the center.]
;B[gh];W[gi];B[fh];W[dg];B[ch];W[fg];B[df]
(;W[gg]LB[hh:A]SQ[fh][gh][fi][fj][ek][fk][fl]C[Beh: A move at A would have killed the marked black group. This could have decided the game quite early.]
;B[hh];W[ij]C[i became the attak target, or to say that both our pieces are unstable

Beh: W position is now a little better than B in the center. B is seperated but W is still weak.]
;B[ji]
(;W[ik]LB[ii:A]C[Beh: How about playing A instead?];B[jk];W[ii]
;B[ih];W[jj];B[ki];W[kk];B[jl];W[kj];B[mi];W[mk];B[oj];W[lm]
;B[kn];W[ln];B[ko];W[km];B[jn];W[nj];B[ni];W[li];B[lh];W[lj]
;B[mg]
(;W[ok]C[Beh: Have a look at the variations.];B[pk];W[nk];B[qk]
;W[rn];B[pi];W[nn];B[on];W[nm];B[ml];W[nl];B[ll];W[kl];B[mo]
C[a bad move, should of played a A];W[hl]C[Beh: Now W is alive.]
;B[hn];W[fd];B[bd];W[bc];B[dd];W[cc];B[hd];W[kd];B[eg];W[dj]
;B[ff]
(;W[hc]LB[ge:A]C[Beh: A would be better.];B[ic];W[id];B[he]
;W[jc];B[gc];W[hb];B[gb];W[ib];B[ec]C[white corner is under attack]
;W[eb];B[be];W[fc];B[ed]C[the white corner is safe];W[fb];B[gd]

(;W[oc]LB[nc:A]C[Beh: A would be better.];B[od];W[nd];B[ob]
;W[nb];B[pb];W[ne];B[nf];W[oe];B[pe]C[after the 3 white stones are saved, i face the reality of losing]
;W[of];B[le];W[qi]C[pretty good move, press b to continue];B[rj]
;W[qj];B[pj]
(;W[ph]LB[rk:A]C[Beh: I think A would be better.];B[oi];W[rk]
;B[ri];W[qh];B[rg];W[rh];B[sh]C[useless save];W[sj]C[should of played at A]
;B[rf]C[press b to continue];W[jg];B[jh];W[kg];B[kh];W[ke];B[ld]
;W[lc]C[lost a heck of a lot of points here];B[mb];W[mc];B[na]
;W[nc];B[lb];W[kb];B[oa];W[lf];B[if];W[jf];B[al]C[press b to continue]
;W[am]C[press b to continue];B[bj];W[bk];B[ak];W[bl];B[aj];W[bn]
;B[dp];W[fr];B[gr];W[dr];B[fs];W[er];B[co]C[should of played at c3]
;W[bp];B[dn];W[gn];B[ho];W[fo];B[fp];W[mn];B[lo];W[hi];B[mf]
;W[me];B[lg];W[md];B[je];W[ie];B[ig];W[jd];B[fe];W[ga];B[ac]
;W[ab];B[ad];W[ba];B[bo];W[ao];B[do];W[dm];B[ps];W[qs];B[os]
;W[si];B[nh];W[sg];B[sf];W[sh];B[og];W[oh];B[ng];W[la];B[ma]
;W[ka];B[im];W[br];B[es];W[ds];B[gs];W[pc];B[rb];W[hf];B[ge]
TW[aa][ca][da][ea][fa][ha][ia][ja][bb][cb][db][jb][ic][kc][ld]
[je][le][kf][ri][hj][rj][hk][lk][sk][cl][ll][ml][sl][bm][cm]
[mm][qm][rm][sm][an][sn][ro][so][ap][sp][aq][bq][cq][qq][rq]
[sq][ar][cr][sr][as][bs][cs][rs][ss]TB[pa][qa][ra][sa][qb][sb]
[rc][sc][qd][rd][sd][ae][ee][re][se][af][bf][cf][ef][gf][hf]
[ag][bg][dg][fg][gg][hg][ah][mh][ai][in][io][jo][hp][ip][jp]
[kp][lp][mp][op][gq][hq][jq][kq][lq][mq][nq][hr][ir][jr][kr]
[lr][mr][nr][hs][is][js][ks][ls][ms][ns]C[i lost pretty big i think, and might have lost some more if white have grabbed on to my crucial weaknesses... thx for going over my game, hope you will point out my fatal errors for me so i won't make them again in future games.thx!]
)
(;W[rk]
(;B[ri];W[qh];B[rg];W[rh];B[sh];W[rf];B[sg];W[sf];B[si];W[sj]
)
(;B[qh];W[ri];B[rh];W[sj];B[rg];W[ph];B[oi];W[sh];B[sf])))
(;W[nc]))
(;W[ge];B[gf];W[he]))
(;W[jh]
(;B[kh];W[jg])
(;B[jg];W[kh];B[if];W[kg];B[kf];W[lg];B[lf];W[mh];B[nh];W[ng]
;B[lh];W[mf];B[mh];W[nf])))
(;W[ii];B[ih];W[jj]))
(;W[hh]SQ[fh][gh][fi][fj][ek][fk][fl]C[Beh: This ladder would finish B.]
))
(;W[gi]))
(;B[dh];W[ei];B[cg]))
(;B[gd]))
(;B[nc]))
(;B[or])
(;B[qm]))
(;B[kq]))
