(;FF[4]GM[1]SZ[19]AP[SGFC:1.12j]

GN[Rasalom-swr(B) IGS]
EV[A TOURNAMENT game played on the Internet Go Server]
PB[swr]
BR[9k*]
PW[Rasalom]
WR[8k*]
KM[5.5]
DT[1997-11-02]
PC[IGS:  igs.nuri.net 6969]
RE[W+29.5]
TM[600]
US[Brought to you by IGS]
CP[  Copyright (c) I.Net Technologies, Inc. 1995  Permission to reproduce this game is given, provided proper credit is given.  No warrantee, implied or explicit, is understood.  Use of this game is an understanding and agreement of this notice.]


;B[pd];W[dc];B[qq];W[dq];B[jd];W[co];B[jp];W[lp]C[ Seems a little bit early to invade - there are still some very big points around.]
;B[np];W[ln]LB[hp:A][hq:B][gp:C]C[ Here I think you must play a pincer, probably at a) or b). Because if black plays c) next you will have a weak group with nothing to attack.]
;B[jn];W[nn]C[ Ok.];B[pn]C[ Looks ok, but doesn't seem to work well.]
;W[oo];B[op]LB[pp:A][po:B]C[ Must be at a) I think, but that is not so good either. Perhaps b) and give up the stone on the left.]
;W[po];B[pp];W[qo]C[ Disaster for black, getting a stone cut off like this.]
;B[pl];W[dj]LB[mk:A][pj:B][hp:C][di:D]C[ I would prefer to come out at a) - then b) and c) are miai. On the left I think d) or a shimari works better - with this move black can play kakari against the corner easily.]
;B[de];W[ce];B[cf]LB[dd:A]C[ Since black can't extent on the left, probably playing nadare at a) would be better.]
;W[cd];B[dg]LB[ff:A]C[ A bit heavy - the normal move is to jump to a).]
;W[ed]LB[ef:A][fc:B]C[ More normal to peep at a) first. If you play at b) you don't peep.]
;B[ff]LB[gf:A]C[ Slow, a) is better.];W[ee];B[ef];W[hd]C[Good. Looking at the weakness of the group on the left.]
;B[ic]C[ Not good - the white corner group is safe.];W[hf]C[ Good.]
;B[ci]C[ Strengthens white, but also gets a base. Moves like this should be avoided.]
;W[cj];B[bi];W[jf]LB[mk:A][pj:B][qf:C][nc:D][md:E][hq:F][hp:G]
C[ Playing from the strong stones is not good. The letters are some alternatives.]
;B[md]C[ Black is happy to secure his two stones while getting some territory as well.]
;W[hq]C[ Good! Although K14 was not so good, one effect is to increase the value of attacking the K4 stones.]
;B[fo]LB[eo:A]C[ Looks like an overplay, and it misses the corner key-point a). (See variations for some possibilities for white.)]

(;W[ho];B[hn]C[ See variation for white.]
(;W[in];B[io];W[gn];B[im];W[go]LB[bk:A][dr:B]C[ This looks fine for black. Note that white is still open at a), and there is some bad aji in the corner after b). But black has to attack the weak white stones on the right, to make use of his ponnuki.]
;B[gm];W[fm];B[fn];W[em]LB[fq:A][dr:B]C[ I cannot read this out completely, but the combination of a) and b) should give black some possibilities here. (See variation for an example.)]

(;B[hp];W[gp];B[gq];W[fp];B[fq];W[ep];B[iq];W[hr];B[ir];W[ip]
;B[fh];W[jq]C[ This is a bit dangerous - black should take the ko now.]
;B[kq];W[jr];B[kr];W[is];B[kp]C[ Black gives up the ko and ends in gote ! At the same time any aji in the corner has disappeared.]
;W[mp]LB[ll:A][mk:B]C[ You should concentrate on the main string of stones here. If black were to play a) next things could get hairy, so I would jump to b). Also: isn't it better to attack the two lonely stones on the right? After all we can't expect to catch the ponnuki stones on the left!]
;B[mo];W[lo];B[mn];W[mm];B[no];W[km];B[nm];W[nl];B[om];W[ko]
;B[jo];W[ll];B[jm];W[gl];B[hm];W[jl];B[hl];W[gk];B[ek]C[ ?? Overplay.]
;W[hk]C[ Good.];B[mr]LB[mq:A]C[ Still catching the stones on the right is huge, and black is well in the game. a) would be preferable though.]
;W[ej];B[qi];W[qk]LB[qf:A][qc:B]C[ Again this invasion is in a very narrow space - why not a) or b) ?]
;B[ql];W[pj];B[pi];W[oj];B[qj];W[qf]C[ Now black is stronger below, so this kakari is more difficult.]
;B[qe];W[of];B[pf];W[pg];B[pe];W[qg];B[oe]LB[og:A]C[ Black can cut at a).]
;W[oi];B[og];W[oh];B[nf];W[rk];B[pk];W[ri];B[rj];W[rh]LB[ph:A]
C[ Better to play a) and keep sente.];B[rl];W[re];B[rd];W[ph]
;B[mq]C[ Small.];W[hh]C[ Good.];B[be];W[bd];B[af];W[mg]LB[bj:A]
C[ Yes! But a) is also very big.];B[ie];W[if];B[he];W[gd];B[ge]
C[ See variation for white.]
(;W[je];B[kd];W[id];B[gf]LB[gb:A]C[ I would play a).];W[hb]
;B[hc];W[gc];B[ib];W[gb];B[lg];W[lf];B[mf];W[kg];B[mh];W[lh]
;B[nh];W[mi];B[ni];W[nj];B[ng];W[jb]LB[ia:A]C[ Better to play a) and keep sente.]
;B[jc];W[ia];B[kb];W[bj]C[ Yes!];B[bg];W[le]LB[rf:A]C[ a) is quite big now.]
;B[ld];W[fi];B[gh];W[gi];B[il];W[ik];B[jk];W[kl];B[mj];W[li]
;B[hg];W[ig];B[ad];W[bc];B[aj];W[ak];B[ai];W[bk];B[mk];W[ml]
;B[ok];W[nk];B[rf]C[ This is bigger than it looks - around 10 points.]
;W[rg];B[sf];W[sg];B[se];W[gg]LB[ac:A]C[ A is quite big.];B[fg]
;W[me];B[ne];W[ac]C[ Good.];B[ae];W[eh];B[dh];W[di];B[ja];W[ha]
;B[lg];W[ks];B[ls];W[sj]LB[si:A]C[ a) is better.];B[sk];W[si]
;B[mg];W[lq];B[lr]LB[kn:A]C[ Black shoud reply at a).];W[kn]
;B[hg];W[rq]LB[ke:A]C[ Better to just play at a) - it is one point reverse sente and makes the ko unimportant.]
;B[qp];W[gg];B[fd];W[fe];B[hg];W[qr];B[rp];W[sr];B[pr]LB[rs:A]
C[ Must be a) of course.];W[rs];B[gg];W[sp]LB[ke:A][ps:B]C[ Must answer at a) of course. But also better on the other side at b), which will be sente.]
;B[so];W[sq];B[ps];W[qs];B[ih];W[hi];B[ke];W[jh];B[kf];W[ii]
C[ Six points in sente for black.];B[eg];W[ei];B[df];W[dd];B[js]
;W[ro];B[sn];W[ks];B[fc];W[fb];B[js];W[sm];B[rn];W[ks];B[kh]
;W[ki];B[js];W[rm];B[qn];W[ks];B[tt];W[js];B[tt];W[tt];B[tt]
;TW[aa][ab][al][am][an][ao][ap][aq][ar][as][ba][bb][bl][bm]
[bn][bo][bp][bq][br][bs][ca][cb][cc][ck][cl][cm][cn][cp][cq]
[cr][cs][da][db][dk][dl][dm][dn][do][dp][dr][ds][ea][eb][ec]
[ek][el][en][eo][eq][er][es][fa][fc][fd][fj][fk][fl][fn][fo]
[fq][fr][fs][ga][gj][gq][gr][gs][hj][hp][hs][ih][ij][iq][ir]
[jg][ji][jj][jk][kh][kj][kk][lj][lk][lm][mj][mk][rr][sh][ss]
TB[ag][ah][bf][bh][cg][ch][in][jb][ka][kc][la][lb][lc][le][lf]
[ma][mb][mc][me][ms][na][nb][nc][nd][nn][nq][nr][ns][oa][ob]
[oc][od][of][on][oo][oq][or][os][pa][pb][pc][pm][po][pq][qa]
[qb][qc][qd][qk][qm][qo][ra][rb][rc][re][rk][rm][ro][sa][sb]
[sc][sd][sl][sm])
(;W[hb]C[ Just playing here retains your liberties, and forcing moves against the top.]
;B[hc];W[gc];B[ib];W[gb]))
(;B[dr];W[eq];B[fq];W[gq];B[fp];W[fr];B[er];W[gr];B[cq];W[dp]
;B[cp];W[do];B[bo];W[bn];B[bp]C[ Black has taken a big corner,while giving up the four stones.]
))
(;W[io];B[in];W[jo];B[ko];W[kn]
(;B[go];W[iq])
(;B[kp];W[gn];B[go];W[iq];B[lq];W[fq])))
(;W[io]
(;B[jo];W[gn])
(;B[in];W[hn];B[ho];W[ip]C[ White can fight quite strongly here because he has helping stones all around.]
)))
