(;FF[4]GM[1]SZ[19]ST[2]CA[UTF-8]AP[SGFC:1.15]

GN[DMD-maratoja-20060208.sgf]
PB[Marek Rawski (maratoja)]
BR[16k]
PW[David Doret (DMD)]
WR[15k]
KM[6.5]
DT[2005-08-16,2006-02-08]
PC[Dragon Go Server: http://www.dragongoserver.net]
RE[W+1.50]
RU[Japanese]
GC[Game ID: 142226]

C[Dear Reviewer.
Starting our game we both had 18k.
Could you like to review our game for both sides and show our misteaks, failures and the way to punish it, as well as small points and missed biger one. We were studed our game and detected a lot of misteaks. Could you shaw us the hidden on?
Thank you very muche for advance.
Marek];B[cp];W[dd];B[pq];W[qd];B[qo];W[od];B[cf];W[bd]
(;B[mc]
(;W[nb]C[If it's territory W wants the go for L17 or Q13-12. This is on the 2:nd line and TOO slow, gives 12 points but costs sente...
B should be wery happy W chose this.];B[mb]C[play on second line now??  way to early. There is a "rule" that don't play on the 2:nd line until midgame starts. The exception I know is some joseki that include 2:nd or even 1:st line moves.


Localy K17 for B is better, but even that might be to slow. 
I wouldn't complain about K17 because I fail to see the differens K17 an for ex. K4,  R-Q10, or C11.  They all look good enough to play for me.]
;W[qk]
(;B[qi]C[Hmm.. so B want a fighting game with many groups. ok.]
;W[ok]
(;B[pj]C[??

There is a saying : 

If you can cut then cut.

I guess that's what B is aiming for, it's sente anyway because W isn't gonna not answer at Q9 that would be to give away the whole edge.]
;W[pk];B[pe]C[??

Same as Q10, W don't wanna ignore it. but after W Q16 I think B15 is better then what happend.]
;W[pd];B[oe];W[qe]C[My estimation after only 20 moves. I'll make these estimations every 20 moves until the midgame makes it to hard, after your in midgame I'm down to 5-10 p at most on a move. This is my way to deside how I have to play agressive or if I can afford to take gote and make a group 110% alive, when I play tournaments. Not every 20:th move but every now & then to around 60-100 moves or so. 

W has app. Upper left corner 17p + upper right 19p = 37p
W influence on the under edge is app. 15-20 p and the Q9 group should make at least 5-10 p.
This gives W a sum of  57-67p 

and 

B has app. Lower left 11p + Lover right 17p = 28p
B influence is app. 24 one the left edge(C5 to C13) and the lower edge 75-76 p 
B sum is 101-102 p

This is looking good for B :)];B[pg];W[ni]
(;B[nc]C[wchich are the best respons?];W[ob]
(;B[qg];W[ne];B[ic];W[of];B[pf];W[og];B[oh];W[nh];B[nd];W[me]

(;B[fc]C[8 dead stones this early, B is not having a good day...]
;W[ec];B[kd];W[iq];B[kg];W[mg]C[My estimation after 40 moves.

W has UPLC 15 p + UPRC 49 p(inkl. the 8 dead stones) + center 2 p =66 p 
Inflence lower edge 12 p + center 10 p
Sum : 88 p


B has LRC 17-20 p + LLC 17 p(incl. an F3 attack on W) + Upper edge 14 p =31-34 p
Inflence left edge 28 p + upper center 10-12 p 
Sum : 79 - 85 p

W has made som comeback, as expected.];B[eq]
(;W[fb]C[ ? first missed move

Yup, why play J3 if you ain't gonna followup on it??];B[kq]
;W[fd]C[?? second missed move

Hm.. could be that W only wanted string to break up your lower side, but at least W should play something like C12 or maybe L15 if he finds a way to cut.]
;B[ef];W[gc];B[di];W[cl]C[Which respons B should choice. That is my great problem - to take the best move, but wchich one??]

(;B[el]C[Right move if you are 200% sure on killing the not yet excisting C8 group...]
;W[bn];B[bo];W[bi]
(;B[io]C[mistake]
(;W[jj]C[Hmm... has W forgotten the J3 stone or is he sipmly ignoring it??]
;B[jh];W[fr]C[oh, now when it almost too late he's gonna try to save it....
Good luck I say..  ;-)

W has to either be lucky or good at reading to live now but it's possible.]

(;B[er];W[fq];B[fp];W[gp]C[The 60 move estimation.

W has UPLC 15 p + UPRC 49 p + center 2 p + left edge 8 p Lower edge 5-8 p + 1prisoner=78-80 p
influence center 5-10 p  
Sum : 83- 90 p

B has LRC 39 p + LLF 14-15 p + Upper edge 14 p + Upper left edge 2 p =56-57 p
influence lower left center 8-12 p + Upper right center 10-12 p 
Sum : 77-81 p

W has taken the lead, time for B to remeber the frase : When the going gets tough the tough get going.


After this W know he has to defend. Preferd defend mode Agressive so that he keeps B busy. 
And B know he has to Attack very hard, but not an all out attack and forgetting to secure point when possible.

Any more estimation of the score is unessesary, after this I would start to count every point on the board. (ofcurse some 15-30 moves has been played or something dies ect, ect before I count again)]
;B[go];W[hp];B[ho];W[jp]
(;B[ip];W[hr];B[jq];W[jr];B[kr];W[is];B[fs];W[gr];B[gf];W[rf]
C[Hm, W wanna kill a dead group?
Well one sometimes has to do that just to win a won game.

btw. this is one of my hardest learnd lessions I've ever had to learn.
To put it simple : A "dead" group can all of the sudden start to live because it wasn't killed in time. In this case if b played S14 and lived W loss would have been around 35-40 points.]
;B[rg];W[rj]
(;B[lj]C[another misteake

Not nessesarily...];W[ki];B[li];W[lh];B[kh];W[jl];B[ll];W[lk]

(;B[kk]C[This is bad, really bad... You must play on the other side.
I'll show why.];W[mk]
(;B[jk];W[kl];B[ik];W[lm]
(;B[ml]C[missed move];W[mm];B[nl];W[om];B[nk];W[mj];B[nj];W[mi]

(;B[kj]C[Gahh!!! Giving up 5 stones without even trying to fight for them B gone crazy or something?!?!

It could be that N8 is so catastroficly bad it should never ever been played at all.....]
;W[oj];B[oi];W[lg];B[km];W[jm];B[kn];W[cj];B[dj];W[dk];B[ek]
;W[he];B[hf];W[ie];B[ke];W[hm]C[excellent]
(;B[il]C[If last move was excellent then this move is wrong...]
;W[im];B[gl];W[fo];B[ep];W[fn];B[gm];W[gn];B[jo];W[mo];B[mp]
;W[ks];B[ls];W[js];B[mr];W[np]C[mistake

That depends on W answer on B's crosscut.


If you want to know more about when to crosscut and when not to I recomend the book " Crosscut Workshop "

But be warned it's confusing book. After I read it I realeazed that I thought I know how to use crosscut but I know nothing or even less about crosscuts....
And it made me 3-4 stones weaker after reading it and do I need to say that I still don't when to crosscut... though I have learned a bit on when not to.
If I read it a couple of time I'll problably learn how to use crosscut. but I gotta find the time and energy for it.]
;B[no]
(;W[nn];B[oo];W[rn];B[ro];W[cn]
(;B[en];W[eo];B[do];W[dn];B[em];W[hn];B[bg];W[co]
(;B[dp];W[bp];B[bq];W[ao];B[ge]C[You sure B can afford not to play B2 or C2??

I have a rule that I use when it comes to moves like this.

If there isn't enough time play it safe. And if you gonna leave it READ it out 3-4 times just to make sure you haven't missed some tiny detail like forced seki, a must win ko or a uggly snappback...

Knowing the result, here is where B made the mistake.
B move at G15 allows W to force B into seki.];W[br];B[aq];W[cr]
;B[cq];W[dr];B[ar]
(;W[es]C[That was excelent move preparing seki

The preparing was done 12 moves ago.

I'll give you a tip That I have a hard time following myself.

Read at least 10 moves or more if can, when ever it comes to cornerfihgts, otherwise they tend to go KABOOOM on you.]
;B[ds];W[bs];B[lo];W[hd];B[hc];W[gd];B[on];W[qn];B[mn];W[nm]
;B[pn];W[pm];B[if];W[ch];B[dh];W[hb];B[ib];W[ia];B[ja];W[ha]
C[Again not playing it safe makes the whole thing go KABOOM but this time half the board is involved...

Time to estimate.

W got 100 p +2p=102p
B got 72 p  + 2p=74p

B should perhaps do the logical move and give up?];B[jd];W[so]
;B[sp];W[sn];B[rq];W[je];B[jf];W[lf];B[le];W[jb];B[ka];W[kb]
;B[la];W[md];B[kf];W[lb];B[ld];W[lc];B[nf];W[ol];B[ng];W[ma]
;B[mf];W[mh]C[Hum, if not sooner both players need to stop and recount it's whole new game.

W 64 p + 10p=74p
B 59 p + 7p =66p

This turn out "hipp, hipp hurray" for B. I guess W feels like he wanna eat his hat but wonder if there's any salt & pepper....

Now B has to try make every move sente and he will win. And also don't forgett W is problably so pissed that his brain high on adrenalin and playing 2-3 k(if not even more) stronger then normal for the next 20-30 move or maybe the rest of the game.]
;B[ri]C[saving 1 point?!... 

B should rather play D8, C11 or P17 to keep W under presure.]
;W[hl];B[hk];W[fm];B[fl];W[cg];B[dg];W[de];B[df];W[be];B[ci]
;W[bj];B[bh];W[ln];B[mo];W[jn];B[ko];W[dl];B[qj];W[rk];B[oc]
;W[pc];B[sf];W[se];B[sg];W[qf];B[qb]C[At that moment I suppoused that I lost the game so I statr looking for complicate

Lost the game?
Lets count.

W 62-66 p + 10 prisoners = 72-76 points
B 70-71 p + 9 prisoners = 80-81 points

Looks to me like you won the game. B leads 4-9 point.];W[pb]
C[I'll try to see if I can win this for B and show you my endgame moves. I have no idé if I'm gonna win or not.]

(;B[rc];W[si]C[1 point gone];B[sb];W[ra];B[qa];W[sd];B[rd];W[re]
;B[qc];W[la];B[sh];W[sj]
(;B[fe];W[dm]C[and 1 more gone];B[ce]C[stolen back :)];W[cd]

(;B[gs]C[nice gained those 2 lost points but in gote.];W[ap]
;B[es];W[hs];B[ee]C[Lucky B];W[ah];B[ag];W[ai];B[ed];W[bf];B[af]
;W[ae];B[jc];W[tt]N[W PASS];B[kc];W[tt]N[W PASS];B[in];W[ll]
;B[pa];W[ja];TW[aa][ba][ca][da][ea][fa][ga][ka][na][oa][pa]
[qa][sa][ab][bb][cb][db][eb][gb][qb][rb][sb][ac][bc][cc][dc]
[fc][qc][rc][sc][ad][rd][aj][nj][ak][bk][ck][nk][sk][al][bl]
[ml][nl][pl][ql][rl][sl][am][bm][cm][qm][rm][sm][an][bo][gq]
[hq][ir]TB[md][me][ne][ff][of][cg][eg][fg][gg][hg][ig][jg][og]
[ch][eh][fh][gh][hh][ih][ph][qh][rh][ei][fi][gi][hi][ii][ji]
[ki][pi][ej][fj][gj][hj][ij][jj][fk][gk][po][jp][kp][lp][np]
[op][pp][qp][rp][lq][mq][nq][oq][qq][sq][lr][nr][or][pr][qr]
[rr][sr][ms][ns][os][ps][qs][rs][ss]C[White: 58 territories + 17 prisoners + 6.5 komi = 81.5
Black: 67 territories + 13 prisoners = 80
Result: W+1.5]N[RESULT])
(;B[ap]C[might be better]))
(;B[ee]C[steal 1 point if you gonna play here. rather then sort of sharing it. can W afford to play F15 in gote?]
;W[fe];B[ff];W[ce];B[ai]))
(;B[dm];W[cm];B[ap];W[bo];B[ce]
(;W[fe];B[cd];W[cc];B[ee]
(;W[ff];B[fg]
(;W[bf];B[ed];W[dc];B[af];W[bc];B[ae];W[ad];B[ag];W[gs];B[es]
;W[si];B[sh];W[sj];B[in];W[ll];B[ai];W[aj];B[ah]LB[bc:244][dc:242]
[ad:246][ed:241][ae:245][ee:237][af:243][bf:240][ff:238][ag:247]
[fg:239]TW[aa][ba][ca][da][ea][fa][ga][ja][ka][la][na][oa][pa]
[qa][ra][sa][ab][bb][cb][db][eb][gb][qb][rb][sb][ac][fc][qc]
[rc][sc][rd][sd][re][nj][ak][bk][ck][nk][sk][al][bl][ml][nl]
[pl][ql][rl][sl][am][bm][qm][rm][sm][an][gq][hq][ir][hs]TB[md]
[me][ne][of][cg][eg][gg][hg][ig][jg][og][ch][eh][fh][gh][hh]
[ih][ph][qh][rh][ei][fi][gi][hi][ii][ji][ki][pi][ej][fj][gj]
[hj][ij][jj][fk][gk][po][jp][kp][lp][np][op][pp][qp][rp][lq]
[mq][nq][oq][qq][sq][lr][nr][or][pr][qr][rr][sr][ms][ns][os]
[ps][qs][rs][ss]C[W 57 p + 11 p + 6, 5 p = 74,5 p
B 65 p + 13p = 78 p

Move 237-247 shows a important aspect when it comes to end game. 
That is : To save points for my self is only half as important as stealing them. Usually endgame moves tend to be sente and even if they are only 1-2 points that huge, because there's no more moves to get points with after endgame. So the thougt behind every endgamemove should be : Where can I cause the most damage? And caclulate if the damaging move is worth more then the safe move.
Ex : move 240 should be played safe at move 241(E16) because for W. The safe move(E16) is worth more then the damageing  move he did play at B14. This way the walue of the edge is reduced and the value of E16 gets boosted to 2 (one at D17 and on at A16) points because B can't push as far into W territory as he can with W move 240 at B14.  

The 237-247 exchange :
When B managed to force W to play at B-E17 W lost 3-4 points while B lost 1 point. B should be wery happy.]
)
(;W[ed];B[af];W[ae];B[ai];W[aj];B[ah];W[si];B[sh];W[sj];B[bf]
TW[aa][ba][ca][da][ea][fa][ga][ja][ka][la][na][oa][pa][qa][ra]
[sa][ab][bb][cb][db][eb][gb][qb][rb][sb][ac][bc][dc][fc][qc]
[rc][sc][ad][rd][sd][re][nj][ak][bk][ck][nk][sk][al][bl][ml]
[nl][pl][ql][rl][sl][am][bm][qm][rm][sm][an][gq][hq][ir]TB[md]
[me][ne][of][ag][cg][eg][gg][hg][ig][jg][og][ch][eh][fh][gh]
[hh][ih][ph][qh][rh][ei][fi][gi][hi][ii][ji][ki][pi][ej][fj]
[gj][hj][ij][jj][fk][gk][po][jp][kp][lp][np][op][pp][qp][rp]
[lq][mq][nq][oq][qq][sq][lr][nr][or][pr][qr][rr][sr][ms][ns]
[os][ps][qs][rs][ss]))
(;W[ed];B[ff];W[af];B[ai];W[aj];B[ah];W[gs];B[es];W[bf];B[sj]
;W[sk];B[si];W[ll]TW[aa][ba][ca][da][ea][fa][ga][ja][ka][la]
[na][oa][pa][qa][ra][sa][ab][bb][cb][db][eb][gb][qb][rb][sb]
[ac][bc][dc][fc][qc][rc][sc][ad][rd][sd][ae][re][nj][ak][bk]
[ck][nk][al][bl][ml][nl][pl][ql][rl][sl][am][bm][qm][rm][sm]
[an][gq][hq][ir][hs]TB[md][me][ne][of][cg][eg][fg][gg][hg][ig]
[jg][og][ch][eh][fh][gh][hh][ih][ph][qh][rh][sh][ei][fi][gi]
[hi][ii][ji][ki][pi][ej][fj][gj][hj][ij][jj][fk][gk][po][jp]
[kp][lp][np][op][pp][qp][rp][lq][mq][nq][oq][qq][sq][lr][nr]
[or][pr][qr][rr][sr][ms][ns][os][ps][qs][rs][ss]C[W 60 p + 11 p + 6,5 p  = 77, 5 p
B 67 p + 13 p = 80 p]))
(;W[cd];B[ee];W[fe];B[ff];W[af];B[ai];W[aj];B[ah];W[gs];B[es]
;W[si];B[sh];W[sj];B[bf];W[ae];B[in];W[ll];B[ed]TW[aa][ba][ca]
[da][ea][fa][ga][ja][ka][la][na][oa][pa][qa][ra][sa][ab][bb]
[cb][db][eb][gb][qb][rb][sb][ac][bc][cc][dc][fc][qc][rc][sc]
[ad][rd][sd][re][nj][ak][bk][ck][nk][sk][al][bl][ml][nl][pl]
[ql][rl][sl][am][bm][qm][rm][sm][an][gq][hq][ir][hs]TB[md][me]
[ne][of][cg][eg][fg][gg][hg][ig][jg][og][ch][eh][fh][gh][hh]
[ih][ph][qh][rh][ei][fi][gi][hi][ii][ji][ki][pi][ej][fj][gj]
[hj][ij][jj][fk][gk][po][jp][kp][lp][np][op][pp][qp][rp][lq]
[mq][nq][oq][qq][sq][lr][nr][or][pr][qr][rr][sr][ms][ns][os]
[ps][qs][rs][ss]C[W 61 p + 11 p + 6,5 p =78,5p
B 66 p + 13 p =79p])))
(;W[aa]C[without that move.....];B[ds];W[cs];B[es];W[gs];B[dq]
;W[ap];B[bs]))
(;B[bp]C[With the result in hand this is better but I'm not sure I would see this in a game.]
;W[dp];B[dq];W[do];B[cr]))
(;B[dn]
(;W[do];B[eo];W[en];B[dm];W[co];B[bp];W[dp];B[dq];W[hn];B[cr]
)
(;W[dm];B[en];W[em];B[fm];W[hn];B[dl];W[cm];B[ck];W[bk];B[hl]
)))
(;W[oo];B[op]
(;W[nq])
(;W[lp];B[kp];W[mq];B[nq];W[nn])))
(;B[im]
(;W[il];B[hl];W[in];B[jn];W[im];B[gm])
(;W[nm];B[il]
(;W[ol];B[jn];W[ll];B[np])
(;W[jn];B[jo];W[ol];B[ko]))
(;W[jn];B[ko];W[nm];B[jo];W[in];B[hn];W[il];B[hl];W[ol];B[gl]
)))
(;B[oj]
(;W[nm];B[km];W[jm];B[kn])
(;W[kn];B[nm];W[nn];B[on];W[no];B[pm];W[ol];B[qm];W[rl];B[ri]
;W[oi];B[qj];W[rm];B[rn];W[sk];B[sm];W[si];B[sh];W[ph];B[sj]
C[The player who wins this ko problably wins the game.])))
(;B[il])
(;B[km]))
(;B[kj];W[kl];B[jk];W[ik];B[ij]
(;W[lm];B[il];W[im];B[hl];W[hm];B[gm];W[jm];B[hk])
(;W[hj];B[ii];W[hl];B[lm];W[hi];B[hh];W[fk];B[ek];W[fj];B[im]
;W[il];B[fl];W[gh];B[fi])))
(;B[mk];W[kk];B[nj]
(;W[oj];B[nl]C[W is spiltted and now has to somehow make his group live..
And B "only" has to kill it :)])
(;W[nk];B[nl];W[oj];B[mj];W[mm];B[ml];W[nm];B[om];W[on]
(;B[lm];W[pm];B[mn];W[nn];B[lo])
(;B[ol];W[pn];B[nn];W[mn];B[no];W[mo];B[km];W[np];B[oo];W[po]
;B[op];W[pp];B[oq];W[qp];B[qm];W[pm];B[pl];W[ql];B[rm];W[ro]
;B[oi];W[rl];B[ri]))))
(;B[kj]C[This connection move helps W to get stronger on B cost, but I don't think W gets strong enough...]
;W[ki]
(;B[ji];W[kk];B[lj];W[lk])
(;B[lj];W[ji];B[li];W[kh];B[lh];W[lg];B[jg];W[jl];B[ll];W[kn]
;B[ln];W[lm];B[mm];W[lk];B[mk];W[kk];B[nj];W[oj];B[kl];W[jk]
;B[km])))
(;B[hr]C[better?

It forces W to run so it's slitly better but L4 might be the move B should make.]
;W[ip];B[ir];W[lo])
(;B[kp];W[jo];B[ip];W[hr];B[jq];W[jr];B[kr];W[is];B[ko];W[jn]
;B[kn]))
(;B[hr];W[hq]
(;B[ir];W[jr];B[gr];W[gq];B[fq];W[jq];B[jp];W[kp];B[lq])
(;B[gr];W[gq];B[fq];W[ir];B[er];W[kr];B[lr];W[jq];B[kp];W[js]
;B[ho];W[go];B[gn];W[fo];B[dn];W[fn];B[gm];W[fm];B[fl]))
(;B[fq];W[er];B[dr];W[gq]
(;B[gp];W[hq];B[jp];W[jr];B[kr];W[hr];B[is];W[js];B[es]
(;W[fs];B[gs];W[ds];B[hs];W[cr];B[dq];W[br];B[ar];W[aq];B[cs]
;W[bs];B[bq];W[ap];B[ao];W[ks];B[mr];W[ms];B[nr])
(;W[gs];B[ds];W[fs];B[ks]))
(;B[hr];W[hq];B[ir];W[gr];B[jq];W[dq];B[cr];W[ep];B[fp];W[fo]
;B[gp];W[ho];B[dp])))
(;W[jp]))
(;B[cn];W[bm];B[hp];W[ip];B[hq];W[ko];B[lp]))
(;B[gq]C[This is best.];W[io];B[ko];W[hm];B[nn]C[A W string against B Territory, invadeble but still...

*Wonder if B can sit still on his chair, he should to be to happy for that*]
)
(;B[cn]C[Why not make an all out attack with C7 or C9 you do live on both sides regardless of Ws move. So a contact move aint that dangrous now and it does shrink down the area where W plans to live to a minimum, so most likly W has to run.]
)
(;B[cj])
(;B[bn])
(;B[ko]C[why give away what you can get for free?]))
(;W[lq]))
(;B[nf]C[is that the way to save that group?

no, that should have been done some 10 moves ago. The best chance B has now is S14 and B also almost has to get P11 to live.]

(;W[mf];B[ng])
(;W[ng];B[mf]
(;W[lf];B[mg])
(;W[le]
(;B[kd];W[lg])
(;B[lf];W[kc];B[ke];W[ld];B[kd];W[lc]))))
(;B[rf];W[re];B[rh];W[sf];B[sg];W[se]
(;B[qf];W[ph];B[rj];W[pi];B[qh];W[oi]C[is a possible way to live for B.]
)
(;B[oi];W[qf];B[rj];W[rk];B[rg])))
(;B[oc]C[better?

B is trying to kill those 2 W stones but fails. A bad move.]
;W[pc];B[nd]C[O15 is to big for both players to leave alone....
W is wery happy to cut now.];W[ne];B[nf];W[me];B[mf];W[le];B[kc]
;W[of]
(;B[pf];W[og];B[oh];W[ng];B[nh];W[mg];B[mh];W[lg])
(;B[og];W[pf];B[nh]))
(;B[qf];W[rf];B[rg];W[se];B[qh]))
(;B[ng];W[nd];B[jc]C[And B might be in trouble, not playing K17 is to know 110% that those 2 stones will be part of a living group...

B is most likely connected regardless of how W attacks but those eyes are gone so B has to run. And W stand a good chance to force B to keep running because of O16 that spilts up the 2 B groups.]

(;W[qg];B[qh];W[pf];B[of];W[qf];B[oh])
(;W[ph];B[oh];W[qh];B[qg];W[rh];B[oi];W[oj];B[pi];W[rg]
(;B[rf];W[qf];B[re];W[rd])
(;B[lf]))
(;W[rh];B[rg];W[qh];B[qg];W[ph];B[oh];W[pi];B[oi];W[oj];B[ri]
;W[qj];B[sh];W[pj];B[sg];W[rn];B[ro];W[qn])
(;W[mg];B[nf];W[mf];B[qf];W[rh];B[rf];W[ri];B[nh];W[mh];B[oi]
;W[oj];B[mi];W[nj];B[qh]))
(;B[ne]C[Want's to extend for a connection but fails. Be carefull if W answer at O16, then those 2 B stones ccould be in truoble and force B to take action (like play at K17) and making the point of B O15 obsolete.]
)
(;B[qf]C[to make eyeshape.]
(;W[rf];B[rg];W[se];B[rh];W[rj];B[oi])
(;W[rh];B[rf];W[ri];B[oh]C[this move is trying to do 2 things, run and build eye, but need help to pull them off, so to say. B play both P11 and R12 for eye and N13 to run. N13 works because of Q13 otherwise it's cuteble.

I know most players in my club would say there's better moves out there, but my point is that you should always know what your move want to accomplish otherwise thay are pointless to play.

So in this case O13 might be better but it only runs and doesn't help with any eyeshape as P12 do.]
)))
(;B[qf]C[probably better

Better from for life and it's gote, but this move is still here after the Q10 exchange. So there is no need for it now. And Q15 is sente for B so if Life it's all that matters there, B should play Q15 then R14 or 15]

(;W[of];B[oi]C[Playeble but weak.];W[ph]
(;B[pi];W[qh];B[rh];W[rg];B[ri];W[rf])
(;B[qh];W[pi];B[pj]
(;W[qj];B[pg];W[oh];B[og];W[nh])
(;W[pg])))
(;W[pn])
(;W[rh]C[With this move W has answerd that fighting game challange B made with R11 eariler.]
;B[ri];W[rf];B[re];W[qg];B[qe];W[rd];B[sf];W[rg];B[sh];W[pg]
;B[oe];W[ne];B[of];W[oh];B[sg]))
(;B[oi]C[ or this?

It's good but it helps W escape more then it helps B.]))
(;B[ci]C[Capitain hooks tresure is somewhere on that left side, you think peter pan gonna leave it alone??

Well, seriusly C11 sort of weakens C4 because it's almost forceing W to invade wery early. B at E3 is horrible senario for W.]
)
(;B[ob]C[Don't even bother. Maybe in in the endgame if even then...]
)
(;B[ic]C[Best move of all. A high dan or pro could tell you if K17 is better even though it's a little, tiny bit slower.
B is building a group in what was suppose to be W territory.
L17 can in worst cases become a weakness though.]))
(;W[ch]C[This is to early for W but it's good. W's logical followup at D14(to early to play now by the way) kills that stone. Or at least maeks it wery, wery hard to escape with it.]
;B[ob])
(;W[ci]C[to early and to lose, B might escape...];B[ob]))
(;B[ci]C[better?

Maybe, maybe not. At least it feels stronger to me, but I'm not strong enough to tell if it is. But this gives B a much stronger left side. W doesn't have time to play K17 because if W does that B play K3 and get somewhat missplaced san-ren-sei and the strong left sida while W only got the san-ren-sei.

And even if W play K16 or K17 and B played K3 there is some rome to live around E-H3 for W it only help B to get stronger and make it harder for W.

(Hmm, wonder if one spells san-ren-sei like that...)];W[jc]
))
