(;FF[4]GM[1]SZ[19]ST[2]CA[UTF-8]AP[SGFC:1.15]

PB[raga2504]
BR[22k]
HA[3]
PW[tetubosi]
WR[19k]
KM[-5.5]
DT[2006-03-05]
PC[IGS-PandaNet]
RE[W+87.50]
TM[600]
RU[Japanese]

AB[dd][pd][dp]C[Hi 

My name is Slava Kozin (zloy), and I will make a review for this game for Black.

-------

this is a game I played on IGS with a 3 stone handicap.

It is quite hard for me to ask any concrete questions, but I would like to know where I made some obvious mistakes.

Perhaps in general, you could give me some pointers in which areas I should focus my study on.

Thanks in advance for your time reviewing my game.];W[pp];B[dj]
LB[cj:B][ck:A]C[When you play as Black a game with a handicap, you basically have to play a defensive game. You already have an advantage at the beginning of the game. Just try to keep this advantage through the game. "Star" points are good, but I prefer "A" or "B".]
;W[fq];B[er]LB[dq:B][dr:A]C[It is OK, maybe a little too aggressive. Just try to protect what you already have.]
;W[cn]
(;B[en]C[You just pushed White to make a base. To get an access to the center is a good idea, but first you have to save your corner. You already have an advantage (handicap). Just keep it.]
;W[bp]
(;B[co]C[The attack is a bad idea - White will build a base.]
;W[bo]
(;B[cp]TR[co][dp]C[This is a very bad shape for Black - Black is overconcentrated, has very few degree of freedom. This shape does not make any eyes either.]
;W[cq];B[dq];W[cr]
(;B[dn]C[It is too small for Black. Black lost this corner, but still has two others.]
;W[cm]
(;B[cl]C[Black plays to aggressive. Black does not need to attack White.]
;W[bl];B[dm]TR[dn][en]C[Bad shape];W[ck];B[dl];W[bk]
(;B[cj]C[Try not play side to side with more experienced player - you will loose in close fighting because of the difference in skills]
;W[fr]
(;B[ep]TR[cl][dl][dm][dn][en][co][cp][dp][dq]C[Black is overconcentrated here, but from the other side - Black has a nice wall. Try to use this wall. Push White on this wall.]
;W[dr]
(;B[eq]C[Just give this stone to White - It is not important. You can get more scores in other places. You do not have save all stones to win game.]
;W[es];B[fp]C[Again this move is too small, makes Black overconcentrated, and does not make a good shape.]
;W[hq]
(;B[gp];W[kp];B[pj]C[it is much better.];W[io]C[You can just ingnore this move]

(;B[hp]C[You are helping White to take a bottom. This move is really small.]
;W[iq];B[ip];W[jo];B[jp];W[kn];B[jq];W[gq];B[ir];W[hr];B[jr]
;W[gs];B[jd]C[Good];W[hm]
(;B[hn]C[Do not play "contact" go.];W[in];B[ho];W[cf]C[You should not ignore this move. Protect the corner]

(;B[im];W[jm];B[il];W[fc]C[Now pay attention - White use the same tactics to attack your corner as before, but this time you have missed one move. Should you learn on mistakes?! Try to study joseki - Openning combinations in the corner: http://waterfire.us/joseki.htm]
;B[fe];W[ic]
(;B[id]C[Wrong direction - It is better to take sides - more scores and easier to protect.]
;W[hc]
(;B[gd];W[gc];B[hd];W[dc];B[ec];W[eb];B[ed];W[cc];B[cd];W[bd]

(;B[ef];W[ce]
(;B[df];W[cg];B[dg]CR[df][ef]C[bad shape];W[ch];B[dh];W[ik]
;B[hl];W[hk]
(;B[gm];W[jl];B[gl]TR[hl][il][gm][im][hn]C[6 stones and 1 point - it is a bad shape]
;W[gi]
(;B[gk]C[It is too small and does not make any difference];W[gj]
;B[hj];W[ij];B[hi];W[gh];B[hh];W[nc]
(;B[ne];W[pb];B[qc];W[kc];B[kd];W[lc]
(;B[jc]C[It is too small];W[jb];B[ld];W[md];B[me];W[pg]C[Do not ignore this stone. I would say if this stone will live then you will loose the game.]

(;B[nd];W[mc];B[oh];W[qe]
(;B[pf];W[qf]
(;B[pe];W[qi]
(;B[og];W[qj];B[pi];W[ph];B[pk];W[qk];B[pl];W[lr];B[kq];W[lq]
;B[lp];W[ko];B[mq];W[mp];B[lo];W[mo];B[ln];W[mm];B[km];W[jn]
;B[kl];W[jk]
(;B[ll]C[It was a good combination, but you made a mistake.]
;W[lm]C[Now game is over. Black shoud have resigned here.];B[kk]
;W[mn];B[ml];W[kj];B[nl];W[qn];B[ol];W[jh];B[hg];W[jg];B[jf]
;W[mj];B[mh];W[lh];B[lg];W[kg];B[kf];W[li];B[mi];W[nj]CR[qq]
C[You could try to live small in the corner]
(;B[ni];W[nq];B[gg];W[dk]
(;B[ej];W[ek];B[fj];W[bi]
(;B[ci];W[bj];B[fh]C[Black does not have to do it.];W[qq]C[Now the corner is protected.]

(;B[se];W[rd];B[re];W[qd];B[sd];W[rc];B[sc];W[rb];B[qb];W[pc]
;B[oc];W[ob];B[od];W[rf];B[fi];W[on];B[oi];W[ql];B[lk];W[lj]
;B[el];W[pm];B[fk];W[ii];B[ih];W[ls];B[is];W[hs];B[ks];W[bm]
;B[ig];W[bc];B[de];W[ib];B[fd];W[nm];B[kr];W[qg];B[of];W[om]
;B[tt];W[tt];B[tt]TW[aa][ba][ca][da][ea][fa][ga][ha][ia][ja]
[ka][la][ma][na][oa][pa][qa][ra][sa][ab][bb][cb][db][fb][gb]
[hb][kb][lb][mb][nb][qb][sb][ac][qc][sc][ad][sd][ae][be][re]
[se][af][bf][sf][ag][bg][rg][sg][ah][bh][kh][qh][rh][sh][ai]
[ji][ki][ri][si][aj][jj][rj][sj][ak][rk][sk][al][rl][sl][am]
[qm][rm][sm][an][bn][ln][nn][pn][rn][sn][ao][lo][no][oo][po]
[qo][ro][so][ap][lp][np][op][qp][rp][sp][aq][bq][mq][oq][pq]
[rq][sq][ar][br][gr][mr][nr][or][pr][qr][rr][sr][as][bs][cs]
[ds][fs][ms][ns][os][ps][qs][rs][ss]TB[ee][ge][he][ie][je][ke]
[le][oe][ff][gf][hf][if][lf][mf][nf][eg][fg][mg][ng][eh][gh]
[nh][di][ei][gi][gj][fl][em][fm][hm][fn][gn][do][eo][fo][go]
[js]C[Game 58 raga2504 is removing @ T15
Game 58 raga2504 is removing @ R17
Game 58 raga2504 is removing @ N3
You have typed done.
tetubosi: 128.5 to raga2504: 41.0

Summary:
1. You have to study good and bad shapes. Try to understand why good is good, and bad is bad.
2. Study Joseki (opening in the corner): http://waterfire.us/joseki.htm
3. Take corners first, than sides, than center.
4. Try to recognized which points are more important at every moment in the game. Make a big move instead of small. I see that you can recognize these moves. Probably you just played too fast. You do not have  to save all stones and answer all moves of your opponent to win the game. Try to play slow games. Take time to think.
5. Learn about balance on the board. Your stones are overconcentrated. Learn how to use walls (it is connected with the balance on the board). Probably some books will help you here.
6. In the handicap games try to play more defensively, not very aggressively. Keep the distance - it prevent from close fighting where you will have disadvantage. To improve you fighting skill, try to solve go problems: goproblems.com 

Hope it will help you to improve your skill.

Thanks.])
(;B[rd]
(;W[qd];B[pc])
(;W[re];B[qb])))
(;B[bj]))
(;B[ek]))
(;B[qq]))
(;B[lm];W[kk];B[lk]
(;W[ml];B[ll];W[lj];B[mk];W[nk];B[mj];W[nj];B[kj];W[li];B[ii]
)
(;W[mn];B[ll];W[lj];B[mk];W[mj];B[nk])))
(;B[qj]))
(;B[qh];W[pe];B[of];W[oe];B[od];W[nf];B[og]
(;W[qg];B[mg];W[mf];B[lf];W[ng];B[nh])
(;W[mg];B[mf];W[ng];B[lg]
(;W[mi];B[mh])
(;W[mh];B[qg];W[qd];B[pc];W[rc];B[qb]))))
(;B[qh]))
(;B[ni])
(;B[qh]))
(;B[lq])
(;B[qm])
(;B[nj]))
(;B[pb]))
(;B[fj])
(;B[hg])
(;B[jc])
(;B[qc]))
(;B[gl]))
(;B[jc]))
(;B[bc];W[bb];B[be];W[ad];B[ae];W[ac];B[ce]C[Another nice wall :-) You have to learn how to use walls.]
))
(;B[jc]))
(;B[jc]))
(;B[bd])
(;B[cd]))
(;B[gn])
(;B[gl])
(;B[bh]C[or just ignore]))
(;B[hn])
(;B[bh])
(;B[ic])
(;B[kc]))
(;B[ho]))
(;B[ic])
(;B[qj]))
(;B[iq];W[go];B[io];W[gm];B[im];W[ir];B[jr];W[hr];B[kq];W[hq]
;B[hp];W[gp];B[nq]
(;W[gk];B[dk])
(;W[dk];B[ek];W[ej];B[fj];W[ei];B[fl];W[gl];B[fn];W[gn])))
(;B[bi])
(;B[ch]))
(;B[bk])
(;B[ic]))
(;B[cl])
(;B[ic])
(;B[qj]))
(;B[cq])
(;B[cr])
(;B[cl])
(;B[bk]))
(;B[cq])
(;B[cl]))
(;B[co]C[It is a Joseki - openning in the corner - you should learn some of them]
;W[dn];B[fo];W[ep];B[eo];W[do];B[cp]
(;W[dq];B[eq];W[fp];B[go]
(;W[fr];B[dr];W[iq];B[io])
(;W[dr];B[fr];W[bq];B[gq];W[bo]))
(;W[go];B[gn];W[dq];B[eq];W[fp];B[gp];W[fr];B[dr];W[ho];B[fn]
;W[hn];B[gm];W[hq])))
