(;FF[4]GM[1]SZ[19]ST[1]CA[UTF-8]AP[SGFC:1.15]

PB[dN21death]
BR[17k]
PW[mrfunk]
WR[17k]
KM[6.5]
DT[2006-03-10]
PC[The Kiseido Go Server (KGS) at http://kgs.kiseido.com/]
RE[B+6.5]

C[dN21death [17k\]: hi gl
hi im black in this game and would like adivice on opening
alot please
thanks for reviewing];B[qd]C[mrfunk [17k\]: hi good game];W[cp]
;B[pp];W[dd]
(;B[eq]C[This is too low, given white's stone at D16. The high kakari is better.]
;W[eo]C[This is regarded as a 'trick play'. The variation shows one way of answering it. It gives you territory in exchange for white influence. Unfortunately, that influence would be quite useful, with white's stone in the upper left, so again you see why the high kakari would have been better.]

(;B[gp];W[dl]C[this semmed weird xD

At this point, you can still pay C3 and take territory. Then, white D8 would end up too close to his wall, so that would be a good result for you.]

(;B[cf];W[dh]C[3-3 seemed to only help him so =/

3-3 would be bad, you did the right thing.];B[bh];W[ci];B[ef]
;W[fd]
(;B[kc]C[Your group on the left is still very weak.];W[qn];B[mq]
;W[pk];B[qi];W[qj];B[pi];W[rp];B[qq];W[od]
(;B[oe];W[qc];B[pd];W[pc];B[oc]C[This cut looks a bit risky. It turned out alright for you, but white could have played it better. See the variation further on.]
;W[nd];B[nc]
(;W[rd];B[mf];W[qe];B[pe];W[qf]C[Note that this leaves a weakness at S17.]
;B[hc]C[Good move, white played a couple of loose moves, and you have capitalised on them.]
;W[gc]C[Good move, white played a couple of loose moves, and you have capitalised on them.]

(;B[cc]C[seemed like a great time

But this way you make it hard on yourself: you force white to build a wall with C16, which puts your stones below in peril.]
;W[cd]C[seemed like a great time

But this way you make it hard on yourself: you force white to build a wall with C16, which puts your stones below in peril.]
;B[dc];W[ec];B[eb];W[fb];B[bb];W[bd];B[da];W[bc];B[ab];W[cb]
;B[db];W[df]C[Now you're in trouble, and white's stones are working together nicely. He's had to give up the corner, but that eye at F17 is very strong.]
;B[dg]
(;W[de];B[eg];W[ch];B[cg]
(;W[jp]C[This lets you off the hook. Better to continue the attack for a while: he can let you have the bottom, if he can get the left side. So he can make another move on the top to secure his group, and you would have to react. Then he can invade the bottom.]
;B[iq]C[This however lets you off the hook. Better to continue the attack for a while: he can let you have the bottom, if he can get the left side. So he can make another move on the top to secure his group, and you would have to react. Then he can invade the bottom.]
;W[jq];B[lo];W[lr];B[lq];W[ir];B[hq];W[hr];B[gr];W[mr];B[nr]
;W[gn];B[ho];W[hn];B[io];W[in];B[jo];W[kq];B[ks];W[js]
(;B[ms];W[kr];B[hs];W[nq];B[np];W[oq];B[or];W[mp];B[lp];W[op]
;B[no];W[oo];B[po];W[on];B[rq];W[pq];B[pr]C[luc];W[ls]C[lucky me.. =/

indeed!];B[qp]C[lucky me.. =/

indeed!];W[ro];B[pn];W[om];B[pm];W[pl];B[qm];W[ql];B[rm];W[nn]
;B[mo];W[ko];B[kn];W[kp]
(;B[lm];W[nl]C[aww missed that];B[jn];W[dq];B[dr];W[cq]
(;B[gg]C[You can jump one line further from those stones at E13/14. White could not cut.]
;W[ge]C[Should be at H16];B[hd];W[he];B[ig];W[gi];B[il];W[lk]
;B[ij];W[hk];B[hj];W[gj];B[ik];W[hl];B[bi];W[cj]
(;B[fi]C[The monkey jump at A8 would be bigger.];W[fh];B[eh]
;W[fj];B[ei];W[ej];B[bj];W[ck];B[gh];W[bk];B[mj];W[nj];B[mk]
;W[ml];B[lj];W[ll];B[ni];W[qg];B[ri];W[rj];B[sj];W[rl];B[sl]
;W[rk]
(;B[sk]C[Definitely not necessary.];W[og];B[md];W[of];B[ne]
;W[ng];B[mg];W[nh];B[oi]C[You can still kill at this point.]
;W[mh];B[lh];W[mi];B[li];W[id];B[ic];W[jd];B[jc];W[if];B[jf]
;W[hf];B[hg];W[ee];B[ff];W[fe];B[je];W[ie];B[kd];W[af];B[bf]
;W[be];B[ag];W[fa];B[gd]C[Since white can simply answer at H18 (grabbing points while defending) this move in effect forces white to make his group safe and gives him an extra point. C2, for example, would have better.]
;W[hb];B[ib];W[ha];B[ak];W[al];B[aj];W[bm];B[cr];W[br];B[fo]
;W[ep];B[fp];W[fn];B[er];W[im];B[jm];W[kk];B[kj];W[jk];B[jl]
;W[jj];B[ji];W[hi];B[ii];W[hh];B[ih];W[ia];B[ja];W[ea];B[ca]
;W[is];B[gs];W[ip];B[hp];W[nk]C[Now it's alive.];B[oj];W[ok]
;B[mm];W[nm];B[mn];W[rg];B[sh];W[sg];B[pb];W[qb];B[ob];W[qa]
;B[pa];W[rh];B[si];W[ph];B[ae];W[ad];B[af];W[cs];B[ds];W[bs]
;B[kl];W[ns];B[qr];W[pf];B[os];W[ms];B[di];W[dj])
(;B[mm]C[This would kill.]
(;W[nk];B[nm]
(;W[ol];B[oj])
(;W[oj];B[ol]))
(;W[nm];B[nk])))
(;AB[al]))
(;B[hf]))
(;B[ol];W[ln];B[mn];W[lm]))
(;B[kr];W[jr];B[ms];W[ls])
(;B[kr];W[ls]))
(;W[hd];B[hg];W[jp]))
(;W[eg]C[This would have been better for white.];B[cg];W[de]
;B[eh];W[fg];B[di];W[ch];B[dj];W[cj]))
(;B[gf]C[This would be a good time to run out, forcing white to either defend the corner, or try to break out himself.]
))
(;W[mc]C[If white had played here, something like this could happen.]
;B[md];W[ne];B[me];W[nf];B[mb];W[pe];B[of];W[qe];B[rd];W[re]
;B[rc];W[rb]))
(;B[pf]C[This is better shape, and you avoid pushing white towards your stone at L17. With the variations shown, you end up using it to good effect.]

(;W[qc];B[pd];W[pc];B[nc])
(;W[mc];B[hc])))
(;B[bd]C[This variation looks a bit safer.];W[cc];B[gf]))
(;B[cq];W[dp];B[dq]))
(;B[cq];W[dp];B[dq];W[go];B[hq]))
(;B[ep]))
