(;FF[4]GM[1]SZ[19]ST[1]AP[SGFC:1.15]

PB[Calvin]
BR[8k]
HA[2]
PW[White]
WR[7k]
KM[0.5]
DT[2006-03-13]
PC[IGS-PandaNet]
RE[W+R]
TM[600]

AB[dp][pd]C[I am black.  My opponent is a 7k+ on IGS.  I am just looking for general comments.  I have made some guesses on a few places where I think I see my mistakes, but feel free to correct my assumptions.  Thanks in advance for reviewing this game!  -Calvin]
;W[dd];B[pp];W[qn];B[ql];W[on];B[np];W[pk];B[pl];W[ol];B[qk]
;W[pj];B[qj];W[pi];B[qh];W[nc]LB[qq:B][og:A][pm:C]C[Calvin: I think usually white is continuing at A (P13) or invading at  B (R3).


A is not usual here. Nor does it accomplish much.

C (Q7) is the finish to the joseki, but he is playing a handicap game and wants to keep sente.

It is too early for an invasion at B.

Since there are no unstable groups the focus should be on the wide open areas, although I might think the left side is a better approach as it is more undeveloped at the bottom than the upper right.]

(;B[ph]SQ[pd]TR[pi][pj][pk][ol][on]MA[qn]LB[qg:D][om:C][rn:B]
[qo:A][pm:E][qq:F][nc:G]C[Calvin: I chose this, but I'm not sure it's the best.  Other choices I considered might be to seal off the corner with by exchanging A for B or try to exploit the aji in white's position by wedging at C immediately.  Simplying extending at D would be the simple way, I guess.  I would like some suggestions here.


Exchanging A for B is a normal part of the joseki and could have been played earlier. However, since white never played E he may not now play B in response to A. It would turn X into a heavy stone instead of a light flexible stone. Currently X can be attached to the group by E, given up, or help as an invasion at F. Playing B means he has to keep the two stones and that would require gote.

C is again too small a point to be concentrating on at this point in the game.

Your group at the right side is stable. It does not need additional stones. The white triangle group at Q10 is on the outside and fine. Your play at Q12 is not needed for either group, nor does it really help your square (star point) stone. Further it does not apply pressure on the white G stone (O17), so he gets sente out of this play. Therefore, I don't think it is the best move.

D helps the right side group only again, and is very similar.

See the variation for the suugestion.];W[qp]LB[lq:A]C[I think this is too small and too early. Maybe later he would have prefered to approach at A (M3).]
;B[qq];W[po];B[oq];W[rp]
(;B[ld]TR[ph][qh]LB[kc:A][pc:B]C[Calvin:I am not sure about this pincer.  It is kind of impulsive.


No, it is not such a good pincer. Jump ahead to Move 31 real quick. The pincer stone ended up way too close to the wall you built. The pincer should have been farther to the left. (Not to mention what a waste that Q12 stone was)

Look at the variation for white on the next move.

A is a better pincer, although I don't think that is the best move on the board.

B could be an even better move. It takes the corner, makes good use of the triangle stones (so they don't go to waste), and requires a gote response by white,  leaving you with sente.

B is probably the best first move, followed by a bigger play elsewhere, look at the variation.]

(;W[qc];B[pc];W[qd];B[pe];W[pb];B[ob];W[qb];B[oc];W[rf]TR[ld]
MA[ph]C[I hope you see this as bad for black. The X stone you played became completely wasted, and the pincer stone is way too close to your wall.]
;B[fc];W[id]
(;B[cf]SQ[pe][pd][pc][oc][ob]LB[cc:B][fe:A]C[Calvin:It retrospect, I now think jumping at A might make the best use of black's thickness with the P17 wall.   This double approach is a normal move, but doesn't consider that.  Thoughts?   Invading at B doesn't look good for black here, I think.



Jumping at A is best. It separates the white stones, and you can easily make a base. See the variation.

B is not good. See the variation.];W[fd];B[cc]LB[gd:A]C[Probably should hane at A (G16) first, right?

Yes, probably.];W[ec];B[cd];W[gc]MA[nc]C[This worked out real nice for white. Very strong stable group. Blacks group on the left is low, blacks group on the white is weaker, and white has more options for its X (O17) stone.]
;B[fq]LB[gq:A]C[A would have bee better here.];W[lb]C[Too early for this.]
;B[nd]SQ[ld]C[Calvin: This is the honte move, but maybe it is not necessary here because the group is not likely to be attacked due to the Q12 group nearby.  Perhaps I should have treated the M16 stone lightly and played tenuki.



No this is the best move.];W[nb];B[dj];W[bo]C[Calvin: The invasion is expected.]
;B[cp];W[cl];B[bk];W[bp];B[bq];W[ck];B[cj];W[bl];B[bj]C[Is connecting too slow?

No];W[el];B[dm]LB[jp:A]C[This peep may be an aji-keshi.  Maybe I should have just played simply at A.

Its not aji-keshi because you don't have a stone to have aji to begin with =). However, you could probably hold off right now and play A instead.]
;W[ek];B[mn]LB[jp:A]C[A moyo move, but this could be too greedy.   I think maybe 'A' sufficient for black?

'A' probably would have been fine.];W[jq]
(;B[hq]SQ[rp][qp][qn][po][on][ol][pk][pj][pi]LB[jo:A]C[The direction is questionable.  Black seems overconcentrated in the lower left.   Maybe a cap at A (K5) would be better?  Then black could aim at attacking the marked white group later, which does not yet have two eyes.  Just a thought?

I don't think the cap would work well here. See the variation.]
;W[mq];B[mp];W[lq]LB[rq:A]C[Watch carfully for your weakness, you will need to defend at A (S3).]
;B[kp];W[jp]
(;B[kq]C[This kind of move just makes him stronger and destroys possibilities. Further you have to use your next move to counter a lost liberty. This was bad. see the variation.]
;W[kr];B[lp];W[ir]LB[kq:A]C[You had to defend, and he gained shape because of A.]
;B[hr];W[jn];B[hn]LB[rq:A]C[A (S3) was a must here.];W[nr];B[or]
;W[rq]LB[kq:A]C[Ask yourself how did white envade black, but black is the one that is weak and being pressured?

A (K3) had a lot to do with this.];B[nq];W[mr];B[ml];W[nl];B[mk]
;W[nj];B[cn];W[bn];B[fi]LB[jl:A]C[I probably would have played A.]
;W[kc]C[Time to strengthen and connect the upper right.];B[gk]
;W[cm];B[em];W[am];B[mj]LB[jl:A]C['A' would have been a btter move for the lower right group.]
;W[me];B[md];W[qr];B[mg]LB[oh:A][ng:B]C[B94 may be a thin move.  Is A (P12) better?

Probably B, don't yet think about connecting to the center, try for some shape and eye space first.]
;W[nh];B[mh]C[wrong direction];W[oh];B[qf];W[rg];B[rh];W[of]
;B[pf];W[oe];B[od];W[rm];B[ie]C[over play.];W[kd];B[le];W[ke]
;B[kf];W[jf];B[kg];W[jg];B[jh];W[ig];B[ih];W[hg];B[jl];W[hh]
;B[db];W[eb];B[rl]LB[hi:A][ef:B][aq:C]C[A is MUCH bigger. or even B or C. The endgame shows the bad shape. You didn't get any territory out of this move.]
;W[df];B[de]LB[dg:A]C[There is no need for all this pushing into every crevice that you do. 'A' is better. work out for yourself why it is so.]
;W[ee];B[ce];W[dg];B[fg];W[ff];B[io];W[jo];B[cg];W[dh];B[ej]
LB[hi:A]C[This was no good. A is much better.];W[ls];B[nm];W[om]
;B[dc]LB[ea:C][hi:A][aq:B]C[This is the worst move of the game so far. =|

A,B,C Better choices in order of importance.];W[aq];B[br];W[hs]
;B[gs];W[is];B[gr];W[co];B[dn];W[do];B[eo];W[km];B[ea];W[fb]
;B[hi];W[ch]C[Calvin: Black has now lost most if his 2-stone handicap lead.and the game is now close.   Feel free to comment on any obvious endgame blunders, but somehow I feel my big mistakes were earlier.



The game has been close for a while now.];B[bh];W[kl];B[kk]
;W[il];B[ik];W[jm];B[jk];W[gl];B[hl]C[Here's that push again. Did you gain any territory? If you learn one thing, learn that just because you can play there, doesn't mean you should.]
;W[gm]C[Wouldn't you have been better off playing here?];B[gn]
;W[fm];B[fn];W[pq];B[re]LB[na:A]C[You obviously know this was unproductive. 'A' is a good threat, and sente.]
;W[qe];B[oo];W[oa];B[ni];W[oi];B[pm];W[pn];B[hm];W[fl];B[qm]
MA[pm]C[Getting rid of the 'X' liberty meant you lost all of your territory at S10.]
;W[rn];B[gg];W[gf];B[eg];W[ef];B[sg];W[se];B[qg];W[rd];B[mi]
;W[nn];B[mm];W[nf];B[mf];W[ip];B[hp];W[no];B[mo];W[fh];B[eh]
;W[gh];B[ei];W[gi];B[gj];W[qi];B[ri];W[ci];B[nk];W[ok];B[ps]
;W[op];B[qs];W[rs];B[bi]
(;W[sl]MA[rl]C[Actually, this is a mistake. See the variation for black for defense, and the variation for white for the correct move.

Do you remember your X stone? What did it gain?




Overall:

 Too often you wanted to concentrate on small moves in the opening, when much bigger ones were available. You don't have to always attack your opponent, you can give him a little territory.

Stop pushing through just because there is an opening. Pushing like you are should have a specific purpose such as cutting. If your not going to cut, it usually helps your opponent. You lose a liberty and options down the road. Your oppent often gains strength.


I hope the comments were helpful.

Best Regards,

Kevin Purvis



End of comments (but still the last variations)]
(;B[rj];W[sk];B[fa];W[ga];B[da];W[ar];B[bs];W[sj];B[as];W[ap]
;B[mc];W[mb];B[ll];W[in];B[ng];W[og];B[ak];W[al];B[ho];W[im]
;B[ed];W[ne];B[dd];W[ns];B[oj];W[dl];B[en];W[nj];B[je];W[he]
;B[oj];W[cq]C[Black resigns.])
(;B[sk]
(;W[rj];B[sm])
(;W[sj];B[sm])))
(;W[sk];B[rj];W[sl]))
(;B[jo];W[lp];B[lo];W[hp];B[io];W[ip];B[gp]C[I'm sure it wouldn't end up like this,  but do you see that your the one who gets to maintain pressure?]
))
(;B[jo];W[hq];B[ho];W[lq]))
(;B[fe];W[df];B[db];W[cc];B[ib]MA[id]LB[ch:A]C[Whites X stone is vulnerable and floating, and the white group on the left still has an open under side. Neither of your groups on the top have any concerns.]
)
(;B[cc];W[dc];B[cd];W[de];B[db];W[eb];B[cb];W[ec];B[cf];W[eg]
C[White is one solid group here. (and his pincer is better placed)]
))
(;W[ne];B[pf];W[pb];B[qc];W[lb]C[This isn't necessarily how you would have responded, but it shows that the high pincer would also allow white a base fairly easily.]
))
(;B[pc];W[kc]LB[cj:A][gq:B]C[I really like this. Now black can play A or B. I don't know which is better, nor do I know if B is the best spot. B would definitely make a hard invasion for white. Continue for the variations.]
;B[gq]
(;W[lq];B[jq])
(;W[iq];B[kq])))
(;B[pf]C[This play applies pressure to the white stone, as well as strengthening your right side. He has two basic options to play, both end in sente for black which is important. See both variations, one has comments.]

(;W[jd]LB[cj:A]C[Now with sente, you should be excited to take a big point in an open area such as A (C10). At this point you even have some defined territory, white only has influence.]
)
(;W[pb];B[qc];W[kc])))
