(;FF[4]GM[1]SZ[19]ST[2]CA[UTF-8]AP[SGFC:1.15]

PB[Ranppa]
BR[21k]
PW[sangtae]
WR[21k]
KM[6.5]
DT[2006-03-20]
PC[The Kiseido Go Server (KGS) at http://kgs.kiseido.com/]
RE[W+1.50]
TM[900]
RU[Japanese]

C[sangtae [21k\]: hi
Ranppa [21k?\]: hi


Hi and thanks to whoever is going to review this game!! :)
I've had a little break from GO but in my opinion this game was ok.
I'll point out some points i want you to comment (well.. not so many anyways :P)
And also i'd like a comment if my play in the beginning is ok.

[Broege: All the comments are inserted as this one - at the end of the comment, in square brackets.\]]
;B[dp];W[pd];B[qp];W[dd];B[kp];W[jd];B[qf];W[qe]
(;B[ph]LB[pf:A]C[Is this okay? Or Q11 better?

[Broege: A very natural move here is A. See the variants for typical continuations.\]]
;W[ql];B[rj]LB[qj:A]C[[Broege: Playing at A would attack White stronger while protecting Black group more.\]]
;W[qj];B[qi];W[pj];B[dj]LB[rk:A][pm:B]C[I thought that this would be a good move and there wouldn't be much to lose in the right side group. Well not sure about it anyways :P

[Broege: The right-side Black group is quite safe now. Perhaps a move chasing White right-side group into the center (like A or B) should be played first.

The general idea of leaving right side and creating influence elsewhere is correct.\]]
;W[pi];B[rh];W[fq]
(;B[hp]LB[fo:C][eq:A][hq:B]C[Any better moves here?

[Broege: Third line moves seem better here.
Playing at A would aim at closing the corner and making White live between Black D4 and L4 stones.
Playing at B would force White into the corner or into the center.
Playing at C would force White to live small while taking profit on the left side. See the variations.
After White C Black cannot do much - White can slide in both directions and run into the center if needed.\]]
;W[dr]
(;B[cq]LB[fo:A]C[[Broege: Perhaps playing at A and cutting off White group from the center would be better. Black begins to create a big moyo and White has to live in the corner - see the variation.\]]
;W[fo];B[dm]TR[cn][dn]C[[Broege: If you want to play safe one of the triangled points should be played.\]]
;W[fm];B[cc]TR[fc][gc][mc][nc]C[[Broege: This move is too much territory-oriented. After the sequence played in game White gets strong control over the top side of the board.
For invasions try moves around triangled intersections.\]];W[dc]
;B[cd];W[ce];B[be];W[cf];B[bf];W[cg];B[bg]LB[db:A]C[[Broege: The standard joseki move is at A. Crawling on the second line is usually too slow.\]]
;W[cb];B[bb];W[db];B[ba];W[hq];B[iq];W[gq];B[oq]LB[nc:A]C[Would it have been better to play around where my opponent makes the next move? (O17)
Well that would leave an option for him to play P3 or around that :O

[Broege: Yes, it's a tough choice as Black would like to play on both of these points.
Personally I would choose A but that's only a matter of individual preferences.\]]
;W[nc];B[ef]LB[ee:A]C[Dunno about this move... quess it seemed good at that moment.

[Broege: This move does not threaten White. The move only forces White to play A (as in the game) which removes any weaknesses from White wall.\]]
;W[ee];B[eh]LB[ch:A]C[[Broege: The follow-up move also does not give Black much value except for linking to the E14 stone. Imagine White A now.\]]
;W[gc];B[fe];W[fd]C[Well... I think it turned out ok];B[eg]
;W[gd];B[ch];W[gk];B[dg];W[de];B[hi];W[oh];B[pg];W[og];B[ki]
;W[pf];B[rf];W[re];B[ge];W[kg];B[hg];W[he];B[hf];W[ie];B[kk]
;W[hm];B[jm];W[dq];B[ep];W[eq]
(;B[ho]C[[Broege: Why not cut and put some pressure on White? White is still weak so it should be possible to profit by attacking. See the variation.\]]
;W[fp];B[in]LB[oi:A]TR[om][pm][pn][qn]C[[Broege: Playing at one of the triangled stones is more important - especially that White has cut at A.\]]
;W[qn];B[oo];W[on];B[nn];W[om];B[nm];W[nl];B[ml];W[nk];B[mk]
;W[mj];B[lj];W[mi];B[lh];W[lg];B[rl];W[mh];B[jh];W[kh];B[li]
;W[jg];B[ih];W[rp];B[rq];W[ro];B[qo];W[rn];B[ik];W[ir]C[[Broege: This point was waiting for Black. Perhaps it would be better to play it instead of the previous move.\]]
;B[jr]C[[Broege: This is an overplay. See the variation.\]]

(;W[hr];B[jp]LB[jq:B][kq:C][js:A]C[[Broege: It would be better to connect in the way which leaves no weaknes around A - like B or C.\]]
;W[ek];B[dk];W[cr];B[bq];W[br];B[eo]LB[co:B][cp:A]C[[Broege: This is an ugly shape. Moreover it does not protect the cut at A. Black should have played at B or A.
The variation shows what White can do now.\]]
(;W[qc];B[fj];W[fk];B[gj];W[ej];B[ei];W[rk];B[sk];W[qk];B[rm]
;W[qm];B[sl];W[sf];B[sg]LB[qg:B][rg:A]C[[Broege: Black should back-off and play at A.
Now, if White plays at B, Black dies - see the variations.\]]

(;W[se];B[qg];W[hk];B[il];W[hj];B[ij];W[hl];B[lm];W[hn];B[en]
;W[fn];B[el];W[fl];B[em];W[qq];B[qr];W[rr]
(;B[pq]LB[sq:A]C[[Broege: Why not play A? White stone at R3 cannot escape anyway and playing A cuts off S2 stone as well - see the variation.\]]
;W[sq];B[qq];W[js];B[ks];W[is];B[lr]LB[kr:A]C[[Broege: In general it is best to connect in ways which leave as few weaknesses as possible.
Here Black does not have to take care for eyeshape so connecting at A is better as it creates fewer ko threats.\]]
;W[aq];B[ap]LB[bp:A]C[[Broege: This is an overplay. Black should play at A. See the variation for how can White punish this play.\]]

(;W[ar];B[bo];W[rs];B[qs];W[if];B[sr]C[Hmm about this... My opponent counts this at the end to give points to me, but i am not really sure.. seems kind of unsettled to me :P

[Broege: He is right - this situation is called snapback. See the variation to understand why Black does not have to take the stones off the board.\]]

(;W[sp];B[po];W[pn];B[no];W[ca];B[sj];W[go];B[im];W[ig];B[gf]
C[[Broege: This move is not necessary (as were a few other moves which over-secured Black territory).
It is very important that one knows which securing moves are necessary (and makes them) and which are not - as making them not only does take a point from own score but also gives initiative to the opponent.\]]
;W[nf];B[tt]LB[sn:A]C[[Broege: Black should play the last point at A so White does not get a point there.\]]
;W[sn];B[tt];W[tt]TW[da][ea][fa][ga][ha][ia][ja][ka][la][ma]
[na][oa][pa][qa][ra][sa][eb][fb][gb][hb][ib][jb][kb][lb][mb]
[nb][ob][pb][qb][rb][sb][ec][fc][hc][ic][jc][kc][lc][mc][oc]
[pc][rc][sc][ed][hd][id][kd][ld][md][nd][od][qd][rd][sd][je]
[ke][le][me][ne][oe][pe][jf][kf][lf][mf][of][mg][ng][nh][ni]
[oi][nj][oj][ok][pk][gl][ol][pl][gm][pm][gn][so][er][fr][gr]
[as][bs][cs][ds][es][fs][gs][hs]TB[aa][ab][ac][bc][ad][bd][ae]
[af][ff][ag][fg][gg][rg][ah][bh][dh][fh][gh][hh][qh][sh][ai]
[bi][ci][di][fi][gi][ii][ji][ri][si][aj][bj][cj][jj][kj][ak]
[bk][ck][jk][lk][al][bl][cl][dl][jl][kl][ll][am][bm][cm][km]
[mm][an][bn][cn][dn][jn][kn][ln][mn][ao][co][do][io][jo][ko]
[lo][mo][bp][cp][ip][lp][mp][np][op][pp][jq][kq][lq][mq][nq]
[kr][mr][nr][or][pr][rr][ls][ms][ns][os][ps][rs][ss]C[Ranppa [21k?\]: thx
Ranppa [21k?\]: good game
sangtae [21k\]: nice game
Ranppa [21k?\]: cya
sangtae [21k\]: thx

[Broege: Overall it was a good game. Both Black and White played on the large scale and tried to create huge territories.
Many actual moves played while making these territories were incorrect - but what counts is a plan for the game.
Of course one has to try to play all the moves better and better - I hope that few of the more straigthforward errors I marked and sequences accompanying them will help you to play better.\]]
)
(;W[ss];B[sr];W[sp]C[[Broege. Well - White couldn't do much about its two stones (S1 and S2) being taken, could he?\]]
))
(;W[bp];B[ar];W[cp];B[aq];W[ao]C[[Broege: So White has killed the cutting stones and is ready to invade deeply into Black territory.\]]
))
(;B[sq];W[pq];B[pr];W[pp];B[po]))
(;W[qg]
(;B[se];W[qh];B[ri];W[rg]C[[Broege: Only one eye for Black now.\]]
)
(;B[rg];W[qh];B[ri];W[sj]C[[Broege: Again only one eye.\]])
(;B[qh];W[rg];B[si]TR[sh][sj]C[[Broege: Still only one real eye - triangles are false eyes only.\]]
)))
(;W[cp]
(;B[bp]C[[Broege: This move does not work - see the follow-up.\]]
;W[co]
(;B[bo];W[en]TR[eo][dp][ep]C[[Broege: The triangled stones die in this case.\]]
)
(;B[do];W[bo]TR[bp][bq][cq]C[[Broege: Now these triangled stones die.\]]
))
(;B[co]TR[bq][cq]C[[Broege: Black has to answer here and lose the two triangled stones\].]
;W[bp])))
(;W[jq];B[ip];W[kr];B[kq];W[js];B[lr]C[[Broege: White has punished Black for the overplay.\]]
))
(;B[fp];W[gp];B[go];W[ho]C[[Broege: This seems to be White's strongest move.\]]
;B[gn];W[hn];B[fn];W[eo];B[en];W[cp];B[do];W[bq];B[co];W[bp]
;B[ip]TR[gk][fm][hm][hn][ho]C[[Broege: This is one of the possibilities - the triangled stones should die. There are of course many more possibilities - try to explore different paths on your own.\]]
))
(;B[fo];W[cq];B[cp];W[hr];B[iq];W[ir];B[jr];W[bp];B[bo];W[bq]
;B[co];W[hq];B[ip]C[[Broege: This way Black build a big wall and White is cut off from the action.\]]
))
(;B[hq];W[dr];B[cq];W[fo];B[dn]C[[Broege: White may jump into the center first but the result will be close to this anyway. White still does not have enough room for eyes on the edge end needs to run.\]]
)
(;B[eq];W[fp];B[cn];W[iq];B[jq];W[ip]LB[nq:A]C[[Broege: White is very limited here, Black can try to take territory by playing at A next.\]]
)
(;B[fo];W[dr];B[cq];W[iq];B[jq];W[ip];B[cg]C[[Broege: Again Black seems to be better off.\]]
))
(;B[pf];W[nc];B[qj]C[[Broege: This is one of the most common variations. Here it is very good for Black so perhaps White should have played pincer around R11 instead of blocking at R15.\]]
)
(;B[pi];W[pf];B[qg]C[[Broege: Black has a very low position on the side, Black R14 seems unnecessary.\]]
))
