(;FF[4]GM[1]SZ[19]ST[2]CA[UTF-8]AP[SGFC:1.15]

PB[losingmove]
BR[12k]
PW[kkawakatsu]
WR[9k]
KM[0.5]
DT[2006-04-02]
PC[The Kiseido Go Server (KGS) at http://kgs.kiseido.com/]
RE[W+8.50]
TM[1650]
RU[Japanese]

C[
hi, i want to thank you to see this game i played in kgs. i know (i think) the reason why i lost (move 225, clear tactical mistake). but if you could give me some advice on the other mistakes i`ve made, those not that clear for me, specially strategical ones, that would be great.

thanks a lot, again!];B[pp];W[dd];B[dp];W[qd];B[oc];W[ld];B[oe]
;W[qg]
(;B[qb];W[rc];B[mb];W[lb];B[mc];W[lc]
(;B[fd];W[hd];B[jd];W[je];B[ie];W[id];B[ke];W[jf];B[kd];W[jc]
;B[kb]C[i don`t know if in the end this move was so bad, but it was a missclick :) i was trying to play l17, i would have never thought of l18 as a possibility...]
;W[kc];B[le];W[md];B[me];W[nd];B[ne];W[od]C[I don't like the end result of your invasion, when you push white along the 16th line you weaking your top group and gain almost nothing, white also loses very little territory in the top left.]
;B[ob];W[pe];B[rb];W[hf];B[og];W[pi];B[ni];W[nj];B[oi];W[oj]
;B[ph];W[qh];B[mj];W[mk];B[lk];W[pj];B[ml]C[kkawakatsu [9k\]: I should  have said thanks first]
;W[nk];B[li];W[ll];B[kk];W[nl];B[mm];W[nm];B[mn];W[nn];B[qm]
;W[mo]
(;B[ln];W[lo];B[kn];W[ko];B[jn];W[oo];B[qp];W[jo];B[io];W[ip]
;B[ho];W[op]
(;B[jq];W[hp];B[mq];W[oq];B[iq];W[jp];B[gr];W[go];B[hm];W[gm]
;B[gn];W[fn];B[hn];W[fp];B[gq];W[gp];B[fm];W[en];B[gl];W[cq]
;B[dq];W[cp];B[do];W[bn]C[an idea...]
(;B[dm];W[em];B[el];W[dl];B[dn];W[ek];B[fl];W[cl];B[dj];W[dk]
;B[cr];W[br];B[bo];W[co];B[cn];W[bp];B[bm];W[ao];B[bl];W[cm]
;B[bj];W[bk];B[ak];W[ck];B[cj];W[am];B[fj];W[al];B[ff];W[ej]
;B[ei];W[fi];B[eh];W[df];B[ge];W[he];B[hc];W[gc];B[fc];W[eb]
;B[gd];W[gb];B[fb];W[fa];B[ec];W[db];B[hb];W[ga];B[dc];W[cb]
;B[cc];W[bc];B[bd];W[bb];B[cd]C[this is very well done with you, chows why E18 was an overplay]
;W[ad];B[ea];W[da];B[ae];W[ac];B[be];W[aj];B[ha];W[ea];B[ba]
;W[ib];B[ab];W[aa];B[ig];W[ca];B[if];W[hg];B[ih];W[hh];B[hi]
;W[fk];B[gj];W[bi];B[ch];W[ci];B[di];W[bh];B[cg];W[bg];B[cf]
;W[er];B[ep];W[fo];B[fq];W[eq];B[dr];W[es];B[fs];W[cs];B[fr]
;W[qr];B[rk];W[rj]
(;B[qk];W[qj];B[qc];W[rd];B[pf];W[qf];B[rq];W[pc];B[pb];W[pd]
;B[nc];W[rr];B[ai];W[ak];B[gh];W[gk];B[hk];W[pg];B[of];W[oh]
;B[nh];W[qn];B[rn];W[rm]
(;B[ro];W[ql];B[pm];W[rl];B[pl];W[pk]
(;B[pn]C[if iÂ´m not reading really wrong, this is the move that decided the game, because black q5 would have saved the black group... what a shame for me :-P]
;W[po];B[ag];W[ah];B[bf];W[ai];B[nr];W[hq];B[hr];W[kq];B[kr]
;W[lq];B[lr];W[or];B[la];W[jb];B[ka];W[ja];B[ma];W[mp];B[mr]
;W[sb];B[ra];W[bs];B[ds];W[nq];B[sa];W[sc];B[gg];W[ic];B[os]
;W[ps];B[ns];W[af];B[ph];W[jr];B[ir];W[oh];B[ag];W[ph];B[af]
;W[tt];B[qq];W[sp];B[tt];W[tt]TW[ba][ha][ia][ab][hb][hc][sd]
[qe][re][se][rf][sf][rg][sg][rh][sh][qi][ri][si][sj][ok][qk]
[rk][sk][bl][ol][pl][sl][bm][om][pm][qm][sm][an][on][pn][rn]
[sn][bo][no][qo][ro][so][ap][kp][lp][np][pp][qp][rp][aq][bq]
[pq][qq][rq][sq][ar][pr][sr][as][qs][rs][ss]TB[na][oa][pa][qa]
[nb][dd][ed][ce][de][ee][fe][je][df][ef][jf][kf][lf][mf][nf]
[dg][eg][fg][jg][kg][lg][mg][ng][dh][fh][jh][kh][lh][mh][fi]
[gi][ii][ji][ki][mi][hj][ij][jj][kj][lj][ik][jk][hl][il][jl]
[kl][ll][gm][im][jm][km][lm][in][eq][er][jr][es][gs][hs][is]
[js][ks][ls][ms]C[
In this game your early invasion caused you a lot of trouble because it made white strong in the upper left. Although you made it up during the game, the game would have been easier if you didn't make an invasion like that. Also remember that it is only a bad thing that your oppenent makes territory if they are making more than you. If you have any additional questions or comment my name on KGS is Kilroy.]
)
(;B[po];W[pn]C[it doesn't save the group]))
(;B[rl];W[ro];B[sm];W[qo];B[pl]C[of course you always had the choice to cut your losses.]
))
(;B[rl]C[here better, this also removes the threat of white R6 and saves the group]
))
(;B[cf]C[you could do this first and and take the couner, or after the kick]
;W[ce];B[dm];W[em];B[el];W[dl];B[dn];W[ek];B[fl];W[cl];B[dj]
;W[dk];B[cr];W[br];B[bo];W[co];B[cn];W[bp];B[bm];W[ao];B[bl]
;W[cm];B[bj];W[bk];B[ak];W[ck];B[cj];W[am];B[fj];W[al]C[now here, it can be interesting because you have already started to make a base. 

but it's hard to say the same outcome would happen after that exchange]
))
(;B[hp]C[here may be better, you limit white's space, and make territory inthe bottom left]
;W[iq];B[hq]))
(;B[km];W[lo];B[kn]C[this way you can hane after L5 and the shape is better]
))
(;B[fc]
(;W[ec];B[fd]
(;W[df]LB[ic:1][jc:2]C[you can extend to either, becuase the white group at M16 is weak.]
)
(;W[ic];B[de]))
(;W[hd];B[cc]))
(;B[cf];W[fd];B[dj]C[This is an idea, you can still invade/reduce white's top and you start to build your own territory.]
))
(;B[qc];W[rc];B[qb];W[pd];B[od];W[qi]C[this joseki]))
