(;FF[4]GM[1]SZ[19]AP[SGFC:1.15]

PB[Nabesan]
BR[3k]
PW[stonedagan]
WR[2k]
KM[-5.5]
DT[2006-04-14]
PC[IGS-PandaNet]
RE[B+R]
TM[300]

C[Chris: The attack on the top left group in this game gave me  some control but I feel like I did not use the attack in any useful way. It felt like there were many overplays in this game but I have no idea of how to punish them (if they are overplays at all).

Thank you very much.
Chris];B[pd]C[stonedagan: hi];W[dp];B[pp];W[dc];B[pj];W[nc]
;B[ne];W[qf];B[qc];W[ld];B[nd];W[oc];B[pe];W[nq];B[no];W[qq]
;B[qp];W[pq];B[op];W[rp];B[ro];W[rq];B[lp];W[ce];B[jc];W[lc]
;B[gc];W[lf];B[mg];W[ib];B[ic];W[hb];B[hc];W[jb];B[gb];W[je]
C[klin: K15 too close, J14 or H14 better];B[gf];W[dj]C[klin: D10 can be at D12, more pressure to the group]
;B[mr];W[nr];B[kh];W[ig];B[gh];W[ii];B[cg];W[fg];B[gg];W[gj]
;B[kc];W[kb];B[db];W[cb];B[dd];W[ec];B[cd];W[fe];B[ff];W[ge]
;B[he];W[ee];B[if];W[jf];B[gd];W[ie];B[hf];W[de];B[eb];W[fc]
;B[fj];W[ki];B[li];W[lj];B[mi];W[gi];B[fi];W[fh]C[klin: F12 misread? should F9]
;B[dh];W[fk];B[ei];W[mj]C[klin: N10 should E9, keep the pressure on]
;B[kj];W[pi];B[oi];W[qj];B[oj];W[qk];B[qh];W[ph]C[klin: Q12 at Q11 better]
;B[qg];W[qi];B[pg];W[rn]C[klin: S6 at R7 better];B[rm];W[qn]
;B[qm];W[pn];B[pm];W[on];B[sn];W[qo];B[so];W[nn];B[mn];W[sp]
;B[sm];W[nm]C[klin: O7 at P8 better];B[ol];W[np]C[klin: O5 should N7 get out]
;B[mm];W[nl];B[nk];W[ml];B[ll];W[mo];B[lo];W[oo];B[dn];W[fp]
C[klin: W still should play at E9 now];B[fn];W[cn]C[klin: C6 bad move]
;B[co];W[do];B[bn];W[cm];B[cp];W[cq];B[bq];W[cr];B[bm];W[cl]
;B[br];W[hp]C[klin: W H4 should E6.  Center W is too thin.]
;B[ek];W[el];B[en];W[hn];B[fl];W[fm];B[dl];W[gl];B[dk];W[dm]
;B[em];W[ck];B[fl];W[pk];B[ok];W[el];B[ed];W[fd];B[fl];W[id]
;B[gm];W[hd];B[gq];W[gp];B[hq];W[iq];B[ir];W[jr]C[klin: W2 should F3, hard to kill]
;B[jq];W[ip];B[hr];W[kr];B[eq];W[ep];B[dr];W[fq];B[fr];W[dq]
;B[er];W[bs]C[klin: W B1 the should G1, if B C1, W D1, E1, G2 can kill 4 B stones.
No comment beyond this point.];B[gs];W[bl];B[bp];W[ao];B[cj]
;W[bj];B[ci];W[am];B[bo];W[bi];B[ak];W[al];B[an];W[bk];B[bh]
C[stonedagan has resigned the game.])
