(;FF[4]GM[1]SZ[19]ST[2]CA[UTF-8]AP[SGFC:1.15]VW[]

PB[oblivion]
BR[21k]
PW[Fumio]
WR[16k]
KM[0.5]
DT[2006-04-06]
PC[IGS-PandaNet]
RE[B+17.50]
TM[600]
RU[Japanese]

C[Hi , in this game i am black, i think that white went easy on me but can anyone give me a review of this game? i will really appreciate it.

Black took a lot of chances in this game; white did not punish sufficiently.  

Both sides played very slowly.  Often ignoring big plays to make tiny moves that might well have been ignored by the other.

The opening is very unusual, with urgent plays being ignored by both sides; I found that this made reviewing the game more challenging.  I hope that I managed to do a decent job of it.  
In general, I have not followed with long variations, instead I have tried to focus on particular moves.  In some cases, where I have made a long variation, this is only to demonstrate one possible outcome.  The initial move is the important thing to consider.

Sometimes I took the liberty to make alternate moves for white.  In most cases, I did this to try and demonstrate why black's move is inferior to alternative choices.]
;B[pd];W[dd]C[Fumio: Hi!
oblivion: hi];B[pp];W[dp];B[dj];W[cm];B[dq]C[Too early for a probe like this.  Black can successfully invade the corner, but white will be left with strong outside influence.  The result will likely leave black's Q4 stone weakened.]
;W[cq]
(;B[cr]LB[eq:B][dr:A]
(;W[dr]C[B is bigger for white.];B[eq];W[br];B[er];W[cs];B[ep]
;W[do]LB[cf:A][eo:C][jq:B]C[Black chooses A in the game, which is normally a good move.  But these bottom 4 stones need attention.  maybe push a bit at C first, then B or something similar? See variations.]

(;B[cf]LB[ce:A][jq:B]C[if black approaches here, he invites a winte invasion at the bottom.]

(;W[ce];B[df];W[gc]LB[bo:A][jq:B]
(;B[bo]C[This invasion cannot help black - white is too strong.  Help the 4 stones at the bottom first (E3 group).]
;W[co];B[bm]LB[bl:B][bp:A]
(;W[bp]C[This side is not good, please see the alternative.]
;B[bn]LB[cl:B][cn:A]
(;W[cn];B[cl];W[dl];B[ck];W[mq]C[N3 shows how black should have helped the E3 group before.]
;B[iq];W[pr];B[qq]LB[mo:B][qr:A]
(;W[qr]C[R2 is very small
white should have just jumped out at N5 after Q2];B[qm];W[qg]
LB[md:A][qe:B]
(;B[md]LB[kc:B][rd:A]C[this move seems questionable to me (N16).  It is too far away from Q16 to help the corner, too far from R13 to put any pressure on white's weak stone, and too high to make any side territory.  white L17 would be a frustration for black.]

(;W[rd];B[qc];W[qj]LB[rc:B][qe:A]C[B is better.  It defends the corner and is sente.]

(;B[qe];W[re]C[R15 has only reduced white by 2 points.];B[rf]
C[bad, white will cut and kill this stone.];W[qf];B[jc]C[an urgent move for black.  Good choice I think.
Although something on the bottom might be bigger.];W[rc];B[qb]
;W[rb];B[qk];W[pj]LB[cc:B][jj:A][ok:C][pk:D][kq:E]C[in the Game black chose A, but there are many bigger, more urgent choices than this point.

B.  This corner is still open, black could steal in and get life or a ko-for-life.

C or D. a defensive move around here is pretty big.  if black does nothing, white Q9 would be painful.

E.  Weak Black group.  This group would be  hard to kill, but relatively simple to press down and seal in I think.  So black should help this group some how.  E is tempting, since it makes more eye-space for the group and puts pressure on white's weak group.


and here is a good time to consider "flow."  Moves B,D, E all are sente, which is the most urgent?  B seems biggest, if white get's a chance, he should help his corner, now that black is pressing the corner on both sides.]

(;B[jj];W[fl]LB[en:A][fn:B]C[Notice how F8 has not affected the large moves that black had before.  F8 is not much pressure on black anywhere.  So it's time for a big move.  Like the previous ones identified.]

(;B[en]LB[em:A][eo:B]C[this move is not good.  White can simply cut and capture this stone.  White is very thick here and can push through with ease.
see variation.]
(;W[em];B[fn]TR[fo][fp][fq]C[very slow and not worth much in points.
maybe 3 points?];W[eo];B[fo];W[hl]LB[hm:A][in:B]C[B settles black faster than A]

(;B[hm]TR[gn][hn][go][ho]C[again slow - maybe worth 4 points.
There are bigger moves.  Remember C17, Q9, L3.];W[il]LB[im:A]
[kq:B]C[B bigger than A here.]
(;B[im];W[jq];B[jp];W[jr];B[ir];W[kp]LB[ko:B][kq:A]C[B simpler and faster.]

(;B[kq];W[kr];B[ko];W[lp];B[io];W[jl];B[jm]C[still slow moves.  the bigger points of C17 and Q9 remain.]
;W[gj];B[ek]LB[el:A]C[white can ignore this peep.]
(;W[el]LB[eh:B][fk:A]
(;B[fk];W[gk];B[gm]C[another tiny move.];W[gl];B[fi];W[pk]C[white gets this big move.]
;B[pl];W[rk];B[ql];W[rq];B[rl]LB[rj:A][ro:B]
(;W[rj];B[rp];W[pq];B[qp];W[rr];B[op]LB[nq:B][oq:A]
(;W[oq];B[lo]LB[mo:B][mp:A]
(;W[mp]C[bad shape and too submissive.];B[no]
(;W[gi]C[very slow of white.];B[fd]C[not a bad shoulder hit, but C17 could live and is much bigger.]
;W[fc];B[ed];W[ec]C[now the corner is white's.];B[de];W[cd]
;B[gd];W[hc];B[hb]LB[ib:B][ic:A]C[this is a bad move.  see variation.]

(;W[ic];B[ib];W[gb];B[jd];W[hd];B[gf];W[he]LB[ge:A][hf:B]
(;B[ge]TR[ed][fd][gd][gf]C[bad shape. this is like an "empty triangle"
very inefficient shape.];W[gh];B[fh];W[gg];B[fg];W[dk];B[cj]
;W[hf];B[jg];W[je];B[ke];W[jf];B[kf]C[white is playing very slowly and helps black define territory.]
;W[kg];B[lg];W[kh];B[lh];W[ki];B[kl];W[kj];B[kk];W[jk];B[li]
LB[of:A][lj:B]
(;W[of]LB[oh:A][lj:B]
(;B[oh]LB[ne:A][pe:B]
(;W[ne]LB[nd:B][me:A]
(;B[me];W[nd];B[nc];W[mf];B[lf];W[pe];B[od];W[qd]LB[ob:B][oe:A]
[ng:C]
(;B[oe]C[this puts black into a shortage of liberties for very little gain.  Best to just defend, or tenuki.]
;W[nf];B[pc];W[nh]LB[ng:B][ni:A]
(;B[ni];W[mh];B[mi];W[oi];B[oj];W[pi]LB[lj:B][ok:A]
(;B[ok];W[lj]LB[lk:A][mk:B]
(;B[lk]TR[kk][kl]C[this is making an empty triangle.];W[mj]
;B[mk];W[nj];B[nk];W[mo]LB[jh:B][mn:A]
(;B[mn];W[sp];B[so];W[sq];B[rn];W[np];B[on];W[ha];B[ji]C[good!]
;W[jb];B[kb];W[ja];B[ka];W[ia];B[es];W[ds];B[be];W[bd];B[bf]
;W[mg]LB[ad:B][jh:A]
(;B[jh]C[not needed: nothing was in atari.];W[ig];B[ih];W[hh]
;B[hi]C[tiny move.  A16, S19, J1, A4 are bigger.];W[hj]LB[ii:A]
[ij:B]
(;B[ii];W[ij]LB[ad:B][fj:A]C[white gets 2 points here, instead of just 1.]

(;B[fj];W[id];B[kd];W[qa];B[pa];W[ob];B[oc];W[nb];B[mb];W[pb]
;B[ra];W[sb];B[na];W[sa];B[oa];W[is];B[hs];W[js];B[hr];W[dn]
LB[ad:B][fm:A]
(;B[fm];W[ao];B[bl];W[ae];B[af];W[ad];B[an];W[ap];B[sk];W[sj]
;B[sl];W[qa];B[lr];W[lq];B[ra];W[ee];B[ef];W[qa];B[tt];W[ra]
;B[tt];W[tt]C[You can check your score with the score command, type 'done' when finished.
Click on a group of stones to mark it dead and remove it from the board.]
;B[tt]TW[aa][ba][ca][da][ea][fa][ga][ab][bb][cb][db][eb][fb]
[hb][ib][ac][bc][cc][dc][sc][sd][ie][qe][se][if][pf][rf][sf]
[hg][ng][og][pg][rg][sg][oh][ph][qh][rh][sh][qi][ri][si][hk]
[ik][dm][cp][aq][bq][kq][nq][ar][cr][lr][mr][nr][or][sr][as]
[bs][ks][ls][ms][ns][os][ps][qs][rs][ss]TB[la][ma][lb][nb][ob]
[pb][kc][lc][mc][ld][ee][fe][le][ff][ag][bg][cg][dg][eg][kg]
[ah][bh][ch][dh][eh][kh][ai][bi][ci][di][ei][ki][aj][bj][ej]
[kj][lj][mj][nj][ak][bk][al][ll][ml][nl][ol][am][km][lm][mm]
[nm][om][pm][rm][sm][gn][hn][in][jn][kn][ln][nn][pn][qn][sn]
[go][ho][jo][oo][po][qo][ro][fp][gp][hp][ip][fq][gq][hq][fr]
[gr][fs][gs])
(;B[ad]C[sente first.]))
(;B[ad]C[sente first.]))
(;B[ij]C[better]))
(;B[ad]LB[ac:A][kd:B]
(;W[ac];B[ae];W[bb])
(;W[kd];B[jh];W[mc];B[lc];W[mb];B[nb];W[ld];B[le];W[lb];B[kc]
C[white has nothing here.])))
(;B[jh]C[a huge move.]))
(;B[mk]C[better shape.]))
(;B[lj]C[this is still important - and sente.]))
(;B[ng]LB[mg:B][og:A]C[this side better I think.]
(;W[og];B[ni]LB[mg:A][ph:B]
(;W[mg];B[oi])
(;W[ph];B[mh]))
(;W[mg];B[ni];W[og];B[oi];W[mi];B[mh];W[mj])))
(;B[ob])
(;B[ng];W[nf]C[this has a bit of promise.]))
(;B[nd]C[defend, white wants into black's territory.]))
(;W[pe]LB[od:B][qd:A]
(;B[qd];W[od];B[oc]C[if black P12, white has this.  a pretty big reduction.]
)
(;B[od];W[qd]C[even this is fairly large and leaves big move in sente for white at R19 or Q18.]
)))
(;B[lj]C[this is a nice sente move -white must defend or die.]
;W[jh];B[nk]C[pretty big points here.]))
(;W[lj]C[white should not allow being sealed in here.]))
(;B[hf]))
(;W[ib]C[black's stone is eaten.]))
(;W[oe]C[white has to think on a grander scale.
Something like this sequence perhaps.
The goal being reducing black and getting some pofit in the centre.  Notice how K10 has only one easy way to escape and that is connecting to this top black group.
Thus, white should press on this group to ensnare K10.];B[od]
;W[me];B[ne];W[nf];B[nd];W[le]
(;B[kd];W[ke];B[je];W[jg])
(;B[je];W[jf];B[ie];W[if])))
(;W[mo];B[np];W[mp];B[nq];W[nr]C[a little more satisifying for white.]
))
(;W[nq]C[better shape.]))
(;W[ro]C[this is bigger for white.]))
(;B[eh]C[as far as territory goes, this finishes black's shape simply and efficiently.]
))
(;W[tt]C[if white tenukis and ignores the peep...];B[el];W[fm]
;B[gl];W[gm];B[gk];W[fk];B[hk];W[ij];B[ik];W[jk]C[there is no cut.]
))
(;B[ko]C[this is ok here and better than the sacrifice I think.]
;W[jo];B[ip]LB[lo:B][lp:A]
(;W[lp])
(;W[lo];B[kn]C[K5 is dead.
white has gained little for the sacrifice.])))
(;B[kq]C[this is so much bigger.  And puts pressure on white.]
))
(;B[in]C[if black wants to settle this group now, rather than H7, this is better.]
))
(;W[eo];B[fo]C[now white can cross-cut.];W[fn];B[fm]C[resistance is futile.]
;W[gn];B[em];W[gl]C[caught in a net.  and there is still a cut at F4 that black must fix.]
))
(;B[fn]C[this one is possible, if black had already solidified the other side.  but this group is still open on the other side and F6 is not sente: white can ignore it.]
))
(;B[cc]LB[dc:A][cd:C][be:B]C[white A, B, or C won't matter, black will still live.]

(;W[dc];B[be]LB[cb:B][bd:A]
(;W[bd]C[this fails.];B[cd];W[de];B[bc];W[bf];B[ad]C[steal corner]
)
(;W[cb];B[bc]C[huge point loss for white.  B18 would be sente for black later.]
))
(;W[be];B[dc];W[ec]C[black can live])
(;W[cd]C[black still steals corner.]))
(;B[ok];W[pk];B[pl])
(;B[pk];W[ok];B[ol]C[maybe this is better shape.])
(;B[kq]))
(;B[rc]C[here is better, this is sente and seals the corner for black]
;W[kc]C[if white ignores...];B[re]C[black steals the stone and white's group can be undercut.]
))
(;W[kc]LB[mb:A][qe:B]C[profit for white in sente.  How would black best defend his corner and side?]

(;B[mb];W[qc]C[if side, then the corner is open])
(;B[qe]C[if corner then...];W[nc];B[nd];W[mb]C[the side is left open and still more possibilities for stealing more from the corner.]
)))
(;B[qe];W[qj];B[nc]C[this variation seems most appealing to me.  here, black chooses to first defend the corner at R15 - white must form a base - probably R10.  Then black calmly secures a large corner with O17.  O17 is best here, I think because of G17 being low.  the top will be hard to develop further, so just finish this shape.  Furthermore, now that black has settled, white's right side group is looking rather thin and will need help. Probably something like P13.]
;W[og]))
(;W[mo]))
(;W[cl]C[Black could keep running I guess, but his group on the left side will be undercut and life will still be a struggle for this 2nd line group.]
))
(;W[bl];B[bn];W[cl];B[cn];W[dn];B[bp]C[Black can't live here, and worse, now black's group on the left side will become under attack.]
))
(;B[jq]))
(;W[jq]C[Black simply does not want this to happen.];B[hq];W[mq]
C[black is split.]))
(;B[jq]C[black should defend the wall he just created, otherwise, white can make life difficult for the E3 group]
)
(;B[eo];W[en];B[fn];W[em];B[jp]))
(;W[eq]C[from here, black could live, but white gets a big wall.]
;B[bq];W[dr];B[cp];W[dq];B[bo];W[br];B[ar];W[cs];B[bm];W[co]
;B[bp];W[bn];B[an];W[cn];B[bl];W[ao];B[ap]))
(;B[eq]C[this is probably safer, but still this whole sequence is too soon.]
))
