(;FF[4]GM[1]SZ[19]ST[2]CA[UTF-8]AP[SGFC:1.15]

PB[Brock2574]
BR[13k]
PW[egb]
WR[12k]
KM[0.5]
DT[2006-04-14]
PC[The Kiseido Go Server (KGS) at http://kgs.kiseido.com/]
RE[W+5.50]
TM[1200]
OT[16/240 Canadian]
RU[Japanese]

C[egb [12k\]: hi
Brock2574 [13k\]: yo


You say that you are getting only small side territories while you opponent gets a large center and that this happens in all of your games.
This is interesting because I tend to take my territory out of the center, sometimes too much so. I should be able to help you play more like me.

Just very quickly going through the game, I notice an imbalance in your play.Almost all of your moves are tight, close to your own and your opponent's stones. Many of your moves contact plays against your opponent's stones. You are usually the last to play in an area, whether the moves is needed for life and death or not. You add more stones to a group that is almost dead instead of abandoning it while it is small. All of these things are small ways to play.

Why do you play this way? I suspect that it is a matter of comfort and confidence. Sometimes it is very difficult to decide what to do when you have sente. There are so many choices! So maybe you start unconsciously avoiding sente by making one more move in the corner that you were just playing in, rather than taking a big point. If you are to play away from the other stones, where exactly do you play? Again, there are many choices, so maybe you avoid the choice by playing one more move near other stones. You may have to force yourself to play just a little more daring.

Enough of this psychoanalysis! Let's see some examples in your play.]
;B[qp];W[pd];B[cq];W[cd];B[oq];W[qj];B[ql];W[jc];B[ed]LB[jc:A]
[df:B][dp:C][cq:D]C[
It is difficult to say what is the best move here. Your game move is a standard approach, but it's value is less than usual due to the stone at 
A which sort of acts like a pincer. I might consider a move at B, but this woud work better with a corner stone at C instead of D. Not that there is anything wrong with the 3-3 point play.]
;W[df]
(;B[hc]LB[cc:A]C[
A is the joseki move here. See alternate line which would be much better for you. OK, it is a contact move, but contact moves are defensive and you are on the defense here. It gives you a clain to half of the corner which helps you make eyes.]
;W[ec];B[fc];W[dc];B[dd]LB[cc:A][ed:B][df:C][ff:D]C[
This is a horrible move! In some circumstance, it might be okay if you could really use it to start an attack against w, by say cutting at A, but that is not going to happen here. Look at it this way: You take a stone at B which has 3 of 4 liberties and make it into 2 stones which have only 1/2 of their liberties. Added to this, the w stone at C is giving your 2 stones a dirty look. If you are going to play here, play a move that helps your weak group, like D to escape to the center.]
;W[ce];B[nc]TR[fc][ed][dd][hc]C[Brock2574 [13k\]: i thought this move might be good at attacking the white stone to the left and attacking the corner

Not a bad thought in principle. The only problem is that as w strengthens the stone on the left, the triangle stones will become weaker than they already are. The triangle stones have little eye potential and w 's stones are ahead of them in any run to the center.]
;W[pb];B[qc];W[pc];B[qd];W[pe];B[qe];W[qf];B[rf];W[qg];B[rg]
;W[qh];B[rh];W[ri]
(;B[qb]LB[jc:A][je:B]C[Brock2574 [13k\]: i invade the corner yet i allow my opponent to create a huge outer wall.  This is one of my bigger problems when trying to secure side territory

Giving w a wall can't be helped, if you are going to invade his corner. The wall is w's compensation for your territory. What makes it bad is that it threatens to swallow up your weak stones to give w a truly gigantic territory on the top. Even then, it wouldn't be so bad except that w comes away with sente to make the one move that will protect his weak stone at A and separate and attack your weak stones. You probably have life in this corner, so you should use this move to help your stones at the top. The best move is hard to say. Maybe B on the theory that the enemy's key point is your own. The fighting will be hard for you, but better than after w makes his next move.]
;W[je]C[
It can't get any better for w than this!];B[jd]C[
This is an interesting move! It is not one that I would tend to think of, but it creates the complications that allow you to turn the upper side around.
Nonetheless, this move is not so good that you should get this much out of it. W must be making some mistakes.]

(;W[kd]LB[nc:A]C[
If w wanted to go for everything, he could play on the other side as in the alternate line. Playing on this side swallows up your stone at A, but tends to give w a narrower territory than he might hope for given the strength of his wall. If he could play on the other side, he might get a wider territory or even kill both of your groups. I am tempted by this possibility, but it is risky. It might work, see alternate lines for some possibilities.

This move is safer, in that w pits his weak stones against the weaker of your 2 groups.]
;B[id]
(;W[kc]LB[ke:A]C[
I think that this is a mistake by w. It captures the single b stone, but it lets b have the cutting point toward the center at A and b needs to get to the center with his other stones. W could keep the pressure on with A instead and bring his influence out to the center and across the board. See alternate.]
;B[ke];W[jf]LB[le:A][je:B]C[
The safe thing for w is to play at A and take his territory. You will escape, but he can still harass you and maybe the stone at B will serve some purpose later.]
;B[le];W[md];B[ld];W[lc];B[mc];W[me];B[lf];W[mf];B[lg];W[mb]
;B[nb];W[la];B[kb];W[jb];B[na];W[oa];B[ma];W[lb];B[ib];W[oc]
;B[ja];W[nd];B[ig]C[
This is a good move.];W[jg];B[jh];W[he];B[ie];W[if];B[hf]C[Brock2574 [13k\]: because of my invasion at move 17, I've made the whole upper part of the board week or destroyed

I think that is a bit of an exageration, but you do split the upper side with w and that is better than you might have hoped.]
;W[hg];B[gf];W[ih];B[ic];W[ob];B[kh];W[fg];B[gg];W[gh];B[ff]
;W[eg];B[cj];W[fi];B[iq]TR[jh][kh][lg][lf][le][ld][ke]C[
OK, you have gotten 2 big points, but you have to be mindful of the fact that your triangle stones are extremely weak and just barely able to escape. W should be thinking of how to exploit this weakness and you have to correct it as soon as possible.]
;W[dp];B[cp];W[do];B[co];W[dq];B[fq];W[cn];B[bn];W[bm];B[cm]
;W[dn];B[bl];W[bo];B[am];W[cr]
(;B[bp]LB[bq:A]C[
Why not play at A? See alternate];W[bq];B[ao];W[er]C[Brock2574 [13k\]: once again my big problem is i get stuck with a small side territory and my opponent gets a strong wall towards the center

This wall is not that strong. This time your groups on both sides are strong and the walls influence is limited by the presence of your stones.]
;B[lq]LB[jl:A]C[
Now is the time to play on a larger scale  a move at A would strengthen your weak stones, map out a large moyo in the bottom right and prevent w from going places with his stones on the left.

I think that this is a critical point in this game that addresses your concerns. If you are going to take part of the center, you have to play in the center. Not prematurely, but at the right time. That time is now!]
;W[pm];B[qm];W[po]
(;B[qo]LB[pl:A]C[
Your last move was more or less forced, but this one is not Play at A. See alternate.]
;W[qn];B[rn];W[pn];B[pl];W[ro];B[rp];W[rm];B[so];W[ol];B[ok]
;W[pk];B[rl];W[nl];B[om]LB[kl:A]C[
This move lets you force w from above, but he will live and you are still left with a weak group in the center. Bring the group out and block w's advance with a move like A.]
;W[nn];B[nk];W[ml];B[mk];W[ko];B[ll];W[kq]
(;B[kr];W[lp];B[mq];W[ho];B[mm];W[nm];B[mn]LB[kl:A]C[
If you are going to play close fighting moves like this, you have to read them out to their conclusion. A is better than these contact plays that w captures. He is only 1 play ahead of you in the capturing race, but that makes all the difference.]
;W[no];B[mo];W[mp];B[np];W[op];B[nq];W[lm];B[on];W[oo];B[ln]
LB[kl:A]C[
Before you lay down a stone like this, think about your opponents next move. These stones are dead, but a move at A will protect your groups in the center while forcing w using your dead stones. When you play the game move you have eliminated the forcing potential of the dead stones and given w a larger territory.]
;W[km];B[jq];W[kn];B[kp];W[lo];B[jk];W[ch];B[nh];W[oj]
(;B[nj]C[
This move gives a bad shape which results in more forcing moves. However, I don't like the alternate either.]
;W[lk];B[lj];W[ni];B[kk];W[mi];B[oi];W[oh];B[pj];W[mh];B[qk]
;W[pi];B[oj]LB[gr:A][bi:B][el:C]C[
You would be better off ignoring the atari and playing elsewhere. A-C are worth a lot more. If w takes your stone for 1/2 point you can connect then.]
;W[gr];B[gq];W[hr];B[hq];W[bj];B[bi];W[ck];B[bk];W[aj];B[ai]
;W[ci];B[dj];W[bh];B[ak];W[fe];B[ge];W[gd];B[hd];W[ef];B[he]
;W[fb];B[gb];W[fd];B[gc];W[ee];B[eb];W[db];B[fa];W[da];B[ea]
;W[dm];B[ah];W[bf];B[ag]C[Brock2574 [13k\]: my endgame is always trying to reduce the center, which i always have a  hard time doing]
;W[af];B[fr];W[fs];B[fn]LB[dk:A]C[
This is a strange point to play. It is a little far from your lower group given the closeness of w's stones. You are probably going to need to rescue this stone. I guess you force w to take an eye in the corner, but you might be better to take the stone in the corner yourself.

This center territory should more or less not count for either side, becuase it is open to multiple approaches by both sides live groups. I suppose w has a little better claim. Maybe a move like A to capture a stone and give you a little more influence into the center would be good.]
;W[br];B[mg];W[ng];B[ii];W[hi];B[hj];W[ij];B[ji];W[ik];B[il]
;W[hk];B[hl];W[gk];B[jo]LB[hj:A][jl:B]TR[hl][il]C[
I don't like this move at all, but I am not sure how much you really lose by it. The only reason to play the double hane at A was to be able to come out with the triangle stones. If that plan was any good you should follow through with a connect at B. I think the plan is good. It gives up a small amount of territory around A and neutralizes the rest of this area. The game move doesn't do this any better than a simple connection and just introduces complications for you.]
;W[jl];B[in];W[gm];B[gn];W[hm];B[im];W[hn];B[kl];W[fo];B[go]
;W[fp];B[gp];W[en];B[ir];W[fm];B[hs];W[io];B[jm];W[jn];B[jp]
;W[sh];B[re];W[qa];B[ra];W[pa];B[sb];W[jj];B[kj];W[lh];B[kg]
;W[cl];B[dl];W[bm];B[ki]LB[dl:A][dk:B][bj:C]C[
You should probably just play B and then connect at C to keep your group alive. You end up losing 2 points in the ko fight.]
;W[hh];B[cm];W[gl];B[dk];W[jl];B[gs];W[pp];B[pq];W[rk];B[sk]
;W[rj];B[mj]LB[di:A][bg:B]C[
This is a one point gote move. Something that pushes into w's territory like A or B is better. I suppose you could be setting up some ko threats, but the ko is not that big.]
;W[di];B[fj];W[fk];B[ei];W[gj];B[ej];W[eh];B[bg];W[cg];B[es]
;W[ds];B[fs];W[eq];B[el];W[em];B[sg];W[si];B[ia];W[ka];B[aq]
;W[ar];B[ap];W[ig];B[tt];W[qi];B[tt];W[sj];B[sl];W[nh];B[tt]
;W[tt]TW[aa][ba][ca][ma][na][ab][bb][cb][kb][nb][ac][bc][cc]
[mc][nc][ad][bd][dd][ed][od][ae][be][de][ne][oe][cf][nf][of]
[pf][dg][og][pg][dh][fh][ph][gi][hj][hl][il][im][jm][mm][om]
[in][ln][mn][on][eo][mo][ep][dr][as][bs][cs]TB[ga][ha][sa][fb]
[hb][rb][rc][sc][rd][sd][se][sf][aj][bj][ck][lk][pk][al][cl]
[bm][rm][sm][an][sn][bo][ro][sp][kq][qq][rq][sq][gr][hr][jr]
[lr][mr][nr][or][pr][qr][rr][sr][is][js][ks][ls][ms][ns][os]
[ps][qs][rs][ss]C[Brock2574 [13k\]: gg, thanks
egb [12k\]: thanks for the game
Brock2574 [13k\]: I honestly don't know what I'm doing wrong, other then the effects of my wrong moves always ends up with me have a small side terriotry and almost no side territory..  I just barely made the group in the middle live, and in other games its much worse]
)
(;B[lj];W[kl];B[lk];W[nj];B[mi];W[kk];B[kj];W[jj];B[ij];W[ik]
;B[jl];W[il];B[jm];W[im];B[ji];W[jn];B[jj];W[hj]))
(;B[mm];W[nm];B[mn];W[mo];B[no];W[on];B[op];W[lm];B[ln];W[km]
;B[lo];W[mp];B[lp];W[lk];B[kl];W[jl];B[kk];W[kj];B[jk];W[ik]
;B[jj];W[ji];B[ij])
(;B[nm];W[mm];B[mn]))
(;B[pl];W[om];B[ol];W[nm];B[nl];W[qn];B[rn];W[qo];B[ro];W[pp]
;B[qq];W[pq];B[pr]
(;W[qr];B[or];W[rq];B[rp]C[
Now w has a weak group to chase.])
(;W[or];B[nr];W[qr];B[os]
(;W[rp];B[rq])
(;W[rq];B[rp]))))
(;B[bq];W[br];B[ar];W[bp];B[aq];W[as];B[bs];W[cs];B[ao];W[as]
;B[ap];W[er]))
(;W[ke];B[kc]
(;W[lc];B[kb];W[lb];B[jb]
(;W[ji])
(;W[do]))
(;W[jb];B[lc])))
(;W[id];B[kd];W[ic];B[ke];W[jf];B[ie];W[if];B[he];W[hd];B[gd]
;W[ge];B[hf];W[hg];B[gf];W[fe]
(;B[gg];W[ih]
(;B[hh];W[ig];B[gi];W[hb];B[gc];W[fd];B[ee];W[ff];B[ef];W[fg]
;B[gh];W[eg])
(;B[kc];W[hb];B[jb];W[gc];B[ib]
(;W[hc];B[ha])
(;W[fd];B[fh];W[lg];B[kg];W[kf];B[lf];W[mf];B[le];W[lh];B[mg]
;W[mh];B[ng];W[ne];B[of];W[oe];B[nh])))
(;B[kc];W[gg];B[ff];W[fg];B[ef];W[ee])))
(;B[je];W[rb]
(;B[qb];W[qa];B[rc];W[se];B[sd];W[re];B[sh];W[sf]C[
oops b is dead. see other line])
(;B[se];W[rc];B[rd]C[
b lives.])))
(;B[cc];W[bc];B[dc];W[be];B[hc]))
