(;FF[4]GM[1]SZ[19]ST[2]CA[UTF-8]AP[SGFC:1.15]

PB[setuna]
BR[14k]
PW[kaktus]
WR[16k]
KM[6.5]
DT[2006-04-20]
PC[The Kiseido Go Server (KGS) at http://kgs.kiseido.com/]
RE[B+17.50]
TM[900]
OT[5x30 byo-yomi]
RU[Japanese]

C[kaktus [16k\]: hi
kaktus [16k\]: have fun
setuna [14k\]: hi];B[pd];W[cp];B[pp];W[dd];B[ep];W[eo];B[fo]
;W[en];B[dp];W[co];B[cq]
(;W[bq]CR[cm]TR[fp]C[H : you should cut at F4 instead of playing B3.  Ask yourself what you are defending? Some two points territory? If you want to settle the group, then play C7. But you should cut and fight in this situation.]
;B[dr]C[how's the correct joseki? ^^*

H : see variation for the joseki, but please do not learn that, it's too difficult, and there is no point in learning joseki by heart.]
;W[nc];B[qf];W[pb];B[ci]TR[en][co][eo][cp][bq]C[how to handle this stone? a good move I suppose...

H : wel it's an ok move, since it won't be attacked so easily, but you have a good parade. Black should have attacked your triangle group which has weaknesses. So now is the occasion to strengthen this group, and putting pressure on the black stone at the same time.]
;W[ck]C[H : and this is the right move fot that prupose.];B[cf]

(;W[df]C[?

H : not good. You're strengthening black where you could put pressure on him. See variation]
;B[ce];W[de];B[cd];W[dh];B[ch];W[di];B[dg];W[eg];B[cg];W[dc]
;B[ic]C[an this one? black neutralizes my influence... :(  How should I have played?

H : blakc does not neutralize your thickness, since he is not alive nor comfortable. You should apply this simple principle : push your opponent towards your thickness]
;W[kc]C[H : so this is the right move, good!];B[fc];W[cc]TR[fc]
[ic]SQ[je]C[H : NO ! Ask yourself what is the point of this move. There is none, except forcing black to play C10, which will damage your lower position.
Black comes out sente of the following sequence, which means you lost a move.
In this position you should attack the triangle stones, by playing the square move for example..]
;B[cj];W[dj];B[bk];W[cl];B[bl];W[cm]C[H : the two last moves are too submissive. Go back to the upper side and attack.]
;B[fe];W[ff];B[gf]C[H : now what is the point in having thickness? Black will most likely be alive easily, because you didn't attack in time.]

(;W[gg]TR[ge]C[H : don't be shy, cross-cut at triangle. See variation for a possible follow-up]
;B[hf];W[je]C[H : good move, but a bit late, as said earlier]
;B[jd];W[kd];B[ie];W[jf];B[hg];W[gh];B[pj]LB[hq:C][kq:A][nq:B]
C[black is leading - what did I do wrong? Where to start now?

H : I guess I already answered the first question. but mainly, your thickness is of no use now, which is s bad.

Now where should you play... Maybe at A, since you'll be able to make a base on either side of this stones by extending at B or C. Then, you'll have to invade.]
;W[nq]SQ[fo][dp][ep][cq][dr]C[H : black will pincer and have a neat extension from suqare stones]
;B[lq]C[H : here it comes]
(;W[qq];B[qp];W[pq];B[op];W[nr];B[mo]SQ[pd][qf][pj][fo][dp]
[ep][cq][dr]C[H : look at the result. You played joseki, but it's BAD ! Black has made influence in front of other influence (squares). Now you get a little corner, and he seems to get the whole board. As a bonus you thickness on the left is even more useless.

DO NOT play joseki just because it's joseki. Here the situation demanded to get out in the center. See variation before.]
;W[fn]LB[hp:A]C[H : this move has no point. You make nothing, black gets 5th line territory by playing G5, and you remove a possibility to invade/reduce somewhere around A. This is a "thank you move"]
;B[go];W[of]CR[pd][qf][pj]LB[qc:1][ph:A]TR[md][nd][le][me][ne]
SQ[qg][rg][sg][qh][rh][sh][qi][ri][si]C[to far away...

H : The problem is not being too far or not. The problem is that you won't get any territory here. Let's count. Let's say you win the triangle points 'and I'm being generous), it's 5 points. If black answers simply at A, he gets the square points, plus he secures the circle stones, AND makes it difficult for you to go on the right side area just below that. Yes, this simple move does it all.
It's better to play at 1,event just for a matter of points, but it also threatens the circle stones]
;B[nd];W[me]C[H : this is saying : please cut me.];B[md];W[mc]
;B[ne];W[mf];B[nf];W[mg];B[ng];W[mi];B[nh];W[mh];B[nk]LB[hg:A]
C[H : now look at the nice 6th (6th !!) line territory black has made. And it's now impossible to invade on the right. Very bad result. And you "thickness" serves no purpose, black already has its head (A) in your "center territory" and he is safe...]
;W[rc];B[qc];W[qb];B[rd];W[hd];B[id];W[ih];B[eb];W[bc];B[ee]
;W[ef];B[hh];W[hi];B[ii];W[jh];B[ij];W[gn]SQ[ii][ij]C[H : again, 5th line territory for black. I understand the two square stones look yummy, but they are worth peanuts compared to the lower side territory.]
;B[ho]C[H : at this point, the game is already lost by quite far. Black has a solid 40 points lead by my count. Even if white captures the center, black will make more points on the lower side anyway.
It's what happens, black even strengthens his lead afterwards. There are a few comments left to read, though.]
;W[hn];B[in];W[im];B[jm];W[jn];B[io];W[jl];B[km];W[kl];B[il]
;W[hm];B[lk];W[ll];B[ml];W[lm];B[kn];W[mm];B[nm];W[kk];B[lj]
;W[kj];B[ki];W[ji];B[li]C[H : now you have to understand this :

Look at the situation. You captured the center territory, which is about 35 points. But at what cost ! Black has 35 points on the lower side, and consolidated his right side in the process...
Just watch the board and compare the size of your center compared to black's right side + lower side...

please remember that : 

- the equilibrium is : territory on third line, influence on fourth line. NOT influence on fifth or sixth line !
- there is no territory in the center. or not much.territory is in the corners,  then on the sides.

Now, you managed to come back a bit in the game afterwards. I don't have much comment for the last moves.]
;W[mj];B[mk];W[ln];B[ko];W[ik];B[hj];W[gi];B[jg];W[kg];B[ig]
;W[jb];B[kh];W[jj];B[kf];W[ke];B[lg];W[ld];B[ib];W[ia];B[ha]
;W[ja];B[jc];W[lb];B[ni];W[ro];B[rp];W[rl]C[tried to establish a living group, but it looked quite hopeless from the beginning...

H : it's impossible, I can confirm that.];B[rj];W[qk];B[qj]
;W[rq];B[sp];W[pn];B[pm];W[np];B[no];W[qm];B[on];W[pl];B[om]
;W[po];B[qo];W[qn];B[oo];W[rn];B[sm];W[sl];B[rk];W[ks];B[kr]
;W[ls];B[ms];W[mr];B[js];W[lr];B[jr];W[lp];B[lo];W[kq];B[jq]
;W[kp];B[jp];W[mp];B[oq];W[or];B[sq];W[rr];B[sr];W[ag]C[... -.-

H : one step too far for the monkey jump];B[ae];W[ad]C[kaktus [16k\]: -.-]
;B[bd];W[ac];B[af];W[db];B[bn];W[bm];B[cn];W[dn];B[am];W[bo]
;B[ao];W[ap]C[H : good move];B[aj];W[an];B[al];W[gb];B[hb];W[fb]
;B[ea];W[ec];B[fa];W[fd];B[gc];W[gd];B[ga];W[ge];B[da];W[ca]
;B[he];W[ed];B[oc];W[ob];B[pc];W[rb];B[sc];W[sb];B[sd];W[lf]
;B[kg];W[nj];B[oj];W[cr];B[dq];W[bs];B[ds];W[cs];B[lh];W[le]
;B[rs];W[pr];B[qs];W[ps];B[ss];W[tt]C[Could you enumerate and show my general mistakes, please? Do you have any other comments or general adives how to play? What are my weaknesses?

Thank you very much for your review!!! ^__^

(kaktus 16k)


H : I guess the main mistakes were already spoken of but here goes : 

- when you make thickness, use it to attack. You do not use thickness to make territory.
- be less submissive. That is... start not answering your opponent's moves if you feel there is a bigger move elsewhere.
- In this game you got way too focused on making center territory, which was quite small in the end, regarding the number of stones put there.

I hope this review will be of use. e-mail me if you have questions.]
;B[tt]TW[aa][ba][ka][la][ma][na][oa][pa][qa][ra][sa][ab][bb]
[cb][kb][mb][nb][lc][ee][fe][fg][eh][fh][ei][fi][ii][ej][fj]
[gj][hj][ij][dk][ek][fk][gk][hk][jk][dl][el][fl][gl][hl][il]
[dm][em][fm][gm][bn][cn][ao][bp][aq][lq][mq][ar][br][as][ms]
[ns][os]TB[fb][gb][od][qd][be][oe][pe][qe][re][se][bf][of][pf]
[rf][sf][ag][bg][og][pg][qg][rg][sg][ah][bh][oh][ph][qh][rh]
[sh][ai][bi][oi][pi][qi][ri][si][bj][sj][ak][ok][pk][qk][sk]
[nl][ol][pl][ql][rl][sl][qm][rm][jn][pn][qn][rn][sn][jo][po]
[ro][so][fp][gp][hp][ip][eq][fq][gq][hq][iq][er][fr][gr][hr]
[ir][es][fs][gs][hs][is]C[kaktus [16k\]: thanks
kaktus [16k\]: goodbye
setuna [14k\]: thx])
(;W[no];B[pn];W[kp];B[kq];W[jp];B[jq];W[ip];B[hr];W[qj]C[H : now invade an try something silly.. white is quite behind anyway, now, so he may as well start a huge fight and hope for something to come out.]
))
(;W[ge];B[he];W[gd];B[fd];W[hf];B[gg];W[hd];B[ie];W[id]
(;B[je];W[jd]C[H : ot of territory gained])
(;B[jd]C[H : if black resists];W[je];B[if];W[jc];B[kd];W[ld]
;B[ke];W[le];B[kf];W[hc]C[H : lot of territory gained, again]
)))
(;W[ce]C[H : this is the move : it forces black to play D14 and to be a little overconcentrated.]
;B[df];W[fd];B[ei];W[ek]C[H : this is a simple example to show you that black is forced to live there or run away, while you make territory on the upper side, and strengthening the lower group.]
))
(;W[fp];B[fq];W[gp];B[gq];W[hp];B[hq];W[ip];B[do];W[dn];B[cn]
;W[bq];B[dr];W[bn];B[cm];W[bm];B[cl];W[br];B[jr];W[fn]))
