(;FF[4]GM[1]SZ[19]ST[2]CA[UTF-8]AP[SGFC:1.15]

PB[joejoe]
BR[14k]
PW[Sub0]
WR[14k]
KM[6.5]
DT[2006-04-16]
PC[The Kiseido Go Server (KGS) at http://kgs.kiseido.com/]
RE[W+5.50]
TM[1800]
OT[5x50 byo-yomi]
RU[Japanese]

C[Sub: I'd really like to know about my  weak points and strong points, often I don't know when it's time to tenuki and where is big moves :)


Reviewer: Hello, my comments will be noted by "GY" in front of it. Hope you find it useful.]
;B[pp];W[dd];B[cp];W[qd];B[cf];W[ch];B[ef];W[fd];B[bd];W[cc]
;B[di]
(;W[cj];B[ci];W[bi];B[bj];W[bk];B[bh];W[aj];B[dh]LB[jc:B][cn:A]
C[Sub: I didn't know how to play here.

GY: I think the result is better for black here, as his group is somewhat settled, and very solid. White, on the other hand, needs to play 2 moves rather urgently. (A and B)]
;W[ep]TR[bi][aj][cj][bk]LB[cn:B][dn:A]C[GY: I think this is a bit risky. White could set up a splitting attack. See variation. (a)

I think the better move here would be to simply defend the marked white group, with B or something similar.]

(;B[dq];W[cn];B[eq];W[jc]TR[dq]C[GY: Although I still say the result so far is better for Black, I'd say White is lucky Black played a submissive move (the triangle marked stone), and let White settle all his groups.]
;B[od];W[mc];B[ob]C[GY: A mistake -]
(;W[qb]LB[pf:A]C[A bad move. White should go for the outside. See variation. (A)]
;B[of];W[qf];B[le]C[Sub: Here I was afraid that this is n17 k 17 group is too weak and tried to reinforce it.

GY: I don't think it's really weak. They can be connected easily. However, I wouldn't say defending it is a bad idea.]
;W[nc];B[oc];W[me];B[ne];W[mf]C[GY: This is a good move. White is strong in this area, so he can afford to attack at a large scale.]
;B[ld];W[lc];B[hc]C[A huge overplay by black -];W[hd];B[ic]
;W[id];B[fb];W[eb];B[ec];W[db];B[ed];W[fc];B[gb];W[ee];B[jb]
;W[kb];B[jd];W[kc];B[ib];W[ha];B[ka];W[la];B[ja];W[gd];B[md]
;W[kd];B[je];W[gc];B[ga];W[hb];B[ia];W[ha];B[hb];W[ea];B[ma]
;W[lb];B[ke];W[fa]LB[ph:A]C[GY: No point for this move right now. White has 3 liberties, black has 2. 

I would consider playing something along the lines of A.];B[pn]
;W[qj];B[ql];W[oj];B[qh]C[Sub: Didn't know how to deal with this.

GY: Black plays a lot of overplays, that's for sure. He has one group already weak, and he's letting you set up a splitting attack here.]
;W[pg]C[GY: This move is fine.];B[qg];W[ph];B[qe];W[pe];B[re]
;W[rd];B[rf];W[pf];B[qi];W[pi];B[rj];W[se];B[rg];W[nd];B[mg]
;W[lf];B[nf];W[oe];B[ng];W[kg];B[ie];W[hf]C[Sub: obviously my mistake :(

GY: I don't see how this is a mistake. It seems fine, attacking the black group by preventing a connection.]
;B[he]
(;W[ge]LB[gf:A]C[GY: This is the mistake. You should play at A.]
;B[gf];W[dc];B[if];W[hg];B[ig];W[ih];B[hh];W[gg];B[jh];W[ii]
;B[lg];W[jq];B[nq];W[gp]C[GY: Good move. Black seems to have missed the White center.]
;B[gq];W[hp];B[kh];W[gi];B[nl];W[kl];B[fk];W[ej];B[dj];W[dk]
;B[ek];W[fj];B[dl];W[ck];B[cl];W[bl];B[hk];W[ik];B[hj];W[hi]
;B[ij];W[jj];B[il];W[jk];B[hm];W[gl];B[gk];W[gm];B[gn];W[fm]
;B[gj];W[hl];B[fi];W[el];B[ei];W[im];B[fn];W[en];B[fl];W[em]
;B[ji];W[ff];B[gh];W[fp];B[fq];W[mp];B[np];W[mo];B[lm];W[km]
C[Sub: I think that this is a mistake too, i think should've L6.

GY: Probably, yes.];B[ln];W[kn];B[lo]
(;W[kp]TR[mo][mp]C[GY: This is a mistake. White shouldnn't give up the marked stones. They're huge.]
;B[lp];W[lq];B[mq];W[lr];B[mr];W[bc];B[fg]C[Sub: I thought B15 was bigger.]
;W[be];B[bf];W[cd];B[ce];W[ad];B[gf];W[bo];B[bp];W[hr];B[co]
;W[bn];B[hq];W[iq];B[gr];W[hs];B[gs];W[ir];B[ls];W[kr];B[ks]
;W[js];B[ms];W[do];B[cr];W[ml];B[mm];W[mk];B[nk];W[mj];B[nj]
;W[pl];B[qk];W[pj];B[ni];W[pk];B[pm];W[mi];B[mh];W[ll];B[li]
;W[ko];B[nm];W[ap];B[aq];W[ao];B[bq];W[ah];B[bg];W[kj];B[de]
;W[fe];B[nb];W[ha];B[mb];W[pd];B[oh];W[lj];B[ki];W[sf];B[sg]
;W[sd];B[ri];W[ol];B[ib];W[ic];B[pb];W[qa];B[qc];W[pc];B[om]
;W[rb];B[ag];W[ai];B[oi];W[ae];B[og];W[tt];B[tt]TB[ss][rs][qs]
[ps][os][ns][fs][es][ds][cs][bs][as][sr][rr][qr][pr][or][nr]
[fr][er][dr][br][ar][sq][rq][qq][pq][oq][cq][sp][rp][qp][op]
[mp][so][ro][qo][po][oo][no][mo][sn][rn][qn][on][nn][mn][sm]
[rm][qm][sl][rl][sk][rk][sj][fj][ej][si][ii][hi][gi][sh][rh]
[nh][lh][ih][fh][eh][me][df][hf][jf][ch][kg][jg][hg][gg][eg]
[dg][cg][mf][lf][kf]TW[is][jr][kq][jp][ip][jo][io][ho][go][fo]
[eo][jn][in][hn][gn][fn][dn][an][jm][hm][dm][cm][bm][am][jl]
[il][dl][cl][al][lk][kk][ak][bj][od][ed][sc][rc][qc][oc][hc]
[ec][ac][sb][pb][ob][nb][mb][jb][ib][hb][gb][aa][fb][cb][bb]
[ab][sa][ra][pa][oa][na][ma][ka][ja][ia][ga][da][ca][ba][bd]
C[GY: White did fine in this game, except for a few mistakes in the endgame and opening. I think White needs to concentrate more on his opening moves, and also on how to react to overplays by the opponent (you did well for the most part).

Apart from that, White should consider losing a few points of territory in order to save a potentially larger group as well (try counting).

That's all then.])
(;W[lp];B[ko];W[jo];B[kp];W[kq];B[jp];W[iq];B[io];W[hn]C[GY: I believe this is good enough for White.]
))
(;W[gf]
(;B[ge];W[fe];B[ff];W[dc];B[if];W[ig];B[hg];W[gg];B[jg];W[hh]
;B[ih];W[hg]
(;B[jh];W[jf];B[kf];W[jf]C[GY: White captures.])
(;B[jf];W[jh]C[GY: White still captures.])
(;B[lg];W[kf];B[jf];W[jh]C[GY: White captures again.]))
(;B[fe]C[Nothing to worry about if Black plays this -];W[dc]
;B[ge];W[ff];B[kf];W[lg];B[jg];W[jf];B[if];W[ig])))
(;W[pf];B[ne];W[qj]TR[ob][jc]LB[kc:A]C[Normally Black plays A next, but in this case, the triangled white stone prevents it. (Black usually plays the triangled black stone only if the pincer is not an extension)]
))
(;B[dn]C[GY: I doubt White has a good response to this move.]

(;W[en];B[em];W[cq];B[bq];W[bp];B[co]C[GY: In this case, White has to surrender one of the groups.]
)
(;W[cq];B[bq];W[dq];B[bo];W[ek];B[gq]C[GY: I tried out a few variations beyond this point, none of them were satisfactory, in my opinion.]
)))
(;W[ci];B[dj];W[dh];B[eh];W[cj];B[dk];W[cl];B[dg];W[jc]C[GY: I'd probably play this way, to avoid the complications later.]
))
