(;FF[4]GM[1]SZ[19]ST[2]CA[UTF-8]AP[SGFC:1.15]

PB[buchou]
BR[17k]
PW[LordRahl]
WR[16k]
KM[0.5]
DT[2006-04-22]
PC[The Kiseido Go Server (KGS) at http://kgs.kiseido.com/]
RE[B+73.50]
TM[1650]
OT[5x30 byo-yomi]
RU[Japanese]

C[This game is a bit messy, and an embarrasment for me (wihite), but points quickly to my deficiencies.  Black is definately stronger than listed, but not enough to justify the whalloping given.  Mainly, I would like as much advice on possible on how to fight properly in such game, as well as how to properly use the influence that I built in the top and right .   That aside, free to criticize any area that seems lacking.

Thanks,

Darken];B[qd]C[LordRahl [16k\]: hello];W[po];B[dc];W[cp];B[ce]
;W[pq];B[jq];W[jd];B[nc];W[fq];B[mq];W[pf]C[I believe this is my first mistake.  Q10 immediatly seems bigger and less dangerous.]
;B[ph];W[pd];B[pc];W[od];B[oc];W[qe];B[rd];W[pj];B[qg];W[ng]
;B[re];W[dj];B[ch];W[ir];B[iq];W[hq];B[jr];W[mp];B[nq];W[np]
;B[hr];W[gr];B[is];W[oi];B[hp];W[fc];B[co];W[do]C[I had trouble with this.  I normally wouldn't think an attachment would be the best move (for black), but it ended up spliting white's teams.  what would the best way to defend against this be.]
;B[cn];W[dn];B[cm];W[ck];B[bp];W[cq];B[dl];W[bq];B[fl];W[fj]
;B[hc];W[hd];B[ic];W[id];B[gc];W[gd];B[fb];W[ec];B[eb];W[dd]
;B[cd];W[ee];B[hl];W[kb];B[rj];W[ri]C[This and the following sequence lost me some territory along the side.  Any more efficient moves, or would a lose block at around s8 be best?]
;B[qj];W[qi];B[pi];W[qk];B[rk];W[ql];B[rl];W[rm];B[pk];W[oj]
;B[qm];W[pl];B[pm];W[ol];B[rn];W[ro];B[gj];W[gi];B[hj];W[hi]
;B[eh];W[dg];B[dh];W[cg];B[eg];W[be]C[Another big loss. D14 seemed too damging though, any other options that actually work?]
;B[bg];W[bd];B[bc];W[bf];B[cf];W[bh];B[ag];W[df];B[bi];W[de]
;B[cc];W[fi];B[jj];W[ij]C[I losing by enough to be a bit desperate by now, trying to cut him off, obviously to no gain.  Is there a better direction of play, anywhere to profit?]
;B[ik];W[ii];B[jk];W[gk];B[hk];W[gl];B[gm];W[fk];B[em];W[hm]
;B[gn];W[in];B[kn];W[kp];B[jo];W[lq];B[lr];W[mr];B[kq];W[nr]
;B[lp];W[oq];B[ji];W[jh];B[li];W[lk];B[kh];W[kg];B[lg];W[kf]
;B[gg];W[mh];B[lh];W[kj];B[ki];W[km];B[jm];W[jn];B[im];W[ko]
;B[ln];W[lo];B[lq];W[mn];B[lm];W[kl];B[jp];W[mo];B[mm];W[nm]
;B[hn];W[ml];B[io];W[ll];B[jn];W[mc];B[nd];W[lf];B[oe]C[Only silliness, hereafter.   I had long ago But the question is, how could the greatest territory be sealed from what groups exist on the board?  Such as, are there any moves to milk territory from the h14 groups, or critical point I ought to be aware of?.  I have a bad habit of letting an enemy get a small group to snake into my territory, and eating it up.  Is there any general advice/techniques to be had on defending territory from such encroachment?]
;W[pe];B[of];W[rg];B[pg];W[rf];B[rh];W[ne];B[qf];W[qn];B[sm]
;W[jc];B[md];W[ld];B[mj];W[bl];B[nk];W[mk];B[nj];W[nl];B[ok]
;W[nf];B[oh];W[ni];B[nh];W[hg];B[gf];W[hf];B[mb];W[lc];B[gq]
;W[fr];B[so];W[sp];B[sn];W[rp];B[on];W[nn];B[oo];W[op];B[ms]
;W[bo];B[bn];W[ap];B[or];W[pr];B[ns];W[sj];B[qh];W[pn];B[om]
;W[no];B[rm];W[sk];B[si];W[fo];B[ps];W[qs];B[os];W[rr];B[gh]
;W[gp];B[ih];W[hh];B[jg];W[jf];B[mg];W[mf];B[ib];W[jb];B[ia]
;W[ig];B[jh];W[lb];B[nb];W[ja];B[an];W[gb];B[ga];W[hq];B[fd]
;W[fe];B[ed];W[ge];B[bj];W[bk];B[cj];W[di];B[dk];W[ci];B[af]
;W[dm];B[cl];W[fn];B[fm];W[en];B[lj];W[kk];B[go];W[gq];B[ao]
;W[ek];B[el];W[ei];B[ad];W[ma];B[na];W[la];B[gs];W[fs];B[hs]
;W[me];B[jl];W[bp];B[fh];W[ff];B[ah];W[tt];B[tt]TW[ka][kc][kd]
[he][ie][je][ke][le][if][ej][eo][qo][dp][ep][fp][pp][qp][aq]
[dq][eq][qq][rq][sq][ar][br][cr][dr][er][qr][sr][as][bs][cs]
[ds][es][rs][ss]TB[aa][ba][ca][da][ea][fa][ha][oa][pa][qa][ra]
[sa][ab][bb][cb][db][gb][hb][ob][pb][qb][rb][sb][ac][ec][fc]
[qc][rc][sc][bd][od][pd][sd][ae][be][pe][qe][se][bf][pf][rf]
[sf][rg][sg][mh][sh][ai][mi][ni][oi][qi][ri][aj][oj][pj][sj]
[ak][bk][ck][sk][al][bl][il][sl][am][bm][hm][in][ho][ip][ir]
[kr][mr][nr][js][ks][ls]C[LordRahl [16k\]: ><
buchou [17k?\]: thx
buchou [17k?\]: ^^;
LordRahl [16k\]: thx
buchou [17k?\]: sorry...
LordRahl [16k\]: nice fighting, you burned me proper])
