(;FF[4]GM[1]SZ[19]ST[2]CA[UTF-8]AP[SGFC:1.15]

PB[mon]
BR[9k]
PW[killgo2]
WR[8k]
KM[0.5]
DT[2006-04-28]
PC[The Kiseido Go Server (KGS) at http://kgs.kiseido.com/]
RE[B+Resign]
TM[1500]
OT[1x30 byo-yomi]
RU[Japanese]

;B[pd]C[Dear killgo2.
I think you played too much in a hurry, and need to play more calm. No attack really worked, because those moves weren't enough prepared. There was some tactics missing too.
Regards,
Alberto];W[dp];B[pp];W[dd];B[pj];W[nq];B[lq];W[qn]
(;B[np]C[

A: Although I would have played here as well when being Black, I realize that there are many variations which black could have chosen. I reccomend you to review some josekis from jansteen's webpage for comparison.]
;W[qp]C[A: a difficult and tricky variation.];B[qq]
(;W[po]C[A: I think this is a little strange...];B[oq];W[rq]
;B[rp];W[ro];B[qo]C[I don t know if it was good to play a ko right away...

I suppose there are no ko threats at the beggining, so it's ok to play this way.]
;W[qd];B[qp];W[pc]
(;B[oc];W[qe]C[A: I think because B is strong and thick in the LR corner, B21 was not so effective, W22 seems to me better off against B's thickness (if I see this correct)]
;B[od];W[qb];B[pb];W[qc];B[jc]C[A: I see this as an overextension]
;W[gc];B[cj];W[lc]C[I wanted to attack but I did not get any compensation for the separation of the 2 black groups :-(

A: this seems natural for me.];B[je];W[le];B[of];W[lg]
(;B[jg];W[nb];B[ob];W[oh]CR[li]C[Should I continue to run instead of p12?

A: this is a difficult fighting move . Seems a little bit of an overplay to me without support from the center.]
;B[mf]C[Maybe the connection is best ^^.. but I did not want to play submissive, I wanted to conterattack
;p

A: how?]
(;W[me];B[nh];W[ne];B[pf];W[kf];B[jf]CR[mf]LB[ke:A][kg:B]C[A: W44 helped to produce more weakness in its group. the cut at A and B are possible now.]
;W[mg];B[ng];W[nf];B[qf];W[og]C[here I know this is a mistake...]
;B[ni];W[rf];B[rg];W[re];B[cm];W[fq];B[bp]C[A: this is painful for W]
;W[iq];B[li];W[kb];B[jb];W[mb];B[cg]C[the balance of territory really doesn't lool good... I had to do something before... but I really don t know what ^^]
;W[id];B[jd];W[bq]C[this is the beginning of the end : after this sequence I was desperate and I played worse and worse T.T

The game was already lost I think ^_^





Ok, I leave it here too.];B[cq];W[cp];B[br];W[bo];B[aq];W[cn]
;B[dm];W[dr];B[dq];W[er];B[ep];W[dn];B[eq];W[bm];B[bl];W[em]
;B[gq];W[gr];B[fp];W[fr];B[en];W[el];B[dk];W[eo];B[fn];W[fo]
;B[do];W[go];B[co];W[gp];B[gn];W[hn];B[hm];W[bn];B[ho];W[hp]
;B[in];W[dh];B[dg];W[eh];B[eg];W[fh];B[fg];W[hh];B[gh];W[gg]
;B[gi];W[ig];B[gf];W[hg];B[kh];W[hj];B[gj];W[gk];B[fk];W[fj]
;B[hk];W[gl];B[hi];W[ij];B[ii];W[ji];B[jj];W[ik];B[ki];W[fi]
;B[jh];W[ek];B[hl];W[dj];B[ck];W[ch];B[ip];W[hf];B[he];W[ge]
;B[ff];W[ie];B[fd];W[gd];B[cd];W[ce];B[be];W[bd];B[cc];W[bf]
;B[de];W[cf];B[bg];W[bh];B[af];W[ae];B[ag];W[bc];B[dc];W[cb]
;B[db];W[ba];B[df];W[be];B[if];W[hd];B[fb];W[fc];B[ec];W[fe]
;B[ee];W[da];B[bj];W[gb];B[ea];W[ca];B[ih];W[he];B[ah]C[mon [9k?\]: thx
killgo2 [8k?\]: thx])
(;W[lf]
(;B[mg];W[mh];B[nh];W[ni])
(;B[nh];W[ng])))
(;B[oh];W[jg];B[he];W[hg];B[fe]C[A: I think this sequence is better for B]
))
(;B[qe]C[A: this seems better for me.]))
(;W[mp];B[mq];W[op];B[no];W[pq];B[po];W[oo];B[on];W[oq];B[pn]
;W[nn];B[mo];W[qo];B[qm];W[rm];B[pl]C[A: the joseki ended here, but there are some extra moves not included. Note that I'm repeating a local variation without conisdering BQ10 stone. I think W is in trouble here.]
))
(;B[oo];W[qq];B[qp];W[pq];B[mp];W[rp];B[ro];W[rq];B[qo];W[op]
;B[np];W[oq];B[jd]))
