(;FF[4]GM[1]SZ[19]ST[2]CA[UTF-8]AP[SGFC:1.15]

GN[777B071C]
PB[teofilo]
BR[11k]
PW[samtregar]
WR[11k]
KM[6.5]
DT[2006-05-05]
PC[The Kiseido Go Server (KGS) at http://kgs.kiseido.com/]
RE[B+1.50]
TM[600]
OT[2x30 byo-yomi]
RU[Japanese]

C[Thank you for reviewing my game.  I played white in this game on KGS.  This was a close game and I know I made some big errors in the middle game.
Please feel free to review moves by either player. I've commented on some of my moves to give you an idea of what I was thinking.  -sam]
;B[qd];W[dp];B[oc];W[qp]C[sam: I though this was a good reply to black since it makes the direction of his two stones less effective.]
;B[dd];W[ic]C[krv: I don't like to cut like here before points like D10 or R10 are free.]
;B[kc];W[fc];B[ee];W[db]LB[pj:A]C[sam: this looks slow to me now.  Better to play around A, I think.]
;B[qj];W[cj];B[np];W[oq];B[nq];W[qm];B[pg];W[jq];B[qq]
(;W[pp];B[pr];W[or];B[rr];W[rp];B[qs]
(;W[cg];B[sr]C[sam: did black really need this?  it thought he was alive already

krv: Yoa are right.];W[je];B[cc];W[be];B[bd];W[ce];B[cb];W[de]
;B[eb];W[ed];B[dc];W[jj]C[sam: I think this is a little over-ambitious.  I should have played closer to K15, I think.

krv: You can play here, but don't try pretend on all directions - you can get K10-C10-D4-K3 or D10-C10-D15-K15, but not both.]
;B[dm];W[cn];B[fm]
(;W[dq]C[krv: Seems like E3 is better. Even if you play F4 (variant) I don't see the way to invade for black (but may be the way exists).
Also I like B8 or C7 (don't allow black to split your groups)]
;B[gq];W[en];B[go];W[em];B[fl];W[el];B[fk];W[fn]C[krv: don't push if you can't cut. If you want to cut here, better do it one move earlier.]
;B[gn];W[md]C[krv: seems like move like K5 is urgent now.];B[mc]
;W[mf];B[jo];W[nr];B[lp];W[lr];B[gi];W[hl]C[krv: Black can answer J9, but even after H7 white shape is bad.]
;B[hm];W[ei];B[fi];W[fg];B[ej];W[di];B[er]C[krv: seems like D9 is very big now.]
;W[dr];B[fr];W[pe]C[krv: You help black to solid his territory.]
;B[oe]C[krv: too agressive. I'd play R15];W[of];B[pf];W[od]
;B[ne]
(;W[nd]C[krv: I don't sure, but Q16 is very hopeful];B[pd];W[me]
C[krv: better O14 or don't play here at all.];B[qe];W[nc];B[ob]
;W[nb];B[na];W[ma];B[oa];W[mb]C[sam: I was happy with this sequence, cutting off the two black stones.]
;B[nf];W[ng];B[og];W[nh];B[gg];W[gf];B[ff]
(;W[fe]C[krv: F12 is better.];B[fh];W[ef];B[eh];W[dh]C[krv: D9 is still very big.]
;B[eg];W[dg];B[hf];W[hg];B[ff];W[ge];B[hh];W[ig];B[ih];W[jh]
C[krv: seems like K12 is bad. May be not, but surely];B[ji]
;W[jg];B[ki];W[lk];B[lh];W[lg];B[mh];W[mg];B[ni];W[nl];B[pl]
;W[pm];B[ol];W[om];B[nm]C[sam: this is probably where I lost the lead - black ends up with a big center despite my efforts.]
;W[nn];B[mm];W[mn];B[ln];W[lm];B[ml]
(;W[lo]C[krv: I like N9 now. The result may me very good for white.]
;B[kn];W[mo];B[mk];W[kp];B[ko];W[hr];B[kq];W[jp];B[mp];W[oo]
;B[ip];W[iq];B[hp];W[oi];B[mi];W[ql];B[qk];W[oh];B[dk]C[sam: I didn't see this coming and it was a huge loss.
krv: I sure, black don't saw this move before. Both you need to play here since 68 move.]
;W[ck]C[krv: D6 is better.];B[dl];W[cm]C[krv: Still D6];B[dn]
;W[eo];B[do];W[ep];B[co];W[cp];B[bo];W[bp]
(;B[cl];W[br];B[ae];W[af];B[ad];W[bg];B[gb];W[fb];B[fa];W[ec]
;B[da];W[hb];B[gc];W[gd];B[qi];W[pk];B[ok];W[pj];B[oj];W[pi]
;B[ph];W[rk];B[rj];W[sl];B[sj];W[bl];B[bm];W[ak];B[hc];W[hd]
;B[ga];W[ha];B[ea];W[jb];B[kh];W[kg];B[sk];W[rl];B[hq];W[jr]
;B[gr];W[os];B[ps];W[rq];B[pq];W[gs];B[is];W[js];B[fs];W[kr]
;B[mr];W[op];B[ls];W[lq];B[sq];W[sp];B[am];W[ao];B[an];W[ap]
;B[fp];W[al];B[bn];W[eq];B[dj];W[bi];B[ds];W[cs];B[fg];W[ir]
;B[hs];W[gs];B[hs];W[cd];B[bc];W[es];B[aj];W[bk];B[ds];W[qh]
;B[rh];W[es];B[on];W[pn];B[ds];W[si];B[qg];W[es];B[ci];W[ch]
;B[ds];W[ri];B[sh];W[es];B[bj];W[ai];B[ds];W[ba];B[ca];W[es]
;B[ab];W[ds];B[fo];W[ek];B[tt];W[tt]TW[ia][ja][ka][la][ib][kb]
[lb][jc][kc][lc][mc][fd][id][jd][kd][ld][ee][he][ie][ke][le]
[bf][cf][df][hf][if][jf][kf][lf][ag][ah][bh][ci][aj][bj][rm]
[sm][on][qn][rn][sn][no][po][qo][ro][so][lp][mp][np][aq][bq]
[cq][kq][mq][nq][ar][cr][mr][as][bs][ks][ls][ms][ns]TB[aa][ba]
[pa][qa][ra][sa][bb][db][pb][qb][rb][sb][ac][pc][qc][rc][sc]
[rd][sd][pe][re][se][of][qf][rf][sf][rg][sg][gh][qh][hi][ii]
[li][ri][si][fj][gj][hj][ij][jj][kj][lj][mj][nj][gk][hk][ik]
[jk][kk][lk][nk][gl][hl][il][jl][kl][ll][nl][cm][gm][im][jm]
[km][lm][cn][hn][in][jn][ho][io][gp][qr][rs][ss]C[samtregar [11k\]: thank you
samtregar [11k\]: good game
teofilo [11k\]: bless you])
(;B[br];W[bq];B[cr]
(;W[ds];B[ar])
(;W[cs];B[ar];W[bs];B[ap];W[aq];B[ao];W[ds])))
(;W[mk];B[nk];W[ll];B[nl];W[kn];B[lo];W[ko];B[kp];W[jp];B[km]
;W[jn]))
(;W[fh];B[hf];W[ge];B[he];W[gh];B[hg];W[gd];B[hh];W[hi]))
(;W[pd];B[nd]
(;W[qe];B[pc];W[qc];B[rd];W[re])
(;W[pc];B[qe];W[ob];B[nc];W[qc];B[nb];W[pb];B[rc];W[rb];B[rd]
;W[sb])))
(;W[bl])
(;W[fp];B[cq];W[er];B[bo];W[bn];B[co];W[do];B[dn];W[cl];B[dr]
;W[br];B[eq];W[fr];B[ep];W[eo];B[bq];W[cp];B[bp];W[ao];B[ap]
;W[ar];B[bs]))
(;W[sr];B[pq];W[op];B[sq];W[rq];B[ss]))
(;W[pq]C[krv: seems like this is better.]))
