(;FF[4]GM[1]SZ[19]ST[1]CA[UTF-8]AP[SGFC:1.15]

GN[2006, PANDA-NET,]
PB[abennun]
BR[3k]
HA[0]
PW[mocorin]
WR[3k]
KM[0.5]
DT[2006-04-29]
PC[PANDA-NET]
RE[W+5.50]

C[Dear Reviewer;
I played Black in this game and lost by 5.5 points (the komi was 0.5 point).
I have tried to analyze the game by myself, and comments with questions are inserted in the relevant places;
However any comment from you is welcome.

I appreciate if you summarize the mian points I should improve.

Thanks, Avi

PC: An interesting game - I think you were behind after White's invasion on the right, but you fought back to keep yourself in the game. A couple of general points:

(1) In the early fighting on the right, there were a couple of points (moves 23 and 33) where you seemed to change your mind about your objective half way through a sequence. This usually leads to some stones being inefficiently placed.

(2) In the fighting on the left, you had two weak groups to look after. In a few cases you played moves that defended one group in a way that forced White to weaken your other group (a "family feud" as Otake calls it).  You also don't seem to have considered (at move 47) playing the splitting move instead of approaching the top left, which would have avoided the situation.]
;B[pd];W[dp];B[pp];W[dd];B[pj];W[nc];B[lc];W[qc];B[qd];W[pc]
;B[od];W[nb];B[me]C[I guess this is quite routine up to this point.]
;W[qm];B[np]TR[pj]LB[qo:A]C[Is it a proper response? May be R5 first? It seems there was no enough pressure on the invading stone.

PC: With the Q10 stone in place I would play R5 ('a') to keep the invading stone weak.]
;W[rp];B[qq];W[rj]C[It looked to me during the game that 2 large knight extensions are a bit too big, but I did not find the proper continuation.]

(;B[qk]LB[qi:A][rh:C][ri:B][rn:D]C[PC: I don't like this sequence: it strengthens White and leaves you with bad shape. An alternative is to play Black 'a', White 'b', Black 'c' (see the first variation).

Note that if you want to play 'd' you can do so immediately - see the second variation.]
;W[rk];B[ql];W[rl]
(;B[rn]C[I do not like this move. It capthure the S4 stone, but it would better to play Q7 and seal the White group from acces to the center - what do you think?

PC: Q7 would be more consistent with the previous two moves - if you wanted to play S6 it would have been better to play it straight away.]
;W[qn];B[ro];W[qo];B[qp];W[rm];B[rq];W[qh]LB[pi:A]C[PC: Could also be at 'a'.]
;B[on]TR[pj][qk][ql]LB[cj:C][fq:B][oh:A]C[Trying to restrict the White group somehow

PC: This looks wrong to me: it's very close to your strong stones and isn't properly connected to your weak marked stones. White could answer at 'a', getting out into the centre anyway with possibilities of attacking both the centre and top right stones. I'd either play 'a' myself or ignore this area for now and take a big point on the left, e.g. 'b' or 'c'.]
;W[om]
(;B[nj]C[Is O7 better (see variation)?

PC: Yes. You played P6 to shut White in; ignoring White's P7 stone is inconsistent with that.]
;W[nn];B[pn]
(;W[nl];B[oh]LB[ol:D][pk:C][pl:B][pm:A]C[Should Black play Q7 instead? I was afraid of P12...

PC: If you play Q7 ('a') you'd probably get White 'b' Black 'c' White 'd', as otherwise you could connect your weak centre stones to your bottom right. That would mean you'd get sente to play P12 anyway.]
;W[og]LB[pg:B][ph:A]C[PC: This looks like an overplay, as White can't answer your move 'a' with the natural replay 'b'.]
;B[ph];W[qg];B[pg];W[pm];B[jq];W[hq];B[jo]LB[cj:B][lq:A]C[PC: This seems a bit slow - you can easily handle the invasion at 'a'. I'd prefer to play 'b'.]
;W[ho]LB[cj:B][cq:A]C[PC: Also slow, given that 'a' and 'b' are both open to Black.]
;B[cf]LB[cj:B][fc:A]C[Since the top is open, I thought the proper approach is from this side.

PC: I agree this is better than 'a', but it's obvious that you're going to get pincered, so I'd prefer the splitting move at 'b'.]
;W[ch]LB[dh:A]C[Now invading the corner will allow White to dominate the bottom left, so I jumped out and  pincered.

PC: The problem here is that you're pincering within White's moyo, so both the approach move and the pincer end up weak. I think you're right not to invade the corner (see first variation), and the contact move at 'a' doesn't look too promising either (second variation).]

(;B[ef];W[fd]
(;B[cj]LB[di:A]C[PC: 'a' is usually an option in this position, but here I think it gives White too much territory (see variation).]
;W[di];B[cm];W[co];B[dj]LB[em:A]C[PC: This induces White to weaken your other group. It would be better to play 'a' without this exchange.]
;W[fi];B[em]TR[di][dj]C[Looking at now, I think E10 is better, what do you say?

PC: I think E10 has the same problem as the marked exchange: it induces White to weaken your other group. I prefer your move.]
;W[dn];B[dm];W[ej];B[bh];W[bg]
(;B[bi]TR[cf][ef]C[May be C13? I cannot see a good continuation for Black (see variation)

PC: I prefer your move to C13. You're weakening the marked stones again, but you do have the option of invading the corner.]
;W[cg];B[bf];W[ag];B[cc];W[cd];B[ec];W[ed]
(;B[dc]LB[bd:A]C[PC: 'a' is an interesting alternative - see the variation.]
;W[bc];B[bb];W[bd];B[fc];W[gc];B[gb];W[hc]
(;B[ge]LB[gf:A]C[May be 1 more push (H18) is better?

PC: Maybe, but White could reply by capturing your stones with 'a', giving him enough territory.]
;W[hb];B[fa];W[ab];B[ba];W[ha];B[da];W[ie];B[gh];W[hj];B[ig]
;W[hf];B[gg];W[gf];B[eh];W[ei];B[ff];W[df];B[fe];W[gd];B[ii]
;W[fg];B[fh];W[dg];B[eg];W[md]C[This was painful, but I cannot see how Black can prevent White from taking over the top]
;B[le];W[ld];B[ke];W[kd];B[je];W[id]C[I guess White is leading here:

Black:
Top left: 4 points, Bottom right: 25 points, Left side: 10 points, center: 25 points; Total:64

White: Bottom left: 25 points, right side: 10, top: 25, top left: 10, and some potential of 5 point in the center. Total: 75

PC: Yes. I think you're overestimating White's right and Black's left a bit, and probably the Black centre too, but White's definitely ahead here.]

(;B[gp]C[Is it the right invasion point? Is F3 better?

PC: My first reaction was that F3 ought to die, but it does actually seem to live without damaging your bottom right or left side too much. Assuming I haven't missed anything, that would make F3 a better move.]
;W[gq];B[fp];W[fq];B[hp];W[iq];B[ip]TR[fp][gp][hp]LB[jp:A]C[PC: 'a' would secure more territory; your marked stones could still connect to one of the two neighbouring groups.]
;W[jr];B[kq];W[kr];B[lr];W[nd];B[ne];W[ij];B[hi];W[gk];B[jj]
;W[jk];B[il];W[kj];B[ji];W[ik];B[kk]C[Overplay?];W[lk];B[kl]
;W[mk];B[ki];W[lj];B[mi];W[jl]LB[bn:A]C[PC: 'a' looks like the biggest point on the board now.]
;B[im];W[jm];B[gm];W[li];B[lh];W[jn];B[in];W[no];B[op];W[qj]
;B[bn];W[bo];B[ao];W[ap];B[an];W[bq];B[rd];W[rc];B[sc];W[sb]
;B[sd];W[qb];B[qf];W[cn];B[bm];W[rf];B[re];W[rg];B[ks];W[is]
;B[ep];W[eq];B[if];W[he];B[jd];W[jc]
(;B[mo]C[Is this bigger than saving the R9 stones?

PC: Saving the R9 stones is about 6 points gote. N5 (compared to N4 for White) increases your bottom right territory by about 5 points and decreases White's centre by about the same, so it's a few points bigger than saving the R9 stones.]
;W[ln];B[mn];W[mm];B[lo];W[pk];B[kn];W[km];B[lm];W[ll];B[ok]
;W[ol];B[qi];W[ri];B[pi];W[fl];B[fm];W[ah]C[From this point on the plays are forced, I could not see a way to close White's advantage. Did I miss anything?

Thanks very much for your review!];B[ai];W[ci];B[bj];W[ln];B[ko]
;W[eo];B[fo];W[nk];B[oj];W[mj];B[mh];W[dk];B[ck];W[dl];B[el]
;W[ek];B[gl];W[fk];B[en];W[cl];B[bl];W[do];B[oc];W[ob];B[gi]
;W[gj];B[ee];W[de];B[hg];W[ga];B[fb];W[sf];B[of];W[js];B[ls]
;W[sn];B[sp];W[sm];B[so];W[lm];B[hl];W[ac];B[cb];W[nm];B[oo]
;W[se];B[tt];W[tt];B[tt])
(;B[pk];W[mp];B[mq];W[lp];B[ko];W[ln];B[lo];W[mo];B[kn];W[km]
;B[lm];W[mn];B[qi];W[ri];B[pi];W[lq];B[mr]))
(;B[fq];W[gp];B[dr]
(;W[cq];B[cr];W[br];B[dq]
(;W[bq];B[gr];W[hr];B[ep];W[eo];B[fp];W[fo];B[er];W[bn];B[bm]
;W[ks];B[kr];W[js];B[ls];W[hs];B[jr];W[is];B[lr])
(;W[ep];B[bq];W[bp];B[aq];W[ap];B[cp];W[bn];B[bm];W[cq];B[gr]
;W[hr];B[cp]))
(;W[er];B[cq];W[dq];B[br];W[ds];B[cr];W[eq];B[bp];W[bo];B[aq]
)))
(;B[hb];W[gf]))
(;B[bd]
(;W[dc];B[bb];W[cb];B[bc];W[af];B[be];W[eb];B[dg];W[fg])
(;W[bc];B[bb];W[be];B[ac];W[ce];B[fc])))
(;B[cg];W[bi];B[ci];W[dh]))
(;B[di];W[ci];B[dj];W[dh];B[eh];W[cj];B[dk];W[cl];B[dg];W[cd]
;B[cq];W[cp];B[dq];W[eq];B[er];W[fr];B[fq];W[ep];B[gr];W[fp]
;B[fs];W[gq];B[fr];W[dl]))
(;B[cc];W[cd];B[dc];W[ed];B[bd];W[be];B[bc];W[bf];B[fc];W[co]
C[PC: Black has 10 pts top left, about 25 bottom right. White has 5 pts right, under 10 top right, about 20 pts bottom left. White looks to have better potential on the left than Black has on the top or in the centre, so this looks good for White.]
)
(;B[dh];W[di];B[dg];W[fc];B[ci];W[cj];B[bi];W[dj]
(;B[bh];W[bd]
(;B[cq]
(;W[dq];B[cp];W[cr];B[br];W[dr];B[cn];W[do];B[bm])
(;W[cp];B[dq];W[bq];B[br];W[bp];B[fq];W[ep];B[gr];W[hr];B[er]
;W[ar];B[bs];W[bj]))
(;B[bj];W[co]C[PC: Black 25 pts bottom right and less than 10 on the left; White has 15 top left, under 10 top right, 5 on the right and about 20 bottom left. It looks bad for Black.]
))
(;B[bd];W[bh];B[hc];W[cc];B[bc];W[fe];B[bg];W[bj];B[cb];W[db]
;B[bb];W[hd];B[ic];W[hf];B[cq];W[cp];B[dq];W[bq];B[br];W[bp]
;B[fq];W[ep];B[gr];W[hr];B[er];W[ar];B[bs];W[fi]C[PC: Black maybe 8 top left, 5 bottom left, 20 bottom right; White 25 left, 10 top right, 5 right. Good for White.]
)))
(;W[pm];B[nm];W[nl];B[mm];W[ok];B[oj];W[ml];B[lm];W[ll];B[km]
;W[pf];B[ne];W[nh]))
(;B[nm]
(;W[nn];B[pm];W[ol];B[pn])
(;W[ol];B[pm];W[pl];B[pn])))
(;B[pm];W[qn];B[pn];W[qh];B[oh];W[fq]))
(;B[qi];W[ri];B[rh]LB[qh:B][rg:A]C[Now if White clamps at 'a' you just connect at 'b' and you've pushed White into a very low position. If White cuts at 'b' ...]
;W[qh];B[ph];W[qg];B[rg];W[pg];B[qf];W[oh]TR[ri][rj]LB[oi:B]
[pi:A][qj:C]C[PC: Connecting solidly at 'a' looks possible but ugly. Playing for the ko with 'b' looks more interesting, as Black can play 'c' to threaten the two marked stones. See the variations.]

(;B[pi];W[of];B[ne];W[qk];B[nj];W[mg])
(;B[oi];W[pi];B[qj];W[qk];B[nh]
(;W[oj];B[ph];W[og];B[nj];W[ok];B[pi];W[pk];B[ni])
(;W[ng];B[ph];W[og];B[ni];W[lg])))
(;B[rn];W[qo];B[qn];W[pn];B[po];W[ro];B[rm];W[ql];B[rl];W[rk]
;B[pm];W[on];B[om];W[nn];B[qk]))
