(;FF[4]GM[1]SZ[19]AP[SGFC:1.13]

GN[claude-oba(B) IGS]
PB[oba]
BR[5k*]
HA[2]
PW[claude]
WR[3k]
KM[0.5]
DT[1997-11-17]
PC[IGS:  igs.nuri.net 6969]
RE[W+1.5]
TM[2400]
US[Brought to you by IGS]

AB[dp][pd]PL[B];W[pq];B[dd];W[fq];B[cn]C[This conservative
answer is often
played nowadays.];W[jp];B[jd];W[cf];B[ch]C[Good.];W[fc];B[fd]
TR[df]C[Is quite possible
but I may prefer
to play on the
other side at
delta];W[gd];B[fe];W[ec];B[dc];W[hc]LB[cf:b]C[Solid as there is
no good way for
Black to swallow
definitively the
other white stone
b];B[df]LB[ce:b]C[Not bad but better
at b. Black is
going to make a
wall and let white
live but his wall
is not so useful];W[cg];B[dg];W[bh];B[ci]C[This moveis not
bad but the nidan
bane can lead to a
less confuse
situation.(variant
b from 19)];W[bi];B[cj];W[bj];B[ge]LB[jc:b]C[First really bad
move for black. a
or b are better
against this
group. b is a
better direction];W[he];B[hf];W[ie];B[if]LB[kd:b]C[Bad too even if
Black has already
the intention to
play b];W[je];B[kd];W[jf];B[jg];W[kg];B[kh];W[ig]LB[lf:b]C[First bad move for
White. It is not a
good idea to
create here a
target to attack.
I will play at b];B[jh];W[hg];B[gf];W[hi];B[ij]C[Black is happy to
get a white group
to push on his
wall.];W[ii];B[jj];W[hj];B[hk];W[gk];B[hl];W[fk];B[fi];W[fj]
;B[lg]C[Better at "a"
because when white
plays there, his
center group is
almost safe];W[ck];B[kf];W[id];B[db]LB[ib:b]C[Wrong side. "b" is
better];W[gb];B[jb];W[ic];B[ce];W[be];B[bd];W[bf];B[dr]LB[pl:b]
C[I would prefer a
move around b];W[ke];B[ld]LB[pk:b]C[JH : It is better
to block and
sacrifice the 3
stones if white
cut in gote. Black
could in this case
play around b and
seems ahead];W[le];B[oc]LB[md:a]C[This leave too bad
aji. Black a is
better.];W[md];B[mc];W[me];B[hq];W[ir]LB[hp:b][ji:c]C[The usual move at
b is better as
white will help is
center group and
may cut at c];B[hr];W[iq];B[gp]LB[hp:b]C[74 leaves bad aji.
b is stronger.];W[qn];B[pr];W[oq];B[qq];W[qp];B[rq];W[or];B[qs]
;W[fp]LB[jl:b]C[Not good. Testing
at b may be a good
idea];B[fo];W[go];B[ho];W[gn];B[fn];W[hn];B[io];W[in];B[jo]
;W[gm];B[jn];W[ip]C[Bad move. suppress
aji];B[hp];W[jm];B[km];W[fm];B[do]LB[dn:b]C[Bad shape. Play at
"b"];W[kl];B[jl];W[im];B[lm];W[ll];B[mm];W[ml];B[lp];W[lq];B[kp]
;W[kq];B[nm]MA[lj]LB[kj:b][kk:c][ji:a]C[oba: O7 should
probably have been
at M10. JH I would
prefer b toprevent
a nozoki at c but
M10 is oK as when
white push at "a",
black would play
at b];W[ji]C[better to block];B[ng];W[hs];B[gs];W[is];B[gr]
;W[mj];B[li];W[lj];B[qf]LB[pf:b]C[May be better at b];W[of]
C[Good point];B[og];W[pf];B[pg];W[qe];B[pe];W[qd];B[qc];W[rf]
;B[qg];W[rc];B[rd]LB[rb:b]C[JH : Best to make
nidan bane in the
corner at b; Black
helps white to
live];W[re];B[rb];W[sd];B[qb];W[nf];B[rg];W[sf];B[qk]LB[qj:b]
C[Better at b
because black has
some weakness];W[ri];B[sg]MA[pi]LB[qi:b]C[oba: T13 should
probably have been
at P11 JH : or at
b];W[mh];B[mg];W[pi];B[mi];W[ni];B[nh];W[oj];B[lf];W[ki];B[lh]
;W[rp];B[ib]C[oba: I
hallucinated here
that I could kill
white. The result
was very bad for
me.];W[eb];B[fa]C[oba: F19 losing
move :(];W[ea];B[ga];W[hb];B[rr];W[lc]LB[nc:b]C[Bad. Play at b]
;B[lb];W[nc];B[mb];W[nd];B[nb];W[pl];B[sp]LB[os:b]C[better at b first]
;W[so];B[sq];W[os];B[ps];W[rn];B[rj]C[Good move];W[qj];B[si]
;W[rk];B[sk]C[Mistake as
connecting is
sente. This may be
another loosing
move];W[rl];B[da]LB[bb:a]C["a" is bigger];W[ei];B[eh];W[dj]
;B[dh];W[bl];B[bn];W[jc];B[kc];W[em];B[dn];W[mp];B[mo];W[lo]
;B[ko];W[no];B[mn];W[np];B[sj];W[sl];B[sh];W[ad]LB[ha:b];B[ac]
LB[ha:b];W[ae];B[bc];W[ed];B[ee];W[ia];B[ja];W[ha];B[gi];W[gg]
;B[fg];W[gj];B[on];W[pn];B[sb];W[sc];B[ol];W[ok];B[dm];W[dl]
;B[oo];W[nl];B[om];W[am];B[an];W[en];B[eo];W[po];B[bm];W[al]
;B[di];W[ej];B[oe]LB[pm:b]C[oba: P15 should be
at P16. jh : I
agree (0.5 better
) but it is
smaller than b];W[od]LB[pm:b]C[1 point gote. b is
better. White lost
points too in yose
soo Black didn't
loose because of 2
small mistakes in
yose.];B[op]C[Play first at a
(next White move)
in Sente];W[pm];B[qh];W[qi];B[oh];W[oi];B[pp];W[mq]LB[gh:b]
C[Not necessary
imediately. There
are still
pointslike b];B[fh];W[ne];B[pc];W[cl];B[ln]C[oba: M6 was not
needed. This, plus
P15, cost me the
game :( jh OK
1 point loss];W[hh]C[white wins by 1.5
points.])
