(;FF[4]GM[1]SZ[19]ST[2]CA[UTF-8]AP[SGFC:1.15]

PB[cas]
BR[17k]
HA[2]
PW[bv]
WR[15k]
KM[0.5]
DT[2006-05-23]
PC[The Kiseido Go Server (KGS) at http://kgs.kiseido.com/]
RE[B+Resign]
TM[900]
OT[5x30 byo-yomi]
RU[Japanese]

AB[dp][pd]C[Hi,

thanks for your help. I am playing with the black stones and need some advice on how to improve my play. In this game I was more than 50 (?) points behind and only lost because of a stupid mistake of white.

There are some questions in this file (especially after move 92) - but please also point out the mistakes I didn't recognize.


Hi, I am reviewer and hopefully I can help you out Please feel free to email me back with any questions]
;W[pp];B[dd];W[cf];B[fc];W[qf];B[nd]C[Is it better to play R12?

This move is used to make influence on the left side and doesn't seem to be a part of your game plan so r12 is probably better]
;W[cn];B[cl]C[C10 or D10 might be a better choice to attack both stones at the same time]
;W[cj];B[el];W[en];B[fq];W[ej];B[gl];W[bp];B[cq];W[bq]C[Do I need to answer with C2?

The short answer is no.

Normal defense would be b1 and right now it might be a bit to small the approach on the lower right corner could be bigger than b2. B2 also makes white a bit weaker since it limits his base but white can conect to the c10 stones if need be at the moment. If White plays c2 or b2 continue with j3.]
;B[qh];W[qj];B[oh];W[rd];B[qc];W[rc]C[Here it's the same question: Do I need to react to S17?

See the varation It really doen't put a lot of pressure on white but it claims part of the corner]

(;B[qb];W[rg]
(;B[jd]C[Maybe should of been at s12];W[iq]C[Now I get problems with my D3 group? How to defend it? Or should I run away?

Play b2 to defend and secure your base on the left side then you would jump towards the center. Attacking isn't bad option here by sealing white in.]

(;B[kq]C[This is a bit of an overplay];W[io];B[nq];W[oq];B[np]
;W[gr];B[fr];W[cr];B[gq]C[This might be to direct];W[hr];B[gn]
;W[dq];B[cp];W[eq];B[ep];W[dr]
(;B[hp];W[ip];B[ko]C[A mistake. Better to play F5?

Probably but take a look at the earlier sequence.];W[fo]
(;B[fp]C[This is a mistake.];W[go];B[ho];W[hn];B[fn];W[eo];B[in]
;W[hm];B[gm];W[jn];B[im];W[hl];B[hk];W[il];B[jm];W[jl];B[km]
;W[gk];B[em];W[co];B[ik];W[jk];B[ij];W[jj];B[fk];W[gj];B[ii]
;W[ji];B[fj];W[gi];B[ih];W[fi];B[ek];W[dj];B[dm];W[ck];B[cm]
;W[bn]C[He needs to play D9 to kill this group too.];B[dk];W[kn]
;B[ln];W[jo];B[lm];W[jh];B[ig]TR[hl][hm][hn][il][jh][ji][jj]
[jk][jl]C[It doesn't look very well for black: Some territory in the upper part of the board, but white has secure territory in der lower left and some points in the upper right and a lot of potential on the right side.

What is a plan for black to play? Attack the lower right corner? Or try to make territory around M14? Or around M3?


I would attack whites weak group marked, maybe first creating a wall on the left side by attacking the R10 stone.]
;W[jg]
(;B[jf]C[This is a tad bit agressive black is in a weak position too with this move.]
;W[if];B[hf];W[ie];B[je];W[he];B[ge];W[gf];B[hg];W[gd];B[fe]
;W[hd]
(;B[gg]C[Bad move, Should be at F13];W[ff];B[fg];W[ef];B[eg]
;W[dg];B[ee];W[df];B[ic];W[gb];B[gc];W[hc];B[id];W[hb];B[fb]
;W[fd];B[ed];W[cc];B[cd];W[ec];B[eb];W[dc];B[db];W[bc];B[bd]
;W[be];B[ad];W[ae];B[ib];W[kf];B[ke];W[lf];B[le];W[of];B[mf]
C[From now on I play without a plan. I only try to catch his K10 group - but this is impossible, he white needs only 4 moves to kill my lower left stones.

There is space in the right side to attack. One thing go will teach you is to let go of a loosing battle. There is no purpose in attacking alive stones.]
;W[nf];B[lg];W[oj]C[Here white kills a lot of your opportunity]
;B[kg]TR[oh][qh]C[SMALL!!! your two marked stones are in trouble. Make them useful and not a liability]
;W[nh];B[ni];W[oi];B[mh];W[ng]SQ[aa][ab][ac][ba][bb][bc][ca]
[cb][cc][da][dc][dl][ea][ec][fa][fd][fl][fm][ga][gb][gd][ha]
[hb][hc][hd][he][ia][ie][if][ja][jb][jc][ka][kb][kc][kd][kf]
[la][lb][lc][ld][lf][ma][mb][mc][md][na][nb][nc][oa][ob][oc]
[pa][pb][pc]CR[af][ag][ah][ai][aj][ao][ap][aq][ar][as][bg][bh]
[bi][bj][bo][br][bs][cg][ch][ci][cp][cq][cs][dp][ds][ep][er]
[es][fp][fq][fr][fs][gp][gq][gs][ho][hp][hq][hs][og][oh][pg]
[ph][pi][qg][qh][qi][re][rf][rh][ri][sd][se][sf][sg][sh][si]
C[After this point you played right into whites hand. and very complient. 


My Count Black 60
White 68

White having the lead at this point you have to do something desperate or resign.]
;B[nj];W[nk];B[lj];W[mj];B[mi];W[lk];B[kj];W[kk];B[mk];W[ml]
;B[mj];W[ll];B[nl];W[nm];B[ol];W[mm];B[om];W[mo];B[mn];W[nn]
;B[lo];W[no];B[oo];W[lp];B[kp];W[mp];B[on];W[lq];B[lr];W[hq]
;B[gp];W[mr];B[kr];W[op];B[nr];W[ms];B[ns];W[or];B[ok]C[Now I managed to get a lot of influence on the right side, but my L2 group is dead and white has a lot of points in the lower left - more than my points in the upper part. The game is lost for black. Am I right?

Yes You lost about 40 points in exchange for that influence and strengthed whites corner, my guess it was a loss of about 20 points]
;W[qk];B[po];W[qo];B[qn];W[ro];B[dh];W[di];B[ce]C[What a mistake!]
;W[bg]C[But white didn't see it. Puuh!];B[ha];W[rn];B[ls];W[mq]
;B[qe];W[re];B[pf];W[pg];B[pe];W[ph];B[qg];W[rf];B[pi];W[og]
;B[pj];W[pk];B[oh];W[rh]C[A mistake. Better to play R11.];B[qi]
;W[ri];B[eh];W[ch]C[Now I can catch the stones around G11.]
;B[ei];W[bl];B[bm];W[bk];B[an];W[bo];B[ao];W[ap];B[am];W[qm]
C[The last mistake in the game! Black was behind in points.]
;B[do]C[And white resigns.

You got very lucky here, I would say work on couting and when your behind fight like a wild crazy man and complicate the game.]
)
(;B[fg]C[This maybe?];W[fd];B[ee];W[ec];B[dc];W[fb];B[ce]))
(;B[if];W[jf];B[je];W[of];B[mh];W[mf];B[lf];W[lg];B[mg]
(;W[nf];B[le])
(;W[le];B[nf];W[me];B[ne]
(;W[kf])
(;W[ke];B[lh];W[kg];B[lk];W[og];B[ph];W[ng];B[nh]))))
(;B[go];W[fp];B[fn];W[eo]))
(;B[jp];W[ip];B[fo]))
(;B[eo];W[fn];B[hp];W[ip];B[ho];W[io];B[bm];W[bn];B[hm];W[cr]
;B[dr];W[bs]))
(;B[rh]
(;W[lc];B[rb];W[sf];B[re];W[qe];B[se])
(;W[re])
(;W[rb])))
(;B[rb];W[rh];B[rg];W[qg];B[ph];W[ri]))
