(;FF[4]GM[1]SZ[19]ST[2]CA[UTF-8]AP[SGFC:1.15]

EV[Xiong Yupei Cup, Asian daytime, 30k to 10k division]
RO[3]
PB[Galatia]
BR[11k]
PW[pubster]
WR[13k]
KM[7.5]
DT[2006-06-18]
PC[The Kiseido Go Server (KGS) at http://kgs.kiseido.com/]
RE[B+11.50]
TM[3600]
OT[5x30 byo-yomi]
RU[AGA]

C[Galatia [11k\]: hello
Galatia [11k\]: have fun
pubster [13k\]: hi
pubster [13k\]: u too


*This is one of my game from the Xiong Yupei cup. I'm a 13k. I wanted to learned particularly what i did wrong in my fuseki and the 2 fights at move 49 and 109. At move 49, he made a invasion and move 109, i try to kill his group but i think i did not respond correctly. Please enlighten me and spot my weakness. Tell me what i need to brush up on too. Thanks in advance.]
;B[pd];W[dd];B[pq];W[dp];B[pk];W[dj];B[jp];W[jd];B[fq];W[cn]
C[[Malweth\]: This move seems slow and inconsistent with the original plan of the fuseki. White is matching her moyo versus Black's.

This move regards the lower left corner only. Black's moyo is getting too big, so now seems like the right time to invade... otherwise any invasion/reduction will become too small.]
;B[qo]C[[Malweth\]: Now an invasion in the Lower right is impossible. Black understood White's mistake and countered correctly.]
;W[nc];B[pf];W[ne]LB[oo:A][np:B][kn:C][jq:D]C[[Malweth\]: A reduction of Black's moyo is still possible in the Lower Right. Possible points for reduction are lettered.

One of these moves would be best timed now, and the winner will likely be decided by the fighting that occurs.]
;B[ng];W[fo];B[hp];W[hn]C[[Malweth\]: This plan is interesting, but a bit loose. There are many places Black can take advantage of white's position.

This is also showing a total lack of regard for the lower left corner, which means the C6 stone is misplaced.]
;B[md];W[nd];B[me];W[mf];B[nf]
(;W[lf]C[[Malweth\]: This fight seems unreasonable and unnecessary for White. See the variation.]
;B[mc];W[mb];B[lb];W[nb];B[kc];W[jc]
(;B[ke];W[kd];B[kf];W[le];B[jn]C[[Malweth\]: Black's moyo is huge now... a reduction will be hard.]
;W[il]C[[Malweth\]: This is actually a fairly small move at this point... White's moyo is loose and fairly small. Black has the right idea when he enters the UL corner, (though approaching the corner may have been best.]
;B[cc];W[cd];B[dc];W[ec];B[eb];W[fc];B[fb];W[gc];B[bd];W[be]
;B[bc];W[ce];B[dh]C[*Here is the invasion. I was thinking should i block from the top or make him run for life. In the end,i played c17, thinking of taking profit first while attacking. But it failed horribly.

[Malweth\]: Black doesn't really have a lot to worry about. You have to push him toward the white wall, but that means he will try to escape toward the lower right. It's hard with the aji at L14 good for Black!]
;W[ci];B[ej]
(;W[ek]C[[Malweth\]: If you want to try killing D12, E11 is the only move, but the ladder must be checked! See variation...]
;B[di];W[ck];B[fj];W[fh];B[ei];W[lh]C[[Malweth\]: Instead of this, attacking further might work better. It's usually a good idea to play away from fighting, but the moves must be sente!

Think about White H11.];B[fk];W[el];B[ij]C[[Malweth\]: Black is alive now... and White has nearly zero territory.]
;W[jk];B[gh];W[fg];B[gg];W[ff];B[jj];W[kj];B[jh];W[ki];B[ik]
C[XC [13k\]: Galatia's got it];W[kl];B[hl];W[hm];B[if];W[gi]
C[[Malweth\]: Think about moves like this before you play them. What's the most obvious answer? Does the obvious answer work for W or for B?]
;B[fi];W[mq]C[[Malweth\]: It may be past time for an invasion, but what else can you do?]
;B[kq]C[B's best move was probably the cap...];W[mo];B[np];W[mp]
;B[on]C[[Malweth\]: The cap wouldn't work now... too easy for W to connect. The invasion was a success.]
;W[mm];B[kg]
(;W[ni]C[[Malweth\]: This is still too small... another invasion is necessary I think.

Q12 looks interesting - it's at the vital point of the shape (table shape).]
;B[pi];W[oh];B[ph];W[og];B[lg];W[mg];B[mh];W[ld];B[pg]C[[Malweth\]: B could definitely have connected at P14 instead...]
;W[of];B[pb]C[[Malweth\]: This move is big... the corner was VERY important for both sides.

O11 was small in comparison.];W[dr];B[ch];W[gs];B[er];W[es]
;B[dq];W[cq];B[eq];W[cr];B[hr];W[hs];B[is]C[Here i took around 7 minutes reading out all the possible variations. I figured out playing at G2 and letting black cut me at F1, i still can connect out at L2. And i also might had a chance of killing the F3 group. That is what i thought when i played G2. Is there anything i miss out here?

[Malweth\]: It looks good to me. Black is open underneath, so W stands a chance. If W is this far behind, taking a chance is a requirement!]
;W[gr];B[gq];W[ir];B[fs];W[js];B[fr];W[hq];B[iq];W[kr];B[hr]
;W[is];B[lr];W[lq];B[go]C[Galatia [11k\]: i really gotta stop playing moyo games
pubster [13k\]: i hate them as well =D]
(;W[gn];B[eo]
(;W[ep];B[fp];W[fn];B[cp];W[do];B[bp]C[Galatia [11k\]: i prefer to fight all the time]
;W[bq];B[ds];W[bo]C[Silentguy [11k\]: pubster should win this]
;B[jr]C[Silentguy [11k\]: if he stay like this];W[jq]C[Silentguy [11k\]: till the end

*A ko here. I failed to get enough back for this ko and i think i made me lost my game. Is there a way i can avoid this ko or how should i actually should play the ko?

[Malweth\]: Playing correctly at E4 would have limited the severity of the ko to some degree, otherwise the only thing you could do was eliminate it before B had a chance to play it.]
;B[aq];W[ar];B[jr];W[pc]
(;B[ks];W[qc]C[[Malweth\]: You gain a lot for the ko here... it was a mistake for B to take the ko.]
;B[qd]MA[pa][pb][qa][qb][ra][rb][sa][sb][oa][ob]C[[Malweth\]: probably about 10-12 points... 

10 + 8 (if black blocked at R17 - see variation) is an 18 point move!

Compare this to the 12-15 points Black gained in capture.];W[rd]
;B[re];W[rc];B[nq]C[*Here i was dejected. I counted that i was still behind by around 12 and my yose is very bad.

[Malweth\]:];W[om];B[nn];W[mn];B[nm];W[nl]C[[Malweth\]: You should try to go for equal destruction with P8.]
;B[ol];W[ok];B[pl];W[oj];B[bi];W[bk]C[Silentguy [11k\]: sigh....
pubster [13k\]: i lost... sighz
pubster [13k\]: lol];B[cj];W[gl];B[gk];W[gf];B[hf];W[he];B[dk]
;W[dl];B[gb];W[hb];B[kh];W[li];B[ie];W[hd];B[ae];W[af];B[ad]
;W[bg];B[cf];W[bf];B[df];W[cg];B[dg];W[ee];B[mr];W[od];B[pe]
;W[io];B[jo];W[se];B[sf];W[sd];B[rf];W[pj];B[qj];W[no];B[oo]
C[Alex12us [24k\]: galatia will win];W[kn];B[oi];W[nj];B[oe]
;W[nh];B[jm];W[jl];B[km];W[lm];B[ko];W[ln];B[hk];W[fl];B[bj]
;W[ak];B[de];W[cs];B[ho];W[in];B[ga];W[ha];B[id];W[ic];B[ji]
;W[dj];B[bh];W[ef];B[je];W[dk];B[es];W[tt]C[pubster [13k\]: thx
Galatia [11k\]: 1. dame counts
Galatia [11k\]: 2. you gonna need a stone around n9];B[kp]C[pubster [13k\]: not japanese rule???
Galatia [11k\]: nope aga
Galatia [11k\]: xD];W[lo];B[lp];W[ml];B[ip];W[im];B[aj];W[ah]
;B[ai];W[ed];B[ag];W[eh];B[ah];W[eg];B[tt]C[[Malweth\]: The biggest mistakes are always made early on :) Look toward improving your fuseki. Your reading is pretty good already (though tsumego should be practiced daily).]
;W[tt]TB[qh][rh][sh][ci][gi][hi][ii][qi][ri][si][gj][hj][rj]
[sj][qk][rk][sk][ql][rl][sl][om][pm][ih][hh][sg][rg][qg][jg]
[ig][hg][qf][jf][qe][ac][db][cb][bb][ab][fa][ea][da][ca][ba]
[aa][gr][ir][kr][nr][or][pr][qr][rr][sr][gs][hs][is][js][ls]
[ms][ns][os][ps][qs][rs][ss][qm][rm][sm][pn][qn][rn][sn][po]
[ro][so][gp][op][pp][qp][rp][sp][hq][jq][oq][qq][rq][sq]TW[ia]
[ng][nf][me][ge][fe][md][gd][fd][sc][oc][mc][lc][kc][hc][sb]
[rb][ja][ka][la][ma][na][oa][pa][qa][ra][sa][ib][jb][kb][lb]
[ob][pb][qb][bs][as][br][aq][cp][bp][ap][eo][co][ao][en][dn]
[bn][an][gm][fm][mh][mi][lj][mj][kk][lk][mk][nk][al][bl][cl]
[ll][am][bm][cm][dm][em]C[Galatia [11k\]: thanks
pubster [13k\]: thx
Galatia [11k\]: i think you didnt get enough for that ko
pubster [13k\]: i know
pubster [13k\]: can't find any bigger one
Galatia [11k\]: i would have attacked the mid group
pubster [13k\]: lost concentration in the middle
Galatia [11k\]: i think you still coulda killed
Galatia [11k\]: given 2 moves
pubster [13k\]: too bad, can't made 2 move in a row
Galatia [11k\]: nah i mean as a ko threat

*I seriously wanted to impove my game and reached at least 8k before the year ends. Please tell me what i am lacking on and how should i go about studying it. Thanks a lot.]
)
(;B[qc];W[jq]MA[qa][qb][ra][rb][sa][sb][rc][sc]C[[Malweth\]: About 8 points.]
;B[kp];W[mr];B[jr]C[[Malweth\]: Black can also limit losses and continue like this...

The only difference is that Black must win this ko to live.]
))
(;W[do]C[[Malweth\]: This play is required.];B[fp];W[fn];B[ep]
;W[en]))
(;W[fn]C[[Malweth\]: This is probably better... more solid a shape.]
;B[eo];W[do];B[ep];W[mr]C[[Malweth\]: (Eliminating the Ko)]
;B[en];W[em];B[dn];W[cm];B[fm];W[fl];B[gm];W[gn];B[gl];W[hk]
;B[gk];W[jm];B[in];W[im]C[[Malweth\]: You give up less this way than playing the ko...]
))
(;W[ph];B[oh];W[pg];B[oe];W[oi];B[ni];W[oj];B[nj];W[ok];B[nk]
;W[ol];B[nl];W[nm];B[om];W[mh];B[nh];W[pl]C[[Malweth\]: There are just way too many possibilities... but something looks possible for W.

White has a lot of power facing this side of the board... making moyo with that power is usually worse than invading with that power.]
))
(;W[ei];B[di];W[dk];B[fi];W[eh];B[eg];W[fh];B[gh];W[fg];B[ff]
;W[gg];B[hg];W[gf];B[ge];W[hf];B[if];W[he];B[hd];W[ie];B[je]
;W[id]C[[Malweth\]: This would be possible...]))
(;B[jb];W[kd];B[ib];W[lc];B[ld];W[le];B[lc];W[la];B[kb];W[pb]
;B[fc]C[[Malweth\]: This result is better for Black. W has some weak groups... so B will have plenty to attack.]
))
(;W[mc];B[lf];W[mg];B[mh];W[lg];B[kg];W[lh];B[li];W[kh];B[jh]
;W[ki];B[kj];W[ji]C[The ladder obviously doesn't work... (Once the leading stone passes through the tengen point, it will also pass through the corresponding corner star point).]
))
