(;FF[4]GM[1]SZ[19]ST[1]AP[SGFC:1.15]

GN[gtl-1]
PB[watku]
BR[7k]
PW[Nakaben]
WR[7k]
KM[6.5]
DT[2006-06-29]
PC[IGS-PandaNet]
RE[W+21.5]
TM[600]

C[watku: Hi! I'm black in this game. I've lost my playing skills totally I would like to know what I'm doing wrong and why do I always loose :)

I thought I played quite good, but still I lost the game.

catch22: Hi, I'll be the reviewer for this game. I hope you will find my comments useful.]
;B[pd];W[dd];B[pp];W[dp];B[fq];W[jj]C[watku: This looks weird to me, but I'm not sure did I use it correctly.

catch22: This is indeed an unusual move. I for instance have never seen a professional game with a move in the center being played this early on. The reason is that at this stage of the game it is impossible to determine what the best place is for this stone. As more stones appear on the board, and fighting starts, it may very well be that this stone would be better placed elsewhere.

However, moves like these are more commonly seen in Internet games. One advantage is that the player that plays it is probably more experienced with the best way to follow it up than his opponent is with the right counter moves.

So what does White gain by this move? Mainly two things. Firstly, nearly all ladders in any of the corners will now work out in his favour. Secondly, it helps White in the fighting that may follow. If later in the game a weak white group has to run out into the center, it already has an ally in the center that can facilitate the escape.  

So how to best deal with it? With patience and a good strategy. A move like this is aiming for influence as opposed to territory. So Black has to start by keeping White's influence under control, while making the most of his advantage at the edge of the board, where he has more stones. In the long run, Black can also aim to make the center stone appear "out of place".]
;B[cj]C[catch22: This seems to be a good way of dealing with the white stone in the center.]
;W[cl]
(;B[cf]C[watku: Was this too long extension?

catch22: No, this is definitely playable. Although it invites a white invasion at C12 (as happens in the game), Black can deal with this.

Playing C13 instead (see variation) is I think not as good for Black.]
;W[ch]
(;B[cc]C[catch22: Jumping right into the corner has the advantage that it is simple. However, letting White build a wall facing the left side fits his influence-based strategy very well. Therefore, I would be reticent to play like this. I would prefer playing B12 instead. See variation.]
;W[cd];B[dc];W[ed];B[bd];W[be];B[bc];W[ce];B[fc];W[fd];B[gc]
C[catch22: I think this result is good for White. The white wall works well with the stone in the center. White is beginning to create a large mojo at the left side of the board. Therefore, I would have prefered for Black not to jump into the top-left corner immediately.]
;W[qf];B[nd];W[lc]TR[gc]C[catch22: This is not a good move by White. It is only concerned with destroying potential black territory, but it does not do anything constructive. Because of the strong black stone at G17, there is no good way for White to settle this stone, and it will have to run away.]

(;B[qe]TR[pd][nd]C[catch22: This is not the way to punish White. Black is now only concerned with securing corner territory. However, this cannot be done efficiently, given the placement of the two marked black stones. These fit a center-oriented strategy and should be used that way. See the variation for a better way of playing.]
;W[ic]
(;B[mc]C[catch22: This move is not good either. You should generally only use contact plays as a last resort, for instance to defend a weak group when there is no other way of doing so. The problem with playing contact moves is that they help to strenghten the opponent's stones as well. When White extends to M16 in response he will have settled his stone at M17 that once could have been a nice target to attack.

See the variation for a better way of playing.];W[pf];B[pj]
;W[pm];B[nf]C[watku: Here I probably attacked from the wron side because Q10 is so weak?

catch22: No, I don't think so. Playing here is important for Black, as he wants to keep access to the center. If Black would play elsewhere, White would be happy to play at O14 himself, and any attack would then soon fizzle out. 

Although Q10 is weak, it is not in any real danger yet. Black also does not have a good attacking move from this direction. Both Q12 or R12 would be too close to the black stone at Q10.]
;W[oh]
(;B[og]C[catch22: This is a bad move. As Black cannot cut, he should not try. It only helps White to strengthen his stones, and makes Black's stone at Q10 weaker.]
;W[ph]TR[og]C[catch22: The exchange of the two marked stones has clearly been in White's favour.]
;B[rf];W[rg];B[nj];W[nh];B[nm];W[oo];B[op];W[no];B[np];W[mo]
;B[lp];W[lo];B[kp];W[hq];B[cq]
(;W[dq]C[catch22: See variation.];B[cp];W[do];B[co];W[cn];B[dr]
;W[er];B[cr];W[eq]TR[hq][kp]C[catch22: White's wall is now in the wrong direction. The marked white stone is too close to it, and the marked black stone also reduces the value of the wall significantly.]
;B[dh]C[catch22: Black puts his stones at the left in motion. In the game, he gets a good result. However, I think if White had played better, these stones would not have been able to live, and escaping would have been difficult as well.]

(;W[ci]C[catch22: White should probably exchange B6 for B5 first. See variation.]
;B[di];W[cg];B[dg];W[df];B[bi]C[watku: This was unnecessary

catch22: Indeed, it deprives Black of the option to play a forcing move at E14 instead, and also needlessly strengthens White's stones.]
;W[bf];B[bk]C[watku: and this was just stupid :)

catch22: Indeed, this is asking for the cut.];W[dj];B[dk];W[ej]
;B[ck];W[dl]C[catch22: This move by White is not very good and only induces Black to play where he wants to.]
;B[ek];W[fj];B[bl]
(;W[bm]C[catch22: White now wishes that he had exchanged B6 for B5 earlier on. In that case, he would not have to respond at B7 to prevent Black from linking up, and could instead have prevented Black from getting two eyes.

Now it is too late for White to play B6. See variation.];B[aj]

(;W[bh]C[watku: I don't know why white let me live here.

catch22: By now, White could not kill Black anymore. See variation.]
;B[al];W[kr]
(;B[jr]C[catch22: This looks like a non-tesuji to me. I think Black is better off playing N2 directly. See variation.]
;W[jq];B[kq]
(;W[ir]C[catch22: White could have played a better move. See variation.]
;B[lr];W[js];B[mq];W[po];B[qp];W[qo];B[ol];W[pl]
(;B[ll]C[catch22: It is essential for Black to keep White separated. See variation.]
;W[pk];B[ok];W[qj]C[catch22: White scored a big success here. His two weak groups changed into one strong one, that even surrounds nearly twenty points of territory. Black on the other hand has stones afloat in the center, that are nothing but a worry.]
;B[jl];W[jp]C[catch22: This is the wrong direction for White. White should instead have played L5, to prevent Black from linking up here. 

White's move is especially inefficient because it makes White's stone at H3 entirely meaningless. It might as well not have been there. Given that it is there, it is no big deal to let Black play at K4 and even J4 next. White is not going to efficiently surround territory here anyway.]
;B[ko];W[jo];B[kn]C[catch22: Black should be happy with this result. Black does not have to worry about his stones at the center anymore, as they are now safely linked up. Although White surrounded some territory, this is not much, especially because Black can still reduce it by playing E8 or K6.]
;W[hk];B[el];W[em];B[dm];W[cm]TR[dm]C[catch22: There was no point in exchanging the marked stones. Black should have just left D7 unplayed and played at F7 directly.]
;B[fm];W[en];B[gl];W[fn];B[gn];W[go];B[hn];W[ho];B[hd];W[mb]
;B[nb];W[md];B[nc];W[me];B[hf];W[ne]
(;B[pe]C[catch22: It is better for Black to play at P15. See variation.]
;W[oe];B[od];W[ge];B[he];W[gf];B[lb];W[kb];B[ma];W[kd];B[kf]
;W[lf]
(;B[ih]C[catch22: Black can play a better move. See variation.]
;W[gh];B[lg];W[mg];B[lh];W[lj];B[le];W[mf];B[ke];W[ld];B[pi]
;W[qi];B[rp];W[ro];B[so];W[sn];B[sp];W[rm];B[jc]C[catch22: Although this looks like a tesuji, it is not really one. Note that White could not get much territory here along the top edge anyway (a couple of points at most).]
;W[jd];B[jb];W[ib];B[ka];W[kc];B[ja];W[ia];B[la];W[id]TR[jd]
[ib][ia][jc][jb][ja][ka]C[catch22: Let's evaluate the result. Although Black made sure that White did not get any territory at the top, White would not have gotten much anyway. Furthermore, Black did not gain any points himself. Worst of all, White got to play the four marked stones, which are worth a whole lot more than Black's four stones (which are worth nothing). Furthermore, Black actually ends in gote, because he now has to defend his territory at the top left. 

So, what appeared to be a tesuji, actually was far from that. :-(]
;B[gb];W[jg];B[ig];W[jf];B[jh];W[kg];B[kh];W[je]C[catch22: White should have just played elsewhere. The three Black stones were captured as is.]
;B[gg];W[fg];B[hh];W[hg];B[if];W[hi];B[gg];W[fi];B[gj]C[watku: I stopped to think here... :-(

catch22: Yeah, this is not a great move. It would have been a nice tesuji about fourty moves ago though... ;-)]
;W[gk];B[ij];W[ik];B[ii];W[jk];B[hj];W[in];B[gi];W[fh];B[mh]
C[catch22: This move is not good. It encourages White to play at F9, to which Black has to respond. So Black ends in gote, without gaining anything.]
;W[ni];B[mi];W[oj]TR[gk][hk][ik][jk][jj][lj]C[catch22: Although White's marked stones are close to being cut off, it appears that he has read it out correctly, so White goes for profit (still S15 would be better).]
;B[fk];W[hm];B[gm];W[hl];B[fl];W[mj];B[nk];W[jm]C[catch22: White did not even have to play here. If Black plays at J7, White can respond at K7 then, and all will be fine.]
;B[km];W[mk]C[catch22: White probably thought this would be sente, but as it isn't, you did well taking the big point of S15 (finally :-).]
;B[jn];W[im];B[re];W[ml];B[mm];W[om];B[nl];W[ln];B[lm];W[kk]
;B[sg];W[rh];B[es];W[fs];B[ds];W[fr];B[kl];W[bo];B[bp];W[ap]
;B[aq];W[ao]
(;B[br]C[catch22: See variation for a better move.];W[am];B[gd]
;W[ff];B[nn];W[on];B[ad];W[ah];B[ai];W[sh];B[sf];W[mp];B[ls]
;W[ks];B[ae];W[af];B[lk];W[ga];B[fa];W[ec];B[eb];W[ha];B[kj]
C[catch22: Why throw in? You're just giving a point to White. Although you do not want White to get an eye here, White needs to play at K11, L11 and M11 before that happens, so you do not have to do anything to prevent that yet.]
;W[ki];B[li];W[kj];B[tt];W[hg];B[bn];W[an];B[gg];W[mn];B[hg]
;W[il];B[lq];W[nr];B[nq];W[pr];B[rr];W[qr];B[rs];W[sr];B[qq]
;W[sq];B[os];W[or];B[ns];W[ps];B[ms];W[io];B[qs]C[catch22: There is no need to play here. This is not a seki. Black is alive as is. Black has two large eyes. Although there are some  stones in either eye, these can simply be captured.]
;W[rq];B[ss];W[sq];B[pq]C[catch22: Once again, there was no need to respond. This is not a capturing race or a seki, Black is alive as is.]
;W[rq];B[sr];W[rq];B[sq];W[qc];B[pb];W[qb];B[rc];W[pc];B[ob]
;W[rb];B[rd];W[tt];B[tt];W[tt]TB[se][sd][sc][sb][sa][rq][rb]
[ra][qr][qd][qc][qb][qa][ps][pr][pc][pa][or][oq][oc][oa][nr]
[na][mr][mb][hi][fb][ea][db][da][cs][cb][ca][bs][bq][bj][bb]
[ba][as][ar][ak][ac][ab][aa]TW[sm][sl][sk][sj][si][rn][rl][rk]
[rj][ri][qn][qm][ql][qk][qh][qg][pn][pj][pi][pg][oi][og][of]
[ng][nf][le][kf][ke][jr][is][iq][ip][hs][hr][hp][gs][gr][gq]
[gp][fq][fp][fo][fe][ep][eo][ei][eh][eg][ef][ee][dn][dm][di]
[dh][dg][de][cf][bn][bg][ag]C[Game 175 Nakaben is removing @ O14
Game 175 Nakaben is removing @ P13
Game 175 Nakaben is removing @ Q11
Game 175 watku is removing @ Q2
Game 175 Nakaben is removing @ F3
Game 175 Nakaben is removing @ D7
Game 175 watku is removing @ R17
Game 175 Nakaben is removing @ D13
You have typed done.
Nakaben: 84.5 to watku: 63.0])
(;B[bn]C[catch22: What about this move instead?];W[an];B[am]
C[Oops...]))
(;B[gj]TR[kf]C[catch22: Now that the marked stone is on the board, Black has a nice tesuji he can play here.]

(;W[fk]C[White should definitely not stubbornly respond like this.]
;B[gk];W[fl];B[gm]C[Although White now separated the Black stones, he has made his own stones short of liberties. Recovering from this mistake is very painful...]
;W[eh];B[gi];W[fh];B[li]C[White's two center stones are suddenly in trouble. Even if they should escape (which seems doubtful), Black will profit from the chase.]
)
(;W[gk]C[Cutting off the Black stone does not work either.]
;B[fk]
(;W[gi]C[The black stone at L14 breaks the ladder, so White cannot play like this.]
)
(;W[fi]C[So White has to give in.];B[gi];W[fh];B[gh];W[gg];B[ii]
;W[hg];B[ij];W[ik];B[jk]C[Something like this may result, and Black can be happy.]
))))
(;B[oe];W[of];B[re]C[This way, Black has the opportunity to play here, which is big.]
;W[pe]C[By the way, White should resist the temptation to play here.]
;B[od]C[Black then connects...];W[ro]C[If White now plays elsewhere...]
;B[rh]TR[qf][pf][of][pe]C[Black can eventually (not right now) play this nice endgame move. It works because White's four marked stones are short of liberties.]
;W[qg]C[So White has to give in..];B[sg]C[Black gets some nice endgame profit.]
))
(;B[pk]C[catch22: Black should have played here. Letting White link up his two weak groups, as happens in the game, is way too kind. This move also gives Black good shape, including one definite eye.]
))
(;W[lr]C[catch22: White could have played here.];B[iq]TR[jr]
C[Black can try to save his marked stone...];W[jp];B[ip];W[jo]
;B[ir];W[mp]C[... but gets himself in trouble when doing so.]
))
(;B[lr];W[kq];B[lq];W[jp];B[jo];W[ip];B[ko]C[I think this result is fair for both sides.]
))
(;W[al]C[catch22: Destroying the white eye here does not kill the black group...]
;B[bh]C[Black threathens an eye on the other side.];W[ah]C[To destroy the eye, White will have to play here.]
;B[bg]C[... but Black ataris, and now has two ways to make his second eye.  Capturing three stones gives an eye, and so does playing at A13.]
))
(;W[bn]C[catch22: If White now plays here (to stop Black from linking up), Black won't respond at B5.]
;B[bm]C[Instead, Black can play here.];W[ap]C[White is now too weak to kill the Black group in the corner immediately...]
;B[dn];W[cm];B[en];W[el];B[fr]TR[er][eq][dq][dp][do][bn][cn]
[cm][cl][dl][el]C[White has two weak chains of stones, and it will be difficult to save both.

(This was not necessarily the best way for Black to play, but illustrate the problems that White has when he tries to kill Black's corner group immediately).]
))
(;W[bn]C[catch22: As Black did not play here, White can do so immediately. Black has to respond, as his stones in the corner will die otherwise.]
;B[bh]C[If Black ignores White's last move...];W[ap]C[... then White goes for the kill.]

(;B[bp];W[aq];B[ao];W[bo];B[ar];W[bs];B[bq];W[ap]C[Dead.])
(;B[ar];W[bs];B[aq];W[ao];B[bp];W[br]C[Dead as a dodo.])
(;B[aq];W[ao]
(;B[bp];W[br];B[bs];W[ar];B[ds]C[Is it alive?];W[bq]C[No, dead as well.]
)
(;B[br];W[bp];B[ds];W[bq];B[ar];W[bs]C[Still dead.]))))
(;W[cp]C[catch22: It would be better for White to build the wall in this direction...]
;B[dq];W[ep];B[fr];W[go]C[The left side is now looking very big for White. White's center stone is now also placed perfectly, as it makes escaping of the two black stones at the left difficult.]
))
(;B[qh]C[catch22: This is a much better move. It takes away White's base, threatens the cut and strengthens Black's weak stone.]
))
(;B[gd]C[catch22: It is better for Black to move into the center, while he still has a chance. If White plays here, the left side is starting to look very big. Playing this move now also has the advantage that it keeps the two white stones at the top separated from the rest.]
;W[ge];B[he]
(;W[gf];B[id];W[jc];B[mb]C[Letting White get two eyes at the side would be too kind...]
;W[ke]C[So White has to run out into the center.];B[ig]C[Black keeps White separated, and maintains access to the center.

This result would be fine for Black. White still has to worry about this group at the top. The white stone in the center again looks a bit silly. Also Black is threatening to play E10 and pull out his stone at the left side. Furthermore, Black has a good move at Q14, which he probably should play as soon as possible.]
)
(;W[hd]C[Black does not have to fear White cutting here.];B[id]
;W[hc];B[gf];W[fe];B[jd]C[Although Black's stones are cut off, this is not a problem as long as White has to worry about his stones at the top.]
;W[hf];B[ie];W[jc];B[kd]C[Letting White play here would be unbearable, as Black would end up with a shortage of liberties.]
;W[mb]C[Black is threatening to push at L17 and then cut, so White has to defend and cannot afford to play at M16 now.]
;B[hg];W[if]TR[gf]C[Although the ladder does not work, Black can use his marked stone to make shape .]
;B[jg];W[gg];B[jf];W[ff];B[hh]C[This also seems okay for Black. The white stones at the top have been isolated. White's potential at the left side has been kept under control and White's center stone is again misplaced.

By the way, it could be that instead of extending at H12, it would be better for Black to link up with M16, or to play Q14 to disable the white stone at R14.]
)))
(;B[nf]C[catch22: Simply jumping into the center works well. Now White has to worry about his two stones at either side.]
;W[qc]C[Of course, White can jump into the corner...];B[qd]
;W[rd];B[pc];W[rb];B[qb];W[rc]C[This way, White can settle one group, but Black now has sente to deal with the other stone.]
;B[gd];W[ge];B[he];W[hf];B[gf];W[fe];B[if];W[hg];B[ig];W[hh]
;B[ih]C[catch22: This seems to be fine for Black. The black stones work together nicely. The white stones at the left, on the other hand, have become over-concentrated. Furthermore, the lone white stone at the top is captured in a grand way (I don't think it can live or escape). Also, the white stone in the center is now placed awkwardly (this is not where White would place it now, if he had a choice).

Note that although there are cutting points in Black's wall at H16 and J15, this is currently not a problem because Black can play at H11 to deal with this.]
))
(;B[bh]C[catch22: I would prefer to play here. The aim is to sacrifice this stone, but to create good shape in return. A possible continuation follows.]
;W[bg];B[cg];W[bi];B[dh];W[ci];B[di];W[dj];B[ej];W[dk];B[eg]
C[catch22: White got profit along the edge, but Black created good shape. 

I think this result is good for Black. Black has reduced the influence of the white center stone, and already this stone looks a bit awkwardly placed. Furthermore, Black still has the opportunity to jump into the corner, or to approach at F17. In fact, the white stone in the top left corner has become pretty weak.]
))
(;B[cg]C[catch22: Although a two-space extension is normal from a single stone...]
;W[ce]C[... White is happy to play here. White can now take away the base of the black group by playing either B11 or B12, and Black does not have an efficient way of defending against this.]
;B[fc]C[Of course, White has not yet surrounded the corner. However, Black cannot really approach yet from the other side ...]
;W[hd]TR[cj][cg]C[White will then pincer and Black will not have a good answer. If he jumps into the corner, White will create a wall facing the outside, and the two marked stones will come under severe attack. On the other hand, if Black jumps out with F15, White will play at E14 to keep the black groups separated, and this will not be fun for Black either.]
))
