(;FF[4]GM[1]SZ[19]ST[1]AP[SGFC:1.15]

PB[tetu1061]
BR[19k]
PW[Edgardo]
WR[18k]
KM[0.5]
DT[2006-07-07]
PC[IGS-PandaNet]
RE[B+8.5]
TM[600]

C[Hi Edgardo,

I have tried to comment your game the best as I can and hope you will forgive my english faults (as I am french)]
;B[pd]LB[cp:a][pp:b][dd:c][dq:d]C[It seems to me that you enable your opponent to develop his game too quickly and on a too large scale due to the first opening moves you have chosen.

Let's see the first 4 opening moves : in response to Black 1, you played 2 at A, then Black played 3 at B and you finished by playing 4 at C.

It seems to me that your 3/4 point at A wasn't in the good direction and that you should have played it facing your 4/4 point at D.

It is important to play your 3/4 point facing your 4/4 point as they work well together and that it allows you to reduce the effectiveness of a black nirensei or sanrensei (see variation after)

Of course, you couldn't know by advance were Black will play, but you could have done this by playing the 4/4 point first and then the 3/4 point, which enable you to choose the good direction and to prevent a Black move facing your 3/4 point (as in the game).]

(;W[cp]C[Now, we can return to your game !];B[pp];W[dd]
(;B[eq]TR[pp][pd]LB[ep:a]C[White 3/4 point not facing the 4/4 point, allows Black 5, an aprroach which prevent the formation of a white shimari there and which is also a very large extension move from black's nirensei

Black's direction of play is good, but I would prefer the high approch at A to prevent a white pincer and to settle easily the black group (see variation before)

As Black uses the low approach, you should not have hesitate to pincer it to reduce the effectiveness of the black nirensei (see variation after)]

(;W[dm];B[eo];W[do];B[ip]C[You can compare this result to the result of the former variation and notice that in the game Black develops himself too quickly and on a too large scale]

(;W[qf]LB[qj:a]C[(I think maybe I shouldn't have attacked here. Was it better to play on the left?)

It seems to me that you could play on the left with the plan to build your own moyo shape but have to keep in mind that Black could refuse that deal and pincer your approach (see variation A before).

So, I think you played in the good direction but I would prefer the loose invasion at A to prevent a Black sanrensei and to enable White to settle his group easily (see variation B before)]
;B[qh]TR[pp]C[Good black pincer which works also as a very wide extension from the opposite 4/4 point]
;W[qc]C[Good invasion of the corner as it is the standard response to such a pincer...]
;B[qd]TR[qh]C[... now Black cuts in the good direction to have his stones working with the marked one to make territory....]
;W[pc];B[od];W[rd];B[re];W[rc];B[qe];W[nc]LB[qf:a][qh:b]C[(Up to here I was following Joseki.
Were the next few moves ok?)

...and it appears at the end of this sequence that by approaching at A you allowed Black to pincer at B, which pincer engaged you to invade the corner and play this joseki (without any errors) which enables Black to reinforce his moyo shape and keep sente to play a big move

That's the reason why I keep on prefering the immediate loose invasion at R10 (you can compare this result with the former variation one)]
;B[oc]C[Now Black is using his sente to enlarge his moyo shape with the following forced sequence...]
;W[ob];B[nd];W[mc];B[md];W[rf]TR[md][qe][od][qd][oc][re][nd]
[pd]LB[qn:a][nq:b][qq:c][gc:d][cg:e]C[(Should I have left R14 and played somewhere else?)

It seems to me that this is not the moment for a local fight here as you have the sente and that there are several big points waiting to be played on the goban .

You could consider to play at A, B, or C to reduce black's moyo (it seems urgent to do this but now Black has a strong marked group to deal with your invasion) or even D and E to reinforce your own moyo]
;B[se];W[og]
(;B[pf]C[It seems to me that this is not urgent to play here for Black and that it is too close from his strong group to make a good use of it (see variation before)]
;W[pg];B[qg];W[of];B[pe];W[pi];B[qi];W[qj];B[rg]
(;W[pj]C[You should have played 38 at P10 to protect the cut at P11 as the shisho is good for Black (see variation before)]
;B[ph];W[oh];B[oi];W[ni];B[oj];W[mh];B[ok]C[Now you have to groups to protect at the same time]
;W[ql];B[qn];W[pm];B[pn];W[om];B[mk];W[mm];B[qm];W[pl];B[ll]
;W[np];B[lp];W[oq];B[pq];W[or];B[pr];W[mq]C[(I think I'm letting black gain too much power in the lower middle. What could I have done?)

Because of the cut at P11, you are now under a severe attack and just have to try to live, if possible]
;B[nn]TR[np][mm][om]C[The "dog nose" is not frequently considered as a good shape]
;W[on];B[no];W[oo]
(;B[mo]C[It seems to me that the cut at P4 was playable for Black (see variations before)]
;W[op];B[nm];W[lq];B[kq];W[kr];B[jq];W[jr];B[ir];W[ls];B[cr]
;W[lc]TR[oh][og][of][ni][mh][pg]C[(Was it ok to ignore the last move?)

It seems to me that it is ok as it would be yose to respond to it but you should have remenbered that you have a floating group to save and avoid to push Black in his direction]
;B[le];W[kd];B[ke];W[kh];B[dh]TR[oh][og][of][kh][ni][mh][pg]
LB[ce:a][ck:b]C[Black 83 is a good idea as it is important to attack from away, but I would prefer to play at C12 to live more easily with one of the natural extensions at A or B]
;W[je]LB[ri:a]C[(With this move I think I'm attacking black and claming the upper part of the board.
The upper left is very open, was deffending it better?
What about my group on P12?)

"Attack is the best defense" (did you noticed at this moment that Black can live in gote at A?) but you have to remember that it is dangerous to push Black in the direction of your floating group even if it permits you to make territory in the upper part of the board

Even if the upper left corner is very open, you have now to take care of your floating group if you don't want to loose it]
;B[jf];W[jd];B[lg];W[lh]C[This and the next moves are to save this group.]
;B[jj];W[ih];B[fm]TR[lh][oh][og][of][kh][ni][mh][pg][ih]C[Black 89 and 91 moves are a good way to deal with a runing fight as they allow Black to build territory and make points immediatly without beting everything on the death of the white group which regularly doesn't happens]
;W[if];B[jg];W[jh];B[ig];W[hh];B[hg];W[dj];B[fg];W[fi]C[(Whith this move I think they are connected but blacks lower middle looks big)

It seems to me that they are not really connected (see variations after)]

(;B[he];W[hd];B[ge];W[gd];B[cc]C[(When should I have defended this?)

I would like you to notice that during the whole game you tried to reduce the large moyo shape that your opponent has been able to build during the opening, without having the posibilitie to build your own and take advantage of a possible invasion at the 3/3 point, as he did in the opposite corner]

(;W[cd]C[(Is this te correct move? D17 better?)

It seems to me that this is the wrong direction as you should play at D17 to build territory instead of inviting Black to invade it (see variation before)]
;B[dc];W[ec];B[bd]
(;W[cf]C[(This move ok? It lets black play B14 and take a big part of the side.
I didn'y play B14 because I don't see what to do against C15.
Where should I have played?)

It seems to me that the natural answer is at B15 (see possible variation before)]
;B[ei];W[fj];B[eb];W[fc];B[fb];W[gb];B[ej]C[(At this point I think I'm very behind.
Can anything be done to make the game even?)

I think it is too late];W[ek];B[gl];W[gk];B[hl];W[hk];B[ik]
;W[di];B[eh];W[ch];B[bf];W[bg];B[ce];W[de];B[be];W[gg];B[ff]
;W[fh];B[ef];W[gf]C[This was a clear mistake.];B[df];W[ed];B[cg]
;W[bi];B[bq];W[bp];B[dp];W[dn];B[en];W[cq]C[(Here and the next moves I did my best to keep sente, did I do well?)

Yes it is important to keep sente during the yose as long as possible]
;B[dq];W[br];B[bs];W[aq];B[dr];W[nj];B[nk];W[mf];B[lf];W[mg]
LB[is:a][ps:b][po:c][rl:d][fa:e]C[(Here I lost sente, where should I have played?)

you could have consider playing at A , B, C, D, E to keep the sente a more long time]
;B[os];W[ns];B[ps];W[is];B[hr];W[hs];B[gs];W[js];B[gr];W[ri]
C[Lost sente again];B[ie];W[id];B[hf];W[gh];B[fl];W[el];B[fk]
;W[hj];B[ag];W[bh];B[rl];W[rk];B[sl];W[sk];B[rm];W[rh];B[sf]
;W[me];B[ld];W[ij];B[kj];W[lj];B[lk]C[(Black should have played N10, right?)

yes];W[ki];B[jk];W[mj];B[ji];W[fa];B[da];W[po];B[qo];W[sd]
(;B[bb]C[(Why did black play here? Isn't he safe?)

I think too it was not necessary (see variations before)];W[ii]
;B[pk];W[qk];B[sh];W[si];B[sg];W[ne];B[ah];W[ai];B[af];W[em]

(;B[qp]C[(Was black's move necessary?)

no I think it was not, as the shisho is good for Black and the pip at S4 doesn't seems to work (see variations before)]
;W[mp];B[lo];W[ol];B[nl];W[ar];B[ea];W[ga];B[cs];W[kg];B[kf]
;W[tt];B[tt];W[tt]TB[ab][cf][if][kk][ml][sm][aa][ba][ca][ac]
[bc][ad][ae][cb][db][dg][eg][ds][es][fs][ep][fp][gp][hp][er]
[fr][fn][gn][hn][in][jn][kn][ln][mn][fo][go][ho][io][jo][ko]
[fq][gq][hq][iq][gm][hm][im][jm][km][lm][mm][il][jl][kl][jp]
[kp][qf][rf][qq][qr][qs][rq][rr][rs][sq][sr][ss][rn][ro][rp]
[sn][so][sp]TW[ap][bq][ci][gj][ks][ms][nq][sc][aj][bj][cj][ak]
[al][bk][bl][ck][cl][dk][dl][am][an][ao][bm][bn][bo][cm][cn]
[co][gc][hc][ic][jc][kc][gi][hi][ha][ia][ja][ka][la][ma][na]
[oa][pa][qa][ra][sa][hb][ib][jb][kb][lb][mb][nb][li][mi][lr]
[mr][nr][nf][ng][nh][pb][qb][rb][sb][rj][sj]C[Edgardo: 69.5 to tetu1061: 78.0]
)
(;W[qp];B[rp];W[qq];B[qr];W[rq];B[rr])
(;W[rp];B[qp];W[rq];B[ro]
(;W[rs];B[sn];W[sr];B[qr];W[rr];B[sp])
(;W[sn];B[rr];W[so];B[sr])))
(;W[bb];B[bc];W[cb];B[db]C[White couldn't live here])
(;W[bc];B[bb];W[cb];B[ac]C[It doesn't works either]))
(;W[be];B[eb]
(;W[fc];B[fb];W[gb];B[bc];W[cf]C[You can compare this result to the result in the game (move 116) and see that it is better for White]
)
(;W[bc];B[bb];W[ad];B[fc];W[ed];B[gb])))
(;W[dc];B[cd];W[ce];B[be];W[cf];B[bf];W[cg];B[db];W[eb];B[cb]
;W[fc]))
(;B[gh];W[gi];B[hi]
(;W[ii];B[hj];W[ij];B[hk];W[ik];B[hl])
(;W[hj];B[ii];W[ij];B[ji];W[jk];B[kj];W[kk];B[lj];W[lk];B[mj]
)))
(;B[op]
(;W[mp];B[ln];W[mo];B[mn];W[lo];B[kn])
(;W[mo];B[mp];W[nq];B[mn];W[lo];B[ln];W[ko];B[kp];W[lm];B[kn]
;W[jo];B[jp];W[jn];B[km])))
(;W[oj];B[ph];W[oh]))
(;B[pj];W[mg];B[ld]LB[pf:a]C[It seems to me that the cut at A will remain, for the moment, because White has to go away quickly and can't afford to loose time]
))
(;W[nc]
(;B[lc]C[... but he can also refuse it and pincer to "invite" you to invade the corner which is the standard response to such a pincer...]
;W[qc];B[qd]C[... which enable him to reinforce his group for going on building his moyo shape...]
;W[pc];B[od];W[nb];B[me]LB[qk:a][qj:b]C[... even if White finishes the sequence in sente, enabling him to invade at A or B as it seems now urgent to reduce Black's moyo shape.

So instead of first playing on the left and runing the risk to reinforce Black before invading, why not invading immediatly at the point of formation of a black sanrensei ? (see variation after)]
)
(;B[pf];W[pb];B[qc];W[kc]C[This is the result If Black agrees with your deal...]
))
(;W[qj];B[ql];W[qf]LB[qh:a]C[White can afford such a large extension as he has countermeasures to deal with a black invasion at A (see variation after)]

(;B[nd];W[rd];B[qc];W[ph])
(;B[qh];W[of];B[nd]C[black must now defend his corner...];W[pi]
;B[ph];W[oh]TR[qj][pi]C[...enabling White to prevent the flee of the black stones (but you have to keep in mind that some aji remains on the 2 marked stones)]
)))
(;W[gq]C[The one point low pincer seems appropriate here...]
;B[eo];W[dn];B[hp];W[dq];B[er];W[hq];B[ip];W[iq];B[jp];W[gp]
;B[go];W[kq];B[fp]TR[pp][pd]LB[qj:a]C[...as it allows White to reduce the effectiveness of the black nirensei and ends in sente enabling him, for instance, to play the loose invasion at A to prevent a black sanrensei]
))
(;B[ep]
(;W[eq]C[So the attachment under the approching stone is frequently played...]
;B[fq];W[dq];B[gp];W[cn];B[kq]TR[pp][pd]C[...allowing Black to settle his group easily and in the game to develops quickly a large moyo shape]
)
(;W[hp]C[The high approch aims at staying in relation with the center and that's why pincers doesn't work well with it...]
;B[en];W[cn];B[el];W[cl];B[cq];W[bq];B[dq];W[br];B[jp]C[...and as you can see the result is not very good for white]
)))
(;W[dd];B[pp];W[dq]TR[pp][pj][pd]LB[do:a][co:b]C[The white 3/4 point facing his 4/4 point is a good formation as they work well together and that it allows White to reduce the effectiveness of a black nirensei (the marked stones) or sanrensei (the marked stones + Q10)

In response and to prevent a white shimari at A or B, Black frequently approachs the white 3/4 point with the high one point approach (see variation A) or the low one point approach (see variation B)]

(;B[do]LB[co:a]C[White can choose to respond to the high approach by attaching under the black stone to play the standard joseki...]

(;W[co];B[cn];W[cp];B[dn];W[fq];B[cj]TR[pp][pd]LB[qj:a]C[...aiming at reducing the effectiveness of the Black nirensei and keeping the sente to play the loose invasion at A to prevent a black sanrensei]
)
(;W[fp]C[White can also choose to respond with the peaceful knight move at F4...]
;B[cq];W[cr];B[cp];W[er];B[ck]TR[pp][pd]LB[qj:a]C[..also aiming at reducing the effectivness of the Black nirensei and keeping the sente to play the loose invasion at A to prevent a black sanrensei]
))
(;B[co]LB[dl:a][ck:b]C[If black uses the low approach White should not hesitate to pincer, for instance at A or B]

(;W[dl]C[The high 2 points pincer works well with White 4/4 stone...]
;B[dn];W[fp];B[bq];W[jq]TR[pp][pd]C[...and at the end of the joseki, the white group reduces the effectiveness of black's nirensei although it ends in gote]
)
(;W[ck]C[The low pincer of 3 points is also good...];B[dp];W[eq]
;B[cq];W[cr];B[bq];W[hq]TR[pp][pd]C[... and at the end of this second joseki, the white group also reduces the effectivness of black's nirensei although it ends either in gote]
))))
