(;FF[4]GM[1]SZ[19]ST[2]CA[UTF-8]AP[SGFC:1.15]

PB[Dudzik]
BR[13k]
PW[whendrik]
WR[12k]
KM[0.5]
DT[2006-07-04]
PC[The Kiseido Go Server (KGS) at http://kgs.kiseido.com/]
RE[B+Resign]
TM[1500]
OT[5x30 byo-yomi]
RU[Japanese]

C[Quite simply: I should have lost this game.  I won due to my opponent's endgame oversight, but I should have resigned long before and was only continuing to play out of stubbornness.

I was not sure how to deal with my opponent's large central moyo, and by the time I finally gave up my enormous, heavy invasion group, I was clearly behind.  I would like as many comments as possible regarding the way I was handling territory vs. influence in the opening, where specifically my strategic blunders occurred, and whether I missed anything in the fighting or whether I was trying to get something totally unreasonable in the first place.

I am not so much looking for comments on my endgame, as I was in a very bad mood through most of the endgame, and know that I played some very poor moves.

Thanks in advance for the review!

-Hi, I hope you enjoy this review and find it helpful. Please remember that there are many flaws in my judgment of Go moves though :-/]
;B[pd];W[dp];B[op];W[dd];B[pj];W[qp];B[pm];W[oq];B[pq]C[I like this joseki.]
;W[pp];B[qq];W[rq];B[rr];W[rp];B[or];W[nq];B[nr];W[oo];B[np]
;W[sr];B[mq];W[pn];B[qm];W[jp]C[-This is too close to Black's thickness.]
;B[no]C[This move was probably gratuitous.

-Yes, it doesn't seal W in, and adds a stone to an already strong group.]
;W[nn];B[om];W[on];B[qg]C[Nice result for black.

-The result in the bottom right is quite good, but this last move is too slow. The Q10 group is fine, so you should look to the big open areas.]
;W[nc];B[pc]C[-This is normal locally, but you are still playing too many stones on the right side. Maybe try a play around K16.]
;W[kc];B[fc]C[-The left is bigger.];W[hc];B[cc];W[cd]C[-White should not block here without a stone around D10.]
;B[dc];W[ed];B[fb];W[ge];B[cj];W[cl];B[cg]LB[dh:A][ej:B]C[-It may seem odd, but you should not play here. It is too close to White's wall. Instead consider A or B.]
;W[di];B[ci];W[dg];B[dj];W[ei];B[cf];W[df];B[bd];W[og];B[oi]
C[-I don't think this move accompishes much. Ask yourself what White was intending with the previous move. It looks like he was trying to build the center, but the gap between this stone and O17 is wide, and you are very strong in the area. So resist! I like O16.]
;W[pf];B[qf];W[ne];B[ce];W[ph];B[qi];W[qh];B[rh];W[qe];B[pe]
;W[el];B[cq]C[-This is a big move, but it's a territory move. You are leading in territory, but White has all the potential in the center. If you limit that potential you will win, even if White takes this corner.]
;W[dq];B[cp];W[cn];B[dr];W[er];B[cr];W[do];B[fr];W[es];B[eq]
;W[fq];B[ep];W[fp];B[co];W[eo];B[bn];W[bm];B[dn];W[cm];B[ao]
;W[ej];B[li];W[lg];B[kh];W[kg];B[ii];W[nh];B[ni];W[mh];B[mi]
;W[jm];B[hl]C[-Just a little too thin. If you play the ogeima you have to be prepared for cutting attempts.]
;W[ik];B[hk];W[ij];B[hj];W[hi];B[il];W[jl];B[jk];W[jj];B[kk]
C[Certainly this move was a very, very bad idea.];W[ji];B[ih]
C[...and this one.];W[jh];B[ig];W[jg];B[de];W[ee];B[ff];W[gd]
;B[gi];W[hn];B[if];W[gf];B[gg];W[fh];B[gh];W[fk];B[je];W[kd]
;B[gn];W[go];B[in];W[im];B[hm];W[ho];B[jn];W[km]TR[jl][im][jm]
C[-This is really bad shape so maybe you can exploit it.]
(;B[ke];W[le];B[ic];W[ib];B[jc];W[jb];B[hb];W[id];B[jd];W[gb]
;B[gc];W[ha];B[fn];W[gm];B[fl];W[fm];B[em];W[gl];B[gj];W[ln]
;B[fg];W[ef];B[ko]C[I give up, probably far too late.];W[kn]
;B[jo];W[lo];B[kp];W[jq];B[kq];W[rn];B[rm];W[qr];B[pr];W[rs]
;B[ip];W[sm];B[sl];W[sn];B[rk];W[ch];B[bh];W[dh];B[bf];W[ec]
;B[eb];W[pi];B[qj];W[kj];B[qn];W[lj];B[ll];W[ob];B[me];W[oe]
;B[pb];W[mk];B[ml];W[nk];B[nl];W[oj]C[N6 becomes enormous, of course, but neither of us see it for a few moves...]
;B[ok];W[nj];B[pg];W[oh];B[of];W[nf];B[ld];W[lc];B[lf];W[md]
;B[pa];W[oa];B[oc];W[nb];B[bk];W[iq];B[io];W[hq];B[jr];W[ir]
;B[ks];W[qo];B[mn];W[lk];B[kl];W[mm];B[mo];W[nm];B[lp]C[...and I win, but don't feel too great about the whole thing.]
)
(;B[lm];W[kn];B[ln];W[ko]C[-If white saves these stones...]
;B[qr];W[rn];B[qn];W[rm];B[rl];W[qo];B[so]C[... I think you can kill the corner.]
))
