(;FF[4]GM[1]SZ[19]ST[2]CA[UTF-8]AP[SGFC:1.15]

PB[cynewulf]
BR[7k]
PW[Eksu]
KM[6.5]
DT[2006-07-28]
PC[The Kiseido Go Server (KGS) at http://kgs.kiseido.com/]
RE[W+Resign]
TM[1500]
OT[5x60 byo-yomi]
RU[Japanese]

C[Review by DrGoPlayer];B[pd];W[dp];B[qp];W[dd];B[oq]LB[qj:A]
C[I expected A next..]
(;W[qf]C[This is a mistake in direction, but I have no idea how to effectively punish it.

First it is at worst a small mistake.  A point or a 1/4 point?  So there will be no dramatic punishment.
There is a strong shape in the LR and the 4-4 stone is strong.   Maybe pincer at Q11 or R11.  See further threads]

(;B[qh];W[of];B[nd]LB[pi:B][qj:A]C[When I was about 5 stones weaker, all my opponents would play this way: jump out and counterpincer at A. It usually led to a running fight and my resignation.

The best move for w is at B.  This is why you might not want to pincer this way here]

(;W[mf]LB[qk:A]C[This was a surprise.

I don't think I can play at A to settle the pincer stone: it looks like the corner would have trouble even living.

You did fine here.  After A the corner is in no danger.  it will just become small]

(;B[ld]LB[jc:B][qc:A]C[It doesn't feel like I'm making any profit this way: this area is open on two sides (at A and B).

Both sides have a weak group.  Both groups have 2 ways to run.  OK.  The top should become some territory]

(;W[qj]LB[rd:A][ql:B]C[What are my options here? How should I be thinking about this position?

Can I sacrifice the pincer stone with A or B and get a decent result? Running seems heavy, and generally futile.

First A threatens to connect to the stone - see thread.  I dont care for B]

(;B[oh]C[This seems fine.  Keep S16 as reserve];W[mh];B[oj]
;W[qm]C[See the thread]
(;B[rk]C[This is a tesuji to protect the cut]
(;W[rj];B[qk];W[pk];B[pj];W[ql]
(;B[qd]C[I've lost many games because I tried to attack a weak group instead of take profit.

I couldn't threaten to kill anything right now, so I stabilized my upper corner.

See the thread.  B has several moves to take profit from the tesuji.  Then S16 takes the corner and threatens a connection]

(;W[rg];B[ok]C[good];W[pl];B[qi];W[rl];B[ri];W[sk]LB[rn:A]C[First w is not completely alive.  A takes away an eye but not now.

See my thread.  Helping your weak group and attacking the weakest w group is the urgent move]

(;B[kf]LB[mj:A]C[This move does nothing. The white group can run out and black can't profit from it.

Agree.  A is the right direction here.  For both players as it strengthens the weak group and attacks a weak group]
;W[mj]C[W has a poblem.  Still no territory.

B must secure the weak group with giving w a lot of influence]
;B[nl];W[on]LB[lf:E][nf:B][lg:D][mg:C][ng:A]C[The peek at A is surely worth considering.  W has a connection in ko tho so maybe wait until it will be a flower viewing ko for black]

(;B[ro]LB[kh:D][ll:C][mm:A][mn:B]C[This removes the probe and threatens to weaken white's other group.

This threatens a strong group but doesnt threaten to kill so it should be ignored by w.  Bad idea.

You must help the weak group and pressure your opponents weak group.  That is urgent.  See thread

For W now A, B C are possible but I think C would be not so good.  Around D is also possible for w]
;W[mn]C[right];B[ll]LB[jc:B][jp:A]C[As w I would be worried about the peek at O13 so a few moves to fix that.  B is strong on top so making him stronger is OK]

(;W[kk]C[I don't understand this move. There are better ways for White to run out, and surely White can play at A or B and not die.

W is trying to attack your group and not worrying about his group]

(;B[lk]C[black is committing to killing the w group.  Is that necessary?

See the thread.];W[lj];B[kj];W[jk];B[ki];W[kh];B[jh];W[kg];B[jg]
;W[ji]LB[jj:A]C[reasonable so far.  at A is urgent]
(;B[lf]LB[jj:A]C[See the thread with w at A]
(;W[mg]C[so w should take the two stones instead as in the thread]
;B[jj];W[ii];B[ij];W[jf];B[hi];W[ih]LB[ig:A][hh:B]
(;B[il]C[now b is still ahead but w has secured his groups]
;W[ig];B[lp];W[kn];B[km]C[I have put in a thread were w tenukis here]

(;W[jn]LB[jp:A]C[How should I continue attacking? In the game I played J3, but maybe A is better.

Are you attacking a live group?  See thread off previous move.  The w group isnt killable so why attack it?

See my continuation off K3]
(;B[iq]C[I think this is bad shape.];W[dj]LB[fc:A][cl:C][cp:B]
C[With the black stones nearby, is sanrensei as effective? Does the center group help invasions or reductions?

Play on 4th line to attack or make a big moyo.  so 3rd line is better here.  w needs some territory

now maye b should approach at A and then invade at B or C]
(;B[fp]C[Maybe low is better.

yes probably.  or see previous comment];W[cn];B[dq];W[cq];B[eq]
;W[cr]LB[cc:C][fc:B][rn:A]C[Now what?]
(;B[hn]LB[jc:A]C[I dont think w needs to answer this.  See the thread I put in for making another eye.  also moves at L4, K4, N4, O4 should suffice

W at A is huge.  threatens to reduce b top area and starts on finally getting some serious territory]
;W[rn];B[fc];W[hc]C[w is behind in cash and must not allow b to have more on top]
;B[jc]LB[cc:B][dc:D][cd:C][gd:A][fe:E]C[A seems good for w]

(;W[hd]C[this is slow for w.  I think b can come out.  see the thread]

(;B[cc];W[cd];B[dc];W[ed];B[fb];W[hj];B[ik];W[gj];B[fd];W[fe]
LB[cj:B][dk:C][cl:A]C[maybe b is 10 points ahead but w can reduce or invade bottom area so you cant relax.
C is for reduction and increasing black territory.  A or B to invade]

(;B[dk];W[cj];B[bc];W[bd];B[ad];W[ae];B[ac];W[bf]
(;B[el]C[Around this point I counted that I was about 5-10 points ahead.

Right.  w has gotten a lot of territory and bottom is invadable.  D7 is more severe than E8.  L4 is good.]
;W[ec];B[eb];W[lq]
(;B[kq];W[mp]
(;B[kp]C[see my addition to N3 thread];W[nq]
(;B[op];W[nr]LB[no:A]C[Black loses about 15 points here. White is ahead, and has better endgame.

Yes a big loss here.  B is still maybe a little  ahead.

You missed good move at O5]
(;B[mo]C[ouch.  losing move];W[no];B[lo];W[np]LB[cl:B][ln:C]
[or:A]C[You must  play at  A, then B and C.  W has about 70 points of which 60 is on left and 10 in lower right.
b has 40 in top groups, 30 in left bottom, 10 in lower right]

(;B[ln];W[pr]LB[bl:E][pp:D][pq:B][qq:C][qr:A]C[After this is just looking for a place to resign.]

(;B[ej];W[ei]
(;B[fi]C[now is finished];W[fj];B[ek];W[fh];B[di];W[eh]
(;B[ge];W[gd];B[ee];W[ff];B[ci]
(;W[bi]C[huge error.  b is back in game];B[bj];W[ck];B[cl];W[bk]
;B[bl];W[aj];B[bp]C[good];W[bn];B[cp];W[do]C[White wins by resignation.

NOOOO!!!!!!!!!!!!!  they are all dead!!!!!!!!!!!!!  :-)

Maybe you shouldn't look at the continuation.  it is your game.]
;B[br];W[bq];B[aq]
(;W[ar];B[as];W[cs];B[dr];W[al]
(;B[am];W[bm];B[ak])
(;B[bm];W[am];B[en]C[even this way b wins]))
(;W[ap];B[ao]))
(;W[bj];B[bi];W[cl]))
(;B[ck];W[bj]))
(;B[qr];W[pq];B[qq]
(;W[pp];B[bl]C[b ahead still])
(;W[cl]C[this is very close])))
(;B[qr];W[pq];B[qq];W[pp];B[bl]))
(;B[or]
(;W[ln];B[bl];W[bk];B[ck];W[bj];B[cm];W[bn];B[dn];W[do];B[eo]
)
(;W[cl];B[ln]C[still a game])))
(;B[or]
(;W[lo];B[dr])
(;W[mo]))
(;B[no]LB[nn:B][mo:A]
(;W[mo];B[nn];W[nm];B[mm];W[lr];B[or];W[np];B[oo];W[kr];B[jr]
;W[ms];B[bl];W[bk];B[ck];W[bj];B[cm];W[bn];B[dn]
(;W[eo];B[do])
(;W[do];B[eo]))
(;W[nn]C[dead this way];B[mo];W[lo];B[np];W[mq];B[or];W[kr]
;B[jr])))
(;B[or];W[op];B[pp]))
(;B[mq]C[this can actually be OK - see my thread];W[lr]
(;B[np]C[this is wrong.  see N2 thread];W[kp];B[mo];W[jq];B[kr]

(;W[jr])
(;W[lo];B[jp];W[mp]C[big ko]))
(;B[mr];W[kr];B[kp])))
(;B[kp];W[mp];B[mq];W[nq];B[mr];W[op]))
(;B[mp];W[fm]C[probably this settles the game])
(;B[dm];W[fl];B[en];W[eo];B[fn];W[cm];B[ek];W[fj];B[ck];W[bk]
;B[bl];W[bj];B[cl];W[bm]))
(;B[cl]C[This can live easily];W[dl];B[cm];W[dm];B[bn]
(;W[co];B[bj]
(;W[bi];B[ci];W[cj];B[bh];W[bk];B[ai];W[ck];B[cf];W[be];B[bf]
;W[ef])
(;W[ci];B[bi];W[bh];B[bl];W[cg]))
(;W[bo];B[co];W[dn];B[bp];W[bm];B[ao];W[bl]
(;B[cp])
(;B[do];W[eo];B[cp];W[ep];B[gq];W[fn];B[br])))
(;B[cj]C[see the threads for this one.  complex];W[ci]
(;B[dk]C[This is more complex.  maybe black can get some reduction and territiry around F7.  w must be careful not to lose E14 area and to keep G10 stones connected]
;W[ck];B[bj];W[bk]
(;B[bi];W[ch]
(;B[di];W[ej]
(;B[dl])
(;B[bh];W[cg];B[cl];W[bl];B[ek];W[fk]))
(;B[ej];W[di];B[dl];W[cm];B[gi];W[fj];B[fi];W[ei];B[ek];W[fh]
))
(;B[ej];W[di];B[dl];W[cm]
(;B[en])
(;B[ei];W[fk];B[ek];W[eh];B[gi];W[fl];B[fj];W[gl];B[em])))
(;B[ck];W[dk];B[bi];W[ch];B[cm];W[dm];B[dl];W[el];B[cl];W[dn]
;B[bh];W[bg];B[bn];W[bo];B[am];W[bl];B[bk];W[ao];B[al])))
(;B[fe];W[hf];B[fg]
(;W[gh]C[if block connection...];B[df];W[ce];B[cf];W[db];B[ci]
)
(;W[df];B[fi])))
(;W[cc];B[hd];W[gd];B[gc];W[id];B[ic];W[he];B[hb];W[hj];B[ik]
;W[gj]))
(;B[rn];W[hn];B[lo];W[ln])
(;B[fc])
(;B[cc]))
(;B[fq]
(;W[fp])
(;W[eq])))
(;B[jp]
(;W[hn])
(;W[fq])
(;W[hq];B[iq];W[hp];B[cq];W[kq];B[kp];W[jq];B[ip];W[ir])))
(;W[mq];B[mp];W[nq];B[np];W[or];B[pq];W[kr])
(;W[ss];B[rn];W[po];B[om];W[pm];B[qn];W[ol];B[nk];W[nm];B[pn]
;W[no]C[two eyes]))
(;B[ig];W[hh];B[if];W[je];B[ie]))
(;W[jj]LB[ng:B][lh:A]C[b must cut the w group now but its hard

A fails
B leads to a ko and b may not have enough good ones]
(;B[ng]
(;W[mg];B[nf]
(;W[og])
(;W[si];B[sh];W[rh];B[sj];W[nk];B[ol];W[si];B[lh];W[li];B[sj]
;W[re];B[rd];W[si];B[oe];W[sg]))
(;W[nf];B[mg]))
(;B[lh];W[li];B[lg]
(;W[nh];B[og];W[oe];B[ng];W[mg];B[nf];W[ne];B[me];W[si];B[sh]
;W[rh];B[sj]
(;W[od];B[oc])
(;W[pg];B[si];W[ph];B[oi];W[pi]))
(;W[mg]))))
(;B[jj]))
(;B[km];W[lk];B[ko];W[lg]))
(;W[jp])
(;W[jc];B[lc];W[le])
(;W[le];B[ke];W[oe];B[od]LB[kj:B][kk:A]C[now there is no cut.  w can continue attacking with a or b]
;W[kh];B[km]))
(;B[ll]C[This is the correction for b.  w at s3 is not important now]
;W[kh];B[no]C[w cannot tenuki here - see thread]
(;W[ss];B[rn];W[qn];B[ro];W[om]
(;B[mp])
(;B[nn];W[oo];B[np]))
(;W[ro];B[rp];W[qo]LB[fc:B][cf:C][fq:A]C[b has some good continuations]
)))
(;B[cj])
(;B[mj];W[kh];B[om]
(;W[ol];B[nl];W[nm];B[on];W[nn];B[no];W[lm];B[rn];W[rm];B[sm]
;W[ro];B[qn];W[qo];B[pn];W[po];B[oo]C[hard for w])
(;W[ro]C[maybe b just tenuki now]
(;B[kf])
(;B[ng]C[This is too soon but w must consider it];W[nf];B[mg]
;W[lg];B[lf];W[le];B[kf];W[me];B[ke];W[md];B[mc]))))
(;W[ok]C[w here first as this is better shape, hurts b and takes away b sente move]
))
(;B[qi];W[rl];B[ok];W[sk];B[rd]
(;W[rg];B[rh])
(;W[rf];B[mj])))
(;W[pi];B[ph];W[oi];B[ni];W[nh];B[pj];W[qi];B[qk]))
(;B[rd]C[This secures territory while threatening to connect.  W has 2 weak groups still.  I added a possible continuation]
;W[ol];B[pk];W[qk];B[pl];W[pm];B[mj];W[kf];B[om];W[rn];B[jd]
;W[if];B[nm]))
(;B[rd]
(;W[pi];B[rf];W[rg];B[qg];W[re];B[pf];W[sf];B[qe])
(;W[rf];B[pi]C[blocks w connection];W[rh];B[ri];W[qi];B[rg]
;W[ph];B[qg];W[pg];B[sh];W[oi];B[rj];W[pj];B[qk]C[not great result for black but not bad]
))
(;B[ql]
(;W[pi])
(;W[oj]LB[qn:A]C[b still has weakness at A])))
(;W[qc])
(;W[jc]))
(;B[qk];W[lc]
(;B[qd];W[ob]C[see my continuation];B[pe]
(;W[pf];B[nb];W[oc];B[nc];W[od];B[oe];W[ne];B[pb])
(;W[nc];B[pf]))
(;B[ld]
(;W[kd];B[ke];W[le];B[md];W[jd];B[qc];W[nb];B[re])
(;W[mc];B[md];W[kd];B[ke];W[jd];B[lf];W[rd];B[qc];W[rc];B[rb]
;W[oh];B[oj]C[b takes profit here now]))))
(;W[qj];B[oh];W[mf];B[ld];W[oj])
(;W[pi];B[qi];W[pj];B[ph];W[oh];B[qj];W[pk];B[ql];W[om]
(;B[pg];W[og];B[pf];W[qc];B[qd];W[rd];B[re];W[rc];B[rf];W[ob]
C[So w has a nice wall and a corner and b has 15-20 points on side and the lower right shimari has no useful influence]
)
(;B[qn]
(;W[og]C[similar result.  corner is still open])
(;W[dj]C[or w takes sente]))))
(;B[pi]LB[nc:C][qc:A][nd:D][of:B][qk:E]C[Kogos joseki dictionary (free download) lists these moves for w but E is not good here]

(;W[qc];B[qd]C[fine for b];W[pc];B[od];W[rd];B[re];W[rc];B[qe]
;W[nc];B[pf]C[fine for b])
(;W[nf];B[md];W[pl]C[impossible for w as Q8 has no backup];B[nh]
)
(;W[of];B[nd];W[rd];B[qc];W[ri];B[jc]C[b has a throw in at S12]
)
(;W[nd];B[pf]
(;W[pg])
(;W[qc];B[pc];W[qd];B[qe];W[re];B[pe];W[rf];B[jd]LB[pg:A]C[white at A may come later but would weaken the lone stone too much now]
))))
(;W[qj];B[qg];W[qm];B[jd]C[This is how the fuseki usually goes.]
))
