(;FF[4]GM[1]SZ[19]ST[2]CA[UTF-8]AP[SGFC:1.15]

PB[cvbn]
BR[13k]
PW[DavidBee]
WR[12k]
KM[0.5]
DT[2006-08-20]
PC[The Kiseido Go Server (KGS) at http://kgs.kiseido.com/]
RE[W+1.50]
TM[900]
OT[5x30 byo-yomi]
RU[Japanese]

;B[pd];W[dp];B[pq];W[dc];B[de]
(;W[ce];B[cf];W[cd];B[dg];W[fc];B[ck]C[I try to exploit B's position on the left side later on.  Should I have done so earlier, or was it appropriately timed?

This way, you allowed to settle the black group easily at your side.]

(;W[po]C[This move basically leads to a loss of sente. I];B[qo]
;W[qn];B[qp];W[pn];B[nq];W[qj]C[you are loosing sente here.]
;B[cn];W[fq];B[nc]
(;W[iq];B[kc];W[lq];B[qh]
(;W[ic]C[small];B[ee];W[oi]C[I see the chance to close off the bottom and am trying to extend a little first.

good move - you need to defend the r6 group];B[pg];W[op];B[oq]

(;W[np]C[Bottom essentially closed, I'm happy.

Well, black is better. Upper right corner is huge., Center is quite small for both.]
;B[en]
(;W[dj]C[Here I begin to exploit B's light version of the joseki.

This move is a bit too deep];B[cj];W[dm];B[dn];W[ch];B[bg];W[di]
;B[bh]
(;W[dk];B[cm]
(;W[fh]C[Trying to squash B's influence toward my low stones.

The black E6 is still problematic, so this attempt to close black was not succesful.]
;B[be];W[bd];B[ad];W[ac];B[ae];W[cc];B[fd]
(;W[gd]C[Should have just extended here.];B[gc];W[hc];B[ec]
;W[gb];B[eb]C[A big loss for white.]
(;W[bb]C[I considered playing F15 here aiming to connect, but that would have been disastrous.]
;B[ge];W[he];B[gf]
(;W[ig]C[This move ideally would threaten B's moyo top right and aid in extending my group on the left.  Is there a better placement or is that just too far apart on the board to be thinking about?

First, no two places on the board are too far to think about their relation.

The mistaked happened earlier, now white needs to play safely and attach the l17 stone. Otherwise, white has problems with either d10 group or h17 group.]
;B[hf];W[if];B[ie];W[id];B[je];W[jb];B[gh];W[gi];B[hh]
(;W[ih]C[White builds another weak group.];B[hi];W[gk];B[ii]
;W[kh];B[ji];W[kg]C[I don't like this move looking back on it.  Maybe M13 or L14?

this move looks ok, still leaves k16 cut untouched.
There are many problems on the board:
H17 is not alive, L13 is weak and so is D10. One of them is supposed to die.]
;B[kd];W[kb];B[mc];W[mb];B[nb];W[lc];B[ld];W[lb];B[mf];W[ng]
;B[mg];W[mh];B[nf];W[og];B[pf];W[lj];B[lh]
(;W[lg];B[nh];W[mi];B[oh]
(;W[pi]C[Oops, O11 was the idea.];B[il]C[the center is gone]
;W[gm];B[kl];W[ml]C[Considered a peep at K9.];B[ln]
(;W[jm]C[Took it here indstead.];B[jl];W[km];B[lm];W[jo];B[ll]
;W[nl];B[nn];W[mo];B[nm];W[om];B[ri];W[rj];B[sj];W[qi];B[rh]
;W[sk];B[si];W[rk];B[ro];W[rn];B[mq];W[lr];B[mp];W[lp];B[pp]
;W[no];B[mr];W[bp];B[im];W[hn];B[in];W[io];B[fo]
(;W[go];B[fp];W[gp];B[cq]
(;W[cp]C[Possible variation.];B[eq];W[dq];B[ep];W[er];B[fr]
;W[gq];B[dr]C[huge loss];W[cr];B[es];W[br];B[on];W[gr];B[lo]
;W[oo];B[ls];W[kr];B[ks];W[js];B[ms]
(;W[ko]
(;B[sn]C[J1 here was big, but he didn't take it.];W[sm];B[so]

(;W[rm];B[el];W[dl];B[cl];W[em];B[fn]
(;W[fl]C[F7 maybe better.];B[gj];W[fj];B[fi];W[ei];B[eh];W[gi]
;B[ab];W[aa];B[fi];W[dh];B[fg];W[hj];B[gi]
(;W[ik];B[jk];W[gs]C[Should be nearer to K1 to prevent BK2.]
;B[ki];W[li];B[mk];W[nk];B[lk]
(;W[am]C[this is gote];B[bm];W[an];B[al];W[bo];B[nj];W[ni];B[ol]
;W[ok];B[pm];W[ph];B[qf];W[pl];B[om];W[mj];B[ql];W[pk];B[qm]
;W[of];B[oe];W[fb];B[db];W[cb];B[ij];W[hk];B[kj];W[dd];B[ed]
;W[ke];B[le];W[kf];B[hd];W[ci];B[bi];W[he];B[jd];W[fs];B[er]
;W[ob]C[This invasion wins was what essentially a lost game.]
;B[na]C[Should be P19.];W[qc]
(;B[qb];W[pb];B[rb];W[rc];B[pc];W[sb];B[oa];W[qa];B[pa];W[ra]
;B[qb];W[rd];B[oc]
(;W[rb]C[Not needed, but I get life in any case.

White had luck.];B[sd];W[re];B[se];W[rf];B[sf];W[sg];B[rg];W[sc]
;B[sf];W[se];B[hd];W[gc];B[fa];W[ga];B[ea];W[do];B[jr]C[This nearly wins the game back for him.]
;W[jq];B[ir];W[hr];B[is];W[hs];B[js];W[bn];B[hm];W[gn];B[hl]
;W[gl];B[rl];W[sl];B[ma];W[la];B[jc];W[ca];B[qd];W[qe];B[pe]
;W[ak];B[bl];W[bj];B[aj];W[ai];B[bk];W[fm];B[pb];W[cs];B[he]
;W[sf];B[ia];W[ib];B[qg];W[hg];B[gg];W[ds];B[aj];W[tt];B[tt]
TW[ba][ha][ia][ja][ka][sa][ab][hb][bc][sd][nh][oh][ej][nj][oj]
[pj][ek][fk][el][ao][ho][ap][hp][ip][jp][kp][aq][bq][cq][hq]
[kq][ar][as][bs]TB[ob][md][nd][od][fe][me][ne][af][bf][df][ef]
[ff][ag][eg][ah][fh][ai][bj][jj][ak][kk][rp][sp][qq][rq][sq]
[nr][or][pr][qr][rr][sr][ns][os][ps][qs][rs][ss]C[The main disappointment of this game was not capitalizing more on the huge moyo I had to the bottom right.  That was partially a result of the weak group I had to the left and partially just bad local play.  It doesn't seem that I should have won this game, as the invasion at top right never should have lived.  Any advice you offer will be appreciatively received.  Thank you.

David

Many mistakes, a lot in the endgame - try to determine which are sente and which gote. Play sente first, gote later.

Good luck!])
(;W[rf]C[reduce more]))
(;B[rd];W[rc];B[pb]C[looks dead]))
(;W[nj]C[you need to cover it]))
(;W[jr]))
(;W[fm]C[sure, this is better]))
(;W[pm]C[better this]))
(;B[is];W[jr];B[gs];W[hr];B[hs];W[ir];B[fs]))
(;W[ir]C[urgent]))
(;W[dq];B[cp];W[co];B[do];W[cr];B[bq];W[br];B[aq];W[ar];B[bo]
;W[eq]C[Probably better.]))
(;W[gp]C[this is correct];B[go];W[ho];B[fp];W[eq]))
(;W[jk];B[ik];W[jl];B[jm];W[km];B[kk];W[im];B[jn])
(;W[lm];B[kn];W[km];B[jm];W[jn];B[in];W[jo];B[gn]C[this looks problematic for the d10 group]
)
(;W[bp]C[this looks the biggest move on the board now]))
(;W[ni];B[ph];W[jk]C[the same, but black will ignore o11]))
(;W[li];B[nh];W[lg];B[oh];W[ni];B[ph];W[jk]C[like this you gain sente and can cover some area in the center]
))
(;W[hi];B[ih];W[jd];B[ke];W[kd];B[ld];W[le];B[lf];W[me];B[kg]
;W[lc];B[md];W[mc];B[nd];W[nb];B[ob];W[mb]C[but white loses sente...]
;B[fj]C[and black can try to attackthe d10 group]))
(;W[kd];B[hf];W[ie];B[if]
(;W[lc];B[hj])
(;W[hi];B[je];W[jd]C[the d10 group start to have problems];B[fj]
)))
(;W[fe]
(;B[bb];W[ed];B[dd]
(;W[fd])
(;W[db];B[fd];W[sa];B[sb];W[ed];B[bc];W[fd]))
(;B[ed];W[bb];B[ge];W[he];B[gf];W[hf];B[gg];W[hi]C[maybe like this]
)))
(;W[gc]C[This is correct.]))
(;W[gn]C[maybe this looks like what you wanted])
(;W[hn]C[or this, but d10 group needs help]))
(;W[gi]))
(;W[hn]C[Maybe like this, the move on the edge of the moyos]
)
(;W[ej]C[I'd play this one, but in this way you destroy the whole center.]
))
(;W[mo]C[i'd play this.]))
(;W[oj]C[either this])
(;W[qd]C[or  a more active approach]))
(;W[kc]C[I think, this is a bit more interesting side for white]
;B[iq];W[bp];B[qe]
(;W[dj])
(;W[mo])
(;W[ef];B[df];W[dj]C[or this])))
(;W[qo]C[I'd play this one.]))
(;W[cg]C[I would try ti pincer.])
(;W[qo]C[or tenuki seems also good to me. Looks more active to me.]
))
