(;FF[4]GM[1]SZ[19]ST[2]CA[UTF-8]AP[SGFC:1.15]

PB[tmarsh24]
BR[21k]
PW[hooiberg]
WR[20k]
KM[0.5]
DT[2006-09-03]
RE[W+3.50]
RU[Japanese]

C[s> hi, this is siegoman, thank you for the chance to review your game,  my comments are marked with s>

In the next frame I list move numbers that were significant to me.

In general I think not enough priority was places on the long range goals.  Here are the clues:

- Sacrifices.  
If you want good long range results you need to sacrifice some short term stuff, such as a stone or two, even a group.  Not all stones are going to live, sac a few to get a good result!  As you threaten to save them your territory will increase.

- Multiple threats from a single stone.  
In the first 70 moves or so look for those moves that threaten more than one thing.  The other guy cannot defend both things, sure it may be more fun to force the direction of  your opponent, but isn't a nice subtle attack so much more clever than brute force?  Look at some high ranking handicap games, the guy with the dis-advantage has to threaten multiple things all the time, to have one stone act as two or three.

- Close plays. 
Avoid contact plays unless you are ok with the guy getting strong.  When defending go for contact, when attacking go for a bit of distance.

- Ko threats.  
Several times black played ko fight types of moves, but the timing was off.  And then the one chance where it would have helped ( 231 ) he missed it.]
;B[pd]C[Dear reviewer. Thank you very much in advance for reviewing this game. I am white in this game and I lost by a few points.

s> here are the moves that caught my eye:

28 - defend a cutting point

77 - look for how to cut a group directly or use a squeeze to cut

119 - attacking a group from one side often push it to get stronger on the other side.

142 - threaten two things at the same time.  let the guy defend the immediate threat while you get  the bigger pay off.

188 - excellent play! the large group is dead.

192 - play it safe or attack the invading group

194 - take a chance, solidify and attack.

239 - prevent the group from forming two eyes.

244 - defend on the weaker side.

248 - remove all chances of two eyes.];W[cd]C[s> I have heard it spoken that a stone on the third line best not face an opponents stone.  Here C16 faces Q16.  I think the reasoning is that black may play E16 and draw back to K17 as shown.]

(;B[pq];W[dq];B[ed];W[df];B[dc];W[cc];B[hd];W[po];B[co];W[pf]
;B[cq];W[oi];B[pl];W[pj];B[nl];W[nn];B[np];W[ln];B[eq];W[dp]
;B[cp];W[jq];B[qo];W[qn];B[qp]LB[mj:A][pn:B]C[s> black attacked at R5, and white defended at R6, then black defended at R4.  Now white has some options:
A> continue the attack on O8, and build up the P11 group
B> defend the Q5, R6 cut.  This also indirectly attacks O8.]

(;W[mj];B[ll];W[km];B[on];W[oo];B[pn];W[om];B[pm];W[ol];B[ok]
;W[nm];B[pk];W[nk];B[mk];W[ml];B[no];W[lp];B[nd];W[kd]C[some how this invasion went totally wrong in the end. Could you please tell me how I could have done this better?]
;B[ch];W[cj];B[cf];W[de];B[cg];W[gq];B[en];W[cm];B[eo];W[ep]
;B[dr]
(;W[fp];B[dl];W[cl];B[dk];W[dj];B[ck];W[bk];B[ei];W[ej];B[eg]
;W[gm];B[gk];W[fi];B[fh];W[dh];B[dg];W[di];B[eh];W[fj];B[fl]
LB[dm:A][do:B]C[s> white has some options:

A> squeeze D8

B> cut C5 from E6]
(;W[dm];B[em]LB[hi:A][fk:C][el:B][do:D]C[s> there is an opportunity with the D9 group.  it only has two liberties, so a play at E8 that forces E9, then white has G9 as a free move and can then cut at G8.

A> in the game extend from F11 to get it into the center, and isolate G9 from H16

B> force black to take at e9, giving white f9 free move.

C> hope that black doesn't see the B8 snap back.

D> cut off E6 from C5, kill E7, but there is a close call.]

(;W[hi];B[ik]LB[lk:B][im:A]C[s> the F8 group is running to the center.  what will white do?

A> push against J9 and take some territory at J5

B> capture N9 building a thick group at N10 go use for fighting.]

(;W[im];B[lk]LB[fc:C][qc:B][jk:A]C[s> there are many black stones in that center area.

as an exercise of reading things through, consider each of the moves in your mind, read out a few moves

A> cut off M9 from J9
B> jump in the corner and get some territory
C> jump]
(;W[jk];B[jj];W[ij];B[jl];W[kk];B[ii];W[hj];B[mn]LB[nj:B][mo:A]
C[s> attack or defend... O7 group seems ok, but doesn't have many liberties.
A> attack the N6 stone
B> defend the O7 group, give it a way out.]
(;W[mo];B[nj];W[hk];B[lm];W[mm];B[nl];W[mn];B[mi];W[kj];B[lj]
;W[kl];B[kh];W[ji];B[ig];W[ih];B[jg];W[gg];B[ff];W[fg];B[ef]
;W[mc];B[kb]C[this was an unexpected reaction by black. I did not really know how to react.]
;W[nc]C[Would J17 have been better, to enclose the black stone?

s> I think O17 is an excellent option, pushing against his group to get stronger, before sealing L18 to the wall.]
;B[oc];W[ob];B[pb];W[nb];B[ma]LB[ic:C][md:B][oe:A]C[s> white has a few choices, depeding on what the long range goals are:

A> white wants to get a stronger right side. the R13 area is important, and white will peep at P16 to get another stone in the area, doesn't strengthen Q14 much, but it is a forcing move.

B> threaten to walk out while strengthening N17, then surround L18

C> directly surround L18. this appears dangerous as K13 and H16 as shadowing any escape.]

(;W[oe];B[od];W[ne]C[s> this is pushing black to entrap N17 more.]
;B[md];W[lc];B[kc];W[jc]C[s> this appears to be an all or nothing deal, risking that L18 can be captured, as O18 cannot escape.]

(;B[jb];W[jd];B[ic];W[id];B[hb];W[he]C[I tried to connect to my G13 stone.]
;B[hf];W[gd];B[hc];W[gf];B[ie];W[fe];B[ge];W[db];B[he]LB[ec:A]
[ee:B]C[s> attack from which direction?
A> get some territory at E18 and attack the D17 stone
B> threaten to surround D17 and E16 while threatening to cut off E13]

(;W[ec];B[ee];W[dd];B[fc];W[mg];B[me];W[mf];B[le];W[er];B[es]
;W[fr];B[bi];W[bj];B[eb];W[be];B[da];W[ca];B[ea]
(;W[dc];B[gb];W[cr];B[br];W[ds];B[cn];W[bm];B[bn];W[li];B[lh]
;W[ki];B[mh];W[nh];B[bb];W[cb]
(;B[ab];W[bc];B[bf];W[ac];B[ae];W[ad];B[ce];W[af];B[cs];W[bs]
;B[ag];W[ae];B[ah];W[bq]C[s> white makes an excellent play, killing the C5 group.]
;B[qi]C[an invasion by black that I did not manage to kill. Would there have been a way?]
;W[qj];B[qf]
(;W[qe]C[would W R13 have been better, to split B's stones?

s>  I agree. R15 is having a tough time.]
(;B[qg]LB[pe:B][ri:A]C[s> black was a bit greedy.
white can attack or defend.
A> attack and undercut the black group
B> defend the R15 stone.]
(;W[ri];B[rh];W[rj];B[pe];W[pg];B[qd];W[re];B[rd];W[rf];B[ph]
;W[of];B[qh];W[oh];B[se];W[pi];B[sf];W[sg]C[a pointless move by me.
s> he did have to respond, it did use up a ko threat.];B[rg]
;W[si];B[ng];W[rl];B[rm];W[qm];B[ql];W[rn];B[rk];W[sm];B[sl]
;W[sk];B[og];W[nf];B[ro];W[so];B[sp];W[sn];B[qk];W[nk]C[s> black let a group go, why no use a ko threat?  nothing to lose.]

(;B[oj];W[mj];B[ni];W[jh];B[kf];W[lf];B[kg];W[mq];B[gn]LB[fn:A]
[go:B]C[s> black is looking to rescue his C5 group.  he almost has an eye at B5, and needs to form one more.

A> directly cut G6 from E6
B> take away chances to form eyes at F6]
(;W[fn]C[are there better alternatives? I tried to isolate B's G6 stone, but it did not work out well

s> Isolating the G6 stone does offer a target.  Consider a less direct attack of taking away eye space from E6.  Sometimes a direct attack forces the other guy to form eyes.

practice looking on a larger scale, I'm guessing you were doing like I often do, getting tunnel vision on the one stone.]
;B[fo];W[go];B[hn]LB[hm:B][ho:A]C[s> white stones to be rescued, which side to work on?
A> keep black out of the H3 area, increase the territory.
B> connect G7 to safety, threaten to connect to F6 and cut off H6.]

(;W[ho];B[hm];W[hl];B[fm]LB[gl:B][in:A]C[s> at first glance H6 is leaking into white's territory.
A> blocks in black
B> works with G5 to make F6 a false eye.

where are black's eyes for the C6 group?]
(;W[in];B[gl];W[il];B[gj];W[gi]
(;B[hh];W[gh];B[hg];W[nq];B[oq];W[mp];B[op];W[or];B[pr];W[an]
;B[ao];W[am];B[bp];W[ar];B[nr];W[mr];B[os];W[ek];B[el];W[do]
;B[dn];W[ms];B[ns];W[sh];B[aj];W[ak];B[ai];W[tt];B[tt];W[tt]
C[Thanks again for reviewing this game. Would you have any general area of the game that I should work on? I appreciate your help.

s>  three areas I would work on:

1. is a group alive or dead, can it form two eyes?

2. what will my attack induce?  is my direct gain greater than the resulting side effect?

3. where can I cut and divide his stones?])
(;B[gh]))
(;W[gl]C[s> the C5 group is now dead.]
(;B[ek]C[s> black cannot form an eye at E8];W[fk])
(;B[in];W[nq]C[s> white is so incredibly thick around J6 that white can ignore the escape attempt.]
)))
(;W[hm]C[s> G5 has enough support on the other side. and H6 has nowhere to run to.]
;B[ho]C[s> black has a sente move before capturing F6];W[gp]
;B[fm];W[bp]C[s> C5 has zero eyes.]
(;B[ek];W[fk];B[gl];W[el])
(;B[fk];W[ek])))
(;W[go]C[s> black can no longer form an eye at F6, and where can he run to?]
;B[hn];W[hm]))
(;B[ba]C[s> black can use a ko threat and save some stones.]
;W[aa];B[nl]))
(;W[rh]C[s> my knee jerk reaction is to move here.  I like it because it threatens to poke through R12, it tears up the eye space for black.]
;B[pe];W[qh])
(;W[pe]C[s> moves like this are daring.  here white declares that he can prevent R13 from forming two eyes.]
;B[ri];W[rj];B[re];W[rd];B[rf];W[qd];B[pi];W[oj];B[ph];W[rh]
))
(;B[pe]C[s> directly cutting gives black many more options.]
;W[qg];B[rf]
(;W[re];B[pg];W[of];B[rg];W[qh];B[ph])
(;W[pg];B[rg];W[rh];B[qh];W[ri])))
(;W[qg]C[s> white plays it safe to assure N13 lives.];B[pe]
;W[qe];B[of]))
(;B[bc]C[s> I think this move kills C16];W[bf];B[bg];W[af];B[bd]
;W[ce];B[ad]))
(;W[fb]C[s> nice job resisting this ko fight, white doesn't have many threats to use.]
;B[dc]))
(;W[ee]
(;B[fd]C[s> if black defends his two stones, then he loses the many.]
;W[gh];B[ce];W[dd];B[bd];W[bc];B[bi]
(;W[bj];B[ae];W[ag]
(;B[bf]C[s> if black makes an eye leaving A11 open, then he dies.]
;W[ai])
(;B[ah]))
(;W[be]C[s> white must let B11 go, or C13 will form two eyes.]
;B[bj];W[bl];B[ah];W[aj];B[bf];W[ad]
(;B[bg])
(;B[bn]C[s> maybe black can capture C8 before C13 dies.])))
(;B[gh];W[fc];B[fd];W[gc];B[ec];W[eb])))
(;B[ld];W[jb];B[lb];W[ka];B[mb]))
(;W[md];B[ne];W[ic];B[ib];W[hb];B[hc];W[jb];B[gb];W[ia])
(;W[ic];B[lc]
(;W[md];B[ld];W[le];B[me]
(;W[ne]C[s> if white makes the mistake of thretening here black will sacrifice to get the large J17 area.]
;B[ke];W[mf];B[jd];W[od];B[pc];W[qe];B[rd])
(;W[kc];B[lb];W[ne];B[ke];W[mf]
(;B[jc];W[jd])
(;B[jd];W[jc];B[id];W[hc];B[gc];W[gd];B[hb];W[je];B[kf];W[he]
;B[ib];W[ie];B[gf];W[hg];B[hf])))
(;W[ld]C[s> white dies, too few liberties.];B[md];W[lb];B[kc]
;W[jb])))
(;W[nj];B[mm];W[nl];B[lm]
(;W[mo]
(;B[kn];W[kl];B[lo]
(;W[lj]C[s> white can squeeze the stones and seal things up.]
;B[ln];W[jn];B[mp];W[ko];B[mo];W[kp])
(;W[mp];B[jm];W[kj];B[lj];W[ki];B[li]))
(;B[kl]))
(;W[kl])))
(;W[qc]C[s> this seems to backfire and take away S14 territory as a side effect.]

(;B[qd]C[s> if black is smart he will block this way, to use O16 for help, and to poke under Q14]
;W[rc];B[rd];W[ob]SQ[qe][re][rf][rg]C[s> white does get the S18 corner, but black can reach under S13.  is it worth the trade?  maybe, this kinda stuff is what you need to think through.

also, when black blocks P18 he will also be attacking L16.  white induces an attack onto L16.]
)
(;B[pc];W[qd];B[qe];W[pe]))
(;W[fc]
(;B[fd]LB[db:B][dd:A]C[s> here is an example of sacrifice for bigger gain.

A> connect the two groups and threathen to cut off D17

B>]
(;W[dd];B[ec])
(;W[db]
(;B[dd];W[eb]C[s> white decides to sacrifice the D15 stones.]
;B[ce])
(;B[ec];W[eb]
(;B[fb]C[s> black makes a blunder, white is happy! :)];W[gc]
;B[gb];W[hc];B[hb];W[ic])
(;B[gc]LB[fb:A][fe:B]C[s> now F17 has done his job, let him go.]

(;W[fe];B[ee];W[ef];B[ff];W[ge])
(;W[fb])))))
(;B[dd]C[s> white has a choice, save D15 or cut under.];W[db]

(;B[ce];W[eb])
(;B[eb]
(;W[ec];B[cb];W[fd];B[ee];W[ef];B[fe];W[ff];B[ge];W[ce])
(;W[cb]
(;B[ce];W[ec];B[fb];W[gc];B[gb];W[hc];B[hb];W[ic];B[ib];W[jc]
;B[jb];W[kb]C[s> can black save the H18 group?])
(;B[ec];W[ce]))))
(;B[db]C[s> this looks like black's best reply, it threatens to jump into b18 and take away white's eye space.  and it cuts f17 off from d15

I think white's best option is to lean into E16 and H16 while building up an attack on E13]
;W[fe];B[fd]
(;W[gd])
(;W[ge]
(;B[gd];W[gg];B[gh];W[hh];B[hg];W[ff];B[gi];W[gj];B[hf];W[he]
;B[gf]
(;W[ig]C[s> sometimes it is fun to consider the squeeze play, but here E13 has too many freedoms for it to work.]
;B[if];W[jf];B[ie];W[id];B[je];W[ke];B[fg];W[jd];B[gg])
(;W[fg]))
(;B[ee];W[ef];B[ff];W[gd];B[dd];W[ce];B[gc];W[hc];B[gb];W[gf]
C[s> these types of prep moves are a life saver aren't they?]
;B[fg];W[id];B[he];W[hf];B[ie];W[je];B[if];W[ig];B[jf];W[kf]
;B[jg];W[jh];B[kg];W[lg];B[kh];W[ki];B[lh];W[mh];B[li];W[lj]
;B[mi];W[ni])))))
(;W[lk];B[cn];W[fk];B[gl];W[el];B[fm]))
(;W[el];B[ek];W[fk];B[el];W[gl])
(;W[fk];B[gl];W[el])
(;W[do];B[dn];W[cn];B[bj]LB[bi:A][bl:B]C[s> white has a couple of choices...

A> take the B10 stone, connect B9 to C10

B> connect the B9 stone to the C8 group

which is better?]
(;W[bi];B[bl];W[aj];B[bn])
(;W[bl];B[bi];W[el];B[ek];W[fk];B[el];W[gl];B[gi];W[gj];B[hj]
;W[hk])))
(;W[do];B[cn];W[dn];B[dm]
(;W[fn]C[s> can you see how F6 takes away the E7 eye?];B[fm]
;W[fo];B[bj];W[bi];B[bl])
(;W[bj]C[white needs to defend this very soon, otherwise C7 will fall.]
)
(;W[bm]C[s> this option defends the c8 group, and also threatens to jump into the a4 area and reduce it a bit.]
)))
(;W[er]C[s> I like to do this type of squeeze play, sacrificing E2 to build up E4 and G3.  something to consider, not sure if it is the best thing here, as d4 doesn't have many liberties, and black can squeeze it and get a few free moves of his own.]

(;B[fq];W[fp];B[fr];W[gr];B[es];W[do];B[dn];W[cn])
(;B[fp];W[fq];B[do];W[eq])))
(;W[pn]))
(;B[ed];W[ec];B[fc];W[dc];B[fd];W[cf];B[jc]))
