(;FF[4]GM[1]SZ[19]ST[2]CA[UTF-8]AP[SGFC:1.15]

PB[DavidBee]
BR[13k]
PW[marco01]
WR[12k]
KM[6.5]
DT[2006-08-29]
PC[The Kiseido Go Server (KGS) at http://kgs.kiseido.com/]
RE[W+3.50]
TM[1200]
OT[5x30 byo-yomi]
RU[Japanese]

C[Hello, thank you for taking the time to look over this game.  It was a close game that I ended up losing by just a little.  I feel that I played strongly and that I started out with an advantage, which is why I would like to have the game reviewed.  I have made specific notes on the moves where they apply.

Review for: Black, DavidBee
Reviewer: allfather (allfather@mts.net)
http://senseis.xmp.net/?allfather


Comments:

Overall the game was played very well, the attacking was great.  I would say the game was lost in end game however, and sente was lost too often as were many big moves.]
;B[pd];W[pp];B[cd];W[dp]
(;B[cn];W[ed];B[cg];W[dc]C[This move is non-joseki so I get a few points out of it.]
;B[cc];W[hd]LB[jc:A][qn:E][fp:B][np:D][fq:C]C[this is pretty good for white, but black gets a few moves that would severly damage white.

They should be kept in mind concerning your next moves.

B and C are good to damage the white corner, but since the stone is already there, you can even ignore and take D or E.  E would be nice to setup for A]

(;B[fq];W[dn];B[dm];W[co];B[en];W[bn]C[This mistake is what gives me the advantage early in the game.

Reviewer: You are correct.  This was quite damaging for white.  The move at d5 is correct.]
;B[do];W[bp]LB[bm:F][cm:E][pn:A][qn:B][ep:G][np:C][nq:D]C[Although b7 is a good solid move, i would be more inclined to make a move at A/B or C/D to help develop your current moyo.

I would not worry about the ko at E since black also has a great move at k17, this would setup mulitple ko threats on the same group.

F and G can be miai to defend your group.];B[bm]C[this  compliments the stone at C13 and is very solid.]
;W[eq]
(;B[fp];W[cq]C[I end in sente and with bit influence.

This worked out great, playing it to the end is worth the sente.]
;B[jq];W[lq]LB[qn:B][mp:A]C[I felt that this was too close to me so I tried to punish with a move on the other side.  Is there a better way to do that?


Reviewer:  I would ignore this move, and play at k17.

I would not worry about punishing it right now.  I would consider the shoulder hit at n4, but r6 is good as a move to make later on.]
;B[qn];W[nc]C[this complicates things a bit.  It would be good to play a bit more conservativly as you did.  This helps in fixing up the problem at k17.

I would play k17 now and work with the complications.]
(;B[qf];W[kc]
(;B[pb]C[I was unsure about this move.  It would be joseki for him to take it, so I took it on that logic.  Perhaps leave it for something else?

I would have played r3 instead.];W[qg];B[pg];W[qe];B[pf];W[qh]
;B[rf];W[ph]
(;B[nq]CR[pj]TR[qg][ph][qh]C[In retrospect, I would like to have put pressure on his marked group.  Perhaps I should have played at the marked point.]
;W[np];B[qq];W[qp];B[pq];W[op];B[rp];W[ro];B[rq];W[qo];B[oq]
;W[om]SQ[qg][ph][qh]C[Now that group is nicely placed for him.

Reviewer:  If you build the base at r9 first, you would still have a convenient way to escape.  This has pulled white quite ahead.]
;B[mp];W[mq];B[mo];W[kp];B[jp];W[ko];B[mm];W[km];B[nl];W[ol]
;B[mj];W[in];B[ln];W[kn];B[ok];W[pk];B[oj];W[pj]C[This chase worked out quite well in your favour.]
;B[ne];W[md];B[me];W[jo];B[ld];W[lc];B[nd];W[mc];B[oh];W[oc]
;B[pc];W[od];B[oe];W[le];B[lf];W[kd]
(;B[ke]C[I shouldn't have played this.

Reviewer: I agree.];W[je];B[kf];W[jj]
(;B[dj]C[I was looking for an alternative to this move.  I didn't want to leave him invasion space.  I often have problems thinking something is territory when it isn't, so I was trying to avoid that.  I thought about E13.]
;W[cj];B[ci];W[di];B[ch];W[ej];B[dk];W[ei]C[Is there a better play here, or should I take the territory and be satisfied?

Reviewer: it was good to take the territory.  Black has solid territory and black can take away any change of large territory in the middle.]

(;B[ek]CR[ee][ig]C[Here I considered the marked points for carving out his moyo.  I decided on the one I did because I thought that I had potential for territory there, not just for destroying his.

Reviewer:  

The move at e15 has potential, but it gives white a solid wall for territory.

j13 is better in this situation, especially after e9.];W[fk]
;B[fl];W[gk];B[gl];W[hk];B[jf];W[ie];B[hg];W[kh]
(;B[lh];W[ki];B[lj];W[eo];B[dn];W[ep];B[fo];W[ip];B[iq];W[hp]
;B[hq];W[am];B[al];W[an];B[bl];W[df];B[cf];W[de];B[ih];W[dg]
;B[ge];W[gd];B[eh];W[dh];B[gh];W[fh];B[fg];W[eg];B[kk];W[jk]
;B[kl];W[jl];B[nn];W[on]C[As much as i don't like them, I would say this is a good time for both monkey jumps.]

(;B[pi];W[qi];B[oi];W[rg];B[db];W[eb];B[dd];W[ec];B[cb];W[ce]
;B[be];W[ob];B[kq];W[lp];B[mr];W[lr];B[ns];W[is];B[js];W[jr]
;B[ir];W[ks];B[hs];W[js];B[fr];W[er];B[es];W[ds];B[fs];W[cr]
;B[gp];W[hn];B[kr];W[ls];B[hl];W[il];B[kj];W[ji];B[fe];W[fd]
;B[if];W[li];B[mh];W[mi];B[ni];W[sf];B[se];W[sg];B[re];W[pa]
;B[qa];W[oa];B[qb];W[ql];B[so];W[sn];B[sp];W[rn];B[ea];W[fa]
;B[da];W[gb];B[gn];W[hm];B[gm];W[gi];B[hi];W[hj];B[ii];W[kg]
;B[lg];W[ff];B[gf];W[gg];B[hh];W[fg];B[ee];W[ms];B[nr];W[lm]
;B[ll];W[nm];B[no];W[oo];B[ml];W[ho];B[go];W[ij];B[ld];W[ef]
;B[hf];W[le];B[jg];W[ld];B[tt];W[lo];B[mn];W[tt];B[tt]TW[ga]
[ha][ia][ja][ka][la][ma][na][fb][hb][ib][jb][kb][lb][mb][nb]
[fc][gc][hc][ic][jc][id][jd][eh][rh][sh][fi][ri][si][fj][gj]
[qj][rj][sj][ik][qk][rk][sk][pl][rl][sl][im][jm][pm][qm][rm]
[sm][jn][pn][qn][ao][bo][io][po][ap][cp][aq][bq][dq][ar][br]
[dr][as][bs][cs]TB[aa][ba][ca][ra][sa][ab][bb][rb][sb][ac][bc]
[qc][rc][sc][ad][bd][qd][rd][sd][ae][pe][qe][af][bf][mf][nf]
[of][ag][bg][ig][mg][ng][og][ah][bh][nh][ai][bi][aj][bj][cj]
[nj][ak][bk][ck][lk][mk][nk][cl][dl][el][cm][em][fm][fn][gq]
[sq][gr][hr][or][pr][qr][rr][sr][gs][os][ps][qs][rs][ss]C[Looking at our territory at the end, his large right side makes me think that my move 37 was the biggest mistake I made.  Although I did get some territory on the bottom out of it, so I can't be sure.  Any other ideas you have for me would be much appreciated.  Thank you!

David])
(;B[si];W[sh];B[rh];W[ri];B[sg];W[rj];B[sj];W[sk];B[sh];W[rg]
;B[sf];W[rk];B[db];W[eb];B[dd];W[ec];B[na];W[ma];B[oa];W[nb]

(;B[cb])
(;B[fr];W[er];B[es];W[ds];B[fs];W[dr];B[kr];W[nr];B[or];W[mr]
;B[so];W[sn];B[sp];W[rn];B[cb])))
(;B[gi];W[fi];B[fg]C[I would ignore l12 and play something move like this.]
))
(;B[fg];W[hi];B[gm])
(;B[ee];W[fe];B[ef]))
(;B[ig]C[I would not worry about defending the invasion at d10 so much as I would take away the chance for white to run with his group.

White cannot invade until his group is alive.];W[dj];B[fj]C[With a good capping move, now white has much more to worry about.]
))
(;B[db];W[eb];B[dd];W[ec];B[ee];W[fe];B[ef]C[Since you still have 2 monkey jumps in your favour, I would secure this final corner instead of l15]
))
(;B[qk]LB[qh:A][pp:B]C[This would be acceptable.  It makes the black group more secure, and it now pressures both of whites groups.


The Group at A now has no base, and B still has a weakness at R3.]
))
(;B[qq];W[qp];B[pq];W[op];B[rp];W[ro];B[rq];W[qo];B[nq]))
(;B[qq];W[qp];B[pq];W[op];B[rp];W[ro];B[rq];W[qo];B[nq])
(;B[jc];W[lc];B[je]C[Although black is not quite secure, white has 2 fairly weak groups to worry about.]
))
(;B[ep]C[I would go for the double hane here.

There are no good variations for white, other than connecting at d3.]

(;W[fp];B[eo]
(;W[fr];B[gq];W[gr])
(;W[gq];B[fr]))
(;W[dq];B[fp])))
(;B[qn];W[nq];B[rp];W[qq];B[qk]LB[jc:A][fq:B]C[This would leave black with a better moyo and an approach at A would be very severe and large for black.

B is also very large and it impedes whites chance to expand on the bottom.]
))
(;B[dn]C[I find this better compliments the current stone setup, and is quite a pressing move.   It would also inspire black respond with f4 or f3 instead of the tenuki.

There are a few variations.

I listed 2 possible variations that would compliment your current stones.]

(;W[en];B[em];W[eo];B[dl];W[cn];B[cm];W[co];B[ch]C[this could have been a possible joseki variation.  this lets you gain lots and the move on the 4th line compliments the c16 move.  it also stops white from getting much out of an e16/e17 approach.]
)
(;W[cn];B[cm];W[co];B[dl];W[fp];B[ci])))
