(;FF[4]GM[1]SZ[19]ST[2]CA[UTF-8]AP[SGFC:1.15]

GN[salvor7-RikiTiki-240083-20061004]
PB[Joshua (RikiTiki)]
BR[4k]
HA[2]
PW[salvor7 (salvor7)]
WR[4k]
KM[0.5]
DT[2006-09-07,2006-10-04]
PC[Dragon Go Server: http://www.dragongoserver.net/]
RE[B+Resign]
RU[Japanese]
GC[Game ID: 240083, rated]

AB[pd][dp]C[Andrew, my name is Frank, I will be reviewing your game.  My comments and variations are scattered throughout.  I think the game became difficult early on because of a few early mistakes.  From then, it was basically uphill.  In terms of endgame, I'm not sure if there is much to be said.  You did a pretty good job of keeping sente and B made some big mistakes.  The biggest thing though is just maintaining focus.

I hope this review helps.



I'm basically looking to get a feell for what mistakes I made throught out.  The game ended up very very close, but it felt that I was catching up for the whole game.  the a few mistakes in the end game cost me 1 or 2 points, which made it a black win by 1.  I would like to know how I might have gotten ahead a bit faster, and some of the places I gave up initiative early.

I've pointed out some of the mistakes I'm awareof throughout.

I'm also particularly interested in whether my end game choices, and move orders could have been improved.]
PL[W];W[dd];B[pp];W[cn];B[fq];W[nc];B[ph];W[jd];B[df]C[Perhaps just normal joseki is better here.  See variation.]

(;W[gd];B[cd];W[cc];B[ce];W[dc];B[ck];W[bp];B[cq];W[en];B[jp]
;W[gn];B[ek];W[eq]C[This is a bit strange.  I'd personally go in the direction of R6 kakari.]
;B[ep];W[bq];B[br];W[qj]C[Q12 was initially a bad move.  This helps to make it efficient..

If you kakari Q4, you can still aim for the 3-3 point at R17 later on..

I feel like this was the start of your troubles in being behind in territory...]
;B[qh];W[qm]
(;B[qo]TR[qj][qm]C[Although B does not eventually do it, S8 or so will either split this group or destroy its base...]
;W[hp];B[fo];W[fn];B[go];W[dr];B[cr];W[hn];B[ho];W[ip];B[io]
;W[jq];B[kq];W[kp];B[jo];W[kr];B[lq];W[lr];B[mq];W[ir];B[hq]
;W[hr];B[gq];W[iq];B[mr];W[js];B[pl];W[ql];B[pj];W[pm];B[qk]
;W[rk];B[pk];W[ri];B[bm];W[gk];B[pc];W[rh];B[qf];W[jm]TR[ne]
[di]C[The group seems ok..this move seems a bit directionless..

How about something in the area of the marked points?];B[ne]
;W[md];B[ff];W[dj];B[ci];W[dk];B[cl];W[dl];B[cm];W[dm]C[Very nice of B :)]
;B[ll];W[om];B[mk]
(;W[me];B[nf];W[mf];B[jk];W[mh];B[hf];W[ge];B[gf];W[cj];B[bj]
;W[bn];B[il];W[bi];B[bh];W[bk];B[ai];W[bl];B[ob];W[nb];B[im]
;W[rn];B[ro];W[se];B[re];W[sf];B[sd];W[rg];B[rd];W[so];B[sp]
;W[sn];B[rp];W[bc];B[fd];W[fe];B[id];W[ie];B[he];W[hd];B[ic]
;W[jc];B[ee];W[ed];B[gc];W[fc];B[hc];W[fd];B[if];W[je];B[jf]
;W[oo];B[nn];W[po];B[op];W[no];B[mn]
(;W[ls]C[Yes this seems pointless.  See variation.

I think this was a mistake.  L14 is obviously, in retrospect, needed to prevent scores of aji around k18.]
;B[ke];W[kd];B[mg];W[lg];B[ng];W[kf];B[kg];W[lf];B[lh];W[kh]
;B[li];W[jg];B[ms];W[np];B[nq];W[mo];B[lo];W[fr];B[gr];W[gs]
;B[ei];W[di];B[dh];W[ej];B[fi];W[ki];B[kj];W[af];B[bf];W[ae]
;B[ag];W[bd];B[gl];W[cg];B[be];W[ad];B[bg];W[ch];B[bi];W[eh]
;B[dg];W[fh];B[gj];W[gi];B[fj];W[fk];B[hj];W[hh];B[ih];W[ig]
;B[hg];W[ii];B[hi];W[gh];B[ij];W[ji];B[ak];W[am];B[fl];W[el]
;B[hk];W[lj];B[mi];W[mj];B[ni];W[jj];B[kk];W[nk]C[This was a wasted move.  I thought I saw something that wasn't there.]
;B[ol];W[nm];B[nl];W[lp]C[I thought there was more here, and played this.  Only after did I realize he had a snap back defense, so this was 2 points wasted.]
;B[mp];W[mm];B[lm];W[ml];B[nj];W[on];B[ln];W[gp];B[fp];W[in]
;B[jn];W[oa];B[pa];W[na];B[eg];W[kg];B[fg];W[jh];B[qi];W[rj]
;B[qn];W[rm];B[dq];W[er];B[ds];W[fs];B[rf];W[oc];B[pb];W[sg]
;B[ek];W[qg];B[pg];W[od];B[oe];W[do];B[ar];W[de];B[fk];W[cp]
;B[aq];W[ap];B[ef];W[fm];B[hm];W[pn];B[nd];W[qq];B[qp];W[rq]
;B[or];W[pr];B[rr];W[rs];B[sr];W[hs];B[cf];W[al]C[I had known that C14 was sente, but knew I was a point behind for sure, and let my mind wonder.]
;B[gg];C[Result: B+Resign]N[RESULT])
(;W[kf])
(;W[eh]C[Cleanly kills the territory here.]))
(;W[lf]C[A little faster like this.  Gives you a chance to play elsewhere..]
))
(;B[pc]C[This would be difficult for W in terms of territory..]
))
(;W[fd];B[cd];W[cc];B[ce];W[bc];B[cj]))
