(;FF[4]GM[1]SZ[19]ST[2]CA[UTF-8]AP[SGFC:1.15]

PB[Rocco]
BR[3k]
WR[2k]
KM[0.5]
DT[2006-10-24]
PC[The KGS Go Server at http://www.gokgs.com/]
RE[W+Time]
TM[900]
OT[3x20 byo-yomi]
RU[Japanese]

C[Dear reviewer, Thank you very much for review!   ^_^

-----

Hello, I am Usagi on KGS. I am pleased to have been given this chance.

As an overall observation, you played well, but you are far too concerned with saving one or two stones! You could have taken control much earlier and entered the middlegame with a comfortable 10 or 20 point lead (see variations). 

Also, even in the middlegame, it seemed you missed a few golden opportunities to decisively win the game. For example, n8 should be at n5!

Enjoy the review.];B[pd];W[qp];B[dd];W[dp];B[op];W[mq];B[qq]
;W[pq];B[pp];W[oq];B[nq];W[np];B[nr];W[qr];B[rq];W[or];B[qo]
;W[mr];B[no];W[mp]LB[jd:C][pj:F][qj:E][cn:B][on:A][fq:D]C[usagi: Good. So far, you have played very well. Your next move, at 'A' however, is too early (please see variation "Hua Yigang, 8p - Wang Jianhong, 8p, W+0.25 (Komi 2.75)
2nd Bawang, Stage 3, 1995-11-07").

It is not neccessary to protect this area right now.

Note that black A is not sente. B is sente, and is therefore good for black, better than A. Pros have also played C in this position, due to black controlling the lower right quadrant of the board, C also feels good here. D, E and F are also okay, although I do not like that style. I feel you should be active when possible. Here, I feel B is the correct move.

Please see the vartiation for an example.]
(;B[on]C[usagi: overconcentrated. White will now take a large point in the fuseki.]
;W[rr]C[usagi: In the opening one must tread lightly as if walking on eggshells.

Here white has threatened two stones. However, black has protected in the center with P6.

I think black should move at K16 now. If we were to follow the professional game from before, it does not look as if white would have a good continuation. After all, black P6 is a move the pros play later on - it makes sense that giving up those two black stones is now a good idea ( see var )]

(;B[rp];W[nc]C[Is o16 better than r14?

usagi: I think r14 is best.]
(;B[qf];W[pb]C[usagi: The key here is not to push white UP. White made a LOW move and you must force him to remain low. Watch how this is done at R17 (see var)]

(;B[lc]C[usagi: this might be a bad move. Consider your thickness! See variation where black moves r17 instead.]
;W[ne]LB[ng:1][og:2]C[what about A and B here?

usagi: The key is not to push white up. See variation where black moves r17 instead of m17.

But, to answer your question, 1 or 2 looks good. The key is that in doing so, you seem to have changed your plan of m17...]
;B[pi];W[qc];B[md];W[nd];B[lf];W[re];B[rf];W[qe];B[pe];W[pf]
;B[pc];W[rb];B[pg];W[of];B[ni];W[qg];B[qh];W[rg];B[rh]LB[cn:A]
C[usagi:  Considering what should have happened (see variations) this is a disaster, although it does have its merrits due to your thickness on the bottom right. Paramount is if white is silly enough to capture those 2 stones :) Then, black A almost wins the game for you.]
;W[sf]C[usagi: VERY SMALL. White should move C14 instead. Who cares about 2 stones?

This idea "who really cares about 2 measly stones" is the major problem in the opening for both players, like S2 and S4 moves, and here too. 

This is the most important thing you can learn from this game.]

(;B[gc]LB[cg:A][dj:B][jj:C]C[Is A better than G17?
With A i create big moyo, right?
I tought even  amove like B and C.
What about B and C instead of g17?



I have an other question:
How I coud approach D4?
Maybe I did a mistakle there, may you correct it?

usagi: c6 best, see the variation for black c6 instead of this move.]
;W[cj]C[usagi:  Not taking this point may be the losing move.
Your moyo has been deflated. You could press down at E10 but white has already made enough territory to compensate.

I would have to say G17 is korigatachi. Why consolidate when you can expand? Here, white expanded his own space while you contracted. That is why white was in the lead.]
;B[fq];W[hq];B[dn]C[usagi: 
Well, it seems that the play here becomes chaotic.

At all times you must play simply and properly, and then you will not be bogged down in useless fighting.

the direction here is that white gor C10 which was against blacks plan. Both white and black played many small moves in the opening, and did not take sente or big fuseki points.

Good luck! I will have a look at the rest of the game and provide some variations or answer questions, but the bulk of the review stops here.]
;W[en];B[cq];W[cp];B[dq];W[ep];B[fr];W[dm];B[bp];W[bo];B[bq]
;W[cn];B[hp]LB[cd:A][ko:B]C[usagi: I think A or B is better.]
;W[gp];B[iq];W[gq];B[ip]LB[cd:B][in:A][ko:C]C[Was A better than j4?




Well, I finished with questions.
Thank you very much for review!

usagi: to answer, it seems that either A or j4 is just running away and not making any points. It would have been better to not have made this group :) see variation where black moves B or C instead.]
;W[gn];B[in];W[ln];B[il]LB[mm:B][ko:C]C[You would have liked to move at 'B' here, or 'C' before this!!]
;W[ll];B[mm];W[lm];B[kq];W[nk]C[usagi: White has made a terrible mistake.]

(;B[ml]LB[mo:B]C[usagi: Oops!!! You missed out here. You should have cut at B! (see variation).

Never make this kind of mistake if you can help it. If you must, then you must play with more byo yomi time.]
;W[mk];B[lk];W[mi];B[nh];W[lj];B[kk];W[mn];B[ol];W[kp];B[hr]
;W[ji];B[kj];W[ki];B[lh];W[li];B[ej];W[ok];B[pk];W[kg];B[lg]
;W[jf];B[ig];W[jg];B[jd];W[hj];B[ik];W[hh];B[ci];W[dj];B[di]
;W[ei];B[ek];W[dl];B[gi];W[eh];B[hi];W[ij];B[gh];W[cg];B[hg]
;W[gk];B[fm];W[gm];B[fo];W[fp];B[go];W[fn];B[gj];W[hk];B[ii]
;W[jj];B[kl];W[bd];B[cc];W[bc];B[bb];W[eq];B[gr];W[er];B[dr]
;W[ds];B[cs];W[es];B[br];W[fd]C[kykoo [3k?\]: I had a little fear
kykoo [3k?\]: :-)];B[gd];W[ff];B[fc];W[ge];B[he];W[ie];B[gf]
;W[hd];B[fe];W[id];B[je];W[if];B[ic];W[hc];B[ib];W[hb];B[fg]
;W[dg];B[de];W[ce];B[cd];W[be];B[fj];W[kb];B[jc];W[lb];B[kc]
;W[mh];B[nj];W[mj];B[mf];W[ng];B[jb];W[mc];B[fl];W[hm])
(;B[mo]
(;W[lo];B[lp];W[lj];B[ij];W[jo];B[io];W[kp];B[lq];W[jq]C[doesent work for white!]
)
(;W[lp];B[lo];W[kp];B[ko];W[jp];B[jo])))
(;B[cn]
(;W[dk];B[en];W[fp];B[bp];W[cq];B[bk]C[usagi: GOOD for black :> black takes the last big point. White has no good approach now.]
)
(;W[fp];B[bp];W[cq];B[ck]C[usagi: Again good for B - black takes the last large point.]
)
(;W[cl]C[usagi: this looks like a mistake.];B[en];W[fp];B[dk]
C[usagi: blacks moyo is too large, and black can invade or reduce the bottom as he sees fit.]
)))
(;B[qc];W[kc];B[ld]LB[cn:A]C[usagi:  You dont have to move here right away. 'A' might be better. But this is an important kind of press-down sequence which is very useful in an actual game.]
;W[lc];B[nd];W[md];B[me];W[mc]
(;B[ne];W[le];B[lf];W[ke];B[kf];W[je];B[cn])
(;B[le];W[od];B[oe];W[ne];B[nf];W[pe];B[of];W[pc];B[qd];W[cf]
C[usagi:  Black lost sente so connecting at N14 (see variation) is better than connecting at P14.]
)))
(;B[nd];W[md];B[oc];W[ne];B[od];W[me];B[pf]C[usagi: Point here seems to be white has some power in the center. It seems you have pushed white into the center. You should move Q14 or R14 directly, it seems.]
)
(;B[pf]C[usagi: I think you actually want to play this move, due to your thickness on the bottom right.]
;W[qh]
(;B[qj];W[oh]TR[pd][pf]C[usagi: this is not good!

Remember your thickness.])
(;B[og];W[qk]C[usagi:  This move is bad. Consider-white has greedily grabbed territory, furthermoe his two stones have no real way to expand.]
;B[kd]C[usagi:  Now black takes control of the game.]))
(;B[kd]C[Another interesting option is the pincer, because you will naturally make territory on the right side, and it is difficult for white to fight or do a double approach because you also have a stone at D16.

Pushing white "up" here is the only bad thing I can think of about this move, but perhaps it makes good enough shape with D16 to make it OK.. White will certainly move o15, if white moves at R17 now he might as well resign.]
))
(;B[jd];W[rp]C[usagi: If white is silly enough to attack here,]
;B[ro];W[sq]
(;B[pi]C[usagi: I don't think white can win this game.])
(;B[cn]C[usagi: I don't think white can win this game.])
(;B[fq]LB[pi:B][cj:C][dj:D][ck:F][dk:E][cn:A]C[usagi: This is a move too, but, I dont like it. I prefer A or B.

C, D, E and F are all slack, I feel, but the position is such it might not matter.]
)))
(;B[cn]
(;W[fp]C[usagi: Hua Yigang, 8p - Wang Jianhong, 8p, W+0.25 (Komi 2.75)
2nd Bawang, Stage 3, 1995-11-07];B[dj];W[fc];B[hc];W[cc]
(;B[dc])
(;B[cd];W[dc];B[ed];W[fb];B[ge];W[qf];B[nd];W[rd];B[en];W[co]
;B[bn];W[gn];B[qi];W[qc];B[on]C[usagi: It's interesting that this move is eventually played. It's good, but, too early.]
))
(;W[dk]C[usagi: Takagawa Shukaku, 8p - Maeda Nobuaki, 8p, W+R (Komi 0)
2nd Saikoi League, 1956-09-12];B[en];W[fp];B[bp];W[cq];B[bk]
;W[jc];B[gn];W[fc];B[df];W[qf];B[qe];W[pf];B[nc];W[qj];B[hc]
))
(;B[jd]LB[cf:A][qf:B][qi:C]C[usagi: a, b, and C all possible moves for white now.

I wont comment on C because I personally dont think it's as good as A or B. I'll leave it as an exercise to the reader.]

(;W[cf]C[usagi: Ishige Kakuo, 6p - Cho Nam-ch'eol, 7p, B+R (Komi 5)
Korea-Japan Match, Round 3, 1962-10-31];B[di];W[cc];B[dc];W[cd]
;B[de];W[df];B[ce];W[be];B[bd];W[bc];B[bf];W[ad];B[ef];W[eg]
;B[dg];W[cg];B[bg];W[ch];B[dh];W[bi];B[ff];W[lc];B[jc];W[pc]
;B[qc];W[oc];B[qd];W[od];B[pf];W[kb];B[jb];W[oe];B[pi];W[qm]
;B[on])
(;W[qf]C[usagi: Sugiuchi Masao, 8p - Takagawa Kaku, 8p, B+0.5 (Komi 4.5)
13th Honinbo Final, Game 6, 1958-09-01];B[qh];W[qc];B[pc];W[qd]
;B[pe];W[rf];B[og];W[di];B[ck];W[cf];B[cn];W[hc];B[fc];W[he]
;B[ef];W[jb];B[hb];W[ic];B[ce];W[df];B[de];W[eg];B[ff];W[bj]
;B[bk];W[dn];B[co];W[do];B[cp];W[dq];B[ek])))
