(;FF[4]GM[1]SZ[19]ST[2]CA[UTF-8]AP[SGFC:1.15]

PB[spingle]
BR[4k]
HA[0]
PW[EmTom]
WR[2k]
KM[6.5]
DT[2006-10-18]
PC[The KGS Go Server at http://www.gokgs.com/]
RE[W+15.50]
TM[1800]
OT[5x30 byo-yomi]
RU[Japanese]

C[Please comment this sgf for both players as we play together a lot.


Spingle: Throughout this game there is a weak white group on the top side. I never managed to find a way take profit from it. A few suggestions would be good - I personally am not really interested in the endgame. Just made a few silly mistakes and missed a tesuji.

Thanks a lot for you time and help.];B[pc];W[dp];B[dd];W[pe]
;B[qg];W[qc];B[pd]LB[qd:A][qe:B]C[EmTom: How should white play in now?

PC: (1) Instead of Black's move, the usual idea is to play 'a', followed by White at Q16 and Black 'b'. After that things get complicated.
(2) For White, 'a' (as actually played) is the only move: it keeps the White stones connected and leaves Black short of liberties.]
;W[qd];B[oe];W[pb];B[ob];W[od];B[oc];W[of]
(;B[ne]LB[nd:B][qe:A]C[PC: Other options here are cutting at 'a' and capturing at 'b' - see the variations. In both cases Black gets a decent corner while White gets outside influence and thickness.]
;W[qf];B[nf];W[og];B[pp];W[nq];B[qn];W[jp];B[id]LB[cn:D][dj:C]
[nd:B][qb:A]C[PC: The Black upper-right group has the captures at 'a' and 'b', so it's pretty strong. That makes Black's move look too close - I'd think of playing something like 'c' or 'd' instead.]
;W[cf];B[ch]TR[id]LB[be:A]C[spingle is this good? - wanted to induce 3-3 invasion

PC: This isn't bad, though if White invades at the 3-3 point the triangled Black stone will be a little over-concentrated. One alternative is to play the "footsweep" move at 'a', preventing the 3-3 invasion and daring White to invade between the 4-4 stone and the triangled stone.]
;W[dh];B[ci];W[fc]TR[id]LB[cl:C][ef:A][fd:B]C[EmTom: I wasnt sure if it was good idea. What do you think?

PC: I believe it's a joseki but in this position, with the triangled Black stone closer than normal and having backup to its right, it looks too agressive to me.  Perhaps play something like White 'a' Black 'b' White 'c' instead, with the 3-3 invasion still available to play later.]
;B[ee]
(;W[bd]C[PC: I'm dubious about this, as it's difficult to find room for two eyes on the left and White loses the possibility of playing the 3-3 invasion. Playing the 3-3 point immediately looks better - see variation.]
;B[cc];W[hd];B[ic];W[ef];B[ge];W[he];B[ff];W[ie]
(;B[je]LB[gd:B][gf:C][hc:A]C[PC: This looks like a good time to get in the move at 'a', threatening to cut. If White answers at 'b' then Black can play the game move having improved his stones' liberties. It does give White the atari at 'c', which leads to some interesting fighting, but it looks OK for Black - see variations.]
;W[jf];B[ke];W[cd];B[bc];W[de];B[ed];W[ac];B[ab]LB[dc:A]C[PC: Risky. If White cuts at 'a' now, some of the Black stones are likely to end up captured - see variations.]

(;W[ad]
(;B[cb]LB[bb:B][eb:A]C[PC: 'a' is better shape and creates threats against the top White group. The cut at 'b' doesn't give White an eye, so it's not a major concern at the moment.]
;W[eg]
(;B[cn]LB[cl:B][hg:A]C[spingle: wanted to keep possibility of corner invasion open + force him to push me into center ... probably not a good idea?

PC: I'd concentrate on keeping the two White groups separated and the getting Black group into the centre, e.g. with a move like 'a'. The White group on the top is weak, and the one on the left still needs another move to make two eyes.

If you want to play a move to strengthen your left edge group, the move played leaves a large gap. I'd prefer a more conservative extension, such as 'b'.]
;W[cl];B[ck];W[dl];B[ej];W[co]
(;B[fh]C[spingle: c13 instead?

PC: Yes, it removes White's eyes and gives the Black group more eye space, so both Black groups end up stronger than both White groups in the top left. The fight looks good for Black - see variations for some possibilities.]
;W[cg];B[hq]TR[ch][ci][ck][ej][fc][hd][he][ie][jf]LB[mi:C][ng:A]
[oh:B]C[PC: I'm dubious about this because it seems unrelated to the rest of the board. At the moment there are two weak groups (trianged), one for each side, so I'd prefer a strategy that took them into account. E.g. Black could threaten to capture the White stones on a large scale starting with Black 'a', White 'b', Black 'c', looking to reinforce his own weak group in the course of the fight.]
;W[fq];B[ho]
(;W[dn]C[EmTom: I also considered f5 but i thought that its better to capture c6.

PC: I think F5 also captures the stone, though obviously more loosely (see variations). Your move solves all your problems on the left, but I wonder whether it's good enough to win. A quick count:

White
  bottom left: 23 points
  top left: 7 points
  top right: 15 points
  total 45 points

Black:
  top left: 5 points
  top edge: 26 points
  bottom right:about  10 points
  total: 41 points

Black has sente, which makes the score close, but both sides have weak groups to worry about, adding uncertainty. Not an easy decision, but I prefer F5.]
;B[jr];W[pr];B[qq];W[kq];B[pj]LB[kr:A]C[PC: Greedy. A White move at 'a' now damages the Black group's eye space and means it has to run, setting up a splitting attack on the left side group.]
;W[hm];B[kr];W[lr];B[lq]TR[fc][hd][he][ie][jf]LB[lp:A][mp:C]
[mq:B]C[EmTom: I wasnt really sure what to do about it... Maybe better idea was just to connect on the outide?

PC: The problem with connecting on the outside (White 'a', Black 'b', White 'c' etc) is that you White ends in gote with the Black stones settled, allowing Black to start a large scale attack on the triangled White stones.]
;W[lp];B[mq]
(;W[mr]LB[mp:A]C[PC: See the variation for the move at 'a'.]
;B[mp];W[lo];B[np];W[oq]
(;B[jq]TR[lr][mr][nq][oq][pr]LB[in:B][op:A]C[PC: Better to connect at 'a'. threatening to kill the triangled White group. White will have to live in gote, giving Black the opportunity to attack the other White stones with a move like 'b'.]
;W[op];B[oo];W[no];B[kp];W[po];B[qo];W[mo];B[on];W[kq];B[lq]
;W[jo]
(;B[gr]LB[fr:A]C[PC: 'a' is a better attempt at settling the group.]
;W[fr];B[in];W[im];B[pg];W[pf];B[oi]LB[gp:C][hp:D][jn:E][ph:A]
[rg:B]C[Spingle: This move seems poor ... any suggestions?

PC: P11 doesn't accomplish much, as White can still play 'a'. If you want to play on the right then 'b' is a critical point. However, the right side isn't the biggest area at the moment - the Black group at the bottom doesn't have two eyes, and can easily die after White 'c', Black 'd', White 'e' (see variation on next move).]

(;W[hc];B[jn];W[kn];B[fs];W[es];B[gs];W[er];B[ib];W[eb];B[db]
;W[ec];B[dc];W[fd];B[fe];W[ba]C[EmTom: This was silly and black didnt have to answer right?

PC: Yes, Black could ignore this, though answering does at least give one eye.]
;B[ca];W[hg];B[fg];W[di];B[dj];W[hi];B[gj];W[ir]LB[gp:A][hp:B]
[jm:C]C[PC: Better to shut the group in with White 'a', Black 'b', White 'c', forcing it to live in gote.]
;B[iq];W[is];B[jm];W[ik];B[jl];W[ll];B[jk];W[ij];B[lk];W[mk]
;B[lj]
(;W[pm]LB[ph:A]C[EmTom: I wanted to reduce the right side now. It didnt really work. Any better reducing moves?

PC: 'a' leads to some interesting sequences - see the variations.]
;B[om];W[ol];B[pl];W[pk];B[ql];W[ok];B[qk];W[jj];B[kk];W[kf]
;B[mm];W[le]
(;B[ld]LB[kc:A]C[PC: 'a' defends better.];W[kd];B[jd];W[md]
;B[lc];W[me];B[nd]
(;W[mh]LB[lf:A][lg:C][mf:B][mg:D]C[spingle: is this w the best? (n17 was expected)

PC: N17 allows the cut at 'a', but after White 'b', Black 'c', White 'd' White will either capture the Black cutting stones in a ladder or connect to the right. So N17 was better here.]
;B[mc];W[lm];B[ml];W[nm];B[mj];W[nk];B[ni];W[rg];B[rh];W[qh]
;B[ph];W[sh];B[ri];W[bk];B[bj];W[bl];B[bg];W[bf];B[ah]LB[qb:C]
[qs:B][rf:A]C[PC: 'a', 'b' and 'c' are all bigger.];W[rr];B[qr]
;W[qs];B[rq];W[gq];B[hr];W[go];B[hn];W[gn];B[eh];W[dg];B[fl]
;W[rf]C[spingle: oops];B[lf];W[lg];B[mf];W[ki];B[sr];W[nn];B[pn]
;W[rj];B[qi];W[si];B[rk];W[qb];B[gb];W[hb];B[ha];W[fm];B[el]
;W[em];B[gl];W[li];B[rs];W[ps];B[sk];W[sj];B[pa];W[qa];B[oa]
;W[af];B[pq];W[or];B[ak];W[al];B[aj];W[dk];B[cj];W[ag];B[bh]
;W[nh];B[mg];W[lh];B[ls];W[ms];B[ks];W[mq];B[kq];W[ko];B[ek]
;W[gi];B[fi];W[hk];B[gk];W[hp];B[ip];W[gp];B[io];W[fa];B[ga]
;W[fb];B[hf];W[if];B[gf];W[gc];B[ia];W[hh];B[qj];W[sg];B[oj]
;W[mn];B[nj];W[nl];B[tt];W[tt]TB[aa][ai][ba][bb][bi][fj][fk]
[hs][ir][is][ja][jb][jc][js][ka][kb][kc][kd][la][lb][le][ma]
[mb][md][me][na][nb][nc][od][pi][pm][po][qh][qm][qp][rl][rm]
[rn][ro][rp][rr][sl][sm][sn][so][sp][sq][ss]TW[ae][am][an][ao]
[ap][aq][ar][as][be][bm][bn][bo][bp][bq][br][bs][ce][cm][cn]
[cp][cq][cr][cs][df][dm][do][dq][dr][ds][en][eo][ep][eq][fn]
[fo][fp][ig][ih][ii][jg][jh][ji][kg][kh][ln][ml][mm][mp][np]
[nr][ns][os][qe][ra][rb][rc][rd][re][sa][sb][sc][sd][se][sf]
)
(;W[mc];B[lf];W[lb];B[kc];W[mf];B[lg];W[mg];B[ng];W[lh];B[kg]
;W[jg];B[kb];W[qb];B[nh]))
(;B[kc];W[ld];B[lc]))
(;W[ph];B[qh]
(;W[qi];B[ri];W[qj]
(;B[oh];W[pk];B[ok];W[pi]
(;B[oj];W[rj];B[rh];W[pl];B[rf];W[re];B[sg];W[si];B[rl];W[qk]
;B[ol];W[sj];B[pm];W[sh])
(;B[rj];W[oj];B[qk];W[pj];B[pl];W[nj];B[rl];W[rf]))
(;B[qk];W[rj];B[pi]
(;W[rh];B[rg];W[si];B[oh];W[rk];B[re];W[qe];B[rf];W[ng];B[mg]
)
(;W[rg];B[rh];W[sh];B[oh];W[si];B[ph];W[rf];B[rk])))
(;W[rf]
(;B[qi];W[si])
(;B[rg];W[qi];B[ri];W[sg];B[rh];W[rj];B[qj];W[si];B[pi];W[sh]
;B[oh];W[rk]))))
(;W[gp];B[hp];W[jn];B[ir];W[hs]
(;B[ip];W[gs])
(;B[gs];W[ip])))
(;B[fr]
(;W[gr];B[gq];W[er];B[fp];W[eq];B[hr];W[fs])
(;W[er];B[gr];W[eq])))
(;B[op];W[qr];B[rr];W[ns];B[in]))
(;W[mp];B[mr];W[nr];B[ls];W[op];B[gj];W[hg];B[fg];W[kf];B[le]
;W[ng];B[lf];W[lg];B[hc];W[gd];B[pg];W[pf];B[rg]))
(;W[fo]
(;B[dn];W[em];B[en];W[fn];B[fm];W[fl];B[gm])
(;B[em];W[dn];B[dm];W[cm];B[bn];W[bo];B[bl];W[bm])
(;B[dm];W[el];B[em];W[fm];B[fl];W[fn];B[cm];W[bl];B[fk];W[en]
;B[bm];W[dn])))
(;B[cg]
(;W[gh];B[dg];W[df];B[eh];W[fg];B[hf];W[if];B[hg];W[eb];B[db]
;W[ec];B[dc];W[fd];B[fe])
(;W[fg]
(;B[dg]
(;W[df])
(;W[gf]
(;B[fe];W[df];B[gg];W[hf];B[gh];W[eb];B[db];W[ec];B[dc];W[ba]
;B[bb];W[gd])
(;B[df];W[fe];B[ce];W[fd])))
(;B[hf];W[gg];B[gf];W[if];B[dg];W[df];B[hg];W[fi]))))
(;B[hg];W[ig];B[fh];W[fg];B[gg];W[fi];B[hi])
(;B[cl];W[gg];B[hf];W[if];B[hg];W[fg];B[gf];W[fd];B[fe];W[eb]
;B[db];W[hc];B[hi];W[kf];B[le];W[ib];B[jb];W[gb];B[gd];W[gc]
;B[ia];W[ha];B[hb];W[ng];B[lf];W[ib];B[ja];W[hb];B[kc]))
(;B[eb];W[ec];B[dc];W[fb];B[db];W[fd];B[eg];W[df];B[fe];W[dg]
;B[hc];W[gd]))
(;W[dc]
(;B[ec];W[db];B[ad];W[eb];B[gd];W[gc]
(;B[hc];W[fe];B[fd];W[gf])
(;B[fe];W[eg]
(;B[hc];W[gg];B[be];W[ce];B[bf])
(;B[hg];W[ae];B[hc])))
(;B[db];W[ec];B[ad];W[fe];B[fd];W[gd];B[fe];W[fg])))
(;B[hc]
(;W[gd];B[je];W[gf];B[fe];W[fg];B[hf]
(;W[gg];B[if];W[jf];B[hh];W[kf];B[ke];W[le];B[kc];W[md];B[nd]
;W[lf];B[jh];W[lc];B[kb];W[lh];B[eg];W[df];B[eh])
(;W[if];B[gg];W[hg];B[fh];W[eg];B[gf]))
(;W[jd];B[gd];W[jc];B[gc];W[ke];B[jf];W[je])))
(;W[cc];B[dc];W[cd];B[dg];W[de];B[df];W[ce];B[ed];W[cg];B[fg]
))
(;B[nd];W[ne];B[qe];W[od];B[pf];W[oe];B[re];W[nc];B[qb];W[nb]
;B[pa];W[md])
(;B[qe];W[ne];B[pf];W[oe];B[re];W[nc];B[nb];W[mc];B[qb];W[pg]
;B[qh];W[qf];B[rf];W[pi];B[qi];W[pj];B[qk]))
