(;FF[4]GM[1]SZ[19]ST[1]AP[SGFC:1.15]

PB[mikao]
BR[14k]
PW[phonon]
WR[12k]
KM[7.5]
DT[2006-11-15]
PC[The KGS Go Server at http://www.gokgs.com/]
RE[W+13.5]
TM[1800]

C[Bonjour, nous voudrions savoir :

  - Quels sont les mauvais coups ?
  - Les coups importants que nous avons oublier de jouer, ... ?
  - Dans certaines séquences de coups, comment les terminer en gardant le senté .
 - Quels sont les "petits coups" que nous avons jouer au lieu des "gros coups" ?
 - Quelles sont les extensions logiques que nous n'avons pas bien jouer ?

Tous les conseils nécessaires afin que nous puissions progresser sont les bienvenus ...

Merci d'avance
                                    --------------------------------

Hello, we would know  :

  - what was the wrong movements ?
  - what was the importants move we have forget ?
 - and how to keep sente .
 - what was the "slow move" that we play than "big move" ?
 - what was the logic extansion that we dont played ?

All piece of advice for we progress are  welcome ...

Thanks you

rag: i have noted a few points that hopefully will be of help]
;B[pp];W[dd];B[pc];W[dp];B[fq];W[fp];B[gp];W[fo]
(;B[jp]MA[gq]LB[mq:C][cj:B][pe:A]C[how to answer when my opponent don't play the joseki ?

rag: first of all, joseki is pro-level play.  it's like walking a tightrope; one false step and you fall off completely.  deviating early in a joseki is safer than later on when there's more at stake.

i think the meaning of E3 is to protect the cut at G3, threaten to push through at E4 and all also open the possibility of a slide into the corner during the yose phase.

so E3 would have been a very good move.  but unless you know why you are playing it, i think it's better not to play it at all.

black played K4 instead.  this is not a bad move.  it reaches towards Q4 aiming to make a position on the lower right side.

if white wants to lose sente, she can catch F3.  Eg..., G3; H3, G2; H2,F2. 

but sente is worth much more than the few extra points for capturing one stone.

if i were white, i might be tempted to play E3 myself.  but it is a bit slow, and doesn't completely remove the aji of a corner invasion at C3 (imagine black gets to play C6 at some stage).

other than that, A and B come to mind.

one thing not to do at this early stage would be to jump right in at C and create a target for black to attack.]
;W[eq];B[gr]C[rag: yose move];W[cn]C[rag:slow but solid, defending against corner invasion.  but now black is strong in lower side and can turn elsewhere.]
;B[cf]MA[qj][pe]LB[ci:A]C[rag: not so good.  makes a target for white to attack by a move like A which looks to make lower side territory.

white would like to play around D11 anyway; this just makes it even better for him.

white would be better to make a shimari in upper right or take the big point in the middle of the right side.  Later on she can aim at invading white's left side.]
;W[fd]C[rag: passive response allowing black to make a position on left side.

if the lower left were wide open, this would be a good white response - it's even a joseki - but here it doesnt use the white strength in the lower left.]
;B[ci]C[rag: yes, good move];W[ce]C[rag: attachments are usually defensive actions.

it looks as if white is playing the "attach and jump joseki", but in the wrong order and for the wrong reasons.  the attach is played to force black to play another move after nobi at D14 so white keeps sente.

but here white aleady has - had! -  sente.

once again, the right side looks a better place to play.

the two black stones on the left are light and can rescue themselves or run to the centre later.]
;B[ef]MA[cl]C[rag: trying to be light.  C8 also possible to reinforce left position. but right side is bigger.]
;W[qe];B[mc]C[rag: nice cool move.  black is weak on left side so doesnt want to create another weak position.  playing low also undermines white's potential for  upper side.]
;W[ph]MA[qk]C[rag: white should remember black gets to play the next move.  obviously, in this position, both sides want to play around R9.  but it's now black's turn.

so Q12 better at R12.];B[qn];W[mp]MA[qk]C[rag: too early, white's right side is weak.  black can start a splitting attack.  R9 better.]
;B[mn]MA[ln][kn][kq]C[rag: cap is for moyo reduction.  keima is better for attack.

here, black wants to ensure his lower left does not end up being threatened.  a move which strengthened it and attacked N4 from a distance would be sounder.

the points marked X come to mind.]
(;W[no]C[rag: i would have attached on one side or the other (probably M6), being willing to let N6 go if black wants it (see variations)]
;B[on];W[lo];B[kn];W[ln]C[phonon [12k\]: je pensais que je pouvais faire qqc par la, mais plus tard dans le jeu]
;B[lm]C[phonon [12k\]: mais tu a voulu me tuer ... lol

rag:  you must expect an invader to be attacked :)];W[nn];B[nm]
;W[oq];B[lq];W[pq];B[qq];W[ko]
(;B[jn]C[rag: white made black strong on the outside, so a firm block at K5 is possible.  see variation.]
;W[jo]
(;B[io]MA[om][ip][in][km]C[rag: black has lots of cutting points.  white should be able to break through.  if she succeeds, black's' "all or nothing attack" will become all for white and nothing for black.

on the other hand, white's strategy is also "all or nothing".

risky business!

as black, i would prefer to make eye shape for my lower stones, let white out at the left and then attack white's weak right side.  see variation.]
;W[kq];B[kp]C[rag: all or nothing.  did black read ahead more than one move?]

(;W[lp]C[rag: see variation];B[jq];W[mq];B[kr];W[op];B[po];W[qr]
;B[rq];W[rr];B[ms]C[rag: presumably a mouse error.

in any case, white lives small but gives black a strong wall that is worth much more - this is why white's invasion was premature.]
;W[nr];B[ns]C[rag: too slow];W[os];B[mr];W[qk]C[phonon [12k\]: la g jouer autre part car GT vivant]
;B[sr]C[mikao [14k\]: ca c ce que je voulais jouer apres ... pas juste ...
phonon [12k\]: toi tu a user un coup pour rien];W[ic]C[phonon [12k\]: donc je refait des points lol]
;B[of];W[qc];B[pd];W[qd];B[pe];W[qf];B[oj];W[nh];B[qj]C[rag: nice move by black]

(;W[rj]C[rag: yes, your variation better.];B[qi];W[ri];B[qh]
;W[rh];B[qg];W[rg];B[pk];W[ql];B[pl];W[ck];B[ei];W[fk];B[hj]
;W[km]C[rag: what is this?  a clever sacrifice?]
(;B[kl]C[rag: black is playing inside her own territory.];W[jm]
;B[in];W[ll];B[mm];W[jl];B[kk];W[hl]C[rag:white is very satisfied!]
;B[ik];W[jk]
(;B[mj]C[rag: too timid.  see variation];W[kj];B[lk];W[lj];B[mk]
;W[ij];B[hk];W[il];B[ii];W[jj];B[mh];W[mg];B[ni]
(;W[gf]C[rag: white can do more - see variation];B[kg]C[rag: good thinking by black]
;W[jf];B[kf];W[gi];B[fj]
(;W[ke];B[le];W[kd];B[ld];W[kc];B[ek];W[el];B[gk];W[gl];B[fl]
;W[fm];B[fk];W[fn];B[dl];W[cl];B[em]C[mikao [14k\]: ici g réussi a bien rentrer et a reduire ton moyo]
;W[en]
(;B[dm]C[rag: very slow. how about E17? see variation]
(;W[dn]C[rag: i prefer C7 to this];B[lh]C[phonon [12k\]: c'est la ou je voulais jouer le coup juste apres lol]
;W[lb];B[jg]MA[gm]C[rag: this move threatens the cut at X];W[if]
;B[gm]C[mikao [14k\]: et la g fait le con mais bon ...
mikao [14k\]: ca aurait était trop beau ...
phonon [12k\]: oui mais j'vais prevu de proteger quand les liberté du haut etait combler]
;W[hn]C[mikao [14k\]: pffff nimp ...];B[mb];W[rm];B[gh];W[fg]
C[phonon [12k\]: ben c'est un coup pas important, je prefere faire des points a la place et avoir le sente]
;B[eg]C[mikao [14k\]: ouais ca aurait était mieux];W[fh]
(;B[hh];W[fr];B[gq];W[dr]MA[pb][rn][bi][bf]C[phonon [12k\]: ce coup la je l'ai jouer ici au leiu de E2 car je voulais proteger mes 2 coins en gote et pas chaque coin en gote
mikao [14k\]: oui

rag: the X points are bigger];B[fs];W[cc];B[be];W[bd];B[de]
;W[cd];B[bf];W[ee];B[ff]MA[df]
(;W[fe]C[rag: see variation];B[gg];W[df];B[dg];W[pb];B[ob];W[qb]
;B[cm];W[bm];B[ak]C[rag: B10 better. End of commentary];W[dk]
;B[el];W[bj];B[cj]
(;W[aj];B[dj]
(;W[bl];B[bi]
(;W[al];B[ai];W[bk];B[hf];W[he];B[ge];W[gd];B[gf];W[ie];B[lc]
;W[kb];B[ho];W[gn];B[rn];W[pf];B[pg];W[oc];B[nc];W[oe];B[od]
;W[ne];B[oh];W[ig];B[ih];W[oa];B[na]
(;W[nf];B[og];W[nd];B[oc];W[lf];B[lg];W[mf];B[ng]C[phonon [12k\]: arf je savais que y'avait un truc a faire ici, c co qu'il me manque une liberté, j'aurais du le faire apres que le bas ai été fermé lol]
;W[pa];B[qm];W[rl];B[er];W[ds];B[ji];W[ki];B[kh];W[sn];B[so]
;W[sm]
(;B[sq];W[rs];B[la];W[ka];B[ma];W[es];B[fr];W[im];B[li];W[hm]
;B[de];W[ae];B[af];W[ad];B[df];W[oo];B[om]C[mikao [14k\]: ah ben c sympa ca :)
phonon [12k\]: mais je vais fumer avant
mikao [14k\]: ok];W[ro]C[phonon [12k\]: ouais mais c payant KGSplus]
;B[sp]C[mikao [14k\]: ah oui ... dommage ....];W[ss];B[qp]C[phonon [12k\]: ca sent la fin]
;W[go];B[hp];W[tt]
(;B[tt]TB[nb][md][nd][me][ne][oe][lf][mf][nf][ag][bg][cg][fg]
[mg][ah][bh][ch][dh][eh][fh][jh][nh][ph][di][fi][gi][hi][mi]
[oi][pi][ej][gj][nj][pj][nk][ok][ll][ml][nl][ol][pm][pn][qo]
[ro][ip][rp][hq][iq][kq][hr][ir][jr][lr][gs][hs][is][js][ks]
[ls]TW[aa][ba][ca][da][ea][fa][ga][ha][ia][ja][qa][ra][sa][ab]
[bb][cb][db][eb][fb][gb][hb][ib][jb][rb][sb][ac][bc][dc][ec]
[fc][gc][hc][jc][rc][sc][ed][hd][id][jd][rd][sd][je][re][se]
[rf][sf][sg][sh][si][sj][ak][rk][sk][sl][am][gm][an][bn][ao]
[bo][co][do][eo][ap][bp][cp][ep][np][aq][bq][cq][dq][nq][ar]
[br][cr][or][pr][as][bs][cs][ps][qs])
(;B[tt]TB[oa][pa][qa][ra][sa][nb][pb][qb][rb][sb][qc][rc][sc]
[md][nd][qd][rd][sd][me][ne][oe][qe][re][se][lf][mf][nf][pf]
[qf][rf][sf][mg][rg][sg][jh][nh][ph][rh][sh][mi][oi][pi][ri]
[si][ej][pj][rj][sj][qk][rk][sk][ql][rl][sl][pm][rm][sm][pn]
[sn][qo][ro][ip][rp][hq][iq][kq][hr][ir][jr][lr][gs][hs][is]
[js][ks][ls]TW[aa][ba][ca][da][ea][fa][ga][ha][ia][ja][ab][bb]
[cb][db][eb][fb][gb][hb][ib][jb][ac][bc][dc][ec][fc][gc][hc]
[jc][ed][hd][id][jd][je][ak][am][gm][an][bn][ao][bo][co][do]
[eo][ap][bp][cp][ep][np][aq][bq][cq][dq][nq][ar][br][cr][or]
[pr][as][bs][cs][ps][qs]C[thanks you for the review]))
(;B[ps];W[or];B[qs];W[rs];B[sq];W[oo];B[ss];W[pr])
(;B[pr];W[ps];B[qs];W[rs]))
(;W[pa];B[ji];W[ma];B[la];W[ka];B[ma];W[nd];B[oc]
(;W[lf];B[mf])
(;W[nf];B[og];W[lf];B[lg];W[mf];B[ng]C[phonon [12k\]: mm pb lol
mikao [14k\]: reprenont depuis le début si tu veux bien ...]
)))
(;W[ai];B[ah];W[bk]))
(;W[ah];B[bl];W[bk];B[bi];W[ai];B[am];W[al];B[bn];W[an]))
(;W[bi];B[bl];W[bk];B[al];W[am];B[aj];W[bh];B[cg];W[ch];B[dh]
;W[dj];B[di]C[mikao [14k\]: je me suis planter ds ma glissade a la base ...
mikao [14k\]: ^^
phonon [12k\]: c clair
phonon [12k\]: et g trop mal exploité];W[ag];B[af]C[mikao [14k\]: tu veux en venir ou la ?
phonon [12k\]: ben rien je regarde]))
(;W[df];B[dg];W[gg]))
(;B[er];W[dr];B[ds];W[cs];B[es];W[cr]))
(;W[cm];B[dn];W[do]))
(;B[ec];W[ed];B[cc]
(;W[be];B[dc];W[fc];B[fb];W[gb];B[eb];W[bb];B[bc];W[cb];B[ab]
;W[fa];B[ba];W[ca];B[da];W[aa];B[ac];W[ga];B[db])
(;W[dc];B[be];W[cd];B[bd];W[bc];B[bb];W[cb];B[ac])))
(;W[hi]))
(;W[lh];B[mi];W[og];B[pg];W[pf];B[nf];W[ng];B[lg];W[lf];B[kg]
;W[mf];B[kf];W[nd];B[oe];W[md];B[nc];W[ld];B[lc];W[kd];B[kc]
;W[jd];B[hg];W[pb];B[ob];W[qb];B[ib];W[hb];B[jb];W[ma];B[mb]
;W[oa];B[na];W[nb];B[la];W[oc];B[na];W[ob];B[kb]))
(;B[jj];W[kj];B[lk];W[lj];B[mk];W[ji];B[ij];W[kg];B[ie]))
(;B[hl]))
(;W[qi];B[rj];W[pj];B[pk];W[pi];B[ql];W[lh]C[phonon [12k\]: hum j'aurais du faire ca]
))
(;W[ip];B[lp];W[mo];B[iq];W[mm];B[ml];W[km];B[mn];W[in]))
(;B[ip];W[io];B[ho];W[in];B[kl];W[hn];B[qj]))
(;B[jo];W[km];B[jn];W[om];B[pn];W[nl];B[mm];W[ll];B[kl];W[jm]
;B[ml];W[lk];B[ol]))
(;W[ln]
(;B[lo];W[mo];B[kn];W[nn];B[mm];W[oo];B[om];W[nm];B[ml];W[nl]
;B[nk];W[ok];B[mk];W[ol])
(;B[mo];W[lo];B[lp];W[kp];B[lq];W[kq];B[ko];W[jo];B[kn];W[lr]
;B[mq];W[iq];B[jq];W[kr];B[jr];W[ip];B[io];W[jn];B[km];W[ir]
)))
(;B[eq];W[dq];B[iq];W[dn]C[phonon [12k\]: c le joseki]))
