(;FF[4]GM[1]SZ[19]ST[2]CA[UTF-8]AP[SGFC:1.15]

PB[Lennart]
BR[2k]
PW[gop]
WR[2k]
KM[6.5]
DT[2006-11-07]
PC[The KGS Go Server at http://www.gokgs.com/]
RE[B+5.50]
TM[300]
OT[2x20 byo-yomi]
RU[Japanese]

;B[pq]C[Lennart [2k\]: hi
gop [2k\]: hi];W[pe];B[qo]C[Lennart [2k\]: have nice game];W[ed]
;B[eq]C[gop [2k\]: u2];W[do];B[eo]LB[ep:A]C[how should i respone this?

The hane you played seems ok, A, between de 2 black stones is also joseki, but can bring complicated fights.]
;W[en];B[dp]LB[fo:A][dn:B]C[This is not usual, A or B are normal continuation.]
;W[fo];B[ep];W[co];B[gp]LB[fn:A]C[Probably cuting at A is better for black, and the corner is still open.]
;W[dj];B[cd];W[ce];B[be]
(;W[cf]C[This let's black a too big corner, see variation.]
;B[dd];W[ee];B[bf];W[ch];B[ec];W[fc];B[dc];W[pc]LB[pk:A]C[Maybe A is possible, threatening a cosmic moyo ^^]
;B[kc]LB[ic:1][mc:2]C[what respone is better 1 or 2

1 lets the black stone complettely isolated and thus weaker.
2 allows black to threaten a connection with the upper left corner, so black has more options and therefore it's stronger.

Also, attacking from the right pushes black to the left, where the bigger prospects for white are. So I choose 1]
;W[ic];B[nc];W[fb]C[This a yose move. a big one, but yose right now. It does not threaten to kill the corner, only a monkey jump. so it should be gote.
I think it's too early for this move. Black is not that much interested in playing here, even if for black would be sente, as it strengthens white in the outside.]
;B[eb];W[ne]C[Attacking from the left and building up a big moyo seems better.]
;B[od];W[pd];B[oe];W[of];B[nf];W[me];B[id]
(;W[hd]C[Maybe too mild, see variation.];B[jd];W[mc]LB[mb:A]
[he:B][ng:C][og:D]C[This move is tempting, but I don't think that it's good.
The white stones are still in no immediate danger, and now white loses the possibility to play at the vital point of black's shape, A, that would left the black stones almost eyeless.
Probably, before such an attack, reinforcing at B would be necessary, to prevent black of trying to live inside white's zone of influence.
Capturing with C or reinforcing with D also seem possible.]
;B[he];W[gd];B[mb];W[nb];B[lc]
(;W[md]C[Bad choice, saving the other as in the variation seems better.]
;B[ob];W[oc];B[na];W[og]C[Looks big, but now that the 4 stones are connected is not as useful as before.]
;B[pb]C[Probably jumping is better than pushing, at least is bigger.]
;W[qb];B[qk];W[qi];B[ri];W[rh];B[rj];W[oq];B[pr]C[there is better invading here?]
;W[lq];B[jq];W[or];B[kr];W[jp];B[ip];W[kp];B[op]
(;W[lr]C[Too slow, I think something to get sente can be done, and then play some of the really big points. See variation and options.]
;B[bp]C[Enormous, huge move.];W[iq];B[ir];W[io];B[hp]LB[iq:A]
[ir:B]C[If it's going to end like this the A-B exchange is better left off. Then B is a weak point of black's shape.]
;W[np];B[oo]LB[no:A]C[Maybe resisting with doble hane at A is possible for black. Sente is very important now.]
;W[no]LB[gn:A][bo:B][hf:C]C[Not big enough and of course not sente.
I would have problems deciding between A, B or something around C.]
;B[bn]
(;W[bo];B[ao]LB[cl:A]C[how should i block it

Maybe in this position A is best, you'll lose points in the side, but black will not make extra points. Probably you had to block before, now a lot of damage will be done.]
;W[bm]TR[fo]LB[cm:A][bl:B]C[A or B are the most usual answers, the one you chose is also possible sometimes, but when the sacrifice is of 2 stones, not 3, and the territory made is bigger and you get sente.
Here you end having to stop a monkey jump and black still can capture  later the marked stone. See variation before the push.]
;B[cn];W[cm];B[dn];W[dm];B[cp];W[bg]TR[fo]C[The side you keep is worth about 12 points, if black capture the marked stone has gained as much. You could as well protected the 3 stones and let black the side geting sente.]
;B[ig]C[Second big point for black too.];W[jf];B[if];W[fn]TR[ig]
C[You got the third , but after the marked black stone is in place, it's value is much less than before.]
;B[bc];W[jb];B[hn];W[jm]C[I think that you must cut here.];B[in]
;W[jn];B[jg];W[qh];B[sh];W[sg];B[si];W[rg];B[qa];W[rb];B[am]
;W[bl];B[al];W[ak];B[an];W[fl]C[So finally the side will really be small.]
;B[kf];W[qj];B[rk];W[on];B[pn];W[lg];B[ok];W[om];B[ml];W[pl]
LB[nk:A]C[Too crude, black can connect and nothing happens, A is better.]
;B[ql]C[Black had to connect.];W[pk];B[pm];W[ol];B[jj]LB[kk:1]
[lk:2]C[1 is better then 2?

I think so, but the fight can get complicated in either case.]
;W[lk];B[kl];W[ll];B[lm];W[km];B[mi];W[li];B[lj];W[mj];B[kj]
;W[mk];B[lh]
(;W[ni]C[Maybe too easy for black, but capturing the 3 stones in sente is good.]
;B[mh];W[gh]C[It's hard to assess how many points this move is worth.]
;B[nh];W[oi];B[gj];W[hi];B[hk];W[gf];B[fi];W[eh];B[ai];W[bk]
;B[ag];W[bh];B[ah];W[kq];B[jr];W[ps];B[qr];W[qs];B[rs];W[os]
;B[rr];W[ii];B[kh];W[fh];B[de];W[df];B[kk];W[nk];B[mf];W[le]
;B[lf];W[ke];B[je];W[ng];B[mg];W[ji];B[ki];W[kb];B[lb];W[ea]
;B[da];W[fa];B[gi];W[hg];B[ek];W[dk];B[el];W[em];B[fk];W[gl]
;B[ik];W[fp];B[fq];W[ra];B[pa];W[la];B[ma];W[ka];B[jc];W[ib]
;B[ge];W[fe];B[mr]C[It does not work !]
(;W[mq]C[Mistake !!];B[ls];W[bi];B[ns]C[Black's mistake, it's gote and gains nothing.]
;W[nq];B[ei];W[di];B[dl]C[It threatens only 1 point, there are 4 points waiting in lower side !!]
;W[cl];B[nb];W[nd];B[oh];W[ph];B[ho];W[aj];B[af]
(;W[jo];B[jl]C[1 point gote, still 4 at lower side ...];W[gk]
;B[hj];W[ej];B[fj];W[im];B[ks];W[nr]C[0 points.];B[ms];W[hf]
;B[ie]
(;W[gm]C[Yo can keep the point and the connection.
Sometimes is useful];B[hm];W[gn];B[hl];W[hh];B[jh];W[tt];B[tt]
TW[ga][ha][ia][ja][sa][gb][hb][sb][gc][hc][qc][rc][sc][fd][od]
[qd][rd][sd][oe][qe][re][se][ef][ff][pf][qf][rf][sf][cg][dg]
[eg][fg][gg][pg][qg][dh][ci][pi][bj][cj][nj][oj][pj][ck][ok]
[ml][nl][fm][lm][mm][nm][kn][ln][mn][nn][ko][lo][mo][lp][mp]
TB[aa][ba][ca][oa][ab][bb][cb][db][ac][cc][ad][bd][ae][jf][kg]
[lg][li][sj][jk][sk][rl][sl][qm][rm][sm][qn][rn][sn][bo][co]
[do][po][ro][so][ap][pp][qp][rp][sp][aq][bq][cq][dq][gq][hq]
[iq][qq][rq][sq][ar][br][cr][dr][er][fr][gr][hr][sr][as][bs]
[cs][ds][es][fs][gs][hs][is][js][ss])
(;W[hm]))
(;W[nr];B[jo];W[ko]))
(;W[ms]C[No problem !!!]))
(;W[mh];B[ki]LB[ni:A][nh:B]C[now A or B depending on ko threats.]
))
(;W[cm]C[Here the shoulder hit doesn't seem to work very well ....]
;B[bm]
(;W[cp];B[cq];W[bo];B[ao];W[bq];B[ap];W[an];B[am];W[cr];B[dq]
;W[aq];B[an]
(;W[br];B[cl];W[dm];B[dr]C[black wins the semeai])
(;W[bl];B[br];W[cn];B[ar];W[ck];B[bj]C[No points in the side.]
))
(;W[cl];B[bo];W[hf]C[Maybe best anser ? Just don't block and get sente.]
))
(;W[bl];B[cm]
(;W[dn];B[cl];W[ck])
(;W[bo];B[ao]
(;W[dn];B[cl];W[ck];B[el];W[cp];B[bq];W[cq];B[cr];W[dr];B[br]
;W[dq];B[fm]C[This looks more dangerous for white than for black.]
)
(;W[cp];B[dn];W[bq];B[ap];W[cq];B[cn];W[aq];B[an];W[dr];B[er]
;W[ds];B[em]C[white gets the corner, but is it  worth it ?]
))
(;W[cn];B[bm];W[dm];B[cl];W[bk];B[bg];W[bh]C[Not much left of the side.]
)))
(;W[np];B[oo]
(;W[bq])
(;W[ie])
(;W[hf])))
(;W[ob];B[md];W[le]C[This way black is still unsettled and white's corner is bigger.
The two black stones can be captured, but because of the good ladder outside there's no hurry.]
))
(;W[jd];B[jc];W[ie];B[hd];W[hc]C[The fight can get complicated, but clearly is black who will have more troubles.]
))
(;W[de];B[cf];W[bd];B[bc];W[bf];B[ad];W[bg]TR[dj][en][do][co]
C[Even if the ladder is good for black and white can't capture outright, I think that this is better than the game for white.  The marked white sotnes make any attempt for black to escape very dangerous.]
))
