(;FF[4]GM[1]SZ[19]ST[2]CA[UTF-8]AP[SGFC:1.15]

PB[beno]
BR[22k]
HA[2]
PW[tokugawa]
WR[20k]
KM[-5.5]
DT[2006-10-29]
PC[IGS-PandaNet]
RE[W+21.50]
TM[600]
RU[Japanese]

AB[pd][dp]C[tokugawa: Let's begin and enjoy a great game.

Daedin: 
Hello.
I tried and focused on the points you mentioned - that is the beginning and middle game. However please keep in mind that my comments may not provide the most accurate answer or best alternative.]
;W[dc];B[pp];W[fq];B[hq];W[fo];B[er]C[Playing at D6 or C6 would be better here?

Daedin: D6 seems like the standard move to me, since it aims at building a moyo on the left while chasing White stones to the center. C6 is too far from the White stones to be efficient. 
By letting White to play a move around D5, Black lets White build influence toward the top and the center and a chance to settle his stones.]
;W[do];B[ep];W[fp];B[co];W[dn];B[cn];W[nq]C[Daedin: Wrong side for White, since it allows Black to play L3 and thus settling his stone and nullating the effect of White's three stones]
;B[lq]C[Daedin: Good direction. M3 seems a little far from H3, since it allows White K3 later on, so maybe L3 is a little better.]
;W[pq]
(;B[np]C[Daedin: This move lets White settle easily in a relatively huge corner. Maybe a move around R3 that would prevent White from settling his stones and chase him toward the center]
;W[qp];B[po];W[qo]C[Daedin: Feels like Black let White get the corner a little too easily. 
Daedin: White stones were outnumbered, and now there are settled with a big corner, and have possitilities on the right side.]
;B[ql]C[Should Black attack the lower right corner? How?

Daedin: The lower corner feels safe for White now.];W[pn];B[no]
;W[qf]C[Daedin: Wrong direction - O17 is better.];B[qh];W[od]
;B[pe];W[pf];B[oe];W[nd];B[of];W[pg]
(;B[ph]C[Daedin: Pressing with P13 seems better, since it allows Black to come out in the center]
;W[og];B[re];W[mg];B[de];W[fd];B[dh];W[dm];B[ck];W[ce];B[cf]
;W[cd];B[ee];W[ek];B[dj]C[Daedin: Seems small. It may be time to attack the O16 stones with a move around M16]
;W[hp];B[iq];W[nf];B[pc];W[ne];B[nh];W[ng];B[oh]C[Daedin: Black ends gote, and White can still enter from the bottom]
;W[qe];B[nb];W[lc]
(;B[lb]C[Daedin: Playing on the second line is not good here. White closes its territory while Black gains almost nothing]
;W[kb];B[mb];W[jc]
(;B[ol]C[Daedin: A White move around G14 would give White a definite advantage, so Black has to prevent it]
;W[oc];B[ob];W[qd];B[qc];W[fe];B[nr]C[Daedin: Small];W[oq];B[rn]
;W[qm];B[rl];W[rm];B[li];W[ip];B[jp];W[in];B[jo];W[jn];B[kn]
;W[ef];B[df];W[eg];B[ei];W[jl];B[kl];W[nn];B[mq];W[sm];B[sl]
;W[km];B[ln];W[lm];B[mn];W[nm];B[om];W[on];B[ml];W[kk];B[mm]
;W[ll];B[nl];W[mk];B[qn];W[ro];B[qq];W[rq];B[qr];W[pr];B[rr]
;W[sr];B[or];W[qs];B[pm];W[sn];B[oo];W[qn];B[nj];W[nk];B[ok]
;W[mj];B[mi];W[kh];B[kj];W[lk];B[jj];W[ik];B[hi];W[hg];B[hk]
;W[hl];B[gk]C[Daedin: No comments beyond this point
Black has missed the opportunity to reduce White's moyo at the top and let himself be enclosed in the upper right corner.

Aside from that, there was not huge blunders or mistakes.];W[gl]
;B[el];W[fl];B[dl];W[em];B[fk];W[cl];B[dk];W[cm];B[fg];W[fh]
;B[eh];W[ff];B[gh];W[gg];B[fi];W[rc];B[rb];W[rd];B[qa];W[cq]
;B[cp];W[bp];B[bn];W[dr];B[eq];W[br];B[gr];W[dg];B[cg];W[mc]
;B[rg];W[rf];B[jh];W[jg];B[lh];W[lg];B[ih];W[hh];B[fg];W[ig]
;B[fh];W[ii];B[ji];W[ij];B[hj];W[bf];B[bg];W[be];B[ak];W[bl]
;B[bk];W[ed];B[ao];W[ap];B[aq];W[bq];B[ar];W[cs];B[es];W[ds]
;B[fr];W[gq];B[ka];W[ja];B[la];W[ag];B[ah];W[af];B[bi];W[io]
;B[ki];W[kg];B[qg];W[jk];B[sc];W[sd];B[sb];W[eo];B[sf];W[se]
;B[sg];W[am];B[mh];W[dd];B[mr];W[an];B[bo];W[dq];B[al];W[bm]
;B[os];W[rs];B[ps];W[qr];B[tt];W[tt]C[You can check your score with the score command, type 'done' when finished.
Click on a group of stones to mark it dead and remove it from the board.]
;B[tt]TW[aa][ba][ca][da][ea][fa][ga][ha][ia][ab][bb][cb][db]
[eb][fb][gb][hb][ib][jb][ac][bc][cc][ec][fc][gc][hc][ic][kc]
[ad][bd][gd][hd][id][jd][kd][ld][md][ae][ge][he][ie][je][ke]
[le][me][re][gf][hf][if][jf][kf][lf][mf][il][kl][fm][gm][hm]
[im][jm][en][fn][gn][hn][rn][go][ho][so][gp][rp][sp][aq][qq]
[sq][ar][cr][rr][as][bs][ss]TB[ma][na][oa][pa][ra][sa][pb][qb]
[bh][ch][rh][sh][ai][ci][di][gi][ni][oi][pi][qi][ri][si][aj]
[bj][cj][ej][fj][gj][oj][pj][qj][rj][sj][ek][pk][qk][rk][sk]
[pl][ko][lo][mo][kp][lp][mp][jq][kq][hr][ir][jr][kr][lr][fs]
[gs][hs][is][js][ks][ls][ms][ns]C[Game 57 beno is removing @ A2
Game 57 beno is removing @ E9
You have typed done.
tokugawa: 84.5 to beno: 63.0])
(;B[gf]))
(;B[kd];W[kc];B[jd]
(;W[he];B[jg])
(;W[ic];B[he];W[fe];B[jg]C[Daedin: In both cases, Black has reduced White's framework]
)))
(;B[og];W[ph];B[qi];W[oi];B[mf]C[Daedin: Black can either aim at M16 or P8]
))
(;B[qq];W[op];B[po];W[pr]))
