(;FF[4]GM[1]SZ[19]ST[2]CA[UTF-8]AP[SGFC:1.15]

PB[Rocco]
BR[2k]
PW[unknown]
WR[3k]
KM[6.5]
DT[2006-11-13]
PC[The KGS Go Server at http://www.gokgs.com/]
RE[B+22.50]
TM[2100]
OT[5x30 byo-yomi]
RU[Japanese]

C[Hi in this game I was black. I won by 22 points I have always a few questions on fuseki.
Thank you for the review!

A: Hello, I am Andreas, my comments are marked with an A:
This Review was made using Cgoban3

First a small comment before the review: Games won by a high margin are not suited optimally for review. 

here a part of the GTL FAQ: 

  Do submit                            Don't submit 
+-------------------------------  +-----------------------------------+ 
+ serious games                   + quick (lightning) games 
+ close games                     + games you won easily 
+ fights where you didn't know    + fights where you slaughtered 
  what was going on                 your opponent 

About the Game: 
The game was basically a fighting game from early on, since Your opponent gave You a strong position due to the use of a wrong joseki and played a dubious invasion at move 26. You profited from the resulting attack,  but made a mistake in the direction of the attack. Also, I think You concentrated too much on attacking and didnt take profit on several opportunities. This can backfire against stronger opponents. 

The Fuseki was normal until Your opponent played the counterpincer in the lower right and with the invasion of the upper right the middlegame started, so actually your questions are about the middle game. 

There are two basic points You should work on: 

1. Dont attack to kill, but attack to profit

2. During attack, reinforce Your weak stones and push Your opponents groups towards Your own thickness. Dont try to make territory in front of Your wall.]
;B[pd];W[dq];B[pp];W[dc];B[de];W[ce]LB[dd:A]C[A: Nadare Joseki is an option.]

(;B[cf];W[cd]LB[do:A]C[A: at this point, instead of connecting, black could play the other Kakari instead]

(;B[df];W[fc];B[dj];W[cn];B[pj];W[nq];B[lq];W[qn]C[A: white cannot play this way because of the Q9 stone]
;B[oo];W[qq]C[A: white would have been off better entering the corner right away]
;B[qp];W[pq];B[mo]
(;W[rp]LB[op:A]C[A: w should play at A first for shape];B[ro]
;W[rq];B[qo]LB[op:A]C[A: now the shape point of A lost a lot ov value]
;W[qg];B[or];W[oq];B[nr]
(;W[mr]LB[pr:A]C[A: just  is better];B[mq];W[pr];B[lr];W[os]
;B[ms];W[rs]
(;B[qi]LB[qe:A]C[what do you think about this move? Is it good?

A: the shape (Kosumi) is correct, but the direction is wrong. R11 is too close to Your own thickness. The basic idea of using thickness while attacking (which You already know as 2k) is pushing your opponent into Your thick position (which will not be affected much by his moves) while building territory on the other side.]

(;W[rd]LB[qd:A]C[A: W can also make a base by Attaching at A. Anyway, W should be easily able to make a base.]
;B[qc]
(;W[og]LB[rc:A]C[A: maybe w should better build a base first]

(;B[pf];W[pg];B[qf];W[rf];B[rh];W[rg];B[nf];W[rc];B[rb];W[sb]
;B[sc];W[sd];B[qb];W[of];B[oe];W[ne];B[ng];W[qe];B[pe];W[nd]
;B[nc]
(;W[od]C[A: very bad move. W should think about the hane at n17]
;B[oc];W[qd];B[pc];W[mc];B[mb];W[lc];B[lb];W[kc];B[nh]C[A: white is dead, game over]
;W[sg];B[se];W[rj];B[ri];W[kb]
(;B[ob]C[here I did very stuoid move  ^_^];W[oi];B[oh];W[pi]

(;B[qj]C[I always have to complicate my game...];W[ph];B[me]
;W[ni];B[nk];W[md];B[lh];W[li];B[kh];W[mj];B[mk];W[lk];B[kj]
;W[lj];B[ki];W[mf];B[mg];W[lm];B[kl];W[ll];B[km];W[nn];B[no]
;W[ok];B[oj];W[ol];B[nj];W[ql];B[nl];W[om];B[rl];W[rm];B[rk]

(;W[sj]C[A: white wants too much];B[rn];W[sm];B[mn];W[mm];B[nm]
;W[on];B[pn];W[qk];B[pk];W[pm];B[qm];W[kk]C[colud whiite kill my stones here?

That's all!
Thank you fore the review!]
(;B[pl];W[jk];B[im];W[kn];B[il];W[ik];B[gl];W[ii];B[ig];W[le]
;B[ih];W[gk];B[fk];W[gj];B[hi];W[hl];B[hm];W[hk];B[fm];W[el]
;B[fj];W[fl];B[gm];W[fi];B[dk];W[gi];B[gg];W[di];B[ci];W[cj]
;B[ch];W[fg];B[ff];W[ck];B[dl];W[gf];B[gh];W[dh];B[fh];W[ln]
;B[io];W[jp];B[jo];W[ko];B[kp];W[ip];B[hp];W[kq];B[lp];W[em]
;B[en];W[dm];B[cl];W[bl];B[cm];W[ej];B[bm];W[ek];B[bk];W[dn]
;B[eo];W[gq];B[hq];W[fq];B[mi];W[mh];B[bn];W[lg];B[cp];W[cq]
;B[bp];W[bq];B[ie];W[eg];B[eh];W[ei];B[dg];W[hd];B[id];W[ic]
;B[he];W[gd];B[dd];W[cc];B[ge];W[fe];B[ef];W[gr];B[hr];W[fo]
;B[go];W[fp];B[ka];W[ja];B[la];W[jc];B[ed];W[fd];B[ec];W[eb]
;B[ps];W[sr];B[ns];W[qs];B[aq];W[ar];B[ap];W[bs];B[ep];W[dp]
;B[co];W[do];B[fn];W[hs];B[eq];W[er];B[is];W[ji];B[jh];W[be]
;B[bf];W[gs];B[jr];W[af];B[ag];W[ae];B[bg];W[jf];B[jj];W[ij]
;B[kf];W[kg];B[je];W[jg];B[gp];W[dr];B[ke];W[if];B[hf];W[kd]
;B[lf];W[mg];B[sp];W[sh];B[si];W[ra];B[qa];W[sc];B[jn];W[jl]
;B[jm];W[ao];B[bo];W[re];B[np];W[sa];B[os];W[sq];B[so];W[hj]
;B[hh];W[tt];B[tt]TW[aa][ba][ca][da][ea][fa][ga][ha][ia][ab]
[bb][cb][db][fb][gb][hb][ib][jb][ac][bc][gc][hc][ad][bd][ld]
[me][nf][ng][nh][oh][mi][fj][fk][br][cr][fr][qr][rr][as][cs]
[ds][es][fs][ss]TB[ma][na][oa][pa][nb][pb][gf][cg][eg][fg][hg]
[ah][bh][ai][bi][aj][bj][cj][rj][sj][ak][ck][ok][qk][sk][al]
[bl][ol][ql][sl][am][om][pm][rm][sm][an][gn][hn][in][nn][on]
[qn][sn][ao][ho][po][ip][jp][mp][iq][jq][kq][ir][kr][mr][js]
[ks][ls]C[JiriK [4k\]: thx
JiriK [4k\]: ciao
Manjii [3k?\]: thank you])
(;B[jk];W[qn];B[si]C[A: black is safe];W[po];B[op];W[ml];B[sn]
;W[qh];B[sk];W[sh]C[A: white cannot approach.]))
(;W[nm];B[sj];W[pk]))
(;B[ph];W[qh]
(;B[oj];W[ni];B[mi])
(;B[qj]C[A: this is enough])))
(;B[oh]C[I could to do this

A: unnecessary, w is already captured])
(;B[fq]C[A: You could do this]))
(;W[mc]))
(;B[qf];W[rf];B[rg]C[after game, i see this move. it seems good, do yuo think so?

A: white can sacrifice the s16 stone for better shape, I think its strengthening white too much]
;W[pf];B[qe];W[rh];B[re];W[sg]LB[od:A][rj:B]C[A: Black T15 is too slow, and r11 looks pretty out of place now. White has good follow-up moves at A and B.]
))
(;W[rc];B[rb];W[qd];B[pc];W[pe];B[oe];W[pf]C[A: this looks pretty resilient already]
))
(;W[qd];B[qc];W[rc]))
(;B[qe];W[rj];B[qk]LB[so:A]C[A: white ends up with a low position, the right side was not that big territorially from the beginning because of the sente move of white A]
))
(;W[pr];B[mq];W[os];B[mr];W[rs]LB[lr:A]C[A: this is slightly better for w, since black has no stone at A]
))
(;W[op]))
(;B[do];W[co];B[cn];W[cp];B[dn];W[fq];B[df];W[fc];B[dj]C[A: this pattern has been seen in pro games]
))
(;B[dd];W[cd];B[ec]C[A: now its getting complicated, but I think its worth trying this sometime to get some new ideas.]
))
