(;FF[4]GM[1]SZ[19]ST[2]CA[UTF-8]AP[SGFC:1.15]

PB[ikunobu]
BR[10k]
PW[Hahadeebee]
WR[9k]
KM[0.5]
DT[2006-12-08]
PC[The KGS Go Server at http://www.gokgs.com/]
RE[B+34.50]
TM[1500]
OT[1x10 byo-yomi]
RU[Japanese]

C[Hi,

The main thing you need to realize is that you cannot form too many weak groups in the beginning. They will plague you for the entire game and prevent you from taking the initiative.

When I say too many weak groups, I mean you can only have as many as your opponent (if he has a weak group, then you can afford to have a weak group also).

You must also become aware of the concept of exchange. Many of your moves allowed Black to gain at your direct expense. You must gain at least as much as Black if you don't want to lose.]
;B[pd];W[dp];B[pq];W[cd];B[ed];W[df];B[dc]
(;W[pn]LB[po:A]C[You could also have approached the corner at A.

Please look at the variation, it will be used as the basis of the discussion.]
;B[qo];W[qn];B[qk];W[po];B[qp]LB[qk:A][mq:B]C[Notice that this is the same position as the joseki I have showed you earlier, and we see that Black has made his choice.

He chose A instead of B. I said that Black would like to play A and B at the same time, but he cannot, he can only play one of the possibilities, because now it is your turn to play.

Let us consider the possibility that Black would have chosen B instead.]

(;W[qg]LB[qk:A][mq:B]C[Was it a good move to place a stone here?
I was trying to threathen r9 and the right structure.

--------------------
Please look at the variation where Black plays B instead, then come back here.




Remember that I said Black wants to play at A and B. By playing at R13, you are letting Black play at A and B!

Black is developping better than you are. This is horrible.

What should you do instead? You should prevent Black from playing at B.]
;B[mq]LB[qk:A][mq:B]TR[qg]SQ[pn][qn][po]C[Oh no, Black got A and B!!

Your stones are now heavy and you have a single stone that has no base. Black will be able to profit from attacking you.

If I was Black, I would feel pretty relaxed right now, and looking forward to an easy game.]
;W[dk];B[nc];W[iq];B[cq];W[dq];B[cp];W[co];B[bo];W[cn];B[bn]

(;W[bm]TR[cm][do]C[This move is not so good, you're leaving weaknesses behind that may be exploited later.]
;B[dr];W[er];B[cr]
(;W[fr]TR[eq]C[Again, you are leaving a weakness for yourself.

A weakness is usually something that your opponent can exploit for goals that have nothing to do with the weakness.

Obvisouly, black cannot cut. But he can use this weakness to reduce your moyo (making your stones overconcentrated).]
;B[dj]TR[cd][df]SQ[qg][pn][qn][po]C[What is Black trying to do here?

He is trying to seperate your stones. You must not let him seperate your stones.

You may not be aware of it, but once you are seperated, your 2 stones become very weak.

You already have weak stones all over the board, you cannot afford to get more (the more weak groups you have, the higher the chance that one of them will die).

There doesn't seem to be goot solutions for you. There are too many ways in which black can hurt you.]

(;W[ej];B[ek];W[fk];B[ck];W[dl];B[di];W[ei];B[dh];W[cg];B[eh]
;W[fi];B[ef];W[de];B[ee];W[he]TR[qg][pn][qn][po]C[With this hand i was trying to weaken top black structure.
But when i look at it again, it doesn't seem all that great.

---------------

It is not all that great. There is a proverb that says, don't play close to thickness. Black is thick here, don't play close to him.

You will be attacked and black will gain profit from attacking you (he may not be able to kil this stone, but he can build up a wall that will allow him to kill other groups).]

(;B[hc];W[jd];B[kc];W[jc];B[lc];W[le];B[hg]TR[jc][jd][he][le]
[pn][qn][po]SQ[qg]C[There we have it.

3 Weak groups. I am fairly certain I could kill one of them. Black let you off the hook easy.]
;W[hi];B[gh];W[gi];B[jg];W[qc]C[I think I had many problems securing the top right corner.

----------

No, the problem is too many weak groups, you can't afford to invade the corner, you have to take care of your weak groups first.]
;B[qd];W[pc];B[oc];W[rd];B[re];W[sc];B[qf]C[You only made yourself weaker (i.e. you made Black stronger).

Black doesn't care about losing the corner. You did exactly what he wanted.]
;W[pf];B[oe];W[ob];B[nb];W[pa];B[hp];W[ip];B[ho];W[io];B[hn]
;W[in];B[hm];W[im];B[hl];W[il];B[hk];W[ij];B[ik];W[jk];B[hj]
;W[ji];B[hq];W[hr];B[fp]
(;W[fo]C[Why provoke fights when you are winning?];B[eq];W[fq]
;B[ep];W[do];B[gp];W[gr];B[eo]
(;W[fn]TR[fo]C[You need to learn to sacrifice stones.

Why are you trying to save this stone? Black will die anyway.]
;B[en];W[fm];B[dm]TR[fo]C[And here's the biggest mistake of the game.

---

You made the mistake of trying to save a useless stone, and this let Black destroy you.]
;W[cm];B[cl];W[el];B[dn];W[bl];B[bk];W[an]C[Yeah I understand the useless hands in the bottom left.
I do that sometimes when I make big mistakes, I lost my train of thought.]
;B[al];W[bp];B[am];W[bq];B[ao];W[pl];B[km];W[mo]C[I'm not sure if the middle right area played out as best as possible.

---

If you had solidfied your group at the beginning of the game, you would not be stuck in this situation, you could be in an offensive position here (to reduce Black's territory at the bottom).]
;B[lp];W[lo];B[kp];W[ko];B[jp];W[mj];B[kr];W[pj];B[jo];W[jn]
;B[jr];W[ir];B[rn];W[rm];B[ro];W[rl];B[pp];W[np];B[nq];W[op]
;B[oq];W[lh];B[of];W[og];B[rg];W[qh];B[rh];W[ri];B[pe];W[pg]
;B[se];W[sd]
(;B[na];W[rb];B[cc];W[bc];B[bb];W[bd]
(;B[dd];W[dg];B[eg];W[bi];B[ch];W[bh];B[cj];W[ab];B[cb];W[kf]
;B[hd];W[id];B[ge];W[hf];B[gf];W[jb];B[kb];W[ga];B[gb];W[ha]
;B[fa];W[fb];B[ia];W[ea]C[Got a bit greedy here.

----------

Greed in go can be equated with loss :)];B[hb];W[fa];B[ib];W[gd]
;B[ja];W[nf];B[ne];W[mf];B[me];W[if];B[ig];W[jf];B[kg];W[lg]
;B[kh];W[ki]SQ[jc][jd][he][le][qg][pn][qn][po]C[I find it surprising that you managed to get so much territory with your weak groups.

Black is being very gentle.

Trust me, when I say you got lucky here, once you face tougher opponents, you won't get any territory like this (and possibly lose all your groups in the process).

My review stops here.];B[ih];W[ii];B[ba];W[fh];B[fg];W[hh];B[gg]
;W[gl];B[gj];W[gm];B[fj];W[em];B[mp];W[aj];B[bj];W[ai];B[ak]
;W[oa];B[jq];W[kd];B[ld];W[ic];B[fc];W[sh];B[sg];W[si];B[sm]
;W[sl];B[sn];W[js];B[ks];W[is];B[es];W[fs];B[ds];W[bg];B[aa]
;W[ac];B[kn];W[jl];B[no];W[nn];B[oo];W[mn];B[on];W[om];B[qm]
;W[pm];B[ql];W[sj];B[rk];W[pk];B[sk];W[qj];B[rj];W[qi];B[nm]
;W[mm];B[tt];W[tt]TW[qa][ra][sa][pb][qb][sb][rc][ad][ae][be]
[ce][ie][je][ke][af][bf][cf][lf][ag][mg][ng][ah][mh][nh][oh]
[ph][li][mi][ni][oi][pi][jj][kj][lj][nj][oj][ek][kk][lk][mk]
[nk][ok][fl][kl][ll][ml][nl][ol][jm][km][lm][nm][kn][ln][gs]
[hs]TB[ca][da][ea][fa][ga][ha][ka][la][ma][db][eb][fb][lb][mb]
[ec][gc][mc][fd][gd][md][nd][od][fe][qe][ff][rf][sf][bl][rl]
[sl][bm][cm][rm][an][cn][co][do][so][ap][bp][dp][np][op][rp]
[sp][aq][bq][dq][kq][lq][qq][rq][sq][ar][br][lr][mr][nr][or]
[pr][qr][rr][sr][as][bs][cs][ls][ms][ns][os][ps][qs][rs][ss]
)
(;B[bf]C[Do you know how to deal with this?

I don't really feel lke reading it out, but it has a good chance of killing the White stones.

Hard to see 2 eyes.]))
(;B[rb];W[rc];B[qb]C[Dead]))
(;W[en];B[fn];W[fm];B[cm];W[dn];B[em];W[dm];B[cl];W[el]))
(;W[eo]C[Just defend your weaknesses. Black has no room to make eyes.]
))
(;B[cc]C[First, Black solidifies his position (that way he has more chances in the fight against you).]
;W[bc];B[bb];W[be];B[bh];W[bg];B[ac];W[bd];B[hg]TR[pn][qn][po]
C[You may find it hard to believe, but by attacking you here, Black can setup a fierce offence against your 3 stones down there (possibly killing some).]
))
(;W[cj]C[Perhaps we can see what this ideal path would give you (I doubt it would happen like this in a real game).]
;B[di];W[ci];B[dh];W[ch];B[dg];W[cg];B[ek];W[el];B[fk];W[fl]
;B[hk];W[gl];B[gk];W[im];B[ef]LB[jd:A]TR[qg][pn][qn][po]C[This seems good for both sides, but White still has 2 weak groups on the right side of the board, so invading Black's moyo will probably result in the death of one of your groups.]
))
(;W[fq]))
(;W[cm];B[bm];W[bl]TR[dk][cm]C[Now the weakness is somewhat protected.]
;B[dr];W[er];B[cr];W[fq]))
(;AB[mq]AE[qk]LB[qk:A][mq:B]C[In this possibility, Black chooses B. Now it's your turn.

Where do you play?

Well you know that if you play somewhere away form this corner, Black will play at A. (You know this because Black played at A in the real game).

Knowing this, you want to prevent Black from playing at A by playing at A yourself (actually, you would play 1 line higher - remember the proverb, from 1 jump 2, from 2 jump 3, ...).

So A and B can be seen as an exhange. Black plays B and lets White prevents him from playing at A.]
;W[qj]C[A fair exchange (B and A were exchanged).

But this is not what happened in the game.

If B and A were exchanged by Black and White, maybe it follows that Black can exchange A for B (the reverse I mean).]
)
(;W[mq]C[If you played at B, it would be no good.

Black can cut you up and attack you.];B[op])
(;W[oq]LB[qk:A][mq:B]C[Instead, of playing at B directly, there are other moves that prevent Black form playing at B.]
;B[op];W[pp];B[pr];W[or];B[rq];W[np]LB[qk:A][mq:B]TR[df][pn]
[po][dp][pp][oq][or]C[This is a good exchange for you. Black doesn't get to play at B. (He can pay at B, but it will give him a weak group that you can attack for profit).

You get a nice little wall that works well with your stones. This will lead to some good development potential.

Notice that the black stone is caught in a ladder, if Black plays a ladder breaker, you will need to capture black otherwise you will be cut.

I would advise you to capture the stone before Black gets the chance to play a ladder breaker.]
;B[rn]C[This is an example of what could happen.];W[rm];B[qm]
;W[ql];B[pm];W[om];B[pl];W[rl];B[so];W[pk];B[ol];W[qj];B[on]
;W[oo];B[nm];W[nn];B[mn];W[no];B[mm];W[kp]C[You benefit from attacking Black's weak group.]
))
(;W[po];B[qo];W[qn];B[qp];W[pn]LB[qk:A][mq:B]C[In this shape, Black has a choice of A and B.

Ideally, Black would like to play at both A and B. But Black is not allowed to play twice in a row.

Black can only choose one possibility.

Let us return the the real game to get a deeper understanding of this choice.]
))
