(;FF[4]GM[1]SZ[19]ST[2]CA[UTF-8]AP[SGFC:1.15]

GN[ggozad-Ksu-243148-20061115]
PB[Aris P (Ksu)]
BR[14k]
HA[2]
PW[G. Gozadinos (ggozad)]
WR[10k]
KM[0.5]
DT[2006-09-16,2006-11-15]
PC[Dragon Go Server: http://www.dragongoserver.net/]
RE[W+Resign]
RU[Japanese]

AB[pd][dp]C[Hello, and thank you for taking the time to review this! I've marked some moves on which I'd like you to comment, but please do comment on the game as a whole, too.]
;W[pp];B[dd];W[qf]
(;B[md]C[Upon doing some research later I found that the standard continuation in this position would be black O16 rather than N16. Is N16 a tad too far?

----------
It's kind of a loose move, it leaves white a lot more room if he goes in to the 3-3]

(;W[pj]
(;B[qe]C[----------
This is something to wait on. Before this, white's side is more invadable. R15 just encourages white to wall up, but doesn't remove the possibility of R17 for white. R16 would be a better way to wall up the corner.]
;W[pf]
(;B[jp];W[cf];B[df];W[dg];B[ef];W[ce];B[cd];W[gd]C[A deviation from standard joseki; I was a bit startled. Considering the following moves, is there a comment you can make on my answer? I was confused with this one.]
;B[fc]C[----------
This response is fine. It preserves the cutting point and undermines white's attacking stone.]
;W[fd];B[ed];W[gc]C[----------
This is where the top fell apart. It's more important here to just defend than try to attack, since white gets an easier life capturing F17.]

(;B[jc];W[ec];B[db];W[eb];B[dc];W[fb]C[----------
All your groups are pretty strong and safe at this point, so it's a good time to take the offense.]

(;B[gf];W[id];B[jd];W[hf];B[gg];W[ci];B[ck];W[dn];B[dl];W[ep]

(;B[eo];W[do];B[eq];W[fp];B[cp];W[fq];B[er];W[fr]
(;B[fn]C[I thought I could still save the corner if white invaded it now (so I tried to save my E5 stone) but that turned out to be untrue. Was losing the corner due to my inablity to respond correctly, or was there no way to save it after white's invasion in the following move?]
;W[cr]
(;B[bq];W[dr];B[dq];W[es]
(;B[em];W[bo];B[bn];W[bp];B[cq];W[br]C[Maybe I should have resigned here, but I thought I had a chance if I could kill both the white weak groups at the upper left... was it too far-fetched?

----------
Loss of the lower left hurts, but the game is far from over once black takes down white's C14 group.]
;B[bg];W[cg];B[bd];W[be];B[bj];W[bi];B[eh];W[mq];B[hb];W[gb]
;B[ib];W[ie]
(;B[jf];W[je];B[kf];W[ke];B[lf];W[ig];B[lh];W[ii];B[ih];W[jh]
;B[hh];W[jg];B[ki];W[ji];B[kj];W[hi];B[gi];W[hg];B[hn];W[io]
;B[in];W[jo];B[jn];W[gh];B[hh];W[fh];B[fi];W[lc]C[----------
Overplay by white looking for his last chance I think. You can cut this off without fear.]

(;B[lb];W[ld];B[mb];W[mc];B[ob];W[nb];B[oc];W[nc];B[na];W[nd]
;B[le];W[kd];B[ne];W[me];B[oe];W[kb];C[Result: W+Resign

In general, what do you think was the determining factor of my loss; losing the lower left corner? Neglecting the rest of the board to attack white's weak groups? Or maybe that kind of thinking was correct in theory, but I simply didn't have the ability to follow up on it?

Thanks again for the review!]N[RESULT])
(;B[ld];W[kd];B[kc]
(;W[lb];B[nb]
(;W[ic];B[ka];W[jb];B[kb];W[la];B[ja];W[ha])
(;W[kb];B[jb];W[ic];B[mb];W[ja];B[la]))
(;W[mb];B[mc];W[lb];B[nb];W[ic];B[kb];W[ka];B[jb])
(;W[mc];B[nc];W[nb];B[ob];W[oc];B[nd]
(;W[pb];B[mb];W[oa];B[lb];W[qc];B[od]C[----------
White can take some corner but since he could have invaded all along it isn't as bad as losing the top group and corner both.]
)
(;W[mb];B[pb];W[kb];B[jb];W[la];B[na];W[ic];B[oa]))))
(;B[mo]C[----------
With the position to the left it's a good time to be thinking about using the center.]
;W[pn];B[ih];W[kf]
(;B[ql]C[----------
Invading around here or at R3 (or both depending how things go) could be a big hit and swing the game in blacks' favor again. Some are long shots, but possible all the same.]
;W[pl];B[qh]
(;W[ph];B[qk]
(;W[pk];B[qj];W[qi];B[ri];W[pi];B[rg];W[rf];B[ro])
(;W[qj];B[pk];W[ok];B[ol];W[pm];B[oj];W[nk];B[rj];W[oi];B[rh]
;W[rf];B[rn];W[ro];B[rm]))
(;W[qk];B[oh]))
(;B[qq];W[pq];B[pr];W[or];B[rr];W[ps];B[qs]C[----------
A ko for life is easy to make.];W[qr];B[tt];W[tt];B[pr];W[tt]
;B[os]))
(;B[kf]C[----------
Attack white a litlte more loosely. The K14 jump made White's push at K15 painful and ultimately endangers the K17 stones.]
)
(;B[jh]C[----------
Or even a little more loosely, aiming maybe not to kill, but to build up your territories by pushing white where you want him to go.]
))
(;B[bn]C[----------
Last chance to save the corner here.]))
(;B[cq]C[----------
C3 is the best chance to save things in this corner.];W[dr]
;B[dq];W[es];B[bn]
(;W[bm];B[cn];W[cm];B[dm])
(;W[bo];B[co];W[cn];B[bp];W[bm];B[ao];W[en];B[fo];W[fm];B[hn]

(;W[gm];B[hp];W[dm];B[br]C[----------
Big failures for white trying to cut black off, can't save both groups and the cut idea backfires.]
)
(;W[hp]))
(;W[bq];B[bp];W[br];B[cn];W[en];B[fo];W[fm];B[hn];W[gm];B[hp]
;W[el])))
(;B[cr];W[fn]C[----------
It's better to take the safe route here. You trade white's safety for your own. K4 can still be a thorn in white's side, too.]
))
(;B[do];W[eo];B[cn];W[dq];B[cq];W[cp];B[co];W[cr];B[bp];W[eq]
;B[np]))
(;B[ch];W[cg];B[cj];W[bh];B[bi];W[dh];B[ci];W[fh];B[gf];W[fg]
;B[ff];W[ib])
(;B[cj];W[ch];B[ej]C[----------
Lets white off the hook a bit by avoiding a big fight, but good way to aim at a big moyo in the lower left.]
))
(;B[fb];W[kc]C[----------
R15 returns to haunt black here. The possibility of the corner invasion makes it difficult to solidify much of the corner with one move.]
;B[mc];W[qc])
(;B[eb];W[fb];B[ec];W[kc])
(;B[ec]))
(;B[dj]C[----------
If you're willing to play a game of moyos, the sanrensei works better with the top right, working towards a bigger overall moyo.]
))
(;B[qd]C[----------
This doesn't encourage white as strongly to wall up his side yet, and removes the corner invasion.]
))
(;W[qc];B[qd];W[rd];B[re];W[rc];B[qe];W[ob];B[nb];W[nc]C[Not being so cramped in the corner allows white some room to do things like this.]
))
(;B[nd]C[----------
It may seem small, but O16 is strong, reinforcing solidly.]

(;W[qc];B[qd];W[rd];B[re];W[rc];B[qe];W[ob];B[nb];W[pb]C[----------
This creates a much thicker position for black and white is nicely contained.]
)
(;W[pj];B[jc]C[----------
A probable outcome since white played Q10 in the real game.]
)))
