(;FF[4]GM[1]SZ[19]ST[2]CA[UTF-8]AP[SGFC:1.15]

PB[vingo]
BR[1k]
PW[sockenbert]
WR[1k]
KM[6.5]
DT[2006-12-19]
PC[The KGS Go Server at http://www.gokgs.com/]
RE[W+Resign]
TM[60]
OT[25/300 Canadian]
RU[Japanese]

C[Dear Reviewer,



I chose this game because it seems I was behind by a few points for most of the game. In the end I caught up to take the lead by a few points, so after counting, my opponent resigned. In this game I cannot really find any mistakes I made myself. Thats why I believe it is a good game to review.



I have added comments about my thoughts during the game and after.



It would be great to identify where the biggest weaknesses in my game is, so I can specifically work towards improving that. Also any comments about how you think I should continue studying would be great.



Thank you very much for looking at this game

Chris];B[qd];W[cp];B[pq];W[dc];B[ep];W[hp];B[dm];W[eo];B[fo]
;W[dp]C[Chris: I felt like solid terretory in this game so I went for this variation hoping to get a shimari in the top left to restrict blacks influence, before he can approach there.]
;B[en];W[eq];B[do];W[fq];B[oc];W[po];B[qm];W[on];B[np];W[qq]
;B[qr];W[qp];B[or]
(;W[qi]C[Chris: Even though my group will suffer a bit, I thought it would be imperative to get a stone on the right side, before black can utilise his shimari properly.

janr: usually white plays as in te variation, keeping black low without the possibility to separate white in two weak groups]
;B[om]LB[qk:B][pl:A]C[janr: Black may also consider A or B]
;W[nm];B[ol];W[qf];B[nn]LB[oi:B][nl:C][no:A]C[janr: the atari at A is painful for black.  It would be better to first play B or C]
;W[no];B[mn];W[mo];B[pn]C[Blac is making white stronger, without any hope of being able to attack white later.  Blacks group on the bottom right is getting very weak.]
;W[oo];B[qo]C[Black is further weakening both his groups];W[ro]
;B[qn];W[pp];B[nq];W[lq];B[lr];W[kr];B[mr];W[cf];B[ln];W[lo]
;B[ic];W[gc];B[ld];W[oi]C[Chris: This move was difficult to come up with and I really am not sure what move would have been bigger or more urgent instead.

janr: this move is a good and simple idea.  As white is ahead, he does not need to do complicated things.]
;B[ml]C[janr: Black has even to defend];W[dj]C[Chris: This is another one of those moves. I am not sure where the biggest/most urgent point on the board is.

janr: it is the last open place, so it can not be bad];B[cc]
;W[cd];B[db]
(;W[bc]C[janr: the variation shows another possibility, that keeps the situation simple.  As white is ahead, there is no need to start complications]
;B[ec];W[cb];B[ed];W[kc];B[kd]LB[lc:A]C[janr: it may be better for black to play A and to start a fight]

(;W[nc]C[janr: this is dangerous.  White should be sure to live

I think it is simpler to not strengthen black and just start the favorable running battle in the variation]
;B[od];W[jc];B[id];W[jd];B[je];W[ib];B[hb];W[jb];B[hc];W[mb]
;B[ob];W[ie];B[he];W[nd];B[ne];W[me]C[Chris: Up until here I read the sequence out.]
;B[le];W[md];B[mf]LB[lc:A]C[janr: black should first play a A to reduce the eye space]
;W[nf];B[oe];W[lf];B[mg];W[lc];B[ke];W[nb];B[if];W[rd]
(;B[rc]C[janr: Black can take the stone (probably in sente)]
;W[re];B[sc];W[mi];B[kq]
(;W[kn];B[jq];W[mm];B[lm];W[km];B[nl];W[kp];B[hq];W[hr];B[iq]
;W[ef]C[janr: Tenuki is not good];B[jo]C[black gets the opportunity to attack]
;W[ko];B[io];W[im];B[cj];W[ci];B[ck];W[bi];B[gl];W[jk]
(;B[ng]C[Black can continue the attack];W[bn];B[kj];W[kk];B[lj]
;W[jj];B[ph];W[qh];B[pi];W[pj];B[oj];W[lk];B[mj];W[nj];B[ok]
;W[mk];B[nk];W[ki];B[ni];W[li];B[nj];W[pg];B[ji];W[oh];B[ii]
;W[hk];B[gk];W[hj];B[fi];W[gh];B[fh];W[ij];B[di];W[dh];B[ei]
;W[gj];B[fj];W[rr];B[rs];W[sr];B[gq];W[gr];B[hm];W[hl];B[in]
C[Chris: Here I counted and I think White is about 10 points behind. So I tried to play the best endgame I could think of.]
;W[fp];B[gp];W[ir];B[jr];W[oa];B[pa];W[na];B[qb];W[rl];B[rn]
;W[sp];B[dd];W[cc];B[de];W[df];B[ce];W[be];B[cn];W[bm];B[qk]
;W[rk];B[qj];W[rj];B[pk];W[ha];B[ga];W[gb];B[fa]
(;W[ge]C[janr: white should save the three stones before black blocks the exit]
;B[fe];W[gf];B[gd];W[hh];B[ih];W[eb];B[fb];W[nh];B[mh];W[of]
;B[kh];W[da]C[Chris: My opponent thought White was 10 points ahead now, so he resigned.]
)
(;W[fb];B[ea];W[eb];B[ia];W[fd]))
(;B[nh];W[ni];B[lj]))
(;W[kp];B[jq];W[jp];B[iq];W[hq]))
(;B[re];W[qe];B[rf]
(;W[rc];B[qg];W[pd];B[qc];W[pc];B[qb];W[pf];B[pg];W[of];B[og]
)
(;W[rg];B[rc];W[sf];B[sd];W[qg])))
(;W[fb];B[eb];W[ge];B[ef];W[fg];B[eg];W[fh];B[eh];W[fi];B[ei]
;W[ej];B[ch]C[It may be difficult for black to survive in the simple way]
))
(;W[ec];B[bc];W[eb];B[ca];W[bd];B[bb]C[White has sente]))
(;W[pl];B[qk];W[pk];B[qj];W[pj];B[qi];W[kc]))
