(;FF[4]GM[1]SZ[19]ST[2]CA[UTF-8]AP[SGFC:1.15]

PB[K2na]
BR[10k]
PW[retour]
WR[9k]
KM[0.5]
DT[2006-12-30]
PC[The KGS Go Server at http://www.gokgs.com/]
RE[B+35.50]
TM[900]
OT[4x20 byo-yomi]
RU[Japanese]

C[Hi,

I played an interesting game against a 9k, a game which I think deserves a little analysis, as it sometimes highlights some typical poor or good play by my side. If anyone is willing to share some of his knowledge with me, I'll be glad.

K2na

Reviewed by DrGoplayer, 1 dan AGA
There are a number of direction of play errors by both players.  I think this is the most helopful area to comment on.  I also added some other comments and variations.

Tom];B[qd];W[dd];B[pq];W[dp];B[oc];W[dj];B[qo]C[I have always tought that letting black play two corner enclosures gives him an easy game. This white san-ren-sei does not look too threatening to me.

Agreed.];W[qf]C[This looks strange to me, a bit too close. As white, I would have rather played R11 or K3, both big points for black.

Yes plays at K3 or R11 seem bigger]
(;B[qj]LB[qh:A][qi:B]C[Trying to pincer his lonely stone. I'm wondering if I should have played it at R11 instead. Anyway, this right side now looks a bit low to me.

The low pincer is better I think.  At this point it is not a moyo game so 3rd line takes territory.  I would pincer at A or B.  The shimari is very strong so press severely against it.  With A white has no chance for an eye on the edge and must eventually run or give it up.

See the variations from A];W[qm]C[Yet another invasion. I think the timing is bad, as white now has to take care of two weak groups.

Absolutely!]
(;B[pm]LB[pn:A]C[See the variation for w on A for w]
(;W[ql];B[pl];W[qn];B[pn];W[qk];B[pk]C[These variations are all good results for B as the wall and thickness will be very helpful]

(;W[pj]C[see variation and next comment]
(;B[pi]C[see variation for w]
(;W[oj];B[rj]C[white looks dead here.

Yes a poor result for w];W[po];B[oo];W[pp];B[qp];W[mp];B[op]
;W[mn]C[w is attacking a strong group and trying to build a moyo.  I would ignore the attack and break up the moyo with j3.
See a couple variations]
(;B[fp]
(;W[en]C[wrong direction]
(;B[cq]C[now b has two weak groups. see the variation];W[dq]
;B[cp];W[co];B[bo]C[see the variation for w here]
(;W[cr]
(;B[br]C[Poor. My opponent locks me in the corner];W[bp];B[bq]
;W[bn];B[ap];W[cn]LB[do:A][dr:B]C[b lives in sente and there are a couple weak points in w wall that b can peek at if needed]
;B[jo]C[I think playing lightly to the center was needed, as some white J4 would have been annoying.

Yes as w I would extend further]
(;W[kq];B[iq];W[nq];B[jr];W[kr];B[fr];W[cs]C[?

meaningless.  b is not threatened.  ignore]
(;B[bs]C[unneeded and provokes next w move];W[er]C[Now I get to play a few moves that strenghten my bottom group. I do not know if they are all sente, but they looked quite big to me.

True but these two stones helped w a lot more than black];B[es]
;W[dr];B[lo];W[mo];B[or];W[nr];B[lp];W[lq];B[km]C[This helps me run and put some pressure on the white group besides.]

(;W[gn]C[this is too slow for w.  see variations];B[ho]
(;W[mr]
(;B[pg]C[I think this is still small]
(;W[pf]C[see variation.  this is a really bad idea];B[of];W[og]
;B[oh];W[ng];B[oe];W[nh];B[rh]C[they key point to me. White should be dead now (but see what happens during the game ;o) ).]
;W[qg];B[ph];W[oi];B[qh];W[mi];B[kj];W[mk];B[le];W[kc]C[This helps me more than white I guess, as he now needs to run to the center while I am building a strong group.

this is too closee to b thickness];B[ic];W[jd];B[id]
(;W[je];B[ie];W[jf];B[fc];W[ec];B[fd];W[ef]C[Black now has some nice lead in territory. So maybe just trying to reduce white left's side was enough to keep some lead in the game. But I tought there was some place left for an invasion, but this did not turn too well. I really wonder what a good player will do in this situation, as this left moyo is getting too big for my taste.

Well black is way ahead anfd w still has 2 weak groups]
(;B[ch];W[cf];B[eh];W[gg];B[eb]C[i wanted to help my upper group, but at each of the next few moves, I was quite afraid of some G11, locking me in.]
;W[db];B[ed];W[dc];B[jb];W[gi]
(;B[ej];W[dk];B[gj];W[dh];B[di];W[dg];B[fi];W[ci];B[hi];W[gh]
;B[fk];W[el];B[lg]C[with some cutting ideas. A useful move in my opinion.]
;W[ig];B[hf];W[hg];B[mc]
(;W[lb];B[mb];W[ek];B[gl];W[fm];B[hm];W[ei];B[fj];W[di];B[if]
C[black should now win with a fair margin.];W[jh];B[kg];W[jg]
;B[mm];W[nm];B[ml];W[nl]
(;B[ln];W[nn];B[lk];W[mj];B[lc];W[kb];B[jc];W[kd];B[fb];W[jj]
;B[jk];W[ij];B[ik];W[hj];B[hk];W[ki];B[da];W[ca];B[ea];W[bb]
;B[eo];W[go]C[Big mistake.];B[do];W[dn];B[gp];W[an];B[ao];W[fo]
;B[ep];W[lj];B[kk];W[ld];B[md];W[mf]C[Did not see this one coming...]
;B[me];W[lf];B[ke];W[kf];B[hn];W[fh];B[gm];W[fn];B[jp];W[fl]
;B[gk];W[ge];B[gd];W[gf];B[ok];W[nk];B[oq];W[rg]
(;B[sg]C[this is wrong direction.  w can never live on this side]
;W[sf];B[sh];W[rk];B[se];W[sj]
(;B[si];W[ro];B[rp];W[so]
(;B[sm];W[rm]
(;B[sp]C[see variation];W[sl]C[oups];B[sk];W[sn];B[rf];W[sj]

(;B[js]C[Retour also tought this was some strange move.];W[ri]
;B[qi];W[re];B[qe];W[sf];B[sk]C[The two ko's save the day for black.]
;W[sd];B[pe];W[rc];B[rf];W[qc];B[pb];W[qb];B[pc]
(;W[ra];B[sb];W[rd];B[nf];W[ma];B[na];W[la];B[nb];W[ee];B[fe]
;W[ff];B[ks];W[ls];B[ja];W[os];B[ps];W[ns];B[jq];W[he];B[hd]
;W[hb];B[gb];W[ga];B[ia];W[ha];B[hc];W[kp];B[ko];W[qr];B[pr]

(;W[bh]C[Useless];B[sj];W[gs];B[gr];W[tt];B[tt]TW[aa][ba][ab]
[cb][ac][bc][cc][ad][bd][cd][ae][be][ce][de][af][bf][df][ag]
[bg][cg][eg][fg][kg][lg][mg][ah][ch][eh][hh][ih][kh][lh][mh]
[ai][bi][hi][ii][ji][li][ni][aj][bj][cj][nj][ak][bk][ck][al]
[bl][cl][dl][rl][am][bm][cm][dm][em][sm][rn][mq][lr][ms]TB[fa]
[ga][ha][oa][pa][qa][ra][sa][hb][ib][ob][qb][rb][gc][nc][qc]
[rc][sc][nd][od][pd][rd][sd][ne][re][se][pf][qf][sf][qg][rg]
[ri][hl][il][jl][kl][ll][im][jm][lm][in][jn][kn][io][po][bp]
[dp][hp][ip][pp][aq][dq][eq][fq][gq][hq][qq][rq][sq][ar][cr]
[dr][er][hr][ir][qr][rr][sr][as][cs][ds][fs][gs][hs][is][qs]
[rs][ss]C[So the game ended with some +35.5 lead for black. I hope the kind reviewer (yes, you ;o) ), will help me with the weaknesses I saw, and also the ones that went unnoticed. Thanks ^^.

K2na])
(;W[sj]))
(;W[sb];B[ra]))
(;B[qe]))
(;B[sl];W[ri];B[sk];W[sn];B[sp]))
(;B[rm];W[sm];B[sl];W[sn];B[rl]))
(;B[rf];W[re];B[qe];W[sf];B[pe]C[was much safer.]))
(;B[rn];W[re];B[rd];W[sh];B[si];W[ri];B[sg];W[sf];B[rk];W[sh]
;B[qi]))
(;B[nn];W[np];B[lj]))
(;W[gl]C[Looked much better, with some cuts and nice follow-ups.]
))
(;B[cj];W[di];B[ci];W[dk];B[bg];W[bf];B[bl]))
(;B[dh];W[eh]C[and I also have doubts whether black can do anything inside.]
)
(;B[lg]C[this separates them];W[if];B[hf];W[hg];B[gg];W[hh]
;B[ff];W[eg];B[gh];W[hi];B[jh]C[this stone helps keep b connected here]
;W[jg];B[ml]C[now separate again];W[nl];B[mm];W[nm];B[nn]C[m1 and o4 kill]
;W[np];B[nj]C[very hard for w])
(;B[hg];W[kg]C[trying to build up strength for leftside invasion doesnt seem to work]
))
(;W[jf];B[ie];W[kf];B[lf];W[ll];B[kl];W[kh];B[ec];W[dc];B[ed]
;W[ee];B[fe];W[ff];B[ge];W[df]))
(;W[jc]C[now w has a chance again]))
(;B[fc]C[potential territory for w is around here]))
(;W[ml])
(;W[ln]C[this move gets w out pretty easily]
(;B[kn];W[jp];B[ko];W[ip];B[io];W[hp])
(;B[jp]C[the b groups still has some weaknesses but is hard to kill.  The stone at E2 should not hvae been induced by b]

(;W[kn];B[jn];W[ml]
(;B[jl])
(;B[im]C[It is better for w to run out and only make life on edge if trapped]
))
(;W[fq];B[gq];W[gp];B[eq];W[ep];B[go];W[fq];B[hp];W[gr];B[hr]
;W[fs];B[fo]))))
(;W[jp]
(;B[ip];W[ko];B[ln];W[kn];B[lm];W[jn];B[io];W[kp];B[mm];W[nm]
;B[nn];W[nl])
(;B[io];W[ip];B[hp];W[ko];B[ln];W[kn];B[lm];W[kp];B[jn];W[ho]
;B[gp];W[jm];B[in];W[mm]C[placement at G2 may kill b group]
)))
(;B[lo];W[mo];B[lp];W[lq];B[or];W[nr];B[km]))
(;W[jq]C[This seems better for w]
(;B[kq];W[kp];B[jp];W[lq];B[iq];W[jr];B[ir];W[kr];B[hp])
(;B[lo]
(;W[mo]C[wrong for w.  must resist];B[kq];W[kp];B[jp];W[lq]
;B[kr])
(;W[kp]C[these variations are good for w]
(;B[mo];W[ko];B[kn];W[ln];B[no];W[jn];B[km];W[io]C[good for w]
)
(;B[ko];W[mo];B[iq];W[hp]C[b gets heavy])))
(;B[hp]C[this seems too slow for b];W[go];B[gp];W[hn])))
(;B[cn];W[do];B[br];W[bp];B[bq];W[bn];B[ap]C[w needs another move here so loses sente]
))
(;W[cn];B[bn];W[bm];B[dr];W[er];B[cr];W[eq];B[jo];W[jq]C[It will be hard for b to prevent w from getting a lot of territory here]
;B[hp]
(;W[go];B[gp];W[hn])
(;W[ip];B[io];W[hq];B[jp];W[iq];B[kq];W[kp];B[lp];W[ko];B[lo]
;W[kn])))
(;B[dq];W[cq];B[eq];W[cr];B[jq];W[jo]LB[cj:B][ck:C][dk:A][mn:F]
[jo:D][mp:E][lq:G]C[b can reduce left side at AB or C so not much secure terr for w.  The marked stones are not settled anfd can be attacked.  Black at G settles the b stones and removes base from w]
))
(;W[hq]C[This helps the 2 white stones while squeezing b]))
(;B[pg]C[i do not know if one is more precise than the other...

I think this is the wrong direction.  W is way behind in cash and hopes to rectify that along the bottom.  B is only gaining 15 points here at best]
;W[iq]C[This is giving w a chance])
(;B[iq]
(;W[kq];B[fq];W[dr];B[jp];W[ko];B[in]C[This better for w but there is no potential moyo and little territory on left yet]
)
(;W[fq];B[lq];W[mq];B[mr];W[nr];B[lr];W[nq];B[ko]LB[bo:C][bp:B]
[cp:A]TR[mn][mp][mq][nq][nr]C[marked stones are under attack and invasion at ABC is still open]
)))
(;W[rj]C[This is better for w];B[qi];W[ri];B[rh];W[qh];B[ph]
;W[qg]C[15 pooints of terr against the big wall]))
(;B[rj]C[I would just do this because of next variation for w]
))
(;W[rj]C[I can not find any variation that enables me to kill white...]

(;B[qi];W[ri];B[rh];W[ro];B[qp]C[looked better to me, as it grabs some nice territory. Black's wall has some cutting points, but I thinks it is quite strong.]
)
(;B[ri]
(;W[qi];B[pj];W[rh];B[rk];W[si];B[rl])
(;W[rk];B[qi];W[ro];B[pg];W[oe];B[pf]
(;W[pe];B[qe])
(;W[qe];B[pe];W[rd];B[qc];W[rc];B[rb];W[rh];B[rg])))))
(;W[pn];B[qn];W[pl];B[om];W[ql]LB[pk:B][ol:A]C[Now w can try to attack the single stone]
))
(;B[pl]LB[nf:A]C[This helps the weak stone.  If R10 becomes strong enough then cap near A]
))
(;B[qh]
(;W[of];B[oh];W[mf]
(;B[pl]C[The shimari is in no danger of dying])
(;B[mh];W[mc];B[md];W[ld];B[nd];W[le];B[gc]))
(;W[qj];B[oh];W[oj];B[mh];W[qm])))
