(;FF[4]GM[1]SZ[19]ST[1]CA[UTF-8]AP[SGFC:1.15]

PB[pansan24]
BR[22k]
PW[mangafan]
WR[22k]
KM[6.5]
DT[2006-09-23]
PC[IGS-PandaNet]
RE[B+6.5]

C[[Calvin\]: Hello.  I hope you enjoy this review.  Remember that I am amateur and there is a lot I still do not understand about that game.  I can only tell you a few things that I am able to see at my level which may be useful to you.

Both players seem stronger than 22k, and can look forward to rapid improvement.  Black needs to focus on ignoring small, unimportant threats by his opponent.  All kyu players should spend as much time as possible on life and death problems to improve reading ability.  There are a couple of life and death problems in this game which almost determined the outcome of the game, and this is frequently the case, even up to the pro level.

The other important lesson is that the player who is ahead should avoid dangerous kos.]
;B[pd];W[dq];B[cd];W[qp];B[co]C[[Calvin\]: The first five moves are normal.  There are many professional games that start this way.]

(;W[fr]C[[Calvin\]: This move is incorrect.  The keima (knight's move) is a common response to an approach to the star point (D4) but white's D3 stone is already on the third line, so in this case we don't keima because playing on the second line in the early opening is too low unless there is some other strategic benefit.  See variations.]
;B[cl]C[[Calvin\]: Making a base at C8 is a solid strategy for black.]
;W[qf]LB[ec:A]C[[Calvin\]: It is bigger for white to approach at A.  Usually, making or destroying a shimari (enclosure from a 3-4 point surch as C16) is bigger than approarching a star point.]
;B[of]LB[jd:A]C[[Calvin\]: Usually this move is only played when there is a black stone near A already.]
;W[qh]LB[qc:A];B[op];W[pq]C[[Calvin\]: This move helps black.]

(;B[kp]LB[oq:A]C[[Calvin\]: This is a light way to play, but black can just block at A (P4).  See variation.]
;W[en];B[oi]C[[Calvin\]: It's a basic strategy to try to surround your opponent's weak groups.]
;W[fk]
(;B[ci]LB[dj:A]C[[Calvin\]: Locally, A is better balance because black's position is low on the left, with all stones on the third line.  However, I think black should follow up on with his attack on the right side.   See variation.]
;W[fi]C[[Calvin\]: This move accomplishes nothing.];B[fd]LB[cc:A]
[hc:B]C[[Calvin\]: A big move.  With this nikken-tobi shimari, black should be aware that there are weaknesses at A at B for white to exploit.]
;W[ie];B[ic]C[[Calvin\]: A good move, which helps black's corner.]
;W[ke]
(;B[lc]C[[Calvin\]: Black should make sure not to just follow white around.  White 22 is a small move and doesn't require a response.  Black should look around the board and find urgent moves and big moves according to the relative weakness/strength of groups.  See variation.]
;W[mg];B[og]C[[Calvin\]: A solid defense.];W[oh]C[[Calvin\]: An overplay.]

(;B[nh]C[[Calvin\]: Black can consider the atari from the other side.  See variation.]
;W[ph];B[mh]LB[ng:A]C[[Calvin\]: Connecting at A is usually better, even though it makes the empty triangle.]
;W[kh];B[ki];W[li];B[lh];W[kj];B[ji];W[jh];B[lj];W[lk];B[mj]
;W[mk];B[nj]LB[ii:A]C[[Calvin\]: Slow.  A is bigger.];W[pi]

(;B[ok]LB[pj:A]C[[Calvin\]: Locally, A is better shape because white can play there in sente.  This move is slow because black is actually connected already.  See variation.]
;W[nl];B[pm];W[pn];B[on];W[om];B[ol];W[nm]
(;B[qn]LB[po:A]C[[Calvin\]: It may be better to atari from the weaker side, at A.  See variation.]
;W[po];B[ql];W[qj];B[ii];W[hh]
(;B[ik]C[[Calvin\]: Black is moving from the strong side here.  I think the direction is wrong.  See variation.]
;W[jk]
(;B[im]LB[il:A]C[[Calvin\]: Black should just extend at A.  Jumping like this gives white forcing moves that can be used to help settle his group.  This can be seen later as white cuts through here.]
;W[jm];B[io];W[jo];B[jp];W[il];B[hl];W[jl];B[hn];W[ij]
(;B[hj]LB[hk:A]C[[Calvin\]: Black can just connect at A.  See variation.]
;W[hk]
(;B[jj]LB[gk:A]C[The atari at A is better.  This way, white connects his weak group out.]
;W[ik];B[kk];W[hi];B[gl];W[kl]
(;B[kj]LB[mi:A]C[[Calvin\]: It's tiny for black to connect here.  If white captures, black can always capture at A.   Don't just answer your opponent's moves.]
;W[jn];B[el];W[fl];B[fm];W[em];B[fn];W[in];B[ho];W[hm]
(;B[gm]SQ[gl][hl]C[[Calvin\]: The two marked stones are unimportant since white is already connected out.  Black should sacrifice them.  See variation.]
;W[gk];B[im]C[[Calvin\]: This move is tiny.  The miai value is 1/3 of a point, so it's best left to the very, very late endgame.]
;W[ek];B[dl];W[dm]
(;B[cm]LB[eo:A]C[[Calvin\]: Black can capture white's three stones at A.  See variation.]
;W[eo];B[mp]C[[Calvin\]: An important defense point.];W[mo]
;B[lo]LB[no:A]C[[Calvin\]: The other hane at A is better.];W[ln]
;B[mn];W[no];B[np];W[oo];B[nk]LB[re:A][bq:B][or:C]C[[Calvin\]: A small move.  Big moves are at A, B, and C.]
;W[ko];B[lp];W[nr]LB[rd:A][cc:B]C[[Calvin\]: White starts the endgame.  This is part of the reason white is able to catch up.  I think it is better for white to slide at A since that group is weak, but white has the right idea.  Actually, white is behind enough that maybe something more aggressive is in order, such is attaching at B.]
;B[mr]LB[lr:A]C[[Calvin\]: It may be better for black to hold back at A.  This move gives white forcing follow-ups.]
;W[ms];B[lr];W[ir]LB[or:A]
(;B[jr]C[[Calvin\]: Black can consider A.  See variation.];W[jq]
;B[iq];W[js];B[kr];W[hr];B[hq];W[gq];B[gp]LB[re:A][dg:B][bq:C]
[ro:D]C[[Calvin\]: Black is following orders again.  G3 is not sente for white.  Black could consider big moves near the edge of the board such as A, B, C, or D.]
;W[fp];B[fo];W[cn];B[bn];W[bo];B[ep];W[do];B[fq];W[gr];B[cp]
;W[dp];B[bp];W[cq];B[dj];W[eq];B[fp]LB[re:A]C[[Calvin\]: A 4-point gote.  A move such as A is much larger.]
;W[bq];B[dn];W[cg]C[[Calvin\]: Black is about 30 points ahead right now, so white tries something desperate.]
;B[dh];W[dg];B[eg];W[eh];B[ef]C[[Calvin\]: Cutting off like this is good.]
;W[df];B[de];W[ch];B[di];W[bi]
(;B[bj]LB[bf:A]C[[Calvin\]: Black A would give a direct kill.]
;W[be];B[bd];W[ce];B[ed];W[dk];B[ck]
(;W[ej];B[bh];W[bg];B[ai];W[af]C[[Calvin\]: White adds a stone to a dead group.]
;B[gg];W[hg];B[gf];W[hf];B[he];W[ge];B[hd];W[id];B[jd]LB[jc:A]
C[[Calvin\]: This move is greedy and white profits from it.   Black needs to extend solidly at A.   See variation for white's next move.]

(;W[je]C[[Calvin\]: White missed a big chance.  See variation.]
;B[kd];W[ld];B[md]C[[Calvin\]: Black has a lot of cutting points at the top.]
;W[jc];B[jb];W[kc];B[hb];W[mc];B[nd];W[kb];B[nc];W[lb];B[mb]
;W[ma];B[lc];W[ja];B[le];W[mc];B[nb];W[me];B[lc];W[lf];B[ne]
;W[nf];B[lg];W[kg];B[qe]SQ[af][be][ce][df][dg][bg][ch][cg]C[[Calvin\]: Finally, a big move.  Black is still far ahead because white's marked group is dead (for now!) and white has little territory.  Plus, this is sente for black.]
;W[re];B[rd];W[pe];B[qd];W[pf];B[oe];W[pg];B[rf];W[rg];B[se]
;W[sg];B[ri]SQ[rh][sh][qi][si]LB[qg:A]C[[Calvin\]: Black can't kill white here.  Some points are lost in the attempt.  It's important to see that A is clearly an eye and the marked spaces provide ample room for another.]
;W[rj];B[rk];W[sk];B[sl];W[sj];B[qk];W[pj];B[rp]LB[ro:A]C[[Calvin\]: An overplay.  A is maybe as far as black can go.]
;W[ro];B[rn];W[rq];B[so];W[sp];B[qo]LB[aq:A][ib:B]C[[Calvin\]: A tiny move.   The moves at A and B are much bigger.]
;W[sn];B[nq]LB[or:A]C[[Calvin\]: A is better.];W[or];B[oq]C[[Calvin\]: This is a dame point.]
;W[pr];B[sm];W[rm];B[so];W[rp];B[rl];W[pk];B[pl];W[ib];B[hc]
;W[ha];B[ga]C[[Calvin\]: This is dangerous.  See variation for white's next move.]

(;W[ia];B[fb];W[fh];B[fg];W[gh];B[ee]C[[Calvin\]: This is not necessary.]
;W[ah]C[[Calvin\]: A last, desperate attempt by white.];B[ag]
LB[bi:A]C[[Calvin\]: This is the losing move.  Black is over 20 points ahead on the board.  There is no need to allow this ko.   Black should just connect at A.]
;W[ad]
(;B[ac];W[ah];B[ae];W[bi]
(;B[aj]C[[Calvin\]: Black really can't afford to back off like this.  He must continue the ko.  On the other hand, it's hard for black to find large enough ko threats.  Black cannot expect to win the ko, but he can get compensation.  See variation.]
;W[bh]C[[Calvin\]: With this group alive, the game is now close.]
;B[aq]C[[Calvin\]: Black should have played here a lot earlier.]
;W[ar];B[ap];W[br];B[na];W[la];B[cn];W[ei];B[cj];W[ih];B[ng]
;W[mf];B[ls];W[ns];B[es];W[er];B[tt]
(;W[tt]C[[Calvin\]: This game is NOT finished.  In fact, it's possible white can win.  See variation.

In general, black was ahead for almost all of the game, because white played some early moves in the center that were not valuable.  However, white was able to close the gap some in the endgame and finally was able to save a group via ko which clearly should have remained dead.  When the possibility of ko arises it is important to take time to count the score and the ko threats. There is a proverb: "The rich man should not pick fights."  If one is far ahead on the board, one should not permit one's opponent to start a one-sided ko.]
)
(;W[oj];B[pp];W[nn];B[ni];W[sf];B[re];W[sn]C[[Calvin\]: If white wins this ko, white can win the game.]
;B[qm]C[[Calvin\]: However, if black just captures....];W[so]
;B[ad];W[hm];B[mc];W[im];B[ks];W[is];B[tt];W[tt]C[[Calvin\]: W+0.5.  Black is lucky white chose not to finish the game!]
))
(;B[ml];W[aj];B[pp];W[mm];B[nn];W[ll];B[ak]C[[Calvin\]: Black at least gets compensation for losing the ko.  This keeps black ahead.]
))
(;B[ah]C[[Calvin\]: Black can still connect.  White has no way to make another eye in the corner.]
))
(;W[gb];B[ia]C[[Calvin\]: White can start this ko, which is a burden for black.]
))
(;W[hc];B[gd];W[jc];B[ib];W[jb];B[hb]))
(;W[ai]C[[Calvin\]: White can just live.]))
(;B[bf]C[[Calvin\]: There is not enough room for white to make two eyes.]
))
(;B[or];W[oq];B[nq]C[[Calvin\]: I think this is better for black.]
))
(;B[eo]C[[Calvin\]: White cannot escape this net.]))
(;B[eo]SQ[dq][fr]C[[Calvin\]: Now white's marked stones are under pressure.]
))
(;B[re]C[[Calvin\]: Black should tenuki and take a big point.  This takes territory in sente.]
))
(;B[gk];W[ik];B[gj];W[gl];B[hm];W[hi];B[fl];W[fj];B[gm];W[gi]
;B[gl]SQ[en][dq][fr]C[[Calvin\]: Now white's marked stones are getting weaker.]
))
(;B[hk];W[jj];B[hj];W[hi];B[mi]C[White is still sealed in.]
))
(;B[il];W[km];B[oq]C[[Calvin\]: This is enough for black.]))
(;B[mp]LB[lm:A]C[[Calvin\]: It might be better for black to defend here first.  Later, black can aim at the vital point of A.]
))
(;B[po];W[qn];B[qo];W[ro];B[rn];W[qm];B[rp];W[rq];B[so]))
(;B[oq]C[[Calvin\]: If black spends a move defending his weak group...]
;W[ng]C[...white can't cut here.];B[lf]C[Black can simply net the stones.   Black is still ahead.]
))
(;B[ph];W[nh];B[pi];W[pg];B[qi];W[rd];B[pm]C[[Calvin\]: I think it's playable.]
))
(;B[oq]C[[Calvin\]: Black should defend his weak stones.];W[pn]
C[[Calvin\]:  If white defends the corner...];B[re]C[Black can attack white's weak stones and take territory at the same time.]
))
(;B[pj];W[rd];B[ic]LB[dj:A][bq:B]C[[Calvin\]: Black can go for the moyo.  Because black can escape at A or B, his  group is not in great danger.]
))
(;B[oq];W[pn];B[kq]LB[fp:A][bq:B]C[[Calvin\]: Settling like this is better for territory.   Black has good follow-up moves at A and B.]
))
(;W[ep]SQ[co]C[[Calvin\]: This is a common response.  It is very solid and puts pressure on black's marked stone.]
)
(;W[fp]C[[Calvin\]: White can also play here.])
(;W[ec]C[[Calvin\]: It is also common for white to tenuki, but this leads to a complicated fuseki and is perhaps not best for beginners.]
))
