(;FF[4]GM[1]SZ[19]ST[2]CA[UTF-8]AP[SGFC:1.15]VW[]

PB[trosle]
BR[4k]
HA[0]
PW[nub]
WR[4k]
KM[6.5]
DT[2007-01-05]
PC[The KGS Go Server at http://www.gokgs.com/]
RE[W+4.5]
TM[600]
OT[5x30 byo-yomi]
RU[Japanese]

C[trosle [4k?\]: hi
nub [4k\]: hello

To reviewer: I feel that this is one of the better games I have
played and would appreciate if most of the game is reviewed to
see where I can improve. I'm also a bit new to counting, it would
be helpful if you could mark key locations where I should take
a count before making my next move.

Notes have been left at some locations as well but please do
go over things which I do not ask myself as I may have missed
it, thank you.

CommanderW: Hello. I'm your reviewer. I'll call myself CW. I'll
take it for granted that you play White side form your sidenote,
but I'll review for Black side too.
I'm glad that you appreciated the importance of counting territory
to decide how to play. I hope you'll get better with it.];B[pd]
;W[dd];B[dp];W[pp]C[Are there known pro opinions on the cross fuseki? I like to play
games heavy on reading so when I'm white I always invite the
cross fuseki, not sure if this is correct...

CW: Ancient Chinese has this cross-star pattern as the set up
before the game so it's of course reasonable. You can't say that
a move is correct or wrong in such a situation when there are
very few stones on the board, unless you're opening on 1-1 point.
If you prefer fighting, then it's good for you, since naturally
the pattern will lead to some fierce ones. As for pro's opinion,
I don't know, but I took the following quote form Sensei's Library
wrote by Calvin: Takagawa played cross-hoshi as black almost
as much as he played a parallel point, and Ishida Yoshio seems
to have actually favored it.];B[nq];W[lq];B[no];W[pn]
(;B[iq]C[I see that black makes a mistake in joseki or so I believe
I'm not sure if my followup moves are correct.

CW: This move is good, although deviated form joseki. The fighting
is tougher for White, but he already got komi to compensate that.
You played well around here.
Concept: As long is the move is good enough, it doesn't matter
if it's joseki or not, and sticking too much to joseki is a good
way to lose your strength.];W[lo]C[CW: The only move of course.]
;B[nm]
(;W[pl]C[CW: This too is good and the only move.
Concept: Almost never allow your stones to be blocked at the
head (their direction of development). Please underline the word
"almost" too. Every rule has exceptions.];B[io];W[lm];B[nk]
;W[pj]
(;B[cf]C[CW: Black can try to attack White continuously too. but if he's
unsure how it will turn out, tenuki like this is a good idea.
Black has an acceptable framework on the bottom (There is a serious
defect at 3-3, if White invades then she'll get almost as much
territory as Black, but Black isn't worry now since he can block
on C4 side to get useful influence instead. He must watch out
for the potential, however.), a weak group to attack (well, at
least weaker than his own group) and gained sente to play C14
that combines with his lower side strength, he's doing well.]

(;W[fd]TR[dp][io][cf]SQ[lm]C[I'm not sure if this is correct, my thoughts on this was to reduce
the influence that the triangled stones will emit and at the
same time make it easier for the squared stone to connect. Or
is it better to play F17 with the b stone at Q16?

CW: The framework Black threats to make is serious, you must
upset
Black's plan no matter what. It's more important here than worrying
about the squared group. As I've said, you've got komi to compensate
your disadvantages about that group. This move almost doesn't
reduce Black's lower influence at all. I think if White had lost,
I can call this the losing move.
For your question, both
moves are playable, though you must play around the upper side
after F16, otherwise a Black attack at H17 will be severe. In
this game though, Black's framework become too serious and thus
in
reality White has no time to play in the upper side (though I
see you did that). So I prefer F17 between these two moves.]

(;B[cj]C[CW: A one line but huge mistake. The scale of Black's moyo has
reduced dramatically. Moreover, White now has C12 in his disposal.
Concept: Play on the fourth line for large frameworks.]
(;W[nc]C[CW: Oh...I can't understand this move at all, does White really
want to give it all to Black? It's a quarter of the board!]

(;B[qf]C[Not sure if this was the correct direction of play...

CW: Of course not. Black missed his second chance to wrap up
the game.];W[jc]C[CW: Again, you must care about the framework.]
;B[cc]C[CW: This is the fourth move by both players that show no interest
in 40-50 points framework. I think I'll not saying anything more
about it for the moment.];W[cd];B[bd]
(;W[dc]C[Unsure if the alternative at B15 is better...

CW: It's of course better.];B[bb];W[cb];B[bc];W[oq]C[This seemed like a good move

CW: I don't know. You gained something in this move but if Black
plays correctly, he gains something too. I don't know which side
gains in the exchange.]
(;B[nr]C[CW: This move makes White P3 really good.];W[lk];B[ni]

(;W[qh]C[CW: This move is way too small! You're already perfectly alive,
why claim for such small territory? If you say you want to attack
Black, I think he isn't in that much trouble since your left
side group is unstable too.];B[cp]C[This hurt :( I was planning to play there soon

CW: You have had a lot chances. Now let's do some counting. In
counting, we count the minimum points possible plus potential.
Black
has 24 points on the lower left corner, 5 in upper left, 4 for
his two groups on the right side (two eyes each) plus loads of
potential on the left side. I don't know how much that's really
worth, but it's safe to assume at least 15 points there, so Black
already has 49 points in the pocket. White's upper side still
has defects so I'll give it only 9 points (6 on left+3 on right),
2 for his center group and 22 for his right side, plus komi then
it's 39.5 points. Moreover, Black has much more potential than
White, he can still expand his territory everywhere while White's
territory can only be reduced (with his center group, it's hard
to collect all of the upper side or invade Black's framework).
Black's safely leading, if he just play to secure his groups
(but not too slackly) then he wins easily.];W[pb]C[CW: Good move. Now White's only chance is to try to attack, though
I must say it's unlikely to success.]
(;B[nd]C[CW: This move helps White. Just closing 3-3 is enough, White
still has to worry about his M17 defect.];W[md];B[ne];W[qc]
C[Not sure if n16 was correct...

CW: It is. You must gain sente to occupy 3-3. Now that White's
points almost catch up with Black, he must now watch his steps.]
;B[oc]C[CW: Nice probe.];W[nb]
(;B[me]C[CW: Bad style. Black's just helping White to fix his defect.
Concept: Any unneccessary move is a bad move. The exchange between
the moves in extra-important. The result of a game of Go is the
result of the exchanging of each move.];W[ld]C[CW: Before this, Black can aim at M16, M17 or, if the situation
guarantees it, even N17. Now all of them has gone.];B[qq]C[CW: Nice probe. If White cuts, Black can devastate his capitol
at any time he wants. If White lets Black connect, he can attack
form the other direction.];W[qp]
(;B[or]C[CW: Not the joseki at all. Moreover, it's timing is wrong.]

(;W[pq]C[CW: Playable, though risky. White is defying Black to attack
his group, she hopes to counterattack in the course.];B[pr]
C[CW: Ew, dubious one. You can make more profit later by descending
to R2.];W[qr]
(;B[im]C[CW: Not pressuring White enough.];W[li];B[ng]
(;W[fq]C[Is this the correct place to invade?

CW: The game is lost for White. If you think of it as a desperate
do-or-die move, I can't blame it. But logically, you should invade
on the wider side to have more breathing space.];B[eq];W[hq]
C[CW: Nice try.];B[ir];W[fo]
(;B[fr]C[CW: Better to attack whole, even without killing this group,
Black wins easily. This move gives White a chance for complications.]
;W[gr]C[CW: Nice.];B[fp]
(;W[hp]C[CW: This is your chance to start the flower-viewing ko. That
is, you stand to lose next-to-nothing (only exchanged H3 to J2),
but if Black loses, hopes spring up for White.];B[ip];W[gm]
C[Not sure if this entire invasion sequence was correct];B[gq]
C[CW: Nice, calm move. White gains a little in this fight, she's
got G7 and F5 stone for free, she's also able to cut Black later,
though that's very far-fetched chance. Black's only gain is the
J2 stone.];W[gp];B[fq]
(;W[hr]C[CW: I've just said it's not the time for the cut! Before this,
your G7 stone is very light, you can discard it anytime. Now
it becomes heavy group. Having two undisposable group like this
never bodes well. Moreover, I see some tesuji coming. If you
want to cut, you must exchange H6 for J6 first.]
(;B[fn]C[CW: Black missed his chance to play a beautiful tesuji.]
;W[hn]C[CW: Nice counterattack.];B[in];W[fm]C[CW: The exchange of F6 for F7 is now very bad for Black.]
;B[en];W[gn];B[ik];W[gj];B[ii];W[hl];B[il]C[CW: Hurt your right side group. You may want to play K8 or J8
later if the situation is proper.
Concept: Any unneccessary move is a bad move. Keep your options
open as much as possible.];W[jj];B[ij]
(;W[gh]C[CW: I think your right side group is in much more danger. It's
cramped against Black's two walls. Your left side group still
has many breathing space.]
(;B[le]C[CW: Huge mistake, White needn't to answer this move. After seeing
the game further, I think this move is Black's main cause of
loss. It's the losing move.
Concept: A leaning attack is about leaning in sente against opponent's
other groups to help attacking the target. This move is gote,
so it's no good.];W[kg]C[CW: Now the situation is really unclear.]
;B[kd];W[kc];B[ig];W[jf]C[CW: Now Black must watch this group closely or it may die. This
is miraculous for White.];B[ln];W[mn];B[kn];W[mo];B[mp]C[CW: Unneccessary.]
;W[lp];B[mm];W[nn]C[CW: Now White can kill Black's lower right group with another
move. Please note that if she doesn't, Black can still live.]
;B[ll]
(;W[ke]C[CW: With Black's so many slack moves, White can now win the game
by just connecting his center-left group to safety. Killing the
lower right and saving the center-right group is somewhat almost
miai (two eqivalent ways).]
(;B[ls]C[CW: It's the golden opportunity to counterattack!]

(;W[lr]C[I see my mistake here :( I have included the variation I believe
to be correct

CW: Yes, you can cut and kill, but why? This too is your golden
opportunity to win safely.];B[ks];W[ci]C[I am looking for a move to reduce the left side, it took me awhile
to decide on this one. My thought process for it even I am unsure
of lol

CW: There's no need to reduce the left side, White has won the
game! You can't just counting, you must use what you counted
to decide how to play too.];B[dj];W[df]C[CW: Folks, this is very complicated.]
;B[ge]C[CW: Now is it Black's turn for desperation measure huh?]
;W[hf];B[if];W[ie];B[hg]
(;W[fg]C[CW: Why not just close the gap?];B[gf]C[CW: Black's lucky, but White still wins.]

(;W[ff]C[CW: Unneccessary.];B[he]
(;W[id]C[CW: You are too greedy, Black counterattacked wonderfully though
his hand slackens in last stage.];B[hc];W[hd];B[gd];W[gc];B[fc]
;W[gb];B[fe];W[ed];B[ee];W[de];B[ef];W[eg];B[fi];W[gi];B[cg]
C[CW: If Black had cut, Who can say what will happen in the end?]
;W[dg]C[CW: And so White wins.];B[ch]C[Not too sure on the entire sequence that has just occurred...]
;W[dl]C[this looked possible :(

CW: Well...];B[fk];W[gk];B[em];W[eo];B[fl];W[gl];B[cn];W[do]
;B[cm];W[di];B[bi];W[fj];B[ej];W[co];B[bo];W[qd];B[ob];W[oa]
;B[pc];W[qb];B[qe];W[kl];B[km];W[oo];B[mk];W[lj];B[ji];W[ki]
;B[qk];W[pk];B[qi];W[pi];B[rh];W[ri];B[rg];W[qj];B[rr];W[rq]
;B[qs]
(;W[qq]C[CW: I think this is not the largest point.];B[dh];W[sr]
C[The rest of the game is yose but I feel it went akwardly, are
there moves I missed and if so, are there any tips I could use
to play my yose better?

CW: Your endgame after this is good enough. You misread at Q14,
though. For improving, I recommend reading the endgame section
in Senseis' Library or the book Get Strong at the Endgame.]
;B[db];W[eb];B[ca];W[rs];B[lf];W[kf];B[lg];W[jh];B[ih];W[gg]
;B[lh];W[kh];B[hf];W[oh];B[nh];W[pf]C[CW: Heck, what is this?]

(;B[pe]C[CW: Um...why? This is the last comment except the summary at
the end.];W[of];B[rd];W[rc];B[se];W[sc];B[kk];W[dn];B[dm];W[fs]
;B[es];W[ce];B[be];W[gs];B[om];W[pm];B[jk];W[np];B[kr];W[kq]
;B[si];W[sj];B[sh];W[sd];B[re];W[oe];B[od];W[nf];B[mf];W[mi]
;B[nj];W[mh];B[mg];W[ea];B[pg];W[og];B[qg];W[ph];B[eh];W[fh]
;B[ei];W[da];B[cb];W[go];B[ep];W[ps];B[ms];W[kj];B[mq];W[jo]
;B[jn];W[jq];B[jr];W[is];B[ko];W[jp];B[ol];W[os];B[on];W[ec]
;B[mr];W[no];B[jg];W[jd];B[tt];W[tt]TB[ds][cs][bs][as][er][dr]
[cr][br][ar][dq][cq][bq][aq][bp][ap][ao][bn][an][lm][jm][bm]
[am][nl][ml][kl][jl][el][dl][cl][bl][al][ek][dk][ck][bk][ak]
[bj][aj][di][ci][ai][bh][ah][sg][bg][ag][sf][rf][bf][af][ae]
[ad][ac][ab][ba][aa]TW[ss][rr][sq][sp][rp][op][so][ro][qo][po]
[sn][rn][qn][sm][rm][qm][sl][rl][ql][sk][rk][qk][rj][qi][je]
[kd][mc][lc][ic][hc][fc][sb][rb][mb][lb][kb][jb][ib][hb][fb]
[sa][ra][qa][pa][na][ma][la][ka][ja][ia][ha][ga][fa]C[CW: In this game, Black starts off with huge advantage just because
of White F16 alone. Black lost the game because of M15 alone
too, since it's almost a wasted move because White's already
alive. For Black, you must grab the golden opportunity that arises.
It's now-or-never thing. For White, Don't underestimate the power
of territorial framework that's backed up my herculean strength
like in the game, and don't forget that just counting is not
enough. You must make your moves in accordance with your counting
result.])
(;B[pg];W[pe];B[od];W[og];B[of]C[CW: What's the matter?]))
(;W[ei]C[CW: You have C15-D12 combination in sente as a follow-up, making
this move worth 9 points.]))
(;W[hc];B[id];W[jd]))
(;W[hc]))
(;W[gg];B[gf];W[he];B[ef];W[dg]C[CW: So?]))
(;W[kr];B[ks];W[js];B[jr];W[ms];B[is];W[lr];B[js];W[mr])
(;W[gf]C[CW: This reverses the situation to an easy win for White.]
))
(;B[fk];W[gk];B[fi];W[gi];B[gf]C[CW: The game now depends on what happens to the group and surrounding
positions.]))
(;W[gf]
(;B[lr]C[CW: Assume Black plays to live.];W[kr];B[ms]C[CW: This technique is worth remembering.]
;W[kq];B[mq];W[ke]C[CW: Let's count. Black has 23 points in lower left, 5+3 potential
(between C14 and C10) in upper left, his two groups 3 and 4 points,
38 points in total. White has 31 in upper side, 21 on right side,
plus komi then it's 58.5 points. White wins easily even though
this is Black's turn.])
(;B[je]C[CW: Assume Black wants to capture this group. Retreating cause
problems, but White can discard it and still win.];W[jd];B[ke]
;W[kr];B[ie];W[hd]C[CW: Let's count again. Now Black has 23 points in lower left,
5+3 potential in upper left, 37 in center, 68 points in total.
White has 31 on upper side, 52 points on right side, plus komi
and that's 89.5 points in total. Thus, he won even easier in
this variation.])))
(;B[kh]C[CW: I wonder how White will survive.]))
(;W[kg]))
(;B[gn]C[CW: Without exchanging H6 for J6, Black can rip white apart.]

(;W[fn];B[go])
(;W[go];B[fn];W[hn];B[ho]C[CW: The ladder is of course good for Black.]
)))
(;W[ck]C[CW: I would blindly invade and pray for Black to make some mistakes.]
))
(;W[gp]C[CW: If Black connects, you have E2 to aim for. And...]
;B[gq]C[CW: If Black captures...];W[ck]C[CW: You have unlimited ko threats around here. No matter what,
White gains form this fight.]))
(;B[en]))
(;W[ck]C[CW: It's very unlikely to success, but at least you've tried.]
))
(;B[jk]))
(;W[il]C[CW: Again and again, this is good.]))
(;B[pr]C[CW: This is the joseki move, Black has one-and-a-half solid eye
here.])
(;B[jk]C[CW: Anyway, keeping the joseki in reserve, Black can end the
game with this move.]))
(;B[rh];W[qi];B[lh]C[CW: I'll play like this. Of course Black's still better with
his potential on the left side, but at least White has somewhat
come nearer.])
(;B[qq]C[CW: After looking the game further, I think your probe is very
good move too. But you should play it without helping White first.]
))
(;B[qc];W[qb];B[rh]C[CW: Black probe White once...you may remember this move for your
next games.]
(;W[qi]C[CW: This is White's correct answer.];B[of]C[CW: With this move Black's upper right group is definitely alive
(believe me, I and my friends have tried to kill my teacher's
group of this shape many times.). If White try to cut the center
group then...];W[ng];B[og];W[oh];B[nh];W[mg];B[li]C[CW: He faces a really impossible fight, with M17 in the back
of Black's mind.])
(;W[rg]C[CW: This is White's worst answer.];B[qg];W[ri];B[ph]
;W[qi];B[og]C[CW: Even a weak-kneed connection like this won the game.]
)
(;W[ri]C[CW: This move seems automatic, but it's wrong.];B[ph]
;W[qi]C[CW: Capturing yields the same poor result as to capture first,
so White must connect.];B[of]C[CW: Still, Black's safely alive.]
)))
(;W[il]C[CW: Of course, this move would still be good.]))
(;B[mq]C[CW: Now White's group is a little lighter (easy to throw away),
but Black gains the connecting move at M2. If White plays K3
to prevent it in sente, Black naturally strengthen his lower
side framework. Moreover, if White plays M2 threating to connect,
she won't really be able to ignore Black P2, so M2 is gote.]
))
(;W[be];B[bc];W[ce];B[eb];W[df]C[CW: Now Black's framework is dramatically smaller. Anyway,
I have to repeat that Black leads nonetheless.]))
(;B[lj]C[CW: I think the center groups is now the key to this game. I
will play form this weak side and make White help me to
build some territory naturally. Please note that I prefer this
move than M7 because M7 will leave N6 for White later, but M7
may be playable too, I must confess I don't know if it's or not.]

(;W[jm];B[hm];W[jk];B[hk]C[CW: Well...I won't want to play anymore if I'm White.]
)
(;W[im]C[CW: This move is overplay. Black will win even easier.]
;B[kn];W[ln];B[jl]C[CW: White is being ripped into pieces.]
)))
(;W[ek]C[CW: I'm not recommending this move. It's one of the middlegame
joseki moves, but it doesn't suit this game.]
(;B[kp];W[lp];B[kn];W[ln];B[kk]C[CW: Again, Black can torture White's mind by this sequence. 
(Note again: This move can be anywhere around here.)])
(;B[di]C[CW: He can just sit back and relax, watching White run and hurt
herself.];W[hk];B[kp];W[lp];B[kn];W[ln];B[jk])
(;B[dl]C[Cw: Of course no Black player would play like this.]
;W[el];B[dm];W[lk];B[ni];W[il]C[CW: This is a bonus for White compared to normal procedure. However,
If Black plays D3 next he'll still leading. Again, all the blame
goes to F16.]))
(;W[lk];B[ni];W[il]C[CW: Painful though it is, you must play this calm sequence and
aiming at invading later. I think it's better than invading immediately.
Before this, a Black block at Q12 isn't small. But now it is
small compared to the framework. However, Black still has the
advantage (it's all because of White F16).];B[co]))
(;B[dj]C[CW: This move create really giant framework. I think I can safely
say that Black has won. With black stone on the fourth line like
this, the only thing White can do is to invade sooner of later,
since reducing will give Black too much territory. In such almost-double-wing
formation like this, the corner is larger than the side. Invade
anywhere on the side and Black can just enclose a huge 20+ points
corner easily. This is true even if the black stones on the lower
side is nearer than this, say, H3 or G3. Moreover,  if White
invade on the left side then he has two weak groups but this
time Black has only one, so it'll be very hard for White. So...]

(;W[cq]C[CW: If he wants to invade immediately, the only move left for
him is 3-3.];B[cp];W[dq];B[ep]C[CW: Black plays here instead of the normal joseki at E3 because
he wants sente.];W[fr];B[fq];W[eq];B[jl]C[CW: ...And the game is over.]
)
(;W[lk];B[ni];W[il]C[CW: He can play this calm sequence. I think it's better than
invading immediately. But...];B[co]C[CW: Black can just ignore him and close the corner, White is
now unable to prevent Black form getting at least 35 points in
this area, and Black is in fact bound to get much more than that
since he can harass the White group in the near future.])))
(;W[dj]C[CW: I'll play this pincer instead. I'm sure it'll not be easy
game for White since Black will of course fight and White is
going to has two weak groups. But Black too has two potential
weak groups (O3 one and C14). It'll be a hard-fight game you
like to play.];B[ef];W[fd];B[dl]C[CW: Now I don't know what will happen next, but at any rate both
player must look for a good opportunity to invade/secure lower
left corner, since if White get to invade first Black will become
very over-concentrated and won't gain much territory if you consider
that he has invested four stones in that area first. In short,
it's huge.]))
(;B[kp];W[lp];B[kn];W[ln];B[kl]C[CW: I don't know what will happen next. But for sure, psychologically
White'll be hard pressed. Living would gain him nothing while
dying means the game is lost. (Note: This move can be anywhere
around here.)]))
(;W[lm]C[CW: Just for a note, if White plays slackly like this...]
;B[pl]C[CW: Now it looks too Blackish on the right side, instead of being
no man's land in the game. Moreover, the Black group is now settled
(no more worries) and the corner group now has problems. Black
can aim at several points in very near future (R3, R5 for example).
For White, if she try to fix her defects by something like R8,
she'll just help Black to strengthen his group and his potential
on the right side. In short, this is terrible for White.]))
(;B[kp]C[CW: This move is joseki.];W[kq];B[jp];W[lp];B[lo];W[jq]
;B[ip];W[hq];B[go];W[fq]C[CW: Please note that the normal move in the shape is G3 to prevent
White H4 being sente, but this move set up F5 for later. This
is joseki.]))
