(;FF[4]GM[1]SZ[19]ST[2]CA[UTF-8]AP[SGFC:1.15]VW[]

PB[jhistoire]
BR[4k]
HA[2]
PW[abcde]
WR[2k]
KM[0.5]
DT[2006-12-25]
PC[The KGS Go Server at http://www.gokgs.com/]
RE[W+Resign]
TM[1800]
OT[20/300 Canadian]
RU[Japanese]

AB[pd][dp]C[Alex: It's hard to pick out any sort of systematic or strategic error that you're making from this game - you lost more from a number of tactical blunders than any wrong thinking. That said, if I had to pick out a problem with your game, it would be that you let yourself get pushed around too easily. This is only a two stone handicap, remember, not four, or six, or nine... your opponent isn't that much stronger than you, so you don't need to fear him very much.

On the other hand, the point at which you actually lose the game is when you're trying a bit too hard to kill, rather than defending your own weakness first.  You still would have pulled it off except for a tactical error, but it was attacking before defending that opened the possibility for making that kind of blunder.

Overall, I think you need to get better at assessing the relative strength and weakness of your groups and your opponent's. If you've got one weak group against one, you should probably attack, and try to get stronger while attacking... but if he's got several weak groups and you've only got one (as was the case at the end of the game), the best way to avoid complications is to solidify your group first... since he has several weak groups, he can't defend them all, so once you have no weaknesses remaining, you'll get to attack at least one of them severely.

---


I play black and lose this fighting game.

Please let me know my weak points, bad moves, missed opportunities, and what I should work on to get better.  Please focus on the fuseki and early middle game.



Thanks,
Simon];W[pp]C[jhistoire [4k\]: Hello
abcde [2k\]: hi];B[dd];W[cf];B[fd];W[dj];B[cm]C[Alex: So far, so good.]
;W[bd];B[cc]LB[ef:A][ch:B]TR[bd]C[Alex: This exchange is a mistake for White if he doesn't plan on defending at A immediately, since it loses him the option of making a base in the corner.

You should be looking to invade at B quite soon.];W[nc]
(;B[kc]LB[jc:A]C[Alex: I would hold back one line, at A. See variation.]
;W[ne];B[pf];W[pb];B[qc]C[J17 better to keep upper left strong?

Alex: No, I think you need to play here, but White's invasion shows why L17 should have been at K17 instead.]
;W[ic]LB[gc:B][ke:A]
(;B[ke];W[ie]C[This situation with multiple running games is confusing, what are the princinples to keep in mind?

Alex: Stay ahead, start attacking with knight's moves instead of one-space jumps as soon as your stones are stronger than the opponent's, don't let anything get sealed in.]
;B[kg];W[ng];B[ph];W[fb];B[eg]C[Alex: Good.];W[ec]
(;B[ed]TR[bd][fd][cf]C[Alex: This is too timid. Follow through with your threat and invade at C12 instead; if you can trade your one marked stone for the two marked White stones, you're getting a good deal.  See (crazy, extensive) variations.]
;W[dg];B[ig]C[Bad move?  I could not think of an effective way to attack the O17 group.

Alex: It seems natural to me, though now that White has F18 and E17, it's harder to kill these stones.]
;W[jf];B[kf];W[jg];B[jh];W[ih];B[hg];W[ii]
(;B[lh]C[Alex: Solid connection is probably better. This makes an empty triangle.]
;W[ji];B[kh];W[jd];B[kd];W[jb]C[Alex: I think you should respond to this; letting White connect his groups would be painful. Even if you have to trade the upper left for the upper right, you're not doing too badly since there's definitely more aji in your stones than his... but I actually don't think White can kill your upper left cleanly.]

(;B[gi];W[il];B[ni]LB[kb:B][nh:A]C[Alex: A is better than this, and blocking at B is even better.]
;W[ef];B[ff];W[fg];B[gf];W[eh];B[gb];W[gc];B[fc];W[hb]
(;B[bc]C[Alex: Cut at E18 first!  It's sente!];W[db];B[cb];W[cd]
;B[dc];W[eb];B[if];W[je];B[gg];W[he];B[hi];W[hj];B[gj];W[hk]
;B[fk];W[el];B[ek];W[dk];B[fl];W[dm];B[em];W[dl];B[fn]C[Alex: So you get out, but at a price. Living locally in the top left would have been better.]
;W[en];B[fm];W[cn];B[eo]C[Alex: This is important, but N18 is bigger. White's stones in the centre are weak enough that your group isn't in much danger.]
;W[jp]LB[mb:B][pn:A]
(;B[pn]C[Alex: N18 is clearly bigger than this. I think L18 kills too, with more territory, but N18 is safer and still enough for a pretty easy win.]
;W[ql]
(;B[qn]LB[om:A][rn:C][qq:B]C[Can you suggest something better?

Alex: Since the corner is still invadable, A and B are sort of miai and you could probably tenuki to kill the top group.

Locally, I think you have the right idea to split this stone from the corner, but either A or C accomplishes the same purpose, in better shape. See variations.]
;W[ol];B[nn];W[np]
(;B[ml]C[Alex: I'm not sure your stones are quite strong enough yet. Maybe kosumi first is better.  See variation.]
;W[qi];B[qh];W[rh];B[rg];W[ri];B[rm];W[rl]
(;B[pj]TR[mm][nm]C[Alex: Your knight's connection at the triangled points is weak. N18 is still available, so I'd defend your cutting point and make miai of killing these or the top right. See variation.]
;W[qj];B[rk];W[sk];B[rj];W[sj];B[pk];W[qk];B[sh];W[pi]
(;B[oj]C[Alex: This is the game-losing move. What's wrong with P11? See variation.]
;W[oi];B[oh];W[nj];B[nk];W[mj];B[ok];W[mi];B[nh];W[mh];B[mg]
;W[mf];B[lg];W[lj]C[Alex: Game over. No further comments.];B[in]
;W[jn];B[jm];W[km];B[jl];W[kl];B[jk];W[kj];B[kk];W[ll];B[kn]
;W[lk];B[mm];W[jo];B[im];W[ln];B[ko];W[kp];B[ij];W[gp]C[jhistoire [4k\]: thanks
abcde [2k\]: thx])
(;B[oi];W[oj];B[ok];W[nk];B[nj];W[pl];B[oj];W[nl];B[mk];W[mm]
;B[nm]
(;W[mn];B[rp];W[qq];B[rq];W[rr];B[sr];W[rs];B[sg];W[no];B[om]
;W[pm];B[on];W[qo];B[ro];W[sm];B[sn];W[sl];B[qg];W[qm];B[rn]
C[Alex: You're way ahead in the capturing race.])
(;W[oh];B[nh];W[og];B[pg]C[Alex: Don't worry, be happy.])))
(;B[ln];W[oj];B[pi];W[pj];B[mb];W[nj]TR[ih][ii][ji][hj][hk]
[il]C[Alex: Your stones are strong enough, and White's marked group weak enough, that I don't think you need to worry about getting cut off.]
;B[mi];W[mj];B[lj];W[lk];B[mk];W[kj];B[li];W[ll];B[lm];W[km]
;B[kn];W[jm];B[jn];W[in];B[io];W[jo];B[hn];W[im];B[ho];W[jk]
;B[lp];W[lq];B[mq];W[mp];B[kq];W[lo];B[kp];W[ko];B[mo];W[jq]
;B[kr];W[jr];B[lr];W[nr];B[iq];W[ip];B[hp];W[ir];B[hq];W[hr]
;B[gr];W[mr];B[hs]))
(;B[mm];W[ml];B[ll];W[mk];B[lk];W[mj];B[lj];W[mi];B[mh];W[nh]
;B[oi];W[li];B[ki];W[lm];B[ln];W[km];B[nl]C[Alex: This is critical]
;W[nk];B[nm];W[ok];B[kn];W[jm];B[kj];W[om];B[on];W[qj];B[ri]
;W[qi];B[qh];W[rj];B[rh];W[rm];B[rn];W[pi];B[oh]
(;W[oj]C[Alex: White can live in gote, but...];B[jn];W[in];B[io]
;W[jo];B[hn];W[im];B[ho]C[Alex: Black will win the capturing race.]
)
(;W[jn]C[Alex: I think Black can kill White's group if White tenukis.]
;B[rk];W[sj];B[rl];W[sm];B[qm];W[sl];B[pl];W[qk];B[pm])))
(;B[om];W[qn];B[qo];W[po];B[qm];W[rn];B[rm];W[ro];B[oo];W[op]
;B[no];W[np];B[mb])
(;B[rn];W[ol];B[nn]LB[qq:A]C[Alex: You can win this fight, I'm sure. Plus A is still open to seek life if you mess up.]
;W[np];B[mm];W[nk];B[lk];W[mj];B[lj];W[mi];B[mh];W[nh];B[oi]
;W[li];B[ki];W[kj];B[kk];W[jj];B[mf];W[nf];B[mk];W[nj];B[nl]
;W[ok];B[qj];W[om];B[on];W[nm];B[ml];W[mn];B[ln];W[mo];B[pm]
;W[qk];B[pj];W[lo];B[kn];W[jn];B[jm];W[im];B[jo];W[in];B[ko]
C[Alex: I don't think White can stop  you from escaping or making enough liberties to win the capturing race.]
))
(;B[mb]C[Is it possible to kill the O17 group instead?];W[qm]
;B[pq]C[Alex: Black will win the game.];W[qq];B[oq];W[qr];B[op]
;W[po];B[lp];W[kn];B[mn];W[ll];B[jq];W[iq];B[kq];W[ir];B[ko]
;W[jo];B[ln];W[km];B[mi]C[Alex: You should have an easy win as long as you live in sente on the bottom and protect the cut around N11 (which, incidentally, is why you should have played O12 instead of O11).]
))
(;B[eb]
(;W[bc];B[fa])
(;W[ga];B[bc])))
(;B[kb];W[ef];B[bc];W[be];B[ff];W[fg];B[gg]
(;W[fh];B[ee];W[df];B[ge];W[db];B[cb];W[gc];B[gd];W[ni];B[lj]
LB[hi:A]C[Alex: Black has aji at A to look forward to.])
(;W[eh];B[fh]
(;W[eg];B[ge];W[gh];B[hh];W[gi];B[hi];W[hj])
(;W[gf];B[fe];W[gh];B[fi]
(;W[hf];B[eg]C[Alex: This ko is heavy for White too.])
(;W[eg]
(;B[he])
(;B[if];W[je];B[he];W[hh];B[hf];W[hd];B[ge];W[jc]))))))
(;B[kh];W[jd];B[kd]LB[nh:A]TR[lh]C[Alex: I'm not sure having a stone at the marked point is really critical for A to work.]
))
(;B[ch];W[ed]
(;B[de]C[Alex: Okay, maybe the invasion at C12 is riskier than I thought at first. There are some trappy variations ahead.

Still, fighting spirit requires that you make this invasion and fight it out.]
;W[df]
(;B[ee]C[Alex: I think things turn out alright if you go this way.]
;W[ef];B[ff];W[fg];B[dg];W[gf];B[fe];W[bh];B[bi]
(;W[cg];B[dh];W[bg];B[ci];W[bc];B[bb];W[ab];B[cb];W[cd];B[dc]
TR[fb][ec][ed][gf][fg]C[White's position is too thin; he's not going to be able to win this capturing race.]
)
(;W[ci];B[bg];W[cg]C[Alex: This looks like tesuji but doesn't work here.]
;B[dh];W[eh];B[ah];W[di];B[bh];W[fh];B[bf]))
(;B[ef]C[Alex: I think this turns out badly for Black, but there are many variations, so who knows what would have happened in the actual game.]
;W[ee];B[bc];W[bh];B[bi];W[dh];B[dg];W[cg];B[ci];W[bg]
(;B[ck]C[Alex: I think Black needs to defend here, and consequently loses the corner. See variation.]
;W[be];B[af];W[dc];B[cd];W[cb];B[bb];W[db];B[ba];W[ca];B[ad]
;W[ae];B[ce];W[bf];B[ah];W[ac]C[Alex: I don't see any way for Black to win this capturing race.]
)
(;B[be];W[eh]
(;B[gg]C[Alex: This is natural, but...];W[fh]C[This forcing move is critical.]
;B[gf];W[cj];B[bj];W[bk];B[ck];W[bl]TR[fh]C[Alex: Black can't force his way out because of the triangle marked stone.]
)
(;B[ff]C[Alex: This looks odd, but is Black's strongest resistance. However, White still wins.]
;W[fh]C[Black can't quite ignore this.];B[ck];W[gf];B[fe];W[ge]
;B[bf];W[gd];B[ce];W[fg]))))
(;B[df]C[Alex: Black can also choose this variation, but it requires finding the right moves to win the capturing race.]
;W[de];B[ce];W[ee];B[cd];W[dg];B[ef];W[cg];B[dh];W[be];B[bh]
;W[bf];B[bc];W[dc]
(;B[ad]C[Alex: The simple approach wins the day here.];W[cb]
;B[bb];W[db];B[bg])
(;B[db]C[Alex: This looks good, to increase eyespace, but leads to disaster if White plays correctly.]

(;W[ac]C[Alex: This is wrong for White.];B[bb];W[ab];B[ba];W[da]
;B[ad];W[ae];B[aa];W[cb];B[ad];W[ac];B[ca];W[ea];B[bg];W[eb]
;B[ag]C[Alex: Ko, but it's a direct ko. White can do better.]
)
(;W[eb]C[Alex: This is also wrong.];B[cb];W[da];B[ca];W[ea]
;B[ad];W[ab];B[ac];W[ba];B[af]C[Alex: This is the critical tesuji.]
;W[ag];B[bg])))))
(;B[gc]C[Alex: No, your move in the game was better - this is too timid.]
;W[ie];B[ke]))
(;B[jc];W[qf];B[pf];W[pg];B[of];W[qe];B[qd];W[qj];B[oc]C[Alex: This is not so bad for you.]
))
