(;FF[4]GM[1]SZ[19]ST[2]CA[UTF-8]AP[SGFC:1.15]

PB[torus]
BR[10k]
PW[seppaku]
WR[18k]
KM[0.5]
DT[2007-01-20]
PC[IGS-PandaNet]
RE[W+31.50]
TM[600]
RU[Japanese]

C[seppaku: Hello];B[dd];W[pp];B[pd];W[dp];B[qn];W[pn]LB[pj:C]
[np:B][nq:A]TR[jp]C[This is a joseki, but I think that it gives black an advantage on this board.  
This joseki would be ideal if white *already* had a stone around K4.
Otherwise, according to theory, the outcome will be in black's favour.

Better would be to play a shimari or a pincer: A, B, or something around C.]
;B[pm];W[on];B[qo];W[qp];B[qj];W[np]TR[qj]C[White ends in gote, black now has a stable group, and the R10 stone, which is working well with Q16.]

(;B[iq]C[J3 is understandable, but I think it is out of envy and not as good as K16.  The K16 area is much bigger.]
;W[cf];B[fd];W[bd];B[cc];W[ci];B[oq];W[nq];B[lq];W[om]C[It seems that P3 had much more destructive potential that I thought.

DAB> it is a light stone.  I like white's response to it here so far.  But white must have a plan if/when black decides to make use of P3.]
;B[pl]TR[kc]C[White played L17 next, which is a big move.  However, the bottom of the board is very active and white should either press black's J3 group and profit by making it weaker, or fix white's P6 group first.
I'm thinking, something like the following sequence:]
(;W[kc];B[ic];W[nc];B[oc];W[nd];B[pf];W[je]LB[ke:A]C[normally K15 is at A.  I see why there is a knight's move here, but I'm not familiar with this idea.  
pressure on J17?  But J17 is very strong, and white has the weaker group here I think.  If F16 was absent, then I would say ok.]

(;B[bo]C[this probe is very premature I think. F3 is the better move to approach D4.
It is tempting, but very likely a gross exaggeration to suggest that this is move shifts the game into a winning position for white. 

See variation.];W[bq];B[bc]C[odd, why does black play the probe and then a move like this.  Granted, B17 is fairly big (8-10 points?) but B5 is about to be consumed.]

(;W[cd]C[C16 seems rather slow.

dab>  Agreed.  You can ignore B17 and crush B5 I think.  See variation.]
;B[ck]C[alas, B5 escapes.  Still, white is not in a bad situation.]

(;W[cn]C[With C6 I wanted to build a big wall towards the center in exchange for letting B5 connect to C9 and live small at the side.

dab> if white wants power in the centre, why is he playing on the 3rd line?  This is not for centre usually.  See variation.]
;B[bn];W[cm]
(;B[bm]C[this seems so submissive for black.  B5 is more interesting as a probe to be sacrificed than seen as a stone to make a group out of.]
;W[cl];B[bl];W[dk];B[co];W[do];B[dl];W[cj];B[bk]
(;W[dm]C[It seems that D7 should be at E8.];B[el];W[em];B[fl]
;W[ej]C[awful for black. Tiny life on the third line and floating in the centre.]
;B[cq];W[cp];B[bp];W[cr];B[aq];W[br];B[bj]
(;W[gq];B[bi]C[a nice move for black.];W[bh];B[ah];W[bg];B[gp]
C[This is a nice move by black.  It touches a strong stone (g3) and seems to help the weak black group while neutralizing white's wall.  It makes me think that my previous idea of black defending at M6 is much inferior.]

(;W[fp]C[F4 feels too close to white's own thickness. See variation.]
;B[go];W[hq];B[io]C[now black looks pretty stable to me.];W[hp]
C[The sequence from H4 gets some points at lower side, but it keeps all black stones connected. Maybe there's a better way of taking advantage of black's weakness here.

>dab:  After the H3 J5 exchange, black doesn't look that weak anymore to me.  See previous variation.]

(;B[ho];W[ip];B[jp]
(;W[jq];B[kq];W[jr]
(;B[kr];W[jo];B[kp]C[nice cut.];W[ir]C[Instead of J2, cutting with K6 would put a lot of pressure on black, but I took territory in sente instead of risking a fight. I felt that I'm leading (miscalculating P3 influenced that too), so I didn't want to risk.


I can't tell who is ahead.  black has more profit in terms of solid territory, but white has power over weak groups.]
;B[kn]C[I don't think this is a working net.]
(;W[hm]C[The plan was something like a ladder breaker to cut F8 group in sente. Or if it connected in the end, to make it difficult enough that I would get a nice wall in exchange.

>dab: just extend.  I could not find a way for black to capture K5 with L6]
;B[jn];W[de]C[Taking advantage of sente, I'm trying to finish enclosing the center left. I wasn't sure yet, whether F8 group would be in the enclosure or not, it still felt like a lot of points.]
;B[ed]
(;W[hd];B[hc]
(;W[gd];B[gc]C[I don't like this.  White's 2 stones at G16 are not working well with the others.]

(;W[fe]C[Maybe it's just me, but this looks awkward.  As soon as black E15, white will be split here.]
;B[ee];W[ef]TR[id][ge][ff]C[too many cutting points for my comfort.]
;B[fo];W[fm]C[Protecting against E4 seemed much smaller.];B[hl]
;W[gl];B[gk];W[gm];B[hk];W[fk]
(;B[im];W[il];B[jl]C[Did you read the ladder before playing move 104?
(just checking  ;-)];W[lo];B[ko];W[gj];B[hj];W[hi]
(;B[ik];W[ii];B[ge];W[ff]C[now this cut is a bit late I think.]
;B[id]
(;W[he]LB[he:A][ie:B]C[J15 would probably be better, sacrificing two stones to enclose a lot of territory.

>dab: agreed. or even just H14 (variation).];B[ie];W[hf];B[if]
;W[ig]C[H13 seems better.

{>dab: agreed.   I think.  Why give black a forcing move?}]
;B[hg];W[gf];B[jg];W[ih];B[jf];W[jd]C[K16 seems pretty small.

>dab: yes.  K15 is a nearly worthless stone now.  better to focus on stabilizing the O17 group]
;B[mb];W[nb];B[ld];W[lc];B[md];W[me]C[I thought black is overplaying here, and I can kill both N18 and N16 stones, so I didn't play N17.

{nice courage!}];B[le];W[lf];B[mf];W[ne];B[kf];W[lg];B[ke];W[mc]
C[As it turned out, black was able to save N16 group.]
(;B[ng];W[pb];B[ob];W[pc];B[od];W[oa];B[qc];W[qb];B[rc];W[rb]
C[nice.];B[jc]C[K17 seems very very small compared to what's going on in the corner right now.

>dab: indeed.  much smaller than finishing the corner fight.]
;W[qd];B[qe];W[rd];B[re];W[sc];B[kb]C[L18 also felt pretty small.

>dab:  Yes.  Time to attack white's weak group.]
(;W[pe]C[Doing P14 without Q15 would do the same thing.]
(;B[oe];W[of];B[pe];W[og];B[pg];W[oh]C[It seems that black could have caused a lot of trouble with O12 instead of Q12. O12 instead of P12 seems safer.]

(;B[ph]LB[nh:B][ph:A];W[nh];B[kd]LB[rp:A]C[L16 seems too small, but there aren't that many big points left.

>dab:  A is huge.];W[rp]C[well done!];B[ns]
(;W[dc];B[fc];W[ac];B[db];W[bb]
(;B[cb]
(;W[nr]C[I'm not so sure if top left corner was really more sente than lower right corner.


>dab: I don't think so either.  The top is about 10-12, but the bottom is worth , a variation at 173 shows one possible punishment.  Also I think there is a better defense (move 174 variation).]
;B[os];W[or];B[ps]
(;W[ms]C[R2 before N1?];B[mr]
(;W[qs]LB[qr:B][qs:A]C[R1 should probably be R2.];B[pr];W[qr]
;B[pq];W[qq];B[ls];W[op];B[ms];W[sm]
(;B[sn];W[rn];B[rm];W[so];B[sl];W[sn];B[ro];W[sp];B[rl]C[black ends in gote regardless if he forces white or not.]
;W[qm]C[This is pretty much "steal eyes in sente first, think later". Such moves are rarely useful, but they harm even less often.

>dab: I dunno.  After this exchange, it give's black solidity without much for white.  The harm might be in losing potentially valuable ko threats later.  As well, this almost looks like "aji keshi":  The removal of potential without any value.  before R7, black might still be considered to have a weakness around R11.  But after b R8, he is rock-solid.]
;B[ql];W[po];B[qm];W[lb];B[ol];W[jk];B[kk];W[jj];B[ln];W[nl]
;B[nk]
(;W[ll]C[M8 should probably be at N8

>dab:perhaps, but K18 is bigger and sente.];B[nm]
(;W[mm]LB[ml:B][mm:A];B[ml];W[nn];B[nl];W[mn];B[mo];W[se]
(;B[sf]
(;W[sd];B[rg]
(;W[no]LB[lk:B][no:A]C[Now that I look at it, O5 and T2 seem miai for the second eye (if I read it right). So a move around M9 would probably be better.]
;B[lk];W[lm]
(;B[kl]C[L8 looks small to me.  Black is alive.];W[jb];B[ib]
;W[ka];B[ia]C[Seems too small, especially since it's gote for white.

>dab: which, defending against J19?  Agreed.  only one point in gote.]

(;W[pi]C[P11 probably better than Q11.


>dab: or Q10?];B[oi];W[ni];B[oj];W[nj];B[li]
(;W[mj]C[It "looked" like I'm threatening to cut at N9, and black actually believed it, but N10 was pretty much meaningless.]
;B[lj];W[mp];B[mk];W[lh];B[mi];W[mh];B[ep];W[fq];B[eo];W[eq]
;B[ar];W[ap]C["Steal eyes first, think later"];B[ao];W[ai]C["Steal eyes first, think later" again, this time black didn't react correctly, what surprised me.]

(;B[am]LB[aj:B][am:A];W[ag];B[aj];W[ah];B[ba];W[ab];B[ja];W[kb]
;B[js];W[is];B[ks]
(;W[ad]C[I think A16 is dame and gote.];B[lp];W[aa];B[ca]
(;W[mo];B[hn];W[ij];B[il];W[jh];B[ki];W[bs];B[kh];W[as];B[ap]
;W[en];B[km];W[tt];B[fn];W[ek]TW[la][ma][na][pa][qa][ra][sa]
[mb][sb][qc][rc][ae][be][ce][ge][af][bf][df][mf][nf][cg][dg]
[eg][fg][gg][hg][mg][ng][ch][dh][eh][fh][gh][hh][di][ei][fi]
[gi][dj][fj][dl][el][fl][dn][oo][cq][dq][iq][rq][sq][dr][er]
[fr][gr][hr][rr][sr][cs][ds][es][fs][gs][hs][rs][ss]TB[da][ea]
[fa][ga][ha][eb][fb][gb][hb][dc][ec][jd][je][qf][rf][qg][sg]
[qh][rh][sh][pi][qi][ri][si][pj][rj][sj][ak][ok][pk][qk][rk]
[sk][al][jm][an][in][jo][lr]C[torus has resigned the game.

White wins by 31.5 points.])
(;W[hn]C[0.5 point more than N5 and sente.];B[mo];W[in]))
(;W[lp];B[ad];W[ae];B[ca]C[sure, no worries.]))
(;B[aj]LB[aj:B][am:A];W[al];B[am]))
(;W[lh]))
(;W[oj];B[oi];W[ni];B[pi];W[nj]C[black can't cut.]))
(;B[jb]))
(;W[lk]LB[lk:B][no:A];B[kj];W[lj];B[ki];W[kl];B[kh]))
(;W[rf]C[almost always punish this.  This ko is a delight for white. This is a bad error for black.]
))
(;B[rf];W[sf];B[sg];W[sd];B[rg]))
(;W[ml]LB[ml:B][mm:A];B[mn]))
(;W[ml];B[jb]C[I'm not sure what value N8 really had.  Black's groups are safe, nor is white making profit.]
)
(;W[jb];B[ib]C[white L19 is worth 3 points, but white needn't play this right away.]
))
(;B[rm];W[sn];B[sl];W[so];B[rl]C[me, I like this more for black.  Leave the small moves for the end game.]
))
(;W[qr]LB[qr:B][qs:A];B[pr];W[pq];B[ls];W[qs];B[ms]))
(;W[qr]
(;B[pr];W[ms];B[mr];W[pq];B[ls];W[qs];B[ms])
(;B[ms];W[qs];B[pr];W[pq]C[may it is the pretty much the same as your variation.  Then again, here, black does not have an eye on the bottom yet.]
)))
(;W[mr]C[I think O1 is a mistake.  N2 is enough, isn't it?
I'm not totally certain, but this seems ok to me. Some explorations follow.]

(;B[ms];W[nr]
(;B[or];W[ls];B[lr];W[os])
(;B[os];W[or];B[pr];W[ls];B[ps];W[lr]))
(;B[nr];W[mq]
(;B[op];W[oo]
(;B[no];W[pq];B[or];W[pr];B[ms])
(;B[pq];W[qq];B[qr];W[rr];B[ps];W[or];B[pr];W[ms];B[os];W[rs]
))
(;B[ms];W[ls]
(;B[lr];W[or];B[ks];W[os];B[ls];W[pq])
(;B[pr];W[lr];B[rr];W[sr];B[rq];W[sq];B[rs];W[qq];B[qr];W[ps]
;B[pq];W[os];B[or];W[op])))))
(;B[nr]TR[op][pr]C[Now black can either steal 12-15 points on the bottom corner or cut white's group.]
))
(;W[mr]C[I think this works.  I explore it a bit later.]))
(;B[nh]LB[nh:B][ph:A]C[really?  Just extend.]
(;W[ni];B[mh])
(;W[oi]C[pressure on both black groups.  black cannot cut yet.]
;B[nf];W[ni]C[no worries for white.  and notice how black has weakend the right side as well.]
)))
(;B[of]C[not quite I think.  Black might sacrifice P16 to seal white in.]
))
(;W[of]C[this gives white a better chance of escaping I think.]

(;B[pe];W[og])
(;B[pg];W[og];B[oh];W[nh])
(;B[og];W[pg];B[pe];W[qg];B[rg])))
(;B[ob];W[na];B[jb]C[still, getting undercut isn't nice.]))
(;W[ie]LB[he:A][ie:B];B[he];W[hf];B[gf];W[gg];B[jd];W[kd];B[if]
;W[hg];B[jf];W[ke];B[kg])
(;W[hf]
(;B[he];W[if])
(;B[ie];W[if])))
(;B[gi]C[black should have cut];W[fj];B[ii];W[hh]
(;B[ih])
(;B[hg])))
(;B[gh]C[better for black I think.]))
(;W[ff]))
(;W[ff];B[ge]))
(;W[ff]C[better finish this job then I think.]))
(;W[jn]
(;B[jm];W[in]
(;B[im];W[hn]C[black has 2 liberties, white has 3.])
(;B[hn];W[im]
(;B[il];W[hm])
(;B[hm];W[il])))
(;B[jl];W[in];B[hm];W[hn];B[gn];W[gm];B[fm];W[gl];B[fn];W[il]
;B[im];W[jm])))
(;B[ko]C[better for black.]))
(;W[jo]C[I think this way is also possible. And interesting.]
))
(;B[ip];W[ho]C[probably a better way for black like this.]))
(;W[hq]C[I think white should fight.]
(;B[hp];W[ip]
(;B[jp];W[io]C[profit for white])
(;B[io];W[jp]C[Big trouble for black I think.]))
(;B[ip];W[hp];B[ho];W[io];B[jo];W[in]C[profit for white])))
(;W[bi]C[Sente first I think.  This is a huge sente move and helps stabilize white.]
;B[fq]C[if black tenukis...he dies on the left.]))
(;W[el];B[dm];W[dn];B[em];W[fm]C[yeah, looks fine.]))
(;B[bl]C[maybe this is a little better for black?];W[dj]))
(;W[dn]C[Why not one line closer to the centre? this is still plenty of pressure on B5 and has more interesting influence to the centre.]
;B[bm];W[gq];B[lo]LB[ek:B][kp:A]C[Now white could begin an attack on the bottom black group.  (A to begin possibly?)
Or continue developing centre thickness with something around B]
))
(;W[cn]C[Unless black is Cho Chikun, I think it's dead.]))
(;B[fq]C[pressure on D4 while stabilizing the bottom Black group.  This will allow black to make use of P3 at the same time as pressuring D4.  A good sente play I think.]
;W[dn]LB[cj:1][ck:2][cl:3][cm:4]C[is black afraid of white taking the side like this?  He needn't be.
C11 is in a bad relationship with D6. It is one space too far away.
Furthermore the C11 stone is on the third line.  It is finishing the upper group and growth along the side is no longer efficient.]
))
(;W[fq]C[shiimari for profit, black is now under fairly heavy pressure.  He ought to defend. 
G3 is also possible I think.];B[lo]C[black defends];W[rp]C[fix and take corner?]
))
(;B[jd]C[Just this is giving black a decidedly good head start.]
;W[iq]C[if we exchange K16 for a move similar to black's choice in the game, would you not agree that black's position is superior?]
))
