(;FF[4]GM[1]SZ[19]AP[SGFC:1.15]

PB[Yoshi544]
BR[22k]
PW[pansan24]
WR[22k+]
KM[0.5]
DT[2007-01-13]
PC[IGS-PandaNet]
RE[W+0.5]
TM[1500]

;B[dp]C[hi!
I am Panch 
1k on KGS (panch007)];W[qd];B[qp];W[dd];B[od]C[Rule one
------
Playing on the fourth line stresses the
importance of the board's center, and is known
as the Influence Line. Playing on the third line
emphasizes securing territory and is known as
the Territory Line.];W[mc]LB[ne:a][hc:b][jd:c]C[B. must go "a"

W. - b , c

look variant for B]
(;B[qc]LB[ne:a]C[wrong way. should be "a"]
(;W[pd];B[pc]C[look variant]
(;W[oe]LB[qf:a][rd:b]C[weak move. 
white stones are cutten 
the white group below should make eyes 

"a"  - more solid

maybe - b];B[nd]C[Should B have played here or played somewhere else like O17?

panch. 

o17 only
you shoud cut.];W[md];B[rd];W[re];B[qe];W[pe];B[rf];W[qf]
(;B[nb]LB[ne:a]C[bad move

a only!];W[ne]C[W have connected. very bad for B];B[qj]LB[pl:a]
[oq:b][dj:c][ph:d]C[bad move.

b,a or c - better

they a part of the good shapes
closing big moyo


for killing W territory - d




----];W[op]
(;B[pn]LB[oq:a]TR[qp][qj]C[In this position should B have moved here instead of playing a different joseki?

panch. 

maybe a? 

but q6 is good too

r4, q6, r10 are good shape];W[lp]LB[jq:a][qq:b][dj:c]C[this move - bad move
too height

Playing on the fourth line stresses the
importance of the board's center, and is known
as the Influence Line.

if you want Influence - go c
if you want secure territorial - go a or b.
ask youself what do I want really?];B[cf]C[good]
(;W[fd];B[dj]LB[dg:a][eg:b][dh:c][cc:d]C[a,b,c - weakness. better - d]
;W[dg]LB[ce:a][fq:b]C[good move.
W want to use this weakness
but W forgot about Joseki in right down corner.
should play a and  complete 
this joseki in right upper corner.]
(;B[ch]LB[cg:a]C[weak move];W[df]LB[cg:a]C[why not a!
cutting and making territory 
i think this will a right way]
(;B[dm]LB[cn:a]C[too height for making territory
too late for making influence
bad

go in a];W[fq];B[iq]LB[eq:a][cm:b]TR[cm][eq]C[Would this be a bad joseki to use in this position?
look e3, c7
they close in the corner 
huge moyo.
very huge for only two moves.];W[cq];B[cp];W[dq];B[lr]C[W played good
I think b want settle. what W have to do?]
(;W[kq]C[W want cut black shape. 
but it is impossible.
bad move.];B[or]LB[pq:a][oq:b]C[a or b];W[kr];B[go]LB[hp:a]
[pq:b];W[ho];B[hn]LB[hp:a];W[io];B[mb];W[lb];B[gj];W[jm]LB[hi:a]
[ce:b][ic:c][pq:d]C[too little
maybe a , b , c or d ?];B[nm]LB[oj:a]C[a - better];W[rg];B[fg]
;W[he]LB[cg:a];B[ce]LB[cd:a]C["a"- 
W can secure corner];W[de];B[dh];W[eh];B[eg];W[ei]
(;B[ej]LB[gi:a]C[look variant]
(;W[gh];B[fh];W[fi];B[gi];W[gg];B[fj];W[hi];B[hj]LB[ij:a];W[ii]
;B[lh];W[oh];B[nj];W[mi]C[! ok];B[ni];W[nh];B[mj];W[li];B[lj]
;W[ki];B[gf];W[ff];B[di];W[hf];B[fe];W[ge];B[ef];W[kj];B[ll]
;W[kl];B[gp];W[gq];B[hp];W[hm];B[gm];W[in];B[gn]LB[ir:a]C[now W should go a]
;W[ip]C[??
W  help B connect weak stones:)).
why ??
never use such moves.];B[hq];W[hr];B[ep];W[eq];B[bq];W[br];B[bp]
;W[qi];B[pi];W[qh];B[rj];W[hl]LB[ar:a]C[a - better];B[gl];W[ij]
;B[bc];W[cc]
(;B[bd]C[right !!!!!];W[bb];B[cg]
(;W[ma];B[na];W[oc]LB[ob:a][rb:b];B[nc];W[ob];B[la]LB[oa:a]

(;W[ka]C[mistake];B[pb];W[ma];B[oa];W[rc];B[rb];W[sc];B[sb]
;W[sd];B[pq];W[oq];B[nr];W[pp];B[qq];W[nq];B[ln];W[kn];B[po]
;W[oo];B[on];W[lo];B[no];W[mq];B[mo];W[mr];B[ns];W[ms];B[pr]
;W[ir];B[hk];W[ik];B[kk];W[jk]C[Yoshi544: oh];B[lm];W[km];B[ab]
;W[ba];B[cd];W[cb];B[ee];W[ed];B[gf];W[oi];B[oj];W[ph];B[pj]
;W[ri];B[la];W[kc];B[sj];W[si];B[ar];W[cs];B[jq];W[jp];B[ks]
LB[jr:a]C[:)];W[jr];B[mp];W[mn];B[mm];W[lq]C[bad move];B[hg]
;W[hh];B[ig];W[ff];B[je]LB[jb:a][gd:b][eb:c]C[c , b, a 
are correct directions for black attack];W[id];B[jg];W[jd];B[ke]
;W[lf];B[kf];W[if];B[le];W[mf];B[lg];W[kh];B[tt];W[aa];B[fp]
;W[ac];B[ad];W[ab];B[dc];W[db];B[ec];W[fc];B[eb];W[ea];B[da]
;W[fb];B[tt];W[tt]C[You can check your score with the score command, type 'done' when finished.
Click on a group of stones to mark it dead and remove it from the board.]

(;B[tt])
(;B[tt]C[Black wins by 2.5 points.
White wins by 0.5 points.]))
(;W[oa];B[ma]LB[ka:a]C[and kill]))
(;W[pq];B[pr];W[qq];B[qr];W[rp]))
(;B[bb]LB[bb:a];W[bd];B[cd];W[cg];B[dc];W[bf];B[cb];W[be];B[cc]
;W[eb];B[ec];W[fc];B[bh];W[bg];B[db];W[fb];B[ac];W[da]C[B stones are killed]
))
(;W[gi];B[fi];W[fh];B[gh];W[fj];B[di];W[fi]LB[fk:a][hi:b][gg:c]
C[and W may run out]))
(;B[ej]LB[ej:a];W[cg];B[bg];W[bh]
(;B[bi];W[bf];B[ah];W[be];B[cd];W[cc])
(;B[bf];W[bi];B[ci];W[cj];B[di];W[ck]LB[bl:a][bd:b]C[4 vs 5]
;B[bd];W[bm]LB[cc:a][dl:b])))
(;W[lq]LB[lq:a][kr:b][mr:c]C[maybe so]
(;B[mr];W[kr];B[oq];W[jq];B[pq];W[go])
(;B[kr]LB[kr:a];W[mr];B[hr];W[fr];B[io];W[pq];B[fn];W[qq])))
(;B[cg]LB[eq:a][cn:b]))
(;B[cg]LB[cg:a]C[right move];W[dh];B[ci]))
(;W[ce];B[df];W[fd];B[dj];W[fq]))
(;B[oq]LB[oq:a];W[nq];B[pq];W[np];B[qn];W[jp];B[fq];W[iq];B[co]
))
(;B[ne]LB[ne:a];W[nf];B[me];W[le];B[mf];W[ng];B[lf];W[ke];B[lh]
))
(;W[oc]LB[oe:a][nc:b][rd:c]C[the best move for B is "c"
not "b"]
(;B[nc];W[ob]LB[rc:a][nd:b]C[ "a" and "b" good for B])
(;B[rd];W[re];B[ob];W[nc];B[rc];W[qf]C[good for B])))
(;W[pc];B[pd];W[qb];B[rc];W[oc];B[qe];W[rb];B[rd]))
(;B[ne];W[me];B[mf];W[md];B[nf];W[ic];B[qg]))
