(;FF[4]GM[1]SZ[19]ST[2]CA[UTF-8]AP[SGFC:1.15]

GN[FlameinIce3838-Odakim-277429-20070127]
PB[Odakim (Odakim)]
BR[15k]
HA[4]
PW[Wendy Bleaks (FlameinIce3838)]
WR[11k]
KM[0.5]
DT[2006-12-30,2007-01-27]
PC[Dragon Go Server: http://www.dragongoserver.net/]
RE[B+1.50]
RU[Japanese]
GC[Game ID: 277429, rated]

AB[dd][pd][dp][pp]PL[W];W[cf];B[ef]C[Why not. But the joseki which normally follows aims at influence at top, so it's best if Black already have a stone around k16]

(;W[ci];B[dh];W[ch];B[di]C[The black stone d12 is a kikashi (forcing move). So, after Black played it, he should give it up :)
Furthermore, e11 just calls d10, and being hit at the head of your stones is always bad. There are still so many places to play, bigger than this point... K16, K4, Q10 are examples.]

(;W[nc];B[ne]C[Bad. It is clearly the wrong direction. For the same reason that I mentioned earlier, but it is even more important here: K16 is now a pincer AND an extension at once.  Let White go to L17 is bad, for Black's moyo, and also because he lose an opportunity to attack White.]
;W[kc];B[ld];W[lc];B[kd]C[Well, i spoke about this one too ^^]
;W[jp];B[mq]C[Q10 is bigger. Again, Black's wall needs an extension.]
;W[gp]
(;B[er];W[fq];B[eq];W[cn];B[co]LB[dn:2][co:1]C[Bad move. Generally, the exchange of 1 for 2 is bad.]
;W[ck];B[ek];W[en];B[eo]C[Don't know what the aim is? Q10 is still a lot bigger. Black still can have an easy game if he takes this point.]
;W[fn];B[pj]C[Is black's main aim to get influence in the middle?

Yeah, it must be in his mind :)  But it is now not as good as it could have been.
However, if there is no mistake from Black, the game is his.]
;W[qn]C[Here is an example where the exchange i spoke about earlier is good.]

(;B[rq]C[There is no pressure on white with this move. Therefore, it's bad.]
;W[oo];B[po];W[on];B[pn]C[The idea to cut white is good. In handicap, it's always a good idea ^^]
;W[qk]
(;B[pk]
(;W[pm];B[qo]C[Bad, bad, bad. An empty angle. Black could have avoided it if he had cut earlier.]
;W[ql];B[rn]TR[jc][qj][om]C[Useless. There is more important on the goban.
The cut and the two blocking moves are bigger. Furthermore, the one with sente can hit at the head of two stones, k16 for white, k17 for black.]
;W[qm]C[S6 being useless, it's therefore useless to answer it :)]

(;B[qh]C[Is Black shy? ^^ 
He must keep his territory, not reduct it himself. R10 is stronger.]
;W[np];B[nq];W[op];B[oq];W[kq]C[Hmmm... I think the upper part of the board is more important. A move like J17 seems big to me.]
;B[ic];W[jd]C[Was this a vulgar move? (Reason for thinking this: Black can expand his territory while attacking).

yeah, i'm not sure it's a good move. Of course, White will be cut off, and with all the black stones around him... Hard times are coming for White if he wants to rescue his stone. 
However, Black's moyo is very big, and something has to be done.
I would have simply reducted it, and the tengen seems reaaly enjoyable for doing it, here. But we're in handicap game, so maybe you have to go deeper, like K12?]
;B[jc];W[md];B[me];W[je]
(;B[le]C[No. Bad style. Always avoid empty angle.];W[jg]
(;B[gd]C[No. There is just one move, for me.];W[pc]C[White is letting Black an second chance.]
;B[qd];W[qc];B[nd];W[mc];B[lh]C[Even worse than before, because you're stronger than before. The strenght has no use for making territory, his only interest lies in the attack.]
;W[ji]C[White is nearly out of danger. Very bad result for Black. His moyo is in ruins.]
;B[mj];W[jk];B[hg]C[At this point black could cut the one point jump, but he didn't. Was this wise?

I think yes. There is a proverb saying : don't cut a tobi (one point jump)! 
It is because, generally, it don't lead anywhere. Of course, there is 1% of tobis which must be cut ^^ But in such a case, you have to read out carefully the sequences.]
;W[ll];B[nl]C[here, Black is just helping white to protect his weak point. The cut would have been better. Now or rather before.]
;W[ol];B[ok]C[Again, bad style.];W[nm];B[hj];W[hl]
(;B[gl];W[gm];B[fl];W[ii];B[hi];W[ig];B[hf];W[ie];B[hd]C[Useless, unless i'm mistaken. Black cannot be cut. 
Fortunately for White, Black is answering passively to all his moves. Maybe he didn't want to win anymore ^^ It's important to show yourself strong. If your opponent is taking a big point, threatening a few more points, it's better to do the same thing, rather than answer his move.]
;W[cc]C[White invades as black's potential territory looks big.

It is, indeed, at this stage of the game.];B[cd];W[dc];B[ec]
;W[eb]
(;B[fc];W[bd];B[be];W[bc];B[ce];W[bf];B[ae];W[ri];B[rh];W[lr]
;B[mp];W[mo];B[ml];W[mm];B[pl];W[om];B[lk];W[kk];B[kj];W[ki]
;B[li];W[lg];B[mg];W[lf];B[mf];W[qi];B[pi];W[bn];B[bo];W[fr]
;B[mr];W[fb];B[gb];W[dj];B[ej];W[dg];B[eg];W[dl];B[dk];W[cj]
;B[el];W[dm];B[df];W[rm];B[sn];W[sm];B[ro];W[sh]C[This move was a minor mistake.

Yes ^^

Furthermore, A5/A6 and E1/E2 are sente moves for both sides.
If you play A5, for example, it's normally worth 4 points. But it's sente here, so you have to x2, 8 points. And White have E1 just after...]
;B[sg];W[qj];B[si]C[White is lucky Black play this move. Now, it is time to play the two moves I spoke about. And close with T10 after.]
;W[sj]C[Therefore, this move is bad.];B[sh];W[es];B[ds];W[fs]
;B[dr];W[ao];B[ap];W[an];B[bp];W[hk];B[gk];W[da];B[af];W[bg]
;B[ag];W[ah];B[jj];W[ij];B[lj];W[kl];B[rc];W[rb];B[sc];W[sb]
;B[rd];W[kh];B[kf];W[kg];B[ke];W[hh];B[gh];W[ih];B[oc];W[ob]
;B[od];W[pb]C[Are you sure it's necessary? Well, I'm tired ^^ so I can't tell you, but maybe it would be good to look closer.]
;B[kb];W[lb];B[ka];W[la];B[jb];W[he]C[White sees black's error.

Lol, untill now, i didn't see it neither... Must have been a bad surprise for Black ^^]
;B[ge];W[gi];B[gj];W[gg];B[fh];W[gf];B[ff];W[if];B[fa];W[cb]
;B[cg];W[bh];B[dg];W[lp];B[fo];W[go];B[fp];W[dn];B[do];W[ms]
;B[ns];W[ls];B[pq]C[Here too, could be good to look it Black has to do it.]
;W[lq];B[ad];W[ac];B[fm];W[hn]C[Was this move necessary?

I really think it's not.];B[id];W[ea];B[ga]TW[aa][ba][ca][ma]
[na][oa][pa][qa][ra][sa][ab][bb][db][mb][nb][qb][hf][hg][jh]
[ai][bi][aj][bj][rj][ak][bk][ik][rk][sk][al][bl][cl][il][jl]
[rl][sl][am][bm][cm][hm][im][jm][km][lm][gn][in][jn][kn][ln]
[mn][nn][ho][io][jo][ko][lo][no][hp][ip][kp][gq][hq][iq][jq]
[gr][hr][ir][jr][kr][gs][hs][is][js][ks]TB[ha][ia][ja][hb][ib]
[gc][hc][ed][fd][sd][de][ee][fe][oe][pe][qe][re][se][nf][of]
[pf][qf][rf][sf][ng][og][pg][qg][rg][eh][mh][nh][oh][ph][ei]
[fi][gi][mi][ni][oi][fj][nj][oj][fk][mk][nk][so][cp][ep][qp]
[rp][sp][aq][bq][cq][dq][qq][sq][ar][br][cr][nr][or][pr][qr]
[rr][sr][as][bs][cs][os][ps][qs][rs][ss]C[RESULT

White: 74 territories + 2 prisoners + 0.5 komi = 76.5 Black: 75 territories + 3 prisoners = 78 Result: B+1.5

Nearly did it :) 

I said all I could on the game, but if you still have some questions, send me an e-mail, i'll be glad to help you.]
)
(;B[fb]
(;W[fc];B[ed];W[gb];B[db];W[fa];B[cb]C[Hmmm... A lot better, i think. It's a joseki.]
)
(;W[da];B[fc])))
(;B[lp]C[I would have play this.];W[mp];B[lq];W[lo];B[ml];W[mm]
;B[ik];W[il];B[bo];W[bn];B[bd]))
(;B[ji]C[White is very bad. Black is so strong around that he must not let this opportunity.]
))
(;B[kf]C[Faster, smarter, makes good shape and put much more pressure on white. Don't forget it next time.]
))
(;B[qj];W[rj];B[ri];W[sk];B[qh]))
(;W[ql]C[Here, it's too easy for white. Or rather, easier that in the game.]
))
(;B[qm]C[I think it's better, because no matter how white will play, he will get three weak groups. A lost game, in short.]
))
(;B[qo];W[pn]C[It's because Q10 is standing in the way of White. There is no good extension for White now, and black can aim to attack this group.]
))
(;B[cn]C[Better, i think.])
(;B[eq]C[If you really want to go this way, this move is better.]
))
(;W[dj]C[Good for white.]))
(;W[cc];B[dc];W[cd];B[de];W[bf]TR[jd]C[If Black already have a stone, it's great. If he don't, that's not bad at all, but he will have to add one to make his wall efficient.]
))
