(;FF[4]GM[1]SZ[19]ST[2]CA[UTF-8]AP[SGFC:1.15]

PB[Hikaru128]
BR[6k]
PW[Titan]
WR[6k]
KM[6.5]
DT[2007-01-29]
PC[The KGS Go Server at http://www.gokgs.com/]
RE[B+1.50]
TM[1200]
OT[5x30 byo-yomi]
RU[Japanese]

C[Titan [6k\]: hi
Hikaru128 [6k\]: hi
--------------------------------------
Thank you for reviewing!
I'm black.
In the end i won... because of luck probably... but I wanted to win with my skill...
I wrote some questions along the game.];B[pe];W[dp];B[qp];W[dc]
;B[oq];W[pk]
(;B[pc]C[could i attack white stone R11 or Q11 maybe better?

DC: Hi my name is Dylan Carter I have played go for four years and have managed to attain a 1k rating. The shimaru is correct openning theory, however white should play a line lower ideally in order to settle more effectively however this is not really punishable yet. Exchanging R11 first is possible but since the stone is quite light white will play around Q17.]
;W[qg];B[de];W[fd];B[cc];W[cb];B[cd];W[eb];B[ci]C[DC: The difference between the long and short extension here is often misunderstood. Generally the short extension is played if there is an opponents stone in the lower left.]
;W[jc]C[DC: Too close to thickness, yuk! White should at least consider N17. K3 is the largest area.]
;B[qm]C[DC: A good point.];W[ql]C[DC: Black should not permit Q7.]

(;B[qi]C[Am I invading too soon or it's ok?];W[og];B[oi];W[pm]
;B[qn]C[DC: The invasion is overplay realy with The lower side so open. Why invade when you can stake a claim elsewhere first?]
;W[ml];B[ol];W[om]C[DC: Clearly the wrong side. Q7 can be sacrificed in order to gain thickness and attack the P11 stones.]
;B[ok];W[oj];B[nj];W[pj];B[pi]
(;W[pl]C[DC: White should just cut sacrifice and squeeze. O12 becomes severe.]
;B[mk];W[nl];B[nk];W[nn];B[nh];W[ng];B[pg];W[pf];B[ph]
(;W[oe];B[qf];W[pd];B[qe];W[od];B[qd];W[oc];B[jp]C[DC: A large point, F3 is also possible since the R4 stones are clearly alive and o6 limits the moyo potential.]
;W[kl];B[fq];W[cn]
(;B[mp]
(;W[lk];B[lj];W[kj];B[fe];W[li];B[gd]
(;W[bb];B[je];W[ed];B[ee]
(;W[mi];B[ni]
(;W[mh];B[cl];W[dq];B[hp]C[Maybe this is overly defensive...

DC: Black has 40 on the bottom, 15 on the right, 25 on the left = 80 points.
White has around 30 at the top and 15 lower left + komi = 51 points.

Playing @ E8 would finish this game nicely, but H4 means that black is confident of a win.]
;W[dh]
(;B[ch]C[Is it right? or D11 better?];W[dg]
(;B[fg];W[di];B[cg];W[dj];B[cj];W[el];B[dk];W[ek]
(;B[ej]C[I thought if i cut then i'll be able to kill 4 white stones... but no.

DC: This is a 20k problem and is very rash by black and could be the start of a turnaround.]
;W[fj];B[ei];W[fh];B[eg];W[eh];B[pb];W[ob];B[bc];W[rg];B[rh]
;W[qc];B[qb];W[rc];B[rf]C[I should go S18 probably.... I forgot about q14...]
;W[rb];B[fc]
(;W[fb];B[gb];W[ec];B[gc];W[da];B[kd];W[kc]
(;B[lc]C[DC: Overplay. Please see comment about the score!!!]
;W[ld];B[md];W[le];B[lb]
(;W[jf];B[ie];W[kb];B[ic];W[hb];B[ib];W[mc];B[mb];W[nc];B[ka]
;W[ga];B[hc];W[ke];B[jd];W[if];B[gg];W[he];B[jb];W[hg];B[gh]
;W[lq];B[kq]C[Not sure about this move, maybe i just should go M4

DC: Yes, black tries to kill prematurely.];W[lp];B[lo];W[kp]
;B[ko];W[mq]
(;B[nq];W[mo];B[np];W[jq];B[kr];W[jo];B[jn];W[ip];B[io];W[hq]
;B[jp];W[iq];B[jo];W[gp];B[ho];W[gq];B[go];W[fp];B[df];W[fi]
;B[lm];W[ll];B[ii];W[hh];B[hi];W[gi];B[hl];W[hk];B[ik];W[gk]
;B[jj];W[il];B[jl];W[im];B[jm];W[hm];B[gm];W[gl];B[en];W[fm]
;B[gn];W[dl];B[ck];W[fn];B[fo];W[eo];B[do];W[co];B[ep];W[eq]
;B[eo];W[jk];B[kk];W[ki]C[DC: This is strange.];B[jk];W[mj]
;B[jh];W[kh];B[hs];W[jr];B[lr];W[ks];B[mr];W[fr]C[DC: like passing. I cannot find any aji.]
;B[bm];W[bn];B[no];W[rd];B[sg];W[re];B[qh]
(;W[po]C[DC: This is a lost move.];B[pn];W[on];B[oo];W[rl]
(;B[rn];W[cm];B[bl];W[gf];B[of];W[nf]
(;B[ff]C[DC: 1 point gote.];W[ac];B[ad];W[ab];B[ha];W[dd];B[be]
;W[mn];B[ls];W[js];B[jg];W[kg];B[hj];W[em];B[rj]C[I didn't see that this goup could die.... And my opponent didn't see either until now.

DC: This was fortunate for black.];W[ln];B[km];W[mm];B[rk];W[sm]
;B[sn];W[sk];B[sj];W[sl];B[nb];W[na];B[ma];W[oa];B[fa]
(;W[ea];B[ga];W[hd];B[ig];W[ji];B[ih];W[hf];B[se];W[sd];B[sf]
;W[am];B[al];W[an];B[pf];W[dn];B[ge];W[kf];B[hn];W[hl];B[ij]
;W[rm];B[tt];W[tt]TW[aa][ba][ca][pa][qa][ra][sa][db][pb][qb]
[sb][pc][sc][md][nd][me][ne][lf][mf][lg][mg][lh][ei][ej][lj]
[fk][fl][dm][nm][ao][bo][ap][bp][cp][aq][bq][cq][fq][ar][br]
[cr][dr][er][gr][hr][ir][as][bs][cs][ds][es][fs][gs][hs][is]
TB[ia][ja][la][hb][kb][jc][kc][bd][ae][ce][af][bf][cf][ef][ag]
[bg][qg][rg][ah][bh][sh][ai][bi][ri][si][aj][bj][ak][bk][po]
[qo][ro][so][kp][lp][op][pp][rp][sp][lq][mq][pq][qq][rq][sq]
[nr][or][pr][qr][rr][sr][ms][ns][os][ps][qs][rs][ss]C[DC: White let's black get away with a lot in this game. Black continued to overplay toward the end despite having a won game.]
)
(;W[am];B[al];W[an]))
(;B[ab]C[DC: Endgame: first sente large; sente small; large gote; small gote.]
))
(;B[rm];W[sm];B[ro]))
(;W[rj]))
(;B[np];W[jq];B[kr];W[ip];B[jo];W[iq];B[io];W[lr];B[hr];W[hq]
;B[gq];W[ho];B[gp];W[jr];B[nr]))
(;W[ie];B[jf];W[if];B[jg];W[jd];B[ke];W[me]C[DC: A better way to punnish black.]
))
(;B[ld];W[lc];B[md]))
(;W[gc]C[DC: punnishing blacks overplay again.]))
(;B[fj];W[ej]))
(;B[di]C[DC: This is rock solid and conducive of the required play.]
;W[fh];B[ei];W[gg];B[cg]))
(;B[di];W[fh];B[ei];W[gg];B[eh]))
(;W[mg]))
(;W[mj];B[ni]))
(;W[ed];B[ee];W[gb]))
(;W[ck];B[ei];W[dr]))
(;B[cl];W[lq];B[kq];W[lp]C[DC: Better as it eliminates the C13 invasion cleanly.]
;B[dr];W[cq];B[hp]))
(;W[qe];B[of];W[qf];B[oe];W[rc]))
(;W[nk];B[nl];W[nm];B[mk];W[pl];B[nk];W[ni];B[nh];W[mi];B[oh]
;W[lk]))
(;B[pm];W[og];B[iq]))
(;B[qi];W[md];B[pc];W[jd]))
