(;FF[4]GM[1]SZ[19]ST[2]CA[UTF-8]AP[SGFC:1.15]

PB[Fabien]
BR[20k]
HA[4]
PW[Gnugo]
WR[15k]
KM[0.5]
DT[2007-02-07]
RE[W+47.50]
RU[Japanese]

AB[dd][pd][dp][pp]C[Hi,
I'm Michał Piaskowski, I'm 10k in Poland and I have been assigned to review your game.]
;W[cn]
(;B[bp]LB[cl:B][bp:A][gq:C];W[fc]C[Am I right to lock the corner that way ? Or is it too weak?

-

B4 is a bit small. 

I would play a pincer at C8.
G3 would also be nice];B[qq]C[small];W[nc];B[qj];W[jd]
(;B[jq]C[You are already strong at the bottom of the board without the J3 stone.

It would be beter to play somewhere on the left side of the board, to strenghten the D16 stone and at the same time attack White C6.]
;W[pf]
(;B[nh]LB[oe:B][nh:A];W[ck]C[10 : Is my rescuing right?
Is that ok to abandon the top left stone ?

-

N12 is way to far from Q16 to rescue it.
You'll need to play one more stone there and giveup top left, which is not good in this situation.

You dont have to giveup anything, but if you chose to give up someting, it would be better for you to give up top right stone, and keep white groups separated on the left side by playing there.]

(;B[mf]LB[mf:A][cg:B][ch:C]C[You should play on the left side.]
;W[cf]C[It's still possible to run to the centre with the top left stone.
You dont need to play anything more on the right side.]
(;B[rf]LB[ee:B][rf:A]C[You don't need this stone.];W[cc];B[go]
;W[ee];B[gm];W[gk]
(;B[jg]LB[jg:A][hk:B];W[il]
(;B[kn];W[kl]
(;B[mn]LB[mm:B][mn:A];W[ml];B[om];W[ol]C[27 : what should I do now ? How can I attack that white stone ?

-

At this poing it would be best to attack all white stones in the center by cutting them of from the left side group.]

(;B[ql]LB[ek:B][ql:A];W[pb];B[qc];W[oe]
(;B[md]LB[md:A][od:B];W[nd];B[qh];W[mc];B[hg];W[nm];B[nn];W[qb]
;B[qe];W[pm];B[on];W[pl];B[ki];W[qm];B[ro];W[rm];B[rl];W[qo]
;B[po];W[ld];B[qn];W[bo];B[en];W[hd];B[mj];W[ij];B[el];W[ei]
;B[gi];W[fj]C[61 : I don't know of I'm right to extend that way. Is it ok  ? Too weak ? Should I make stronger moyos instead ?

-
I don't know what you were trying to do.];B[kf];W[cp];B[cq]
;W[co]
(;B[br]LB[bq:B][br:A]
(;W[dm]LB[dm:A][ap:B]C[66 : Is it the right thing to do ?

--
Why didn't you just connect at B3.

After black B2 white A4 gives white more points in the endgame.]

(;B[fm]LB[em:B][fm:A];W[nj];B[nk];W[mk]C[71 : was I right to play that ?

-
It was ok.];B[oj];W[lj];B[ni];W[nl];B[in];W[kj];B[li];W[rc]
;B[rd];W[ap];B[bq];W[eg];B[gf];W[rk];B[qk];W[rb]
(;B[ie];W[id]C[88 : Was it the right thing to play ? What should I have played at this moment ?]
;B[ii];W[sl];B[rj];W[sk];B[sj];W[sm]C[95 : Was it the right sequence ?

-
yes];B[jm];W[he];B[if];W[hj];B[hi];W[lm];B[ln];W[me]C[103 : Am I right to close my territory that way ?

-
Yes, but the territory you are closing whith L6 is alredy safe.

It would be better to get some more in the center.];B[og];W[nf]
;B[mg];W[so]
(;B[qp]LB[qp:A][sp:B];W[sp]
(;B[sr]LB[rq:B][sr:A]
(;W[hl]LB[hl:A][rr:B]C[110 : Was it the right defense ?

-
I don't like it.
Don't know if there is any good answer for white R2 now.];B[dk]
;W[dj];B[fk];W[gj];B[jl];W[dl];B[ek];W[jk];B[oc];W[ob];B[fe]
;W[ff]
(;B[ge]LB[ge:A][fg:B];W[gg];B[gh];W[fg];B[hf];W[pc]C[128 : Was it the right sequence ?]

(;B[qd]LB[od:B][qd:A];W[od]C[130 : Was it the right thing to do ? I don't know if I could have saved this stone or not]
;B[le];W[ke];B[lf];W[je];B[jf];W[sq];B[rr];W[pg];B[ph];W[aq]
;B[qf]C[-

A2 is sente, so you should play it before Q14];W[ar];B[bs];W[do]

(;B[eo]LB[eo:A][ep:B];W[dq];B[ep];W[dr];B[es];W[fr];B[er];W[eq]

(;B[gq]LB[fq:B][gq:A];W[gr];B[ir];W[hq];B[hp];W[fq];B[gp];W[hr]
;B[iq];W[qg];B[rg];W[of];B[hs];W[ng];B[oh];W[ok];B[nj];W[sd]
;B[se];W[sc];B[gs];W[fs];B[is];W[gd];B[fp];W[hm];B[hn];W[fh]
C[181 : What should I do with the lower group ? Is blacck dead ? Can white be killed ? Should I try a seki ?

-
I can't think of a way to save black group after white d3.

You can't make seki when white has one eye and black doesn't have any. (white has eye at e2)]
;B[cs];W[ds];B[es];W[pk];B[pj];W[ji];B[jh];W[em];B[fl];W[pn]
;B[rn];W[rp];B[rq];W[sn];B[qo];W[km];B[im];W[mm];B[fd];W[ed]
;B[ej];W[cj];B[fi];W[gl];B[jj];W[ik];B[cr];W[as];B[ji];W[dn]
;B[tt];W[pe];B[tt];W[tt]TW[aa][ba][ca][da][ea][fa][ga][ha][ia]
[ja][ka][la][ma][na][oa][pa][qa][ra][sa][ab][bb][cb][db][eb]
[fb][gb][hb][ib][jb][kb][lb][mb][nb][sb][ac][bc][dc][ec][gc]
[hc][ic][jc][kc][lc][oc][ad][bd][cd][dd][kd][md][ae][be][ce]
[de][ne][af][bf][df][ef][ag][bg][cg][dg][ah][bh][ch][dh][eh]
[ai][bi][ci][di][aj][bj][ak][bk][hk][kk][lk][al][bl][cl][ll]
[am][bm][cm][an][bn][ao][bp][bq][cq][br][cr][er][bs][cs][es]
TB[re][sf][ig][kg][lg][sg][hh][ih][kh][lh][mh][rh][sh][mi][oi]
[pi][qi][ri][si][fn][gn][jn][fo][ho][io][jo][ko][lo][mo][no]
[oo][ip][jp][kp][lp][mp][np][op][kq][lq][mq][nq][oq][pq][jr]
[kr][lr][mr][nr][or][pr][qr][js][ks][ls][ms][ns][os][ps][qs]
[rs][ss]C[End of the game : W 112.5, B 65])
(;B[fq]LB[fq:B][gq:A];W[ds];B[gr];W[fs]C[White has one eye, black has none, so black is dead.]
))
(;B[ep]LB[eo:A][ep:B]))
(;B[od]LB[od:B][qd:A];W[qd];B[pe]))
(;B[fg]LB[ge:A][fg:B];W[ef];B[ge];W[fh];B[gh]))
(;W[rr]LB[hl:A][rr:B];B[rq];W[sq]
(;B[rp]LB[rp:A][qr:B];W[ss])
(;B[qr]LB[rp:A][qr:B])))
(;B[rq]LB[rq:B][sr:A]))
(;B[sp]LB[qp:A][sp:B];W[rn];B[qp]))
(;B[dl];W[cl];B[ej];W[dk];B[ek];W[dj]))
(;B[em]LB[em:B][fm:A]C[why not here?]))
(;W[ap]LB[dm:A][ap:B];B[bq];W[aq];B[ar];W[ao]))
(;B[bq]LB[bq:B][br:A];W[ap];B[aq];W[ao]))
(;B[od]LB[md:A][od:B]
(;W[nd]LB[nd:A][ne:B];B[ne]C[cut])
(;W[ne]LB[nd:A][ne:B];B[nd];W[me];B[md]C[White n16 and p18 is getting weak.]
)))
(;B[ek]LB[ek:B][ql:A]))
(;B[mm]LB[mm:B][mn:A]))
(;B[jm]))
(;B[hk]LB[jg:A][hk:B]
(;W[hl]LB[hj:B][hl:A];B[gl]
(;W[ik]LB[hj:B][ik:A];B[hj])
(;W[hj]LB[hj:B][ik:A];B[ik]))
(;W[hj]LB[hj:B][hl:A];B[hl])))
(;B[ee]LB[ee:B][rf:A]))
(;B[cg]LB[mf:A][cg:B][ch:C])
(;B[ch]LB[mf:A][cg:B][ch:C]))
(;B[oe]LB[oe:B][nh:A]))
(;B[cj])
(;B[ch])
(;B[cg]))
(;B[cl]LB[cl:B][bp:A][gq:C])
(;B[gq]LB[cl:B][bp:A][gq:C]))
