(;FF[4]GM[1]SZ[19]CA[UTF-8]AP[SGFC:1.15]

PB[netart]
BR[2k]
PW[rakdver]
WR[1k]
KM[0.5]
DT[2007-02-11]
PC[The KGS Go Server at http://www.gokgs.com/]
RE[B+8.50]
TM[3600]
OT[25/600 Canadian]
RU[Japanese]

C[Hello,

I played this game on kgs, with a quite long time limit (60 min + 25/10min byo-yomi).  I was white in this game, played without komi.  I would lose even with the komi, but very close.

I am probably leaving too many weaknesses behind; three times in this game, I had to respond submissively to invasions, and although I do not think my opponent gained too much from them, I had a bad feeling about this. I would appreciate if you could point out any other mistakes you spot, of course.

I will mark my comments and questions with ZD.];B[pp];W[dq]
;B[pc];W[cd];B[qi];W[jd];B[jq];W[co];B[ed];W[ec]LB[gc:A][df:B]
C[ZD: A pincer at A would probably be better.
BT: A would be too close to the white stone to the right. B seems much bigger.]
N[B];B[dd];W[dc];B[ce];W[fc];B[bd];W[cc];B[df]C[BT: I'm not sure this was so good for Black. Usually this is played when Black has a position on the lower left.]
;W[ck]LB[cl:A][cj:B][cg:C]C[ZD: This goes too close to the thickness, A would have been better.
BT: Black's group is weak, so you should play at B, threatening C.]
;B[ci]C[BT: Black was correct to respond.];W[hq]LB[qn:A]C[BT: A is better as it is the most open part of the board. 20 is a big point, but smaller than A.]
;B[jo]C[BT: This exchange has made it more difficult for White to reduce Black's territory.]
;W[qn]LB[oi:A][ho:B][pk:C]C[ZD: Reducing at A and then defending at B might be better.
BT: 22 seems fine to me. A seems tempting, but if Black answers at C, it seems that 
you have helped Black to consolidate.];B[ld]LB[ro:A][np:B][rp:C]
[qk:D]C[BT: Black played too close to White's thickness. I would prefer A. Black B is too passive, as White can play C and D, settling himself comfortably and leaving Black
overconcentrated.];W[np]LB[pe:B][qk:A][np:C][ro:D][qq:E]C[ZD: A might be better, making B and C miai.
BT: A is a heavy move, inviting D. Sometimes Black will respond to C with E, which
is dangerous for White. I recommend that White play E himself which is much safer.]
;B[oo];W[qq];B[pq];W[qp];B[om]LB[no:A][nn:B][pr:C][or:D][oq:E]
[qr:F][po:G][ph:H]C[BT: In order to take advantage of the white stone that has been cut off, I
might like to try A. Black has to be careful, because if black B, then White C, Black
D, White E, and if Black F, then White G.
Right now, though, the focus is on the upper right, and White should play a move like H.]
;W[pr];B[or];W[qr];B[oq];W[pl]LB[ph:A]C[BT: White 34 and following seem to consolidate Black. I would like to try white A.]
;B[ol];W[pk];B[oi]C[BT: Black has built a nice framework, but he may have overdone it because White can invade. Still, move builds power in the center.]
;W[ok]C[BT: White should have immediately invaded above. Black doesn't have to answer this.]
;B[ml]LB[nk:A][ok:B][pe:C]C[ZD: I think black should have played at A (and I should not have played B)
BT: Defending at black C seems better.];W[nk];B[fq]C[BT: This is too small, compared to defending the upper right.]
;W[fr]C[BT: This move resulted in Black making a lot of territory at the bottom, while White's thickness was not so useful. So jumping seems better.]

(;B[er];W[eq];B[gr];W[fp];B[gq];W[gp];B[hr];W[dr]LB[dr:A]C[ZD: Gote, but pushing at A would be big and it would also weaken the thickness I gained.]
;B[rk]C[BT: Too greedy, Black should defend the corner.];W[po]
;B[pn];W[qo];B[no];W[nl];B[nm];W[mm]C[BT: Again, these moves are smaller than the upper right corner. Also, White could be captured.]
;B[mn]LB[ll:A][kl:B]C[BT: Black is giving up too easily. Play A or B instead.]
;W[lm];B[ln];W[km];B[in];W[qc]LB[pd:A][qd:B][re:C][md:D]C[BT: Oops, Black lost his chance to defend here. But he can try to kill White with Black A, White B. Black C.White can't make two eyes, but he can create complicatations with moves like D.]
;B[qd];W[pd];B[oc];W[rd];B[qe];W[re]LB[rc:A]C[BT: Here, Black could consider cutting at A. Then he can maintain an attack against White.]
;B[qf];W[qb]C[BT: White lived too comfortably here, making the game more difficult for Black than it would have been.]
;B[rf];W[sc];B[mj];W[mk];B[pb];W[lj]LB[pb:A]C[ZD: The corner is ko, but answering A looks a bit small just now.
BT: I agree. Black's move at A may not be so good. It would have been fine to expand the center some more.]
;B[kc];W[jc];B[cm]C[ZD: I thought I can fight here, given my thickness in lower left, but blacks positions around are also strong.]
;W[dl];B[dm]
(;W[em];B[en];W[dn];B[cn];W[do];B[el];W[fm];B[bk];W[bj];B[bl]
;W[cj];B[bi];W[ek];B[aj];W[di];B[ge];W[ch];B[bh];W[dh];B[cg]
LB[el:A]C[ZD: Taking A directly might be better, but I wanted sente to prevent the ko in the upper right corner.]
;W[le];B[me];W[kb];B[lb];W[kd];B[lc];W[pa];B[oa];W[qa];B[lf]
;W[fl];B[hc];W[hb];B[gb]LB[hd:A]C[BT: What if White plays at A?]
;W[gc];B[ib];W[hd];B[ic];W[id];B[jb];W[gd];B[il]C[ZD: At this point, I have some 50 pts, black some 70, and there is little I can do about it.
BT: White's positions were often overconcentrated at the beginning, whereas Black was more spread out. Later, White didn't take advantage of Black's weaknesses in time.]
;W[bc];B[rb];W[ra];B[se];W[sb];B[bo];W[bp];B[bn];W[nh];B[ni]
;W[lh];B[li];W[ki];B[mi];W[lg];B[mh];W[mg];B[kj];W[lk];B[kh]
;W[kg];B[ji];W[jg];B[ke];W[je];B[nf];W[ng];B[ae];W[es];B[hp]
;W[kn];B[ko];W[rl];B[qk];W[rm];B[ap];W[os];B[nr];W[ns];B[ms]
;W[ps];B[mq];W[bq];B[ac];W[ab];B[ad];W[bb];B[fb];W[eb];B[ha]
;W[ho];B[iq];W[pg];B[ph];W[od];B[nc];W[of];B[oe];W[pe];B[ne]
;W[pf];B[qg];W[kf];B[nd];W[og];B[pm];W[ql];B[hn];W[sk];B[rj]
;W[gh];B[gn];W[fn];B[aq];W[fe];B[ff];W[gf];B[gg];W[fg];B[hf]
;W[ef];B[eg];W[gf];B[sf];W[sd];B[ff];W[rh];B[qh];W[gf];B[kl]
;W[ll];B[ff];W[bg];B[bf];W[gf];B[fh];W[hg];B[dg];W[eh];B[gj]
;W[fi];B[jl];W[sj];B[si];W[sl];B[ri];W[hk];B[hj];W[gk];B[ij]
;W[go];B[fj];W[ej];B[br];W[cr];B[io];W[jh];B[ki];W[le];B[ih]
;W[mf];B[ig];W[if];B[hh];W[he];B[ea];W[da];B[fa];W[ee];B[de]
;W[pj];B[gi];W[hl];B[gm];W[jk];B[ik];W[kk];B[jm];W[hm];B[ar]
;W[gs];B[hs];W[fs];B[bs];W[cs];B[mo];W[tt];B[tt]TW[sa][ge][ie]
[ke][ff][hf][jf][lf][gg][fh][ei][el][ml][fo][dp][er][ds][qs]
[aa][ba][ca][cb][db][rb][rc][dj][dk][sm][sn][so][sp][sq][sr]
[ss][en][eo][ep][rn][ro][rp][rq][rr][rs][cp][cq]TB[ga][hb][kb]
[be][cf][bg][bm][hq][nq][mr][as][ia][ja][ka][la][ma][na][mb]
[mc][md][nb][ob][af][ag][ah][ai][rg][rh][sg][sh][hi][ii][ak]
[al][am][an][ao][nn][on][lo][lp][lq][lr][ls][ip][jp][kp][mp]
[np][op][kq][kr][ks][ir][is][jr][js])
(;W[el]C[ZD: Probably I should have tried to play like this.]
;B[fn];W[en];B[em];W[fm]))
(;B[gq]))
