(;FF[4]GM[1]SZ[19]ST[2]CA[UTF-8]AP[SGFC:1.15]

PB[mircofanti]
BR[8k]
PW[Hikarufan5]
WR[8k]
KM[6.5]
DT[2007-02-17]
PC[The KGS Go Server at http://www.gokgs.com/]
RE[W+48.50]
TM[1800]
OT[5x30 byo-yomi]
RU[Japanese]

C[Hi Mirco, I hope my review will help you. Please feel free to send me a mail if you have any more questions about the game or my comments.

Have fun!

Kirsten


In this game i tried some variation.

The central point of this game seems to be the attck and defence. It might be the skill go trought my rank.

I added some comments to.

Thanks for your help, Mirco.];B[pd];W[dp];B[pq];W[dc];B[fq]
;W[cn];B[jp];W[dj];B[qo];W[nc];B[qf];W[jd];B[ld];W[kc];B[lc]
;W[de];B[dr];W[cq];B[pj];W[qc];B[pc];W[nb];B[qb];W[lb];B[nd]
;W[ke];B[kd];W[jc];B[le]C[l16 is aji-keshi. you force w to connect, but you gain nothing. if you want to play m15, you can do it without l16. so, if you play l16 you should consequently cut at k15 afterwards, only then the move would make sense. the problem is, that you rob yourself of possibilities like k18 later, after an invasion on the upper side.]
;W[kf]C[w is grateful, you force him to stabilize his moyo. an invasion in the upper left becomes difficult now.
your position around m16 is quite over-concentrated.];B[fn]
C[good move];W[fp];B[gp];W[eq];B[fr];W[go];B[fo];W[ep]
(;B[ho];W[gq];B[hp];W[er];B[gr];W[es];B[gn]C[with h4 instead of h5, you wouldn't have lost d2, and even more, you would only need one more move to catch g5 in a geta; instead of g6 and h5 only h6.]

(;W[mo]C[you are right, p5 is a common move. but n5 doesn't look bad either.

two possibilitities now. defend like you did, or attack from top. if you attack from top w should be able to make life somehow, but you gain strength which you can use to start an invasion in w's moyo.]

(;B[mq];W[lq];B[lp];W[mp];B[nq];W[kp];B[lo];W[ko];B[ln];W[jq]

(;B[jo]C[i don't like k5, because you force w to play l6, which he would like to play anyway.]
;W[kn];B[mn];W[kl];B[jm]C[you are too fixed now on wanting to kill w, and if you don't succeed you only make him stronger by moves like l7. you let him run into your moyo.]
;W[jn];B[im];W[km];B[ml]C[I really like to know a better answer to this attack

n8 seems ok now, the problem started before.];W[rj];B[ql];W[qh]
;B[ph];W[pg];B[qg];W[pi];B[oh];W[oi];B[qi];W[qj];B[rh];W[pk]
;B[oj];W[ok];B[ni];W[qk]
(;B[pl];W[mk];B[nl];W[ol];B[nk];W[nn];B[nm];W[om];B[on];W[pn]
;B[oo];W[qn];B[po];W[rl];B[rn];W[rm];B[lk];W[mm];B[lm];W[ll]
;B[no];W[kk];B[lj];W[ik]C[hard to tell what is the right thing to do now. but i think reduction of the w moyo is not enough, you will need an invasion. my favourite is c10, it should be able to make easy life.]

(;B[cl]C[I have tried some variation];W[dm]C[mircofanti [8k\]: here only the chance to live little]
;B[dl];W[el]
(;B[fl]C[this is too less. you have to take away more from w. maybe continue at c13, and make either c13 or c8 alive.]
;W[ek];B[fk];W[fj];B[gj];W[fi];B[gi];W[gk]
(;B[gl];W[hk];B[ii];W[kj];B[cj];W[ci];B[di];W[dh];B[bi];W[ch]
;B[dk];W[ej];B[bh]
(;W[bg];B[bk];W[bm];B[bl];W[li];B[mj];W[mg];B[ki]C[of yourse you have to try, but to me it doesn't look promising to mahe the 4 stones alive. or to kill w.]
;W[ji];B[kh];W[jh];B[lh];W[lf];B[nf];W[me];B[md];W[ng];B[og]
;W[ne];B[oe];W[mf];B[of];W[mc];B[od];W[gc];B[jg];W[kg];B[ih]
;W[jj];B[jf];W[je];B[hf];W[gh];B[hh];W[hi];B[hj];W[ij];B[hi]
;W[hg]
(;B[in];W[lr];B[mr];W[ir];B[hr];W[ip];B[io];W[iq];B[hq];W[em]
;B[bc];W[bd]
(;B[cd];W[be];B[ce];W[cc];B[cf];W[bf];B[dd];W[ec];B[gg];W[ig]
;B[ee];W[df];B[dg];W[ef];B[eg];W[ff];B[fe];W[fg];B[gf];W[fh]
;B[bn];W[bo];B[cm];W[an];B[eo];W[do];B[hl];W[fm];B[gm];W[cg]
;B[ls];W[kr];B[si];W[sj];B[ob];W[mb];B[mh];W[ro]C[biggest move now I guess. but it's over anyway, no need for endgame analysis.]
;B[rp];W[sn];B[sp];W[so];B[is];W[js];B[na];W[ma];B[oa];W[ri]
;B[sh];W[ah];B[ai];W[ag];B[oc];W[kb];B[hs];W[ks];B[ms];W[al]
;B[ak];W[am];B[fs];W[en];B[jl];W[tt];B[tt]TW[aa][ba][ca][da]
[ea][fa][ga][ha][ia][ja][ka][la][ab][bb][cb][db][eb][fb][gb]
[hb][ib][jb][ac][bc][fc][hc][ic][ad][cd][dd][ed][fd][gd][hd]
[id][ae][ce][ee][fe][ge][he][ie][af][cf][gf][hf][if][jf][dg]
[eg][gg][jg][eh][hh][ih][di][ei][gi][hi][ii][gj][hj][rk][sk]
[pl][ql][sl][pm][qm][sm][bn][dn][rn][ao][co][ap][bp][cp][aq]
[bq][dq][kq][ar][br][cr][dr][jr][as][bs][cs][ds]TB[pa][qa][ra]
[sa][pb][rb][sb][qc][rc][sc][qd][rd][sd][pe][qe][re][se][pf]
[rf][sf][pg][rg][sg][qh][li][mi][oi][pi][aj][bj][nj][ck][mk]
[hm][mm][hn][nn][go][mo][mp][np][op][pp][qp][gq][oq][qq][rq]
[sq][nr][or][pr][qr][rr][sr][gs][ns][os][ps][qs][rs][ss]C[Hikarufan5 [8k\]: thx
mircofanti [8k\]: thaks])
(;B[cc];W[cd];B[db];W[eb];B[ca]
(;W[ec];B[bb]C[small life at least])
(;W[bb];B[ec];W[dd];B[fb];W[cb];B[ea];W[gb]C[but maybe not possible. worth a try anyway.]
)))
(;B[gg]))
(;W[bj];B[ck];W[bg];B[bk];W[ah];B[aj];W[bm]C[not alive this way.]
))
(;B[hk];W[gl];B[fm];W[hl];B[hj];W[il];B[jj];W[ij];B[ii];W[kj]
;B[ki];W[li];B[mj];W[kh];B[ji];W[jh];B[ih];W[ig];B[hg];W[hf]
;B[gg];W[jk]
(;B[gf])
(;B[gh];W[gf];B[ff];W[fg];B[fh];W[eg];B[eh];W[dh];B[di];W[ci]
;B[dg];W[ei];B[ef]C[I think I coud kill this group.

What do you think?])))
(;B[cg];W[ci];B[eg]C[it's a try all or nothing, but that's what you need now.]
;W[ff];B[be];W[bd];B[ce];W[cd];B[df];W[ee];B[bh];W[bi];B[fg]
C[the invasion looks promising]))
(;B[dl]C[mircofanti [8k\]: what would you do here?
Hikarufan5 [8k\]: 10 f]
(;W[cl];B[dk];W[ck];B[ej];W[di];B[ei])
(;W[fj]C[mircofanti [8k\]: right
Hikarufan5 [8k\]: for you?
mircofanti [8k\]: yeah
Hikarufan5 [8k\]: yes
mircofanti [8k\]: the good invasion]
(;B[hk]C[Hikarufan5 [8k\]: you have a mayn optins
mircofanti [8k\]: or try to trap your group
Hikarufan5 [8k\]: yes]
(;W[hj];B[ij];W[hl];B[gk];W[gl];B[gj]C[mircofanti [8k\]: i think this was the better way]
;W[fk];B[hi];W[fl])
(;W[ji]C[as w i would just run out here. but now you will be able to reduce the moyo quite a bit.]
;B[hj];W[gh];B[hh];W[gg];B[hg];W[hf]C[you still have a chance to attack the w middle group, catching it would turn the game of course.]
;B[jh];W[ki];B[kh];W[ii];B[hi];W[ih];B[ig];W[lh];B[kg];W[lg]
;B[jg];W[li];B[lf];W[mj]C[hard to tell te outcome, this is just one possibility.]
))
(;B[cj]C[mircofanti [8k\]: i coluld go here];W[ci];B[di];W[ck]
C[Hikarufan5 [8k\]: yes?];B[ch];W[bi];B[bh];W[bj];B[ce]C[mircofanti [8k\]: invading the other side
mircofanti [8k\]: i want to ask you])))
(;B[cj];W[ci];B[ck]
(;W[dk];B[bi];W[ch];B[bh];W[bg];B[dl];W[el])
(;W[bi];B[dk]C[still, if w plays this way, it might not be big enough, but it's just hard now, as w is quite ahead.
without k17 in place you would be able to invade the top, with moves like d18 or k18.]
)))
(;B[qm]C[i would defend here, with q8 w has more possibilities to attack your stones as he will do.
I cannot really tell if the invasion was an exaggeration, but it looked possible.]
))
(;B[kn]C[why not play here? this stabilizes your moyo instead of letting w run in. your group on the left is save, no need to worry if white makes life. though it's still not sure he will.]
;W[jo];B[ip];W[iq];B[hq]C[quite difficult, I don't see a way for w.]
))
(;B[mm]C[i think i would try to play here. now there are endless variations, but in any way you should gain strength to attack w's moyo.]
))
(;W[oo]C[mircofanti [8k\]: Why not this?
Hikarufan5 [8k\]: in atacking im weak
Hikarufan5 [8k\]: i dont really know where
Hikarufan5 [8k\]: I should attack
mircofanti [8k\]: i though it
mircofanti [8k\]: but then i loose
Hikarufan5 [8k\]: dont worry it was a good game
mircofanti [8k\]: i'm studying attack and defence
Hikarufan5 [8k\]: I have to go see you
Hikarufan5 [8k\]: ok
mircofanti [8k\]: bad student anyway
Hikarufan5 [8k\]: but the real thing is to have afelling about go
mircofanti [8k\]: bye
mircofanti [8k\]: Ciao rpper
mircofanti [8k\]: rapper]))
(;B[hp]C[this move seems much safer for your stones at the bottom. running away with g5 would not be good for white.]
))
