(;FF[4]GM[1]SZ[19]ST[2]CA[UTF-8]AP[SGFC:1.15]

PB[olligo]
BR[7k]
HA[4]
PW[gaKFC]
KM[6.5]
DT[2007-03-02]
PC[The KGS Go Server at http://www.gokgs.com/]
RE[W+79.50]
TM[1200]
OT[5x30 byo-yomi]
RU[Japanese]

AB[dd][pd][dp][pp]C[Hi! I'm your reviewer Edgar Ibsen. My comments will start with "Edgar: ".]
;W[nc];B[pf];W[cf];B[ch];W[fq];B[cn];W[mp];B[hq];W[qn]
(;B[kq]C[Edgar: I believe this is a mistake; see my comment two moves after.]
;W[oo];B[nq]C[olligo [7k\]: Looking for a way to save the corner - O3?

Edgar: Well... at this point even if you save the corner you will still incur quite a penalty insofar as influence is concerned; and the L3 group will be weakened quite a bit.

I believe L3 is a mistake. H3 is in no immediate danger, but Q4 is already pincered. If you had played O3 instead of L3 you would be able to play P6 after White responds with N3 (see variation).

P5 is a huge move for white; it unites his two potentially weak groups, and seriously threatens the corner, therefore allowing w to play P5 is a mistake.

If you want to save the corner here, you will need to play R3 or R4 (I perfer R3 though, though R4 possible) at some point. And this shows the problem: even if b lives, he'll end up with a very small chunk of land, and give white huge influence.

I think the root of the problem here is that you are being too greedy. You want to deny white everything, but that is impossible in Go, unless he is much much weaker. The trick is to come out ahead in exchanges, and not to deny everything.]
;W[mq];B[nr];W[mr];B[qj]C[Edgar: No! This is *way* too greedy. As the saying goes, urgent moves before big moves. Your Q4 group is in danger of dying. Remember that the 4-4 stone *never* means free life; in fact, it means the opposite - namely that you need to add a move in gote in the corner to live.

Hence, while R10 may be big, it is way smaller than the R4 required here for life in the corner. Though, even after R4 black still has bad aji in that corner. But this is the price to pay for ignoring the pincer.

Again, remember that you do not "own" any part of the board at the beginning of the game (even in a 4H game), and any attempt to get everything will make you lose.]
;W[rp]C[olligo [7k\]: was there no way to save the corner from here?

Edgar: Probably not, unless you are much stronger than white. I personally can't see a way for b to live there; there is just not enough eyespace.]
;B[qq];W[rq];B[rr];W[pr];B[qr];W[or];B[ms];W[oq];B[lr];W[op]
;B[lc];W[qh];B[ph];W[pg];B[qg];W[og];B[qf];W[pi];B[oh];W[oi]
;B[nh];W[qi];B[me];W[fo];B[ho];W[dr];B[cq];W[fm];B[en];W[fn]
;B[dk];W[hm];B[im]C[Edgar: This move is too hasty. You are giving white, who was comparitively weak, a chance to fight you and potentially seriously harm you. Attaching to a running group should be done with extreme care, because more often than not it helps the running group and not the side who attached.

Here, a much better move might be G9. It at the same time expands your huge moyo, and also attacks white. Actually killing white will prove hard; this seems to usually be the case for low 5-3 approaches (i.e. F3) with a 4-2 leg (i.e. D2), especially since the group already has a sente eye at E2.]
;W[in];B[hn];W[jn];B[ko];W[jp];B[kp];W[ip];B[hp];W[gm];B[ln]
;W[km];B[il];W[jr]C[Edgar: Now it is your group that is more likely to die, and not white's. This happened because of the hasty attach. Attaching should be done only when there is enough support, but your H3/L3 group was quite weak when you attached, partly also due to the mistake in the corner. Now you see why trying to get everything is a bad idea ;) You usually just end up killing your own groups.]
;B[ir];W[jq];B[js];W[ks];B[ls];W[is];B[hs];W[lm];B[mo];W[np]
;B[mm];W[ml]C[olligo [7k\]: sorry
gaKFC [?\]: np];B[ll];W[kl];B[lk];W[nm];B[mn];W[kk];B[nl]TR[il]
[ll][kp][hq]SQ[fq][jq]C[olligo [7k\]: I used 5 min to decide on O8 - still looking for a way to capture K6 group

Edgar: Trying to capture K6 at this point is more or less daydreaming lol. You should be fighting for the survival of N5, since at least H3 is already pretty dead.

We can compare the group situation on the board right now. B has 4 weak groups, while W has 2 weak groups (actaully F3 is probably already alive, or at least can run into the center). There is absolutely no way B can capture either of W's weak groups unless W blunders; saving even one of his two larger weak groups is hard.

Again, you were trying to kill white too hard, and the hasty attachment shows this. But this is something that you have to get over in order to advance... I still remember I was similarily vicious when I was a 7k ;)

More interesting than killing groups is to get something while chasing them (like the G9 I proposed). Especially for a group that is very hard to kill.

Anyway, this is another manifestation of being too greedy.]
;W[mk];B[lj];W[nk];B[ol];W[nn];B[kr];W[js];B[ok];W[mi];B[mj]
;W[nj];B[ni];W[oj]
(;B[kj];W[jj]
(;B[lh]C[olligo [7k\]: turns out to be major mistake!!

Edgar: To be honest, the mistake(s) were committed a long time ago (starting with R10, which looks rather dead right now lol) ;) Both L3 and H3 are stone dead by now...]
;W[mh];B[ng];W[mg];B[of];W[kh]C[gaKFC [?\]: notice time];B[jk]
;W[ki];B[kn];W[jm];B[jo];W[io];B[on];W[pn];B[om];W[no];B[po]
;W[ns];B[ps];W[pk];B[pl];W[ql];B[gk];W[gr];B[hr];W[fk];B[fj]
;W[hk];B[hj];W[ik];B[hl];W[ij];B[gl];W[hi];B[gj];W[cr]
(;B[eq]C[olligo [7k\]: E3. Is there a better (working) way to save H1 group?

Edgar: I do not see any. This is, again, punishment for being too greedy ;)]
;W[er];B[fp];W[gp];B[ep];W[gq];B[go];W[gs];B[em];W[li];B[fl]
;W[iq];B[gd]C[olligo [7k\]: G16 - is that a good move now?

Edgar: Well, as I believe Edward Lasker said, "there are no good moves in a bad position"... This might be the least of the evils, but the game is pretty much set.]
;W[cc];B[cd];W[dc];B[ec];W[eb];B[fc];W[fb];B[gb];W[bd];B[be]
;W[bc];B[ce];W[qc]C[Edgar: This shows how little a 4-4 stone secures the corner.]
;B[pc];W[pb]
(;B[qd];W[rb];B[rc];W[qb];B[nb];W[mb];B[mc];W[ob];B[oc]
(;W[na];B[nd];W[nb];B[lb];W[rd];B[re];W[sc];B[gh];W[hh];B[gg]
;W[ae];B[af];W[ad];B[bf];W[br]C[Edgar: This is quite clever yose on white's part. Instead of being greedy by playing B3 and ending in gote with 1 extra point, white chooses sente instead, which is worth far more than 1 point.]
;B[bq];W[aq];B[ap];W[ar];B[bp];W[if];B[je];W[ie];B[id];W[jf]
;B[ke];W[ge];B[gf];W[hd];B[hc];W[he];B[fe];W[la];B[ka];W[lf]
;B[mf];W[kf];B[fa];W[da]
(;B[jl];W[rg];B[rf];W[rh];B[ro];W[qo];B[qp];W[rn];B[hg];W[ig]
;B[gi];W[le];B[kd];W[ld];B[kc];W[eo];B[do];W[gn];B[md];W[sg]
;B[ga];W[ba];B[ea];W[db];B[ma];W[ic];B[jd];W[la];B[ib];W[ma]
;B[sf];W[sd];B[tt];W[tt]TW[aa][ca][oa][pa][qa][ra][sa][ab][bb]
[cb][sb][ac][rc][jg][kg][lg][ih][jh][lh][sh][ii][ji][ri][si]
[kj][lj][mj][pj][qj][rj][sj][lk][ok][qk][rk][sk][ll][nl][ol]
[pl][rl][sl][mm][om][pm][qm][rm][sm][hn][kn][ln][mn][on][sn]
[go][ho][jo][ko][lo][mo][po][ro][so][hp][kp][lp][pp][qp][sp]
[hq][kq][lq][nq][pq][qq][sq][fr][hr][ir][kr][lr][nr][qr][rr]
[sr][as][bs][cs][ds][es][fs][hs][ls][ms][os][ps][qs][rs][ss]
TB[ha][ia][ja][hb][jb][kb][gc][ic][jc][ed][fd][od][de][ee][ne]
[oe][pe][qe][cf][df][ef][ff][nf][ag][bg][cg][dg][eg][fg][og]
[pg][ah][bh][dh][eh][fh][ai][bi][ci][di][ei][fi][aj][bj][cj]
[dj][ej][ak][bk][ck][ek][fk][al][bl][cl][dl][el][am][bm][cm]
[dm][an][bn][dn][ao][bo][co][cp]C[gaKFC [?\]: thx
olligo [7k\]: thanks for the game
gaKFC [3k?\]: bb

Edgar: You were just too greedy ;) Though to be honest, learning when being greedy is ok and when it is not is not easy; for example, you need to be able to accurately feel how hard killing a group is, and that takes experience.

So play more games, and turn down the greediness a little ;)]
)
(;B[rh];W[ri];B[rg]C[olligo [7k\]: better

Edgar: Yes.]))
(;W[nd]C[Edgar: Even this is possible here, but I guess white wanted to be safe.]
;B[na];W[ma];B[rd];W[sb]))
(;B[ob];W[qb];B[oc];W[re]))
(;B[gq];W[fr];B[fp];W[ep];B[gp]
(;W[eq]C[Edgar: Why? See variation.];B[eo];W[gs];B[em];W[li]
;B[fl];W[iq])
(;W[eo];B[eq];W[dq])))
(;B[mh];W[li];B[ki];W[lh];B[of]
(;W[ng]C[Edgar: This is bad. See variation.];B[mg];W[nf];B[lg]
;W[kh];B[ji];W[ii];B[jh];W[kg];B[pj];W[ih];B[jg];W[kf];B[le]
)
(;W[lg];B[ng];W[jh])))
(;B[pj]C[olligo [7k\]: I used another 5 min thinking about Q10

Edgar: I've pruned the variations that get white nowhere, and shown how white can win. Basically, white only needs to get 3 libs on his group in order to win.]
;W[rj];B[rk];W[ri]
(;B[sj]C[Edgar: This lets white live (see my comment next move). See the variation on this move for how w can win now that he gets 3 liberties.]

(;W[si]C[Edgar: This is bad. See variation.];B[rh];W[sk];B[sh]
C[olligo [7k\]: Should have done Q10 I guess ...

Edgar: Even Q10 doesn't work unfortunately :/ This is the price for being too greedy.]
)
(;W[pk];B[qk];W[pl]))
(;B[ql]C[Edgar: This is necessary.];W[lh]C[Edgar: This sets up a miai situation, and B has to give W one of the two groups.]

(;B[kj];W[jj];B[ki];W[ji];B[kh];W[ng])
(;B[mh]C[Edgar: Brute force here does not work.];W[mg];B[li]
;W[ng];B[mi];W[ki]))))
(;B[nq];W[mq];B[on];W[jq];B[ho]C[Edgar: Here White is actually not all that well off... K3 is overconcentrated, and R6 is weak.]
))
