(;FF[4]GM[1]SZ[19]ST[2]CA[UTF-8]AP[SGFC:1.15]

PB[buitenland]
BR[14k]
PW[abeced]
WR[13k]
KM[0.5]
DT[2007-02-23]
PC[The KGS Go Server at http://www.gokgs.com/]
RE[W+57.50]
TM[1800]
OT[5x30 byo-yomi]
RU[Japanese]

C[abeced [13k\]: hi
abeced [13k\]: gg

* Hello buitenland. Your opening was ok, and your strategy to secure the center would have been successful, if you denied your opponent the acces to your territory ;-)
I'm EGF 2kyu, so please don't expect the perfect review :-)
Malek];B[dd];W[dp]C[buitenland [14k\]: hola];B[pd]C[abeced [13k\]: hola
buitenland [14k\]: b p];W[qp];B[qj]C[abeced [13k\]: igualmente]
;W[kq];B[jc];W[ck];B[ch];W[ql];B[nj]C[benjisan [10k\]: lol
benjisan [10k\]: pretty game];W[qc];B[qd];W[rd]C[* White should play Q17 directly.
Now it is good for you to play there.]
(;B[re];W[pc];B[oc];W[sd];B[qf];W[ob]
(;B[rb];W[nc];B[od];W[rc];B[mc];W[mb];B[nd];W[nb];B[lc];W[lb]
;B[kb];W[cc];B[dc]C[* Correct side.];W[db]
(;B[cd];W[bc]C[* This is a mistake. It has to be B18.];B[eb]
;W[bd];B[cb];W[bb];B[da];W[bf]C[* White will get a painful life on the second line.]
;B[ce]C[* C14 is better shape.];W[bh];B[be];W[ae];B[cg];W[ci]
;B[bg];W[ag];B[bi];W[ah];B[ai];W[af]
(;B[cf]C[* A16 first, then White is dead.];W[ad];B[cj];W[di]
C[* You can still kill, if you connect at B10.]
(;B[dj];W[bj];B[ei];W[dh];B[eh];W[dg];B[eg];W[aj];B[df];W[bi]
;B[el];W[dk];B[ej];W[dm];B[dl];W[cl]C[* Your  moyo already looks like secure territory. Thus you have a big lead. You can win easily by invading the bottom.
But your strategy to reduce the bottom and secure the whole center seemed to work very well, too.]
;B[ko];W[dn]C[* Slow move.];B[go];W[gp];B[fo];W[fp];B[hp]C[buitenland [14k\]: Is this too low?

* Maybe White should have tried to cut, because he can't let you get the whole center.]

(;W[hq];B[jp]C[* J4 is better.];W[jq]C[* J3 is sente.];B[mp]
;W[mq];B[op]C[buitenland [14k\]: is it ok now?
dziobo [3k\]: yes
dziobo [3k\]: i had an impression that you reall wanted to defend all the center
dziobo [3k\]: while here for example
buitenland [14k\]: yes that's true..
dziobo [3k\]: is a nice moment for b to deal some damage to whites territory
buitenland [14k\]: ok

* You press White down to the third line and defend the center. Looks good for you.]
;W[ip]C[buitenland [14k\]: ok]
(;B[io];W[ho];B[hn];W[oq];B[on];W[ol];B[ml];W[em]
(;B[gl];W[fl]
(;B[ek]C[dziobo [3k\]: but when the white is out .... you should get more distance
buitenland [14k\]: ok

* This is actually not very big. See variation.];W[gm];B[fk]
;W[fm]
(;B[im];W[hl];B[gk];W[hm];B[ij];W[hk];B[hj];W[jk];B[ik];W[il]

(;B[kl];W[jl];B[kj];W[kk];B[jj];W[ll];B[km];W[lj];B[lm];W[lk]
;B[mk];W[mj];B[mh]
(;W[li]C[* White should have played M12 to get deeper in your territory.]
;B[kg];W[ki];B[nk];W[jh]
(;B[hh]TR[eg][eh][ei]SQ[hf][if][jf]C[* Wrong direction. Your territory is above and your wall is at the left.]
;W[ig]C[The game seems over now. White can continue reducing your territory in sente and then save R8.]
;B[ie];W[hf];B[hg];W[if];B[ih];W[jg];B[kh];W[ji];B[ff];W[he]
;B[gc];W[je];B[id];W[kf];B[mg];W[mf];B[le];W[lf];B[me];W[nf]
;B[og];W[ng];B[nh];W[of];B[pg];W[hd];B[hc];W[gd];B[fd];W[jd]
;B[ic];W[cq];B[qn];W[rn];B[qo];W[ro];B[qm];W[rm];B[rk];W[rl]
;B[pl];W[pk];B[pm];W[qk];B[rj];W[pj];B[pi];W[oi];B[ok];W[qi]
;B[ph];W[ri];B[rh];W[sj];B[qh];W[sk];B[oj];W[pp];B[po];W[np]
;B[oo];W[no];B[nn];W[mo];B[lp];W[pr];B[mn];W[lo];B[ln];W[nq]
;B[kp];W[hp];B[jm];W[gn];B[in];W[bo];B[ge];W[gf];B[fe];W[gg]
;B[gh];W[fg];B[fh];W[ka];B[ja];W[la];B[pb];W[qb];B[se];W[ba]
;B[ca];W[mi];B[ni];W[lh];B[lg];W[ii];B[hi];W[kd];B[ld];W[kc]
;B[jb];W[eo];B[ke];W[jf];B[ne]C[dziobo [3k\]: could you pass it one more time
buitenland [14k\]: You should have control now dziobo
dziobo [3k\]: theres some kind of bug
buitenland [14k\]: oh
dziobo [3k\]: i cannot switch off scoring tool];W[sh];B[sg]
C[buitenland [14k\]: sure...];W[si];B[pf];W[oe];B[pe]C[abeced [13k\]: nose q pasa
buitenland [14k\]: ya]
(;W[lq]C[abeced [13k\]: ahora];B[tt];W[tt]TW[aa][ma][na][oa]
[pa][qa][ra][sa][ab][pb][rb][sb][ac][sc][ai][qj][rj][rk]TB[ea]
[fa][ga][ha][ia][db][fb][gb][hb][ib][ec][fc][ed][md][de][ee]
[qe][ef][rf][sf][qg][rg][oh][fi][gi][oi][fj][gj][nl][ol][mm]
[nm][om][jn][kn][pn][jo]C[abeced [13k\]: si
buitenland [14k\]: bueno
abeced [13k\]: hasta otra
buitenland [14k\]: adeu
dziobo [3k\]: not a lot of territory remained :)
buitenland [14k\]: no...
buitenland [14k\]: : )
buitenland [14k\]: I had the impression that my opening was more or less ok...
buitenland [14k\]: but white invaded all the center
dziobo [3k\]: more or less yet you shouldnt give up all the corners
dziobo [3k\]: AND 2 sides
dziobo [3k\]: even if center is big youll probably need a corner or two
buitenland [14k\]: yes...
dziobo [3k\]: may i have control?

* You could have won the game without a corner, too.])
(;W[tt];B[tt]TW[aa][ab][ac][ai][qj][rj][ak][bk][rk][al][bl]
[sl][am][bm][cm][sm][an][bn][cn][en][fn][sn][ao][co][do][fo]
[go][so][ap][bp][cp][ep][rp][sp][aq][bq][dq][eq][fq][gq][iq]
[pq][qq][rq][sq][ar][br][cr][dr][er][fr][gr][hr][ir][jr][kr]
[lr][mr][nr][or][qr][rr][sr][as][bs][cs][ds][es][fs][gs][hs]
[is][js][ks][ls][ms][ns][os][ps][qs][rs][ss]TB[ea][fa][ga][ha]
[ia][db][fb][gb][hb][ib][ec][fc][ed][md][de][ee][qe][ef][rf]
[sf][qg][rg][fi][gi][fj][gj][jn][kn][pn][jo])
(;W[tt];B[tt]TW[aa][ma][na][oa][pa][qa][ra][sa][ab][pb][rb]
[sb][ac][sc][ai][qj][rj][rk][en][fn][fo][go]TB[ea][fa][ga][ha]
[ia][db][fb][gb][hb][ib][ec][fc][ed][md][de][ee][qe][ef][rf]
[sf][qg][rg][fi][gi][fj][gj][jn][kn][pn][jo]))
(;B[if]C[* But your territory has become too small now.]))
(;W[lh]))
(;B[jl]C[buitenland [14k\]: Cut]))
(;B[ik];W[hl]
(;B[hm])
(;B[hk];W[gk];B[gj];W[im];B[kl];W[jn];B[ln]C[dziobo [3k\]: kind of basics :)
dziobo [3k\]: you are probably aware of them
buitenland [14k\]: yes...
buitenland [14k\]: i see now...
buitenland [14k\]: : )
dziobo [3k\]: if your opponent want some territory a lot
dziobo [3k\]: or want anything
buitenland [14k\]: hmm
dziobo [3k\]: killing some exact stones
dziobo [3k\]: defending something
dziobo [3k\]: you can use it against him
dziobo [3k\]: threatning and getting profit
buitenland [14k\]: ok I get it.. fine strategy
dziobo [3k\]: something like that...
dziobo [3k\]: being more flexible])))
(;B[gm];W[ek];B[gk]))
(;B[fl]C[buitenland [14k\]: no doubts about that : )
dziobo [3k\]: here this move should work

* Yes, this is the right move.]))
(;B[ho]C[buitenland [14k\]: Connect])
(;B[pq]C[dziobo [3k\]: attack the corner])
(;B[or]TR[gk][ik][kk]C[dziobo [3k\]: this way
dziobo [3k\]: or another
dziobo [3k\]: white will probably answer
dziobo [3k\]: and will end in gote
buitenland [14k\]: yes I've got it...
dziobo [3k\]: because he is defending
dziobo [3k\]: THEN you can answer threats bout the center
buitenland [14k\]: I understand
dziobo [3k\]: white's wastes his moves to get to the center -> get profit somewhere else
buitenland [14k\]: ok
dziobo [3k\]: even if white breaks out around h5
dziobo [3k\]: you should keep a lot of center for yourself
buitenland [14k\]: yes
buitenland [14k\]: that's what I didn't get about this game
buitenland [14k\]: ...how did it come that i lost all the center
buitenland [14k\]: but now it's getting clear to me
dziobo [3k\]: you wanted to keep it as a whole too much :)
buitenland [14k\]: yes I understand that now
buitenland [14k\]: : )
dziobo [3k\]: i hope i did help :)
buitenland [14k\]: Yes a lot...
buitenland [14k\]: Thanks for your review dziobo
dziobo [3k\]: cu around];W[qr];B[io]C[dziobo [3k\]: im trying to show the idea
buitenland [14k\]: better strategy...
dziobo [3k\]: the moves probably should be quite different
dziobo [3k\]: so try to get initiative and counterattack
buitenland [14k\]: ok
dziobo [3k\]: even sacrificing a bit of territory that you want
dziobo [3k\]: binding yourself to a piece of territory is not good
buitenland [14k\]: yah i suppose getting all the center was to greedy and infeasible
dziobo [3k\]: its risky
dziobo [3k\]: its really hard to defend center
dziobo [3k\]: yet you could have done it better probably :)]
))
(;W[ho];B[ip];W[hn];B[fm];W[jp];B[io];W[jo];B[in];W[jn]))
(;B[bj];W[dj];B[bk];W[cl]C[* You win the liberty race.]))
(;B[ad]))
(;B[eb]C[buitenland [14k\]: I think this is better...

* I agree. But your move was ok, too.]))
(;B[nc]C[buitenland [14k\]: This is probably better...

* Yes.]))
(;B[pc]LB[rb:A][re:B]C[* If White plays A, he will be sealed in.
White B is bad.]
(;W[rb];B[qb];W[rc];B[re];W[pb];B[ob];W[qa];B[nc])
(;W[re];B[rc]C[* Black gets the corner and White has nothing but a weak group.]
)))
