(;FF[4]GM[1]SZ[19]ST[2]CA[UTF-8]AP[SGFC:1.15]

PB[jowzer]
BR[10k]
PW[sanada1]
WR[10k]
KM[6.5]
DT[2007-02-16]
PC[The KGS Go Server at http://www.gokgs.com/]
RE[W+Resign]
TM[600]
RU[Japanese]

C[Hello !

My name is Julien Wiesel. I play as "LeWiZ" on KGS and I'm about 3k.

I'm french. I'll try to use my best english ^^

I hope the comment will help you. If you have any question about the comment, ask me at julien.wiesel@gmail.com !]
;B[pc];W[dp];B[cd];W[pp];B[qn];W[np];B[qi];W[iq];B[fc];W[ci]
;B[cm]LB[cn:B][co:A]C[This move looks strange to me. It doesn't attack the corner and doesn't attack the white stone on left. White can answer 'a' : he is happy with his corner and the white stone on the left is still ok. I would have played at 'b'.]
;W[cf];B[bp];W[cq];B[bj];W[cj];B[bk];W[bi];B[be];W[bf];B[qq]
;W[co];B[bo];W[qp];B[pq];W[oq];B[rp];W[ro];B[rq];W[qo];B[or]
;W[nr]
(;B[os]LB[ps:A]C[Black should play at 'a' and the corner is alive. See variations.]
;W[qs];B[pr]
(;W[rs]LB[rr:A]C['a' would have killed black.];B[sp];W[so];B[sr]
;W[rr];B[cp];W[cn]LB[dq:A]C[I would have played at 'a' and tried to build a moyo at the bottom. Here 'a' is leaved as a cutting point.]

(;B[bn];W[dn]LB[eo:A]C[This move is very slow and not so useful. 'a' makes a better shape.]
;B[dm];W[en];B[rm]C[This move is heavy. R6 stone is not important because of the white stone just below. You should not spend another move to save it.]
;W[ns];B[ps];W[ic]LB[hc:B][qe:A]C[Strange move. I would have approched the corner at 'a'. If you want to attack the upper left corner, 'b' looks better.]
;B[mc]C[Now white doesn't have a base and is too far for an attack against the upper left corner.]
;W[gd]C[This move helps black's corner.];B[fd];W[ld]C[Now white helps black to build his upper right corner, and he has no base.]
;B[md];W[lc];B[le]LB[me:A]C[I would have simply played at 'a', which is a very solid move that makes the corner very strong and still attack the white top group.]
;W[qc];B[qd]
(;W[rc]LB[rc:A][rd:A]C[White should have played more lightly, at 'a'.]
;B[rd]C[I think white can't live from here.];W[pb]
(;B[oc]LB[rb:B][oc:A];W[ob]LB[rb:A]C[Black can play at 'a' and kill two stones.]

(;B[nb]LB[nb:A][rb:A]C[White plays at 'a' and lives.]
(;W[gc]LB[rb:B][gc:A];B[ke];W[kd]LB[ge:A]C[This is heavy. White won't make much territory here so I would have played at 'a' in the center.]
;B[jd];W[jc];B[lb];W[kc];B[ie];W[kb]LB[ge:A]C[Unuseful. White should run in the center with 'a']
;B[ge];W[fb];B[eb];W[fa];B[ea];W[hb];B[hd]LB[ec:A]C[Black missed 'a' ^^]
;W[id];B[je];W[ce]LB[oi:A][in:B][on:C]C[It looks like a yose move. There are still big points on the board and this one is not urgent, for exemple 'a', 'b', or 'c'.]
;B[bd]LB[oi:A][on:C][io:B]C[Black should ignore this move and play 'a', 'b', or 'c'.]
;W[fe];B[ee];W[ff];B[mf]LB[oi:B][on:A]C[This cut doesn't look so dangerous. Black can play increase his moyo with 'a' or 'b' and then attack any cutting stone.]
;W[ec]C[Ouch ! ^^];B[ed];W[dc];B[db];W[cb]C[There is a complicated fight if black wants to try to save his stones... I can't tell if it works.]

(;B[on]LB[dd:B][on:A];W[ef];B[mn]C[This move is big. It both increases black's moyo and reduce white's. Now black has a nice moyo.]
;W[lo];B[ln];W[ko];B[kn];W[qh]LB[kj:A]C[This is too deep, I think. Now white must live. It's hard to choose between invasion and reduction. 'a' is a safe reduction point, but is it severe enough ? White has a nice moyo at the bottom, and has captured the upper left corner, so I would say 'a' is enough (and much safer).]
;B[ph];W[qg];B[pg]LB[ri:A]C[Black should play at 'a' and push white into his thickness on the top. White can't live in my opinion.]
;W[ri];B[qj];W[rj];B[rk];W[rf];B[sh]C[This is white's vital point.]
;W[re];B[sd];W[se];B[jo]C[Black need one more move to kill white on the right.]
;W[jp];B[io];W[sg]C[Now white is alive and black's moyo can still be reduced.]
;B[gf];W[ji];B[gh]LB[hi:A]C['a' would have been more severe, I think.]
;W[gg];B[hg];W[hj]C[whats the right combo of stones for best life in the center?]
;B[gj];W[gi];B[hi];W[fi];B[hl]LB[hk:A]C[I would have atari at 'a'.]
;W[jl];B[ij]LB[gk:A]C[Black leaves many weakness. He should play in a more solid way, at 'a' for exemple.]
;W[hk];B[gk];W[ik];B[jj];W[ii];B[hh];W[kj];B[gl];W[oj]
(;B[mj]LB[hq:A]C[The invasion has succeeded. Now there isn't much territory to get here. I would have reduced white's territory at 'a'.]
;W[mk];B[mi];W[pi];B[qk];W[pf];B[of];W[jg];B[fh];W[ei];B[eg]
;W[dg];B[gp]LB[hq:A]C['a' is better (see variation from move 140).]
;W[gq]
(;B[hp]LB[fq:A]C[This is too kind for white. Black should play at 'a'.]
;W[fq];B[hq];W[hr];B[mo];W[mp];B[kp];W[lp];B[kq];W[ir];B[kr]
;W[ll];B[km];W[kl];B[lj];W[lk];B[jk];W[kk];B[jj];W[oh];B[og]
;W[nh];B[mh];W[kg];B[em];W[lg];B[mg];W[lh];B[ih];W[jh];B[li]
;W[ki];B[fn];W[fo];B[go];W[fp]LB[ep:A][dq:B]C['a' avoid the problem with black 'b'.]
;B[dq];W[ep]C[This is the only answer.];B[cr];W[eq];B[dr];W[er]
;B[sn];W[ip];B[gn];W[ck];B[cl];W[ek];B[no];W[oo];B[pn];W[ol]
;B[rn];W[mq];B[lr];W[mr];B[po];W[op];B[lq];W[ks]LB[jr:A]C['a' works the same, and looks more simple to me. Black can't push.]
;B[ls];W[jr];B[js];W[jq];B[es];W[fs];B[ds];W[gs]C[This is not necessary.]
;B[pl];W[pk];B[pj];W[ok];B[oi];W[ni];B[nj];W[pi];B[ng]SQ[ha]
[gb][cc][df][fg][rh][nk][mm][eo][ms]C[I would have played the ko, as black. He has a *lot* of ko threats (see the boxed intersections).]
;W[oi];B[nk];W[nl];B[om];W[pe];B[pd];W[oe];B[ne];W[od];B[nd]
;W[qe];B[qa]C[^^];W[rb];B[oa];W[df];B[fg];W[fk];B[fl];W[im]
;B[dd];W[cc];B[in];W[hm];B[il];W[jm];B[gm];W[hn];B[dh];W[eh]
;B[af];W[ae];B[ad];W[bg];B[ag];W[ah];B[ch];W[ae];B[af];W[bh]
;B[ej];W[fj]C[Black is too hungry here ! ^^];B[dk];W[dj];B[el]
;W[dl]C[It's too early to take this ko. It is a "half point ko".]
;B[aj];W[ai];B[bl];W[ho];B[jn];W[nm];B[nn];W[ql];B[pm]C[Poor black ^^]
;W[rl];B[sk];W[sl];B[rh];W[sj])
(;B[fq];W[hp];B[gr];W[hq];B[ep];W[eq];B[er];W[dq];B[go]))
(;B[hq]
(;W[hp];B[ip];W[jq];B[gp];W[ho];B[go];W[hn];B[eq]C[White's bottom left corner is in danger, and white's bottom has been reduced.]
)
(;W[ip];B[hp];W[ho];B[ir];W[kq];B[go];W[hn];B[gn];W[fq];B[fp]
)))
(;B[dd]LB[dd:B][on:A];W[cc];B[ef];W[fg];B[eg];W[fh];B[cg];W[bg]
;B[eh];W[ei];B[fi];W[gi];B[fj];W[hf];B[he];W[gj];B[di];W[ej]
;B[dj]))
(;W[rb]LB[rb:B][gc:A];B[qa];W[ra];B[oa];W[qb];B[pa];W[na];B[oa]
;W[pa]))
(;B[rb]LB[nb:A][rb:B]
(;W[qb]LB[mb:B][qb:A];B[nb];W[sb];B[ra];W[qa];B[oa])
(;W[mb]LB[mb:B][qb:A];B[qb])))
(;B[rb]LB[rb:B][oc:A]
(;W[qb]LB[qb:A][oc:B][pd:C];B[sc];W[pd];B[oc];W[pe];B[qf];W[ob]
;B[nb]C[White is dead in the corner.])
(;W[oc]LB[qb:A][oc:B][pd:C];B[pd];W[qb];B[sc];W[mb];B[nb];W[lb]
;B[nc]LB[me:A]C[Now the cutting point at 'a' look interesting, because it uses the aji of the white stones in the upper right corner. White can use it to help his stones on the upper side.]
;W[me];B[ne];W[mf];B[lf];W[od];B[ob];W[mg])
(;W[pd]LB[qb:A][oc:B][pd:C];B[oc];W[qb];B[sc];W[ob];B[nb];W[od]
;B[nc];W[qe];B[re];W[qf];B[rf];W[qg];B[rg];W[me];B[ne];W[mf]
;B[nf];W[mg])))
(;W[rd]LB[rc:A][rd:B];B[qb];W[qe];B[rc];W[pd];B[qc];W[qg]C[White must play very lighly because now his stones will be attacked.]
))
(;B[dq]
(;W[eq];B[dr];W[cr];B[er];W[fq];B[br];W[eo];B[bn])
(;W[dr]LB[eq:A][dr:B];B[eq];W[bn];B[cr])))
(;W[rr]
(;B[qr];W[rs];B[sr];W[sp])
(;B[sr];W[sp];B[rs];W[ss];B[sq];W[rs])))
(;B[ps]C[This shape is called "J+1 group". It is unconditionally alive.]

(;W[sp];B[rs])
(;W[qr];B[rr])
(;W[rr];B[qr])
(;W[rs];B[rr];W[so];B[qs];W[pr];B[ss];W[os])))
