(;FF[4]GM[1]SZ[19]ST[2]CA[UTF-8]AP[SGFC:1.15]

PB[CATMOMOE]
BR[3k]
PW[Ota2ke]
WR[3k]
KM[6.5]
DT[2007-01-15]
PC[The KGS Go Server at http://www.gokgs.com/]
RE[B+Resign]
TM[1800]
OT[5x30 byo-yomi]
RU[Japanese]

C[Dear Reviewer;  This is typical of my sloppy fighting games where I lose a big group in the first 100 moves (at the bottom right in this game).  I am white and would appreciate any criticisms or suggestions on any part of this game you choose. - Ota2ke]
;B[pd];W[dp];B[dd];W[pp];B[cn];W[fp];B[dj];W[fc];B[id];W[fe]
;B[df];W[db];B[gd];W[fd];B[cc]C[CG: This move looks strange - once black peeped at G16, G18 or G17 are more urgent.]
;W[ib];B[hb];W[hc];B[ic];W[gb];B[jb];W[ha];B[kc]C[CG: Now white has sente - this is bad for black.]
;W[qf]C[CG: Good.];B[qh];W[qc];B[pc];W[qd];B[pe];W[rf];B[og]
;W[pb]C[CG: If you think this move is urgent, you should consider playing R18 instead of S14.]
;B[ob];W[qb];B[nc]C[CG: This is a bad move - too small. Black must switch to one of the big points like O3 or H3.]
;W[jq]C[CG: Good. This looks like an easy game for white.];B[qn]
;W[pn];B[pm];W[qo]TR[jq]SQ[id][og][dj][pm]C[CG: This is the first white move which I would call bad. The marked stone is placed low, you have already three corners, and black has several stones positioned towards the center.
Black's strategy can only be to build a moyo in the center, and you are just trying to help him. That's not your job!
I think P6 is the only move here.];B[on];W[po];B[rn];W[om];B[nn]

(;W[qm]TR[qn][rn]SQ[om]C[CG: This move captures the marked black stones while abandoning the marked white stone.
THIS EXCHANGE IS GOOD FOR BLACK!!];B[pl];W[rm];B[rl];W[ro];B[ql]
;W[sn];B[nl];W[np]C[Ota2ke: At this point in the game I think I am okay.

CG: White has more definite territory, but the center moyo is dangerous.]
;B[lq]C[CG: This move actually helps white. Reducing whites territory while extending the moyo would be a better strategy - I would play K5.]
;W[kp];B[hq];W[hp]C[CG: This move looks strange - usually you should not attach on stones you want to attack.]
;B[iq];W[ip];B[jr];W[kr]C[CG: This and the following are very sharp moves.]
;B[kq];W[jp];B[ir]C[CG: Black could live (albeit in gote) by capturing the white stone. Instead, black plays an "all or nothing" move.]
;W[lr];B[mq];W[mr];B[nq];W[nr];B[oq];W[pr];B[or];W[os];B[mp]

(;W[no];B[pq];W[qr];B[qq];W[rq];B[rr]
(;W[sr]C[CG: Well, this move loses the game. Black dies if you play S1 instead.]
;B[rs]C[CG: Now the game is over.];W[qp];B[ns];W[ms];B[ps];W[mo]
;B[ks];W[lp];B[ns];W[ce]C[CG: This is no ko, so you are just losing a ko threat.]
;B[de];W[os];B[qs];W[pr];B[js];W[op];B[qr];W[pf];B[of];W[gq]
;B[gr];W[fr]C[Ota2ke: At this point I think the game is lost for white.

CG: Yes.];B[hg];W[gs];B[ls];W[hr];B[ns];W[bp];B[cl]C[CG: This looks like a "safety move".]
;W[cb];B[bc]C[CG: Again I cannot see why black does not play the normal move (B18).]
;W[bb];B[ln]C[CG: Better at M7.];W[dh];B[eg];W[eh];B[fh];W[fg]
;B[ff];W[fi];B[gg];W[gh];B[fg];W[ei];B[gk];W[fk];B[gj];W[gi]
;B[fj];W[ej];B[ek];W[dk];B[fl];W[cj];B[ck];W[di];B[bj]C[CG: Here I would prefer the safe move at D8.]
;W[bi];B[bk];W[cg];B[cf];W[bg];B[hi];W[hh];B[ih];W[hj];B[ii]

(;W[el]C[CG: If you want to try something, you should cut with D8/E7 (and resign if you lose thi fight again).]
;B[em];W[fk];B[dl];W[ek];B[gm];W[hl];B[gl];W[jl];B[im];W[jm]
;B[il];W[jk];B[ik];W[jj];B[ji];W[lj];B[lh];W[ki];B[kh];W[ij]
;B[hk];W[ig];B[jh];W[he];B[hd];W[ge];B[ie];W[ok];B[ol];W[nj]
;B[mj];W[mk];B[mi];W[nk];B[oi];W[qj];B[ll];W[rk];B[pk];W[pj]
;B[oj];W[lk];B[sl];W[ri];B[rh];W[ni];B[nh];W[pi];B[oh];W[ph]
;B[pg];W[qg];B[si];W[sj];B[sh];W[sg];B[sk];W[rg];B[rj];W[hf]
;B[if];W[sj];B[jn];W[kn];B[rj];W[dn];B[qi];W[dm];B[bo];W[bm]
;B[cm];W[en];B[qe];W[re];B[km];W[ko];B[hn];W[mm];B[ml];W[in]
;B[io];W[ho];B[go];W[jo];B[in];W[fn];B[kk];W[gn];B[kl];W[mn]
;B[nm];W[be];B[bf];W[af];B[ad];W[ae];B[co];W[cp];B[am]
(;W[al]C[CG: The other atari would kill (but not win the game).]
;B[an];W[bl];B[aj];W[ap];B[ao];W[fm];B[kj];W[gc];B[pa];W[qa]
;B[oa];W[ai];B[lm];W[do];B[ab];W[dc];B[cd];W[ba];B[ed];W[ec]
;B[ja];W[ia];B[dg];W[ee];B[jg];W[ak];B[bn]C[CATMOMOE [3k\]: thx
Ota2ke [3k\]: thx])
(;W[an];B[al];W[bn]))
(;W[dl];B[dm];W[em];B[el];W[dj]))
(;W[rs]
(;B[sr];W[sq];B[ns];W[ms]
(;B[ks];W[ps])
(;B[ps];W[qs];B[ks];W[ss];B[js];W[ps]))
(;B[mo];W[mn];B[ln];W[mm];B[nm];W[lm];B[lo];W[km])))
(;W[fr]))
(;W[pl];B[qm];W[ol]LB[rk:B][mm:A]C[CG: Black has a problem as white threatens A and B.]
))
