(;FF[4]GM[1]SZ[19]ST[2]CA[UTF-8]AP[SGFC:1.15]

PB[mircofanti]
BR[7k]
PW[mehaha]
WR[7k]
KM[6.5]
DT[2007-04-22]
PC[The KGS Go Server at http://www.gokgs.com/]
RE[B+0.50]
TM[1500]
OT[5x30 byo-yomi]
RU[Japanese]

C[In this game I had not a lot of difficult.

But i had some complication into the end.



Hello reviewee ! 

That was a simple game, I liked it a lot. Full of simple mistakes, usually slow moves, and missed opportunities. Your go style is very solid. You should improve if you read sequences deeper and try to take sente more often by asking this simple question at each move : what happens if I play elsewhere ? Do I lose a lot, or only 5 or 10 points ?

Besides, be careful not to follow your opponent's moves. In the game of go, it is very important to play your game, applying your plans, and not just trying to counter the opponent's plans. 

I'm pretty confident that you will become 1 dan soon. (it is not as hard as people think)]
;B[pc];W[dq];B[qp];W[dd];B[oq];W[pq]C[Obviously, this move is overly aggressive. your answer punishes white correctly, but it could have been better (see var)]
;B[pp];W[qq]
(;B[rq]C[Too soft];W[rr];B[rp];W[or];B[nq];W[nr];B[mq];W[mr]
;B[lr];W[sr]C[Note that your wall is not perfect. P4 could become a serious cut.]
;B[pj];W[pm];B[ol];W[on]C[This part of the game was not as i especed, 'cause i had a good wall, i had a good estention in q10, but i couldn't get enough profit from this white invasion that was (i think) wrong for white in this moment. So i don't understand which was my mistake.

Babibo : Your attack is ok. I wouldn't have played it this way, but since attack is a very difficult topic, I would not take the risk to say anything. The outcome is good for you anyway. You reinforced your weaknesses during the attack, which is very important.]
;B[mm];W[mn];B[no];W[nn];B[lm];W[lo];B[lp];W[ko];B[iq];W[kp]
;B[kq];W[mp];B[lq];W[mo];B[op];W[qk]C[Bad move by white. He reinforces your position]
;B[qj];W[pk];B[ok];W[pl]
(;B[rm]C[dubious move];W[rj];B[ri];W[rl];B[qm]C[You try to kill too much. The wall you have in exchange of white's invasion is enough.]
;W[si];B[rh];W[oj]
(;B[oi]C[Never atari if you can atari from 2 sides. (at least the proverb says...)]
;W[nj];B[mk];W[ni];B[oh]SQ[rh][oi][ri][pj][qj]C[Now look at this shape :)]
;W[ql]
(;B[sk]C[I think this is a bad move. White has only one eye, so attacking the group from K4, or K7 looks better]
;W[sl];B[sj];W[rk];B[sj];W[qn];B[rn];W[oo];B[np];W[li]C[Wrong direction. This move induces a very good move for you]
;B[jl]C[Very good.];W[io];B[fq]C[This is a bit soft. I would play on the 4th line so as to attack (I like G4)]
;W[hp];B[hq];W[gp];B[gq]C[this move is slow : the cut at G3 doesn't work. Better to play K11, or any move that saves your center group while attacking the cutting stones at O10]
;W[km];B[kl];W[jm];B[fp]TR[il]C[1000 $ hane here...];W[fo];B[eo]
;W[fn];B[dp];W[cq];B[cp];W[bp];B[bo];W[ap];B[cn];W[er];B[fr]

(;W[dg]C[Here white tenukies... The corner can be killed. (see variation)

In fact, before playing F2, you should have made sure that you would kill the corner if white didn't answer. If not, you played a small gote move, which is a big mistake.]
;B[dj];W[dl]C[Here, you are not exactly in a position to attack, since your D10 stone feels lonely, and the L8 group is in a bad position.
 I think I would connect (see variation)]
(;B[em];W[ek];B[fl];W[gm];B[gl];W[fj];B[ji];W[lg];B[jg];W[le]
;B[mc];W[fh];B[je]C[Very good];W[ck]C[White spends so many moves to take your stone !!!!]
;B[kc];W[nh];B[og];W[ng];B[nf];W[mf];B[ne];W[kf];B[jf];W[ke]
;B[me];W[kg];B[fc];W[ec];B[fd];W[il];B[im]C[This cut looks wrong. J9 is the only move for that purpose]

(;W[in];B[hl];W[hm];B[ik];W[im];B[ij];W[nl]LB[cc:A][ce:B][br:C]
C[Let white have these 2 stones. They aren't important at all now. Play A, B or C instead (i show some variations on how to invade the side)]

(;B[nk];W[nm];B[mj];W[mi];B[kh];W[he]C[white is not serious]

(;B[gf];W[lh];B[ef]C[This is aji-keshi, since you could have invaded the side instead]
;W[df];B[ee];W[de];B[eg];W[eh];B[gh];W[fg];B[gg];W[ff];B[fe]
;W[gi];B[hi];W[el];B[dm];W[fm];B[fb];W[eb];B[ea];W[da];B[fa]
;W[dc];B[bl];W[cl];B[bm];W[bk];B[ms];W[pr];B[qo];W[pn];B[lj]
C[mmmmmh nice shape !];W[ki];B[jh];W[kj];B[kk];W[ml];B[ll];W[hj]
;B[hk];W[gj];B[ak];W[bj];B[aj];W[ai];B[al];W[ci];B[ao]C[too bad :)
Now white is alive.];W[br];B[eq];W[es];B[fs];W[cr];B[sh];W[ln]
;B[jk];W[jp];B[ld];W[kd];B[jd];W[rc]C[You should practice tsume go :) You missed many ways to kill him.]

(;B[qe];W[re];B[rf];W[qd];B[pe];W[se]
(;B[qb];W[rb]
(;B[sd];W[qc];B[pb];W[ra];B[sf];W[rd];B[sm];W[pd];B[od];W[qa]
;B[pa];W[jc];B[en];W[fk];B[sq];W[ns];B[ls];W[jq];B[jr];W[jj]
;B[ii];W[ge];B[ic];W[jb];B[ib];W[kb];B[lc];W[cm];B[ar];W[bq]
;B[tt];W[om];B[lk];W[tt];B[ca];W[db];B[tt];W[tt]TW[aa][ba][ca]
[sa][ab][bb][cb][sb][ac][bc][cc][sc][ad][bd][cd][sd][ae][be]
[ce][af][bf][cf][lf][ag][bg][cg][mg][ah][bh][ch][dh][mh][bi]
[di][ei][fi][cj][dj][ej][dk][gn][hn][jn][kn][go][ho][jo][aq]
[ar][dr][qr][as][bs][cs][ds][os][ps][qs][rs][ss]TB[ga][ha][ia]
[ja][ka][la][ma][na][oa][gb][hb][jb][kb][lb][mb][nb][ob][gc]
[hc][jc][nc][oc][gd][hd][id][md][nd][ge][he][ie][oe][hf][if]
[of][pf][qf][hg][ig][pg][qg][rg][sg][hh][ih][ph][qh][pi][qi]
[am][an][bn][dn][sn][co][do][ro][so][ep][sp][gr][hr][ir][kr]
[gs][hs][is][js][ks]C[a lucky winning for half a point

Thank you for your help, Mirco.])
(;B[qc]C[again]))
(;B[qc]C[this move also kills]))
(;B[rd]C[your answer is a bit weird, but works too.];W[qd];B[re]
;W[qc];B[pb];W[qb];B[qe]C[The conctact play was the better way to kill this group?]
)
(;B[qd]C[this kills too])
(;B[qc]C[This should kill too :)])
(;B[qb]C[This one works too, I'm pretty sure, since it deprives white of a base in the corner.]
))
(;B[lh]C[White is dead.....];W[hc]))
(;B[cc]
(;W[cd];B[eb];W[db];B[dc];W[cb];B[ed];W[bc]C[easy one])
(;W[eb];B[cd];W[ce];B[be];W[cf];B[dc];W[ed];B[db]
(;W[bb];B[bc];W[ad];B[ac])
(;W[bf];B[fb];W[ea];B[bb])))
(;B[ce]
(;W[de];B[cd];W[cc];B[bc];W[cb];B[cf];W[cg];B[df];W[ef];B[bg]
;W[bh];B[bf];W[eg];B[ae];W[bb];B[bd])
(;W[cd]C[if white plays here, it's complicated... I don't really know what black can do, but I'm sure there are interesting outcomes for black.]
))
(;B[de]))
(;W[hm]TR[fl][gl][em]C[white could have played like this, and threaten to cut your groups apart.]
;B[hl]C[now this doesn't work anymore];W[ik]))
(;B[cl];W[ck];B[dk];W[cm];B[bl];W[dm];B[bm]))
(;W[tt];B[br]
(;W[bq];B[cr]
(;W[ar];B[dr];W[eq];B[es])
(;W[dr];B[ar];W[es];B[cs];W[bs];B[ao];W[ds];B[fs];W[aq]C[White is dead]
)
(;W[ds];B[ar];W[cs];B[bs];W[dr];B[ao]))
(;W[cr];B[bq];W[bs];B[ao])))
(;B[jn]C[Maybe even this];W[ip];B[hq];W[in];B[im];W[hn])
(;B[io]))
(;B[ph]C[this is better shape]))
(;B[oi]C[reinforcing here seems appropriate.]))
(;B[or]TR[pq][qq]C[The 2 stones are locally dead];W[rp];B[ro]
;W[rq];B[qn];W[pr]C[this shape is the L+1 shape. It's dead if black plays first.]
))
