(;FF[4]GM[1]SZ[19]ST[2]CA[UTF-8]AP[SGFC:1.15]

GN[mauriziodirupo-t-h-301169-20070331]
PB[Thomas (t-h)]
BR[27k]
HA[2]
PW[mauriziodirupo (mauriziodirupo)]
WR[24k]
KM[0.5]
DT[2007-03-24,2007-03-31]
PC[Dragon Go Server: http://www.dragongoserver.net/]
RE[W+Resign]
RU[Japanese]
GC[Game ID: 301169, rated]

AB[pd][dp]C[This game was played on DGS.

I was black, a weak 27 kyu, white was a 26 kyu.

R: Hi. I am Radu, go player mostly on LG but also DGS. I am around 10k on both, under the nickname rd21275.
I am happy to provide you some insides related to this game. I will try to provide variants and explanations as comments, for both Black and White moves, of course emphasizing the Black positions mostly.
I hope you'll enjoy it.

Radu]PL[W];W[pp];B[dd];W[pj];B[dj];W[jp]
(;B[jj]C[K16 was my other choice, but I feared that white takes the center spot then and I'm already being pushed back. (see variation)

R: most of the times, the center is approached after the sides influences are established. Esp. in the case of oppenings like this, with ll stones on line four. I think k16 was more suitable. See variation.]
;W[kj]LB[fd:D][jd:A][nd:B][qf:C]TR[jk][jl][jm][jn]SQ[kk][kl]
[km][kn]C[R: bad attack. Rule (in fact advice) number xxx: defend in contact, don't attack in contact! Simple reason: attack in contact force the defender to enforce the weak group and that way gain strength on the attacker sente.
This attack is very bad because of:
- it allows B gain quickly strength in center
- it is providing smaller space than B stone (line L against line K - the middle)
- there are other bigger moves and K10 could be ignored.]
(;B[lj]LB[ji:E][ki:B][lj:A][jk:D][kk:C]TR[kj]C[Is L11 better?

I can't capture L10, but I wanted to seperate it a bit from Q10.

R: bad! Remeber that I commented the previous move. Not only that B doesn't use the advantage of poor W attack, but play what W will love to see. I would say that this would be the worst anwer :(
First of all, the W attack is to advantageous to B to be ignored. So a tenuki like K10, even it would be a big move, isn't so urgent.
Let's consider the five positions I marked.
E looks best, because it is starting line toward the open side and put pressure on W, which now has to consider an invasion at K10.
D also is good: make strength for B in center and W is trapped in low right area.
B and esp C are tricky bold moves. The sequence started on them could become complicated. Because ity is B in a game with handicap, the advice is to stay out of complication. W would love to go to sophisticated situation where W can use superior rank strength. But these 2 moves are perfect soundable for an even game.
Now the problem: A. For more details, please see the variation.]
;W[kk]
(;B[li]C[M10 is more in danger than K10, because it's on white's side, so I stretch on the right.

L11 would have given me more cutting points than I can defend, rigtht? (variation)

R: B has 2 groups not linked. B can choose: run for life with both or give up one and focus in gaining some compensation for the other. Personally I would choose second, see variation.]
;W[ki];B[kh]LB[jd:A]C[R: hane almost always is a good move. But in this case... I think not. Instead of this tactic fight, think rather to extend influence.
Because A is still not occupied, this is the actual aim. And now it becomes obvious the importance of K16 rather than K10.]
;W[ji];B[ij]C[R: 2 groups fighting for life, while W builds influence.]
;W[lk];B[mh];W[mj];B[jl]LB[jd:B][ig:D][gp:C][jp:A][mp:E]C[R: hmmmm, too close to the strong W group. That connection is weak, better J8.
Let's watch the whole board. While B has to be the major target, the direction chosen is wrong. And to make it worse, A is blocking the way to the side. The only opportunity there is C, so again J8 is more suitable. But considering the B as target and the need of putting more stones in center, D would work for both.
K8 could do some work for E, but too little because of W's center group.]
;W[kl];B[il]C[is J8 too much?

R: J8 should it be in the first case :) As I said, the direction is wrong, should go up instead down.]
;W[ih];B[gi]LB[jd:A][dj:C][il:B][dp:D]C[Trying to contain white somehow.

R: What this has to do with K16? A is the hotest spot! It is the biggest. Black group B is safe somehow, as it is facing both C and D.Now W has open way to A.]
;W[hg]C[R: Mistake, it allows B take K16.];B[gg]C[R: too small facing K16. And is in contact, with a strong W group!]
;W[gf]
(;B[hh]C[better cut?

R: good choice. It protects the cutting point and it is sente. But W has a good defensive at J14. It is only a pospone of taking K16. G13 shouldn't be there. K16 is the target.]
;W[if];B[jg]C[R: K16? W can ignore];W[ig];B[ph]C[R: good. K16 better.]
;W[jh];B[lg];W[kf];B[kg];W[jf];B[lf];W[ni];B[nh]C[Quite crowded, I don't really make a lot of territory, though I should be able tolive in the upper right corner.

R: M11 group is useless and values 4 points. Desconsider them. It is ok.]
;W[pi];B[ke]C[R: Why not classical K16? W groupd is alive and Very strong? Don't play in contact, don't offer aji.]
;W[qh];B[pg];W[je];B[kd]C[R: finally, upper side is occupied. The situation is not bad for B, W should now extend to the left upper corner.]
;W[fe]C[R: F16 looks better.];B[ic]LB[fe:A][cg:B][hq:C]C[Is that stupid?

I'm trying to push white a bit back, so that I keep the upper side.

R: A is obvious an attack on hoshi stone. And what is interesting at this attack is that it threats both upper and left side. B has little to protect on up side, but on left the B moyo is in danger.
Also, if B chooses tenuki, there are bigger points on table.]

(;W[ed]C[This white diagonal E16 to H13 and further on to M9 is a bit frightening, I won't be able to cut through.

R: it is a simple big group. Nothing frightening. Actually, W is a little too slow in the development. Look at the variant.]

(;B[ec]C[R: Left side is more important.];W[fc];B[db]C[I often do this and I think it's a mistake, right?

R: what is a mistake? If you refer to this move as defending the cutting point at D17, I think it is bad. In the corner, 3x3, 2x2 and 2x3 are the most important points, becuase them are providing the eyes for living. W has an important aji to use: C17. I am still thinking that B should protect teh moyo on left side: see variation started with move 48.]
;W[eb];B[dc]C[Because I need to fill here.

R: actually, W should give up so easy the aji at C17. W should leave the position as it is, go elswhere and later, when the time is proper, put the C17 threat to work.]
;W[fa]C[R: small move];B[gb];W[fb];B[ga]C[R: Best defense here: h18.]
;W[gc]
(;B[hc]C[I seemed to think that I can defend against the cut at H18...

R: Well, 4 points worthing. Instead G19, H18 would be better. But yes, B should now defend that stones.]
;W[hb]C[...which is obviously wrong.];B[ib]
(;W[ha]C[R: well, there is a better way for W :)];B[gq]LB[df:A]
[gq:B]C[get some territory elsewhere

R: good point. A looks higher value than B.];W[de]C[R: W sees that.]
;B[ce];W[cf]
(;B[bd]C[defend cutting point at C16 and start making eyes.

R: how about the variation? It looks making larger profit.]
;W[jd];B[jc]C[save those three stones by trying to connect]
;W[da];B[ca];W[ea]C[R: B now has many worries about the C17 aji]
;B[bb]C[R: good.];W[oc]CR[ja][kc][le][qf]C[How do I defend here?

R: at a first glance, it looks as an useless attack. W is facing a black box in all directions. B can easily take the corner with Q17 or Q18. But...
There are too many aji left behind. Although W attacked a little too far, the circle points can be anytime used. And even the P17 dies, it accomplishes the aim: open the B moyo for the invaders.
Neglecting the aji, B should ban the corner. In corner there is the easiest life.]
;B[nc]C[R: but anyway: don't make a pincer in contact! P16 or Q17 ruin the B position.]
;W[od];B[oe]LB[lc:B][me:C][qe:A]C[R: W has now at least 3 big points. All of them have great potential]
;W[md]C[R: not helping];B[nd]
(;W[nb]C[R: wrong direction]
(;B[ob]C[R: you don't need that];W[pc]C[Looks like a ladder to me (R17), but doesn't work. (variation)]

(;B[mb];W[le]CR[kc]C[R: Threat to cut and capture];B[me]C[R: good!]
;W[ld];B[kc];W[qd]C[R: here is the help offered to the outside invader from insiders...]
;B[pe];W[qe];B[qf];W[rf]C[R: connection];B[qg];W[rg]CR[cc][mf]
LB[ch:C][ho:B][lq:A]C[R: the fight is finished! It is proper time to look around.
1. Aji: there are bad aji (circles), but defendable
2. Big points: letters];B[qq]C[R: not what I would expect!!!
ok, 3x3 invasions is good, when nothing else can be done! Otherwise, make attacks from open side, consolidate the own moyos, reduce opp's moyo.
Why this? Well, let's suppose (and have to) live there. Let's take a very usual development, look at the variation.]

(;W[oh]C[R: B can't ignore! But if W looses sente...];B[og]
;W[oi];B[pq]C[R: good, W actually lost sente! And yes, you chose very well the side. R4 would it be worse.]

(;W[dg]C[R: Com'n, W doesn't see B is ruining his moyo?]
(;B[af]C[B14?
R: No, N4, R6, Q6, you choose! 
Why that? The B corner group lives, but more than that it can't obtain. If you need play something in that area, go to C7.]
;W[bg]
(;B[bf]C[R: you really don't need it. This W actions are purely childish, punish them!]
;W[fg]C[R: another small point comparing with right bottom!]
;B[gh];W[ia];B[ja];W[hd];B[np]C[R: Yes!!!];W[pb];B[na];W[mi]

(;B[lh]C[R: noooooooooooooooo!];W[mf]C[I should be able to capture that, right?
R: difficult to say...]
(;B[ne];W[ng]C[well, obviously not. :-(];B[nf];W[mg];B[lc]C[R: why? Don't need, your group is alive. Destroy W in corner!!!]
;W[pa];B[oa]C[R: not needed....];W[rc];B[mc];W[ei]C[R: W ignore your attack for making one... Not the best: should defend corner!]
;B[lf]C[R: 3 points... How about Q6?];W[lg];B[le];W[lm];B[gk]
;W[fj]
(;B[gj]C[R: wrong direction. B doesn't need defend that cut, but the open side!]
;W[fk];B[fl];W[el];B[ek]C[I can connect to E9 to D10.

R: how about the big center group? G8 cut is scary.];W[dk];B[ej]
;W[fi];B[dl];W[ck];B[em]C[R: good, but now W invaded the side.]
;W[cj];B[di]C[R: don't need that, better close the side. Not to mention right bottom corner.]
;W[bi];B[fh];W[eh];B[ch];W[bh]C[R: wrong... B cuts, but W should live on the side.]
;B[cg];W[df];B[dh];W[eg];B[id]C[R: Why? Close the left side. W can ignore.]
;W[ci];B[el];W[he];B[bl]C[R: good. W should still be able to live.]
;W[cl];B[cm];W[bk];B[al];W[ak];B[ag]C[R: W can take the A8 and B8 stones, still lives.]
;W[bm]C[Damn. Count liberties...

R: it's not about liberties (one against four)... In time you'll learn not to forget to close this kind of cutting.]

(;B[an]C[R: why there?];W[bn]
(;B[bo]C[R: again wrong.];W[cn]C[R: and the situation gets very complicated]

(;B[dm];W[co];B[bp];W[cp]
(;B[ao];W[bq]C[All those last black moves were getting me nowhere. But I had hoped we would wander down in parallel, so I can get enough eyespace to live.

White turning here was bad news.

R: practicaly you gave 30 points for nothing... I think there were 4 B moves inviting W to invade.]
;B[aq]C[Shouldn't have played that, these stones are lost.]
;W[br];B[do];W[ar]C[W: doesn't need these... D3.];B[jn]C[R: good point]
;W[oo]C[R: finaly W remembers has a right bottom corner.];B[op]
;W[po];B[ko];W[mn];B[rn]C[R: yes!];W[no];B[mp];W[lo];B[kp];W[lp]
;B[lq];W[kn];B[jo];W[iq];B[ip]C[R: don't attack in contact... W's attack is futile, just limit the playing area.]
;W[jq];B[mo];W[ln];B[hq];W[hr];B[gr];W[is];B[gs]C[R: don't need that...]
;W[hp];B[io];W[gp]
(;B[kq]C[R: good defense, but instead you should not let W connect to left!]
;W[kr];B[hs]C[Trying to compress white to a solid block of stoned, so I can capture them in a few moves.

R: why to capture? W group is dead. You are actualy playing in your own teritory. You are occupying your own points. W has nowhere to go.]
;W[ir]
(;B[lr]C[Must ensure that white doesn't go to the right, making eyespace.

R: why?];W[fq]C[Okay, that's it. I'm losing this capturing race.

R: why?]
(;B[es]C[Hoping for a stupid mistake ;-)];W[fr]C[Well, that's it, no need to play any further.
R: I am sure you have a great power play. And the forced move like B7, like H18 and so on, these are easy moves. You'll learn them in short time and you'll end up making them as routine.
Let's count: if you would stop W at B6, not loose M12 group, and capture J3 group (without B3 the W wouldn't live there), you'd win big. B: 50 points in left bottom, 10 points in left up, 12 points in center, 50 points in bottom and right corner. Total: 112 points. W: 8 points in center, 5 points in left, 12 points in top right, 15 points in center. Total: 40.
What that means? Once you'll learn forced moves on the sides, your real power play would be around 18k.

Learn the closures on the sides. I can recommend an excellent introductory course:
http://www.msoworld.com/mindzine/news/orient/go/learn/go_cm1.html
There are 28 lessons for begginers and suplimentary a list of interseting articles for 5-10k like players.
Also, take a look at the materials at http://senseis.xmp.net
It won't take long and your play will improve very much.

Any question you have, you can contact me, I will gladly answer.]
;C[Result: W+Resign]N[RESULT])
(;B[js]
(;W[fr];B[jr])
(;W[jr];B[ks])))
(;B[eq]C[R: please note that if B plays F4, W cuts at F3 and something very bad happening]

(;W[lr];B[mr]
(;W[js];B[ls]C[R: W is dead.])
(;W[ls];B[js]C[R: W is dead]))
(;W[mr];B[lr];W[mq];B[or];W[ls]C[R: W is dead everywhere])))
(;B[fp];W[kq];B[lr];W[jm];B[im];W[fq];B[eq];W[fr];B[er]))
(;B[cq];W[do];B[ep];W[eo];B[fo]))
(;B[co];W[dn];B[en]))
(;B[cn];W[bo];B[cp];W[bp];B[bq]))
(;B[bn];W[an];B[ao];W[am];B[co]))
(;B[cl];W[gj];B[hj];W[hk];B[hl];W[fk];B[gl];W[fl];B[fm]))
(;B[ng];W[ne];B[nf];W[pf];B[me]C[R: there is a ko...]))
(;B[nf];W[lh];B[li]C[R: B lost 1 point. So?]))
(;B[pn];W[be];B[cc]))
(;B[mp]
(;W[cc];B[cd];W[bc];B[ac])
(;W[bc];B[cc];W[be];B[pn];W[cd];B[ac])
(;W[be];B[cc];W[cd];B[ac]))
(;B[bf];W[bg]C[R: end. Moreover, you need to protect at B10!]
))
(;W[mf];B[ne];W[mg];B[lh]))
(;W[pq];B[qp];W[qo];B[ro];W[qn];B[rn];W[qm];B[pr];W[or];B[qr]
;W[nq]CR[lq]C[R: B has 8 points in corner. And W lost there around 20 points. But now the sides and the right bottom center area square is secured! That means around 50 points.
Compare with what? Imagine B invading at M3. If W choose to defend corner, W preserve corner, but loose the bottom side and the center square. Roughly, W ends up with 40 points. And B more than 8.
Usualy,  particularly this attack requires M4, but there are lot of variants there.]
))
(;B[qc];W[pb];B[oa];W[pa];B[na];W[ma]))
(;B[pc];W[ob];B[mc];W[pb];B[qc];W[qb];B[rc];W[rb];B[sb];W[pe]
;B[qe];W[pf];B[qf];W[of];B[ne];W[mb];B[lb]C[W dies]))
(;W[qe];B[pe];W[qd];B[pc];W[qc];B[qg];W[rh];B[rg];W[rf];B[sg]
;W[pb];B[ob];W[qb]))
(;B[df];W[ee];B[dg];W[cd];B[be];W[cb];B[cc];W[da];B[bc]))
(;W[ia];B[ja];W[ha];B[kb]C[R: because it keeps Sente!!!]))
(;B[hb];W[hc];B[ib];W[jd];B[jc];W[de]))
(;B[cg];W[dc];B[cd];W[cc];B[fc];W[ec];B[hq]))
(;W[df];B[ch];W[fc];B[cc];W[dn];B[co];W[fp];B[eo];W[fo];B[en]
;W[fn];B[fm];W[jn]C[R: that's frightening.]))
(;B[hf];W[he];B[if];W[ie];B[jg]))
(;B[ki];W[li];B[mj])
(;B[ji];W[ki];B[jg];W[jd]C[R: K10 becomes unappealing for W.]
))
(;B[nd]C[R: Let's suppose a ikken tobi, no matter where on the table. There is a proverb saying this is never a bad move. Because it is hard to cut. Suppose W tries...]
;W[od]C[R: W cuts. Now B can choose the direction and drive W either ourside or inside, depending the support in the area. B is leadding the hostilities.]

(;B[oe];W[oc]LB[ne:B][pe:A]C[R: now B can link and remove A or B cutting points, depending the local situation. Or can continue pressing W.]
)
(;B[gq]C[R: But suppose B choose to make tenuki. W can ignore]
;W[oe]C[R: and now W dooms the B situation in the top right area. W is cutting completely and B has to worry. Now this is the exact situation in the actual game. W has sente and can add a stone to the cutting one!!! That's why the A stone in the game is wrong.
For more on the ikken tobi, please check
http://senseis.xmp.net/?path=GoProverbs&page=IkkenTobiIsNeverWrong
http://senseis.xmp.net/?OnePointJump])))
(;B[jd];W[jj]C[In hindsight I think it would have been better.

White is concentrated in the lower right quadrant while I'm stretching out to the sides and can still meddle a bit in the upper right and left lower sides.

R: go is a game of balance. Suppose the game is ending now: W gained 25 points in center (L9-P9-P5L5), Black took 33 points (E19-E17-P17-P19).
Of course, this is only a rough estimation. Now, K16 doesn't make teritorry (nor K10), but as influence K16 is more important as K10 simply because it acts on the side (the suitable place to make life), supporting any group there, while K10 doesn't directly support life. K10 is more like a strategic move, for creating pressure on the sides, rather than creating a moyo.
BTW, as response to K16, I would rather choose F3 or symetrical R14: attack from open side.]
))
