(;FF[4]GM[1]SZ[19]AP[SGFC:1.13b]VW[]

GN[oetschi-kirkmc(B) NNGS]
EV[None]
PB[kirkmc]
BR[13k*]
PW[oetschi]
WR[12k*]
KM[0.5]
DT[1998-04-12]
PC[NNGS Worldwide: nngs.cosmic.org 9696]
RE[B+14.5]
TM[900]
US[Brought to you by No Name Go Server]

;B[dp];W[pd];B[ed];W[pp];B[dj]C[Although there are exceptions, one should play corner moves prior to side moves.  Since you don't know the outcome of the
upp
er left corner, the game move may not be effective.  White can choose a joseki that renders the game move ineffective.]
;W[fq];B[dn];W[iq];B[mq]TR[iq]LB[qn:a][nq:b]C[There are two approaches to the lower right corner: 'a' or 'b'.  A general principle is to approach the corner on the side
wh
ere there's more space.  'a' is the right direction because the right side is open.  Approaching the corner at 'b' doesn't give
black
 much extension room because of the marked stone.  In addition, white will attack black immediately.  See variation B.]

(;W[pq];B[jr]LB[kq:a]C['a' is better.  I know you want to settle quickly, but the game move makes white's left group stronger.]
;W[ir];B[jq];W[dq]LB[jp:a][kp:b][ko:c]C[White should hane at 'a', the head of two stones.  This is a pivotal point and whoever hanes first gains a lot of power.  If
black plays 'b', white can double hane at 'c'.];B[cq];W[ep]
;B[eo];W[dr];B[bp];W[df];B[cd];W[ci];B[cj];W[eh];B[di];W[ch]
;B[dh];W[dg];B[ff]LB[bf:a]C[You might want to slide at 'a' first to destroy white's shape and also gain some profit.]
;W[fg];B[gf];W[gg];B[nc]LB[ef:a][eg:b]C[Again, the exchange of black 'a' and white 'b' makes white heavy.]
;W[kc];B[id]LB[ic:a]C[I like 'a' because it defends black's corner a bit better.]
;W[ke];B[ne];W[if];B[hf]C[Although you gain some territory, this move and next make white stronger.  It's better to wait for the right opportunity to
c
ut white into two groups and follow up with a double attack.]
;W[hg];B[ie];W[jf]C[Now white's outside influence is impressive.]
;B[pf];W[qe];B[qf];W[re];B[rf];W[od];B[nd];W[pb];B[ob];W[oc]
;B[nb];W[qb];B[se];W[sd];B[sf];W[rc];B[pj]LB[qk:a][qn:b]TR[pf]
[qf][rf][sf]C[I would prefer to extend at 'a' with a follow up at 'b'.  When you are debating where to extend, find out if the point you
ch
oose has a good follow up.];W[ql];B[qk]LB[qn:a]C[You are trying to protect your territory, but the game move helps white to solidify his corner.  Tenuki for now and later
you
 can think about the invasion at 'a'.];W[ol];B[rk];W[rl]LB[qn:a]
C[The invasion at 'a' is gone.];B[gj];W[of];B[oe];W[ng];B[pe]
;W[qd]LB[nf:a][mg:b][og:c][nh:d]C[You played 'a' next.  This is a common pattern and the proper move is 'b' and white will extend at 'd'.  Your next move is
so
mewhat aji-keshi.  By playing 'b', you can decide at a later time whether atari-ing at 'a' or 'c' is better.]
;B[nf];W[oh];B[og];W[mg];B[ph];W[oi];B[ok];W[pi];B[qi];W[qh]
;B[pg];W[rj];B[sk];W[qj];B[ri];W[oj];B[pk];W[pl];B[nk];W[ib]
;B[gb];W[hb];B[hc];W[ic];B[gd]LB[fc:a][fa:b]C['a' is better.  The game move allows white to hane at 'b' in sente.]
;W[jk];B[lj]LB[mi:a]TR[oh][oi][oj][pi]C['a' is the vital point (middle of three stones) for a pattern formed by the marked stones.]
;W[mi];B[li];W[mj];B[mk];W[lh];B[kk];W[jm];B[lm]LB[or:a]C[The game move doesn't have any profit.  Your lower group is the only weak group.  Slide to 'a' to settle.]
;W[io];B[ko];W[nr];B[nq];W[or];B[oo];W[po];B[on]C[This is slow.  White can ignore your move.]
;W[pn];B[ka]LB[gm:a]C[This is small since white doesn't have much terrority on the upper side (2 to 3 points).  A move around 'a' is much
bigger.];W[kb];B[la];W[fl];B[dl];W[ce];B[bd];W[be];B[sl];W[sn]
;B[sm];W[rn];B[rm];W[qm];B[kd];W[jd];B[ld];W[je];B[jj]LB[il:a]
[jl:b][gm:c]C[Peep at 'a' and check white's response.  If white plays 'b', then 'c' is severe.]
;W[jh];B[kh]LB[ae:a]C[In general, play corner yose moves first.  They are much bigger, such as 'a', which is a double sente move.]
;W[kg];B[ki];W[ik];B[ij];W[nm];B[nn];W[mm];B[mn];W[km];B[kn]
;W[ll];B[lk];W[ln];B[lo];W[fo];B[fn];W[go];B[gn];W[em];B[en]
;W[hn];B[gl];W[hk];B[gk];W[hj];B[hi];W[gi];B[fi];W[gh];B[ih]
;W[ig];B[ji]C[This is really small at this stage, only 1.5 points.]
;W[hm];B[ej]LB[ei:a][hl:b]C[Why not 'a'?  You have an extra liberty at 'b'.]
;W[gm];B[fm];W[hl];B[fk];W[md];B[me];W[mc];B[lc];W[le];B[lb]
;W[ja];B[ha];W[jc];B[bi];W[bh];B[aj]LB[bj:a]C['a' is more common.]
;W[cr];B[br];W[kr];B[kq];W[lr];B[mr];W[js];B[lq];W[ks];B[jp]
;W[op];B[np];W[mo];B[mp];W[jo];B[ip];W[hp];B[jn];W[in];B[kl]
;W[lm];B[jl];W[om];B[no];W[ee];B[fe]TR[id][ie]LB[dd:a]C['a' is more solid, but you have to give up the two marked stones.  See variation B.]

(;W[dd];B[dc];W[ec];B[de];W[ek];B[el];W[dd];B[hq];W[hr]MA[aa]
[ba][ca][da][ea][fa][fb][eb][db][cb][bb][ab][cc][fc][gc][fd]
[hd][ge][he][af][bf][cf][ag][bg][cg]TR[ec]C[You have to know the value of the ko.  You should constantly estimate the value of a threat.  If black wins the ko, black
has
 21 points (marked positions) and white has 6 points.  If white wins the ko, as in variation B, black has 6 and white has 13.  So
t
he ko is worth 22 points.]
(;B[de];W[rh]C[For example, this threat is worth 17 points.]
;B[sj];W[dd];B[fd];W[cc];B[de];W[cp];B[co];W[dd];B[nh];W[mh]
LB[db:a][he:b]C[You are lucky.  This is no longer a ko.  If white captures at 'a', black has to play 'b' to defend.  So 'a' is sente for
whit
e.  By capturing the corner, white has enough to win the game.]
;B[de];W[ma];B[mb];W[dd];B[nj];W[ni]LB[db:a]C[The game move is really small, only 9 points.  Even if capturing at 'a' is not sente, the corner is worth a lot more to
white
.];B[de];W[bk];B[ef];W[bj];B[eg];W[ck];B[dk];W[cf];B[ae];W[af]
;B[cl];W[ai];B[bl];W[ak];B[ad];W[hh];B[jg];W[db];B[dd];W[jh]
;B[ms];W[ii];B[cb]C[This is not necessary.];W[fb];B[fc]C[Again, this is not necessary.]
;W[ia];B[ga];W[fa];B[gc];W[al];B[am];W[bs];B[ar];W[ei];B[fh]
;W[oa];B[na];W[pa];B[ls];W[is];B[ns];W[os];B[oq];W[pr];B[as]
;W[cs];B[mf];W[lf];B[il];W[im];B[tt];W[tt])
(;AE[hr];W[fd];B[fc];W[ed];B[eb];W[cc];B[db];W[cb];B[ca];W[bb]
;B[ba];W[ab]MA[ac][bc][ae][af][bf][cf][cg][bg][ag][ea][fa][fb]
[gc][hd][ge]TR[bd][cd]C[White has 13 points and black has 6 points.]
;B[he]))
(;AE[fe];B[dd];W[fe];B[fd]LB[fc:a]C[Black has to block here, or else a move at 'a' by white is lethal.]
;W[he];B[ge];W[hd];B[gc]))
(;AE[mq];B[nq];W[oq];B[np];W[pn];B[kq];W[jr];B[ko]C[Black is not settled yet and white has potential profits on both sides.]
))
