(;FF[4]GM[1]SZ[19]ST[2]CA[UTF-8]AP[SGFC:1.15]

PB[buitenland]
BR[13k]
PW[brigolo]
WR[12k]
KM[0.5]
DT[2007-04-28]
PC[The KGS Go Server at http://www.gokgs.com/]
RE[W+22.50]
TM[1800]
OT[5x30 byo-yomi]
RU[Japanese]

C[Hello Dear Reviewer,

the protagonist of this game is a White group on the left side.
It comes back in two stages of the game...
Well the status alive/dead was never really clear untill the end.
At first is was left as "dead" but connected to an other group.
In the second stage this link was broken during a Ko fight which Black (me) won.
But still the group stayed alive.

I made also a big blunder at the end of the game.

Thanks for the review and have a great time!

Buitenland

PS: I've preceded my comments with "B:".];B[dp]C[>Hi! I've started my comments with ">". There are quite a lot of variations, but they're only really there for demonstration.

Your opening was very influence-oriented, concentrating on controlling the centre. White made lots of invasions throughout the game - some reasonable, some not so reasonable - and you handled them well. Black left a group of stones floating in the middle for quite a while, but white never got round to attacking them. 

The white group on the left was probably dead, but you failed to kill it. Much more important is the black group on the right - it was definitely dead, and yet neither player seemed to notice. If you really want to improve your playing, the best way is to start doing some life and death problems. You should only do easy ones at first, but even that will help you a great deal.

You were also let down in several places by poor reading, and at one point gave away lots of stones for no reason. Doing life and death problems also improve your reading, so you won't make unnecessary moves.

Apart from that, the game was very good. You should try some different styles of opening (more territorial, less influence), just to gain more experience.

If you have any questions, do find me on KGS as "Qq" or email me: Lcjs at cam.ac.uk.  Have fun!]
;W[pd];B[dd];W[pp];B[dj];W[pj];B[jp]C[>This is all fine so far, but it's important to realise that stones on the fourth line aren't good for taking secure territory. White will be able to invade, and you mustn't expect too much.]
;W[mq];B[jd];W[gp]C[>This is a good invasion, and it's hard to say how to deal with it. It's supported by the stone at N3 and has lots of options. You should certainly attack it, using your fourth-line stones for fighting power, but you can't reasonably expect to kill it.]

(;B[eo]C[buitenland [13k\]: B:Is E5 ok to defend the corner and attack G4?

>No. The corner invasion still works. See variations for some other ideas.]

(;W[go];B[jn]C[>Good.];W[iq];B[jq];W[ir]
(;B[fq]TR[jr]C[buitenland [13k\]: B: Would K2 have been better? It would seperate the bottom group.

>No, K2 is what white wants you to play. The difficulty is in knowing when something can be killed and when it should be attacked for profit. In this case, the white group can't really be killed, although it will struggle to live, and if you play K2 white will happily extend to E3 and make a base.

This is a good move, securing a large solid corner and forcing white into the centre.]

(;W[gq]C[>Too slow]
(;B[fr]C[>Also too slow];W[kr]
(;B[jr]TR[nc]C[buitenland [13k\]: B: Maybe this move is waisted...and better played somewhere else like O17

>White has to answer so it's not so bad. Since white is now connected, you have to worry about your group in the middle. See variations.]
;W[js];B[nc]C[>Defending in the middle is more important, but this is still a very good point.]
;W[pb];B[pg]C[>Good];W[qg];B[pf];W[qf];B[ne];W[pe]C[buitenland [13k\]: B: see 31]

(;B[oe]TR[ng][nj]C[buitenland [13k\]: B: Would O13 be better? Or even O10?

>I would definitely prefer O13 in this area.];W[gd];B[dc];W[ic]
;B[jc];W[id];B[ie];W[he];B[if];W[hf];B[dg];W[ef];B[df]TR[hg]
[ig]C[buitenland [13k\]: B: Would H13 or J13 have been better?

>No, this is very good. Defending gives you solid profit. You could force white away from the centre, but then he would just run into the places you were hoping to make territory.]
;W[ee];B[fc]C[>This isn't really very useful - white will just run into the middle]

(;W[fd]
(;B[gc]C[>Also not so good.];W[ib];B[jb];W[ja]
(;B[gl]C[>Right idea, but your shape looks a little weird because this move is trying too hard to connect and defend the side at the same time. See variations for a few other points that look nicer.]
;W[dm];B[fm];W[co];B[cp];W[bo]
(;B[bp];W[ck];B[cj];W[bk];B[bj]TR[bk][ck][dm][bo][co]C[buitenland [13k\]: B: Is this group alive?

>White definitely owes another move here.];W[dk]
(;B[ek];W[el]
(;B[bm]C[buitenland [13k\]: B: Does this kill the White group?

>No, because white escapes. Another solid move on the outside is best. If white spends a move making eyes, you can take sente to play first in the bottom right.]
;W[fk];B[ej];W[fl];B[hm];W[gj]
(;B[fh];W[hi];B[ka]TR[ph][pm][mo][qq]C[>This move takes gote to defend just a few points on the top edge. The value of your territory there is greatly reduced because you are undercut by Q18. There are many bigger moves in the bottom right, and if black takes sente to play there first, he can still win this game.]
;W[ia];B[lb];W[hh];B[ig];W[hg];B[pm];W[rn]
(;B[ok]C[>This move is a bit vague and actually encourages white to push into the centre and spoil black's territory.]

(;W[pk];B[oj];W[pi];B[oi];W[jj]SQ[oi][oj][ok]C[>Here white's timing is excellent, securing fourth-line territory on the right and then jumping in to spoil the centre and make black's influence useless.]
;B[lj];W[kl];B[ql]C[>White can push and cut here. Q8 or P8 are better.]
;W[kh];B[kg];W[lh];B[ph];W[qh];B[jh];W[ji];B[ki];W[kj];B[li]
;W[lk];B[mh];W[ih];B[lg];W[mk]
(;B[nl];W[mm];B[qo];W[qp];B[qn];W[ro];B[rm];W[pl];B[om];W[no]
;B[oo];W[op];B[rj];W[qi];B[ri];W[rh];B[qk];W[po];B[on]
(;W[pn]
(;B[qm]C[>This connection is worth only a single point, because if white captures then black can just recapture. Ignore it and play somewhere else.]
;W[nj];B[nk];W[mj];B[ni];W[ml];B[lp];W[lq];B[mp];W[np];B[mn]
;W[nm];B[nn];W[ol];B[ln];W[mi];B[og]C[>This move is unnecessary. Try it out for yourself - white can't capture anything.]
;W[nh]
(;B[ng]C[>Giving up those stones is completely unnecessary.]
;W[oh];B[hk];W[ik];B[hj];W[ij]TR[gi]C[buitenland [13k\]: B: Is this Whites blunder? Shouldn't W play at G11?

>Definitely];B[gi];W[fi];B[gh];W[fj];B[eh];W[gk];B[hl];W[em]

(;B[gn];W[fn];B[en];W[gm];B[hn];W[fo];B[fm];W[do];B[ep];W[gm]
;B[hc]
(;W[hd]TR[fi][fj][gj][bk][ck][dk][fk][gk][el][fl][dm][em][gm]
[bo][co][do]C[buitenland [13k\]: B: Is this another W blunder? These stones are not as important as the ones on the left.

>Maybe. But maybe white had counted and knew that he would lose if he gave up those stones, and so hoped to find some way of winning the ko without losing anything large.]
;B[fm];W[kh];B[gm];W[lh];B[mg];W[jg];B[jf];W[kf];B[jh];W[ke]
;B[jg];W[dn]
(;B[cl];W[bl];B[cm];W[dl];B[ak];W[al]
(;B[aj]
(;W[ap]
(;B[aq];W[ao];B[bq];W[bn];B[am];W[cn];B[ei];W[an];B[cm];W[bm]
C[>Black wasted ko threats here];B[ed];W[ff];B[gg];W[gf];B[oc]
;W[ob];B[pc];W[qc];B[od];W[qd];B[nb];W[qb];B[hp];W[hq];B[ip]
C[>It's very important to notice that black only has one eye on the right edge, even if he plays first. Black has to make an eye in the centre, or white kills half of the board.]
;W[ho];B[in];W[io]
(;B[hs]C[B: Mistake, I should have played K5

>Yes. Then black lives.];W[is];B[gr];W[jo];B[kp];W[ko]
(;B[lo]C[>See variation.];W[kn];B[km];W[jm];B[lm];W[im];B[fp]
;W[il]
(;B[sl]C[>I'll put the variations for making eyes at this point - black is unconditionally dead. In the game, white could have killed black with any of his moves from here right up until black plays S9 - I'll let you work out how.]
;W[rp];B[sn];W[so];B[sm];W[si];B[sj];W[sh];B[rk]LB[na:3][hb:1]
[de:2][hr:4]C[>Amazingly, black survives :) The remaining endgame moves (as black would play them) are marked in order of size - no other moves are worth points.]
;W[ll];B[ha]C[B: Again a blunder!];W[hb];B[gb];W[ga];B[fa];W[ea]
C[>This does nothing.]
(;B[eb];W[fb];B[ec];W[fa];B[da];W[ha];B[de];W[na];B[ma];W[oa]
;B[hr]C[>The rest of the moves from here on are unecessary]

(;W[nr];B[kq];W[ls];B[eg];W[tt];B[tt]TW[pa][qa][ra][sa][rb]
[sb][rc][sc][rd][sd][fe][ge][qe][re][se][rf][sf][rg][sg][ii]
[ki][li][ni][oi][hj][lj][oj][hk][jk][kk][nk][ok][gl][hl][jl]
[nl][am][fm][gm][hm][gn][hn][in][jn][sp][nq][oq][pq][qq][rq]
[sq][lr][mr][or][pr][qr][rr][sr][ks][ms][ns][os][ps][qs][rs]
[ss]TB[aa][ba][ca][la][ab][bb][cb][db][kb][mb][ac][bc][cc][kc]
[lc][mc][ad][bd][cd][kd][ld][md][nd][ae][be][ce][je][ke][le]
[me][af][bf][cf][kf][lf][mf][nf][of][ag][bg][cg][ah][bh][ch]
[dh][ai][bi][ci][di][sk][rl][cq][dq][eq][ar][br][cr][dr][er]
[as][bs][cs][ds][es][fs][gs]C[>I hope that helps! Feel free to email me if you have any questions.]
)
(;W[ss];B[kq]C[>In particular, cutting at M2 doesn't work.]
))
(;B[fb];W[eb];B[ec]C[>Black can play like this, and white achieves nothing.]
))
(;B[sk];W[si]
(;B[rl];W[sm])
(;B[sm];W[rl]))
(;B[si];W[sk]
(;B[sl];W[rk])
(;B[rk];W[sl]))
(;B[sm];W[si]
(;B[sk];W[rl])
(;B[sj];W[ss];B[rk];W[sl]))
(;B[rk];W[sl];B[sm];W[si]))
(;B[kn]SQ[ln][mn][lp][mp]C[>Black should play here, which would save the whole lot if he hadn't already died. The marked stones form what's known as a bamboo joint, and they can't be cut apart.]
))
(;B[jo]))
(;B[ao]C[>Black can still take the vital point and keep white to oe eye, like this. White can't make an eye in the corner. However, this isn't playable because black's corner is fairly weak too.]
;W[an];B[cn];W[bq];B[cr];W[br];B[aq];W[bs];B[ar]SQ[en][eo][bp]
[cp][dp][ep][fq][cr][fr]C[>Now white still only has one eye, but he will almost certainly win the capturing race and kill the whole black corner.]
))
(;W[ao]C[>This is what white should have played - exactly the move that black should have played. Now white is alive.]
))
(;B[ao]C[>Now white is dead. Connecting at A10 is unnecessary if the whole white group dies.]
;W[an]
(;B[ap]
(;W[aj];B[bi])
(;W[cn]C[>This is seki - black can't play inside without making a living shape for white.]
))
(;B[cn]C[>Black must play here to prevent a seki. Connecting at the edges is unecessary if white is dead, because capturing doesn't give white an eye.]
;W[ap];B[bq];W[aj];B[bi]C[>Still dead.])))
(;B[bl];W[ak];B[bn];W[ap];B[aq];W[ao];B[bq];W[cl];B[aj];W[cm]
C[buitenland [13k\]: B: Alive]))
(;W[fm];B[hd]
(;W[hb])
(;W[ec];B[eb];W[ed];B[hb];W[gr];B[ha])))
(;B[fn]C[>Again, this is better for connecting. Then there is no ko.]
))
(;B[oh]C[>There's no reason at all not to play here.]))
(;B[ss];W[qm];B[qn]))
(;W[ol]C[>White should cut here. If he does, black is dead.]
;B[nk];W[nm];B[sk];W[si];B[rl];W[sm]))
(;B[ol]C[>P8 is a better way to connect.]))
(;W[oj];B[nk];W[ql]))
(;B[mo]))
(;B[gi]C[>Separating white's two weak groups is the right idea - at least one of them is likely to die.]
;W[ij];B[hi];W[hj];B[ig];W[hg];B[ih];W[gb];B[hc];W[hd];B[fb]
;W[fh];B[eg];W[fg];B[gf];W[fi];B[fj];W[gk]C[>Black has to be careful of his weakness at K15, but even so, he can still kill something. Splitting apart two weak groups is always an excellent idea; in the game, your move wasn't quite forceful enough.]
))
(;B[fk];W[ss]C[>This position is too complicated for me to be sure, but I think white dies if he leaves it. I've added a few variations.]

(;B[am]
(;W[bm];B[ao];W[bn];B[an];W[al];B[ap];W[cl];B[aj];W[ak];B[em]
;W[dn]C[>White lives, but very small and surrounded. Black should be happy with this result.]
)
(;W[al];B[bl];W[bm];B[ak];W[cl];B[bn];W[al]))
(;B[bm]
(;W[ao];B[cm];W[dn];B[ak];W[al];B[aj];W[bl];B[am];W[dl];B[do]
;W[cn];B[bn]C[Here white dies.])
(;W[cm];B[bn]C[>White also dies this way.]
(;W[do];B[ao];W[ep];B[en];W[fp];B[dr])
(;W[ao];B[cn];W[dn];B[do])))))
(;B[bm]TR[bk][ck][dk][dm][bo][co]C[This is premature - you very rarely want to play inside eyes until the group can't connect out]
;W[cm];B[bn];W[ao];B[bl];W[ak];B[aj];W[ap]
(;B[aq];AE[aq])
(;B[bq];W[aq];B[br];W[ar];B[bs];W[as];B[dn];W[cn];B[ek];W[dl]
;B[em];W[el];B[fk];W[fl];B[do];W[al];B[ss];W[am];B[sr];W[an]
;B[sq];W[cl];B[bm]))
(;B[ss];W[bm]C[>Now this is alive.];B[ao];W[an]C[buitenland [13k\]: Alive?]
;B[al];W[ak]))
(;B[cl];W[bp];B[bq]))
(;B[el])
(;B[fm])
(;B[gj])
(;B[mo]C[!!!]))
(;B[ih]))
(;W[ig];B[jg];W[jh];B[kg];W[hh]))
(;B[nj]
(;W[of];B[oh];W[oe];B[nf];W[og];B[ph];W[ng];B[mg])
(;W[ni]))
(;B[oi]
(;W[ph];B[oh];W[og];B[of])
(;W[oj];B[ni];W[nj];B[mi];W[ko];B[jo];W[hl];B[jl];W[im];B[jm]
;W[hj]C[>Black can build a huge moyo, but white can destroy it by attacking black's weak group.]
))
(;B[ng];W[nj];B[mo]C[>This move is still very important]))
(;B[nc];W[ko];B[jo];W[hl])
(;B[mo]C[>This is the move I would play, limiting white's territory while strengthening K6 group.]
))
(;B[fm]TR[jn][jp][jq]C[>Now is the time to seal white in. White may live with two eyes but black is taking huge profit down the edge and will be able to get his stones in the centre out of danger.]
))
(;W[gm]TR[iq][ir]C[White shouldn't worry about his two stones since he has K2 if necessary.]
))
(;B[jr];W[eq];B[dq];W[gm]C[>White will live fairly easily, and the stone at K2 now looks wasted.]
)
(;B[gm]C[>Another powerful option is to cap like this, and to gain strength when white tries to break out. In this case, I think your move is better.]
))
(;W[cq];B[cp];W[dq];B[eq];W[er];B[fq];W[fr];B[gq];W[bp];B[bo]
;W[bq]C[>White can still invade and live, although he would leave this until later in the game when black's strong wall will be less useful.]
)
(;W[gn]C[>For white to jump out is good, but it should definitely be one line further than in the game.]
))
(;B[dn]C[>This is one way of playing, aiming to attack the white stone on a big scale. White can *still* invade the corner and live, but only just.]
;W[gn];B[jm]C[>If white runs into the centre, black can play like this. White will live, but black will get strength in the centre to invade on the right.]
)
(;B[jm])
(;B[eq]
(;W[dn];B[gq]C[>White can take the point that black wants, but then black can attach underneath. With a bit of reading, this fight will go well for black.]

(;W[fn];B[hq]C[>White will avoid the fight. This seems a reasonable result for both sides, because white has sente.]
)
(;W[hq];B[hp];W[iq];B[ip];W[jq];B[im]C[>This is only one variation of many. White can't play F3 (try it and see) and two of his stones have been cut off inside black's enormous moyo.]
))
(;W[ip];B[dn]C[>If white keeps black separated, black can get a perfect formation on the side. The stone at K4 is light, meaning it has potential but isn't important and can be abandoned.]
)))
