(;FF[4]GM[1]SZ[19]ST[2]CA[UTF-8]AP[SGFC:1.15]

PB[mircofanti]
BR[7k]
PW[Tom0]
WR[6k]
KM[0.5]
DT[2007-05-01]
PC[The KGS Go Server at http://www.gokgs.com/]
RE[B+10.50]
TM[1500]
OT[5x30 byo-yomi]
RU[Japanese]

C[I left the comments of my opponent, his questions and my comments too. Thanks, Mirco.

r: Hi Mirco, this is rcarn, and I'll be doing your review.]
;B[pc];W[cp];B[cd];W[pq];B[qe];W[jc];B[fc];W[mc];B[dj];W[qo]
;B[ep];W[gp];B[co];W[do];B[dp];W[cn]
(;B[cq]C[r:  This is the first move I would change.  Generally, if you're looking to give up a stone on the 3rd line like this, you add an extra one first.  It generally doesn't cost you much more, but it leaves a lot of aji in the position for you to use later.]
;W[bo];B[bp]C[Tom0 [6k\]: yes, but I have 3 wek groups now, no ?
mircofanti [7k\]: i don't know about the punniki
Tom0 [6k\]: maybe it better not to connect C5 ?
mircofanti [7k\]: why don't we get a review?
Tom0 [6k\]: where ?
mircofanti [7k\]: GTL
Tom0 [6k\]: how does it work ?
........
Tom0 [6k\]: it's thomas.barrois@btinternet.com
mircofanti [7k\]: my is mircofanti@virgilio.it
.....
mircofanti [7k\]: See you and thanks
Tom0 [6k\]: Thanks a lot];W[co];B[fp]
(;W[dg]C[mircofanti [7k\]: it was a pincer and an invasion
mircofanti [7k\]: not bad

r:  This feels a bit early.  White is starting an unfavorable fight here since a) it's black's turn, and b) D13 has no room to live locally.  This is the type of move you would make if you were losing and needed a lot of points to come back.]
;B[cl];W[dl]
(;B[dk]LB[ck:A]C[r:  Not a major difference, but helps with shape a little.  Try to avoid hitting your own stones on the head.]
;W[el];B[fj]
(;W[gg]LB[fg:A]C[r:  A little too much.  White is begging for a cut here later.  Stick with the solid one space jumps when running away if you want to keep all your stones alive.]
;B[gl]
(;W[fn];B[go];W[fo];B[gn]
(;W[fm]C[r:  This feels a bit like a thank-you move.  Black would love to connect at G7, and this makes it happen.]
;B[gm];W[cm];B[bl];W[bq];B[br];W[ap];B[dr]
(;W[hp]C[r:  White is just making these stones heavy here.  Maybe consider using them as light sacrifice stones.]

(;B[jq];W[lq];B[jo];W[jp]
(;B[kp];W[ip];B[kq];W[ko]C[Tom0 [6k\]: I have too much weak groups in the begining I think
mircofanti [7k\]: may be
Tom0 [6k\]: Invasion in D13 was a mistake, I guess
mircofanti [7k\]: but my were weak too
Tom0 [6k\]: that's true];B[lp];W[in];B[jn];W[hn];B[ln];W[jm]

(;B[km];W[il]
(;B[hl]C[r:  Empty triangles are usually wrong.  Black doesn't have to stop an eye here yet since H7 will do it in sente later.]
;W[kl];B[ll];W[kk];B[lk];W[kj];B[ii];W[ed];B[ec];W[dd];B[dc]
;W[ce];B[bd];W[ci];B[bj];W[cj];B[ck];W[di];B[ei];W[eh];B[fh]
;W[fg];B[gh];W[hg];B[kh];W[hh];B[hi];W[jh];B[ji];W[ki];B[lh]
;W[ik];B[gj]C[r:  Here's where H9 would have been more useful than H8.  Instead of needing to defend to avoid losing the whole G6 group, black could press the attack on white's J4 group.]
;W[fq];B[eq];W[fr];B[er];W[iq];B[gr];W[hr];B[gq];W[jr];B[kr]
;W[hq];B[fs];W[is]
(;B[pi]C[r:  This feels like an odd spot to play.  Why not just the usual extension to R10 to grab some territory?  With the black wall facing the right edge, you might even be able to get away with R9.]
;W[ql];B[pm];W[qm];B[pn];W[po];B[qn];W[rn];B[pl];W[qk];B[pk]
C[r:  White gained a lot here.  Black is very overconcentrated here, and considering that he could have taken most of the side (see variations at 105), it's a big lost opportunity.]
;W[pd];B[qd];W[od];B[oc];W[nd];B[li];W[ek];B[ej];W[bi];B[ak]
;W[mm];B[lm];W[mo];B[lo];W[lj];B[mj];W[mn];B[mp];W[oo];B[np]
;W[on];B[nk];W[og]
(;B[qg];W[qh]C[r:  Ouch.];B[ph];W[qi];B[qj];W[rj];B[pj];W[rk]
;B[rg];W[ri];B[kd];W[kc];B[ld];W[lc];B[ih];W[ig];B[jg];W[nr]
;B[mr];W[nq];B[op];W[pp];B[oq];W[or];B[mq];W[hb];B[gb];W[hc]
;B[be];W[cf];B[fd];W[fe];B[nb];W[mb];B[nc];W[md];B[jf];W[bf]
;B[ge];W[ff];B[pf];W[of];B[nh];W[gd];B[gc];W[hd];B[ie];W[he]
;B[id];W[jd];B[je];W[le];B[ke];W[lf];B[ic];W[ib];B[mg];W[mf]
;B[om];W[hs];B[ar];W[aq];B[bm];W[eo];B[an];W[ao];B[ks];W[js]
;B[ns];W[ps];B[jj];W[jk];B[ng];W[nf];B[sh];W[ae];B[ad];W[af]

(;B[cb];W[si];B[oh];W[rh];B[sg];W[bn];B[am];W[ai];B[aj];W[nl]
;B[ml];W[nm];B[no];W[nn];B[pe];W[oe];B[hk];W[kg];B[lg];W[kf]
;B[fk];W[fl];B[ij];W[im];B[if];W[hf];B[jh];W[ol];B[ok]
(;W[ro];B[qb];W[na];B[oa];W[ma];B[ha];W[ia];B[ga];W[os];B[ms]
;W[pr];B[pg];W[io];B[kn];W[tt];B[tt]TW[ja][ka][la][jb][kb][lb]
[de][ee][ge][me][ne][df][ef][gf][ag][bg][cg][eg][ah][bh][ch]
[dh][sj][sk][jl][rl][sl][dm][em][rm][sm][dn][en][sn][so][bp]
[qp][rp][sp][qq][rq][sq][ir][qr][rr][sr][qs][rs][ss]TB[aa][ba]
[ca][da][ea][fa][pa][qa][ra][sa][ab][bb][db][eb][fb][ob][pb]
[rb][sb][ac][bc][cc][qc][rc][sc][rd][sd][re][se][qf][rf][sf]
[mh][fi][gi][mi][ni][oi][hj][nj][oj][bk][gk][mk][al][ko][dq]
[fq][lq][cr][fr][lr][as][bs][cs][ds][es][ls]C[mircofanti [7k\]: g15
mircofanti [7k\]: thanks
Tom0 [6k\]: thanks
mircofanti [7k\]: good game
Tom0 [6k\]: yes

r:  Though black gave up a lot of points on the right side, he had enough in the corners to make up for it.  White's weak groups definitely contributed to that, since black solidified most of his territory on the left side during attacks.]
)
(;W[os];B[ms];W[na];B[oa];W[ma];B[qs];W[pr]
(;B[ro];W[rp];B[rm];W[so]C[r:  Nothing to worry about for white here either.]
)
(;B[rm];W[ro];B[rl];W[sm]C[r:  Nor here.])))
(;B[sa];W[cc];B[bc];W[cb];B[bb];W[db];B[eb];W[ga];B[fa]C[r:  Nothing but ko threats here; no need to defend at C18.]
))
(;B[qh]C[r:  Black can't afford the sequence that follows the knight's move here.]
))
(;B[qj];W[ql];B[me];W[je];B[rk];W[rl]C[r:  Black has a big lead now, and can still even start a huge ko at H1 at any time.]
)
(;B[qk];W[qi];B[ok]C[r:  This is not going to be a fun fight for white.]
))
(;B[hk]))
(;B[kn]C[r:  Minor difference, but playing L7 just leaves white with more forcing plays.]
))
(;B[ip]C[r:  I'd probably let him pull that K4 stone out to make killing G4 easier.]
))
(;B[jp]C[r:  The high play feels a little safer to me here since this has access to the center.]
;W[lq];B[jq];W[io];B[jo];W[in];B[jm]C[r:  Doesn't look promising for white.]
))
(;W[jq];B[hp];W[gq];B[hq];W[ir];B[hr]C[r:  White gives up the cutting stones, but takes compensation on the bottom edge.  Plus, he keeps sente, so it's a good chance to either defend a weak group (like D13) or take a big point if there isn't one (like R10).]
))
(;W[gm]
(;B[fm]C[r:  Getting aggressive doesn't help black here; white will capture something and get out.]
;W[hm];B[eo];W[en]
(;B[em];W[dn];B[dm];W[cm];B[fl];W[ho]C[r:  White gets out this way and has big followups against C8 and B4.]
)
(;B[hp];W[ho];B[gq];W[hn];B[gp];W[fl]C[r:  Similar this way]
))
(;B[hm];W[fm]C[r:  This leaves black with some cutting points that need defending.]
)))
(;W[bq]))
(;W[fg]))
(;B[ck]))
(;W[bq];B[br];W[ap]C[r:  I might prefer this as white.  It settles the group nice and quickly, and leaves black open to attack later if he plays away.]
;B[sa];W[dr];B[cr];W[fr];B[gq];W[fq];B[dq];W[hq];B[er]C[r:  White ends up with a very nice looking bottom side here.]
))
(;B[bo];W[bp]
(;B[dn];W[eo];B[en];W[fo];B[cm];W[bn];B[bm]C[r:  Probably not the best outcome in this case since white ends up with a very large corner, but a sequence like this might be playable in other similar situations.]
)
(;B[eo];W[dn];B[en];W[bn];B[jp]C[r:  Black can also start a fight in here if he prefers.]
)))
