(;FF[4]GM[1]SZ[19]ST[2]CA[UTF-8]AP[SGFC:1.15]

PB[hudou]
PW[sm1983]
WR[8k]
KM[6.5]
DT[2007-05-20]
PC[The KGS Go Server at http://www.gokgs.com/]
RE[B+Resign]
TM[600]
OT[5x30 byo-yomi]
RU[Japanese]

C[hudou: hi

Hello reviewer, please review for white. This game was played on KGS, my opponent was unrated, and I am 8k. I am still kind of lost and confused as to how I lost so badly during the course of this game. Then again, I am still kind of weak, so i am lost and confused about many things :P.

--------------
Reviewer:

Hello.
I reviewed this game from White's side. White's problems are : 

- attacking from the wrong direction : you should attack from your weak stones towards your strong stones, not the opposite.
- making some moves in the beginning/middle that had no value (like saving 1 stone, or making plays in an area where there'll be no territory) : it is important to try to remember to make plays that have value.
- creating too many groups, hence having the burden of lots of weak groups to defend, and ending up living in gote or dying. These weak groups and their high number is the result of a play style too aggressive, that privileges cutting and double approach moves, leaving some weakness (extending is good!).

See the end for more general guidelines.

And remember attacking does not mean killing. Pressuring the enemy in order for yourself to extend and take points is enough to win.]
;B[qd]C[sm1983 [8k\]: hello];W[dd];B[pq];W[dp];B[fc]LB[hc:B]
[id:D][od:C][cf:A]C[--------------
Reviewer:

Those are the most common moves in that position.
A is the normal defensive extension, see variation
B and D are pincers aiming at preventing a potential black moyo, see variation
C is another good move, but more aggressive since it ignores black's approach on white's corner]

(;W[od];B[df]LB[cf:A]C[--------------
Reviewer:

A black move at A is here more usual, the move played here is a bit more aggressive.]
;W[fd]C[--------------
Reviewer:

The only move, seems good so far.];B[gd];W[fe]C[--------------
Reviewer:

Correct shape.];B[ec];W[de]LB[cb:A][qc:B]C[I think this is where I first went wrong, but I don't see too many better continuations

--------------
Reviewer:

This is correct shape. White keeps itself connected and keeps black separated. Corner is open to black (A), but then again black tenukied when white approached, so if Black A, White B and takes the other corner, game seems equal so far.]
;B[cb];W[fg]LB[qc:C][cn:A][dn:B][po:E][qo:D]TR[df]SQ[dd][fd]
[de][fe]C[--------------
Reviewer:

This seems a bit slow to me. The triangle marked stone can get out still easily, so aiming at making a moyo by playing on the 6th line seems a bit ambitious. White's marked stones can get out easily and are connected so adding another move does not seem urgent. If Black approaches White's bottom corner with A, B, White will pincer in order to profit from the strength of the square marked White stones. Therefore, I wouldn't play on the left side either. In my opinion, taking the top right corner with C is the best move, although approaching the bottom corner with D or E also seems playable.]

(;B[cf];W[bd]C[--------------
Reviewer:

White here played 6 moves for zero territory., that is what I meant when I said it was slow.]
;B[ci]C[--------------
Reviewer:

Black up to this point seems extremely territorial.
First signs where his first 2 moves on komoku (aiming at corner enclosures), then he immediately jumped into the first open corner. This extension, which is by the way a bit too close, and on the 3rd line only, seems to highlight his extreme territoriality.]
;W[ck];B[eh]
(;W[fh]LB[fe:2][ck:1][ek:A]C[--------------
Reviewer:

I think it would be more better to jump at A.
The correct way to attack in go, is to play from your weak stones towards your strong stones. Here the 1 group is weak while 2 is strong. By playing from 2 you'll only make 2 stronger (not usefull) while weakening your 1 group.]
;B[ej]
(;W[qf]LB[qc:C][ej:A][dm:B]TR[ck]C[Somehow this attack went all wrong too

--------------
Reviewer:

Once A was played, White just cannot ignore it, and should defend his marked stone. It's a very important stone, it's crucial in defending the corner.  A play at B seems fine.

Black is very territorial. It seems a bit ambitious for W to make a double approach move on the top right corner. Simply taking territory seems better, with a move at C for example. Here white just invites black to play a kosumi and separate him, increasing his number of groups to 4 already, with 3 weak groups...]
;B[pe];W[qi];B[pf]
(;W[pg]LB[qg:A]TR[qd][pe][pf]SQ[od]C[--------------
Reviewer:

This seems bad shape to me, this kind of shape usually makes you end up in gote. Once again, it will developp Black's marked stones, making White's marked stone even weaker. Simply extending at A seems better to me.]
;B[og];W[ph]C[--------------
Reviewer:

White in gote.];B[ne];W[md];B[kc]C[--------------
Reviewer:

Another example on how territorial black is.]
(;W[le];B[jd]LB[jd:B][kd:C][le:A]C[--------------
Reviewer:

The exchange of A for B seems very much in favor of Black. White got out to the center, but none of black's group are in danger since they have a strong shape, and Black B is another territorial move taking points. It would have been better to go to the contact at C, I believe.]

(;W[pc]LB[dm:C][po:A][qo:B]TR[lb][mb][nb][kc][lc][mc][nc]SQ[qb]
[rb][qc][rc][qd]C[--------------
Reviewer:

This is very very small, it has zero value. Black's triangle marked stone means there'll be no territory for White in the triangle area. Same for the square marked stone. To summarize, there'll be no points for anyone at the top, so why play there? Approaching at A or B is better. Also have to remember to defend around C soon.]
;B[qc]C[--------------
Reviewer:

Small move for Black also.];W[lg];B[nh];W[qn]TR[qf][pg][ph]
[qi]C[--------------
Reviewer:

This seems too far from the corner to me. White's marked stones have decent shape, so there's no fearing a black pincer.]
;B[nc];W[nd];B[nb]C[--------------
Reviewer:

Could Black be any more territorial?];W[lc];B[lb];W[pb]TR[dm]
[cn][dn][mq][nq][qq][rq]C[--------------
Reviewer:

All of this is very very small compared to the marked areas.]
;B[mc]
(;W[ld]C[--------------
Reviewer:

Useless move. So what if Black captures one stone? White is still connected... that makes it a 2 point move for Black.... See before for big points.]
;B[mi]
(;W[nq]LB[md:1][fe:2][ph:4][ck:3][qn:5][nq:6]TR[he][ie][je]
[hf][jf][hg][jg][hh][jh][hi][ii][ji]C[--------------
Reviewer:

White gets the correct idea here, but sadly White choses to make his move ignoring a serious Black attack, after a couple of useless and small moves Black made. Black's last move makes the 1 group under big attack and could prove problematic for White because when Black moves out in the marked area, both White's 1 and 2 groups will become under attack. So white should extend his 1 group.

Also, this is the second time that White made an approach in a Black corner, and that Black ignored, allowing White to get his second move there first. And in both cases, White chose to make a double approach instead of just taking corner territory, adding another group to his already long list of weak groups. Potentially 6 groups for white here... 7 if Black approaches the bottom left corner.]
;B[kh]C[--------------
Reviewer:

Logical follow up.];W[jf];B[gf];W[ff];B[ig]
(;W[ge]LB[md:1][fe:2]TR[gi][hi][gj][hj]C[--------------
Reviewer:

Mistake. The 2 group can still get out by playing around the marked area. It's not the 2 group that's under attack, it's the 1 group. But White here is reinforcing the 2 group, which will reinforce black in the middle and weaken 1 even more.]
;B[hd];W[he];B[ie];W[if];B[hg];W[hf];B[qk];W[oj];B[pm]LB[qn:A]
C[--------------
Reviewer:

We see here white A was played too far from the corner, and why making a double approach move on the corner is a lot worse than just taking corner territory. White has way too many weak groups to defend.]
;W[pn];B[om];W[on];B[nk];W[rj];B[rk]
(;W[rh]C[--------------
Reviewer:

Painfull way to live.];B[qj];W[sj];B[rf];W[rg];B[qg];W[qh];B[re]
;W[oh];B[ng];W[pj]
(;B[nj];W[oi];B[np];W[op]C[--------------
Reviewer:

Totally unreasonnable cut. White's weakness is that he has way too many groups. So why cut to create even more of them? Black can still live in the corner so it does nothing but create more trouble for W.]
;B[oq];W[mq];B[mp];W[lq];B[qp];W[pp];B[rq];W[mn];B[lp];W[kp]
;B[lo];W[ln];B[ko];W[jp]LB[nd:6][fe:1][ph:5][ck:2][pn:4][lq:3]
C[--------------
Reviewer:

6 groups for white.];B[jo];W[ll]C[The fatal error; I resigned after this sequence, as I have almost no points on the board and am losing points fast.

--------------
Reviewer:

Black is simply attacking White's weak groups and making points out of his attacks. White cannot attack any Black group since Black was very territorial, making simple if small extension, and getting bases for all his groups. But White kept attacking, cutting everywhere, and creating too many weaknesses for himself.
The corner approaches are good example. When you approach a corner, what do you do? You *threaten* to take it (and therefore take corner territory points) if the opponent ignores you and moves elsewhere. Twice white had that opportunity, but instead chose to make a double approach move, doubling his groups, enabling black to keep the territory and getting no points out of it. The very beginning was fine for white, until he spent a couple of early moves for no purposes. Generally white seems to have decent shape moves, but clearly creates way too many groups for himself. My advice would be to extend more often and pincer/double approach less, and to try to keep the number of groups at no more than 4 for a start.]
;B[kq];W[jq];B[kr];W[jr];B[lr];W[nr];B[or]C[sm1983 [8k\]: thanks
hudou: thx])
(;B[oi]C[--------------
Reviewer:

White dead.];W[nj];B[ni]
(;W[mj];B[pi])
(;W[pi];B[mj];W[pk];B[ql];W[si];B[sg])))
(;W[rg];B[rh];W[qj];B[qh];W[nj];B[mj];W[re]C[--------------
Reviewer:

Can't really see how to live in sente. Really painfull for white.]
))
(;W[jg];B[jh];W[if];B[hg];W[oe];B[of];W[ge];B[hd]C[--------------
Reviewer:

This sequence seems better for White in my opinion.]))
(;W[ig]))
(;W[nq];B[ld];W[me])
(;W[oo];B[np];W[rq];B[qp];W[rp];B[qo];W[ro];B[pn];W[qm]))
(;W[qo];B[np];W[qq];B[qr];W[pp];B[rq];W[qp];B[oq];W[pl]))
(;W[kd];B[jd];W[lc];B[ke];W[ld]))
(;W[qg];B[nf];W[ld];B[pc];W[ge];B[hd]))
(;W[dm];B[oc];W[nc];B[pc];W[nd];B[qf];W[jc];B[id];W[ge];B[hc]
;W[qo];B[np];W[qq];B[qr];W[rq];B[or];W[ql]))
(;W[ek];B[fh];W[ge]))
(;B[di];W[ef];B[dg]))
(;W[cf];B[kc];W[po];B[qo];W[qn];B[qp];W[pm];B[nq];W[qi];B[qg]
;W[oi]LB[db:A][oc:C][od:B]C[--------------
Reviewer:

standard sequence and big points])
(;W[hc];B[oc];W[po]))
