(;FF[4]GM[1]SZ[19]ST[2]CA[UTF-8]AP[SGFC:1.15]

PB[nikos]
BR[7k]
PW[Zarek]
WR[6k]
KM[6.5]
DT[2007-05-26]
PC[The KGS Go Server at http://www.gokgs.com/]
RE[B+4.50]
TM[1800]
OT[25/1200 Canadian]
RU[Japanese]
US[Cooper Alison-Mayne]

C[
I'm white in this game. It was a tournament match for Iwamoto.

cooper:
playing against the fuseki black played can be intimidating -- you have to jus
t have confidence that you can reduce later -- pros and strong amatures are ha
ppy to give black the moyo for the corner territory--];B[pd]
;W[dd];B[pp];W[dp]C[I'm still trying to get a solid feel for the opening. Since he'd taken the 
star points, and if I took the 3-4 point at the bottom he'd be able to make a 
kakari immediately, I took the other star point.];B[pj];W[nq]
C[Looking back, perhaps I should have completed the san-rei, but I didn't wan
t ot get behind.

--

cooper: you played well --  good to be aggressive];B[lq]
(;W[jq]LB[jq:A][lq:B][nq:C]C[I was trying to ensure development of the stone at D4.

--

cooper: ok --

to analyze this sequence -=- think about it this way -

if you had played A first -- and black checks with B -- invading so early with
 C would be questionable --

in this case playing into the corner (3-3)would have been better - see variation]
;B[np];W[mq];B[mp];W[lr]
(;B[kq]C[cooper:

see the correct black  variation-- and compare to the joseki--]
;W[kr];B[oq]
(;W[jp]C[I ignored the stone at P3, because I couldn't develop there anymore, 
and both walled off territory and forced M4 here. Anything better?

--

cooper:: this is an ok move,  a bit slow if black tenuki

you can think about the fact that black doesn't have a good move in this area because of his weak shape -- see var.]

(;B[lp]LB[ko:A]C[bad shape for black

 playing at A is better];W[nc];B[lc];W[qc]C[good];B[qd];W[pc]
;B[od]
(;W[oc]LB[nb:B][rc:A]C[better to play joseki at A or B (see var)]

(;B[pg]LB[nd:A]TR[qe][re][se][qf][qg][qh][qi][qj][rj][sj]C[Now that I see this, I can't help but feel it's what cost me th
e match.

--
cooper: 
its funny you say that -- if anything this is the losing move for black -- 
it helps to secure some 20 points of territory -- but it misses the bigger pic
ture -- its much better to play at A -- creating a huge moyo

giving you the chance to play at A yourself is a losing stratagy]
;W[jc];B[cf];W[ci];B[ef];W[fd];B[bd];W[cc];B[bc];W[bb];B[cd]

(;W[cb];B[de];W[ed];B[cn];W[cl];B[cq];W[dq];B[cp];W[do];B[co]

(;W[dm]C[cooper:  not good -- gives black a nice cutting point for use
 in the future];B[qm]C[I felt the need to shore up my hole at D7, but then Black got
 to finish securing his area along the right side. What else should I have don
e?

--
cooper: a move around D7 (preferable D6) was necessary --

positional judgement::

black has a good amount of points on the right... but you have a big area in t
he lower part of the board and the top left -- counting points the game is abo
ut even, but white has a chance to attack blacks weak stone at M17 -- 

its essential to watch to board for potentially weak groups to harrass  --]

(;W[jm]LB[nd:A]C[this is ok -- but a move at A is absolutely essential--

by attacking the isolated black stone you will reduce blacks potential on the 
right];B[dn];W[en];B[lm];W[kk];B[or]
(;W[mr]LB[nd:A]C[cooper:
IMPORTANT
--
this is only worth 6 points or so -- plus its gote for black to take the stone
s-- that means its an endgame move

a move at A is really big right now -- game winner];B[lg]C[cooper:  
this is a vague move... not good -- doesn't have a clear purpose]
;W[kn]C[Since the ladder doesn't work due to Black stones around 
D14, I'm tryging to protect against the cut when I push farther into Black's t
erritory.

--]
(;B[ln]C[this is slow for black]
(;W[kl]C[cooper:
slow... unnecessary];B[dh];W[di];B[ei];W[eh];B[fh];W[ej];B[fi]
;W[fj]
(;B[eg]LB[lc:A]C[slow for black
should have saved his A stone]
(;W[ke]LB[nd:A]C[this is an alright idea -- but still the move at A 
is better]
(;B[hc]LB[lc:A]C[After this, I feel that I came out really behind. S
ince I was so strong, I thought to win out, but black lived.

--
cooper: 
this is an overplay -- i will show you how to punish

in the sequence .. you let play connect under to his stone at A -- the first t
hing to thick about when you want to kill a stone is seperating it from its fr
iends -- see some variations for better attacks]
(;W[hd];B[ic];W[id];B[jb];W[gc];B[kc];W[jd];B[hb];W[gb]C[With this shape, I thought to beat him out.]

(;B[ha];W[ga]
(;B[ja];W[mb]C[good move..];B[lb]
(;W[la]C[sometimes better to force your opponent to pla
y a move to live... giving you an extra move outside--

see var.];B[mc];W[nb];B[nd]
(;W[md]C[Foolish cut. I should have used the threat to 
push farther into Black's territory, I'm thinking.

--

cooper:
yes you are totally correct --

if you hadn't cut-- you could ahve reduced enough to win for sure]
;B[ld];W[me];B[le];W[kf];B[mf];W[lf];B[ne];W[mk];B[ol];W[ni]
C[cooper:
the knights jump has  weakness -- when playing into black moyo -- usually bett
er to play more solid moves];B[dr];W[er];B[ds];W[es];B[br];W[eq]
;B[nh];W[oi];B[pi];W[oh];B[og];W[mh];B[ng]
(;W[mg]LB[lg:A][oi:B]C[cooper: without this move... it was your game i thi
nk

no good -- the exchange of A for B is not good for you

see var];B[mi];W[lh];B[li];W[kh];B[nj];W[ki];B[lj];W[mj];B[oj]
;W[lk];B[ph]
(;W[kj]C[small --
black cannot be expected to answer this

because black has no good move here.. there is no reason to play there for whi
te]
(;B[ni]C[small---]
(;W[bg];B[bf]C[Perhaps a stone around G13 would have be
en bigger?

cooper:

endgame is a pain in the ass --

but basically -- keep sente and gote in mind ... 
this is pretty big.. but because its gote.. you dont really want to play it ye
t

see var for bigger endgame moves];W[bh]
(;B[gi];W[gj];B[hi];W[hg];B[gg];W[gf];B[hj];W[hk];B[ff];W[ge]
;B[hh];W[ig];B[cg];W[bl];B[bm]
(;W[am]TR[rd][nl]C[a gote move...

try some sente around the triange areas first];B[an];W[al];B[cm]
;W[el];B[ko];W[jo];B[nl];W[ml];B[mm];W[nk];B[ok];W[rd]C[cooper

whew-- finally-];B[re]
(;W[sd]C[better to play like in the variation];B[se];W[rb];B[ka]
;W[ac];B[ad];W[ab];B[ij];W[ik];B[jh];W[jg];B[ji];W[jj];B[ch]
;W[bi];B[ag];W[ah];B[af];W[ih];B[ii];W[kp];B[lo];W[ns];B[nr]

(;W[os];B[ms];W[ls];B[ps];W[jr];B[ms];W[ns];B[ma];W[na];B[la]
;W[km];B[os];W[ms];B[ee];W[fe]C[you played pretty well -- 
 giving black the big corner in the bottom right was questionable - but you managed to keep the game close for a while --

most important thing is to remember to take advantage of your opponents weak groups -- you dont need to capture.. just chase them around--  but dont miss the opportunity --]
)
(;W[ms];B[os]))
(;W[rc];B[sd];W[sc];B[se]))
(;W[nl];B[nm];W[mm];B[mn];W[ml];B[om]))
(;B[hi]C[obvious]))
(;W[hi]LB[gg:A]C[this is sente... if black doesn't answ
er .. you get b and make a lot more points])
(;W[rd]C[this is another really big endgame -- its gote
.. but its eats away at blacks huge side.. and enlarges your corner --]
;B[re];W[rc];B[ch];W[se]C[you will probably get this move in... another very 
big one];B[rf];W[sf];B[sg];W[sd];B[rg]))
(;B[hi];W[hj];B[ij];W[gi];B[gh];W[gj];B[ih];W[hg];B[hh];W[ji]
;B[ii];W[ik]C[black can reduce in sente... then go back and 
do what he wants]))
(;W[hi];B[hg];W[rd];B[re];W[rc]C[good endgame moves worth much more than 6 poin
ts]))
(;W[lh]LB[lg:A][ni:B]C[this is a better idea ---

that one stone at A is not that big -- better to let black have it and save yo
urs stones at B];B[mg];W[kg];B[mi]C[cut does not work for black]
;W[li];B[mj];W[nj];B[lj];W[kj]))
(;W[me];B[md];W[nf]LB[nf:B][kk:A]C[again you can get into the moyo from 
A or B

would be nice]))
(;W[me];B[mc];W[nb];B[nd];W[md];B[la];W[nf]TR[ni][oi][mj][mk]
[pk][nl][ol]C[this way you get to reduce blacks potential in the 
triangle area with to ways to get in at it]))
(;B[lb]C[alive]))
(;B[ia]))
(;W[id]C[this move helps seperate blacks 2 stones];B[hd];W[he]
;B[ge];W[gd]C[black is in  trouble]))
(;B[le]C[this seems natural for black]))
(;W[nd]))
(;B[jd]C[an interesting move for black];W[id];B[kd];W[hc];B[nd]
;W[mc];B[md];W[lb];B[kc];W[kb];B[mk]C[black is leading now]
))
(;W[mk]C[better to jump right in blacks moyo];B[jl];W[kl];B[km]
;W[im]C[its going to be hard for black to attack your stones 
with such a weak cutting stone];B[jk];W[jj];B[hl];W[ij];B[hk]
;W[li]C[the question becomes -- who's attacking who... and my
 answer is black is weaker])
(;W[nd]C[or this]))
(;B[mk]C[gives black the change to englose some points]))
(;W[nd]C[this would have been a game winner]
(;B[ne];W[me];B[nf];W[mf]C[this way blacks points are being limited and you are at
tacking blacks m17 stone severely --

would be very nice];B[mg];W[lg];B[mh];W[lh];B[mi];W[gf]C[you are winning by a landslide]
)
(;B[le]C[if black tries to save this stone now the same this hap
pens as in the variation earlier];W[kd];B[ld];W[nf];B[lg];W[nh]
;B[jf];W[ie];B[if];W[he];B[hf]
(;W[ge];B[gf];W[ph];B[qh])
(;W[gf];B[gg];W[fg];B[ff];W[ge];B[gh];W[ih];B[hh];W[dg]
(;B[eg];W[fh];B[eh];W[fi]C[to save that group black can try this -- but this g
ives you a good opportunity to attack];B[ei];W[fj];B[ii]
(;W[jh];B[ji];W[kh];B[lh];W[ki];B[li];W[jj];B[ni])
(;W[ej];B[ch];W[di];B[dh];W[jh]C[blacks group has no eyes --- that is 0 eyes -- ... 
that is good for you]))
(;B[fh];W[eg];B[ii];W[bg]C[blacks group dies];B[cg];W[ch];B[bf]
;W[bh];B[df];W[ei];B[be];W[af];B[ae];W[ac])))))
(;W[nd]LB[hc:A]C[this is a very big move--- turning at the top of blacks sto
nes will  ruin blacks chance at a big moyo.. and give you an attack on the bla
ck stone at M17

now an invasion at A is really impossible]
(;B[ne];W[me];B[nf];W[mf];B[ng]LB[lc:A]C[black stone at A is very sad]
)
(;B[le]C[if black tries to save his weak stone -- you get a chance
 to attack it and ruin blacks potential moyo]
(;W[of];B[pf];W[mf];B[lf];W[mg])
(;W[kd];B[ld];W[nf];B[lg];W[nh];B[jf];W[ie];B[if];W[he];B[hf]
;W[pf];B[qf];W[og];B[ph];W[jm]TR[mk][nk][ll][ol][lm][om][mn]
[nn]C[now black cannot make many points in the marked area-- 
because you can reduce it for two places]))))
(;W[dn]C[cooper:
better -- solid walls are very powerful

black can still cut - but it is not severe (see var.)];B[dm]
;W[cm];B[em];W[go]))
(;W[dc];B[ab];W[ba];B[de];W[ei]))
(;B[nd]LB[pj:A]C[this moyo would have been a very nice idea

notice that the extension at A is the perfect distance from the 4 stone wall -
- at this point i would rather be black]))
(;W[nb]LB[lb:A]C[this is joseki -- very safe because you can always move out for a
n eye at A];B[me]C[leaves some weaknesses in blacks shape for you to look at later i
n the triangle area])
(;W[rc];B[nd];W[nb]LB[re:A]C[another joseki... gote.. but gives you the possibility of killing
 some black territory with a move like A]))
(;B[ko]C[again ... this is better shape for black])
(;B[fc];W[lp];B[lo];W[kp];B[cf]))
(;W[nc];B[jp]C[blacks shape is weak];W[ip]C[so you can double hane]
))
(;B[lp]C[this is better shape for black --];W[kr]LB[pj:A]C[compare this to the joseki and you will find that black is happier.. .g
et gets the wall facing his stone at A and he gets more corner territory]
;B[jd]C[black is moving faster around the board]))
(;W[qq]C[cooper:
in pro games with this fuseki -- 90% play this san-san move

i recommend it];B[qp];W[pq];B[op];W[nr];B[mo]C[this is a very common joseki in this case]
))
