(;FF[4]GM[1]SZ[19]ST[2]CA[UTF-8]AP[SGFC:1.15]

PB[nyanya]
BR[3d]
PW[Timotei]
WR[3d]
KM[6.5]
DT[2007-05-20]
PC[The KGS Go Server at http://www.gokgs.com/]
RE[B+Resign]
TM[300]
OT[5x30 byo-yomi]
RU[Japanese]

C[Hello reviewer =).  I am Timotei, taking White against nyanya.  I would like to know exactly how I struggled so much in the later half of this game, and a covering of mostly the beginning and early middle-game would be very nice, though of course, if there was somehow a way to overturn the game later on, that would also be lovely!  Thanks a lot :D.]
;B[pd];W[pp];B[cp];W[ep];B[dd];W[qf];B[eo];W[fo];B[do];W[gp]
;B[fn];W[gn];B[gm]C[Isn't this overplay?  I decided to cut and start a fight, but it became QUITE troublesome for me =/.

Donal: Black 13 is not an overplay, and cutting is correct.]

(;W[fm];B[en]
(;W[fl]
(;B[hm];W[hn]C[White 18 is not so good, as he is one step behind in the pushing battle.]
;B[im];W[cq]C[Is the timing of this move bad?  A big move rather than an urgent move?

Donal: It's not urgent, and it's also an overplay.]
(;B[dl];W[fj]C[At this point, I already felt very uncomfortable ;(.]
;B[in];W[dp]C[White attemped to patch up his position with sente, but he is left with poor shape even so.]
;B[bo];W[dj];B[bq];W[ip]
(;B[jp];W[iq];B[ho];W[go];B[io]C[So many bad aji on the bottom, I felt bad.]

(;W[dr]LB[fq:B][hp:A]C[Maybe I should have connected at A instead :s?

Donal: Defending at B looks good.]
(;B[hp]
(;W[gq];B[hq];W[br]C[Donal: With black 37 Black has gained the lead. After white 38, Black needs to live on the left, so he should break out and capture one white stone.]

(;B[ar];W[cn];B[co];W[dm];B[em];W[cl];B[el];W[ek];B[ck];W[cj]
;B[bk];W[gr];B[hr];W[bj]C[Black 39 allowed White to live in sente, and now Black is closed in. White's chances have improved.]
;B[dk]LB[cj:A][cn:B]C[Black 43 just strengthens White, because white A, threatening B. Black should play B himself.]
;W[cf];B[ei];W[ej];B[ef]LB[fc:A]C[Black 45 just strengthens White, and 47 is rather thin. Better to just defend at A.]
;W[bd];B[nc];W[lq]LB[pj:A]C[White 50 is too close to Black's thickness. White A would be better.]
;B[nq];W[np];B[op];W[oo]C[The wrong way?];B[oq]
(;W[mp];B[pq];W[qp];B[qq];W[rp];B[rq]
(;W[pj];B[no];W[on];B[nn];W[ln];B[nm];W[ll];B[om];W[qn];B[pl]
;W[ql];B[qk];W[rl];B[pk];W[pm];B[nk];W[qi]C[Overplay?];B[kp]
;W[mo];B[oj];W[oi];B[ni];W[oh];B[km];W[lm]C[White is in trouble, and the reason is that he played unreasonably. First, he played near Black's thickness (apparently hoping to attack Black), and then he left a cut that Black took advantage of.

Both players need to work on playing more careful, solid moves without leaving weaknesses.

(end of comments, except for life and death problem at the very end.)]
;B[nh];W[mj];B[nj];W[kj];B[ij];W[lh];B[og];W[pg];B[jh];W[lf]
;B[of];W[ik];B[hk];W[jk];B[pf];W[qg];B[qe];W[re];B[rd];W[sf]
;B[gk];W[rj]C[I was really struggling after this move.];B[mg]
;W[lg];B[kd];W[jf];B[cg];W[bg];B[id]C[Probably best to resign here, or maybe even earlier...]
;W[hj];B[cc];W[ii];B[gj];W[hi];B[if];W[gi];B[fk];W[dg];B[je]
;W[jg];B[bc];W[gf];B[eg];W[gd];B[gg];W[hg];B[hf];W[fg];B[ge]
;W[gh];B[fe];W[rc];B[sd];W[qc];B[qd];W[ob];B[nb];W[oc];B[od]

(;W[qa];B[sb];W[sc];B[rb];W[qb];B[pc];W[pb];B[oa];W[nd];B[ne]
;W[md];B[lc];W[ld];B[kc];W[mf];B[nf];W[kr];B[mr];W[ir];B[hs]
;W[ak];B[al];W[aj];B[bl];W[sq];B[sr];W[sp];B[rs];W[kn];B[jr]
;W[lr];B[mq];W[jq];B[kq];W[js];B[is];W[lp];B[jr];W[ms];B[ns]
;W[ls];B[rk];W[sk];B[mk];W[lk];B[qj];W[ri];B[pi];W[cd];B[dc]
;W[ac];B[ab];W[ad];B[ba];W[de];B[ee];W[dh];B[df];W[ce];B[eh]
;W[di];B[ph];W[qh];B[bs];W[cr];B[gs];W[fr];B[mi])
(;PM[1]FG[4353:White can't even make ko];W[pc];B[pa];W[oa];B[sc]
;W[sb];B[rb];W[ra];B[qb]C[Even if White tries for ko at 1, Black has the clever move at 2 to stop him.]
))
(;W[pn]C[I should have been patient :(.]))
(;C[White's stones at the bottom are useless, because they can't be used to attack Black. Rather than try to save them, it's better to connect at 1 and sacrifice them, getting solid territory on the right in return. If Black caps at 16, White can invade with the sequence up to 21. If black 21, then white 16.]
PM[1]FG[4353:White gives up his useless stones];W[po];B[mp]
;W[no];B[pq];W[mq];B[lp];W[kq];B[kp];W[qq];B[qr];W[rr];B[pr]
;W[rq];B[mr];W[ql];B[of];W[fc];B[ec];W[fd];B[de];W[jd]))
(;B[ek];W[fk];B[ej];W[ei];B[di];W[dm];B[cm];W[cl];B[cj];W[cn]
;B[bm]
(;W[dn])
(;W[bn];B[dn]))
(;B[di])
(;B[ek];W[fk];B[ej];W[ei];B[di];W[dh];B[ci];W[eh]
(;B[ch]LB[cn:A][dm:B]C[Black can blast out and capture one white stone, making his group safe.]

(;W[cn];B[co];W[dm];B[em];W[el];B[dk];W[cl];B[ck];W[bn])
(;W[dm];B[cm];W[cl];B[ck];W[cn];B[bm];W[dn];B[em]))
(;B[cj]LB[cn:A][co:B][dm:C][cm:D]))
(;FG[4353:Black breaks out]PM[1];B[ek];W[fk];B[ej];W[ei];B[di]
;W[dh];B[ci];W[eh];B[cj]LB[cn:A][co:B][dm:C][cm:D]C[Black has lived and mad a bit of territory. White A looks like a problem, but black B, white C, black D.]
))
(;W[hq];B[gq];W[fp];B[gr];W[jq];B[er];W[hr];B[dq];W[eq];B[fq]
))
(;B[fq]))
(;W[jq];B[hp];W[hq];B[gq];W[fp];B[gr]
(;W[hr])
(;W[fr];B[er];W[fq];B[fs];W[hr];B[gs];W[hs];B[es];W[dq];B[cr]
)
(;W[er];B[kq];W[kp];B[jo];W[kr];B[lq];W[lr];B[mq];W[mr];B[hr]
;W[ir];B[is];W[jr];B[nq];W[nr];B[oq]))
(;W[fq]))
(;B[ho];W[go];B[hp];W[hq];B[io];W[iq];B[gq];W[fp];B[fq];W[er]
))
(;FG[4353:Black should strike back]PM[1];B[dp];W[dq];B[eq];W[fp]
;B[er];W[bp];B[bo];W[bq];B[hq]C[White will be in big trouble if Black pushes through and cuts.]
))
(;C[White would have been in big trouble if Black had responded properly to White's overplay.]
PM[1]FG[4353:Taking advantage of White's overplay];B[hn];W[go]
;B[hm];W[ip];B[gk]C[Donal: Black can simply atart at 1 and connect at 3, making 4 and 5 miai. This is a terrible result for White.]
))
(;W[hn])
(;B[hn])
(;W[hn];B[hm];W[im];B[fl];W[il]))
(;PM[1]FG[4353:Reasonable for both sides];W[fm];B[en];W[hn]
;B[hm];W[im];B[fl];W[il]C[Donal: Here is how I would expect it to turn out. The result is fairly even.]
))
