(;FF[4]GM[1]SZ[19]ST[2]CA[UTF-8]AP[SGFC:1.15]

PB[ragkgs]
BR[3k]
PW[koroku]
WR[2k]
KM[0.5]
DT[2007-06-02]
PC[The KGS Go Server at http://www.gokgs.com/]
RE[W+3.50]
TM[300]
OT[25/600 Canadian]
RU[Japanese]

C[please review for both sides.
back felt in control throughout and was surprised to find he lost

My comments will start with *. 
Bert

ragkgs [3k\]: hi];B[qd]C[koroku [2k\]: hi];W[dd];B[pp];W[dq]
;B[do];W[co];B[cn];W[cp];B[df]LB[di:C][dm:B][dn:A]C[* I personally would play at A or B. This move Invites white to do a splitting attack to black at C(D11).]
;W[fd];B[cd];W[cc];B[ce];W[bc];B[cj];W[dn]LB[od:A]C[* This is a big move but not important. I would play at A (P16).]
;B[dm];W[en];B[bn];W[em]
(;B[hc]C[q10 better?

* After Q10 White will play P16. move at P16 is better. Seals off the corner]
;W[ef];B[fb]C[* this is not a good move. Must fist play at A(E13) white will not ignore this and D13 is painfull for black.]
;W[dg];B[cg];W[de];B[dh]LB[dc:C][cd:B][ce:A]C[black decides to sacrifice c15 to get sente. is this ok?

* Black does not get sente so, no this is not okay. Defend at C14, letting white capture AB gives away to many points with no return. When connecting at C(D17) white has to defend the cut as well.]
;W[cf];B[bf];W[df];B[bh];W[be]C[* Too small. Either P16 or O3.]
;B[gp]C[too close?

* Yes. White is too strong here, play K4 or N3.];W[cm];B[bm]
;W[dl];B[ck];W[eo];B[ae];W[bd]C[* Should always be at A16. Is at least one point better and capturing A15 is sente when further down in the game.]
;B[ep]C[a bit cheeky...is it unsound?];W[dp]C[* To slack. Play first F3, if black plays G4 then K4 or D4.]
;B[eq];W[qn];B[nq];W[rp];B[ql]C[* What did you want to accomplish with this move ? After R3 you should play at R11 and try to get asome territory on the left site.]
;W[qq];B[pq];W[qr];B[oc]C[* Is a large move but wite can now attack the stone at R8.]
;W[qj];B[pn]
(;W[qm]C[* This is a slack move. Q7 a fight will emerge but white will have the lead here.]
;B[pl];W[pm];B[qh];W[oj];B[ol];W[om];B[nl];W[ph];B[qg];W[nh]
LB[qi:B][rj:A]C[* After this move black can connect underneath by S10(A). So better at R11(B)]
;B[nm];W[ip]TR[nl][ol][pl][ql][nm]C[* Because of S10 white cannot attach the 5 stones anymore.]
;B[ho]C[* good move];W[lq];B[ko];W[hq];B[io];W[jp];B[kp];W[kq]
;B[jo];W[mp];B[no];W[mo];B[mn];W[np];B[oo];W[nr];B[dr];W[cr]
;B[er];W[bq];B[gr]C[too slow?

* Yes, this move provokes Q2, This a move where in the endgame Black might want to play.]
;W[pr];B[qo];W[ro];B[rl]LB[mj:A]TR[nh][ph][oj][qj]C[* This is too slow as well, the white stones cannot connect. 
Attack from A white will be forced to run and black can get some territory at the top.]
;W[jc]
(;B[he]C[* Play M17 (A) white K15(B) black H16 (C).];W[mc];B[on]
;W[rm];B[sm];W[rn];B[or];W[os];B[oq];W[mr];B[qi]LB[me:A]TR[nh]
[ph][oj][qj]SQ[jc][mc]C[* Is worth a few points but white has a week group at the top and on the left. Attack these groups. For example by playing at A.]
;W[hg];B[jd];W[kd];B[je];W[ke];B[jf];W[lg]C[* First J17, sente and will destroy the eye-shape.
Now missed oppertunity for black, the 2 weak groups are connected and black is now the one with a eak group.]
;B[ic];W[jb];B[jh];W[li];B[kj]C[* Better at H12 directly. The change that black makes a lot of points in the centre are low.]
;W[lj];B[kk];W[eh];B[hh]C[* You must play at E11, white 120 is too painfull.]
;W[di];B[ci]C[* If you do not intend to play the ko play C12 directly.]
;W[ch];B[bg];W[gh];B[hi];W[gk];B[hl];W[hk];B[ik];W[ij]LB[il:A]
C[how should black respond?
* Simple defend at J8 (A). White has no points in the centre and black has here app. 8 points.
Thisis much better then what happend in the game.
Later Black can also cut the stone at J10. If white connects black D18 or J18 to live.]
;B[hj];W[il];B[jk];W[hm];B[jl];W[im];B[jm]C[* Too small, O18 is the largest move. Then the game is probalby even.]
;W[nb];B[ob];W[of];B[pe];W[oe];B[od];W[nd];B[pj];W[pi];B[pk]
C[at this stage black felt the game was sewn up.  what is your opinion?

* Did you count ??
Black:
left:      10 points
Right:  32 points
Centre: 10 points
Total: 52 points. 
White:
Left:        16 points
Right:     17 points.
Top-left: 12 points
Top:        18 points 
Total: 63 points

So white is ahead by app. 10 points. 


This move is too small D18 is bigger.];W[eb];B[ea];W[db];B[fc]
;W[gd];B[gf];W[gg];B[gj];W[fk];B[fj];W[ig];B[jg];W[hr];B[hs]
;W[is];B[gs];W[jr];B[gn];W[oa];B[nc];W[mb];B[pa];W[na];B[qb]
;W[pf];B[qf];W[hd];B[id];W[gc];B[gb];W[ib];B[hb];W[ej];B[gm]
;W[gl];B[ne];W[md];B[pg];W[og];B[nj];W[ni];B[ok];W[oi];B[lk]
;W[mj];B[mk];W[ih];B[ii];W[fi];B[ki];W[bo];B[cl]C[* This move is sente for white, he should ahve played her before black could.]
;W[dm]C[* Bad move this is just filling in a ko. Better M12.]
;B[ec];W[ed];B[da];W[fa];B[ga];W[ca];B[fa];W[if]C[*Better at M12.]
;B[ie];W[ff];B[dc];W[cb];B[lh];W[mi];B[lf];W[mf];B[kf];W[mg]
;B[le];W[me];B[kc];W[kb];B[ld];W[lc]C[* Smart sequence of black. This costed white app. 12 points.]
;B[dj];W[dk];B[dh];W[ei];B[fm];W[fl];B[hp];W[gq];B[fq];W[iq]
;B[fo];W[an];B[al];W[ad];B[ch];W[lo];B[ln];W[sn];B[sl];W[af]
;B[bk];W[kd];B[mq];W[lp];B[nn];W[ag];B[ah];W[ae];B[in];W[ds]
;B[es];W[cs];B[ia];W[ja];B[ge];W[fe];B[ha];W[ao];B[am];W[gi]
;B[ji];W[qp];B[po];W[hl];B[nk];W[mh];B[kh];W[kc];B[hn];W[tt]
;B[tt]TW[aa][ba][ka][la][ma][ab][bb][lb][ac][cd][ce][ee][ne]
[nf][eg][fg][ng][fh][oh][ek][el][do][so][ap][bp][sp][aq][cq]
[jq][rq][sq][ar][br][ir][kr][lr][rr][sr][as][bs][js][ks][ls]
[ms][ns][ps][qs][rs][ss]TB[qa][ra][sa][pb][rb][sb][pc][qc][rc]
[sc][pd][rd][sd][qe][re][se][rf][sf][rg][sg][rh][sh][ai][bi]
[ri][si][aj][bj][ij][jj][qj][rj][sj][ak][qk][rk][sk][bl][kl]
[ll][ml][km][lm][mm][jn][kn][go][fp][fr][fs]C[koroku [2k\]: thx
ragkgs [3k\]: wow, surpised! tx

* Black was really behind the whole game. The difference is only 3 points because of the sequence at M12.

I think you should focus more on making territory yourself and less on destroying the moyo's/territory your opponent treatens to make.

Rg,


Bert])
(;B[lc]
(;W[je];B[he]LB[jb:A]C[* Black can allways connect at A. so his group on the left is in no real danger.]
)
(;W[hd];B[ic];W[id];B[jd]C[* This does not work for white.]
)))
(;W[pm];B[qm];W[pl]
(;B[qk];W[pk];B[rj];W[ri];B[qi];W[pj];B[rk];W[qh];B[rn];W[qo]
;B[ro];W[qp];B[sm];W[po])
(;B[pk];W[qk]C[This does not work for black.])))
(;AB[oc]
(;W[nq];B[oo]C[* white gets a mojo at the bottom but the mojo of black on the left site is larger.]
)
(;W[qn];B[qk];W[on];B[np]C[* Now whites possible mojo on the left is destroyed.]
)))
