(;FF[4]GM[1]SZ[19]AP[SGFC:1.15]

PB[Zdenek Dvorak]
BR[1d]
PW[Simon Zeckarias]
WR[1k]
KM[6.5]
DT[2007-05-21]
PC[The KGS Go Server at http://www.gokgs.com/]
RE[W+15.50]

C[Dear reviewer, thanks for commenting this game. This game was played @ KGS as a Iwamoto cup round 1 game. I won this game but I was a bit desperate after about 50 moves, which I feel should not happen:). Pls comment anything you find interesting, I wrote several comments to explain what I was thinking.]
;B[qd];W[dc];B[pq];W[oc];B[cp];W[po];B[qm];W[on];B[np];W[qq]
;B[qr];W[qp];B[or];W[pl];B[qk];W[pj];B[pk];W[ok];B[oj]C[This cut is not joseki, but the situation can get complicated.]
;W[qj]
(;B[ql]
(;W[ol];B[rj];W[ri];B[rk];W[ph];B[ro];W[pf]C[probably better q15 just to press black down?

--> I agree, but the fight should be good for white.]
(;B[od]C[Maybe extending first the cutting stone as in the variation would help black in the fight later.]
;W[pd];B[pe];W[pc];B[oe]
(;W[qc]C[Now I was afraid to cut @ r15.

--> I've looked at some variations and even if it can get complicated I think that white can keep the fight under control and get the upper hand.]
;B[ng];W[of]C[reading mistake:)

--> But this is usually a bad move, the first mistake is to consider it and waste time reading what happens !!]
;B[nf];W[qe];B[qf];W[oh]
(;B[re];W[nj];B[nc];W[nb];B[mc];W[mb];B[lc];W[rc]C[Too slow, white's already alive, something in the left side is bigger.]
;B[de];W[ce]C[Too easy for black, maybe a long pincer would be better.]
;B[cf];W[cd];B[df];W[fc];B[dj]C[Black is clearly ahead now.]
;W[eq];B[gq]C[I was thinking black looks better on board, so I wanted to start a fight and use my stones on right .. somehow

--> Black should be able to keep things under control though ...]
;W[do];B[dp];W[ep];B[eo]
(;W[co];B[bo]
(;W[bn]C[Usually to sacrifice is a good idea, the variation is from a game of Kobayashi Koichi, it could be applied here, I think.]
;B[bp];W[dm]
(;B[fp];W[gr];B[hr];W[fr]
(;B[fo]C[Connecting the other cut seems better.];W[cr];B[br]
;W[dr]
(;B[es]C[Unreasonable !!];W[bs];B[cn];W[dn];B[cm];W[dl];B[bm]
;W[bq]C[Now white lives bigger and the black stone is a gift.]

(;B[ck]C[Too slow, I think black must take the initiative in the outside, this gives white the chance.]
;W[hq]C[I was confident about d6 group

--> confident or not, this cut is white only chance I think.]

(;B[fm]C[Maybe the variation is better];W[ek];B[gk];W[ej];B[di]
;W[gj];B[hk];W[iq]C[This is the kill me or lose move:)];B[ii]
;W[fl];B[hm];W[gl];B[in];W[em];B[gm];W[fh];B[ei];W[fj];B[gf]
;W[ff];B[fe];W[ij];B[hj];W[hi];B[hl];W[hh];B[fi];W[gi];B[jq]
;W[ir]
(;B[gg];W[ig];B[ji];W[ie];B[jf]C[Not sure whether this peep is a mistake or not.]
;W[if];B[hd];W[jg];B[kh];W[jc]C[Now it was kind of difficult.

--> I think black can get much more from this]
(;B[gc];W[fd]
(;B[ed];W[ge]
(;B[ec];W[ee]C[Leting white capture here seems bad, but the fight is certainly very complex.]
;B[eb];W[db];B[dd];W[bc];B[cb];W[bb];B[be];W[bd];B[bf];W[ca]
;B[fb];W[fg]C[Now I'm very happy, winning position I think (for W)

--> Let's count:

White has about 40 points in the board, and no prospects of big improves.
Black has about 35, but can get more points in several places: lower side, center and upper center, and has the initiative now. I Think that black can win with a good yose here. I prefer black position.]
;B[qi]C[This is not so big.];W[pi];B[qh];W[qg];B[rh];W[rg];B[si]
;W[jk]C[Dangerous, as the white stones at the right now have no eyes.]

(;B[jj]C[Bad, see variation];W[lj];B[kk];W[kg]C[reading mistake again:)

--> Not a bad move though.];B[lh];W[lg];B[mh]
(;W[lq]C[Risky, I would play from center.]
(;B[kq]C[Wrong direction I think. I would label it the losing move.]
;W[nh];B[mg];W[lr];B[js];W[lp]C[Now white prospects are better !!]
;B[jo];W[ko];B[ip];W[no];B[mo];W[mp]C[couldn't black p4 first?

--> P4 seems gote, when to play it?];B[mn];W[nq];B[op];W[oq]
;B[pp];W[pr];B[ps];W[oo];B[pr];W[qo];B[nr];W[ln];B[rr];W[lk]
C[Now white takes the lead.];B[kl];W[ll];B[ke];W[lb];B[kc];W[he]
C[This move was black privilege, and could be important.];B[ic]
;W[je];B[kf];W[kd];B[ld];W[jd]C[Probably nothing interesting from here on.

--> At least an 8 points present from black, that accounts for half of your winning margin.]
;B[lf];W[kb];B[ib];W[jb];B[pm];W[om];B[rn];W[km];B[jm];W[dg]
;B[cg];W[dh];B[ch];W[cl];B[bl];W[dk];B[cj];W[hp];B[ho];W[gp]
;B[fq];W[go];B[gn]C[oops !!!];W[fn];B[hs];W[gs];B[is];W[en]
;B[ks];W[rq];B[mq];W[sg];B[sh];W[kj];B[jl];W[kn];B[mi];W[ni]
;B[mj];W[mk];B[rd];W[sd];B[se];W[sc];B[ja];W[ls];B[jp];W[ka]
;B[ia];W[gd];B[hc];W[ap];B[ao];W[aq];B[cq];W[ar];B[sr];W[sp]
;B[ad];W[ac];B[ae];W[mr];B[nq];W[ea];B[fa];W[da];B[jn];W[ef]
;B[eh];W[eg];B[kp];W[lo];B[qn];W[fk];B[so];W[ns];B[qe];W[pg]
;B[kr];W[lm];B[an];W[dq];B[tt];W[tt])
(;B[nn]C[Just one variation ...];W[nm];B[mn]
(;W[jp];B[pm];W[om];B[kp];W[kq];B[jo];W[ip];B[mk]C[Can white make 2 eyes ?]
;W[nh];B[mg])
(;W[qn]C[Bad push];B[rn];W[pm];B[qo])
(;W[pm];B[qn];W[pn];B[kq];W[ls]C[But there's always a monkey jump, so not much here.]

(;B[ml]C[Again, how to make 2 eyes ?];W[nh];B[mg];W[nl];B[mk]
;W[nk]C[Alive !])
(;B[mk];W[nh];B[mg]
(;W[nl];B[mj])
(;W[mi];B[nk];W[nl];B[oi];W[lk];B[ml];W[mm];B[ll];W[lm];B[km]
;W[ln];B[lp])))))
(;W[mo]))
(;B[kk]))
(;B[ee];W[gd];B[ec]C[Maybe this way black would have come out better.]
;W[eb];B[fb];W[he];B[db];W[cb];B[ea];W[bc];B[hc];W[fg];B[kg]
;W[kf];B[ke];W[je];B[kd];W[ic]
(;B[lb];W[hb];B[gb];W[kb];B[ma];W[ia];B[ob])
(;B[kb];W[kc];B[lb]
(;W[lf];B[me])
(;W[le];B[ld];W[lg];B[lh];W[me];B[ne];W[mg];B[mh];W[nh];B[lf]
))))
(;B[ge]C[This way making 2 eyes or connecting would be much more complicated, and at least, instead of 2 black dead stones there could be 2 wihte dead stones ... more than 10 points difference !!]
))
(;B[id];W[jd];B[je];W[kg];B[lf];W[lg];B[le];W[mh];B[lb];W[hb]
;B[gb];W[gc];B[ib];W[hc];B[ic]))
(;B[ih];W[hf];B[he];W[gg];B[ge];W[ig];B[jg];W[jf];B[kg];W[kf]
;B[lg];W[ie];B[jd];W[id];B[gc]C[difficult to stop white ...]
))
(;B[hp];W[iq];B[ip]C[Is this sente ? that's a big question.]

(;W[jq];B[fk]
(;W[ek];B[fj]C[I don't see white going out, but can be complicated]
)
(;W[fl];B[gl];W[gm];B[hm];W[gk];B[hl];W[ek];B[fj];W[ej];B[ei]
;W[fi];B[gj];W[di];B[eh];W[cj]
(;B[dk];W[cl];B[el];W[bl];B[an];W[al];B[am];W[ap];B[bk];W[aq]
C[black dies])
(;B[bk];W[dk];B[fm]C[White seems dead.])))
(;W[gl];B[ir];W[jq];B[jr];W[jp];B[kr];W[io];B[hn];W[ho];B[gn]
;W[gp];B[fq];W[im];B[er];W[ds];B[dq]
(;W[jl];B[hl];W[hk];B[fl];W[fk];B[gm];W[gk];B[ek];W[ih]C[Difficult yose ahead, but black seems slightly ahead ...]
)
(;W[il];B[fl];W[fk];B[ek];W[fm];B[el];W[gm];B[gj]C[More or less the same]
))))
(;B[fk];W[bl];B[cl];W[ck];B[an];W[dk];B[ej];W[bj];B[ap]
(;W[ch];B[eh])
(;W[bh];B[bg])))
(;B[bs];W[cq];B[bq];W[es]
(;B[el]
(;W[dl];B[ek];W[ao];B[ap];W[ar];B[bm];W[cn];B[an]
(;W[bl];B[cm];W[dn];B[cl];W[ck];B[am];W[bk];B[dk]C[Just enough.]
)
(;W[bk];B[cm];W[dn];B[cl]
(;W[ck];B[dk])
(;W[dk];B[ck]))
(;W[cm];B[bl];W[bk];B[ck]))
(;W[bl];B[ao];W[dl];B[ek];W[cj];B[ci];W[bj];B[iq]C[I think that black's better like this.]
))
(;B[ao])))
(;B[hq];W[fo];B[en];W[cr];B[br];W[dr];B[bs];W[cq];B[bq]C[no problem for black I  think]
))
(;B[fo]C[I think this is better, I can not see a good follow up for white.]

(;W[cl];B[dr])
(;W[cr];B[br];W[dr];B[bs];W[cq];B[bq]
(;W[ao];B[ap];W[ar];B[cn];W[dn];B[cm];W[bm];B[cl];W[bl];B[dl]
;W[em];B[bk])
(;W[cl];B[ao];W[gr]
(;B[hr];W[fr];B[iq];W[es];B[bk]C[Black ought to be able to make a lot of points chasing white.]
)
(;B[fr]C[This can be risky, but I think black can control it and win.]
;W[fq];B[hr];W[gp];B[hq];W[go];B[fm];W[fp]
(;B[gn]C[Good shape but ....];W[io];B[jp];W[jo];B[kp];W[ek]
;B[hn];W[ip];B[iq];W[gk])
(;B[fk]C[Seems better, no risk for black this way.];W[cj];B[ci]
;W[bi];B[di];W[bk];B[io]))))))
(;W[bp];B[bq];W[ap];B[dn];W[cn];B[bn];W[cm];B[cq];W[bm];B[aq]
;W[fo];B[en];W[fm];B[fn];W[gn];B[go];W[em];B[fp];W[dm];B[fo]
C[But en the 1999-09-02 game Kobayashi now had a better attack on the left side and won.
Still can be a good chance.]))
(;W[fo];B[en];W[gp]C[Now black has a number of choices ...]
))
(;B[nj];W[rd];B[nh]C[Not sure about this possibility ....]))
(;W[qe];B[qf];W[re];B[rf];W[rd];B[pg];W[of];B[og];W[nf]
(;B[oi];W[oh];B[pi];W[qi]
(;B[qh]C[This looks like black's mistake.];W[nh]
(;B[rh];W[nj];B[si];W[ni]C[This seems good for white.])
(;B[ng];W[mg];B[qg];W[mh];B[rh];W[nj]C[Good for white too.]
))
(;B[nh];W[qh];B[ng]
(;W[qg]C[White can not cut.];B[rg];W[ni];B[nj])
(;W[ni];B[nj];W[mi]
(;B[qg];W[sh];B[sg];W[mj];B[rh];W[rg];B[mf];W[ne];B[rh];W[nk]
;B[si]C[Black gets to break white, but still I prefer white.]
)
(;B[mj];W[lj]
(;B[li];W[mh];B[mg];W[lh];B[lg];W[kh];B[me];W[lk]C[White gets the better part: black still has only one eye.]
)
(;B[nl];W[ml];B[li];W[mh];B[lk];W[kj]
(;B[mf];W[mk])
(;B[nm];W[nk];B[mk];W[ll];B[om];W[kk];B[pm];W[mf]C[Absurd.]
)
(;B[mk]
(;W[nm];B[kk];W[jj];B[lm];W[mg];B[dj]C[Better for black ? The white stones still have some aji, but if black seals them, white gets the left side move ...]
)
(;W[mg];B[mm];W[hj]C[Better for white, I think.])))))))
(;B[oh];W[oi];B[qi];W[pi];B[qh];W[ni]C[Even if black can break through it seems good for white.]
;B[nh];W[mi];B[mh];W[lh])))
(;B[nj];W[ll];B[od]))
(;W[nk]C[May be ...]))
(;B[ol];W[nk];B[pm];W[nl];B[om];W[nm];B[nn];W[mn];B[no];W[rk]
;B[ql];W[qg]C[Even with the big corner this has to be bad for black.]
))
