(;FF[4]GM[1]SZ[19]ST[2]CA[UTF-8]AP[SGFC:1.15]VW[]

PB[Ykuro]
BR[6k]
PW[quantumf]
WR[6k]
KM[6.5]
DT[2007-06-03]
PC[The KGS Go Server at http://www.gokgs.com/]
RE[W+Resign]
TM[900]
OT[25/1200 Canadian]
RU[Japanese]

C[A very close game from the recent Iwamoto tournament on KGS. Both players are 6k (KGS), I am white. I felt I made some overplays (that weren't always punished sufficiently), so some guidance on more suitable moves would be great. Also, I felt I made some errors in judgement on the right direction of play. Obviously any gross tactical blunders would be good to know about too.

thanks
Chris];B[pd];W[qp]C[quantumf [6k\]: enjoy the game
Ykuro [6k\]: thanks, you too];B[dp];W[dd];B[op];W[mq];B[qo]
;W[pp];B[po];W[oq];B[oo];W[np]C[until now everything seems ordinary]
;B[mn];W[qi];B[qg]
(;W[oi]C[At this point i think white should exxtend instead of jumping in the center since there is suficient space]
;B[pk];W[rk];B[rl];W[qk];B[ql];W[pj];B[ok];W[ph];B[fc];W[cf]
;B[jd];W[db];B[dj];W[fq];B[hp];W[fo];B[dn];W[dr];B[cq]
(;W[jp];B[jo];W[io]C[This seems like an overplay, although I got away with it.
To me  the black move of K5  looks more liek an overplay or an attemt to trick the opponent
the way you responded was  a bit risky  but   by no means  wrong .  Fighting move]
;B[ip]
(;W[in];B[kp];W[jq]LB[jn:A][kq:B]
(;B[jn];W[kq];B[hn];W[im];B[ho];W[fm];B[hm];W[jm];B[gl];W[kn]
C[Don't think I have a choice. I now have reasonable central influence, but a precarious group on the bottom left.
yes   the bottom left   stones are under severe attack];B[fl]
C[b choose to play safe and  seel you in]
(;W[gr]C[I thought I read this out correctly, but when black played H2 I changed my mind. But perhaps it is still connected

H2 would be better option hre since w would connect];B[hr]LB[hq:B]
[cr:A]
(;W[cr];B[br];W[dq];B[cp];W[ep];B[gq];W[fr]LB[cs:B][es:A]
(;B[es]C[This is a mistake];W[er];B[eo];W[en];B[do];W[el]C[Not sure about this sequence, There is a distinct danger of a shortage of liberties, this could go very wrong. On the other hand, I'm aiming for multiple goals - keep his black left group isolated, and chase the H2 group.

your group is alive now and  its ok since this move works for now as long as you keep it in mind. The group is already surunded so you re not wasting any potential  due to bad shape or anything]
;B[ek];W[dl];B[dm];W[em];B[cl]C[D9 would be a mistake.
I think D9 is playable]
(;W[jf]C[Attempt to neutralize black's growing central influence, and a ladder block. But the plan is very ambitious.
Yes abitious indeed but that dosent make it  neccesary bad

to be honest i personaly have no clue what isbetter to play here.
personnaly i would  invade the corner at upper right  but i not sure it is better  than  the move you choose.]
;B[fe]
(;W[fk]C[I think  you  was abit early to cut here
 maybe strenthen your position at the top first]
(;B[fj]C[i];W[gk];B[hk];W[gj];B[hj];W[gi];B[hi];W[gh];B[eh]
LB[hh:B][jj:A]C[at this point  things look grim for white]
(;W[jj]C[An overplay];B[hh];W[gg];B[hg];W[eg];B[gf];W[ff];B[fg]
C[Didn't see this one coming];W[fh];B[ef];W[ei]LB[hf:A][dh:B]
C[At this point  if black extends at b  whites only option is to play the ko ( see  the variations to the end  )]

(;B[hf]C[Hard to read out, perhaps the safe option is the right move, but black missed a chance to win the game here I think. See variations.]
;W[ck];B[fg];W[dh];B[jh];W[cm]C[A potentially game losing move. I read out that this was sente for white, but it seems black's group is alive in sente, not gote. A lot of territory is secured on the left, but black gets free moves to secure a lot of territory on the top.]
;B[cn];W[bm];B[bn];W[bl];B[lg]LB[jb:A][qc:B]
(;W[jb]C[A crazy option? R17 is better? The variation suggests that it is 
yes R17 looks    better];B[lc];W[ga]C[Does a double monkey jump ever work? This game certainly suggests not.]
;B[qc]LB[nf:A][of:B]
(;W[nf]C[a shocker. P14 is a simple and safe reducing move.
Indeed];B[og];W[ng];B[nh];W[pg];B[of];W[oh];B[mh];W[pe];B[pf]
;W[qf];B[oe];W[qe]C[Why did I think this would work...];B[rg]
C[Simple descent tesuji];W[rh];B[dg];W[eh];B[df];W[cg];B[ch]
C[this almost worked for black, but I read it out.];W[bh];B[ci]
;W[ej]C[still now black can invade or w can shoose to play f14 ko , still black will risk only 3 srones to loose while w loss would be very big]

(;B[re];W[de];B[rf]C[sente I think, black R12 kills.
It seems so yes]
(;W[qh]LB[rj:B][sj:A]
(;B[sj];W[rj];B[rp];W[rq]LB[bi:A][ro:C][qq:B]C[at the bottom  right corner b can choose a ko   witch is big for both sides(black can loose  greatly also)]

(;B[bi];W[dk];B[ko];W[lo];B[bg];W[bf];B[ah]LB[bd:B][bj:A]C[yes maybe reinforcing the top is a good idea to avoid complications . although  it cant die yet i think and you could also tenuki, can  end in a   wierd situation with   steped ko for black to win though.]

(;W[bj]C[This is a mistake. Black cannot get a 2nd eye here, I should instead be reinforcing the top]
;B[bd];W[ce];B[dc];W[cc];B[ec];W[cb];B[cd];W[be];B[sh];W[sk]
;B[gb];W[ea];B[ha];W[fa];B[hb]C[I counted that I was at least 15 points behind here, some great yose will be needed.]
;W[ro]C[very big move];B[rn];W[sp];B[js];W[ks];B[kk];W[il];B[hl]
;W[jk];B[km];W[ln];B[kl];W[lm];B[mm]C[black group seems in danger yes]

(;W[ap]C[I had been aiming for this group for some time, and now that the B8 stones were settled it was time.]
;B[bo]C[Black was able to see the correct answer];W[ml];B[ll]
C[All helping me to reduce, even if it doesn't quite capture the L8 stones]
;W[mk];B[mo];W[lp];B[lj];W[kj];B[lk];W[nj];B[mj];W[nk];B[om]
;W[sn];B[rm];W[no];B[nn];W[pm];B[nl];W[li];B[mi];W[kh];B[kg]
;W[bs];B[ar];W[ir];B[is];W[jr];B[hs];W[gs];B[hq];W[si];B[go]
;W[fp];B[mp];W[nq];B[am];W[al];B[ji]C[Unfortunately for black, this is a disaster. If not for this, its a half point game.]
;W[ao];B[an];W[bq];B[ki]C[Ykuro [6k\]: the game is over];W[sg]
;B[bc];W[bb];B[eb]C[quantumf [6k\]: yes
quantumf [6k\]: it is a pity about the mistake];W[ee];B[ff]
;W[ad];B[ed];W[ac];B[fb];W[da];B[sf];W[sh];B[ij];W[sl];B[sm]
;W[so];B[qn];W[oj];B[pl];W[ik];B[aj];W[tt]C[Ykuro [6k\]: thanks
quantumf [6k\]: thanks
quantumf [6k\]: very close i think until the end
quantumf [6k\]: you were maybe 2 or 3 ahead?])
(;W[bo]
(;B[bp];W[an];B[ap]
(;W[ao];B[bs])
(;W[bs];B[ao];W[ar];B[aq]C[flower ko  for white]))
(;B[ao];W[bs]
(;B[bp];W[ar];B[aq];W[bq])
(;B[aq];W[bp]))))
(;W[bd]C[This is much better];B[bj];W[aj];B[ak];W[bk])
(;W[fb])
(;W[hb];B[bd];W[ce];B[cc];W[dc];B[af];W[ae];B[be];W[bb]
(;B[cb];W[ca];B[bc]
(;W[fb];B[bj];W[aj];B[ak];W[bk])
(;W[ba];B[ab];W[ac];B[ad];W[da];B[bj];W[aj];B[ak];W[bk];B[ai]
;W[aa];B[ae];W[cd];B[ag];W[al];B[fb];W[fa];B[ea];W[eb];B[ec]
;W[cj];B[ee];W[di];B[ed];W[ea];B[gb];W[ha];B[hc];W[ib];B[kb]
;W[aj];B[jc];W[ac];B[ak];W[ab];B[ic];W[aj]))
(;B[bc];W[cb];B[fa];W[fb];B[eb];W[ea];B[ec];W[ac];B[ad];W[ab]
;B[ae];W[cd];B[ag];W[bj];B[ee];W[cj];B[ed])))
(;B[qq]C[Is there a follow up move after S3 for black? This isn't it...]
;W[pq]
(;B[sq];W[rr];B[ro])
(;B[rr];W[qr];B[sq];W[ro];B[qq]C[black can  choose this ko  wich is big for both]
))
(;B[ro];W[bi];B[qq];W[pq];B[sq]
(;W[qr];B[rr])
(;W[rr];B[sr];W[qr])))
(;B[rj];W[sj];B[si];W[sk];B[sl];W[qj];B[sh];W[ri];B[sg]))
(;W[rj]C[better shape i think];B[qh];W[oj];B[sh];W[ri]))
(;B[ce];W[de];B[bg];W[bf];B[bi];W[ag];B[dk]
(;W[cj];B[di];W[ff];B[ee];W[bj])
(;W[bj])))
(;W[of];B[pf];W[pg];B[qf];W[ng];B[oe];W[ne];B[nd];W[me]C[etc]
))
(;W[qc];B[pc];W[qd];B[qe];W[pb];B[ob];W[qb];B[nc];W[re];B[rf]
;W[sd];B[og];W[ro];B[rn];W[rp];B[eb]))
(;B[dh]LB[ge:A][ej:B]
(;W[ge];B[fg];W[fi];B[dg];W[ej];B[dk])
(;W[ej];B[dk];W[dg];B[fg];W[fi];B[ff];W[di];B[ch];W[ci];B[bi]
;W[cj];B[ck];W[bj]
(;B[bk])
(;B[bh]C[thi];W[bk];B[bl];W[bg]
(;B[ak];W[aj])
(;B[aj];W[ak];B[al];W[ai];B[ah];W[cg];B[aj]C[black gets the first step of a huge ko]
)))))
(;W[hh]C[Perhaps turning is safer? It's sente, and the splitting attack is still possible.

black has  a severe attack on the G12 group]
(;B[jj]C[J12 is still a danger, however.])
(;B[ih];W[ig];B[hg];W[ii];B[jh];W[ij])))
(;B[gj];W[ej];B[dk];W[fj];B[gk];W[eh];B[gi];W[fh];B[hg];W[di]
;B[kg]C[Something like this doesnt look good for white]))
(;W[hf];B[hd];W[ii];B[fj];W[pc]))
(;W[ck]
(;B[dk];W[cj]
(;B[ci]
(;W[bl];B[cm];W[bi];B[bh];W[di];B[ch];W[fk];B[ej];W[fj];B[ei]
;W[fi];B[eh];W[hj])
(;W[bi]
(;B[bh];W[ch];B[di];W[bg];B[bj];W[ah];B[bk])
(;B[bj]
(;W[bl])
(;W[bk];B[bh];W[aj]
(;B[di])
(;B[dh];W[cm])))))
(;B[fn];W[gn];B[gm];W[fn];B[go])
(;B[go];W[fp];B[fn];W[gn];B[gm];W[fn]))
(;B[cj];W[bk];B[dk])))
(;B[cs]C[Death in the hane...]
(;W[er];B[gs];W[fs];B[ds])
(;W[gp];B[hq];W[en]
(;B[dm];W[go])
(;B[go];W[dm];B[cn]C[maybe a chance for w to escape];W[cm];B[bl]
;W[bm];B[bn];W[ck];B[cj];W[bk];B[bj];W[cl]))))
(;W[hq]C[this doesnt look good for white since b can get a flower ko]
;B[iq];W[ir];B[gq];W[hs]LB[hq:A][fr:B]
(;B[hq];W[fs]C[Connected];B[jr];W[is];B[js];W[gs])
(;B[fr]C[Black can try a ko, with little to lose];W[hq];B[pq]
;W[qq];B[hr]C[etc]))
(;W[ir];B[hs];W[hq];B[iq];W[gq];B[jr];W[gs];B[is];W[cr];B[br]
;W[dq];B[cp];W[er]
(;B[ep];W[fs]C[w can live like this])
(;B[cs];W[ep])))
(;W[hr]
(;B[gr]
(;W[gq];B[ir];W[hq];B[iq];W[fr]C[you can live like this])
(;W[hq];B[gq];W[gp]C[better still to stay connected]))
(;B[ir];W[iq];B[gr];W[hq];B[gq];W[gp])))
(;B[kq]C[This is hard to cope with];W[ir]C[Does this work? I don't think so
I think it works :)]
(;B[lr]LB[kr:B][mr:A]
(;W[mr];B[jr];W[iq];B[hr];W[js];B[kr];W[hs];B[hq];W[is];B[gs]
)
(;W[kr];B[lq];W[mr];B[ks];W[gr];B[jn]C[Feels like a bad result for white.
well it is a realy complicated situation , if you look at the variation i made when  w plays H5 instead of J6  and  b pushes  at L3   w keeps his two groups  connected at least so  its better . still a complicated situation]
))
(;B[kr];W[hr])))
(;W[ho]
(;B[gp];W[fp]
(;B[go];W[gn];B[hn];W[in];B[fn];W[hm];B[jq];W[kp];B[kq];W[lq]
;B[gr];W[gq];B[hq];W[hr];B[iq];W[fr])
(;B[kp];W[jq];B[kq];W[iq];B[hq];W[hr];B[gr];W[gq])
(;B[jq];W[kp];B[kq]
(;W[lq]C[this is the wrong way to play];B[lp];W[ko];B[jn];W[go]
;B[lo];W[kn];B[km]C[like this w looses])
(;W[lp]
(;B[go];W[gn])
(;B[gr];W[gq];B[hq];W[ir];B[hr];W[fr];B[lr];W[mr]
(;B[jr];W[go])
(;B[go];W[gn];B[hn];W[in];B[fn];W[hm];B[jr];W[en];B[fm];W[em]
;B[fl];W[eo];B[cm];W[el];B[fk];W[cl];B[bl];W[ck];B[cj]
(;W[bk];B[bm];W[bi])
(;W[ek];B[ej];W[fj];B[gj];W[fi];B[gk];W[bk];B[bm];W[bi]C[something like this doesnt seem  bad for w since b is split in two. although i  there may be  many more variations.]
))))))
(;B[kp];W[jq];B[kq];W[ko];B[jn];W[ir]
(;B[lo];W[kr])
(;B[kr];W[lo]
(;B[mo];W[lp])
(;B[lp];W[mo])))))
(;W[hr]C[safer this way])
(;W[fn])
(;W[fm];B[dl];W[jp]C[Like this a fight will start but black has already gained   a lot o points in  the left side]
))
(;W[ql]C[something like this  would be better to settle the white group, furthermore you threaten to  cut at P6]
;B[cm]C[if black plays elsewere];W[no];B[nn];W[on];B[pn];W[om]
;B[pm];W[ol];B[pl];W[pk];B[ok];W[nk];B[oj];W[nl]
(;B[pj];W[qk];B[qj];W[rj];B[rk];W[rl];B[ri];W[sk];B[rh];W[ro]
)
(;B[qk];W[pj];B[rl]C[all fights look favorable for white here]

(;W[oi])
(;W[rk];B[qm];W[rj];B[pi];W[qj];B[oi];W[qh];B[pg];W[rn]
(;B[rh])
(;B[ro];W[rp];B[sn];W[rg];B[rm];W[sl];B[rf];W[rh];B[si];W[sp]
;B[sg];W[sh];B[sf];W[so];B[qn];W[sk];B[sm])))))
