(;FF[4]GM[1]SZ[19]ST[2]CA[UTF-8]AP[SGFC:1.15]

PB[Aestuans]
BR[7k]
PW[Jorner]
WR[7k]
KM[6.5]
DT[2007-05-13]
PC[The KGS Go Server at http://www.gokgs.com/]
RE[W+22.50]
TM[1800]
OT[5x30 byo-yomi]
RU[Japanese]

C[Hi, my name is Johanna Tuominen, I'm finnish 2 kyu (EGF).
I added some comments... Hope they help.];B[pd];W[dp];B[qp]
;W[cc];B[fq];W[hq];B[fo];W[cn];B[dr];W[cq];B[ip]C[JT: You were probably aiming to play this Joseki. See the variation.]

(;W[jq]C[JT: An interesting play would be to play in J3 because White did not play according to Joseki.]

(;B[hp];W[jp]C[JT: Black stone in J3 would be also possible. See the variation.]

(;B[nq];W[gq];B[gp];W[fr];B[eq];W[nr]C[JT: Strange move from white. Then after a while I think the idea is to have stones around N3, N4 which would remove the huge aji that black has in the J3.]

(;B[pj]LB[mq:A][oq:B]C[Here I was unsure whether I should tenuki or not. Maybe N2 or P2 instead?

JT: The tenuki is OK, I would play the N2 because of the aji in J3 as shown in the previous variations.]
;W[oq];B[pq];W[pr];B[op];W[or];B[qr];W[mq];B[np];W[mp];B[mo]
;W[pm];B[nm]C[Is this the right approach?

JT: Yes.];W[po];B[pp];W[qk];B[pk];W[ql];B[qj];W[rj];B[ri];W[sk]
C[JT: Black can close the whites group in sente. Otherwise white gets into serioue trouble, maybe even get killed. Directly black cannot kill the group by playing S6 or something.]

(;B[qh]C[JT: This move is too small... White cannot do much of a damage. See variations from move 42.]
;W[rn];B[dd]C[I was aiming for moyo here since I had so much influence.]
;W[nc]C[But he tenukied. Perhaps pincer here?];B[nd];W[qc]
(;B[qd];W[pc];B[md];W[mc];B[ld];W[lc];B[cd];W[dc];B[ec];W[eb]
;B[fc];W[fb];B[gc];W[bd];B[be];W[bc];B[cf];W[fe];B[ee];W[fg]
C[This was a bit hasty. Probably a very bad move.

JT:]
(;B[gf];W[gg];B[hf];W[hg];B[ff];W[ol]C[He spotted a hole. Best wa to respond?

JT: This is OK.];B[mk];W[nk];B[nj];W[mj];B[oj];W[lj];B[ng];W[lg]
;B[lk];W[kj]
(;B[di]LB[cj:A][dj:C][ck:B]C[JT: You could jump more. For instance to A,B or C]
;W[ck];B[cj];W[bj]LB[bi:B][dk:A]TR[di][cj]C[A or B. I chose B, but I think I chose wrong here.

JT: yes the A would be better. Because if the stones in the lower side would get into trouble you would have possibility to connect them into the marked stones as well.]

(;B[bi];W[dj];B[ci];W[ej];B[el];W[dk];B[jg];W[ij];B[kf];W[ig]
;B[if];W[mg];B[nf];W[jl];B[hl];W[gk];B[gl];W[hk];B[jn];W[lo]
;B[ln];W[mn];B[no];W[mm];B[lp];W[ko];B[lq];W[mr];B[lr];W[kr]
;B[nl];W[ok];B[om];W[pl];B[lm];W[kn];B[ro];W[qo];B[so];W[sn]
;B[rq];W[km];B[ll];W[cr]TR[cn]C[Maybe I should attack the marked stone somehow. F5 group is weak now.

JT: The marked stone is quite strong because of its surroundings, perhaps to reduce the lower left corner and to get eye shape for black.]

(;B[ji];W[jj];B[kc];W[kb];B[jc];W[jb];B[ib];W[rd];B[re];W[rc]
;B[qf];W[dg];B[cg];W[df];B[bk];W[bl];B[im];W[ep];B[fp];W[fm]
;B[gm];W[em];B[fl];W[dl];B[gn];W[in];B[io];W[er];B[hn];W[jo]
;B[dq];W[jm];B[cs];W[bs]
(;B[cp];W[do]C[Didn't work. But I might as well try...]
(;B[bq];W[br];B[dn];W[dm];B[co];W[en];B[bn];W[bm];B[bp];W[ds]
;B[hr];W[gr];B[iq];W[ir];B[ao];W[aq];B[ar];W[hs];B[ap];W[es]
;B[eg];W[eh];B[ef];W[dh];B[fi];W[ei];B[fk];W[fj];B[jk];W[kk]
;B[il];W[ik];B[pn];W[qn];B[oo];W[gb];B[hb];W[ak];B[ih];W[hi]
;B[hh];W[gh];B[mh];W[lh];B[mi];W[li];B[oc];W[ob];B[od];W[lb]
;B[ps];W[ls];B[os];W[kq];B[rl];W[rm];B[si];W[rk];B[ii];W[gi]
;B[mf];W[lf];B[le];W[de];B[ce];W[ai];B[bh];W[ah];B[ag];W[aj]
;B[ad];W[ac];B[ae];W[ch];B[bg];W[in];B[eo];W[dn];B[ns];W[kp]
;B[ga];W[da];B[fa];W[ba];B[ja];W[ha];B[ia];W[ea];B[ha];W[ka]
;B[on];W[kg];B[jh];W[se];B[sf];W[sd];B[jn];W[kl];B[ml];W[in]
;B[al];W[bk];B[jn];W[ms];B[qs];W[in];B[as];W[aq];B[jn];W[kd]
;B[id];W[in];B[cb];W[bb];B[jn];W[ic];B[hc];W[in];B[ca];W[db]
;B[jn];W[jf];B[je];W[in];B[nb];W[mb];B[jn];W[na];B[in];W[tt]
;B[tt]TW[aa][ca][la][ma][oa][pa][qa][ra][sa][ab][cb][nb][pb]
[qb][rb][sb][sc][fh][fi][gj][hj][jk][al][cl][rl][sl][am][cm]
[qm][sm][an][bn][ao][bo][co][ap][bp][cp][lp][bq][lq][ar][hr]
[jr][lr][as][cs][fs][gs][is][js][ks]TB[ic][ed][fd][gd][hd][jd]
[kd][fe][ge][he][ie][ke][me][ne][oe][pe][qe][af][bf][of][pf]
[rf][og][pg][qg][rg][sg][nh][oh][ph][rh][sh][ni][oi][pi][qi]
[hm][mm][mn][nn][go][ho][rp][sp][qq][sq][rr][sr][rs][ss]C[There you have it. Please review.]
)
(;B[ds]C[JT: If black connects.]
(;W[ar]C[JT: And white protects which is mistake.];B[bq];W[br]
;B[bp]C[JT: Black gets the corner.])
(;W[br];B[bp];W[bq];B[aq];W[bo];B[ar]C[JT: This also won't work for white.]
)
(;W[bp];B[br];W[bq];B[as]C[JT: White has to play like this and black gets something.]
)))
(;B[ds]C[JT: Just connect.];W[br]
(;B[cp];W[bp];B[co];W[do]C[JT: This won't work for black.])
(;B[do];W[co];B[eo];W[cp];B[iq];W[ir];B[es];W[gr];B[fs];W[gs]
C[JT: Nice end game for black.])))
(;B[er]C[JT: Probably sente, now white don't connect under neath so easily.]
;W[gr];B[ep]C[JT: the F4 is eye, white can't play E5.];W[eo]
;B[do];W[en];B[dn];W[em];B[dm];W[dl];B[fm]))
(;B[dk]
(;W[ci];B[dj];W[cl];B[bi])
(;W[cl];B[bi])))
(;B[ck]TR[ch][dh][ci][di]C[JT: If white wants to play into the marked area. Black can connect to the stones on the lower side or other way around.]
))
(;B[kj]C[JT: What if black plays something like this.]))
(;B[pc]C[JT: Black can also block here. See the continuation.]
;W[qd];B[pe];W[pb];B[ob];W[qb];B[oc];W[qf];B[dc];W[cd];B[ce]
;W[be];B[cf];W[db];B[eb];W[cb];B[fc];W[bf];B[cg]C[JT: Nice moyo for black.]
))
(;B[rm]C[JT: If black starts to kill immediately, then white can use to S12 to come out.]

(;W[rh];B[si];W[qi];B[qh];W[pi];B[rg];W[ph];B[qg];W[ol];B[ok]
;W[nk];B[nj])
(;W[rn];B[qn];W[qm];B[ro])
(;W[qm];B[rn]))
(;B[nk]LB[rh:A][si:B]C[JT: Let us assume that black closes white in from O9. Now white much do eyes or come out. The best effort for white is to play A which black protected by move 43. However it does not work.

The worst thing that white can do is to play to B which is a end game. So black S12 was slow play.]

(;W[si];B[rh];W[sh];B[sg])
(;W[rh];B[si];W[qi];B[qh];W[pi];B[rg]C[JT: Of course it is good to be careful with these kind of moves because when it actually works it is much points especially during the end game.]
))
(;B[rn];W[rm];B[qn];W[rl];B[sm];W[rh];B[si];W[qi];B[qh];W[pi]
;B[rg];W[ph];B[qg];W[ol]))
(;B[mr]C[JT: Because of the J3 I would let white to live in the corner.]
;W[or];B[mp];W[pq];B[pp];W[qq];B[rq];W[rr];B[rp];W[sr];B[ir]
;W[iq];B[jr]
(;W[kr];B[kq];W[lq];B[kp];W[lp];B[ko];W[mq];B[lr];W[lo];B[np]
;W[jo];B[kn]C[JT: Not good for white.])
(;W[kq];B[kr];W[lq];B[mq];W[lr];B[ls]))
(;B[or];W[mr];B[oq];W[mq];B[qj]C[JT: Black gets the corner]
)
(;B[iq]C[JT: If black pushes.];W[ir];B[hr]
(;W[gr];B[jr];W[hs];B[kr]C[JT: white cannot prevent black to escape.]

(;W[mq];B[lq]
(;W[mp];B[lp];W[lo];B[jo])
(;W[lr];B[ls];W[mr];B[lp]))
(;W[lq];B[lr];W[mr];B[kq];W[kp];B[lp];W[lo];B[mq]))
(;W[jr];B[gr])))
(;B[iq];W[ir];B[jr];W[kr];B[hr];W[js];B[nq]))
(;B[iq];W[ir];B[jr]
(;W[kr];B[hr];W[js];B[gr]
(;W[op]
(;B[pn];W[qq];B[rq];W[pq];B[rp]
(;W[mq];B[qi])
(;W[qf];B[qi];W[of];B[nd]C[JT: Not bad result for black because white area at lower right corner is open for attack. The best attack would M3.]
))
(;B[oq]
(;W[nq];B[pq];W[np];B[qn]TR[np][op][jq][nq][ir][kr][js]C[JT:  This would be excellent result for black. White marked stones are over concentrated, that is, lot of stones but very little area.]
)
(;W[pq]C[JT: So probably White may start fighting...];B[pp]
;W[pr];B[np];W[oo];B[mq];W[rq];B[rp];W[sr];B[qm])))
(;W[oq];B[pn];W[qq];B[rq];W[qr];B[rp];W[qi];B[qk];W[qf];B[nc]
;W[rd];B[qc]))
(;W[hr];B[kq])))
(;W[iq];B[jp];W[hp];B[ho];W[jq];B[kp];W[lq];B[mo]C[JT: This would be OK result for black.]
))
