(;FF[4]GM[1]SZ[19]ST[2]CA[UTF-8]AP[SGFC:1.15]

PB[necodzawa]
BR[24k]
PW[Gimli510]
WR[23k]
KM[6.5]
DT[2007-07-02]
PC[The KGS Go Server at http://www.gokgs.com/]
RE[W+39.50]
TM[1800]
OT[5x30 byo-yomi]
RU[Japanese]
US[Antoine Imboden]

C[Hello, I'm only 23kyu so there are some obivous mistakes me and my opponent made but I think this game might be a good example for how to live in a corner and opponent territory invasion. However, I'm sure both could be done way better so this is why I would like to have this game reviewed.]
;B[cp];W[qd]C[necodzawa [24k?\]: hi)];B[qp]C[Gimli510 [23k\]: hi]
;W[dc];B[jp];W[jd];B[qj];W[cj]LB[ak:1][bk:2][ck:3][dk:4]C[Maybe to defensive/passive fuseki? Would D10 be better?

I don't think this fuseki is too passive. Black (B) and White (W) have spread their stones evenly over the board, which is the aim of fuseki.
Of course, this spread does not mean W will get the top half of the board. B can easily play in the top half. (But that is OK. W can also easily play in the bottom half.)

C10 and D10 serve the same purpose, so it is only a matter of style. 

[The next part may be a little harder to understand. Don't worry if it doesn't help you a great deal now, it's just for your information. :-)\]
C10 is on the 3rd line. The 3rd line is perfect for making territory. D10 is on the 4th line. The 4th line is good for making influence. Depending on what results you want, you can play C10 or D10. Here, territory moves or influence moves are equally as good. However, as you get stronger, you will notice that 3rd line will be better in some circumstances, and vice versa.]
;B[cl];W[dl];B[cm]C[D8 is weak. It lacks liberties and must be strengthened if it is to be useful to W. For stones to be strong, they must have sufficient liberties. D8 must connect to C10 to support itself. (By connecting, you have more liberties and more strength.)]

(;W[ck]C[This move would be better placed at D9. See the alternate path.]
;B[dk];W[ek];B[dj];W[di];B[el]C[Obvious];W[ej];B[dm];W[dk];B[gl]
;W[fl];B[em];W[fm];B[fn];W[gk];B[gm];W[fk];B[hk];W[hj];B[ik]
;W[ij];B[jj];W[jk];B[jl];W[kk];B[kj];W[lk];B[lj];W[mj];B[mi]
;W[li];B[lh];W[ki]C[Gimli510: very bad move... this black shape is going to annoy me until the end of the game and it's even worse since it's in the middle of the board.]
;B[ji]
(;W[jh];B[kh];W[oi];B[ph];W[pf];B[oh];W[ni];B[nh];W[nj];B[mk]
;W[ml];B[nk];W[nl];B[ok];W[pk];B[pj];W[pn];B[pl];W[op];B[oq]
;W[pq];B[qq];W[nq];B[pp];W[or];B[pr];W[qr];B[oq];W[ol];B[oj]
;W[pq];B[qs];W[ps]CR[ml][nl][ol]SQ[lq][mq][oq][lr][pr][rr]C[Squared area: this is a rough outline of your base. It can easily live. If you wished to save "o"-stones, you can now.]
;B[rs];W[rr];B[sr];W[sq];B[rq];W[ss];B[sp];W[sr];B[qn];W[qm]
;B[ql];W[rn];B[qo];W[ro];B[rm];W[pm];B[so];W[po];B[ll];W[rp]
;B[lq];W[rl];B[sm];W[qk]C[You saved the stones with the help of your base. Good job.]
;B[rj];W[sl];B[rk];W[mo];B[lo];W[ln];B[kn];W[lm];B[kl];W[ko]
;B[lp];W[km];B[jn];W[jm];B[im];W[mp];B[qg];W[qf];B[rf];W[re]
;B[rh];W[sf];B[rg];W[sg];B[sh]SQ[me][ne][jg][hh][ih]C[Hum, that B group in the centre looking like trouble. 
A good way to minimize its spread is to make a "barrier" that is not directly touching B. That is, to sacrifice some of your potential territory to save the rest.

Squares: some good places to play to block B.]
(;W[se];B[jg];W[ih];B[of];W[me];B[mf];W[nf];B[ne];W[oe];B[ng]
;W[nd];B[nf];W[le];B[lf];W[kf];B[jf];W[je];B[kg];W[ke];B[hh]
;W[ig];B[if];W[hg];B[gg];W[hf];B[he];W[gf];B[fh];W[fg];B[hc]

(;W[hd];B[id];W[gd];B[jc];W[ib];B[ic];W[kb];B[jb]
(;W[ge];B[ie];W[gh];B[ia];W[gc];B[gb];W[fb];B[fa];W[ea];B[ga]
;W[ec];B[ka];W[lb];B[mb];W[la];B[ja];W[nb];B[kc];W[lc];B[ld]
;W[md];B[kd];W[mc];B[od];W[pe];B[oc];W[ob];B[pb];W[pc];B[na]
;W[oa];B[qc];W[pd];B[pa];W[ma];B[rc];W[rb];B[ra];W[sc];B[sb]
;W[sa];B[qb];W[qa];B[pg];W[rd];B[eq];W[lr];B[kr];W[ks];B[jr]
;W[js];B[is];W[ls];B[bk]
(;W[bj];B[aj]
(;W[ai];B[ak];W[mr];B[sk];W[ql];B[ii];W[hi];B[bi];W[bh];B[ah]

(;W[ci];B[ai];W[ag];B[bg];W[bf];B[af];W[ae];B[ag];W[cg];B[be]
;W[ch];B[ad];W[cf];B[cd];W[bc];B[cc];W[dd];B[cb];W[db];B[ca]
;W[da];B[ce];W[de];B[ir];W[cq]C[this invasion is late. B can kill it easily after doing a few Life and Death problems.]

(;B[bq];W[dq];B[dp];W[br]
(;B[cr];W[dr];B[ds];W[cs];B[es];W[bp];B[as];W[aq];B[bo];W[ao]
;B[an];W[ap];B[cn];W[er];B[fr];W[fs];B[fp];W[gr];B[fq];W[hr]
;B[hs];W[gs];B[hq];W[es];B[gq];W[tt];B[tt]TW[na][pa][ra][eb]
[mb][pb][qb][sb][fc][nc][oc][qc][rc][ed][fd][od][sd][ee][fe]
[qe][df][ef][ff][dg][eg][gg][dh][eh][fh][hh][ei][fi][gi][dj]
[fj][gj][pl][mm][nm][om][rm][sm][mn][nn][on][qn][sn][no][oo]
[qo][so][np][pp][qp][sp][bq][oq][qq][rq][ar][cr][nr][pr][as]
[bs][ds][ms][ns][os][qs][rs]TB[aa][ba][ha][ab][bb][hb][ib][ac]
[bc][bd][ae][lg][mg][og][mh][qh][ki][li][ni][oi][pi][qi][ri]
[si][mj][nj][sj][jk][kk][lk][al][bl][hl][il][am][bm][hm][bn]
[dn][en][gn][hn][in][co][do][eo][fo][go][ho][io][jo][ko][ep]
[gp][hp][ip][kp][iq][jq][kq]C[Thanks!

Summary:
1. make sure your stones can either connect, or make life by itself.

2. when blocking your opponent, step back and make a barrier so your opponent cannot spread far.

3. Be careful on line 1. See the examples of the tricky things that can happen.

It was an enjoyable game to review, and i hope i have made useful comments that will benefit you in your future games.]
)
(;B[dr];W[cr];B[er];W[bp];B[aq];W[ap]C[Another way to live.]
))
(;B[dq]C[D3 is the key for W's death.]
(;W[bp];B[bq];W[cr];B[bo];W[ap];B[ao];W[aq];B[ar])
(;W[bq];B[bp];W[dr];B[er]
(;W[cs];B[br];W[ar];B[bs])
(;W[br];B[ds];W[cr];B[cs];W[bs];B[aq];W[es];B[ds];W[cs];B[fs]
))))
(;W[bg];B[ag];W[af];B[ai];W[bf];B[ci];W[ch];B[bl]))
(;W[bl]C[A handy trick. B can't escape.]
(;B[bm];W[ak])
(;B[ak];W[ai];B[al];W[am])))
(;W[ir])
(;W[mq]C[Don't make this move. Can you see why? :-D];B[mr];W[ms]
;B[ns])
(;W[mr]C[This is the way to save M2.]))
(;W[ie]C[Cut B. your groups are safe. Now B must make 2 eyes. W has the advantage in that area.]
))
(;W[ie]C[Cut B.]))
(;W[me]C[Simple and effective.])
(;W[hh]))
(;W[kh];B[kg];W[jh]C[if B tries to ladder, B will be caught in a ladder.]

(;B[ih];W[ii])
(;B[ii]
(;W[mh]C[Double cut.];B[ni];W[lg]LB[kh:1][lk:2]C[1 has been set free.
2 is in trouble. When stones are in trouble like Group2, it is OK to leave them alone at this stage. There are plenty of moves that will benefit you more than saving Group2. If you really must save them, create a base (a place that can easily make 2 eyes.) for the troubled group to run to.]
)
(;W[ih];B[hi];W[gj];B[hh]LB[lg:2][mh:1]C[1 and 2 are places you can cut and bring W to safety.]
))))
(;W[dk]LB[dj:B][ck:A]C[It looks as if you 'lose' a few points of territory, but are not. The safety of D8 reaps more profit for you. It makes you form a stronger group. (always a good thing =D)

If Black tries to cut at A, you can connect at B. If Black tries to cut at B, you can connect at A. Moreover, Black at B (at D10) will suffer, as it is a weak stone next to a strong group.]
))
