(;FF[4]GM[1]SZ[19]ST[2]CA[UTF-8]AP[SGFC:1.15]

PB[TheKid]
BR[6k]
PW[sishi]
WR[5k]
KM[0.5]
DT[2007-06-27]
PC[The KGS Go Server at http://www.gokgs.com/]
RE[W+1.50]
TM[1800]
OT[5x30 byo-yomi]
RU[Japanese]

C[Hello GTL, I have added some comments to the game the are in the format.
TheKid: <comment>

Regards,
Ramon];B[pd];W[dd];B[pp];W[cp];B[ep];W[dn];B[cq];W[bq];B[dq]
;W[bo];B[hq]C[TheKid: I really struggle with this move, H3.  I feel it to be too slow, but I'm trying to play solid and patiently.  Was there anything else I could do?

Joseki is j3 instead of h3, but I think there's nothing wrong with h3, it's not as fast as h3 but more solid. Anyway, I don't think there's an alternative than playing an extension on the lower side, as a white pincer there would be really disagreeable.]
;W[nc];B[lc];W[qc];B[pc];W[qd];B[pe];W[pb];B[ob];W[qb];B[oc]
;W[qf]LB[fd:A][og:B]C[TheKid: I really want to play at A, but I think I needed B first.

Yes, it's a miai situation. I would also play B first.];B[og]
;W[qg];B[fd]C[as long as w answers as he did everything's fine as you can now play f16. And if he didn't you have a strong move at r13 which grants great influence to the lower side.]
;W[jc]
(;B[kd];W[gc]C[I don't like g17, I would prefer h16];B[fc]C[this looks good for you]
;W[gd]
(;B[ge]C[the cut is dangerous];W[ie];B[df]C[your basic idea is the same, but still the cut looks dangerous]
;W[cf];B[cg];W[ce];B[ef];W[bg];B[ch];W[bh]
(;B[cc];W[dc];B[db];W[eb];B[bb];W[da];B[cb];W[ec];B[fb];W[bd]
;B[ga];W[ea];B[hc];W[hd];B[hb];W[he];B[gf];W[hf];B[kf];W[ih]
;B[gh];W[kc];B[lb];W[jd];B[ke];W[ci]C[very big point for both players. W has a lot of forcing moves  and bad shape can't be avoided]
;B[di];W[dj];B[hg];W[ig];B[ei];W[ej]
(;B[fj];W[fi];B[eh];W[gi];B[fk];W[fh]C[TheKid: I did not see F12, but even so I think I got an OK result.]
;B[fg];W[dg];B[cj];W[dh];B[eg];W[ck];B[hi];W[nq];B[gj];W[qn]
;B[oo];W[kq];B[pl]C[Is this correct?  I'm trying a leaning attack, but don't know if Q8 is too far.]
;W[ii];B[jf];W[if]
(;B[ij];W[ki]C[TheKid: This part of the game is where I have the most trouble.  I know that I need to continue the attack on the white group, J11, but don't know how.  What will I get out from this attack?  How should I continue attacking, form which side, etc?

Here are my thoughts.  I think that from this attack I can get a good position to reduce the left side.  Also, I can get an attack on the lower two stones.  However, I need to make sure my upper group do not die.

Any suggestions on how to improve my attacking skills are greatly welcomed.

I think by attacking the lower stones later you won't gain very much. because, 3-3 is still open.]
;B[jj];W[lh];B[ji];W[jh];B[kg];W[kh];B[mg];W[lk]C[TheKid: At this point my two groups are alive, I'm satisfied, but how do I continue?

The problem is, with this direct attack you didn't gain much in this game because white has positions on the right as well as on the bottom, so there was no possibility to gain territory by attacking.]

(;B[ql];W[qq]
(;B[oq]C[p3 leaves bad aji on p2. I would prefer q3];W[qp];B[pr]
;W[pj];B[ro];W[qo];B[rn];W[on];B[pn];W[qm];B[pm];W[rm];B[rl]
;W[rp];B[qr];W[rr];B[np];W[mq];B[nn];W[nl];B[nm];W[ol];B[om]
;W[ml]C[Now I need to attack the lower group.  While all my groups are alive, I do know I'm falling behind on territory.

yes, the bottom right didn't go very well for you. w has his group settled, but you didnt gain much influence for attacking]
;B[qi];W[pi];B[dk];W[bj];B[ek];W[cj]
(;B[cl]C[this looks like aji-keshi];W[bl];B[cm];W[fn];B[eo]
;W[en];B[cn];W[do];B[co]C[this is bad, let's you lose sente]
;W[dp];B[eq];W[br];B[cr];W[gp];B[go];W[fo];B[fp];W[hp];B[gq]
;W[ip];B[hn];W[hm];B[in];W[gm];B[bn];W[gn];B[ho];W[dl];B[jp]
C[very good move. of course w must not stay away, his whole bottom group is now in danger]

(;W[iq];B[jq];W[ir];B[jr];W[gr];B[hr];W[hs];B[fq];W[is];B[js]
;W[gs];B[fr];W[jo];B[io];W[im];B[jn];W[jm];B[kn];W[ln];B[lo]
;W[km];B[ko];W[mn];B[el]C[so you are back in the game. I will end my commentary now, I hope I could give you some new ideas.]
;W[dm];B[ph];W[qh];B[qj];W[pk];B[oi];W[ok];B[mi];W[mh];B[nh]
;W[kj];B[pf];W[pg];B[oh];W[qk];B[qe];W[re];B[rf]C[TheKid: Miss read on my part.]
;W[rg];B[pa];W[rd];B[qa];W[ra];B[oa];W[rb];B[sm];W[so];B[rk]
;W[ri];B[sl];W[sn];B[nr];W[po];B[mo];W[rj];B[rs];W[sr];B[de]
;W[cd];B[lg];W[kb];B[ka];W[ja];B[la];W[hk];B[hj];W[cs];B[ds]
;W[bs];B[ia];W[fa];B[gb];W[jb];B[je];W[id];B[jl];W[ik];B[jk]
;W[il];B[kl];W[mm];B[ll];W[mj];B[lm];W[li];B[ni];W[kk];B[gl]
;W[ib];B[fm];W[em];B[fl];W[an];B[ed];W[hh];B[gg];W[pq];B[op]
;W[ss];B[qs];W[nj];B[ha];W[sj];B[hl];W[bm];B[nf];W[tt];B[tt]
TW[aa][ba][ca][sa][ab][bb][cb][db][sb][ac][bc][cc][rc][sc][ad]
[sd][ae][be][se][af][bf][rf][sf][ag][cg][sg][ah][ch][rh][sh]
[ai][bi][qi][si][aj][lj][qj][ak][bk][mk][nk][al][cl][am][cm]
[bn][cn][rn][ao][co][ro][ap][bp][sp][aq][rq][sq][ar][as]TB[ma]
[na][mb][nb][mc][nc][ld][md][nd][od][ee][fe][le][me][ne][oe]
[ff][lf][mf][of][ng][fh][fi][gi][on][jo][no][gp][hp][ip][kp]
[lp][mp][iq][kq][lq][mq][nq][dr][er][gr][ir][kr][lr][mr][or]
[es][fs][gs][hs][is][ks][ls][ms][ns][os][ps])
(;W[lo]C[at least he must now save these stones]))
(;B[ri]TR[re][sf]C[playing here looks big to me, it leaves bad aji for w at s15 in combination with the monkeys jump, and w has to take care of his center group, though it's not in acute danger.]
)
(;B[jp]C[for some territory you could play here];W[jq];B[ip]
;W[lo];B[fn]))
(;B[pq];W[qp];B[qr];W[rr];B[pr];W[rm];B[rl];W[ro]
(;B[mr]C[maybe like this?])
(;B[mp]C[or again attack from above to have possibilities against the center group. and the w bottom group still ist open at the bottom.]
;W[mq];B[kp];W[lp];B[lo];W[lq];B[ko]C[hard for w to defend both groups]
)))
(;B[lm]C[if you want to keep on the attack you may try here. there are still chances white will die, but it's not very likely. but anyway, w has to answer, so I thin this is better than playing tenuki. you can still attack r6 when you gained some more strength.]
;W[oj];B[qj];W[pi];B[qq]))
(;B[mp]C[This might be another tactic: at this point of time white is likely to defend at n3.]
;W[mq];B[kp];W[lp];B[lo];W[lq];B[ko]C[now you gained some outside strength and atacking the middle group would be easier. There are chances, that w will even die, but if not you should gain territory either to the right or at the lower half of the board.
There are too many possiblities now to play out.]))
(;B[fi]C[this looks saver and the forcing sequence has come to an end. but the result you got was surely ok.]
))
(;B[fb]TR[hb][cc]C[for attacking I would start here. This makes miai of an attack on either side]
))
(;B[fe]C[this is better. if w defends the g17 group you have a strong attack at d14 or c14. If he defends there you may attack at j15]

(;W[hf]
(;B[df])
(;B[cf]))
(;W[df];B[ie];W[ge];B[gf])))
(;B[je]C[I would prefer a lighter play like this if I answer k17 directly. l16 forces w to attack f16 or to make k17 stronger at k16.]
))
