(;FF[4]GM[1]SZ[19]ST[2]CA[UTF-8]AP[SGFC:1.15]

GN[Quacktapus-bennyg273]
PB[bennyg273]
BR[12k]
PW[Quacktapus]
WR[7k]
KM[0.5]
DT[2007-06-25]
PC[The KGS Go Server at http://www.gokgs.com/]
RE[W+50.50]
TM[1800]
OT[5x30 byo-yomi]
RU[Japanese]

C[Hi Benny,

I am NannyOgg on KGS, I play at AGA 1d level. If you have any questions about things I didn't cover, feel free to contact me on kgs.]
;B[pp];W[pd];B[cp];W[cc];B[ep];W[cj];B[qf];W[nc];B[rd];W[qc]
;B[qi];W[ed];B[jp];W[ph];B[qh];W[pf]
(;B[qe]C[Mistake];W[pe];B[qm];W[qq];B[pq];W[qp];B[qo];W[ro]
;B[rn];W[po];B[qn];W[pr]
(;B[oo]C[big mistake];W[oq];B[op];W[or];B[nq];W[nr];B[mq];W[cm]
;B[mr];W[dq];B[dp];W[cq];B[eq];W[bp];B[bo];W[bq];B[co];W[er]
;B[fr];W[es];B[fs];W[cr];B[fq];W[em]
(;B[fn]LB[fn:A]C[A feels too small];W[fm];B[gm];W[ei]C[you are helping W to solidify the left side

This makes invasion harder];B[ic]C[good, come in.];W[kc];B[fc]
;W[gc]
(;B[gd];W[hc];B[hd];W[ib]
(;B[fd];W[id]
(;B[db];W[cb];B[gb];W[hb]
(;B[eb];W[ee];B[ie];W[jd];B[fe];W[ff];B[gf];W[ef];B[hf];W[jf]
;B[if];W[jg];B[hh];W[om];B[pn];W[mm]
(;B[ln]C[Slightly passive];W[mn];B[lm];W[lo]
(;B[mo];W[ll];B[ko];W[km];B[kn];W[kl];B[pi];W[oh];B[oi];W[ni]
;B[ol];W[nl];B[ok];W[nj];B[nk];W[mk];B[ji];W[ih];B[ii];W[hi]
;B[gh];W[hj];B[ik];W[ij];B[jj];W[jk];B[hk];W[gj];B[jl];W[kk]
;B[jm];W[ki]
(;B[hm];W[rc];B[eh];W[dh];B[eg];W[dg];B[fi];W[ej];B[ga];W[jh]
;B[al];W[bl];B[am];W[ak]
(;B[bk]C[Big mistake.

 Review the sequence I show and play it on real board a couple of times if you have real board and stones]
;W[an];B[aj];W[bm];B[ak];W[ao];B[bn];W[ap];B[ck];W[dk];B[bh]
;W[bi];B[rp];W[rq];B[so];W[rs];B[cf];W[ai];B[df];W[cd];B[dd]
;W[de];B[ce];W[dc];B[ec];W[be];B[bf];W[bd];B[ch];W[ci];B[ca]
;W[ba];B[bb];W[da];B[fg];W[dd];B[ae];W[ab];B[je];W[ke];B[ns]
;W[ps];B[sr];W[sq];B[ha];W[ia];B[ea];W[ca];B[dn];W[dm];B[en]
;W[qg];B[rg];W[pg];B[rh];W[oj];B[pj];W[pl];B[pk];W[pm];B[ql]
;W[nm];B[lp];W[qd];B[re];W[sd];B[se];W[sc];B[gk];W[fk];B[fj]
;W[kj];B[fl];W[ek];B[el];W[dl];B[gl];W[gi];B[fh];W[sp];B[ro]
;W[hg];B[gg];W[ig];B[nn];W[rr];B[on];W[ml];B[ms];TW[aa][ja]
[ka][la][ma][na][oa][pa][qa][ra][sa][bb][jb][kb][lb][mb][nb]
[ob][pb][qb][rb][sb][ac][bc][ic][jc][lc][mc][oc][pc][ad][kd]
[ld][md][nd][od][ae][ce][le][me][ne][oe][af][bf][cf][df][kf]
[lf][mf][nf][of][ag][bg][cg][kg][lg][mg][ng][og][ah][bh][ch]
[kh][lh][mh][nh][di][ii][ji][li][mi][aj][bj][dj][jj][lj][mj]
[ak][bk][ck][lk][al][cl][am][aq][ar][br][dr][qr][sr][as][bs]
[cs][ds][qs][ss]TB[fa][fb][ge][he][rf][sf][sg][sh][ri][si][qj]
[rj][sj][qk][rk][sk][hl][il][rl][sl][im][rm][sm][gn][hn][in]
[jn][sn][do][eo][fo][go][ho][io][jo][lo][no][po][fp][gp][hp]
[ip][kp][mp][np][gq][hq][iq][jq][kq][lq][gr][hr][ir][jr][kr]
[lr][gs][hs][is][js][ks][ls]C[I hope the comments helped. Look through the review again and try to understand why the mistakes are mistakes. 

If you have any questions, let me know

If you don't know about shygost, AGA 6d lectures yet, check out the information on http://senseis.xmp.net/?Shygost . The audio lectures are every Friday night. 

Read through the haengma tutorial at http://senseis.xmp.net/?HaengMaTutorialForBeginners It will help your game. 

Good luck in your quest for getting better at go :)])
(;B[bn];W[bm];B[an];W[bk]C[one of the normal continuations of monkey jump]
;B[fj];W[gk];B[fk];W[ek];B[rp]C[this is big now
 But B hard to catch up]))
(;B[gk]C[more active])
(;B[rc]C[this is starting to get big
17.5 points]))
(;B[ml]C[i would like to counter hane]))
(;B[nl]C[what about peep from this direction? make W heavy]
))
(;B[ee]C[still]))
(;B[ee]C[I would like to supress that stone and get out. 

Run before living]))
(;B[hb];W[gb];B[jb];W[ha];B[jc];W[fb];B[kd]))
(;B[fd]C[i would like to cut through the knights move. This feels like good fight for B]
))
(;B[ic]C[Feels like B needs to come in. I would choose this location]
))
(;B[or];W[qr];B[nq];W[rp];B[oo]C[This is the joseki, W is shut into th corner, B has outside thickness]
))
(;B[pg]C[This is shape. Don't miss the bump. It introduces cutting point in your opponents shape.]
;W[og];B[qg];W[pe];B[oh]C[possible continuation]))
