(;FF[4]GM[1]SZ[19]AP[SGFC:1.13b]

GN[StephenG-dauby(B) IGS]
PB[dauby]
BR[17k*]
PW[StephenG]
WR[15k]
KM[0.5]
DT[1998-05-18]
PC[IGS: igs.nuri.net 6969]
RE[W+5.5]
TM[60]
US[Brought to you by IGS]

;B[pd];W[pp];B[dc];W[dp];B[jd];W[cj];B[qn];W[nq];B[rp]C[A small point, but with 1 and 5 high, black should probably going for a moyo with 9bQ10.  White should not reply to 9 at the 33 point: it is rather small, unless white is very hemmed in and needs life.  The 2, 8, 10 combination is overconcentrated, and black has very good distribution.]
;W[qq];B[qk]
(;W[iq]C[Poor.  In a moyo competition, black has the advantage - it is his go next.  This is too low. How about variation, which is big, and retains sente.  A shimari is normally bigger than the sides, unless one is adopting a moyo strategy.]
;B[cn]LB[ce:a][de:b]C[Shimari at B would be best in my opinion.  shimari is normally bigger, and played before a kakari, especially against a 4,4 point.]
;W[co];B[dn];W[cf]
(;B[eo]LB[ep:a]C[A is better. (Var'n)];W[ep];B[qf]LB[nd:a]C[Interesting idea.  Another play locally (bottom left) would be one's first thought.  I think A would be better, facing the wider extension.]
;W[dl];B[fo]LB[go:a]C[Slow.  I would play A.];W[gp]C[Good.]
;B[fp]LB[fq:a]C[Bad.  This can be done later; white should reply at A.  But the exchange is bad for black at this stage because the black group is very weak, and this reduces liberties.]
;W[gq]LB[fq:a]C[A];B[fq];W[eq];B[go]LB[fr:a][cq:b]C[Why not keep going, to stop the white connection at A.  black A, then, if white plays a move on the outside, black B looks good.]
;W[jo];B[gr];W[hr];B[em]LB[er:a][bl:b][bo:c][fl:d]C[Slow.  15 and 17 are linked.  Black needs to stabilise.  A - D all look better to me.]
;W[el];B[cl];W[ck];B[bl];W[bn]C[Good, big, and eye-stealing.]
;B[bm];W[bo];B[fl];W[dm];B[cm]LB[fk:a]C[A first would be better.  White cannot cut or he gets captured.  Black is trying to get out into the centre.]
;W[fk]C[Key point for both sides.];B[gl];W[gk];B[hl];W[gc]LB[ij:a]
C[Three good moves by w.  Correct not to keep persuing black close to black 45 etc, so that he gets very strong, although A looks a useful point]
;B[fb];W[mc];B[kb];W[pb];B[qc];W[qb];B[nd];W[pc];B[rc];W[od]
;B[pe]C[Should atari.];W[oe];B[md];W[nc]C[w got away with a lot here.]
;B[lc];W[ne];B[me];W[mf];B[of];W[nf];B[og];W[ke];B[kd];W[lf]
;B[hc];W[gb];B[hb];W[fc];B[eb];W[ga];B[ha];W[hd];B[id];W[he]
;B[mb];W[nb];B[bd];W[cd];B[cc];W[be];B[dd];W[ce];B[bc]LB[ee:a]
C[A is big for both sides for the next couple of moves.];W[ld]
C[small now it does not affect the life of the black group.]
;B[fd];W[gd]LB[fe:a]C[A first better: black cannot cut.];B[fe]
;W[ie]C[Now 93 rubbishes that potential w territory.];B[ni]
;W[je]C[looks slow since black cannot push and cut at the moment.]

(;B[jc]LB[on:a]C[Black should tenuki.  There must be bigger moves, e.g. A]
;W[pj];B[ok];W[pk];B[pl];W[ql];B[qj];W[ol];B[pm];W[oj];B[nk]
;W[nj];B[pi];W[mj];B[oi];W[nl];B[ho];W[fr]C[big.];B[er];W[gs]
;B[do];W[cq];B[hk];W[gi];B[hj];W[fg];B[gj];W[fj];B[fi];W[ej]
;B[ef];W[eg];B[dg];W[df];B[cg];W[ee];B[ff];W[bg];B[ei];W[dj]
;B[dh];W[ed];B[gg];W[gf];B[fh];W[ge];B[hi];W[ch];B[di];W[ci]
;B[oo];W[po];B[pn];W[mk];B[nn];W[ln];B[mo];W[lo];B[mp];W[lq]
;B[mm];W[lm];B[kj];W[ll];B[in];W[jj];B[ji];W[jk];B[li];W[mi]
;B[lh];W[nh];B[mh];W[oh];B[ph];W[ng];B[jl];W[kk];B[qi]C[Should see this is not necessary.

Last comment.];W[ii];B[ih];W[ij];B[kh];W[hg];B[hh];W[ig];B[jg]
;W[jf];B[kg];W[ca];B[da];W[bb];B[cb];W[ba];B[fa];W[ad];B[ab]
;W[ae];B[ai];W[aj];B[bj];W[bi];B[ak];W[ah];B[aj];W[bk];B[al]
;W[jn];B[jm];W[io];B[rq];W[rr];B[qp];W[qr];B[op];W[oq];B[mq]
;W[mr];B[lp];W[kq];B[kp];W[jp];B[rb];W[ra];B[na];W[oa];B[ma]
;W[ja];B[ka];W[ib];B[ic];W[km];B[ik];W[hp];B[hm];W[om];B[on]
;W[mn];B[nm];W[ml];B[qo];W[pq];B[kl];W[lk];B[gh];W[ko];B[np]
;W[an];B[sr];W[rs];B[lj];W[am];B[ac];W[de];B[sb];W[ss];B[sq]
;W[qa];B[tt];W[tt];B[tt])
(;B[tt]C[Not p];W[ma]
(;B[lb];W[jb]
(;B[ib];W[ja];B[jc];W[ka])
(;B[ja];W[ic]))
(;B[jb];W[lb];B[kc])))
(;B[ep]C[There must be loads of variations, but bearing in mind that w played here first, and has stones at 6 and 12, black cannot go too far wrong.]

(;W[eo];B[do];W[fp];B[eq]
(;W[fq];B[dq]C[Captures corner.])
(;W[dq];B[fq];W[gp];B[gq]
(;W[hq];B[fo];W[en];B[fn];W[em];B[hp];W[go];B[ho];W[gn];B[fm]
;W[el];B[gm])
(;W[hp];B[dr];W[cr];B[er];W[bq];B[hr];W[ir];B[cp];W[cq];B[bo]
C[I think Black is going to win the corner.])))
(;W[do];B[eo];W[en];B[dq]C[Black is going to do well here.]
)))
(;W[de];B[ce];W[cf];B[cd];W[df]C[6 is already there.];B[fc]

(;W[jp]C[possible, or, given the width of 1-11, (var'n).])
(;W[qf](;B[qh];W[nd]LB[qc:a][nc:b]C[or A or B.])(;B[qe];W[pf];B[nd]
;W[qi]))))
