(;FF[4]GM[1]SZ[19]ST[1]AP[SGFC:1.15]

PB[hongmao]
BR[1k]
HA[2]
PW[tanoshi]
WR[2d]
KM[0.5]
DT[2007-07-27]
PC[The KGS Go Server at http://www.gokgs.com/]
RE[B+6.50]
TM[60]

AB[dp][pd]C[Hi!  I played this game on KGS with a two-stone handicap.  I am Black.

Please do the review for both sides - we had interesting discussion after the game, but I neglected to save our review.  I will try to remember as much as possible.

Thanks!

Kyle

Comments marked with Az: (from my screen name online)];W[qp]
;B[dd];W[fq];B[cn];W[kq]
(;B[op]C[I played this move, planning on playing the avalanche if White played P3, but now I think I should have played Q10 or another move on the side to play on a bigger scale.

Az: The avalanche doesn't make sense if W has a stone at L3, the normal would continuation is shown in the variation. As for what is best, it depends on what kind of game you want to play. If you are going to take a star point, I would prefere K16 over Q10, though either is probably playable.]

(;W[nc]C[Az: I think W should answer in the LR corner to attack your weak stone, tenuki seems an inconsistent strategy for white.]

(;B[qo]TR[kq]C[I wanted to see what White would do in response in order to consider how to respond to O17 - maybe taking the corner is better.

Az: Playing this way your influence is limited by the marked stone. I would prefere to take the corner, after which white has two weak groups (see var)]
;W[ro];B[po];W[rn];B[qq];W[rp];B[pp]LB[pq:A]C[Should be at A

Az: Yup];W[rq];B[pr]
(;W[qk]LB[pm:A]C[W atari first, then play R9?

Az: Yes :) Moves like R2 are very important forcing moves, even if you leave them. After the atari W can play R9 or 'a'. Either way the result is really bad for black.]
;B[qf]
(;W[mq]C[Az: W must atari first];B[rr]C[I was happy with this - B still has Q11 with R8 as a big followup]
;W[fc];B[jc]LB[jd:A]C[Az: For a handicap game I think 'a' might be better since it is significantly harder for W to counter attack against the higher pincer. For an even game this is fine.]
;W[df];B[ee]LB[fd:A]C[Az: A strange move, this is usually bad for black once W takes the corner. I can understand reluctance to play 'a', but it is still probably better]
;W[cc];B[dc];W[cd];B[gd]C[I made a mistake here - should be C18

Az: C18 is a must, but even then the result looks promising for white.]
;W[db];B[eb];W[cb];B[ec];W[ef];B[iq]LB[pb:A]C[Is this too early?

Az: I think so, 'a' looks big since not only does it take profit but it threatens to take enough profit in this part of the board that W can't ignore it for long.]
;W[dr];B[cq];W[fo]TR[dr][cq]C[Az: Dubious exchange for W, he looses the option of invading the corner later without gaining much eyespace.]
;B[io];W[ln];B[im];W[fm]
(;B[qi]C[Both my opponent and I agreed it should be on the left side, to attack the W stones

Az: D9 is the right shape, allowing W to get around you with C8 is nearly always bad.]
;W[cl]C[This hurt a lot.];B[en]C[I was trying to resist actively, but I endeed up strengthening my opponent too much...?]
;W[fn]C[I was trying to resist actively, but I endeed up strengthening my opponent too much...?

Az: Getting sealed in is not an option, so do what you have to do to get out here even if it is an early Christmas for white.]
;B[dl];W[ck];B[el];W[hn];B[in];W[gk]TR[cl]C[Now my stones look heavy.

Az: True. The root of the problem was letting W play the marked stone earlier.]
;B[ik];W[hj];B[ej];W[ci];B[ll]C[I was happy to get this point.]
;W[oq];B[nq]C[Asking move

Az: Only move];W[np];B[nr];W[no];B[pm]LB[qm:A][rm:B][nm:C]C[Az: This is a bit passive, not enough threat to the group on the right. I think B 'a', W 'b', B 'c' is better. see var]
;W[mr]C[I did not have time to read out the variation of killing White on the right -he could probably get out, so I went ahead and responded here.]

(;B[or]C[Too soft - killing the stones on the right works

Az: Nope, see variation];W[qm];B[lp]LB[pl:A]C[Should have taken A first?

Az: Yes];W[nm]LB[pl:A]C[Az: 'a' is still the biggest move for you]
;B[kp];W[jq];B[jp];W[pl]C[Az: Now the situation is very easy for white. Even if he gives up a stone or two he isn't in much danger.]
;B[mp];W[ir];B[lq];W[lr];B[hr];W[jr]LB[hq:A]C[Az: Mistake, should atari at 'a' first]
;B[hp];W[ks]TR[np][no][ln][nm]C[Now W is alive everywhere, and B cannot attack White's cutting stones.  How did this happen?]
;B[pb];W[hd]C[Good move];B[gc]C[I was in sudden death, and thought that W could use Black's response at H17 to create a group on the side, which I did not want, but it turns out it is harder than I expected.

Az: I don't see anything wrong with H17];W[ge];B[fe];W[he];B[ff]
;W[eh];B[cr]C[This may not have been necessary, but I am not taking any chances.  It is big regardless

Az: This is probably forced after W's last move. Your group is in a lot of danger.]
;W[hc]C[Unfortunately, I had to give this point up, which is big]
;B[fd];W[hb]C[White misread here];B[lc];W[ne];B[ke]C[W in trouble, but Black screws up later]
;W[kb];B[jb];W[lb]
(;B[mb]LB[kc:A][kg:B]C[Almost the losing move - should be at A?

Az: Absolutely. After you jump to 'B' the result will be good for you no matter which side W plays on]
;W[mc];B[nb];W[kc];B[ld];W[kd];B[le];W[jd];B[ji]C[Az: I like this move]
;W[ih];B[ii];W[hi]LB[oi:A][ol:B]C[Az: How about 'a' next? It is hard to disconnect W if he ignores a further move around J12, so it is probably no longer sente to play there. 'a' aims to capture the stones on the top on a large scale, as well as preparing the cut at 'b']

(;B[hh]C[Unnecessary now, maybe better to just take points.]
;W[oc];B[ob];W[nh]
(;B[oi]C[I think I played too fast and should have played to protect the center stones first, then cut.

Az: You must defend your group first, unfortunately it is not easy to defend and capture W at the same time]
;W[kg];B[lg]
(;W[lh]C[Az: W has some forcing moves to make first];B[nf];W[of]
;B[mf]
(;W[oh]C[Big mistake, should be P15.

Az: Actually, Q15 is better...];B[oe];W[mk];B[kh];W[ki];B[jh]
;W[ig]
(;B[li]C[Az: Small...];W[mh];B[kj];W[pi];B[ph];W[pj];B[pg]C[Black looks ahead at the start of the endgame, but not by much.  I am glad to cut off four stones at the top at least, but I think my middle game wasn't so good.  N18 and G17 may be to blame...  No more comments

Az: A few endgame mistakes, but I think I'll stop here as well.]
;W[bm];B[bn];W[rj];B[gh];W[fi];B[gi];W[fj];B[fl];W[gl];B[gj]
;W[fk];B[hk];W[ek];B[ce];W[de];B[be];W[cf];B[da];W[bd];B[om]
;W[ol];B[mm];W[nl];B[mn];W[nn];B[is];W[ms];B[if];W[hg];B[gg]
;W[hf];B[ie];W[jg];B[je];W[gb];B[fb];W[ja];B[la];W[ib];B[rh]
;W[og];B[pf];W[od];B[pe];W[an];B[ao];W[am];B[bp];W[em];B[cm]
;W[bl];B[dm];W[gq];B[hq];W[mo];B[lo];W[lk];B[kl];W[kk];B[er]
;W[jl];B[kn];W[jk];B[pn];W[eq];B[dq];W[fr];B[ds];W[jm];B[km]
;W[eo];B[dk];W[dj];B[sq];W[fg];B[gf];W[do];B[co];W[sp];B[sr]
;W[ns];B[qn];W[rm];B[hm];W[gm];B[go];W[jj];B[ij];W[ml];B[lm]
;W[gs];B[hs];W[js];B[gr];W[fs];B[kf];W[ca];B[ea];W[ri];B[fh]
;W[eg];B[gn];W[gp];B[ho];W[ep];B[dn];W[mi];B[si];W[jn];B[jo]
;W[os];B[ps];W[ga];B[sj];W[sk];B[sh];W[id];B[qh];W[qj];B[lj]
;W[mj];B[ki];W[es];B[mg];W[dr];B[cj];W[bj];B[er];W[me];B[md]
;W[dr];B[di];W[ei];B[er];W[ng];B[nd];W[dr];B[cs];W[er];B[ma]
;W[ka];B[tt];W[oo];B[pq];W[tt];B[tt]TB[ss][rs][qs][bs][as][qr]
[br][ar][oq][bq][aq][ip][cp][ap][ko][bo][ln][hn][hj][hi][sg]
[rg][qg][sf][rf][lf][se][re][qe][ne][me][sd][rd][qd][od][ed]
[sc][rc][qc][pc][oc][nc][mc][fc][sb][rb][qb][sa][ra][qa][pa]
[oa][na]TW[ls][kr][fp][so][sn][sm][sl][rl][ql][al][rk][pk][ok]
[nk][bk][ak][oj][nj][ej][cj][aj][oi][ni][di][bi][ai][dh][ch]
[bh][ah][dg][cg][bg][ag][bf][af][ce][be][ae][ad][jc][ic][bc]
[ac][jb][bb][ab][ia][ha][ba][aa])
(;B[mh]
(;W[li];B[ni])
(;W[ni];B[li]C[Az: This is better than the result in game for black]
)))
(;W[pe]C[Az: Black cannot ignore];B[qe];W[pc];B[qc];W[og]))
(;W[pe];B[qe];W[pc];B[qc];W[lh];B[nf];W[of];B[mf];W[og]C[Az: W is better prepared this way]
))
(;B[lg]
(;W[nj];B[ng];W[og];B[nf];W[of];B[oe]C[This seems possible]
)
(;W[mg];B[lh];W[nj]C[White is out?])))
(;B[lh]))
(;B[kc];W[mc];B[kg]LB[ng:B][hg:A];W[hg];B[ng];W[ob];B[pc];W[na]
;B[mb];W[ma];B[ka];W[la];B[ja];W[pe]
(;B[od];W[qe];B[oe];W[pf];B[of];W[qg])
(;B[qe];W[od];B[mf];W[me];B[md];W[le];B[ld];W[lf];B[lg];W[kf]
;B[jf];W[je];B[ie];W[kd];B[jd];W[ke];B[if];W[id];B[nd];W[oc]
;B[of];W[oe];B[pa];W[oa];B[pf]C[B wins, but who can read that out in 20 seconds?]
)))
(;B[rm]C[Az: This does not work];W[qn];B[qm];W[pn];B[on]
(;W[or]C[This looks possible])
(;W[oo];B[pq];W[om];B[nn];W[nm];B[mn];W[mm];B[mo];W[mp])))
(;B[dk]LB[ch:A]C[I like this move, putting pressure on the W stones.  This was a fast game, so I didn't see it in time.  Then A looks very big later.]
))
(;W[qr];B[pq];W[nq]))
(;W[qr];B[pq]
(;W[qk])
(;W[rr]C[W is alive, and the Black stones look useless];B[iq]
;W[ko];B[io];W[mq]C[Looks possible for B to get attacked this way]
)))
(;B[qq];W[rq];B[pq];W[ro];B[rr]LB[mq:A][on:B][sr:C]C[Az: This is incorrect, too small. Either 'a' or 'b directly. If you play this way you end in gote since W 'c' is sente.]
;W[pn];B[mq];W[ip];B[qf]))
(;W[pn];B[qq];W[rq];B[pq];W[rr];B[mq];W[nn];B[mo];W[no];B[np]
;W[lp];B[kr];W[jr];B[lr];W[jq];B[mp]C[Az: This is one of the standard patterns]
))
(;B[pj]C[Black could keep the kakari in reserve - playing there for W looks too slow?]
))
