(;FF[4]GM[1]SZ[19]ST[2]CA[UTF-8]AP[SGFC:1.15]

PB[Ota2ke]
BR[2k]
PW[Fragga]
WR[2k]
KM[6.5]
DT[2007-06-23]
PC[The KGS Go Server at http://www.gokgs.com/]
RE[W+Resign]
TM[900]
OT[25/1200 Canadian]
RU[Japanese]

C[Hi.  I am the black player and this game was a disaster for me.  When I look at it I see that I was not playing with a calm mind, but some advice would be helpful.  This was one of the three games I lost in the eight-round Iwamoto Tournament.

David I will start my comments with a *.
Bert

* Just went over your game but there were 2 moves I thought were wrong. 
With both moves you switched from a moyo-based to get some direct profit. However both moves backfired to you.
The 2 moves concermed are  move 19 (at G5) and 43 (at O18).]
;B[pd]C[Ota2ke [2k\]: have fun
Fragga [2k\]: thanks you too];W[dd];B[dp];W[pp];B[jj]C[Go Seigen's san-ren-sei for the 21st century.]
;W[dj];B[qn]C[Ota2ke [2k\]: great picture];W[nq];B[rp];W[qq]
;B[qk];W[fq]C[* This site is not important. White should play O17.
* Black should try to get out with forehand to play K16 or F17 first.]
;B[fp]C[* I personally do not like this move, black cannot develop much territory on the left because of D10.]

(;W[gp];B[eq];W[fo];B[ep];W[gq]
(;B[go]C[* Capturing the stone at F5 is not worth much. This cut only makes white stronger.]
;W[ho];B[gn];W[hn];B[fn];W[jd];B[cc]C[* Good timing.];W[dc]
;B[cd];W[ce];B[be];W[cf];B[bf];W[cg];B[db];W[eb];B[cb];W[fc]
;B[lc]LB[ld:A]C[* Play this move at A. This will expand your moyo. AFter this move it is also easier to prevent white to make much territory with his left top group.]
;W[qc];B[qd];W[pc];B[oc];W[ob];B[nb]LB[od:A]C[Was O17 a better choice?
* Yes probably it is. But this is playable as well.
Maybe move 41 you could have played 41 at A. This will give you a stronger wall.]

(;W[nc];B[od];W[mb]
(;B[pb]C[Now I think O16 is more consistent with K10.  Was inconsistency a big problem (some territory moves, some influence moves) throughout the game?
* O 16 is better, you do net get too many point in the corner whilst a move at O16 expands your territory and prevents white to expand his.]
;W[na];B[qb]C[* Still better at O16];W[nd];B[ne];W[me];B[mf]
;W[nf];B[oe];W[lf];B[mg];W[lg];B[mh];W[lh];B[md];W[le];B[mc]
LB[mc:B][mi:A][dl:C]C[* Better A you will make more territory then white is loosing at the top. But because of Q18 black is in trouble now white suddenly has the moyo.
However when you count (exchange white B black C):
White:
Top: 50 points
Bottem: 30 points
Black: 
Left: 47 points
Top left: 10 points
Bottem left: 25 points.
So it is about even now.];W[nb];B[lb]LB[mi:A]C[* This is not nessecarely bad but is is inconsistent. Forst play A even after white M18 there is now a lot of aji. This will make it now easier to penetrate into whites moyo.]
;W[mi];B[og];W[oi];B[oh]LB[ph:A]C[*Play at A this will prevent white to invading the left site further.]
;W[pi];B[li];W[mj];B[lj];W[lk];B[kk];W[ll];B[km]LB[jm:A]C[*Play at A then black cannot be cut.]
;W[kl];B[jl];W[jm];B[im];W[jn]
(;B[hm];W[il];B[jk];W[hk];B[gl];W[gj]C[* Black is in trouble now.]
;B[ik];W[hl];B[hj];W[gk];B[hi];W[ji];B[gi];W[fi];B[fh];W[ei]
;B[hg];W[ii];B[ij];W[gg];B[ih];W[ki];B[gf];W[fg];B[fl];W[fj]
;B[in];W[io];B[jo]C[Oops.];W[gm];B[fm]C[*Saving 2 stones is not important saving your centre is important.]
;W[if];B[on]LB[kj:A][mk:B]C[*Game is over now. Because white can capture at A black cannot even cut at B.]
;W[nm];B[no];W[mp];B[mo];W[lo];B[er]LB[cl:A]C[*Better at A.]
;W[cn];B[bo];W[co];B[bp];W[cp];B[cq];W[bn]LB[dm:A];B[eo]LB[cl:B]
[dm:A]C[* Play at A to capture . White has to answer because he cannot allow black B.

* no comments beyond this point.];W[ri];B[bg];W[bh]C[I eventually resign, but perhaps losing the K10 group was enough to resign.]
;B[cl];W[dl];B[dm];W[cm];B[dk];W[ck];B[el];W[bl];B[cj];W[bk]
;B[bi];W[ci];B[ah];W[ch];B[hs];W[hr];B[fs];W[is];B[ic];W[jc]
;B[jb];W[kb];B[kc];W[ib];B[ka];W[hb];B[kd];W[ke];B[je];W[id]
;B[ie];W[hd];B[jf];W[gh];B[hh];W[kj];B[ff];W[eg];B[he];W[gd]
;B[rq];W[qg];B[qr];W[pr];B[rr];W[ao];B[bq];W[re];B[rd];W[la]
;B[ma];W[pf];B[of];W[la];B[gs];W[ir];B[ma];W[ad];B[oa];W[bd]
;B[bc];W[ag];B[af];W[pm];B[pn];W[qm];B[om];W[rm];B[pl];W[rk]
;B[nl];W[ok];B[ol];W[qj];B[rn];W[aj];B[or];W[oq];B[ps];W[nr]
;B[pq];W[qp];B[op];W[pr];B[rl];W[sl];B[pq];W[np];B[oo];W[pr]
;B[ql];W[sm];B[pq];W[ai];B[ac];W[pr];B[sn];W[sk];B[pq];W[ag]
;B[ae];W[pr];B[rj];W[sj];B[pq];W[ad];B[bd];W[pr];B[si];W[sh]
;B[pq];W[sd];B[rf];W[qe];B[sc];W[se];B[pr];W[ln];B[mm];W[lm]
;B[ns];W[lr];B[ls];W[ks];B[ms];W[mr];B[os];W[kr];B[hm];W[im]
;B[ph];W[qh];B[ni];W[nj];B[nh];W[ml];B[mn];W[nk];B[ap];W[an]
;B[dn];W[dl];B[pe];W[qf];B[cl];W[rc];B[rb];W[dl];B[ek];W[da]
;B[ej];W[bj];B[ca];W[ea];B[pk];W[pj];B[gr];W[fr];B[es];W[hq]
C[Fragga [2k\]: thanki you
Fragga [2k\]: -i])
(;B[il]LB[mk:A][nn:B]C[*Simply play here. Black is much stronger and later a cut at A or a move at B is hard to answer for white.]
))
(;B[nd]
(;W[na];B[mc])
(;W[mc];B[md];W[ld];B[le];W[kd]LB[pb:A]C[*White get more territory now but black still has A. This move is worth around 20 points.]
)))
(;AE[nb][ob][oc]PL[B];B[od]LB[lc:A][rc:D][rd:B][re:C]C[* Now white does have several choices. but A cannot be cut and also the sequence BCD is no longer forehand for white.]

(;W[oc];B[nc];W[nb];B[mc]C[* This is a possiblity])
(;W[nb];B[nc];W[mb]LB[mc:B][le:A]C[* or this Black can now play A to prevent white B.]
)))
(;AB[dn]LB[kp:A]C[*This move will secure the corner and white still has to play an additional move to prevent a move arond A]
))
(;AE[fp]PL[B]
(;B[ip]
(;W[cq];B[dq];W[cp];B[co];W[bo];B[cn];W[dr];B[er];W[cr];B[eq]
;W[bn];B[cm]LB[nn:B][mp:A]C[( If white jumps into the corner, black can seal white in and then choose to play A, to expand the lower left or B to expand the left.]
)
(;W[fo];B[dn];W[dr];B[cq];W[ir]C[*Also with this sequence black is make territory and gets the forehand.]
))
(;B[cn];W[dr];B[cq]LB[jp:B][iq:A][dr:C]C[* Now white really does not have a good follow-up move. A is too low, with B C should not have been played. 
After white A ort B black can play on top first.])))
