(;FF[4]GM[1]SZ[19]ST[2]CA[UTF-8]AP[SGFC:1.15]VW[]

PB[Brian]
BR[16k]
HA[2]
PW[norton]
WR[14k]
KM[0.5]
DT[2007-07-24]
PC[The KGS Go Server at http://www.gokgs.com/]
RE[B+7.50]
TM[1200]
OT[5x30 byo-yomi]
RU[Japanese]

AB[pd][dp]C[Daedin: Hello,

I am Daedin on KGS, coming from France.

If I could give you one advise on the game, it would be to try and see what are the strong and weak groups at any time on the board. Strong groups are fine left alone - the opponent cannot gain anything by attacking them - while weak groups need to be taken care of. If the opponent can attack one of your weak groups, he will very likely gain more than you will during the attack.

One last piece of advise is regarding reviewed games like this. To get the most out of a review, the best thing is first to analyze the game yourself. By analyzing, I mean to try variations (with commentaries) on situations where you felt you - or your opponent - did badly, try and find key moves - good and bad - explain your choice when playing otherwise on the board, etc.

By doing this, the reviewer will not only be able to focus on more specific parts of the game, he will also be able to analyze and comment your strategy and your way of thinking - which is not less important than the technique itself.

I hope you will find my commentaries useful.];W[qp];B[dc];W[dj]
C[Daedin: There is a go proverb that says : "The corner is gold, the side silver, and the center desert". The idea behind this proverb is that it is much more easier to make territory in the corners, then on the sides, and very difficult in the center.

This is why it is more usual to either defend the corner (with P4 for instance) or to attack the opponent's corner to prevent them from securing territory there (with C15 for instance).]
;B[cn]C[Daedin: It is more common to enclose from the komoku (D17) first, for instance with C15 or C14. The reason is that with a shimari (corner enclosure) from the komoku, you only need two moves to secure the corner. 

With C6, Black needs another move at E3 to protect the corner.]
;W[jd]
(;B[gc]C[Daedin: In the same line of thought as mentioned before, it is more usual to defend the corner first with C15 for instance.]

(;W[md]C[Daedin: N16 is a bit vague: too far from the Q16 stone to attack it, and too high (on the fourth line) to make a base to live. The white group is becoming a target for Black to attack.]
;B[qf];W[qj];B[nc];W[mc]LB[qc:A]C[Daedin: The O17 - N17 exchange is bad for Black. It has helped strenghten White's group, while the corner is still open at A.

I would have played either P17, both to secure the corner and aim at a move around N18 to deprive White's group from its base.

See variation for examples of White invasion (there are many more possible variations, but basically the idea is that White can live, at least thanks to a ko).]

(;B[nd];W[jp];B[gq]C[Daedin: Same as before, the corner is not secure yet.]
;W[hq]
(;B[fq]C[Daedin: H4 is more severe, and White cannot hope to gain much by crosscutting and trying to pick a fight in the area - he has too many weak groups to do so.]
;W[dg];B[oq]C[Are the moves 18 to 24 o.k. or are there other, more important moves?

Daedin: The idea behind 18 is corrent: it attacks the corner while separating the two white stones on the left. However White is very strong in the vincinity, so the fight will be difficult for Black.

Another idea could be to attack first the D13 White weak stones]
;W[nq]C[Daedin: This is a very unusual move. Contact play like this causes both groups to strenghen, and thus is seldom used as an attacking move.]

(;B[op]C[Daedin: Seems ok, since it separates the two White groups.]
;W[pn]
(;B[no]C[Daedin: This looks a bit mild. The White group at the bottom is weak, so the goal would be to attack it. To do that however, Black first needs to strengthen its own group. This is usually done by attacking / attaching to the stronger group, namely the group on the right.]
;W[mp];B[nm]C[Daedin: Now Black has a weak group running to the center, while White's bottom group looks rather solid. Black hasn't gained much in the attack.]
;W[pl]
(;B[ll]C[Daedin: It is painful for Black to run while gaining nothing. Maybe putting some pressure on the bottom White group firt to strengthen Black could be an alternative.]
;W[hg];B[ce]C[Daedin: Big. However the Black center group is more urgent (urgent moves before big ones).]
;W[cf];B[de];W[hc];B[hd];W[ic]
(;B[fc];W[fe];B[ck]C[Daedin: There is a saying that states : "never play a diagonal move under an ennemy stone on the third line". It strengthens White while Black gains nothing.]
;W[cj];B[bk];W[bj];B[aj];W[ai];B[ak];W[bh];B[bf];W[bg];B[df]
;W[cg];B[af];W[ag];B[be]C[Daedin: All these move are yose moves, that means that they should be kept when the status of all groups is decided. In the game, the Black center group is not alive yet, so it should first be taken care of.]
;W[gj];B[ph]
(;W[mh];B[oj];W[oi];B[ni];W[nh];B[oh];W[pi];B[qi];W[pj];B[ri]
;W[rj];B[sj];W[sk];B[si];W[rl];B[nk];W[qh];B[rh];W[qg];B[rg]
;W[og];B[pg];W[nf];B[of];W[ng];B[oe];W[mi]C[Daedin: You can let White take this stone, it has no strategic importance.]

(;B[nj];W[lj];B[fm];W[el];B[dm];W[dl];B[cl];W[em];B[en];W[gm]
;B[gn];W[fl];B[fn];W[hm];B[hn];W[in];B[im];W[il];B[jm];W[jl]
;B[io];W[jn];B[jo];W[km]
(;B[ko];W[kp];B[ln];W[ie];B[hb];W[ib];B[ha];W[ia];B[gb];W[gd]
;B[fd];W[ge];B[mb];W[lb];B[la];W[nb];B[ob];W[ma];B[oa];W[ne]
;B[na];W[mb];B[oc];W[ef];B[ee];W[eg];B[nr];W[mr];B[np];W[mq]
;B[ns];W[ms];B[pr];W[po];B[qq];W[rq];B[rr];W[rp];B[sq];W[kk]
;B[cq];W[ip];B[hp];W[iq];B[hr];W[ir];B[hs];W[is];B[fr];W[lo]
;B[mo];W[lp];B[kr];W[kq];B[js];W[jr];B[kn];W[lm];B[mm];W[lk]
;B[ml];W[he];B[pk];W[qk];B[ok];W[om];B[ol];W[qm];B[on];W[pm]
;B[sp];W[so];B[sr];W[rn];B[pp];W[oo];B[nn];W[kl];B[mj];W[mk]
;B[nl];W[tt];B[ho];W[ka]C[Daedin: Not necessary];B[cm]C[Daedin: Not necessary]
;W[tt];B[dk];W[ek];B[tt];W[tt]TW[ja][la][jb][kb][jc][kc][lc]
[hd][id][kd][ld][je][ke][le][me][ff][gf][hf][if][jf][kf][lf]
[mf][fg][gg][ig][jg][kg][lg][mg][ah][ch][dh][eh][fh][gh][hh]
[ih][jh][kh][lh][bi][ci][di][ei][fi][gi][hi][ii][ji][ki][li]
[ej][fj][hj][ij][jj][kj][fk][gk][hk][ik][jk][rk][gl][hl][ql]
[sl][im][jm][rm][sm][qn][sn][qo][ro][jq][lq][kr][lr][js][ks]
[ls]TB[aa][ba][ca][da][ea][fa][ga][pa][qa][ra][sa][ab][bb][cb]
[db][eb][fb][pb][qb][rb][sb][ac][bc][cc][ec][pc][qc][rc][sc]
[ad][bd][cd][dd][ed][od][qd][rd][sd][ae][pe][qe][re][se][pf]
[rf][sf][qg][sg][qh][sh][al][bl][am][bm][an][bn][dn][mn][ao]
[bo][co][do][eo][fo][go][ap][bp][cp][ep][fp][gp][aq][bq][dq]
[eq][pq][ar][br][cr][dr][er][gr][or][qr][as][bs][cs][ds][es]
[fs][gs][os][ps][qs][rs][ss])
(;B[kq];W[kp];B[jq];W[ip];B[iq]
(;W[hr];B[hp])
(;W[hp];B[hr])))
(;B[jk])
(;B[im]))
(;W[oj]C[Daedin: I would separate the Black two groups first.]
;B[nh];W[mj];B[lh];W[kj]))
(;B[fd]C[Daedin: Better here, or at G16])
(;B[gd]))
(;B[ln];W[jn];B[lp]
(;W[lq];B[kp]
(;W[mo]C[Daedin: If White pushes up...];B[mn];W[lo];B[ko];W[kn]
;B[jo];W[io];B[kq];W[jq];B[kr];W[lr];B[jr]
(;W[ir];B[ip];W[iq];B[in];W[hp];B[jm];W[km];B[kl];W[lm];B[ll]
)
(;W[ip];B[hr])
(;W[iq];B[hr];W[ir];B[is];W[gr]
(;B[hp];W[hs])
(;B[in]
(;W[jl];B[ho];W[ip])
(;W[im];B[ho];W[hn];B[hp];W[hs];B[ip];W[js];B[in]C[Daedin: Maybe something like that, but it looks rather difficult]
))))
(;W[kq];B[kn]))
(;W[lo];B[mo];W[ko];B[mq];W[np];B[nr]C[Daedin: This doesn't work for White]
)
(;W[mo];B[mn];W[lo];B[ko];W[kp];B[kn]LB[jo:A]C[Daedin: Black is stronger outside and White still has to protect at A.]
)))
(;B[qq];W[rq];B[qr];W[ro]C[Daedin: If White strengthens its right group...]
;B[np];W[mq];B[mp];W[lq];B[nm]C[Daedin: Black is out without any problem]
))
(;B[np];W[op];B[mq];W[nr];B[mp];W[or];B[ko]C[Daedin: Something like that could work too.]
))
(;B[hp];W[gp];B[fq]
(;W[iq];B[ho])
(;W[go];B[iq];W[hr];B[ip]C[Daedin: White cannot both save his stones and prevent Black from escaping, so White is left with three groups, while Black only has one weak group to take care of.]
)))
(;B[oq];W[qc];B[pc];W[rd]
(;B[qd];W[rb];B[qb];W[rc];B[re];W[pb];B[ob];W[qa]C[Daedin: White is alive.]
)
(;B[rb];W[rf];B[rg];W[qe];B[sf];W[se]C[Daedin: ko])))
(;W[nc]C[Daedin: O17 is more common, since it both attacks the corner stone as well as provides a base for the group]
))
(;B[ce]LB[hc:A][dh:B][op:C]C[Daedin: Black can then aim at A or B to put pressure on the White stones, or approach the lower right corner with a move around C.]
))
