(;FF[4]GM[1]SZ[19]ST[2]CA[UTF-8]AP[SGFC:1.15]

GN[2007, PANDA-NET,]
PB[abennun]
BR[4k]
PW[kayu413]
WR[3k]
KM[0.5]
DT[2007-08-04]
PC[PANDA-NET]
RE[W+2.50]
RU[Japanese]

C[Dear Reviewer,
Thank for your help.
I played Black in this game (0.5 komi) and lost by 2.5 points.

I think I may have done some small mistakes during the yose, but what I would like more to learn are mistakes during the openning and middle game. For example - did I tenuki at the right time? Did I chose the right direction?
Besides, any other comment is welcome.

Thanks a lot,
Avi.

--
Hi Avi,

I will do my best although I am not strong enough to give the perfect answers.

-inimino];B[pd];W[cp];B[pp];W[dc];B[ep];W[dn];B[cq];W[bq];B[dq]
;W[bo];B[iq];W[qn];B[ql]C[A: I thought this is the right direction, squeezing white and building territory on both sides. In the game, however white built a big territory in the corner as well. Should I have just played O4?

inimino: I agree with this move.  O4 is a little too easy for w, and right side seems more interesting.]
;W[nq];B[oo];W[qq]
(;B[qp]C[A: Is it the right side to block?

inimino: No.  Bottom side is bigger, so, O3 is better stone to weaken.  Killing R6 is worth little since right side is still open.]
;W[pq];B[lq];W[rp];B[ro];W[rq];B[rn];W[mq]C[A: This seemed to me rather slack on white's side, so I tenukied. Is it correct?

inimino: I think tenuki is correct.  With J3 present, any follow-up to this move is small.  This w move is defensive, otherwise P2 is large.]
;B[de]C[inimino: D11 seems better on this side to me.  Top side seems even better...  Maybe wrong but I would try to play on the top side instead of this.  Better to build out from the top right corner and let w worry about invading, rather than try to worry about the left side which alone would not be enough for w.]
;W[ee];B[ef];W[ed];B[cf]C[inimino: D13 seems a little better so you can move out more easily into the center.]
;W[cj];B[cc];W[cb];B[cd];W[jd];B[nc]C[inimino: I would prefer M17 here.]
;W[qf];B[qh];W[rd];B[qc];W[rc];B[rb];W[qd];B[pc];W[pe];B[oh]
;W[rg];B[rh];W[nf];B[bb]TR[me]C[A: I am not sure about this move. Probably extending to M17 would have been better?

inimino: Yes I think so.  You were still nervous about this somewhat weak group, I guess, but O17 group is weaker, and almost entirely enclosed.  If w ignores this move, will you really be content to play D18?  If not this is not sente.  Maybe instead of M17 I would think about N15, better to get your group out above all.  If you really wanted to live locally I would try K18.]
;W[lc]C[A: Good move for white.

inimino: Yes.];B[md];W[ld];B[me];W[mg];B[mi]C[inimino: This is big, but also, feels a little greedy.  The M14 escape keeps w groups separated aiming at H16.]
;W[mb];B[nb];W[sb];B[qb]C[inimino: White can still kill this shape and chase the group.]
;W[no];B[nn];W[op];B[on];W[mn]
(;B[mm]C[A: Too passive? Should I cut at N5?

inimino: Perhaps.  Given the weakness of M3, I am not sure how well that will work out, see variation for one likely continuation.  I think the difference is not that great.]
;W[hq]
(;B[hp]C[inimino: After a little reading, J4 looks better here.]
;W[ip]
(;B[gp]C[inimino: This move gives up a lot of points, I wonder if you have other options here.  I would look at K3, and if you think that is unreasonable try H2.]
;W[jq];B[ir];W[jr];B[hr];W[kp];B[io];W[jp];B[mo];W[ln];B[np]
;W[oq]
(;B[dl]C[A: M4 seems to me better now.

inimino: M4 is small, w simply connect at M2.  It is sente, but w should assume b will connect it eventually and I think it is not interesting right now for either player (although b can play it almost any time).

In other words, if M4 here, then w M2 and you still play D8, the position is the same except you have a little less aji.  It's not like w was going to be in any hurry to play M4 here.

Incidentally, there are other uses for aji around M4 that could be nicer.  See variation starting with L6.]
;W[cl]
(;B[cm]C[inimino: I wonder if there is a better move here... the trouble I have with this is that if b ends in gote here with just a small wall, I don't think that is the right time for that.  And if b doesn't take gote I think he will not have a wall here.]
;W[dm];B[ck];W[bl];B[dj];W[bk];B[dk];W[ci]
(;B[fk]C[inimino: This feels a bit slow.  I'm not sure what the intention of this move is.  H16 looks more interesting.]
;W[lo]C[A: Yes,  missed the chance to play M4.

inimino: And now you cannot play L6 which would have looked very nice here for b as well.]
;B[em]C[inimino: This is small.];W[en];B[fm];W[ff]C[inimino: This is huge.]
;B[hg];W[he]C[inimino: So in my opinion, the real missed opportunity during this part of the game was not M4 but H16.]
;B[kh];W[nh];B[ni];W[og];B[ph];W[kl];B[fg];W[eg];B[df];W[gg]
;B[fh];W[gf];B[gh];W[sh];B[si];W[sg];B[rj];W[le];B[mc];W[lb]
;B[ne];W[oe];B[od];W[ml];B[lm];W[km]
(;B[nm]C[inimino: I think it is not necessary to connect, you can push first and then cut, see var.]
;W[in]C[A: I think M8 is better for white.];B[ll];W[qo];B[po]
;W[rm];B[qm];W[sn];B[pn];W[so];B[kk];W[jk];B[jl]C[A: Using the aji of M4.

inimino: That is an exchange w should be happy to make, see the variation on next move.

I think both players overvalued M4 at several points in this game.  White made so many mistakes by trying to prevent M4 when he should just allow it and strengthen his shape.]

(;W[jm];B[il];W[hm];B[hl];W[ih];B[ig];W[jg];B[jh];W[gl];B[gk]
;W[kj];B[lk];W[hk];B[gm];W[im];B[fl];W[ik];B[gl];W[lh];B[li]
;W[kg];B[ki];W[if];B[hh];W[bg];B[bf];W[cg];B[hn];W[jo];B[ho]
;W[lp];B[fn];W[cr];B[dr];W[br];B[eo];W[do];B[js];W[ks];B[is]
;W[lr];B[qg];W[re]
(;B[mf]LB[mf:A][eh:B]C[A: I think E4 or D11 are bigger.

inimino: E4 is occupied, I guess you meant E12.  But D18 is actually bigger than any of this.  (a lot)]
;W[ei];B[di];W[eh];B[dh];W[dg];B[bh];W[ch];B[ag];W[bi];B[ah]
;W[ai];B[af];W[fi];B[gi];W[db];B[lf];W[kf];B[lg];W[pg];B[mh]
;W[ng];B[rl]C[inimino: B19 now is bigger than this.];W[sm];B[sl]
;W[sp];B[fj]C[A: B19 bigger I think.

inimino: yes];W[ds];B[es];W[cs];B[er];W[ba];B[ab];W[bm];B[ej]
;W[na];B[oa];W[ma];B[hf];W[ie];B[dd];W[fc];B[ra];W[ca];B[bd]
;W[sc];B[dp];W[mp];B[no];W[tt];B[tt];W[tt]C[A: White won by 2.5 points.

Thank you for you time and effort!
Avi

inimino: You are welcome, I hope this review is helpful, let me know if you have any questions.]
)
(;B[eh]LB[mf:A][eh:B];W[dg];B[di];W[af])
(;B[db];W[eb];B[ca]C[inimino: huge

this game is very close]))
(;W[il];B[kn];W[jm];B[lp];W[ko];B[mp];W[lr]C[This is good for w, though b had a better option at 139.]
))
(;B[ll];W[lk];B[nm];W[kj];B[mk]))
(;B[hd]))
(;B[dm];W[cm];B[en])
(;B[ck];W[bk];B[dk];W[cm]))
(;B[hd])
(;B[kn]C[inimino: This would be very nice at some point later if b can get a move around L12.  However, b left the weakness of the top right corner group so that is unlikely to happen.]
;W[lo];B[lm];W[jn];B[ko];W[lp];B[jo]C[inimino: If b has a chance to trade the M4 aji for a solid wall on the outside in something like this, then it could be a much better use of that aji than to actually connect M4.]
))
(;B[jq];W[gp])
(;B[hr];W[gq];B[gp]
(;W[ir];B[jq];W[gr];B[jr];W[hs];B[er])
(;W[jq];B[ir];W[jp];B[kr])))
(;B[ip]C[inimino: White may try G4 or H4, neither gives a very good result.]
))
(;B[mo];W[lo];B[np];W[mp];B[oq];W[or]))
(;B[pq];W[qp]))
