(;FF[4]GM[1]SZ[19]ST[2]CA[UTF-8]AP[SGFC:1.15]

GN[gtl]
PB[samoz3]
BR[9k]
PW[tchan54]
WR[8k]
KM[0.5]
DT[2007-07-16]
PC[The KGS Go Server at http://www.gokgs.com/]
RE[W+17.50]
TM[1800]
OT[5x60 byo-yomi]
RU[Japanese]

C[F: Black started the game well, but around move 60 lost more or less the focus of the game. and let white come back. Since white played a better endgame, the difference at the end of the game became rather big.]
;B[dp]C[tchan54 [8k\]: hi, have fun
samoz3 [9k\]: hi];W[pd];B[qp];W[dc];B[kq]C[I'm interested, should I possibly have approached the upper left stone instead of playing L3?

F: This is OK. It's called the Chinese fuseki (opening). If you're interested to find more out about it, you can find much information on it in books or on the net.]
;W[cn];B[fq];W[bp]
(;B[de]C[Correct response? Or should I have focused on stabilizing the lower left some more? Or maybe even protecting my own corner in the bottom right?

F: This is possible, because your lower side isn't weak, but you could also finish the joseki and keep sente. See variation]
;W[dh]
(;B[cg]MA[ch]C[I'm not really good at knowing how to respond to pincers... Would an extension towards the center have been better?

F: This is not so good. If white blocks on C12 (X), your two stones are cramped between white stones on two sides.  Extension toward the center is generaly a better idea. See variation]
;W[fd]C[F: Blocking on C12 would have been better];B[ch]C[F: Now black can make a base on the left side and ruine whites perspectives there]
;W[ci]
(;B[fe]C[F: This is not good. Black should cut. See variation]
;W[gd]C[F: This helps white];B[eg]C[F: Still the cut is much better. It stabilises black.]
;W[dj]C[F: Now black has a weak group, and white made some territory on the left side.]
;B[oq];W[hq];B[hp];W[gp];B[gq];W[go];B[ho];W[hn];B[iq];W[hr]
;B[ip];W[fn];B[jj]LB[qf:a][nc:b][pj:c]C[F: I don't know the intention of this move, but it's a little bit early to reduce whites moyo on the left side. There are bigger moves like a, b or c.]
;W[pj];B[pg];W[pm];B[qn];W[qm];B[pn];W[rn];B[ro];W[rm];B[qd]
;W[qc];B[qe];W[oc];B[qi];W[pi];B[qh];W[on];B[oo];W[nn];B[no]
;W[mn];B[kn];W[ll];B[kl];W[lk];B[kk];W[lj];B[nh]SQ[qf][rf][sf]
[sg][rg][qg][rh][sh][qo][po][pp][rp][pq][qq][rq][sq][sr][rr]
[qr][pr][ps][qs][rs][ss][op][or][os][ns][nr][mr][mq][nq][lq]
[ms][np][lr][ls][ks][kr][jr][js][is][ir][jq][hq][hr][hs][gs]
[gr][fr][fs][bf][cf]MA[nm][om][ol][nl][pk][pl][da][db][ea][eb]
[fa][fb][fc][gc][gb][ga][pc][pb][ob][oa][pa][cj][ck][bk][ak]
[dk][al][bl][cl][dl][am][bm][cm][bn][an][ao][ap]C[F: This and the nexe move are not good. Let's have a look at the situation. 

Black has about 55 points (squares)
For white I count 37 points

So the game is good for black at this moment. He should do two things: take care of his left groupt, which is still weak, and prevent white to make too many points at the upperside
This move doesn't really attack the white stones below, and it doesn't really strengthen the black stones on the right (which are strond enough)]
;W[nj]
(;B[nf]C[Mistake?
F: See comments on last black move.  Some suggestions in the variations]
;W[lc]
(;B[je]C[F: Black should stille invade the upper side. The gap between G16 and M17 is still big. See variations]
;W[ic]C[F: Black has given white some 20 points on the upperside]

(;B[he]C[F: This only connects. See variation];W[cd]C[F: Another big move for white]
;B[ce];W[bd]
(;B[be]C[F: Very small, black should at least try to make something out of the centre. See variation.]
;W[cq]C[F: Big move for white again.];B[dq];W[do];B[gr]C[F: Not necessary]
;W[fj]C[F: Expands whites moyo and reduces the black centre]
;B[gi];W[gj]MA[aq][ap][ao][an][bn][am][bm][cm][dm][em][fm][fl]
[fk][ek][el][dl][dk][ck][cl][bl][al][ak][bk][cj][aa][ab][ba]
[bb][ca][cb][cc][da][db][ea][eb][fa][fb][fc][gc][gb][ga][ha]
[hb][ja][ia][ib][ka][la][lb][mb][ma][na][nb][pa][pb][oa][ob]
[qb][qa][ra][mk][ml][nk][nl][nm][om][ol][ok][pk][pl]SQ[rf][sf]
[sg][rg][rh][sh][qg][qf][qo][po][pp][rp][rq][sq][qq][pq][pr]
[qr][sr][rr][ss][rs][qs][ps][os][or][op][nq][nr][ns][ms][mr]
[mq][lq][lr][ls][ks][kr][jq][jr][js][is][ir][hs][hq][hr][gs]
[fs][fr][bf][cf][hg][ig][jg][jh][ih][hh]C[F: The rest of the game is more or less endgame. Since move 60, white got all the big moves, black none. So the (little) advantage black had is turned around in a lead for white. 
60 points for white, 59 for black.];B[hi];W[le];B[lf];W[ke]
;B[kf];W[me]
(;B[mf];W[ki];B[hl];W[gl];B[jd]C[I know this was a bad move, not worth many points
F: But absolutely sente. White can't afford to ignore this. And a move from white here would be sente for him, so this move is good for black.]

(;W[jc]C[F: White must anwer here, see your variation];B[jh]
;W[lo];B[lp];W[ko];B[jo];W[qj];B[ri];W[rj];B[in];W[hm];B[im]
;W[hk];B[il];W[ae];B[af];W[ad];B[bg];W[bi];B[ei];W[di]
(;B[eh];W[rd];B[re];W[sd]
(;B[ne];W[nd];B[co];W[bo];B[eo];W[dn];B[en];W[em];B[cp];W[fo]
;B[ep];W[bq];B[fp]C[F4 needed? seems a little pointless now
F: D2 is much better if you want to play here.];W[fm];B[kd]
;W[ld];B[kc];W[kb];B[ej];W[ek];B[mi];W[mj];B[li];W[kj];B[ji]
;W[kh];B[kg];W[ni];B[mh];W[nb]C[samoz3 [9k\]: care to review the game afterwards?]
;B[hj];W[ik];B[jk];W[ge];B[gf];W[hd];B[ie];W[ph];B[oh];W[si]
C[I misread here]
(;B[qg];W[sg];B[rf];W[sh];B[cr];W[br];B[cs];W[bs];B[er];W[ah]
;B[ed];W[ec];B[dd];W[cc];B[mo];W[ln];B[km];W[kp];B[mq];W[lm]
;B[oi];W[oj];B[dg];W[cl];B[fi];W[gk];B[pe];W[so];B[sp];W[sn]
;B[se];W[rc];B[ag];W[id];B[hf];W[jp];B[jq];W[lh];B[lg];W[ij]
;B[ii];W[bh];B[oe];W[od]C[tchan54 [8k\]: finish?
samoz3 [9k\]: yea, just connect at t10];B[rg];W[sj];B[tt])
(;B[sh];W[qg];B[sj];W[sk]
(;B[si];W[sg])
(;B[rg];W[si];B[qf];W[sj])))
(;B[nd];W[ne];B[od];W[oe];B[pe];W[pc];B[md];W[ld]))
(;B[ej];W[eh];B[fi];W[fh];B[gg];W[ek];B[fg];W[gh];B[hh]))
(;W[jh]
(;B[ig]C[F: Black will not answer here immediately, see variation]
;W[ih];B[hh];W[ii])
(;B[jc];W[jb];B[kb];W[ib];B[kc];W[lb];B[la];W[ma];B[ka];W[mb]
;B[ig])))
(;B[ne];W[mf];B[mg];W[nd];B[oe]))
(;B[gi]))
(;B[cc];W[cb];B[dd];W[ec];B[bc]C[F: This defends the black group, makes points for black and takes point away from white]
))
(;B[jc];W[kd];B[jd];W[je];B[ie]
(;W[ke];B[hd])
(;W[id];B[hd];W[ic];B[hc];W[ib];B[ge];W[if];B[he];W[jb];B[jf]
;W[kc];B[gb];W[cd];B[ce];W[be];B[bf];W[bc];B[ed];W[ec];B[fc]
)))
(;B[mc]
(;W[rc];B[jc])
(;W[kc];B[me];W[rc];B[cc];W[cb];B[dd];W[ec];B[bc]))
(;B[ic];W[kc];B[ie];W[md];B[cc];W[cb];B[cd];W[eb];B[jb]))
(;B[di]
(;W[dj];B[ei];W[cj];B[eh])
(;W[ei];B[dj];W[cj];B[dk];W[ck];B[eh])))
(;B[gd];W[ee];B[ef];W[fe];B[dd];W[fc];B[ff];W[ge];B[cc];W[ec]
;B[cf]C[F: This is a joseki (well not the last move), but even if you don't know any josekis, then you might follow the guidelines in the other variation.]
)
(;B[fe]C[F: If you extend to the center, there are  two possibilities for white:]

(;W[gc]C[F: He runs along on the upperside, ...];B[dj]C[which gives you the opportunity sooner or later to counterattack the pincer stone]
)
(;W[fh]C[F: or he can extend his pincer stone, ....];B[fc]C[... which gives you the opportunity to confine white to his corner.]
)))
(;B[cq];W[ck];B[qf]))
