(;FF[4]GM[1]SZ[19]ST[2]CA[UTF-8]AP[SGFC:1.15]

PB[iiigor]
BR[13k]
PW[ggzh]
WR[13k]
KM[6.5]
DT[2007-08-05]
PC[The KGS Go Server at http://www.gokgs.com/]
RE[W+19.50]
TM[1800]
OT[5x60 byo-yomi]
RU[Japanese]

C[Hi, I am Igor. I was playing black this game.

What could I do better strategically? Where were my mistakes?

Thank you in advance!!!

_______________________________________

-Igor

Please know that my review is not perfect and some of my choices may be entirely bad. However, I am a bit stronger than you and I hope my thinking is one of a level to help you.
I remind you that my thinking is a stronger player's thoughts.]
;B[qp];W[pd]C[iiigor [13k\]: hi];B[dp]C[ggzh [13k\]: hi gg]
;W[dd]LB[kq:B][oq:A]C[Finishing the corner [a\] is more important. Another possible move is the Chinese Fuseki [b\].]

(;B[dj];W[dm]C[This move is bad.];B[fk];W[fq];B[fo];W[fm];B[ho]
;W[hq]LB[en:A]
(;B[hl];W[do];B[ep];W[dk];B[ek];W[el];B[ck];W[dl];B[ci];W[dh]
;B[co];W[cn]LB[bo:A]C[Why not crawl?]
(;B[cq];W[bo];B[bp];W[cp];B[aq];W[co];B[eq];W[er];B[dr];W[es]
;B[ds];W[gr];B[jq];W[ip]LB[jp:A]C[You could push here and...]

(;B[jo];W[io];B[in];W[jp];B[ko];W[kp];B[lp];W[kq];B[lq];W[lr]
;B[mr];W[ls]LB[nq:A]C[I prefer here.]
(;B[ms];W[jr];B[nq]LB[lo:A]C[This cut still looks bad to me.]
;W[hn];B[gn];W[hm];B[im];W[gm]LB[gl:B][en:A]C[A to destroy eyeshape or B to proctect weakness.]

(;B[fn]C[This does nothing.];W[en];B[eo];W[gp];B[bs];W[fp];B[pj]
;W[ml]C[This is suicide.];B[mj];W[go];B[dq];W[kl];B[jl];W[gk]
;B[gl];W[fl];B[kk];W[hk];B[il];W[di]LB[ei:A]
(;B[fi];W[ej];B[fj];W[cj];B[ii];W[jk];B[jj];W[ik];B[km];W[ll]
;B[ln];W[kj];B[lk];W[gi];B[ei];W[gj];B[fh]C[iiigor: What is the best way to take the group on G9? Or is it too late now?]
;W[gh];B[fg];W[ji];B[ki];W[ij];B[lj];W[jj];B[jh];W[ih];B[ig]
;W[hh];B[kg];W[hi]LB[gf:A]C[First, i think letting that group live is worth it. Major thickness.

And playing at A is a better way to connect in my opinion.]
;B[gg];W[hg];B[hf];W[if];B[jg];W[gf];B[he];W[ff];B[dj];W[bj]
;B[bk];W[bi];B[ch];W[cg];B[ef];W[eg];B[fe];W[bh];B[ie];W[nl]
;B[pl];W[lm];B[nn]LB[jn:A]C[This is not needed. White has no room to live. 

Plus the weakness at A will take off about 30-40 points.];W[jn]
;B[nk];W[mn];B[mo];W[jm];B[ne];W[ld];B[le];W[ke];B[md];W[lf]
;B[mf];W[me];B[of];W[jf];B[le];W[kf];B[lg];W[me];B[kd];W[le]
;B[lc];W[li];B[lh]C[This was good.];W[kh];B[mi];W[ki]LB[qc:A]
C[No need to take M16 yet. Playing at A is a good way to take away points. White living will be very hard.]
;B[je];W[kn];B[mm];W[nm];B[lo];W[mn];B[on];W[om];B[pm];W[pf]
;B[pg];W[qf];B[qg];W[rg];B[rh];W[sg];B[qc];W[pc];B[qd];W[qb]
;B[pe];W[qe];B[re];W[oe];B[od];W[pe];B[rf];W[rd];B[rc];W[rb]
;B[sd];W[oc];B[nd];W[og];B[nf];W[qh];B[ph];W[qi];B[sh];W[pi]
;B[oh];W[oi];B[ng];W[nh];B[sf];W[ok];B[oj];W[pk];B[qj];W[qk]
;B[rj];W[mk]LB[nj:A][ol:B]C[Why not connect? nothing wrong. You still have sente because white has to play B.]

(;B[ni];W[nj];B[ri];W[nk]LB[nb:B][ql:A]C[Playing A is bad shape. Plus... white is weak at the top. you can probably kill.]

(;B[ql];W[nb];B[mb];W[ma];B[la];W[na];B[pa];W[pb]TR[oa]
(;B[oa];W[sb];B[nc];W[ob]LB[de:A]TR[ec]C[The triangle is good, however I like A better.]

(;B[ec];W[dc];B[ed];W[eb]
(;B[fb];W[df];B[ge];W[de];B[db];W[cb];B[da];W[ca];B[ea];W[bc]
C[This move is not nessecary.];B[eh];W[dg];B[ao];W[an];B[ap]
;W[bm]LB[ar:A][br:B]C[A is a weakness. Play a shape move down there. I like B.]
;B[rk]LB[ar:A]
(;W[mm];B[sc];W[ej];B[kr];W[ks];B[dj];W[ee];B[ff];W[ej];B[fs]
;W[fr]
(;B[dj]C[iiigor: The actual game. Here I didn't notice that I need to protect the group c3.]
;W[mh];B[mg];W[ej];B[am];W[al];B[dj];W[ar]
(;B[bq]C[iiigor: Is it possible to do anything for the group here, or is it definitely dead? My partner said that the group lives in seki, But I don't think so.]
;W[br]
(;B[ej]LB[cr:A][cs:B]C[He played A. B kills. Snapback.]
(;W[cr]C[iiigor: Here my partner says it is seki... I suppose the group is dead.
_______________________________________________

The group is dead. C2 is atari. 

Atari is usually the first thing you learn when playing go.]
;B[tt];W[ol];B[pn];W[qq];B[pq];W[rp];B[rq];W[qr];B[ro];W[rr]
;B[sp];W[pr];B[or];W[sr];B[ps];W[qs];B[os];W[pp];B[oq];W[qo]
;B[rp];W[qn];B[rn];W[qm];B[rm];W[oo];B[po];W[tt];B[tt]TW[aa]
[ba][oa][pa][qa][ra][sa][ab][bb][ac][cc][ad][bd][cd][ae][be]
[ce][af][bf][cf][ag][bg][ah][ch][ai][ci][ii][aj][hj][ak][bk]
[ck][bl][cl][gl][hl][il][jl][am][cm][em][im][km][bn][dn][fn]
[gn][in][ao][eo][fo][ho][ap][bp][dp][ep][hp][aq][bq][cq][dq]
[eq][gq][iq][jq][dr][hr][ir][kr][as][bs][cs][ds][fs][gs][hs]
[is][js]TB[fa][ga][ha][ia][ja][ka][eb][gb][hb][ib][jb][kb][lb]
[fc][gc][hc][ic][jc][kc][mc][fd][gd][hd][id][jd][ld][rd][ke]
[le][me][se][gf][if][jf][kf][lf][og][rg][sg][mh][nh][qh][oi]
[pi][qi][si][sj][sk][rl][sl][qm][sm][qn][sn][no][oo][qo][so]
[mp][np][op][pp][mq][qq][sq][nr][pr][qr][rr][sr][ns][qs][rs]
[ss]C[That's it.

Hope you like my review.

Reviewed by [KGS\] workhard.])
(;W[cs];B[cr];W[cs]C[See? Dead.]))
(;B[cs];W[cr];B[as];W[br]))
(;B[br];W[bq];B[ap];W[aq];B[as];W[bp]))
(;B[br];W[dj];B[tt];W[tt]))
(;W[ar];B[bq];W[br]C[Black is dead.]))
(;B[cf];W[df];B[ge];W[de]))
(;B[de];W[ed];B[cd];W[ee];B[ge];W[cc];B[ce];W[gc];B[fc];W[fd]
;B[gd]
(;W[hc])
(;W[dc];B[hc];W[ec];B[fb];W[bc];B[df];W[eb];B[fa];W[ea];B[gb]
;W[bd];B[be]C[You reduce and seal off points. 

Remember... my moves may not be correct, but only stronger thinking. A Dan could come in and say "What are you crazy?!"]
)))
(;B[nc];W[qa];B[oa];W[ob];B[sb]C[White is dead!.]))
(;B[nb];W[ob];B[pa]LB[oa:A][qa:B]
(;W[qa];B[sb];W[mb];B[nc];W[na];B[lb]C[White is dead!])
(;W[oa];B[qa];W[ra];B[sb]C[White is dead!])))
(;B[nj];W[ol]))
(;B[ei];W[fj];B[ej];W[hi];B[eh];W[dg];B[eg];W[df];B[gg]C[Looks better to me.]
))
(;B[en]))
(;B[nq]))
(;B[jp];W[io];B[jo];W[in];B[hn];W[jm];B[oq]C[...surround white's position and gain a few points.]
))
(;B[bo];W[bn];B[en]C[White is in pretty bad shape.]))
(;B[en];W[em];B[eq];W[fr];B[ip];W[iq];B[jp];W[kr];B[hm]C[Pressure both groups. E7 is in bad shape.]
))
(;B[oq];W[qi];B[cf]LB[fd:A][dh:B]C[A or B is possible. B could also be any other kind of pincer move.]

(;W[fd]LB[ef:B][di:A]C[A or B is possible.]
(;B[di])
(;B[ef]))
(;W[dh]))
(;B[kq];W[jd];B[qf];W[qi];B[of];W[nd];B[rd];W[qc];B[qk]C[Possible outcome.]
))
