(;FF[4]GM[1]SZ[19]ST[2]CA[UTF-8]AP[SGFC:1.15]

PB[Asthanos]
BR[10k]
PW[Kandalf]
WR[9k]
KM[0.5]
DT[2007-08-06]
PC[The KGS Go Server at http://www.gokgs.com/]
RE[B+60.50]
TM[600]
OT[5x30 byo-yomi]
RU[Japanese]

C[Hello, Rasmus!

My name is Bernd, I play as HonFu (4k) on KGS.

I am going to review your game now. You will find lots of comments and variations, and at the end a summary of your major mistakes and what you could do to improve.

I tried my best to find everything, I hope you find it useful and enjoyable!]
;B[qd];W[dp];B[op];W[dd]TR[op]C[R.: is this an ordinary opening?

B.: I don't know if it is ordinary or not. But more important is the Question: What is every move trying to accomplish? 

As you improve, the intentions and the potential of moves you see will change. But nevertheless it's important not just to play common fuseki or joseki patterns by heart, but to (try to) understand the properties of a position anew with every move made!]
;B[nc]C[B.: With this move he prevents the big kakari around P17, which would also be an extension from D16. Furthermore he threatens to build a moyo on the right side. To break this up as you did is one usual strategy. Most often in this pattern P4 is at Q4 or Q3 instead.]

(;W[qm]C[R.: i played this one,because i thought otherwise black could become too strong and get too much territorry on the right side.should i have played elsewhere?this one doesnt  seem so good...

B.: With R7 you are trying not to let him have the whole right side - the thought is good. It's simply not possible to get more than that! Since he has more stones on that side, it is normal that he will have the advantage there, but you can get the advantage on the left side, if you for example play on D10 before he does! Anyway, I have included some variations.]
;B[qo];W[qj];B[om]C[B.: Wrong direction. He should have limited your eyespace with R12 to keep your group weak.]
;W[qg]C[R.: this one was probably bad,it gave me only small territorry and black could almost surround my group

B.: I'm not so sure about it. You take the weakness off your group and further reduce his shimari influence, which both is good. Not to leave weak groups is one of the most important principles of the opening, and since he just forced you to spread along the edge ...]
;B[of]C[B.: Now he builds influence towards the left side and threatens to spread himself on the top and bottom. You have to spoil that strategy now.]
;W[fq]C[B.: Extend cauteously towards his strength is one way of doing so. They tell us: Do not get too close to strength. He could extend towards your position now, but with the same flaw: He can't get too close. Most of the opening-problem-books have your move at g3, but I can't say much about it.]

(;B[lq]C[B.: This is too early, and too close to his position. He gets a bit overconcentrated and you have sente for bigger moves.]
;W[jq]C[R.: this one is bad,or not?the extends at D8,F17or even at D10 are probably better

B.: I would have played D10 now. Keep a move towards the lower right for later!]
;B[fc]C[B.: Now he takes the initiative on the upper side.]

(;W[hc]C[R.: am i strong enough for this one?how else could i have responded?
how good/bad was my opening ? which moves were good /wrong,where else should i have played?

B.: I think, K3 was the first move which was really not good. He gets the initiative now. You try to pincer him and get him into the corner, but this works better if you have already a stone at D10. The variation shows why.]

(;B[dc];W[fd];B[cd]
(;W[de]C[R.: is this one right?

B.: Too defensive. See my variation!];B[ed];W[ee];B[ec];W[gd]
;B[ce];W[cf];B[bf];W[cg];B[bg]C[R.: how should i have avoided this shape(it is very bad for white,isnt it?)?

B.: Yes. Your thickness is largely neutralized by the upper side corner, and the left side is now open at the bottom, which means that you won't be able to make a lot of territory there. See the earlier variation!]

(;W[bh]C[B.: Most of the time this is not a good move, since black can easily confuse your position, as I showed in a later variation.]
;B[ch];W[dh];B[ci];W[di]
(;B[bi];W[cm];B[fe]LB[df:A]C[B.: This shape you have to learn to recognize, because it's quite common. He cuts with the aim of playing A next!]
;W[ff];B[ge];W[he];B[gf];W[gg];B[hf];W[eg];B[df]C[B.: And here it is.]
;W[ef];B[dg];W[fh];B[hg];W[hh];B[ie]C[B.: You had to give a lot of way, lost most of what influence you had towards the center and your top stones are almost dead now.]
;W[if];B[ig];W[hd];B[jf];W[kc];B[lb];W[lc];B[mc];W[kb]
(;B[la]C[B.: With this move he helped you close this side in sente.]
;W[ka];B[na];W[gb];B[gc]C[B.: This also is a classical bad move. He doesn't confine you at the edge, instead he reduces his own liberties.]
;W[fb]C[B.: Good!]
(;B[eb];W[ko]C[B.: Beware! 

Before you tenuki, you should read out carefully, that the top really can't be killed! You spent the last 15 moves or so to rescue your weak stones, so it would be really annoying if they still died! I included some variations, and I think, you were in danger. While in the game, take your time to read things like this out, and if you are not sure, that you're alive as you stand, make one more safety move! I think, J18 should do.

(By the way: Practicing life and death is very important. Solve problems like a devil to learn reading out those situations! Insei also spend hours a day practicing life and death, which is in a way the fundament of all go strategy and tactics.)]

(;B[cb]C[R.: was there need of this one?

B.: No. (See 2nd variation one move earlier!)];W[mo]C[R.: now i would,instead of this one,prefer the play at C10 or D10

B.: Whatever you try with your center territory, he will have ways to reduce it, because your top center group has bad shape.

What's more important: N5. What exactly do you want to do? You always have to try to make a move that gives you some kind of profit (territory or power). What does N5 accomplish for you? Do you want to surround a large center area? You could have played immediately around K10 or M8 then. 

The reason why you should think about the profit of your move beforehand is -]
;B[mp]C[B.: - that your move helps him to strenghten his corner. You forced an answer, without really getting much for it. But he got something: His corner territory is safer now.]
;W[lp]C[B.: He is going to help you a lot now, more than necessary.]

(;B[np];W[kq];B[lr];W[kr]C[B.: You need this move to close the territory to the bottom - but now he has sente and should use it to reduce you from the other side - immediately. Something like my variation.

Moves like L2 must not be played too early. You had greater prospects in the center!

On the other hand, he could play O2 now, and then his corner should really be safe from invasion!]

(;B[ks]C[B. This one he shouldn't have played now, it's only a 3-point gote endgame move. As he answered, he didn't punish your mistake L2, which was too slow. He even punishes himself with giving you sente and giving him a cutting point at N3, which you are going to exploit later.]
;W[js];B[ls];W[qq]C[B.: This stone shouldn't be able to live. But since there is weakness to exploit (N3), it's possible. His sequence around L1 was not only gote, but also made an invasion thinkable, although closing the corner off from the left early should at least have made it safer!]

(;B[rq]C[R.: this one is wrong,is it?

B.: If he wanted to kill your stone, then yes. Unfortunately maybe this stone wasn't killable, and then this sequence, which leads to at least living himself safely, might still be one of the better sequences.]

(;W[nr];B[mq];W[rr];B[rp];W[qp];B[pp];W[pr];B[or];W[po]C[B.: I think, this doesn't work. (See variations!)]

(;B[pn]C[R.: this was blacks mistake,he should have played at S5 i think

B.: Yes, it was a mistake.];W[ro];B[qn];W[rn];B[pq];W[qr];B[ps]
;W[sq]C[B.: This move was not really sente. This is the moment for him to reduce your center!]
;B[qs]C[B.: It has passed.];W[pm];B[on];W[jj]C[B.: You took a big lead. He should have reduced you earlier instead of letting you ruin his corner in sente.]
;B[cq];W[cp];B[dq]C[R.: is there a way to kill black now?maybe with B3?

B.: No, I think, B3 doesn't work. But with e2 you can force him to start a ko-fight for life! (See variations! I hope I found the right moves - this is dan-stuff! ^_°)]

(;W[eq];B[er];W[fr];B[bp];W[bo];B[br]
(;W[dr]C[B.: Not here!]
(;B[cs];W[ap]
(;B[bq]C[B.: Mistake. A3 was his last chance.]
(;W[aq]C[B.: No!];B[ar]C[B.: Now you still can kill him!]
(;W[ao];B[es]C[B.: Now he really lives.];W[fs];B[ds];W[cj];B[bj]
;W[ck];B[bk];W[bl];B[jc]
(;W[jb]C[B.: I think you could have captured that stone, but there might have been complications ...]
;B[ic];W[ib];B[id];W[le];B[kd];W[hb];B[ld]
(;W[oh]C[R.: probably my biggest mistake

B.: At least the one that was easiest to avoid! ^_°

Look at that top group. It's a one-move-problem: White to live. A rookie can read it out!

Maybe you have the same problem as I do: When you get excited, you start to play blitz. "Here!" "There!" "Take this!" I also lose a lot of stones because of that. But: When a group with little eyespace is surrounded like that, it is time to settle down and think calmly! First comes living, then you can blitz to other places! 

Oh, I would be happy myself about an antidote for blitz-disease ... ~_~]
;B[fa];W[mg];B[me];W[lf];B[nf];W[ng];B[qf];W[rf];B[re];W[rg]
;B[pf]
(;W[ol]C[B.: The right side already lives, so don't push him into your center!]
;B[nl];W[ok];B[mm];W[km];B[ll];W[kl];B[lj];W[ki];B[kk];W[jk]
;B[ei]C[R.: id thought this movw would just be a try for a tesuji of some kind and didnt see any potential in it

B.: This is one of the most joyful thing: To make a misguided attack run into defeat. Problem: You have to be careful! If your opponent tries something like this, don't underestimate it, or maybe you'll get stabbed from behind! Calmly read out a variation, which will lead safely to his defeat!]
;W[ej];B[fi]C[B.: Now simply guard - he can't get anywhere!]

(;W[fj];B[gi];W[gh];B[eh];W[fg];B[hi];W[ih];B[ii];W[jh];B[dj]
;W[dk];B[ke];W[jg];B[if];W[hk];B[ji];W[kh];B[kj];W[gj];B[li]
;W[di]C[R.: okay,this one was my biggest mistake... :(

B.: This is one I also might have overlooked ... ^_° At least it was not the game losing mistake, because you are behind 20 points even now. Letting his bold invasion stone cause havoc was the game losing move, because before it was very close.]
;B[lh];W[kg];B[lg];W[hj];B[kf]C[R.: now the game is lost];W[mf]
;B[ln];W[lo];B[mn];W[kn];B[no];W[nk];B[mk];W[ni];B[nj];W[oj]
;B[mj];W[rs];B[os];W[se];B[sd];W[sf];B[og]
(;W[nh];B[ph]
(;W[pi]C[B.: Hmm ... was there a danger? I also would have been afraid but ... Time to read it out!]
;B[qh];W[rh];B[pg];W[qi];B[sr];W[sp];B[al];W[am];B[ak];W[ij]
;B[co];W[do];B[cn];W[bn];B[dn];W[en];B[dh];W[dj];B[rl];W[rm]
;B[rj];W[ri];B[tt];W[tt]TW[sg][sh][si][pj][rj][sj][ek][fk][gk]
[ik][pk][qk][rk][sk][cl][dl][el][fl][gl][hl][il][jl][pl][ql]
[rl][sl][bm][dm][em][fm][gm][hm][im][jm][sm][an][cn][dn][fn]
[gn][hn][in][jn][sn][co][eo][fo][go][ho][io][jo][so][ep][fp]
[gp][hp][ip][jp][kp][rp][gq][hq][iq][rq][gr][hr][ir][jr][sr]
[gs][hs][is][ss]TB[aa][ba][ca][da][ea][ga][ha][ia][ja][ka][ma]
[oa][pa][qa][ra][sa][ab][bb][db][fb][gb][hb][ib][jb][kb][mb]
[nb][ob][pb][qb][rb][sb][ac][bc][cc][hc][kc][lc][oc][pc][qc]
[rc][sc][ad][bd][dd][fd][gd][hd][jd][md][nd][od][pd][rd][ae]
[be][de][ee][he][je][ne][oe][pe][qe][af][cf][ef][ff][ag][cg]
[eg][fg][gg][jg][kg][ah][bh][fh][gh][hh][ih][jh][kh][ai][ki]
[aj][lk][ml][nm][nn][oo][po][nq][oq][cr][dr][mr][nr][as][bs]
[ms][ns]C[Summary:

As every player you made some overplays and some slack moves here and there. I have tried to find them, so that you can avoid them in the future. But there are some things which are more important, because they seem to really trouble your play, although they are rather easy to avoid!

1.) Direction of play. Remember: Don't get too close to strong positions! Either it's dangerous or simply gote. K3 in the opening gave the initiative away. And then you defended the bottom when you should have increased your center. Always look, where you have real potential, don't automatically close off the edge or something like that! Finally you drove your opponent's lower right group into the center, which cost you at least 15 points.

2.) Read in critical situations. You let your upper group die without necessity because you played too hurriedly. Then you let the lower corner live for the same reason - there were several opportunities to kill him in just one move! Finally, and game deciding, you didn't read out, what his invading stone could do to your center. The big loss after that was a bit hard to see, you had to read 3 moves ahead. But the other things were quite easy, so I advice: Take your time, discipline yourself and try to read it out in critical situations!

Here are some books which could help you, all published by Kiseido. Do you know the Hebsacker-Verlag? If not, google it and take a look, they sell more go books than you could ever read, and a lot of equipment.

1.) 1001 Life and Death Problems. Richard Bozulich. A lot of problems which are not too hard, and with which you can develop your reading ability and discipline.

2.) Direction of play. Takeo Kajiwara. With this book you can improve your analytical ability. Where should I play next? In which direction does a stone radiate its power? What does the game ask from me now? Kajiwara gives answers.

3.) Positional Judgement. Cho Chikun. This book is mainly about counting. You really learn how to evaluate who is in lead, and by how much. It helps a lot in deciding what to do next. Also the author teaches some more direction of play.

I hope, this all will help you. Good luck in the future!])
(;W[pg];B[qh];W[rh];B[ri];W[qi]C[B.: You could have cut.]))
(;W[pg]C[B.: This was better.];B[ph];W[qh];B[pi];W[oi]C[B.: He can't do anything.]
))
(;W[eh];B[gi];W[gh];B[hi];W[ii]C[B.: Where will he get his eyes? 

If your opponent tries to invade like this, without any chance of eyespace, use every of your moves to guard a weakpoint. As soon as you are sure there is no danger anymore - tenuki and gladly take every stone, he gives you for a present!]
))
(;W[mm];B[ol];W[mk]C[B.: Better try to stake out more!]))
(;W[fa]C[B.: Of course!]))
(;W[jd]
(;B[ib];W[hb];B[id];W[ic];B[jb];W[ia];B[fa];W[ja]C[B.: Now you have a miai for life. Or ... could he maybe fight? Lets see ...]
;B[ga];W[jb];B[kd];W[je];B[if];W[ke];B[ld];W[kg];B[ih];W[ii]
;B[hi];W[gh];B[ji];W[ij];B[jh];W[ki];B[kf];W[lf];B[le];W[jc]
;B[ea];W[kh]C[As it seems to me, you will live and even kill big, if he tries to destroy your miai. But since this was really hard to read out, maybe just defending like you did was still the better decision, if not the better move.]
)
(;B[ic];W[id];B[ib];W[hb];B[fa];W[ga];B[ia];W[jb];B[kd];W[ld]
;B[ke];W[ja])))
(;W[es];B[ao];W[ap]
(;B[an];W[am];B[bn];W[bm];B[cn];W[dn];B[co];W[do])
(;B[bn];W[co];B[an];W[bm])))
(;W[es]C[B.: Dead!]))
(;B[aq];W[ao];B[es];W[bq]C[B.: Again a ko for life.]))
(;B[cr];W[es];B[aq]C[B.: Now he would be alive!]))
(;W[ap]C[B.: Come from this side instead!]
(;B[aq];W[bq])
(;B[ds]C[B.: If he guards here, he can't safe himself.];W[ar]
;B[bq];W[aq];B[bs];W[cr])
(;B[bq]C[B.: Here he also can't defend, so he really has to start the ko!]
;W[dr];B[cr];W[es])))
(;W[bq];B[br];W[bp];B[ar];W[eq];B[er];W[fr];B[dr];W[cs];B[bs]
;W[es];B[cr]C[B.: Now you can't connect.])
(;W[er];B[eq];W[ep];B[dr];W[fr];B[bp];W[bo]
(;B[br];W[ap];B[aq];W[ao];B[bq];W[cs];B[ds];W[bs];B[as];W[ar]
C[B.: Ko for live, since if you connect, you have a bent four in the corner.]
)
(;B[bq]
(;W[bs]
(;B[cs];W[br];B[ap];W[ar]C[B.: Black is dead.])
(;B[br];W[ds];B[cs];W[cr]C[B.: This would be a different ko.]
))
(;W[br];B[ar];W[cs];B[bs]C[B.: Ko again.]))))
(;B[qn];W[pn];B[pm];W[oq];B[pq]C[B.: How about this one? I think he could have killed you!]
)
(;B[ro];W[pq];B[oq];W[pn];B[no];W[nn];B[mn];W[lo];B[on]C[B.: And yes, your move also seems to work!]
))
(;W[rp];B[qp];W[rr];B[pq];W[qr];B[pr];W[ro]))
(;B[rp];W[or];B[mq];W[rq]))
(;B[ck];W[dk];B[cl];W[dl];B[bm];W[cn];B[ih];W[hi];B[jj];W[ik]
;B[kl];W[jm];B[ph];W[qh];B[pj]C[B.: You did not only get little territory in the center, he even began to build an own territory there!]
;W[pi];B[oi])
(;B[nr]C[B.: Here.

But now you have sente to play around K10 and he can't reduce your center ...]
))
(;B[kp];W[lo];B[mq];W[kq]C[B.: And now he could take sente and do something productive!]
))
(;B[ib];W[hb];B[ic];W[id];B[jd];W[jc];B[ia]
(;W[fa];B[ha]C[B.: White loses the race.])
(;W[ja]
(;B[fa]C[B.: Not here! Normally it would be sufficient, but read on!]
;W[jb];B[ga];W[ha];B[ib];W[ea];B[fa]C[B.: At this point white would be dead normally. But -]
;W[cc];B[da];W[cb];B[db];W[ca]C[B.: - the cutting point saves the life of your group.

(I never would have been able to read this out in a game. ^_°)]
)
(;B[ld];W[kd];B[je];W[fa];B[ea];W[le];B[md]C[B.: White can't prevent black from playing H19 next.]
)))
(;B[tt]C[B.: So what if black tenuki and leave the cutting point at C17?]
;W[cc];B[cb];W[bc];B[bb];W[ea];B[db]C[B.: White can't kill anything.]
))
(;B[hb];W[ib];B[ic];W[ha];B[id];W[hb];B[jb];W[jc]C[B.: Even with most aggressive play he can't kill you, and the cut at C17 remains for you, for example as a ko threat, or C18 as a huge endgame point.]
))
(;B[mb];W[gb];B[fb];W[ib]C[B.: Seems to be alive.]))
(;B[dg];W[df];B[eg];W[cj];B[bi];W[bj];B[ah];W[fe];B[dj]C[B.: You probably see now, that you gave black too much potential with B12!]
))
(;W[ci]C[B.: Better this: give a little more way but get more stability. You haven't got a lot of potential on the side anyway.]
))
(;W[ec];B[eb];W[ed]C[B.: Now he needs a move to fix his shape.]
;B[cb];W[ce]C[B.: And you have sente to get a better control of the outside.]
))
(;B[cc];W[cd];B[dc];W[ed];B[fb];W[ge];B[cj]C[B.: Now he jumps in between your positions and neutralizes the power of the wall you just built. Imagine the same with a white stone at D10!]
))
(;W[df]C[B.: You could try this, since you have potential on the left side.]
;B[db];W[cc];B[jd];W[ge];B[hc];W[dj])
(;W[id]C[B.: If you want to pincer, a high pincer might be better, for a quick escape into the center if necessary, since you jump between two black positions.]
;B[fe];W[df];B[db];W[cc];B[ib];W[ld]C[B.: Something like this might happen.]
))
(;B[fc];W[df];B[jd]C[B.: Maybe he should have done this, as long as the upper side still has potential.]
)
(;B[cj];W[cl];B[cg];W[gc]C[B.: Or something like this. Now both of you don't have a moyo. But the former variation seems better to me, since here the upper right corner's influence goes to waste. Make your stones work together!]
))
(;W[qj];B[qh];W[qm];B[qo];W[dj]C[B.: R12 is a bit short, so you reduced his shimari alright. but now he has two corners which are already rather safe and probably will turn into territory later. On the other hand you have the sanrensei on the left side, and your two space extension is stable for now, although it might have to fight later. Looks well enough for me.]
)
(;W[qo];B[qq];W[ql];B[qj];W[dj]C[B.: Here he gets the ideal point at R10, and your two-space-extension is overshadowed by P4. Furthermore his corner is smaller, but safer.]
;B[pn];W[qn];B[jq]C[B.: He could spread himself at the bottom like this and reduce the influence of D4.]
)
(;W[qp];B[pn];W[oq];B[nq];W[pq];B[np];W[gq]C[B.: In this variation you give him thickness while taking the corner, and then you neutralize that thickness with G3, while the right side is yet too open for comfort. On the other hand your side also is not developed, and you never know if your opponent follows you through your intentioned joseki ...]
))
