(;FF[4]GM[1]SZ[19]ST[2]CA[UTF-8]AP[SGFC:1.15]

PB[jesus55]
BR[7k]
PW[CarlJung]
WR[7k]
KM[6.5]
DT[2007-08-10]
PC[The KGS Go Server at http://www.gokgs.com/]
RE[B+9.50]
TM[300]
OT[5x30 byo-yomi]
RU[Japanese]

;B[qd]C[Hello, I am your reviewer, Xinwen.
I have not been playing Go for quite sometimes, sorry if the review isn't good.
This is a good game by both of you.

Extra Infor, this review is done by Xinwen and Lork. Both of us shared our thoughts trying to make this review better in different view points.]
;W[dd];B[dp];W[pp];B[jp];W[qj]LB[oc:B][od:A]TR[jp]C[I'm not sure what is a good more here. I guess there is nothing fundamentally wrong with R10. Perhaps O3 would work but perhaps a bit slow.

Xinwen :::
Hmmm...
If i were black, i would move A or B instead of K4 because of enclosure.
Moving at K4 wasn't a mistake but it does not secure your territory, you still leave an invasion point.

If i were white, R10 would be okay. although i don't know what is the best move since Fuseki is my weakest part, sorry to tell ^^^||
But definitely moving at O3 is not a wise choice at this point.]

(;B[qn]TR[qj]C[Lork ::: 

I don't think R6 is a good move for black because of D10. Black should comes from O3.]

(;W[qo]LB[pn:A]C[Xinwen:::

I am thinking moving at "A" would be better for white.]
(;B[ql];W[pn]C[I'm happy to make good shape at the expense of black :)]
;B[rn];W[ro];B[pm];W[on];B[oq]C[Didn't see this coming.];W[op]
;B[nq]
(;W[od];B[oc];W[nc];B[pc];W[nd];B[qg];W[jc];B[pk];W[oi]C[Perhaps better spent at C6 or C10?

Xinwen:::
I think it is okay to P11, moving at C10 doesn't help you secure the land.]
;B[gc];W[ec]C[I'm struggling a little with proper response to invasions. I think this works ok.]
;B[ge];W[cf];B[ic];W[jd];B[id];W[cn]C[Xinwen:::
timing, yes it is good to be C6 now.];B[co];W[dn];B[ci];W[fq]
C[Is there a better place for this? My thought was that if he attacks me I'll attack him.

Xinwen:::
i think its worth to try but my thought is that, you create another weak group because he has one already. wise to strengthen D6 first]

(;B[eq]C[Xinwen:::

I don't like the black here, black will definitely lose something out of this because black helps white to strengthen the F3.]
;W[fp];B[eo];W[er];B[dr];W[ep];B[dq];W[iq];B[do];W[jq];B[kp]
;W[lr];B[mr];W[lq];B[lp];W[mq];B[mp];W[nr];B[np];W[pq];B[or]
;W[ms];B[el];W[dk];B[dl];W[ck];B[cl];W[ej]C[I regret this the moment I played it. My instincts tell me that it should have been at D11.

Xinwen:::

because you created the 2 groups.. which was not good..];B[eh]
;W[fi];B[ef];W[dg];B[dh];W[eg];B[fh];W[gj];B[fg]LB[eg:B][fg:C]
[gj:A][qj:D]C[Xinwen:::

Black lead already. you don't have enough thickness compared to him.
the reason you lose because you were to concern about destroying the territory on the bottom.

and the A B C exchanges were weird, because after A, black C creates a thickness. your A group still need to run and this result the B exchange was bad.

your D group weak = A weak.
M17 area now expose to attack.

Now as you compare, black has much secured territory than yours.So this game is decides]
;W[fd]C[Xinwen :::

This isn't worth a point. helps to strengthen his shape.];B[fe]
;W[gd];B[hd];W[jf];B[if];W[ig]
(;B[hf]C[Xinwen :::

black doesnt need this move.];W[jg];B[hg]C[Xinwen :::

Black doesn't need this as well.];W[ii]LB[ce:A]C[Trying to connect the eyeless group on the left.

Xinwen:::

black has "A" tesuji.];B[ng]C[Xinwen :::

Black mistake with this move.];W[og];B[of];W[pg];B[pf];W[qh]
;B[rg];W[rh];B[mf];W[nh];B[mh];W[mi]C[Xinwen :::

Result. black strengthen you.];B[mm];W[om]C[Perhaps better spent at P8?

Xinwen :::

i think it's the same. here is okay.];B[ol];W[nm];B[nl];W[ml]
;B[ll];W[mk];B[ln];W[km];B[lm];W[jk];B[kn];W[jm];B[jn]
(;W[ip];B[io];W[fm];B[em];W[fn];B[en];W[lh];B[mg];W[ne];B[nf]
;W[rk]LB[rm:A]C[Xinwen:::

Maybe you should try "A" instead.];B[rl];W[pr];B[oj];W[nj];B[qk]
;W[rj]C[Lack of reading on my part.];B[ph]
(;W[oh]LB[kp:A]C[xinwen ::: 

not worht to save those 2 stones.

Lork ::: 
1
Notice that "A" group is possible to kill];B[pi];W[ni];B[pj]
;W[nk];B[ok];W[sm]C[Nothing good can come from this.];B[sn]
;W[rm];B[sl];W[so];B[qm]LB[lp:A]C[Xinwen and Lork :::

At this point, you should hold back your hand, and sit back.

Look at the board and those formation.

Always don't be lazy to judge and compare the your groups with one another.

then you will notice "A" group is possible to kill]
(;W[bk];B[bl];W[bh]
(;B[cg];W[df];B[bg];W[bi];B[ch];W[bf];B[ee];W[de]LB[ce:A]C[Xinwen :::

Black missed the tesuji at  "A" just now.];B[im];W[il];B[hm]
;W[ho];B[hl];W[hk];B[fl];W[hn];B[in];W[al];B[am];W[ak];B[bn]
;W[fb];B[gb];W[jb]LB[lb:A]TR[mf]C[probably better at F17.

Xinwen:::
Hmm i not sure but i think it is the same, if you F17 then black might "A".]
;B[fc];W[ed];B[eb];W[db];B[fa];W[nb];B[ob];W[pd];B[rc];W[rf]
;B[qf];W[le];B[me];W[md];B[lg];W[kh];B[lj];W[li];B[lk];W[kj]
;B[kk];W[jl];B[gk];W[hj];B[gn];W[go];B[fo];W[gm];B[gl];W[fr]
;B[gn];W[no];B[mo];W[ds];B[cs];W[es];B[br];W[ag];B[ps];W[qs]
;B[os];W[qr];B[ns];W[kq];B[mr];W[ls];B[da];W[cb];B[ca];W[ba]
;B[ea];W[bb];B[ib];W[hh];B[gh];W[cj];B[ke];W[kd];B[je];W[kf]
;B[ie];W[lf];B[ja];W[ka];B[ia]C[Lork :::

you can tenuki here.]
(;W[lb];B[re];W[gi];B[pe];W[oa];B[pa];W[na];B[qb];W[ei];B[di]
;W[dj];B[fk];W[nn];B[kl];W[jj];B[tt];W[tt]TW[aa][la][ma][ab]
[kb][mb][ac][bc][cc][dc][kc][lc][mc][ad][bd][cd][ld][ae][be]
[ce][af][ah][ih][jh][ai][hi][ji][ki][aj][bj][ij][ik][oo][po]
[gp][hp][qp][rp][sp][gq][hq][qq][rq][sq][gr][hr][ir][jr][kr]
[rr][sr][fs][gs][hs][is][js][ks][rs][ss]TB[ga][ha][qa][ra][sa]
[fb][hb][pb][rb][sb][hc][qc][sc][rd][sd][he][qe][se][ff][gf]
[rf][sf][gg][sg][qh][rh][sh][qi][ri][si][qj][rj][sj][rk][sk]
[pl][bm][cm][dm][fm][gm][rm][sm][an][cn][dn][fn][ao][bo][jo]
[ko][lo][ap][bp][cp][aq][bq][cq][ar][cr][as][bs]C[Xinwen :::

That's about it i guesss, there are rooms for improvement of course.

Sorry again for taking so long to review this game, because at my level i see things differently and can't say it out what's the best because i haven't learn what is the best for the game. Thus, i can only tell you what i think of it.

This game has been reviewed by Xinwen and Lork. 
At any rate, you can find us in Brunei Room under National.

Thank you


Sorry can't give you too much advice because.. .yes, everyone need to improve in any part of the Go. 
I can see your fuseki and joseki really need to improve. 

Kay, best of luck 

see ya])
(;W[oa];B[pa];W[na];B[qb]C[Lork :::

3 points worth.]))
(;B[ce]C[Xinwen :::

this is the tesuji, but it's kinda... complicated.. need deep reading

there are too much variation for this, but i think Ko fight would be the best result for this tesuji,

But this tesuji is more effective if there isn't B12.]
(;W[de];B[df];W[cg];B[be]
(;W[bc];B[ch];W[bg];B[bi];W[cd];B[bf]C[Xinwen :::

this is one answer. the simplest of all variation.])
(;W[bi]
(;B[cc]
(;W[cd];B[bd];W[cb];B[bb];W[db];B[fc]LB[ba:A][bf:B]
(;W[ba];B[bf]
(;W[fb];B[gb];W[ea];B[ca];W[ee];B[ff];W[da];B[bg];W[ch];B[ed]
;W[dc];B[bc];W[fd]LB[ab:A][ag:B]
(;B[ab];W[ag];B[ga]
(;W[fa];B[aa];W[af];B[ae];W[ad];B[ah];W[ag];B[bj];W[ai];B[aj]
C[Xinwen :::

White can't do this.])
(;W[cj];B[aa];W[af];B[ae];W[ad];B[ah];W[ag];B[fa];W[ai];B[ca]
;W[ah];B[eb];W[ba];B[fb];W[af];B[ca]C[Xinwen :::

Ko fight to kill.]))
(;B[ag];W[ab];B[ga];W[cj];B[fa];W[ah];B[ac];W[ae];B[aa];W[ca]
;B[eb];W[ab];B[fb];W[af];B[aa]C[Xinwen :::

another Ko]))
(;W[bg];B[ac];W[af];B[ca];W[da];B[fb];W[ae];B[eb];W[ag];B[ad]
;W[dc];B[ed];W[bc]))
(;W[bf];B[ba]
(;W[dc];B[bc];W[fb];B[gb]
(;W[ea];B[ca];W[ae];B[ed];W[ad];B[da];W[ac];B[ee]C[Xinwen :::

not working for white.])
(;W[ae];B[fa];W[ad];B[da]
(;W[ac];B[eb];W[ab];B[ca];W[af])
(;W[ea])))
(;W[ee];B[ff];W[dc]
(;B[fb];W[bc];B[ac];W[ad];B[cc])
(;B[bc];W[fb];B[gb]
(;W[ea]
(;B[ae];W[ca])
(;B[ca]
(;W[ae])
(;W[da])))
(;W[ae];B[ca];W[ea])))))
(;W[bf];B[db];W[cd];B[bd];W[bc];B[bb];W[ac];B[ab];W[dc];B[cb]
))
(;B[ch];W[bf];B[af];W[bg];B[cc];W[cd];B[bd];W[cb];B[bc];W[dc]
;B[bb]
(;W[da];B[fb]LB[ba:B][eb:A]C[Xinwen :::

Doesn't help white in A or B]
(;W[ba];B[eb];W[db];B[ab]
(;W[ae];B[ee];W[ad];B[ac];W[ae];B[ed];W[ag];B[ea])
(;W[ee]C[Xinwen :::

moving this way for white is the same.];B[ff];W[ad];B[fc];W[ae]
;B[ac];W[ae];B[ed]
(;W[fd];B[gd];W[ag];B[ea];W[af];B[ed];W[ad])
(;W[ag];B[fd];W[af];B[ea])))
(;W[eb];B[ba]C[Xinwen :::

Either way for white doesn't help]
(;W[ca];B[fa];W[ee];B[ff];W[fc];B[ea])
(;W[ae];B[ca];W[ee];B[ff];W[fc];B[gb];W[ad];B[fa]
(;W[ag])
(;W[ea];B[db]))))
(;W[ee];B[ff];W[fc];B[db];W[eb];B[ca];W[gb];B[hb];W[fa]C[Xinwen :::

this can be done though]))))
(;AE[bh];W[de];B[df];W[cg];B[be]C[Xinwen :::

you can most likely to take down the 4 stones];W[bc];B[db];W[ee]
;B[ff];W[fc];B[gb]
(;W[bd]
(;B[bf];W[bg];B[bh];W[cd];B[ch];W[ae];B[ag];W[eb];B[fb];W[ea]
)
(;B[dc];W[cd];B[eb];W[ch];B[bh];W[bf];B[di]))
(;W[dc];B[eb];W[bh];B[ch];W[bf];B[af];W[bg];B[bi];W[fb];B[fa]
;W[cb];B[ea];W[cd];B[ah];W[bd]C[Xinwen ::: 

and so on.]))))
(;W[hn]
(;B[in];W[no];B[mo];W[ko];B[im];W[kk];B[ho];W[gn];B[fo];W[go]
;B[gp];W[hp];B[gq];W[gl]C[Lork :::

possible.])
(;B[nn];W[no];B[mo];W[mn];B[ko];W[in];B[ho];W[gn];B[fo];W[go]
C[Lork :::

still dead.])
(;B[ho];W[go];B[im];W[kk];B[no];W[in];B[nn]C[Xinwen :::

In my opinion... you can't kill the black,])))
(;W[pi];B[oh]))
(;W[hm]C[Lork :::

Maybe... this is possible not sure it will works actually.]

(;B[im];W[il];B[in];W[gn];B[en];W[ip];B[hn];W[go];B[no])
(;B[ho];W[fo];B[en];W[ip];B[io];W[no];B[mo])))
(;B[hi];W[hk];B[ji]))
(;B[fp]
(;W[gp];B[fo];W[hq];B[dk]C[Xinwen:::

I would play like this for black])
(;W[cq];B[bp];W[cp];B[do];W[dq];B[eq];W[er];B[ep];W[gq];B[dr]
;W[cr];B[fr];W[ds];B[hq];W[gr];B[gp];W[fn];B[hr];W[fs];B[dk]
)))
(;W[qg];B[od];W[rk];B[rl];W[oj];B[nl];W[mn];B[nm];W[nn];B[ll]
;W[kn]))
(;B[pn]C[Lork:::

if black happens to answer this way.];W[nq];B[ql];W[qg];B[od]
))
(;W[pn];B[pm]
(;W[on]
(;B[qo];W[qp];B[ql];W[np])
(;B[qp];W[qo];B[ro];W[po];B[rm];W[qq];B[rp];W[om];B[pl];W[mq]
))
(;W[qo];B[on];W[po];B[om];W[qm];B[ql];W[rn];B[pk])))
(;B[od];W[qg];B[cj]C[Lork :::

this is later, if black moves elsewhere];W[pc];B[pd]TR[od][qd]
[qg][qj]C[Lork:::

doesn't seem good for black since white has 2 stones there. Q17 is for middle game.]
)
(;B[nq];W[pn];B[fc]LB[kc:2][cf:1][lq:B][qq:A]C[Lork:::

then black can keima at F17.

Black can "A" later. White can "B" later.
But it is not urgent to invade now.. invasion occurs after fuseki.

Xinwen :::

If white responds at "1" then black "2" will becomes the "mini chinese fuseki"]
;W[od];B[mc];W[qc];B[rc];W[pc];B[re];W[ne];B[pg];W[ld];B[kc]
;W[lc];B[lb];W[mb];B[kb];W[md]
(;B[df];W[fd];B[gd];W[fe];B[ec];W[de];B[cb];W[id];B[ge];W[gf]
;B[he])
(;B[cf];W[df];B[dg];W[ef];B[ce];W[ed]TR[hc][ic]C[Lork :::

In my opinion, i don't think D14 is good because black need to make a move to cover up the marked points, meaning that black is going to face the thickness which is not nice.]
)))
