(;FF[4]GM[1]SZ[19]ST[2]CA[UTF-8]AP[SGFC:1.15]

PB[weak888]
BR[1k]
PW[Unranked]
WR[1k]
KM[6.5]
DT[2007-08-16]
PC[The KGS Go Server at http://www.gokgs.com/]
RE[W+6.50]
TM[1500]
OT[1x10 byo-yomi]
RU[Japanese]

C[I obviously messed up the bottom left and bottom, but the big center facing wall I got in return seemed to be pretty effective.  Still, I'd like to know how I could have handled the bottom situation better.  Any other comments throughout the game appreciated.  Thank you.

Hiya, I'll try and review as well as I can for you. If you have any questions that I haven't answered feel free to contact me on KGS. I am aitkensam or hotspur most of the time.

I have reviewed the bottom left in quite a lot of detail and put brief comments for some other key points, but blacks style after the bottom left fight is difficult to review :s

BR

Sam Aitken];B[pd]C[Unranked [1k\]: hi
weak888 [1k\]: hi];W[dp];B[po];W[dd];B[jq]C[Unusual fuseki from black..]
;W[nc];B[qg];W[jd]C[I like this move. It stops him from playing such a moyo game which he clearly intends to do. And also lines up going in to R17.]
;B[cn]C[Aggressive style.]
(;W[dk]C[ As you are outnumbered here, I would think it is more sensible to stay strong and not creat extra groups by pincering.

See variation.]
(;B[fn]C[So. This move is unusual.

See variation.]
(;W[gq]C[So this is a little thin.

See variation];B[bp]
(;W[dn]C[This is too early in my opinion.

See variation.];B[dm]
(;W[cm]C[This cut is not possible here, this is the first major error I think.

See variations.];B[do];W[en];B[eo];W[em]
(;B[bn]C[See Variation];W[fo]C[Strong cut. Black is short of liberties after B6 so this move makes the fight even again.]
;B[ep]C[Only move.]
(;W[eq]C[One move too early?

See variation.];B[fp];W[go];B[gp];W[hp]C[Good. there is a proverb about always capping even if the cuts work, this is a good example =)]
;B[ho];W[gn];B[fm]
(;W[el]C[See variation];B[hq];W[ip];B[fq];W[iq];B[gr];W[gm]
;B[ir];W[jp];B[kp]
(;W[kq]C[This obviously a big mistake.

Agreed =)

See variation.];B[jo];W[jr];B[io];W[jq];B[lq];W[lp];B[ko];W[lr]
;B[mq];W[mr];B[js];W[kr];B[nq]C[This should be game over :-(]
;W[nr];B[oq];W[mo]
(;B[or]C[This move is bad.

See variation.];W[kn]C[All the following black moves on the first line are bad, he should just break out.]
;B[ns];W[jn];B[ks];W[in];B[ls]C[So Black gave white a chance.]

(;W[cf]LB[db:C][eb:B][dc:A][fc:D]C[See Variation

Any of these points seems a better invasion for black than the game.]

(;B[id]C[Strange point to choose.

See variations for more conventional ideas.];W[jc];B[ed];W[ec]
C[This must be good for white.];B[fc];W[dc];B[ie];W[ic];B[fd]
;W[ge]C[good. black shape is deroyed. the invasion is a failure!]
;B[ef];W[gg];B[cg];W[df];B[fg];W[dg];B[gf];W[hf];B[ff]
(;W[hd]C[See variation];B[hg];W[if];B[gh]C[Ponnuki is big, more than black deserves.]
;W[qo]C[Brave];B[qn];W[pn]
(;B[on]C[This atari is very bad, it helps you a lot.

"Crosscut, Extend"

See variation];W[pm];B[qp];W[qm];B[oo];W[qi]
(;B[ne]C[Wrong way for black, should protect corner.

See Variation];W[qc]C[Very big! Game is flowing back towards white.]

(;B[qd]C[Wrong direction again =)

See Variation];W[pc];B[jh];W[hi];B[ig];W[jf];B[ke];W[je];B[nd]
LB[mc:A]C[A is really needed here. Attack from a strong base is important. If black spends a whole move connecting his stones that is ok.

I will stop here as the interesting parts of the game as pretty much over.

Don't hesitate to contact me on KGS if you have any further questions.

Sam];W[lh];B[li];W[ki];B[kh];W[kj];B[lg];W[mh];B[kf];W[jg];B[ii]
;W[kg];B[hj];W[mb];B[gi];W[eh];B[ej];W[dj];B[ei];W[di];B[gk]
;W[fk];B[jk];W[mg];B[pi];W[qh];B[ph];W[rg];B[rf];W[pg];B[qf]
;W[pj];B[og];W[oi];B[oh];W[kk];B[kl];W[ll];B[fh];W[rn];B[oj]
;W[pk];B[ni];W[rp];B[qq];W[rq];B[bl];W[bk];B[cl];W[ck];B[dl]
;W[al];B[bm];W[fj];B[fb];W[lf];B[ld];W[lc];B[md];W[kd];B[ca]
;W[cb];B[da];W[ba];B[fa];W[bb];B[rh];W[ri];B[sg];W[si];B[ok]
;W[qr];B[pr];W[rr];B[eg];W[dh];B[ia];W[ib];B[ha];W[ja];B[sh]
;W[pl];B[rd];W[lo];B[ms];W[jl];B[il];W[km];B[ij];W[rc];B[sc]
;W[sb];B[sd];W[rb];B[am];W[ak];B[fi];W[im];B[hl];W[nf];B[of]
;W[nm];B[oc];W[ob];B[od];W[mc];B[ek];W[fl];B[le];W[mi];B[mk]
;W[ml];B[mj];W[ji];B[ih];W[hb];B[ga];W[db];B[ea];W[nk];B[ol]
;W[nl];B[nj];W[om];B[lj];W[nh];B[mf];W[lg];B[ng];W[jj];B[ik]
;W[nn];B[no];W[mp];B[np];W[gd];B[gc];W[ps];B[de];W[ce];B[ee]
;W[hc];B[os];W[qs];B[oi];W[lk];B[gl];W[tt];B[tt]TW[aa][ka][la]
[ma][na][oa][pa][qa][ra][sa][ab][jb][kb][lb][nb][pb][qb][ac]
[bc][cc][kc][ad][bd][cd][id][ae][be][he][ie][af][bf][ag][bg]
[cg][ah][bh][ch][ai][bi][ci][aj][bj][cj][qj][rj][sj][qk][rk]
[sk][kl][ql][rl][sl][fm][jm][lm][mm][rm][sm][fn][ln][mn][qn]
[sn][ro][so][sp][sq][sr][rs][ss]TB[me][oe][pe][qe][re][se][nf]
[pf][sf][gg][pg][rg][hh][hi][hk][cm][an][ao][bo][co][ap][cp]
[dp][hp][ip][jp][op][pp][aq][bq][cq][dq][eq][gq][iq][jq][kq]
[pq][ar][br][cr][dr][er][fr][hr][jr][kr][lr][mr][nr][as][bs]
[cs][ds][es][fs][gs][hs][is]C[Unranked [1k\]: Thanks
weak888 [1k\]: thx])
(;B[pc]
(;W[pb];B[qd];W[rb];B[rc];W[qb]C[One way])
(;W[qd];B[pe];W[qe];B[qf];W[pb];B[ob];W[qb];B[oc]LB[sb:D][rd:B]
[re:A][rf:C]C[Another way. White has sente here.
But A,B,C,D is blacks privelige later.])))
(;B[pb]))
(;B[qm]C[Better is simply this. Now w moves look a little lost.]
))
(;W[ig]C[maybe you can encourage black to capture here. He still doesn't have many eyes.]
;B[he];W[hc];B[gd];W[kf]C[Still not alive.]))
(;B[fc];W[ec]
(;B[fd]C[Heavy :-s

See Variation])
(;B[eb];W[db];B[jc]C[Try and make some sabaki]))
(;B[eb];W[db];B[dc];W[ec];B[cc];W[cb];B[ed];W[fc];B[cd];W[de]
;B[fb];W[bb];B[gc];W[fd];B[ge];W[fe];B[ff];W[gd];B[hd];W[ee]
LB[he:A]C[This is a standard sequence. usually black connects at A next.]
)
(;B[db];W[dc];B[eb];W[cb];B[bb];W[cc];B[hc]C[Another standard invasion]
)
(;B[dc];W[cc];B[ec];W[cb];B[ed];W[de];B[hc]C[And another]))
(;W[fc]C[I would come this way as now black has to invade next to your thickness which makes him easier to attack.]
))
(;B[jl]LB[op:F][pp:E][pq:C][qq:D][or:A][pr:B]C[If black simply jumps there is nothing white can do.
If A, B,C, D, E, F is a ladder.

See variations.]
(;W[or];B[pr];W[pq];B[qq];W[pp];B[op])
(;W[pr];B[or];W[os];B[ns];W[ms];B[pq];W[qr];B[qq];W[rr];B[ks]
;W[rq];B[rp]C[Also dead.

Game over :-(])))
(;W[in]C[Should of course be here.];B[ko]
(;W[io])
(;W[jn]LB[cc:D][fc:F][qc:C][cf:E][pq:A][qq:B]C[Still a lot of big points on this board.]
)))
(;W[dl]C[A small point, but I would capture a stone.

"There is no aji in a stone is the bowl"]))
(;W[go]TR[fn]SQ[fo][gq]C[Perhaps it is best to just pull back here. This makes E3 a much more effective squeeze. And as F7 group os not at all weak, this seems like a good fight with the F6 group.

I think your stones are easier to manage and you should reduce the right side a bit in the ensuing fight.]
;B[gm];W[eq];B[dq];W[fp];B[cp];W[jo];B[el];W[dl];B[fm];W[dm]
C[Possible line. Seems an easy fight for white.]))
(;B[fm];W[dl];B[el];W[dm];B[fo]C[Connecting here seems a better way to play for black. This way he is far less likely to be squeezed.]
;W[co];B[cp];W[bn];B[eq]C[This nets. (see variation) Black has the corner and equal influence so this must be good for black.]
;W[dq];B[cq];W[dr];B[er]))
(;W[en];B[em]LB[cm:A][fm:B]SQ[dk]C[If you want to cut you probably have to make this exchange first. Now black has two cutting points and the marked stone will help to create more aji. It is still not easy for w though.

I will show some possible variations but I think it is better for white to leave this aji and just take C3 and leave D6 for later]
;W[cm]C[White cuts at A];B[cl]C[Only move];W[bm]LB[bl:A][bn:B]
C[Black has two choices now.]
(;B[bl]C[If A

See variation.];W[bn];B[co];W[dl]LB[cj:A][ck:C][fm:B]C[Black is lost.
If A white B is a ladder.
C breaks the ladder.

See variations.]
(;B[cj];W[fm]C[Black loses the fight])
(;B[ck];W[cj];B[bj];W[al];B[bk];W[bi]LB[ci:A][dj:B]C[Two options

See variations.]
(;B[ci];W[dj];B[bh];W[fm]C[Another ladder])
(;B[dj];W[fm]LB[ci:B][el:A]C[Again two options for black

See variations.]
(;B[el];W[ek];B[fl];W[ci]C[Difficult for black in this position. The 5 stones are dead. Black needs C3 and G7 to be happy.
So the fighting should be ok for white.])
(;B[ci];W[el]C[Black still has B4 stones to worry about and there is possible aji if w gets the chance to play B12 as well. So this must be good for white.]
))))
(;B[bn]C[If B

This seems a better way to play for black.];W[bl];B[ck]C[This fight seems easier for black.

White has two options. Crawl along the second line until he has enough liberties for C3 to win a semeai.
 
BUT

Black may take C3 and force white to hane of the second line. This would leave G3 group worryingly weak.

OR

White can try and sacrifice the 3 stones to try and capture F6. 

I have showed some variations but this fight is complicated so they may not be the best lines...]

(;W[bk];B[cj];W[bj];B[ci];W[bi];B[ch];W[bh]
(;B[cg];W[cq];B[bq];W[br];B[ar];W[cr];B[bg];W[co];B[bo];W[am]
C[White wins this race.];B[ah];W[ai];B[ak];W[ag];B[be]C[Probably this is good for white as black still has cuts.

Therefore black will probbly take C3 one move earlier.])
(;B[cq]C[IfBlack lives in the corner.];W[cg]LB[dl:A]TR[dn][en]
[dp][gq]C[Big hane, but the marked stones are very weak.

Still some aji at A.

I guess this is good for black but maybe white can play it.]
))
(;W[fm]C[With this cut white tries to sacrifice in exchange for thickness.]
;B[fo];W[ep];B[bk];W[gm]LB[dl:A]C[This sets up a ladder so black must answer somehow]
;B[ek];W[ho]C[And white gets some thickness here.

I can't really say who this is better for, but I think it is probably ok for black as C3 is still open. Not a disaster though.]
))))
(;W[cq]C[I think again it is better to be solid. The aji at D6 will never go away so there is no rush to use it. After playing C3 here w should be very happy.

If black fixes the aji at D6 with a slow move to connect his stones you should still be happy, as then he will have used two moves instead of one to jump out to the centre. His stones will be inefficient.]
))
(;W[fq]LB[gq:A]C[I think again it is best to be solid and simple. The extension to G3 is thinner and leaves you more open to attack. Playing solidly like this also aims at cutting through with D6 and punishing his two space jump.]
;B[bp];W[cq];B[bk]C[If black plays "normal" which I admit in this game is probably unlikely, there is a lot of aji in his shape. For example..]
;W[cl];B[bl];W[cm];B[bm];W[dn];B[co];W[do]LB[fn:A]SQ[bk][bl]
[bm][bp]C[Connecting your stones is big.
Black has 4 stones on second line and A is doing very little now.]
))
(;B[en]C[This black move should of course be here. As black I am already quite happy in this corner as I outnumber D4 three to one.]
;W[fq];B[bp];W[cq];B[bk]C[joseki.]))
(;W[fq]C[Simply a low extension is fine. Live and simple. Not really fitting with my style of fighting but I am quite confident it is the right idea =)]
))
