(;FF[4]GM[1]SZ[19]ST[2]CA[UTF-8]AP[SGFC:1.15]

GN[Bleedo-yugahodaka]
PB[yugahodaka]
BR[5k]
PW[Bleedo]
WR[5k]
KM[6.5]
PC[PANDA NET]
RE[B+0.50]
RU[Japanese]

;B[pd];W[dc];B[qp];W[dp];B[fq];W[dn];B[kq]TR[qp][fq]C[A bit farther than usual, but I really don't think I should try to exploit this weakness now, for two reasons.
1. It's a bit too early
2. I have no idea how

This is the mini-chinese formation by black. The idea is to develop fast and invite white to jump in, and then attack the invasion to secure some real territory. You were right to not invade immediately.]
;W[nc];B[pf];W[pb]
(;B[de]TR[kc][qc]C[I didn't expect this

Ignoring Q18 is perfectly normal and is seen a lot in professional games. There are two reasons.

The first is that the two marked points (R17 and L17) are miai for white (that is, white is sure to get at least one of them) to settle his group. That means that black can take one of them and force white to take the other. Since black doesn't know which will be more useful to him yet, it makes sense to leave the decision until later.

The second reason is to do with the high position of Q14. Using this stone effectively is quite hard. See the variation on the last move.]
;W[cg]C[A pincer seemed most natural

Definitely.];B[cc]
(;W[cb];B[cd];W[eb];B[ef];W[gd];B[dh];W[ci]C[Good.];B[ch];W[bh]
;B[bg];W[bi];B[cf]
(;W[cl]C[This move feels a little overconcentrated and low on the left, especially with the 3-3 invasion still open.]
;B[cq];W[dq]C[Well, since L3 was a bit farther than usual, this seemed to be a good move, but C4 seemed alright. Might have been a bit passive though.

This move takes advantage of white's overconcentration. No result seems particularly good now.]
;B[dr]
(;W[er];B[cr];W[eq];B[bo]C[This is also playable, because white can make use of his strength to reduce the black framework. White's low stones on the left look wasted, though.]

(;W[co];B[bn]C[I guess B6 would have been better than C5, I thought he would play B4, but I guess I was wrong.

You should leave the position after B5, and take either C5 or B6 once you know which is more useful. Both are fairly small for now.]
;W[bm]LB[dl:3][cm:1][dm:2]C[Small endgame move

You might need something to stop black cutting with 1-2-3, but even so, something like E8 is more active.]
;B[lc]
(;W[jc]C[Not good. See variation.];B[qc]
(;W[lb]C[White's shape with Q18 is awkward here. The exchange of Q18 for R17 removes your possibilities in the corner, but Q18 is too far away to be of any real use. Black misses a cut which would have been disastrous.]

(;B[kb];W[kc];B[mb];W[ld];B[mc];W[md];B[nb];W[oc]C[Black misses a chance here]

(;B[ob];W[pc];B[la];W[ne];B[qj]C[White seems far behind on points now. Both sides have around 25 points of solid territory, but that's not counting any of black's huge framework. White has a lot of thickness around the board, and needs to find a way to make use of it fast.]

(;W[qm]C[I was wondering about playing O3 or P3, but I thought I might leave that alone for later.]

(;B[pn]C[This is an ugly-looking move by black, but it's actually surprisingly effective. Shoulder hits like this are being tried by Korean professionals to solidify frameworks.]

(;W[pl];B[oj];W[nl];B[ok];W[ol];B[op]C[He made some excellent moves, strengthening the top right and the bottom right, plus my stones weren't very safe.

Yes. Your moves were a bit too heavy, so now the invasion is more of a burden than a profit.]

(;W[iq]C[Another  invasion that I'm questionable about.

F3 is so weak that this hardly deserves to be called an invasion. This just provokes black to defend, but there doesn't seem to be anything better.

You really ought to defend your weak group, but you're too far behind to be able to afford that. Since you have influence, you can maybe get away with leaving it floating. *Definitely* not something I'd usually recommend though.]

(;B[jo];W[ho];B[di]C[Ouch. This point whould have been white's.]
;W[dj];B[ej];W[dk];B[gf]TR[lj][jm]C[Black ought to keep up an attack on the floating white stones with a move at one of the marked points.]

(;W[mr]C[It seems that this wasn't the right way to invade... so what is?]
;B[or];W[kr];B[go]C[Black is trying too hard. A gentle attack on O8 is the surest way to keep the game under control and win.]
;W[hn];B[hp];W[ip];B[gn];W[hm];B[gm];W[gl];B[fl];W[fk]C[Double hane, very useful]
;B[gk];W[hl];B[ek];W[fm];B[fj];W[em];B[hq];W[io];B[jr]C[Black uses what aji he has]
;W[ir];B[lr];W[jq];B[ks];W[kp];B[is];W[hr];B[hs];W[gr]C[Should be G1.]
;B[js]C[I have no idea why black plays this move.]
(;W[mp]C[See variation];B[lp];W[lo];B[lq];W[kn];B[mq];W[ph]
C[This might have been a bit too eager

Black's move at G5 has backfired spectacularly, giving you a lot of solid points, reducing his own moyo and (most importantly) getting O8 out of trouble. You played very well, and you're back in the game.

This is definitely the area to play. Now that O8 is safe, black looks very thin around here.]
;B[qh]
(;W[qe]C[I just wanted to see how he would answer

He answers by fixing a weakness. Unless you have a plan in mind, getting your opponent to fix a weakness is never good. You lose the chance to play R18 later, as well as removing a lot of aji.]

(;B[qd];W[pe]
(;B[od];W[oe]C[It was a tough desicion, but I decided to let him have my stones.

That's huge! You really have to kill the right side to make that worthwhile.]
;B[nd];W[re];B[qb];W[pi];B[qi]
(;W[pg];B[qk];W[mj];B[rl];W[rm];B[rg]C[I thought he was alive

I think so.]
(;W[gh];B[gi];W[hh];B[hi];W[ih];B[ii];W[if];B[mi]C[You've destroyed his territory in the centre, but he has also destroyed yours. I think black gets the better of this sequence.]

(;W[mh]C[Maybe M12 might have been better];B[lh];W[lg];B[li]
;W[kh];B[mg];W[nh];B[kg];W[lf];B[jh];W[kf];B[jg];W[hf];B[ni]
;W[jk];B[oh];W[ng];B[og];W[nf];B[oi];W[qf];B[mn];W[mo];B[nn]
;W[sp];B[rp];W[so];B[sn];W[rn];B[sq];W[ro];B[rq];W[ll]C[I can't believe he didn't notice this move either

:)];B[ln];W[km];B[np];W[ko];B[ib]C[I seriously don't know how to respond to moves like these. I just wing it most of the time. The way you played is fine.]
;W[hc];B[hb];W[gb];B[rd];W[cn];B[bp];W[ag];B[bf];W[af];B[ae]
;W[ai]C[Misclick, my computer was lagging heavily and my mouse moved as I clicked. It was an obvious mistake, but my opponent was greedy and didn't let me have an undo. I believe if it hadn't been for this move, I would have won.

Unlucky. Some people don't like giving undos for any reason at all, which I suppose is their choice.]
;B[ah];W[bb];B[bc];W[jb];B[ja];W[ic];B[ia];W[fh];B[eh];W[fe]
;B[ff];W[ed];B[el];W[dl];B[lk];W[mk];B[ql];W[pm];B[kk];W[kl]
;B[jj];W[lj];B[kj];W[no];B[oo];W[fi];B[ei];W[ik];B[ge];W[he]
;B[ee];W[fd];B[jf];W[je];B[of];W[qg];B[rf];W[sf];B[sh];W[se]
;B[sd];W[sg];B[rh];W[hj];B[hk];W[ij];B[gj];W[fg];B[ig];W[hg]
;B[ki];W[eg];B[dg];W[an]
(;B[ar]C[I didn't think he needed to be so cautious.

I think it's a bit more complicated than that. See variations.]
;W[qo];B[gs];W[ao]C[I didn't see F2]
(;B[ap]C[Black decided he'd answer this, then play F2

Very silly. Maybe black didn't see F2 either. The question is whether you can kill him if he plays F2 instead of this.]
;W[fs]C[But I didn't let him have the luxury];B[am];W[al];B[ab]
;W[po];B[pp];W[an];B[ba];W[ca];B[ac];W[ag];B[ds];W[sl];B[sk]
;W[sm];B[es];W[fr];B[ka];W[nm];B[on];W[ga];B[af];W[ah];B[mm]
;W[ml];B[aa];W[cp];B[dd];W[am];B[pk];W[nk];B[pj];W[nj];B[gg]
;W[ao];B[ha]C[The endgame was all fine. 

You fell behind in the beginning because you took influence in exchange for territory and then failed to use it effectively to attack anything. It looked like you were a very long way behind, but influence is more powerful than it appears. If your invasion at R7 had been a bit more effective, it would have been much closer.

Black's failure around G5 put you back in the game, or even in the lead, but then giving up Q17 in the hope of killing something was too risky. A simple reduction would have done.

That's it - if you have any questions, please do email me or find me on KGS (i play as "ods")

Good luck!

Lloyd])
(;B[fr];W[es];B[fs]
(;W[bs];B[br];W[ap];B[aq];W[am];B[cp]C[I don't think so.])
(;W[cp];B[ap])))
(;B[ao]
(;W[am]
(;B[cp])
(;B[aq]C[Clearly alive]))
(;W[aq]
(;B[ar];W[br];B[bs];W[as];B[bq];W[cs];B[ds];W[am];B[ap];W[es]
;B[bs]C[Black lives in double ko. This gives white an unlimited supply of ko threats.]
)
(;B[br];W[ar];B[ds];W[bs]C[Seki.])
(;B[ds];W[br];B[bs];W[as];B[bq];W[cs];B[ap]C[Double ko])
(;B[bs];W[bq];B[cp];W[br];B[ds];W[as]C[Ko.]))))
(;W[li];B[mh];W[jk])
(;W[lh];B[li]C[M12 is not so good.];W[mh];B[kh];W[kg];B[jh]
;W[jg];B[kk]))
(;W[ij];B[hi];W[ii];B[ih]))
(;W[pj];B[pk];W[qk];B[pg];W[ni]C[I was planning on this, but I decided that I might kill the group. Of course, I was wrong.]
))
(;B[oe];W[of];B[od];W[pg];B[qf];W[qg];B[rf];W[rg];B[re];W[nd]
C[I wanted to attack the little weak group after]))
(;B[pe];W[pg];B[qg];W[qd];B[rc]C[Doesn't work unfortunately]
))
(;W[mj]C[Perhaps you can be satisfied with this submissive answer and play here to build something in the centre?]
)
(;W[qg]C[B as a hard time holding everything together now.]

(;B[pg];W[qi];B[rh];W[pi];B[ri];W[pj];B[pk];W[qk];B[oh];W[rj]
;B[oi];W[qj];B[ng];W[rg])
(;B[rh];W[qf];B[pg];W[qe];B[qd];W[pe];B[od];W[nd];B[oe];W[of]
;B[og];W[nf]
(;B[oh];W[rd];B[rc];W[re];B[qb];W[pa];B[sb];W[ra])
(;B[re];W[oh]))))
(;W[lq]C[Don't be afraid of ko. White has absolutely nothing to lose from this one.]
))
(;W[qq]C[Here is good.]
(;B[pq];W[rp];B[rq];W[qo];B[qr];W[po];B[oo];W[on];B[ro];W[rn]
C[Settling your weak stones is big.])
(;B[rp]
(;W[pq])
(;W[oq]
(;B[pq];W[pr];B[pp];W[nq];B[qr];W[mo])
(;B[nq];W[np];B[pq];W[mq];B[or];W[nr];B[oq]C[Black can't fight a ko here. It would be far too heavy. Threatening ko is an excellent light way to play.]

(;W[lp])
(;W[no])))))
(;W[kp]C[The knight's move can be cut. That's why I would have preferred K5 at L5.]

(;B[jp];W[jq];B[lq];W[lp];B[mp];W[kn])
(;B[jq];W[jp];B[ip];W[hq])))
(;B[ip])
(;B[ko]C[I would prefer this to black's move in the game.]))
(;W[mo];B[mq];W[jo];B[iq];W[mi]C[Maybe this? A bold whole-board approach. Maybe too desperate, but at least it's an alternative to leaving a weak group.]
))
(;W[pj]C[This is the best move I can come up with. White shouldn't be afraid of a violent fight, since he has thickness to support him.]

(;B[qi];W[pl])
(;B[pi];W[pk];B[qh];W[mk])
(;B[pk];W[qk]
(;B[qi];W[pl];B[ok];W[ol];B[nk];W[nl];B[oi];W[no])
(;B[ql];W[rk];B[pl];W[qi])))
(;W[pm];B[on];W[om];B[nn];W[ml];B[oj]C[If white just pushes, black's moyo is solidified]
))
(;B[op]C[What if black just closes the corner? You need to be much more aggressive than this to stay in the game.]
))
(;W[op]
(;B[oq];W[nq];B[pq];W[np];B[qn];W[iq];B[ko];W[nm])
(;B[mq]
(;W[qq];B[rq];W[pq];B[ro];W[pn];B[qm];W[pm];B[ql];W[iq])
(;W[or];B[pn];W[on];B[pm];W[iq]))))
(;B[nd]C[A black cut here captures three white stones. When you play Q18, you're committed to taking either R17 or an extension along the top, and in this game you let black get both.]
))
(;B[qj]C[Black could just treat M17 lightly, and extend for a nice position. The aji of M17 will still help a lot in reducing the top side.]
))
(;W[ne]C[This seems like the best option here. You played K17 to attack, so you can't back out now.]
))
(;W[qc]C[The white formation in the top left is very strong. Extending from it is a waste. White should take R17, which takes some much-needed territory.]
;B[ic];W[op]C[If black extends to settle his stone, the top left white group is strong enough to take care of itself.]
))
(;W[nq];B[pq]
(;W[iq];B[ko];W[no]C[This could be an ugly fight, but at least white gets some use out of the thickness at D6]
)
(;W[no]
(;B[qm];W[ko])
(;B[ko];W[pn];B[qn];W[qm];B[rn];W[om])))
(;W[op];B[mq];W[qq];B[rq];W[pq];B[ro];W[pn];B[qm];W[pm];B[ql]

(;W[mo])
(;W[iq])))
(;W[cp];B[br];W[bq];B[cr]C[This is ok, but now it would be better if C8 were higher.]
))
(;W[di];B[eh];W[fj]C[I would play like this. The left side is more interesting, and white avoids losing control of the centre. Since black is playing with a big moyo in the bottom right, controlling the centre is especially important. Having a strong position in the middle will give you something to attack and invade from, as well as limiting the moyo.]
))
(;W[cd];B[dd];W[ce];B[cf]
(;W[bf];B[ec];W[df];B[db];W[kc]C[This is another joseki to consider.]
)
(;W[df];B[bf];W[bc];B[cb];W[be];B[ec];W[bg];B[ef];W[dg];B[kc]
;W[qc]C[This variation is not so good because black gets sente and so gets the nice extension to L17. Ignoring Q18 really pays off this way.]
)))
(;B[qc];W[kc]TR[qc]C[Suppose black makes this exchange. Then black really needs another move on the left.]

(;B[qj];W[de]C[Black can play like this. This is a nice slow way of playing, but it may not appeal to black, who has to give komi.]
)
(;B[de];W[qh]C[Black can also leave out the extension, but then white can invade here (later) to put black on the spot. R17 is committed to taking territory in the corner, but to defend now seems badly forced. If black didn't want to add the extension, he should either ignore Q17 (giving up the territory for a move elsewhere) or play Q14 at R14.]
;B[qg];W[oh])))
