(;FF[4]GM[1]SZ[19]ST[2]CA[UTF-8]AP[SGFC:1.15]

PB[BonScott]
BR[30k]
PW[lagruge]
WR[17k]
KM[0.5]
DT[2007-08-22]
PC[IGS-PandaNet]
RE[W+Resign]
TM[600]
RU[Japanese]

C[hi please review this game for black. i just started a few days ago and wanted to know how good or bad my go is
--------
It seems to me from this game that you've learned a lot those first few days, but a few weaknesses you have are holding you back.  Hopefully this review helps you overcome them.]
;B[dp];W[cd];B[pp];W[pc];B[jp];W[jc];B[cn];W[dh];B[ck]TR[pe]
[qn]C[This move right here is what we call "too slow".  You aren't expanding very much by doing this, and early in the game it's important to look for big moves.  Try something on the right side instead]
;W[ek];B[el];W[dl];B[dk]C[Good move here, white needs to be more cautious, and you took advantage of that.]
;W[cl];B[ej];W[fk];B[fl];W[dj];B[fj];W[gk];B[bl];W[bk];B[cj]
;W[di];B[cm];W[bj];B[ci];W[ch]
(;B[dm];W[bi];B[cl]C[This move was also unneeded.  Take your time, and don't be afraid of white, it looks lik eyou paniced here.  If you really wanted a more secure shape here, see the variation I posted a few moves back.]
;W[gh];B[jk]TR[hl]C[This move is too separated from your other stones.  If white wants to invade the bottom, he can enter from H8, or somewhere lower down.  You can't secure the bottom like this, and even if you did white would win because the top is larger.  Try play along the right side some.]
;W[jj];B[mj];W[pg];B[ph]C[Once again, this stone is too far from your other stones, which means white can push you around.  Here don't be afraid to group your stones close together, because it will give you strength to launch an attack later.]
;W[qh];B[pi];W[qi];B[pj];W[qj];B[qk];W[rk];B[ql];W[mh];B[nh]
;W[ng];B[og];W[ni];B[oi];W[of];B[oh];W[mf];B[mi];W[nj];B[nk]
;W[hq];B[hr]TR[fq][iq]C[I don't recommend this move.  Insted, try approaching at J3 or F3.  By going below white, you give him a chance to be on the attack, when you are the one trying to kill white.]
;W[gr];B[gq]TR[ir]C[J2 would be better.  This move here abandons your H2 stone to white's attack.]
;W[ir];B[qg];W[pf];B[qf];W[qe];B[hk]TR[hl]C[This is too risky, white might get lucky and move into your territory below.  It's better to stay safe with a move like H8]
;W[gj];B[gb]TR[ec]SQ[lh]C[When you jump into your opponent's territory, almost never start on the 2nd line from the edge.  You don't have any room to build eyes.  If anything, try E17, though surviving here in the heart of white's territory may be impossible.

Instead of invading by jumping right in, it's be better to eat away at white's territory by attacking along the border.]
;W[ec];B[eb];W[db];B[fc];W[ea];B[fb];W[hc];B[ed];W[dc];B[dd]
;W[fd];B[fe];W[gd];B[ee];W[cc];B[lh];W[mg];B[lg];W[lf];B[ki]
;W[jh];B[ji];W[ii];B[kj];W[ij];B[ik];W[fq];B[gp];W[dq];B[hj]
;W[gi];B[hi];W[ih];B[hh];W[hg];B[ig];W[jg];B[if];W[jf];B[kf]
;W[ke];B[gg];W[hf];B[gl]
(;W[fg]C[White makes a mistake here!  This is because you persistantly pushed against white, which can often times be a good strategy.]
;B[gf];W[ff];B[ge];W[he];B[fh];W[kq];B[ie];W[hd];B[kg];W[je]
;B[eg]SQ[kq]C[Capturing these two stones is minor compared to dealing with L3 at the bottom.]
;W[eh];B[fi];W[id];B[cg];W[dg]C[Let me show you a neat trick you can do here.  You'll learn stuff like this if you do go problems, like those found on www.goproblems.com]

(;B[ef];W[cf];B[bh];W[bg];B[aj];W[ah];B[al];W[ai];B[ak];W[bp]
;B[iq];W[hs];B[hp];W[hr];B[jr]TR[kp][mq]C[Don't be hasty!  You'll miss some better moves.]
;W[jq];B[ip];W[kr];B[rl]
(;W[sk];B[sl];W[rj];B[rh]C[Good job once again punishing white for his weak shapes.]
;W[rg];B[rf];W[re];B[sg];W[si];B[ri];W[se];B[sh];W[sf];B[sj]
;W[nq];B[oq]C[This move is good, keep it in mind when dealing with invasions into your territory.  It approaches the enemy, while staying close to an established stone like Q4.]
;W[or];B[pr];W[nr]C[O4 would be better, it builds up strength above white which is where you need it most.]

(;B[ps];W[mo];B[on];W[oo];B[op];W[np];B[po];W[nn];B[no];W[nm]
;B[oo];W[km];B[jn];W[kn];B[jm];W[kp];B[ko];W[lo];B[jo];W[ll]
;B[om];W[ol];B[pl];W[ok]
(;B[oj]C[No need to capture these stones yet, cut him off at O8.]
;W[nl];B[mk];W[ml];B[kl];W[lk];B[ln];W[lm];B[lj];W[kk];B[jl]
;W[kh];B[li];W[eo];B[fo];W[ep];B[fp];W[er];B[do];W[en];B[fn]
;W[cp];B[co];W[ao];B[bo];W[ap];B[an];W[bm];B[ce]C[Good, here you didn't panic at b7, but careful read the situation.]
;W[be];B[de];W[df];B[mc]C[Unfortunatenly, you don't have enough empty space to use this.  You only survived up here at the cost of the bottom right.]
;W[nj];B[ni];W[nb];B[mb];W[na];B[nc];W[oc];B[od];W[pd];B[oe]
;W[ne];B[nd];W[md];B[ld];W[le];B[me];W[kd];B[nf];W[pe];B[ma]
;W[ob];B[kc];W[kb];B[lb];W[lc];B[md];W[ka];B[kc];W[ne];B[jb]
;W[ib];B[ja];W[ia];B[nf];W[la];B[rb];W[sc];B[sb];W[qa];B[ra]
;W[qb];B[rc];W[rd];B[sd];W[em];B[fm];W[os];B[dn];W[eq];B[pk]
;W[qq];B[lp]
(;W[lq];B[cb];W[bb];B[pa];W[pq];B[qc]C[Here white traded with you basically.  He was able to take over the bottom right, while you were able ot survive in the top right.  When deciding if the trade is worthwhile, try roughly counting out the territory you lose and gain.  You'll eventually be able to predict well enough that you can see even a few points difference.]
;W[ne];B[pb];W[lc];B[mc];W[md];B[qd]TR[qp]C[Don't forget about the bottom right here.  If instead of playing this wasted move you played R4, you could have saved yourself a bunch of points.  Take your time, and examine the entire board.]
;W[ro];B[rp];W[rq];B[rr];W[qr];B[pm];W[qp];B[sp];W[so];B[qb]
;W[qn]C[BonScott has resigned the game.
------------
It seems to me that you have a great set of skills so far, but you made one key mistake: you tried to take over the entire bottom half of the board.  This might be fine on a 9x9 board, or maybe even a 13x13 board, but it's a bad strategy on a 19x19 board.  White was able to jump right into your territory on the bottom, and you ended up losing big.

I recommend watching more games, particularly the opening parts.  See how more experienced players will play all over the board.  

I liked watching your game because you used a lot of creative moves.  Don't be afraid to try new things, a lot of times you came out on top.  Just keep playing and watching more games, and soon experience with smooth your rough edges.

Email me if you have any questions: makubesu@gmail.com])
(;W[pq]
(;B[mn];W[mm];B[mp];W[mq])
(;B[mp];W[mn])))
(;B[nl];W[mk];B[oj]))
(;B[np]))
(;W[rg];B[rj];W[ri]))
(;B[df]
(;W[ef];B[eg])
(;W[cf];B[ce];W[be];B[bf])))
(;W[fh]))
(;B[bi];W[ai];B[bh];W[bg];B[dm];W[ah];B[aj];W[ak];B[al];W[ag]
;B[aj]))
