(;FF[4]GM[1]SZ[19]ST[2]CA[UTF-8]AP[SGFC:1.15]

PB[kilshii]
BR[2k]
PW[dikor]
WR[2d]
KM[7.5]
DT[2007-09-14]
PC[The KGS Go Server at http://www.gokgs.com/]
RE[W+Time]
TM[2700]
OT[5x30 byo-yomi]
RU[AGA]

C[Hi, thanks for review my game.
I played this game in a tournament on kgs, i was black.

I felt that i was playing good, but my position in the late game had some weaknes, and i think that i lost the game because of it.

Please, review fot both sides. Thanks

Dieter: You played a good opening. If you manage to keep your advantage by patient attacking & defending, and to maintain your confidence by regularly estimating the global position and count, I believe you will win more games.

Don't invade potential territory too early.];B[pd];W[dp];B[qp]
;W[dc];B[oq];W[nc];B[qf];W[jd];B[de]C[Is this the better approach?

dv: I see no problem.];W[cg];B[ef];W[fd]
(;B[dh]C[Here, i choosed to not do the joseki. It was a good idea?

Dieter: As described on the http://senseis.xmp.net/?BQM209 page, this IS one of the Rui Nawei joseki continuations.]
;W[ch]C[However, White now derails.];B[di];W[cj];B[cc];W[cb]
;B[cd]C[dv: very good moves until now.];W[dd]LB[bb:A][eb:B]
[fc:E][hc:D][cf:C]C[According to me this is a bad move. Defensive move at A or aggressive move at B are common. White tries to patch his weakness in a threatening fashion, but he removes his liberties in the process.

Black can play C and later aim at the invasion at D, with the weakness of white's shape at E in mind.]
;B[ci];W[ck]C[This move is completely nonsensical.];B[bi]CR[cg]
[ch]SQ[cj][ck]C[Black obviously cuts through. White's mistake is one of 15-20 kyu level. I don't mean this as an insult, but to say that it renders the previous analysis futile, so overwhelmingly good is Black's position now.

The circled stones are captured. The squared ones are without value.]

(;W[bb]
(;B[be]C[I think i'm overconcentrated.

dv: Not playing here would leave the variation. I believe this makes a clean capture.]
;W[qk]
(;B[qi]C[Is this the right direction??
I thought if i choose the other side, the result would not be good for me. Am i right?

dv: Frankly, I cannot confirm this. Your variation looks perfectly ok to me.]

(;W[pb]
(;B[lc]C[Again, i did not wanted to give him a chance to play O15.

dv: This invasion is premature. White has failed to play R6 so you must punish him for that. You can allow O15: the upper side is all he's got!! See var.]
;W[ne]C[dv: Now O15 is a double purpose move. So I think you helped him here.]
;B[le];W[qc];B[qm]C[Is this move good, or i should just defend? Or maybe tenuki?

dv: I believe this move is very good, for the aforementioned reasons, although now you have two groups at the top to take care of.]
;W[ng];B[lg];W[rj]
(;B[pj]C[It is better to deffend at S11?

dv: S11 is territory thinking.];W[ri];B[qh];W[pk];B[ok];W[pm]
;B[pn];W[om];B[nj]C[This move caused me some trouble later, because the weaknes at N12. What move is better here?

dv: I see the peep, but see no problem with it. This move is perfectly ok.]
;W[kc];B[kb];W[ld]C[dv: White is really asking for trouble with such moves.]
;B[md];W[kd];B[mc];W[nd];B[me]C[This is like trying to cut a bamboo.]
;W[jb]
(;B[hd]C[Here, i wanted to seal in this group, and then, i would had some moyo. Any sugestions?

dv: An aggressive move, which can take care of your top group in an active fashion. However, see var.]
;W[hc]
(;B[gd]C[dv: This is a bad move. You allow hane at the head of two. If you anything here, you must cut.]
;W[gc];B[jf]C[I sealed in the white group, but my opponent had sente.
What move i did not saw to this happen?

dv: see earlier comments];W[jp]CR[ba][ca][da][ea][fa][ga][ha]
[ia][pa][qa][ra][sa][db][eb][fb][gb][hb][ib][qb][rb][sb][fc]
TR[ce][af][bf][cf][df][ag][bg][cg][dg][ah][bh][ch][rp][sp][pq]
[qq][rq][sq][pr][qr][rr][sr][ps][qs][rs][ss]C[After this move, i felt that i was behind. How i should play here?

dv: You are not behind at all. Let's count.

Black has 2x14 points = ca 30
White has15+7+7,5 points = ca 30

White has a weak group. Black's groups in the top right should still be connected, but are not weak.

White has potential for development at the bottom. Black has sente. The game looks equal to me.]
;B[fq]C[I played this move with the intention of atack the K4 stone if he answer at f3, and try do seal in the left group whit the sequence i did. This move was good? Or i should played another move?

dv: This move is completely natural. White's weak group at the right will be exposed.]
;W[eq];B[fp];W[dn]LB[lp:A]C[Black A will now launch a double attack.]
;B[eo];W[do]C[dv: This is a thank you move. White's weakness is removed, while the black move contributes little.]
;B[fm];W[jm];B[el];W[dl]C[My formation it is not very good here.

dv: Indeed. White receives a lot of territory in return for influence which is not easy to apply.]
;B[lq]C[Good! Although I would play one line higher.];W[lp]

(;B[kq]C[Is this move right?
dv: No the hane is natural, see var.];W[kp];B[ik]TR[lr][nr]
[or][ls][ms][ns][os]SQ[an][bn][cn][ao][bo][co][ap][bp][cp][aq]
[bq][cq][ar][br][cr][as][bs][cs]C[Here, i thought i was winning, but i still have some weaknes. What i should do to defend this weaknes and win the game?

dv: In comparison with the previous evaluation, White has made 18 points extra, and Black 7. In addition, White's weak group on the right has received support from the bottom centre stones.

Black has some potential centre territory, but it is difficult to see how it can grow large. I believe White is now ahead.

Black has two opportunities still: find an attack on the weak group. Or find a way to invade the left territory, which is almost secure.]
;W[jq];B[mp];W[mo];B[np]C[I think this is the losing move 1.]
;W[kk];B[mh];W[ek];B[fk];W[ej];B[fj];W[fe];B[ff];W[gf];B[gg]
;W[hf];B[hg];W[fr]C[dv: This is by far the largest endgame move. It is very difficult now for Black to win.]
;B[gr];W[er];B[hq];W[if];B[ig];W[jj];B[ij];W[ml]CR[ba][ca][da]
[ea][fa][ga][ha][ia][pa][qa][ra][sa][db][eb][fb][gb][hb][ib]
[qb][rb][fc][ic][jc][gd][hd][id][ge][he][bm][cm][km][lm][an]
[bn][cn][kn][ln][ao][bo][co][ko][ap][bp][cp][aq][bq][cq][dq]
[ar][br][cr][dr][as][bs][cs][ds]SQ[ce][af][bf][cf][df][ag][bg]
[cg][dg][bh][ch][mq][nq][pq][qq][rq][sq][mr][nr][or][pr][qr]
[rr][sr][ms][ns][os][ps][qs][rs][ss]C[And now, the game is very close, but i still have some weaknes, should i just resign or there is a way to win the game?

dv: I don't see how the game is close. White has a 20 point advantage.
See var.]
(;B[jl];W[kl];B[im];W[jn];B[ql];W[pl];B[qd];W[on]C[dv: Black has a chance now to kill the top right.]

(;B[po];W[rl];B[rm];W[sm];B[rn];W[sn];B[so];W[sl];B[ro];W[rc]
;B[al];W[bl];B[ak];W[aj];B[bj];W[am];B[bk];W[bm];B[ei];W[jr]
;B[rh]C[Now, my time was very short, and i made a lot of mistakes, but i think this is the losing move 2. Am i right? Defend at L2 or L1 is better or there is another move?]
;W[lr];B[mr];W[kr];B[nf]C[I did not read all the sequence because my time, and this I think it is the losing move number 3]
;W[of];B[mf];W[pe]C[I missed this move.];B[rd];W[oh];B[pg];W[og]

(;B[ie]LB[ob:A]C[Is this as big as i think? Or J6 is bigger? Or maybe another move?

dv: You can still attack the top, though you are indeed cuttable.]
;W[ge];B[je];W[oi];B[oj];W[ni];B[mi];W[mj];B[lj];W[mk];B[rf]
;W[sg]C[Here, i made a mistake, because of the time, and did not readed all the sequence, and my group died. But i think that even if this group live, I still lose.

dv: I agree. End of comments.];B[rg];W[sh]C[I resigned here.

Thanks for review my game.])
(;B[ob];W[nb];B[oc];W[oa];B[rb]))
(;B[rb];W[rc];B[ob];W[nb];B[oc];W[oa];B[rd]))
(;B[ob]C[There is something here];W[nb];B[oc];W[oa];B[qd];W[rb]
;B[rd];W[pc];B[od];W[qa]))
(;B[mp];W[lo];B[kq]))
(;B[ic];W[gc];B[id];W[ib];B[jc];W[lb];B[je];W[ka];B[ke];W[kb]
;B[mm]))
(;B[mm]C[I would attack White's weak group.];W[on];B[qn];W[ol]
;B[nl];W[no];B[lo]C[Black's central influence is grwowing.]
))
(;B[oi]C[dv: This is the natural move: preventing to be sealed in, while cutting White on a large scale.]
))
(;B[qm];W[ne];B[oj]C[I think the right is bigger than the top.]
))
(;W[qn]))
(;B[qm];W[qh];B[pb];W[ne]C[dv: Black has sente, no weak groups and territory in 3 places.. This is ok no?]
))
(;B[pj];W[ce];B[cf];W[be];B[bf];W[bd];B[dg]C[This would be overconcentrated, but necessary to prevent a WHite play there.]
))
(;W[ce]C[the cut does not work];B[be];W[cf];B[bf];W[bb];B[bd]
;W[bg]))
(;B[cc]C[There is a discussion at Sensei's Library about this position

http://senseis.xmp.net/?BQM209

I give a few variations here too.]
(;W[cb]C[First branch: outside hane];B[cd];W[bb]C[White can perhaps choose the aggressive move.]
;B[dh]
(;W[ch]C[If  White pushes from behind ...];B[di]
(;W[cj]C[Same story about the jump as in the other variation:]
;B[ci];W[bi];B[bh];W[bg];B[bj];W[ah];B[ck];W[dg];B[eg];W[eh]
;B[dj];W[fh];B[gf]C[White is under pressure rather than Black.]
)
(;W[ci];B[dj]LB[ec:B][hc:A]C[If White continues pushing from behind, Black is not uner pressure at all and White's defects remain at the top.]
))
(;W[ci]C[White jumps, but ...];B[ch];W[bh];B[dg];W[bg];B[ck]
C[WHite is under attack rather than Black]))
(;W[cd]C[Second branch: cut (this is discussed at the SL page)]
;B[dd];W[ce];B[ec];W[db];B[fc];W[cb];B[gd])))
