(;FF[4]GM[1]SZ[19]ST[0]CA[UTF-8]AP[SGFC:1.15]VW[]

PB[zaphod]
BR[3k]
HA[4]
PW[cbox]
WR[3d]
KM[0.5]
DT[2007-09-11]
PC[The KGS Go Server at http://www.gokgs.com/]
RE[W+11.50]
TM[300]
OT[5x30 byo-yomi]
RU[Japanese]

AB[dd][pd][dp][pp]C[please comment for both sides; there were times when it felt that white was overplaying but black failed to take advantage]
;W[nq]C[cbox [3d\]: hi];B[pn]C[zaphod [3k\]: hi];W[cn];B[fq]
;W[hq];B[kq];W[bp];B[dn]C[Attaching here to attack the stone on the bottom side is good.]
;W[dm]
(;B[co]C[I prefer just to extend.];W[bo]
(;B[cm];W[bn]
(;B[em]C[If you plan to come back and connect, just extending is better.]
;W[dl]
(;B[en]C[I don't like this gote connection.  I would push up.]
;W[el];B[hn];W[cf];B[dh];W[ef];B[ck]C[a bit risque...];W[ci]
;B[di];W[cj]C[unsound?];B[dj];W[cl];B[ch];W[bk];B[fd];W[gf]

(;B[fj]C[black is happy, but maybe G11 or H12 stronger? black would have played G9 in an even game....

I like G12, playing closer to the weaker group.  Your move is good though, since it threatens to seal the center so it forces a response.]
;W[fl]C[seems slow.

no, this big.  Otherwise you can seal off the center.];B[hd]
;W[bd];B[hk]C[I prefer C17 to keep the pressure on white's group while taking some points.  Your move surrounds a strong group.]
;W[hl];B[il];W[hm]C[of course, black considered J6 but decided lower stones could live small.

It's odd to start in this area, and then leave so early.  you need another move here.  Your move at H9 looks like you want to make a wall facing right, but then you tenuki and leave a hole at j7.]
;B[if]C[I prefer to attack at c17.  points in the corner are easier to keep than in the center.]
;W[cc];B[dc];W[qf]
(;B[qi]C[This is an unusaul pincer.  Normally black plays one line closer to attack white more strongly, or one line lower to defend the edge.]
;W[nd]
(;B[oe];W[qc];B[qd];W[pc]
(;B[od]C[It's important to play first in the corner instead of this move.]
;W[oc]C[zaphod [3k\]: i hate empty triangles :)];B[ne]C[cbox [3d\]: :), me too
cbox [3d\]: :p];W[me]C[black not used to this; what is best plan? ie plan, not tactic.

When you block at R16 yor plan should be to make a wall facing down.  There is a lot of potential territory on the right edge, and if white tries to escape with the R14 stone, you have a target to attack.

In this shape you want to get S17 pretty early, otherwise white will play at s16 and force you into an ugly shape.]

(;B[pg]C[I would play s17 instead, or N14 or n16.  This move surrounds a very small territory when white plays S16, and your stones are also a little short of liberties.]
;W[rd];B[md]C[ok?];W[nc];B[ld];W[re]C[This is a good result for white.  The corner is big and the upper edge is still open.

It looks like black is trying for one big territory in the center and ignoring the corners.  This is a dangerous strategy.]
;B[mg]C[I don't like this move.  If you want to make a move here to capture N15, play at N14 and capture it.  This move leaves aji and doesn't help your wall any more than N15 does.

With your plan to surround the center, now would be a good time to play J7.]
;W[in];B[ip];W[hp];B[ho];W[io];B[gp];W[jp];B[iq];W[jq];B[ir]
;W[gn];B[go];W[jr];B[hr];W[ql];B[jo]C[premature? P8 or O4 seem the obvious moves]
;W[kp]
(;B[lp];W[lq];B[mq];W[lr];B[mp];W[mr]
(;B[oq];W[np]C[this wasn't what black wanted];B[no];W[nr];B[mn]
;W[rn]C[tactical suggestion? black is conscious of his left centre stones which are not settled

If you take territory in the center those stones will be settled.]
;B[pl];W[qk];B[qm];W[rm]
(;B[rp]C[I don't like this move.  The corner is open on the other side, so it is not taking any territory.  You have a big potential center, and this is your chance to convert it to territory.]
;W[pk];B[nl];W[ol];B[om];W[pm];B[qn];W[nk];B[pl];W[ok];B[ml]
;W[le]C[is this a reasonable move? it felt like this was the turning point of the game

White is abandoning a weak group in the lower right.  This is your chance to attack it and get a big win.]

(;B[ke]C[I like extending, since it doesn't leave the cut behind.  Let this white group run away while you build strength in the center to kill the lower right.

Your move is also good, but you have to keep white short of liberties so he can't come back and cut.]
;W[lf]C[zaphod [3k\]: slow connection
cbox [3d\]: empty trangle..:D]
(;B[lh]C[I would fill a liberty to keep more pressure on white.  And your shape is stronger if you play at M13.  There won't be any place to cut later.  You will get very thick in the center if white saves these stones.  If white doesn't save them, you will gain a lot of points.

This move is too soft.];W[kd];B[rj]TR[lh]C[Good.  your center is stronger because of triangle move..]
;W[ph];B[qg];W[rk];B[kc]C[Are you so confident that the lower right write group is dead? I would want to add another stone.  It seems if you kill the lower right group and keep much of the center, you have to win.]
;W[jd];B[lc]C[zaphod [3k\]: again];W[kg];B[je];W[jc];B[jb];W[ig]

(;B[hg]C[blunder? black under time pressure - wanted to play around K11 but didnt have enough time to read it

K11 would be much better.  Assuming the lower right white group dies, you have a big win.  You must play conservatively since there is lots of aji in the center.  You are way ahead, so you don't want to fight.  You want to make the game simpler.

Cutting here just starts a big unclear fight in the center.  Force white to connect instead while making your win solid.

There is no reading here for K11.  you are just surrounding a big territory.]
;W[kh];B[ki]C[same thing; first thought was M10, but....];W[hf]
;B[ii];W[ie];B[id];W[jf];B[ic]C[zaphod [3k\]: that one doesnt cunt:)
zaphod [3k\]: count!];W[li]C[the key cut, or so black thinks - but maybe the key move was earlier?

Atari from the other side looks interesting.  The plan is to give up the upper right in exchange for the lower right and a big center.

Intercepting at n10 looks like it might just capture white's lower right group.]

(;B[mi];W[lj];B[mj];W[mk];B[lk];W[kj];B[ji];W[kk];B[ll];W[nh]
C[is there a defence to this?

Why not just connect and keep the big center?  It seems simpler.]

(;B[ng];W[mh];B[oh];W[ni];B[oi];W[lg];B[pf]C[black lives on the right but the left centre is in deep pooh-pooh!]
;W[gi]C[probably not even needed!]
(;B[fg]C[It looks like you can connect out at the bottom.];W[gg]
C[black is lucky? white can just connect at F14 surely?];B[ff]
;W[fe];B[ee];W[eg];B[ce]C[looking for a ko to rescue the midle...]
;W[fh]C[a blunder by white?];B[bf];W[cg];B[bg];W[bi];B[bh];W[bb]
;B[be]C[is the game back on now?];W[db];B[eb]
(;W[hj]C[securing the win?

no.  the game is still close if black plays a good endgame.  For white, I would live in the upper left first (probably in sente), then try to capture the center stones.]

(;B[gj]C[I like J9 better, since it give white more chances to make a mistake and let you save the center stones.

k9 might be even better.

If you save the center, white will live in the upper left in sente and the game will still be close.]
;W[ik]
(;B[im]C[This move hurts you.  You should save this stone with sente, then go to the upper left.]
;W[jn];B[da];W[ca];B[cb];W[rg];B[ba];W[rh]
(;B[qe]C[I think it's b etter just to answer and save your two stones at R12.]
;W[qh];B[og];W[pi];B[gk];W[ij]
(;B[gl]C[Protecting the lower right corner must be bigger than a small gote capture.]
;W[lo];B[mo];W[qq];B[qp];W[pr];B[rq];W[cq];B[dq];W[rr];B[or]
;W[os];B[pq];W[qr];B[cr];W[br];B[cp];W[bq]
(;B[fi]C[misread

The game was still close, but giving up a move here is too big. After this black can't win.]
;W[fm];B[gm];W[fn];B[fo];W[mb];B[oj];W[nj];B[pj];W[qj];B[sr]
;W[ps];B[ln];W[ko];B[ge];W[dr];B[er];W[cs];B[he];W[dk];B[if]
;W[ff];B[kf];W[ie];B[rf];W[sf];B[if];W[jg];B[lb];W[is];B[hs]
;W[js];B[es];W[rs];B[mc];W[nb];B[ai];W[aj];B[ro];W[kn];B[op]
;W[ah];B[ag];W[ie];B[ds];W[if];B[cr];W[bs];B[km];W[jm];B[kl]
;W[jl];B[ma];W[na];B[sn];W[sm];B[so];W[la];B[ka];W[mf];B[nf]
;W[pm];B[eh];W[ej];B[qf];W[pl];B[dr];W[ai];B[ma];W[sq];B[sp]
;W[la];B[ei];W[ek];B[ma];W[df];B[de];W[la];B[sg];W[sh];B[ma]
;W[on];B[nm];W[la];B[se];W[sd];B[ma];W[po];B[qo];W[la];B[rc]
;W[rb];B[ma];W[hm];B[hl];W[la];B[ri];W[ma]C[zaphod [3k\]: :)]
;B[tt]C[cbox [3d\]: :*(];W[ss];B[oo];W[sq];B[si];W[sj];B[sr]
;W[ja];B[ia];W[sq];B[sl];W[rl];B[sr];W[eo];B[do];W[sq];B[sc]
;W[sb];B[sr];W[jd];B[kd];W[sq];B[hi];W[gh];B[sr];W[gr];B[gq]
;W[sq];B[jj];W[jk];B[sr];W[tt];B[sq]TB[aa][ca][ea][fa][ga][ha]
[ja][ab][bb][db][fb][gb][hb][ib][kb][ac][bc][cc][ec][fc][gc]
[hc][jc][ad][bd][cd][ed][gd][jd][ae][pe][af][of][hm][lm][mm]
[nn][on][eo][po][ep][fp][hp][eq][hq][fr][gr][fs][gs]TW[oa][pa]
[qa][ra][sa][ob][pb][qb][rc][sc][se][fg][hg][sg][hh][ih][jh]
[lh][hi][ii][ji][ki][mi][qi][ri][si][bj][jj][mj][rj][ak][ck]
[sk][al][bl][sl][am][bm][cm][an][ao][jo][ap][aq][kq][ar][kr]
[as][ks][ls][ms][ns][qs])
(;B[fm])
(;B[mb];W[nb];B[fm]))
(;B[or];W[gl];B[mb];W[fn];B[fo];W[cq];B[dq];W[nb];B[oj];W[nj]
;B[pj];W[qj]C[black should have a small win.]))
(;B[qh]))
(;B[jk]
(;W[ij];B[jj];W[gk];B[kl];W[nj])
(;W[gk];B[kl];W[jj];B[jl];W[ij];B[da]C[This is better for black than the game.]
)))
(;B[ik]
(;W[ij];B[jj];W[jk];B[jl];W[kl];B[km];W[lh];B[jn])
(;W[gj];B[jk];W[kl];B[im];W[jn];B[jm];W[kn];B[km])
(;W[jm];B[gk];W[ij];B[jj];W[jk];B[jl]))
(;B[ij];W[gk];B[ik];W[jm])
(;B[jk]
(;W[kl];B[gk];W[ij];B[jj];W[ik];B[im];W[jn];B[jm];W[kn];B[km]
)
(;W[ij];B[jj]
(;W[ik];B[kl])
(;W[kl];B[gj];W[hi];B[im];W[jn];B[ik];W[gk];B[fk];W[gl];B[jm]
;W[kn];B[km];W[ea];B[fb]))))
(;W[ea];B[gj];W[fb]))
(;B[im]C[This works if white answers directly, but not if he plays toward the center.]

(;W[jn];B[gk];W[fm];B[jk];W[kl];B[jm];W[kn];B[km])
(;W[gk];B[gj];W[ik];B[hj];W[jl];B[jn];W[fh]))
(;B[gk]C[This seems to work.]
(;W[im];B[jl];W[kl];B[jm];W[km];B[jn];W[gl];B[kn];W[ln];B[lo]
;W[lm];B[ko])
(;W[gl];B[im];W[ik];B[jk];W[ij];B[jj];W[hj];B[hi];W[gj];B[gh]
;W[fi];B[fh];W[ei];B[eh];W[fk];B[jn])))
(;B[mh]
(;W[ng];B[mf];W[nf];B[kf];W[lg];B[jg];W[jh];B[ih];W[jg];B[if]
)
(;W[og];B[nf];W[pf];B[jm])
(;W[nf];B[ng];W[og];B[of];W[oh];B[pf];W[mf];B[kf];W[lg];B[jg]
;W[jh];B[ih])))
(;B[lj];W[mi];B[mj];W[ni];B[nj];W[oi]
(;B[oj];W[pi];B[pj]
(;W[mh])
(;W[qj];B[ri];W[qh];B[rh];W[rg];B[sg];W[rf];B[mh];W[og];B[pf]
;W[of];B[pe];W[nf]))
(;B[ng];W[qh];B[rh];W[rg];B[pi];W[oh];B[oj];W[pj];B[og]))
(;B[mj]
(;W[mi];B[ni];W[mh];B[nh];W[lg];B[lj];W[lh])
(;W[lj];B[mk];W[mi];B[ni];W[nh];B[oi])))
(;B[ji];W[hg];B[oh]))
(;B[lg];W[kf];B[je]C[Defend the cut at l16];W[kg];B[kh];W[jg]
;B[jh];W[ig];B[ih];W[hg];B[rj];W[rk];B[oi]))
(;B[rj];W[rk]
(;B[oi])
(;B[mi]C[This move doesn't work.];W[qj]
(;B[rh];W[pi];B[oi];W[qh];B[ri];W[ph];B[qg];W[rg])
(;B[ri];W[pi]
(;B[ph];W[oi])
(;B[oi];W[ph];B[qg];W[qh];B[rh];W[rg]))))
(;B[kd];W[ke];B[je];W[kg];B[lh];W[kh];B[li];W[ih];B[rj]))
(;B[pk];W[qj];B[pj];W[ri];B[jm]))
(;B[ko];W[im];B[js];W[kr];B[np];W[oq]))
(;B[ko]
(;W[lp];B[im];W[jn];B[kn])
(;W[im];B[lo];W[lp];B[mo];W[pr])))
(;B[rc];W[rb];B[rd]
(;W[md];B[mf])
(;W[mf];B[md];W[nc];B[ld]))
(;B[mf];W[md];B[rc])
(;B[md];W[nc];B[ld];W[mf];B[og];W[rd];B[re];W[rc];B[qe];W[ng]
;B[oh]))
(;B[rc];W[od];B[pf];W[ne];B[nf];W[mf];B[ng]))
(;B[ne];W[me];B[oe];W[qc];B[qd];W[pc];B[rc];W[od];B[pf];W[rb]
;B[rd];W[md];B[oq];W[np];B[lo];W[nn];B[pl]C[This way black is far ahead.]
))
(;B[qh];W[qc];B[qd];W[pc];B[od];W[rd];B[re];W[rc];B[qe];W[nc]
;B[me];W[mc];B[oq];W[np];B[lo];W[nn];B[pl])
(;B[qj];W[nd];B[ne];W[me];B[oe];W[qc];B[qd];W[pc];B[rc];W[od]
;B[pf]))
(;B[gh]))
(;B[el];W[en];B[do];W[dk];B[fn]))
(;B[en];W[em];B[fm];W[fl];B[gl];W[fk];B[gm]))
(;B[en];W[cl];B[em];W[el];B[fl];W[ek];B[jo];W[ho];B[hm]))
(;B[en];W[co];B[em];W[dl];B[jo];W[ho];B[hm]))
