(;FF[4]GM[1]SZ[19]ST[2]CA[UTF-8]AP[SGFC:1.15]

PB[fantomas27]
BR[1k]
PW[kamakura]
WR[1d]
KM[0.5]
DT[2007-09-23]
PC[The KGS Go Server at http://www.gokgs.com/]
RE[W+Resign]
TM[1800]
OT[5x30 byo-yomi]
RU[Japanese]
US[Thomas Benard]

C[Dear reviewer,
I played black in this game.
At the beginning i was thick and strong but it seems that i didn't use my thic
kness efficiently.

PS : i'm french so please excuse my language mistakes :)

Reviewer: Hi, fantomas27, on  English me too.
Also effective use of the thickness is difficult for me. My motto is as follows: I  use thickness for attack, not for territory area especially in early stage.]
;B[pc]C[kamakura [1d\]: gg];W[pp];B[cd];W[dp];B[qe];W[jc]C[isn't letting your opponent making two shimaris bad ?
R:In begining stage, no body can't say bad or good for each move besides 1st and 2nd lines. 
   In my memory, this formation was seen in professional player's game.]
;B[fc]C[isn't letting your opponent making two shimaris bad ?]
;W[cj]C[n17 better no ?
R: Yes, the point was the first choice for white.];B[lc];W[ld]

(;B[md];W[le]LB[kc:1][jd:2][fe:3]C[i felt white escape too easily
R:i agree your intention, however,  four white stones  must live and each black stone (left and right corners) has enough territory. i cant say what is the best.]
)
(;B[mc]C[maybe too submissive ?
R: Like explanation  in the branch, difference of both moves(16-N and- M) are very narrow.]
;W[dc]C[i understand what white wants but isn't it a poor way to stabilise white
k17 stone ?
R:Your  first inspiration was right.];B[dd];W[ec]LB[ed:1][fd:2]
C[R: In this situation you must think  what is th best move.
   Separation (2) or connection (1) of the  two white lump stones  is the question. 
Separation was best and connection 2nd choice.]
(;B[ed];W[fb];B[gc];W[gb];B[hc];W[hb];B[ic];W[ib];B[jd];W[kc]
;B[kd];W[cc]C[ii'm very happy with this result
R:This result (connection) is bad than separation (in branch), but the result was  not too bad.]
;B[pk];W[ni]C[i didn't see a way too attack this stone efficiently so i played elsewhere to see what will happen]
;B[qn]C[R: Though I don't know the best position, this 29 move is good.]
;W[np];B[lq]C[i thought i could have launch a double attack but maybe it was a bad idea ?
R:This move(31) was a bad idea as your mention,
    attack target was white stone (28),  not  one space enclosure (white 4 and 30) and moreover black stones were separeted in two parts.]
;W[iq];B[oq];W[op];B[nq];W[mp];B[kq]C[R:37 move was  good.]
;W[pn];B[pm];W[on]LB[pi:C][ko:D][qo:A][pq:B]C[R:Black A move is seemd good one, but 
4 black stones became week by exchange white B.
Therefore,  A or B move must postpone until new situation (if D point were black stone then move A; if C point were black then move B). This situation is called MIAI in Japanese.]
;B[qo];W[pq];B[rq]LB[ko:A]C[B43 was];W[mq];B[mr];W[pr];B[or]
;W[os];B[nr];W[jp];B[ir];W[jr]C[abusive no ?];B[lo];W[ko];B[lp]
;W[kn];B[ln];W[om];B[km];W[jq];B[ml]C[here i prefer black but maybe i'm wrong]
;W[ok]
(;B[ol]C[i wanted to create cutting points but this is probaly a bad move.]
;W[nl];B[pl];W[nk];B[mm];W[nm];B[li];W[pj];B[qj];W[pi];B[og]
LB[kk:B][jm:C][po:A]C[it looks cool but is it a good idea ?
R:As white big stones is almost living ( by laying A position), now can't attack these stones.
However black big stones are not living, therefore b73 (13p)
should choose B or C .];W[qi];B[rj];W[lj]C[R:The exchange of  white two moves (76 and 78) and two black (77 and 79) were lucky for black. White did mistake.]
;B[kj];W[lk];B[jl]LB[qg:B][kl:D][jm:C][po:A]C[R:79 move was very good. 
  Black has only one week point, that is central black stones are not living.  The exchange of  white two move (76 and 78) and black (77 and 79) was white had no merit and black had big interest.
White should choose B (white is GOTE living by A point) instead of  76 , after the exchange of white C and  D.]
;W[ki]C[it hurts];B[jj];W[ll];B[lm];W[lh];B[cq]C[if white solidify this area the game would be over right ?
R: Black invasion (85) was good timing, otherwise can't say what side is superior.]
;W[cp];B[dq]
(;W[fr]C[it looks very strange to me !
R: yes, normal move were much better for white.
But white cannot win as shown in the branch.];B[eq];W[gq];B[ep]
;W[dn];B[bp];W[bo];B[bq];W[eo]LB[fo:A]
(;B[fp];W[cn];B[gp];W[hr]C[R:100 move was too slack.];B[ji]
;W[kh];B[jn];W[jo]LB[er:A]C[R:Now all white stones are living.   Left corner black stones are living by laying A (GOTE living).   However, central big black stones has no eye.  For  living these stones must  connect upper black stones, as shown in the branch.]

(;B[ch]
(;W[bd]C[R:This move  was big as territory, but black become stable, and white can not win]
;B[be];W[bc];B[cf]C[i think black is ahead by a few.
R: Yes.];W[jh];B[ih]
(;W[ig];B[hh];W[hg];B[mk];W[mj];B[jf];W[jg];B[mh]C[this is probably the loosing move]
;W[mi];B[mg];W[rr];B[sr]LB[qq:A][qr:B]C[R: 1T was mistake, A and B and then this point is right way.]
;W[rp]C[a reading mistake of my part];B[qp];W[qq];B[sp];W[sq]
;B[ro]C[i' m unable to find a single ko threat];W[so];B[sn]
LB[rq:A]C[R: B 131 was small mistake, A connection was right. 
   but connection is too small.];W[ss];B[gh];W[gg];B[dj];W[dk]
;B[ek];W[ck];B[ej];W[ci];B[dh];W[in];B[hm]C[R: this move was good.]
;W[jm];B[kl];W[rm];B[qm];W[rl];B[rk];W[qg];B[ql]C[R: b151  move was good.]
;W[pf];B[oe];W[of];B[nf];W[pe];B[qd];W[od];B[ne];W[pd];B[oc]
;W[nd];B[md];W[nc];B[nb];W[qc];B[qb];W[rc];B[rb];W[mb];B[ob]
;W[lb];B[le];W[qf];B[rd];W[re];B[sc];W[im]C[now white is better than black right ?
R: I wiil  comment  in the  branch after 182 move.];B[il];W[hn]
;B[gm];W[gn]
(;B[fm]
(;W[ds]C[the game is over
i can't find a way to live.
R:];B[es];W[er];B[dr];W[ap];B[bs]C[fantomas27 [1k\]: sorry again]
;W[ar];B[aq]C[kamakura [1d\]: that's ok too];W[fs])
(;W[er];B[dr];W[ap];B[bs];W[ar];B[aq];W[br]C[R:This form are seen so often.
As typical form of living or death of corner stones are not many, so  learning of those typical type is important.]
))
(;B[er]C[the only move no ?
R: If you select this move, then black will win narrowly.]))
(;W[gn];B[er];W[ii];B[hj]C[white seemed to be  difficult.]))
(;W[gn];B[er]C[I tried some attacks, however];W[di];B[dh];W[jh]
;B[hi];W[hg]C[black  is dominant.];B[gh]C[R: Now win of the white is difficult.]
))
(;B[jh]LB[ig:B][jg:A][kg:C][hh:D]C[Both black stones can connect, even  white lay  A point.]
;W[er];B[gn];W[in];B[gl];W[jm];B[kl];W[il]
(;B[ik])
(;B[gj];W[cg];B[di];W[ci];B[dg];W[dh];B[eh];W[ch];B[eg]
(;W[ei];B[fi];W[ej])
(;W[kf];B[jg];W[jf];B[if];W[le];B[ie];W[ri];B[rl];W[oc];B[od]
;W[pd];B[nc];W[oe];B[ob];W[pe];B[qd];W[qf];B[pf];W[rf];B[ne]
;W[re];B[rd];W[sd];B[sc];W[se];B[rc]C[Close game are continued in these changes.]
))))
(;B[fo]LB[co:C][fp:A][er:B]C[B97 should select 5 F as shown in branch.]

(;W[fp];B[co];W[do];B[cn];W[cm];B[bn];W[bm];B[ao];W[em];B[ji]
;W[kh];B[jh])
(;W[cn];B[en];W[do];B[gp];W[fn];B[gn];W[em];B[gm])))
(;W[eq];B[er];W[fq];B[fr];W[gq];B[bp];W[bo];B[bq];W[cn]))
(;B[pl]C[better ?
R: Yes,  but, very very little difference as shown in the next  point.]
;W[nk]LB[nl:B][ol:A]C[R:In the case of right response, result is almost the same (difference is A  and B vacant).]
))
(;B[fd]C[R: Separation of the two lump white stones was essential.]
;W[fb];B[gb];W[eb];B[hc]
(;W[cc]
(;B[bc];W[bb];B[bd];W[ab];B[ed])
(;B[ed]C[This connection is simple and safety way.];W[bd];B[be]
;W[bc];B[cf]LB[dm:A]C[R: This move may be simple and good form than branch( in branch white territory small, but living of white stone (10c) is easier than this case. 
As black stones are so strong,  upper two white stones cannot move and moreover  white (10c) is attack target by black A.]
))
(;W[ed];B[ee];W[fe];B[cc];W[cb];B[bb];W[ba];B[bc];W[de];B[ef]
;W[ce];B[be];W[cf];B[da];W[db];B[fa];W[ca];B[ga];W[ea];B[ab]
C[R:White stones are captured.]))))
