(;FF[4]GM[1]SZ[19]ST[1]AP[SGFC:1.15]

PB[Francis Michaud]
BR[30k]
PW[Level5-Tensai Go]
KM[6.5]
RE[B+106.50]

C[Dear Francis,
I am Oliver and play as Karthago on IGS, currently as 12k.
My comments will be marked with: K:.
The Go program that you played was very weak. If you want a stronger one, then try Gnu Go (downloadable from the IGS page, or just google it.)
Generally you can practice against them until you become stronger but of course it is more fun against human opponents ;o).]
;B[pd];W[cc];B[pq];W[cq]
(;B[eq]C[K: If he plays on the san-san (3-3 point in the corner) it is better to approch this stone from further away or to play on then 4-4 point. I have included some joseki variations.]
;W[cn];B[cr]C[: I would not play this move but ruther retreat to H4]
;W[br];B[dr];W[fn];B[ci]C[: K: This move is good for weakening his influence. The downside is, that he can attack your weak group at the bottom with H3 for example, which would be a real pain.]
;W[cf];B[cl];W[gk];B[ei];W[el]C[K: The moves 14 - 16 are not appropriate at this time I think. You should rather play a corner enclosure (R5 for example) or R10. The latter would be good because the two 3-3 points are low and you can build a moyo on the right side.]
;B[bm];W[dj]
(;B[di]C[K: heavy play. Make sure, your stones are connected!]
;W[cj]C[Should I have played a cut at e9 ?]
(;B[hq]C[K: Taking care of your weak group on the bottom is a good idea, but the timing is wrong. Connect the top stones.]
;W[ff];B[pk];W[hh];B[ic]C[K: Good moyo building];W[jg]C[K: This move is totally senseless]

(;B[qe]C[Play more aggressive?
K: The stones on the left are lost, but you moyo is bigger than his. So protecting it is a good idea. Standard move would be Q14 though, I suppose.]

(;W[im]C[K: Again a very slow move. A human player would invade at one of the following points (variation)]
;B[lp];W[fb]C[K: again no invasion];B[nc]C[Too small ?
K: not the right way to protect. Rather M16 I think.];W[gf]
C[K: Totally wasted move];B[qo];W[mh];B[ph];W[fc]C[K: Again.]
;B[kd]C[K: to small I think. L9 is a good point to play.];W[lm]

(;B[oo]C[K: Too small. Attack his territory while expanding yours. (Variation)]
;W[gn];B[nm];W[bs];B[mk];W[jj];B[nf];W[og];B[bn]C[How Do I make  B7 and D11 alive ?
K: No, they are not connected. They are both dead, if played correctly.]

(;W[jk];B[co];W[dn];B[do];W[oi]C[K: He totally gave the kill away. Lucky you! ;o).

To this move you should react!]
(;B[lj];W[qj];B[pg];W[of]
(;B[ng];W[oh];B[ln];W[rh];B[rg];W[sg];B[rf];W[qk];B[ql];W[rl]
;B[qm];W[rm];B[rn];W[qh];B[sk]C[Killing eye-space or wasted move ?
K: I think it is a good try!]
(;W[rk]
(;B[sj]C[K: Cut him off!];W[jp];B[jq];W[kp];B[kq];W[lo];B[mo]
;W[ko];B[kn];W[jn];B[km];W[ll];B[ip];W[jo];B[jm];W[in];B[mm]
;W[sn]
(;B[bk];W[bj];B[hb];W[so];B[rp];W[sp];B[sq];W[rq];B[ro];W[sr]
;B[qr];W[rs];B[rr];W[ss]
(;B[pj];W[pi];B[ki];W[kh];B[nh];W[ji];B[eo];W[pf];B[qg];W[le]
;B[ne];W[md];B[nd];W[lb];B[kb];W[ka];B[ja];W[la];B[mc];W[ld]
;B[lc];W[fp];B[fo];W[ak];B[al];W[ge];B[aj];W[bi];B[li];W[lh]
;B[mi];W[ai];B[go];W[gd];B[lf];W[ke];B[jd];W[jl];B[mn];W[hg]
;B[kf];W[je];B[en];W[dm];B[em];W[dl];B[fm];W[rj];B[fl];W[fk]
;B[ck];W[jf];B[si];W[gm];B[ga];W[gl];B[fa];W[eb];B[ea];W[kg]
;B[mf];W[db];B[da];W[ca];B[kl];W[ho];B[hp];W[id];B[hd];W[ie]
;B[he];W[hf];B[hc];W[gb];B[ha];W[kj];B[io];W[hn];B[pl];W[jb]
;B[kc];W[lq];B[mp];W[kk];B[lk];W[cg];B[ak];W[gc];B[dk];W[ek]
;B[bh]C[Try to kill or determine boundaries ?
K: you cannot kill those. The only way to try is the cut at E10. Then he can connect at B12.]
;W[ej];B[ba];W[cb];B[cm];W[lg];B[me];W[mg];B[tt];W[tt]C[K: Dear Francis,
you were quite lucky that the program did not connect out from the right side and did not kill your stones on the left. 
Try to stay connected and avoid playing small points! I think, that you will figure out quite fast, which points are important.

I hope I could help you out to improve your game. 
If you have any questions about the commentary, please feel free to write me!

Oliver])
(;B[pi];W[pj]C[k: This leaves him open to the Cut and the running into his eyespace!]
))
(;B[so]C[K: this is better! Otherwise he can run and ruin your corner!]
))
(;B[pi];W[pj];B[oj];W[ok];B[nj];W[pl];B[nh]C[K: something like this. gives you at least the four P13 stones.]
))
(;W[rj];B[sm]C[K: Only one eye]))
(;B[pj];W[pi];B[qi];W[qh];B[ri];W[qg];B[pf]
(;W[qf];B[rf])
(;W[rj];B[rk];W[si];B[qk];W[rh];B[rf]C[K: Like this you can confine him to a small space and he still has to cennect out!]
)))
(;B[pi]))
(;W[bo];B[bj];W[bk];B[bi];W[ck];B[ej];W[ek]))
(;B[nm])
(;B[mk]))
(;W[lq])
(;W[pn])
(;W[mc]))
(;B[ni]C[K: This move does nothing. You are still open for an invasion at R13 or such place.]
))
(;B[kl])
(;B[ek];W[ej];B[fj];W[dk];B[fk];W[dl];B[gi]C[K: E9 gives you outside influence but your important stones are still cut off.]
))
(;B[cj];W[di]C[K: E11 can easiliy escape]))
(;B[fp];W[do];B[jp])
(;B[dp];W[dq];B[ep];W[bo];B[dm];W[fr]))
