(;FF[4]GM[1]SZ[19]ST[2]CA[UTF-8]AP[SGFC:1.15]

PB[V1K]
BR[8k]
HA[0]
PW[spider8]
WR[8k]
KM[6.5]
DT[2007-10-03]
PC[The KGS Go Server at http://www.gokgs.com/]
RE[W+Resign]
TM[1800]
OT[5x30 byo-yomi]
RU[Japanese]

C[Dear reviewer,

This review is for white, the game was played on KGS with 30 minutes + 5/30 s for byomi. White won the game by resignation but there was interesting fighting.

I am hoping you can help me with tips on how to use thickness more effectively to attack and give me some hints on making good shape while fighting.

I put some comments to let you know my thinking at certain stages of the game.

Thank you,

Philippe


Hello,

I'll try to give some hints on your game.
However, I think you played it properly, and you made efficient use of your thickness, (moves 50 and 98).

You were less in danger than you though in the center, and black helped you with some blunders, but overall, it was a decent game.]
;B[pd]C[spider8 [8k\]: hi gg];W[dd];B[pp];W[cq];B[dp];W[dq]
;B[cp]C[Mistake I believe by black

Yes, this is a serious misplay];W[ep]C[good];B[bq]LB[eo:A]C[At least, black should play at A]

(;W[iq]C[see variation];B[cr]C[I think this is too early for black.

Yes, this is much too small];W[dr];B[br];W[cj]C[correct];B[cm]
LB[fc:A]C[C8 seemed better for black.

Evenc C8 is the wrong direction
Black group is not in danger.
There is no prospective in C7, particularly against a low stone.

Black should have played at A];W[eo]MA[nc][nq]C[Not sure this was the best move for white?

I'm not convinced.
It protects against a black sente move at E5, but there are bigger moves on the board.]
;B[lq];W[qj]C[correct.
O17 can be played as well.];B[ql];W[qf]
(;B[qe]C[wrong move.
The answer by white justifies R10, so this is not the best move.

Pro games go for R12];W[pf]C[now you have the correct extension (3 spaces in front of 2 stones)]
;B[mc]C[hmm, too far. O17 is joseki];W[fc]MA[ec]C[Again I hesitated before playing this move

It's ok, but E17 is safer for the corner];B[ci];W[ej]C[This is correct. D10 also possible]
;B[dj];W[dk];B[di]
(;W[ei]C[This is possible, but i'd choose to separate (see variation)]
;B[ck];W[dl];B[cl]
(;W[dm]C[White is pushing from behind, but it seemed necessary.

Ok. It seems difficult to close in sente];B[hc]C[I had a difficult time to know how best to make use of my tickness on the left.

Any suggestions would be most welcome.

The idea here is that you want to place any white stone 'behind' black stones facing your wall.

This *can* be very far from you wall.
The idea it to drive the black stones toward your thickness.]

(;W[ko]MA[kp]C[see variation (K17)

Also, invading at R3 is a good possibility, since black has 2 low stones on each side. Becasue of the white wall, there won't be prospective for a moyo.

Last : if your idea is to build territory (usually a bad idea),
L4 is better.];B[jf]MA[bd][jd][po][qq]C[This is a wasted move by black, to me.
- does not secure territory
- does not attack anything

It's a dame point.];W[ji]C[At this stage of the game black has definite territory in the lower left and white some territory in the lower left as well.

It seemed to me that if white could use his thickness well he could win the game.

I would not put it this way :

If white can use his wall to make territorry
(at this stage, the white wall is no more thickness, unless you want to use it against the black stones)]
;B[ce];W[cd];B[de];W[bd]MA[mp][ok]C[Perhaps too early in the game for white to play this move.

Yes, too small.];B[gf]MA[ml][oj]C[but black help you. He should play aroud N8]
;W[qc];B[pc];W[re];B[qd];W[rd];B[rc];W[qq]C[good];B[pq];W[qp]
;B[qo]
(;W[pr]C[I prefer the variation];B[or];W[qr];B[ro];W[oq];B[nr]
;W[nq];B[mr];W[po];B[op];W[rp];B[np]C[Mistake by black I believe. If black at Q6 instead, I do not know how white can do as well?

Yes, letting white cut is bad];W[pn];B[ps]
(;W[sr]TR[ql]C[S5 is better, because it will make R8 very lonely]
;B[sq];W[sp];B[rr]
(;W[rs]C[S3 simpler];B[ss];W[qs];B[sr];W[rn];B[so];W[os];B[ol]
C[Now white has a good chance to attack these black stones...

Looking back at the game now I realise after the exchange in the lower right that white has a nice lead.]
;W[nn];B[nj];W[pk];B[pl];W[ok]
(;B[nl]C[V1K [8k\]: Thx
V1K [8k\]: sorry
V1K [8k\]: hi) GG
V1K [8k\]: im dreenk beer )];W[nf]C[No, this will let black repair his weakness.

The action is at O9.];B[me]C[But black is helping];W[kq]MA[kr]
C[If you want to attack this group, the shape move it at L2]
;B[kr];W[jr];B[ns]C[M1 is the living move];W[qn];B[ks]
(;W[lp]C[I'd go for the weakness in black shape.];B[nk];W[ll]
C[Ugh, I did not like this move but I had to defend my moyo.

Perhaps a peep at N9 earlier in the game would have been better?

At this sage, this is correct. It's the shape move (M9 is usually better).]
;B[hm]C[This has to be a losing move :

If this stone survives, there is little chance that the right black tone do.

Never have 2 weak groups on a board.];W[jl]C[Good];B[gj];W[gi]
MA[gh]C[maybe not touch the stone, you willl strengthen it ...
G12 better];B[fk];W[ek];B[fm]TR[fk][gj][hm]C[This is a very good shape]
;W[gn];B[ij];W[ii];B[jk];W[kk];B[jj];W[kj];B[hj];W[hi];B[il]
MA[gl]C[White has G8];W[gm];B[gl];W[hk];B[jm];W[kl];B[hn];W[go]
;B[jp]C[K6 seemed slightly better for black?

Yes, K6 lives];W[ip];B[jo];W[io];B[kp];W[jq]
(;B[lo]C[Mistake by black, K6 gives 2 eyes I think.

No, see variation.];W[jn]C[game finished.];B[km];W[ln];B[lm]
;W[mm];B[mn];W[mo]C[black has time trouble, obviously.];B[ml]
;W[li];B[ho];W[gp];B[mh];W[mf];B[lg];W[lf];B[kh];W[ki];B[mi]
C[My white group in the middle is not 100% connected.

But I did not want to play to defensively.

My next move was more played to probe my opponent.

You are more connected than you think ...
(see variation next move)];W[jc]
(;B[kd];W[hb];B[ib];W[gc];B[ic];W[gb];B[qh]C[Good counter attack by black]

(;W[rh]C[better to cap, because it leads to seal below (see variation)]
;B[ri];W[rg];B[qi];W[sc]C[This will not help];B[rb];W[rl]
(;B[rk]C[black missed the kill];W[rj];B[rm];W[si];B[sh];W[sj]
;B[kf];W[oh];B[oi];W[pi];B[ph]C[V1K [8k\]: no problem have fun  /////end you  :-)]
;W[qg];B[pj];W[pg];B[pi];W[nh]C[spider8 [8k\]: tight spot

Going for the second eye.];B[of];W[oe];B[ng];W[mg];B[ne];W[le]
;B[sk];W[sg];B[qk];W[sh];B[lh];W[ld];B[lc];W[od];B[nd];W[nc]
;B[oc]C[Black is definitely helping ...];W[md];B[nb];W[ia]MA[dh]
[eg]C[It would have been more prudent for me to connect my white group in the midlle than to push for a few extra endgame points.

This move turned out to be useful in latter fighting but I did not plan it.



Again, you are more connected than you think (see variation), but of course :
"caution first".
particularly when you have a won game

You can always find attacking move that will defend as well ...]

(;B[jb];W[ja]C[Again connecting would have been wiser since white had the lead by securing his white group in the middle.

I should have taken more time to evaluate the wholeboard.];B[fi]
;W[fh];B[fj];W[gg];B[eh];W[eg];B[dh];W[dn];B[ff];W[fg]
(;B[ef]C[wrong move];W[hf];B[ig];W[hg];B[ih];W[hd];B[he];W[ie]
C[White is now in byo-yomi];B[ge];W[if];B[id];W[je];B[ke];W[jd]
;B[gd]C[Maybe black at L17 is better?];W[kb];B[hd];W[kc]C[I admit I had not read out the whole sequence when I played K19 at move 198 (28 moves earlier).

White will win this game easily from now.

Yes.]
(;B[jh]C[That is miai of E13 ...
But there is a way for black to live with E13 ...

see variation

___________________

End of comments.];W[dg];B[cg];W[df];B[ee];W[cf];B[be];W[bf]
;B[bg];W[ae]C[Final big move, after I just played safer moves to wind-down the game.

END OF COMMENTS];B[bj];W[js];B[nd];W[ne];B[nc];W[sd];B[lj];W[qm]
;B[sl];W[lk];B[mj];W[mp];B[mq];W[cs];B[bs];W[ds];B[ec];W[ed]
;B[fd]C[V1K [8k\]: )])
(;B[dg];W[jg];B[kg];W[jh];B[sm]C[Black alive.]))
(;B[hf];W[in];B[im];W[el];B[fl];W[fn]C[White should win the semeai]
))
(;B[fi];W[fh];B[fj];W[eh];B[gh];W[gg];B[hh]
(;W[hg];B[ih])
(;W[ig];B[hg];W[hf];B[fg];W[ih];B[gg];W[if]
(;B[ge];W[je];B[ke];W[hd];B[he];W[ie])
(;B[ie];W[he];B[id];W[ge]))))
(;B[oh];W[sf];B[sh]))
(;W[ph];B[pi];W[qi];B[pg];W[rh];B[qg];W[rg];B[og];W[of]))
(;B[dn]
(;W[em];B[en];W[fn];B[fl];W[cn];B[do];W[bp])
(;W[en];B[em];W[cn];B[do];W[bp])))
(;B[jn];W[in]
(;B[lo];W[im])
(;B[im];W[lo]
(;B[mn])
(;B[mm];W[mn]
(;B[km];W[lm])
(;B[lm];W[km];B[kn];W[ln];B[ki];W[li];B[kh];W[mj];B[mh];W[lh]
;B[lg];W[kg];B[jh];W[jg];B[ih];W[ig];B[hh];W[gh];B[hg];W[mg]
;B[lf];W[nh])))))
(;W[nk];B[mk];W[ml];B[mm];W[ll]
(;B[mn];W[nm])
(;B[nm];W[mo]C[This is ugly for black])))
(;B[ml]C[V1K [8k\]: miss
V1K [8k\]: o8]))
(;W[rq]))
(;W[rn]))
(;W[ro];B[rn];W[rp];B[qn];W[pr];B[or];W[qr];B[nq]))
(;W[jc];B[he];W[je];B[fe];W[oc]C[Now P17 is a weakness to exploit]
;B[nd];W[qc];B[pc];W[pb]
(;B[od];W[nb])
(;B[ob];W[nb];B[qb];W[oa];B[rc];W[od])))
(;W[co];B[bo];W[dm]
(;B[dn])
(;B[cn])))
(;W[ck];B[ei];W[fj];B[cf];W[bo]
(;B[bp];W[cn];B[co];W[bn])
(;B[co];W[bn];B[bm];W[cn];B[dn];W[bp];B[do];W[dm];B[en];W[cl]
;B[eq];W[er];B[fq];W[fr];B[gq];W[gr])))
(;B[qh];W[of];B[nd];W[pi]))
(;W[br];B[bp];W[eo];B[cn];W[nq]))
