(;FF[4]GM[1]SZ[19]ST[2]CA[UTF-8]AP[SGFC:1.15]VW[]

PB[thanh1988]
BR[12k]
PW[sharan]
WR[11k]
KM[0.5]
DT[2007-09-27]
PC[The KGS Go Server at http://www.gokgs.com/]
RE[B+0.50]
RU[Japanese]

C[thanh1988 [12k\]: hi


Hello Daniel,

I ll try my best to review your game.

killgo1 on KGS];B[pd]C[sharan [11k?\]: heya];W[dp];B[pp];W[dd]
C[So far so good.
^^]
(;B[dj]C[d10 is too high. I he wants to split, then c10]
(;W[qj];B[mp];W[jd]
(;B[pj]C[q10 is too agressive : the contact move makes you stronger in a Black area. You can say "thanks" after this move :-)]
;W[qi];B[ng];W[pf];B[pe];W[qf];B[ld];W[gd];B[dn]C[too high again]
;W[fq];B[fp];W[eq];B[cq];W[cp];B[bp];W[bo];B[br];W[ap];B[bq]
;W[cn];B[dq]
(;W[dr];B[ep]C[this is too good for B];W[cr];B[do];W[co];B[cm]
;W[bm];B[gq];W[ar];B[fr];W[er];B[gr];W[bs];B[cl]
(;W[qn]C[exactly what B wants : enclose W again];B[pn];W[qp]
;B[qq];W[po];B[oo];W[qo];B[pm];W[qm];B[oq];W[pl];B[ol];W[om]
;B[on];W[ok];B[nl];W[pk];B[mj]C[the game is already lost for W : the middle is too big even if you reduce wildly]
;W[gi];B[cf];W[ce];B[df];W[ff];B[fh];W[gh];B[gg];W[hg];B[fg]
;W[ih]
(;B[kh]C[this would have been the possible losing move for B]
;W[hk]
(;B[hd]C[bad move];W[hc];B[id];W[ic];B[hf];W[if];B[he];W[gf]
C[B is very very nice here :-)];B[hl]C[sharan [11k?\]: u wana rewiew after the game?]
;W[il];B[ik]LB[hj:A][jk:B]
(;W[hj];B[jj];W[gl];B[hm];W[fn];B[go];W[gm];B[gn];W[em];B[dm]
;W[ji];B[kj];W[nk];B[mk];W[kc];B[lc];W[rd];B[qc];W[rq]C[B is still ahead even with his bad middle game mistakes : his lead form the opening was too big]
;B[qr];W[ai];B[bl];W[al];B[ak];W[bf];B[bg];W[be];B[ag];W[fi]
;B[ei];W[eg];B[eh];W[ef];B[dg];W[ej];B[ee];W[ge];B[de];W[ed]
;B[fd];W[fc];B[fe];W[gc];B[dh];W[rr];B[kf];W[pr];B[or];W[qs]
;B[pq];W[rc];B[qb];W[lb];B[mb];W[kb];B[ek];W[nb]
(;B[ma];W[mc];B[nc];W[md];B[ob];W[le];B[nd];W[me];B[lf];W[la]
;B[na];W[ij];B[jk];W[ki];B[li];W[jh];B[oi];W[ni];B[oh];W[oj]
;B[pi];W[nh];B[og];W[nj];B[of];W[qh];B[qe];W[re];B[mh];W[kg]
;B[lh];W[jf];B[mf];W[ke];B[am];W[aq];B[bn];W[ps];B[os];W[rs]
;B[af];W[bd];B[rb];W[sb];B[fj];W[gk];B[en];W[ne];B[fo];W[fm]
;B[es];W[ds];B[fs];W[ae];B[lg];W[jg];B[oe];W[el];B[nf];W[dl]
;B[dk];W[fk];B[pg];W[qg];B[ra];W[ao];B[an]C[thanh1988 [12k\]: no thanks
thanh1988 [12k\]: I  dont have much time left];W[sc]C[sharan [11k?\]: ok]
;B[ej];W[gj];B[tt]C[thanh1988 [12k\]: interesting game
sharan [11k?\]: yep];W[ml];B[nm];W[mi];B[tt];W[tt]TW[aa][ba]
[ca][da][ea][fa][ga][ha][ia][ja][ka][ab][bb][cb][db][eb][fb]
[gb][hb][ib][jb][ac][bc][cc][dc][ec][jc][lc][ad][cd][hd][id]
[kd][ld][sd][he][ie][je][se][hf][rf][sf][ig][rg][sg][hh][rh]
[sh][hi][ii][ri][si][rj][sj][qk][rk][sk][fl][ql][rl][sl][rm]
[sm][rn][sn][ro][so][bp][rp][sp][bq][cq][dq][sq][br][sr][as]
[cs][ss]TB[oa][pa][qa][nb][pb][oc][pc][od][cg][mg][ah][bh][ch]
[ai][bi][ci][di][aj][bj][cj][lj][bk][ck][kk][lk][al][il][jl]
[kl][ll][ml][bm][im][jm][km][lm][mm][om][hn][in][jn][kn][ln]
[mn][nn][eo][ho][io][jo][ko][lo][mo][no][gp][hp][ip][jp][kp]
[lp][np][op][hq][iq][jq][kq][lq][mq][nq][hr][ir][jr][kr][lr]
[mr][nr][gs][hs][is][js][ks][ls][ms][ns])
(;B[nc]C[One last detail : here B wins with a confortable lead (5 pts or so)]
;W[ma];B[mc];W[ob];B[fj];W[fl];B[ae];W[ad];B[af];W[cd];B[of]
C[that s it : I hope it helped ^_^]))
(;W[jk]C[Yes : you saw it yourself :-)];B[ij];W[jj];B[hj];W[gk]
;B[gj];W[ji];B[jl];W[kl];B[jm];W[fi];B[fj];W[ei];B[dh];W[eh]
;B[eg];W[ef];B[dg];W[ej];B[fk];W[ek];B[fl];W[lk];B[lm];W[km]
;B[kn];W[jn];B[im];W[ln];B[ko];W[mm];B[nm];W[lo];B[lp];W[ml]
;B[mk];W[ll];B[mn];W[dk];B[ck];W[di]
(;B[cj];W[ci])
(;B[ci];W[cj];B[bj];W[bi];B[dj];W[ch];B[cj];W[bg];B[bf];W[be]
;B[ai];W[af];B[bh])))
(;B[je];W[ie];B[id];W[jf];B[ke];W[ic];B[if];W[he];B[il];W[hl]
;B[hm];W[ik];B[im];W[jl];B[jk];W[kk];B[jj];W[kj];B[ji]C[B is 50 points ahead]
))
(;B[ik]C[B lead is too big];W[hk];B[hl];W[ij];B[il]))
(;W[pn]C[more difficult to enclose W]))
(;W[ep];B[er];W[fr];B[dr]C[you enclose him : with sente ! ^_^]

(;W[ch])
(;W[pk])))
(;B[cn]))
(;W[cl]C[you can make the checking extension and see how he reacts for free]
))
(;B[cj]))
