(;FF[4]GM[1]SZ[19]CA[Windows-1252]AP[SGFC:1.15]

PB[enigm4]
BR[16k]
HA[0]
PW[tak3shi]
WR[15k]
KM[0.5]
DT[2007-10-09]
PC[The KGS Go Server at http://www.gokgs.com/]
RE[B+2.50]
OT[3x30 byo-yomi]
RU[Japanese]

C[Hello!

I was playing in this game 
as enigm4 (16 kyu) 
vs tak3shi (15 kyu). 
It was important match for me because it was my
first match as 16 kyu on KGS 
(I play GO 39 days) :-)

Final game result was +2,5 for me (result was really close, isn`t it?). 
I would be really happy 
if someone stronger then me 
can tell me what could I do better then i done.

Thank you!
Regards enigm4 (hauas@wp.pl)];B[pc];W[dp];B[pp];W[dd];B[pl]
LB[fc:A][qi:B][qe:C][pi:D][cn:E][fq:F][pe:G]C[I cannot say 
this is good or bad.

In my collection of more than 
34000 profesional games
3246 come to this situation 
and so they are playing:

A 1209
B   760
C   567
D   293
E   126
F   117
G   105];W[jq];B[qe];W[nq]
(;B[oq]C[This contact play helps White ...



(see variations)];W[np]LB[qq:x]C[... to get this good shape
and still can invade at 'x'.

------------------------
Contact plays are correct
(1) when your position is in danger and need defence

(2) when you can force White 
to make an overconcentratet position.];B[jd];W[hc];B[jc];W[nd]
;B[fc];W[nc];B[dc];W[cd];B[hd];W[ed];B[gc];W[cc];B[ec];W[db]
;B[lc];W[ld];B[kd];W[md];B[oe];W[lf];B[dj];W[dh];B[dm];W[pd]
;B[od];W[oc];B[qd];W[pb];B[qc];W[qb];B[ne];W[lb];B[ph];W[ie]
;B[id];W[cn];B[cm];W[fq];B[ch];W[cg];B[ci];W[dg];B[jj];W[gd]
;B[fd];W[fe];B[ge];W[ff];B[fh];W[jn];B[hl];W[fj];B[gj];W[fi]
;B[gh];W[ei];B[gi];W[fk];B[gf];W[gg];B[fg];W[hg];B[ef];W[ee]
;B[eg];W[oo];B[po];W[on];B[pn];W[om];B[mj];W[pm];B[qm];W[ol]
;B[jm]LB[pk:a]C[at 'a'];W[ql];B[pk]LB[rm:a]C[at 'a'];W[qn];B[qo]
;W[rm];B[nr];W[mr];B[os];W[op];B[pq];W[mq];B[rn];W[oj];B[pj]
;W[oi];B[pi];W[mi];B[li];W[mh];B[fm];W[lh];B[ki];W[kh];B[in]
;W[jo];B[fo];W[me];B[jh];W[nf];B[of];W[ng];B[lm];W[ln];B[kn]
;W[ko];B[km];W[mn];B[mm];W[io];B[hn];W[ho];B[ep];W[eq];B[do]
;W[cp];B[co];W[bo];B[bn];W[fp];B[eo];W[go];B[gn];W[ap];B[an]
;W[bm];B[dn];W[am];B[bl];W[ao];B[cn]LB[al:a]C[at 'a' to get eyes.

That can be important
when your groups are separatet.];W[pg];B[pf]LB[og:a]C[At 'a']
;W[og];B[qg];W[rc];B[rd];W[mc];B[kc];W[kb];B[jb];W[ka]LB[rj:a]
C[This is a small endgame move.

White should play at 'a'.];B[ja];W[mb];B[eb];W[ca];B[ea]LB[qk:a]
C[at 'a'];W[da]C[This is a small engame move.];B[df]C[fine]
;W[cf];B[di]C[This is small ...];W[eh]C[... even if White must answer.

You have lost a threat 
for a possible ko - fight.];B[ek];W[jg];B[ih];W[ig];B[hh];W[ke]
;B[je];W[jf];B[he]LB[qk:a]C[small,
better at 'a'.];W[ro];B[rp];W[so];B[qm];W[qf];B[pe]LB[rf:a]
C[At 'a'];W[qn];B[sp]C[This is no real threat.];W[sn]
(;B[rf]C[variation];W[qj]LB[rj:a]C[White at 'a'];B[qk];W[rk]
;B[rj];W[sk];B[sj];W[qi];B[ri];W[bh];B[bi];W[ag];B[ai];W[ah]
LB[mk:a]C[small, better at 'a'];B[nl];W[ok];B[nj];W[oh];B[qh]
;W[gl];B[gk];W[fl];B[el];W[gm];B[hm];W[nm];B[nk];W[ml];B[ll]
;W[lj];B[mk]C[not necessarry];W[ni];B[lk]C[not necessary];W[sd]
;B[rb]C[fine];W[ra];B[sc];W[qa];B[sb]LB[ms:a]C[At 'a'];W[ob]
C[not necessary];B[se]C[not necessary];W[ms];B[ns];W[ps];B[or]
;W[qq];B[qp];W[rq];B[qr];W[qs];B[rr];W[tt];B[if]LB[de:a]C[at 'a']
;W[hf];B[ie]LB[de:a]C[at 'a'];W[tt]
(;B[bq]C[enigm4[16\]: I know that this 
(and next my moves on left
bottom) was stupid.

I think better try was to play E10 and if after that white
wouldn`t make response on left-top. I could kill some
group (please, look at variations). Am I right?];W[bp];B[dq]
;W[cq];B[dr];W[cr];B[cs];W[br];B[de];W[ce];B[tt];W[tt]C[enigm4 [16\]: result +2,5 for me (black)

------------------------
Congratulation.
In your next games 
try to keep the iniciative,
and try to avoid small moves,
try to avoid unnecessary moves
and try to avoid small moves.
Best wishes 
hey7.])
(;B[ej]
(;W[tt]C[You cannot expect White 
to do nothing. 

See variation.];B[bf];W[ce];B[bg];W[be];B[af])
(;W[de]C[White will close.];B[bf];W[bg]))
(;B[ej];W[tt];B[bf];W[bg];B[ce]
(;W[be];B[af])
(;W[de];B[af])))
(;B[qk];W[rf];B[rg]))
(;B[jd]MA[pl]C[With the marked stone in place,
you can play here
and accept an invasion at r3.];W[qq];B[qp];W[pq];B[op])
(;AE[pl];B[pn]C[When the stone at q8
is not in place
you can answer this way.]))
