(;FF[4]GM[1]SZ[19]ST[2]CA[UTF-8]AP[SGFC:1.15]

PB[iyte]
BR[4k]
HA[5]
PW[kurbaga]
WR[4d]
KM[0.5]
DT[2007-09-29]
PC[The KGS Go Server at http://www.gokgs.com/]
RE[W+Resign]
TM[600]
OT[25/240 Canadian]
RU[Japanese]

AB[dd][pd][jj][dp][pp]C[Merhaba!

Sorry only Turkish I know.  In handicap games here is some good advice.

1 - Never get sealed in.
2 - Don't fight white too much
3 - Don't try to kill white unless you are 100% sure you can
4 - Try to make large moves.

You are too aggressive.  You need to wait until your stones are strong before you start attacking.   You died in the end because you attacked with bad shape.]
;W[fq]C[kurbaga [4d\]: hi
iyte [4k\]: io];B[cn];W[mp]C[kurbaga [4d\]: baiarılar]
(;B[iq]SQ[cn]C[Not really.  First off you played this move which is low.  Low moves are for territory and high moves are for attacking.  You also played this move low so it's not a severe attack.]
;W[pm]TR[mp]C[Two high moves.  He is trying to seal you into the corner.  If you're opponent tries to seal you you need to come out.]

(;B[qo]C[and this move.];W[io]
(;B[kq]C[This is what he wants you to play.];W[lr]
(;B[lp]TR[mp]C[Dont touch weak stones];W[lo];B[ko];W[lq];B[kp]
;W[kr]
(;B[jr];W[ln];B[kn];W[pr]
(;B[mq]C[wrong place.];W[nq]
(;B[np];W[mr];B[oq];W[or]
(;B[qq];W[no];B[qm];W[ql];B[rm];W[qr]
(;B[rl];W[qk];B[rk]TR[rl]C[2nd line moves, pushing from behind.  You should cut because doing this isnt good for you.]
;W[km]C[Ouch]
(;B[in];W[jn];B[jo];W[jm];B[ho];W[qj];B[pn];W[on];B[pl];W[om]
;B[rj];W[qi]
(;B[ok]C[Dont do this there's no reason to.  When we cut we want to cut weak groups.  R11 becomes weak but bringing this group out now wont do much]

(;W[im];B[ip];W[cf]
(;B[fp]LB[cq:A]C[Corner still open.];W[cq];B[dq];W[dr];B[er]
;W[cr];B[eq];W[bo];B[bn];W[co]
(;B[dn];W[fd];B[df];W[dg];B[ef];W[ce];B[ed];W[cd];B[fc];W[gc]

(;B[fe];W[gd];B[fb];W[eg];B[cc];W[bc];B[cb];W[ge];B[fg];W[gf]
;B[ff];W[md]C[Right now its a pretty bad situation for black.  You let him press you down on the right, he cut off the center stones, you're overconcentrated at the bottom and you live small at the top.]
;B[qf];W[ni]
(;B[oc];W[lj]TR[bo][co][cq][cr][dr]C[The marked group is a ko.]

(;B[bp];W[cp];B[ao];W[bq];B[ap];W[aq];B[an];W[bs];B[ch];W[cg]
;B[dj]C[Not much of an attack but at least you make some territory.]
;W[do];B[eo];W[en];B[em];W[fn];B[fm];W[gn];B[gm];W[hn];B[hm]
;W[io];B[ds];W[ar];B[in];W[de];B[ee];W[io];B[oi];W[hp];B[in]
;W[gp];B[io];W[go];B[hq];W[oh];B[kc];W[mb]
(;B[hb];W[hj];B[gg];W[jb];B[ic];W[jc];B[jd];W[id];B[ie];W[hd]

(;B[ib]C[bad shape];W[kb]
(;B[jf]C[bad shape];W[kd];B[je];W[ji];B[bh];W[ei];B[ej];W[fi]
;B[il];W[ik];B[hl];W[jl];B[gi];W[gj];B[fj];W[gh];B[eh];W[dh]
;B[di];W[fh];B[ki]TR[fh][gh]C[Takes away liberties.];W[jh];B[lc]
;W[ld];B[nh];W[ph];B[ng];W[gb];B[ga];W[hg];B[hf];W[ec];B[dc]
;W[eb];B[fa];W[ha];B[lb];W[ea])
(;B[je]))
(;B[gb]
(;W[je];B[kd];W[if];B[kb])
(;W[kd];B[je];W[kb];B[hf])))
(;B[nh]C[cut here first.];W[oj];B[og];W[pi]C[then you get this forcing move, then..]
;B[le]C[you have to be aggressive];W[me];B[lf];W[mf];B[mg];W[lg]
;B[lh];W[kg];B[jf];W[jg];B[if];W[ig];B[lc];W[mc];B[hg]))
(;B[ao];W[ap]
(;B[ar];W[cp];B[an];W[ds];B[bp];W[bq];B[aq];W[bs])
(;B[bp];W[cp];B[aq];W[ar];B[br];W[bq];B[as];W[ap]))
(;AB[do]C[If b has the outside liberty its dead.];B[ao]
(;W[ap];B[cp];W[bp];B[bq])
(;W[bp];B[ds];W[cs];B[ar])))
(;B[kc]C[You've gotta try something here, u are way behind.]
))
(;B[gd];W[fe];B[hc];W[ec];B[gb];W[dc];B[eg];W[dh];B[gf]))
(;B[do]C[Sente];W[cp];B[ch];W[dn];B[cl]C[If he cuts you dont care.]
))
(;B[eq]))
(;W[nj]C[if he wanted he could just attack you]))
(;B[jd]C[take the big point at the top.]))
(;B[hp]))
(;B[pl]C[cut]))
(;B[mo];W[no];B[mq]C[you have to play the ko now that you've played the other moves.]
))
(;B[mo]C[at least do this]))
(;B[np]C[attack here.]
(;W[no];B[mq];W[mo];B[nq])
(;W[nq];B[mo];W[mq];B[no])
(;W[mq];B[no];W[mo];B[nm])
(;W[mo];B[nq];W[mq];B[nr])))
(;B[km]C[outside is more important]))
(;B[ko]C[Come out]))
(;B[hp]C[Again come out.]))
(;B[oo]))
(;B[hp]C[if ur going to pincer something like this but.])
(;B[pn]C[In a handicap game I would play more patiently.  He can't attack your corners severely now.]
))
