(;FF[4]GM[1]SZ[19]ST[0]CA[UTF-8]AP[SGFC:1.15]VW[]

PB[ekberg]
BR[12k]
HA[4]
PW[Neosia]
WR[8k]
KM[0.5]
DT[2007-10-21]
PC[The KGS Go Server at http://www.gokgs.com/]
RE[W+24.50]
TM[600]
OT[5x20 byo-yomi]
RU[Japanese]

AB[dd][pd][dp][pp]C[Ekberg: I think my fear of contact play is my largest weakness, and I will be grateful if you point out a few variations showing how I could have fought better, especially against the disastrous invasions on the upper half of the board.
You shouldn't use a lot of time on minor mistakes or the obviously bad moves that I have marked as bad!

C: Hi. I will mark my comment by starting them with "C:". 

There are two main opportunities for improving your game that I found here:

1. a tendency to play poor shape moves (consider "Shape Up" by Charles Matthew, I believe it is on gobase, or try to play through some professional games)
2. a tendency to focus on minor tactical situations that had no real strategic or territorial value, or put another way, a tendency to follow your opponent around rather than looking for opportunities to tenuki and play big points.

You also have a tendency to over-value your thickness and seem unwilling to let white get anything (and as a consequence you overplay and end up with nothing). When white invades your moyo's you need to accept that white will probably live but you must be able to get compensation elsewhere in terms of territory or thickness.

Also, when your opponent invades your territory, consider capping moves or other enclosing moves, attachments usually give your opponent something to work with.

Although it didn't matter in this particular game, your endgame was good, and that will be important in closer games.]
;W[jj]C[Ekberg: Should I play close to this to reduce its influence?

C: You already have plenty of influence with the 4 star stones. You should just remember that while white takes a territorial loss, he now gets to win most ladders and has help for his fights.]
;B[pj]C[C: This is fine];W[nq];B[qn];W[jp];B[gq]C[C: This is a vague move - it cannot secure the corner, and in terms of reducing white's options to expand on the bottom, F3 is better because it has a more secure connection to D4. K16 is also a nice move here.]
;W[cq];B[cp];W[dq];B[eq];W[bp];B[bo];W[ap]
(;B[ao]C[C: I would prefer to leave this alone, and save it as a threat later on. C6 is a better shape move (although there is the cutting point to worry about).]
;W[br]C[C: You've now forced white to live and lost most of the aji in the corner, and still ended in gote.]
;B[ep]C[C: you still have a weakness at C5];W[bf];B[jd]C[Ekberg: A pincer would be better, huh?

C: Definitely. Something around c10 attacks white and starts taking territory.]
;W[ci];B[ck];W[cc]
(;B[dc]C[C: correct - the other direction does not work, see variation.]
;W[cd]
(;B[ce]C[C: This is not good shape - you leave a cutting point, and you force white to connect. D15  is better.]
;W[be];B[df];W[gd]C[Ekberg: now this looks to me as an overplay (too close to my thickness), but my attempts to punish it failed miserably. Please tell me what to do!

C: This is a good move from white. Your thickness is not as thick as you may think, because of the weakness at D15 and the large number of surrounding white stones. Also, white has invaded high, and it will be difficult to kill, especially with the support at tengen (K10). You do not want white to separate your stones. It is hard to find a suitable move here. Perhaps connecting underneath is best.]

(;B[gf]LB[ff:C][hf:A][if:B]C[Ekberg: I guess A or B might be better, but then white could escape at C?

C: Its very difficult - your stones at D17 are weak.];W[ie]

(;B[je]C[C: Perhaps cut immediately? See variation.];W[hf]
(;B[hg]C[C: Try not to give white options to make sabaki - white will be looking to crosscut, attach and sacrifice. G15 looks like a nice move here.]
;W[gg]
(;B[if]C[C: Always at least consider an extension after a crosscut, the atari very seldom works. See variation.]
;W[he];B[ig];W[ff]C[C: You have obtained some nice thickness in compensation for the invasion, unfortunately you have pretty much lost your D17 stones. Its probably best to leave them now and hopefully use their aji later.]
;B[gh]C[C: After this your group on the left is basically dead.]
;W[fg];B[fh];W[eg];B[ic]C[C: This is a difficult move. It is aji-keshi (reducing the aji of the D17 stones), but it is sente, so long as you follow it up with a big move.]
;W[gc]C[Ekberg: I might have done something like jigo, if I could save my top left group. Is it dead now, or is there still some way to rescue it?

C: dead];B[hd]MA[qf][pf][mc][md][nd][nc]C[C: Consider a big move. Force white to invade.]
;W[hc];B[ib];W[hb];B[cb];W[bb];B[bc];W[bd];B[ba];W[ac];B[eb]
;W[ee]
(;B[de]LB[da:A][fa:C][ha:D][ab:B][fb:E]C[Ekberg: this is of course stupid. 'A' would give one eye, but the other eye seems impossible, unless I can win a ko on B (which I can't, but then at least white must ignore some ko threat of mine). C would threaten to connect, but after white D, A and E are miai to kill.
Please correct my miscalculations!

C: As you can see in my variations, there is no ko, and the group is dead as it stands]
;W[da];B[dg];W[eh];B[ch];W[bh];B[di];W[dh];B[cg];W[bi]
(;B[cj]C[Ekberg: stupid move again

C: of course you are upset at losing that group, but you still have a lot of potential territory on the right and top side. You still have a chance.]
;W[ei];B[fj]LB[gk:A]C[Ekberg: Would something like A be better to stop W's agression?

C: I'm not sure what your goal is here. If you are trying to protect the territory on the left, then something like E9 is better.  If you are trying to protect cutting points, then rather connect them. I suspect you are trying to prevent white connecting to his other stones, but I believe now is a time to play some big moves.]
;W[ej];B[ek];W[fk];B[dk];W[gj];B[hi];W[gi];B[hj];W[fi]C[C: white should just extend to E8]
;B[fl];W[hk]MA[nc][nd][md][qf][pf]C[C: OK, at this point its worth doing a count. White has gotten about 50 points on the top left, and about 5 on the bottom left. Black can get perhaps 20 points from the group on the left, which means black needs to get 35+ points from the top right and right hand side corner, while preventing white from getting any meaningful territory in the middle. 

Black's wall is reasonably strong, and black should definitely be thinking about trying to claim some sizable territory now. Moves like J10 achieve nothing, instead consider moves like the ones marked X. Of course white will invade, that will however give the chance to secure the territory on the other side of the invasion. So long as the black K16 does not die, then there is a good chance of catching up.]
;B[ii]C[C: The H10 stones are no important at this stage, your moves are little better than passing. Big moves are needed!]
;W[ji];B[jh];W[hh];B[ih]C[C: This is a common DDK error, once you realize that its not necessary and that you can play elsewhere,  you will improve.]
;W[fn]
(;B[gl];W[hn];B[ng]LB[en:A]C[Ekberg: I guess something like A was more urgent. But to claim the upper right corner, what would be correct? A block against the 3-3 invasion?

C: Something around here has been urgent for about 20 moves, fortunately white let you play first. The problem with O13 is that it gives white a lot of space to invade underneath, and is probably too close to your thickness. I've commented earlier on some suggested moves.]
;W[oi];B[pi];W[pg]
(;B[ph]C[C: Cut!];W[lg]C[Ekberg: How to stop this invasion/reduction?

C: This is possibly too deep, however your O13 stone is quite weak, so this is a reasonable move from white. I don't think you "stop" it, all you can do is try to get some compensation out of it.

I show some variations where you may end up with an attack on white, but the weakness in your wall at K14 is a problem. There are also possibilities to take some territory, but white always has R17]

(;B[lh]C[C: Attachments rarely work. Consider the cap instead.]
;W[mh]
(;B[kh];W[mg];B[le];W[me];B[ne];W[md];B[ld];W[og];B[nf];W[mf]

(;B[nh]C[C: You can't let white escape like this. See variations.]
;W[mi];B[ni];W[qc]
(;B[pc]C[C: Wrong direction, see variation];W[qe];B[qd];W[rd]

(;B[qb]C[C: wrong direction, see variation];W[rc]
(;B[pe]C[C: too soft on white, see variation];W[rb];B[pb];W[qf]
;B[qg]C[C: no good];W[qh];B[qi];W[rh];B[ri];W[rg]
(;B[mb]C[C: bad shape, rather N17, see variation.];W[lc];B[mc]
;W[kf];B[jf];W[ke];B[kd];W[oh];B[nd];W[mj]
(;B[oj]C[Ekberg: Maybe something bigger existed?

C: White S18 is alive, so this achieves little, but perhaps you can attack the N10 stones - even if you don't kill them you should be able to destroy white's territory. See variations for some ideas.]
;W[nm];B[pq];W[pm];B[qm];W[oo];B[pl];W[il];B[iq];W[jq];B[ho]
;W[in];B[io];W[jo];B[ir];W[jr];B[js];W[ks];B[is];W[lr];B[or]
;W[po];B[qo];W[go];B[gp];W[al];B[bl];W[ak]
(;B[bk]LB[am:A]C[Ekberg: Would A be safe?

C: absolutely! see variation.]
(;W[aj];B[bm];W[dj];B[ol];W[nl];B[om];W[on];B[nk];W[mk];B[op]
;W[np];B[nn]C[Ekberg: Hopeless.];W[no];B[mn];W[ml];B[nr];W[mr]
;B[db]C[Ekberg: What was I thinking?];W[fb];B[id];W[ge];B[dr]
;W[cr];B[ds];W[cs];B[es]
(;W[ar]C[Ekberg: This wasn't neccesary, i think. I could have made something like bent four in the corner, but not kill.

C: Absolutely necessary, otherwise black gets a ko to kill white. see variation]
;B[fo];W[gn];B[en];W[ia];B[ja];W[ha]
(;B[jb]C[C: not necessary, see variation.];W[si];B[sj];W[sh]
;B[rk];W[oq]
(;B[pr]C[Ekberg: Don't know if this was neccesary, but better safe than sorry.

C: In a close game this could cost you a win. Nothing white can do, see variations.]
;W[pn];B[em];W[hl];B[ki];W[kj];B[li];W[lj];B[kg];W[lf];B[ij]
;W[nj];B[ik];W[jk];B[gk];W[ok];B[pk];W[gm];B[fm];W[fj];B[pf]
;W[sf]C[C: Unnecessary from white.];B[of];W[qg];B[ms];W[ls]
;B[ns];W[lp]C[C: White can afford to be very cautious, knowing that he is far in the lead.]
;B[ra];W[sb];B[nk];W[ip];B[hp];W[ok];B[am];W[bj];B[nk];W[sa]
;B[qa];W[ok];B[bq];W[aq];B[nk];W[fs];B[er];W[ok];B[gh];W[fh]
;B[hh];W[nk];B[tt];W[tt]TB[ka][la][ma][na][oa][pa][kb][lb][nb]
[ob][jc][kc][lc][nc][oc][od][oe][jg][qj][rj][qk][sk][cl][dl]
[el][ql][rl][sl][cm][dm][rm][sm][an][bn][cn][dn][rn][sn][co]
[do][eo][ro][so][fp][qp][rp][sp][fq][hq][qq][rq][sq][fr][gr]
[hr][qr][rr][sr][fs][gs][hs][os][ps][qs][rs][ss]TW[aa][ba][ca]
[ea][fa][ga][ab][cb][db][eb][gb][bc][dc][ec][fc][sc][ad][dd]
[ed][fd][sd][ae][ce][de][fe][re][se][af][cf][df][ef][gf][rf]
[ag][bg][cg][dg][sg][ah][ch][ai][di][kk][lk][jl][kl][ll][hm]
[im][jm][km][lm][mm][jn][kn][ln][mn][nn][ko][lo][mo][kp][mp]
[bq][kq][lq][mq][kr][as][bs]C[ekberg [13k\]: thx
Neosia [7k\]: merci])
(;B[oa]
(;W[pr];B[qr];W[ps];B[qs];W[qq];B[qp];W[rq];B[os])
(;W[qr];B[pr])
(;W[qp];B[qq])
(;W[ns];B[ps])))
(;B[ss];W[jb];B[ka];W[kb];B[la]))
(;W[ia];B[aq];W[bq];B[ar];W[as];B[ar];W[aq])
(;W[ss];B[ar];W[as];B[bs]))
(;W[am]))
(;B[am];W[bm];B[aj];W[an];B[bk];W[am];B[cm];W[bj];B[bn]))
(;B[lk]
(;W[lj];B[kj]
(;W[kk];B[ki];W[mk];B[ll];W[ml];B[lm];W[mm];B[ln];W[mn];B[lo]
;W[mo];B[lp];W[gk];B[mp];W[np];B[hl];W[ik];B[im])
(;W[ki]
(;B[li])
(;B[kk];W[li];B[jk])))
(;W[li];B[ki];W[lj];B[kj];W[kk];B[ll])
(;W[mk];B[ll];W[ml];B[mm];W[lm];B[km];W[ln];B[jl]
(;W[hl];B[lj];W[li]
(;B[jk];W[ki])
(;B[ki];W[kj];B[jk];W[nm]C[C: this ladder doesn't work for white]
;B[mn];W[mo];B[nn];W[on];B[no]
(;W[oo];B[np];W[op];B[mp])
(;W[np];B[oo])))
(;W[lj];B[ik];W[ij];B[hl];W[gk];B[nm]C[C: the white group could easily die now.]
))))
(;B[mc];W[nc];B[lc];W[nd];B[nb];W[ob];B[mb];W[oc];B[oa]))
(;B[rf];W[rb];B[pb];W[qf];B[rg];W[re];B[ra]))
(;B[rc];W[rf];B[sd];W[re];B[rh]))
(;B[qd];W[pc];B[oc];W[ob];B[nc];W[nb];B[mc];W[rd];B[re];W[rc]
;B[qf]))
(;B[mi];W[nh];B[lj];W[oj];B[ok];W[oc];B[nd];W[nc];B[lc];W[mc]
;B[pe]
(;W[pc];B[oh];W[ni];B[nj];W[kf];B[jf];W[lb];B[kb];W[mb])
(;W[qb];B[pc];W[pb])
(;W[nk];B[nj])))
(;B[mg];W[kh];B[li]
(;W[mi]
(;B[lj];W[kg];B[jf])
(;B[kg]))
(;W[kg];B[jf];W[mi];B[lj];W[mj];B[lk];W[mk];B[ll];W[ki];B[ml]
;W[nl])))
(;B[mh];W[lh];B[mi];W[le];B[kf];W[lf])
(;B[mi]
(;W[lh];B[li])
(;W[li]
(;B[lh];W[kh];B[mh];W[kf];B[jf];W[ld])
(;B[kh];W[lh])
(;B[mh];W[lh])))
(;B[mf];W[kf];B[jf];W[li];B[le])
(;B[li];W[mh];B[mi];W[nh]
(;B[og])
(;B[oh];W[og];B[nf];W[ni];B[kh])))
(;B[oh];W[lg];B[li];W[mh];B[mi];W[nh];B[ni];W[oj];B[lh];W[mg]
;B[og]C[C: Hard for white to win now.]))
(;B[hn];W[gm];B[gl];W[hm];B[fm];W[gn];B[hl]
(;W[il];B[im];W[in];B[ik];W[jm];B[jk])
(;W[ik])))
(;B[ei];W[fi];B[gi];W[fj];B[dj]))
(;B[da];W[dg];B[ab];W[bc];B[fb];W[fa]
(;B[gb];W[ga])
(;B[ga];W[gb];B[ea];W[ha])))
(;B[ff];W[ig];B[hh];W[ih];B[gh];W[fg];B[eh];W[fh];B[fi];W[eg]
;B[dg]))
(;B[ge]
(;W[id];B[he];W[jf];B[hd])
(;W[he])
(;W[hd];B[he])))
(;B[he]
(;W[hd];B[id])
(;W[id];B[hd]C[C: this is not so bad for white, black, is  over-concentrated.]
)))
(;B[gb];W[gc];B[hb];W[fb];B[fc];W[ec];B[fd];W[ed];B[fe]))
(;B[de]))
(;B[cd];W[dc];B[ec];W[eb];B[fc];W[fb];B[gc];W[bd];B[be]))
(;B[cn]C[C: This];W[ep];B[fp];W[eo];B[dn];W[fn];B[dr];W[cr]
;B[er];W[ar];B[bs]))
