(;FF[4]GM[1]SZ[19]ST[2]CA[UTF-8]AP[SGFC:1.15]

PB[essew]
BR[1k]
PW[Vitamin]
KM[6.5]
DT[2007-10-22]
PC[The KGS Go Server at http://www.gokgs.com/]
RE[W+6.50]
TM[1800]
OT[5x30 byo-yomi]
RU[Japanese]

C[Hello! I'm Vitamin, 1k (white). Help me to improve please! What is my weaknesses? what do you recommend me  to study?

Thanks in advance!

-----------

Hi! Sorry for being late (as usal). I hope my commetary is of some help anyway. This is an interesting game! Right at the end, Black could have turned the upper right corner into a seki instead of passing, so White's win was somewhat lucky. But who cares :)

Your weaknesses? I think your game is balanced. In order to improve, it might be good to learn some more examples of good shape (you missed some good shape points in this game).

Good luck with your next games!];B[pd];W[dd];B[pq];W[dq];B[fc]
;W[df];B[jd];W[po];B[np];W[qq];B[qr];W[qp];B[or];W[qk]C[Good joseki for White, I think.]
;B[qi];W[ok];B[oi]C[Better a move in the corner!];W[qc]LB[nc:A]
[oc:B][ld:E][nd:C][pf:D]TR[oi]C[White could also try to play something like the lettered sequence. With a black stone at D, the marked stone doesn't look very effective. Of course, Black can try to play something different :)]
;B[pc];W[qd];B[qe];W[re];B[qf];W[rf];B[rg];W[pb];B[ob];W[qb]
;B[nc]TR[oi]C[Here, too the marked stone is somewhat ineffective.]
;W[hc]C[i think it was urgent move.

---------------

Looks playable :)];B[cc];W[dc];B[db];W[eb]C[right answer?

-----------

I think so :)];B[cb];W[ec];B[be];W[bf];B[ce];W[cf];B[de];W[ee]
;B[cd];W[fd];B[ef]C[Is this a good cut? The seperated white stones aren't very weak...]
;W[ff];B[eg];W[dh];B[fg];W[gf];B[gg];W[hf];B[hg];W[ig]LB[jf:A]
C[Simply playing at A should be good enough. Black hurts himself by pushing from behind like this...]
;B[ih]LB[if:A]C[Having come this far, I would prefer to cut at A.]
;W[if];B[jh]LB[dj:A]C[Good point, but to slow. Black should play at the left, may be at A?]
;W[ck];B[dn];W[cp]LB[gq:A]C[A looks also interesting.];B[fq]
;W[eo]C[right answer?

Separating the black stones must be good :)];B[en];W[fo];B[gm]
C[Bad shape.]
(;W[hp]LB[el:A]TR[gm]C[After the maked stone, A is a good pont for both sides.]
;B[hq];W[ip];B[iq];W[jp];B[kq];W[jq];B[jr];W[gq];B[gr];W[gp]
;B[lr]C[White has played a lot of moves here, but now he have to make them work!]

(;W[gi]LB[hi:A]C[i think, it was bad sequence for me

------------------------

You shouldn't allow Black the good shape move at A! Peeping at A instead of the marked stone is much better.]
;B[hi];W[gj];B[im];W[kf];B[fi]LB[el:A]C[Interesting move by Black :) At some point, White shoud play at A, I think, to see how Black reacts. A is also a very good point for Black, so...]
;W[gh];B[ei];W[dj]LB[ch:A]C[Is this good shape? Black has some nice moves after this, such as A.]
;B[fk];W[hj];B[hh];W[jj];B[ek]LB[el:A]C[now the result is very bad for white, because of weak group.

--------------------------------

You are right :) But instead of the marked move, A is better, I think.]
;W[dl];B[el];W[fn];B[fm];W[dm];B[em];W[hl];B[hm];W[lk]LB[kl:A]
C[Stranke spape in my eyes. Isn't A better?];B[bn];W[bl];B[lh]
;W[ld];B[lc];W[kd];B[kc];W[jc];B[jb];W[ic];B[md];W[mj];B[nh]
;W[hr]LB[er:B][fr:A]C[Do you have to sacrifice a stone here? I think A instead is possible. But playing around here is good; A Black move at B would weaken the white group.]
;B[ir];W[fr];B[hs];W[er];B[nk];W[nj];B[oj];W[nl]LB[ol:A]C[Black has an easy time after that. White is in some danger after A, but I still would prefer to play that way.]
;B[pk];W[ol];B[pl];W[ql];B[pm];W[qm];B[ml];W[mm];B[ll];W[mk]
;B[kl];W[jk];B[kn]C[Slow.];W[on];B[lf];W[ke];B[kg]LB[li:A]C[Not very effective. Isn't A better, connecting with sente?]

(;W[kp];B[lp];W[ib];B[pj]C[?!]
(;W[jl];B[mn];W[no];B[om];W[nm];B[nn];W[ln];B[mo];W[lo];B[oo]
;W[lm];B[pn]LB[qn:A]C[I didn't read it very deep, but I think A is possible instead. Please look at the variations yourself - they are interesting :)]
;W[qn];B[pp];W[qo];B[rj];W[rk];B[rq];W[rp];B[sr];W[rn];B[jm]
LB[jn:A]C[Better at A.];W[km];B[kb];W[ae];B[ad];W[af];B[dg]
;W[cg];B[ch];W[bh];B[ci];W[bi];B[di];W[bj];B[bc];W[bo];B[co]
;W[do];B[cn];W[bp];B[le];W[jg];B[dk];W[bm];B[cm];W[cl];B[am]
;W[al];B[an];W[jn];B[in];W[jo];B[ea];W[fa];B[da];W[fb];B[sf]
;W[rd];B[il];W[hk];B[ki];W[mi];B[kj];W[kk];B[mh];W[se];B[sg]
;W[fh];B[eh];W[qg];B[pg];W[sp];B[sq];W[cj];B[sk];W[sl];B[sj]
;W[qj];B[ri];W[ja];B[ka];W[ia];B[ao];W[ap];B[gn];W[oa];B[na]
;W[pa];B[ho];W[mb];B[nb];W[mc];B[ma];W[nd];B[lb];W[fs];B[gs]
;W[go];B[io];W[gl];B[tt]LB[rb:A]C[Blacks pass is the losing move?! Black shoud play at A, which makes a seki and gives him a win. I don't think White can fight the ko?]
;W[tt]TW[ga][ha][qa][ra][sa][gb][hb][rb][sb][fc][gc][rc][sc]
[ed][gd][hd][id][jd][sd][fe][ge][he][ie][je][jf][ag][bg][ah]
[ai][aj][ak][bk][nk][kl][ll][ml][rl][rm][sm][kn][sn][ko][ro]
[so][dp][ep][fp][aq][bq][cq][eq][fq][ar][br][cr][dr][as][bs]
[cs][ds][es]TB[aa][ba][ca][la][ab][bb][mb][ac][mc][oc][bd][nd]
[od][me][ne][oe][pe][mf][nf][of][pf][lg][mg][ng][og][qg][dh]
[kh][oh][ph][qh][rh][sh][pi][si][hn][on][no][mp][op][lq][mq]
[nq][oq][hr][kr][mr][nr][pr][rr][is][js][ks][ls][ms][ns][os]
[ps][qs][rs][ss])
(;W[no]C[i think this is the right move]))
(;W[pj]C[i think white must play this variation first];B[qj]
;W[pn];B[pi];W[kp];B[lp];W[ib]))
(;W[el]C[seems, it would be better..];B[fm];W[gk];B[im];W[hl]
))
(;W[gq]C[maybe block here is better?]))
