(;FF[4]GM[1]SZ[19]AP[SGFC:1.13b]

GN[mbridges-sulla(B) IGS]
PB[sulla]
BR[27k]
PW[mbridges]
WR[25k*]
KM[0.5]
DT[1998-06-06]
PC[IGS:  igs.nuri.net 6969]
RE[B+88.5]
TM[60]
US[Brought to you by IGS]

;B[dq]C[Robert: I did win this game fairly easily. Therefore Im not looking for the whole game to get commented. What I want to know relates to  only on piece of the game. Specifically, I fought the joseki in the upper left badly. I would like ideas on how to improve this. These mistakes  end up costing me dearly.
I am only really interested on comenting on the joseki and resulting left side battle.]
;W[pq];B[dd];W[pd];B[dj];W[pk];B[jp];W[fc]LB[hc:a][df:b][fd:c]
[ec:d]C[after white plays f17, several possibilities are opened for black :

 a : attack f17 stone without touching it
  b : defend the top
 c : attach to the stone on top
 d : attach on the side]
(;B[fd]TR[fc]C[f16 is not a bad idea tostrengthen the upper left area, but the drawback is that at the same time it strenghten the lonely marked stone.

In this board position i would advice to simply play d14, it strengthen the top for black and doesn't touch the marked stone, leaving the choice to white how to deal with this stone.]

(;W[cc]LB[gd:a]C[c17 is too early, white should play (a) to developp the top.

wrong side to block, black should _allways_ play c16 in this position, allowing him to build a large moyo (potential territory) on the left side.]

(;B[dc];W[cd]C[now black is cramped, it will not be easy for him to developp something as if he had played c16]
;B[ce];W[be];B[df]C[d14 should be c14 it gives white a free atari at c14]
;W[cf];B[de];W[cg];B[cb]C[c18 is not necessary right now, i think keeping pushing  at d13 is better to build a wall, preparing for a larger extension on the top side at o17 for example.]
;W[bb];B[ch]TR[dj]C[c12 is not really good, white can d13 now and come out in the open wich would cause dannage to black possible top, keeping him separate from the marked stone]
;W[bh];B[ci];W[ag];B[db];W[ac];B[jd]LB[nc:a][lc:b][ld:c][kd:d]
[kc:e][jc:f]C[k16 good, maybe a bit timid, attacking the corner at (a) would be better. Because black have nothing to fear about his group at d17, he can extend as far as (a) without being afarid of white puincering at (b), (c), (d), (e) or (f)]
;W[lc];B[gd]C[g16 way too shy, l17is the moveto stop white from sliding under him at k18 for example]
;W[kf];B[mq]C[n3 is good, approach q3 stone and developp the bottom at the same time]
;W[nq];B[cn];W[nn];B[ld];W[md];B[le];W[lf];B[me];W[if];B[nf]
;W[oe];B[ph];W[oh];B[og];W[of];B[pg];W[ng];B[mg];W[nh];B[mh]
;W[mf];B[ne];W[nd];B[kc];W[ni];B[mi];W[nj];B[mj];W[mk];B[lk]
;W[ml];B[ll];W[kj];B[lj];W[jj];B[kh];W[jh];B[mm];W[nm];B[mn]
;W[ok];B[jl];W[dg];B[hf];W[hg];B[eg];W[dh];B[eh];W[di];B[ei]
;W[bi];B[cj];W[bj];B[bk];W[ck];B[cl];W[ak];B[dk];W[bl];B[bm]
;W[ck];B[dm];W[am];B[an];W[bk];B[np];W[op];B[nr];W[oq];B[no]
;W[oo];B[mr];W[lm];B[km];W[ln];B[mo];W[lo];B[mp];W[jo];B[kp]
;W[ko];B[io];W[ej];B[ek];W[fj];B[fk];W[gj];B[gk];W[hk];B[hl]
;W[ik];B[il];W[gf];B[ef];W[ge];B[he];W[ie];B[id];W[hd];B[hc]
;W[he];B[mc];W[nc];B[lb];W[ke];B[kd];W[je];B[oa];W[ob];B[nb]
;W[pa];B[oc];W[od];B[pb];W[pc];B[ob];W[gc];B[hb];W[fe];B[ed]
;W[fi];B[fh];W[gh];B[hj];W[gi];B[ij];W[jk];B[ki];W[ji];B[kg]
;W[jg];B[qc];W[qd];B[rc];W[rd];B[sd];W[rf];B[qb];W[se];B[qs]
;W[qq];B[in];W[ao];B[bn];W[or];B[os];W[qr];B[ps];W[rr];B[rs]
;W[pr];B[ba];W[bd];B[hq];W[fq];B[dp];W[hp];B[ip];W[gq];B[iq]
;W[eo];B[do];W[cq];B[dr];W[cr];B[bp];W[cp];B[bo];W[co];B[rg]
;W[qg];B[qf];W[qh];B[pi];W[qi];B[qj];W[pf];B[pj];W[rh];B[ri]
;W[sg];B[rk];W[si];B[rm];W[rj];B[qk];W[sk];B[sl];W[sj];B[pl]
;W[ql];B[qm];W[pm];B[ol];W[nl];B[pn];W[om];B[qn];W[on];B[rp]
;W[qp];B[ro];W[qo];B[rq];W[po];B[sq];W[sr];B[sn];W[so];B[rl]
;W[pl];B[sc];W[ss];B[ns];W[oj];B[al];W[lr];B[lp];W[kr];B[ir]
;W[gm];B[gl];W[hm];B[hn];W[im];B[kl];W[gn];B[gp];W[jm];B[jn]
;W[en];B[dn];W[em];B[fp];W[ep];B[eq];W[go];B[ho];W[fo];B[hp]
;W[tt];B[lg];W[ab];B[am];W[aa];B[ca];W[ff];B[fg];W[gg];B[tt]
;W[tt];B[tt])
(;B[cd];W[dc];B[ec];W[eb];B[ed];W[gc];B[gd];W[hc];B[ie]C[now black left side seems huge and white was crowling on the 3rd line]
))
(;W[gd];B[fe];W[ec];B[dc];W[jc];B[dg]C[Fair but now white have sente and chose where to play]
))
(;B[hc];W[fe];B[df];W[id];B[ic];W[jd];B[hd];W[he];B[jc];W[kd]
;B[lc];W[gd]C[fair exchange : white build a wall, black get the top]
)
(;B[ec];W[fd];B[df];W[jd]C[too good for white in this position i think]
)
(;B[df];W[db];B[cc];W[ic]C[Fair again, white is low on top and black have now sente ( he choose where to play )]
))
