(;FF[4]GM[1]SZ[19]ST[2]CA[UTF-8]AP[SGFC:1.15]

GN[ANbel-mondik]
PB[mondik]
BR[7k]
PW[ANbel]
WR[6k]
KM[0.5]
DT[2007-11-04]
PC[The KGS Go Server at http://www.gokgs.com/]
RE[W+1.50]
TM[1500]
OT[5x30 byo-yomi]
RU[Japanese]

C[[m\] Hi! Thanks for reviewing my game!

I  played black, and lost with a small margin. I didn't made major mistakes (or my partner didn't notice them :)), but this was not enough to win. Please give me some advices on how to improve my strength, point on my major mistakes on this game.
I added some comments and questions to the game,  they are marked with [m\].
Mondik.

[NM\] Hi Mondik, I will comment your game];B[pd];W[dp];B[pq]
;W[dd];B[pk]C[[NM\] Hi Chinese opening, I would prefer to play N4 for white now]

(;W[cj];B[jp];W[jd]C[[NM\] Both black and white playing for a moyo game, this is something often kyu players do. I prefer to stop my opponent make a moyo and start fights.

Moyo games are difficult to get a feel of who is winning.];B[nd]
C[[NM\] Also Tengen possible for black];W[qd]C[[NM\] Not sure if this is a good idea as black influence is better than white terrritory]
;B[qe];W[qc];B[pe];W[re];B[rf];W[pc];B[oc];W[sd];B[pb];W[qb]
C[[NM\] Black influence is better and black gets sente, down side is that K16 is in a good place for white]
;B[po]C[[m\] I felt making a shimari is a good idea. Was it?

[NM\] Yes, it is a very big move, although it does give away sente.]
;W[np]C[[NM\] This moves is an overplay I think]
(;B[lq]C[[m\] I'm not sure this is the best move here. Should be O6 instead?

[NM\] Yes O6 is much better];W[lp];B[mq];W[kp];B[kq];W[iq]C[[NM\] This move appears a little strange.]
;B[jo];W[fq]
(;B[jq]C[[m\] Is this move ok?

[NM\] It is not needed, better to play faster]
(;W[ir]C[[NM\] This is slow from white again, white can take sente and play elsewhere]

(;B[mp]C[[NM\] Not needed, think on capturing these on a bigger scale]
;W[cn]
(;B[fc]C[[m\] I felt I have to do something in this corner. Was this the proper move?

[NM\] Here I would prefer to go to the corner C17 and then reduce white moyo from outside]
;W[hc];B[cc];W[dc];B[cd];W[ce];B[db];W[eb];B[cb];W[fb];B[be]
;W[cf];B[bf];W[ch]C[[m\] What is the best play in this situation?]

(;B[ho]C[[NM\] This move is very slow, it doesnt make territory or reduce white enough]

(;W[lc]C[[NM\] The middle is more important than the 3rd line at this point]
;B[le];W[mc]
(;B[md]C[[NM\] Not needed , take sente elsewhere];W[ob];B[nb]
;W[pa];B[nc];W[rg];B[sf];W[qf];B[qg];W[pf];B[rh];W[pg];B[qh]
;W[oe];B[od];W[mg]C[[NM\]  Not sure what to suugest for black here, it seems white has a good chance in the fight.]

(;B[of]C[[m\] I didn't find a better move here.];W[og];B[nf]
;W[mf];B[ng];W[nh];B[ne];W[oi];B[mh];W[mi];B[lh];W[li];B[lg]
;W[lf];B[kf];W[kh];B[kg];W[ki];B[pi];W[oh]C[[m\] And what's the best move in this situation?]

(;B[mo]C[[m\] Is this a good move?

[NM\] No, very bad move. I am sorry but this move does nothing.]
;W[ll]C[[NM\] White is where black wanted to play]
(;B[if]C[ Should be H14 or H13];W[he];B[hf];W[ge];B[hi]C[[m\] Or O7, O8 instead?

[NM\] H11 is a good move, it aims to reduce white and attack white M11. It has two aims.]

(;W[ii];B[hj];W[ih]
(;B[ij];W[hh];B[gh];W[gg]
(;B[hg]C[[m\] I know, bad shape, wrong move. Maybe G14 better.

[NM\] Black is alive. Stopping white from connecting is not very important as white M11 should live.]
;W[jf]C[[m\] ouch]
(;B[je];W[jg];B[ke];W[ie];B[nj];W[oj];B[ok];W[nk];B[nl];W[mk]
;B[ml]
(;W[gf]C[[NM\] Is this move needed, if white plays elsewhere what can black do?]

(;B[dl]C[[NM\] Good];W[gi];B[gj];W[fi];B[fj];W[ei]
(;B[cl]C[[m\] I think this was not a very good move. Maybe just E9 to connent,  or kikashi at M9, then try to isolate M8... I'm not sure.

[NM\] I would try something in the C3 corner, L17 is also getting a big move]
;W[ek]
(;B[fl];W[el];B[em];W[dm];B[dn];W[cm];B[en];W[do];B[ej];W[dk]
;B[dj];W[ck];B[di];W[dh];B[bi];W[im]C[[NM\] The D8, C8 capture was too good for white]

(;B[fk];W[km];B[hm];W[ln];B[jn];W[jm];B[mn];W[in];B[io];W[hn]
;B[gn];W[go];B[fo];W[gp];B[gm];W[jk];B[ci];W[bk];B[bh];W[cg]
;B[ld]C[[m\] I know, small, but white made it sente :)

[NM\] You were lucky!];W[kd]
(;B[lb]C[[m\] I missed the variation on the game.];W[kb];B[mb]
;W[kc];B[ep]
(;W[eo];B[fp];W[eq];B[fn];W[gq];B[jr]
(;W[is]C[[NM\] There are not many big moves left, only small endgame moves]
;B[bj];W[bl];B[pj];W[lo];B[jj];W[kj];B[ik];W[jl];B[il];W[qp]
;B[qo];W[pp];B[oq];W[qq];B[rp];W[rq];B[ro];W[pr];B[or];W[ps]
;B[rr];W[sr];B[rs];W[mm];B[nm];W[lm]
(;B[nn]C[[m\] It was unnecesary. Q12, then L19 is sente,  and I would won the game.]
;W[ka];B[bg];W[hp];B[js];W[ji];B[na];W[oa];B[la];W[ea];B[ak]
;W[al];B[aj];W[da];B[ca]
(;W[ec];B[ph];W[ni];B[sg];W[se];B[sc];W[rd];B[ra];W[rb]
(;B[ip];W[mj];TW[fa][ga][ha][ia][ja][qa][ra][sa][gb][hb][ib]
[jb][pb][sb][fc][gc][ic][jc][rc][sc][ed][fd][gd][hd][id][de]
[ee][fe][df][ef][ff][hf][if][dg][eg][fg][hg][ig][eh][fh][gh]
[jh][lj][nj][kk][lk][cl][dl][kl][am][bm][an][bn][ao][bo][co]
[ap][bp][cp][aq][bq][cq][dq][hq][ar][br][cr][dr][er][fr][gr]
[hr][as][bs][cs][ds][es][fs][gs][hs]TB[aa][ba][ma][ab][bb][ac]
[bc][ad][bd][ae][me][oe][af][lf][mf][ag][mg][rg][ah][sh][ai]
[qi][ri][si][qj][rj][sj][gk][hk][qk][rk][sk][gl][hl][ol][pl]
[ql][rl][sl][fm][om][pm][qm][rm][sm][on][pn][qn][rn][sn][no]
[oo][so][np][op][pp][qp][sp][nq][qq][rq][sq][kr][lr][mr][nr]
[pr][qr][sr][ks][ls][ms][ns][os][ps][qs][ss]C[[NM\] Ok, Three things to improve and win the game

1. You played some slow moves N4, K3, H5, J14 which did not play on a big scale, think big.

2. In a moyo game try to reduce your opponents moyo and expand your one, very important. 

3. Try taking sente. Try not to follow opponent's last move. Make your opponent follow yours! And then take the biggest point.


Ok, Its hard to comment on moyo games.
I like to fight and fighting will improve your go game! 
Try to fight more and learn tsumego which will help your reading when in a fight

Thanks, and hope you enjoy the review.
Neil])
(;B[lk];W[mj];B[kk];W[kl];B[tt];W[lj]))
(;W[tt];B[ec];W[gb];B[de];W[ed];B[ee];W[fd];B[eh];W[fh];B[eg]
))
(;B[ka];W[ja];B[la])
(;B[ph];W[ni];B[ka];W[ja];B[la];W[jb];B[lk];W[mj];B[ji];W[jh]
;B[kk];W[bg];B[ag]))
(;W[bg];B[ag]
(;W[js];B[ks];W[is])
(;W[pj];B[qj];W[jj]C[[NM\] K10 is mybe biggest move])))
(;W[eq]))
(;B[ka]C[[m\] this would be much better.];W[ja];B[kb];W[kc]
;B[jb];W[ib];B[ia];W[ha];B[jc];W[ic];B[mb]))
(;B[hl];W[km]))
(;B[dn]
(;W[co];B[fm])
(;W[do];B[en];W[fl];B[bn];W[bo];B[cm];W[co];B[gm])))
(;B[lk];W[mj];B[kl])
(;B[cq]C[[NM\] Might try to make a ko or escape this way]
(;W[dq];B[cp];W[co];B[dr];W[er];B[br];W[ds];B[cs];W[cr])
(;W[cp];B[dq]
(;W[bq];B[eq];W[ep];B[fr];W[gq];B[br];W[bp];B[ar];W[gr])
(;W[eq];B[bp];W[bo];B[br]
(;W[dr];B[cr];W[er])
(;W[ap];B[aq]))))
(;B[kc]C[[NM\] Not right now mybe later this is not endgame at the moment]
;W[kd];B[ld];W[jc];B[kb];W[jb];B[lb]))
(;B[lk];W[mj];B[kl]C[[NM\] This is big move too!]))
(;W[tt];B[gf];W[fg];B[ff];W[eg];B[ef];W[dg]))
(;B[jg];W[je];B[ig]))
(;B[nl];W[hg]C[[NM\] Mybe force white to connect to live and get sente again!]
))
(;B[dm]C[[NM\] I would try reduce white]))
(;W[ol]C[[NM\] White would be better trying to live here and reduce black at the same time.]
))
(;B[hg];W[jg];B[jf];W[ig];B[if];W[hf];B[jh];W[ih];B[ji];W[jj]
;B[ii];W[hh]
(;B[gg];W[hi];B[ij];W[ik])
(;B[hi];W[gg];B[gh];W[hg];B[ik];W[gi];B[gj];W[fi];B[mk]C[[NM\] Serious attack on white]
)))
(;B[ml]C[[NM\] At least take more territory if you play here]
)
(;B[nj];W[oj];B[ok]
(;W[nk])
(;W[mk];B[nk];W[ni];B[ml];W[hi];B[hg];W[fm];B[gl];W[fj])))
(;B[kg]C[[NM\] It seems white wants to fight,];W[lf];B[kf];W[ke]

(;B[nh];W[ld];B[me];W[ng])
(;B[ng];W[nf])
(;B[nf];W[ng]))
(;B[lg]C[[NM\] I think this is probably best];W[lh]
(;B[mh]C[[NM\] Probably cut i best];W[lf];B[kg];W[mf];B[kf]
;W[nh];B[mi];W[ke];B[ni];W[kh]C[[NM\] Black should win])
(;B[kg];W[mh];B[kh];W[ki];B[ji];W[kj])))
(;B[jj])
(;B[lh]C[[NM\] It might be best to make a moyo at this point because if white tries S13 then black has a good chance in the fight now]
))
(;W[jj]C[[NM\] Enlarge whites moyo and reduce black is very important now]
))
(;B[fj])
(;B[jj]C[[NM\] At least this far, if white still wants to play moyo then she will have to settle for less thn black]
;W[ii];B[ji];W[ih];B[ij];W[hj];B[hk];W[gj]))
(;B[cc];W[cd];B[dc];W[ec];B[eb];W[fc];B[bd];W[be];B[bc];W[cf]
;B[fb];W[gc]
(;B[ej];W[gj])
(;B[fj])))
(;B[kk]C[[NM\] White will have a hard time to live and if she tries to escape black will get good result]
;W[nn];B[om];W[km];B[jl];W[jm];B[im];W[in];B[jn];W[il];B[hm]
;W[kl];B[jk];W[lk];B[lj];W[mk];B[mm];W[nm];B[nl];W[ml];B[nk]
;W[mj];B[ln];W[kn];B[ko];W[mn];B[lm];W[ll];B[lo]))
(;W[mj]C[[NM\] White needs to reduce blacks moyo first before black plays this area]
))
(;B[hp];W[hq];B[gp];W[gq];B[jl];W[jq];B[mp]C[[NM\] Black can always connect N4 or O3]
))
(;B[nn];W[lo]))
(;W[mp]
(;B[po];W[jp]C[[NM\]])
(;B[jp];W[po]C[[NM\] Many variations now])))
