(;FF[4]GM[1]SZ[19]ST[2]CA[UTF-8]AP[SGFC:1.15]

PB[elconde]
BR[18k]
PW[als111]
WR[18k]
KM[6.5]
DT[2007-11-18]
PC[The KGS Go Server at http://www.gokgs.com/]
RE[W+100.50]
TM[1500]
OT[5x30 byo-yomi]
RU[Japanese]

C[als111 [18k?\]: Good luck
elconde [18k?\]: hello

Hi, my name is Marco and I will review your game for Black.
Since you didn't ask any specific questions, I will just pick out some moves where you could have played a better move.
I will try to focus more on the general rules then on loads of variations.]
;B[dd];W[pp];B[dp];W[fq];B[pd];W[qf];B[je]C[Here, White attacks your corner.

Of course you can defend your corner by playing at O16/O17.

You chose to extend on the side, which is fine, but you should have played at K16 then. Now White can easily take the top side, by playing at K17, because your move was too high (5th line)

General rule: in the opening play on 3rd line or 4th line mostly.]
;W[nc];B[eq]C[Here, White played a double approach move against your top right corner. If you don't respond, White can seal your corner in by playing at P15; this would be a good result for White. So defending your corner is quite urgent

Instead, you touched his approaching stone. This made his stone stronger. He can extend to F4, then you have to defend the corner, then White can make in ideal extension to K4.

General rule: Don't touch weak stones.

Exception: When you have a stone on K4 yourself, then it is ok, because White can't make his ideal extension.]
;W[fp];B[dj]C[White can seal in your corner now, by playing at D5 (See variation).
You have to defend at C6/D6.]
(;W[cq];B[do]C[This is too easy for White, because he can connect.
Play at e2 to prevent White from connecting.
After that you can play around J3 and attack his 2 stones.]
;W[er];B[jj]TR[oe][pf][qk][qn][kq][nq]C[This is too early.

General rule:
In the opening we start in the corner, then the side, then we go into the center.

I marked some of the big moves.
So a better move would be bottomside, leftside, or approach White's bottomright corner. And of course your top right corner]
;W[kc];B[jc];W[jb];B[ic];W[ib];B[hb];W[hc]
(;B[gc]C[General rule: if you cannot catch a stone, don't atari.

In  this case extend to G18 is better, because then you would be strong and his stone weak.
After the atari he becomes stronger, and you are weak, because of the cutting point at G18.
See variation.];W[hd];B[kd];W[gb];B[fb];W[ga];B[fa]C[Don't force him to take your stone.
Instead you can ignore his move or connect at F17.];W[ha];B[lc]
;W[lb];B[kb];W[ka];B[fc];W[kc];B[ia]TR[oe][pf][qk][qn][kq][nq]
C[You don't have to fight this ko now.
There are points on the board which are much bigger than this ko.]
;W[ja];B[kb];W[mc];B[md];W[kc];B[dr];W[dq];B[kb];W[nd];B[mj]
C[This is move is too high again.
Also pay attention to your stone on Q16. It has just become weaker, because White played at O16. So it getting even more urgent to come out.]
;W[oj];B[ok]C[White move is too high, you can punish him by going under his stone and play at R10.]
;W[ie];B[jf];W[if];B[ig];W[jg];B[kg];W[hg];B[jh];W[ih];B[ii]
;W[jg];B[fr]C[Again, you shouldn't fight this ko.
locally, just connecting here is the best, I think.];W[ep];B[ig]
;W[hh];B[jg];W[fg];B[jn];W[jp];B[dg];W[ed];B[ec];W[ee];B[de]
;W[fd];B[gd]TR[pf][pj][qn][nq]C[This move is small, it doesn't cut White, so play a bigger move (defend corner, approach corner).]
;W[ge];B[ef];W[fe];B[pm];W[dc];B[db];W[cc];B[cb];W[ea];B[eb]
;W[bb];B[bc];W[cd];B[ba];W[bd];B[ab];W[gj];B[gk];W[hi];B[hj]
;W[hk];B[gi]C[Connecting at J10 is necessary.];W[ij];B[ik];W[ji]
;B[ki];W[jk];B[ii];W[il];B[fj];W[hj];B[pf];W[qd];B[qc];W[rd]
;B[pc];W[pe];B[oe];W[pg];B[qe];W[re];B[og];W[pe];B[of];W[qh]
;B[oi];W[pi];B[pj];W[qj];B[pk];W[oh];B[nj];W[ni];B[nh];W[oj]
;B[op];W[oq];B[oi];W[ph];B[mi];W[me];B[le]C[White has a double ko here (as you noticed in the game), so you really need to defend here.]
;W[ld];B[nq];W[np];B[md];W[kc];B[pq];W[oo];B[kb];W[ld];B[or]
;W[op];B[md]TR[qq][qr]C[You need to take the bottomright corner now.
A move at R2 for instance would be big.];W[kc];B[jd];W[pr];B[hn]
;W[fk];B[gl];W[ei];B[di];W[ej];B[fl];W[ek];B[dl]TR[cl]C[C8 is better, now White can break through.]
;W[el];B[em];W[dk];B[ck];W[dm];B[cl];W[fm];B[gm];W[en];B[fn]
;W[fo];B[em];W[dn];B[cn];W[cm];B[bm];W[eo];B[co];W[bp];B[lo]
TR[km][ln]C[Note that your group is in danger, playing at M6/L7 is more secure.]
;W[lp];B[hp];W[hq];B[nn];W[lm];B[ll];W[kl];B[lk];W[kn];B[ko]
;W[jo];B[io];W[iq];B[ln];W[km];B[jm];W[im];B[in];W[ip];B[go]
;W[gp];B[ho];W[mm];B[mn];W[nm];B[om]TR[on]C[Now White can cut off your Black group.
Locally, a move at P6 would be best, because you would connect your stones.]
;W[on];B[kk];W[jl];B[pn];W[qp];B[qo];W[ro];B[rn];W[rp];B[rc]
;W[qk];B[ql];W[rl];B[rm];W[rk];B[oc];W[nb];B[ob];W[oa];B[pa]
;W[na];B[eh];W[fi];B[fh];W[gh];B[so];W[sp];B[sn];W[po];B[qn]
;W[bo];B[bn];W[an];B[am];W[ao];B[bq];W[cp];B[bl];W[cr];B[kb]
;W[ld];B[kc];W[la];B[md];W[ne]
(;B[nf]C[A move at N14, makes your keep your territory. See variation.]
;W[mf];B[mg];W[lf];B[kf];W[lg];B[lh];W[ff];B[qe];W[rf];B[pe]
;W[eg];B[dh];W[df];B[ce];W[cf];B[be];W[bf];B[ad];W[bh];B[bi]
;W[ai];B[aj];W[ah];B[bj];W[ci];B[ak];W[ch];B[cj];W[cg];B[af]
;W[ag];B[ae];W[fm];B[ri];W[qi];B[rg];W[qg];B[sf];W[rh];B[sh]
;W[se];B[sg];W[sj];B[sl];W[si];B[nl];W[sk];B[sm];W[sc];B[sb]
;W[sd];B[ra];W[gn];B[ml];W[hm];B[id];W[ji];B[kj];W[ld];B[kh]
;W[ke];B[qr];W[qq];B[le];W[md];B[ke];W[ii];B[tt];W[tt]TW[ia]
[ma][hb][mb][he][ef][gf][hf][sf][bg][gg][rg][sg][sh][gi][ri]
[fj][rj][gk][ik][fl][gl][hl][em][gm][jm][fn][hn][in][jn][ln]
[mn][nn][go][ho][io][ko][lo][mo][no][ap][hp][kp][mp][aq][bq]
[eq][gq][jq][kq][lq][mq][nq][pq][rq][sq][ar][br][dr][fr][gr]
[hr][ir][jr][kr][lr][mr][nr][or][qr][rr][sr][as][bs][cs][ds]
[es][fs][gs][hs][is][js][ks][ls][ms][ns][os][ps][qs][rs][ss]
TB[aa][ca][da][ea][qa][sa][bb][pb][qb][rb][ac][cc][dc][bd][cd]
[ng][mh][li][ni][lj][oj][bk][mk][nk][al][ol][pl][qm]C[elconde [18k?\]: thanks]
)
(;B[mf];W[nf];B[ng]))
(;B[gb];W[gc];B[fc];W[fd];B[ec]C[You strengthen your corner this way, and his stones are still weak.]
))
(;W[do];B[co];W[dn]))
