(;FF[4]GM[1]SZ[19]ST[3]AP[SGFC:1.15]

PB[MongoL]
BR[2d]
PW[plusguy]
KM[6.5]
DT[2007-12-02]
PC[The KGS Go Server at http://www.gokgs.com/]
RE[W+Resign]
TM[1800]
OT[5x30 byo-yomi]

C[A free game i played.
in the fuseki i left my group weak and couldnt fix it.
also i had some troubles in the middle game.
thanks for your review.];B[pd];W[dc];B[cp];W[pq];B[de];W[ce]
;B[cf];W[cd];B[df];W[fc];B[dj];W[ip];B[po];W[qk]C[hard to decide,i went for the corner

Dtyler : Ok];B[qq];W[nc]
(;B[qi]C[looks like a fine move

Dtyler : See variation.];W[qm]
(;B[pp]C[perhaps r4 is better here?

Dtyler : See variation.];W[oq]
(;B[np];W[nq];B[mp];W[mq]
(;B[lc]C[probably too early,but i am not sure whats the move

Dtyle : Wrong direction.];W[ro];B[rn];W[qn];B[rl];W[rm];B[ql]
;W[qp];B[rq];W[om];B[pl];W[on];B[lp];W[lq];B[kp];W[kq];B[pr]
;W[or];B[qs];W[qo]C[corner or this group-i took the corner]
;B[rr];W[jn]C[i decide to abandon this group,since its useless
maybe i should run with it?

Dtyler : Bad result for black.];B[fq];W[lm]
(;B[hc]C[Dtyler : Wrong direction. See variation];W[qc];B[qd]
;W[pc];B[od];W[nb]
(;B[eb];W[ec];B[fb];W[gb];B[gc];W[db];B[hb];W[ea];B[ga]C[small?]
;W[fe];B[fg];W[fi];B[bf];W[gg];B[ff];W[ge];B[gf];W[md];B[he]
;W[be];B[bc];W[bb];B[ab];W[ba];B[ae];W[ad];B[af];W[cc]
(;B[nk];W[ld];B[kc];W[ck]C[right direction?

Dtyler : Black can't kill so white lead a lot.
             I finish my comment here.];B[cj];W[dk];B[ek];W[el]
;B[fl];W[ej];B[fk];W[bj];B[bi];W[bk];B[dh];W[cn];B[co];W[em]
;B[dn];W[cm];B[gn];W[fm];B[gm];W[eo];B[do];W[fo];B[go];W[bo]
;B[bp];W[an];B[dm]C[not good];W[dl];B[jm];W[kn];B[in];W[jp]
;B[km];W[ll];B[ln];W[jo];B[nm];W[nn];B[mn];W[nl];B[mm];W[ml]
;B[ol];W[mj];B[mk];W[lk];B[lj];W[kj];B[li];W[kk];B[ki];W[ij]
;B[hj];W[ji];B[mg];W[hi];B[gh];W[gi]
(;B[hl];W[gp];B[hp];W[hq];B[ho];W[gq];B[jk];W[ik];B[fj];W[ei]
;B[hk];W[eq];B[dq];W[er];B[dr];W[br];B[cr];W[bq];B[ap];W[ar]
;B[aq];W[ds];B[bs];W[ok];B[nj];W[oj];B[ni];W[rk];B[sk];W[rj]
;B[ri];W[sj];B[sm];W[sn];B[oi];W[pk];B[rd];W[rc];B[sc];W[sb]
;B[sd];W[ra];B[ih];W[ii];B[jh];W[si];B[sh];W[rh];B[sg];W[os]
;B[ps];W[ne];B[of];W[kd];B[nd];W[jc];B[jb];W[mc];B[jd];W[nf]
;B[ng];W[rg];B[sf];W[rf];B[se];W[oe];B[pf];W[pe];B[qe];W[lf]
;B[mf];W[me];B[qf];W[je];B[id];W[il];B[im];W[ai];B[bh];W[lb]
;B[kb];W[ep];B[dp];W[di];B[ci];W[gj];B[gk];W[lg];B[kf];W[kg]
;B[jf];W[jg];B[if];W[hg];B[hh];W[ig];B[kl];W[jj];B[fh];W[sl]
;B[jl];W[pm];B[eh];W[ol];B[ke];W[le];B[fd];W[ed];B[gd];W[ee]
;B[ah];W[aj];B[la];W[hf];B[ie];W[mb];B[oc];W[ob];B[ma];W[na]
;B[ka];W[pi];B[ph];W[pj];B[qh];W[es];B[ac];W[bd]C[I decided to count and i found out,my score feeling really bad ^^
thanks for you time])
(;B[gp]C[i guess i should play here]))
(;B[dl]C[Dtyler : Must defend here.]))
(;B[me]))
(;B[pb];W[cn];B[ep];W[cl];B[ck];W[el];B[fj]))
(;B[qf];W[pb];B[qc];W[ld];B[rp];W[nl];B[fq]C[Dtyler : Equal result for both.]
))
(;B[rp]C[Dtyler : Right shape for Black.];W[lq];B[qf]))
(;B[pr];W[oq];B[or];W[qp];B[rq]))
(;B[qf];W[pb];B[pr];W[oq];B[or];W[qp];B[rq]C[Dtyler : I prefer to play this way.]
))
