(;FF[4]GM[1]SZ[19]ST[1]AP[SGFC:1.15]

PB[Hlop]
BR[12k]
PW[Inego]
WR[11k]
KM[0.5]
DT[2007-12-02]
PC[The KGS Go Server at http://www.gokgs.com/]
RE[W+7.5]
TM[1500]

C[In this game I was playing with a somewhat weaker player. We both made mistakes and in the end I was losing about 15 pts. Only a miracle allowed me to win, but of course it is much better to win by knowledge.

I would like to receive a general review of this game, especially from the strategic point of view - and in the midgame.

Thank you very much in advance.

first, you did not win 
counting you will see that white has about 59 unoccupied poionts of territory and black has 111.
i see thought that this was a 25 min game, so if blacks time lapsed then you did in fact win.
ON the general view, at this leave and all the way up to at least SHODAN time does not really matter, what does matter is learning to count and what is KO and how to fight them.
the bedrock of this game is KO fighting for in fighting KO's you have to know what the score is.
there is a saying that i learned early on:
A RICH MAN DOES NOT NEED TO FIGHT
In this game all you need to win is one 1/2 of a point.
if you are behind in the count then you look to begin a KO fight.]
;B[pd];W[dp];B[dd];W[qq];B[cn];W[dn];B[cp];W[cq];B[dm];W[en]
;B[do];W[eo];B[dq];W[co];B[bo];W[bp];B[fq];W[eq];B[bm];W[hq]
;B[er];W[dr];B[fr];W[fp];B[hr];W[ir];B[gq];W[hp];B[iq];W[jq]
;B[ip];W[io];B[jp];W[kp];B[jr];W[jo];B[is];W[kr];B[iq];W[ip]
;B[gs];W[es];B[fs];W[ds];B[lr];W[ks];B[js];W[lq];B[ir];W[gp]
;B[oq];W[op];B[pp];W[pq];B[nq];W[np];B[mr];W[ns];B[mq];W[mp]
;B[lo];W[lp];B[pn];W[po];B[qn];W[ro];B[qo];W[qp];B[rn];W[so]
;B[sn]C[you cared more about two points that ten to thirty.
connecting at 72 is a yose move 
look at playing at Q10 or even at R15
the idea here is to counter the power of black 63-71, and how to do so is use all of your power ie. all the white stones along the fourth line.
you should be able to place a move 72 at K15 and connet it to the fourth line.
that is a lot of power that the white stones have in the upward direction.]
;W[rp];B[pj];W[pg];B[qg];W[qf];B[qh];W[qd];B[qc];W[pe];B[od]
;W[nf];B[oe];W[of];B[ne];W[mf];B[ld];W[fd];B[hd];W[dc];B[jd]
;W[cd];B[ce];W[de];B[bd];W[ed];B[cc];W[cb];B[cf];W[bc];B[ae]
;W[dj];B[cj];W[ci];B[bi];W[bj];B[ck];W[bh];B[bk];W[ai];B[bg]
;W[dg];B[df];W[ef];B[bf];W[ag];B[di];W[dh];B[ei];W[eh];B[fi]
;W[el];B[ek];W[dl];B[dk];W[em];B[cm];W[cl];B[bl];W[fk];B[gk]
;W[gl];B[hk];W[fj];B[gj]
(;W[on]C[move 136 i would say is the losing move
black has two weak groups the 63-71 and the 73-75 black stones v. whites stronge 74-86 and 32-70 stones.]

(;B[om];W[nm];B[ol]C[what you did was make black stronger which in the end allowed him to get the big moyo which let him get the that huge 111 points
i would suggest to you, to begin to understand the power of stones and the direction the power flowes]
;W[nl];B[nj];W[nk];B[ok];W[ql];B[pm];W[qj];B[qi];W[oi];B[oh]
;W[oj];B[ni];W[lh];B[lj];W[lk];B[kk];W[kj];B[jj];W[ki];B[mj]
;W[kl];B[jk];W[gi];B[hi];W[gh];B[hh];W[hf];B[if];W[ig];B[hg]
;W[gg];B[he];W[gf];B[jf];W[jg];B[kg];W[jh];B[lg];W[mh];B[kh]
;W[ji];B[li];W[me];B[md];W[hc];B[ic];W[hb];B[ib];W[gd];B[rd]
;W[qe];B[og];W[nh];B[mk];W[ll];B[ml];W[mm];B[pi];W[mg];B[ii]
;W[il];B[ik];W[jl];B[hl];W[hm];B[im];W[jm];B[gm];W[fl];B[hn]
;W[ej];B[ph];W[ao];B[re];W[in];B[hm];W[ge];B[ha];W[kf];B[ih]
;W[gb];B[ga];W[fa];B[ia];W[fb];B[ls];W[kq];B[pr];W[or]
(;B[tt];W[go];B[fn];W[gn];B[fm];W[tt];B[nn];W[oo];B[lm];W[mn]
;B[ln];W[mo];B[km];W[jn];B[tt];W[je];B[ke];W[tt];B[tt]TB[be]
[gr][hj][hs][ig][ij][jg][jh][ji][ki][kj][oi][oj]TW[ah][ap][aq]
[ar][as][bi][bq][br][bs][cc][cp][cr][cs][dd][do][dq][ep][jp]
[pf][pp]C[first and formost, you did not win..
your white groupe between k and t -12 and 16 have no eyes.
if you  count you will see that just with the unoccupied points on the board whit hase about 59 point territory and black has 111 point territory.
i see that it was a 25min game and if blacks time lapsed then it would be true that you did win, and as i see it then is you where counting on black runing out of time.
this being true, you do a disservce to the game and only care about winning.
the bedrock meaning of this game is to learn to win by 1/2 point.
in order to do so you have to learn ko's and the first step there is to learn to count.
i could spend days on telling you about counting, but no time.
so in answer to the over all game you have mastered it, ie. just have one second of time more than you opponent.
White wins by 7.5 points.])
(;B[os];W[ps]))
(;B[tt]))
(;W[qk]C[i think 136 would work better at R9]
(;B[pk];W[qj]
(;B[pi];W[qi];B[ph];W[pl];B[ql];W[rl];B[qm];W[rh];B[rg];W[ri]
;B[sk];W[sj];B[sl];W[rk];B[sh];W[sm])
(;B[qi];W[pi];B[ql];W[rl];B[pl];W[ri];B[ph]
(;W[rg];B[rh];W[sh];B[oi];W[si];B[sg];W[rf])
(;W[oi];B[oh];W[nh];B[rh];W[rj];B[rf];W[re];B[og];W[pf];B[ng]
;W[mh];B[mg];W[lg];B[ni];W[oj];B[ok];W[nj];B[mi];W[lh];B[nk]
)))
(;B[qj];W[pk];B[oj];W[ok]
(;B[on])
(;B[rk]
(;W[rl];B[rj])
(;W[on];B[om];W[pm];B[pl];W[qm];B[rm];W[ql])))))
