(;FF[4]GM[1]SZ[19]ST[2]CA[UTF-8]AP[SGFC:1.15]

PB[palleon86]
BR[9k]
PW[mhl]
WR[9k]
KM[6.5]
DT[2007-12-06]
PC[The KGS Go Server at http://www.gokgs.com/]
RE[W+Resign]
TM[1800]
OT[5x30 byo-yomi]
RU[Japanese]

C[Thanks for the review! =D

I am palleon86. I played black this game. I lost by about 15 points.

I've already reviewed the game by myself. There are already many comments and a few questions. My main concern is that the commented moves. Please let me know what you think of the comments. Do they show the correct thought process or do I have the wrong approach? If you want to comment on anything else that you see, however, feel free!

Hi Palleon! I am NannyOgg on KGS, about 1d AGA in strength, and will review to the best of my ability. After I reviewed your game, my teacher minue622 (7d on KGS) went over it with me, and showed me moves I had missed and mistakes I made. Hope this will help you.]
;B[pd];W[dp];B[pq];W[dd];B[po];W[qf]LB[qh:B][qj:A]C[
Nanny: Here it is better for black to play A or B. They are dual purpose move. An extension from b's corner and a pincer.]
;B[nc]LB[nc:A]C[Nanny: So pincer instead of A];W[rd]LB[qg:B]
[qh:A]C[Even at this point in the game, should still play A or B]

(;B[qc];W[qi];B[qk]C[Is this too far?

Nanny: No, that looks fine to me locally.]
(;W[qm]LB[qm:A]C[Nanny: A feels hasty for white
Instead, W should play as in variation. 

allpotti [8d?\]: then, which move is good instead?
NannyOgg [-\]: for W? maybe K3
NannyOgg [-\]: since both corners want to extend there
allpotti [8d?\]: wait a min
NannyOgg [-\]: ok
allpotti [8d?\]: i will be back soon
NannyOgg [-\]: k
allpotti [8d?\]: another possible, but more fancy skill is..]

(;B[pm]LB[pm:A]C[Nanny: A is not the correct way to punish white, see variation.]

(;W[rk]
(;B[ql]LB[rk:1][ql:A][pm:2]C[Nanny: A is hitting your head against opponents stones. It is not good shape. After you look at this review, take a look at http://senseis.xmp.net/?HaengMaTutorialForBeginners to help understand the issues for this move.]
;W[rl]
(;B[qn];W[rm];B[qj];W[rj]
(;B[jp]LB[fq:A]C[Is fourth line okay here? If it is correct, what to do in the variation?'

Nanny: I prefer A instead of fourth line]
(;W[dj];B[fq];W[cn]LB[fc:B][fo:A]C[Nanny: A and B would be normal idea for black's next move.]

(;B[dr]LB[dr:A]TR[jp][fq]C[Since my group is already stable, is this too small to play now? Without it, W makes a big corner but in gote. My guess is that the marked stones are one space too far to omit this.

Nanny: A is not a good move here. The problem is that the marked stones are prone to invasion at H3. Black doesn't mind, because black has the sansan invasion (C3) as a backdoor. Once Black plays A and white replies with C3, that backdoor is gone
So the shape with A and the marked stones, is bad shape]
(;W[cq]
(;B[fo]C[Here I feel like this move is really only giving me stability.

Nanny: Black feels a bit overconcentrated now, I am not sure.]
;W[jn];B[lo];W[ln]
(;B[mn];W[lm];B[mo];W[qp]
(;B[ro]C[I can't remember why I played this way. I'll just pretend it was a misclick. ^_^

Nanny S5 actually is quite good move, so don't worry about it.]
;W[pp];B[op];W[qq];B[pr];W[rp];B[rn];W[qr];B[oq];W[sr]
(;B[jc]C[I think this move should have been aimed at reducing W on the left.]
;W[lc]C[Im not sure what to do here.]
(;B[je];W[le];B[ne]C[I don't want W to play something like o14 and get out easy.]
;W[lg];B[fc]C[Here I see my two stones being separated from any help so I move to settle.

Nanny: Good idea.];W[ec];B[fd];W[cf]C[W has caught up on territory now (I think) but has two weak groups to attack. All of my groups are strong so I attack. My goal was to play some splitting attacks on the m15 stones and m7 stones hoping to kill one.

Nanny: Hmmmm, not sure how easy it is to kill one, so try to make profit while attacking. Attacking is usually not to kill, it is to take profit. Killing could be a bonus though :)]
;B[og];W[mb];B[nb];W[pg]
(;B[li];W[oh];B[ng]C[Nanny:  black is doing well overall];W[nh]
;B[mg];W[mh];B[lh];W[kg];B[ji];W[pl]TR[qj][qk][ql]C[Nanny: Those three stones have nothing to do with stability of other groups. Just give them up.]

(;B[pk]LB[pk:A]C[Nanny: A is a big mistake. Fatal one.];W[ol]
;B[ok];W[om];B[pn];W[nk];B[nl];W[oj];B[mk];W[nj];B[ml];W[fg]
LB[lb:0][pb:7][hc:12][le:A][rh:28][bj:29][km:0][ln:B][qq:C]
[ir:30][jr:+][kr:15][rr:2.5]TR[ad][bd][cd][sd][ce][qe][cg][ch]
[di][ni][ck][cl][ol][pl][cm][sm][co][aq][bq][sq][rs]SQ[oa][fb]
[jb][ob][rb][nd][oe][sn][ko][gp][hp][ip][np][ds]C[Here I count W with 48 on the left and 30 on the right.
I have B as 30 on the bottom and maybe 10-20 on top.
W still has weak groups at A and B and C lives/dies with sente.

I could probably win the game here with some kind of move to seal up my center and trap B. If I failed to kill, I could still expect some thickness on the left to reduce W a little bit.

I think that sealing in 'B' is the largest of the three and killing 'C' is the smallest

Nanny: 
I showed triangles for my counts for W, squares for B
I get 29+28 = 57 for white
+ 2.5 for the C group (50 % for live with 5 pts or die) + 
6.5 komi
 
= 66

For black: I counted 30 + 15 for bottom (15 is half of C group, if W kills)
(If B to move first, B+25, if W to move first W+5)
so 40 + 12 + 7 = 64

But! Like you said, B and A and C are weak or close to death, so the game feels good for B to me. I would play S1 or J13 now, and that seems to seal the game.]

(;B[jg];W[kf];B[jf];W[kd];B[jd];W[mf];B[me];W[kk];B[ik]C[Nanny: The game is still good for black.]
;W[il]C[NannyOgg [-\]: just hane?
NannyOgg [-\]: or nobi?
allpotti [8d?\]: hane]
(;B[jk]C[Nanny: bad move
Again, read the Haengma for beginners on senseis library. It will help you a lot.]
;W[jl];B[hl];W[hm];B[io]C[I realize there is no chance to kill so I take the points on the bottom.]
;W[in];B[ho];W[hn]
(;B[gg]C[This was terrible but I don't know what else to do.

Nanny: I agree, this feels like a very big thank you move. You help white to make 6th line territory. I really would prefer to kill the bottom right or invade the upper left.]
;W[ff];B[gf];W[fb];B[gb];W[eb];B[gc];W[gl];B[kb]C[W is dead anyway.

Nanny: yeah, this feels like a pass.];W[kh];B[ki];W[jh];B[ih]
;W[ii];B[ij];W[hi];B[lk];W[of];B[nf];W[oe];B[od];W[rc];B[rb]
;W[cr]
(;B[er];W[hh];B[ig];W[nm];B[mm];W[em];B[gh]C[I doesn't look like I can reduce W much so I eat the three stones while W makes the territory.]
;W[fh];B[gi];W[fi];B[gj];W[fj];B[gk];W[fl]
(;B[fe];W[ee]
(;B[cs];W[bs];B[ds];W[br];B[en];W[dn];B[fm];W[gm];B[fn];W[dl]
;B[do];W[co];B[eo];W[ep];B[fp];W[ga];B[ha];W[fa];B[hb];W[sb]
;B[ra];W[qe];B[fk];W[ek]
(;B[kn];W[km];B[ko];W[ps]
(;B[os]C[Since I play here anyway, it might as well be to kill.]
;W[qs]C[Nanny: This is regrettable, white lives.];B[kj];W[kl]
;B[mj];W[mi];B[nn];W[pj];B[on];W[qd];B[pc];W[mc];B[gn];W[ld]

(;B[hk];W[nd];B[lf];W[qb];B[ke];W[qa];B[pb];W[sa];B[pa];W[md]
C[W played this and left. Maybe he thought he lost? Anyway, unless I am mistaken, I have lost, so I resign.

Thanks again for the review!

Nanny: yes, i agree, W has won here. Maybe he lost connection ^^ 
My pleasure for the review. Hope it helps more than it hurts.]
)
(;B[nd]))
(;B[rs]C[Nanny : I agree, killing is better]
(;W[rr];B[qs];W[ss];B[qs])
(;W[qs];B[rr];W[rq];B[sp])))
(;B[kl]C[Makes a few points of territory on line 10.])
(;B[rs]C[Nanny: this is way bigger]))
(;B[rs]C[Nanny: this is bigger. 
I think now B can win the game.]))
(;B[ee];W[fe];B[ed];W[ge];B[de];W[cd];B[he];W[gd];B[hd];W[df]
;B[ce];W[be];B[ef];W[eg]))
(;B[qe];W[re];B[pf];W[qg];B[er]))
(;B[rs]C[Nanny: This is a good move now])
(;B[cc]C[Nanny: This is a good move too])
(;B[cr]LB[cc:C][cr:A][rs:B]C[Nanny: I also looked at this move, but it is too early.  This is gote 15pts.
B or C is about gote 25pts or more.]))
(;B[hl];W[im]
(;B[jk])
(;B[gm];W[jk];B[ij];W[ip];B[iq];W[jo];B[kp];W[hp];B[hq];W[hn]
;B[cl]C[Nanny:  even with very very gentle course, black can get compensation]
)))
(;B[fl]C[Does W have a reasonable chance to live here?

Nanny: I don't think living is easy, but kiling can be amazingly hard too ^^]
)
(;B[ig]C[Nanny: this might be better]))
(;B[pj]C[What is W answer to this?

Nanny: Don't even try to save the three stones. They are worthless.]

(;W[oj];B[ol])
(;W[ol];B[pi];W[ph];B[nj]))
(;B[ol]C[Nanny: This is better idea];W[pk]
(;B[ok];W[pj])
(;B[ig]))
(;B[om]C[Nanny: or this]))
(;B[oh]C[Nanny: This feels like shape]))
(;B[ld]C[This way it seems W gets out and has a good result on the top right.]
;W[md];B[mc];W[kd];B[le];W[kc];B[ne]
(;W[ke]LB[jc:A]C[Nanny: I don't like at all how much your A stone got hurt. So this doesn't seem good way for Black.]
)
(;W[jd]))
(;B[fc]C[Nanny: What about this? M17 isn't alive yet and your corner group seems ok for now.]
))
(;B[dg])
(;B[cg])
(;B[rs]LB[sr:A][rs:B]C[Is this move big enough to play at this point in the game? It looks around 22 points in gote.

Nanny:  White 4 pts and Black 25 pts. It's an almost 30 pts gote move. So it is big. At least as big as any other big move, so this move would be ok on this board.]
;W[qs];B[sp];W[sq];B[rr]))
(;B[rn]))
(;B[mo]C[Nanny: I think this is fine, he gives you fifth line territory, i would just take it.]
))
(;B[fn]C[This way it seems like I have stability and am growing.]
))
(;AW[cq]AB[iq]AE[jp]TR[fq][iq][dr]C[Nanny: Locally this is ok shape, much better than game. I hope that makes sense. It's basically about the 3-3 back door when invading , which you want to keep open in game, but is ok to close in this shape, since W cannot really invade anymore.]
))
(;B[tt]
(;W[dq]
(;B[tt];W[hq]C[Later B can get in trouble it seems.])
(;B[fo]C[Nanny: This is correct local move])
(;B[hp]C[Nanny: Or this, after white closes the corner.]))
(;W[dr]LB[fr:A]C[Nanny: This is correct way for white to close the corner.  It gives a nice followup endgame at A for white. That endgame is surprisingly big.]
))
(;B[pg];W[qh]
(;B[fc];W[df];B[id])
(;B[fo];W[dr];B[el];W[dm];B[fj]C[Nanny: two ideas])))
(;W[hq]
(;B[jq]C[To me it seems maybe B is a bit overconcetrated.  The k4 stone is doing almost no work at all

Nanny: Yes, I agree, this is not good for black at all, very over concentrated. That is why i'd rather have played at F3 in the the first place]
;AB[jn]AE[jp]C[Surely this isn't correct but it looks much better to me.]
)
(;B[ho]LB[ho:A]C[Nanny: This is a good move if white plays H3]
;W[fq];B[dj])))
(;B[fq]C[Nanny: This seems possible.  And it prevents the white H3 move  in your variation.]
))
(;B[rm];W[qn];B[rn];W[qo];B[rj];W[qj];B[sk];W[ri];B[sl]))
(;B[rj]C[This works much better it seems.

Nanny: yes, I agree.  this is correct move for black.]
(;W[qj];B[rl];W[ql];B[pk])
(;W[rl];B[qj]
(;W[ql];B[pl])
(;W[qn];B[pn];W[rp];B[rq];W[qp];B[qq];W[pp];B[op];W[qo];B[ql]
;W[rn];B[pi]TR[rf][sf][rg][sg][rh][sh]C[Nanny: Very nice result for black. White can resign. 
Some cost and benefit analysis on this result: 
White got 4 points, breaking 15 points, but hurt his own R14 group, giving black HUGE outside power
Black gets (nice target to attack) + ( wall)
So, question is if the value of (nice target to attack) + ( wall)) would be bigger than W's gain. Answer is  "surely Yes"]
))
(;W[ql];B[pk]
(;W[qj];B[rl])
(;W[rl];B[qj]))))
(;W[ql];B[pl];W[rk];B[pk]
(;W[rj]C[Nanny:  correct play for white])
(;W[qj];B[qn];W[jq]LB[pm:B][qm:A]C[Nanny: This is correct play and good result for white, since black's wall is useless now.  The B response to white A invasion is where black went wrong.]
)))
(;B[pl]LB[pl:A]TR[rd][qf][qi]C[Nanny: A is better attack for black. 
Basic plan of Q8 is to let white live on the right, but to take wall (influence), and to hurt white group (triangle)]
;W[pm];B[om];W[rk];B[rj];W[rl];B[qj];W[ri];B[sj];W[ro];B[pn]
;W[qp];B[pp];W[qq];B[pi];W[ph];B[oi]C[Nanny: This is expected. This is not as good as the diasterous result for white in later variations, but still good for black]
)
(;B[rh]C[Nanny: This move is fun idea too.]
(;W[ri];B[qh];W[ph];B[pi];W[qg];B[oh];W[pg];B[qj];W[oi];B[pj]
;W[rg];B[rj];W[sh];B[om]LB[qm:1]C[Nanny: though there is some aji, W1 is almost dead]
)
(;W[qh];B[ri];W[rg];B[qj];W[om];B[pg];W[qg]
(;B[ok])
(;B[oj]C[Nanny: this is still good for black]))))
(;W[jq]LB[qm:A]C[Nanny: Instead of A, this is more reasonable  for white.]
)
(;W[rj];B[rk];W[om];B[qm]TR[rm][sm][rn][sn][qo][ro][so][qp]
[rp][sp][qq][rq][sq]C[Nanny: This is to compare result if W doesn't invade.]
))
(;B[qg]LB[qc:A]TR[po][pq]C[Nanny: Because of black corner on the bottom right, the value of right side is big. Since black corner shimari has development potential on the right and bottom side,  the value of right side is even bigger than  black's top right corner. That is why R13 is better than A here.]
;W[pg];B[qh];W[ph];B[qi];W[rf];B[qc]
(;W[pe];B[pi])
(;W[pi];B[qj];W[pe];B[pj])))
