(;FF[4]GM[1]SZ[19]ST[2]CA[UTF-8]AP[SGFC:1.15]

GN[mschlat-Kylis-366720-20071214]
PB[Dennis Hardman (Kylis)]
BR[13k]
HA[3]
PW[Mark Schlatter (mschlat)]
WR[12k]
KM[-5]
DT[2007-11-28,2007-12-14]
PC[Dragon Go Server: http://www.dragongoserver.net/]
RE[B+Resign]
RU[Japanese]
GC[Game ID: 366720, rated]

AB[pd][dp][pp]C[This was a game played on DGS when I was 11 kyu and my opponent 14 kyu (thus the three stone handicap).  The ranks above were the ranks after the game.

I eventually resign the game with too many weak groups.  I'd like some feedback on my opening.  I spend a lot of time in the upper left, perhaps to my detriment.]
PL[W];W[dd];B[cf]
(;W[ch];B[ck]
(;W[fd]C[This is fine I think.  Maybe F17.  See variations on moves 2 to 6 for some other ideas.]

(;B[pj]
(;W[eh]C[This is too slow.  Black should now play K4 or H17 and white is way behind in the moyo race.  

White will invariably leave weaknesses behind in a handicap game, so leaving C12 weak at this point is not terrible.]
;B[cc]C[This is black's first mistake.  The timing of this move is bad as there are bigger moves available, like H17 and K4.  More importantly, the sequences that follows gives white exactly what he needs in this game, thickness.  It is more common for black to develop thickness early on, so helping white build it now will help white to recoup the handicap stones.]
;W[cd];B[dc];W[ec];B[bd];W[be];B[bc];W[ce];B[eb];W[fb];B[db]
C[White does well here by ending in sente, and the black mistake is revealed in the thickness of whites position. Furhter, white getting sente is never good in a handicap game.]
;W[nc]C[A good extension for white.];B[pf]
(;W[pb]C[This is very bad.  It is low, on the 2nd line.  Also, the potential for invading at the 3x3 point, R17, is erased, and that could be worth 20 plus points later on.  

See variations for other options.];B[qc]C[Black is very kind to white here.  bK4 for instance is alot more valuable at the moment.  Black can come back to R17 later.]

(;W[ld]C[Joseki are not always applicable to the whole board situation.  Neither M16 or L17 adequately use the white thickness on the left.  See variation.

M16 does a reasonable job of working with the F16 stones, but white has better.]
;B[id]
(;W[mf]C[J16 is an invasion.  It is alone against 3 stones to the right and 9 very strong stones to the left.  Attack the invading stone.  

N14 seems to be trying to secure the O17 stones from the threat of J16, but they are not under attack.  J16 is.

See variations];B[kc]
(;W[hc]C[With N14 in place, the cap at K14 is better.  To kill something, you must first contain it, so repventing center access is more important than making eye space reducing moves.  In addition, a moe like K14 provides a loose connection between your strong F16 group and the M16 group, which later on would have been helpful.]
;B[hd]
(;W[gc];B[if];W[jq]C[It is debatable whether white should leave off the attack on J14 for now, or not.  Black is not out of danger yet, but there are other things for white to do, like the move you played.  

White should be aiming to exploit the weakness of the J14 group on a large scale by creating thickness around the F6 area, so that white can "push" the J14 group towards it, and hopefully kill.]
;B[mq];W[gq];B[fq];W[fp];B[eq]
(;W[go]C[White is right on track to try and kill J14 soon.]
;B[hp];W[gp]C[See alternate continuations to see that white has no worry about K3 being disconnected, so G5 seems playable here.]

(;B[jp]
(;W[kp]C[I feel this is too loose.  bJ3 or bL3 are hard to deal with.  See variations]
;B[jo];W[ko];B[jm];W[kn];B[jn]
(;W[kq]C[White has a really nice way to fix all the weaknesses around here.  see variation.]
;B[gm]
(;W[hq]C[White has better ways to connect that also form eyes.]
;B[en];W[fm];B[fn];W[gn];B[hm];W[fl];B[hk];W[fj];B[pm];W[qq]
C[The timing of this is questionable.  The process of making life in the corner will strengthen black in the surrounding area, which will put more pressure on the K3 group.  The K3 group is not alive yet, so helping black build strength near it is probably not a great idea.  

Perhaps a move like M8, and sequence aiming for another eye in the center should come first.]
;B[qp];W[pq];B[oq];W[or];B[nr];W[op];B[nq];W[rp];B[ro]
(;W[qo];B[po];W[rq]C[Now black recognizes the threat R5 poses, so he captures it.  Part of the advantage white has in a handi game is that black does not always see everything that white sees, so helping black to see the bad things you can do to him gives away some of yoru advantage.]
;B[qn]
(;W[no]C[As you have noted, living is more important here.  Plainly the points involved here, roughly 30, make it clear that white should just live with Q2 instead of O5.  

Another way to see this is that O5 seeks to save the cutting stone P4.  Saving P4 lets white attack the O3 group.  However, once black plays Q2, the O3 group is alive, so the cutting stone P4 no longer has any influence on the situation.  Saving it becomes pointless.  By this logic, making life with Q2 actually makes the cutting P4 a meaningful cutting stone in addition to making life in the corner.  
  
Further, the fact white can save the P4 stone makes Q2 sente for white.  White first lives in the corner, and then retains sente if black fixes at O5, or if black does not fix, white gets a great attack against the O3 stones by playing O5 himself.]
;B[pr]C[White's corner dies here.  I don't believe there is even a ko for life available here.]
;W[qr];B[os]
(;W[lr]C[This is correct.  White has died in the corner, and has no reason to play there any longer.  Ensuring life for the K3 group is more important.

I should stress that this is not an attack on the O3 stones.  White can't even win a capturing race: the O3 group has 6 liberties and an eye while and R3 has 4 liberties and a potential eye.  Hence, O3 are too strong to be attacked.]
;B[sr]C[Now I've lost that corner.  

The corner was lost with bQ2.  Black is in fact wasting a move here.]
;W[qb]C[Making eye shape for this group is important, but if you manage to kill the J16 group, making eye shape would be ultimately useless.  An attack at J12 seems to be a better way for white to proceed here.]
;B[rb];W[ph];B[qg];W[qh];B[rj];W[nh];B[ke];W[kd];B[jd];W[ic]
;B[jc]
(;W[gf];B[fg]
(;W[ff]C[The wrong direction.  White has many stone around here, and they are pretty strong.  White can afford to be aggressive.  
see variation];B[gg];W[eg]C[This is a very meek way to proceed.  Black has all but connected J14 F13 and H9 together.   It is always harder to attack connected groups.  

 Protecting ones established territory is important, but White does not have enough territory to make simply guarding it a viable strategy.  White should pursue an attack as outlined in the recent variations.]
;B[le];W[md];B[me];W[ne];B[kg];W[hg];B[hh];W[hf]C[G12 and H14 are miai, moves that are paired.  If black cuts at H14, white can connect again with G12.  If black saves his stones with G12, then white can connect with H14.  White need play neither as no matter what black does, white has the other to fall back on.  White can press the attack here instead of meekly connecting.]
;B[ih]C[Black's groups are all connected now, and white no longer has an attack on either.  In fact, the one under attack now is white.  O17 is not for sure alive yet, and K3 seems to need another move.

Attacking the weak black groups helped to strengthen all the white groups around them, especially if you end up killing one.]
;W[ig];B[jg];W[nl]C[A wasted move.  White should not hope to connect the L5 group to the O17 group.  White also has no prospects for territory around O8.  This move is almost a pass by white.  

White has some aji (potential) around R9 that O8 could help to exploit, but the continuation is long and comlicated.  A move like S12 clearly threatens another move against the black R17 group, and so as an end game move, it is likely a better move as it is sente.]
;B[nm];W[ml];B[kk];W[jh]C[The ladder might favour white, but ladders aren't the only way to capture.  Black is clearly storng here, so white can be captured in a net pretty easily.  This will end up as a donation to black.]
;B[kh];W[ji];B[ki];W[mm];B[nn];W[mo];B[mj];W[nj];B[mh];W[oi]
;B[rh]C[All the moves since O8 to here have been smaller than S12.  Both players have missed this important point till now.  

An attack on the black R17 group could probably be used to help the white O17 group live, so white has not only given black many points, but missed an opportunity to live for sure with O3.]
;W[qi];B[ri];W[qj];B[qk];W[pk];B[pl];W[ok]C[This is just points now.  White has connected O17 to K3 through the middle, and each group has one eye, so together they are alive.  P9 is just a waste of sente to gain about 5 points.  

If C3 works as an invasion, it would surely be worth more than 5points, and there are other moves besides for white.]
;B[bi]
(;W[cp]C[I tried connecting rather than use the 3-3 invasion.  I don't know what's better here.

The attachment here does not work, black is too strong there.  Attachment stones are akways at a disadvantage in terms of liberties, so invasions usually do not involve attachments, unless you plan to sacrifice the attaching stone.

See variations for some other ideas.];B[cq];W[bq];B[bp];W[co]
;B[br]
(;W[cr]C[This wastes the aji white can use at B5.  See variation.]
;B[aq];W[cm];B[dl];W[dm];B[dn];W[cn];B[ep];W[dr];B[dq]C[White should at this point leave F1 for later.  E7 very clearly kills C9.  C9 has no eye space, so it can only live if C7 dies.  Connecting is worth huge points.]
;W[fs];B[gs]
(;W[fr];B[em];W[el];B[er];W[gr];B[es]C[White still has a chance to win the fight on the left, but an attempt must be made.  If C7 dies, then black has won for sure, but if C9 dies, then white has a good chance to win.  See variation]
;W[gh];B[bh];W[bf];B[bg];W[cg];B[bl]C[I think I needed this move to save my group and kill B in my area.

Ya, I agree.]
(;W[gi];B[ii];W[jj];B[ij];W[cj];B[bj];W[bm];B[dj];W[ci];B[am]
;W[an];B[al];W[cl];B[dk];C[Result: B+Resign

Overall, white played too timidly.  By this I mean, white played too many purely defensive moves, did not try to make large moyos where possible, and did not try to attack weak black groups.  Timid play is bad in general, but it is especially bad for white in a handicap game.  

The basic ideas of attack are things you are familair with already, but your familiarity is on a smaller scale, that or individual stones.  To kill individual stones, you need to cut them off from other stones, and surround them.  The same is true of large collections of stones or groups.  Attacking consists of seperating groups from one another, and trapping those groups in a ring of your stones. 

Of course, you can not always kill the group you have trapped, but the process of trapping and almost killing can be beneficial for you as well.  The player that surrounds an opponent group, and forces it to live develops thickness during the exchange of moves required for the opponent to live.  As an example of this principle, just look at the C17 invasion by black.  White developed a large thick wall of stones.

The moral here is that to win one must attack the weak groups of the opponent, and manage the attacks against your own weak groups so that the opponent does not benefit too much.  Reading about attack and defense would be useful for you I think.  I know of two english books on the subject; Kato's Attack and Kill by Kato Masao, and Attack and Defense by James Davies.

Finally, remember that when playing white in a handicap game, black is more afraid of you and the strange tricks you can play than you are of his handicap stones :)]
N[RESULT])
(;W[hi]C[Why not this?]))
(;W[gr]
(;B[fr];W[es];B[er];W[hs];B[ds];W[cs];B[bs]C[Not much better.

White is focusing on the wrong goal here.  The C2 stone is not savable, but you can use it to reduce black's territory in sente.]
;W[gs];B[ds]C[It remains whites move, and black's area has been reduced by 6 points from what it would have been if black had been able to play G2.]
)
(;B[es];W[fr];B[er]C[This is also sente for white, and white is up even more to 7 points.]
)))
(;W[bo];B[aq];W[dm];B[dn];W[cm];B[cn];W[bn];B[bl];W[bm];B[em]
;W[el];B[dl];W[cl]
(;B[dk];W[bk]C[white lives, so black dies])
(;B[bk];W[dk];B[aj];W[al];B[bh];W[bg];B[ci];W[cg];B[ah];W[cj]
;B[dj];W[di];B[ej];W[ek];B[bj];W[ei]C[black dies])))
(;W[bp]C[This is sometimes a good option for invasion.]
(;B[cq];W[cm]C[Herew white threatens to disconnect the C9 group while threatening to make life with C7 and B4.]
)
(;B[co];W[cq]C[Black keeps it simple and lets white take the corner.]
))
(;W[cq]C[The 3x3 invasion is tough here as E3 is in place.  I think white dies, or gets a ko at best.  See the variations for some possible sequences.]
;B[cp];W[dq];B[br]
(;W[bq];B[bp]
(;W[ep];B[dr];W[er];B[fr];W[cr];B[es];W[ar];B[bs]C[white fails]
)
(;W[er];B[fr];W[dr];B[ep];W[ar];B[bs];W[cs];B[es]C[white fails]
)
(;W[ar];B[bs];W[er];B[fr];W[ds];B[cr]
(;W[dr];B[ep]C[white fails])
(;W[ep];B[dr];W[es];B[fs])))
(;W[ep];B[dr];W[er];B[fr];W[cr];B[es];W[bq];B[bp];W[bs]C[white fails]
;B[ar])))
(;W[hh]C[Maybe this now.  It splits apart all three groups.]
;B[gg];W[hg];B[hf];W[ge]C[Black is under severe attack];B[gi]
;W[gh];B[fh];W[fi];B[eg];W[dg];B[ei];W[dh];B[hi];W[ih];B[ii]
;W[jh]C[It is hard for black to do anything with any of his groups without weakening and further trapping one of the other black groups nearby.]
))
(;W[ih]TR[ke][if][hm][jm]C[This is now a double attack on black's two groups marked in triangles.  White has a good chance to kill one or both.]
))
(;W[sr];B[rs]
(;W[sp];B[qs])
(;W[qs];B[sp])))
(;W[pr]C[I beleive I have to move here, but I also think it's a ko.

Nope, no ko.  This shape is unconditionally alive.];B[qs]
(;W[sp]C[This is not correct as it does lead to a ko.];B[rr]
;W[sr];B[ss])
(;W[sr]
(;B[sp];W[rs])
(;B[rs];W[sp];B[rr];W[ps])
(;B[os];W[ps];B[rr];W[qr]
(;B[rs];W[sp];B[so];W[ss])
(;B[sp];W[rs])))))
(;W[rq]C[This is enough as white has the threat at R5 to exploit if black plays elsewhere, or if black fixes with R6, then white can play Q2 to live.]
))
(;W[en]C[Perhaps better to run out here --- I was concerned about the G3 and K3 groups becoming disconnected.

This does not get white very far.  Escaping into to black influence does not help white to live.  White needs to live on the side, so white needs eyes.]
)
(;W[hr];B[fr];W[lr];B[mr]C[White is now almost alive, so moves like E6 and N6 say are now not aimed at trying to live, but aimed at reducing the black influence in those areas.  White can almost surely create an eye in the center, and if not white can always go back and make two eyes with K2.]
))
(;W[ir]
(;B[kq];W[lq];B[kr];W[lr]
(;B[iq];W[jr];B[hr];W[hq];B[ip];W[gr])
(;B[jr];W[iq];B[lp];W[mr];B[nq]))
(;B[hr];W[hq];B[gr])))
(;W[iq]C[Strengthen K3 and ensures connection to G3 while aiming at the cut at J4]
)
(;W[kq]C[This seeks to cut off K4 from the other black stones, but black has a cutting sequence starting with H3 that makes this move risky.]
;B[hq]
(;W[hr];B[ir];W[gr];B[iq]C[white is cut apart])
(;W[gr];B[hr]C[white is cut apart, but black group might be attackable]
)))
(;B[hq]C[black tryies to cut off K3];W[gr]C[white prevents black connecting]
;B[hr]C[black blocks the connection of K3];W[io]C[white tried to net H3]

(;B[ho];W[hn];B[ip];W[jp]C[black can't escape this way])
(;B[jr];W[kr]
(;B[jp];W[ip];B[kq];W[iq];B[lr];W[ir];B[ks];W[is]C[black is trapped again]
)
(;B[kq];W[ir];B[jp];W[js];B[ip];W[hs]C[white stays connected.]
))))
(;W[gp]C[Stronger to do this?

Probably, but the need to influence the fight to kill J14 might out weigh the need for strength here.  The local worry is that K3 can be cut off from G3.  See variations after bH4 for this.]
))
(;W[ic]C[I like this move instead.  Black can not make a base on the upper side anymore, and white exposes a cutting point at K16.]
))
(;W[if];B[gc];W[fc];B[gb];W[ea];B[ba];W[ib]C[now white can try a killing move.]
))
(;W[jc]C[Make territory and attack?  (But this is contacting a weak stone.)

 J16 is a 4th line stone, so black does not expect to live on the upper side with it.  A 4th line invasion aims at running out into the center, so white is better off attacking this stone from above, as shown in the other variations.]
)
(;W[if]C[The cap is a standard way to attack an invading stone, and it is often quite a severe attack.  The idea is to cut off access to the center.  

It appears not to be good here as black can likely slip out at K15.  The running fight that comes of that might be useful for white.  See continuation]
;B[je];W[jf];B[ke];W[lg];B[le];W[md];B[mf];W[mg];B[nf]TR[if]
[jf][lg][mg]C[White can be more aggressive through this fight, so the result could be very different.  The point of this for white is that White now has center thickness.  The triangled stones will greatly help any stones white plays on the lower side.]
)
(;W[je]C[The shoulder hit is another good way to attack.  The idea is to force the stone to stay low, and "push" it in some direction.  In this case, white is pushing the J16 stone towards the strong white wall while at the same time trying to prevents J16 from getting access to the center.  

For this game, I like this move over the cap at J14 as the stones to the left of J16 are so strong.]
))
(;W[kc]C[Better just to do this?

This move is completely out of sync with the thickness on the left.  The O17 stones are very hard to attack with the wall on the left sitting there.]
)
(;W[ne]TR[fb][nc][be][ch][eh]C[White is trying to maximize his influence, and O15 is a good move to do that.  

The O17 group is hard to attack as the F16 stones are very secure.  See continuation.]
;B[kc];W[ke]C[L17 isn't even an attack on O17.  It is an invasion.  White will be the one attacking the invading stone.]
))
(;W[ne]TR[fb][nc][be][ch][eh]C[This is more inline with the thickness white developed on the left.  The triangle stones form a rough outline of the territory white intends to take.]
)
(;W[fq]TR[cn]C[The approach here aims to devalue a black move at K4, limit that black corner, and potentially create an invasion point at C6.  I don't think black can afford not to respond.]
))
(;W[nc]C[This is likely bigger than E12.])
(;W[fq]C[This also might be considered here.  White needs to get stones on the board.]
))
(;B[hc]C[This is a pretty good extension for black on this board.  wF17 instead of wF16 takes this more away from black.]
))
(;W[df]C[This is also possible here.  bC9 is almost a tenuki ( a play elsewhere), and D14 starts a common joseki.]
;B[cg]C[Blck does have this move though.];W[dg];B[bh];W[ci]
;B[bi]C[This is not that bad for white.  The wall will be useful against the right and lower sides, and influences the upper side.]
))
(;W[di]C[This is also an option.  It is a lighter way to play for white, and by this I mean that D11 might make a very good sacrifice later.  A typical joseki follows.]
;B[ef];W[fd];B[bd];W[cc];B[bi];W[jc]C[White K17 I think is a bit too long of an extension, but this is a handi game, white cannot afford to play too safely.]
)
(;W[fc])
(;W[cj]C[This is also possible, and D10 also.  The idea is to spread your stone over the board as much as possible to start recouping the handicap given to black.]
))
