(;FF[4]GM[1]SZ[19]ST[2]CA[UTF-8]AP[SGFC:1.15]

PB[budongni]
BR[3k]
PW[GFree]
WR[3k]
KM[6.5]
DT[2007-12-23]
PC[The KGS Go Server at http://www.gokgs.com/]
RE[W+1.50]
TM[600]
OT[5x30 byo-yomi]
RU[Japanese]

C[MR: You put many questions in the game record at places were you or your opponent played very normal moves. 
On the other hand, you started rather strange fightings at other places of the board, where I got the feeling that you do not really had a plan on what you wanted to achieve. 

My suggestions on what you could do for improvement:

(a) Read a joseki book like "The great joseki debate" that shows you different josekis in a board position and shows you how to evaluate which joseki to choose depending on the surrounding.

(b) Before starting a fight, make a plan what you want to achieve. If it is just "create some complications", only choose the plan if you are clearly behind. If you find out that you wanted to cut apart living groups of your opponent, better make a new plan. If you can't make up a good plan, play a large move.]
;B[pd]C[budongni [3k\]: hio];W[dp];B[pq]C[GFree [3k\]: hi :)]
;W[dd];B[fc];W[cf];B[jd]
(;W[qf]C[Only 2 games on gobase.org go this route, so I suspect that this move is suboptimal

MR: I think that both, R14 and a Kakari in the lower right corner, are fine.
Most players wouldn't like to allow a black shimari in the lower right corner and therefore start with a kakari there.]

(;B[nc]C[neither of them respond this way. It looks weird to me but I can't figure out how to take advantage of it.

MR: The result that you get on the right side is fine - white gets a totally stable position within black's sphere of influence. However, black does not need to answer S18 with R17, so S18 gives black another chance to play a pincer at R12 or R13.]
;W[rd]
(;B[qc];W[qi];B[qo]
(;W[jq]C[I felt it would be too good for black if black plays in this area

MR: Yes, playing on the lower edge feels totally normal for white. Variations tend to be very different depending on whether you choose K3 of L3.]
;B[cn];W[fp];B[bp];W[cq];B[ck];W[db]C[I wasn't sure about this move. It seems too defensive, but everything else on the board looks defenseive to me as well. I considred n4 too here, but it seemed I had an answer to black's play in that area that at least helped me a bit, but black d18 followed by c12 was multiple sente for black. This is a position I found very difficult to evaluate

MR: D18 looks perfectly normal to me, as it secures the white corner group. Next largest move seems to be N3.]
;B[eb]
(;W[cb]C[MR: The first very strange move. C17 or E17 are normal.]
;B[pf]
(;W[pg];B[of];W[og]C[MR: Not important. I would switch to N3 at the bottom.]
;B[lq]C[MR: Good move for black.];W[jo];B[lo];W[nf];B[ne]
(;W[mf]C[MR: My feeling is that O14 is only good if you can continue with the double hane.]
;B[me]C[I didn't like the way this strengthened black, but felt that it was important to get some control of the center... when I feel like I'm not quite sure how to handle the position, I tend to start a fight and see if I can handle that :)

MR: Strange methodology ... If you want to switch to R7, better do not exchange O/N14 against O/N15. If you want to start a fight, better play the double hane or invade the upper side directly.]
;W[qm]C[This was an invitation to invade... making may wall useful...]
;B[qk]C[MR: There is no necessity for black to invade here.]
;W[om];B[ok];W[mm];B[mk]
(;W[np]C[Reduce, and create a potential exit for my stones before attacking

MR: White should keep jumping to separate the black stones. After that, white can play more severe moves against the black lower right formation, e.g. starting with O3 or Q2. White O4 just asks black to stabilize himself.]
;B[nq];W[mp];B[mq];W[ll]LB[kl:A]C[I considered A, but decided it was too thin

MR: A is too thin, L7 is an alternative.];B[mh];W[nh]
(;B[ni]
(;W[lh]C[MR: ?];B[mi];W[li]C[I felt that this ilted things back towords me I doubt I could have killed black, but I have control of the center now, and black is going to have to live small or remain weak.

MR: The white shape is not made to "take control of the center" but has many weaknesses.]
;B[mg];W[lg];B[ng];W[lf];B[oh];W[ph];B[pi];W[pj];B[oi];W[qj]
C[now my two groups are connected, and black is still in trouble]
;B[lj];W[le];B[ld];W[md]
(;B[nd];W[kd];B[lc];W[kc]C[access to the side *and* invade woo hoo]
;B[kj];W[lb];B[mc];W[oj];B[pk]C[this made no sense, thanks for the stone]
;W[nj];B[mj];W[nk];B[jl];W[rn];B[qg]C[this is the price of S6... but it's not so bad since black either quits early or takes gote.]
;W[qh];B[qe];W[rf];B[re];W[rg];B[nn];W[nm];B[fe]C[I probably should have played this instead of s6?

MR: You cannot get everything!]
(;W[ic]C[I missed the cut. doh];B[kb]
(;W[jb];B[ke]
(;W[ka];B[jf]C[k15 might have been stronger for black?

MR: Not allowing to be cut aart would have been stronger ;-)]
;W[ie];B[je];W[jh];B[kh]C[MR: Black should not play this move if it does not work ...]
;W[kg];B[jg];W[ki];B[hg];W[jj];B[ii];W[ji];B[kk];W[jk];B[kl]
;W[hk];B[hl];W[gj];B[gl];W[hn]C[MR: This is *not* the current area of interest! You should stabilize one of your two weak groups in the upper center.]

(;B[ei]
(;W[ih]C[MR: Suboptimal variations for both sides follow.];B[hi]
;W[hh];B[gi]
(;W[ig];B[if];W[hf];B[he];W[gf];B[id];W[gh];B[hb];W[hc];B[jc]
;W[gd];B[ge];W[gb];B[kb];W[kc];B[gc];W[ib];B[ch]C[MR: At least now all groups are settled for life - a good opportunity to pause and reevaluate the position ...]
;W[bg];B[bh];W[il]C[MR: It seems to me that you are not sure of your own plans here!
If you do not have a clear plan to cut stones apart, you should better play large endgame moves! Suggestions are S4, L2, B3.]
;B[im];W[ik];B[hm]
(;W[on]C[bad move 1];B[ro]
(;W[km]C[bad move 2 yeah... now I'm loosing];B[jm];W[kn]C[slow]
;B[gn];W[ho];B[hq]C[I had thought that h5 would prevent this, but it doesn't...]
;W[kr];B[eq];W[fq];B[fr];W[dr];B[ip]
(;W[io];B[jp];W[kp];B[kq];W[iq];B[hp]
(;W[lp]C[MR: I would not want to allow black to capture the stones J/K3.]
;B[ir];W[gp];B[gr];W[co];B[bo];W[dn];B[cp];W[do];B[dq];W[er]
;B[bq];W[ep];B[go]C[I had read out that this cut didn't work so I wasn't worried...]
;W[cm];B[bn];W[fm]
(;B[fl];W[gm];B[em];W[fn];B[en];W[fo];B[dm];W[el];B[dl]
(;W[ek];B[fk];W[fi];B[fj];W[fh];B[cr];W[jr]C[create the force to capture]
;B[lr];W[ha];B[ff]C[This is black's loosing move. the w group in the center can't die and this is only 6 points in gote with no follow up.

MR: Oh, then there were so many "loosing moves" in this game ...]
;W[so]C[Finally I get to play all the edge move's I've been waiting and waiting for

MR: As written before, you should have switched to normal endgame before J8!]
;B[sp];W[sn];B[rq];W[oa];B[na];W[nb];B[ob];W[ma];B[mb];W[na]
;B[pa];W[la];B[pb];W[se];B[rc];W[ah];B[qn];W[rm];B[pm];W[pl]
;B[pn];W[ql];B[ai];W[ag];B[bj];W[hd];B[fd];W[eh];B[dh];W[ej]
C[1 pt force to capture in sente...];B[di];W[kb]C[mistake]
(;B[de];W[ce];B[df];W[cg]
(;B[dg];W[pp];B[op];W[oo];B[oq];W[po];B[qp];W[gg];B[fa];W[ga]
;B[dc];W[cc];B[ed];W[ec];B[ml];W[nl];B[dc];W[cd]C[hey I got him to waste a ko threat :)]
;B[ec];W[hr];B[hs];W[gq];B[hr];W[cs]
(;B[dq]C[wow free points];W[br];B[cq];W[eq];B[ar];W[bs];B[sc]
;W[sd];B[qd];W[sf];B[da];W[ca];B[ea];W[kd]
(;B[eg];W[gk];B[dj];W[fs];B[js];W[lm];B[ks];W[jn];B[aq];W[kf]
;B[ie];W[tt];B[gs];W[es];B[as];W[ds];B[tt];W[tt]TW[aa][ba][ia]
[ja][ab][bb][hb][ac][bc][ad][bd][ae][be][af][bf][hg][qg][sg]
[kh][rh][sh][gi][hi][ii][ri][si][hj][ij][rj][sj][ok][pk][qk]
[rk][sk][ol][rl][sl][sm][gn][ln][mn][nn][go][ko][lo][mo][no]
TB[qa][ra][sa][qb][rb][sb][oc][pc][md][od][ee][oe][pe][ef][nh]
[bi][ci][aj][cj][ej][ak][bk][dk][ek][al][bl][cl][el][am][bm]
[cm][an][ao][ap][rp][iq][jq][qq][sq][jr][kr][mr][nr][or][pr]
[qr][rr][sr][is][ls][ms][ns][os][ps][qs][rs][ss]C[GFree [3k\]: good game :)
budongni [3k\]: thx
budongni [3k\]: not very
budongni [3k\]: I owned whole game but lost at the end
budongni [3k\]: cu
GFree [3k\]: l8r :)])
(;B[gk];W[hj];B[eg]))
(;B[br];W[bs];B[ar]
(;W[dq];B[fs])
(;W[fs])))
(;B[gg]))
(;B[gg]))
(;W[fi];B[fj];W[fh];B[fk];W[br]C[better, but gote... mm]))
(;B[gm];W[fl];B[gk];W[fk];B[fj];W[hj]))
(;W[hr];B[ir];W[jr];B[gr];W[is];B[go];W[lp];B[gp];W[er]))
(;W[jp]C[This is probably what I should have played];B[go]
(;W[hp];B[gp];W[gq];B[io];W[iq];B[in];W[hr];B[hp];W[gr];B[en]
;W[fk];B[gk];W[fj];B[fi];W[hj];B[el];W[fl];B[fm];W[ek];B[dk]
;W[bq];B[bo])
(;W[gp];B[io];W[hp];B[in];W[iq];B[ep];W[eo];B[fo])))
(;W[in];B[jn];W[kn];B[jm];W[ko];B[lp];W[fm];B[fl];W[em];B[el]
;W[co];B[bo];W[dn];B[cm];W[bq];B[cp];W[do])
(;W[gn];B[kn]))
(;W[jm]))
(;W[hf]C[MR: How about capturing the black stones?]))
(;W[il]C[I had trouble reading this out and chickend out :(

MR: Anyway black does not need to play as strange as you assume. He can connect his center group to the lower right corner.]
;B[im];W[ik]
(;B[hm]C[MR: ?];W[jm]
(;B[jn];W[km];B[kn];W[lm];B[in])
(;B[km];W[jn];B[kn];W[lp];B[kp];W[ko];B[ln];W[mn];B[mo];W[no]
;B[on];W[kq]C[semeai]
(;B[fk]
(;W[fj];B[ej];W[ek];B[el];W[dk];B[ih];W[gh];B[fg];W[gg];B[gf]
;W[fh];B[eh];W[eg];B[ff];W[dg];B[dj];W[lm])
(;W[ih];B[hi];W[hh];B[gi];W[ig];B[if];W[hf];B[he];W[gf]
(;B[gg];W[gh]
(;B[fg];W[fi])
(;B[fi];W[fg]))
(;B[gh];W[id])))
(;B[ih])))
(;B[kn]C[MR: Black can connect to the bottom right or the left side.]

(;W[lp];B[hm])
(;W[hm];B[in];W[ho];B[lp]))))
(;B[ih]C[MR: ? What do you want to tell me with this variation? Why should black play like this (e.g. why should he play J9 ?) ?]
;W[il];B[ik];W[ij];B[im];W[ik];B[hm];W[jm];B[km];W[jn];B[kn]
;W[lp];B[ko];W[kp];B[on];W[mo];B[mn];W[pn];B[oo];W[op];B[po]
;W[oq];B[or];W[pp];B[qp];W[pr];B[qq];W[nr];B[qr]
(;W[os])
(;W[lm];B[ln];W[os];B[ro];W[ej];B[el];W[fg];B[id];W[hc];B[hd]
;W[gc];B[gb];W[hb];B[gd];W[ed];B[fd];W[ef])))
(;W[jc]))
(;W[jc]C[MR: You can still play here. M18 is not important but just a forcing move.]
))
(;W[je]C[probably should have done this..

MR: Yes, this is the shape move.]))
(;B[lc]C[I had thought black would play this way];W[oe];B[nd]
;W[pe];B[jj]
(;W[oj];B[nj];W[nl];B[nk];W[lk];B[kj];W[hc])
(;W[rc]C[With this stuff later];B[rb];W[od];B[oc];W[qd];B[pc]
)))
(;W[oi];B[nj];W[li];B[mi];W[lf]))
(;B[mi]C[MR: ? What do you want to tell me with this variation ?]
;W[pj];B[pk];W[nj];B[nk];W[mj];B[lj];W[lk];B[oj];W[ni]))
(;W[km]))
(;W[me]))
(;W[qg]C[This alternative is];B[lq];W[jo];B[lo]LB[hc:A]C[This again leads to a position I am not sure how to handle... All I can figure after staring at this is maybe an invasion around A

MR: Yes, as black left out F15 after E18.]))
(;W[cc];B[fe])
(;W[ec];B[fb];W[fd];B[gd];W[fe]))
(;W[kq];B[fq];W[eq];B[fp];W[cn];B[iq];W[nq]))
(;B[qh]C[MR: One variation. As you use gobase.org anyway, you can check the variations after R12 and R13 there yourself.]
;W[qc];B[qe];W[re];B[pf];W[pg];B[qg];W[rf];B[og]))
(;B[qh]C[MR: I would choose the pincer R12 for black. If the standard joseki (or one of the variations) follows, all black stones work well together.]
;W[qc];B[pc];W[qd];B[pe];W[rf];B[og]))
(;W[po]C[This seems more common on gobase.org, but I feel uneasy about giving black a pincer against this stone when he has r16 and k16]
;B[pl]
(;W[mo]C[MR: This is a strange choice of joseki and makes the black pincer work perfectly with the black stones on the upper edge.]
;B[mq])
(;W[mp]C[MR: I would prefer to play this joseki for white. See Ishida for variations.]
;B[oo];W[on];B[no];W[pp];B[nq];W[nn];B[mo];W[qq];B[oq];W[rp]
)))
