(;FF[4]GM[1]SZ[19]AP[SGFC:1.13b]

GN[janko-catalysts(B) IGS]
PB[catalysts]
BR[13k*]
PW[janko]
WR[13k*]
KM[5.5]
DT[1998-07-05]
PC[IGS:  igs.nuri.net 6969]
RE[B+6.5]
TM[180]
US[Brought to you by IGS]

;B[pd]C[See final comments at end of game.];W[dp];B[pp];W[dc]
;B[de];W[ce];B[cf];W[cd];B[df];W[fc];B[cj];W[qn]
(;B[pn]LB[np:a][mq:b]C[B13 is the first questionable move.  There were other options for W12 but the move played was acceptable.  This B13 is definitely wrong .  The attachment should be reserved for  when you are trying to settle the shape quickly.  There is no need for this in this case.  In fact, B does not want to settle if quickly.  He played here first and so should have the advantage. 'a' and 'b' are the natural moves.  A pincer would not be good without an extension along the bottom.   See variation.]
;W[pm];B[on];W[ql]LB[qo:a][ro:b][qp:c]C[This is the first time I have ever seen this move.  It is definitely bad. 'a','b', and 'c' are the usually moves with 'a' being by far the most common.  'a' is the key point in this shape.  If B gets it he has excellent shape. If W gets it he is threatening to push and cut.]
;B[qo];W[rn]C[This just emphasizes how bad W16 was.  W has had to take gote and has gotten a bad shape as well.  However, it is necessary to make shape and preserve the option of jumping into the corner.]
;B[mq]LB[rp:a][jq:b][fq:c][cn:d]C[Too small.  W can jump in at 'a' and so the corner is not very big.  B should extend to 'b' if he is going to extend.  However, the shape in the lower right is very resilient so B can consider extending all the way to 'c'.  If W responds to this with 'd' then B can make good shape along the bottom.  If W pincers against 'c' then B makes good shape with 'd'.]
;W[qi]LB[qj:a][qf:b]C[Too small. Although a B move at 'a' would restrict this group it is not under severe threat and this move simply is not big enough. If W plays on this side he should go all the way to 'b'.]
;B[cn];W[fp]LB[hq:a][gq:b]C[This move is not viable.  It is usually played in preparation for a later attack against B21.  In this case that would not be practical.  All it does it leave a weak point at 'a' for B to aim at.  'b' is the correct response. In fact, a play at 'b' would have been better than W20.]
;B[iq]LB[hq:a][eq:b]C[Not severe enough.  B should extend all the way to 'a'.  This move leaves an invasion point behind it (as does 'a') but it does not threaten 'b' as much as 'a' would]
;W[qf]LB[nc:a][jd:b]C[Wrong side. Wa, B24, Wb would be better.  This is a small extension from a stable group and is the sort of move which should not be made this early in the game.]
;B[qe];W[pf];B[nc]LB[nd:a]C[The 25,27 combination is usually contradictory.  25 is intended to make W heavy and 27 is then usually played at 'a' to keep the pressure on W.  B27 is ok (although I would play at 'b'), but B25 is unnecessary.  It can always be played later if W does not respond to 27 and if W does respond then B has sente.]
;W[cl]LB[bp:a]C[Too early.  W must strength his two stones below first with a move at 'a'.]
;B[dl]LB[cp:a][cq:b][do:c][ep:d][en:e]C[Unreasonable.  If B attaches at 'a' first (not really the best move) he can then try this after Ba,Wb,Bc,Wd.  I would recommend jumping to 'e' and keeping W separated. The two stones below are still open to attack,]
;W[dm];B[cm];W[dn];B[bl]LB[co:a][cp:b]C[B should exchange 'a' for 'b' first as a W play at 'a' is too good.]
;W[el];B[dk]C[.];W[ek]LB[co:a][em:b][cq:c][bn:d]C['a' is better. This W doesn't really achieve much because of the cutting point at 'b'. 'a' would secure the corner.   After 'a', W could answer 'c' with an atari at 'd' and keep B separated.  It is worth noting that, if B had captured a stone with B35 then this atari sequence would not be possible.]
;B[ej];W[kc]LB[lc:a][em:b][fj:c][co:d]C[Bad for two reasons.  First, if W extends here he must go all the way to 'a' so as to threaten an invasion of the corner.  However, leaving the lower left at this stage is wrong.  There is a cutting point at 'b' , and the hane at 'c' and 'd', all of which are vital points in the shape in the lower left.  You should not leave a situation which still needs to be played out unless you have good reason.]
;B[nf]C[This is also wrong for the same reasons as given for W38]
;W[kp]LB[em:a][ic:b][io:c]C[Let's assume that B gets the cutting point at 'a' (W is not trying to defend it so it is a fair assumption).  Suppose also than B gets an invasion around 'b'.  If this were to happend then W38 would be a weak group and W34&w36 would be a weak group.  B has no weak groups.  W cannot afford to create another W group by playing at 40. If B responds at 'c' that is exaclty what he may end up with.  2 weak groups against 0 weak group is usually a sure loss. 3 against 0 is suicidal.  Maybe B won't get to make all the plays suggested but as long as W has weak group he will have trouble stopping them.  Look at the variation for the next move.]

(;B[kr]LB[io:a]C[See the discusssion for the previous move. B should definitely play at 'a'.  The variation should is just one way it could go. This B41 is very cowardly and deserves punishing.]
;W[ip]C[suddenly W's center stones feel as thought they are connects.]
;B[hq];W[hp];B[gq];W[fq]LB[gp:a]C[Questionable.  W is open on the left so there is not a lot ot territory there. connecting at 'a' would remove a weak point and create a very strong position in the center.]
;B[gp];W[go];B[ho];W[jp]C[Excellent move.]
(;B[id]LB[hn:a][ic:b]C[The game is in the middle of a crucial fight at the bottom and B suddenly plays tenuki.  This does not make sense. B must play 'a'. (see variation)  If he must invade, 'b' is stronger.]
;W[ic];B[hc];W[hd];B[jc];W[ib];B[jb];W[jd];B[ie];W[kb];B[je]
;W[kd];B[he]LB[hb:a][ja:b][gd:c]C[Ba, Wb, Bc captures the stone in a ladder and W still needs another move to make 2 eyes.]
;W[gd]LB[ff:a]C[B has been outplayed here. The 4 stones facing the center are not achieving much as W can easily jump out at 'a'.  There is even an outside chance that they make become the target of an attack.]
;B[in]LB[hn:a]C[As shown earlier, 'a' is better.];W[kn]LB[lo:a]
[gn:b]C[As shown earlier, Wa is sente so W has several options here. Making shape with 'b' looks better.]
;B[il];W[jm]LB[kl:a]C[W is weak to the left so he should not strenghtn B like this. 'a' is adequate although a strong player would probably try to settle the lower group on the side without forcing B to place in the center]
;B[im];W[jl]LB[ll:a][nl:b][ij:c]C[This is not the way to attack. Or is W trying to play to live?  It is not clear,  Direct moves like this are rarely good unless one is scrambling to live. Jumping away lightly with a move like 'a' looks better.  It threatens follow up moves at 'b' (immediate) and 'c' (future)]
;B[ij]C[Excellent move.];W[jk]LB[ik:a][gn:b][em:c][ff:d]C[Forcing B to connect only strengthens him. Leaving a cutting point at 'a' may be useful later.   A move at 'b' both threatens a' and helps the cut at 'c'.  However, 'd' is looking big.]
;B[ik];W[ke]LB[ff:a]C['a' is bigger.  This point is likely to end up as dame.]
;B[fm]C[Disastrous.  W should have been concerned about the cutting point for a long time and here is B forcing him to connect it.]
;W[em];B[fo]C[Very small - and gote];W[eo];B[gn];W[co];B[jj]
;W[ig]LB[ff:a];B[kf];W[jf]C[The whole sequence from here until B97 is very questionable.  Each side seems to be giving the other every oportunity to take advantage of the siutation but neither does.  W leave a lot of weak points which B did not take advantage of.]
;B[hg]LB[hf:a][gf:b]C[Dangerous, because of 'a'.  Just playing at 'b' is much better shape.]
;W[kg];B[lf];W[lg];B[mg];W[mh]LB[li:a][ni:b]C[Better at 'a' although a black response at 'b' would severaly limit the side]
;B[nh]C[B must cut.]
(;W[mi]LB[lh:a][hf:b]C[Neither player is taking advantage of the situation here. This W leaves a cutting point at 'a'.  Look also at the variation starting at 'b']
;B[ki];W[li];B[ni];W[nj]LB[lk:a]C[Seems like W is doing his best to give B enough cutting points to kill something.  Must be at 'a']
;B[lj]C[And B is doing his best not to cut at those cutting points..  Don't think in this situation.  Just cut and then worry about it.  That is not advice I wold give stronger players, but at the 13k level it is sound.]
;W[mj];B[lk];W[ll];B[ml];W[mk];B[kj]LB[mm:a]C[This move doesn't make sense.  What is it protecting?  Play at 'a'.  W does not have two eyes at the bottom, which shows that W did noy have time to cut at 102]
;W[mm];B[qh];W[og];B[ng];W[ph];B[nl]C[If B was going to play this anyway, why play 105 first?]
;W[nm]
(;B[oj]LB[ol:a]C[A play at 'a' lis much better. See variation.]
;W[ok];B[pi];W[pj];B[oi];W[qj];B[ol];W[om];B[pk];W[pl];B[oe]
;W[hh]LB[gg:a][ge:b]C['a' looks good, threatening  both 'b' and 122]
;B[gg];W[ii];B[ge];W[fe];B[ff];W[ee];B[ef];W[dd];B[bf];W[be]
;B[bn];W[bo];B[rf];W[rg];B[re];W[rh];B[gr]LB[fr:a][er:b][dr:c]
C[Ba, Wb, B139 is sente because B could clamp at c.];W[fr];B[ro]
;W[jq];B[jr];W[na]LB[so:a][an:b]C['a' and 'b 'are bigger as they are double sente]
;B[ma]LB[mb:a]C[Wrong. 'a' is correct.];W[mb];B[nb];W[oa];B[pb]
;W[mc];B[ob];W[la];B[pa];W[nd];B[od];W[me];B[mf];W[ne];B[le]
;W[md];B[of];W[fj];B[ei];W[fi];B[fh]LB[sn:a]C['a' is still the biggest point - double sente.]
;W[gi]C[Dame.  This surround no territory.];B[gk]LB[so:a][an:b]
[af:c][lq:d][lr:e][mp:f][gs:g]C[After this move, ff W plays 'a' and 'b' (both double sente) and 'c' (sente), Wd,Be,Wf, combination (sente) and then 'g' (2 points in reverse sente) then he is comfortably ahead by about 5 points.]
;W[rp]C[This stone cannot live. As the comments on the previous move show, W does not need anything clever as he is already ahead.]
;B[so];W[qq];B[pq];W[pr];B[rr];W[rq];B[or];W[qr];B[ps];W[qs]
;B[sp];W[os];B[nr];W[sr];B[rs];W[qp];B[po]LB[ao:a]C[Why? Play 'a' in double sente.]
;W[np];B[no];W[mp];B[nq];W[op];B[oq];W[lq];B[lr];W[mo];B[kq]
LB[ao:a][sn:b][fs:c][ae:d]C[This is gote (W should not answer).  If B plays 'a', 'b' and 'c' in sente then plays 'd' in reverse sente he is slightly ahead.  This move give W a chance to still win despite the loss in the corner,]
;W[lp]LB[af:a][an:b][sn:c][gs:d]C[Very small.  'a' and 'b' are sente. 'c' and 'd' are reverse sente.]
;B[jn]C[Gote];W[lm]C[Why? B has no threat of any significance.]
;B[fs]C[At last!];W[es];B[gs];W[er];B[ao];W[ap];B[an];W[bq]
LB[bp:a]C['a' is better. Fewer ko threats.
B eventually wins by 6.5pts. The moves 199-206 were worth at least 6pts in sente for B.  White could easily have got them both.]
;B[sn];W[rm];B[sm];W[sl];B[hj];W[fl];B[gl];W[kh]C[Filling his onw liberties.  this can never make an eye.]
;B[if];W[jg];B[ji];W[jh]LB[ih:a]C[Fills in W's own liberties. 'a' is safest.]
;B[hi];W[gh]LB[nk:a]C[Too dangerous.  Capture at 'a'  to save all the stones on the right first.  There is then the option to fight the ko to safe the stones on the left later. .]
;B[ih]LB[fk:a];W[am];B[lh];W[nk];B[fk]LB[bm:a]C['a' is bigger. The stones are captured are the same but the extra points on the edge made a big difference.]
;W[bm];B[bk];W[eh];B[gj];W[kk];B[jo];W[af]C[W eventually plays this when it is no longer sente.]
;B[ag];W[ae];B[bg]C[Not necessary,];W[al];B[ck];W[ak];B[aj]
;W[cm];B[ld];W[lc];B[oh];W[pg];B[ko];W[lo];B[pe];W[qg];B[sf]
;W[sg];B[ma];W[na];B[oa];W[nn];B[oo];W[en];B[fn];W[io];B[ma]
;W[bi];B[bj];W[na];B[tt];W[ma]C[Although there was a lot of chance for both sides in the middle game this game was really settle in the endgame. Both players missed countless opportunities to play sente and double sente moves which would have won the game for them.  In particular W's invasion of the lower right corner was a loosing play. After that, the large ko in the middle near  the end seemed almost incidental athough W would probably still have won without the mistake which caused the ko.   There were a lot of missed opportunities early in the game for both players but, given the rating of 13k, perhaps most of these are understandable.  I would urge both players to be more concious of the value of sente at all stages of the game , but especially in the endgame]
;B[tt];W[tt];B[tt])
(;B[ol]LB[om:a][oj:b]C[this make 'a' and 'b' miai. See the variations which show possible sequences.]

(;W[om];B[oj];W[ok];B[lh];W[kh];B[jh];W[jg];B[ih];W[pl];B[if]
)
(;W[oj];B[lo];W[lp];B[mp];W[mo];B[om];W[ln];B[nn];W[mn];B[kl]
C[W cannot make 2 eyes.])))
(;W[hf];B[ge];W[gf];B[fd];W[gc];B[ff];W[if];B[fe];W[hh];B[gg]
;W[jh]C[W is still in trouble and the sequence 92-101 cannot be played immediately, but it should be kept in reserve as a threat to make an eye.]
))
(;B[hn];W[lo];B[lq]LB[lr:a][jr:b]C[W can play 'a' followed by 'b' if B doesn't defend.]
;W[hl];B[gm];W[fn];B[gl];W[gk];B[hk];W[il];B[fk];W[gj];B[em]
C[W has several weak points but B is strong everywhere. Even if W let's B capture at 60, B is better.]
))
(;B[io];W[kn];B[im];W[kl];B[em];W[fm];B[en];W[do];B[fn];W[gm]
;B[gn];W[hm];B[hn];W[gk];B[il];W[fj];B[ei]C[W does not have two eyes yet with his center group.  His lower left corner is open on both sides and could even die (although unlikely).  His three stones have no shape and are not yet connected to anything. And W38 is still vulnerable.  B has no weak groups because he should be able to take care of the 41-55 group easily.  This way of playing is a disaster for W and shows how bad W40 was.
This sequence only shows what could have. It is not optimal,]
))
(;AB[jq]C[If B had an extension at the bottom...];B[pn];W[pm]
;B[on];W[qo];B[qp];W[qj]LB[np:a]C[The reason that this joseki is not good is that once it is played out as shown W has sente and B has a weakness at 'a'.]
))
