(;FF[4]GM[1]SZ[19]ST[1]CA[Windows-1252]AP[SGFC:1.15]

PB[sinse33]
BR[17k]
HA[0]
PW[ady1494]
WR[17k]
KM[0.5]
DT[2007-12-12]
PC[IGS]
RE[B+R]
TM[660]
OT[25/600 Canadian]

C[*: Hi all my comments will start with *.  I been playing Go for about 6 years now and have learned most of it from people at local club, reading books, and mentors I met online.

*: Please don't be offended by my comments I will give you straight answer on what I see wrong.

1st Run: Both sides have made many mistakes on the direction of play, life and death, tesuji, and strategic mistakes.

*: I will be commenting the game as I see it, that is you might have made the same move I suggest but that just means in my opinion it should be sooner then you played it.

*: Last, I am only 4K* on IGS, so please take the comments as that, they are not the absoloute truth.

*: Thanks!];B[dd];W[dp]C[(2) -> hi];B[pd];W[pp];B[pn]MA[qn]
[cn][jd][jq]C[*: Some what ackward with black stones at 4,4 (D16) and 4,16 (A16).

*: Marked "X" would be more normal, nothing terribly wrong, experimenting is a good thing, lets see what happens :).]
;W[ql]C[*: Hmm I don't know if I like whites move here, the feeling is he doesn't want to let black get all the right side.  But whites future on that side is somewhat limited.

*: Looking at pro games that pattern showed up total of 23 times on GoBase.org, at different times.  (Just the corner).

*: And if I take the entire right side into account it shows up ONLY ONCE.  In that case please look at the attached example on how to proceed.]

(;B[pl]C[*: Ohh that probably hurt you, as it helps white.  You attach to defend not attack.

*: So here neither side is too strong or weak, so why not attack like in the example.]
;W[qk]C[.];B[pk]MA[qm]C[*: Proverb, "Never push the cart from behind".  Meaning if you pushing white on from behind like with 6/7, 8/9.  You are just encourging white to take the lead.

*: Shape move is 13,17 (R7).];W[jp]C[*: White should HANE 10,16 (Q10) to get off the 3rd line.]
;B[oo]C[*: Your scared white is going to take the entire bottom?  If so why help him?  You are asking for P4 onces white has few more stones there it will make it really hard to invade. 

*: If you are worry about the safty of your group start with 13,17 (R7) as it is the Eye shape point.]
;W[qn]
(;B[po]C[*: ................ What is this?  Common you have to fight #12, i would recommend 15,17 (R5). Please look at both examples.]
;W[qo];B[op];W[pq];B[oq];W[pr];B[or]C[*: You just finish playing 4 moves with ZERO VALUE!!!!!!

*: Your are making a great wall that has been neturalized by 16,10 (K4) before it came into existance.

*: Second comment moves like #19 - 18,15 (P2) are called End-Game moves, you playing that doesn't get you anything doesn't hurt white at all, he can take the sente and even hurt your wall more with 10,16 (Q10) now.]
;W[qp]C[*: No need.];B[qj]C[*: GOOD! Stop white.];W[rk]MA[qk]
[ql]C[*: GAH! Enough with the empty triangles, (X) this is refered to as empty triangle.  The only good move here is 10,18 (S10).]
;B[rj];W[jj];B[sk]C[*: And this will accomplish what?  This is called early x-mas present.  And since X-mas already passed we'll call it early birthday present.  White wants to defefend his weakness at 13,17 (R7) why help him do it?  What did you expect he will answer at 12,19 (T8) so you can take advantage of him?

*: You got to play the best possible move on the board and not the one that looks easy.]
;W[qm];B[lr]C[*: What the heck?  this doesn't even give you a base, missclick maybe?  I think 17,12 (M3) is the base move here not that you need it yet.

*: Better move 3,15 (C6) stop white from making a huge moyo.]
;W[mg]C[*: ???? Meaning less?  Maybe trying to threaten 10,16 (Q10).   If white is going to threaten a cut like that, might as well CUT!!]
;B[pg];W[nc];B[nd]C[*: Right idea, but wrong move.  Needs to be 15,5 (O15).]
;W[mc];B[md]C[*: Again pushing the cart from behind, you are felling behind fast here.]
;W[kc];B[kd];W[kb]C[*: Why???? What does this do, why not 10,3 (K17).  Why not take few more free points, or start a fight at 12,4 (M16).  This move is really a bad use of a stone, not wasted, but the most inefficeint use of the stone.]
;B[id];W[gc]C[*: ?????];B[ib]C[*: GOOD!];W[cc]
(;B[ce]C[*: Whats with angle moves?  Only right move here is 4,3 (D17). Please look at example.]
;W[dc];B[fd];W[fc];B[ec];W[eb];B[ed];W[pb]
(;B[hc]C[*: Nice idea, but wrong direct of attack, you want to attack in a such a way that it helps you not hinders you.

*: By playing that you are asking to be split at 4,8 (G16). Please look at example.]
;W[gd]C[*: KAB000M!];B[ge]
(;W[gb]C[*: What the who?  If white played 4,7 (G16), why he didn't follow through with it, next move should be 5,15 (H15). Please look at example.]
;B[hd]C[*: right idea, but spot.  5,8 (H15) is the proper move.]
;W[hb];B[ha];W[qf]C[*: Slight Overplay.];B[pf];W[qd];B[qc]C[*: Good :).]
;W[rd];B[pc];W[rc];B[ob];W[ga];B[ia];W[jd]C[*: Oopps ... i guess that is a bit annoying to the right hand group but.  6,1 (F19) is more dangerous.  Please look at example.]

(;B[jc]C[*: ohh silly mistake 6,1 (F19) is where the game is at.]
;W[ld];B[je];W[le]
(;B[ke]C[*: uhhh? What is that for?  your group on the inside is weak if you are going to do anything make a shape move at 14,6 (O14). Please look at example.]
;W[oc]C[*: That hurts, a bit .. now if you placed #71 at 14,6 (O14) you wouldn't have to work soo much. Please look at example.]

(;B[od]TR[la][lb][mb][ma][na][nb][ob][oa][pa][qa][ra][rb][sb]
[sa]C[*: I know it's tempting to save the heavier group, 2 stones worth more then 1 stone right?  But in this case that one stone on the top is worth alot more then the 2 stones you just saved.

*: You playing this (assuming white does the correct move at 17,2 (R18)..

You saved 2 stones, and made zero points, and took away 4 points from white.  And on top gave white 15 points.  So you playing gave white 11 Points in total.

Now if you played 17,2 (R18) ...];W[qb]C[*: This hurts.  I see black won by resign, right now this game is in whites favor, so white must have made some serious mistakes.]
;B[nb];W[rb]C[*: Why?  If white is worried about the weakness at 18,2 (S18), why not eliminate it right away by taking out the cutting stones at 15,2 (P18)?]
;B[mb];W[lc];B[lf];W[kf]C[*:Over play, whites group is in trouble at 11,2 (L18).  White has to take care of the black cutting stones above first.  Blacks next move can kill the entire group.]

(;B[jf]C[*: ................................... Way off side. Please look at example.]
;W[me];B[kg];W[ne];B[mf]C[*: uhmm you just lost all your stones. Correct move was 15,6 (P14).]

(;W[qg]C[*: ?? 16,6 (Q15) Please look at example. White's first Big mistake, worth 30 points.]
;B[nf]C[*: White gets a safty, wrong direction.  HAS TO BE 15,6 (P14) or 16,5 (Q15).]
;W[oe]C[*: White misses the safty... and gives black an early birthday present.]
;B[pe]C[*: Second 30 point mistake by white.];W[of];B[og]
(;W[qe]C[*: Why? Doesn't do any thing, another mistake.  Gave black free move. To kill him :(, correct move is 12,2 (M18).

*: Might the game losing move.];B[ng]C[*: Very Good.];W[na]
C[*: It's too late.];B[lb];W[jb]C[*: Fishing.];B[ka]C[*: Game move, worth 40 points.]
;W[dj];B[kj];W[oi]C[*: My teacher always told me if you are going to threaten a cut .. CUT directly.]
;B[pi];W[qh];B[ph];W[lj];B[ki];W[gg]C[*: White has lost all hope and is playing random in hopes black will make mistake.  I'll continue but will only point out major blunders ...]
;B[kk];W[cf];B[df];W[cg];B[dg];W[ch];B[dh];W[ci];B[di];W[be]
;B[ej];W[dk];B[el];W[ek];B[fk];W[ei];B[fj];W[fi];B[dl];W[cj]
;B[bf]C[*: Doesn't work when you have a weakness];W[bd];B[cd]
;W[bg];B[bc];W[bb];B[ac];W[af];B[cb];W[db];B[ca];W[ba];B[oj]
;W[cl];B[dn];W[gn];B[en]MA[cm]C[*: Wrong shape. X is the right shape.]
;W[fp];B[co]C[*: Might as well go for 3,3 instead of just touching it.]
;W[mr];B[mq];W[cm];B[cp];W[il];B[dq];W[gf];B[gi];W[fe];B[he]
;W[fg];B[fh];W[ee];B[de];W[ji];B[jh];W[hi];B[hj];W[gh];B[eh]
;W[ih];B[ij];W[jk];B[hl];W[ii];B[jl];W[ik];B[im];W[hk];B[gj]
;W[fl];B[gm];W[gl];B[hm];W[gk];B[fm];W[kl];B[jm]MA[ec][ed][fd]
[dd][de][cd][ce][df][dg][dh][eh][fh][di][ej][fj][gj][hj][ij]
[gi][fk]C[*: Black is in lots of troulbe here with the marked group. Lets see if white attacks it properly]
;W[ig];B[ef]C[*: Mistake you are just taking away your own liberties, always attack from outside.]
;W[ff];B[hf]
(;W[jg]C[*: Mistake. after 5,6 (E14) Black killed his group. Please look at example.

*: Black should save that stone, should save his group.]
(;B[kh];W[fi];B[ei];W[if];B[hg];W[hh];B[lk]C[*: Overview ....

This was a very interseting game, even though I would normally say don't send games for review that you won.  In this game I think we have an expection because there are soo many coin flips in this game its any ones game.

Few things to consider:

1) You seriously need to consider shapes when making move decissions, right now there is no shape move in the game so it hurts the development of the game.  I recommend Shape Up! on GoBase.org or Making Good Sahpes by Bozulich.

2) Direct of play was wrong in few places, when attack attack from your strong groups towards strong groups.   If you have weak groups on the board first fix your weakness before going for your oponnents weakness.

3) You pretty much followed white around the board until white lost the top group, play your own game stop felling into someone elses rythm.

4) Walls are strong attacking bases, but they are useless if they are counter stones in place like on the bootm.

I hope this review helps, feel free to mail me if you any questions.]
)
(;B[hg]C[*: Black to kill.]
(;W[kh];B[hh]C[*: White dies.  White has no where to run for the other part so it will die.]
)
(;W[hh];B[kh];W[fi];B[ei];W[eg];B[if]C[*: White dies.])))
(;W[fi]C[*: White to kill.];B[ei];W[eg];B[hg];W[fi]C[*: .... Some what evens the game....]
))
(;W[lb];B[ng];W[ma]C[*: Whites stone don't die now.]))
(;W[pe];B[oe];W[of]C[*: Kab00m!]))
(;B[me]
(;W[lb];B[jb];W[oa];B[ka]C[*: Whites dead.])
(;W[mf]C[*: This is a bit tricky but it doesn't work.];B[lg]
;W[lh];B[kg];W[jf]
(;B[if]C[*: Important, pushing from 10,7 (K13) will cause problems.]
;W[jg];B[kh]
(;W[jh];B[ki]C[*: Blacks out. White is in trouble.];W[lb];B[jb]
;W[oa];B[ka]C[*: White dies.])
(;W[ki];B[jh];W[ig];B[mh];W[li];B[ng]C[*: White dies.]))
(;B[jg];W[if]
(;B[ie]C[*: Mistake.];W[ig];B[kh];W[ki]C[*: Black dies.])
(;B[ig]C[*: White doesn't have a hope.  This way does work but there are few risky areas that if you slip you'll fall hard.]

(;W[ie];B[jd];W[he];B[hf]C[*: Whtie dies.])
(;W[hf];B[he];W[ie];B[jd];W[fe];B[ff];W[jb];B[ic];W[gf];B[ee]
;W[ja];B[fe];W[lb];B[la]C[*: White dies.]))))))
(;B[qb];W[od];B[pe]TR[nd][md][me][sb][mb][lb][lc]MA[pb]C[*: Now .. lets count.

White got 5 points (triangle, stones worth 2 points)+4 points on top (total of 9 points).

Black got 2 points.

Therefore this move gave white net 7 points.  

From the alternative this move 4 points better then the other route. 

And the added benfit of taking even more away on the top, your group almost being 100% alive, and whites group is looking a bit shaddy what more can you ask for?]
))
(;B[nf]
(;W[kg];B[rg]C[*: You are alive, whites group on the top corner on the other hand is a bit lost.  Ohh and you still got 6,1 (F19).]
)
(;W[oc]C[*: White answeres like in the game.];B[qb];W[od];B[oe]
C[*: Note how the Shape move at 14,6 (O14) Comes to your aid here.]
)))
(;B[fa];W[fb];B[db];W[ea];B[da];W[cb];B[fa]C[*: KOMPPAI! White Resigns :)]
))
(;W[he]C[*: If black wants to play Chicken.]
(;B[hd];W[ie];B[fb];W[gb];B[db];W[fa];B[cb];W[jd]TR[fb][ga]
[ha][hb][ia][ja][jb][jc][ic][ib][hc][hd][id]MA[cd][bd][ad][ac]
[bc][bb][ab][aa][ba][ca][cc][dc]C[*: So who won the chicken race?  Lets count...

Black got: 14
White Got: 17

Looks like black lost the chicken race by a bit :(.

Lets continue.])
(;B[gf];W[hd];B[gb];W[fb];B[jc]C[*: Proper.])))
(;B[gd];W[hc];B[ic];W[hd];B[he]C[*: Better now you are in control.  Correct move for white as follows ..]

(;W[ga];B[ie];W[cn]C[*: I am not happy about the wall but its better then letting white cut you.]
)
(;W[ie]C[*:White tries to be greedy.];B[hb];W[fb];B[je];W[if]
;B[hf];W[ig];B[hg];W[ih];B[kg];W[ki];B[bd];W[bc];B[bb];W[cb]
;B[ac];W[da];B[gb];W[fa];B[dj]C[*: White is left with nothing, and you get two solid groups. And start building a good moyo of your own.]
)))
(;B[dc];W[cd];B[ce];W[be];B[cf];W[db];B[eb];W[cb];B[fc];W[bf]
;B[cg];W[cn];B[hq]C[*: Now fun starts.]))
(;B[qo];W[po];B[qm];W[on];B[rn]C[*: White has a choice now, corner or outside.]
;W[qp]C[*: White wants corner.];B[op];W[oq];B[nq];W[or];B[nr]
;W[qr];B[rp]
(;W[rq];B[pq];W[qq];B[os];W[pr];B[mo]C[*: Black gets outside, white gets inside the moves are pretty much forced if white tries something funny (as seen in other paths white pays heavey price).]
)
(;W[np];B[no];W[mp];B[os]
(;W[rq];B[pq];W[qq];B[pr]C[*: White Dies.])
(;W[ps];B[pq];W[pr];B[qq]C[*: Losing the meeing beside the orginal move, white took outside, black takes corner.]
)
(;W[pr]C[*: Greedy.];B[qq];W[pq];B[rr];W[rq];B[qs];W[sr];B[rs]
MA[ps]C[*: Can't play 19,16 (Q1) shortage of liberties.];W[mq]
;B[ps];W[mr];B[qq]C[*: White Dies.]))))
(;B[rn]C[*: Splitting attack, usually shows up in 3,4 Joseki, but is nice attack here because it threats to split 13,17 (R8) off from the bottom stone and take up the entire right side of the board.]
;W[np]C[*: Flow of the game ...];B[qj]C[*: Black attacks the only white stone left there.]
;W[ol]C[*: White defends and attacks black's two stones.];B[nn]
C[*: Black doesn't want to be enclosed because that might mean death, so black runs.]
;W[oj]C[*: White tries to start another attack and avoid running battle this early in the game.]
;B[qq]C[*: Black takes safety of his bigger group first and makes a life in corner.

*: Next few moves are very important as they teach an important lesson as to Sente/Gote, Small/Big Moves.]
;W[qp];B[rp]
(;W[pq]C[*: Ask your self why doesn't white play 15,17 (R5)?  Or 17,18 (S3)?  Look at the different paths.  17,16 (Q3) is the best move here.]
;B[rr];W[qr];B[rq];W[qi]C[*: Black Tenuki's because he has taken the corner, and 10, 17 (R10) still has AJI leftover to be used later.  His happy with this leave.

*: Key move, note white doesn't play 18,17 (Q2) because it would be GOTE.  And only save one stone so this early in the game its not worth running after 1 point, when you can make  50 points else where.]
)
(;W[qo];B[qn];W[ro];B[so];W[rq];B[sp];W[qr];B[rl];W[rm];B[rk]
;W[qm];B[sm]C[*: Whites group is all by it self, like before but this time blacks groups are all linked together, and are stronger then they were before on right.]
)
(;W[rq];B[rr];W[ro];B[sq];W[qo];B[nr];W[qn];B[ph];W[qi];B[pi]
;W[pj];B[rj]C[*: White did get some points on the side total of 5, but has lost over 30 points because he was being too greedy and attacking from the wrong side.]
)))
