(;FF[4]GM[1]SZ[19]ST[2]CA[UTF-8]AP[SGFC:1.15]

PB[tora55]
BR[6k]
PW[mlgo]
WR[5k]
KM[0.5]
DT[2007-12-23]
PC[IGS-PandaNet]
RE[B+Resign]
TM[0]
OT[25/600 Canadian]
RU[Japanese]

C[Hi, this is a game i played as a 5K on IGS, i've made some stupid mistakes, but i think that my problems on the big picture cost me.. please give me some advice on my play. thx.]
;B[pd];W[dp];B[qp];W[dd];B[oq];W[qj];B[fd];W[df];B[dc];W[cc]
;B[ec];W[cb];B[qi];W[pj]LB[qh:B][ri:A]C[Which is bigger, this white move, or A or B ?  I don't really know, but it's worth studying.  One thing that comes to mind is that if white plays A and black answers at B, then white can still play the circled stone.]
;B[pi]C[Now if white plays A, black can answer with a block, which he couldn't do if white played A right away.]
;W[oi];B[pg]C[What if black cuts right away ?  It looks promising.]
;W[qn];B[ri]LB[jc:A]C[If black is going to take gote, which is bigger , the played stone or A ?]
;W[hd]C[i think it was a mistake to invade the strong black surroundings.

This move looks ok to me since white is strong on the left.  The time to avoid this kind of move is in situations where when black runs to the center white is split into two weak groups.

But that is not the case here since white has a strong group on the left.

For black's point of view, he probably should have made a stablizing extension here as soon as white played the 2-2 point.]
;B[hc];W[ic];B[gc];W[id];B[ef];W[dg]LB[ee:C][fe:F][ef:A][dg:B]
[eg:D][dh:E]C[this exchange of A and B seems to give white profit without giving black much.


Also, what about white C instead of B ?  If black blocks at F, white can atari at D and if black answers, white can make lots of profit with E.]
;B[eg];W[nc]LB[mc:C][ef:A][eg:B]C[
Instead of A and B on left, how about if black had played C ?]
;B[oj]LB[qn:A]C[
This cut isn't as powerful now as before, since which has already played A so white can make a viable position here, and not worry about the single cut off stone.

Before, white would have been split into two groups.];W[ni]
;B[nj]LB[ok:A]C[black has 3 liberties.  I'm wondering, if black plays A instead, he has more liberties and will be attacking white more severely.]
;W[mj];B[mk];W[mi];B[lk];W[pl];B[ol];W[om];B[nl];W[op];B[pp]
LB[nq:A]C[Which is better, the played stone or A ?];W[oo];B[me]
LB[nq:A]C[
What about A instead of this move ?  GIves black profit and attacks white simultaneously.]
;W[ld];B[kf]C[already one of my pieces are in danger..];W[nf]
;B[mf];W[og];B[pf];W[ne];B[md];W[mc];B[nd];W[mg];B[oc]LB[nf:B]
[ki:A][nq:C]C[After blacks played stone, white still has to jump out such as to A, so how about playing A immediately, before B since it attacks black's middle stones.

Of course, white C is so huge too, since it both attacks black's corner and helps white's stones.]
;W[kg];B[jf];W[ji];B[ge]LB[nq:A]C[
A still seems bigger than this black move.];W[le];B[lf]C[
White is using up liberties without gaining anything.];W[ib]
C[
INstead of using up liberties how about playing this move immediately ?]
;B[lc]C[
If the liberty weren't used up, white could answer this attack more effectively.]
;W[lb];B[kc];W[kb];B[kd];W[ob];B[pb];W[nb]C[too bad white ended in gote here.  that costs points]
;B[hb]C[is this sente or is white already alive ?];W[mm];B[ma]
;W[la];B[jk];W[kj];B[kk];W[hi];B[dh];W[ch];B[ci];W[eh]LB[bh:B]
[di:A]C[
Wfich works better, this atari or atari at A, assuming white will play B next anyway ?]
;B[di];W[bh];B[bi];W[cg]LB[bf:A]C[
Maybe A is better for preventing what happened later in the game.]
;B[fh];W[hk]LB[gj:A]C[Maybe A instead for white avoids being cut.]
;B[ij];W[ii];B[hj];W[gj];B[gi];W[jj];B[ik];W[hg];B[hf]LB[jg:A]
C[
How does A work out for black instead of the circled stone ?]
;W[jg];B[lh]LB[lg:A]C[Which is better, A or the circled stone ? (by the way, when I ask these questions, I don't always have an answer !  It requires some reading.)]
;W[lg];B[ig];W[ih];B[if]LB[ie:B][kh:A]C[
If black plays A instead of where he played, and white captures and black ataris at B, what is the status of the white group ?]
;W[kh];B[hl]LB[cm:A][kn:B][nq:C]C[im at a pretty big disadvantage because of that careless move..

This black move looks small.  Sure, black wants to strengthen the middle group.  But this doesn't attack much.    If white answers at A for example, black doesn't get much.  

Maybe B instead, which strengthens black and prepares to attack the white stones on the right.  

Or maybe C  is even better because it makes profit for black and also starts to attack the white stones.]
;W[cn];B[fq]LB[nq:A]C[
I still like A better. If A and the played move both make profit for black, A looks better because besides making profit, it attacks white.

Notice if white plays A white is almost completely alive and black corner getting smaller.]
;W[hq];B[cq];W[dq];B[bp];W[cp];B[br];W[cr];B[bq];W[dr];B[bo]
LB[bn:A]C[
Is black A better than the played move ?];W[bn];B[bs]LB[co:A]
C[If the played move doesn't make 2 eyes, is A better for black ?  Not sure, it's worth studying.]
;W[ao];B[ap]LB[co:A]C[Again, if the played move only makes one eye, is A better for black ?]
;W[ar];B[co];W[do];B[an]LB[dn:A]C[
How about cutting at A instead of the played move ?  Not sure though...]
;W[bl];B[dn];W[en];B[dm];W[cl];B[dl];W[ak];B[cm];W[bm];B[aj]
;W[dk];B[el];W[ek];B[fl];W[bj];B[ai];W[cj];B[dj];W[am];B[ck]
;W[bk];B[fk];W[cs];B[ej];W[aq];B[as];W[aq];B[nq];W[kq];B[ck]
;W[dk]C[managed to kill the corner to gain back a bit of what i lost.]
;B[eo];W[fp];B[gp];W[ep]C[i think this was the losing move..]
;B[gq];W[go];B[hp];W[ho];B[ip];W[io];B[jp];W[jo];B[kp];W[lp]
;B[ko];W[lo];B[mq];W[lq];B[km];W[kn];B[ln];W[jn];B[mn];W[mo]
;B[nn];W[no];B[on];W[po];B[jr];W[kr];B[hr];W[iq];B[jq];W[fr]
;B[gr];W[fs];B[gs];W[eq];B[is]LB[fn:B][es:A]C[Instead of this move, what if black plays A ?  Then, if white plays where black just played, black can make a seki.  If white answers black A and black next plays B, then what happens ?]
;W[fn];B[ro];W[rn];B[rk];W[rl];B[qk];W[sn];B[qo];W[pn];B[ql]
;W[sl];B[rq]LB[mr:A]C[instead of this move, what about black A ?]
;W[mr];B[ls]LB[nr:A]C[Instead of this black, how about A?      Is white definitely alive that way ?]
;W[ks];B[nr];W[ms];B[qm];W[rm];B[pm]LB[ns:A]C[If black is willing to take gote here, how about first playing A for extra points ?]
;W[so];B[sp];W[qc];B[pc];W[qe];B[qd];W[ph];B[qh];W[pe];B[oe]
;W[of];B[od];W[oh];B[re];W[pa];B[qa];W[oa];B[qb];W[sk];B[sj]
;W[gg];B[bf];W[ce];B[ah];W[ag];B[bg];W[be];B[af];W[ae];B[db]
;W[da];B[ea];W[ca];B[ee];W[gh];B[fi];W[hm];B[jm];W[im];B[il]
LB[bc:B][de:A]C[If black is willing to take gote, then instead of this move, how about  A ?  Which is better ?  Is A really gote ?  After which ataris the 3 stones and black connects , if white does nothing more in the corner, can black do anything ?   Would B lead to a seki or a ko ?]
;W[de];B[ia];W[ja];B[ha];W[ff];B[fg];W[gf];B[fe];W[hh];B[lj]
;W[li];B[gm];W[gn];B[fm];W[ao]C[If black wins this ko, he can't fill, nor can he atari white on the next move.  So maybe black shouldn't fight this ko yet.]
;B[ns];W[lr];B[an];W[pq];B[pr];W[ao];B[jd];W[ar];B[ie];W[fb]
;B[eb];W[ed];B[fc];W[cf];B[ag];W[tt];B[ek];W[ck];B[he];W[tt]
;B[jb]C[Does this give away a point ?];W[jc];B[gd];W[jb];B[bc]
;W[bb];B[ad];W[cd];B[ab];W[tt]C[


What's the status now ?   What if black fills ?];B[tt];W[tt]
C[the last move probably made all of my pieces weaker.. in the end it cost me the pieces on the right side.
thx for looking at my game, and do not hesitate to point out any further improvements on my openings, thx.]
)
