(;FF[4]GM[1]SZ[19]ST[2]CA[UTF-8]AP[SGFC:1.15]

PB[miky]
BR[19k]
PW[Hvatberinn]
WR[18k]
KM[0.5]
DT[2008-01-03]
PC[The KGS Go Server at http://www.gokgs.com/]
RE[B+15.50]
TM[1800]
OT[5x30 byo-yomi]
RU[Japanese]

C[Hello, I write in what I think several times in the game and thanks and stuff like that comes in the end.

Just so you know what I would like the most out of this review from the wonderful person that does it
is to find out moves so I can get center influence

[SC\] Hello! This is my first review: I hope it is of some use to you.

Below is a site which you should find useful (free signup).  It contains problems of many type (eg life and death, endgame) which you should benefit from.

www.goproblems.com];B[pp];W[qd];B[dp];W[dd];B[jn]LB[dn:A]C[[SC\] This is a strange move from black.  Here he is aiming to gain influence whilst taking the bottom.

The best way to deal with this move would be playing at A, which reduces some of blacks influence.

See variation for the high approach.]
(;W[cn];B[dn]TR[jn]C[Here I get an approach I'm not used, I've read about how to deal with it but there I don't know if I did it right

[SC\] This move works very well with the marked stone.  White will now find it hard to contest blacks influence at the bottom.]
;W[dm]C[[SC\] Correct move, despite the advantage black gains.]

(;B[do]
(;W[dj]LB[cl:A]C[Playing at A would be a more solid move  - white will not need to worry about the cut. However D10 is also good as it aims to make a moyo quickly.

See variations];B[fm];W[oc]LB[kc:A]C[[SC\] Indeed, this is the right time to develop the top.  (Personally I would play A, but making a corner enclosure is also good).]
;B[hj]C[[SC\] Poor move in my opinion.  Doesn't work efficiently enough with his other stones.]

(;W[qn]LB[pn:A]C[[SC\] Again, playing at A is the optimal move.    As a general rule, playing on the 4th line avoids being confined to the sides, and allows white to contest the center.]
;B[pn]C[[SC\] Black is happy to push white into a low position again.]
;W[pm];B[po];W[pj];B[om]TR[jn]C[[SC\] The marked stone is working very efficiently now.]
;W[pl];B[ol]LB[ic:C][fd:B][id:D][df:A]C[[SC\] White's stones are strong enough here to leave them - developing the top is more urgent.]

(;W[ok];B[nk]LB[nj:A]C[See variations.]
(;W[qo];B[oj]C[Black reduces whites territory, while increasing his own.]
;W[pk];B[qp];W[oi];B[nj]LB[ic:C][fd:B][id:D][df:A]C[Here white should be looking to expand his moyo at the top]

(;W[cp]LB[co:A]C[[SC\] Black failed to punish this move.  It is much safer to push with A.  See variations.]

(;B[cq];W[co];B[ni]LB[oh:A]C[Playing A is better, as it doesn't allow black to play a forcing move.]
;W[ph];B[oh];W[pi];B[ek];W[dk]C[[SC\] A necessary move.];B[ej]
;W[ei]C[[SC\] This is good, taking profit on the left...];B[fi]
;W[eh];B[dl];W[cl];B[el];W[em]LB[fc:C][ic:A][fd:B]C[This is a gote move, and worth little, so best saved for the endgame.  It would be much better to take the top edge.]
;B[en];W[cm];B[fg]LB[fh:A]C[[SC\] This is an overplay.  White can push with A and black ends up in a bad situation.]

(;W[ff];B[fh];W[eg];B[gf]
(;W[ge]LB[fe:A]C[[SC\] Better at A in my opinion];B[fe];W[ef]
;B[he];W[gd];B[hd]LB[hf:1]C[Now he has almost dominated the center and I did not know how to handle it, in almost every game I play
 I have the corner and my opponent has the center, this is the first time I lose that way though.

[SC\] Black has a weak point at 1.  White should exploit this.  See variation.]

(;W[fd];B[dc];W[ec];B[eb];W[db];B[cc]LB[cb:A]C[Here he is playing some bad moves if you ask me

[SC\] I'm afraid after your next move black could have lived! Fortunately he didnt spot it ;)

Next move should have been A.  See variations.]
(;W[fb]C[[SC\] Black could have lived here.  See variation.]

(;B[hc];W[cd]C[This move is very necessary];B[nd]C[[SC\] Very bad for white, he is being fenced in.]
;W[mc];B[md];W[ld];B[le];W[kd]C[Trying to reduce his center influence...]
;B[ke];W[jc]LB[jd:A]C[[SC\] A pushes more into blacks territory.]
;B[jd]C[Not really working];W[nc];B[pf]LB[og:A]C[[SC\] White has the forcing move of A

See variation]
(;W[qf];B[pe];W[qe];B[pd];W[pc];B[od];W[og];B[nh];W[ng]C[This move was a mistake, he cold have closed me off on q13 I think

[SC\] Correct!  This will be my last comment in the game, apart from the very last move, where I've included a small general summary.]
;B[mg];W[pg];B[nf];W[of];B[me];W[id];B[je];W[ic];B[ie];W[bq]
C[Here comes my big mistaked in a couple of moves..];B[dq];W[cr]
;B[dr];W[cs];B[ds]C[I was concentrating to much on the breakthrough at h17]
;W[hb];B[br];W[ar];B[bs];W[gc];B[bp];W[ap];B[aq];W[ao];B[as]
;W[bo];B[bq]C[And this, I think, lost the game for me.];W[so]
C[Trying some cheap method to get as much territory as possible]
;B[rp];W[sp];B[sq];W[ro];B[hg];W[rq];B[qq];W[sr];B[rr];W[sq]
;B[qr];W[rs];B[qs];W[ss];B[qm];W[rm];B[oe];W[tt]C[I passed here, thinking I had more territory and didn't bother to make a base and invade at the lower center

[SC\] Yes it would be almost hopeless now to invade the bottom.  Better to try when there is some hope of escaping to the centre.]
;B[ql]C[He makes a bad move..];W[qk];B[tt];W[tt]TW[aa][ba][ca]
[da][ea][fa][ga][ha][ia][ja][ka][la][ma][na][oa][pa][qa][ra]
[sa][ab][bb][cb][eb][gb][ib][jb][kb][lb][mb][nb][ob][pb][qb]
[rb][sb][ac][bc][cc][dc][fc][kc][lc][qc][rc][sc][ad][bd][ed]
[rd][sd][ae][be][ce][de][ee][fe][re][se][af][bf][cf][df][rf]
[sf][ag][bg][cg][dg][qg][rg][sg][ah][bh][ch][dh][qh][rh][sh]
[ai][bi][ci][di][qi][ri][si][aj][bj][cj][qj][rj][sj][ak][bk]
[ck][rk][sk][al][bl][ql][rl][sl][am][bm][qm][sm][an][bn][rn]
[sn]TB[ne][hf][if][jf][kf][lf][mf][gg][ig][jg][kg][lg][gh][hh]
[ih][jh][kh][lh][mh][gi][hi][ii][ji][ki][li][mi][fj][gj][ij]
[jj][kj][lj][mj][fk][gk][hk][ik][jk][kk][lk][mk][fl][gl][hl]
[il][jl][kl][ll][ml][nl][gm][hm][im][jm][km][lm][mm][nm][fn]
[gn][hn][in][kn][ln][mn][nn][on][eo][fo][go][ho][io][jo][ko]
[lo][mo][no][oo][ep][fp][gp][hp][ip][jp][kp][lp][mp][np][op]
[eq][fq][gq][hq][iq][jq][kq][lq][mq][nq][oq][pq][ar][cr][er]
[fr][gr][hr][ir][jr][kr][lr][mr][nr][or][pr][cs][es][fs][gs]
[hs][is][js][ks][ls][ms][ns][os][ps]C[And game over, I am not satisfied with my preformance in this game and would very much like to  know
 if there were any places where I went terribly wrong..

Thanks in advance, Hvatberinn, one of few Icelandic go players

Only 3 weeks of experience though...

[SC\] Generally in a game of go, you start by taking the corners, then expanding down the sides, and finally taking the center.  This is because it needs more moves to take territory in the center.

This game was unusual in that black was aiming to take the center from the beginning.  Whites main problem was that he was also concerned about the center when there were many bigger moves available.

Before you play a move, first check how much your move is worth, and whether there are any bigger moves.  This way you are playing in the most efficient way possible.

Other than that, well done - you play well for someone with only 3 weeks of experience!]
)
(;W[og];B[nh];W[of]TR[pf]C[The black stone will inevitably be caught]
))
(;B[cb];W[ea];B[cd]
(;W[de];B[ce];W[cf];B[bf];W[cg];B[bg];W[bh])
(;W[ce];B[de];W[ed];B[be];W[cf];B[bf];W[cg];B[bg];W[bh];B[ad]
)))
(;W[cb];B[cd];W[de];B[fb];W[bc];B[gc]TR[eb][fb]C[escaping with the marked stones is the best black can do]
))
(;W[hf];B[gg];W[gc]TR[hf]C[Black must take care of the marked stone, and so white can play here in sente.]

(;B[if];W[kd]C[White takes territory at the bottom whilst threatening to jump into blacks territory.]
)
(;B[cc]C[Suppose black ignores the threat...];W[if]TR[hd][he]
C[The marked stones are now in trouble])))
(;W[fe]C[[SC\] By playing here, white keeps sente.];B[ge];W[kd]
C[[SC\] This move acheives two things:

1 - takes territory at the top
2 - threatens to jump into blacks territory

Always look for moves that do more than one thing at once.]
))
(;W[fh];B[gh];W[fj]TR[ej][ek][dl][el]SQ[fg][gh][fi]C[Black must decide which stones he will lose.]

(;B[gi];W[fl]TR[ej][ek][dl][el]C[The marked stones are caught!]
;B[gl];W[gk]C[This is a tesuji, known as a snapback];B[fk];W[fl]
;B[hl])
(;B[fk];W[gi];B[gj];W[hh];B[fi];W[gg]C[Top left looks nice for black.]
)))
(;B[co]
(;W[bo];B[cq]
(;W[bp];B[cm]TR[dm][cn][bo][bp][cp]C[The marked stones are in trouble.]
)
(;W[bm]))
(;W[bn];B[bo])
(;W[cq];B[dq];W[bo];B[bn]TR[dm][cn][bo][cp][cq]C[The marked stones are in trouble]
)))
(;W[co]C[This is a safer approach than C4];B[cp])
(;W[ic]C[[SC\] I'd say the situation is more or less even here.  White has territory on the right and at the top, and is looking to take some more on the left.]
))
(;W[nj]C[The forcing move should be played.  Black won't want to give up his territory in the middle.]

(;B[mk];W[mj]LB[jc:B][jd:A]C[The top right looks nice for white - if black lets him, white can play A or B to great effect.]
)
(;B[qo]C[Supposing he plays here..];W[mk]C[Not good for black.  White will enjoying invading his territory]
)))
(;W[ic];B[ok];W[pk];B[oj];W[oi];B[ni];W[oh]C[This looks good for white.  He now has almost taken the whole top edge, most of the right, and now he will look to take the left (Blacks next move would be to invade the left side which is not yet territory.)]
))
(;W[pn];B[np];W[pj]))
(;W[cl]
(;B[fm];W[em];B[en];W[fl];B[gm];W[dh])
(;B[em];W[el];B[fm];W[fl];B[gl];W[gk];B[hl];W[dh])))
(;B[en]C[This is the standard joseki];W[co];B[cp];W[cl]))
(;W[dn]C[A high approach here is appropriate - black cannot push white into a low position.]
;B[fp]TR[jn]C[Compare this to the actual game.  The marked stone is working less efficiently because white took the high approach.]
;W[dj]LB[jp:A][jq:B]TR[jn]C[The marked stone is high (should be at A or B), so white might want to consider an invasion at the bottom depending how the game progresses.]
))
