(;FF[4]GM[1]SZ[19]ST[2]CA[UTF-8]AP[SGFC:1.15]

PB[Satv]
BR[19k]
HA[4]
PW[mindfull]
WR[15k]
KM[0.5]
DT[2008-01-09]
PC[The KGS Go Server at http://www.gokgs.com/]
RE[B+Resign]
TM[1200]
OT[5x60 byo-yomi]
RU[Japanese]

AB[dd][pd][dp][pp]C[Game reviewed for black only.];W[jq]C[Satv [19k\]: Hello]
;B[fq];W[kq];B[nq];W[iq];B[jj]C[Black 6 might be better as a side extension from one of the bottom corners to Q10 or D10, but the move in the center is not bad]
;W[mq];B[pm];W[lq];B[hr];W[jc];B[jd]C[Black does not necessarily nedd to respond to White's move at K17. However, Black 12 would be better at H17 or M17 rather than the contact play at K16.]
;W[kc];B[md];W[lc];B[mc];W[ic];B[gc]C[The sequence up to black 18 leaves black with a very strong position and white with two weak groups.]
;W[id]
(;B[kd]C[Black should try to profit from White's weak position, rather than kill outright. L16 doesn't really do either. A move at G15 or N14 would strengthen Black's position while White flounders for a foothold (see possible variations).]
;W[ie];B[ld];W[hc];B[he]C[Black 24 doesn't do much. G16 might be better.]
;W[if];B[fe];W[gb];B[ig]C[Black 28 doesn't do much either. I like a corner encloser at Q14 or a side extension at around D11 better.]
;W[fc];B[gd]C[In this case, saving one stone is not that important. I might protect the corner at D17.]
;W[jf];B[fd];W[ec];B[dc];W[db];B[cb];W[eb];B[ca]C[This is small and white does not have to respond. A side extension on the left side would be bigger.]
;W[da]
(;B[ed]C[This move is not sente and there is really no threat from white playing here.]
;W[ib];B[lb];W[mb];B[nb];W[kb];B[ma];W[ka];B[la]C[Black 48 is small, and White does not have to respond.]
;W[ja];B[fg]C[This is contrary to the Go proverb: "don't play close to thickness". A side extension near D10 is more efficient.]
;W[hf];B[hd]C[White's move at H14 does nto need to be responded to.]
;W[hb];B[gf];W[hg];B[ii];W[ih];B[jg];W[kg];B[jh];W[hh];B[kh]
;W[lg]C[White can be cut at L14 (see variation).]
(;B[lh];W[mh];B[mi];W[nh];B[ni];W[oi];B[oj];W[pi];B[pj];W[qj]
;B[qk];W[qh];B[pg]C[R14 is better];W[qg];B[qf];W[qe];B[of];W[rf]
;B[pf];W[qd];B[re];W[rd];B[qc];W[rc];B[rb]C[R18 is better.]
;W[pe];B[oe];W[pc];B[od];W[qb]
(;B[pb]C[This move helps White make corner territory (see variation).]
;W[ob];B[oc];W[pa]
(;B[nc]C[This move is unnecessary. White can be cut at P12 (see variations).]
;W[se];B[gj];W[rk];B[ql];W[ri]
(;B[ng]C[This move helps White repair the cut at P12 (see possible variations).]
;W[mg];B[nf];W[mf];B[me]C[Black needs to watch out for the threat of a ko at O19.]
;W[le];B[ke];W[lf];B[ne];W[oh];B[kf]C[Splitting White's two living groups is unnecessary. Black can be dragged into a ko for the life of his group if White plays at O19.]
;W[hi];B[hj]C[Protecting a cut at H10 is not necessarry. A play near the star point on the left side would be better.]
;W[cj];B[ei];W[ck];B[cn];W[cm];B[ci]C[Locally C12 is better. In general it is not useful to make contact plays agains a weak group.]
;W[ch]
(;B[di]C[Black should play at B11 instead (see variation). Connecting at D11 allows white to play at B11.]
;W[bi];B[bh]C[This is similar to Black 94 at Q18 in that it really only helps white make a stronger position.]
;W[bg];B[dh];W[ah];B[cg];W[bh];B[df]C[Locally C14 is better.]
;W[cf];B[dg];W[ce];B[cc];W[co];B[do];W[bn]
(;B[dn]C[Saving the stone at C6 is not important. C4 is probably better.]
;W[cp];B[cq];W[cr]
(;B[eq]C[A move at B3 threatens to catch the two white stones (see variations).]
;W[bq];B[dq];W[dr]C[Locally, white's invasion of the left side is a complete success, and black's group in the lower left has becime unwieldy. However, white's five stones on the bottom are not yet alive.]
;B[er];W[br];B[dl];W[cl];B[hq];W[ip];B[jn];W[dk];B[el];W[ek]
;B[fk];W[in];B[io];W[ho];B[jo];W[hp];B[gp];W[hn];B[im];W[hm]
;B[il];W[ko];B[km];W[jp];B[ln];W[lo];B[no];W[nr];B[or];W[oq]
;B[pq];W[np];B[op];W[nq];B[qr];W[os];B[pr];W[oo];B[po]C[White's move at P5 seems unreasonable, but Black's response would be better at N6.]
;W[on];B[nn];W[kn];B[jm];W[mn];B[lm];W[mm];B[nm];W[mo];B[ml]
;W[om];B[nl];W[ol];B[ok];W[nj];B[pl];W[fl];B[fm];W[gl];B[gm]
;W[gn];B[hl];W[fn];B[en];W[em];B[dm];W[fm];B[fo];W[go]
(;B[ir]C[(see variation)];W[jr];B[js];W[ks];B[is];W[es];B[fs]
;W[ds];B[bd]C[This is a big endgame play, but a move at S8 may be bigger (see variation)]

(;W[be];B[ae];W[af];B[ad];W[bk];B[ps];W[ns];B[ph];W[qi];B[rl]
;W[sk];B[sl];W[nk];B[pn];W[cd];B[bc];W[oa];B[na];W[lj];B[li]
;W[fh];B[gh];W[gi];B[gg];W[fi];B[fj];W[ej];B[dj];W[eh];B[eg]
;W[gr];B[gq];W[de];B[ee];W[je];B[bf];W[ag];B[bo];W[bp];B[mj]
C[the three White stones are already dead, better to play at G9]
;W[gk];B[hk]C[The game is essentially over at this pont. Black is ahead by at least 15 points.]

(;W[ao];B[tt];W[ro];B[rn];W[qo];B[rp];W[sn];B[sm];W[so];B[qn]
;W[rq];B[qp];W[sp];B[rr];W[tt];B[tt]TB[mb][ac][cd][nd][ge][cf]
[nj][pk][sn][fp][sp][sr][aa][ab][ba][bb][be][ce][de][ef][ff]
[ji][ki][kj][lj][ij][ik][jk][kk][lk][mk][nk][jl][kl][ll][qm]
[rm][ol][om][on][oo][qo][ro][so][eo][ep][qq][rq][sq][fr][gr]
[gs][hs][qs][rs][ss]TW[fb][jb][pb][qc][re][sf][si][bj][gm][bo]
[ea][fa][ga][ha][ia][qa][ra][sa][rb][sb][sc][sd][rg][rh][sg]
[sh][rj][sj][bl][bm][ai][aj][ak][al][am][an][kp][lp][mp][kr]
[lr][mr][ap][aq][ar][as][bs][cs][ls][ms])
(;W[tt];B[tt]TB[mb][ac][cd][nd][ge][cf][nj][pk][fp][aa][ab]
[ba][bb][be][ce][de][ef][ff][ji][ki][kj][lj][ij][ik][jk][kk]
[lk][mk][nk][jl][kl][ll][ol][om][on][oo][eo][ep][qm][qn][qo]
[qp][qq][rm][rn][ro][rp][rq][sm][sn][so][sp][sq][fr][gr][rr]
[sr][gs][hs][qs][rs][ss]TW[fb][jb][pb][qc][re][sf][si][bj][gm]
[bo][ea][fa][ga][ha][ia][qa][ra][sa][rb][sb][sc][sd][rg][rh]
[sg][sh][rj][sj][bl][bm][kp][lp][mp][kr][lr][mr][ai][aj][ak]
[al][am][an][ao][ap][aq][ar][as][bs][cs][ls][ms]))
(;W[sn];B[rn];W[sm];B[rm];W[rl];B[so];W[sl];B[ro];W[be]))
(;B[ks];W[ls];B[js];W[is];B[ir];W[jr];B[hs];W[kr];B[is]))
(;B[bq]
(;W[bp];B[ap];W[bo];B[dq])
(;W[dq];B[bo])))
(;B[cp];W[bo];B[bp]))
(;B[bi];W[di];B[dh];W[dj];B[cg]))
(;B[oh]
(;W[ph];B[ng];W[og];B[mg];W[oh];B[lf];W[kf];B[mf];W[ne];B[ke]
;W[me];B[na])
(;W[ng];B[ph];W[qi];B[nf];W[na];B[mf];W[mg];B[kf];W[ke];B[lf]
)))
(;B[oh]
(;W[mg];B[kf];W[ke];B[lf];W[le];B[mf];W[me];B[nf];W[je])
(;W[kf];B[mg];W[mf];B[ng])))
(;B[oc];W[ob];B[oa];W[pb];B[qa];W[sb];B[ra];W[qc];B[pa]))
(;B[kf];W[ke];B[lf];W[le];B[mf];W[me];B[ne];W[je];B[nf]))
(;B[dj];W[ed];B[ee];W[de];B[ce];W[df];B[cd];W[eg];B[gg]))
(;B[lb];W[kb];B[mb];W[hb];B[gb];W[je];B[kd];W[ke];B[ld];W[ih]
;B[dj])
(;B[mf];W[mb];B[nb];W[lb];B[hb];W[ib];B[ia];W[ja];B[ha];W[kb]
;B[cj]))
