(;FF[4]GM[1]SZ[19]ST[2]CA[UTF-8]AP[SGFC:1.15]

PB[ImposterLo]
BR[5k]
PW[blas]
WR[4k]
KM[0.5]
DT[2007-12-31]
PC[The KGS Go Server at http://www.gokgs.com/]
RE[W+4.50]
TM[1500]
OT[5x30 byo-yomi]
RU[Japanese]

;B[pp];W[dd];B[pd];W[dp];B[nq]
(;W[qj]C[I dont know if is better to play here or q10 or if its the same.

csh: It's not the same. Q10 is more of a reduction. Generally, if there is not enough space to expand on either side, then you would play a move like Q10 to create a light group that can reduce Black's territory, but still run away. See the variation.

Since there is room to make a two-space expansion on either side, R10 is a better move. The group will have a stable base and be harder to attack.]
;B[qm];W[qf]
(;B[qe]C[csh: Note that this is a bad move for Black. It strengthens the white group. See the variation.]
;W[pf];B[nd]C[csh: White ends up with a stable shape.];W[jc]
;B[cf]
(;W[df]C[csh: One thing to think about is possibly a different joseki here. Playing the attach-and-extend joseki solidifies the black group, making it harder to attack later. It also ends in gote. See the variation.]
;B[dg];W[ef];B[ce];W[cd];B[ci];W[jf]C[f17 seem too small. I also was thinking on k3.

csh: F17 (or F16) does seem small, but protecting the cut is bigger than it looks. The bigger moyo (framework) that you try to create ends up being useless if Black pushes through and cuts.

K3 is also a big move. 

One thing to note is that K14 and K17 do not relate together well. It's hard to connect the two stones together with one move, so you may end up playing an "extra" move later to fix weaknesses. In this aspect, K15 works better with K17.]
;B[bd]C[csh: This move was bad for Black. It actually forces White to fix some weaknesses.]
;W[bc];B[de];W[ee];B[ed];W[be];B[bf];W[ad]C[csh: White's corner group is now stable.]
;B[fd];W[eg];B[dh];W[gf]TR[ee][df][ef][eg]C[He´s in my territory and so I try not to touch him and let him make sabaki. I think is better to attack from the outside.

csh: Yes, I agree. It's also important to help the marked cutting stones.]
;B[dc];W[cc];B[db];W[cb];B[hc]
(;W[fb]
(;B[ec]C[csh: This move looks too passive.];W[ib];B[hf]
(;W[he]C[csh: Might be better to extend.];B[ge];W[if];B[ff]
;W[hg];B[fg];W[eh];B[fh];W[ei];B[fe];W[di];B[ch];W[cj];B[dj]
;W[ej];B[dk];W[gj]C[csh: Right direction, but the wedge can be a problem.]
;B[gi];W[hj];B[fj];W[ek];B[fk];W[el];B[fi];W[ck];B[bj];W[dl]

(;B[bk];W[bl]C[This for example is a big move, and I dont feel like letting it for the future, but I let him save his weak group, and maybe I take more profit attacking.

I think is better to play like I did because if he defend his group I can play another big move, and still his group will not be safe]

(;B[bh]C[Not necesary I think

csh: See variation.];W[jq]C[I prepare a future attack and make territory. I think this is better than just attack]
;B[cq];W[dq];B[cp]
(;W[co];B[bo];W[bn];B[dr];W[er];B[br];W[bp];B[do];W[ao];B[bq]
;W[ds]C[I think this is a big mistake. But if I win the ko I win the match. How high level players do to calculate the number of threats? Because I cant tell now if d1 is a good move or not]
;B[cs];W[cr];B[cn];W[bo];B[dr];W[hi];B[fl];W[cr];B[ca];W[ba]
;B[dr];W[es];B[eq];W[ep];B[fq];W[cr];B[bb];W[da];B[dr];W[eo]
C[This is a mistake but I prefered to let open the posibility of killing the big group letting this four stones alive and with some influence to the right

I think my mistake has been to be contradictory: first I want the corner,and after I want to attack]
;B[cr]
(;W[hm];B[hl]
(;W[gm]C[csh: Wrong side. Drive him toward your strength. See the variation.]
;B[hk];W[jl];B[jk];W[kl];B[fm];W[fn];B[en];W[dn];B[gn];W[em]
;B[im];W[hn];B[il];W[kk];B[jj];W[ij];B[ik];W[ji];B[kj];W[mk]
;B[in];W[hp];B[kn];W[mi];B[mn];W[qq]C[Its possible to live here?]
;B[qp]
(;W[rr];B[pr];W[rp];B[ro];W[sq];B[qr];W[qc];B[pc];W[re];B[qd]
;W[rd]
(;B[qb];W[rc];B[rb];W[mb];B[nb];W[mc];B[nc];W[nf];B[md];W[ld]
;B[lc];W[lb];B[le];W[kd];B[mf];W[ng];B[mg];W[mh];B[pj]C[If I were black I wouldnt have play so inside, but he take a lot of profit of this move.

Maybe R9 is the best response, or p11 but I see them very pasive]
;W[pk];B[qk];W[rk];B[ok];W[ql];B[pl];W[qk];B[ol]
(;W[oj];B[nj];W[oi];B[mj];W[rn];B[qo];W[rm];B[so];W[qn];B[pn]
;W[pm];B[om];W[on];B[qm]
(;W[fr];B[gr];W[pm];B[po];W[qm]C[csh: Only a 1/2 point ko.]
;B[lj]
(;W[gq];B[fp];W[gp];B[fs];W[hr];B[hs];W[ir];B[lq];W[kp];B[lp]
;W[ko];B[lo];W[gc];B[gd];W[hd];B[gb];W[ea];B[fc];W[fa]C[csh: ?]
;B[oe];W[of];B[ki];W[jh];B[kh];W[sb];B[ob];W[kr];B[lr];W[ne]
;B[me];W[ls];B[ms];W[ks];B[mr];W[io];B[jo];W[jp];B[jn];W[ke]
;B[kg];W[jg];B[kf];W[ni];B[fo];W[go];B[ic];W[id];B[hb];W[jb]
;B[gg];W[hh];B[af];W[ae];B[al];W[am];B[ak];W[is];B[er];W[gs]
;B[bm];W[cm];B[hs];W[lh];B[lg];W[pe];B[od];W[ha];B[gc];W[ga]
;B[aq];W[sn];B[ma];W[la];B[na];W[sc];B[ra];W[gs];B[fr];W[hf]
;B[hs];W[nk];B[nn];W[gs];B[ip];W[iq];B[hs];W[oo];B[op];W[gs]
;B[ac];W[ab];B[hs];W[nm];B[no];W[gs];B[sa];W[hs];B[gl];W[tt]
;B[tt]TW[aa][ca][ia][ja][ka][bb][kb][ac][kc][lc][bd][jd][sd]
[ie][je][se][rf][sf][ig][og][pg][qg][rg][sg][ih][nh][oh][ph]
[qh][rh][sh][ii][pi][qi][ri][si][dj][pj][rj][sj][dk][sk][cl]
[rl][sl][bm][dm][sm][an][cn][en][gn][do][ho][ip][hq][jr][js]
TB[oa][pa][qa][pb][oc][lf][ag][bg][cg][ah][ai][bi][aj][kk][lk]
[mk][nk][jl][kl][ll][ml][nl][jm][km][lm][mm][nm][ln][on][mo]
[oo][mp][np][rp][sp][mq][oq][pq][qq][rq][sq][ar][nr][or][rr]
[sr][as][bs][ds][es][ns][os][ps][qs][rs][ss]C[blas [4k\]: oh
ImposterLo [5k\]: good game
blas [4k\]: I thought you won
blas [4k\]: yes
blas [4k\]: I didnt attack u well
ImposterLo [5k\]: my mistake was the large grop on the top right
ImposterLo [5k\]: left  mean
blas [4k\]: I didnt kill you and didnt take profit
ImposterLo [5k\]: gave you too much influence

csh: I don't agree. I think White's attack on the running black group still tilted the game in White's favor. While White didn't make much profit, Black made absolutely zero points, so the balance was still in White's favor. Black also didn't get influence from the group, as you had stones surrounding it on either side.]
)
(;W[fp];B[gq];W[hq]))
(;W[fp]))
(;W[pi];B[oj];W[mj];B[oi];W[oh]C[csh: White doesn't have to worry about the cut.]
;B[qi];W[ph];B[ri];W[rh]))
(;B[rc]))
(;W[rp];B[ro];W[rr]C[csh: This is your best chance.];B[pr]LB[rn:B]
[qo:A]C[csh: I don't think you have a chance after this. You're looking for either using the cut at A or B, but they don't work with the surrounding stones.]
))
(;W[il]
(;B[gm];W[hn];B[gn])
(;B[im];W[hk];B[hn];W[gl]
(;B[gm];W[fm];B[hl];W[gk])
(;B[fm]))))
(;W[hl]TR[cn][do]C[csh: Just drive him towards the bottom of the board. The marked black stones can't escape. The thickness you get will be useful.]
))
(;W[pr]))
(;W[bh]C[csh: I don't have a good answer to this move. There are a lot of variations that are ko, but this would have been further than I could read in a game.]
;B[bi]C[csh: Looks like the only answer.];W[bg]
(;B[af]C[csh: Black can't descend.]
(;W[ak]
(;B[aj];W[ah]C[csh: Dead shape.])
(;B[ae]
(;W[bd]
(;B[cg];W[ab];B[aj];W[ah]C[csh: Dead shape.])
(;B[ah];W[aj];B[ab];W[ca];B[da];W[al];B[ba];W[ai];B[bb];W[cg]
;B[ac]))
(;W[ab])
(;W[aj];B[ai];W[al];B[cg];W[bd];B[ab];W[ag];B[ah];W[bg];B[ca]
;W[bh];B[ag];W[bg])
(;W[cg];B[bd];W[ac];B[ah];W[aj];B[ag];W[bg];B[ca];W[ba];B[ab]
;W[da];B[ea];W[eb];B[ca];W[be];B[da])))
(;W[ah];B[ae];W[cg];B[bd];W[ac];B[ai]))
(;B[ag]C[csh: This threatens ko.]
(;W[ak]
(;B[aj];W[ah]C[csh: Dead shape.])
(;B[ah];W[aj];B[ae];W[af]C[csh: Ko.]))
(;W[ah];B[ai]
(;W[ak];B[cg];W[bh];B[ae]
(;W[af])
(;W[bd]
(;B[ca])
(;B[ab];W[ca];B[ba];W[da];B[eb];W[ea];B[gb];W[ga];B[ha];W[fa]
;B[fc])))
(;W[af];B[cg];W[ak];B[ag];W[bh];B[ae])))))
(;B[bh]C[csh: Just live.]))
(;W[ge];B[he];W[gd];B[gc];W[hd]))
(;B[eb];W[hb];B[ib];W[gc];B[ha];W[gb];B[ic];W[gd];B[jb];W[kc]
;B[kb];W[lc];B[mb]C[csh: This isn't a great result for Black. He's on the second line]
)
(;B[gb];W[eb];B[ec];W[da];B[jb]C[csh: This move helps Black get a base, but it weakens the upper right.]
;W[kb];B[ib];W[kc];B[fc];W[ca];B[he]C[csh: Black lives, but there is now an attack on the upper right.]
))
(;W[hb]))
(;W[fd]C[csh: Consider a move like this.];B[bd]C[csh: Black can play this joseki...]
;W[cc];B[ci]
(;W[iq]C[csh: ...then you get sente to make an extension on the lower side. I played a more conservative extension because Black's lower right corner is stronger than White's lower left.]
)
(;W[jq]C[csh: If you play here, there is problems with the counter pincer at F3.]
;B[fq]C[csh: What do you do now?];W[eq];B[fp];W[cn];B[hq];W[lq]
;B[gn];W[kn]C[csh: Instead of having an advantage at the bottom of the board, there is a running fight.]
)))
(;B[nd];W[rd];B[qc]
(;W[ph]C[csh: White has to eventually protect this weakness.]
;B[jc]C[csh: Black can take a big point, and potentially get more profit than White.]
)
(;B[qh]LB[ql:A]TR[qm]C[csh: If White tenukis, this move is hard to deal with. It's worse for White if the marked black stone is at 'A.']
)))
(;AW[pj]AB[qg][qo]TR[pj]C[csh: When Black has more strength in the area, a move like Q10 makes more sense. There isn't enough room to make a base on the side of the board, so you are better off with a move on the fourth line.]
)
(;AW[qj]AB[qg][qo]TR[qj]C[csh: If White plays this move instead...]
PL[B];B[oj]C[csh: ... a capping move like this is much harder to deal with.]
))
