(;FF[4]GM[1]SZ[19]ST[1]AP[SGFC:1.15]

PB[bentcreek]
BR[7k]
PW[spider8]
WR[7k]
KM[6.5]
DT[2008-01-30]
PC[The KGS Go Server at http://www.gokgs.com/]
RE[W+R]
TM[1200]

C[Dear reviewer,

I had white in this game on KGS and won by resignation. However, I would like to improve a few points where I feel I could have done better in this game.

- attacking more severely;
- making better shape.

Hopefully using this game will alllow you to give me a few hints on attacking and making shape. I have put some comments in the game to let you know what I was thinking.

Thank you,
Philippe


Hello, it is your reviewer Dmitrii Shevchenko, Shedal (1 dan) on KGS.

I reviewed either for white and black so you could learn from your opponent's mistakes.

If you have any further questions, feel free to contact me at KGS or by Email.]
;B[pd];W[dd];B[qp];W[dp];B[oq];W[qj];B[qh];W[qm];B[oh];W[oj]
;B[jd]LB[pc:A]C[Shedal: after this B move, you should think about the right moment for invasion in the TR corner. I think, the best point is at [A\]. See variation to the next move.]

(;W[jp];B[df]C[Shedal: Strange move by B.

This move is usually bad unless there is some potentlal for B moyo on the left, which is not the case here.]

(;W[cf]TR[jd]C[Shedal: this move is not joseki, although it seems appropriate here due to presence of the marked stone. See var.]
;B[cg];W[ce];B[dg];W[fc]LB[fd:A][hc:B][gc:C]C[Shedal: [A\] would be more common. If you don't like forcing B moves like [B\], you could move at [B\] or [C\] yourself. The move in the game is too close to other stones in the corner.]
;B[dk];W[cm]C[P: Not sure this was the best move, but I wanted to limit black's development while starting to build some territory.

Shedal: this move is OK];B[iq]C[Shedal: another strange move by B.]
;W[jq]C[Shedal: right.]
(;B[ip]C[Shedal: pros always seem to play as in variation - this is more light and powerful technique]
;W[io];B[gp];W[eq];B[ho];W[in]
(;B[fn]
(;W[ir]LB[hr:A][pc:B]C[Shedal: this move ends in gote if B plays at [A\]. B don't even need to answer it, he could just connect with his left group. That is, the direction is wrong.
You won't mind if your opponent makes eyes in gote, so you should put pressure on the weak group while making sure territory, then take sente to get a big point (B, for example).

See variation.]
(;B[hq];W[np]LB[em:A]C[P: I hesitated before playing this move, but I felt I had to extend while trying to seal the black group in the corner.

Shedal: a move around [A\] is still urgent to separate 2 black groups and possibly continue the attack.]
;B[op];W[no];B[pl]C[P: this seems like a mistake from black.

Shedal: this move itself is not a mistake since it could be treated as kikashi if leaved as it is. Although the standard kikashi is one line higher.]
;W[ql];B[pk];W[pj];B[nl]C[P: black has a weak group

Shedal: now B is running out which is somewhat pointless. He didn't achieve any useful result but helped W instead. The 2 B stones were light and could be sacrificed easily.]

(;W[mm]C[P: Attacking while making profit?

Shedal: I think the direction is wrong again ;-)
The profit isn't any big. You can attack on a larger scale. See var.]
;B[ml];W[lm];B[qk]C[Shedal: a bad move. Never push through if you cannot cut. This only reduces your own liberties.]
;W[rk];B[ll];W[kl];B[lj];W[ni];B[mj];W[nh];B[og];W[qc]LB[pc:A]
C[Shedal: still, A seems better for me.];B[pc];W[qd];B[qe];W[re]
;B[qf];W[rf];B[rg];W[pb];B[ob];W[qb];B[rl];W[rj];B[rm];W[pm]
;B[nj];W[oi];B[om];W[rn];B[ng];W[lh];B[lf];W[oc]LB[nr:C][fr:D]
[bk:B][jb:A]C[P: I could not make this work

Shedal: if you want to reduce you could [A\].
This was also a good moment to stop and count the score.

W has:
18 points in the top left
7 points in the right side
19 points in the bottom left
12 points at the bottom
komi 6.5
Summary, W has more than 60 points

B has:
12 points in the lower right
28 points in the top
9 points in the left side
Summary, B has less than 50 points

Since W has a safe lead and sente, he could easily win by making reducing/defencing moves like [A\], [B\], [C\], maybe [D\]]
;B[nb];W[nc];B[mc];W[jh];B[on];W[qn];B[oo];W[nq];B[hr];W[jr]
C[P: looking back I should have protected my bottom left corner.
Shedal: yes, it is the way bigger.];B[cq]C[Shedal: This is an interesting life and death problem, but it seems like B is unconditionally alive here :(
See variation to the next move.]
(;W[cp];B[bp];W[bo];B[dq];W[bq];B[br];W[ap];B[er];W[dr];B[cr]
;W[fr]C[Shedal: you should be careful when making this move. B may be not so passive as in the game...
See var.]
(;B[ds]LB[ds:A][fq:B];W[fp];B[fo]
(;W[hn]LB[em:A]C[P: A bad move on my part. A move at A (E7) would have been a better attack point I believe.

Shedal: you cannot attack this B group with [A\], because it would be unconditionally alive in that case
See var. to the next move.];B[em];W[ar];B[bs]
(;W[dn]LB[fs:C][fq:D][dl:A]C[P: Again very bad, playing at A (E8) would have been better I think

Shedal: indeed, this move does not achieve anything.
If you want attack black, first of all you need the move at [C\]. Otherwise, B could connect with ko starting at [D\].
See variations.];B[ck]C[Shedal: Now B's position is steady and hardly attackable.]
;W[bl];B[bk];W[ic];B[jc];W[he]LB[ib:A][jb:B]C[Shedal: bad shape. After this move, B could [A\] (see var.), getting many yose points in sente.
Yose is starting at this moment, so both sides must concentrate on getting points. Center does not have potential for that, so to take points on the side (with [B\]) is better.]

(;B[id];W[hc];B[hd];W[gd];B[ge];W[gf]TR[he]LB[fe:A]C[Shedal: [A\] seems like a better defence for me. Sente is bigger than the marked stone.]
;B[fe];W[ee]
(;B[hf];W[ff];B[ie];W[fd];B[he]C[Shedal: 1-point move by B.]
;W[ef];B[fh];W[gh];B[rp];W[nr];B[or];W[ak];B[aj];W[al];B[bj]
;W[os];B[ps];W[ns];B[qr]
(;W[jb]C[Shedal: see variations.];B[kb];W[ib];B[ka]C[P: I was happy to get these endgame moves all in sente.]
;W[oa];B[mb];W[gn];B[go];W[gi];B[fi];W[gj];B[fj]
(;W[kj]LB[kk:A]C[P: I did not read this out to well, too greedy, one move to the left would have probably been better.
Shedal: maybe just [A\]?];B[ki];W[li];B[kk];W[jj];B[jl];W[km]
;B[jk];W[kh];B[ih];W[kf];B[ij];W[ji];B[ke];W[mg];B[mf]
(;W[bf];B[sf];W[sd];B[rc];W[rb];B[bg];W[hg];B[ig];W[jf];B[ii]
C[P: Black resigned since white seems ahead by at least 10 points.


Shedal: There was no big mistakes in the game. Making shape and attacking also were not game-deciding skills.

I think the biggest problem (for both sides) is understanding the situation as a whole.
Score estimation is very helpful in the middlegame. I advice that you read Cho Chikun's "Positional Judgment".

Good luck in your way of Go :)])
(;W[bg];B[bh];W[af]C[Shedal: Bigger]))
(;W[kk];B[kj];W[ik]C[Shedal: seems like enough for W.]))
(;W[lb]
(;B[mb];W[jb])
(;B[jb];W[pe];B[od];W[nd];B[oe];W[ne];B[of];W[mb])))
(;B[fd];W[gc];B[ff]))
(;B[ib];W[hc];B[hb];W[gb]))
(;W[fs];B[es];W[dl]SQ[df][dg][cg][dk]TR[em][fn][fo][ho][gp]
[hr][hq][iq][ip]LB[rp:A]C[Shedal: this way the attack looks promising as either marked B group is not settled.
Still, I am not sure that attack is necessary. Your right-hand group may end up cutted off and even dead, if B gets to play [A\] first.
You should count the score again, then look if reducing / defencive moves will give you a win.
For example, you don't even need to cut here. Just make B think you are intended to :) and make territory on the side (see continuation)]
;B[el];W[ck];B[dj];W[cj];B[di]LB[ek:A]C[Shedal: move somewhere around here is urgent for B, or the cut at [A\] will do its job.]
;W[ic]C[Shedal: Now you take a big point and have a sure win. Did I mention I never liked fights? ;-)]
;B[jc];W[jb])
(;W[el];B[fq];W[gq];B[gr];W[fs];B[fq]C[Shedal: It doesn't seem you have a ko threat big enough.]
))
(;W[em];B[gq];W[fq];B[hn]))
(;B[fq]LB[ds:A][fq:B]C[Shedal: although it is not reasonable here, but B could make a big ko this way.]
;W[es];B[ep];W[er];B[gr];W[ar];B[bs];W[aq];B[ds]))
(;W[bo]
(;B[dr]LB[er:B][dr:A];W[er];B[br]
(;W[dq]LB[dq:A][cp:B];B[cs];W[bp];B[bq])
(;W[cp]LB[dq:A][cp:B];B[bq]))
(;B[er]LB[er:B][dr:A]C[Shedal: this way B is dead];W[dr];B[dq]

(;W[fr]LB[fr:A][cr:B]C[Shedal: this would be a mistake, see variation for the proper move]
;B[ep];W[fq];B[cr];W[es]
(;B[fp]LB[fp:A][cp:B];W[cp]
(;B[gr]LB[gr:A][bq:B];W[br])
(;B[bq]LB[gr:A][bq:B];W[gs];B[hs];W[gr]))
(;B[cp]LB[fp:A][cp:B];W[do];B[co];W[cn];B[dn];W[eo]
(;B[fp]LB[fp:A][bp:B];W[en]
(;B[dm]LB[gs:B][dm:A];W[em];B[dl];W[bp];B[fl];W[br])
(;B[gs]LB[gs:B][dm:A];W[bp];B[fs];W[br]))
(;B[bp]LB[fp:A][bp:B];W[bn];B[fp];W[en];B[dm];W[em];B[dl];W[ds]
;B[cs];W[ar];B[gs];W[ap];B[fs];W[er])))
(;W[cr]LB[fr:A][cr:B]
(;B[ep]LB[br:B][ep:A];W[fq]
(;B[cp]LB[bq:B][cp:A];W[do]
(;B[co]LB[br:B][co:A];W[cn];B[dn];W[eo];B[fp];W[bq])
(;B[br]LB[br:B][co:A];W[fr];B[cs];W[es];B[co];W[cn];B[bp];W[ap]
;B[bq];W[bn]))
(;B[bq]LB[bq:B][cp:A];W[fr];B[cp];W[do];B[co];W[cn];B[dn];W[eo]
;B[fp];W[en];B[dm];W[em];B[dl];W[br]))
(;B[br]LB[br:B][ep:A];W[fr];B[es];W[fs];B[ep];W[fq];B[cp];W[do]
;B[co];W[cn])))))
(;W[mj];B[ll];W[jl];B[kk];W[li];B[jk];W[ik];B[ji];W[ij];B[ki]
;W[em];B[hr];W[jr];B[fr];W[er];B[fq]C[Shedal: running out is not expedient, so B is forced to make eyes in gote. It is always a satisfaction ;-))]
;W[hh];B[lh];W[mh];B[lj];W[mi];B[lg]
(;W[pc])
(;W[bi]C[Shedal: Now you can achieve something while attacking another weak group]
))
(;W[mk]C[Shedal: maybe you could even kill the whole group?]
;B[ml];W[lk];B[ll];W[kl]))
(;B[hr];W[jr];B[fl];W[hq];B[hp];W[gq];B[fq];W[gr];B[fr];W[hs]
;B[ep]))
(;W[em]LB[ir:A][em:B];B[jr]C[Shedal: W is happy if B makes life like this]
;W[kr];B[hr];W[js];B[ir];W[ko];B[fr];W[er];B[fq];W[pc]))
(;B[gm]LB[fn:A][gm:B]))
(;B[jr];W[kr]
(;B[fq]LB[dr:B][fq:A][dq:C])
(;B[dr]LB[dr:B][fq:A][dq:C])
(;B[dq]LB[dr:B][fq:A][dq:C])))
(;W[fd];B[cd];W[cc];B[ce];W[bc];B[cj];AE[jd];W[jc]C[Shedal: This is joseki. White's position would be better, because black's left group is open underneath.]
))
(;W[pc]LB[jp:A][pc:B]C[Shedal: this move is not urgent since B's moyo still would be invadable even if B adds another stone in the corner. But the moment when invasion becomes the biggest move is not so far.]
;B[oc];W[ob]
(;B[od]LB[od:A][qc:C][pb:B];W[pb];B[nb];W[qd];B[qe];W[rd])
(;B[pb]LB[od:A][qc:C][pb:B];W[qc];B[nb];W[od];B[nc];W[qb];B[oa]
;W[pe])
(;B[qc]LB[od:A][qc:C][pb:B];W[pb];B[nc];W[qd];B[qe];W[rd];B[re]
;W[rc])))
