(;FF[4]GM[1]SZ[19]ST[2]CA[UTF-8]AP[SGFC:1.15]

PB[odif]
BR[5k]
PW[km]
WR[4k]
KM[0.5]
DT[2008-01-24]
PC[The KGS Go Server at http://www.gokgs.com/]
RE[W+Resign]
TM[1800]
OT[5x60 byo-yomi]
RU[Japanese]

C[Dear reviewer, I played as black here,as I have been just studying the opening, I would appreciate any comments on my fuseki. Also, I played some bad moves, but failed to capitalize on my opponents slack moves, and in the end I had to resign after losing a crucial group,I have sentenced myself to doing life and death problems, but it is more a case of not looking everywhere and judging some of the subtelties I had a relatively long time limit,I can see many things I done wrong, so maybe I need to change my mental attitude,try and be more calm and objective instead of too emotional.

Anyway, thank you in advance];B[pd]C[AP:  Hey there Odif.  My name is Alex Prairie and I will be reviewing your game.  It seems you play the chinese high opening, which I am somewhat unfamiliar with, but I will do my best to comment.  Personally I usually play the chinese low opening.  I hope you enjoy the review.]
;W[dp];B[pq];W[dd];B[pk];W[jd];B[jp]C[Odif:is f3 better?
AP:  Whenever I play the chinese opening, I play k4 as well.  F3 is another option, based on preference.  Both f3 and k4 are okay but f3 can lead to complications such as a pincer.]
;W[nk]C[AP:  This move isn't very good.  Its okay to cap the middle stone under the chinese low opening, but this stone is now floating and achieving not very much.]

(;B[om]C[Odif: was this okay
AP:  I  dont like this move, I would stick to a 1 point jump to Q7]
;W[po]C[AP:  This move is bad, hes putting himself in the middle of your strength, and on the 4th line, which makes it more difficult fo rhim to make life.]

(;B[op]C[AP:  Not sure about this move, it might be okay, but i would steal his base by playing r4 and then chasing him.]
;W[oo];B[no];W[qq];B[qr];W[rq]
(;B[nn]C[AP:  I would play at S2 instead of O6, in order to keep him struggling for life.

I think the cut at o6 works out, its complicated though, see variation.]
;W[rr];B[pr];W[qm];B[ql];W[pm];B[rl];W[rm];B[fq];W[dn]C[Odif: up to here I felt happy, and I had sente.]
;B[cf]C[Odif,: Up until now i felt that I was ok, maybe this is what started to get me into trouble.]
;W[ci];B[cc]C[Odif: maybe i should just run out and avoid giving white too much thickness

AP:  I like c17, its a fine move];W[cd];B[dc];W[ed];B[bd];W[be]
;B[bc];W[ce];B[fc];W[ge]C[Odif:It seems, that my next few moves only get me into trouble, but I wanted to stop him making an enormous moyo, however, i give lots on left side and damage my lower territory, and set the course for the rest of the game as I get more and more desperate]

(;B[ej]C[Odif:this  is not the time for this i think, is there anything better,I was worried about a too big W moyo, this is another crucial turning point.

AP:  Theres a pretty important move to be made at g17, however, if youre going ot make a move in this area, i would personally shoot for d10.  Walking him on the third line doesn't get him very many points, see variation]
;W[dk];B[fn]C[Odif:my plan, but maybe it is unsound

AP:  This move is a bit loose, lets him invade more easily, but its the right idea for sure]
;W[iq]C[Odif: I didnt expect this

AP:  I dont like this invasion, but i'd have a hard time stopping it so i cant call it bad.

AP:  I think i prefer your move at j4 to the move at k3, but perhaps theres something better, see variation

AP:  I played it out a few times, i dont know how it would work, but perhaps just k3 then tape the corner, as in variation.]

(;B[jq];W[ip]
(;B[hn];W[io];B[dj];W[cj];B[ek];W[el];B[fl];W[em];B[fm];W[eq]
;B[fp];W[fr];B[gr];W[er];B[eo]C[Odif:big mistake

AP:  Yes, but this is one i might make too, easy to miss.  In the variation I show a way that you can get something out of your cut at d5]
;W[hr]
(;B[hq];W[gs];B[ir];W[gq];B[hp];W[jr];B[gp];W[jo];B[gr];W[is]
;B[ck];W[dl];B[do]C[Odif: Im getting desperate now, I want some compensation

AP:  instead of c9, see the variation i gave earlier for this cut]
;W[co];B[bk];W[cl];B[cn];W[bn];B[cp];W[bo];B[lc];W[ol];B[pl]
;W[pp];B[np];W[on];B[nm];W[ni];B[ph];W[qc];B[qd]C[Odif:right side to block I think

AP:  Yeah this seems right];W[pc]
(;B[od];W[oc]
(;B[nd]C[AP:  You can play at o17 or p17 earlier if you would like, see variation]
;W[mb];B[ng]C[Odif: wrong direction?];W[pi];B[qi];W[qh];B[oi]
;W[pj]
(;B[oj]C[AP:  Instead of this variation is a bit safer, but u dont get the outside influence, its a trade off]
;W[qj];B[ok];W[pg];B[oh];W[ri];B[rg];W[rk];B[sk];W[sj];B[sl]
;W[qg];B[rf];W[rh];B[qk];W[qf];B[re];W[sh];B[rj]C[AP:  Good job on this group, u did well getting a ko]
;W[ec];B[qi]C[Odif:bad move from me

AP:  Yes e18 was too important to pass up unfortunately];W[db]
;B[cb];W[eb];B[bf];W[ad];B[af];W[ae];B[dh];W[bl];B[jm];W[km]
;B[kl];W[lm];B[ll];W[lo];B[jg]C[AP:  I like this strategy killing the middle white stones, but it looks like m18 is still important]
;W[jl];B[jk];W[il];B[im];W[lg];B[ke];W[jh];B[ih];W[ji];B[ik]
;W[ig]C[AP: I believe the variation works]
(;B[if];W[hg];B[jf];W[hi];B[hf];W[gg];B[gf];W[eg];B[ff];W[fg]
;B[ef];W[dg];B[df];W[ch];B[cg];W[di];B[eh];W[ei];B[fh]
(;W[hh]C[AP:  This move is bad for white, variation is better.]
;B[ij]C[Odif:empty triangle

AP:  This empty triantle seems fine, not all empty triangles are bad]
;W[ii];B[fi]C[Odif:I hoped for something like the variation, leaving me a chance to try to kill k12 group]

(;W[hl]
(;B[gj];W[kj]C[In variation, while white makes eyes, you can take the left side group]

(;B[li];W[kk];B[ml];W[hj];B[gk];W[hk]
(;B[kh];W[bj]C[Odif:he missed it too];B[rc];W[rb];B[sb];W[ra]
;B[nc];W[nb];B[lb];W[pb];B[hb];W[gc];B[hc];W[hd];B[gb];W[gd]
;B[id];W[ic];B[ie];W[ib];B[fb];W[fd];B[jb];W[jc];B[ia];W[kb]
;B[ka];W[ja];B[sm];W[ro];B[jb];W[ho];B[go];W[gm];B[ep];W[dq]

(;B[kc];W[fa];B[ea];W[da];B[ha];W[lq];B[mq];W[mr];B[lp];W[kp]
;B[nr];W[mp];B[nq];W[lr];B[mk];W[lj];B[mj];W[ki];B[mi];W[ma]
C[Odif: g8 kills B

AP:  Correct, black can live on G8 though]
(;B[gn]C[Odif:no];W[gl];B[gi];W[fk]C[Odif:I resign here, I missed many opportunities in this game, but after having played several bad moves, i was in desperation all or nothing mode and I missed my chances to punish his mistakes.

AP:  Most of your moves are good, you seemed to have lost the games on your mistakes.  

Your fuseki seems fine, but if you want to learn the chinese Fuseki very well, try reading "The Chinese Opening"
By Masao Kato.  I read it, and it helped a lot.

If you have anymore questions, you can talk to me on kgs, hope you enjoyed the review]
)
(;B[gl];W[hm];B[gi];W[gn];B[en];W[cm]))
(;B[gl]C[Odif:this would have saved my group here]))
(;B[bj]))
(;B[bj]C[Odif:I missed this move

AP:  Yeah this was pretty big, l10 still more important tho]
)
(;B[kk]
(;W[mj])
(;W[li];B[bj])))
(;B[bj];W[fj];B[fk]
(;W[gi];B[gj])
(;W[gj];B[bh])))
(;W[fj];B[gj];W[fk];B[gi]C[Odif: I dont think this works, if w g9, my g4 group will be attacked, so even if I can kill k12 stones, if i lose g4, i havent really achieved anything.]
))
(;W[fi]))
(;B[hg];W[if];B[jf]C[AP:  I think this works]))
(;B[qj];W[oj];B[qg]C[AP:  This is a bit safer]))
(;B[nc]))
(;B[oc];W[ob];B[nc];W[nb];B[mb];W[rd];B[re];W[rc];B[qf]))
(;B[jr];W[gq];B[do];W[co];B[cn];W[cm];B[bn];W[bm];B[bo];W[cp]
;B[ck];W[bk];B[dl];W[dm]))
(;B[io];W[ho];B[hn];W[in];B[jo];W[gn];B[hm];W[gp];B[gm];W[go]
;B[cq];W[dq];B[dr];W[er];B[cr];W[eq];B[bo];W[bn];B[co];W[cn]
;B[do];W[eo];B[cp]))
(;B[ip]C[Odif:maybe this, or something else?]))
(;B[dj];W[cj];B[dk];W[ck];B[dl];W[cl];B[dm];W[cm]
(;B[ik])
(;B[dr];W[cq];B[hl])))
(;B[rr];W[nn];B[on];W[np];B[mo];W[oq];B[pp];W[pr];B[qp];W[rp]
;B[qo];W[ro];B[pn];W[or]
(;B[rn];W[sr];B[so];W[rs])
(;B[sr];W[rn];B[nq];W[nr];B[mq];W[mr];B[lr];W[lq];B[mp])))
(;B[qp];W[no];B[op];W[oo];B[mp]))
(;B[pm]))
