(;FF[4]GM[1]SZ[19]ST[2]CA[UTF-8]AP[SGFC:1.15]

PB[Audun]
BR[7k]
PW[spider8]
WR[7k]
KM[6.5]
DT[2008-02-06]
PC[The KGS Go Server at http://www.gokgs.com/]
RE[W+19.50]
TM[1800]
OT[5x30 byo-yomi]
RU[Japanese]

C[Dear Reviewer,

In this game on KGS I had white and won the game thanks to a blunder from my opponent near the end of the game.

White played what seemed to me a very territorial style of game. I struggle playing against territory minded players since I prefer moyo or fighting games to create more possibilities.

I am hoping you can give me hints on how to attack more severely or provoke advantageous fighting conditions against territorial style playing.

I have added comments at the different moves to let you know my thinking and perhaps this will help you in providing advice.

Thank you,

Philippe];B[pd];W[dd];B[oq];W[dp];B[fq];W[dn];B[ip];W[nc];B[lc]
;W[qc];B[pc];W[qd];B[pe];W[pb];B[ob];W[qb];B[oc];W[qf];B[qe]
C[P: seems early for black to play this (erases aji)
pet: you're right, too early;];W[re];B[me];W[qp];B[qn]C[P: I was not sure of the best response, my main intention was to separate the 2 black stones
pet: 
good idea, but this will also cost you something (at least hard fighting),
since b was playing here first. see  vars move 30];W[op]C[pet: good move!]
;B[np];W[oo];B[pq];W[qo];B[pn]C[pet: so far all forced moves]

(;W[no]TR[nq]SQ[oo][qo][op][qp]C[pet: 
this is called: 'pushing from behind' and should be avoided, since opponent is allways 1 move ahead.
In this case you erase also aji at o3 and help b to connect the whole bottom.

But then how to help the r4- group: See variations];B[mp]
(;W[nm]C[pet: this is not the right shape,
see var];B[pk]C[pet:
after all w is a bit slow, so b gets the opportunity to settle himself.
Perhaps this makes you fear b's growing territory.
The result here is better for b here.];W[qq]C[slow, but correct now]
;B[kq]LB[fc:B][ci:D][cl:C][mo:A]C[P: black plays a very defensive play but also gets territory
pet: this move is in fact too defensiv;
if b would play here (what seems to be not really necessary),
he would play A (which makes good shape)

Good moves for b would be elsewhere (B,C,D)];W[qi]C[pet: 
locally the right point, but...

this extension plays from the strong group (above) to make territory, which is usually bad.
[Both groups getting stronger, in this case it helps the weaker group more\]
proverb says: Don't make territory from a strong group (or wall)]
;B[qj];W[pi];B[nk]
(;W[ln]LB[ql:A]C[P: I want to continue to separate black.

pet: I can understand the idea, but the r6-group would'nt die anyway, and m6 is no forcing move for the bottom group, so this is very slow.

So locally you can get a bit profit by playing A (see var)
In fact w would save this for later];B[fc]C[pet: now b got the big point]
;W[df];B[id]C[pet: j16 looks unusual, but fine to me, b is ahead now;
still i would more feel like playing f15]
(;W[ec]C[pet: this is again a slow move,
as  you know it is gote or leaves open the corner (c17), and let play b F16 is called a 'thank you move']
;B[fd];W[cj]LB[cc:D][ch:A][cl:B][ql:E][cq:C]C[P: At this point, it seems very even in terms of probable territories.
pet:
In a decent look you will find that b can play A to D, while w has allmost nothing then E, which is not killing, but might be sente.
So in conclusion i would say, even if w gets E and can play first to defend A, B or D (C is gote for black and should not be defended first)
w is still behind, while b has allready quite a lot of territory.

Perhaps that's why you gave this game into review.
The reason of this is clearly too many slow white moves!];B[cl]
;W[dk];B[dm]
(;W[dl];B[em]
(;W[cn];B[cm]C[P: Black has a weak group, but I am not sure how take advantage
pet: this is a difficult task, so your felling is right];W[ff]
C[P: border of two moyos...
pet: good move, but if b plays c17, would'nt help too much]
;B[ee]C[pet: bad move]
(;W[ef];B[de];W[ce];B[cf];W[cd];B[cg]
(;W[eh];B[ci];W[di];B[bj];W[bi];B[ck];W[ch];B[bk]
(;W[bn];B[ed];W[eb];B[fb]
(;W[cb]C[P: I hesitated a long time and finally decided to play this proper move for good shape in the corner.
pet: :-)) good shape, but not nesseary (too slow), see vars ...]
;B[if];W[fo]TR[cf][cg]C[pet: good move
since c14 stones are 'very' dead, b has lost a lot of his advantage, game is now open again]
;B[bm]
(;W[ni]LB[kf:C][pf:D][ql:A][hp:B]C[P: I am still unsure where to play but erasing the middle while pressuring a little bit the black group on the right seemed to be the best option, I will need to be patient to attack.

pet: again right feeling, your move walks into neutral area.
[b can play Q14 when he likes\] 
A would still be the proper move, but now it would hurt b even more since both groups on the sides are not 100% alive.

alternative B and C would do it, but might be a bit 'high leveled'; see vars

D is bad (at the moment, far to slow)];B[oj];W[oi];B[gm]LB[hp:A]
C[pet: still A is the point];W[eq]LB[fp:A][er:B]C[pet: 
bad move, erases a lot of aji;
b's answers A or B are correct (and kind of sente)];B[fr];W[er]
;B[fl];W[qr];B[pr];W[fs];B[gs];W[es];B[hr];W[oa];B[na];W[pa]
;B[nb];W[fa];B[ga];W[ea];B[hb]C[P: I did not really know how I could strike at black so I felt it was time to take some bigger endgame points.

pet: since b is alive now, allright];W[pf];B[rn];W[ro];B[ej]
;W[dj];B[fj]C[pet: here b gives another some points (too slow, no threat)]
;W[gh];B[of];W[ge];B[rg]C[P: this move obviously caught me by surprise, good play by black.]

(;W[rf]LB[qh:B][rj:A]C[pet: too easy for black.

give A a try (this might be hard work extremly difficult, but not hopeless)
easy is B

see vars];B[ri];W[qg]C[pet:
again very slow, s11 is big but gote!];B[qh];W[ph];B[rh]
(;W[og]LB[kf:A]C[pet:
slow again,
should be A,
see var];B[nf]
(;W[ng]LB[mg:A]C[pet:
A!
see var];B[mg]C[P: this was painful, but I don't think I had a choice.
pet: you had (last move)];W[hd];B[hc];W[ie];B[je];W[he];B[jg]
C[P: not much of an attack from white, I just could not seem to really cause problems to black.]
;W[mh];B[lh];W[li];B[kh];W[mk];B[nl];W[ml];B[om];W[on];B[mm]
;W[nn];B[lm];W[lo];B[km];W[lp];B[lq];W[kk];B[im];W[ho];B[gp]
;W[go];B[hj]
(;W[sn]LB[rm:A]C[P: this game does not have much fighting, it seems to be mostly about walling-off territory or erasing territorial influence.

This style of play is difficult for me!];B[sm];W[so];B[rm];W[aj]
LB[ji:H][nj:A][pj:B][an:G][jn:E][hp:C][jp:D][ps:F]C[pet:
gote!
better sente moves like A -F 
or reverse sente like G or (perhaps H)];B[ak];W[ai];B[an];W[ao]
;B[am];W[bp];B[qs];W[rs];B[ps];W[sr];B[jk];W[kl];B[jl];W[fp]
;B[hp];W[ki];B[ji];W[jj];B[ij];W[kj];B[nj];W[mj];B[hh];W[hg]
;B[ig];W[hi];B[hf]
(;W[gf]C[P: This was a misclick on my part.

 I wanted to play at G13. But no undo so it could have been the losing move for white I think.

The game is very tight I could not afford stupid mistakes like this!]
;B[gg];W[fg];B[gi];W[hg];B[mn];W[mo];B[gg];W[fh];B[hg];W[fi]
;B[gj]C[P: Another painful sequence white is behind now.]
(;W[sg]C[pet:

better Q10, see var];B[si]
(;W[io]LB[pj:A]C[pet:
A might win the game, see var];B[jo];W[kp];B[jp];W[jn];B[en]
;W[jm];B[kn];W[in];B[ko];W[il];B[ik];W[hm];B[hl];W[eo]C[P: I manage to get some points back
yes, well done];B[gn];W[pj];B[pl];W[fn]C[P: I missed S10! Could have been over!
pet: ... happens];B[rk];W[fm];B[el];W[hn];B[gl];W[ek];B[fk]
;W[dg]C[P: The game is tight and yet I play this strange move, I was thinking of aji, but I should have first taken G16 for example.
pet: yes];B[ll];W[lk];B[gd];W[im];B[sh];W[sf];B[pp];W[po];B[nq]
;W[ei];B[tt]C[P: the game seems over and it looks like black wins by a tight margin.]
;W[fe];B[tt]C[P: Black passes again and white has to try something to win...]
;W[ic];B[jd];W[ib];B[ia]C[P: The losing move, K18 is the move black should have played, this ko will be painful for black.

Even if I can not win the ko, I expect compensation elsewhere to be enough to win the game. White has many more ko threats since black did play a bit thin in some shapes...

In the end white wins because of this ko.

pet:
so one can say lucky win.

frist of all:
your feeling of having trouble playing against an opponent making a lot of territory is right;

second:
but this is because of the amount of slow moves, not because of the style of your opponent.
b was just a bit defensive and makes very safe moves 
(which are sometimes also slow) and of this you can't take advantage, cause b waits for any slow w move and got some 
points extra, more then once.

so i think you improve (not only a bit) if you get a clear jugement about the following:

1) urgent move (not difficult, you urgent move i think)
2) double sente move (moves which are for both players sente)
3) sente moves (opponent has to answer)
4) reverse sente (prevent opponents sente)
5) gote (bigger moves first, you can only play one gote move, then oppontent play all his sente moves)

perhaps it helps, when you guess which kind of move you are playing and compare your guessing with your opponents answer

I hope the review was proper, if you have any further questions let me know (KGS: pet), you can leave a message.

END OF COMMENTS];W[ja];B[jb];W[ha];B[rq];W[rr];B[ia];W[lg];B[mf]
;W[ha];B[do];W[co];B[ia];W[rj];B[sj];W[ha];B[nh];W[oh];B[ia]
;W[sk];B[sl];W[ha];B[jc];W[gb];B[ia];W[gc];B[ga];W[jh];B[ih]
;W[ha];B[ap];W[aq];B[ga];W[kg];B[jh];W[ha];B[ka];W[ga];B[tt]
;W[tt]TW[aa][ba][ca][da][qa][ra][sa][ab][bb][db][fb][rb][sb]
[ac][bc][cc][dc][fc][rc][sc][ad][bd][ed][fd][gd][rd][sd][ae]
[be][de][ee][se][af][bf][cf][ag][bg][cg][eg][pg][ah][bh][dh]
[nh][ci][mi][lj][bo][do][ap][cp][ep][rp][sp][bq][cq][dq][rq]
[sq][ar][br][cr][dr][as][bs][cs][ds][ss]TB[ja][la][ma][ib][kb]
[lb][mb][ic][kc][mc][nc][kd][ld][md][nd][od][ke][le][ne][oe]
[jf][kf][lf][kg][lg][hi][ii][rj][gk][hk][ok][qk][sk][al][bl]
[ol][ql][rl][pm][qm][gq][hq][iq][jq][mq][gr][ir][jr][kr][lr]
[mr][nr][or][hs][is][js][ks][ls][ms][ns][os])
(;W[pj]
(;B[pl];W[rj];B[qk];W[sj])
(;B[qk];W[ol];B[ok];W[pm];B[ql])))
(;W[pj]
(;B[ol];W[qk];B[rj];W[pl])
(;B[pl];W[rj];B[qk];W[sg];B[sj];W[sh];B[rk])))
(;W[ih]
(;B[gf];W[fe];B[fg];W[gg])
(;B[gg];W[hh];B[gf];W[fe];B[fh];W[fi];B[fg];W[ei];B[eg];W[dg]
;B[gd];W[dh];B[jh])))
(;W[rm]
(;B[sn];W[pm];B[ol];W[qm])
(;B[rl]
(;W[qm];B[sm];W[pm];B[ol])
(;W[sm];B[qm];W[sn];B[sl];W[so];B[ql]))))
(;W[mg];B[ng];W[nh];B[mh];W[lg];B[lh];W[kh];B[mj];W[ki];B[lj]
;W[jg]C[pet:
this leaves b with some bad cuttingpoints if w Q10]))
(;W[kf];B[og];W[pg];B[kh];W[jg];B[ii];W[ig];B[hg];W[hf]))
(;W[rj];B[rf];W[rd];B[pg];W[ql];B[pl]
(;W[rk];B[on];W[nn];B[lk];W[mk];B[mj];W[ml];B[nj];W[lj];B[li]
;W[kj];B[mi])
(;W[mk])
(;W[om];B[rk];W[qk];B[pj];W[rl];B[ri];W[sk];B[si]
(;W[pm];B[qm];W[rm];B[sm];W[nj])
(;W[sm];B[sn];W[sj];B[qh];W[rm];B[pm];W[mk];B[ml]
(;W[nl];B[mj];W[lk];B[nj])
(;W[mj];B[nl];W[kl]))))
(;W[qh]
(;B[rf];W[rd])
(;B[qg];W[pg];B[rf];W[rd])))
(;W[pf]C[pet:
this is an important move, but to slow at the moment;];B[of]
C[pet: there is no good continuation for w now, so Q14 is blacks privileg whenever he wants]

(;W[og])
(;W[nb];B[oa]))
(;W[kf];B[ke];W[le];B[lf];W[je];B[ld];W[jf];B[jd];W[ig];B[ie]
;W[kh];B[hg];W[ih];B[gf];W[hh];B[gh];W[gi];B[fh];W[fi]C[pet: good for w, w can launch a double attack to both sides]
)
(;W[hp];B[hq];W[gp];B[gq];W[io];B[jo];W[jp];B[iq];W[jn];B[ko]
;W[in];B[al];W[aj];B[gm];W[fn];B[fm];W[fk];B[hl];W[lo];B[kp]
;W[ij]C[pet: good for w]))
(;W[fo]
(;B[db];W[dc]
(;B[ea];W[cb];B[da];W[ca];B[fa])
(;B[be];W[bd];B[ea];W[cb];B[da];W[ca];B[fa]))
(;B[dc];W[db]
(;B[cc];W[bc];B[bd];W[be])
(;B[cb];W[cc];B[ea];W[da]
(;B[ca];W[fa];B[bc];W[bd];B[ab];W[ba];B[ad])
(;B[be];W[bd];B[fa];W[bb])))))
(;W[bm]))
(;W[dh]C[pet: correct shape]))
(;W[de];B[ef];W[eg]
(;B[dg];W[eh]C[pet: perfect for w])
(;B[fg];W[gf];B[dg];W[eh]C[pet: even better for w
see f18 is sente now!])))
(;W[cm]C[pet: i just tried, but bad for w];B[cn];W[bm];B[bn]
;W[bl];B[do];W[en];B[eo];W[fn];B[cp]))
(;W[em]C[pet: i just tried, but bad for w];B[cn];W[co];B[en]
;W[do];B[el];W[fm];B[dl]
(;W[fk];B[fl];W[gl];B[gm];W[fn];B[gn];W[fo];B[gk];W[hl];B[ek]
;W[fj];B[ej])
(;W[gk]C[pet: i just tried, but bad for w];B[fl];W[gl];B[gm]
;W[fn];B[gn];W[fo];B[ej];W[ek];B[fk];W[fj];B[gj];W[fi];B[hk]
)))
(;W[ge]C[pet:
some might play here, but i think would'nt help w too far];B[gd]
)
(;W[db]C[pet: if w want to settle the corner d18 is the right choice]
;B[eb];W[ec];B[ed];W[dc];B[fd];W[di]C[pet:
this is big, but seems not enough for w]))
(;W[ql]C[pet: but b will not die complete]
(;B[rj]C[pet:
b lives, w gets influence];W[ol];B[pl];W[ok];B[oj];W[pj];B[om]
;W[nl])
(;B[pl]C[pet: 
w gets some territory];W[rj])))
(;W[om]C[pet:
the cut is not really working, so p7 is better];B[on];W[nn]
;B[nm];W[ol];B[mm];W[ql];B[qq];W[lo];B[lp];W[ln]))
(;W[qq]C[pet: First idea would be living in the corner, but ...]

(;B[no]LB[on:A]C[pet: this would end still ok for white, but b can answer instead with A. See var.]
;W[on])
(;B[on];W[no];B[mp]C[pet: Now b is strong on both sides, not the best result here]
))
(;W[ql]C[pet: so if you like fighting this move might do it.
the r6-group against r4-group.]
(;B[no];W[on];B[om];W[nn];B[pl]
(;W[rn]C[good for white])
(;W[qm]C[good for white]))
(;B[pl];W[om];B[on];W[no];B[mp];W[nn];B[nm];W[ol];B[mm];W[lo]
;B[pk];W[lp]C[also good for white])
(;B[on];W[no];B[mp];W[nn]C[good for white])))
