(;FF[4]GM[1]SZ[19]ST[2]CA[UTF-8]AP[SGFC:1.15]

PB[newsman]
BR[6k]
PW[humbleCow]
WR[5k]
KM[0.5]
DT[2008-02-02]
PC[The KGS Go Server at http://www.gokgs.com/]
RE[B+Time]
TM[1500]
OT[5x30 byo-yomi]
RU[Japanese]

C[humbleCow [5k\]: enjoy
newsman [6k?\]: gg];B[pd];W[cp];B[pq];W[qo];B[np];W[qq]C[I wanted to settle quickly so I could try to move on to big points, so I chose R3

Yes its a  good move to settle];B[qr]
(;W[rq]C[this is a bit passive i think since it is still the beggining and you  have no reason to avoid the second variation of the normal  joseki   shown before]
;B[pp];W[rr];B[dd]
(;W[gc]C[This was a misclick actually, I meant to play F17.

I considered making shimari with C4, but I didn't want to allow black to get a start on solidifying a framework on the top side

F17 is good  , shimari also good , cant say what is better.]
;B[dg];W[db];B[cc]
(;W[nc]C[I felt I had to do something to forestall the damage from a black J17 and subsequent development from Q16

Maybe an extension to K17 would be a better way to protect?

Yes K17  is  a  lot  better than this one  since the  D18  and G17 stone can come  under attack now]

(;B[oc];W[nd];B[ob]C[
I was taken aback by this move.  O18 seems overconcentrated and slow, and Q15 might end up giving me outside influence which I'm not sure now to use.

 this move and the mve black  played before this   looks  kind of bad actually since they both give you th  chance to  defend the weakness of  D18 and G17 stones]

(;W[qg]TR[db][gc][nc][nd]C[I have a feeling this is a bad move, but I wasn't sure what else to do.

I felt that I could rescue the O17 group without much trouble if they were under attack.  Maybe I'm fooling myself about this

This is a bad move since it creates   alot of weak groups for white,  all the marked stones luck  space for eyes still]
;B[of]C[Of course balck did well to not let you connect];W[re]
;B[rd];W[qe];B[pe];W[kc]C[I seemed to stop him from getting the right side.  he did enter the center though.

Yes , if black played somewhere there first  it would be disastrous for white]

(;B[eq];W[iq]C[A move like D6 or D5 seemed slow and just giving up the lower side

Yes this looks interesting , it will provoke a fight];B[cq]
;W[lq]C[I hoped to slide to O2 later and steal the black group's base

Although  the  corner stone at c4 will suffer if black plays there first this is an interesting choise here since it attacks  blacks group.]
;B[mr]TR[np][pp][pq]C[Now you need either  continiu attacking  blacks  marked  group or defend c4]

(;W[ci]C[N2 didn't seem severe enough to make me respond when so much is about to be solidified on the right side.  By now I feel that I have too many precarious unconnected groups on the board, but how else to break up black's advantageous starting position?  I hate moyo games, so...]
;B[cl];W[bg]C[I liked the idea of scooping out black's base for my own safety.

yes this is a good move as  far as it conserns the  top leftt part of the table]
;B[bf];W[cg];B[cf]
(;W[ei]C[I think you'll hit me with the bamboo stick for not making correct shape at D12.

It seemed to give better access to the center, but maybe I'm fooling myself.]
;B[el]
(;W[dq]C[this is what I love about the 3-4 point.. it's so hard to complete neutralize it

Still this isnt a  good move, i see you later  made life in the corner  but still the proper would be  b3 instead of this]
;B[dr];W[bq];B[dp];W[cr];B[co];W[ar]
(;B[bp];W[bs];B[kr]C[now white has a group under severe attack]
;W[kq];B[mq];W[jr];B[hp];W[lr]C[felt the need to make a sure eye right away
 yes    since black left you the chace  it was right to take it right away]
;B[qk]C[this is the price of having too many groups to take care of....

Yes in this possition black is way better
he has both more thickness and safe territory];W[qd];B[qc];W[rc]
;B[rb];W[sd]C[r18 cut still a threat];B[rm]
(;W[rn]C[w can make 2 eyes for sure..];B[rh];W[qh];B[qi];W[mf]
;B[oh];W[pi];B[rj]
(;W[gm]C[yet another white group to care for.]
(;B[fk]
(;W[bk];B[bl];W[df];B[eg];W[af];B[bd];W[ee];B[de]
(;W[gi]C[bad move!.  white should connect at E14.

I let him become strong.];B[ef]
(;W[gk]C[foolish. this is not a tenable connect and I know it.]
;B[fj];W[fi];B[gj]
(;W[go]C[in retrospect this is not a very good safety move for whilte.  I needed to move toward connection with K2 group.

This move isnt  good since it  adds another stone with no base   for white
 and  black can  launch an attack at the   c13  group .

 and also can just conect at g4 and  threat to kill  2 groups 
(g4  looks the safest and better for black)]
(;B[gq];W[im]C[c13 group still needs attention];B[hj];W[gg]
;B[ho]
(;W[jl]C[I should have ignored and made another move to make safe above. yes   but then black would make  the other group suffer (see the variation)]
;B[rg]
(;W[rf];B[pb]C[now I realize that R18 was a big sente move.  Should have played it as it would have forced black to connect and make safe, while I took his corner in return. 

R18 isnt sente];W[sf];B[ph];W[cb]C[ignored my danger too long....]
;B[gf];W[ih];B[jj];W[jo];B[ll]
(;W[pm]C[trying to ruin center territory for black];B[qm];W[po]
;B[pl];W[om];B[if]C[oof!];W[he]C[terrible, terrible greedy move.  forced white to solidify against me below.

Of course he was aiming to cut at J17.];B[hf];W[dh]C[desperate move to try to make 2 eyes here.  I don't even think it's possible.]

(;B[dj]
(;W[ag]
(;B[bi];W[bj]
(;B[cj]
(;W[di];B[ai]C[humbleCow [5k\]: oh bloody hell
humbleCow [5k\]: time tesuji
newsman [5k\]: too bad
humbleCow [5k\]: thank you
newsman [5k\]: it was fun game];W[bh])
(;W[bh];B[di];W[eh];B[ai];W[aj];B[ch]C[not  a good ko for white]
))
(;B[bh]C[white dead like this]))
(;B[bj];W[ad];B[ac];W[ae];B[bb];W[be];B[ce];W[ba];B[dc];W[eb]
;B[fd]C[cant kill black]))
(;W[cj])
(;W[di];B[bj];W[cj];B[ck];W[bi];B[ak])
(;W[kh]C[keep runing since  you cant  make eyes]))
(;B[bj]C[this is better to take whites eye space]))
(;W[hf]C[huge move])
(;W[qm];B[rl];W[on]C[better  do it like this]))
(;W[qb];B[qa];W[pc];B[pb];W[qc];B[od];W[rf];B[ph];W[sf]C[r18 isnt sente]
))
(;W[ge]
(;B[gn];W[fm];B[hm];W[hl];B[hn];W[jl])
(;B[jo];W[km];B[lo];W[hr];B[jl];W[jm];B[lk])))
(;B[gp]))
(;W[gg]C[I should keep caring for that group I think. yes
 group still in danger]))
(;W[hh]TR[gc][kc][nc][nd][mf]C[play for safety and   try to make moyo]
)
(;W[hg]C[or even  like this  but way more risky]))
(;W[ef];B[fh];W[be];B[ce];W[ae];B[ad];W[ag];B[dc];W[eb];B[cb]
C[you cant kill black in the corner  so  its better  to protect you  group at c13 than conect at e14]
))
(;W[dh];B[eg];W[bk];B[bl];W[bj];B[bh];W[ah];B[ai];W[ag];B[dj]
;W[gi]C[hard to make eyes there]))
(;B[rg];W[rf];B[ph]C[if black plays there]
(;W[sf]C[you get confined and loose too much])
(;W[qb];B[qa];W[pc];B[pb];W[qc];B[od];W[sf])))
(;W[mh]C[this would have kept threatening black.. yes?
yes this looks  a good way to counter attack for a bit]))
(;W[pr]C[better  take that stone and the corner than black at the second line since s7 isnt a   threat for cutting you]
;B[qp];W[rp];B[ro];W[rn];B[qn];W[so];B[po]
(;W[qm]C[still black could play this])
(;W[ro];B[qm]))
(;W[pn]TR[qk][rm][pp][mq][pq][mr]C[the best move is to cut the two black groups , now white has a chance in the game again since neither of the two black groups   has two eyes yet]
))
(;B[cs];W[dq]C[black can still make a ko]))
(;W[bq]
(;B[dp];W[cr]
(;B[dr];W[dq])
(;B[dq];W[bo];B[co];W[bp])
(;B[co];W[dq];B[bp];W[cq];B[do];W[er]))
(;B[cr];W[ep];B[dp];W[do];B[dq];W[eo];B[co];W[cn];B[bp];W[bo]
)))
(;W[dh]C[maybe this would have been more useful and flexible.

this looks better but i m not sure];B[eg]
(;W[dk];B[dl]C[this solidifies black's corner too much

this is a disaster for  white])
(;W[cn]C[counter attack?
doesnt look good enough

 if  the  maybe C11 stone was at c10 instead so you could  threat for a connection but not now]
;B[el]C[s])
(;W[el]C[maybe try this and see how black responds])))
(;W[lr]C[if black ignores this you can take  the eye space of his group]
;B[dp];W[or];B[pr];W[nr];B[mq];W[ms])
(;W[bq];B[dp];W[co];B[cr];W[lr];B[mq];W[gq];B[br];W[cl];B[cj]
))
(;B[qi]TR[qe][re][qg]C[still  you have this  group to care for]
;W[qd];B[rc];W[qc];B[qb];W[pc];B[pb]
(;W[od];B[oh])
(;W[ph];B[od];W[pi];B[qj]C[it is not in  immidiate threat of  death but you should keep it in mind]
)))
(;W[jc]C[A move  like this  looks good now since it conects all your stones.]
))
(;B[ic]))
(;W[jc]))
(;W[cf]C[also you can consider  attacking from this side]))
(;W[pp]LB[oq:A][rq:B]C[this is  how the joseki is normaly going  ,  Now black has 2 options , A and  B]

(;B[oq];W[rq];B[jq]LB[ql:B][rr:A]C[white has sente now as he can  make eyes with either  A or B]
)
(;B[rq]C[white cant connect at  R4 now couse his shape will be  realy bad so]
;W[oq];B[qp];W[pr];B[qq];W[op];B[po];W[oo];B[pn];W[ql];B[on]
;W[no];B[qn]C[this is  how the joseki goes])))
