(;FF[4]GM[1]SZ[19]ST[2]CA[UTF-8]AP[SGFC:1.15]

PB[tetete]
BR[8k]
PW[FelisRatus]
WR[8k]
KM[6.5]
DT[2008-01-24]
PC[The KGS Go Server at http://www.gokgs.com/]
RE[W+3.50]
TM[1800]
OT[5x60 byo-yomi]
RU[Japanese]

;B[pd]C[Hello!
In this game I play white and win by 3,5 points. I think, that opening was bad for me and I had really big problems with black upper-left moyo. So, I'll be grateful for any advice about my opening. Show me please, where I loose big or vital points in development. Where was better direction of play?
 Of course, any other comments are appreciated!
Thank You!
FR

P.S. Sorry for my bad english];W[qp]C[TH: Hello, I'm Tom Harrison (hotcoffee) and I'll do my best to review this game. Some of your questions are quite difficult for me to give absolute answers to, but I hope the suggestions I make are helpful.

TH: Final summary. There are 5 major points in the game that you should pay careful attention to:

You punished black for an early mistake in joseki which should have left you ahead, but need to remember the value of connecting your groups. 

You need to apply the following proverb to your game:
Do not play near thickness (eg. move 24 and 18)

You lost many points with the sequence beginning at move 24 - you should not have let black into your corner.

At move 20 you mis-read the direction of play - read the analysis at move 19 carefully.

When invading an opponent's moyo, play lightly and sacrifice stones if it helps you escape or live.

I hope this review has been helpful.
Good Luck!];B[cd];W[dq];B[do]
(;W[cm]LB[co:A][ed:B][ec:C]C[TH: I felt this move was slightly unusual. I do not think the move is bad, but it may be more normal at A, B or C. (see variations)]
;B[cq];W[cp];B[dp];W[co]C[Black's next move is a mistake, which you punish.
See the variation for the correct move.]
(;B[bq];W[eq]C[FR: what do You think about E2? Is ti better to move around b10 or even tenuki?

TH: E2? I'm not sure what you mean, unless it is a mis-type for E3.

The move you just played is good. This is an immediate threat to kill Black's corner stones, and it firmly separates the D4 stones.
Black has failed.

Perhaps tenuki would be a good idea for black now - to try to fight back elsewhere.]

(;B[bp];W[bo];B[dr];W[er];B[cs]C[TH: Black lives with a tiny group, and white has sente.
You asked where you lost vital points or misread direction of play.

I think your *next* move was a mistake - I'm not sure, but it looks wrong to me.

Try to work out what move I'd play - black has three safe groups, white has one safe group and two groups that each are *almost* very strong.
Another thing to consider is that after joseki, each player is usually even - the player that gains in immediate territory usually gives influence to the other player... black made a mistake here, so what has white gained?]
;W[iq]LB[en:A]C[TH: What about A instead?

It took me a long time to think about this one.
- I will mention it many times throughout the game; not to be mean, but to point out how much more efficient a stone here would have been. It is just one mistake, but it will haunt you.

The two black stones are almost dead here. It's unlikely that black's next moves will use thier aji...
But at some point, a fight *could* break out in the centre, or on the left. It might be important to catch the two black stones so you can connect.

These comments continue in the variation.]
(;B[ic]LB[nc:D][qf:C][qj:B][op:A]C[FR: I always have problems playing against low chinese.  In the game I choose'd between shimari (A), extension (B) and kakari (C or D). Which of this moves better? Is there any other good points?

TH: A is perhaps a "big" move. It encloses a corner and scores some territory. Unfortunately it places no pressure on black at all - it even helps. There is a very similar (slightly smaller) move at E16, so A is not terribly urgent.

B is a calm extension. quite nice, but (despite not having a stone at E6, yet) perhaps it would be better at Q10, because the strength on the other side of the board could be used to co-ordinate some sort of framework... then again, J3 is a low stone too, so perhaps that strategy would not work.

I like C. It is the best move you have suggested, and I don't think there are better moves available. 
Why? Because it is a long extension from your ideal corner and is a good place for either player on the right hand side.

(Make sure you have read the variation regarding E6. In this position E6 is less important, as J3 does some of it's job.)]
;W[op]C[TH: So far every stone you have placed is below the centre line.
Black will punish you now by taking the biggest point on the board - one that you just made more valuable with your last move.]
;B[qj]C[TH: This is a good move. Black an white both wanted this point so it is worth double what it would be if only one player wanted it. Black now has the beginning of a two wing formation in the top right.]

(;W[ql]LB[ed:a]C[FR: Isn't it to slow?

TH: You've just fallen behind, and this move is big, but does nothing to make Black worry. It is too passive, and too slow.

This move has become important. You do not want black to finish his framework. See the variation.]
;B[mq]LB[mo:a][or:b]C[TH: Now... Black can extend in two directions, so this is a sensible invasion.

Black has no room to extend to the left.
The main points black is aiming at are A and B.

White's proper response is to take one of these options away. (See variations)]

(;W[kq];B[or];W[pq]LB[mo:a]C[TH: Small. Black can push further under, and can also still escape.
Better at A.];B[mo];W[jn]LB[nn:a][on:b]C[TH: wrong side. Better at A or B. You lose all the benefit out the R4 and P4 stones now.]
;B[on];W[po]C[TH: Perhaps you made this shape because you know a "ponnuki is strong and worth points".

This is not a ponnuki - ponnuki are made in the opening by capturing a stone. Because you capture a stone it takes only 3 moves to make. You made this in 4 moves, and it has no influence over the board.]
;B[pn];W[qn];B[dj]
(;W[ck]C[FR: Was B9 or B10 better?

TH: I prefer B10. It has more spirit... but these stones are so weak, you may be best off capturing at E6.

C9 is such a short extension that it is hardly worth making.
You would not need to extend if you had a stone at E6.];B[cj]
;W[em]C[TH: Ouch. Seems like you lost a lot of moves (J3, C9) before making this one.]
;B[oj]LB[ed:a][nc:b][ob:c][qc:d][fj:e]C[FR: now it was really hard for me to decide, how to invade black's moyo.

TH: I think the best move is still E16. This corner is incomplete and you can split black's moyo slightly.

Other points to consider are B (which you played), C (which allows an extension either into the corner or along the side) and D - which takes some territory for sure but may be a little too good for black right now.

E is a key point that would be useful if the stone at P37 was white. 
You are too far behind on territory for E to be a sensible move for white right now.]

(;W[nc]LB[kc:a][pb:b][qc:c][ne:d]C[TH: White has many ways (ABCD) to run. A good invasion.]
;B[oc]C[FR: Is L17 instead of o16 playeble?

TH: Certainly. You are invading a strong moyo. You must play lightly and sacrifice stones whenever you can get an advantage by doing so. See variation.]

(;W[nd]C[TH: You become heavy, and allow black to take away your ideal extension.]
;B[lc];W[nf]C[TH: Good. Now you have no other choice but to run like this.]
;B[pf]C[TH: But black's corner is as good as sealed - you have lost the opportunity to invade R17. This is the disadvantage compared to L17 at move 40.]
;W[kc]C[TH: I'm not sure about this. How about getting some space with L15 instead?]
;B[kd];W[lb];B[kb];W[mb];B[jc]LB[mg:a]C[TH: you are not safe and need to run to the centre with A.]

(;W[oh]C[TH: The knight's move makes you weaker.

Run with the one step jump or diagonal move.

Almost never run with the knight's move. It is easily cut.]
;B[ph]TR[nf][oh]LB[kg:a][kf:b][lh:c]C[TH: Black let you off easily. You can still get to the centre.
Your marked stones may allow you to extend as far as A, B or C.

You can not make life at the top - there is not enough space.]
;W[ob];B[pb];W[na]C[TH: One eye.];B[ol]LB[mj:a]C[TH: Black takes the pressure off you.
Better for him to play at A, if he is worried about connecting his lower stones.]
;W[qe]C[TH: Overplay. You need to run still.];B[pe];W[qg];B[qf]
;W[pg];B[og];W[nh];B[of]TR[nf][nd][nh]C[TH: This move puts severe pressure on the marked stones.

They need to run or you could lost the whole group.];W[pi];B[qh]
;W[qi];B[rg];W[pj];B[pk];W[qk];B[oi]
(;W[rj];B[ri];W[qj]LB[kf:a]C[TH: This move is big, but very gote.
You need to think about urgent plays.];B[pr];W[qr];B[mm]LB[kf:a]
C[FR: now white O17 look's in trouble. Any ideas about saving it?

TH: Black should not let you have more than one eye at the top. Therefore you have to run.]

(;W[la];B[mc];W[ng];B[me];W[ne];B[dc]LB[kh:a]C[TH: Black can probably kill with A.]
;W[nk]LB[kh:a]C[TH: This peep does not help yet. Leave it for later.
Play A instead.];B[ok];W[ni]
(;B[nl];W[lj];B[kl];W[le];B[ke];W[md];B[lf];W[mf];B[kg];W[ld]
TR[ee][ge][ie][ig][ii][gi][ei][eg][df][dh][jf][jh][hd][fd]C[TH: Black is massively ahead now. He does not even need any points in the area marked by the triangles.]
;B[fj]C[FR: yeh, now it's alive, but in cost of blacks moyo in the upper-left. Now game looks almost hopeless for me and only crazy invasion saved it. So, I'll be gratiful for any hints about earlyer moves, lead to such disaster]
;W[jj];B[gh];W[jf];B[kf];W[jg]LB[he:a]C[TH: If black plays A, the game is over.]
;B[jh];W[hg]
(;B[hh];W[gg];B[cg];W[ei];B[ej];W[dg];B[cf];W[ee];B[fd];W[fe]
C[FR: is it possible for black to kill?

TH: Black is ahead by a few points if he does not kill. Perhaps he should just solidify his borders?]

(;B[fg];W[gd];B[gc];W[fc];B[ed];W[hc];B[gb];W[hb];B[fb];W[he]
;B[ki];W[ff];B[id];W[fh];B[eh];W[fi];B[dh];W[di];B[ci];W[eg]
;B[ch];W[df]
(;B[gi];W[hd];B[fg];W[fh]C[FR: My big misstake :( I think, it's better to defend around g7?
TH: Yes that move was small.];B[gm];W[fo];B[go];W[gp];B[ho]
;W[hp];B[lr];W[kr];B[ks];W[js];B[ls];W[jr];B[il];W[kj];B[qs]
;W[rr];B[bk];W[br]C[FR: lost ko threat :(

TH: Indeed.];B[ar];W[ap]C[TH: and another.];B[bs];W[bl];B[bj]
;W[ii];B[ih];W[hj];B[gj]C[TH: black wastes a move.];W[hl];B[hm]
;W[hk];B[fl];W[ce];B[be];W[de];B[bc];W[lh];B[kh];W[lp];B[mp]
;W[lq];B[nr];W[fn];B[ko];W[jo];B[lo];W[qc];B[pc];W[qa];B[pa]
;W[qb]
(;B[qd]LB[rd:a]C[TH: Black has a better move at A. See variation.]
;W[rd];B[re];W[rb];B[sd];W[sc];B[rc];W[dd];B[sb];W[ec]
(;B[db]C[TH: Black could have saved his stones. See variation.]
;W[eb];B[ea];W[fa];B[da];W[ga];B[oa];W[nb];B[sh]LB[sj:a]C[TH: Better here.]
;W[rs];B[ps];W[al]LB[ak:a][dk:b][pm:c]C[TH: You can play A instead.

B and C are probably bigger.];B[ak];W[sj];B[si];W[mk];B[dk]
;W[cl];B[dl];W[dm];B[es];W[fs];B[ds]LB[fr:a]C[TH: a black play at A does not work. You do not need to defend.
You are now ahead.
Commentary ends here.

Read the summary written at move 2 again.
Good luck with your games.];W[fr];B[aq];W[ao];B[qm];W[rm];B[pm]
;W[rn];B[li];W[mi];B[lg];W[ll];B[lm];W[jl];B[jm];W[jk];B[kn]
;W[ik];B[im];W[jp];B[kc];W[ja];B[mh];W[nj];B[no];W[ib];B[el]
;W[gk];B[fk];W[ie];B[je];W[kk];B[km];W[fi];B[ei];W[fg];B[ig]
;W[if];B[mg];W[ml];B[io];W[ip];B[oq];W[in];B[np];W[oo];B[hi]
;W[ji];B[tt];W[jb];B[tt];W[tt]TW[ha][ia][ma][fb][gb][gc][ed]
[fd][ge][me][ef][gf][hf][ij][mj][lk][rk][sk][rl][sl][am][bm]
[sm][an][bn][cn][dn][en][sn][do][eo][qo][ro][so][dp][ep][fp]
[pp][rp][sp][fq][gq][hq][jq][qq][rq][sq][gr][hr][ir][sr][gs]
[hs][is][ss]TB[aa][ba][ca][qa][ra][sa][ab][bb][cb][qb][rb][ac]
[cc][qc][sc][ad][bd][jd][rd][ae][qe][se][af][bf][rf][sf][ag]
[bg][pg][qg][sg][ah][bh][lh][rh][ai][bi][di][aj][ek][nm][om]
[ln][mn][nn][nq][br][cr][mr][as][ms][ns][os]C[Thanks alot for help!
Good luck!
FR])
(;B[eb]))
(;B[rd]
(;W[qd];B[re]C[TH: Dead])
(;W[re];B[qd]C[TH: Dead])))
(;B[hd];W[ge]C[TH: Black still more than 10 points ahead.]))
(;B[gd]LB[he:a][ih:b]C[TH: I think this move is quite good.

Now if white threatens to live with A or B for example, black doesn't need to worry about white reducing his territory.

Black wins on points, not with a kill.];W[he];B[lr]C[TH: Endgame.]
))
(;B[ih]C[TH: extend from the weaker side.];W[he];B[gd]C[TH: White can do nothing here.]
;W[hh];B[hi]))
(;B[nj]C[TH: Black can push through and damage you.];W[mj]C[TH: You cannot connect this way.]
;B[mi]
(;W[li]C[TH: This will not work.];B[mh];W[lg];B[lj];W[mk];B[lh]
;W[ki];B[mg];W[mf];B[kh];W[kg];B[jh])
(;W[mh];B[li];W[lg];B[lh];W[lf];B[mf];W[mg];B[jh];W[jf];B[hh]
C[TH: How will you escape?])))
(;W[mc]C[TH: This is not much better, but does at least help your connection below.]
;B[la];W[le]C[TH: This might help you escape... I'm not sure. You are in trouble.]
))
(;W[ri]LB[kf:a]C[TH: Locally, this move is better.

But you *need* to play moves to escape with your upper stones.
You strengthened black *so* much with your overplays you are almost dead.]
))
(;W[mg]))
(;W[kc];B[nd]C[TH: If black wants to win your O17 stone...]
;W[ke]C[TH: You escape with the new stone.

Later you can press on the gaps in blacks formation on the left, depending on his next move.]
))
(;W[ed]C[TH: This seems to just about work.];B[ec];W[fc]
(;B[eb]
(;W[fd];B[dd];W[hd]C[TH: It is possible that this pattern might work although it looks tough to play.]
)
(;W[ee];B[df];W[he]C[TH: You might be able to escape like this.]
))
(;B[dc];W[fd];B[ie];W[fg]C[TH: White must run.]))
(;W[ob]LB[lc:a][qc:b]C[TH: Depending on black's next move, white extends along the side or takes the corner.]
)
(;W[qc]C[TH: Too early for this move - watch the continuation.]

(;B[qd];W[pc];B[oc];W[ob];B[nc];W[nb];B[mc];W[rd];B[re];W[rc]
;B[qf]TR[ne][nh][ph][pf][rg][rh]C[TH: White gets a lot from a corner invasion like this.
But now further attacks on black in the triangled area seem impossible. Black is securely ahead.

This invasion (or one similar) has to wait till later.])
(;B[pc];W[qd];B[qe];W[re];B[qf];W[rf];B[qg];W[pb];B[ob];W[qb]
;B[nc]TR[kc][md][ke][nf][og][mh]C[TH: Possibly not as good for black as the other option, but the triangled area is still difficult to break into.
White needs to try somewhere else first.]))
(;W[fj]TR[oj][on]C[TH: If the marked stones were white, this move would be a key point on the edge of two frameworks.

In the current position however, it lets black finish securing his territory and has little benefit for white.]
;B[ed]))
(;W[en]))
(;W[nr];B[mo])
(;W[mo]TR[or][pq][kq]SQ[lp][ko][jn]C[TH: In this variation, black will likely live small along the bottom and corner (the triangles), and may need to run to create a second eye (towards the squares). If black runs to the squares, suddenly the two black stones cutting your groups apart can become important again - this is why capturing them at E6 would have been such a good move.]
))
(;W[ed];B[df];W[cc];B[bc];W[dc];B[bb];W[gc];B[ff];W[ge];B[fe]
;W[fd]TR[do][dp]C[TH: Something like this could help break black up a bit.

But black can extend with sente along the left, due to the two marked stones.]
))
(;AE[iq][pd][qp][cd]LB[iq:a][el:b][en:c]C[Warning: I'm going to use a kind of "tewari" analysis.

(The problem with tewari analysis is can be misleading, but I think it works in this case.)

You played A.

At some point, there may be a fight (the left hand side white stones do not yet have a base) and black may make a threatening move using the aji of the two black stones. For the sake of the argument I'll say it is B - but many moves around the centre could be sente using this aji.

After B (assuming it is a sente threat) you will have to connect by capturing two stones in a net with C.

But there is a proverb: "If you are going to play A and expect B then play C, then why not just play C?"]
;W[iq];B[el];W[en]LB[iq:a][el:b][en:c]C[TH: Once there is a stone at C, the stone at A looks badly placed. It would be better at M4 or even further away.]
;AW[qp]AB[pd][ic][cd]AE[iq][el]LB[en:C][iq:a]C[TH: so, rather than play A and become overconcentrated later, the C move connects your groups, and radiates strength along the left hand side and bottom of the board.
You can now expand up either the right hand side or the left (depending on black's move) and will dominate all fights over the territory at the base of the board.

Black has surely lost.]))
(;B[dr]C[TH: This alternative for black fails.];W[er];B[bp]
;W[bo];B[cr];W[bs]C[B dies]))
(;B[cn]))
(;W[co]C[TH: One simple joseki is shown here, there are many alternative to this line, and I do not know which is best.]
;B[cn];W[cp];B[dm];W[fq];B[ci]C[TH: It seems White gets a nice corner, and Black is a little ahead on development. Probably fair.]
)
(;W[ed]C[TH: I believe this game is balanced.])
(;W[ec]C[TH: This variation is suggested in the Dictionary of Modern Fuseki, which says the result is an even game.]
;B[hd];W[ch];B[ed];W[ck];B[dc];W[fp]))
