(;FF[4]GM[1]SZ[19]ST[2]CA[UTF-8]AP[SGFC:1.15]

PB[unknown]
PW[Jordan]
WR[2d]
KM[6.5]
DT[2008-01-28]
RE[W+11.50]
TM[1200]
OT[5x30 byo-yomi]
RU[Japanese]

C[Personally I was not satisfied by my play this game, I felt that I should have been able to punish black's unreasonable plays better. I'd like to get some insight into the better moves. Thanks.

Forfun (hereafter ff): Thanks for providing an exciting game to review.  There were a lot of interesting points and I hope I am able to point out a few things to try to improve on as we go through them.

You mention punishing Black's unreasonable plays better.  However, in the game notes you do not mention which plays you thought were unreasonable.  At a couple of key points White made unreasonable cuts (as we will see).  This put White behind in the early going and left Black thick.  It is difficult to "punish" your opponent when you are equally weak.  A key to improving for all of us is being able to understand our own plays in a balanced way - not only the good aspects we would like them to have but also the negative aspects they bring with them as well.  Let's look at what I mean...]
;B[pd];W[pp];B[dc];W[do];B[de];W[jc];B[lc];W[gc];B[hd]LB[kd:B]
[je:A]C[here i'm pretty sure black played H16 too early. I was thinking of G16 and leaving k17 alone but thought against it because of what I could lose... I ended up answering this poorly.

I was thinking that it might be better to give up some stones to get out into center and prevent black's thickness rather than attempt to live and give black so much influence towards the center. So maybe A or B may have been better than simply responding to black?

Although I feel B is rather slow it gives me a strong attack at O16/17 later, or that's what I was thinking.

ff - This is a new fuseki introduced by Lee Changho in 2005.  At the professional level, White virtually always answers at H17.  We will see what this is all about as we go along.  In general it can not possibly be good to give up G17 in order to escape into the center at this time.  If it were good then it must be better for White to jump to K15 right away, without playing G17.  Basically White is not unhappy to live along the top side.  It is then up to Black to prove that settling this weak White so early was a good idea...]
;W[hc];B[jd]
(;W[kc]C[ff - Normal is J16 as shown in the variation.  This is one alternative.  It is quite rare in professional play but that does not mean it is wrong.  See the variation for the more typical play here...]
;B[kd]
(;W[ld]C[ff - This is a very aggressive play since there are no supporting White stones anywhere in the area.  It looks like White is trying too hard here = an overplay.  White has to have some help on the outside to play like this.  Here Black holds both the right and the left corners.  There are no stones in the center.  White may have felt that fighting spirit required the cut but if we look at the result, White has created a weak stone without hurting Black.]

(;B[mc]C[ff - See the variation for the more common alternative here...]
;W[id];B[ie];W[ic];B[he];W[le]C[ff - White has no good follow up to this play, so it would be better not to play it now.  Depending on how things develop, White might want to play something else later.]
;B[kf]
(;W[fe]C[ff - White needs to seek eyes.  This play does not do so.  Better to just slide to E18...]
;B[ff];W[ee];B[ef];W[eb]C[ff - White turns back to the side.  The two White stones above leave some potential to play the hane at G14, but in return Black has greatly increased the outside influence along the left side.]

(;B[db]C[ff - See the variation...];W[ec]C[My very bad result for me in my opinion result... Very painful I think there is probably a better way to play this i Believe

ff - The point is that F15 and E15 contribute nothing to White' eye shape.  They strenthen Black.  Better not to have played them at all.  Fundamentally however, the problem was the cut at M16.  It is of no value to White on the outside and left White one play behind on the top side.  Go back to that point in the game and look at the result if White simply plays M18...]
;B[cf]
(;W[qf]C[ff - This play does not attempt to maintain a connection with the stones at M15.  This declares that they are a mistake.  But that means that they were better not played at all.]
;B[pf];W[pg];B[of]
(;W[qe]C[ff - It is an interesting question whether White can do better than this.  See the variations.  Fundamentally the play at R15 is played when White has at least the threat to push through at Q15 and cut.  That is not a realistic option here so perhaps something else would have been better.]
;B[qd]
(;W[og];B[ng];W[nf]C[ff - Is this a good aggressive play or an overplay like M16?  It depends on what White intends here...]
;B[od]C[ff - Black chooses to fix the defect in his shape...]

(;W[oi]LB[mg:2][nh:1][oi:3]C[Although here it may be safer to play R11, I felt that playing low would be too slow to play fight against black's thickness. Here was wondering if the atari would be better rather than the jump. (playing in the numbered sequence instead?)

Just simple yes/no here you do not need to get into too much detail unless there was a better way.

ff - White backs off from the cut at O14 and tries to play it safe.  This makes O14 into an overplay like M16.  It is not clear that it has to be that way.  See the variations...]

(;B[mg];W[dq]LB[ck:A][pl:C][jp:B]C[maybe a better move elsewhere? Perhaps one of the marked moves instead?

ff - This is the most natural play here.];B[jq]
(;W[hq]C[Felt this was wrong side.

ff - With the plays in the upper right, this is an opportunity to play similar to Black on the upper side.  The play from the opposite side, at M3, looks better.  See the variation...]
;B[nq];W[pn];B[pj]C[Was considering goint on top but thought it'd be too dangerous. would going on top have been better?

ff - This looks like an overplay but White has some weaknesses in the upper right as well so it is not all one way here.  Fundamentally White would like to push Black around in order to invade the bottom...]

(;W[pi]C[ff - Makes White safe in the upper right, but probably this is too passive.  See the variation...]
;B[pm]
(;W[qm]C[ff - This looks like the wrong direction.  White should want to build up the outside strength in order to invade the bottom 3-space extension.]
;B[pl];W[on];B[ql];W[rm];B[qj]
(;W[nk]C[ff - This looks like the wrong play.  First, it pushes from the top right, but the top right offers nothing for White.  Second, Black has the slide at S12 to damage White's eyes.  Therefore it is not a good idea to let the top right stones be cut off in sente.]
;B[nl];W[ml];B[nm];W[mj]C[ff - White has to go back and connect but this is too slow overall.]
;B[rh]
(;W[qh]C[ff - This leads to Black being stronger than White here.  See the variation...]
;B[rg];W[qg];B[mm];W[mo]C[ff - White is pushing from behind here.  This play does not really threaten the right side Black stones.]
;B[pr]C[ff - Black correctly judges that the lower side stones are more in need of strengthening.]
;W[lq]C[ff - In the game White uses this stone to make the lower right White stones safe.  However, this is a very sad result strategically.  White ends up far behind.  However, White does not seem able to attack the whole Black position and White's stones could end up under attack if he is cut during the fighting.]
;B[lr]
(;W[mq];B[mr];W[oq];B[or];W[np];B[nr];W[ll];B[lm];W[kq];B[kr]
;W[km];B[kn];W[ln];B[rl];W[rf];B[ri];W[rk];B[sm]
(;W[rn];B[sn];W[so];B[sl];W[ro];B[ok];W[om];B[nj];W[mk];B[ol]
;W[ni];B[cm];W[sg]C[ff- In the game, Black answered this play.  However, I do not see how White would kill if Black played away.  See the variations...]

(;B[qk];W[dk]C[Of course here I didn't black to make territory on left or else I would be behind by a lot. But is this the best? Perhaps there is a better point? Like E7, to make territory in the center?

ff - Currently Black has a significant lead.  White has to attack something and the lone Black stone is the only realistic target.  This pincer attack makes sense.  Probably it can not succeed in this situation, but it is the right try.]
;B[em];W[fk];B[bk]C[ff - Black plays it safe.  If Black jumped again to G7, it is not clear who is attacking and who is defending.]
;W[bj]C[ff - White can not let Black simply connect, but Black is too strong at the top for this to work.]
;B[ck];W[cj]
(;B[dl]C[ff - This was good enough for Black, but the cut at D10 looks better.  See the variation...]
;W[dj];B[bo];W[bp];B[co];W[cp];B[dn]C[ff - Black is absolutely alive.  Objectively White has a lost game.]
;W[eo];B[ap]C[ff - A strange thing begins to happen.  Until now Black has been aggressive all around the board.  Suddenly Black begins to play very conservatively and White starts to take the bigger points.]
;W[fm]C[ff - Good judgement.  The center is definitely bigger than the lower left edge.]

(;B[kh]C[ff - Another very slow, thick play.  See the variation...]
;W[jp]C[ff - Another big play.];B[iq];W[ip];B[hr];W[gr];B[ir]
;W[gq];B[kl];W[jm];B[ek];W[ej];B[fn];W[gm];B[en];W[el];B[gn]
;W[rd];B[rc];W[sc];B[rb];W[ji];B[ki];W[kj];B[im]C[ff - In the first half of the game Black has outplayed White - with a lot of help from White.  Now, in the second half White builds forty points of territory in the center by destroying Black's thickness - with a lot of help from Black.]
;W[in]
(;B[hn];W[hm]
(;B[il]C[ff- Black pulls out a stone that does not count, and...]
;W[jn]C[ff - White connects two stones that do count.];B[jj]
;W[ii];B[gj];W[gi];B[fi];W[hj];B[gh];W[hi];B[fj];W[gk];B[hh]
;W[fh];B[ih];W[jk];B[bq];W[jh];B[jg];W[lg]LB[je:6][ke:7][jf:8]
[lf:2][mf:3][kg:4][lh:1][mh:5]C[The plan if black cut was is the shown sequence. Just incase you were wondering :) (Don't think you were wondering though, or at least I hope you weren't)]
;B[lf];W[lh];B[kg];W[li]LB[je:3][ke:4][ne:2][if:7][jf:6][mf:1]
[gg:8][ig:5]C[Similar to the last one, if black did not reply I would cut at N14 and capture the 3 stones.]
;B[mf];W[da];B[ca];W[ea];B[cc];W[bg];B[ch];W[cg];B[dh];W[eh]
;B[bh];W[dg];B[eg];W[bf];B[fg];W[ei];B[be];W[df];B[ce];W[gf]
;B[af];W[gg];B[ag];W[ig]C[ff - These three stones are not as large as a play in the lower left, for example, but they complete a remarkable sequence where White has taken just over forty points in the center where nothing existed to start with. :-)]
;B[cq];W[dp];B[dr];W[er];B[cr];W[qq];B[fp];W[fo]
(;B[hp];W[gp];B[ho];W[fq];B[fs];W[es];B[gs];W[ep];B[pq];W[op]
;B[qr];W[lb];B[mb];W[kb];B[sb];W[ma];B[na];W[la];B[nc];W[sd]
;B[sh];W[pe];B[oe];W[sf];B[rq];W[qi];B[rj];W[ak];B[bl];W[ai]
;B[ah];W[ge]C[Very bad move I thought
was a mistake, r4 would have been better.];B[if];W[hf];B[io]
;W[jo];B[qp]
(;W[dd]C[ff - Very nice idea.  The order is slightly wrong, since Black could have escaped cleanly here.  See the variations...]

(;B[cd];W[bb];B[cb];W[bc]C[Was expecting a different order to this, and misread a seki (it should have simply been alive), or a kill(if he made a mistake)

ff - At this point I do not see how Black survives without a ko for life.  See the variation...  Comments end at this point.  Thanks again]

(;B[ae]TR[ab]C[Here I misplayed this... but played it wrong because i did not expect A15(since he kills himself). The marked position kills black.]

(;W[ba];B[ab];W[bi];B[ac];W[ed];B[bd];W[nh];B[mh];W[mi];B[ke]
;W[qo];B[mn];W[ko];B[nn];W[sq];B[sr];W[rp];B[qq];W[ds];B[cs]
;W[oj];B[no];W[oo];B[al];W[sp];B[hs];W[fr];B[gd];W[fd];B[aj]
;W[ar];B[aq];W[ak];B[hg];W[ig];B[aj];W[js];B[jr];W[ak];B[kk]
;W[lj];B[aj];W[ob];B[nb];W[ak];B[eg];W[ef];B[aj];W[bn];B[cn]
;W[ak];B[ih];W[hh];B[aj];W[je];B[jf];W[qc];B[qb];W[ak];B[re]
;W[se];B[aj];W[ne];B[me];W[ak];B[mp];W[lp];B[aj];W[md];B[nd]
;W[ak];B[fl];W[gl];B[aj];W[rr];B[rs];W[ak];B[ci];W[di];B[aa]
;W[aj];B[tt];W[tt]TW[fa][ga][ha][ia][ja][ka][fb][gb][hb][ib]
[jb][fc][re][ff][eg][fg][hg][gh][ih][oh][ph][fi][fj][gj][ij]
[jj][nj][ek][hk][ik][kk][lk][fl][hl][il][jl][kl][im][kn][qn]
[lo][po][fp][kp][mp][eq]TB[ba][oa][pa][qa][ra][sa][bb][ob][pb]
[bc][oc][pc][qc][ad][ld][md][je][le][ne][nf][si][sj][pk][rk]
[sk][cl][am][bm][dm][an][bn][ao][ar][br][rr][as][bs][is][js]
[ks][ls][ms][ns][os][ps][qs][ss])
(;W[ab];B[ac];W[ad];B[bd];W[ac]))
(;B[ab];W[ac];B[ba];W[ae];B[ad];W[aa]C[ff - This is a direct ko.  Black can not fill at B16 due to shortage of liberties.]
))
(;B[bb]C[ff - Better.]))
(;W[bb]C[ff - Better to start here?];B[cb]
(;W[dd]
(;B[bc]
(;W[cd]
(;B[ab];W[bd]
(;B[ae];W[ba])
(;B[ad];W[ae];B[be];W[ba]))
(;B[bd];W[ac]))
(;W[ab]))
(;B[bd];W[ac];B[ae];W[ab];B[bc];W[aa])
(;B[ac];W[ae]
(;B[cd];W[ad];B[bd];W[ae])
(;B[ad];W[cd]))
(;B[ab];W[bc]
(;B[bd];W[ba];B[cd];W[ae])
(;B[cd];W[ac];B[ba];W[aa];B[ad];W[ab])))
(;W[bc]
(;B[bd];W[dd]
(;B[ae];W[ac])
(;B[ab];W[ac]
(;B[ae];W[aa])
(;B[ba];W[aa];B[cd];W[ab])))
(;B[dd];W[bd];B[ba];W[ab];B[ac];W[ad];B[ae]))))
(;B[eq]C[ff - This looks better here...];W[go];B[ho];W[gp];B[fr]
;W[fq];B[es];W[hp]))
(;B[lo];W[mn];B[kp];W[mp];B[jn];W[il];B[io];W[jo];B[im];W[jl]
;B[hp];W[in];B[ko]))
(;B[jn];W[jl];B[il];W[jk];B[hn];W[io];B[hm]C[ff - Simplest?]
))
(;B[jm]C[ff - If Black gets in before White...];W[kl];B[lo]
;W[mn];B[kp];W[mp];B[jo]))
(;B[dj]C[ff - What will White do against this cut?  Black has many liberties on the group at the bottom left, so should win any fight due to the thick stones at the top.]
))
(;B[em]
(;W[qk];B[sh]
(;W[oj];B[sj];W[rj];B[qi];W[mn]
(;B[sf])
(;B[jm];W[kl];B[bo]))
(;W[rj];B[qi])
(;W[qi];B[rj];W[sk]))
(;W[sh];B[qk];W[si];B[sj];W[sf];B[bo])
(;W[rj];B[qi];W[qk];B[sh]
(;W[sj];B[sk])
(;W[sk];B[sj];W[si];B[pk]))
(;W[sj];B[rj])))
(;W[ro];B[so];W[sp];B[sn];W[rp];B[rn];W[qn];B[sl];W[ok];B[sg]
))
(;W[kr]C[ff - The usual alternatives do not seem to give a reasonable result if Black answers carefully.]
;B[kq];W[mr];B[lp];W[mq]
(;B[jr]
(;W[ls];B[mp]
(;W[np];B[nr])
(;W[nr];B[no];W[oq];B[np];W[or]))
(;W[mp];B[ks];W[hr];B[kn];W[ln];B[lm];W[ko];B[jo];W[jn];B[km]
;W[io];B[jp];W[in]
(;B[qq];W[qp];B[rq];W[rp];B[nr];W[ms];B[mn];W[lo];B[no];W[np]
;B[op];W[oq];B[or];W[oo];B[rs];W[cl])
(;B[nr];W[ms];B[qq];W[qp];B[rq];W[rp])))
(;B[mp]
(;W[jr];B[no];W[qq])
(;W[np];B[nr];W[ls];B[jr])))
(;W[mr];B[mq];W[kr];B[lp];W[kq]
(;B[nr];W[kp];B[ms];W[lo];B[mp];W[ll];B[no];W[nn];B[mn];W[kn]
;B[oo];W[po];B[qq];W[pq];B[rr])
(;B[kp];W[nr];B[oq];W[mp];B[qq];W[jp];B[jr];W[ls];B[ln];W[qp]
)))
(;W[rg]C[ff - This seems better here...];B[qh];W[qg]C[ff - This is better than the game.  Black has less eye shape here.]
))
(;W[qi]C[ff - Probably White needs to block here in order to secure the eyes of this group.  Notice that it also prevents Black from making two eyes on the edge.]
;B[mk];W[mm]))
(;W[om]C[ff - More appropriate here?];B[pl];W[ol];B[ok];W[nk]
;B[qn]
(;W[qo]C[ff - A little too aggressive?...];B[on];W[po];B[nl]
;W[nm];B[nj];W[ml];B[oj];W[lq];B[rj];W[rh];B[qi];W[qh];B[oh]
;W[ni];B[nh];W[ph];B[mj];W[ri];B[qj];W[rd];B[rc];W[se]
(;B[sc];W[rg])
(;B[rg];W[rf];B[sc];W[sd])
(;B[rf];W[rg])
(;B[sg];W[rg])
(;B[si];W[sh]))
(;W[po]C[ff - Good enough?...];B[qi];W[qh];B[qj];W[oj];B[pk]
;W[ro];B[rn];W[lq]C[ff - Something along these lines])))
(;W[oj]C[ff - This looks like a better approach here...];B[pl]
;W[om]C[ff - This play is one idea here.  It looks to the right but also toward the bottom...]
;B[ok];W[nk];B[ol];W[nl]C[ff - White closes Black in.  Next Black will live on the right side but White will get sente to invade the bottom...]
))
(;W[lq]C[ff - The right side looks more important than the left...]
;B[gq];W[hp];B[hq];W[jp];B[ip];W[io];B[iq];W[kp];B[ho];W[in]
;B[go]
(;W[qo])
(;W[lj]C[ff - This looks interesting too :-)];B[qq];W[qp];B[pq]
;W[oq];B[or]
(;W[nr];B[nq];W[op];B[mr];W[pr];B[ns];W[qr];B[np];W[no];B[mo]

(;W[mp];B[oo];W[nn];B[rq];W[rp];B[rr];W[mq];B[nr])
(;W[nn];B[lp];W[kq];B[ln];W[mq];B[mp];W[lr]))
(;W[nq];B[nr]
(;W[mr];B[rp];W[ro];B[rq];W[qn];B[cm])
(;W[rp];B[lr]
(;W[kr];B[mr];W[kq];B[rq];W[sq];B[sr];W[sp];B[rr];W[cl])
(;W[mr];B[ms];W[mq];B[kr];W[cl]))))))
(;B[nh];W[lf];B[lg];W[kg]
(;B[jf];W[mg];B[lh];W[mh]
(;B[mi];W[mf];B[ni];W[li];B[kh];W[ki];B[jh];W[nj];B[mj];W[mk]
;B[lj];W[lk];B[oj];W[kj];B[nk];W[oh];B[nj];W[pj];B[pk];W[nl]
;B[ok];W[kl];B[qj];W[qi]
(;B[qg]
(;W[qh])
(;W[rg]))
(;B[pi];W[qh];B[om]))
(;B[mf];W[me];B[mi];W[mf];B[ni];W[li];B[kh];W[ki];B[jh];W[nj]
;B[mj];W[mk]
(;B[nk];W[oj];B[lj])
(;B[lj])
(;B[oj];W[nk];B[oh];W[ph];B[pi];W[lj];B[oi];W[qi];B[qj];W[ok]
;B[pj];W[ri];B[rj];W[rg];B[qh];W[qg];B[si];W[rh];B[qm];W[rd]
;B[rc];W[re];B[nq])))
(;B[ke]
(;W[mg];B[lh];W[mh];B[mf];W[me];B[mi];W[mf];B[ne])
(;W[jf];B[je];W[gf]
(;B[ge];W[hf];B[if];W[kh])
(;B[jg];W[kh];B[mf]
(;W[if];B[hf];W[ig];B[hg];W[ih])
(;W[lh];B[mg];W[hf];B[if];W[jh];B[ih];W[ni]))
(;B[kh];W[jg];B[mf];W[ge];B[oh];W[ph];B[pi];W[qi];B[pj];W[qj]
;B[pk])))))
(;W[nh]C[ff - If White is going to use O14 to build up the outside, this looks like the natural play...]
;B[mg];W[oi]C[ff - This is the same play as in the game, but here White has exchanged O12 for N13 first.  Can Black play elsewhere?...]

(;B[dq];W[lg];B[lf];W[je];B[ke];W[mf];B[mh];W[mi];B[lh];W[kg]
;B[jf];W[kh])
(;B[mh];W[mi]C[ff - White builds a tremendous position on the right side.]
;B[dq];W[li];B[kh];W[fp]C[ff - White should not be dissatisfied with this development.]
))
(;W[lf]C[ff - This looks like the real follow up to O14.]
(;B[lg]C[ff - Looks impossible...]
(;W[kg]
(;B[jg];W[kh])
(;B[nh];W[jf];B[je];W[ke]))
(;W[mg];B[nh];W[mh];B[ni];W[qi]C[ff - Now both White and Black have weak stones.  The various cutting points in Blacks center wall make this look possible for White.]
))
(;B[kg]
(;W[lg];B[nh];W[lh];B[qg];W[qh];B[rg];W[oi];B[ni];W[rh])
(;W[nh];B[mg];W[lg];B[mh];W[lh];B[mi];W[kh])))
(;W[qi]C[ff - This is the normal play and seems reasonable here.  What if the game continues as before...]
;B[mg];W[dq];B[jq];W[hq];B[nq];W[pn];B[ql]C[ff - Perhaps the invasion comes here in this case?]
;W[ol]C[ff - White is OK here, looking to attack the stone on the side and invade the bottom after building up the right-side stones.]
))
(;W[qi]C[ff - Something like this would be more calm.  White has the threat of pushing out at M14]

(;B[og];W[ph];B[dq];W[lf];B[lg];W[mg];B[lh];W[mh];B[mf];W[nf]
;B[me];W[md];B[ne];W[nd];B[oe];W[nc];B[nb];W[ob];B[mb];W[na]
)
(;B[ng];W[dq]C[ff - White's right side has better shape than in the game]
)))
(;W[qd];B[qe];W[re];B[pe];W[rg]
(;B[qc]
(;W[rd];B[og];W[ph];B[dq];W[lf];B[lg];W[mg];B[lh];W[mh];B[mi]

(;W[ni];B[mf]
(;W[je];B[ke];W[kg];B[jf];W[li];B[kh];W[mj])
(;W[nf];B[me];W[md];B[ne];W[nd];B[ng];W[nc];B[nh];W[oi]))
(;W[li];B[ki];W[lj];B[mf];W[je];B[nh]
(;W[ke])
(;W[mj];B[ng];W[jf])))
(;W[og]
(;B[rd];W[lf];B[kg];W[lg])
(;B[lf];W[dq])))
(;B[og]
(;W[qc];B[ph];W[qg])
(;W[ph];B[qc];W[lf];B[kg];W[lg];B[lh];W[mh];B[mg];W[ng];B[nh]

(;W[mf];B[mi];W[li];B[mg];W[nd];B[nf];W[nc];B[md])
(;W[mi];B[nf];W[kh];B[li];W[lj];B[ki];W[jh];B[mj];W[ni]
(;B[jg];W[ih];B[kj]
(;W[je];B[jf];W[ke];B[hg])
(;W[ig];B[jf]
(;W[je])
(;W[gf];B[hf]
(;W[gg];B[hg];W[hh];B[gh];W[ge];B[hi];W[gi];B[fh];W[hj]
(;B[ii];W[ji];B[ij];W[jj];B[ik];W[kk])
(;B[lk];W[oi];B[ii];W[ji];B[ij];W[jj];B[ik];W[kk];B[lj];W[jk]
;B[il];W[ll];B[ml];W[nj];B[mk];W[kl];B[mm];W[kn];B[ln];W[km]
))
(;W[hg];B[gg];W[ge];B[ii];W[gh];B[fg];W[je];B[ke];W[if];B[ji]
;W[je]))))
(;B[ji]
(;W[ii];B[ih];W[jg];B[jf];W[ig];B[hg];W[hh];B[if];W[ih];B[lk]
;W[kj];B[jj];W[kk];B[jk];W[kl])
(;W[je]
(;B[ke];W[jf])
(;B[ih];W[ke];B[jg];W[mk];B[nj];W[oi];B[lk];W[kj];B[kk];W[jj]
;B[ik];W[nk];B[ij];W[oj];B[jk];W[cl];B[cq];W[eq];B[bo];W[cn]
;B[bn];W[dr];B[cr];W[bm];B[dm];W[cm])))))))
(;W[re];B[rd];W[qd];B[qc];W[qe];B[og];W[ph];B[oh];W[pi])
(;W[og];B[qe]
(;W[lf])
(;W[rg];B[ng];W[re];B[rd]
(;W[lf];B[lg];W[kg];B[qh];W[qg];B[jf];W[mg];B[lh];W[nf];B[nh]
;W[mh];B[mi];W[mf];B[ne]
(;W[li]
(;B[kh];W[ni];B[oh];W[ph];B[oi];W[mj];B[pi];W[qi])
(;B[oi];W[kh];B[rh]))
(;W[ni];B[oh];W[ph];B[oi];W[li];B[nj];W[kh];B[qi];W[pi];B[pj]
;W[qj];B[rj];W[ri];B[qk];W[rh];B[se];W[qj];B[qi]))
(;W[qc];B[qd];W[nf];B[mf];W[ne];B[od];W[nd];B[nc];W[mg];B[nh]
;W[lf];B[lg];W[kg];B[mh];W[je];B[qh];W[qg];B[ph];W[oh];B[oi]
;W[rh];B[qj];W[sf];B[ri];W[sh];B[dq]
(;W[gf])
(;W[fp];B[co];W[cn];B[cp];W[dn];B[fr];W[ni];B[kh];W[jg];B[nj]
;W[mi];B[mj];W[li];B[lh];W[lj];B[jf];W[if])))))
(;W[pf];B[of];W[og];B[oe];W[lf];B[kg];W[ng];B[pg];W[ph];B[qg]
;W[qh];B[rf];W[rh]))
(;B[ec]C[ff - May be even better for Black...];W[db];B[cb];W[fc]

(;B[da]
(;W[fa];B[fd]
(;W[cc];B[cd];W[bc];B[bb];W[bd];B[be];W[ed];B[dd];W[gd];B[ge]
)
(;W[gd];B[ge];W[ed];B[dd]))
(;W[ge];B[gf]))
(;B[fd]
(;W[cc];B[cd];W[bc];B[bb];W[ed];B[dd];W[gd];B[ge];W[ca];B[ba]
;W[fa];B[da])
(;W[ed];B[dd];W[fa]))))
(;W[eb];B[db];W[ec];B[ed]))
(;B[ic]C[ff - The most common reply when White cuts...];W[ib]
;B[id]
(;W[md];B[lb];W[kb];B[ka];W[jb];B[nc])
(;W[mc]C[ff - Does not seem to be possible...];B[lb];W[kb];B[ka]
;W[jb];B[mb];W[nc];B[nb];W[oc];B[ob];W[pc];B[qc];W[pb];B[qb]

(;W[oa];B[md];W[le];B[nd])
(;W[od];B[pa];W[pe];B[qd];W[oe]))))
(;W[lb];B[mb];W[mc];B[ld]
(;W[nb];B[ic];W[ma];B[ib])
(;W[kb];B[nc];W[gd])))
(;W[id];B[ie];W[ic]
(;B[kd]C[ff - Always played here at the professional level.  However, see the next variation for the relationship to this game...]
;W[he];B[if]
(;W[ge]C[ff - White comfortably settles the top group with this play.  See the comment to the next move for where this leads.  Also see the variation to this play for what White does if this is not satisfactory...]
;B[qj]C[ff - The "main line" develops like this.  Black gets to extend to R10 after building the superb wall on the upper side.  From here play typically involves White invading the upper right around R17 or playing against the open side of the Black shimari in the upper left at C13.]
)
(;W[qj]C[ff - White may also skip the play at G15 in order to counter Black's overall strategy like this.  Black will shortly take the opportunity to play G15 and force White to make eyes along the top.]
;B[ge];W[eb]C[ff - Typical.  There are also variations where White plays H14 instead, leading to heavy immediate fighting.]
))
(;B[he]C[ff - Note that the shape that arises in this game is the same as if Black connected here and...]
;W[kc]C[ff - Instead of playing atari at L16, White plays here instead...]
;B[kd];W[ld]C[ff - Then cuts here...];B[mc]C[ff- Now we have reverted to the game sequence.  White should regret this.  White has let Black get away with a better result than in the main line.  White's lone stone has almost no potential and the side group is not yet settled.]
)))
