(;FF[4]GM[1]SZ[19]ST[2]CA[UTF-8]AP[SGFC:1.15]

GN[ftn-kaktus-653-20080207]
PB[Nikolai Bubb (kaktus)]
BR[6k]
PW[Finn Thomsen Nielsen (ftn)]
WR[3k]
KM[0.5]
DT[2008-01-10,2008-02-07]
PC[Clubbasement Go Server: http://www.clubbasement.net/cbgs/]

RE[W+4.50]
RU[Japanese]
GC[Game ID: 653, rated]

C[Hello!

Thanks for reviewing this game!

 I hope you can give me some general advices about the direction of play and some tactical & strategical improvements.

 Greetings, Nikolai];B[pd];W[do];B[qp];W[dd];B[dq]C[is this move common? which follow-ups? or what would be better?

This is a normal move in this corner situation, I will show you some standart joseki.
But I can'T tell wether this is good or bad here for sure, because I haven't seen this opening before.
I think this is quite even, if both play correctly, but I am far from professional judging.

The other move would be san-san to take the corner, but is a bad idea here immo.]

(;W[fp];B[co];W[cn];B[cp];W[dn]
(;B[fq]C[all right?];W[di];B[fc];W[ec]TR[jd]C[This move is bad as long as white does not have a stone around K16]
;B[fd]
(;W[cf];B[jc];W[op];B[oq];W[nq];B[pq];W[np];B[pn]C[is this a proper joseki?

Usually you see Q6 beeing played on R6, but it doesn't make as much of a difference, except for black getting some weakness here when he plays Q6]
;W[jp]SQ[jq]C[Playing the low move seems more appropriate here, because black can grind in there really easily otherwise.]
;B[gp]C[what about that move? I though getting outside would be a good idea...

See my comment in two moves.]
(;W[fo]C[White should not have played here, sacrificing that stone doesn't seem like much of a loss.]
;B[hq]C[Still the right side is bigger];W[qf];B[qi]C[good

White should have not played the kakari but played on the right side instead.]
;W[nc]
(;B[oe];W[qc];B[qd]C[block the right side?

I would consider this neither right nor wrong side, the problem you got was the follow-up.]
;W[pc]
(;B[oc]C[You pay 2 moves while you give white a base, to fix the p16 weakness, which is much smaller than the 2 moves you gave away.]
;W[ob];B[od];W[rc];B[rd];W[lc];B[nn]C[should i better protect the upper left group? in order to prevent h17

No, you should not be too afraid of that move.
Developing and protecting the right side moyo is crucial.
You are in this situation due to the P17 mistake, which was the initial error.]
;W[hc];B[hd]
(;W[id];B[ic];W[gd]
(;B[he];W[gc];B[ge];W[fb]C[acceptable result for black?]
(;B[fi]C[for me this one seemed to be a splendid move!

I don't think so.
This move appears to be too high.
You should only reduce when you are ahead, but you are behind in this game quite obviously.

You have to consider the black stones on the upper side to be weak.
Which will damage your right side as well when whtie attacks in the proper way.]
;W[le]
(;B[lo]
(;W[kq]C[This move seems strange];B[lp];W[lq]C[to small?

No, this is satisfactory for white, because you could have given much more damage to white.]
;B[jn];W[je];B[mr];W[nr];B[or];W[ns];B[jr]TR[jp][np][op][kq]
[lq][nq][nr][ns]C[So both of you consider this stones dead at this point?]
;W[lg];B[ng];W[hi];B[ie];W[jd];B[ig];W[li];B[ji];W[pi]C[You should not have tenukied on this move.]

(;B[ni];W[qj]C[any comments to the last moves`? ...i think i lost a lot of territory on the right because i failed to destroy the aji of r14]
;B[qh];W[rj];B[ph];W[qn]
(;B[qo]C[This move seems strange as well.
White will probably live there, but this is way too passive.
Make him fight, to live there.
He is inside YOUR territory.];W[rn];B[pm];W[ql];B[qm];W[rm]
;B[pl];W[pk];B[rk];W[rl];B[ri];W[sk];B[dj];W[cj]
(;B[ej];W[ck];B[dl];W[cl];B[dh];W[ch];B[dg];W[ce]C[Move 100 no more comments from this points.
Your major mistakes happened trough the opening.
You should work on your basic understanding of the game.
Such as weak and strong groups.
All in all, you made few mistakes in the rest of the game.
At least thats my impression from looking at the rest quickly.]
;B[gn];W[fm];B[gm];W[fl];B[gl];W[mi];B[ei];W[ci];B[kj];W[mn]
;B[ln];W[mm];B[mo];W[mk];B[po];W[kl];B[jl];W[km];B[jm];W[no]
;B[lm];W[ml];B[ok];W[go];B[ho];W[io];B[in];W[iq];B[ir];W[hp]
;B[ip];W[on];B[nm];W[hp];B[sl];W[gq];B[sj];W[oj];B[nj];W[ll]
;B[jo];W[hn];B[fr];W[gr];B[fk];W[sd];B[se];W[sc];B[rf];W[fe]
;B[ff];W[ee];B[oo];W[mq];B[cg];W[bg];B[dm];W[bn];B[bo];W[ao]
;B[ap];W[ef];B[fg];W[eg];B[nd];W[mc];B[cm];W[bm];B[jf];W[kf]
;B[fn];W[en];B[gs];W[hs];B[fs];W[hr];B[eh];W[hm];B[hl];W[em]
;B[dk];W[jg];B[if];W[jk];B[kk];W[mj];B[mh];W[ik];B[hk];W[ki]
C[Finn Thomsen Nielsen: Ups, I didn't calculate that correctly... :-(]
;B[jj]C[Nikolai Bubb: hope so... i was a little afraid];W[jh]
;B[ih];W[eq];B[er];W[ep];B[cr];W[os];B[ps];W[lh];B[mf];W[an]
;B[im];W[mg];B[nh];W[me];B[nf];W[ho];B[ij];W[pp];B[qq];W[nl]
;B[om];W[md];B[df];W[de];B[el];W[kp];B[il];W[ol];B[nk];W[qs]
;B[pr];TW[aa][ba][ca][da][ea][fa][ga][ha][ia][ja][ka][la][ma]
[na][oa][pa][qa][ra][sa][ab][bb][cb][db][eb][gb][hb][ib][jb]
[kb][lb][mb][nb][pb][qb][rb][sb][ac][bc][cc][dc][fc][ic][jc]
[kc][ad][bd][cd][ed][fd][kd][ld][ae][be][ke][af][bf][ag][kg]
[ah][bh][kh][ai][bi][aj][bj][ak][bk][al][bl][am][eo][gp][ip]
[hq][jq][ir][jr][kr][lr][mr][is][js][ks][ls][ms]TB[pe][qe][re]
[gf][hf][of][pf][qf][sf][gg][hg][og][pg][qg][rg][sg][fh][gh]
[hh][oh][rh][sh][gi][hi][ii][oi][pi][si][fj][gj][hj][oj][pj]
[qj][rj][ek][gk][ik][jk][pk][qk][sk][ql][rl][rm][sm][on][qn]
[rn][sn][ro][so][bp][rp][sp][aq][bq][cq][rq][sq][ar][br][dr]
[qr][rr][sr][as][bs][cs][ds][es][qs][rs][ss]N[RESULT])
(;B[ci]C[Crosscut here.
This is a basic shape move.]
(;W[ch]
(;B[ck];W[bj];B[ei];W[dh];B[dk])
(;B[bi]C[This move ends badly, you have to sacrifice.];W[bj]
;B[dh];W[ei];B[ej];W[eh];B[dg];W[bh]))
(;W[dk];B[ej];W[ch];B[bi];W[bh])))
(;B[qm]C[This is just an easy variation I doubt this is optimum for neither player.
It is just ment to show the idea.];W[qo];B[po];W[rp];B[rq];W[rm]
;B[ql];W[rl];B[ro];W[rn];B[sp];W[pm];B[pl];W[om];B[ol];W[qk]
))
(;B[pj]C[This is better.
I think the long variations should show the idea.]
(;W[oi];B[qh])
(;W[ph]
(;B[oj])
(;B[qh];W[pg];B[oj];W[nh];B[rf];W[rg];B[qg]
(;W[re]C[This is a mistake.];B[pf];W[sf];B[oh];W[of];B[pe];W[oi]
;B[ni];W[og];B[nf])
(;W[pf]C[This is the correct way for white.];B[re])))))
(;W[lp]C[This move works for white, but as I said before the K4 stone is in the wrong position so white should get a bad result anyway.]
;B[kp];W[kq];B[mp];W[lq]
(;B[mq];W[mo];B[mr];W[nr])
(;B[mo];W[mq];B[ko];W[iq])))
(;B[lp]C[Black can play here, this puts more pressure on the white stones down there.]
))
(;B[dk]C[You should play more deply, because you are behind-]
))
(;B[hb];W[he]LB[gb:A][gc:B]C[Consider A and B here.
B is bigger but leaves some weakness.
A is smaller but rather save.]))
(;W[ic]C[White should play here];B[id];W[jb];B[jd];W[kb]C[this is worse for black than the variation he can play otherwise.
Because the influence black got in exchange is rather worthless, while white developed the upper right side, completely to his favor.]
))
(;B[md]C[This move seems better, there are alot of variations in this situation, just look them up in a joseki-database or book.

This move gives you influence on the right side and develops the stones on the upper side as well.
If you take a look on the way you played, you will see, that you don't give away much more territory.]
;W[mc];B[ld];W[rd];B[re];W[rc];B[qe]))
(;B[qc]C[This move seems better.
It puts up a fight, and you are in a way better position around that area.
P15 gives the corner away way to easy.];W[oe]C[Black can play two ways]

(;B[od];W[nd];B[pf])
(;B[pe];W[pf];B[of])))
(;W[qj]C[The right side is much bigger, than saving the stone on F4]
))
(;W[df]C[White should play here.]))
(;B[fr]C[This one here is the normal move]))
(;W[cq];B[cr];W[cp];B[er]
(;W[cl])
(;W[ck];B[fp]C[This joseki works as well and should look familiar to you.]
))
(;W[eq];B[er];W[ep];B[fq]LB[dr:A][fr:B]C[White can cut at A or B
A chooses the outside but needs a ladder
B chooses the inside]
(;W[fr];B[gr];W[dr];B[fs];W[cq])
(;W[dr];B[cr];W[fr];B[ds];W[gq]C[The ladder doesn't work here]
)))
