(;FF[4]GM[1]SZ[19]ST[2]CA[UTF-8]AP[SGFC:1.15]

PB[adm]
BR[18k]
PW[akim120]
WR[17k]
KM[0.5]
DT[2008-02-08]
PC[The KGS Go Server at http://www.gokgs.com/]
RE[W+16.50]
TM[1800]
RU[Japanese]

C[Pierredego: This was nicely played. Your shapes were much better than your opponent's. You must remember to attack at a distance and keep an eye on the urgent points, first, and the big points, second. I comment on some of the the missed opportunities that I saw. Continue enjoying this great game.]
;B[pc];W[dp];B[oq];W[dd];B[eq]C[keladry [13k?\]: gogogo

Pierredego : This is an unusual approach move.];W[dq]C[Pierredego: ...And a fine answer.]
;B[do]C[P : This contact is very bad.]
(;W[co];B[dn];W[cn];B[ep];W[eo]C[P: It is indeed a good idea to cut.]
;B[en];W[fo];B[fn];W[go];B[dr];W[cr];B[er];W[bq]C[P: White doing very fine until now.]
;B[cs];W[bs];B[ds]C[Was this a good point to move elsewhere?]

(;W[nd]C[P: This is OK but see variation.];B[gr]
(;W[jo];B[ho]
(;W[di]C[Better get out. See variation.];B[hn]
(;W[qd]C[Avoid contact moves while attacking. The diagonal move is considered a contact move. It will make the Q17 stone stronger. R15 would be better.]
;B[pd];W[pe];B[nc];W[mc];B[mb];W[nb];B[oc];W[lb];B[md];W[ma]
;B[ne];W[qc];B[pb];W[qb];B[ob]C[This black move was rather useless]
;W[po]TR[ld]C[This is a good move but I would have played m16 first.]
;B[le]C[This is queer. M16 is better for black too.];W[qq]C[Same comment. (M16, even more urgent now.)

"Play urgent moves before big moves" -- Go proverb];B[np]C[This is too tight for black. Something like M3 seems to me to be better.]
;W[mo]C[This is also a contact to be avoided. It makes it too easy for black to cut while strengthening himself.]
;B[no];W[nn];B[mn];W[lo];B[ko]C[Not good]
(;W[kp]C[L6 better, in order to take advantage of the white stone at O6. See var.]
;B[kn]
(;W[id]C[I think around this time I was thinking about sacrificing the bottom and trying to maintain the right and top.  Should I have played it out differently before this, or should I be thinking about it differently around here?

Pierredego : There seems to be no need to sacrifice the lower side. The aji of O6 enables you to run out. However you might want to play M16 first. Then, if black closes the lower side with M6 you might still be able to resist there... (See variation)]
;B[nm];W[pj];B[on]
(;W[pn]C[This allows a good shape for black (lets him hane you). Consider the variation...]
;B[pm];W[qm]
(;B[oo]C[This was really bad for black. The move serves no purpose.]
;W[pl]C[Good. You've seized the opportunity.];B[om]
(;W[pp]TR[dc][cd][ld][of][dm]C[This is not very big however, as compared to some other points. M16 still is rather urgent. Might you be fearing black Q4? See variation.]
;B[op];W[pk]C[This also seems very small.];B[ln];W[dl]C[This is big.]
;B[gn];W[hg]TR[cc]C[It is much more urgent to prevent the san-san invasion on the upper left. One play at either c16 or d17 prevents this.]
;B[cm]C[Indeed, there was a weakness there.];W[dm];B[cl]
(;W[ck];B[bn];W[bl];B[bm];W[bo];B[bk];W[an];B[al]
(;W[bj];B[dk]C[yeah this thing was pretty bad :(];W[ek];B[cj]
;W[ci];B[bi];W[bh];B[aj];W[dj];B[ck];W[el];B[am];W[ah];B[ao]
;W[ap];B[an];W[ai];B[bj];W[ld]TR[cp]C[Good but C4 is urgent now.]
;B[me];W[kd];B[fj];W[ej];B[gk];W[fi];B[fk]C[Terribly useless black move, and bad shape to boot.]
;W[gi];B[eg];W[dh]C[I prefer C13];B[eh];W[ei];B[ff];W[df];B[dg]
;W[cg];B[ef];W[de];B[ge]
(;W[fd]C[Avoid contacts. This is the same mistake you made earlier on the lower right. G17 is better. F16 allows black to push you around and gain strength in the process. Always attack from a distance. All you need is restrict the space for two eyes.]
;B[gd];W[gc];B[hd]C[Black is kind to you, playing such bad shapes.]
;W[hc]C[Good];B[ie];W[jd];B[hf];W[fe];B[gf]C[One has to wonder why black didn't make an eye through playing at g13 instead.]
;W[if];B[ig];W[jf];B[je];W[ke];B[he];W[hh];B[kf];W[jg];B[ih]
;W[lf];B[kg];W[jh];B[ii];W[kh];B[lg]C[this shape confused me a bit -  sort of double ladder-ish?

Pierredego: See variation on next move...]
(;W[mf];B[nf];W[mg];B[lh];W[li];B[mh];W[ng];B[ki]C[Formal [15k\]: wow, what is this - double ladder?! ;)

Pierredego: Yes, complicated position.];W[of]C[keladry [13k?\]: sweet]
;B[og];W[oe];B[ji];W[pg];B[oh];W[ph];B[nh];W[pr];B[or];W[mj]
;B[oi];W[pi];B[oj];W[ok];B[nk];W[nl]C[I'm not so sure about how this would work if he didn't miss the atari

Pierredego: It wouldn't, I don't think so.];B[ol];W[ml];B[mk]
;W[lk];B[ll];W[nj];B[kk];W[lj];B[kj];W[lm];B[kl];W[km]C[Maybe should have played to the right of 184 instead

Pierredego: True.];B[mm];W[jm];B[jn];W[rl]C[Was this necessary?  When I think about it later it seems like I didn't need to play 190

Pierredego: I don't think it is. P1 and, of course, C4 are the important move now.]
;B[pq];W[rr];B[ps];W[qr];B[qp];W[rp];B[qo];W[qn];B[ro];W[so]
;B[qs];W[rs];B[os];W[fl];B[gl];W[hi];B[hj];W[fm];B[gm];W[fr]
;B[fq];W[fc]C[Pierredego: Not really needed.];B[ar];W[cp];B[br]
;W[cq];B[as]C[akim120 [17k\]: nice one
akim120 [17k\]: should have looked at that mroe closely
akim120 [17k\]: :(];W[nk];B[gh];W[gg];B[fh];W[ee];B[cf];W[bf]
;B[ce];W[cd];B[be];W[ae];B[gj];W[fg];B[if];W[ch];B[em];W[tt]
;B[ag];W[bd];B[ni];W[tt];B[mi];W[tt]C[adm [18k\]: sorry
akim120 [17k\]: ?];B[tt]TW[aa][ba][ca][da][ea][fa][ga][ha][ia]
[ja][ka][la][na][oa][pa][qa][ra][sa][ab][bb][cb][db][eb][fb]
[gb][hb][ib][jb][kb][mb][ob][pb][rb][sb][ac][bc][cc][dc][ec]
[ic][jc][kc][lc][nc][oc][pc][rc][sc][ad][ed][md][od][pd][rd]
[sd][be][ce][le][me][ne][qe][re][se][af][cf][nf][pf][qf][rf]
[sf][ag][bg][qg][rg][sg][qh][rh][sh][qi][ri][si][qj][rj][sj]
[mk][qk][rk][sk][ql][sl][rm][sm][rn][sn][qo][ro][qp][sp][rq]
[sq][sr][ss]TB[jf][jg][jh][kh][ij][jj][ak][hk][ik][jk][bl][hl]
[il][jl][hm][im][jm][km][lm][cn][in][nn][bo][co][eo][fo][go]
[io][jo][lo][mo][ap][bp][cp][dp][fp][gp][hp][ip][jp][kp][lp]
[mp][aq][bq][cq][dq][gq][hq][iq][jq][kq][lq][mq][nq][cr][fr]
[hr][ir][jr][kr][lr][mr][nr][bs][es][fs][gs][hs][is][js][ks]
[ls][ms][ns]C[adm [18k\]: good game
akim120 [16k\]: lol
akim120 [16k\]: I was so confused
adm [18k\]: thanks
akim120 [16k\]: by that
akim120 [16k\]: good game])
(;W[lh];B[mf];W[mg];B[lf];W[mh]TR[ee][fg][gg][fh]SQ[ng][nh]
[ji][ki][li][mi]C[Now you've got 6 liberties to black's four. You win.]
))
(;W[gc];B[if];W[hf];B[he];W[ie];B[hh];W[ig];B[jf];W[gh];B[gg]

(;W[ii]C[This is tricky...];B[fc];W[fd];B[gd];W[ed];B[hc];W[gb]
;B[fb];W[hb];B[ic];W[gf];B[fe];W[jd];B[ib]C[Black lives.])
(;W[fd]C[This might be better...];B[ih];W[jg];B[kf];W[jh];B[ii]
;W[ji];B[ij];W[li]C[Either you escape, or you gain more liberties than black, it seems.]
)))
(;W[cj];B[bj];W[bi];B[aj];W[cd]C[Live and let live...]))
(;W[cp];B[dk];W[ck];B[dj];W[cj];B[el];W[bl];B[em];W[bm]C[Damage control.]
))
(;W[ld];B[me];W[kd];B[pp];W[ro];B[qo];W[qn];B[qp];W[rp]C[White now seems safe. A few points were given up but many more were gained on the upper board.]
))
(;B[pl];W[ql]))
(;W[qm];B[pn];W[qn];B[pp];W[qp]C[This better protects the right side territory.]
))
(;W[ld];B[me];W[kd];B[ln];W[on]TR[fc][ke][qj][dm]SQ[lp]C[Now black seems forced to play something like M4 to save his three stones. This allows to to take a big point somewhere (Triangles).]
))
(;W[kn];B[kp];W[mm];B[on];W[nm];B[oo];W[ld];B[me];W[kd]C[Black is behind now.]
))
(;W[qe];B[qd];W[pe];B[nc];W[mc];B[od];W[nb];B[oc];W[oe];B[ne]
;W[md]C[The corner is confined. This is a better result than for white than in the game.]
))
(;W[gn];B[gm];W[hn];B[hp];W[fm];B[em];W[fl];B[el];W[gl];B[hm]

(;W[im]C[This ladder does not work, however... (var)];B[hl]
;W[hk];B[il];W[jl];B[ik];W[ij];B[jk];W[kk];B[jj];W[ji];B[kj]
;W[lj];B[ki];W[kh];B[li];W[mi];B[lh];W[lg];B[mh];W[nh];B[mg]
;W[mf];B[ng];W[og];B[nf];W[of];B[ne];W[me];B[oe];W[pe];B[od]
)
(;W[in];B[hl];W[ek];B[dl];W[dk];B[cl];W[ck];B[fk];W[gk]C[Black can't save everything.]
)))
(;W[gn]C[This seems to put more pressure on black and also seems to be more solid. Such a group, with 5 liberties and out in the center will be impossible to kill.]
))
(;W[gn]C[P: This puts pressure one both black groups.];B[dl]
;W[gq];B[gr];W[hr]
(;B[hq]C[Black can try to resist like this...];W[fr];B[fq];W[gs]
;B[gp];W[gr]LB[fp:A][hp:B]C[A and B are now miai])
(;B[gp]C[Or black can resist like this...];W[fq];B[hq];W[fp]

(;B[fr];W[hp];B[iq];W[ir];B[jr];W[jq];B[ip];W[kr]SQ[ep][eq]
[dr][er][fr][gr][cs][ds]C[Dead.])
(;B[ir];W[fr];B[hs]SQ[dl][dn][en][fn][do]C[Good result for white. The six black stones on the bottom left are dead and the five marked stones constitute a weak group.]
))))
(;W[eo]C[P: You might also consider this cut. It is easy for you to run in the center and black will have a hard time saving both stones.]
)
(;W[ep]C[P: This is also solid and punishes the last black move.]
))
