(;FF[4]GM[1]SZ[19]ST[1]AP[SGFC:1.15]

PB[nickwild]
BR[3k]
PW[KennyG]
WR[2k]
KM[0.5]
DT[2008-03-09]
PC[The KGS Go Server at http://www.gokgs.com/]
RE[B+3.50]
TM[900]

C[I nearly let opponent get a big enough lower  centre moyo to win

I also played several very defensive moves to ensure life

I think I don't peek and poke enough

General advice on these points welcome

Thanks

Nick

inimino: Hi, I have made remarks throughout the game which I hope you will find helpful.  Please let me know if you have any questions.]
;B[qd];W[dd];B[dp];W[pp];B[cf];W[ch];B[bd];W[gc];B[cc];W[dc]
;B[oc]C[inimino: I think E14 maybe bigger here.

The moves are perhaps similar in value, but I would not feel comfortable leaving the C14 group to be sealed in so easily.  W C15, D14, etc seems too good.]

(;W[fq];B[cn];W[jp];B[cj];W[cl];B[ej]C[inimino: I would play a more solid D10 here, as this move allows w to connect under (see var) which might be important in the fight that can be expected to follow.]

(;W[el];B[eg]C[inimino: W can still connect to the C12 stone so this all seems a little vague to me.]
;W[fo]C[inimino: C12 is not captured in a convincing way so it seems to me somewhat surprising for w to play elsewhere.]
;B[dr]C[inimino: The situation on the left side is so unsettled that I think b must play E6 instead.  E6 adds a black stone on the interesting part of the board, while this move is toward an uninteresting edge.  W can easily ignore this move (and should do so).  W can easily play D13, etc, and continue the interesting fight.]
;W[er];B[en];W[fn];B[em];W[fm];B[fl]C[inimino: w apparently made an unfortunate trade of the entire left side for a wall on F3-F7.  This gives b a solid advantage.]
;W[fk];B[dl];W[ek];B[dk]C[inimino: W should like to add a move at G8 now to complete his wall.]
;W[bo];B[cp];W[fj]C[inimino: W seems to make this move instead of G8 perhaps hoping to retain sente, but this removes aji from the C12 stone and looks even worse for w.]
;B[ei];W[qj];B[nq]C[inimino: Immediate invasion is the natural choice.  However, R3 may be safer.  W can obviously play Q3 here after which the future of this stone is uncertain.]
;W[lq];B[no];W[pn];B[pr];W[qq];B[qr];W[qg];B[rq];W[rp];B[pq]
;W[qp];B[ic]C[inimino: This move seems to be a mistake for two reasons:

First, black is ahead, and should play S2 to make his group alive.  For the group to be unsettled could give white a chance to unbalance the game.

Second, this is too close to G17 and too far from P17.  This can make the game complicated.  Putting pressure on the D16 stones could bring the C12 aji back into play.  This could even possibly bring the w wall at F10 into play which b should avoid at all costs.

I think here black's objective should be to keep the game simple and maintain the advantage.]
;W[mc];B[kc];W[lc];B[oe]SQ[lc][mc][kc][ic]C[inimino: I think black should stick to the new group he created.

The corner is already strong enough, but the two marked groups are weak.  To add a stone to the group on the side seems more urgent.

Of course you do not want the corner to be sealed in but w cannot do that with just one extra move here either.

Play L16 or something around K15, or even G16 instead of this.]
;W[me];B[og]C[inimino: As before, but more so.  The L16 group needs a move.]
;W[re]C[inimino: This is premature.];B[rd];W[qe];B[ke];W[kb]
;B[jb]C[inimino: Given that you have played L15 I would suggest K17 here so as to avoid a cut.]
;W[kd];B[jc];W[jd];B[id];W[je];B[ie];W[ge];B[jf];W[ld];B[lf]
LB[hf:A]C[inimino: H14 looks sente for both and seems more important than this side.]
;W[hf];B[if];W[nf];B[of];W[ng];B[oi]C[inimino: I would push harder here with O12.  However H14 now looks more significant so that limits your options somewhat.]
;W[nh];B[oh];W[ni]C[inimino: This string of stones does almost nothing for black, but white's group is now out and the K18 group even begins to look weak.  I think this result must be the result of earlier mistakes, specifically at J17, M14, and P11.]
;B[lb];W[mb];B[ka]C[inimino: With this, the black group does make life, but it seems painful to play such a small gote move here.  Instead I would try to move into the center first and only make life if absolutely necessary.]
;W[ob];B[pb];W[nc];B[pd]C[inimino: P16 feels more natural.]
;W[kg];B[hg];W[gg];B[ig]C[inimino: H12 would be more natural, this feels much too slow especially after M18.]
;W[gi];B[hb]C[inimino: Another slow move.  Perhaps here black has few other options however after the other mistakes.  Not being able to connect L13 however is painful so it is tempting to try it.]
;W[ln];B[ii]C[inimino: What about G12 here?  It seems there can be some trouble for the white group but only if you prevent it from connecting.]
;W[hh]C[inimino: Now that opportunity has gone.];B[ih];W[jk]
;B[ik];W[il];B[hk];W[hl];B[mr];W[lr];B[rr];W[db];B[cb];W[df]
;B[dg];W[be];B[ce];W[cd];B[ac];W[bf];B[cg];W[pj];B[fd];W[gd]
;B[ff];W[gf];B[fc];W[fe];B[gb];W[ed];B[eb];W[ef];B[sp];W[so]
;B[sq];W[rn];B[qh];W[rh];B[qi];W[ri];B[oj];W[lk];B[eq];W[fr]
;B[ol];W[pk];B[pl];W[ql];B[ls];W[ks];B[ms];W[kq];B[oa];W[cr]
C[inimino: This seems to be nothing, see variation on next move.]

(;B[br];W[ds];B[cq];W[dq];B[ep];W[eo];B[do];W[fp];B[ml];W[ll]
;B[lo];W[mp];B[mo];W[np];B[ok]C[inimino: N10 looks better.]
;W[nm];B[on];W[oo];B[nn];W[om];B[mm];W[pm]
(;B[nl]C[inimino: N10 also much better here.];W[mn];B[lm];W[kn]
;B[km];W[jm];B[kf];W[jj];B[hi];W[gh];B[kl];W[jl];B[mj];W[li]

(;B[lj]C[inimino: Much too small.  N11 kills all top white stones, see variation.]
;W[ki]C[inimino: Now the w stones are all connected for the price of only two stones!  L11 was the key point.]
;B[mi];W[mh];B[bs];W[sd];B[sc];W[se];B[rb];W[bb];B[ba];W[ea]
;B[fa];W[da];B[ab];W[na];B[pa]C[inimino: It costs nothing to start a ko, so you should never play like this.  O18 instead and let w find a threat if he wishes to play the ko.]
;W[nd];B[od];W[mq];B[nr];W[kk];B[gk];W[gl];B[oq];W[ca];B[bc]
;W[fg];B[op];W[po];B[eh];W[lg];B[mf];W[ne];B[ji];W[kj];B[de]
;W[ee];B[pg];W[qf];B[pi];W[dr]C[KennyG [2k\]: thx];B[kh];W[lh]
;B[jh];W[ma];B[la];W[nb];B[mk];W[nj];B[ij];W[gj];B[hc];W[ec]
;B[fb];W[tt];B[pf];W[tt];B[pe];W[tt];B[rj];W[qk];B[si];W[sg]
;B[tt];W[tt]TB[ss][rs][qs][ps][os][ns][as][sr][or][ar][bq][aq]
[bp][ap][co][bo][ao][dn][bn][an][dm][cm][bm][am][cl][bl][al]
[ck][bk][ak][dj][bj][aj][di][ci][bi][ai][ph][dh][ch][bh][ah]
[bg][ag][bf][af][be][ae][ad][rc][qc][pc][sb][qb][kb][ib][bb]
[sa][ra][qa][ja][ia][ha][ga][aa]TW[js][is][hs][gs][fs][es][kr]
[jr][ir][hr][gr][jq][iq][hq][gq][lp][kp][ip][hp][gp][ro][qo]
[no][mo][lo][ko][jo][io][ho][go][sn][qn][on][nn][jn][in][hn]
[gn][sm][rm][qm][im][hm][gm][sl][rl][fl][sk][rk][sj][rj][si]
[sh][rg][sf][rf][ff][md]C[nickwild [3k\]: tnx])
(;B[mi]
(;W[lg];B[mh];W[mg];B[ki]MA[kg][lg][mg][ng][nh][ni][nf][me]
)
(;W[mh];B[ki];W[lh];B[lj];W[ji];B[jh]MA[kg][lh][li][mh][ni]
[nh][ng][nf][me][ld])))
(;B[mj];W[mn];B[kf]MA[ni][nh][ng][nf][me][ld]))
(;B[ds];W[cq];B[dq];W[bp];B[br]))
(;W[bj];B[bk];W[ck];B[bi];W[dj];B[ci];W[di]))
(;W[ce];B[be];W[df];B[cg];W[dg]))
