(;FF[4]GM[1]SZ[19]ST[2]CA[UTF-8]AP[SGFC:1.15]

PB[peterchris]
BR[5k]
PW[robred40]
WR[4k]
KM[0.5]
DT[2008-04-09]
PC[The KGS Go Server at http://www.gokgs.com/]
RE[W+2.50]
TM[1800]
OT[5x50 byo-yomi]
RU[Japanese]

;B[pc]C[robred40 [4k\]: hi
peterchris [5k\]: hi hf];W[dp];B[cd];W[qp];B[qe];W[ic]C[Here, you move E17. Its too defensive.]

(;B[ec];W[lc];B[dj];W[cm]
(;B[oq]C[This is good joseki move but also..];W[mq];B[np];W[mp]
;B[ip]TR[np][oq]C[Now these stones are seperated.];W[gq];B[ir]
;W[no];B[oo];W[nn];B[qr];W[pn];B[rq];W[rp];B[nr];W[nq];B[pp]
;W[qq];B[rr];W[on];B[cq]C[İts very early 3-3 move. Right side is still open.]
;W[dq];B[cp];W[co];B[bo];W[bn];B[do];W[cn];B[dr];W[er];B[cr]
;W[eq];B[bp];W[eo];B[mr];W[pq];B[pr];W[op];B[lq];W[or];B[os]
;W[cg];B[bj];W[eg];B[nc];W[gc];B[fe];W[gf];B[ge];W[hf];B[he]
;W[fj];B[dh];W[dg];B[fi];W[gi];B[fh];W[fg];B[gh];W[hi];B[hh]
;W[if];B[ii];W[ij];B[ej];W[ji];B[ih];W[fk];B[jh];W[kj];B[pj]
;W[eh];B[ei];W[kh];B[jf];W[ie];B[kg];W[lh]
(;B[fc]C[Game lost move! You can easily defend there. But your right area is open for atacks. For this..]
;W[qh];B[ph];W[pg];B[oh];W[qi];B[nj];W[pi];B[oi];W[qj];B[pk]
;W[qk];B[pl];W[ql];B[pm];W[qm];B[ml];W[ll];B[mm];W[lm];B[mn]
;W[in];B[og];W[qf];B[pf];W[qg];B[pe];W[ke];B[ch];W[bf];B[dl]
;W[em];B[el];W[fl];B[dm];W[dn];B[bl];W[cl];B[ck];W[bh];B[bi]
;W[ek];B[ho];W[hn];B[go];W[dk];B[gn];W[gm];B[lk];W[kk];B[ln]
;W[kn];B[sp];W[so];B[sq];W[rn];B[re];W[rf];B[mb];W[lb];B[fb]
;W[gb];B[ga];W[ha];B[fa];W[ib];B[ko];W[jn];B[es];W[hr];B[fr]
;W[fq];B[be];W[lp];B[kq];W[jr];B[iq];W[is];B[kr];W[gr];B[lj]
;W[se];B[sd];W[sf];B[rc];W[nd];B[od];W[mc];B[nb];W[ne];B[hd]
;W[id];B[lf];W[le];B[je];W[jd];B[li];W[ki];B[mh];W[jl];B[mg]
;W[de];B[ce];W[dd];B[dc];W[nf];B[om];W[nm];B[nl];W[hc];B[ah]
;W[bg];B[cf];W[ee];B[fd];W[ae];B[ad];W[af];B[bc];W[kf];B[jg]
;W[mf];B[fs];W[gs];B[ds];W[lg];B[jq];W[js];B[ks];W[hs];B[fn]
;W[ng];B[nh];W[fo];B[bm];W[ao];B[ap];W[an];B[am]
(;W[bs];B[br];W[oq];B[ff];W[gg];B[gp];W[fp];B[io];W[hq];B[la]
;W[ka];B[ma]C[peterchris [5k\]: close game
peterchris [5k\]: black has four corners];W[tt];B[tt]TW[ia]
[ja][hb][jb][kb][jc][kc][kd][ld][md][me][lf][rg][sg][rh][sh]
[ri][si][gj][hj][jj][rj][sj][gk][hk][ik][jk][rk][sk][dl][el]
[gl][hl][il][kl][rl][sl][dm][hm][im][jm][km][rm][sm][qn][sn]
[do][oo][po][qo][ro][ep][np][pp]TB[aa][ba][ca][da][ea][na][oa]
[pa][qa][ra][sa][ab][bb][cb][db][eb][ob][pb][qb][rb][sb][ac]
[cc][oc][qc][sc][bd][pd][qd][rd][ci][di][mi][ni][aj][cj][mj]
[oj][ak][bk][mk][nk][ok][al][ol][aq][bq][ar][lr][sr][as][bs]
[cs][ls][ms][ns][ps][qs][rs][ss]C[robred40 [4k\]: thx
peterchris [5k\]: yes thank you
peterchris [5k\]: i thought i played very well, not sure where i went wrong in this one.
peterchris [5k\]: maybe the left side group was too weak
peterchris [5k\]: probably your k2 invasion was the winning move
Onur: Indeed you played well but 1 little mistake])
(;W[br];B[bs];W[ar];B[bq]C[Seki. Good for white.]))
(;B[pg];W[qk];B[qj];W[pk];B[in]C[Now its safe and yours. And you are winning the game.]
))
(;B[op];W[oq];B[pp];W[pq];B[qo])
(;B[np];W[oq];B[nq]))
(;B[op])
(;B[pn]))
