(;FF[4]GM[1]SZ[19]ST[2]CA[UTF-8]AP[SGFC:1.15]VW[]

PB[AWA]
BR[6k]
HA[2]
PW[bartfast]
WR[4k]
KM[0.5]
DT[2008-03-30]
PC[The KGS Go Server at http://www.gokgs.com/]
RE[W+4.50]
TM[600]
OT[3x25 byo-yomi]
RU[Japanese]

AB[pd][dp]C[This is a two-stone handicap game and I played white. Even though
I won (just) and a fairly quiet game, there were many difficult
choices about the biggest areas to play and deciding if a sequence
was going to be sente or not. Appreciate comments about my and
my opponent's judgments.];W[dd];B[pp];W[qn];B[ql];W[nq]
(;B[np]C[This move is usually seen as a mistake by black.]
(;W[op]C[This is probably a mistake it hurts R6 a lot.]
(;B[oq];W[oo];B[nr];W[mq];B[pq];W[no];B[qo];W[pn]C[I thought it right to spend another move to confine black in
the corner. Was it??

yes, it's one of the things you can actually get done with this "joseki" (I wouldn't call it even though) The down sides to this is the ladder aji, which black takes advantage of.]
;B[cf];W[mp]C[C14 is a big move black gets for free];B[mr];W[lr]
C[Could I have got N2 earlier at any time with sente?? 




No black would not have responded to N2, or shouldnt' have to.]
;B[ro];W[rn]C[again spending a move to confine. Now how should I use that thickness?
When should I attack R8??];B[fc];W[ee];B[cd]C[I'd ignore here, treat those stones as light, and try to attack R8, you are behind now and if R8 gets off easy then all of black's groups will pretty much be strong.]

(;W[cc];B[bd];W[bc];B[dh];W[cn];B[cl];W[cq]
(;B[dq];W[cp];B[do]
(;W[bm]
(;B[em];W[bl];B[ck];W[nc]C[Is O17 ok or where' better. i did not know whether to pincer
f17 or to extend on lower side or to play on the right??


This is definently more active than pincering F17, if you pincer F17 it would be likely that black would try to counter pincer in some fashion.]
;B[qf]
(;W[hc];B[fe]
(;W[fd]C[this just makes black stronger and H17 much weaker you are helping black.]
;B[gd];W[ed];B[gc];W[ge];B[he];W[gf];B[hd];W[ic];B[jd];W[id]
C[all this does is remove a lib of yours];B[ie];W[jc]
(;B[ke];W[kd];B[je];W[ld];B[pj]C[So he stopped the invasion on the right but took gote to do it
so I now have time to take territory somewhere lse. Again is
H3 area bigger?   H3 area is big, after white extends there the push and cut at D6 becomes very big, but to treaten the cut white must extend all the way to F3.]

(;W[qc];B[pc];W[pb];B[qd];W[rb];B[rc];W[qb];B[ff]C[Maybe I should have captured F15 at some time earlier because
he can now build moyo in middle. However I can get compensation
elsewhere as game. What do you think??];W[df];B[fg];W[cg];B[dg]
;W[ce];B[bf];W[be];B[bg];W[hq];B[iq]C[I think he could build moyo in center instead?? moves like L10
perhaps?? Should I instead have been playing in the center to
reduce him??   



Reducing him directly sould be ideal, but it's also hard for black to play a move that makes it hard for the N4 influence to not get in a bit.]
;W[ip];B[hp];W[gq];B[io];W[jp];B[ho];W[km]
(;B[jm]C[this move is not good, it becomes easy for white to manipulate this stone]
;W[jn];B[im];W[kk];B[jk];W[jl];B[il];W[kl];B[jj];W[dr];B[oh]
;W[dn];B[en];W[eo];B[fp];W[eq];B[ep];W[fq];B[bk];W[gp]
(;B[fo];W[go];B[gn];W[of]
(;B[pf];W[og];B[ph];W[nh];B[nj];W[ok]
(;B[pk];W[nk];B[mj];W[kj];B[ji];W[kg];B[jg];W[kh];B[jh];W[oj]
;B[ki];W[li];B[ni];W[oi];B[mh];W[ng];B[lh];W[lj];B[lg];W[lf]
;B[kf];W[mi];B[db];W[eb];B[ec];W[dc];B[cb];W[bb];B[fb];W[ca]
;B[ea];W[pg];B[qh];W[qg];B[rg];W[pi];B[qi];W[so]
(;B[rp];W[sp];B[sq];W[sn];B[rq];W[rk];B[rl];W[sl];B[rj];W[rd]
C[gote but big? maybe N1 bigger? Is there danger here if he pushes
with K5 in combination with a cut at c2 and e2. was I lucky here.

N1 is sente and M1 does not work for black.];B[re];W[sc];B[oe]
;W[ne];B[mf];W[od];B[pe];W[oc];B[nf];W[mk];B[mg];W[ni];B[le]
;W[ms]
(;B[os];W[hb];B[gb];W[jo];B[co];W[bo];B[md];W[mc];B[ha];W[ia]

(;B[ja];W[ga];B[fa];W[kc];B[ha];W[ib];B[cm];W[dm];B[dl];W[bn]
;B[ol];W[nm];B[nl];W[ml];B[om];W[pm];B[pl];W[on];B[sj];W[ak]
;B[aj];W[al]
(;B[bj];W[sk];B[ae];W[ad];B[af];W[ef];B[eg];W[in];B[hn];W[se]
;B[sf];W[sd];B[ir];W[er];B[ns];W[ls];B[tt];W[qk];B[qj];W[sm]
;B[rh]C[Not needed, if white plays that black can T12];W[ba]
;B[da];W[nd];B[me];W[tt];B[tt]TW[aa][ja][ka][la][ma][na][oa]
[pa][qa][ra][sa][ab][jb][kb][lb][mb][nb][ob][sb][ac][lc][rc]
[bd][cd][de][mj][nj][lk][ll][am][lm][mm][an][kn][ln][mn][nn]
[ao][ko][lo][mo][ap][bp][kp][lp][np][aq][bq][iq][jq][kq][lq]
[ar][br][cr][fr][gr][hr][ir][jr][kr][as][bs][cs][ds][es][fs]
[gs][hs][is][js][ks]TB[eb][ge][qe][gf][hf][if][jf][lf][rf][ag]
[cg][gg][hg][ig][kg][sg][ah][bh][ch][eh][fh][gh][hh][ih][kh]
[sh][ai][bi][ci][di][ei][fi][gi][hi][ii][ri][si][cj][dj][ej]
[fj][gj][hj][ij][dk][ek][fk][gk][hk][ik][el][fl][gl][hl][fm]
[gm][hm][fn][eo][qp][qq][or][pr][qr][rr][sr][ps][qs][rs][ss]
C[G19 the last point.])
(;B[ef]C[I'd want to do this as a defence.];W[bj];B[de];W[ad]
;B[ai];W[bi];B[ah];W[bh];B[ag];W[df];B[ch]))
(;B[ga];W[kb]C[black should be more patient.]))
(;B[hb]C[this is bigger than P1. L17 is huge follow up];W[kb]
;B[os]))
(;B[sp];W[sn];B[rq]C[better]))
(;B[ni]C[I'd still be looking for the cut around O15]))
(;B[ne]C[what if black seperates?]))
(;B[go]C[better]))
(;B[jl]C[this is better, black's stone has all 4 libs.]))
(;W[ff]C[this is bigger thant the corner, you need to look at what a move does, although this does not take any territory for you now, H16 has no eyes.]
))
(;B[kc]C[black can do this]))
(;W[ff];B[ge]C[this would be more usually, H17 retains all of it's libs]
))
(;W[gd];B[hc];W[jc]C[this is an idea too.]))
(;B[bl]C[this brings the B5 aji back out, even if you get D6 then black gets the extension he needs anyways.]
))
(;W[bn]C[this move is normal.]))
(;B[cp]C[black should block this way, he should only block D3 is he already has an extentsion around K4. Playing D3 just makes it easy for white to make black's wall useless.]
;W[dq];B[ep];W[bp];B[bo];W[bq];B[co];W[fq]C[black stones are working together much better]
))
(;W[qf]C[maybe like this, although it's hard to get a move that affects Q16 and leaves no room for the two space extension by R8.]
))
(;B[oo];W[oq];B[po]C[if black does this, R6 is almost dead.]
))
(;W[mp];B[no];W[pq];B[oq];W[or];B[op];W[mr];B[qq];W[pr]C[and later white has the cut at R4, which leaves back way over concentrated]

(;AE[ql]C[to think of it another way, if you wanted to extend from a wall like this would you go as close as R8?]
PL[W];B[mo];W[lp];B[pj]C[this looks good and if white does the cut black is not as concentrated]
;W[qp];B[qo];W[rp];B[ro];W[rq];B[pn])
(;W[qp];B[qo];W[rp];B[ro];W[rq]C[after this cut black is overconcentrated and probably needs to add another move]
;B[pn])))
(;B[pn];W[pm];B[qm];W[pq]
(;B[qo];W[qq]C[this is a common joseki])
(;B[qq]C[incase you wonder why black does not do this...];W[po]
;B[on];W[qp];B[op];W[oo];B[no];W[qo]C[this had black with too many cutting points]
;B[np];W[oq];B[nn];W[rq])))
