(;FF[4]GM[1]SZ[19]AP[SGFC:1.15]

PB[AndreyL]
BR[3d]
PW[epsilone]
WR[4d]
KM[0.5]
DT[2008-05-07]
PC[The KGS Go Server at http://www.gokgs.com/]
RE[W+29.50]
TM[600]

C[Hi,thanks for your time.
my main questions are about the moyo on left side and the fight there and my mistakes on the lower side+the dead group.]
;B[pd];W[pp];B[cd];W[dp];B[cn];W[dk];B[en]C[feels like the right direction]
;W[fq];B[bp];W[cq];B[bk];W[fc];B[ed];W[db];B[fd];W[cc];B[bd]
;W[gc];B[gd];W[hc];B[fk]C[this seems like a fine move,but perhaps playing around d12 is better?

klin: This is better than D12.];W[fh];B[hd];W[id];B[ie];W[jd]
;B[hf]C[klin: H14 is too slow.  Should attack at H12 directly.]
;W[gi];B[ei]C[klin: E11 still should attack at K11.];W[eh];B[di]
;W[dh];B[ci];W[ch]C[klin: White C12 should escape at J11 or J12.]
;B[ii];W[gk];B[gl];W[hk];B[hl];W[fj];B[ek]C[klin: BE9 should play at E10.]
;W[ej];B[dl]C[klin: Now B's previous moves E11, D11, C11 all look bad.]
;W[ik];B[qn];W[pk];B[on];W[np];B[rp];W[qq];B[rk];W[il];B[hn]
;W[im];B[lq];W[nr];B[hq];W[bq];B[nc];W[pm];B[pn];W[qk];B[rl]
;W[rj];B[qi];W[qj];B[pi];W[nk];B[rq];W[rr];B[qp];W[pq];B[mn]
C[klin: Before N6, B should make the T2 S1 exchange.];W[lp]
;B[kq];W[hm];B[gm];W[gn];B[fm]C[klin: B's shape is very bad here.]
;W[go];B[ho];W[gp];B[hp];W[kp];B[jp];W[jo];B[fr];W[er];B[mr]
;W[mq];B[ls];W[jq];B[jr];W[ip];B[ir];W[gr];B[mo];W[mp];B[kr]
;W[ns];B[ms];W[po];B[qm]C[klin: R7 is bad.  If played at R5, the group probably won't die.  Agaian, the T2, S1 exchange helps.]
;W[qf];B[ri];W[sj];B[ni];W[of];B[mk]C[klin: N9 attacks from the wrong direction. B should play at N8, W N9, M9, M10, L10.  With the threat to cut the left W dragon, B's group has a sceured eye in the middle.]
;W[ml];B[lk];W[nj];B[mi];W[oi];B[oh];W[oj];B[pg];W[ll];B[pf]
C[there is still corner aji,but i felt i need to cut];W[qc]
;B[qd];W[nm]C[klin: Now all white groups are connected.  B is in danger.]
;B[oo]C[greedy,i guess i had to give up those 2 stones];W[sq]
;B[om];W[pl];B[sn]C[klin: B's last chance to live is play at S6.  If W R5, B T7 giving up 3 stones.  If W T7, B R5, at least can get a "both alive".

No futher comment beyond this point.];W[sk];B[sl];W[rm];B[sp]
;W[ql];B[sm];W[ro];B[jb];W[ib];B[jc];W[ic];B[pc];W[mc];B[mb]
;W[lb];B[lc];W[kc];B[md];W[ja];B[kk];W[kl];B[kd];W[kb];B[je]
;W[ke];B[ld];W[jj];B[kh];W[li];B[lh];W[mj];B[ki];W[si];B[rg]
;W[sg];B[sf];W[sh];B[rf];W[bo];B[bn];W[ap];B[gq];W[fs];B[bh]
;W[bg];B[bi];W[hh];B[ih];W[hg];B[ig];W[dj];B[ck];W[bb];B[bf]
;W[ag];B[cf];W[cg];B[ec];W[eb];B[ep];W[eq];B[eo];W[fp];B[jk]
;W[ij];B[jl];W[jm];B[lj];W[kj];B[li];W[df];B[ef];W[de];B[dd]
;W[ff];B[ee];W[gf];B[eg];W[dg];B[fg];W[gg];B[hi];W[io];B[in]
;W[jn];B[bc];W[ce];B[be];W[ac];B[ad];W[ab];B[dc];W[cb];B[af]
;W[ge];B[he];W[co];B[an];W[ji];B[jh];W[rh];B[qh];W[iq];B[hr]
;W[do];B[pj];W[nl];B[la];W[dm];B[em];W[dn];B[cm];W[el];B[fl]
;W[cj];B[bj];W[ah];B[ai];W[gj];B[qo];W[rn];B[so];W[rn];B[ma]
;W[ao];B[cl];W[hs];B[is];W[gs];B[fi];W[gh];B[el];W[tt];B[tt]
)
