(;FF[4]GM[1]SZ[19]ST[2]CA[UTF-8]AP[SGFC:1.15]

PB[macbas]
BR[18k]
PW[nitro55244]
WR[18k]
KM[6.5]
DT[2008-05-11]
PC[The KGS Go Server at http://www.gokgs.com/]
RE[W+25.50]
TM[1800]
OT[5x30 byo-yomi]
RU[Japanese]

C[I played with black against nitro55244. In the End ist was a pretty close game. But I didn't make enough terretory. So may main aspect of this review would like to be, which moves had been better to make a greater terretory. Where have I been to hesitant? Thank you.

- Hey this is my first every review, I hope it will be helpful to you. My comments are denoted by an "-". I went through your game step by step noting alternative moves. At the end I wrote a few recommendations. To sum them up you need to work on:
 Connections between stones (connecting and splitting)
 Capturing stones
A really good book is "Lessons in the Fundamentals of Go" it teaches a lot and it very nice to read. It starts out with ladders and moves on to capturing etc. It is once of most popular go books around.

- In the case you have any questions just drop me a mail.

- Sorry for all the extra variations that don't go anywhere, I don't think CGoban has the ability to delete variations.]
;B[pd];W[pp];B[dq];W[dd];B[cj];W[qj]
(;B[hd]C[- If you would like to play for territory and solidity (instead of influence), you should play on the third line here.]
;W[nd]
(;B[nc]C[This move was maybee to offensive. Better p17?

- It does look start a fight, but if you had gotten the ladder the move looks ok.]
;W[oc];B[od];W[mc];B[nb];W[mb];B[ob];W[pc]C[here I missed to build a ladder]

(;B[pb];W[qc];B[qd];W[qb];B[rc];W[rb];B[sc];W[pa]
(;B[md];W[ne];B[ld]
(;W[oa];B[ph]C[-];W[sb];B[rd];W[rh]
(;B[rg];W[qg];B[rf];W[qf];B[qe];W[sg];B[sf]
(;W[sh];B[qh];W[pf];B[ri];W[rj];B[si];W[sj]C[- Also a mistake by white]

(;B[of]C[- Maybe a little reserved.];W[nf];B[oe];W[ql]
(;B[lq];W[oj];B[mh]C[- Good.];W[ol]
(;B[mk]C[- The idea is good but a 2 space jump is very weak, and there are more urgent points, think about C13, H4.]
;W[eo]
(;B[do];W[dn];B[dp];W[co];B[cp];W[bo];B[bp];W[ep]
(;B[eq];W[cn]
(;B[cl]C[- This looks too compressed.];W[fq];B[fr];W[fp];B[cr]
;W[gr];B[fs];W[gs];B[er];W[gq];B[ao];W[an];B[ap];W[bn]
(;B[hn]C[- This stone does not do enough.];W[nq]
(;B[mo];W[no];B[mn];W[mm]
(;B[lm];W[nm];B[ll];W[ln];B[kn];W[lo]
(;B[mp]
(;W[lp]C[- Mistake by white.];B[kp];W[nn]C[- Sorry for the messy variation, I don't think a 3-3 invation works here. Hmm CGoban should have a remove option.

- Please do check the node with the triangle further down this variation.]

(;B[np]
(;W[op]C[In the end he will get the right corner down there. have there been any chance right now to prevent that?]
;B[mq];W[nr];B[mr];W[ms];B[ls];W[ns];B[fc];W[kr];B[lr];W[ks]
;B[kq];W[jq];B[jp];W[ip]
(;B[jr];W[iq];B[js];W[ir];B[io];W[hp]
(;B[fm]C[- Here you almost had what would most likely be a winning move.]
;W[eb];B[ec];W[dc];B[fb];W[db];B[ee];W[ed];B[fd];W[de];B[ef]
;W[fe]
(;B[ff];W[ge];B[gd]C[Is there a better way to stop him? I lost a bit of control here.]
;W[he];B[ie];W[hf];B[gg];W[if];B[ke];W[je];B[jd];W[id];B[ic]
;W[ie];B[kc];W[kf];B[lf];W[kg];B[lg];W[kh];B[kj];W[df];B[dh]
;W[fa];B[ga];W[ea];B[hb];W[kb];B[lb];W[na];B[jb];W[lc];B[la]
;W[ma];B[ka];W[me];B[ng];W[le];B[kd];W[dg];B[mf];W[nc];B[eg]
;W[eh];B[ei];W[fh];B[gh];W[di];B[ch]C[here i think i was much to hesitant. in the end i will loose the e14 group]
;W[fi];B[ej];W[gi];B[hh];W[ii];B[hi];W[hj]C[- I'm not sure how to profitably save these stones, but remember that this is all due to no immediately capturing the F15 stone. Remember to capture stones that separate your groups if you can so that you can keep you stones connected.]

(;B[fj];W[gj];B[jh];W[ih];B[ig];W[hg];B[ij];W[jg];B[ji];W[ig]
;B[li];W[gf];B[hk];W[fg]
(;B[ci]C[- Not important!];W[ik];B[jj];W[hl];B[gk];W[gl];B[il]
;W[fk];B[jk];W[hk];B[im];W[ek];B[dj];W[em];B[gm];W[fl];B[dk]
;W[cg];B[bg];W[bf];B[ag];W[af];B[bh];W[cf]C[- Not necessary either.]
;B[bm];W[dl];B[cm];W[dm];B[am];W[hm];B[fn];W[en];B[fo];W[go]
;B[gn];W[ho];B[in];W[nj];B[mi];W[nk];B[ni];W[nl];B[oi];W[pi]
;B[qi];W[pj];B[mj];W[ml];B[lh];W[rq]
(;B[ki]C[- Neutral point.];W[is];B[tt];W[tt]TW[aa][ba][ca][da]
[qa][ra][sa][ab][bb][cb][nb][ob][pb][ac][bc][cc][ad][bd][cd]
[ae][be][ce][ee][ef][ff][jf][eg][gg][gh][hh][hi][gk][ok][pk]
[qk][rk][sk][el][pl][rl][sl][om][pm][qm][rm][sm][on][pn][qn]
[rn][sn][oo][po][qo][ro][so][gp][qp][rp][sp][hq][oq][pq][qq]
[sq][hr][or][pr][qr][rr][sr][hs][os][ps][qs][rs][ss]TB[ha][ia]
[ja][gb][ib][kb][gc][hc][jc][sd][pe][re][se][pf][qf][mg][og]
[pg][qg][sg][ah][nh][oh][rh][sh][ai][bi][di][aj][bj][lj][ak]
[bk][ck][kk][lk][al][bl][jl][kl][jm][km][jn][ln][jo][ko][lo]
[lp][aq][bq][cq][ar][br][dr][kr][as][bs][cs][ds][es][ks]C[- There were two important points in this game, all having to do with the connections between groups. The first is the move that would have split the group in the bottom-left. The second is the move by white that split your groups, and killed a bunch of stones (F15). Remember that a very, very important thing to do is to KEEP YOUR STONES CONNECTED and to try and SEPARATE the stones of your opponent.

- I would also advise to study the capturing of stones.

- Furthermore I would say that you should play a bit more constervative with respect to the center; try to first build up a foothold and then advance towards the center. Immediately trying to stop the other from advancing is very difficult since your stones will be very weak.]
)
(;B[is];W[hs]))
(;B[gk];W[ci];B[bi];W[bh];B[dj]))
(;B[gj];W[fj];B[gk];W[ek];B[dj];W[fk];B[ih];W[ij];B[ji]
(;W[jj])
(;W[jh];B[jj];W[hk];B[gl];W[gf];B[hl])))
(;B[ge]C[- LADDERS !!!]))
(;B[en]C[- DONT BE SCARED OF CUTTING!!!]))
(;B[iq]C[- More profitable.]))
(;W[mq];B[op];W[oq];B[oo];W[po];B[on];W[pn];B[ko];W[om]C[- More solid for white.]
))
(;B[qq];W[qp];B[pq];W[oq];B[rp];W[ro];B[rq]C[- I'm not sure whether this will work.]
;W[pr];B[qr];W[or];B[sr];W[rs];B[sp];W[qs]
(;B[rn];W[qo];B[so];W[rm])
(;B[qo]
(;W[qn]
(;B[op];W[po])
(;B[po];W[op];B[rn]))
(;W[rn]
(;B[qn])
(;B[op];W[po];B[oo]
(;W[np];B[pn];W[mq])
(;W[qn])
(;W[pn];B[np]C[- Best for white, and somewhat reduces side.]
))))))
(;W[kp];B[ko];W[kq];B[lp]C[- Result better for white than a sure capture.]
))
(;B[ko]C[- Read out the ladder.];W[lp];B[mp];W[kp];B[jp];W[kq]
;B[kr];W[jq];B[iq];W[jr];B[ir]))
(;B[nn];W[on];B[nm]))
(;B[en]C[- Still an important point.]))
(;B[en]C[- This a very URGENT move, it threatens two groups at once which makes it difficult for white.]
;W[em];B[fn];W[gn];B[fm];W[fl]C[- White can't stop black.]))
(;B[cg])
(;B[df]))
(;B[cn];W[cm];B[bn];W[bm];B[ao];W[em]
(;B[eq])
(;B[cg])
(;B[hp])))
(;B[co]C[- Avoids complications.]))
(;B[hp])
(;B[cg])
(;B[cm]))
(;B[qq]C[- Invading here is also an option.])
(;B[nq]C[- Or putting more pressure on the white stones.])
(;B[cg]C[- This feels somewhat more urgent to me.]))
(;B[mg]C[- Something like this should lock both white groups in.]
))
(;W[qh]C[- White should have let this go. Remember that stones like T13 give almost no territory.]
))
(;B[qg];W[rg];B[rf]C[- Works better.]))
(;W[qg]C[- For white P19 was not necessary. That is why black needs a stone here (see previous variation).]
))
(;B[ne];W[md]
(;B[me])
(;B[qh]C[- To me this looks more solid. It also makes territory while "attacking" R10.]
)))
(;B[qc]C[- Like you indicated, this would save a lot of points.]
))
(;B[oc]C[- This would be ok.]
(;W[oe])
(;W[pf]))
(;B[qg]C[- I would prefer something like this.])
(;B[qf]))
(;B[fc];W[df])
(;B[gc];W[df])
(;B[cg]C[- This would be a very solid move.]))
