(;FF[4]GM[1]SZ[19]ST[2]CA[UTF-8]AP[SGFC:1.15]

PB[AleM]
BR[12k]
PW[Lerion]
WR[9k]
KM[6.5]
RE[B+2.50]
RU[Japanese]

C[Hi! I'm Lerion and I played as white in this game and lost by 2,5. This game was played in real life but I added our IGS ranks just for reference. I also play on KGS and I'm 5k.

Hi. I'm AleM and we both are requesting a review for this game. My comments will start with "A:" and his will be marked with "L:".

L: I commented some of my moves and I'd like to know if my judgment was correct. I'd also appreciate any advice about the game in any other stage or if I should have played elsewhere.
I also think my endgame was not so satisfactory as I was pressed most of the time.
Well, any criticism or suggestion is welcome =). Thank you for the review.



Thanks for a chance to review this game - i really enjoyed doing it. I've put my thoughts and some variations into the file - I hope they are useful to you. I don't think they're the definitive answers, but hopefully they will give you some more ideas about how you could have played differently. Overall, i thought both sides played very well. There were a couple of spots where white allows black to get what i would call a 'split shape' - one connected black group splitting two white groups. This is generally pretty good for black, so is worth thinking about. Other than that, I don't have any general comments. Let me know if you have any questions.

Cheers
Ian];B[dp];W[pd];B[de];W[pq];B[po];W[qo];B[qn];W[qp];B[pn];W[nq]
;B[qj];W[cn]
(;B[fp];W[bp];B[cq];W[ck]
(;B[jq]TR[nq];W[dc]
(;B[fd]C[I'm not sure I like this choice of Joseki for black. Again, i'm not strong enough to call your move a real mistake, but I wouldn't like to play this way. My reasoning is: this variation builds strength facing the middle/down the left hand side. Because of the solid white group on the left, I think i would play differently.]
;W[ce];B[cf];W[cd];B[df]
(;W[fc]C[This is not the book continuation, I think i would play as in the variation.]

(;B[gd];W[gc];B[hc]C[A: Would a more solid move, like H16, be better?

I think this is the right move];W[ed]
(;B[ee]C[This is horrid shape. :-(];W[fe];B[ff];W[ge];B[hd]
;W[gf];B[fg];W[gg]
(;B[di]C[A: Any better move to protect the left side?

Allowing white to cap the 2 stones at F12 is a bit painful, i think, although this stone does defend it a bit.]
;W[fh];B[eh]
(;W[eg];B[ef];W[ei];B[dh]
(;W[gi]
(;B[dk];W[cj]
(;B[qg]C[A: Attacking from the upper side, like O17, would be a better move?

on the left, D10 looks very tempting, but if you want to take the initiative elsewhere, then i think perhaps the most important thing is to defend the 4 stones on top. The way you play, lets you do so quite naturally, so it looks pretty good. Alternatively, i would just play L16/17]

(;W[nc];B[lc]C[I would prefer to play at L17 but this is definitely the right sort of move to be making]
;W[jc]C[nice attack];B[jd];W[kc];B[kd];W[lb]
(;B[hb]C[this is a bit of a cheeky move from black, since it doesn't really defend anything and the group is under attack. I would be tempted to ignore it for now.]

(;W[gb];B[kb]
(;W[ld];B[mc];W[mb];B[md];W[jb];B[le];W[ne];B[nd]
(;W[oc]C[If you're going to play P17, then O15 makes no sense. Letting black cut straight through is very bad for white]
;B[oe];W[nf];B[od]TR[oc][ne]C[The two triangled white groups are separated by a connected black group. This is very bad. It's ok if both black and white are cut - it's a fair exchange, but cutting and staying connected yourself is very strong. If black plays D10, it is similar. 

http://senseis.xmp.net/?SplitShape]
(;W[pc]C[is this really needed?];B[nh]TR[qe]C[a move like the triangle would be very big, but this is very nice, too.]
;W[ie];B[id];W[jg]C[Cutting at D10, would lead to a fight, but preventing the escape of the black stones on the left indirectly makes the middle white stones stronger. The D10 position looks very strange to my eyes.]
;B[lg];W[ki];B[if]C[Maybe white can ignore this move and continue to jumpt into the right?]
;W[ig];B[jf];W[fk];B[ga];W[eb];B[dd];W[ec];B[cc];W[bc];B[cb]
;W[bb];B[be];W[bd];B[bi];W[ci]C[This next sequence is a bit funny.]
;B[ch]
(;W[bj];B[bh];W[bf];B[bg];W[ae];B[dg]
(;W[ej]C[i'd still prefer to cut!];B[dj];W[dl];B[el];W[dm];B[pe]

(;W[ho];B[hq];W[gm];B[jm]C[A: Too deep? Extending the territory in the right side (O6) could be better?

Any where on the line netween L11 and H5 is probably playable, say J7 or K9. 

Another option might be to play M10 to build up the right in exchange for the middle.]

(;W[jo]LB[mm:A][jo:B]C[L: Is this the right direction, or should I have tried to secure territory or even tenuki?

i's going to be tough to capture the black stone becuase it has two escape routes - down and  to the right. Black has more potential territory on the right, so perhaps it would be better to try to attack this stone from the other side, in order to reduce black's territory on the right?

I guess i would think of moves around A and B as miai in defending the black stone- white can get one, and then black will take the other. The area around A is more useful for Black to take territory, so i think it's more valuable for white to take that area than B, which will end up as neutral points for either colour.]
;B[lm]
(;W[nm]C[L: Black's territory on the right seems very prospective, so I thought I need to invade somehow. And was also an attempt to keep B stones disconnected.

Good idea, but it's perhaps a move too late, and a bit too deep.]
;B[nn];W[kn];B[km]
(;W[nj]C[L: As black was strong I was trying to play lightly.

Good idea, perhaps this is a bit too deep too.];B[mj]C[A: I don't know if I this is correct. I played this way because I thought I was behind in territory and this was the only way to win the game...]
;W[mi];B[ni];W[lk];B[mk];W[ml]C[L: Not so sure about the sequence from here on.

It's tough to see a good way out. I think the deep invasions are obviously the root of this fight, and that they probably needed to be shallower.]
;B[lj];W[kk];B[ll];W[nk];B[mm];W[nl]C[L: Here is the beginning of the semeai, I wonder if I could do something better. Or even he.]
;B[li]
(;W[kj];B[lh];W[mn];B[om];W[pk];B[qk];W[ql];B[ol];W[pj];B[pi]
;W[pl];B[ok];W[oj];B[oi];W[no];B[on];W[rl];B[rm];W[qi];B[ri]
;W[rj];B[qh];W[rk];B[qi];W[ln];B[in]
(;W[ro];B[sl]C[L: As I realized I'd lose the semeai, I thought I should at least secure territory in sente, but later I noticed that this position had the ko threats I needed to win the game.

Yes the right thing to do is to go and play elsewhere. Black may always miss a loss of liberties on the middle stones, andthen you can come back and rip him off.]
;W[rn];B[qm];W[sn];B[sm];W[pp];B[sj];W[oo];B[sk]C[A: Unnecessary?

yup];W[lq]C[L: I don't think that was a good choice, but I'm not really sure how to proceed. Should I start on B3  or any other position?

This is big, B3 is big, and there's a big spot somewhere about S15. I think i would play the top right, but actually B3 is probably the biggest, because it has a bigger followup move.]
;B[ik];W[ij];B[ea];W[ca];B[bq]
(;W[cp]
(;B[rd]C[so black got the other two big spots. I guess because B3 was sente, it should have been played first :-)]
;W[rc];B[qd];W[qc];B[kr];W[lr]
(;B[ap];W[bo];B[hk];W[ek];B[en];W[em];B[gl];W[fl];B[hj];W[hi]
;B[do];W[gq];B[gp];W[ir]C[A: I didn't read well enough and this became too dangerous. After this move, have I done a big mistake to let this turn a ko?

well you could always let the white stone connect through, more defensively, but i think white played pretty well to force a ko. I think perhaps you could have prevented it, but i'm not sure..]

(;B[jr];W[iq];B[ip];W[hr];B[hp];W[fr]
(;B[gs];W[fs];B[fq];W[gr];B[jp];W[dr]
(;B[cr];W[er];B[ds];W[dq];B[ar]C[A: I decided the only I could something was to start a ko here.]
;W[bs];B[cs];W[ao];B[js]
(;W[aq];B[is];W[br];B[as];W[br];B[ap];W[si];B[sh];W[aq];B[bs]

(;W[es];B[ap]C[L: Now the right group would be come in handy.

Yup];W[hl];B[hs];W[aq];B[eq];W[il];B[jl];W[jk];B[co]C[A: Obviously missed W234...]
;W[re];B[qe];W[sd];B[rf];W[se];B[sf];W[sc];B[bn];W[bm];B[ap]
;W[an];B[ls];W[mr];B[kp];W[lp];B[ko]
(;W[lo];B[hn];W[jn];B[io];W[gn];B[go];W[fn];B[ms];W[ns];B[ks]
;W[hf];B[kh];W[jh];B[je];W[eo];B[dn];W[fo];B[he];W[ep];B[dq]
;W[kg];B[kf];W[da];B[hm];W[gk];B[im];W[gl];B[fa];W[aj];B[ag]
;W[af];B[ai];W[ia];B[ib];W[ja];B[ha];W[ka];B[fb];W[db];B[aq]
C[L: I think that was all. Thanks for the review in advance.

A: Thanks to the reviewer for the review.])
(;W[jn]))
(;W[hs]C[Given white doesn't  have any decent threats left, i think this is better. It creates the chance for a seki, too.]
;B[ap];W[il];B[eq];W[aq];B[db];W[ap];B[fb]))
(;W[is];B[eq];W[aq]))
(;B[er]C[?]
(;W[eq];B[dq];W[cr];B[ep]
(;W[es];B[br])
(;W[br]))
(;W[dq];B[eq];W[es];B[cr];W[ds];B[cs];W[ar];B[aq]
(;W[bs])
(;W[hs];B[js]))))
(;B[fq]C[i think this is ok, no?]
(;W[gr];B[jp];W[dr];B[dq])
(;W[gs];B[jp];W[dr];B[dq];W[er];B[is];W[cr];B[br])))
(;B[iq]
(;W[jr];B[kq];W[ks];B[hr];W[ls])
(;W[hr];B[jr];W[gr];B[hp])))
(;B[bo]C[?]))
(;B[bo];W[co];B[ap];W[bn];B[ao];W[an];B[aq]))
(;W[bo])
(;W[co]))
(;W[il]C[This a very strong move, and might just work.];B[io]
;W[ip]
(;B[jp];W[jn];B[im];W[hp];B[hn];W[gn];B[go];W[gp];B[fo];W[gq]
;B[gr];W[fq];B[eq];W[fr]
(;B[er];W[hr];B[iq];W[gs];B[es];W[fs];B[is];W[ir];B[jr];W[jl]
)
(;B[iq];W[er];B[hr];W[jl]))
(;B[hp];W[jp];B[hn];W[go];B[gn];W[fo];B[fn];W[eo];B[en];W[do]
;B[dn]
(;W[im])
(;W[em];B[fm];W[fl];B[co];W[cp];B[cm])
(;W[ek];B[co])
(;W[cm];B[fl]
(;W[gl];B[ek])
(;W[ek]
(;B[gl])
(;B[hl];W[gl];B[gk];W[hk];B[gj];W[hj];B[hm];W[fj]))))))
(;W[lh];B[mh];W[kh]))
(;W[mj])
(;W[mk];B[mj];W[lj];B[lk];W[ll];B[kk];W[mi];B[nj];W[ni];B[oi]
;W[oj];B[nk];W[ok];B[ml];W[oh];B[pi];W[mh];B[ng];W[mg];B[og]
;W[of];B[pg];W[mf]))
(;W[mj]))
(;W[mj]C[This is directly reducing the right hand side, and potentially could lead to a later attack on the lone black stone in the middle.]
)
(;W[mm]C[something a bit like this is quite light, can run up or down, and should reduce black's RHS.]
))
(;W[hp]C[I think this is playable.];B[hq];W[iq]
(;B[ip];W[gq];B[ir];W[gp])
(;B[gq];W[ir]
(;B[ip];W[jr];B[kq];W[kr];B[lr];W[lq])
(;B[jr];W[ip];B[hr];W[bq]))))
(;W[dj];B[ej];W[fi];B[ek];W[cl]))
(;W[dj];B[ej];W[fi];B[ek];W[cl]LB[el:A]C[Now A captures the black stones, or if black defends the outside I think you can capture the black group]

(;B[dm];W[bg];B[bh];W[bf];B[bj];W[bk];B[cm];W[bm];B[bn];W[bo]
;B[ak])
(;B[bg];W[el]))
(;W[bg]C[This is the best move, but you need to seal in black first.]
))
(;W[qe]))
(;W[od]C[If you play 64, I think you're committed to playing a line like this...]
;B[oe];W[me];B[ld];W[ng];B[oc];W[nb];B[pc];W[qc];B[qd];W[pe]
;B[qb];W[rc];B[of]))
(;W[mc]C[This is a stronger answer];B[jb]C[but this is a nice reply for black]

(;W[ld];B[ic]C[Perhaps this line is best for both sides])
(;W[ic];B[id];W[ld];B[ib])))
(;W[mc];B[ld];W[ne];B[mb];W[kb]C[Keeps black under pressure]
;B[ig])
(;W[ld];B[le];W[md];B[me];W[ne];B[nf];W[oe]C[takes a big corner, and leaves cutting points to attack]
))
(;B[ld];W[mb];B[if]C[This looks simple, and ok for black]))
(;W[kd]C[I wonder what happens when white plays like this?]
))
(;B[kd]C[simply this way would be solid]))
(;B[ej]C[I think black should take this atari straight away, to keep a route out to the centre]
;W[fi];B[cj];W[dk];B[dj]))
(;W[ej]LB[gh:A]C[I want to play here, but the threat of A on the 4 stones in the middle makes it very dangerous. As a result, i think the less aggressive approach for move 40 is probably best.]
))
(;W[fi]C[It would be nice to seal the black group into the side, which would make the white stones in the middle stronger, but it looks hard to do. I think a less directly aggressive approach like here might be best for now. If Black plays elsewhere, you cand play D10 or something; if black plays D9, say himself, then this stone is better place for the middle group]
))
(;B[fh]C[I think this is the most solid move.])
(;B[gh];W[hh];B[hi]C[This looks playable, because of the shortage of liberties of the white stones. It's a bit risky for the 4 black stones on top, however.]

(;W[fh];B[gi];W[eh];B[hg];W[hf];B[if];W[ig];B[he];W[hg];B[jg]
C[Ladder.])
(;W[gi];B[fh];W[ih]
(;B[fj]C[The left hand side is fine for black, but the top stones will likely come under a severe attack]
)
(;B[if];W[ig];B[he];W[hg];B[fj]))))
(;B[ff]C[I think this is the shape move.];W[ee];B[gg]C[I think this is quite nice for black]
))
(;B[gc];W[gd];B[hc];W[ed];B[fe]LB[dd:B][ee:A]C[White wants to push through at A, and cut, but then the move at B is veryt dangerous. It gets a little complicated, but i think this is good for black.]
))
(;W[fb]C[This is usual.];B[dj]))
(;B[ec];W[eb];B[ed];W[fc];B[fb];W[gb];B[db];W[fa];B[cc]C[I think i would play like this as black]
))
(;B[dc];W[hq]TR[fp]C[If you play high, and then take sente, this move by white looks attractive for white]
))
(;B[fq]TR[nq]C[because the triangled stone is low, I would play here. 

I guess you need to be very strong to really make authorative comments this early in the game, but the way i would think about the position is: the bottom is not a very large area for either player (because of the low, solid white group) so better to take sente to play on top than have to play k3.]
;W[bp];B[cq];W[ck];B[dc]C[for example]))
