(;FF[4]GM[1]SZ[19]ST[0]AP[SGFC:1.13b]VW[]

PB[LDupuis]
BR[10k]
HA[0]
PW[OlivierB]
WR[3k*]
KM[0.5]
DT[1998-04-29]
RE[W+26.5]

;B[pd];W[dp];B[dd];W[po]LB[qm:A]C[This white move has a weak point at A,
so white wants to play up the right edge
to prvent black playing there.];B[jd]
(;W[cf]C[Here I would prefer to play on the right edge for white - see
the variation.  But this move is also a fine one.];B[fd]
(;W[ci]C[This move is conservative, and prevents black from easily expanding
his moyo.];B[pj];W[pq]
(;B[jq]LB[qo:A][po:4]C[If move 4 is at A, this is definately the right move.  Now I
am not so sure.  Playing one point higher might be better.]
;W[hq];B[mq];W[io]
(;B[hr]C[I don't like this move since it makes the lower left corner more
solid, and leaves W stronger toward the outside.  Black's opening
with all stones high emphasises the center, so he should try
to come out here with stones toward the outside.];W[gr];B[ir]
;W[gq]C[After this exchange it is harder to get into the lower left,
so it feels like W is a little ahead.]
(;B[eg]LB[cn:B][dj:A][ci:8]C[This would be a good move if 8 was at A, so white would have
to answer.  But in this game it seems a little slow.  I would
prefer to play in the lower right.

If B can make some gain in the lower right with sente, he could
come back and play at A or B];W[qf]
(;B[ei]C[This move is too slow.  You have to attack the stone in the upper
right and make territory white chasing it.    One of the principles of playing 3-star is to form a big moyo,
then when the opponent invades, take territory by attacking him.]
;W[nd]
(;B[oe]C[This move makes things a little too easy for white.  B has the
advantage here, so W should not be able to get an easy life on
both sides.  One of the approach stones should die, or at least
become very weak.  Often it is better ot attatch to one of the
stones making the double approach.]
(;W[mf]C[usually at this point W would play 3-3.  Since he didn't he is
trying to live on both sides.

So this move looks like an overplay.  Since W didn't take the
corner, B should look at taking it himself.

You can look at the cut to the left, or playing to the right
first, then cutting, or just playing 3-3]
(;B[og]C[This move is probably wrong, since it lets W get both sides.]
;W[qc]
(;B[pc]C[This move follows the principle of making a straight line for
your stones, but blocking the other way might be better.];W[qd]
;B[ld];W[pb]
(;B[ob]C[You could cut now, and make a big central moyo.];W[qb]

(;B[oc]C[Perhaps you could cut now rather than playing here.]
;W[md]
(;B[lc]C[Even if W plays here he won't get much.  I would prefer to attack
from the outside.];W[mh]C[Now W has reasonable groups on both sides, and took the corner,
so B must have made a mistake.  This result is too good for W.]
;B[qg];W[rg];B[qh];W[pf];B[of];W[rh]
(;B[mk]LB[mj:A][po:4][io:14]TR[ld][jd][fd][eg][ei]C[I don't think you can kill the W group with this move.  Since
W has stones 14 and 4 behind it, this move will not gain anything.
It won't take territory, and its strength won't help attack 4
or 14, which are both pretty strong.  So it is attacking from
the wrong direction.

The marked stones make a pocket of territory in the center.  You don't want to chase W into this pocket unless either 1) you
can expect to kill him, or 2) the moves you get while chasing
him will be useful to support an attack on another group or an
invasion.

If you do want to attack from this side, I prefer A, since it
more tightly surrounds the weak group.

With this move, you should plan to drive white to connect to
his 14 stone, while you get stones to the left of his group,
and then use those stones to support an invasion of the lower
left side.

You could also think about peeping first, since you have a strong
3 stone black wall.];W[jg];B[ji]LB[mj:A][mk:43]C[This move does not have a very good relationship with the stone
43.  It leaves a hole that W can come through.  It would be a
fine move if 43 was at A];W[lj];B[kl];W[jj]
(;B[ii]C[Here I would look at going to the right instead.  It looks like
a stronger attack.];W[ki];B[kk];W[kj]
(;B[hl]C[Playing one move higher is a stronger attack.  You don't want
to leave white big holes to get out through.];W[ij];B[ig]C[I don't understand this move.  Attaching to the white stone will
make it stronger.  You want to avoid this kind of move when you
are attacking a group.];W[if];B[hi];W[hj]
(;B[hg]LB[if:56][ig:55]C[This move is away from the main attack.  you should play to surround
white, and get some stones near the lower left side.

Exchanging 55 for 56 cost you a move here, since you came back
to 59.];W[il];B[im];W[jl]
(;B[jn]LB[jm:A]C[This move makes a strange shape.  After W's next move, you don't
want to cut since it makes an empty triangle.  It should ber
at A.

It's unclear to me what you are trying to do with this attack.
Killing the W stones is unreasonable, so you should pick the
way you want them to connect out.  It seems best for you if they
connect down throught the middle while you play to the left,
to support an invasion near the lower left.];W[km]
(;B[ml]C[Playing here lets white cature a stone on the left and make his
lower left side even stronger. you want to defend the other side.]
;W[hm];B[jo];W[jm];B[in];W[gl];B[hn];W[gm]C[Now white has strengthed his hold on the lower left corner and
side.  And his center group is safe.

White is way ahead.];B[hp];W[go];B[ho];W[gp]
(;B[dk]C[This is an interesting way to get into the white area.  And in
this game it worked out well.]
(;W[dj]C[Usually you would expect white to cut across the knight's move
rather than play here.];B[ej]
(;W[ek]C[Cutting here did not work out very well for white.  Since he
has got everything he wanted during this game I guess he got
a little greedy.

Playing to the left is probably better.];B[ck]C[good move];W[bd]
;B[cc];W[bc];B[bh]C[Another very good move];W[ch];B[bi];W[bg]
;B[cj];W[cb];B[db];W[cd];B[dc];W[bb];B[cn];W[bo];B[bn];W[co]
;B[di]C[Black had quite a success here.  The game is closer now, but
white is still a little ahead.]
(;W[jf]C[The lower right is bigger]
(;B[qm]C[This is a good move and makes the game close again.  Since black
is still a little behind, he might consider the peep in the corner.
Black is
reasonably strong around here, so if white gets an outside wall
he probably won't be able to use it for much.];W[qn];B[pm];W[nq]
C[good way to defend against the peep inside the corner.];B[nr]
;W[or];B[np];W[oq]
(;B[id]C[This move looks strange.];W[he];B[hd];W[mp];B[lp];W[mo]

(;B[lr]C[The solid connection is usually better];W[ns];B[mr]
;W[lo];B[kp];W[iq];B[ip];W[hs];B[rm]C[good];W[qi];B[pi];W[qj]

(;B[qk]LB[rm:23]C[This move is small.  Since W didn't answer your
move 123, you should jump into the corner.  I
don't think he can cut you off and kill you if you do.

I tried a few variations, and you have to be careful, but I thik
you can either connect or live.];W[rn];B[rk];W[da];B[ea];W[ca]
;B[eb];W[an];B[am];W[ao];B[bm];W[le]C[I don't think W can be cut in the center near here, so this move
is small, perhaps 2 to 4 points in reverse sente.];B[sn];W[so]
;B[sm];W[qo];B[nn];W[no];B[en];W[gn];B[do];W[eo];B[dn];W[cp]

(;B[ge]C[This move is also small.  Capturing two stones on the right is
much bigger.

Then the B group on the right would be very strong.];W[nj];B[mj]
C[This move is not good since it helps white.  White's response
improves his position since it threatens a cut.];W[ni];B[ok]
;W[on];B[nm];W[om];B[ol];W[ri];B[df]C[this move is small, only about 2 points.  Saving two stones on
the lower side is bigger.  And W has some sente moves to make
first.];W[nk];B[nl];W[ph]
(;B[oh]C[Giving up two stones is not necessary since the B group can live
easily.];W[pg]
(;B[oi]C[This move is unneccessary since the black group can live if it
gets cut.  Better to take some points.];W[mi];B[ke];W[kf];B[jh]
;W[kh];B[fk];W[em];B[el];W[fm];B[fo];W[ep];B[dm];W[hf];B[gf]
;W[ah];B[aj];W[jr];B[kr];W[is];B[gk];W[gi];B[gh];W[gj]
(;B[fi]C[This is very small, only one point in reverse sente.  You don't
have to follow your opponent around the board.];W[pe];B[od]
;W[mb];B[mc];W[nb];B[nc];W[oa];B[na];W[pa];B[lb];W[ma];B[la]
;W[na];B[nf];W[me];B[mg]C[If you play here, you should continue and save the stone.  But
this move is small, only 2 points in gote.   You should take
your sente, then the big move at the bottom first.];W[lg];B[dh]
;W[cg];B[fn]C[This is pretty big now.  4 points in gote.];W[je]
;B[kd];W[hk];B[ai];W[ag]
(;B[lm]C[This is very small, probably only one point in gote or less.
Saving your stone above is much bigger.];W[lk];B[ll];W[ng]
(;B[ce]C[This is gote.  Play your sente endgame moves first.]
;W[be];B[de];W[pn];B[sj];W[si]
(;B[rj]LB[fp:A]C[Better to play the sente move at A first.]
;W[ks];B[ms];W[os];B[ln];W[kn];B[mn];W[ko]
(;B[jk]LB[fp:A]C[A good endgame principle when pushing like this is to make the
move with the biggest threat first.

Playing at A is better.];W[fp];B[nh];W[mg];B[ls];W[js];B[ik]
;W[fj];B[fl];W[tt];B[ne];W[dg];B[oj];W[ie];B[tt];W[tt];B[tt]
C[Black lost a lot in the upper right and did not
attack the white group very well.  But then the
invasion of the lower left side worked out very well, so the
game was close again.

But white played a much better endgame, picking up about 20 points.]
)
(;B[fp];W[fq];B[jk]))
(;B[fp];W[fq];B[ms];W[os];B[rj]))
(;B[fp];W[fq];B[pn];W[oo];B[ms];W[os];B[ce]))
(;B[fp];W[fq];B[pn];W[oo];B[ms];W[os];B[ng]))
(;B[pn];W[oo];B[dh];W[cg];B[fn]))
(;B[mi]C[At least you play here before connecting.];W[nh]))
(;B[pg];W[oh];B[rj]))
(;B[ri];W[si];B[sj])
(;B[ni]C[This move is also bigger]))
(;B[sp];W[pk];B[qk];W[rk]
(;B[ql];W[nj]
(;B[ok];W[oh];B[ph];W[pg])
(;B[ni]
(;W[ok];B[mj]
(;W[oh];B[nh]
(;W[oi];B[ph];W[oj];B[pg])
(;W[ph];B[pg]))
(;W[ph];B[oh]))
(;W[mj];B[ok];W[oj]
(;B[oi];W[nk];B[ol];W[nl];B[nm];W[mm];B[nn];W[no])
(;B[nk];W[oh];B[oi];W[nh]))))
(;B[ok];W[ql]
(;B[ol];W[oh]
(;B[pg];W[oj])
(;B[ph];W[pg];B[nh];W[oi];B[ni];W[oj];B[ng];W[nj];B[mj];W[mi]
))
(;B[pl];W[oh];B[ph];W[pg];B[nh];W[oi];B[qk];W[rl];B[ni])))
(;B[ro];W[rn];B[sn];W[rp];B[qo];W[qp];B[pn]))
(;B[mr];W[lo];B[kp];W[iq];B[ip];W[hs]))
(;B[he]C[I think you can play here.];W[id];B[ie];W[je];B[kd]
)
(;B[hd]C[At least play here.]))
(;B[qp]
(;W[pp];B[qo];W[qq];B[qn];W[rq];B[pn])
(;W[qo];B[pp];W[op];B[qq];W[pr];B[ro];W[rn];B[rp];W[qm];B[qr]
;W[nq];B[rr])))
(;W[ql])
(;W[qm]))
(;W[ck]C[If white plays here he can keep a big territory since black must
go back and connect.];B[dl];W[cl];B[dm];W[cn];B[fk];W[bd];B[cc]
;W[ql]C[White is ahead by more than 30 points]))
(;W[ej];B[dj];W[di];B[bk];W[bd];B[cc];W[bc];B[bb];W[bj];B[cn]
C[If black lives it is not too different from the game, but black
is in more danger here than in the game.]))
(;B[cj]C[You should look at this move as well, but it doesn't seem to
work out so well.]
(;W[dj]C[If white plays here, he can keep a big lower left corner.]
;B[di];W[ck];B[ch];W[bj];B[bh];W[cc]C[If white lives in the upper left, black takes a big loss.]
)
(;W[di]C[This move doesn't seem to work out so well  for white.]
;B[dj];W[ej];B[bi];W[bh];B[bj];W[cg];B[bd];W[be])))
(;B[gm];W[jm];B[in];W[lm];B[ml];W[mn];B[cn];W[bp];B[ce];W[df]
;B[ck]))
(;B[jm];W[km];B[gm];W[lk];B[ll];W[ml];B[lm];W[mm];B[kn];W[nk]
;B[cn]C[This is not such a bad result for black.];W[bp];B[ce]
;W[df];B[ck]))
(;B[fk]))
(;B[hk];W[ij];B[hj];W[hi];B[hh];W[gi];B[ih];W[gh];B[hf];W[gg]
;B[if];W[ik];B[il];W[hl];B[fj]))
(;B[ki];W[kj];B[ii];W[mj];B[nk];W[jl];B[jm];W[il];B[im];W[hl]
C[it still seems like W will get away easily.];B[fl];W[hm];B[dl]
C[This way the attack can help you get into the lower left.]
))
(;B[kg]C[Attacking from this side is better since it takes some territory
in the center.];W[li];B[ji];W[lk])
(;B[lg];W[mg];B[mj];W[li];B[lj];W[ki];B[jk]))
(;B[kf];W[mh];B[kh];W[mj]TR[ei][eg]C[Now black's two bad moves are helping make a nice center territory.]
)
(;B[mh];W[lg];B[jg];W[lh];B[ji];W[mi];B[nh];W[lj];B[ki];W[li]
;B[jk];W[ll]))
(;B[ne];W[me];B[md];W[nb];B[nc];W[oa];B[mb];W[oc];B[od]))
(;B[ne];W[me];B[md];W[ob];B[nc]))
(;B[qd];W[pc];B[rc];W[od];B[pf];W[rb];B[rd];W[ld]))
(;B[ne];W[me];B[md];W[ld];B[mc];W[kd]
(;B[nc])
(;B[jc]))
(;B[qe]C[This move doesn't seem to be the best.];W[pf];B[ne]
;W[me];B[md];W[ld];B[mc];W[kd];B[nc])
(;B[qc]C[B could just take the 3-3];W[ld];B[og]))
(;W[qc]C[usually W takes the corner now, and one of the outside stones
dies.]
(;B[qd];W[pc];B[rc];W[od];B[pf];W[ne];B[nf];W[mf];B[ng])
(;B[pc];W[qd];B[og];W[mf]C[This gives the same position as the game.]
)))
(;B[ne]LB[qf:20][pj:9]C[I prefer this attachment.  Usually the stone you attach to gets
stronger, and the other one will end up weak.  Since the stone
9 is weaker, I prefer to capture the stone 20.];W[me];B[oe]
;W[qc];B[qd];W[pc];B[rc];W[od];B[pf];W[rb];B[rd];W[ld])
(;B[pf];W[pg];B[of];W[qc]
(;B[pc]LB[pj:9]C[This variation leaves the stone 9 somewhat weak.]
;W[qd];B[qe];W[re];B[pe];W[qg];B[me])
(;B[qe];W[pc];B[qg])))
(;B[qe]C[Attack white with this move.];W[pf];B[nd];W[ph]
(;B[qi]C[This is the usual attack];W[mg];B[qm];W[no];B[ld])
(;B[mg]TR[eg]C[This might vbe better here since the marked stone is on the board.]
;W[oj];B[ok];W[oi];B[pl];W[mj];B[nk];W[mh];B[lg];W[ki];B[jh]
)))
(;B[qm];W[no]
(;B[dj];W[di];B[ej];W[bk];B[dm])
(;B[cn];W[co];B[dn];W[dl];B[fn];W[fl];B[hn])
(;B[bo];W[cp];B[cl]))
(;B[qp];W[pp];B[qo];W[qq];B[qm]))
(;B[mo])
(;B[ko]))
(;B[jp];W[hq];B[mp]C[now  it is easier to get to the center, so the
invasions in the lower left and right corners will be easier.]
))
(;W[dj]LB[eg:A]C[If W plays here, B can play at A later to expand.]
))
(;W[qf];B[nd];W[pj];B[dj]))
