(;FF[4]GM[1]SZ[19]ST[2]CA[utf-8]AP[SGFC:1.15]

PB[Tyas]
BR[11k]
PW[Meareal]
WR[10k]
KM[0.5]
DT[2008-05-24]
PC[The KGS Go Server at http://www.gokgs.com/]
RE[B+5.50]
TM[1800]
OT[5x30 byo-yomi]
RU[Japanese]

C[[Calvin\]: Hi.  I will be commenting on your game.  Remember that I am only about 4-5 kyu KGS, so much of what I say could be wrong.  You should verify and research things for yourself.   My general comments are at the end of the game.]
;B[pd];W[cp];B[pq];W[dc];B[de]LB[ep:A][eq:B]C[[Calvin\]: The opening so far is a common one.  Usually black approaches at A or B instead of D15, but this move is very big, too.]

(;W[cd]LB[fc:A][fd:B][di:C][ci:D]C[[Calvin\]: This is a typical beginner mistake.  This move is usually only played when white has stones already in place such as at A, B, C, or D.   Then, the intention would be to make black's group heavy for attack.  Here, it is a 1-one-1 fight, so this strategy will not work.

See variations for other ideas for white.];B[ce]
(;W[gc]C[[Calvin\]: This move is too low and doesn't put sufficient pressure on black.  If white wants simple territory, it would have been better to play 8 at 7.]
;B[di]LB[ic:A][fd:B]C[[Calvin\]: You see that black gets an ideal extension.   Also, black A (J17) is sente and black B (F17) can be useful forcing move.]

(;W[dg]SQ[gc]LB[ed:A][fc:B]C[I answered this move with a sequence which gave me a pretty fine result I think. White didn't get that much actual profit and black got a good wall. Was this a correct way to play it, or are there any beetr more conventional ways? aswell for black as for white.

[Calvin\]: White's move is an overplay.  First of all, white's extension at the top is thinner than the usual plays at A or B.  Secondly, this higher extension at D11 is harder to invade.]
;B[cg]C[[Calvin\]: Of course.];W[ch];B[dh];W[cf];B[bg];W[bf]
;B[df];W[be];B[eg]C[[Calvin\]: The result clearly favors black.  It white just wants more territory, white could have played the hane at B15 directly without this invasion which has strengthened black.]
;W[bh]C[[Calvin\]: This move is not a good idea for white.]

(;B[ci]C[[Calvin\]:  See variation.];W[ag]
(;B[dg]C[[Calvin\]: Black should tenuki.];W[ah]C[[Calvin\]: White should tenuki.]
;B[bi];W[bd];B[ai]C[[Calvin\]: This kind of move should be saved as a ko threat for the endgame.   First of all, in the opening white may not answer this because capturing those stones is gote and not so big.]

(;W[af]C[[Calvin\]: White may tenuki.];B[ep]SQ[eg]MA[bc][ac]
[ad][ae]C[[Calvin\]: The result is clearly good for black.  The marked points represent the increase in white's territory.  Since black played the high extenion, black was not expecting much territory on the side anyway.  Black's wall has a wasted move (E13) but is very strong and black took sente.

E4 is perfect.  Black develops on a whole-board scale and white is confined to the corner.  It is looking like a handicap game for black now.]
;W[gp]
(;B[en]C[[Calvin\]: This is the usual move, but maybe a special plan is in order due to black's thickness.   See variation.]
;W[cn]
(;B[dm]C[[Calvin\]: See variation.];W[dr];B[dq];W[cq];B[er]
;W[jd];B[lc];W[nc]LB[le:A]C[Again for the follow-up on this move. Is my answer ok, or did I have to approach this stone from another side in order to correspond with the stones already on the board? I thought this sequence gave me a fair result by making shure I kept the corner to myself, Although white had a chance of trying to get me into trouble a few moves later by playing R17 8 moves later.

[Calvin\]: At this point you have to decide what's important, because the top is white's sphere of influence.  Probably the worst thing for black would be to jump at A.]

(;B[nd]SQ[lc]C[[Calvin\]: I think this is a good move, as long as you treat the marked stone lightly.   See variation for a bad move :-)]
;W[od]SQ[nd]C[[Calvin\]: To play this wedge, white needs to check the ladder to capture the O16 stone.  This ladder is not working, so white can't play this way right now.]

(;B[oc]LB[oe:A]C[[Calvin\]: This is proper since white didn't check the ladder, but black may be able to choose the outside atari at A as a variation.]

(;W[md]C[[Calvin\]: This move is a mistake.]
(;B[mc]LB[oe:A]C[[Calvin\]: Black should take the ponnuki at P15 without hestitation.   See variation.]
;W[ne];B[nb]
(;W[qc]C[[Calvin\]: This move is questionable.  White can connect at O16 in sente.  See variation.]

(;B[qd];W[rd];B[re];W[sc];B[rb];W[pc];B[ob]
(;W[se]C[[Calvin\]: White missed a big chance.  See variation.]
;B[rf];W[qe];B[pe];W[qf];B[pf];W[qg];B[rc];W[qo]
(;B[pl]C[[Calvin\]: I don't like this pincer here in this situation.   Remember that black wants to play K4, maybe even immediately.   This move doesn't do so much.]
;W[rg];B[sd];W[ql]
(;B[rd]C[[Calvin\]: See variation.];W[qk];B[qi]SQ[pl][qk]C[[Calvin\]: I don't think this invasion is a great idea for black.  It looks as if black has just played the marked exchange, strengthening white and then decided to invade. 

(In fact, that's not even tewari, but the actual sequence of moves. :-)

Without that exchange, maybe the invasion would work out better.]

(;W[ri]C[[Calvin\]: I'm not sure white should defend this garbage stones right away.  See variation.]
;B[rj];W[pi];B[rh];W[ph];B[sg]
(;W[qh]C[[Calvin\]: This atari has no value.  Black will not play R12!   See variation.]
;B[si];W[qj];B[ri];W[jp]SQ[dm][en][ep][dq][er]C[[Calvin\]: It seems that white has caught up a bit.  Black has too much second line territory on the right side that's not adding up to much.  If you go back and compare to the position where black takes the ponnuki, you can see this is relatively much better for white.

K4 is a very big point, which negates the effect of black's marked wall.  (Compare to a black play there.)

Black had a very clear lead at move 29, but now has to worry about losing on territory.]

(;B[mp]SQ[gp][jp][pq]C[[Calvin\]: This move dosen't put pressure on white's marked stones sufficiently and R5 is already strong.  Also, the marked shape is thin, so it's a half-measure.]
;W[gr]
(;B[kq]C[[Calvin\]: See variation.];W[jq];B[kr];W[jr]
(;B[ko]C[[Calvin\]: See variation.];W[kp];B[lp];W[oo];B[pn]
C[[Calvin\]: Way too aggressive!];W[po]SQ[mp][pq]C[[Calvin\]: White's connection exposes black's thin connection at the bottom.  It is hard to kill the white stones for this reason.]
;B[rm];W[qm];B[qn];W[pm];B[on];W[nn];B[om]
(;W[no]LB[nm:A]C[[Calvin\]: White may be able to push at A and fight.  See variation.]
;B[nl]
(;W[pj]LB[ml:A]C[[Calvin\]: White A (N8) may be a tesuji.  See variation.]

(;B[lm]SQ[mp][pq][nn][no][oo][po][qo][pm][ql][pj][ph][pi][qh]
[qg][qe][qf][rg][qj][qk][qm]C[Starting from this move I started to lock white in, but I messed up a bit later on, aswell as by letting white out, as by forgetting to get my black group alive. would there have been a beter way to lock and kill white and to prevent it to escape?

[Calvin\]: It shows good thinking, but you have to remember that the marked connection is not so strong for black, so it might be on overplay.  Black's thinking should not be to kill white, but to have two targets (marked) to attack.  It is important for black not to get cut to pieces.  Defense first.   See variation.]
;W[oq]C[[Calvin\]: Yes, this is black's weakness.];B[or];W[nq]
C[[Calvin\]: I'm not sure white is easy to kill now.]
(;B[mr]C[[Calvin\]: This move doesn't connect black's stones at the bottom.  But I'm not sure O2 is good either.  See variation.]
;W[nr];B[pr];W[mq];B[lq];W[rq]
(;B[ro]C[[Calvin\]: Slow.  I would connect at O1.  See variation.]
;W[qp];B[np];W[op];B[qq];W[rp];B[ns];W[ln];B[kn];W[lo]
(;B[ls]C[[Calvin\]: see variation.];W[mm]
(;B[ml];W[km]C[This is where white started getting out.];B[ll]
;W[jn];B[kl];W[jm];B[io];W[jo];B[go];W[rr]C[This is where  I should've had played to keep my group alive.

[Calvin\]: Yes. ;-)];B[qs]C[[Calvin\]: This doesn't work.];W[rs]
C[[Calvin\]: White doesn't need to play here.   Black can't live even with another move.]

(;B[hp]TR[qe][qf][ph][pi][pj][qj][qk][ql][qm][pm][qh][qg][rg]
SQ[kl][ll][lm][ml][nl][om][on][qn][pl][rm][ro]C[[Calvin\]: Small.  Black has lost a group, but has to focus, because the situation on the board has changed a lot.   The marked black and white groups both are weak as they lack eyeshape.  Whoever secures the weak group in the center will have the advantage in upcoming fights.

See variation.];W[hq];B[fp];W[gq];B[ip];W[in];B[iq];W[ir];B[ho]
C[[Calvin\]: The past few moves are very small.];W[hl];B[ib]
SQ[ph][pi][pj][qj][qk][ql][qm][pm][qh][qg][qe][qf][rg]C[I suppose I played this one one space too far. It should have been K18 I suppose.

[Calvin\]: Yes, but forget that.  Count.  Black is more than 30 points behind on the board.   This sort of endgame move isn't going to cut it.  Black must look to kill something, and the only target is white's marked group.]

(;W[jb]C[[Calvin\]: See variation.];B[jc];W[kc]
(;B[kb];W[ic];B[kd];W[jc];B[ka];W[hb];B[ld];W[ng];B[nf];W[mf]
;B[of];W[mg];B[le];W[me];B[kg]
(;W[hf]C[[Calvin\]: White is not seeing black's plan.   See variation.]
;B[li]C[Here I started beseiging a second white group in order to try to save my damage from before.

[Calvin\]: Good idea.];W[ni];B[mj]C[[Calvin\]: White is dying now.]
;W[cm]LB[cr:A]C[A (C2) is a bigger endgame move.];B[cl];W[bl]
;B[ck];W[do];B[eo];W[cr]
(;B[nh]C[[Calvin\]: This move is dangerous.  Would white play there?   See variation.]
;W[mh];B[mi];W[nj];B[ok];W[kf];B[lf];W[kh];B[lh];W[lg];B[jg]
;W[ki];B[jf]C[Here I think L10 would've been better in order to prevent white's next move, but I still managed to get out.

[Calvin\]: L10 fine, too.];W[mk];B[lj];W[lk];B[kj];W[kk];B[jj]
;W[jk];B[nk]
(;W[ji]C[[Calvin\]: White misses a big chance.   See variation.]
;B[ij];W[ii];B[hj];W[nm];B[rl]
(;W[pk]C[[Calvin\]: This move doesn't help.  Save it for a ko threat.   See variation.]
;B[ol];W[jl];B[oj];W[oi];B[rn];W[je];B[ke];W[ig];B[ma];W[if]
;B[hh];W[hi];B[ih];W[gi];B[gj];W[gh];B[jh];W[hg];B[kf];W[fj]
;B[gk];W[fl];B[fk];W[ek];B[ej];W[fi];B[el];W[ja];B[la];W[gl]
;B[dk];W[ff];B[ed];W[ec];B[fd];W[gd];B[ge];W[fe];B[gf];W[fg]
;B[fh];W[eh];B[ei];W[gg];B[fc];W[fb];B[dd]C[[Calvin\]: Gote.]

(;W[cc]C[[Calvin\]: Not required.]
(;B[bo]C[To be able to actually use this move I think I needed a stone at D4 or D6.

[Calvin\]: No need to try to trick white here.  Black is still slightly ahead.]
;W[bn];B[bk];W[al];B[dn];W[dp];B[eq];W[hn];B[gn];W[gm];B[fm]
;W[ik];B[ak];W[ao];B[ap];W[co];B[an];W[bm];B[bp]
(;W[bq]C[[Calvin\]: Gote.  Black can't kill here.   If white takens sente, white might just barely win.   See variation.]
;B[ds];W[cs];B[es];W[aq];B[gs];W[hs];B[fs];W[ao];B[js]C[This wove was unnecessary I suppose.

[Calvin\]: Black is dead.];W[is];B[sp];W[sq];B[so];W[qr];B[rk]
;W[hk];B[ek]
(;W[tt];B[tt]TB[pj][qc][na][oa][pa][qa][ra][sa][lb][mb][pb]
[qb][sb][nc][pc][sc][md][nd][od][me][ne][oe][qe][se][mf][qf]
[sf][lg][mg][ng][og][pg][qg][rg][mh][oh][ph][qh][sh][ni][oi]
[pi][aj][bj][cj][dj][nj][qj][sj][pk][qk][sk][dl][ql][sl][em]
[pm][qm][sm][fn][sn][fo]TW[os][gb][qs][ss][aa][ba][ca][da][ea]
[fa][ga][ha][ia][ab][bb][cb][db][ps][eb][ib][ac][bc][hc][ad]
[hd][id][ae][ge][he][ie][gf][il][am][hm][im][an][kn][mn][bo]
[ko][mo][ap][bp][lp][mp][np][pp][kq][lq][pq][ar][qq][br][kr]
[lr][mr][or][pr][sr][as][bs][js][ks][ls][ms][ns]C[[Calvin\]: Congratulations on your win.

General comments:

Black had a great opening due to white's emphasis on small territorial points.  The position at move 29 is very favorable for black.  However, the handling of white's invasion at move 40 shows incorrect judgement.  Taking the ponnuki at 45 is mandatory and would be consistent with black's thick positions elsewhere on the board.   Black 45 in the game is probably one of the worst mistakes I saw.  Please go back to that move, view the black ponnuki variation, and try to appreciate how superior black's position is that way.

Black's invasion at 71 was overplay, I think.

The next big turnaround in the game came after black 93.   Please understand when you play a move that makes your opponent stronger, it may expose a weakness in a nearby group.  I think it was unrealistic for black to try to kill white in the bottom right.  Move 105 looks like it might be severe, but white has many sente forcing moves in the corner and black tried for too much.

Black should try to play more honte (honest, proper) moves, and overplay less.  When you have a thick position, you have to be patient.  Because you may be behind in territory, you should not expect to catch up until the endgame unless you get lucky and score a big kill.  (And you can't rely on the big kill.)

As for white, white needs to learn the big points in the opening.  There are some books on this, but studying the first 30-50 moves of many professional games is a fun and effective way to improve one's feeling for the opening.

White managed to turn the game around with a spectacular kill in the lower corner, but failed to defend his weak group on the right side.  When a huge change occurs like that, both players should reassess the board, look for weak groups, and count the score.  White could have had a very easy win after that kill with a simple defense, but black managed to score a counter-kill, make the game close, and eventually win.

Thank you for submitting this exciting game.  It was fun for me to review, and I hope you can get something out of my comments, weak as they are.]
)
(;W[fh]C[[Calvin\]: White can't win, but there is still this ko to fill for the purpose of finishing the game.]
))
(;W[so];B[rk]C[[Calvin\]: Black has to connect due to shortage of liberties.]
;W[sn]C[I am not certain of the sequence that follows, but...]
;B[sm];W[sp];B[ds];W[bq];B[cs];W[bs];B[es];W[fs];B[fr];W[gs]
;B[fh];W[mb];B[lb];W[eh];B[ar];W[aq];B[fh];W[na];B[oa];W[eh]
;B[br];W[as];B[fh];W[hk];B[ek];W[eh];B[br];W[ar];B[fh];W[fo]
;B[fn];W[eh];B[am];W[ao];B[fh];W[ef];B[eh]C[[Calvin\]: Even if we assume black wins this ko...]
;W[ee];B[fq]C[W can win by 0.5 points.]))
(;B[bk]C[[Calvin\]: Just here.]))
(;W[bk]
(;B[cc];W[cb];B[bc];W[ac];B[eb];W[db]C[[Calvin\]: Nothing.]
)
(;B[eb];W[db]C[[Calvin\]: Nothing.])))
(;W[hi]C[[Calvin\]: This move at least may take profit.]))
(;W[oh];B[oj]C[[Calvin\]: Black must play here or else white gets two eyes.]
;W[rl]C[But then white can cut black off.]
(;B[oi];W[nh];B[og];W[so];B[rn];W[jl];B[pg];W[nm];B[sl];W[sn]
;B[sm];W[sp];B[rk];W[pk];B[ol];W[sk]C[[Calvin\]: oops.])
(;B[jl];W[ik];B[il];W[hk]C[[Calvin\]: Trying to get out like this doesn't help much.]
)))
(;B[ki]C[[Calvin\]: Just connect solidly to be sure of white's death.]
))
(;W[mj];B[rk];W[kj]C[[Calvin\]: White's last chance.]))
(;B[ic];W[kb];B[kd];W[ld];B[ke];W[mb];B[nd]C[[Calvin\]: Black can try this ko to create complications.]
))
(;W[mi]LB[rl:A]C[[Calvin\]: If white defends this group, black can't win.   I know it looks slow, but if you take time to count, you can play moves like this with confidence.   If black tries to connect at A, white can make extra profit in the center (or play a big yose like C2) and there is no catching up for black.]
))
(;B[mh]C[[Calvin\]: Take a look at this.  I'm not sure it's the best point, but it's the important area.]
;W[ng];B[og];W[oh];B[nh]C[[Calvin\]: Hard for white to connect.]
))
(;B[ll];W[rr]C[[Calvin\]: Who dies first?  I think black.]))
(;B[rr]C[[Calvin\]: Better live first.]))
(;B[ns];W[rn];B[ro];W[rp];B[sn];W[pp];B[qq]C[[Calvin\]: White is not alive.]
))
(;B[nr]
(;W[mr];B[mq];W[lr];B[lq];W[ks];B[ms]C[[Calvin\]: White can't get out.]
)
(;W[mq]C[[Calvin\]: If white plays here...];B[mr];W[lq];B[lr]
;W[lo];B[mo];W[mn];B[ln];W[np];B[lo];W[qq];B[qr];W[pp];B[pr]
;W[rq];B[rr];W[ro];B[rn];W[lj]SQ[lm][ko][lo][lp][mp][ln][nl]
[om][pl][on][pn][rm][rn][qn]C[[Calvin\]: Both may live, but white can get defend his wall and start attacking black's marked group.]
))
(;B[qr];W[mq];B[lq]C[[Calvin\]: Maybe this move is interesting, but I'm not sure.]
))
(;B[nq]C[[Calvin\]: If black simply fixes his shape, white cannot make two eyes in the corner.]

(;W[mm];B[rl]C[[Calvin\]: Black should connect.  This way white has two weak groups and black is strong everywhere.]
)
(;W[ro]C[[Calvin\]: If white tries to disconnect black...];B[rn]
;W[rl];B[ll]C[[Calvin\]: White should die now.])))
(;W[ml]
(;B[pj]C[Certainly black can't cut immediately.];W[oj];B[pk]
;W[ol];B[ok];W[nk];B[ol];W[rn];B[nm];W[mm]C[[Calvin\]: :-)]
)
(;B[mm];W[nm]C[[Calvin\]: The exchange helps white get out.]
)))
(;W[nm];B[no]C[Black can't cut.];W[rn];B[ol];W[ro];B[pj];W[oj]
;B[pk];W[nl]C[[Calvin\]: White wins the capturing race.]))
(;B[oo]C[[Calvin\]: Better shape.  Black doesn't die in the corner this way. :-)]
))
(;B[lq]C[[Calvin\]: Aim at the weakness, don't help white.]
))
(;B[lq];W[nq];B[lo];W[jn];B[op]C[[Calvin\]: A different plan.]
)
(;B[po]C[[Calvin\]: Maybe black should touch white's strong stone.]
;W[pn];B[qp];W[oo];B[pp];W[on];B[qn];W[qm];B[ro]C[[Calvin\]: A big corner at least.]
))
(;W[pk]C[[Calvin\]: This fixes white's shape.  Don't just play every atari you see.  Save them for ko threats or when you need them.]
))
(;W[op];B[oq];W[np];B[mq]C[[Calvin\]: Build some power first.]
)
(;W[nq];B[op];W[np];B[oo];W[jq]SQ[dm][en][ep][dq][er]C[[Calvin\]: Another idea, to reduce the influence of black's marked stones.]
))
(;B[sf]C[[Calvin\]: Better to resolve the ko like this.]))
(;B[sb]C[[Calvin\]: It's tempting to just settle the corner with profit now.  White cannot do much at the bottom.]
)
(;B[op]C[[Calvin\]: Just here.];W[pm];B[jp]C[[Calvin\]: White would still have to start and win the ko on the top to make anything on the right, but this attack is the correct direction for black.]
))
(;W[qe];B[pe];W[qf];B[nd];W[oe]SQ[gp]C[[Calvin\]: G4 is a ladder breaker.]
))
(;B[nd]C[[Calvin\]: This ko is still pretty big.]))
(;W[pc]C[[Calvin\]: If white feels behind and wants complications, this ko is the way.  But it's an all-or-nothing ko, and black may win.]
;B[nd];W[do]C[[Calvin\]: Even something like this black might ignore.]
;B[oe];W[eo]
(;B[ds])
(;B[cr];W[fp];B[br];W[dp];B[eq];W[fn];B[pk]C[[Calvin\]: This is probably not the best way for black, but the game is still hard for white.]
))
(;W[nd]C[[Calvin\]: I would connect as white.];B[pb]
(;W[qn]C[[Calvin\]: White can connect in sente.])
(;W[jp]C[[Calvin\]: Maybe proper to defend here, but I think white still needs to play actively.  The key is to take sente at the top.]
)))
(;B[oe]SQ[lc][ce][de][df][bg][cg][dg][eg][ai][bi][ci][di][dh]
[dm][en][ep][dq][er]C[[Calvin\]: The ponnuki is better.  Black's marked stone still has aji.

This kind of ponnuki is almost worth the full 30 points mentioned in the proverb.  It is consisent with the use of black's power elsewhere on the board.  It may be difficult to appreciate how this is related to the marked stones on the left, but it is.  The best advice I can give is to just try it next time.]
;W[mc]
(;B[pk]C[[Calvin\]: Maybe here, too.  White's top is not so big.]
)
(;B[po]C[[Calvin\]: Black can take a big point.])))
(;W[oe];B[pc];W[md]C[[Calvin\]: Usually white has to check this ladder before invading.  But the ladder is not working for white, so...]
;B[ne]C[[Calvin\]: Black can pull out.];W[mc]SQ[lc]C[[Calvin\]: White can hurt black's marked stone...]
;B[of]C[[Calvin\]: But this result is still good for black.]
))
(;B[oe];W[oc];B[md];W[pc];B[qd];W[qc];B[rc];W[rb];B[rd];W[mb]
;B[lb];W[qn]LB[of:A]C[[Calvin\]: White can live in the corner in sente and then try to disrupt black's framework with a move like R6.  White will aim to attach at A.  This is not necessary bad for black, though.   It's an influence/fighting position and you can learn a lot by trying to play this way.]
))
(;B[le]C[[Calvin\]: Worst move for black.];W[ne];B[pf];W[ng]
LB[lg:A][ph:B]C[[Calvin\]: The problem now is that A and B are miai both are decent results for white.]
))
(;B[cq];W[bq];B[dq];W[bo];B[jp]C[[Calvin\]: Getting in this counter-pincer is big.]
))
(;B[co];W[bo];B[do];W[bn];B[cq];W[bq];B[dp];W[bp];B[jp]C[[Calvin\]: White is very busy this way, and black is starting to develop on a large scale.]
))
(;W[eq];B[af];W[qo]C[[Calvin\]: White's moves elsewhere are bigger than capturing these stones.]
))
(;B[ep];W[dg];B[cg]C[[Calvin\]: Black has no problems in the upper left.]
))
(;B[ah]C[[Calvin\]: White doesn't have a good follow-up here.]
))
(;W[be];B[bf];W[bd]C[[Calvin\]: White can strength his weak shape and take territory at the top.  This is a better idea than the invasion.]
))
(;W[fd]C[[Calvin\]: Usually here, to put more pressure on the black stones.]
)
(;W[ed]C[[Calvin\]: Sometimes this move is okay.]))
(;W[ce]C[[Calvin\]: This is a common move to take territory.]

(;B[cf];W[cd]
(;B[df];W[fc];B[cj]C[[Calvin\]: This way, black also gets the ideal extension, but white's shape at the top is much stronger.]
)
(;B[ep]C[[Calvin\]: Black may also tenuki....];W[df];B[dn]C[[Calvin\]: Another plan.]
))
(;B[dd]C[[Calvin\]: There is no need for white to fear this variation.]
;W[cd];B[ec];W[cc]C[[Calvin\]: Simply connect to avoid the complications of the avalanche joseki.]
))
(;W[qo]C[[Calvin\]: White can also tenuki.  See continuation for one pro game example.]
;B[cc];W[cb];B[cd];W[eb];B[ci];W[eq]C[Feng Yun 7p (W) vs. Zhang Wendong (B) 8p (1997)]
)
(;W[dh]C[[Calvin\]: White can consider a pincer.  This at least doesn't help black.]
))
