(;FF[4]GM[1]SZ[19]ST[2]CA[UTF-8]AP[SGFC:1.15]

GN[2008, PANDA-NET,]
PB[abennun]
BR[3k]
PW[scholar]
WR[3k]
KM[0.5]
DT[2008-06-14]
PC[PANDA-NET]
RE[W+2.50]
RU[Japanese]

C[Hello!

I really enjoyed reviewing this game, it is was very demanding as far as reading sequences.  I enjoyed your style.  I respect sane players because I cannot play sane myself.  Here are the important points.  Also I included lots of variations so you could see my reading.

Main points from this game:

Things you must improve upon:

1.  You need to do more tsumego problems so your reading is sharper and you are more aware of weaknesses in your shape as well as your opponent's.  

2.  Direction of Play : There are several direction mistakes in this game.  You need to identify when a move is urgent/big, and also identify when you can just play elsewhere.  

3.  Sabaki: You play a bit heavy when lighter moves are called for.

4.  Removing Aji: You have a bad habit of peeping and it removes useful aji for you.]
;B[pd];W[dp];B[pp];W[dc];B[de];W[dg];B[fe]
(;W[gc]LB[fc:A]C[Two space jump here is unusual.  I don't like this move for W, it is too loose.  The normal move is at A.]
;B[he];W[id];B[cc];W[cb]
(;B[dd]C[A: I saw that the joseki is C16, but I think this one is playable because of the 2 spaces between D17 and G17. Do you agree?

Answer: No I do not agree with this move.  The reason is you are needlessly strengthening white.  He will play at E17 and you are left with the possibility of losing the corner.  If you had played C16 (which is the stronger move because your stones are connected and have more liberties) you leave with with weakness.]
;W[ec]LB[bd:B][cd:A]C[These two points could be problems for you later.]

(;B[dj]C[It is hard to pick a move here.]
(;W[cm];B[eh];W[bj]C[A: How do I respond to this? After the following sequence I felt Black is over concentrated, but I do not know how to answer better.

First off b10 is on the second line and we're on move 18.  This move from white is small and greedy.   The game variation I think is Ok, but I think you could do better if you simply just...]

(;B[dh];W[bh];B[cg];W[bg];B[cf]C[You are overconcentrated like this but it is not a total disaster because W didn't gain much.]
;W[qf];B[nc]C[Good move.];W[rd]
(;B[kc]C[A: Is this the righ direction? If I play R17, White will probably answer with M17?

No this is not the right direction.  Taking the corner is better.]
;W[qc]
(;B[ib]C[I'd hate to play this myself but it is rather solid and it is not necesarily a bad move but could be slow.  It looks like you are attacking whtie but you really are not because white has b17.  Even if you play B17 yourself he plays b18 and he gains eyespace.]
;W[bc]C[Painful for you.];B[cd]
(;W[gd]C[This is slack for white.];B[ge]C[I don't like this exchange for white.  Needlessly strengthens black.]
;W[ic]
(;B[jb]
(;W[qn]
(;B[qo]C[This move is bad.  It makes the right valuable for white by forcing him to add a fourth line move here.  I understand you wanted territory but what white gets is more than he should.]
;W[pn]
(;B[np]C[A high move here isn't good because you need a closing move.]
;W[pj]
(;B[iq]C[Not the right place.]
(;W[lq]LB[eq:A]C[Ok so he invades although I don't know why because he has the territorial advantage if he simply plays A.  

At times like these you cannot worry about your opponent sliding under you.  Here's some variations.  Pay attention to how a flexible strategy works.]

(;B[nq]C[This seems slow to me.];W[gq]
(;B[jp]LB[cq:A]TR[cm][gq]C[This is very very slack, it doesn't halt white from coming out at all and you won't have time to invade if j3 is split.

Please note: The two marked stones do not remove the 3,3 invasion, work it out for yourself.]
;W[lo];B[nn];W[lm];B[nl];W[om]
(;B[mn];W[ln];B[ml]LB[ml:B][nm:C][mn:A]C[A helped white and B is a redundant move when you consider C could've done the job just as well without strengthening white.]
;W[jn]
(;B[io]
(;W[go]C[greedy.];B[in];W[jm]
(;B[kp]C[Needless peep.  It removes aji.  For example.];W[lp]
;B[gn];W[fo]
(;B[im]C[This move is way waaaaaay too heavy.];W[kk];B[ik];W[ki]
;B[jf]
(;W[kg];B[jj];W[kj];B[jh];W[kh];B[jg]
(;W[em]C[Way too timid.]
(;B[nj]C[You can do better than this.];W[ng];B[oi];W[qh];B[pi]
;W[qi];B[og];W[nf];B[pg];W[le]
(;B[dl]C[You'll have to be patient to attack the middle group, I couldn't find an absolute means of killing it.]
;W[cl];B[cq]
(;W[cp];B[dr];W[br];B[fr]C[Nice move.];W[bq];B[gr];W[fl];B[fj]
;W[mc];B[md];W[nb]
(;B[mb];W[oc];B[nd];W[ob];B[ld];W[ke];B[je];W[jd]
(;B[lc];W[ok]
(;B[mi];W[ro];B[rp];W[rn];B[kf];W[lf];B[mh];W[lg];B[qe];W[re]
;B[qg];W[rg];B[pf];W[kd];B[rf];W[mr];B[nr];W[ns];B[os];W[ms]
;B[pr];W[rb];B[rh];W[qj];B[ri];W[rj];B[kr];W[hl];B[gk];W[il]
;B[fb];W[gb];B[fc];W[fd];B[db];W[eb];B[bb];W[da];B[bd];W[ba]
;B[ab];W[cr];B[dq];W[eq];B[er];W[fq];B[hq];W[kq];B[jr];W[ji]
;B[ii];W[hk];B[hj];W[jk];B[ij];W[ie];B[if];W[dm];B[ck];W[bk]
;B[fn];W[en];B[ci];W[bi];B[bf];W[sp];B[sq];W[so];B[rq];W[po]
;B[qp];W[si];B[sg];W[ed];B[ee];W[ho];B[hn];W[hp];B[jq];W[oo]
;B[op];W[ol];B[pc];W[pb];B[lr];W[mq];B[fk];W[el];B[dk];W[ek]
;B[ej];W[ls];B[ks];W[ds];B[es];W[cs];B[ll];W[af];B[ae];W[ag]
;B[kl];W[jl];B[se];W[sd];B[sf];W[ha];B[ia];W[hb];B[hd];W[jc]
;B[kb];W[ma];B[la];W[na];B[nh];W[ph];B[oh];W[hc];B[oe];W[nk]
;B[mk];W[lj];B[jo];W[mj];B[no];W[oj];B[ni];W[gl];B[ch];W[sj]
;B[sh];W[ca];B[ac];W[tt];B[qd];W[tt];B[tt];W[tt])
(;B[mh]C[Better.]))
(;B[kd]C[Cut to maintain the weakness, you aren't in danger of dying]
;W[lb];B[ma];W[lc];B[la]))
(;B[nd];W[ob]))
(;W[dq]C[White has to block like this and try to attack you....]
;B[bp];W[cr];B[br];W[cp];B[bq];W[dr];B[bn];W[co]C[I think you die.]
))
(;B[qg]C[In order to attack the middle group you must use white's weakness to make yourself stronger.]
;W[rg];B[rf]
(;W[re]C[White loses too much with this move.];B[rh];W[sf];B[qj]
;W[rj];B[qk];W[rk];B[ri];W[si];B[ph];W[sh];B[rl]C[and you can just kill Q6 in a big way.]
)
(;W[rh]C[White has to play this.];B[qe];W[sf];B[re];W[se];B[mh]
C[When you have a bit more strength attack white here.  White is mostly alive due to the fact he has an eye at L8 and its gote for you to take it away, but if you can strengthen q16 or take n2 you might be able to kill.

The following variations is all the aji that you have available.  When you play try to keep sequences in reserve and wait for your chance to either threaten them or outright use them.]
;W[kf]C[If he defends simply];B[je];W[mg]
(;B[lh]C[m14 is an eye as it stands but if];W[tt];B[lg];W[lf]
;B[ne]C[this is the aji.])
(;B[kl]
(;W[ll];B[jl]SQ[lk]C[Possible cutting point.])
(;W[jl];B[ll];W[jk];B[il];W[ji];B[ii];W[ij];B[hj]C[You have nothing to fear like this.]
)))))
(;B[pi]TR[kg][kh][ki][kj][kk]C[You can try this.  You have a weak group next to a territorial framework (namely the right side for white).  So you can attach and start a fight here, forcing white to chooes between connecting his group on dame points at the cost of potential, or taking territory and hoping he can live with his weak group.]

(;W[oj];B[qj]
(;W[qi];B[qh];W[ri];B[rh];W[ph];B[oi];W[rj];B[qk];W[pg];B[ni]
;W[rg];B[rk];W[sh];B[nj]C[In exchange for his group you captured r 6 with lots of surrounding points.]
)
(;W[oi];B[ph];W[of];B[qk];W[ol];B[qg]C[You can live easily like this.]
))
(;W[qi];B[qh]
(;W[ph];B[oi];W[qg];B[qj];W[rh]
(;B[pk])
(;B[qk]))
(;W[oi];B[ph];W[oh];B[qj];W[ri];B[rh];W[rj];B[qk];W[rk];B[pl]
;W[pk];B[ql];W[rl];B[og];W[ol];B[nh];W[oj];B[pf];W[qe];B[mj]
))))
(;W[fl]))
(;W[ij]C[This makes more sense to reduce any territory you would make here.]
))
(;B[hk]C[At least play this.]))
(;B[lr]
(;W[kr];B[kq]
(;W[kp];B[jr]C[You have this ko in case of an emergency.])
(;W[mr];B[lp]C[like this you will just connect.]))
(;W[kq];B[kr];W[jr];B[jq];W[mr]
(;B[ir]C[like this he will strengthen you])
(;B[mq];W[ls];B[lp];W[ks];B[kp]C[This way you could give up territory and cut off the central group.]
))))
(;W[hm]C[White needs to play from his weak group.]))
(;B[gp];W[fp];B[go]C[You're going to want to try and lean on the left, which is no fun but since you played k4 you have no choice.]
))
(;B[nm]C[Dont be fancy, just connect white is weaker if you don't peep him.]
))
(;B[kp]C[At least try this move.]))
(;B[fq]C[This strategy is to leave white with the question "what are you going to do with m3 now that you cannot counterattack j3?"]

(;W[eq];B[fp]C[Let's say you make this exchange];W[or]C[First off this move is nothing to fear.]
;B[oq]
(;W[pr];B[nr];W[qq];B[ro]
(;W[rr];B[kp]LB[ql:B][co:C][cq:A]C[A B and C are all weak points for white.]
)
(;W[lo];B[rr]))
(;W[nr];B[pr];W[lo];B[nn]LB[ql:A][cq:B]C[He has a weak group, and you have two weaknesses to play with, one at A and B.  Also note you are not going to get counterattacked.]
))
(;W[or];B[oq];W[pr];B[nr];W[qq];B[ro]
(;W[rr]
(;B[cq]C[You could take the corner or])
(;B[kp]LB[ql:B][cq:A]C[kill off this stone and now A and B are open to you.]
))
(;W[dq];B[rr];W[rq];B[os]))))
(;W[eq]C[This move is much better.]))
(;B[jq]C[The move is normally here.]))
(;B[nq]C[I like this move better because it leaves you with sente.]

(;W[pj];B[cq]C[When white defends you get to take the corner.]
)
(;W[eq];B[pk]C[If not then you attack.])))
(;B[nq]C[You can play this to spoil the bottom for white.];W[rp]

(;B[qq]
(;W[qk];B[cq]C[This looks like an easier to handle strategy.]
)
(;W[pl]LB[qj:A]C[Keep in mind if he plays this it is very easy to invade at A.]
))
(;B[ql]C[This is a possible strategy but would be hard with your style I think.]

(;W[qq];B[qo];W[ro];B[pn];W[pm];B[qm];W[rn];B[om];W[eq]TR[fe]
[ge][he][dh][eh][dj][ql][om][qm][pn]C[You could try to form a center using these two areas of influence]
;B[qe];W[re];B[pf];W[qg];B[pg];W[qh];B[ph]C[Thing is you'd have to be prepared for white to reduce you and how to use that to destroy his territory.]
)
(;W[on];B[qq];W[qj];B[ol]C[This would be a fight.]))))
(;W[nq]C[The bottom is bigger.  R14 is low and d 4 is big, so the right side is not as developable as the bottom.]
))
(;B[cq]C[Ignore, the reason is.];W[jb];B[kb]C[If he plays k18 you can easily deal with your group]
;W[hb];B[pc]C[You have two eyes.  J18 is not integral to your eye shape so it is not urgent to protect it.  Since its not urgent you also must consider it small.  Since its not urgent and small and t here are big moves on the board you tenuki.]
))
(;W[hb]C[This feels better for defense.];B[ic];W[nq]C[I'd tenuki as white here.]
;B[fb];W[fc];B[gb];W[hc];B[ha];W[eb];B[ga];W[bd];B[be];W[ba]
C[Very simple to live.]))
(;B[nq]C[I'd rather play this side.];W[jb]C[And defend my group if he attacks me]
;B[pc]C[You have this move for settling the top.]))
(;B[qc]
(;W[lc]C[If he plays this you're fine.]
(;B[rc]C[If that's too complicated just defend and be done with it.]
)
(;B[ld]C[You play a probe here first.]
(;W[kd]C[If he answers you though, now you can use m16 to help you fight back.]
;B[qh]C[Counterattack him.];W[of];B[oh];W[mf];B[ne];W[nf];B[le]
C[Long hard fight for white.])
(;W[qi]C[If he defendshimself]
(;B[kc]C[This woudl be small])
(;B[nq]C[You can just plain tenuki];W[rc]
(;B[mc]C[and defend yourself easily.])
(;B[kc]C[This too]))))
(;B[qh]C[I think if you do this directly..];W[of];B[oh];W[mf]
;B[ne];W[nf];B[ld]C[From here on are a lot of variations that I've read out.  The fighting is rather extreme, so you could avoid it if you play m16 first.  However do look at the variations, see if you agree/disagree and try to come up with some on your own.]
;W[md]C[This fight is extremely complicated.]
(;B[mc]C[If you cut here...];W[kc];B[me];W[le];B[nd];W[ke];B[rc]
;W[pk]C[You're safe but white counterattacks you now.])
(;B[me];W[le];B[kd];W[mc]
(;B[kc]
(;W[nd]C[White cant defend m14 directly.];B[oe]
(;W[od];B[pe];W[oc];B[lf];W[ke];B[pf]
(;W[pg];B[qg];W[og];B[qe];W[rf];B[re];W[se]
(;B[sf])
(;B[rg];W[sf];B[sg];W[sd];B[rc]))
(;W[qg];B[pg];W[rh];B[ri];W[qi];B[ph];W[rg];B[nb];W[ob];B[je]
;W[kf];B[jf];W[kg];B[jd]C[To me this looks bad for white because he has too many groups to worry about.]
)
(;W[je]C[White could trade.]))
(;W[kf];B[oc]C[Same thing here.]))
(;W[kf]C[If white blocks he dies.];B[nd];W[kb];B[jb];W[lb];B[ka]
;W[nb];B[la];W[mb];B[ob]))
(;B[nd];W[kc];B[lf];W[ke];B[lg];W[rc]C[bad for black.]))))
(;W[qi]C[White should ply like this]
(;B[nq];W[lc]C[If he plays this you just defend because you don't have the ladder.]
;B[rc])
(;B[fq]C[This will break the ladder.  If you're wondering what ladder...]
;W[lc];B[jp];W[rc]C[This becomes meaningless now.];B[rb];W[pb]
;B[ob];W[qb];B[ra];W[pc];B[qd];W[od];B[pe];W[oc];B[oe]C[Be sure to play this first.]

(;W[nd];B[re]C[You may think  "Oh no p18 died" but white died too and now he has to defend r 11 and you got two moves on the bottom.]
)
(;W[qe];B[nd];W[nb];B[qa]C[now white is dead.])))))
(;B[eg]C[Block here.  the reason is...]
(;W[bh];B[pj]C[If he tries to sneak under you dont care because now you have center control and a moyo on the right.  You control more of the board than he does.]
)
(;W[qj]LB[dg:A][eg:B]C[White will have to play here and now the exchange of A to B looks rather pointless for white because it hasn't stopped your stones from being effective in influencing the center.  

In case you are thinking "well white can treat it light like a forcing move", forcing moves aren't supposed to strengthen your opponent.  Forcing moves also serve to function as potential ladderbreaks or a useful stone in fights.  A won't be doing those jobs at all.]
)
(;W[dh];B[di]C[This is silly for W.])))
(;W[cl]C[As white I'd play this.];B[ek];W[nq]LB[qj:A]C[and then maybe the bottom side or at A]
))
(;B[tt]
(;W[bc]C[First off white could take the whole corner like this.]
)
(;AW[cf]C[If there is a stone at A...];W[cd];B[bc];W[bd];B[bb]
;W[db]C[Then it's just pointless.])))
(;B[cd]LB[bb:A][eb:B]C[This is why the two space jump is too loose.

This move leaves no weakness and it leaves you with options at A or B.  If you want to make use of the two space jump you have to create strength near it.]
;W[tt];B[eb]
(;W[db];B[ec];W[ed];B[dd];W[ea];B[fd];W[fb])
(;W[ec];B[db];W[bb];B[fb];W[fc];B[gb];W[hb];B[bc];W[ab];B[ac]
;W[ba];B[da])))
(;W[fc];B[cc];W[cb];B[cd];W[eb];B[cg];W[ch];B[dh];W[bg];B[cf]
;W[ci];B[eh];W[dk]C[This is possible.]))
