(;FF[4]GM[1]SZ[19]CA[Windows-1252]AP[SGFC:1.15]

GN[leesw-byakuya]
PB[ijichi]
BR[2k]
PW[leesw]
WR[1k]
KM[0.5]
DT[2008-06-27]
RE[W+1.5]
RU[Japanese]
US[www.orozone.com]

C[Since my game was fairly simple, I don't really have many
questions regarding how something could have gone
better. Instead, if you don't mind, I'd like to know if and
how my fuseki plays didn't work well together and when
and where I should have played more aggressively.
Thanks a lot for reviewing this!];B[pd];W[dp];B[pp];W[dd];B[fq]
;W[qn];B[np];W[rp];B[qq];W[qk];B[cn];W[dn];B[dm];W[en];B[co]
;W[cp];B[em];W[eq]C[Do you know of a better way to play out the "joseki" from
here?

> Bob: White 18 on E3 is not a joseki.

F3, F7 or F6 are moves that pro play here. Each of these moves prevent black to play on F6 what is key point here seems to me.

So, as your oponent missed to play in that way you could continue with more agressive Black 19 on F4.]

(;B[iq];W[fp];B[gq];W[ch];B[cj];W[eh];B[fn];W[fo];B[gn];W[do]

(;B[fj]C[> Bob: Was this to slow?
I'd say it is.
Maybe you could play 29 on K16 or F17?

What is idea of 29 on F10?
Securing some points?
It is not necessary to play this now as you are not in some danger here. 

White 24 on F12 is good move, but  you don't need to answer on it with E10 or F10.

Yes, White can cut on B what means you can sacrifice two stones, or resist making small group at left side live.]

(;W[nc];B[qg];W[pb];B[qc];W[qb]C[> Bob: White made mistake.
This is good, but yose move.]
(;B[lc]LB[jc:A]C[I felt A would have been better.

> Bob: Here you felt that something has to be done as White made mistake with slow (good for yose) move 34 on R18.

Too direct 35 on M17 let your opponent  to correct  his mistake. 

As you suggest  35 on A (K17) is much better.

Than Black has two options : M17 or H17, following with Black F17 or M17 respectively.]
;W[jc];B[rb];W[pc];B[qd];W[ra];B[sc];W[ne]
(;B[md]C[> Bob: No, bad move, making White strong and escape. Better simple jump M15, besides all is now much more difficult for you.
But don't forget you still can invade upper left corner.
So, again too direct from your side.];W[nd];B[jd]LB[md:A][le:B]
C[Is expanding like this better than simply running with B
instead of A? I thought this was better, but riskier.

> Bob: I am probabbly not much stronger player than you, but this is something what looks me very bad. 
Letting White to connect underneath is wrong here. Also, playing contact move 45 on L17 make White strong on upper left area. So, why don't you left all here for future.]
;W[id];B[ic];W[kc];B[kd];W[lb];B[mb];W[mc];B[ld]C[I feel the reason I lost was due to the few mistakes I made
herethat easily cost me 20 points and sente. Do you think
otherwise?

> Bob:  Agree with you.
Here game was over for Black.

But at the end ??];W[kb];B[ie];W[hd];B[lg];W[he];B[if];W[hf]
;B[ig];W[hg];B[db]LB[cc:A]C[Perhaps A would be better. Less territory (I think), but
it seems much safer (orrather, I wouldn't kill myself here :) .

> Bob: Yes, I can understand what you mean with this. When you don't know some joseki it is difficult to play it from your head instantly. Then you sometimes improvise. And it is good strategy. Don't forget that go has milions of variations. 

But, let's return to this move 63 on D18. 
I am not sure this is bad. In fact, it seems to me you made best move here. Living here is impossible or some pro is able to find solution.

Until that, as you wrote, it was better for you to play with 3-3 invasion. Off course, I think you know this, so no comment on it.]
;W[cc];B[gc];W[hc];B[cb];W[bb];B[dc];W[cd];B[ba];W[ca];B[da]
;W[bc];B[fb];W[hb];B[fd]C[Was there a way to live here?

> Bob: I don't know it. Maybe?

3-3 invasion was much better then this result.

You can find that 2-4 aproach is possible when side is free or yours, but I am not sure this is the case.
Nevertheless, look at > http://senseis.xmp.net/?4463Enclosure24Approach  

or try to find some more ...];W[ed];B[ec];W[gb];B[pl];W[ql]
;B[pn];W[pm];B[om];W[qm];B[ol];W[po];B[oo];W[on];B[nn];W[ih]
;B[jh];W[ji];B[ii];W[hh];B[kh];W[hi];B[ij];W[hj];B[ik];W[hk]
;B[il];W[hl];B[pj];W[pk];B[ok];W[qj];B[pi];W[hm];B[jn];W[im]
;B[jm];W[ng];B[nh];W[mg];B[mh];W[rh];B[rg];W[qh];B[ph]C[I felt respoding to my opponent's moves were important
here, but at the same time, I wondered if I was just being
too passive. Was there any way to tenuki during the last
20 or so moves and achieve a better result?

> Bob: Maybe? 
Not so important for the game.
Also for your skill. I see you are good player during these moves, so don't try to find some big moves here for now.
Not passive, good enough.];W[io];B[jo];W[hp];B[hq];W[rq];B[rr]
;W[sr];B[qr];W[pf];B[bh];W[bg];B[bi];W[cg];B[bp];W[bq];B[bo]
;W[er];B[aq];W[br];B[fh];W[ei];B[fi];W[ej];B[fk];W[fg];B[ek]
;W[dj];B[dk];W[ci];B[bj];W[pg];B[qf];W[pe];B[qe];W[qp];B[pq]
;W[hs];B[gs];W[gr];B[is];W[fs];B[hr];W[gs];B[eg];W[ff];B[ri]
;W[qi];B[sh];W[rj];B[si];W[sj];B[sg];W[lf];B[kf];W[le];B[ke]
;W[oh];B[oi];W[og];B[me];W[mf];B[od];W[oe];B[oc];W[ob];B[ag]
;W[af];B[ah];W[bf];B[ar];W[ap];B[ao];W[bs];B[in];W[hn];B[ip]
;W[ho];B[pn];W[qo];B[rs];W[fl];B[el]C[> Bob: "small" you say.
Must be yoking. When you try to improve your skill it is important not to make such kind of mistakes in any circumstances. Sometimes it is only one move that you need to perform and game is on your side.
Like this one, too.
You noticed that, as result was on your opponent side. 
Only 1.5 point, "small" was about 5.
It is good to know that weak players sometimes loose only in middle stage or at the end of the game by this kind of "small" mistakes.]
;W[fm];B[ss];W[sq];B[fr];W[es];B[gp];W[go];B[gh];W[gg];B[gl]
;W[gm];B[gk];W[sb];B[sa];W[ni];B[oj];W[sb];B[nb];W[na];B[sa]
;W[mi];B[lh];W[sb];B[nf];W[ma];B[sa];W[jl];B[jj];W[sb];B[rc]
;W[qa];B[sa];W[kj];B[ki];W[sb];B[dh];W[di];B[sa];W[jk];B[ji]
;W[sb];B[tt];W[sa]MA[el]C[Overall, my game was fairly simple. I was wondering if
there were any key points I missed that cost me the
game?
Also, did I make any big mistakes in yose? I know I made
a couple "small" mistakes (i.e. "X"), but those were
primarily due to time. I'm wondering about bigger endgame
points.
Thanks so much for commenting this!

> Bob: Yose is good.

Avoid "small" next time.

Good luck.])
(;B[le]))
(;B[jc]C[> Bob: Better for Black here.]
(;W[lc];B[fc])
(;W[hc];B[lc]C[Invading on C17 still possible.])))
(;W[cm]))
(;B[jd];W[cm];B[cl];W[bm];B[bl];W[bn];B[fc];W[dl];B[dk];W[el]
;B[fm];W[ek];B[ej];W[fk];B[fj];W[gk];B[gj];W[hn];B[ho];W[go]
;B[hm];W[hp];B[in];W[hq]))
(;B[fp]C[> Bob: Besides  it can looks like simple answer and very familiar to you, sometimes it is best to follow such kind of strategy. I think it is not necessary to present some possible continuations from here. Obviously black can secure lower side while attacking lower left corner. Other possibility is to restrain White with move on  key point F6. 
All is result of extension on E4 what puts White in trouble as cut on D5 can make situation very complicated for him.]
))
