(;FF[4]GM[1]SZ[19]ST[2]CA[UTF-8]AP[SGFC:1.15]

PB[wakka]
PW[amph]
WR[2d]
KM[6.5]
DT[2008-06-11]
PC[The KGS Go Server at http://www.gokgs.com/]
RE[W+132.50]
TM[1200]
OT[3x30 byo-yomi]
RU[Japanese]

C[wakka [-\]: hello gg


erker: Hello wakka!
I will do the review. I hope you enjoy it.

This game is about thickness ( = a strong, powerful formation that is not easy to attack).
For a weaker player, the value of thickness is difficult to understand -- especially how to use own thickness. But as a first step it's enough to not give thickness to the opponent for free, because he will know how to use it. 

Please read my summary at the end (move 224) before continuing with the discussion of the game.]
;B[qe]C[amph [2d\]: hi];W[pp];B[ep];W[dc];B[nq];W[qn];B[jp]
;W[cp]LB[dn:A][co:B][cq:C]TR[ep]C[wakka [-\]: what are some ways i should approach this?


erker: The white stone (c4) is one usual approach move to the marked black stone. A, B and C are the common responses.]

(;B[co];W[bo];B[do];W[cn]LB[bn:B][bp:A]C[erker: At this point Black can decide weather to get outward influence or the corner.
The important thing to remember is to cut at the side you don't want: at A to get the outside, at B to get the corner. The reason is that White will capture the cutting stone, as not doing so will result in an inferior position]

(;B[cq]LB[bn:A]C[erker: As shown in the variation, if you want to keep the corner, the correct way is to play at A.]
;W[bq];B[cr];W[dn];B[en];W[dp];B[eo];W[dq];B[er];W[eq];B[fq]
;W[dr];B[ds];W[bp];B[fr];W[dl]
(;B[de]LB[pc:A]C[erker: Maybe it is easier to just enclose the upper right corner with A and build some territory for your own.
See the variations for move 31 and my comment on move 43.];W[dg]
LB[cc:A][fe:B]C[wakka [-\]: some variations on how to handle this mabey.


erker: Black can attach at A or jump to B.

The attachment at A results in a similar constellation as the one in the game (Black lives on the side, White get outside influence), but with much better shape.
But usually, Black don't want to help White in building outward influence, so jumping to B prevents this and leads to a fight.]

(;B[bd];W[ee];B[df];W[ef];B[cg];W[ch];B[dd];W[ed];B[cc];W[ec]
;B[bg];W[bh];B[pc]LB[cc:E][kc:A][de:B][fe:D][dg:C]TR[qe]C[erker: Good move. Next you can aim to play an extension to A; that would also reduce the influence of the thick white wall on the left.

But it's White's turn, so White will definitely play an extension as far as possible from his thickness on the left.

That is the reason why I don't like your approach move at B: after the white pincer (C) the jump to D is ineffective because of the strong white position in the lower left. And after E (or the sequence in the game) White get a thick position. Now Black needs two moves in a row: enclose the corner and counter the thickness with an extension.

Compare this position with the variation for move 29.];W[be]
;B[bf];W[lc]
(;B[ic]LB[kd:A]TR[lc][ef]C[wakka [-\]: is there a better way to reduce white than this?  if so please show variations


erker: First of all: your move is _not_ a reduction, it's an invasion. This distinction is not just a play with words, it has tactical and strategic consequences.
An invading stone fights from inside the (potential) territory, it will be attacked, it has to make life or run into the open. In contrast, a reducing stone presses from the outside, the opponent has to defend.

Strategically, a reduction destroys less potential territory than a invasion, but the opponent can gain thickness by attacking the invading forces. 
This is the reason why weak players fear invasions, they only see their territory vanish. But strong players enjoy being invaded because of the thickness they get in exchange for territory.

So invasions have tactical problems (to not get killed) and strategic problems (to not help your opponent).

Why is your stone an invasion? As a rule of thumb, connect the stones at the border of the potential territory (the two marked white stones in this case). If you're beyond this line, your opponent will most likely press from the outside, so your stone end as an invasion. 

As White is strong in this area of the board and you're not, it's better to play a reduction (at A, stopping short before the border line). Regardless of White's answer, you can't get a bad result.]
;W[jd]C[wakka [-\]: as it might be obvios i'm not 1-3d, i'm sorry if this game bores you at all.]
;B[id];W[je]C[amph [2d\]: np
wakka [-\]: ^_^];B[kb]C[amph [2d\]: do ur best];W[lb]C[wakka [-\]: i'm trying ^^]
;B[kc];W[ld];B[fb];W[cb];B[bb];W[eb];B[fc];W[ie];B[gd];W[he]
;B[ge];W[gf];B[pi];W[qk];B[qj];W[hb];B[gb];W[ib];B[jc];W[ka]
;B[ja];W[la];B[hc];W[ia];B[jb]C[wakka [-\]: ._.];W[oe];B[og]
LB[pf:A]TR[oe]SQ[pc][qe]C[erker: The usual response to the marked white stone attacking the marked black stones is at A. Your move tries to hard; to defend the side and the center.]
;W[pf]LB[qf:A]TR[og]C[wakka [-\]: mabey the most efficient way to block this please


erker: Blocking at A is the obvious move, but it helps White to encircle the center (see variation). The marked black stone is clearly out of place]

(;B[qg];W[qf];B[rf];W[qd];B[re];W[pd];B[qc];W[rd];B[rc];W[sd]
;B[sb];W[oc];B[ob];W[rh]C[wakka [-\]: wow, that's cool xD];B[ri]
;W[qh];B[rg];W[ph];B[pg];W[oh];B[ng];W[nc];B[pb];W[nh];B[lg]
;W[mf];B[mg];W[oj];B[sh]LB[li:A]C[erker: Bad. You're connection three worthless stones to a group that is in big trouble. Better get out into the open (at A?), quick!]
;W[rk]LB[sh:A]C[erker: The exchange of Black A for White s9 clearly helps White to strengthen it's right site and does not get you any nearer to an eye.]
;B[pj];W[pk];B[oi];W[ni];B[si];W[nj]C[erker: Your last moves only helped White. It's right side is now strong and your running group faces thickness from both sides.]
;B[le]SQ[kf][kg][lh][li]C[erker: As long as this is a forcing move, it's OK.
But don't try to live locally! Run into the open instead.

Why is running better than living? Assume the black group manages to live and White gets stones on the marked fields. The game would be over.]
;W[kd];B[of];W[pe];B[me];W[ne];B[nf];W[kh];B[jg];W[kg];B[kf]
;W[jf];B[lh];W[li];B[ki];W[jh];B[ji];W[ih];B[mi];W[lj];B[mj]
;W[mk];B[mh];W[kk];B[ij];W[il];B[pr];W[em];B[gn];W[gm];B[fm]
;W[fl];B[fn];W[hn];B[hm];W[gl];B[ho];W[in];B[io];W[lq]LB[lo:B]
[no:A][mp:C]C[wakka [-\]: is there a good way to handle this?


erker: Jumping to A, forcing White to play B only helps White, as White wants to play there anyway (connecting the white stone with it's friends).
Therefore, I prefer C -- it pushes White in the direction there Black is strong.]
;B[no];W[lo];B[lp];W[mp];B[kp];W[mq];B[mo];W[np];B[oq];W[op]
;B[qq];W[ln];B[ro];W[rn];B[qo];W[pn];B[po];W[oo];B[qp];W[jr]
;B[kr];W[kq];B[ir];W[jq];B[iq];W[ba];B[ab];W[ah];B[ag];W[eg]
;B[js];W[lr];B[ks];W[bs];B[cs];W[es];B[fs];W[br];B[es];W[jn]
;B[ls];W[nn];B[mr];W[mn];B[nr];W[nb];B[ra];W[fa];B[ha];W[so]
;B[sp];W[sn];B[pq];W[fe];B[jo];W[ko];B[oa];W[na];B[aa];W[ca]
;B[ga];W[ea];B[tt];W[ad];B[bc];W[ae];B[ce];W[tt]LB[la:E][lb:E]
[dc:C][ec:C][ic:D][lc:E][pc:F][ed:C][jd:E][ld:E][de:B][ee:C]
[he:E][ie:E][je:E][qe:F][ef:C][gf:E][lg:H][mg:H][ng:H][og:H]
[pg:H][qg:H][rg:H][nh:G][ni:G][pi:F][lj:I][nj:G][oj:G][qj:F]
[kk:I][mk:I][pk:G][qk:G][rk:G][dl:A][il:I][cn:A][dn:A][bo:A]
[ho:J][io:J][bp:A][jp:J][bq:A][lq:K][nq:J][pr:J]C[erker:

Summary: White won this game, because the use of thickness.

White got some thickness in the lower left corner (A), used this thickness to attack your stone in the upper left corner (B). This resulted in thickness (C), which White used to attack your invasion (D) to create more thickness (E). This thickness allowed White to harm your formation on the right (F), to get more thickness (G), and  to attack your running group (H). Again, this resulted in thickness (I). Backed up by this strength (G, I), White was able to successfully invade your bottom formation (J) with K.

Some remarks about thickness:

1. White correctly used thickness to attack, not to gain territory. The points White gained on the left, the center, and the lower right center are just side effects of the attacks.

2. Thickness results in thickness. From A to C to E to G.

3. The goal of thickness is to attack, not to kill. White is perfectly happy that Black managed to live in the upper left corner (B), the top (D) and the upper right corner (F). The death of your running group (H) was just an accident. Even without killing H, White would have won by a large margin.

Ways to improve:

1. If faced with the decision to live small and got shut in or to run away into the center, running into the center is usually better. (Don't help your opponent to gain thickness.)

2. An invasion usually results in thickness for your opponent. If this thickness will hurt you more than the invasion hurts your opponent, don't invade -- just lightly reduce from the outside.

3. Don't help your opponent. (Don't play a move just because your opponent must answer.)]
;B[tt]TW[da][ma][db][mb][mc][md][nd][od][ke][le][me][qe][re]
[se][ff][hf][if][kf][lf][nf][of][rf][sf][fg][gg][hg][ig][jg]
[lg][mg][ng][og][pg][qg][rg][sg][dh][eh][fh][gh][hh][lh][mh]
[sh][ai][bi][ci][di][ei][fi][gi][hi][ii][ji][ki][mi][oi][pi]
[qi][ri][si][aj][bj][cj][dj][ej][fj][gj][hj][ij][jj][kj][mj]
[pj][qj][rj][sj][ak][bk][ck][dk][ek][fk][gk][hk][ik][jk][lk]
[nk][ok][sk][al][bl][cl][el][hl][jl][kl][ll][ml][nl][ol][pl]
[ql][rl][sl][am][bm][cm][dm][hm][im][jm][km][lm][mm][nm][om]
[pm][qm][rm][sm][an][bn][kn][on][ao][mo][no][ap][aq][ar][as]
TB[ia][pa][qa][sa][hb][ib][qb][rb][gc][fo][go][fp][gp][hp][ip]
[rp][gq][hq][rq][sq][gr][hr][or][qr][rr][sr][gs][hs][is][ms]
[ns][os][ps][qs][rs][ss]C[amph [2d\]: tu
wakka [-\]: thx
wakka [-\]: thankyou])
(;B[qf];W[pg];B[qg];W[ph];B[qh];W[oi];B[oj];W[ni]))
(;B[kd];W[ld];B[ke];W[jb];B[le]))
(;B[fe];W[fc];B[cc];W[cb];B[cd];W[bb]LB[dj:A]TR[dg]C[erker: Locally, this is a fair result: White gets the corner and a solid position on the top, Black gets an attack on the marked white stone with a pincer at A.
But with the strong white position in the lower left side, this seams not to be a good idea. That is the reason why the marked white stone is so effective: it's backed up by thickness.]
)
(;B[cc];W[dd];B[cd];W[ee];B[ce];W[fd];B[bg];W[ef]C[erker: This is much better than the position you got in the game.]
))
(;B[pc];W[de];B[jc]C[erker: I think this is OK for Black. You get a frame work on the top and White is still open on the left.]
))
(;B[bn];W[bm];B[bp];W[an];B[cq]LB[ck:B][dm:A]C[erker: At this point White can play elsewhere, but then Black can exchange Black A for White B.]
;W[dn];B[en];W[em];B[fn])
(;B[bp];W[bq];B[bn];W[ap];B[cm]TR[cn]C[erker: As Black captures the marked white stone in a ladder, Black can not play along this line if the ladder is good for White.]
;W[er];B[dn]TR[jp][nq]SQ[er]C[erker: Locally, this result is fair.
But your strength is facing the left side and so the value of your investment of the two marked black stones is reduced by the marked white stone.]
))
(;B[dn]C[erker: This move is oriented toward the center: White gets the corner, Black gets outside influence.]
;W[eq];B[fq];W[dq];B[fp];W[bn]C[erker: White can omit this move and play elsewhere.]
)
(;B[cq]C[erker: This is a territory oriented move.];W[bq];B[dq]
LB[dm:D][dn:C][bo:A][iq:B]TR[jp]C[erker: Without the marked black stone, this variation continues with White A, Black B, White C. But with the backup of the marked black stone, Black would press with D after White A.]
;W[cn];B[br];W[ck]LB[pc:A]C[erker: Now Black can play elsewhere, for example at A. Therefore, I think this result would be OK for you.]
))
