(;FF[4]GM[1]SZ[19]ST[0]CA[UTF-8]AP[SGFC:1.15]VW[]

PB[HsHyun]
BR[22k]
HA[5]
PW[teachme]
WR[17k]
KM[0.5]
DT[2008-06-25]
PC[The KGS Go Server at http://www.gokgs.com/]
RE[?]
TM[600]
OT[5x20 byo-yomi]
RU[Japanese]
GC[Just wondering how I could impove overall especially when it comes to Life and Death situations.]


AB[dd][pd][jj][dp][pp]C[Just wondering how I could impove overall especially when it comes to Life and Death situations.

teachme [17k\]: hi
HsHyun [22k\]: hey

-----
I> Hello!
The review was requested for Black, HsHyun 22k.
I will put my comments after "I>".

Overall: the reviewed game has only 65 moves, it's barely got to the midgame. Black tried to fight from the very beginning while White played calmly for territory.
The winners in go are usually those who balance between claiming territory and making strong groups. Engaging in fighting so early in the game serves neither of these purposes and finally leads to a disaster, especially against a stronger player.
What I recommend to you is just to play more games to understand what to secure a corner and a side is, and how that affects the final score.

Yanis Batura (Inego on KGS)];W[of]
(;B[ng]C[I> If you want to improve your skills at go, try to play in a more traditional way: secure corners first then sides. The first move by White allowed you to secure UR corner in a handful of ways, see variations.
This and the following moves by Black indicate a wish to surround the very first White stone and White group. But the game of go isn't about surrounding only. It is about balance.]
;W[qf];B[pg];W[og];B[ne]C[teachme [17k\]: where are you from
HsHyun [22k\]: california

I> ... leaving Q13 to be killed.];W[ph];B[qg]C[teachme [17k\]: i fromgermany

I> You are trying to save a hopeless stone. Again, at this stage of the game, you should pay more attention to strategy, i. e. defining your (future) sphere of influence.]
;W[qh];B[pf];W[pe];B[rg];W[rf]
(;B[sf]C[I> A wasted opportunity. See variations.];W[rh];B[sg]
;W[se];B[qe];W[sh];B[oe];W[pf]
(;B[oh]C[I> This is also a very reckless attempt to threaten the invincible White group. Most obviously, this Black stone is cut at O12. Locally, a better move was R16.]
;W[pj];B[oi];W[qd]
(;B[rd]C[I> Q17 would be a good shape move.];W[re];B[qc]TR[rd]
[pd]C[I> Threatening R16 gives absolutely nothing, Notice how weak are your stones Q16, R17 and pathetic S16 compared with the solid White formation.]
;W[od]C[I> White didn't even pay attention to your atari, and preferred an intrusion to the upper side of the board.]
;B[qe]C[I> Again, pointless (worth 1 point, to be precise). Nothing threatened, nothing fortified, nothing expanded.]
;W[pm]C[I> White siwtched for territory here from the UR corner.]
;B[ol]C[I> You are playing from the top. This gives you influence but no territory. To exploit influence, you must be a skilled player. If not, then playing for territory is much more secure.]
;W[cf]
(;B[dg]C[D14 is the book move (joseki).];W[df]
(;B[ff]C[I> ...leaving the weak D13 stone. Now White has a lot of opportunities to secure the left side. See variations]
;W[eg];B[dh];W[cn]
(;B[dm]C[I> Better was another move, see variation];W[cl];B[dk]
;W[cj];B[di];W[ch];B[ef];W[cg];B[de];W[ci];B[ck];W[bk];B[dl]
;W[cm];B[do];W[co]C[I> D10 is very important now, since three Black stones D11-13 are threatened.]

(;B[cp];W[dj];B[eh];W[ej];B[fg];W[fj]C[I> A horrible intrusion!]
;B[gi]
(;W[gj]C[I> A very cautious move, F8 is better];B[hj];W[gl]
C[I> The game ends here. I wouldn't say it's lost for Black. However, if we take a look at the board we'll see that White formations are much stronger than weak, scattered Black ones. Notice that both White "armies" have a solid ground at the left and right edges of the board. White still can easily invade the bottom, as well as UL and the top.

*Notice*
You asked about Life and Death. As for that, nothing tricky has appeared in this game. Simply playing more games will make you understand the basic Life and Death.]
)
(;W[fl]))
(;B[dj];W[bq]))
(;B[cl]C[This move both threatens C6 and allows connection with two Black stones D12, 13.]
;W[bp];B[dj];W[bh]))
(;B[bc]C[A very defensive move that secures the corner but leaves the left side for White.]
;W[ci])
(;B[eg];W[bc];B[ef];W[bi]))
(;B[df];W[dg];B[ef];W[ce];B[cd];W[cj];B[jc]C[Now Black's moyo is the top, and White's in the left.]
))
(;B[pc];W[qn]))
(;B[qd]))
(;B[qe]C[Atari Q15. If White ignores, Black captures with P15 and saves its group.]

(;W[rh];B[oe];W[sg];B[pe])
(;W[oe];B[re];W[qd];B[sf];W[rd];B[qc];W[pc];B[od];W[oc];B[nd]
;W[qb];B[rc]))
(;B[oe];W[rh];B[qe]))
(;B[nc])
(;B[qf];W[nc];B[pb]C[This is rather defensive, but it is ok to turtle like this for a double digit-kyu player.]
))
