(;FF[4]GM[1]SZ[19]ST[2]CA[UTF-8]AP[SGFC:1.15]

PB[trainGO]
BR[9k]
PW[Tungsten]
WR[4k]
KM[0.5]
DT[2008-07-06]
PC[The KGS Go Server at http://www.gokgs.com/]
RE[B+25.50]
TM[1800]
OT[5x30 byo-yomi]
RU[Japanese]

C[um, this is my first time using the review system. I was white in this game. I read the FAQ for which games to send and i don't think its close (i lost by a lot), but the other reasons seem to fit and i want to know how to improve on this game. Thankyou for reviewing!

> Hi ! I marked strength with squares, weakness with triangles. You'll find a summary at the end of the game.

-- Thomas];B[dd];W[pd];B[dp];W[pp];B[nq];W[qn];B[pr]LB[cn:B]
[qq:A]
(;W[qq];B[kq];W[fc];B[id]LB[cc:A][cf:B]C[> This is weird: Black has no extension on the left, and White is not building a huge moyo at top either. Fantasy pincer.]

(;W[cc];B[dc];W[cd];B[de];W[db];B[eb];W[cb];B[ce]LB[fb:A][ec:B]
C[i think this black move was a little strange

> Yes, as if Black changed his mind. Still it is quite playable I believe.]

(;W[fb]C[>Why not just cut ? Black can enclose you anyway.]
;B[gd]LB[hb:A][cn:B]
(;W[hb]LB[qi:A][dk:B]C[> This is submissive. The corner is alive, so White wants to take sente.]

(;B[qi]C[> Black missed a good chance.];W[qf];B[ql]LB[dm:C]
[np:B][qr:A]
(;W[qr]LB[dk:B][or:A]C[> Ok to settle the White group. See variations if White wants sente.]

(;B[or]C[> Slow move by Black.];W[cn];B[ck]LB[en:A][fq:B]
(;W[en]C[i think i played the wrong move here

> It is ok but the follow-up is wrong.];B[fp];W[ek];B[di]LB[cq:B]
[hq:A]
(;W[hq]LB[go:B][ip:A]SQ[kq]C[> "Joseki" move, but White is actually playing into a pincer.]

(;B[ip]LB[hp:A][eq:B]
(;W[hp];B[ho];W[go];B[gp];W[io];B[hn]LB[jp:B][iq:A]
(;W[iq]C[> Heavy.];B[jp];W[jq];B[kp];W[fr];B[er]LB[fq:A][gr:B]

(;W[fq]C[> Crude move, bad shape.];B[eq];W[kr];B[lr];W[ks]LB[gr:A]
[fs:B]
(;B[gr];W[gq];B[fs];W[gs];B[hs];W[hr];B[is];W[gs]C[i think i was already losing by quite a bit here

> Yes, Black gets a thick game.];B[es];W[js];B[gr];W[eo];B[ep]
;W[gs];B[fo];W[ir];B[fn]LB[cl:B][bp:A]
(;W[bp];B[bq];W[cp];B[cq];W[em];B[nc]LB[pb:B][oc:A]
(;W[oc]C[> This helps Black a lot.];B[nd]LB[nb:B][of:C][qk:A]

(;W[qk]C[i think this was bad

> Yes, it mostly helps Black. See variation.];B[rk];W[qj]C[> Bad shape !]
;B[rj];W[pl];B[qm];W[pm];B[rn];W[ro];B[rm];W[qo];B[pi]LB[oj:B]
[pk:A]
(;W[pk]C[> Slack shape.];B[of]C[> Nice for Black.];W[nb];B[mb]
;W[ob];B[lc];W[fd]C[i don't think this move did much

> Right. Black is too safe everywhere to fear this cut.];B[ge]
;W[fe];B[ff]LB[og:A][ji:B]
(;W[og]C[overplay... but i didn't know how to stop black from making such a large moyo]
;B[pf];W[qe];B[pg];W[np]C[> This only helps Black.];B[mp];W[ml]
C[> Slow move.];B[mj]LB[ei:B][gl:A]
(;W[gl];B[gi];W[ei];B[eh];W[dj];B[cj];W[dh];B[ci];W[fh];B[eg]
;W[fi];B[ii];W[fg];B[gf];W[ef];B[dg];W[df];B[cg];W[ee];B[cf]
;W[kj];B[ki];W[li];B[lj];W[ji];B[kh];W[jj];B[jh];W[hh];B[ih]
;W[hg];B[hk];W[kl];B[jm];W[jl];B[il];W[gj];B[hi];W[bl];B[bk]
;W[gk];B[fm]LB[el:A][fl:B]
(;W[el];B[fl];W[fk];B[do]LB[dn:A][co:B]C[actually...]
(;W[dn];B[bm];W[cm];B[bn]LB[cl:A][dl:B]
(;W[cl];B[co];W[am];B[bo];W[dk];B[if];W[ig];B[jg];W[jc];B[ic]
;W[ib];B[jd];W[kc];B[kd];W[nj];B[ni]LB[mi:A][oj:B]
(;W[mi]LB[mh:B][oj:A]
(;B[oj];W[nk];B[mh];W[qg];B[rh];W[oe];B[ne];W[nh]C[this was... just a stupid waste of a ko threat]
;B[lh];W[mo];B[no];W[op];B[mn];W[lo];B[ln];W[nn];B[nm];W[on]
;B[ko];W[mm];B[lm];W[ll];B[ok];W[ol];B[mk];W[nl];B[lp]LB[im:A]
[km:B]
(;W[im];B[hm];W[km];B[jn];W[ik];B[hl];W[ls];B[mr];W[rg];B[qh]
;W[be];B[bf];W[ae];B[af];W[bd];B[ec];W[ea];B[kb];W[jb];B[gc]
;W[gb];B[qs];W[rs];B[ps];W[rr];B[pe]LB[qc:B][od:A]
(;W[od];B[qd];W[rd];B[qc];W[rc];B[qb];W[rb];B[na];W[pa];B[sg]
;W[sf];B[sh];W[re];B[ma];W[qa];B[an];W[al];B[ja];W[ia];B[ka]
;W[hc];B[hd];W[hf];B[he];W[jf];B[ie];W[ak];B[aj];W[ai];B[bj]
;W[bh];B[ch];W[ag];B[bi];W[ed]C[i think black is simply alive here, my moves here were strange i guess

> Of course Black is alive already.];B[ij];W[jk];B[lk];W[gm]
;B[gn];W[ms];B[ns];W[sn];B[sm];W[so];B[pj];W[oo];B[mo];W[nf]
;B[ph];W[pq]C[that's me running out of time... should p19];B[ah]
C[is this really neccessary?

> No, White couldn't play there...];W[oa];B[bg]C[and this?

> Ditto.];W[kn]C[like i said before this is just to move somewhere, maybe i should have passed]
;B[hj];W[tt];B[tt]TW[aa][ba][ca][da][fa][ga][ha][ra][sa][ab]
[bb][pb][qb][sb][ac][bc][pc][qc][sc][ad][qd][sd][se][rf][ej]
[fj][dl][dm][nm][om][pn][po][qp][rp][sp][rq][sq][gr][jr][sr]
[hs][is][ss]TB[la][lb][mc][ld][md][je][ke][le][me][jf][kf][lf]
[mf][nf][ag][kg][lg][mg][ng][og][bh][dh][nh][oh][ai][li][mi]
[oi][ri][si][sj][sk][rl][sl][im][in][ao][go][io][jo][lo][ap]
[bp][cp][aq][dq][lq][mq][ar][br][cr][dr][nr][as][bs][cs][ds]
[os]C[> Summary.

* Strategy

White lost control early in the game due to failing to take sente (H18), then playing into a pincer (H3). This gave Black a thick game.

Then White lost chances to complicate the game by strengthening Black without need (P17, R9, P13).

As a result White ends up with five groups to Black two.

* Tactics

For urgent defense, use contact play and sacrifice some stones. White lost a lot in the corner (B4 C4) because of previous heavy play.

When confronted with a cut, consider both directions before you chose to atari (J3 vs. K4).]
)
(;W[qc];B[od]C[is it better for me just to have done this?

> Seems so, Black got many sente yose due to the cut.]))
(;W[km];B[jn]C[does the same thing minus one eaten stone?

> Yes, this is better. Compare with move 205.]))
(;B[mh]C[i was thinking black would do this

> Too bad :)];W[oi];B[nh];W[oj];B[oh];W[mk];B[lh]))
(;W[oj];B[oi];W[mk];B[lk];W[ll];B[mi]C[better?

> Seems so]))
(;W[dl]LB[if:B][co:A]C[d8 is probably better than what i did]

(;B[co];W[if])
(;B[if];W[co])))
(;W[co]LB[bm:B][dn:A]
(;B[dn];W[dm]C[i think i should have done this?

> Black has a better move.])
(;B[bm]C[> Ouch !])))
(;W[fl]C[i didn't want to play here because of d8, but it turns out d8 doesn't do much, and this is much better than what i did do, i think]
;B[dl];W[el];B[dm];W[dn];B[if]C[now i don't lose any stones

> Ok]))
(;W[ei]C[> This is more active.]))
(;W[ji]SQ[ei][fi][gi][hi][ii][ki][li][mi][ni][oi]C[> Sample reduction move. Avoid crossing the sector line lest you'll be attacked severely.]
))
(;W[oj]C[> If you're going to answer, play here.]))
(;W[nb];B[mb];W[ob];B[lc]LB[of:A][ph:B]
(;W[of]C[maybe this is better?

> See my variation.])
(;W[ph];B[pi];W[nh]C[maybe something like this would be better?

> Black is happy to play Q11 to strengthen his group, now he can tenuki to attack White...]
;B[fj]))
(;W[of]TR[nd][qi]C[> Probably here directly is better. White gets two targets. And R17 cannot live (locally) after that.]
))
(;W[pb]TR[cn]C[> Locally, fine like this. But the C6 group is still very weak...]
))
(;W[cl]C[> Contact for defense.];B[bl];W[bk];B[bj];W[cj];B[ak]
;W[dk]))
(;B[fs]C[> White dies.]))
(;W[gr]LB[eq:A][jr:B]C[> This hiki gives better eyeshape, and is still sente against E2.]

(;B[eq];W[kr];B[lr];W[ks])
(;B[jr];W[eq])))
(;W[jp]C[> Maybe White could try a more dynamic plan.];B[iq]
;W[jq];B[ir];W[jr]LB[in:A][hr:B]
(;B[in];W[jo];B[hr];W[mp]C[> Sample continuation.];B[op]C[> But it's not easy to kill this.]
;W[oo];B[np];W[no];B[pq];W[qp];B[lr];W[cl];B[bl];W[bk];B[bj]
;W[cj];B[ak];W[dk];B[bk];W[bm];B[dj];W[bp]C[> Better than the game for White.]
)
(;B[hr];W[mp])))
(;W[eq]C[> Usual move to settle quickly.]))
(;B[go]TR[ek][hq]SQ[di][kq]C[> Steady move for Black, White is split into two weak groups.]
))
(;W[cq]C[>White could treat the 3 stones lightly and invade immediately. Life is much easier here than at H3.]
))
(;W[fq];B[fp];W[gp];B[fo];W[cq]LB[cp:B][eq:A]
(;B[eq];W[cp];B[gq]C[maybe this would have been better for me?]
)
(;B[cp]C[> Be ready, Black can block here too !];W[dq];B[eq]
;W[er];B[ep];W[gr];B[go];W[hp];B[ej])))
(;B[dk]))
(;W[np]C[> If you want a sente, you can hit here first. This prevents the sequence from the tenuki variation (ladder break).]
;B[mq]C[> Black submitted, White tenuki.];W[dm];B[qr];W[rr]
;B[rp];W[ro];B[rq];W[sr];B[qp];W[pq];B[po];W[op];B[qo];W[or]
;B[oq];W[qs]C[> White settled nicely.])
(;W[dm]C[> Tenuki (reminder of some useful hoshi theory).];B[qr]
;W[rr];B[rp]LB[ro:A][rq:B]C[> Black attacks.]
(;W[ro]C[> Black has the ladder, so White can't resist here.]
;B[rq];W[sr]C[> This is the tesuji when White has the ladder.]
;B[qp];W[pq]LB[po:B][qo:A]
(;B[qo]C[> Bad move !];W[po];B[rn];W[sp])
(;B[po]LB[op:B][or:A]
(;W[or];B[oq];W[op]C[> Ladder.])
(;W[op];B[oo];W[np];B[oq]TR[qo][mp]C[> Miai.])))
(;W[rq];B[qo];W[po];B[rn]C[> Black stole the base !])))
(;B[dk]SQ[id]C[> This makes Black's initial J16 pincer look very good.]
;W[jc]C[> Black is building on a grand scale. Can White really continue like this ?]
;B[ke]))
(;W[cn]C[> Tenuki.];B[ec];W[ea];B[fd];W[be];B[bf];W[bd]))
(;W[ec]C[> Profit and eyeshape.];B[fb];W[gb];B[gc];W[fa];B[gd]
C[> If Black encloses like this, you still have sente.]))
(;W[cf]C[> Black should want the left side, so I'd counter here.]
))
(;W[cn]C[> A more dynamic play: White often takes sente here and keeps options open in the lower right.]
))
