(;FF[4]GM[1]SZ[19]ST[2]CA[UTF-8]AP[SGFC:1.15]

PB[teddy99]
BR[5k]
PW[miki8mizu]
WR[4k]
KM[0.5]
DT[2008-07-16]
PC[IGS-PandaNet]
RE[W+Resign]
TM[420]
RU[Japanese]

C[hi review,

I played black and I think i made mistake during opening
--
Hi Teddy.  I have marked my comments with CL.

Your opening was quite good, but the transition between opening and midgame was not so good.  

There were several intances where you held on to heavy stones and others where you took big points rather than urgent points (defending a group).

Overall, the ko in the lower right was the most expensive mistake.  After it you were behind and the rest of the game was hard.  You were a little lucky with white's mistake in the upper left but did not quite manage to punish white for it.

If you have any further questions, please send me an email.

Corrin Lakeland];B[pd]C[miki8mizu: Hi!
teddy99: hi];W[pp];B[ce];W[dc];B[dq];W[do];B[cm];W[cq];B[cp]
;W[dp];B[co];W[cn];B[dn];W[bn];B[bq];W[cr];B[bo];W[eq];B[bm]
;W[en];B[dm];W[ed];B[ee]C[CL: Attaching seems slightly wrong.  When you attach you will get a better result on the left at the expense of a worse result on the top.  I think you would be better playing slightly further away here (E14 or D13)]
;W[fe];B[ef];W[cd];B[be]C[CL: I would B16 here in order to get sente.]
;W[ff];B[eg];W[jc]C[Is this good for black?
--
CL It is fine, though I prefer white slighly.  White can even F13 in sente before K17]
;B[nq];W[lq];B[no]C[I would play R3 here instead, O5 does not seem so interesting]
;W[qn];B[kp];W[lp];B[lo];W[kq];B[jp];W[jq];B[ip];W[hq]C[How about this joseki
--
CL: As I mentioned when you played O5, I would not have chosen it, but I don't think it is a big problem]

(;B[hp]C[CL: H4 not really needed, also it loses the aji of say G5.  Given you go straight to E5 next, I think you should G5 now.]
;W[gq];B[eo];W[ep];B[fo]C[CL: You see how G5 would have been better than H4?]
;W[go]
(;B[fn];W[gp];B[fg]C[CL: locally I prefer G12, globally, fixing L4 is key]
;W[gn]C[CL: Painful.  This was the first time you took a big move over an urgent one]

(;B[fl]C[CL: another dubious move];W[fm];B[em];W[gm]
(;B[pr]C[CL: I would probably Q3 instead];W[qq];B[kn]C[I think this move is not good
--
CL: This is always going to be painful.  I would N5 instead I think but even that will come under severe attack]
;W[gl];B[lc]C[CL: I would Q7 instead];W[qc];B[qd];W[pc];B[od]
;W[nb];B[nc];W[mb];B[rc];W[rb];B[rd];W[mc];B[oc];W[ob];B[ql]
C[CL: Strange sequence, but seemed to work out okay in the end]
;W[mo]C[now black is in trouble
--
CL: Sure, but you chose that with F13];B[mn];W[mp];B[on];W[np]
;B[op];W[oq];B[po]C[CL: this ko will be very hard for black]

(;W[oo]
(;B[qr]C[CL: Ko threat seems smaller than capturing the ko]
;W[nn];B[rq]
(;W[pn]C[CL: O7 better];B[rp];W[om]C[CL: White plays slack but black still loses out here, the ko threat was not big enough]
;B[mm];W[pk]
(;B[qk]C[CL: Heavy, R10 instead];W[pj]
(;B[qj];W[pi];B[qh];W[ph];B[qg]C[do you think black still in the game?
--
CL: White is far ahead, it will be very hard for black to catch up]
;W[jn]C[CL: White is aiming for the knock-out blow to finish the game]
;B[jm];W[in];B[lk];W[fk];B[ek];W[el];B[dk];W[fj];B[ei];W[ej]
C[CL: Seems a mistake];B[dj];W[kl]
(;B[kk];W[jl];B[nk];W[pl];B[jk];W[km]
(;B[gd]C[CL: Cut is also okay];W[fd];B[jd];W[kc];B[kd]C[CL: Too small, black is far behind and needs to take a bigger risk]
;W[ld];B[le];W[md];B[ic]C[is this black bad move?
--
CL: Seems okay];W[ke]
(;B[jb];W[kb];B[je];W[kf];B[jf];W[kg];B[ih]C[CL: This does not really work, how about K13 instead?]
;W[jg];B[ig];W[ib];B[hc];W[he];B[ie];W[hf]
(;B[hb]C[CL: Overplay]
(;W[ja];B[if];W[gg];B[gh];W[fh]C[CL: Interesting move. 

It looks like black is in trouble here, but thinking about it more, I think this move is a mistake.

White is ahead, so all white needs to do to win is live comfortably in the corner.  Something like F18 instead, or even C18 seems plenty.

This move gives black a chance to win, and a chance to lose by even more - so not  a good strategy by white]
;B[hg];W[fi]
(;B[eh]LB[gf:B][eh:A]C[is this correct?
--
CL: Hard to say but I don't think so];W[gf]
(;B[eb]LB[eb:A][fb:B]C[wrong move by black
--
CL: Seems so];W[fb];B[cb];W[bd];B[db];W[fc];B[bc];W[ae];B[ac]
;W[ad];B[bg];W[gi];B[hh];W[hd];B[id];W[ea];B[ba];W[ha];B[ga]
;W[gb];B[ia];W[cc]
(;B[da]C[CL: Last mistake];W[ha];B[fp];W[fa]C[teddy99 has resigned the game.]
)
(;B[ha]C[CL: I would fill, white is in big trouble now];W[ji]
;B[ij];W[ii];B[hi]
(;W[hj];B[jh]C[CL: Over])
(;W[ki]
(;B[hk];W[fa]C[CL: Black will win the semeai now so white has lost]

(;B[mh]C[CL: This would be interesting but too greedy])
(;B[mi]C[CL: This is enough]))
(;B[fa]C[CL: If black H9 did not work, this leads to a smaller win]
;W[hj]))))
(;B[fb]LB[eb:A][fb:B];W[eb];B[cb];W[bd];B[db];W[fc]
(;B[gb];W[ea];B[bc];W[ad];B[hd]
(;W[ac];B[bb])
(;W[bb]C[CL: This is better];B[ab];W[ba]))
(;B[ea]C[CL: Ko is an option];W[gb];B[ga];W[gc];B[ha];W[hd]
;B[id])))
(;B[gf]LB[gf:B][eh:A];W[eh]
(;B[dh];W[di];B[ci];W[ch];B[dg];W[cj];B[bi];W[dl];B[ck];W[cl]
;B[bk];W[bl];B[al];W[fl];B[fb];W[eb];B[bc];W[bd];B[ad];W[cb]

(;B[cc]LB[bb:B][cc:A];W[dd];B[bb];W[fc])
(;B[bb]LB[bb:B][cc:A];W[fc];B[cc];W[dd];B[ca];W[gb];B[db];W[fa]
;B[ha];W[gc]))
(;B[ch]C[CL: Should be here];W[dh];B[cg];W[ci];B[di];W[dl];B[cl]
;W[fl];B[cj])))
(;W[if]C[CL: Missing this move was a huge mistake by white.  the cut gives white absolute safety in the corner]

(;B[ia];W[fb];B[gb];W[ga]C[CL: I do not see how to live])
(;B[fb]
(;W[ja];B[eb];W[db];B[fc];W[ga];B[ha];W[ea];B[fa];W[gb];B[bc]
C[CL: You can remove white's eyespace, but K16 is still in atari so... black cannot play this way]
)
(;W[id]C[CL: Even if white does not want to risk killing black, this is easy life]
))))
(;B[if];W[gc];B[hb];W[hd];B[id]))
(;B[kb]C[CL: I prefer here];W[jb];B[ib];W[lb]C[CL: Better aji now]
))
(;B[fd];W[gd];B[fc];W[gc];B[hf];W[fb]))
(;B[jk]C[CL: Here seems good];W[jl];B[il];W[kk];B[kj];W[ik]
;B[ll];W[jj];B[km];W[jk];B[ji]C[CL: Because this seems quite effective]
))
(;B[qi]C[CL: I would still jump, though it is not as good as without R9]
;W[qj];B[rj];W[ri];B[rh];W[rk];B[si];W[rl]C[CL: Because black gets sente here and S7 is still playable]
))
(;B[qj];W[qk];B[rk];W[rl];B[rj];W[rm]C[CL: this sequence is terrible for white, so black should jump]
))
(;W[rp]C[CL: White should block, this is a disaster for black]
;B[sq];W[rs];B[rr];W[or];B[ss];W[nm]C[CL: O7 is huge]))
(;B[fd]C[CL: Maybe here]))
(;W[pq]C[CL: White cannot really connect];B[qo];W[oo];B[nn]
;W[ro];B[pn];W[rm]C[CL: Painful for white]))
(;B[pq]C[CL: I prefer here];W[qq];B[qr]C[CL: If white cuts you now with P3 then you have enough aji with M5 that living in the corner is okay.  If white allows you to connect with R4 then this is worth more than Q2 directly.]
))
(;B[pq];W[fl];B[el];W[fj]C[CL: The damage is very minor]))
(;B[gp]C[CL: I prefer the stubborn move here.  While G5 is isolated, black is in better shape which I consider more valuable than the painful aji it creates at N5]
;W[fp];B[fn];W[gn];B[fm];W[ko]
(;B[in]C[CL: A sequence like this will damage O5, but with G12 and R3 both open I would be very tempted to play this way]
;W[kn])
(;B[kn];W[jo]
(;B[jn]C[CL: When planning G4 I only saw this, which is not so good]
;W[io];B[ho];W[in];B[hn];W[im]C[CL: Black has no good move here]
)
(;B[io]C[CL: I missed that this ladder works when I was planning on playing G4.  Given this, J6 should be L6 of course]
))))
(;B[go];W[gq];B[eo];W[ep];B[fo]C[CL: This is far more effective]
))
