(;FF[4]GM[1]SZ[19]ST[2]CA[utf-8]AP[SGFC:1.15]

PB[amagaeru7]
BR[8k]
PW[unforgiven]
WR[7k]
KM[0.5]
DT[2008-07-13]
PC[The KGS Go Server at http://www.gokgs.com/]
RE[W+13.50]
TM[600]
OT[5x30 byo-yomi]
RU[Japanese]

C[
A: Dear Matt,
The main problems I found in this review were related to reading the status of strong and weak groups, making correct shape, playing a bit too hastly and protecting weak groups.



Despite white being ahead at the beggining, black could have won this game, but gave up many points in the end. White won because he read better. 


Thanks for reading the comments, I hope you find them useful.

I wish you lots of fun playing Go.

All the best,
Alberto];B[pp];W[dc];B[pd];W[cp];B[ep]
(;W[hp]TR[pp]C[I actually don't know any pincer joseki, or any joseki at all, so I'm not sure if this is correct. If I played the joseki I do know, I feel black would get too nice of a position (see branch).

A: I think this pincer is not often played at such an early stage. 
Note the black stone in the lower right corner. I don't think it would be easy for white to be succesful playing in an agressive way on the lower side.]

(;B[gp]C[

A: I don't know how to answer best this move.];W[hq];B[jp]C[I really don't know what to play in this situation, but feel that splitting his groups is really the only option.


A: black 7 made white 6 stronger. Bk4 seems out of place.];W[hn]
;B[go];W[ho];B[gn]
(;W[lo]C[A: I think this move is a bit empty];B[lp];W[kp]C[This move seems bad, but I wanted to secure this group before attacking the g5 stones, which seem weak to me.


A: g5 group has a strong shape now. They have one eye already. Wc4 is alone though and an easy target for black to attack once he gets sente back. For this reason, I think w14 was'nt good.]
;B[kq];W[ko]
(;B[mp];W[lq]
(;B[lr];W[jq]
(;B[kr]C[A:black should capture];W[dm]LB[do:A]C[A: I think this was good timing for white. By playing at A, there is still room for black to create one eye on the 4th line. So black has a strong shape.]
;B[iq];W[jo];B[ip]
(;W[io]C[A: there is a tesuji for white,];B[ir]
(;W[gl]C[I think maybe I shouldn't have played so loosely.]
;B[gm];W[hm];B[em];W[el];B[dn];W[cn];B[cm];W[dl];B[co];W[bn]
;B[do];W[bo];B[dp];W[cq];B[gq];W[hr];B[fm]C[I'm not 100% sure, but I don't think I can kill this anymore, so I settle for sealing in and thickness. I think I profited greatly over all from this opening.


A: yes, I think W was very successful thanks to black's overdensive and slow plays.]
;W[fl]C[A: could black have play tenuki here?];B[gr];W[is];B[jr]
;W[er];B[dq]C[A: this move only helps white.];W[dr];B[fo];W[fq]
;B[en]
(;W[dh]C[I want to play something over here to make use of my thickness in conjunction with my D15 stone. This might have been too close to my thickness though.


A: this move seems big enough to me.];B[mo]
(;W[nd]C[A: I think this move is very big, but N6 looks bigger to me. It protects against the cut at H8 and threatens to create a gigantic moyo.]
;B[dj]
(;W[fi]C[A: I think white can capture the stone. B61 is too close to white's thickness.]
;B[ei];W[eh];B[fj];W[gj];B[gi];W[fh];B[hl]C[A: good timing for the cut]
;W[il]C[A: there is a saying, ... if you cannot capture, better don't atari..]
;B[hk];W[gk];B[ik]C[The following exchange seems bad for me. I think I should have played something light here to get out.]

(;W[jl]C[A: the atari didnt work and now the cut is getting painful for W.]
;B[jk];W[kl];B[kk];W[mn];B[nn];W[mm];B[nm]C[I became scared for this group, and let myself get sealed in in order to make sure it lived. If I continued to push at N8, black profits too much. This group should be able to live, so I tenuki.]

(;W[qf]C[I don't see the low & high combination pincer in my joseki dictionary, so I suppose this is technically wrong. However, I don't necessarily see how this could end poorly for me unless one of the two stones dies.

Black looks weaker than me here, so I should be able to make use of forcing moves, there's plenty of room to live on the right and I can run to my own stones on the left.


A: W could have also considered jumping out splitting the black group in the center.]

(;B[oe];W[ne];B[pf];W[qg];B[pg];W[qh];B[ph];W[qj]C[A: 85 to 89 are all bad for black. They push the cart from behind.. W can be very happy now because he won points thanks to blacks effort.]
;B[pk];W[qk];B[ql];W[pj];B[ok];W[rl];B[qm];W[qq]C[After this, black really doesn't have any points. As such, I have to believe that all my major mistakes occured after this.


A: I would have answered W98 more strongly.];B[qp];W[pq]
(;B[oq];W[rp];B[ro];W[or];B[nr];W[nq];B[op];W[pr];B[mq];W[rq]
;B[rm];W[nc];B[qe];W[jd]
(;B[oj];W[pi];B[rk];W[rj];B[sl];W[re];B[rd];W[rf];B[rh];W[ri]
;B[oi]
(;W[sh]C[This move may have been unnecessary. Had I played elsewhere, the game might have been a rout.]
;B[ml];W[ll];B[lm];W[ln];B[km];W[jm];B[lk]C[Here, again, I think I can tenuki. This is now effectively two handicap stones I provided my opponent.]

(;W[kn];B[mj];W[de];B[hd];W[hc];B[ic]C[I've known for some time that, for black, this 9 times out of 10, the wrong response. I imagine it is in this situation too, but I have no idea how to properly punish.]
;W[id];B[jc]
(;W[gc];B[kd]
(;W[jf]C[A: I think this was a mistake for white];B[ke]
(;W[lc]C[A: the peep strengthend black's group in the side.]
;B[je];W[ie];B[kc]
(;W[pc];B[qc];W[pb];B[qb];W[mg];B[kf];W[jg]C[I'm not sure how to keep the top right group alive now, I just take profit to the left and assume I'm still ahead.]
;B[kg];W[jh];B[kh]
(;W[ki]C[Simple over play, too greedy.];B[ji];W[ii];B[jj]
(;W[hi];B[if];W[he];B[ih];W[hh]
(;B[ig]C[A: black lost some points here];W[hf];B[hg];W[gg];B[nb]
;W[lb]C[A: I think W has a better answer than this.];B[ob];W[oc]
;B[pa];W[hb]
(;B[kb]C[A: I think black lost some points again.];W[ja];B[ka]
;W[ib];B[jb];W[ns];B[np];W[sj];B[cc]C[I don't know if this is supposed to work or not. If it is, black made a mistake some where.]
;W[cd];B[bc]
(;W[bd];B[db];W[eb];B[ec];W[dd];B[fb];W[cb];B[ea];W[bb];B[gd]
;W[fd];B[ge];W[gf];B[fe];W[ee];B[ed];W[fc]C[A: it is very bad to fill one's own liberty in a capturing race. W should have simply captured and the trouble is gone.]
;B[gb]C[I mis-read the fact that black can now connect underneath and tenuki'd.]

(;W[sp];B[ia];W[ff];B[ha];W[eb];B[ec];W[so]
(;B[rn]C[A: black missed one point again.];W[sn];B[sm];W[sk]
;B[ms];W[os];B[rl];W[sd];B[sc];W[se];B[nf]C[


A: black missed another two points again, plus the sente moves below.]
;W[fr];B[gs];W[hs];B[fp]C[A: this is dame. Black missed another pair of points]
;W[js];B[ks];W[fs];B[mf]C[A: i dont understand why black played here.]
;W[ca]
(;B[ja]C[A: black lost again here.];W[ed];B[eb];W[da];B[ga]
;W[hj];B[tt];W[tt]TB[pb][nl][fa][la][ma][na][oa][qa][ra][sa]
[lb][mb][rb][sb][lc][mc][nc][oc][pc][rc][ld][md][nd][od][qd]
[le][me][ne][pe][jf][lf][of][jg][lg][mg][ng][og][jh][lh][mh]
[nh][oh][ki][li][mi][ni][kj][lj][nj][mk][nk][ol][pl][om][pm]
[fn][on][pn][qn][eo][no][oo][po][qo][jq][lq][nq][mr][ls]TW[bq]
[sq][ar][br][cr][qr][rr][sr][df][bs][cs][ds][es][ps][qs][rs]
[ss][aa][ba][ab][ac][bc][cc][ad][gd][hd][ae][as][be][ce][fe]
[ge][af][bf][cf][ef][sf][ag][bg][cg][dg][eg][fg][rg][sg][ah]
[bh][ch][gh][rh][ai][bi][ci][di][ei][gi][qi][si][aj][bj][cj]
[dj][ej][fj][ak][bk][ck][cm][dk][ek][fk][al][bl][cl][am][bm]
[im][km][lm][an][in][jn][ao][ap][bp][aq])
(;B[ga];W[da];B[eb]))
(;B[sn]))
(;W[eb];B[ia];W[ha]))
(;W[db];B[bd];W[be];B[cb]C[This sequence looks like it has less aji.]
))
(;B[ib]))
(;B[hg];W[gg];B[gf];W[ff];B[ge];W[gd];B[fe]))
(;W[hf];B[mb];W[lb];B[nb];W[ob];B[od];W[oc];B[kb]))
(;W[ji];B[ki];W[hi]))
(;W[mb];B[ob];W[kb];B[jb];W[la]))
(;W[kc];B[lc];W[kb];B[lb];W[ib];B[lf];W[qc];B[qd];W[rc];B[sc]
;W[sb];B[sd];W[ra];B[pc];W[pb]))
(;W[ke]
(;B[le];W[kc])
(;B[je];W[ie];B[le];W[kc];B[kf];W[lc])))
(;W[kd]C[I think this may have worked better.];B[gc];W[hb];B[gb]
;W[gd];B[he]
(;W[ib];B[jb])
(;W[kc];B[ib];W[jb];B[ha];W[jf]C[Keeping my weak group from getting weaker may have been the right idea. My left is still very large, and this prevents black from getting any major profit.]
)))
(;W[de]
(;B[jn];W[kn])
(;B[in];W[jn])))
(;W[ji]
(;B[sj];W[sh];B[sk];W[rg])
(;B[sh];W[si];B[sk];W[sg];B[sj];W[rg])
(;B[si];W[sj];B[sk];W[sh])))
(;B[de]))
(;B[rq];W[rr];B[rp];W[sr];B[or]))
(;B[pf];W[pg];B[of];W[qc];B[qe];W[pc];B[qg];W[mk]))
(;W[mk]))
(;W[kl];B[jl];W[jm];B[im];W[ml]C[Something like this might have been better, but black would likely play differently, since he now has a weak group.]
))
(;W[ei];B[ej];W[fj];B[fi];W[gj];B[ch];W[cg];B[ci];W[dg];B[cl]
;W[ck]))
(;W[mn];B[nn];W[nm];B[on];W[mm]TR[ll][kk][jj][ii][hh][gg][ff]
[ee][dd][cb][ba]))
(;W[de];B[dj];W[ch];B[fj];W[hj];B[fh];W[ff]C[Playing closer to the D15 probably would have allowed better use of my thickness, in retrospect.]
))
(;W[gm];B[fm]
(;W[fn])
(;W[fl];B[gl];W[hm];B[el];W[fk];B[em]C[The result of the hane doesn't look very good for me though, so the knight's move might have been more appropriate.]
)))
(;W[ir];B[jr];W[io];B[jq];W[fq]))
(;B[mq]))
(;B[jq]C[A: I wonder how white would play here.];W[mq];B[nq]
;W[np];B[mo];W[nr];B[oq];W[mn];B[no];W[kr];B[jr];W[lr];B[or]
;W[ms];B[ks]))
(;B[mq];W[dm]))
(;W[lq];B[jq];W[ko]))
(;B[en]TR[pp];W[cn];B[el]
(;W[cl];B[kp]TR[pp]C[in this var, black chooses to play a large scale fight. And it has a good chance of making territory while attacking.]
;W[mq];B[lo])
(;W[nq]
(;B[pn];W[kp];B[cl]C[here, black has a good shape and white's group is not settled on the corner yet.]
)
(;B[kp]))))
(;W[eq];B[fq];W[dq];B[fp];W[cn];B[jp]))
