(;FF[4]GM[1]SZ[19]ST[2]CA[UTF-8]AP[SGFC:1.15]

PB[kkiretu]
BR[8k]
PW[MagmaFires]
WR[8k]
KM[0.5]
DT[2008-07-30]
PC[IGS-PandaNet]
RE[W+7.50]
TM[600]
RU[Japanese]

C[kkiretu: Hi!

I was playing White in this game, i think the early game was going good but things got complicated when i tried to hard to kill white group on the bottom right corner, which result in a black counter-attack. The game was probably lost at that moment but white started playing too passive and allowed me to catch in the end game...

The victory was actually a surprise to me. I would appreciate if you could comment on my moves and where i could had done better. Thank you in advance.


Hi, My name's Daniel, I'm playing on kgs as Stevenson [2k\]

Okey here some basic principles you should work on:

1.Look at the whole board. Don't play yose moves in the middle of the game.

2.In the Go game there are only two types of moves, urgent moves or large moves. An urgent move means you must help your stone or group become settled or comfortable (or punish your opponent's stone or group that is not settled or uncomfortable). You can see if something is uncomfortable by imagining enemy stones coming close to it with effect. If no urgent move is required, then take the largest move.

3.If you really want to lose a game just go for the kill. That is the fastest way to lose.

4.Play from your weakness (or weak group). If you start a fight without defending your weaknesses you will always lose in fights. (That's what happened in the game).

5.Learn some basic joseki. Don't memorize the moves. Understand the best you can why each move is made in a joseki. This will lead to a deeper understanding of the game.


The end of review.
I hope it will be useful for you. Good luck!];B[pd]C[MagmaFires: hi]
;W[dp];B[pq];W[dc];B[pk]LB[nc:C][jp:A][mp:B]C[B is playing high chinese fuseki. The most common respones for w: A, B and C.
The idea of high chinese fuseki is to build moyo and if b gets a stone around A he builds a nice framework.

So I would prefer not to let b play his game and play A instead of shimari.]

(;W[ce];B[jp];W[qf]LB[nc:A]C[Not so sure about this move, i considered K17 at the time, but didnt want black to take the whole right side wihout resistance.



Usually r14 is played when b has a stone around k17. As a common principle you should make a kakari from the open side.

k17 looks a bit slow for me (b doesnt have to respond to it) that's why I would play A.]
;B[qe]
(;W[qc]C[This move is strange. If you wanted to take corner you dont have to play r14 stone, directly 3-3, but the trade will be good for b as he's playing moyo oriented game.]
;B[rd]C[S16 seemed strange to me at the time.


The whole variant is not common. But s16 is a shape move in this situation.]
;W[pc];B[pf];W[oc];B[od];W[nd];B[ne];W[md];B[me];W[ld];B[le]
;W[kd];B[ke];W[je];B[hc]C[Here i felt the invasion was too deep into my territory and didnt want Black to settle a base easily.

In fact b doesnt need this invasion he should have just continued building moyo.
Now you got a chance to attack weak b group and while attacking it to invade b's moyo.]
;W[jc];B[id];W[jf];B[hf];W[jh];B[lh];W[hh];B[ff]
(;W[gg];B[gf]
(;W[dg];B[fg];W[fh];B[jd];W[eh];B[fc];W[rc]LB[po:A][qo:B]C[When i reviewed the game afterwards i noticied that there is a cut starting with J13 that black failed to notice.


Yes, bad shape. S18 is slow, it's a yose move. A and B look like urgent moves otherwise b might defend his moyo.]
;B[jb];W[kb];B[ic];W[kc];B[ib]
(;W[re]C[This sequence seems a bit like spoiling aji as i didnt gained much from it.


Again yose move. Look at the whole board, invasion is a must now.]
;B[qd];W[sd];B[rf];W[se];B[sc];W[sb];B[qg];W[qo]C[Since i had sente i decided to try to invade as black seemed to have more territory than i had. I also considered something like G3 instead.


G3 is slow and low in moyo game usually you want to play high moves around h4.
But invasion is urgent. So r5 is a very good move.];B[qp]C[Common pattern see the variation.]

(;W[rp];B[rq];W[pp];B[qq];W[op]C[The idea is to make sabaki - a light group that can easily run and have an eye space. But your group is very heavy.]
;B[oq];W[np];B[rn];W[ro];B[qn];W[nq];B[pn];W[po];B[nr];W[mr]
;B[or]C[I usually see my opponents play p1 to make eyes here and with s3 open i thought i could kill the group... since this is a major turning point in the game... is it possible to kill black or i should had played something like M3 or n6?

Firstly you dont need to kill b. When you go for kill, you take all the risks. So I would think of reducing b's moyo instead.

It looks like b has enough space to make eyes. I dont see how you can kill it. Besides you have cut at n3 and because of k4 stone ladder doesnt work.]
;W[rr];B[sq];W[qr]
(;B[rs]C[wrong move with q1 b lives unconditionally.];W[sr]
;B[pr];W[ns];B[mq]C[This cut was painfull... i read it out and thought it possible to save both groups at the same time.


Yes, very painful move, that because you went for a kill, now it looks impossible to save both groups.]
;W[lr];B[lq];W[kr];B[kq];W[jr];B[ms]C[After N1 i dont think i can approach the lower group anymore and both my groups were at danger. I played N4 to save what i could.


The feature of the corner that it dies very slwoly so any Semeai is good for b. n1 doesnt give b an eye.]
;W[ip];B[mn];W[mo];B[ln];W[nn];B[nm];W[lo];B[ko];W[on];B[om]
;W[kn];B[jo];W[jn];B[io];W[mm];B[lm];W[ml];B[no];W[oo];B[ll]
;W[lk];B[mk];W[nl];B[ol];W[nk];B[kk];W[mj];B[kl]C[After this sequence it looks like black shou]
;W[kj]C[After this sequence i know i have lost more than what i won...


of course your group is dead and b's alive.];B[im];W[pj];B[qj]
;W[qk];B[ql];W[rk];B[rl];W[ok];B[pl];W[qi];B[rj];W[ri];B[sk]
;W[oi];B[ph];W[pi]
(;B[oh];W[hp]C[good move.];B[in];W[eq]C[Passive but i couldnt afford to give away the corner to black.

Big move as there are no urgent moves it's a good one.];B[cm]
;W[ck];B[bp];W[cp];B[bo];W[bq];B[aq];W[br];B[em];W[dm];B[dl]
;W[dn];B[cl];W[el];B[dk];W[cj];B[dj];W[di];B[fj];W[fm];B[fk]
;W[gn];B[ik];W[li];B[mh];W[eb];B[fb]C[I think i won the game in these endgame moves where black just followed around.


True. You got a lot in yose b was passive maybe because he killed a group and was thinking he is ahead.]
;W[bk];B[bl];W[al];B[cn];W[do];B[am];W[ak];B[ni];W[nj];B[ji]
;W[mi];B[nh];W[ki];B[kh];W[ih];B[jj];W[kg];B[gi];W[gh];B[lg]
;W[ee];B[jq];W[ir];B[iq];W[hq];B[mp];W[fe];B[ge];W[ja];B[ia]
;W[ka];B[ec];W[db];B[ed];W[dd];B[ef];W[df];B[fd];W[de];B[so]
;W[ar];B[ap];W[gl];B[hl];W[gk];B[gj];W[ls];B[qs];W[hk];B[hj]
;W[hm];B[fl]C[I saw the double atari but wasnt sure what was worth more.


You played right.];W[il];B[en];W[eo];B[ek];W[fn];B[jl];W[el]
;B[hn];W[go];B[hl];W[gm];B[em];W[kf];B[lf];W[if];B[ie];W[hg]
;B[hd];W[fa];B[ga];W[ea];B[ei];W[dh];B[fi];W[ii];B[ij];W[rh]
;B[rg];W[sh];B[sj];W[il];B[co];W[hl];B[sf];W[sc];B[qh];W[os]
;B[ss];W[ms];B[sp];W[ho];B[si];W[en];B[el];W[oj];B[tt];W[tt]
C[You can check your score with the score command, type 'done' when finished.
Click on a group of stones to mark it dead and remove it from the board.]
;B[tt]TW[aa][ba][ca][da][la][ma][na][oa][pa][qa][ra][sa][ab]
[bb][cb][lb][mb][nb][ob][pb][qb][rb][ac][bc][cc][lc][mc][nc]
[ad][bd][cd][ae][be][af][bf][cf][ag][bg][cg][ig][jg][ah][bh]
[ch][ai][bi][ci][aj][bj][lj][mk][fo][ep][fp][gp][cq][dq][fq]
[gq][cr][dr][er][fr][gr][hr][as][bs][cs][ds][es][fs][gs][hs]
[is][js][ks]TB[ha][gb][hb][gc][gd][he][oe][pe][mf][nf][of][qf]
[mg][ng][og][pg][ej][jk][qk][rk][sl][bm][jm][km][pm][qm][rm]
[sm][an][bn][jn][kn][nn][on][sn][ao][lo][mo][no][oo][po][qo]
[ro][kp][lp][np][op][pp][rp][nq][qr][rr][sr]C[Game 247 kkiretu is removing @ N5
Game 247 MagmaFires is removing @ P5
Game 247 kkiretu is removing @ L6
You have typed done.
MagmaFires: 84.5 to kkiretu: 77.0
kkiretu: Thank you for the game.
MagmaFires: good game

Thank you in advance for your review.])
(;B[iq]C[would have been painful for w]))
(;B[ps]
(;W[ns];B[rs]
(;W[sr];B[qs]C[seki])
(;W[qs];B[sr];W[ss];B[pr])
(;W[pr];B[sr]))
(;W[rs];B[ns]C[b's alive])))
(;W[po];B[np];W[pm];B[ql];W[nn]))
(;W[po];B[qo];W[qn];B[qp];W[ol])
(;W[qo];B[qp];W[po];B[np];W[pm];B[ql];W[nn]))
(;W[fc]C[Now no eyes, b has to run and you will have profit.]
;B[eh];W[ch];B[ej];W[dk]))
(;W[hg]C[Shape move should be here.]))
(;W[pf];B[nd];W[pi]LB[qc:A]C[w aims to build sabaki - a light group that can easily run to the center. Btw b's corner is still open.]
))
(;W[jp];B[jd];W[mp];B[po]))
