(;FF[4]GM[1]SZ[19]ST[0]AP[SGFC:1.15]VW[]

GN[maest-Hoshimin-399276-20080719]
PB[Hoshi (Hoshimin)]
BR[13k]
HA[0]
PW[Maes Thierry (maest)]
WR[15k]
KM[6.5]
DT[2008-04-15,2008-07-19]
PC[Dragon Go Server: http://www.dragongoserver.net/]
RE[B+24.0]
OT[Japanese byoyomi: 90 days + 1 day per move and 10 extra periods]

RU[Japanese]
GC[Game ID: 399276, rated]

C[[tengensan\]: Hello. I have two nicks in KGS and IGS: eversonyos and tengensan. I will use "tengensan" here since I am using this nick more.
You ask for the big point and the bad move... I will try to show you some good places to play... I don't like to say "bad moves" because Go is a profund game, so I don't like to judge the moves... since I am 10k IGS and 4k KGS, there is a long way for me to go too... ^_^

   Well, let's go for the review... =)];B[pd]C[[tengensan\]: I don't know how far you know about Go, so I may say some basic concepts, but I prefer repeating them than let something escape...
  The 4-4, Hoshi, usually is played for a fast play and for influence, with "fast" I want to say "build something with less stones".]
;W[dp]LB[pp:Q4][dd:D16]C[[tengensan\]: The game is simetric... If you had played at D16 or Q4, Black could have played a diagonal fuseki, that leads to a fight game.]
;B[pp]C[[tengensan\]: Black's formation is know as Nin-ren-Sei Fuseki.]

(;W[nc]LB[nc:O17]C[[tengensan\]: Ok. I don't know why you played O17. I am not saying that this is bad, but it is difficult. I try it sometimes, and it makes the game difficult.

  There are 2 rules that, hum... let's say... "make the game easier":

1) Start playing in the corners, sides and then in the center. This has a reason. It takes less moves to survive in the corner than in the side, less to survive in the side than in the center. When you make a group alive, it becomes strong and it helps you a lot during the game, it suports you. (if you like RPG, you can associate the alive groups with White Mages from Final Fantasy... ^_^ ).

2) Make the stones help each other. I don't remember if I read it in the collection "In the Beginning" or in "Opening Theory Made Easy" from Otake Hideo. Please, see the variation, I will show you what I wanted to say.]
;B[pg]LB[pg:Q13]C[[tengensan\]: Q13 is not a joseki. I played this a lot, but I never found it in a joseki book or site...]
;W[pb];B[kc]LB[qc:R17]C[[tengensan\]: I prefer R17 because White in R17 is so good...]
;W[qc]LB[qc:R17][pg:Q13][pd:Q16]C[[tengensan\]: As I said, White R17 is very good. It is sente, if Black ignores (tenuki), White will invade in the right side and Q16 and Q13 will seem useless.]
;B[qd]LB[qh:4][ph:4][qg:3][pg:3][qf:2][pf:2][qe:1][pe:1][pd:4]
[qd:3][rd:2][sd:1]C[[tengensan\]: I learned a advice to where extend from a wall. You have to count the high of the wall, in this case, 1 (T16), 2 (S16), 3 (R16), 4 (Q16). Than you extend in the side in a distance equal to the wall's high (in the third or the fourth line).
   So the ideal place for Q13 should be Q12 or R12, this means that Q13 is near from the Black's wall, this make this group heavy (it is taking less points than it could take). Maybe because of this Q13 is not joseki (I am guessing).]
;W[lb]LB[lb:M18][rc:S17]C[[tengensan\]: Usually, the first moves are on the third or fourth line. Moves on the first and second line usually are played in the final because they earn less points.
  Instead of M18, I prefer some move on the upper left corner or S17 to strenght your group, but, as I said, take a empty corner is usually a big move.]
;B[lc]C[[tengensan\]: See, now you are under pressure. =(];W[kb]
LB[lb:M18]C[[tengensan\]: They call this "crawling in the second line"... you had to do this to help M18, but avoid this sequence because you get few points...]
;B[md]C[[tengensan\]: Notice that the Black's stones aren't making territory, but they are doing a lot of influence in the center. It's difficult to explain what is influence, but it helps you in future fights or can be converted in territory, it is like an investiment.]
;W[dd]C[[tengensan\]: Good, taking an empty corner is a big move. I think that Black is a little ahead because he has more influence and your stones in the upper right side is a little low, but you can catch up.]
;B[jb]LB[jc:K17][fq:F3]C[[tengensan\]: This leave a strong cut point at K17, so it's better to play K17. Playing on the right side or a kakari in F3 is good too.]
;W[mc]TR[kb][lb]C[[tengensan\]: You protected the White marked stones, but this gives the chance for Black to strength his group. Your headache in this part of the board started with M18, notice that you had to play many stones to help M18, but these moves are helping Black even more... u.u]
;B[kd]LB[jd:K16][jc:K17]C[[tengensan\]: K17 or K16 gives a better shape for Black.]
;W[gb]C[[tengensan\]: Again. Playing in the second line in the beginning will help you opponent.
The problem with this move (the lower moves) are:
1) Your stone can't surround many points, so it is inefficient.
2) Usually, the players build two walls, one get a wall facing the edge and the other a wall face all the board... The wall that is in direction of the center is better because it can influence and help the other groups during the game.]
;B[hc];W[gc];B[cd]LB[cd:C16]C[[tengensan\]: C16 is a joseki, but is not a commom move... at least, I don't see this very often]

(;W[ce]C[[tengensan\]: I liked your choice, you give him the corner, but took influence for the outside, this can help you to balance the game against Black's influence. See variant.]
;B[cc];W[dc]C[[tengensan\]: Now, the position is equal to a 3-3 invasion.]
;B[be]
(;W[cf]LB[bf:B14][cf:C14]C[[tengensan\]: Good. B14 is possible too (see variant), but in this case, I prefer C14 because I think that you need power to fight against Black's influence.]
;B[bf]C[[tengensan\]: Now is Black that is crawling in the second line...]
;W[bh]LB[cg:C13]C[[tengensan\]: I prefer C13 because it forces Black to stay in the second line. In this shape, try to avoid Black C13 because it usually gives headache for White.]
;B[db];W[eb];B[cb];W[nq]LB[nq:O3][cg:X][de:X][ec:X]C[[tengensan\]: You left some dangerous cut points that I marked with X. Even if Black attack, you can manage it, but it is better to avoid this.
   But your move O3 is very good, so it compensates the cutting points.]

(;B[qm]LB[np:O4]C[[tengensan\]: I prefer O4 to get more influence, see variant.]
;W[cm]LB[kp:L4][jp:K4][nq:O3][qm:R7][pp:Q4]C[[tengensan\]: I think that Q4 and R7 makes O3 a little weak, so you could help O3 with a stone near it, like K4 or L4. Your move is good too, but between the left side and the lower side, I prefer the lower side.]
;B[dq];W[eq]LB[nq:O3]C[[tengensan\]: Very good. If you forced Black to run for the rigth, O3 could become weak.]
;B[cq]
(;W[cp]LB[ep:E4]C[[tengensan\]: I prefer E4 because it confines Black in the corner and spread influence over the board, see variant.]
;B[er];W[fq];B[fr]C[[tengensan\]: The same sequence of the upper left corner...]
;W[pq]LB[gq:G3]C[[tengensan\]: Again, Black G3 is a good move, so it is good for you playing at G3 too. Remember, a good point for you opponent is a good point for you too. Playin at G3 would give you a huge influence on the left side.
  Q3 is not bad, but you can give more influence for Black. Sometimes it is ok, but in this case I am thinking: "how will White reduce Black's moyo?"...]

(;B[qq]LB[op:P4]C[[tengensan\]: I prefer P4, see variant.]
(;W[oq]LB[op:P4]C[[tengensan\]: P4 is other choice again, see variant...]
;B[gq]C[[tengensan\]: This move hurts White a lot, it destroy your influence on the left side and in the lower side.]
;W[jq]LB[qj:R10]C[[tengensan\]: Good, you reduced your loss in this area... Now, an invasion around R10 seems a good next move.]
;B[ir]LB[ir:J2][pj:Q10]C[[tengensan\]: I think that Black Q10 is bigger, J2 is on the second line and it helps you to close your territory.]
;W[jr];B[iq];W[rk]LB[rk:S9][jp:K4]C[[tengensan\]: Your feeling was good "I have to reduce Black", but a Black hane at K4 can hurt White a lote. And S9 in the second line is much low.]
;B[qi];W[rm]LB[pk:Q9]C[[tengensan\]: Good, other choice should be Q9, after it you could do a monkey jump (suberi) on the upper or on the lower side.]
;B[rn];W[ql]C[[tengensan\]: Perfect, your sequence was very good.]
;B[pm];W[ri]LB[ri:S11][qn:R6][pl:Q8]C[[tengensan\]: I thought about Q8 to explore the cutting point at R6, but your move at S11 is better because you make a base for your group, good choice.]
;B[rh]
(;W[rj]LB[qj:Q10]C[[tengensan\]: I prefer Q10 because it helps you to run to the center, see variant.]
;B[sm];W[rl]LB[pk:Q9]C[[tengensan\]: I believe that Q9 is better because it helps you to run for the center. I am not sure, but your group is almost dead.]

(;B[qo]LB[pk:Q9]C[[tengensan\]: See the variant, I think that Black Q9 kill White's group or at least, lets Black  with a good position...]
;W[sl]C[[tengensan\]: In these cases, is better run to the center, now Black can enclosure White and almost can kill it.]

(;B[ok]LB[ok:P9][qh:R12]C[[tengensan\]: See variant. R12 is the only Black's weakness that don't let him to kill White. P9 is a good move, it doesn't kill White, just threath, but it helps Black to increase  his influence and put a pressure to White group.]
;W[qj];B[ph]LB[pi:Q11]C[[tengensan\]: I prefer Q11 to block White.]
;W[pk]C[[tengensan\]: Now White is alive, but still has to reduce the Black's upper side.]
;B[oi]LB[oj:P10]C[[tengensan\]: I prefer P10, since it is stronger and closes White more.]
;W[pl]LB[jp:K4][nd:O16][pl:Q8][pj:Q10]C[[tengensan\]: White is alive because he can play Q10 or Q8 to live (this is called miai), so I think that a move like O16 or K4 is bigger]
;B[ol];W[jj]C[[tengensan\]: Rsrsrs... As you can guess, I am suspect to talk about K10. Well, but I think that Tengen is good to reduce the influence of your opponent. Since Tengen is in the center, it can run to everywhere to live. Maybe, instead of Tengen, you could have played more inside of your opponent moyo.]
;B[lh]LB[lq:M3][cg:C13][lh:M12][nd:O16]C[[tengensan\]: Black is trying to defend his moyo, but sometimes an attack value more points than a defence (you should always analise it: "which is bigger, defending here or attacking there?). I see to big point for Black to attack, M3 and C13, both of them can hurt White a lot. 
   Other reason because I don't like M12 is that this moyo is open to an attack at O16. Usually, when your moyo is open to two attacks, defending is not the best option.]
;W[hd]LB[cg:C13][jp:K4]C[[tengensan\]: Your move is good, but I believe that defending at C13 or K4 may be bigger.]
;B[ic]C[[tengensan\]: Black started playing very passive...]
;W[ig]C[[tengensan\]: ... because of it, you made a big moyo... but Black can try to fix this mistakes exploring the cutting points of your upper right group.]

(;B[de]C[[tengensan\]: Good, but I prefer C13, see variant...]
;W[df];B[ee];W[ed]LB[dc:x][dd:x][ed:x][ec:E17][fd:F16]C[[tengensan\]: This marked shape is the so called and blamed "empty triangle"... try to avoid it like the demon runs from a cross... ^_^ Sometimes you don't have choice and has to play the empty triangle, but this should be your last choice...
  In this case, E17 is or F16 is better... I prefer F16 since it defends the cutting point at G16...]
;B[fd]LB[fd:F16]C[[tengensan\]: F16 is good, it stoles your eye at E17. Always try to do this kind of move, even if you can't kill any group with it, but these moves usually are sente and make your opponent's groups heavy and weak.]
;W[ec];B[ge];W[ff]C[[tengensan\]: Nice peep... =)]
(;B[ef]LB[fe:F15]C[[tengensan\]: I prefer F15 aiming to G16... see the variant... it leads to a complicate fight, but I believe that black has advantage...]
;W[eg];B[fe];W[gf]LB[dg:D13][eh:E12]C[[tengensan\]: It seems that you decided to sacrifice your upper right group... I think that you could have save it earlier, with F16 instead of the empty triangle... But notice that D13  is a dangerous cutting point... maybe shoud be better to play at D13 or E12 if you choose to sacrifice and defend the left side...]
;B[hf]C[[tengensan\]: I think that Black D13 is bigger, now Black lets you fix the weakness of your group...]
;W[fh];B[he];W[id]C[[tengensan\]: So you didn't decide to sacrifice, rsrsrs.... ^__^
    Ok, but your group doesn't have room to live...let's remember the 3 ways to live a group... you know them, but it is good to feel it in your bones (and maybe there is someone reading this review that didn't realise it yet). So, a group lives when:
1) It has room to make two eyes;
2) It can connect to a alived group;
3) It can kill an opponent group around and, with it, make two eyes or connect to a safe group...

   Knowing this, you notice the 3 rules of an assassin *:
1) Steal the base of your opponents group, reduce the space that would let him make two eyes, when reducing, try to induce him to make the death shapes (six rabbit and so on...);
2) You can't attack with weak groups, if so, your weak groups will ending be attacked, die, and you won't kill your opponent group.
3) After 1 and 2, don't let your opponent connect to a alive group, surrond it in a direction that will be more difficult do live.

   * "somehow, it remembers me of the anime Soul Eater... the three rules of an assassin that the character Black Star always says..." ^__^]
;B[if]C[[tengensan\]: Good, Black didn't cut, because the White group is already surrounded.]

(;W[jf]LB[dg:x][hg:x][jg:x]C[[tengensan\]: No, it seems that you still has hope to kill this Black group, but, as I said, you can't kill a group with weak groups (even Sai can't do this, rsrsrs... ^.^ ).
   See variant...];B[hg]C[[tengensan\]: Now, Black can kill even more.... =O]
;W[ih]LB[hh:H12]C[[tengensan\]: I prefer H12... in this cases, it is better to sacrifice or you will lose even more... =(]
;B[hh];W[hi]
(;B[gd]C[[tengensan\]: Since White has many weakness and cutting points, Black could have went a little longer with his attack, see variant...]
;W[je];B[gh];W[gi]LB[gd:G16]C[[tengensan\]: As I did in the variant... but G16 was wasted, since Black could have used it to kill bigger... ;D]
;B[fg];W[dh]C[[tengensan\]: Good.];B[fi]LB[fi:F11][gp:G4]C[[tengensan\]: Black can use F11 to attack you somehow... because of G3, F11 is "playable"... but I didn't like this move... I prefer G4]
;W[eh];B[ii]
(;W[fj]LB[ij:J10]C[[tengensan\]: I prefer J10, sacrificing two stone, but becoming stronger... see variant.]
;B[ji];W[jg]LB[ij:J10][gp:G4]C[[tengensan\]: I prefer J10 and them G4 to defend your moyo... =)]
;B[ei];W[gj]C[[tengensan\]: Good, you still have some weakness, but you can manage it... =)]
;B[di]
(;W[ci]LB[ch:C12]C[[tengensan\]: Oh... it was a pitty... C12 could help you... It was difficult to see this attack... it was really a pitty... see variant about C12...]
;B[cg]LB[ce:2][cf:2][df:2][eg:2][dh:2][eh:2][fh:2][cg:x][dg:x]
[ch:x]C[[tengensan\]: Let's try to learn something with this mistake... try to see yours mistakes as opportunities to lear something, in Go as in your life... ;D
  Usually, this kind of attack starts with the marked shaped "x", the same as the blamed empty triangle...
  Notice other thing... your two groups had 2 liberties, even when you connect at D13, it makes one group with... 2 liberties!!! See? So, conecting doesn't help...

  When you notice this "even connecting here, the number of liberties doesn't increase", you will have seen a weakness, keep this in your mind.]
;W[ch];B[dg];W[ki]C[[tengensan\]: almost... but Black can escape with ataris... u.u]
;B[ij];W[kh];B[ik];W[jk];B[gk];W[fk];B[hk];W[oo]LB[fk:4][fj:4]
[gj:4][gi:4][hi:4][di:2][ei:2][fi:2][gk:5][hk:5][ik:5][ij:5]
[ii:5][ji:5]C[[tengensan\]: Be carefull, you was fighting and suddenly you stopped. This gives Black the opportunity to take an advantage in this fight. Try to stop fighting just when you were sure that your groups are safe.  I put the number of the group's liberties to help you see the strength of the groups...]

(;B[gm]LB[ek:E9]C[[tengensan\]: Black's move is more safety... I like E9, but it is more complicated and I am not sure if it works... see variant]
;W[fm];B[gp];W[fo];B[go];W[fn];B[gn]C[[tengensan\]: Black connected, but White got many point at the left side, now White has to try to live as many groups as he can.]
;W[jp];B[lp]LB[lp:M4][jp:K4]C[[tengensan\]: M4 is almost like a peep, instead of K4, I think that White M4 could be better because you would avoid this Black M4.]
;W[kn]LB[ko:L5]C[[tengensan\]: I prefer L5, a kosumi... the keima L6 is not very good to connect... I will show you this in the next moves... =)]
;B[ln];W[km];B[ko];W[jo]
(;B[lm]C[[tengensan\]: Now, see variant about keima weakness...]
;W[lq];B[mp];W[mq];B[nn];W[no]LB[kl:L8]C[[tengensan\]: L8 is bigger, since it saves your whole center group... =O]
;B[mo];W[kp];B[lo];W[ll]C[[tengensan\]: This move can help you to make two eyes in the center, but connecting is more fast and safe... =)]
;B[ml];W[lk]
(;B[in]LB[jn:K6]C[[tengensan\]: Black could have cutted at K6, but even so, white lives...]
;W[jn];B[mj];W[mk];B[nk];W[im];B[io];W[il];B[hm];W[ip];B[hp]
;W[qr];B[rq];W[on];B[om];W[np]C[[tengensan\]: It almost worked... ^_^]
;B[mm];W[lg];B[mg];W[mh];B[nh];W[mi];B[lf];W[li];B[nf];W[me]
;B[nd];W[mf];B[le];W[ng];B[ne];W[mg];B[og];W[ni];B[oc];W[ob]
;B[ka];W[ma];B[na];W[nb];B[rc];W[rb];B[pc];W[qb];B[rd];W[bq]
;B[br];W[cr];B[dr];W[ar]C[[tengensan\]: good.];B[cs];W[rr]LB[bp:B4]
C[[tengensan\]: You should have played B4 here... =O];B[sr]
;W[pr]LB[sc:T17][nj:O10][bp:B4][sh:T12][is:J1]C[[tengensan\]: Here, you have many choices, like B4 (big), O10, T12 and J1 (sente) or T17 too... =)]
;B[js];W[ks];B[is]
(;W[oj]LB[nj:O10]C[[tengensan\]: O10 is bigger, see variant... =)]
;B[nj];W[pj];B[pi];W[so]C[[tengensan\]: Black already has two eyes... so you just lost one stone and lost the opportunity to capture one black stone.]
;B[sn];W[ap]C[[tengensan\]: Very good! =D];B[fp];W[ep];B[fl]
;W[el];B[gl];W[sh];B[rg];W[sg];B[sf];W[si];B[re];W[ag];B[em]
LB[fo:3][fn:3][fm:3][el:3][fk:3][fj:3][gj:3][gi:3][hi:3]C[[tengensan\]: A good attack... see, your groups had 3 liberties only... when these few liberties are together with dangerous cutting points, usually these kind of attacks turn possible. =(]

(;W[en]C[[tengensan\]: See variant...];B[ek];W[ej];B[dl];W[dk]
C[[tengensan\]: A little risky, but you don't have many options... =(]
;B[dn]LB[cl:C8]C[[tengensan\]: I believe that Black should play C8 before...]
;W[eo];B[el];W[cl];B[dm];W[co];B[ck];W[dj];B[cn];W[bn];B[sb]
;W[ra];B[ja];W[oa];B[lj];W[kj];B[jd];W[ie];B[rs];W[qs];B[sq]
;W[af];B[ae];W[pn];B[qn];W[la];B[bg];W[ah];B[bs];W[kf];B[jh]
;W[kg];B[ke];W[hb];B[fc];W[sa];B[sc];W[po];B[qp];W[tt];B[as]
;W[aq]
(;B[ss]LB[bm:B7]C[[tengensan\]: Black didn't see B7, that is very dangerous for White, see variant...]
;W[tt]C[[tengensan\]: White passed...];B[tt]C[[tengensan\]: Black passed too... and B7 is still there... ^__^]
;MA[dc][ed][dd][hb][ff][ec][eb][so][gb][gc][gf][ck]C[[tengensan\]: Ok, I will give you some advices:

1) Avoid playing in the second line in the beginning... if the move is a sequence of a joseki ok, but don't try to expand your territory or moyo with a second line move.

2) Try to count the liberties of your groups and be carefull with you find groups with less than four liberties.

3) Finding groups with few liberties, you will see the cutting points too. Cutting points are points that separe your groups, letting them weak.

4) Keep in your mind that 3 rules to survive (and their opposite, the 3 rules to kill).

5) In the end, keep the sente (iniciative) and play the bigger moves first.

For the coming future...

1) Try to solve tsumegos to increase your life and dead skills, this will improve your reading skills too.

2) Besides improving your reading skills, try to read more variants during the game... but do this only when your reading becoming fast, or your games will be very long or you can lost by time.

3) Study Joseki, not memorizing, but see one, try to understand, to play it...

    And that is all, I wish you good luck in your next games and remember, more important than winning is to learn and enjoy with Go. Bye! =D]
)
(;B[bm]
(;W[bl]LB[bo:B5]C[[tengensan\]: White can live with B5, but lost many points too...]
;B[bo];W[am];B[do];W[ao];B[bp];W[an];B[bk];W[ak];B[aj]C[[tengensan\]: This would be the hell for White, since almost everything dies in this sequence... =(]
)
(;W[bo];B[bl];W[an]C[[tengensan\]: White can live, but Black stole a lot of White's points... =(]
)))
(;W[dl]
(;B[eo]C[[tengensan\]: This way, you lost 3 stones (6 points for Black) and was pushed about 3 points, so you lost 9 points... Black at E9 instead of E5 doesn't work, see variant...]
)
(;B[ek];W[ej];B[dk];W[dj];B[ck];W[cl]C[[tengensan\]: Black can't fight this way.]
)))
(;W[nj]LB[nj:O10][lj:1][mj:2]C[[tengensan\]: Compare this situation with the one in the real game, here you earned 3 points more... =)
    P10 cuts the Black's groups, but they already have 2 eyes, so it doesn't hurt Black... u.u]
))
(;B[jn];W[jm];B[in];W[lg];B[mh];W[lf];B[jh];W[jd];B[jc];W[le]
;B[ld];W[mk];B[nl];W[me];B[nd];W[mg]
(;B[nf];W[nh];B[mi];W[ni];B[mj];W[nj]C[[tengensan\]: White is alive...]
)
(;B[nh];W[nf];B[kg];W[li];B[mi];W[mj];B[kj];W[lj];B[jl];W[kk]
C[[tengensan\]: two eyes...])))
(;B[jn]C[[tengensan\]: The problem with keima is, after is it cutted, it leads to a ladder (shicho), see...]
;W[in];B[jm];W[im];B[jl];W[il];B[kl];W[lm];B[ll];W[mm];B[ml]
C[[tengensan\]: Black cutted the center group and it is probably dead...]
))
(;B[ek];W[fl]
(;B[ck];W[dj];B[ej];W[dk];B[el];W[dl];B[em];W[fm];B[en];W[fn]
C[[tengensan\]: doesn't work...])
(;B[dk];W[ck];B[dm];W[cl];B[em];W[fm];B[cn];W[bn];B[eo];W[ep]
;B[fn];W[gm];B[im];W[gn];B[go];W[hn];B[in];W[ho];B[gp];W[io]
C[[tengensan\]: a big fight...])))
(;W[ch];B[ci];W[bj]C[[tengensan\]: You can connect with this move... Black has many options to bother you... I will put just one here, but I feel that Black can kill White.]
;B[bi];W[ai];B[cj];W[bk];B[ek];W[gl];B[em];W[fn];B[fm];W[gm]
;B[ep];W[fp];B[eo];W[fo];B[fk];W[gk];B[cn];W[bn];B[co];W[bo]
;B[do];W[bp];B[en];W[dm];B[gn];W[go];B[hn];W[ho];B[in];W[io]
;B[ij];W[ej];B[dk];W[ck];B[dj];W[fl];B[el];W[dl]))
(;W[ij];B[ji];W[ki];B[jh];W[kh];B[jg]C[[tengensan\]: Something like that... This position gave me an ideia... I will try something...]
;W[jd];B[jc];W[le];B[ld];W[kg];B[kf];W[ke];B[lf];W[mf];B[lg]
;W[me];B[nd];W[li];B[mh]C[[tengensan\]: ok, it doesn't work...]
))
(;B[gh];W[gi];B[fg];W[gg];B[fg];W[dh];B[jg];W[jh];B[kg]))
(;W[hg];B[gg]LB[gg:G13]C[[tengensan\]: Because of Tengen, I think that you can kill G13, but I can't read so long, so let's see if the stair (Shicho) works...]
;W[fg];B[gh];W[gi];B[hh];W[ih];B[hi];W[hj];B[ii];W[ji];B[ij]
;W[ik]C[[tengensan\]: ok, it works... ^__^]))
(;B[fe];W[he];B[ef];W[eg];B[gf];W[fg];B[gd];W[hf];B[gg];W[gh]
;B[dg];W[cg];B[fh];W[eh];B[hh];W[gi];B[hg]C[[tengensan\]: Well... it is a little risky, but I think that Black can win this fight... O_o]
))
(;B[cg];W[bg];B[dg];W[df];B[ef];W[de];B[ee];W[ec];B[fg]LB[eb:x]
[gb:x][gc:x][ec:x][dc:x][dd:x][de:x][df:x][ce:x][cf:x][bg:B13]
[bh:B12]C[[tengensan\]: The marked White group become weak, and Black can attack B13 and B12 too...]
))
(;B[pk]
(;W[pl];B[ol];W[ok];B[pj];W[om];B[nl];W[qh];B[qg];W[ph];B[oh]
;W[pi];B[oi]C[[tengensan\]: Dead, but there is a way for White to live.]
)
(;W[pj];B[qj];W[pl];B[ol];W[ok];B[qk];W[qh];B[pi];W[ph];B[oi]
;W[rg];B[oh];W[qg]C[[tengensan\]: White lived and reduced Black's influence a lot.]
)))
(;B[pk]LB[qn:R6]C[[tengensan\]: The only problem here is the cutting point at R6... let's see...]
;W[pl];B[ol];W[ok];B[pj];W[om];B[nl];W[qn];B[pn];W[qo]
(;B[ro];W[po];B[on];W[oo];B[nn];W[rp]C[[tengensan\]: This way, white lives, so it would be better for Black to sacrifice...]
)
(;B[po]C[[tengensan\]: This way, White will live, but Black will take a huge influence in the center.]
;W[ro];B[nn]LB[qp:R4]C[[tengensan\]: R4 is another option.]
)))
(;W[qj];B[si]LB[si:T11]C[[tengensan\]: If Black plays T11, you can defend or sacrifice...]

(;W[rj]C[[tengensan\]: Defending...];B[pi];W[pj];B[oj];W[ok]
C[[tengensan\]: White will escape and live, but Black got some nice territory on the upper side.]
)
(;W[pj]C[[tengensan\]: Sacrificing...];B[rj];W[pl];B[om];W[oi]
C[[tengensan\]: Maybe this... my idea is just live and destroy Black territory on the upper or on the lower side.]
)))
(;W[op];B[oo];W[no];B[qo];W[gq]))
(;B[op];W[oq];B[np]))
(;W[ep];B[cp];W[co];B[er];W[fr];B[dr];W[gq]LB[nd:O16]C[[tengensan\]: Now, I think that White's influence is better than Black's influence because Black has some weakness at O16.]
))
(;B[np];W[mp]
(;B[oq];W[no];B[op];W[mo];B[pn]C[[tengensan\]: This or the other variant.]
)
(;B[no];W[oq];B[pq];W[kq];B[pk]C[[tengensan\]: Something like that.]
)))
(;W[bf]LB[bf:B14]C[[tengensan\]: Usually, moves like B14 are bad, but in this joseki, White has a plan.]
;B[cf];W[de];B[bg];W[bd];B[af];W[bc];B[cb];W[bb];B[db];W[eb]
C[[tengensan\]: This way, White recover the corner. But I prefer your choice in the game.]
))
(;W[cc];B[ce];W[bc];B[dg]C[[tengensan\]: White has the corner, but Black will take part of the left side or more influence. Probabily, in this case, Black will have the control over the center and advantage in future fights.]
)
(;B[cc];W[dc];B[be];W[cf];B[bf];W[bh];B[db];W[eb];B[cb];W[nq]
;B[qm];W[cm];B[dq];W[eq];B[cq];W[cp];B[er];W[fq];B[fr];W[pq]
;B[qq];W[oq];B[gq];W[jq];B[ir];W[jr];B[iq];W[rk];B[qi];W[rm]
;B[rn];W[ql];B[pm];W[ri];B[rh];W[rj];B[sm];W[rl];B[qo];W[sl]
;B[ok];W[qj];B[ph];W[pk];B[oi];W[pl];B[ol];W[jj];B[lh];W[hd]
;B[ic];W[ig];B[de];W[df];B[ee];W[ed];B[fd];W[ec];B[ge];W[ff]
;B[ef];W[eg];B[fe];W[gf];B[hf];W[fh];B[he];W[id];B[if]C[[tengensan\]: Good, Black didn't cut, because the White group is already surrounded.]
))
(;W[nq]C[[tengensan\]: Make the stones help each other.
Imagine this continuation...];B[pn];W[pr];B[qq];W[kq]LB[nq:O3]
[dp:D4][kq:L3]C[[tengensan\]: This is a Joseki. Notice that L3 and D4 are almost taking the lower side. If Black plays in the lower side, he will be almost surrounded... Black will live if he invaded, but he will suffer a lot of pressure, so White has a advantage in the lower side.

   So, O3 and D4 can work together. Black can avoid this and choose other joseki, but it will give you other choices...

   Making your stones work together is almost like a "Combo". The ideia is: you have to make the game flow to a way that is good for you, giving you many choices and few choices to your opponent.]
))
