(;FF[4]GM[1]SZ[19]ST[2]CA[UTF-8]AP[SGFC:1.15]

PB[fantomas27]
BR[1k]
PW[gradoub]
WR[1k]
KM[6.5]
DT[2008-08-12]
PC[The KGS Go Server at http://www.gokgs.com/]
RE[W+9.50]
TM[1800]
OT[5x30 byo-yomi]
RU[Japanese]

C[Dear reviewer,
First of all, thanks for reviwing my game. In this game i played black and it seems to me that i went from bad to worse since the beginning. Something went wrong in the fight and i can't get where the problem is. Please tell me where my mistake is.

Thomas

[kb\]: Hi Thomas,
My name is Kyle Blocher, 4-dan from the United States.  I'm happy to review your game.]
;B[qe];W[dp];B[po]C[[kb\]: A note about fusekis like this.  Amateurs have the freedom to play whatever fusekis they want, but if you want to improve, you need to play moves that you understand.  I hope that you've done a little bit of research about this fuseki before you played it.]
;W[de];B[cc]C[[kb\]: Black plays this move when you want to emphasize the right side.  Is that what you want?

Enclosures are all okay too.  I would play P16 in a game like this ;)]
;W[ed];B[eb]
(;W[fc];B[be];W[cf]C[I think Black should be happy with this result - you got the corner and sente.]
;B[nd]C[I saw this move in several pro games so i guess it's right

[kb\]: This kind of game is very hard to understand, even for stronger players.  This move's direction seems okay though.]
;W[qm]C[It's not the first time for me seeing this move but i can't find any dictionnary of joseki that treat about it. Can you tell me how to handle it ?

[kb\]: Just protecting the corner looks okay.]
(;B[qo]C[[kb\]: This move feels wrong - usually this aims for a very strong attack or to just protect territory.  There are so few stones on the right side, so Black can't really attack very strongly.]
;W[qj];B[qh]C[[kb\]: Good];W[rn];B[ro];W[oq]
(;B[pk]C[[kb\]: This move's direction is wrong.  Playing this move aims to seal in White or to lean off it to attack another group.

Actually, the P3 stone is stronger than this White group, so you should lean off of it.]

(;W[om]C[[kb\]: Good move by White, althought just connecting at R9 and letting Black get what he wants is also okay.]
;B[no];W[mp]
(;B[qk]C[[kb\]: Too small right now];W[mm]C[[kb\]: Now Black is in trouble.]
;B[mo]C[[kb\]: Pushing like this is certainly bad, it lets White get fourth line territory for free...  but Black has little choice.]
;W[lp];B[lo];W[kp];B[nl];W[ol];B[ok];W[nm];B[ko];W[jp];B[kl]
C[was this move too much ?

[kb\]: Yes.

So far White has gotten about 15+ points on the lower side, while Black got about 10 points on the top right side.  It was Black's corner to begin with :(]
;W[ll];B[kk];W[km];B[jm];W[lk];B[kj];W[lj];B[ki];W[nj]
(;B[nk]C[[kb\]: Why bother connecting this stone?  You can't kill this group.  Enclose it and let him live small.]
;W[mh]C[[kb\]: Now White is out again.  Black missed his chance.]
;B[lg];W[mg];B[lf];W[rj];B[rk];W[pi]C[i didn't see this move, so i guess i had to protect sooner

[kb\]: This is because of O9.];B[pj];W[qi];B[oi];W[ph];B[oh]
;W[og];B[pg];W[qg];B[ng];W[pf];B[of];W[nh];B[pg];W[oj];B[og]
;W[rl];B[sl];W[sm];B[sk];W[rh];B[pm]C[[kb\]: Good move.];W[pl]
;B[ql];W[pn];B[rm];W[lh];B[kh];W[mf]C[[kb\]: White should take the ko.]
;B[me];W[rl];B[mj];W[ni]
(;B[li];W[oe];B[mk];W[od]C[now i think the trade is better for white

[kb\]: Yes, because it looks like the variation from move 85, but White captured some of Black's central stones.]
;B[qc]C[[kb\]: Heavy move.  What does it threaten?];W[rd];B[qd]
;W[pc];B[qb];W[le]C[[kb\]: White found a good cutting point.]
;B[ke];W[ld];B[kd]
(;W[mc];B[lc];W[md];B[mb];W[nc];B[nb]C[a big mistake

[kb\]: Only if you don't follow up.];W[ne];B[pb]C[[kb\]: You saved the Black stones but at what cost.]
;W[kc];B[lb]
(;W[dk]
(;B[cp]C[[kb\]: The other 3-4 point is better ;)];W[cq];B[co]
;W[bq];B[do];W[ep];B[cl];W[ck];B[dl];W[bf];B[ek];W[bl];B[bm]
;W[bk];B[fl];W[mi]C[when white played here i knew i lost

[kb\]: Then it's a good time to resign ;)];B[rm];W[em];B[sn]
;W[el]
(;B[fm]C[[kb\]: The center points are not so large, it's better to save your stones.]
;W[en];B[fn];W[eo];B[ej];W[fb];B[db];W[kg]C[[kb\]: This cut is not useful]
;B[kf];W[jg];B[jc];W[ih];B[hi];W[ii];B[ij];W[ie];B[gp]C[[kb\]: Huge]
;W[go];B[hp];W[fo];B[ho];W[gn];B[jo];W[gk];B[fk]C[[kb\]: Heavy again - try to attack the bottom White stones first.]
;W[gj];B[gi];W[hn];B[in];W[ip];B[io];W[hl];B[gl];W[hk];B[fi]
C[fantomas27 [1k\]: merci pour le temps :)
gradoub [1k\]: np];W[hm];B[hj];W[qq]C[now i think i'm too much behind to hope to win.

[kb\]: I agree.  Thanks for the chance to review (this is the last comment)]
;B[fq];W[ic];B[ib];W[jb];B[kb];W[hb];B[id];W[ia];B[hd];W[gg]
;B[eg];W[ge];B[ci];W[cm];B[iq];W[jr];B[rq];W[rr];B[qp];W[qr]
;B[ir];W[er];B[np];W[nq];B[jq];W[kq];B[kr];W[lr];B[js];W[mq]
;B[bd];W[rf];B[re];W[se];B[rc];W[sd];B[sc];W[sf];B[qf];W[pe]
;B[fr];W[bh];B[bi];W[ch];B[dh];W[dg];B[eh];W[ef];B[fg];W[je]
;B[jd];W[gf];B[he];W[hf];B[hc];W[ib];B[ff];W[fe];B[dr];W[eq]
;B[es];W[cr];B[hh];W[dq];B[ds];W[cs];B[fs];W[sq];B[hg];W[ig]
;B[rp];W[op];B[oo];W[ls];B[aj];W[ob];B[oa];W[oc];B[ka];W[dj]
;B[di];W[fj];B[gc];W[gb];B[ak];W[al];B[sp];W[sr];B[sj];W[si]
;B[fa];W[ga];B[ea];W[ik];B[jk];W[ji];B[jj];W[gh];B[af];W[ag]
;B[ae];W[cd];B[bb];W[gd];B[ce];W[dd];B[pp];W[ks];B[pq];W[pr]
;B[jr];W[il];B[jl];W[bj];B[ai];W[ah];B[jf];W[if];B[kc];W[dm]
;B[ei];W[im];B[jn];W[tt];B[tt]TW[ha][fd][nd][ee][me][df][nf]
[of][bg][cg][ng][og][pg][rg][sg][oh][qh][sh][oi][ri][cl][dl]
[am][bm][an][bn][cn][dn][ao][bo][co][do][ap][bp][cp][aq][lq]
[ar][br][mr][nr][or][as][bs][ms][ns][os][ps][qs][rs][ss]TB[aa]
[ba][ca][da][la][ma][na][pa][qa][ra][sa][ab][cb][rb][sb][ac]
[bc][ad][lj][lk][ll][ml][ol][pl][rl][km][lm][mm][nm][om][pm]
[qm][sm][kn][ln][mn][nn][on][pn][qn][rn][so][gq][hq][gr][hr]
[gs][hs][is]C[gradoub [1k\]: merci
fantomas27 [1k\]: merci pour la partie

W+9,5])
(;B[eo];W[fm];B[fp];W[fq];B[fo];W[gq];B[fk];W[cm];B[fb]C[[kb\]: Very hard for Black now.]
))
(;B[dq]))
(;W[mi]C[White can play here directly.]))
(;W[lc]))
(;B[qf]C[[kb\]: You should certainly at least play this way...]

(;W[pe];B[oe];W[pd];B[li];W[qd]C[[kb\]: This looks good for Black - all the White center stones are captured.]
)
(;W[li];B[rg]
(;W[rf])
(;W[sj]C[[kb\]: White can't resist];B[si];W[sh];B[qh];W[oo]
;B[op];W[qg];B[rm]C[[kb\]: White can't save both groups]))))
(;B[mh];W[nk];B[oi];W[oj];B[pj];W[ni];B[oh];W[li];B[lh];W[mi]
;B[pq];W[pr];B[qr];W[or];B[qq]))
(;B[kp]C[[kb\]: This play is better];W[mo];B[mn];W[ln];B[nn]
;W[ko];B[nl]))
(;W[qk];B[pm];W[pl];B[ol];W[ql];B[om];W[ok];B[nk];W[oj];B[mq]
C[this was my plan

[kb\]: Yes, but White can live comfortably in the corner...]
;W[mr];B[lr];W[nr];B[lq]
(;W[rr])
(;W[qq])))
(;B[lq]C[[kb\]: This move is a strong attack because M3 is hard to counter-attack.]
;W[np];B[qq]))
(;B[ro]C[Maybe this move is better.]))
(;W[cd]C[[kb\]: This White move is better.]
(;B[gc];W[dc];B[db];W[cb];B[bc];W[bb];B[ec];W[dd];B[fd])
(;B[dc])
(;B[bc];W[fb];B[ec];W[fc];B[bd];W[be];B[dc];W[fd])))
