(;FF[4]GM[1]SZ[19]ST[2]CA[UTF-8]AP[SGFC:1.15]

PB[goodyear]
BR[8k]
PW[appleseeds]
WR[7k]
KM[0.5]
DT[2008-08-16]
PC[The KGS Go Server at http://www.gokgs.com/]
RE[B+Resign]
TM[600]
OT[5x30 byo-yomi]
RU[Japanese]

C[Hi, Thank you for reviewing my game. The opening was fairly balanced, but I got lost in the middle game and made a mess before finally resigning. I'm not particularly strong at any stage of the game, so any and all comments will be appreciated. Thanks!

-----

Interesting game... thanks. I don't think there were any themes for mistakes in this game for W, rather it just seemed like there were several points where a move was ineffective or led to a poor result. I've tried to highlight moves where both players could have made a better decision.]
;B[pp];W[pd];B[dp];W[ce]
(;B[pf];W[nd];B[qd];W[qc];B[qe];W[rc];B[qi];W[dc];B[jc]C[Good thought, but I'd prob go a little closer to the upper right group.

WIth K17, W gets to build upper right group while putting pressure on new B stone.]

(;W[gc];B[mc];W[nc];B[nb];W[ob];B[mb];W[md]C[At first I thought this was slow but now I like it =/]
;B[je];W[mg]C[I was trying to keep some pressure on the upper black group while also preparing to approach on the bottom

------------------

Not sure this move is so effective. Upper B/W group seems pretty strong to me. Approaching bottom sounds better.]
;B[cj];W[fq]C[i wasn't sure the best place to start on the bottom, but this seemed as good as any

---

Yep];B[eq]C[Weak response even with C10. I'd go w/ something normal like D6 or something fun like H3.]
;W[fp];B[cn];W[nq]C[i was planning to play k4 if black q6. if black played in the middle, like k3, then I would try to get some thickness on the right side and try to surround the lower middle area. that's how things played out, but i'm not sure it was a good decision.

-----

Yea this is "ok" - actually in a lot of handicap games, W will play this in an effort to play 'fast'. So if a high dan plays it in their handicap games, it should be fine.

I think this leads to complications though so in an even game I'll usually take the safer route w/ something like k4.]
;B[jq];W[qq];B[pq];W[qp];B[po];W[pr];B[or];W[qr];B[oq];W[qn]
;B[qo];W[ro];B[pn];W[qm];B[np];W[nr];B[os];W[mp];B[mq];W[no]
;B[op];W[lq];B[mr];W[lr];B[ns];W[jo]C[I prefer W M5 - B would be hard pressed to split W's groups since it needs to defend the O4 group.]
;B[lp];W[kp];B[mo];W[kq];B[fr];W[hq];B[gr];W[hr];B[cg];W[dr]
C[the next few moves from here played out as I expected. i had hoped that would make me strong enough to start poking around again at some of black's weaker groups elsewhere on the board, but it didn't work.

---

Yea it's a decent sequence.];B[er];W[ep];B[dq];W[do];B[co];W[di]
C[i had no idea where to go now. There aren't really any big territorial points now and i'm a little behind, so I was trying to prevent black from growing.

---

Yea, looks like W is slightly behind, and there are no spots that jump out, since pretty much every group is stable. Only B's R13 group could be considered weakish.

I think a lot of moves could be fine here, including the one you played. I'd also consider something like R9 or P8.]
;B[ci];W[dg];B[df]C[didn't expect this];W[cf];B[dh];W[eg];B[ef]
;W[eh];B[ch];W[ff];B[ei];W[dj]C[Can't salvage this stone (as W finds out) so F11 better.]
;B[fi];W[ee];B[dk];W[ej]C[Feels like W is trying to create something here... I don't see it and probably better to leave aji for later.]
;B[fk];W[el];B[ek];W[cl];B[dl];W[cm];B[dm];W[dn];B[en];W[eo]
;B[fn];W[cp];B[bp]C[this is what i had in mind when playing e10, but again, it didn't work. (noticing a trend...)]
;W[gh]C[i wanted to build some center-oriented strength with which to pressure the upper black group]

(;B[gd]C[I would do H18 if I wanted to support the upper B group.]
;W[hc];B[hd];W[ic];B[id];W[kd];B[jd];W[lc];B[lb];W[jb];B[kc]
;W[ld];B[kb];W[ib]C[Good sequence by W.];B[hg];W[gg];B[lf];W[mf]
;B[hf];W[kf]C[W's goals here (if cannot kill) is to surround in sente. Prefer something like K13. Make B spend a move for central eye, then another to secure upper eye.

This move kind of allows B some maneouvering.];B[ke];W[lg];B[le]
;W[jg];B[jf];W[kg];B[na];W[of]C[try to prevent a cut in sente]
;B[pg];W[qk];B[nh];W[gj];B[fj]
(;W[oh]C[no clue what i was trying to do here...];B[og];W[ng]
;B[oi];W[mh];B[ni];W[hh];B[lj];W[ol];B[gq]C[i missread this whole sequence and thought earlier in the game i would be ok if b tried to cut.]
;W[gp];B[hp];W[ho];B[ip];W[go];B[ir];W[nn];B[ln];W[ll];B[km]
;W[il];B[io];W[jn];B[jm];W[in];B[jk];W[ik];B[kk]C[Good thought by W but probably a little too late... B is connected and has a pretty safe victory now.]
;W[mk];B[mj];W[gl];B[hn];W[gn];B[hm];W[im];B[gm];W[fd];B[ig]
;W[ih];B[rj];W[sf];B[rf];W[sd];B[sg];W[rk];B[se];W[pe];B[fl]
;W[hl];B[fo]C[Thanks again for your help!])
(;W[rg]C[I _think_ W should be able to get out here...]
(;B[rf];W[ri];B[rj];W[qh];B[si];W[rh];B[qj];W[ph]C[Should be able to get out.]
)
(;B[rj];W[sd])))
(;B[gq];W[gp];B[hp]C[W will lose one group.]))
(;W[hc]C[Minor, but preferred.]))
(;B[dc]C[Normal is to approach a non 4-4 (or 3-3) stone first, but probably a minor point. The reasoning is that 4-4/3-3 points are 'stable', and the next move is not urgent. However 3-5 points are more urgent because it is worth a lot to complete the enclosure.]
))
