(;FF[4]GM[1]SZ[19]ST[2]CA[UTF-8]AP[SGFC:1.15]

PB[snowcar]
BR[2k]
PW[grosnez]
WR[2k]
KM[6.5]
DT[2008-09-24]
PC[The KGS Go Server at http://www.gokgs.com/]
RE[W+0.50]
TM[3000]
OT[5x30 byo-yomi]
RU[Japanese]

;B[pd]C[grosnez [2k\]: hello
snowcar [2k\]: hi
grosnez [2k\]: have a nice game];W[cp]C[snowcar [2k\]: gg];B[ep]
;W[gq];B[pp]C[g3 probably shouldn't be ignored.....]
(;W[dc];B[cq];W[dp]C[I didn't find D4 in Joseki, and not sure how to response to that move.


*this IS a joseki];B[dq];W[eq]
(;B[eo]C[this is NOT joseki

proper move is at b4];W[bq];B[fq];W[er];B[fr];W[cr];B[gp]C[Is the result at left bottom cornor acceptable for both B and W?]

(;W[nc];B[qf];W[jd]
(;B[jq]C[this move is strange
better to seal in W i think

or...at the very least...use better spacing on bottom (see 2nd variation)]
;W[qn];B[pk];W[on];B[np];W[rp];B[qq];W[rk]
(;B[qi]C[Is there a better move to help Q9 and the right top corner?

YES!];W[ce];B[cj]TR[ch][dn]SQ[mn]C[this move is odd.  it encourages w to play d6 area as well as d12 area and make double-wing formation in top left.  maybe you're thinking of them as something like miai...i guess i'll see how it plays out.

the squared point is also getting to be quite large.];W[mn]
;B[co];W[bo];B[do];W[dr]
(;B[bn];W[lq]TR[qc][pj][bm]C[hmmm....w seems to be gaining momentum and b has left lots of weaknesses behind (open top right corner, b7 connection, q10 cut, etc).]
;B[rq]
(;W[qp]C[bad move for w
instead. w should just develop outside thickness];B[lp];W[kq]

(;B[mq];W[kp];B[lo]C[this way of playing would be more effecting if m5 significantly weakens w's right group.]
;W[jp];B[iq];W[ip];B[hp];W[jn];B[ln];W[jl];B[gj];W[jj];B[jf]
C[It took me quite long time to select a good point here, and get no answer indeed. Finally put K14 based on my basic feeling. What should be kept in mind when handling this kind of situations?

k14 is both aimless and very complex.  I'm not sure how it will play out.  but...first i will say that this type of move kills a lot of aji at the top (remember you don't want w to solidify the top becaue you have several invasion points).  Furthermore, it starts to attack the k10 group but it seems like it is too far and k10 will have an easy time due to a lack of pressure.]
;W[hd]
(;B[ld]C[this move is bad idea.  if you really want to do something over here, why not q18?]
;W[lc];B[ll];W[lk];B[mm]C[w is happy to let you capture a stone while he makes shape in the middle]
;W[lj]
(;B[sp];W[rn];B[oc];W[nd];B[kl];W[kk];B[il];W[im];B[ik];W[jk]
;B[hm];W[hn];B[gn];W[ho]TR[jr]C[w is alive now.  do remember that w k2 also makes an eye!]

(;B[dd]C[not sure what you're thinking

a much better idea is in the variation.];W[cd];B[cc]C[overplay?]
;W[ec];B[ee];W[bc]TR[dd][ee]C[bad shape...and now the d16 cutting stone is useless]
;B[cb];W[bb];B[fc];W[fd];B[gd];W[gc];B[ge];W[fb];B[fe]C[I think the result at the left top corner is a fail to Black. Actually if white continue moves at c13 or c12, black gains nothing here. How to handle it better?

see the d18 probe idea];W[ql];B[cf];W[bf];B[cg];W[bg];B[ch]
;W[an];B[am];W[ao];B[cm];W[go];B[fn];W[hl];B[gm];W[hj];B[hk]
;W[gk];B[gl];W[ij];B[fk];W[hq];B[fp];W[ir];B[hr];W[jr];B[ob]
C[good timing];W[nb];B[na];W[ma];B[oa];W[lb];B[nf];W[po];B[op]
;W[lr];B[kd];W[kc];B[mr];W[ms];B[ns];W[ls];B[or];W[sh];B[rh]
;W[si];B[sj];W[rj];B[sg];W[ri];B[qg];W[if];B[hf];W[ig];B[hg]
;W[hh];B[gh];W[jg];B[ie];W[id];B[hi];W[ih];B[je];W[ke];B[kg]
;W[kf];B[he];W[kh];B[lg];W[le];B[lh];W[al]C[Here I didn't notice the importance of the left side.]
;B[bm]C[This is unfortunate....very large moves.];W[aj];B[bh]
;W[ah];B[ii];W[jh];B[bk];W[ak];B[gr]C[B is still in it....


End of comments.];W[nj];B[oi];W[mf];B[mi];W[nk];B[mg];W[ne]
;B[of];W[so];B[sq];W[ni];B[nh];W[pl];B[ok];W[ol];B[nn];W[nm]
;B[mo];W[bl];B[cl];W[ai];B[bi];W[ag];B[de];W[oj];B[pj];W[ji]
;B[gi];W[od];B[pc];W[oe];B[pe];W[km];B[ml];W[iq];B[nl];W[om]
;B[qk];W[hs];B[gs];W[is];B[li];W[kn];B[ko];W[jo];B[ki];W[qj]
;B[pi];W[sk];B[oo];W[es];B[bj];W[be];B[ed];W[fc];B[lm];W[me]
;B[mk];W[mj];B[kj];W[jm];B[fo];W[tt];B[tt]TW[aa][ba][ca][da]
[ea][fa][ga][ha][ia][ja][ka][la][ab][cb][db][eb][gb][hb][ib]
[jb][kb][mb][ac][cc][hc][ic][jc][mc][ad][bd][kd][ld][md][ae]
[af][sj][rl][sl][pm][qm][rm][sm][in][pn][sn][io][qo][ro][ap]
[bp][aq][cq][dq][jq][ar][br][kr][as][bs][cs][ds][js][ks]TB[pa]
[qa][ra][sa][pb][qb][rb][sb][qc][rc][sc][qd][rd][sd][qe][re]
[se][df][ef][ff][gf][pf][rf][sf][dg][eg][fg][gg][ng][og][pg]
[rg][dh][eh][fh][mh][oh][ph][qh][ci][di][ei][fi][dj][ej][fj]
[ck][dk][ek][gk][dl][el][fl][hl][dm][em][fm][cn][dn][en][mn]
[no][mp][nq][oq][pq][nr][pr][qr][rr][sr][os][ps][qs][rs][ss]
)
(;B[db]C[probe here.]
(;W[ec]
(;B[cc];W[cd];B[bc];W[eb];B[ca];W[bd];B[bb])
(;B[cg];W[hf];B[cc];W[cd];B[bc];W[eb];B[ca]C[or like this.]
))
(;W[cc])))
(;B[pm]C[you may be able to take a few more points this way]
))
(;B[pb]TR[lc]C[this move gains a lot and aims at this point]
))
(;B[kp]SQ[jm][kn]C[once you m4, you're kind of committed...
assuming w makes small life, you can play somewhere around L6/k7 and develop left/bottom/centralish moyo]
))
(;W[lo];B[ro];W[rn];B[qp];W[ch]C[b is behind in territory]))
(;B[lo]C[probably worth the investment....of course...it would have been even better had you gotten to play n6]
))
(;B[pm];W[pn];B[rl];W[ql];B[qk];W[rm];B[rj]C[and there you are]
))
(;B[co];W[bo];B[do];W[bp];B[de])
(;B[mq]))
(;W[dn]C[probably shouldn't tenuki...this move is very large and makes a b approach at d15 very pincer-able]
))
(;B[bp];W[eo];B[fp];W[er];B[cn];W[do];B[br];W[go]C[a joseki]
))
(;W[dn]TR[cp][gq]C[maybe you're thinking that you will give w one corner and take 3 for yourself?]
;B[dd];W[cf]C[hard to say if this is a sound strategy...but I would not mind playing as W to here.]
))
