(;FF[4]GM[1]SZ[19]ST[2]CA[utf-8]AP[SGFC:1.15]

PB[nadroj]
BR[8k]
PW[artboy598]
WR[8k]
KM[6.5]
DT[2008-09-17]
PC[The KGS Go Server at http://www.gokgs.com/]
RE[B+22.50]
TM[1800]
OT[5x30 byo-yomi]
RU[Japanese]

C[Hi I'll be your reviewer today, hope you find my comments useful]
;B[qd];W[dd];B[pq];W[dq];B[oc];W[qo]LB[qk:A]C[Something around A is also typical in this situation]
;B[qm];W[qq]
(;B[pp]C[artboy598 [8k\]: i don't have that long left, but not trying to rush you]
;W[qp]C[nadroj [8k\]: ok sorry
nadroj [8k\]: i play a little faster np
artboy598 [8k\]: thx, its not me, its my mom];B[po]
(;W[pr];B[or];W[qr]C[InsaneWaya [2d\]: if u 2 get done soon plz wait, im taking a shower, i'll be back asap, plz read when u r done xD]
;B[nq]
(;W[jp]C[The black stones are too strong for a meaningful attack so I think its more prudent to play more safely, lower and close to your corner stone. Around H3
Black can jump in the middle of your stones easily, because of his strength in the lower right so you don't want to jump too far]

(;B[gp];W[do]C[artboy598 [8k\]: I see you like to fight! :D]
;B[gn];W[jn]C[nadroj [8k\]: hmm
nadroj [8k\]: should have done teaching
nadroj [8k\]: so waya could comment
artboy598 [8k\]: yeah, but we can wait till after];B[kq];W[jq]
;B[kp];W[ko];B[io];W[jo];B[kd]C[rgame2011 [22k\]: d'mitri]
(;W[kr];B[lr];W[lp];B[lq];W[mp];B[lo];W[mn];B[km]C[artboy598 [8k\]: i thought you'd see that
artboy598 [8k\]: but I was scared my group would come under attack]
;W[lm];B[kn];W[kl];B[jm]
(;W[ln]C[InsaneWaya [2d\]: fear will only result in a lose]
;B[im];W[in];B[hn]
(;W[ho];B[ip];W[go];B[fo];W[hm];B[il];W[hl];B[ik];W[qn];B[pn]
;W[rm];B[ql];W[rl];B[qk];W[el];B[iq];W[jr];B[ml];W[ll];B[hk]
;W[fm];B[fn];W[mk];B[nl];W[li];B[lj];W[kj];B[mj];W[jj];B[hi]
;W[kh]C[artboy598 [8k\]: I hate running battles];B[jh]C[artboy598 [8k\]: I imagine 2 dragons fightin]
;W[jg]C[nadroj [8k\]: haha];B[ih];W[mi];B[nj];W[lg];B[kf];W[kg]
;B[ie];W[oh]LB[ng:A]C[they say shape first read later. A isn't very agressive but its stronger and safer]
;B[qg]C[artboy598 [8k\]: wild game, isn't it?];W[me]C[nadroj [8k\]: hmm yea]
;B[lf];W[mf];B[ng];W[of];B[og];W[pg];B[ph];W[pf];B[nh];W[oi]
;B[ni];W[if];B[hf];W[je];B[jf];W[ig];B[jd];W[hg];B[gf];W[gg]
;B[ff]
(;W[fh]C[too timid, see variation];B[fj];W[ei];B[ej];W[di];B[dj]
;W[df];B[fg]
(;W[gh];B[dg];W[cg];B[ch];W[dh]C[bad shape];B[eg];W[ci];B[bh]
;W[bg];B[cf];W[bf]C[artboy598 [8k\]: You have gotten better since the last time we played
nadroj [8k\]: i guess
nadroj [8k\]: you too
artboy598 [8k\]: really, Im not being nice
nadroj [8k\]: almost had you];B[cj]C[artboy598 [8k\]: yeah, I was scared]
;W[bi];B[dn]C[nadroj [8k\]: but you dont a have much territory
nadroj [8k\]: with that group
artboy598 [8k\]: you either with yours

> Might be better to give up a few stones an take territory]

(;W[en];B[eo];W[em];B[co];W[dp];B[cn];W[cl];B[cp];W[cq];B[bq]
;W[br];B[ap];W[fq];B[gq];W[gr];B[hr];W[er];B[gm];W[gl];B[gk]
;W[fl];B[dl];W[dm];B[cm];W[dk];B[bl];W[bk];B[ck];W[bm];B[dl]
;W[fp];B[hp];W[cl];B[lk]
(;W[kk]C[No need to play this, see variation];B[dl];W[id];B[he]
;W[cl];B[al];W[ak];B[dl];W[qh];B[cl];W[pi];B[qf]
(;W[qe];B[re];W[rh];B[rf];W[rk];B[fc];W[ec];B[fd];W[mc];B[lc]
;W[nc];B[pe];W[ld];B[lb];W[ob];B[pc];W[fb];B[gb];W[eb];B[no]
;W[mo];B[np];W[bj];B[ar];W[cs];B[gs];W[ep];B[fr];W[es];B[ed]
;W[de];B[pb];W[ii];B[hh];W[gi];B[hj];W[qj];B[pk];W[mr];B[mq]
;W[ls];B[nr];W[ms];B[ns];W[ks];B[nf];W[ne];B[oe];W[mg];B[ph]
C[artboy598 [8k\]: good move];W[pg];B[pf];W[ga];B[hb];W[ha]
;B[ia]C[nadroj [8k\]: waya];W[fa]C[nadroj [8k\]: is like hurry up
nadroj [8k\]: lol
artboy598 [8k\]: ok];B[jb]C[artboy598 [8k\]: quick end game]

(;W[cc]C[nadroj [8k\]: i am the one taking the time];B[nb]C[artboy598 [8k\]: this would have been a great tourney game]
;W[mb]C[nadroj [8k\]: i guess];B[oa]C[artboy598 [8k\]: that's like ur catch phrase]
;W[fs]C[nadroj [8k\]: i never played in one
artboy598 [8k\]: oh];B[gr];W[le];B[ke];W[nd]C[N19 bigger];B[ma]
;W[mh];B[ji];W[ki];B[ij];W[nn];B[on];W[ee];B[fe];W[oj];B[ok]
;W[nm];B[om];W[sg];B[pj];W[qi];B[rg];W[sf];B[se];W[sh];B[od]
;W[bs];B[ir];W[is];B[hs];W[lo];B[js];W[as];B[aq];W[is];B[ds]
;W[dr];B[js];W[ho];B[go];W[is];B[ph];W[ao];B[bp];W[pg];B[dc]
;W[db];B[js];W[ib];B[ic];W[is];B[ph];W[ja];B[ka];W[pg];B[js]
;W[ph];B[is]C[nadroj [8k\]: haha];W[ps]C[artboy598 [8k\]: its over now]
;B[tt];W[tt]TB[ob][qb][rb][sb][gc][hc][jc][kc][rc][sc][gd][hd]
[qc][id][pd][rd][sd][ge][je][qe][of][ii][dk][ek][fk][mk][nk]
[el][fl][gl][hl][ol][pl][am][bm][dm][em][hm][pm][an][bn][qa]
[en][ao][bo][ho][oo][op][hq][oq][ja][la][na][pa][fm][ra][sa]
[ib][kb]TW[aa][ba][ca][da][ea][ab][bb][cb][ac][bc][dc][ad][cd]
[md][ae][be][ce][af][cf][ag][ah][bh][ch][lh][ai][ri][si][aj]
[rj][sj][sk][sl][sm][rn][sn][ro][so][rp][sp][eq][sq][cr][rr]
[sr][ds][qs][rs][ss][rq][bd]C[nadroj [8k\]: gg
artboy598 [8k\]: thx for the game
nadroj [8k\]: thank you
artboy598 [8k\]: there yA GO WAYA
artboy598 [8k\]: waya?])
(;W[nb];B[dc];W[db];B[cc];W[cb];B[bc];W[bb]C[black needs stones at A and B before the cut becomes a threat]
))
(;W[pd];B[pc];W[mc]
(;B[hc])
(;B[rk];W[hc];B[hd];W[ic];B[gc];W[gb];B[fc];W[kb];B[lb];W[kc]
;B[lc];W[ld];B[mb];W[jc];B[ke];W[le];B[je];W[fb];B[mg];W[nc]
;B[nb];W[od];B[pe];W[oe];B[qe];W[rg];B[rf];W[rj];B[sl];W[rh]
;B[rn];W[ro];B[sm];W[ec])
(;B[lc];W[gc];B[hc];W[hb];B[ib];W[gb];B[ic];W[rk])))
(;W[al];B[kk];W[jk];B[jl];W[ir];B[no];W[mo];B[gs];W[fr];B[nn]
;W[is];B[mm];W[hs];B[np];W[ep];B[mq];W[lo];B[ks];W[fs]))
(;W[cn];B[dm];W[cm];B[eo];W[cp];B[dl];W[he];B[id];W[gc];B[gd]
;W[hc];B[hd];W[fd];B[mg];W[qh];B[pi];W[qi];B[oj];W[qf];B[nf]
;W[pd];B[pc];W[qe];B[od];W[oe];B[ne];W[rd];B[qc];W[rc];B[rb]
;W[sb];B[qa];W[jb];B[kb];W[ka];B[la];W[ja];B[lc];W[rk];B[qj]
;W[rj];B[rg];W[rh]))
(;W[gi];B[fi];W[gj];B[eh];W[gh]
(;B[gk];W[fl];B[fk];W[eg];B[dh];W[ci];B[ch];W[cj];B[ck];W[bh]
;B[cg];W[bg];B[cf];W[de];B[bf];W[bk];B[bj];W[bi];B[bl];W[aj]
;B[dl];W[he])
(;B[dh];W[gk]C[now if black doesn't take D and E11..];B[hd]
;W[ci];B[ch];W[cj];B[ck];W[bk]C[you get the idea])))
(;W[fi]
(;B[fk];W[ek];B[fh];W[gh];B[gi];W[fj]C[you really shoudn't be worried about black cutting you off you will win any capturing race]
)
(;B[fj];W[ej]
(;B[gi];W[fh];B[fk];W[ek])
(;B[ei]
(;W[gj];B[fh];W[gi];B[gh];W[hh];B[fk];W[eh];B[fl];W[em];B[gm]
;W[ek])
(;W[gi];B[ek];W[fk];B[dj];W[gj];B[gl];W[gm];B[gk];W[fl];B[dl]
;W[ej];B[no];W[mo];B[fj];W[em];B[dn];W[ej];B[dk];W[fj];B[co]
;W[cp]
(;B[bo]C[best result for black];W[en];B[eo];W[dp];B[dm];W[fp]
;B[hp];W[fq];B[gr];W[gq])
(;B[en];W[cf]))))))
(;W[ir];B[ks];W[ho]C[artboy598 [8k\]: g2g to sleep for school tomorrw, I'l have to put this on GTL]
;B[hp];W[ip];B[hq];W[go];B[fo];W[io];B[iq];W[mo];B[jr];W[lo]
C[nadroj [8k\]: f 7 now
InsaneWaya [2d\]: ok, will this woulda made B weaker]))
(;W[im];B[jl];W[il];B[jk];W[ln];B[in];W[ik]C[keep black stones seperated when you can. White stones can fight and/or run so no need to shy away]
))
(;W[dj]C[artboy598 [8k\]: hey
InsaneWaya [2d\]: better to focus on terretory while ur oppoent lets u

>Yup, your white stones at K5 are safe and this move extends your moyo and pressures black's 3 stones]
))
(;B[do];W[co];B[cn];W[cp];B[dm];W[fq];B[ci]C[artboy598 [8k\]: that what I also expected
InsaneWaya [2d\]: better >>]))
(;W[hq]
(;B[fq];W[do];B[fo];W[kq]C[the peaceful solution])
(;B[jq];W[dn])))
(;W[pn];B[qn];W[pr];B[or];W[qr];B[np];W[on];B[pk]C[InsaneWaya [2d\]: joseki
artboy598 [8k\]: k4
artboy598 [8k\]: next]))
(;B[qr]C[artboy598 [8k\]: that what I expected];W[pp];B[oq]
;W[rq]C[nadroj [8k\]: i was thinking it];B[mp];W[rr]
(;B[jq])
(;B[iq]C[InsaneWaya [2d\]: more proper])))
