(;FF[4]GM[1]SZ[19]ST[2]CA[UTF-8]AP[SGFC:1.15]

PB[pmurphy]
BR[7k]
HA[2]
PW[lempi]
WR[5k]
KM[0.5]
DT[2008-09-20]
PC[The KGS Go Server at http://www.gokgs.com/]
RE[W+42.50]
TM[1800]
OT[5x30 byo-yomi]
RU[Japanese]

AB[pd][dp]C[PM:  What can I say, I got trounced.  I'll point out any questions I had.

Hi PM!

I think that you have a good feeling and nice ideas when you play go. You only lack some basic skills concernig reading ability and life and death : do more life and death and tesuji problems! As much as you can! And you will get stong soon, I promise!

Regards
Killgo];W[pp];B[cd];W[ed];B[ec];W[fc];B[dc];W[gd];B[cg];W[kq]
LB[qn:A]TR[nq]C[PM:  White's move here seemed wide to me.  Instinctively I wanted to play the point I marked with a trangle, but played "A" instead.]
;B[qn];W[ql];B[qq];W[qp];B[pq];W[oq]C[W plays an overplay here. You have to punish it.]

(;B[or];W[nr];B[op];W[nq];B[rp];W[oo];B[qo];W[po]
(;B[np]C[big mistake here];W[ro];B[rq];W[rn];B[pn];W[qm];B[om]
;W[no];B[mp];W[mo];B[pr];W[lp]C[ouch];B[qf];W[ok]
(;B[cn];W[fq]
(;B[dr]C[too passive.];W[nc];B[ld];W[ne];B[ic];W[hc];B[id];W[hf]

(;B[qi];W[ng];B[oi];W[lf]
(;B[oc]C[here you make your upper group weaker: almost dead already]
;W[od];B[pc];W[nb];B[lb];W[ke];B[hb];W[gb];B[ha];W[kc];B[kd]
;W[lc]
(;B[mc];W[md];B[mb];W[kb];B[me];W[nd];B[le];W[jd]C[PM:  At this point i figured my group on the top was sunk.

Very hard game for B now :-(];B[ck];W[ci];B[dh];W[dj];B[dk]
C[PM:  Better way to handle this?]
(;W[ej];B[fo];W[ep];B[eo];W[dq];B[cq];W[eq];B[do];W[gp];B[gs]
LB[cr:A]C[PM:  I forgot the monkey jump doesn't work because of the cut at "A"

Indeed];W[er];B[cr];W[fs];B[fk];W[ek];B[el];W[fj];B[gk];W[gj]
;B[rk];W[nm];B[ob];W[mk];B[mi];W[hn];B[go];W[ho];B[gm];W[oa]
;B[pa];W[na];B[hm];W[im];B[hk];W[il];B[hj];W[fh];B[ee];W[fe]
;B[ef];W[hi];B[jj];W[bi];B[bh];W[al]C[Hmm. Now the game is over. W has only strong group and secure points and is more than 40 pts ahead.]
;B[bl];W[ak]LB[am:A][bm:B]C[PM:  Stronger kyus always pull this on me.  I felt like I should have played "A" but whenever I do that I get cut at "B"]

(;B[bj];W[aj];B[bn];W[an];B[ao];W[am];B[bo];W[qg]
(;B[rg];W[rf];B[re];W[rh]C[PM:  Sneaky..could I have avoided this?]
;B[sg];W[qh];B[og];W[pf];B[qe];W[pg];B[pe];W[oh];B[lj]C[ouch]
;W[pi];B[pj];W[oj];B[ph];W[nh];B[ni];W[pi];B[mq];W[mr];B[ph]
;W[bf];B[ah];W[ai];B[pi];W[of];B[kl];W[kn];B[ii];W[ih];B[hh]
;W[gi];B[jh];W[ig];B[jg];W[jf];B[lg];W[sp]
(;B[sq]C[you have to respond with s2];W[rr]C[PM:  I couldn't see a way to make life after this, so I treated it lightly.  White threw some more stones in there, I used the opprotunity to play elsewhere, but the fact that white kept attacking it makes me think I could have lived.

You can make a ko. :-)]
(;B[sm];W[rm]
(;B[sl];W[qr];B[pk];W[pm];B[ol];W[on];B[nk];W[nl];B[nj];W[os]
;B[mf];W[mg];B[kf];W[je];B[ri];W[sh];B[sf];W[si];B[sj];W[lh]
C[PM:  Totally misread this]
(;B[mh];W[nf];B[fg];W[gg];B[eh];W[ff];B[cj];W[di];B[lm];W[ln]
;B[ml];W[mm];B[ll];W[eg];B[dg];W[de];B[df];W[ce];B[dd];W[fd]
;B[be];W[ch];B[bg];W[eb];B[db];W[fb];B[kg];W[lf];B[jm];W[jn]
;B[jk];W[ik];B[ij];W[jl];B[km];W[hl];B[gl];W[in];B[gn];W[pl]
;B[ok];W[qk];B[qj];W[sn];B[rl];W[da];B[ca];W[ea];B[cb];W[bm]
;B[cm];W[bk];B[cl];W[ds];B[cs];W[es];B[fp];W[gq];B[fg];W[ei]
;B[eg];W[tt];B[so];W[tt];B[qs];W[tt];B[tt]TW[fa][ga][ha][ia]
[ja][ka][la][ma][hb][ib][jb][lb][mb][gc][ic][jc][mc][hd][id]
[kd][ld][ge][he][ie][le][me][gf][if][mf][hg][og][gh][hh][fi]
[mn][nn][pn][qn][io][jo][ko][lo][qo][so][hp][ip][jp][kp][mp]
[np][op][rp][sp][hq][iq][jq][lq][mq][pq][qq][rq][sq][fr][gr]
[hr][ir][jr][kr][lr][or][pr][sr][gs][hs][is][js][ks][ls][ms]
[ns][ps][qs][rs][ss]TB[aa][ba][qa][ra][sa][ab][bb][pb][qb][rb]
[sb][ac][bc][cc][qc][rc][sc][ad][bd][qd][rd][sd][ae][ce][de]
[se][af][bf][cf][rf][ag][kh][lh][ji][ki][li][kj][mj][oj][rj]
[kk][lk][mk][sk][dl][fl][dm][em][fm][dn][en][fn][co][ap][bp]
[cp][aq][bq][ar][br][as][bs]C[PM:  Thanks for the review, let me know what you think!]
)
(;B[lf];W[nf];B[kg];W[kh];B[ji];W[mh]C[PM:  I could have saved them this way I think, but white was so far ahead it wouldnt have made a difference.

Agreed]))
(;B[rs]
(;W[os];B[sr]C[alive])
(;W[qs];B[sr];W[ss]C[ko])
(;W[ss];B[sr]C[alive])))
(;B[rs]C[like this];W[qs];B[sr];W[ss];B[je];W[mf];B[rs]C[and so on...]
))
(;B[rr];W[qs];B[rs]C[alive]))
(;B[pg]C[a bit better this way];W[pf];B[of]
(;W[ph];B[og]
(;W[oh];B[qh];W[nh];B[pi];W[oe];B[pe];W[nf];B[rg])
(;W[pi];B[qh];W[pj];B[oh];W[qk];B[rj]))
(;W[og];B[ph])))
(;B[am]C[What do you fear here?]
(;W[bm];B[aj];W[an];B[bk];W[am];B[bj];W[bo];B[bp]C[nothing happends : W is dead]
;W[cm];B[dm])
(;W[bj];B[bk];W[aj];B[bm])))
(;W[fj]C[This is the shape :-)]))
(;B[md]
(;W[mc];B[nd];W[oe]
(;B[je];W[jb];B[ib];W[jc];B[jd];W[jf];B[ob];W[he];B[na];W[ma]
;B[oa];W[ga];B[ja];W[ka];B[ia];W[hd];B[kb]C[W dead])
(;B[jc];W[jb];B[ib];W[kb];B[ob];W[la];B[ja];W[je];B[jd];W[ie]
;B[hd];W[gc];B[na];W[ma];B[oa];W[he];B[ia];W[ga];B[ka]C[W dead]
)
(;B[bg]))
(;W[nd];B[mc]C[alive])))
(;B[lb]C[Now you must live]))
(;B[lf]C[this move has 2 purposes : take care of your upper group and attacking the 2 W stones. The B group on the upper right is not endangered so you don't have to defend it: defend your weak groups first^^]
))
(;B[hc]C[you are already behind. So you have to attack hard ^^]
))
(;B[fq]C[here you limit his potential and you extend your : better]
))
(;B[rq]C[you must protect the cut];W[pm];B[fq]C[a promising game for B]
))
(;B[rq]
(;W[rp];B[op];W[oo];B[np];W[pn];B[nq]C[terrible for white...]
)
(;W[op];B[rp]C[Now the r8 stone looks silly ^_^])))
