(;FF[4]GM[1]SZ[19]ST[2]CA[UTF-8]AP[SGFC:1.15]

PB[mafutrct]
BR[2d]
PW[naka]
WR[1d]
KM[0.5]
RE[W+1.50]
RU[Japanese]

C[Dear reviewer,
thank you very much for your time.
This is a game i played recently as black. Komi is 0.5.
I added some variations and questions so you can see my way of thinking.
I would be very happy if you could comment on them and show me better moves.

FM: hello, my name is Martin and my comments will begin with FM: as my nick is Field Mouse.]
;B[pd];W[qp];B[dp];W[dd];B[oq];W[lp];B[pm];W[po];B[mo]C[I am not really familiar with this black move. Could you show me a few common variations?]
;W[lo];B[mn]
(;W[mp]C[FM: this white move looks like the shapepoint, but is probably not very good. White wants to force black to connect his stones while protecting the corner]

(;B[np]C[FM: this move looks natural, I think its ok];W[oo]
LB[om:A]C[FM: better to play A directly, leaving more aji];B[no]
;W[om]LB[pk:B][pl:A][ln:C][on:F][ip:E][qr:D]C[The game move is E, but i thought about A-D, too. Where would you play?

FM: D and F are the main white weaknesses black should aim at - I would strenghten the lone stone at A or B]

(;B[ip]C[FM: too hasty];W[jo]
(;B[km]LB[ml:B][io:A]C[I this the vital point?

FM: This move tries to attack white too much, but doesnt cause white real trouble. Just playing simply A or B was better.]
;W[io]
(;B[hp];W[im]
(;B[fd]C[Ladder breaker.];W[cf]
(;B[ol];W[nm];B[on]TR[ol]C[Is this a good move?

FM: I think if white defends correctly, he comes out with the upper hand - black marked stone was a mistake.]
;W[pn];B[nn]
(;W[nl];B[pl]C[FM: black is happy to connect here]
(;W[pq]
(;B[nk]C[I was very happy to play here.]
(;W[nc];B[pf];W[pb];B[jk]C[This move captures white 3 stones, attacks white bottom group and expands the black moyo. It also induce black to play F4 fix.

FM: black is very happy with this];W[gn];B[fp];W[hk]TR[jk][gn]
[fp]C[FM: the marked sente exchange is a reason for a small celebration]
;B[qc]LB[kc:A][lc:C][oc:E][ld:B][nd:D]C[My idea was that after A-B-C-D-E the black moyo is big. Is this a good idea?

FM: This move is ok, black is in the lead now];W[kc];B[ld];W[lc]
;B[nd];W[fc]LB[ec:A][gc:B]C[I did not expect this move. How should black answer?

FM: there are two basic answers for this kind of shape: A and B]

(;B[oc]LB[mc:A][kd:B]C[Is this aji-keshi?

FM: giving up the A move makes B much bigger now - you should play this move only if you want to continue at B.]
;W[nb];B[ii]LB[kd:B][gj:A]C[My idea was that A and B are miai now.

FM: after white naturaly answers at B, this move and A won't be really big.]
;W[kd]
(;B[gj];W[le]LB[kq:A]TR[kd][ii][gj]C[I did not expect this move. How should black play now?

FM: this move is extremely huge. If black cannot get any compensation by attacking white now, the marked exchange was a huge loss. To start an attack, I think A is good now, it is locally quite big and efficiently removing white eye base on the side, forcing him to run away - black hopes to chase white a bit and take some profit on the left.]

(;B[el]C[FM: if white doesn't die, this move is not worth much]
;W[jp]
(;B[dg]C[FM: forcing white to take points on the side, white not building much]
;W[cg];B[dh]
(;W[ci]C[Is this an overplay?

FM: usualy white plays more solidly, there are very bad aji left in the corner now]
;B[ch];W[bh];B[bg];W[bj]C[FM: although this shape looks natural, it actualy is very bad. White should be always very careful when playing this tiger mouths]
;B[ah];W[bi]
(;B[ce]C[FM: black needs a little preparation first];W[de];B[df]
;W[bf];B[be];W[ag];B[cc];W[dc];B[cb];W[db];B[cd];W[gd]C[Is this result ok for black?]

(;B[ae]C[This move is very stupid. The corner is already alive!

FM: actually, it was a thousand year ko shape];W[di]C[Now the black 4 stones feel bad.]

(;B[ei];W[ej];B[fi]C[Black has bad shape.];W[fg];B[ff]C[This and the next few black moves are very very stupid.

FM: just simple connecting at E12 was enough here];W[gf];B[gc]
;W[fe];B[ef]
(;W[gg];B[ee];W[ed];B[eh];W[fk];B[he];W[ge];B[gk]C[I played this and the next 2 moves to assure the connection of the black group.]
;W[fl];B[gl];W[fm];B[mg];W[cq]
(;B[dq]
(;W[dr];B[er];W[br];B[ds];W[cr]
(;B[cp];W[bp];B[bo];W[aq]
(;B[md];W[kf];B[je];W[ke]
(;B[ig];W[kh];B[jg];W[kg];B[mi];W[kj];B[ji];W[ki];B[il];W[kk]
;B[kl];W[jm];B[jl];W[mk];B[gm]C[I think after this move, black is alive (in sente).]
;W[fo]LB[fn:A][co:B]C[FM: better to connect at A, so that white can continue at B.]
;B[nj]
(;W[ll]C[FM: is black is already alive, just protecting these three stones in gote is small]
;B[lm];W[ml];B[en];W[fn];B[eo];W[qm];B[ql];W[rm]
(;B[mq]C[I suddenly became unsure of the life of the black center group, so i played here to ensure life. I think this is a game-losing move.

FM: unfortunately, not answering the S7 move is about twenty points loss]
;W[lq];B[mr];W[rk];B[qj]
(;W[rj]
(;B[rl]LB[ri:A]C[I misread black S11. Very stupid >_<];W[sl]
;B[ri]C[This is impossible....
I think this is the final game losing move.];W[qi];B[rh];W[pj]
;B[qh];W[pi];B[ok];W[qk];B[ob];W[ph];B[pg];W[nh];B[mh];W[ng]
;B[mf];W[me];B[nf];W[ne];B[oe];W[oa];B[ic];W[mj]
(;B[ni];W[hc];B[hd];W[gb];B[hb]C[I felt behind, so i played ko. There was byoyomi pressure, so all the moves are (even) worse now.]
;W[ib];B[gc];W[ca];B[ba];W[hc];B[jb];W[id];B[gc];W[da]
(;B[ab];W[hc];B[dk];W[dj];B[gc];W[bc]
(;B[ac]C[FM: this black missed the last chance to defeat white easily. From now the endgame begins. I hope you liked my review and I wish you many enjoyed games!]
;W[hc];B[ia];W[jd];B[gc];W[bb];B[bd];W[hc];B[jc];W[kb];B[gc]
;W[bb];B[hc];W[aa];B[af];W[bg];B[ba];W[ie];B[bc];W[fb];B[hf]
;W[hg];B[if];W[ga];B[pr];W[qr];B[or];W[em];B[qs];W[rs];B[ps]
;W[rr];B[dm];W[iq];B[hq];W[ir];B[bl];W[hr];B[gr];W[qb];B[rb]
;W[pc];B[rc];W[od];B[oc];W[hi];B[hj];W[gi];B[fj];W[ek];B[kr]
;W[lr];B[ls];W[dl];B[cl];W[ck];B[ms];W[kq];B[jr];W[jq];B[od]
;W[ob];B[bm];W[gs];B[fr];W[hm];B[hl];W[oh];B[ao];W[ap];B[qa]
;W[jj];B[ij];W[kn];B[pk];W[gp];B[gq];W[go];B[ho];W[hn];B[mc]
;W[mb];B[op];W[pp];B[og];W[sm];B[cs];W[bs];B[es];W[jf];B[li]
;W[lj];B[bk];W[ak];B[al];W[aj];B[ka];W[la];B[ja];W[ra];B[sa]
;W[si];B[sh];W[sj];B[ep];W[fd];B[tt];W[tt]TW[ea][fa][ma][na]
[eb][lb][ec][je][ah][ai][cj][dk][lk][el][in][jn][qn][rn][sn]
[ko][qo][ro][so][kp][rp][sp][bq][qq][rq][sq][ar][sr][as][ss]
TB[aa][bb][ib][sb][sc][ad][qd][rd][sd][pe][qe][re][se][qf][rf]
[sf][qg][rg][sg][hk][ik][am][cm][an][bn][cn][dn][co][do][eq]
[fq][nq][nr][ns][os]C[I lost by 1.5 points.

Thank you very much for reviewing!])
(;B[bb]C[better, i think.]))
(;B[hc]LB[ma:A][bb:B][eb:C]C[FM: this, A and B are miai: white will protect his group, black will connect at B and white will have to play the ko at C.]
))
(;B[gb]C[FM: gameover]))
(;B[rh]C[FM: optimal]))
(;W[ri]C[FM: white can continue like this]))
(;B[rl];W[mr];B[gh]C[FM: looks alive]))
(;W[eo]C[FM: white should play this];B[gp];W[hm]LB[hl:A][co:B]
C[FM: A,B are miai]))
(;B[kh]LB[ig:A][co:B]C[This move is easy and probably better.

FM: I agree. Now white gets A and black protects B];W[ig]C[I think black is ahead by at least 10 points.]
))
(;B[kg]C[FM: bigger]))
(;B[bp]C[FM: a nice chance for black];W[cp];B[co];W[do];B[bo]
;W[eq];B[ep];W[fq];B[fr];W[gq];B[gr];W[hq];B[iq]C[FM: white is doomed]
))
(;W[cp]C[FM: white should just happily play this];B[co];W[bo]
;B[bn];W[bp];B[cn];W[dr];B[er];W[cr]))
(;B[cp];W[bp];B[bo]C[FM: this is more common, enclosing white in a better way]
))
(;W[eh]C[White should just play here.

FM: sure]))
(;B[co]LB[mg:A]C[Maybe this is better. The black 4 stones are not very important.

FM: true. Also A is quite big]))
(;B[ge]LB[he:A]C[Is this possible?

FM: white would answer this with A])
(;B[di]C[The vital point?

FM: locally yes, but is not very big and just forces white to live on the side]
)
(;B[tt];W[bb];B[ba];W[bc]C[FM: white gets ko here];B[ab];W[ac]
;B[ae])
(;B[bl]LB[ae:A]C[FM: If black is not afraid of the ko, this move is good, slightly threatening white's eyes because of the A possibility and enclosing the side.]
))
(;B[ec]C[FM: time to cut here]
(;W[ed];B[ce];W[de];B[df];W[bf]
(;B[cd];W[dc];B[af]TR[ah]C[FM: because of the tiger mouth and the marked stone, black can play this. If white loses the ko, his shape goes to hell]
)
(;B[dc]C[FM: if black doesn't want to play ko, this response is also strong]
))
(;W[dc];B[gc]LB[cb:A]C[FM black has nothing to complain about here and still there is some possibility to play at A]
)))
(;W[ch];B[di];W[cj]C[Better?

FM: it is]))
(;B[ch]C[Better?

FM: yes]))
(;B[kq]C[Is this possible?]))
(;B[le];W[gi]LB[kd:A][gi:B]C[I think this is bad for black, because white got to play both A and B.]
;B[jf]C[FM: still the game is ok]))
(;B[ec];W[ed];B[dc];W[cc];B[fb];W[gc];B[cb];W[bb];B[db];W[cd]
;B[gb];W[hc];B[hb];W[ic]C[FM: black lives])
(;B[gc];W[ec];B[kd]C[FM: black is fine now]))
(;W[ml]C[If i read correctly, white can play here. What will happen next? I do not see a way to capture white. :(

FM: me neither, this is very strong resistance from white];B[lm]
;W[mk];B[nj];W[kk];B[jl];W[li]C[FM: I think this result can be expected]
)
(;W[fp]C[If white plays here, what can black do?]
(;B[fo];W[go];B[fq];W[eo];B[fn];W[gp];B[gq];W[ep];B[eq];W[en]
C[FM: one possible resistance - black gets points, white gets a nice strenght]
)
(;B[go]C[FM: the fighting response, in a game I would chose this one]
;W[fo];B[gn];W[fn];B[gm];W[ik]C[FM: now the result depends if this is sente or not]
;B[cn];W[ml];B[lm]LB[ok:A][dm:B]C[FM: there are six potentially weak groups, this will be interesting. I think white has a choice of A and B now.]
)))
(;B[pj]C[FM: less direct attacking is better, it leaves your positions less vulnerable and white has to defend anyway]

(;W[mk];B[kl])
(;W[nk];B[ll])))
(;W[nk]LB[qr:A]C[I was a bit unsure about this move. Is this possible?

FM: This gives black a chance to strenghten his group by playing at A and is a bit risky. White game move was good enough.]

(;B[pi];W[pr]C[Black has bad shape.])
(;B[qr];W[pj];B[rn];W[ro];B[qn]C[FM: this looks dangerous for white]
)))
(;W[pl];B[qm];W[nl]
(;B[ok];W[ql]C[FM: this looks like a problem for black])
(;B[ql];W[ok];B[qj];W[pq]C[FM: black would probably have to chose this variation]
)))
(;B[ml]LB[pk:A][ml:C][ol:B]TR[im][km]C[FM: because of the marked exchange, black feels uneasy to run away with his lone stone with A - white B and C would hurt. So black should just calmly strenghten his group before doing anything else, waiting for what white will do]

(;W[pl];B[pk]C[FM: black can continue for example like this]
)
(;W[ol];B[qj]C[FM: black can play like this and is ok])))
(;B[gn]LB[fp:A]C[Is this possible?

FM: Protecting the hole is good, but when playing in this area, I would prefer A to make more points and more solid position. Now, after white manages to run away with his group, he can easily enter sansan or play tsuke in the lower left corner]
))
(;B[gp]LB[im:D][ho:C][hp:A][iq:B]C[I think this black move is a mistake. But i dont know: Will white play at A or at B next?

FM: This black move actually looks quite nice, leaving black less vulnerable to attack, though letting white some forcing moves. Now white doesnt know what he wants to play - A, B or C - so just jumpping at D is natural now.]
))
(;B[io]LB[pk:A][pq:B]C[Is this move better?

FM: if something like the A-B combination was already played, then this move would be excellent. Still it is pretty good]
;W[km];B[ml];W[pl];B[lk]C[I think black is slightly better. What do you think?

FM: black probably is sligtly better, though white still has fair chances]
))
(;B[pl]C[I think this is too heavy.

FM: this looks possible])
(;B[pk]C[I have no idea what will happen now. Could you show me a few possible moves here?


FM: white is quite in trouble now]
(;W[ol];B[pl];W[on];B[ml]LB[qr:A]C[FM: this position is definitely not bad for black and A is still there]
)
(;W[hq];B[qr]C[FM: another possibility, white is having hard time again]
)
(;W[pq]
(;B[ln];W[hq];B[ol];W[nm];B[ml]C[FM: safe way - black is strong and ok now]
)
(;B[ip]SQ[mk][ml][mm][in][io]C[FM: fighting spirit. Black will try to get the marked lines, which would be an excellent result]
)))
(;B[ln]C[This move looks natural, but i think it is not very good.]
;W[hp]C[Maybe white can extend to here. I do not see a really good move for black now.]

(;B[jp]C[I think this black move is not possible.];W[jo];B[io]
;W[ip];B[ko];W[kp];B[jn];W[jq];B[jo];W[mr]C[I do not like black here.]
)
(;B[fq]C[This black move feels a bit slow.];W[gq];B[fp];W[hn]
C[I think white is better, locally.]))
(;B[qr]C[Maybe this is the best move.];W[pl];B[ip]C[I think this is fine for black.]
))
(;B[oo]C[I thought about this move. Is this possible?

FM: your game move was better I think]
(;W[np];B[op];W[no];B[on];W[nn];B[nm]C[I think black is fine here.

FM: black is very happy with this])
(;W[on];B[no];W[pn]C[FM: this position looks like a very hard fight. Probably its possible]
;B[qq];W[rq];B[rr]LB[pq:A][nr:D][pr:C][qr:B]C[Maybe this is ok for black.

FM: black could not invade the corner like this - A-B-C, aiming at the connection at D, would give white a good result]
)))
(;W[pq]LB[ln:A]C[FM: this lis the joseki move here. Now black A seems natural, building the side]
))
