(;FF[4]GM[1]SZ[19]AP[SGFC:1.15]

GN[kanegawa-Barcarolle 2008/10/09]
PB[Barcarolle]
BR[9k]
HA[0]
PW[kanegawa]
WR[9k]
KM[0.5]
DT[2008-10-09]
PC[PANDA NET]
RE[B+0.50]

C[Hello!
As black, I would like to know where I could have played better moves.
Thank you for reviewing my game!
Jeremy W];B[pd];W[dp];B[pp];W[dd];B[fc];W[hc];B[cc];W[dc];B[cd]
;W[de];B[db];W[eb];B[cb];W[ec];B[cf];W[dg];B[cg];W[dh];B[fb]
C[Perhaps too soon but I wanted to experiment.];W[ea];B[fe]
;W[ce];B[be];W[df];B[mc];W[kc]
(;B[kd];W[jd];B[ke];W[je];B[pj];W[kf];B[fq];W[bh];B[dn];W[da]

(;B[bg];W[ag];B[ba];W[ab];B[bc]LB[af:A]C[again there is absolutely nothing wrong just by blocking]
;W[ae];B[af];W[bf];B[ad];W[ch];B[af];W[en];B[ae];W[ac];B[eo]
;W[do];B[fo];W[cn];B[dm];W[cm];B[dl];W[cl];B[fl]LB[cq:A]C[the result from this sequence look favorable for black, since black got a pretty wall and white still left weakness at 'a'
good job];W[nq];B[or]C[nice];W[kq];B[iq];W[ko];B[no]C[Proper attacking move?

this look okay,];W[qk]C[i'll be happy if my opponent play this way, since white hvn't settle his group at bottom centre, yet she trying to create another group, whatever result will therefore not good for her]

(;B[qj];W[pk];B[qm]C[Is there a stronger response?
this move look okay];W[oj];B[pg];W[pi];B[qi];W[ph];B[qh];W[og]
;B[pf];W[oi];B[qd]C[this is solid move];W[pm];B[qn];W[pn];B[po]
;W[oq];B[pq];W[nr];B[pr];W[mp];B[ok]
(;W[ol];B[nk];W[nl];B[mk];W[ml];B[lk];W[ll];B[kk];W[nh];B[kl]
;W[ln];B[mg]TR[kk][lk][mk][nk][ok]C[good , now you can see that thickness is very usefull for attack, you can get this because white has too many weak group to protect.
in same situation try building thickness by attacking 1 group, then attack with the thickness you just build so that other group will surely suffer.
this method has a drawback if they ignore your move then your whole plan will be in ruin. so make sure you can get enough compensate if they ignore your move. this often involve life and death problem so alot of practise will definitely improve your strength and also your planning.]
;W[mh];B[lh]
(;W[li];B[kh];W[ng];B[mf];W[ki];B[ji];W[nj];B[mi];W[jh];B[kj]
;W[lg];B[lj];W[of];B[me]LB[ne:A]C[what about a];W[od];B[oc]
;W[nd];B[md];W[nc];B[ob];W[nb];B[mb];W[oa];B[pb];W[kg];B[oe]
;W[ne];B[pe];W[nf];B[ma];W[ih]C[anyway the result is good for black]
;B[ql];W[pl];B[rk];W[dk];B[el]LB[ek:A]C[i can see that you think you leading, so you are playing safely, but this kind of move should be instictive since this move make a good shape]
;W[er];B[fr];W[eq];B[in]C[yup];W[jr];B[ir];W[fj];B[mn];W[km]
;B[jm];W[jn];B[jo];W[kn];B[io];W[mo];B[hj];W[gi];B[hi];W[hh]
;B[gj];W[fi];B[ek];W[ej];B[kb];W[jb]LB[lc:A]C[again 'a' should hv been the most natural responds]
;B[lb];W[ka];B[ni]C[1 point for white and white got sente];W[ii]
;B[ij];W[fk];B[gk];W[fs];B[gs];W[es];B[ep];W[cq];B[js];W[ks]
;B[is];W[jp];B[jq];W[kr];B[ip];W[nn];B[on];W[mm];B[kp];W[lp]
;B[ns];W[ms];B[os];W[lr];B[om];W[nm];B[oo];W[im];B[jl];W[fn]
;B[gm];W[gr];B[gq];W[hs];B[hr];W[gs];B[hm];W[lc];B[ld];W[jc]
;B[na];W[lf];B[oh];W[jf];B[la];W[ja];B[jp]C[I would like to know general areas that I could improve in (of course in addition to the life and death in the corner) and better moves I could have made. Are there any books you recommend?
Again, thanks for reviewing my game!
Jeremy W
j3r3mee@yahoo.com

generally you like to play safe,which is also pretty much my style. you still lack of instict for good shape. and always remember to think of hane or block first in life and death situation. also if you meet player that like to play wild just play safe which is your style and slowly they will fall on their own.

Lee Changho is a brilliant master that like to play simple, you can have a look for his game for fun and practise simple life and death so you wont fall for tricky player trick. and also try to count how much you lose and how much you gain during yose since you lose quite alot of points there.

cheers 
hv fun playing go])
(;W[lg];B[mf];W[li];B[kh];W[ki];B[jh];W[ji];B[ih]))
(;W[nk];B[ol];W[nl];B[om];W[nm];B[on];W[lj]C[black would be still leading]
))
(;B[pk];W[qm];B[pm];W[pl];B[ol];W[ql];B[pn];W[ri];B[lp]TR[fl]
[ol]C[my tactic is to make wall and start attacking]))
(;B[ca]C[i think you can block directly
get corner mean guarantee 1 eye]
(;W[bg];B[bf];W[ad];B[bc])
(;W[ac];B[ad];W[bc];B[bb])
(;W[af];B[bf];W[ad];B[bc])))
(;B[id];W[ic];B[kd]C[if you want to build a wall, you can think of this way]
))
