(;FF[4]GM[1]SZ[19]ST[2]CA[UTF-8]AP[SGFC:1.15]

PB[Deterius]
BR[11k]
HA[3]
PW[siori]
WR[8k]
KM[0.5]
DT[2008-10-27]
PC[The KGS Go Server at http://www.gokgs.com/]
RE[W+Resign]
TM[600]
OT[5x20 byo-yomi]
RU[Japanese]

AB[pd][dp][pp]C[Hi,

the game is beween siori [8k,kgs, wight\] and me, Deterius [11k, kgs, black\].

I am from Germany, so I appolygise for my poore English.
siori dominated the game from the begining and there are some possitions I was sure I survie withe he killed in the end.

By the way, thise is my first request for a review.

Thanks for your help
Deterius


Hi

I am Peter from germany too. So your english is not worth than mine.
I am a local 1k. So don't take my advice as the truth. I can give you only some hints.
I will prefix my comments with g4 - go4fun is my nick on kgs.

Thanks for the opportunity
Peter




Deterius [11k\]: hi
siori [8k\]: hi];W[dc]C[Deterius [11k\]: gg];B[cm];W[jq];B[mq]
;W[gq];B[eq]C[g4: good];W[qj];B[qm]C[g4: This leaves te corner unprotected. If you want to play there R5 secures the corner virtually.]
;W[pf];B[nd];W[lc];B[mc]C[g4: Attaching makes both groups stronger. Do you want to make white stronger here?]
;W[ld];B[fd]C[g4: If you want to attack the 2 stones, a move around J16 or J17 seems appropriate. But this fight seems unreasonable to me. White has allies at Q14waiting.]
;W[hc];B[de];W[cd];B[ce];W[be];B[bf];W[bc];B[di]C[g4: First A15! I think white has to respond. I he does not your group is very strong.]
;W[re];B[rd];W[qe];B[qd];W[qq]C[g4: Now white takes the corner.]
;B[pq];W[qp];B[qo];W[pr];B[or]
(;W[qr]C[g4: This doesn't work. see var];B[rp];W[oq];B[op];W[rq]
;B[ro];W[rs];B[sr]C[Here I was very sure the W group is dead and the corner is mine.]
;W[sq];B[ps]C[g4: White is dead. Game over. P3 involves a ladder so you have to be carefull.]
;W[po];B[oo];W[pn];B[qn];W[pm];B[pl];W[om];B[ol];W[nm];B[oj]
C[g4: As you lead, I would prefer the contact play at R9. Your group is alive then and you can attack without caring for the live of your group.]
;W[qh]
(;B[fb]C[g4: Big, but...
It is nearly endgame now. All groups seem secure. When you count, you realize that black is 50 points ahead.
So it may be most easy to secure your groups and end the game.
Both groups above and left of the lower left corner are not completely alive. You should play moves there to secure the lifes of the groups while gaining some territory.
See some vars];W[eb];B[fc];W[he];B[ff];W[fo];B[fr]C[g4: This has the same territorial value as a move at L2. Your left side group is completely alive and strong. Your P2 group may come under attack. So always strengthen your weak group.]
;W[dn];B[cn];W[do];B[co];W[hr]C[g4: Better at G2. This leaves a gap at F4, G4.]

(;B[dm]C[g4: This is a strong and good move securing a lot of territory. Maybe E8 or even F8 secure more, but also not so tight.
An alternative is the strong cut thru F4! See var];W[fm];B[fk]
;W[em];B[el];W[lr];B[mr];W[mo]C[Here I tgought B tries to capture the Q3 group.]

(;B[mp];W[ko];B[mm];W[nn];B[nq];W[nl];B[nk];W[ml];B[mk];W[ll]
;B[lk];W[kk];B[hl];W[gl];B[gk];W[hm];B[il];W[im];B[ij]C[g4: This is the shape move. But it does nearly nothing for security or territory here. Your groups are strong already and this gives no more territory.]
;W[rl];B[qk];W[rk];B[oh]C[g4: Oh no. The losing move.];W[ql]
C[Here my corner belongs to W.
g4: That was unnecessary. Just connect and nothing will happen.]

(;B[pk]C[g4: Far too small. You made an error but don't stop thinking! Perhaps you can rescue the group. The 10 stones in the center are unimportant. If you could save the corner you will still win the game. See vars
But if you lose the corner you still have a chance. The only weak white group is at the top. Perhaps you can attack it and gain territory.
If you count you will notice that the game is close still];W[sn]
;B[sp]C[I can not save the corner. Therefore T4 was a waisted move.]
;W[rm];B[kq];W[kr];B[os]C[g4: This was sente already. So this group is completely alive. Not necessary to play here now.]
;W[so];B[no]C[The Q3 group lives. Just a small comfort
g4: Unnecessay. This group lives without this move.];W[mn];B[kj]
;W[kl]
(;B[jk]C[g4: Unnecessary. White cannot break thru. To secure the group Q10ß is the move. This is nearly sente. see var]
;W[ig]C[g4: Now white secures his group. The invasion is no longer possible. And your center gets small. Game over]
;B[kg];W[lf];B[mf];W[kf];B[lg];W[jg];B[hf];W[if];B[hg];W[ge]
;B[gd];W[fe];B[ee]C[g4: No. Connect at E16.];W[ed];B[ec];W[db]
C[g4: White is gentle D16 kills the 5 stones. They can get only one eay whe taking E18.]
;B[dd];W[af]
(;B[bg]C[I think there is no advantage of B13 to A13?
B looses just some points.]
(;W[gf];B[gg];W[fg];B[ef];W[hh];B[gh];W[gi];B[fh];W[fi];B[eh]
;W[ii]C[g4: Good sequence by white];B[ji]C[g4: T15, M18, H16 are all bigger]
;W[hd];B[ed]C[g4: ?];W[me];B[ia];W[ib];B[ha];W[ga];B[gb];W[ja]
;B[hb];W[jc];B[mb];W[lb];B[nf];W[ne];B[oe];W[of];B[md];W[le]
;B[ng];W[pj];B[ok];W[oc];B[ma]C[g4: No. Connect. If white thrusts and then plays P18 he has 5 liberties. Both of your groups have 4. If you connect nothing will happen.
You still have a slight chance.];W[od];B[pe];W[pb]C[Here I am dead again]
;B[qb];W[nb];B[pa];W[na];B[oa];W[la];B[pc];W[nc];B[ob]C[g4: T15]
;W[rg];B[se];W[rf];B[pi];W[qi];B[ph];W[pg];B[jh];W[ih];B[hj]
;W[hi];B[ej];W[fp];B[ea];W[bb];B[da];W[ca];B[fa];W[cq];B[dq]
;W[cr];B[cp];W[bp];B[bo];W[aq];B[br]C[Here again I thought I got him.]
;W[bs];B[ar];W[dr];B[ds];W[er];B[es];W[fq]C[Here he prooved I was wrong.]
;B[as];W[bq];B[ar];W[gr];B[fl];W[gm];B[jl];W[jm];B[ag];W[ae]
C[siori [8k\]: thx
Deterius [11k\]: thx for the game
siori [8k\]: thx for the game

Now I resigned.

I would be very hapy for any idea.

Thanks for the review
Deterius



This was an interesting game.
I think you play very good in the opening. Try to evaluate the relative strngth of the groups. Be careful when your opponent tries to cut. Try to count liberties. If you would have played very conservatively, you should have won the game easily.
I think you are on the right way.

Have fun
Peter])
(;W[ag];B[ah];W[ae];B[bh]))
(;B[ag]
(;W[bg];B[ae]
(;W[cf];B[bd];W[ah];B[cc];W[af];B[be])
(;W[bd];B[cf];W[ah];B[af])
(;W[ad];B[bd];W[ah];B[cc];W[af];B[ac]))
(;W[cf];B[ae];W[bg];B[bd])
(;W[ae];B[bg])))
(;B[pj];W[qi];B[id]
(;W[hd];B[jc]C[g4: This is a possibility])
(;W[ic];B[jd];W[jc];B[hd]C[g4: This is big])))
(;B[sp];W[rm];B[rr];W[ss];B[rr];W[rn];B[os];W[so])
(;B[rm]
(;W[sm]C[g4: If white plays here he will lose the semeai.];B[sn]

(;W[sl];B[sp]C[g4: White will play so])
(;W[sp];B[sl];W[so];B[os]
(;W[sk];B[qs])
(;W[qs];B[ss])))
(;W[sn]C[g4: Better]
(;B[sp];W[sm];B[os];W[rn]C[g4: White wins])
(;B[sm];W[sl];B[os];W[sp];B[qs];W[so]C[g4: If white plays coeect he will get the corner back.]
))))
(;B[lo];W[mp];B[lp];W[nn];B[nq]))
(;B[fp];W[gp];B[go]C[g4: Now white has 2 very weak groups.]
))
(;B[qk]C[g4: Secures this group.])
(;B[kr]C[g4: Secures this group. The you can attack the two stones. If white answers, his teritory will get very small.]
))
(;W[ro];B[rn];W[po];B[qn];W[rr]C[g4: Now white lives in the corner for sure, but you get strong at the outside. This would have a good result for white as your strength is nullified by the white stones nearby.]

(;B[rp];W[rq];B[so];W[qs])
(;B[ps];W[rp];B[qr]
(;W[sq];B[rs];W[so])
(;W[rs];B[sq];W[sr]
(;B[sp];W[so])
(;B[so];W[rq])))))
