(;FF[4]GM[1]SZ[19]ST[2]CA[UTF-8]AP[SGFC:1.15]

PB[moshes]
BR[20k]
HA[2]
PW[DrPepperJo]
WR[18k]
KM[0.5]
DT[2008-11-06]
PC[The KGS Go Server at http://www.gokgs.com/]
RE[W+3.50]
TM[1800]
OT[5x30 byo-yomi]
RU[Japanese]

AB[pd][dp]C[Hi, my specific reason for submitting this game for review is to request help with the early part of the game.  I thought that I was making reasonable moves, but by move 29 it looks like White has claimed a large part of the board, and I didn't know how to react to that.  I don't see any obvious invasion points (other than the corner, which I did invade - although not aggresively enough) and I don't know how I should have proceeded from this point, or reacted earlier on to prevent white from claiming so much of the board -- while at the same time preventing him from invading me severely.

There are plenty of mistakes that I made after move 29 that led to my territory getting cut down, but I am specifically interested in the early game.

Thanks!];W[dd]C[moshes [20k\]: Hi, good luck and enjoy the game.]
;B[pp];W[jc];B[pj]C[DrPepperJo [18k\]: u 2];W[cj];B[jp];W[cm]
;B[co]C[hello!
my name is gius
up to here you developed very well

if you like a more territorial result you can play K3 and R10]

(;W[cn];B[bo];W[bn]
(;B[an]C[OK this leads to loss of sente so I probably shouldn't have done it, should have just played elsewhere.

true, A6 is a yose move ending gote
white A5 instead is sente, then A5 is privilege of white and black A6 is reverse sente

in fuseki play fuseki moves, as k10 or C17];W[am];B[ao];W[mc]
;B[oc];W[nc];B[ob];W[nb];B[og]LB[nb:D][nc:C][bn:B][cn:A]C[very bad moves by white]
;W[le]
(;B[om]C[Maybe at this point I could have been more ambitious, but I'm not sure where...

C17 is still good, or you take your last corner];W[fl];B[gp]
;W[en]TR[le][kf][jg][ih][ii][hj][gk][fl]C[you draw a line connecting the more external stones of white moyo and a move in the center of this line is perfect]

(;B[mo]TR[sa][rb][qc][pd][oe][nf][mg][lh][ki][jj][ik][hl][gm]
[fn][eo][dp][cq][br][as]C[This move I feel is over cautious.  Would K7 have been a better spot?

when you have this kind of doubts, divide the goban in two parts

as you see you have more then half goban, then at this moment the game is ok for you

if you play a move in the white half part is even better];W[jj]

(;B[qq]C[very good];W[lh];B[ni]C[Clearly I was trying to expand my potential territory but I think I should have been more ambitious.

I see
but remember that you can be invaded in both sides

then or there is an exchange of invasions or you have to protect your territories]

(;W[nh];B[oh];W[ng];B[nf]TR[ng][nh]C[This I think is wrong, I should have gone to N11, not made yet another weak stone.


O14 is a very good move, reducing the liberties of white group]
;W[mf];B[ne];W[me];B[nd];W[md]
(;B[mh]C[Gives up sente for a cut that obviously won't work.  :(


true];W[mg];B[mi];W[li];B[mj];W[lj];B[mk];W[lk];B[lm];W[oa]
;B[pa];W[na];B[qb];W[km];B[kn];W[kl];B[ll];W[jn];B[ko];W[jo]

(;B[lp]C[I think I was too defensive here, should have gone to J4 instead

yes];W[ip];B[iq];W[jq];B[io];W[kp];B[ln];W[hq];B[in];W[jm];B[hp]
;W[jp];B[ir]C[Bad mistake, should have been G3];W[hr];B[eo]
;W[gm];B[dn];W[dm];B[do];W[em];B[cc];W[dc];B[cd];W[ce];B[be]
;W[cf];B[bf];W[bg]C[B13 is a mistake, has to be C13]
(;B[db];W[eb];B[cb];W[da]
(;B[ca]C[This was a mistake, I shouldn't have backed down I think.]
;W[ea]LB[ec:1][de:2][cg:3]C[white has 3 cutting points]
(;B[ag]C[pointless, not going anywhere, just a good way to lose sente.

it is wrong];W[ah];B[af]
(;W[bh]
(;B[ad];W[ec];B[kq];W[jr];B[lr];W[kr];B[lq];W[ls];B[ms];W[ks]
;B[de]C[I was feeling desperate.

yes M4 was a bad mistake, it happens :-(

but the value of this game is probably to learn how to draw lines for reductions

have nice games!

ciao];W[mr];B[df];W[cg];B[nq];W[nr];B[or];W[mq];B[mp];W[ns]
;B[os];W[ms];B[gq];W[oq];B[np];W[pr];B[op];W[ps];B[qr];W[qs]
;B[rr];W[rs];B[pq];W[or];B[gr];W[hs];B[gs];W[is];B[ho];W[hn]
;B[im];W[il];B[hm];W[gn];B[fo];W[fn];B[hl];W[hk];B[gl];W[gk]
;B[cq];W[ef];B[sr];W[dg];B[of];W[go]C[moshes [20k\]: I don't think I have any worthwhile moves left
DrPepperJo [18k\]: so pass, i'll pass too];B[tt]C[DrPepperJo [18k\]: maybe :-)]
;W[tt]TW[fa][ga][ha][ia][ja][ka][la][ma][fb][gb][hb][ib][jb]
[kb][lb][mb][fc][gc][hc][ic][kc][lc][ed][fd][gd][hd][id][jd]
[kd][ld][de][ee][fe][ge][he][ie][je][ke][df][ff][gf][hf][if]
[jf][kf][lf][eg][fg][gg][hg][ig][jg][kg][lg][ch][dh][eh][fh]
[gh][hh][ih][jh][kh][ai][bi][ci][di][ei][fi][gi][hi][ii][ji]
[ki][aj][bj][dj][ej][fj][gj][hj][ij][kj][ak][bk][ck][dk][ek]
[fk][ik][jk][kk][al][bl][cl][dl][el][jl][bm][fm][iq][ir][js]
[os]TB[aa][ba][qa][ra][sa][ab][bb][pb][rb][sb][ac][bc][pc][qc]
[rc][sc][bd][od][qd][rd][sd][ae][oe][pe][qe][re][se][pf][qf]
[rf][sf][pg][qg][rg][sg][ph][qh][rh][sh][oi][pi][qi][ri][si]
[nj][oj][qj][rj][sj][nk][ok][pk][qk][rk][sk][ml][nl][ol][pl]
[ql][rl][sl][mm][nm][pm][qm][rm][sm][mn][nn][on][pn][qn][rn]
[sn][lo][no][oo][po][qo][ro][so][ap][bp][cp][ep][fp][qp][rp]
[sp][aq][bq][dq][eq][fq][rq][sq][ar][br][cr][dr][er][fr][as]
[bs][cs][ds][es][fs]C[moshes [21k\]: wow, closer than I thought
moshes [21k\]: thank you for the game


Just one or two fewer stupid moves and I would have won... but still I am bothered by how much territory white made.  Thanks for any suggestions you can offer.]
)
(;B[fe];W[bd]))
(;W[bd]C[this sequence is wrong for black]))
(;B[ec]
(;W[ed];B[fc])
(;W[fc];B[ed];W[de];B[fb])))
(;B[ec];W[fc]
(;B[ed];W[de];B[fb];W[fd];B[ea];W[gb];B[fa];W[ga];B[eb];W[ee]
)
(;B[de];W[ed];B[cg];W[df];B[bh];W[ee];B[ca];W[ea];B[dg]
(;W[eg];B[ch];W[dh];B[ci];W[di];B[bj];W[ck];B[bk];W[bl];B[ak]
)
(;W[ch];B[ci];W[dh];B[eg];W[di];B[bi];W[bj];B[ag];W[ai];B[ah]
;W[aj];B[ef];W[de]))))
(;B[cg]
(;W[dg];B[ch]
(;W[bh];B[de];W[df];B[ee];W[fc];B[dh];W[eg];B[bi])
(;W[dh];B[bh];W[ci];B[db];W[eb];B[cb];W[fc]))
(;W[ch];B[dg]
(;W[de];B[bh])
(;W[bh];B[de]))))
(;B[ip];W[kp];B[kq];W[lp];B[lq];W[mp];B[mq];W[np];B[nq];W[op]
;B[oq]TR[lm][kn][ko][mo]C[no life for white

the marked shape is very strong]))
(;B[hl]TR[jj][ik][gl][fm][en]C[again draw a line and play in the middle]
))
(;W[qg])
(;W[iq]))
(;B[cc]C[or invasion

the two sansan are miai];W[dc];B[cd];W[ce];B[be];W[bf];B[de]
;W[cf];B[db];W[eb];B[bb];W[da];B[cb];W[fc];B[bd];W[ee]C[an othe joseki to take the corner]
;B[hl];W[hj];B[lg];W[jg]TR[sa][rb][qc][pd][oe][nf][mg][lh][ki]
[jj][ik][hl][gm][fn][eo][dp][cq][br][as]C[then you gently reduce

again you can check the result]))
(;B[ii]LB[li:2][il:1]C[like this

1 and 2 are miai escapes, then J11 is quite safe]
(;W[il];B[li])
(;W[li];B[il])
(;W[jj]C[if white tries to enclose you inside his moyo for capture, you have plenty of space for living]
;B[ji];W[kj];B[hk];W[hm];B[if];W[lh];B[fh];W[fj];B[fe];W[gi]
;B[gh];W[hi];B[hh];W[jg];B[hd];W[ig];B[hg];W[ih];B[df];W[fc]
;B[ch]C[you should try many sequences to improve your sense of living shape]
)))
(;B[qq])
(;B[cc]))
(;B[jj])
(;B[cc]TR[jc][cj]C[when the wings of hoshi are on third line, it is correct to play sansan now]
;W[cd];B[dc];W[ec];B[eb];W[fc];B[fb];W[gc];B[bd];W[be];B[bc]
;W[cf];B[gi]C[because you can use sente to reduce white influence]
))
(;W[tt];AB[qj][jq]AE[pj][jp]))
