(;FF[4]GM[1]SZ[19]ST[1]AP[SGFC:1.15]

PB[d0lka]
BR[14k]
HA[2]
PW[Gummiente]
WR[12k]
KM[0.5]
DT[2008-11-16]
PC[The KGS Go Server at http://www.gokgs.com/]
RE[B+53.50]
TM[1500]

AB[pd][dp]C[
Hi, my name is Jakob and i got destroyed in this game.
I can see some of my simpler errors, but afterall i would like some suggestion on how to improve my play.
I play as white.

thx in advance for reviewing this match.];W[qp]SQ[op]C[Ben:  I personally play on the 4-5 for every 2 and 3 stone handicap game I play.  A thick joseki tends to come in handy in these kinds of games.  

For an example of this see the annotated game In Ed Lasker's book Go and go-moku.

(Of course this move is by no means  more or less losing than the 4-5 play)]
;B[cd]
(;W[ec]C[Jakob: is this the right approach? or should i have made my own shimari instead? i felt that in a handicap game i should try to add some confusion to the board

Ben: Confusion is a good idea in a handicap game and this is a possible move.  See my variation for an alternative plan.]
;B[ed]
(;W[gc]MA[fd]C[Ben:  Really a play at X is necessary here.  I've actually expermented with this move myself  before -- unsuccessfully.  

A commentator at the gtl advised me not to do it anymore  ;)]
;B[dc];W[eb];B[db]C[Jakob: was this move necessary?

Ben: It does seem cautious.  F-16 looks a little more active, or tenuki.

On the other hand this move does have some merit.  It take the corner for black and gaurantees life.  And it probably keeps sente since W has to do something on the top now or the stones become heavy.]
;W[kc]C[Jakob: should i have made a kakari at O17 instead?

Ben: I like k-17 actually.  O-17 is too active.  W has to make strength somewhere otherwise B will shrug off any attacks.]
;B[nc]MA[ic]C[Jakob: here i felt like her shimari as a natural response made her happy

Ben:  Black gained here, X is a concern for W still.];W[ke]
C[Jakob: also my own follow-up move felt necessary but slow and gote

Ben: You are correct, but this was only because l-17 was bad.]
;B[op];W[pn]C[Jakob: i didnt know the joseki of what was to follow... was that ok? what were my other options?

Ben: Well tenuki is always an option.  Consider your tenuki options carefully.

I've heard this move is favorable when W has strength on the right.

I've seen r-7 here for white as well as various pincers.];B[qq]

(;W[pq]C[Ben: I've not seen this move before.  My instinct tells me it works out well for B.]
;B[pp];W[qr]C[Ben: What if B did this instead?]
(;B[oq]
(;W[pr];B[or]C[Ben: This is too easy, r5 again would have been painful for you.]
;W[qo];B[kq];W[qf];B[qe];W[pf];B[od]LB[qj:1][pj:2][oj:3]C[Ben: W gave you a big chance to get back in the game here.

1 for W would be safe (honte)
2 Thick and center-oriented
3 Ambitious/inviting (Amashi strategy)];W[dj];B[dh];W[cn]MA[dj]
C[Ben: This is a good way to help the marked stone and create a shape working for you.]
;B[cp];W[en]C[Ben: Locally you played properly, B ends in gote so this was a success.]
;B[gp]C[Ben: B can't prevent an invasion];W[fi]MA[ci]C[Ben: This is probably not the best place, play at X to settle the shape (but it's not necessary now).]
;B[pl];W[qi]C[Ben: At X would put more pressure on B.];B[qm]

(;W[df]MA[ci]C[Jakob: at this point i felt that my game was running well... her D12 was very weak now, as was her Q8 group. her threat to my lower right corner felt toothless, so i thought that was a mistake of her. 3 corners were my opponents now, but i had some territory on the sides, and my influence towards the middle was good.

but... my D14 turns out to be even weaker then black's D12. how should i have played here locally?

Ben: The middle is quite invadeable by either side yet.  It will be a mutual struggle for points there.

Points wise its still difficult to say, Optimistically W has 15 on the top and left side corner and the right is maybe 10.

B has 20 top right and left for 40 plus the bottom.  

As for a better move its probably still at X.  But the peep was worth consideration.]
;B[cf];W[dg];B[cg];W[eh];B[de];W[ch];B[ef];W[di];B[eg]C[Ben: Always always tenuki this atari until the end.  To fill here is to make a play worth 1 point even if it is sente for your opponent.]
;W[dh];B[qj];W[fe];B[ee];W[oi]MA[pi]C[Ben: Make the pillar it has less aji.]
;B[pj];W[oj];B[pi];W[nn]CR[qm][pl][pj][pi][qj]MA[ip][iq]C[Ben: This group (marked) is really quite difficult to attack now.  An invasion around X was important.]
;B[ko]C[Ben: Now B handles any invasion with ease.]
(;W[jk]C[Jakob: im not at all sure about this move. it just felt good, but actually i dont even know whether this stone did any good at all.

Ben: Well it doesn't really attack, defend or invade anything.  The only thing it might do make some points in the middle but not many because B is sure to start playing there now (and hopefully strengthing the bottom at the same time for instance:]

(;B[gg]LB[hn:1];W[jh];B[gn];W[im];B[fm];W[lm]SQ[jk][jh]LB[ri:1]
[rh:2][rk:3]C[Ben: The marked moves werent worth much and were probably better left as dame points.  

Perhaps you were thinking to attack but B lives easily with 1, 2, etc.]
;B[ri];W[ol];B[qg];W[pg];B[qh];W[nf]C[Ben:  You played a lot of moves to make a little territory in the middle and B kept pace on the side.

S-14 would have been a little better, your strength on the outside ensures your stones won't die.]
;B[rf];W[hf];B[fd];W[gd];B[ge]MA[hh]C[Ben: At X was simpler for B.]
;W[he];B[gf];W[hg];B[dl]C[Jakob: i thought of playin here for some time, but i felt that i wasnt too urgent because i could kill her stone there. i was wrong]

(;W[em]C[Ben: You should probably avoid this fight.];B[el];W[fl]
;B[gl];W[fk];B[cl];W[bo];B[bp];W[fn];B[gm];W[ep];B[eq];W[fp]
C[Jakob: this just took a liberty from me i guess

Ben: Its a difficult fight for W in any case.];B[fq];W[al];B[bl]
;W[ak];B[bm];W[bn];B[bk];W[bj];B[am];W[aj];B[dn]C[Gummiente [12k\]: hmmmm

Jakob: at this point i tried to read for some time and decided that my group is dead

Ben: Yes, your haven't enough liberties.];W[ho]C[Ben: This is a good move for you.]
;B[go];W[hp]C[Ben: Excellent];B[hq]
(;W[jp]C[Ben: This is passive though.];B[jq];W[kp];B[lp];W[lo]
C[Jakob: i shouldve taken my time to read before i cut here]
;B[mo];W[ln];B[ip];W[jo];B[io];W[jn];B[in];W[hm];B[hn]
(;W[no];B[np];W[mn];B[mp];W[mc];B[hj]C[Jakob: should i have plugged this earlier? i thought about playing here for some time, but decided that i couldnt really stop black from getting into here since she had G13 and G8 available

Ben: Right there arent any important plays here. f-17, k-7  and n-16 or n-18 would have been better.

And for B playing the tactic on k-7 would have probably been more valuable so really you caught a break.]
;W[jm]C[Jakob: good she didnt exploit this weak spot earlier

Ben: True];B[md];W[ld];B[me];W[lf];B[mf];W[mg];B[gi];W[bh];B[bg]
;W[mb]C[Ben: This is a good move in the endgame.];B[nb]C[Ben: You can continue this way.]

(;W[rn];B[rm];W[ne];B[nd];W[na]C[Ben: Good];B[oa];W[ma];B[ob]
;W[os];B[ns];W[ps];B[nr];W[ag]C[Jakob: i played this and immediately thought that this move would be gote...

Ben: It depends as we will see.];B[af];W[ah]C[Ben: A play at X can be avoided if B thinks there is something bigger than about 5 or 6 points. 

Like a monkey jump for instance.]
(;B[be]C[Jakob: ... but she secured there anyway. was that necessary?

Ben: See  variation.];W[da]C[Jakob: i misread here

Ben: Yes I bet you wont forget this one!];B[fc];W[fb];B[ca]
;W[gb];B[ea]C[Ben: Even so p-9 was bigger I think.];W[fa]C[Jakob: that move was horribly small

Ben: Unfortunately yes.];B[fh];W[fj];B[jj];W[kj];B[ji];W[ki]
;B[ih];W[ig];B[hh];W[ok]C[Ben: Excellent!];B[ph];W[oh];B[qn]
;W[ro]C[Ben: Good move ;)];B[ik];W[il];B[hl];W[ek];B[do];W[dm]
;B[cm];W[ck];B[fo];W[dk];B[eo];W[pk];B[qk];W[pm];B[ql];W[pe]
;B[rd];W[oe];B[le]C[Jakob: horrible misread from me again.

Ben: Yes, some slight calculation could have saved you some points.]
;W[oo];B[lg];W[kf];B[ng]C[Gummiente [12k\]: ugh];W[og];B[mh]
;W[mi];B[kh];W[jg];B[li];W[lj];B[lh];W[nh];B[mg];W[mj];B[sn]
;W[so];B[sm];W[po];B[gk];W[da];B[rq];W[rr];B[ea];W[ii];B[ij]
;W[da];B[cb];W[ea];B[gj];W[tt];B[tt]TB[aa][ba][pa][qa][ra][sa]
[ab][bb][pb][qb][rb][sb][ac][bc][cc][oc][pc][qc][rc][sc][ad]
[bd][dd][qd][sd][ae][ce][fe][re][se][bf][ff][sf][fg][rg][sg]
[gh][rh][sh][hi][ii][qi][si][rj][sj][hk][rk][sk][rl][sl][dm]
[em][an][bn][cn][en][fn][ao][bo][co][ho][ap][ep][fp][hp][aq]
[bq][cq][dq][gq][iq][lq][mq][nq][ar][br][cr][dr][er][fr][gr]
[hr][ir][jr][kr][lr][mr][as][bs][cs][ds][es][fs][gs][hs][is]
[js][ks][ls][ms]TW[ga][ha][ia][ja][ka][la][hb][ib][jb][kb][lb]
[hc][ic][jc][lc][hd][id][jd][kd][ie][je][if][jf][of][ai][bi]
[ci][ei][ni][cj][ej][nj][kk][lk][mk][nk][jl][kl][ll][ml][nl]
[km][mm][nm][om][kn][on][ko][rp][sp][qq][rq][sq][sr][qs][rs]
[ss]C[Gummiente [12k\]: gg
d0lka [13k\]: gg

Jakob: that mistake of not answering M15 cost me dearly, but didnt make any difference at all since i lost by a huge amount. even killing her D8 group would not have saved me.

Ben: Yes of course you are correct however those were simple errors of calculation.  You have very good judgement (you made several tenukis when B played slowly) and these inacuracies will decrease with time and experience.  

Make sure that you experiment more with tenuki and the aji that results in the opening and middlegame.   Don't worry about following a Joseki correctly as much as feeling your way through to finding good shapes.

Remeber that building strength is what allows your attacks later to be successful.  You can't attack if your always off balance, even in a handicap game.  

Avoid those compulsions to play high moves when you think they only "might" do something.  Really think and try to find the right moves.

For inspiration it is helpful (and often entertaining) to follow the games of stronger players and professionals.  Go4go.net/v2 is an excellent source for modern pro games.  Gobase.org also has a large database of older and historical games which are no less instructive.

Feel free to contact me for anything regarding this commentary... benjaminschooley@hotmail.com]
)
(;B[ok];W[nk];B[pk];W[be];B[ce];W[bf];B[bd];W[ae];B[ad];W[af]
C[Ben: W suceeds in reducing B but ends in gote.];B[nl];W[om]
;B[nj];W[mk];B[oh];W[ni];B[nh];W[mi];B[ph]))
(;W[na];B[oa];W[ma];B[ob]))
(;W[mp];B[lq];W[no];B[mq];W[md]))
(;W[iq]
(;B[ip];W[hr];B[gq];W[jp];B[io];W[jo];B[in];W[jn];B[hn];W[jq]
)
(;B[ir];W[hr];B[gq];W[jr];B[ip];W[jq];B[jp];W[kr];B[lr];W[is]

(;B[ks];W[gr])
(;B[gr];W[ks]))))
(;W[el]
(;B[em];W[cl]
(;B[cm];W[bm];B[dm];W[bl];B[bo];W[bn])
(;B[ck];W[dk];B[dm];W[bl]))
(;B[dm];W[em];B[dn];W[dk];B[eo];W[cl];B[cm];W[bm];B[do];W[bl]
)))
(;B[hn];W[gm];B[hm];W[hl];B[gn];W[fm];B[il];W[ik];B[gg]C[Ben: B removed all the weakness on the bottom attack the W territory and made points to boot.]
))
(;W[hn]C[Ben: This is potentially another possibility.])
(;W[ip];B[iq];W[hq];B[hp];W[jq];B[ir]
(;W[jr];B[jp];W[io];B[hr])
(;W[jp];B[jr];W[kp];B[lp];W[lq];B[kr];W[lo];B[mp];W[jn]C[Ben: Something like this is probably the best W can hope for.]
)))
(;W[de];B[dd];W[cg];B[ch];W[dg];B[eh];W[ff];B[fh];W[gh];B[gg]
;W[fg];B[gi];W[hh];B[ej];W[fj];B[ek]C[Ben: Of course there are many possibilities.  Black I believe has lots of potential to shinogi (wriggle around).]
))
(;W[rq]C[Ben: Probably W had to go here..]))
(;B[qo];W[rq];B[rp];W[qq];B[po]C[Ben:  B is quite thick everywhere and W didn't take many points.]
))
(;W[rq];B[pq];W[fq];B[qo];W[po];B[rp];W[pp];B[rr];W[ro];B[sq]
;W[cn]SQ[pn][po][pp][qp][ro]C[Ben: Now you would have some kind of attack brewing and the marked stones can take care of themselves]
))
(;W[cj]LB[fc:1]C[Ben: Even this tenuki is possible saving the marked stone for aji in case he plays at 1 and would probably be a little confusting for black.]
))
(;W[fq];B[cn];W[kq]LB[ci:2][ec:1]C[Ben: By creating a mini-chinese type formation you may be able to tempt black into overstepping.

If black does make a shimari at 1 you could invade at 2.]))
