(;FF[4]GM[1]SZ[19]ST[1]AP[SGFC:1.15]

PB[konfucijus]
BR[15k]
PW[Golo]
WR[14k]
KM[0.5]
DT[2008-11-07]
PC[The KGS Go Server at http://www.gokgs.com/]
RE[W+3.5]
TM[1800]

C[I (Golo) am white and played as 14k.
My preferred languages are English or German.
Thank you for reviewing the game!

vlkplk: I`ll try my best :)];B[dd];W[pq];B[cq];W[pc];B[kc];W[pe]
C[vlkplk: I like this closure of white`s corner. White shall just keep on mind, that at least one more move, say around R13 or R12, is needed to make upper right corner into territory.]
;B[dh];W[ep]C[vlkplk: Again, this W e4 seems good move. Ofcourse, it`s a joseki pattern, but I don`t remember such difficult one. I usualy play simply at 4-4 point in this situation.]
;B[cc]C[vlkplk: This is very conservative move from black. Next, white has a chance to close black in lower left corner with move like C5.]

(;W[jp]C[I've read some stuff about opening technique but still feel quite unsure if I am using it well

The one-point-jump (4-6) is probably too short?

Should I rather pincer black 3 with  10?

vlkplk: I`m not keen in josekis at all. I believe, that on ours level we don`t need to remeber them point by point, just enough to keep some basic rules. As for something joseki-like, it would be nice to confine black in the corner with W C5 instead. 

White K4 is not bad, but 1) too far from either of white stones on lower side, 2) being on 4th line, it doesn`t secure any territory (as would be seen later) and 3)too from Q3 stone to be considered as a corner closure. It`s anyway a move to keep influence.]

(;B[do]C[vlkplk: Very natural answer from black. White can next play in lower right corner. Notice, that white`s two stones at E4 and K4 are quite far of each other and so not very connected. Consequently, white cannot safely jump into black`s left side moyo in this stage of game. That`s why I didn`t like W K4.]
;W[eo];B[dn];W[dp]C[vlkplk: W D4 is sente, but not necessary now. Generally, I think, it`s a kind of move which kills any other possibilities in the corner (aji-keshi).]
;B[cp]
(;W[hd]C[Here I played tenuki and regretted in later (109)

vlkplk: Yes, that`s right. White`s shape in lower left is not completed. On the other hand, it would be no good to push further, since black is on 4th line. The best move would be W F7, I think.

As for W H16, it`s hard to say. 1) it`s on 4th line - no life 2) it makes an easy attack from black, like for ex. B K15.]

(;B[hc]C[16 on the 3rd line better?

vlkplk: Definitely not, since there would be very small life for white. Black`s corner is already strong, so it would be hard to for white to approach ther.]
;W[gc];B[pj]C[vlkplk: Strange from black to tenuki on upper side.]

(;W[ic]C[vlkplk: Somehow, I don`t like this atari. Ofcourse it`s good idea to isolate B L17. How about variation? It strengthten white in upper side, preparing for an attack on black Q10.]
;B[hb];W[ib];B[gb]
(;W[fd];B[fc]C[vlkplk: Better bF18. This one helps white to connect at G16 (aji-keshi). Later it might come in hand for black to play G15 in sente..]
;W[gd];B[ec];W[jd]
(;B[pn]C[vlkplk: Quite non-standard move. Why not R5 or, Q5? It 1)doesn`t connect with B Q10 well, 2)seeing as a pincer, it could be nearer to W Q3.]
;W[qo];B[pl]C[black plays very condensed here. Which is the best way to gain profit from that mistake (if it is one ;-) )

vlkplk: Well, it`s not a mistake, just a lost move. It only keeps black connected and nothing else.  The problem was already in 3-point jump along the 4th line. 3-point jump is said to be safe on the 3rd line, be there some alied stone alongside. But on the 4th line it`s rather loose way of connection.]
;W[qh];B[nk]
(;W[oh];B[nm]
(;W[mp]C[What is more advisable at this stage of the game. Playing like I did or removing/attacking blacks base on the right side?

vlkplk: Blacks last two moves were of very little efficiency. On the other hand, blacks group is so strong, that it cannot be attacked directly. The best course for white, which he did anyway, would be to secure his lower side territory. Maybe, instead of W N4, N3 would be better. As it is now, black can invade somwhere, like at P3 or O3.]

(;B[dl]
(;W[df]C[vlkplk: Good idea from white. Another possibility would be deep invasion at around C10.]
;B[cf]C[At the end black will have the whole left side as territory. When would have been the best occasion for an invasion?

vlkplk: White should definitely split the upper black group from lower side and escape to center, having his stones around G16 as back-up. Simply pushing black was not enough, since black gained quite a huge territory along left side.]

(;W[ee]C[vlkplk: Well, this white move was a little bit sluggish one. White shouldn`t fear so much and try something like the cut at C13 or C15. Black stone at D12 is on the 4th line, so white either escapes to the center or lives along the side.]
;B[de]C[vlkplk: Still, white`s aim must be to invade left side, on whatever cost. D10 or C10 would be fine now. D14 stone is of not so much importance, so white can sacrifice it.]

(;W[ef];B[dg]
(;W[eg];B[di]C[vlkplk: B E11, E10 or F11 would be better. Maybe, white could omit F11 and play M15, but than black can almost cancell the influence of white`s central group.]

(;W[fi]C[46: Good or bad move?

vlkplk: W F11 is nice move. White would like to have one more stone at F8 as well. Just black`s gain along left side is big. So next, white wants to play either F8 (I would) or try something for territory in the center. Like M15, which threatens B L17.]
;B[le]C[Maybe with 46 I should rather have prevented b from separating my two groups? But how?

vlkplk: Too late now, but well, white must take off black`s base, which white did, and then don`t allow black connect his stones. At the right moment, white must play something like N12, M12 or M13.]
;W[mc];B[kd]
(;W[ld];B[kf]C[vlkplk: After W M16 and B L4, black is safe as he can either make eyes or connect his stones. For white, I would still consider L12, now.]

(;W[kb]C[vlkplk: This white`s L18 is minor move. Black can descend anyway and white can`t get much points there. More important now is incomming fight in the center.]
;B[kh]C[vlkplk: Well, now black is 100% safe. Ofcourse, white has nice upper right corner and surrounding...]
;W[je];B[ke];W[mi]C[vlkplk: Finally! But it`s too late now. Black has too many options what to do with his a bit heavy, though, group.]
;B[mh];W[ni]
(;B[md]C[vlkplk: Here, white was maybe happy with that black`s choice. Black could separate white central group from corner.]
;W[lc];B[nd];W[nc];B[oe];W[od];B[nf];W[of];B[ne]
(;W[ki]C[vlkplk: Contact moves, like this W L11, generally are used to create cutting points and as such are not suitable for attack (but good for defense :).]
;B[og]C[In the end the black group will live and I don't know how to avoid that :-(

vlkplk: Black was already well enough out in the center and there was black`s group of 5 stones as backup. So it was unavoidable that black would survive. Anyway, white got enough territory in the corner and connected his stones, which was reasonable result.]
;W[pf];B[nh];W[pg];B[ng];W[oi];B[jf];W[if]C[vlkplk: Black`s 75th move at K14 seems vital for life of this group (or at least avoids some disturbing moves from white.) On the other hand, starting with white`s 76, white has not much to fear from there, so he could pause in the center and play at some really important place. Like D2, M7, F6 or anything which seems big. Center is big, ofcourse, but there are still bigger points on the board.]
;B[jh];W[ji];B[ig];W[hf];B[ii];W[ij];B[hi];W[ej];B[dj];W[gj]
;B[gi];W[fh];B[hg];W[gg];B[gh];W[gf]C[vlkplk: For example W 92 was absolutely unnecessary move. But same could be said for each other move in the sequence from W 76 until W 92, except, ofcourse, the moves which enclose black group in the center. But there is a hole (as a result of contact play by white...)]

(;B[jc];W[jb]C[vlkplk: Ofcourse here, white`s connection was essential.]
;B[en]
(;W[fn]C[vlkplk: White`s 96 was too dangerous, since there is cutting point while black is stoned. Better G5 or G4. D2 might be also good, but there is danger of black`s invasion.]
;B[fm];W[gn];B[qn]
(;W[qj]C[vlkplk: Again, white`s R10 - a contact move. I don`t say it was bad in this situation, but generally non-contact play is better for attack. Anyway, black is still strong and it would be hard to take out all his possible eyes.]
;B[qk];W[rj];B[rk]
(;W[rn]C[vlkplk: White`s S6 - dtto.];B[rm];W[so]C[vlkplk: White ends in a gote! Toward the end of game, the sente/gote choice gets more importance, as a value of free points on the board diminishes.]
;B[sm]C[vlkplk: Again, now it`s black who gives up initiative to white here.]
;W[hl];B[fr]C[I always knew this move had to come, but never found the time to secure the territory before.
Which would have been the best move to prevent this invasion?

vlkplk: D2 would do. But other moves helped this black`s invasion. White 96, 98 didn`t prevent completely the cutting point at F5. But basicaly, the problem was that 3 white`s WEAK stones and they were sitting there from beginning...]

(;W[er]C[vlkplk: Good idea, but maybe F3 would make better shape.]

(;B[jr]C[vlkplk: Strange move from black. Quite dangerous. I liked white`s continuation (until that mistake...)]
;W[fq];B[gr];W[hq];B[hr];W[iq];B[ir]
(;W[kr]C[vlkplk: Was this a misclick from white? L3 would do it as well.]

(;B[ks];W[lr];B[dq];W[eq];B[fs];W[hs];B[kq]
(;W[kp];B[lq]
(;W[ls]C[128: A shocking mistake! Which would have been the best possible 128 move?

vlkplk: Just keep going straight. Black cannot escape.];B[mr]
;W[js];B[ms];W[mq];B[ks];W[nr];B[is];W[mk]C[Golo [14k\]: Hello? ;-)]
;B[oj];W[ml]C[vlkplk: Black has missed this point! So white could get nice central territory. Should black played there first, white`s center would have become very small.]
;B[nl];W[mn];B[nn];W[mo];B[oo];W[op];B[po];W[qp];B[sj];W[si]
C[vlkplk: Just small endgame mistake by white. See variation.]

(;B[sk];W[rh];B[sn];W[ro];B[dr];W[hj];B[ek];W[fk];B[el];W[fl]
;B[gm];W[hm];B[bl]C[vlkplk: Any move inside black`s left territory was -1 point for black (we are not using Chinese rules...)]
;W[gl];B[em];W[ei];B[es]C[165: I never thought that 165 would do any harm to me at this stage, so I didn't play there myself. Was I right?

vlkplk: Well, if white plays there, it would be 1 point in sente. On the other hand, there is that terrible sequence as in variation, which result I myself couldn`t foresee, so almost I would connect at G3.]

(;W[gq];B[li];W[lj];B[lh];W[mj];B[cs];W[ha];B[fa];W[ia];B[ga]
;W[nj]C[vlkplk: 176 - no point here. Better Q11.];B[qi]C[vlkplk: 2 points sente for black, so at least 3 point move. White would better defend it here beforehand.]
;W[ri];B[pi];W[ph];B[no];W[np];B[mm];W[lm];B[kj];W[jj];B[lp]
;W[lo];B[jq];W[ip]C[vlkplk: No threat after cutting at J4.]
;B[bh];W[ns];B[lr];W[ll];B[tt];W[ed];B[db];W[tt];B[tt]TB[aa]
[ba][ca][da][ea][ab][bb][cb][eb][fb][ac][bc][dc][ad][bd][cd]
[ae][be][ce][me][af][bf][lf][mf][ag][bg][cg][jg][kg][lg][mg]
[ah][ch][hh][ih][ai][bi][ci][aj][bj][cj][ak][bk][ck][dk][ok]
[pk][al][cl][ol][ql][rl][sl][am][bm][cm][dm][om][pm][qm][an]
[bn][cn][on][ao][bo][co][ap][bp][aq][bq][ar][br][cr][kr][as]
[bs][ds][gs][hs][js][ls]TW[ja][ka][la][ma][na][oa][pa][qa][ra]
[sa][lb][mb][nb][ob][pb][qb][rb][sb][oc][qc][rc][sc][id][pd]
[qd][rd][sd][fe][ge][he][ie][qe][re][se][ff][qf][rf][sf][fg]
[qg][rg][sg][sh][fj][kj][gk][hk][ik][jk][kk][lk][il][jl][kl]
[im][jm][km][hn][in][jn][kn][ln][fo][go][ho][io][jo][ko][fp]
[gp][hp][rp][sp][nq][oq][qq][rq][sq][or][pr][qr][rr][sr][os]
[ps][qs][rs][ss]C[Golo [14k\]: Good game, a close one!
konfucijus [15k\]: thanks
Golo [14k\]: ThanksWeiss gewinnt mit 3,5 Punkten.

In the end I won luckily with 3,5. Probably just because of all the extra-stones black put into his territory to secure his territory on the left.

I will be grateful for any general advice you could give me to improve my playing.
Thanks in advance!

vlkplk: During engame both white and black did some mistakes. But endgame is very difficult, so I didn`t make comments, except some obvious one.]
)
(;W[no];B[gq];W[gp];B[fo];W[fp];B[hp];W[go];B[ip];W[jq];B[io]
;W[hn];B[lp];W[ko];B[lo];W[kn];B[ln];W[lm];B[mm];W[jm]C[vlkplk: White loses a lot.]
))
(;B[ri]C[vlkplk: White cannot not connect.];W[sk];B[qi];W[rh]
;B[sj];W[rj]))
(;W[mr];B[mq];W[nq]
(;B[jq];W[lp];B[nr];W[or])
(;B[lp];W[lo];B[jq];W[no];B[ip];W[hp];B[io];W[jn];B[in];W[jm]
;B[hm];W[gm];B[ho];W[gp];B[go];W[fo])))
(;W[jq];B[kp];W[ko];B[lq];W[mq]))
(;B[kq];W[lr];B[lq];W[mr];B[jq];W[lo];B[gq];W[gp];B[kp];W[jo]
;B[ko];W[kn];B[mq];W[nq];B[ip];W[hp];B[jn];W[io];B[ln];W[km]
;B[mo]))
(;W[kq];B[lr];W[kr];B[ks];W[lq];B[mr];W[nq];B[nr];W[or];B[ns]
;W[ls]))
(;B[fq];W[dr];B[gp];W[fp];B[go];W[fo];B[ip];W[io];B[iq];W[jq]
;B[ho];W[hn];B[hq];W[jn])
(;B[dr]C[vlkplk: This would be safe answer for black.];W[es]
;B[eq]
(;W[dq]C[vlkplk: White can`t do this.];B[fq];W[cr];B[fo];W[ds]
;B[fp];W[dr];B[br])
(;W[fq];B[dq];W[gq];B[gr];W[hr];B[ds];W[gs];B[fs];W[iq];B[hs]
;W[is])))
(;W[fq];B[gr];W[er];B[jr];W[kq];B[kr];W[lr];B[jq];W[kp];B[ip]
;W[io];B[hp];W[ho];B[gp];W[fp];B[go];W[fo];B[gq];W[gm];B[dr]
;W[es];B[ir];W[lm]))
(;W[ro];B[rn];W[lm]))
(;W[rj];B[qk]))
(;W[dr]C[vlkplk: White can try this as well. Next, black invades and lives along lower side, but white can eat up some black points in the corner as a compensation.]
;B[gp];W[go];B[ho];W[gn]))
(;B[hj];W[hk];B[gk];W[ik];B[fj];W[lm];B[gm]))
(;W[ng]C[vlkplk: Black would better answer this.];B[mf];W[kj]
))
(;B[lc];W[md];B[lb];W[jb];B[mb];W[nb];B[me];W[ne];B[nf];W[oe]
;B[ig]))
(;W[kh]))
(;W[lg]C[vlkplk: I would play something like this M13, cut off black from the center and let him show, what can he do.]
))
(;W[le];B[gm];W[go];B[gh]))
(;W[dj]C[vlkplk: Still a crucial move.]))
(;W[dj];B[cj];W[ci];B[di];W[ck];B[bj];W[dk];B[bi];W[el];B[cl]
;W[bk];B[bl];W[al];B[am];W[ak];B[bn];W[fk]C[vlkplk: This seems not very good for white, but splitting black was big and there is nice end-game move for white at B12 left for later.]
))
(;W[cg];B[dg]
(;W[ch];B[ci];W[bf]
(;B[bi];W[ce];B[ei];W[fl];B[ef];W[ee];B[de];W[cf];B[ff];W[bd]
;B[bc];W[bh];B[ae];W[ad];B[ag];W[ah];B[af];W[cd];B[ai];W[ek]
;B[dk];W[dr])
(;B[ce];W[bi];B[cj];W[bj];B[ck];W[bk];B[bl];W[be];B[bd];W[de]
;B[cd];W[ag];B[ak];W[bh]C[vlkplk: Well, white can live, but maybe this is not very good result because he is separated and black has got enormous strenght toward center. So, white`s original play looks much more reasonable.]
))
(;W[ce];B[bf];W[de];B[be]C[vlkplk: Not enough for white.]))
(;W[ce];B[cg];W[de];B[ee];W[ef];B[fe];W[fg]))
(;W[cj];B[ci];W[dk];B[el];W[fj];B[ck];W[bk];B[cl];W[dj];B[cf]
;W[gh]))
(;B[oq];W[op];B[nq];W[mq];B[pr];W[qq];B[qr];W[np];B[mr];W[lr]
;B[nr];W[rr];B[os]C[vlkplk: Ofcourse, this sequence should be played during later stage of the game. Just, the possibility is disturbing for white.]
)
(;B[nq];W[op];B[np];W[no];B[mq];W[lp];B[kr];W[lq];B[lr];W[iq]
;B[ir];W[hr];B[jq];W[kq];B[jr];W[hq];B[or];W[pr]))
(;W[le]))
(;W[le]C[vlkplk: This move could almost capture black`s stone, I think.]
;B[md];W[nf]C[vlkplk: Black cannot escape or live. Well, he can live in the corner with Q18, but it would be a very small life.]
))
(;B[qo];W[qp];B[pn];W[np]))
(;W[fb]C[vlkplk: I`d like to show one interesting technique of connecting stones in this shape. Sometimes it`s useful, but certainly not now, concerning overall situation. Just for your information.]
;B[fc];W[ga];B[gd];W[ha];B[gc]))
(;W[id];B[ic];W[jc];B[jb];W[jd];B[lb];W[le]))
(;B[je];W[hf];B[jg];W[hh];B[hj]C[vlkplk: As for now white`s stones are not yet alive and so makes a nice target for black. During attack, black can fortify his left side territory. On the other hand, black stones can make eyes easily.]
))
(;W[fm]C[vlkplk: This would be my favorite move. White`s shape in lower left is not completed without it.]

(;B[dl];W[hd]C[vlkplk: Black territory along left side is still open for invasion.]
)
(;B[hc];W[dl]C[vlkplk: If black fails to defend his left side, this would be an excellent move.]
))
(;W[ke]C[vlkplk: As for something on upper side, I would prefer this.]
;B[hc];W[he])
(;W[ic];B[gc];W[ie];B[ib];W[hb];B[hc];W[jb];B[id];W[jc];B[jd]
;W[kb];B[lc]C[vlkplk: Not so very good for white...]))
(;B[co];W[qn]))
(;W[co]C[vlkplk: This would make it a bit harder for black. One more white stone and black is dead in the corner. Notice, that 1)black`s prospect for huge left side is diminished 2)white`s forces at upper and lower rigt and lower left cooperate nicely.]
))
