(;FF[4]GM[1]SZ[19]ST[2]CA[UTF-8]AP[SGFC:1.15]

PB[Himora]
BR[21k]
PW[nameok]
WR[20k]
KM[0.5]
DT[2008-12-11]
PC[The KGS Go Server at http://www.gokgs.com/]
RE[B+Resign]
TM[1800]
OT[5x30 byo-yomi]
RU[Japanese]

C[[Markus\]
Hello, I will do your review.];B[pd];W[pp];B[dd];W[dp]C[[Markus\]
Up until now it's a very common opening.]
(;B[je]C[[Markus\]
K15 is way to high. Better K16, K17. Look in the variations for point estimations.]
;W[dj];B[jo]C[[Markus\]
Again too high. In the opening it's better to play not above the fourth line, because it doesn't make points.]
;W[jn];B[io];W[ho];B[in];W[im];B[hn];W[jm];B[gp];W[go];B[fo]
;W[fn]
(;B[fp]C[[Markus\]
Missed chance, see variation.];W[gn];B[hp];W[hm]
(;B[en]LB[cg:D][pj:B][qj:C][do:F][lp:A][er:E]C[[Markus\]
There are many opening moves left. Not necessary to fight in the center. If fighting ist unavoidable F seems better to me.]
;W[fm];B[do];W[ep];B[eo];W[co];B[eq];W[cp];B[cn];W[bn];B[cm]
;W[ko];B[jp];W[bm]
(;B[cq]LB[cg:E][dg:F][qj:D][lq:C][cr:A][ds:B]C[[Markus\]
This leads to a bad situation for black. Better A or B, but there are still greater spots at C etc.]

(;W[dq];B[dr]
(;W[cr];B[bq];W[er];B[fq];W[br];B[bo];W[ds];B[bp];W[dr];B[bl]
;W[ao];B[am];W[aq];B[an];W[ar];B[bs];W[fr];B[gr];W[gs];B[hs]
;W[fs];B[hr];W[ap];B[bn];W[kp];B[kq];W[kn];B[nq];W[lq];B[jq]
;W[mp];B[lr];W[mr];B[mq];W[lp];B[kr];W[op];B[oq];W[pq];B[pr]
;W[nr];B[or];W[qr];B[ns];W[ps];B[os];W[qs];B[np];W[no];B[ms]
;W[qq];B[ek];W[dk];B[gl];W[fl];B[el];W[em];B[fk]
(;W[gm];B[dm];W[gk];B[ei];W[dl];B[ej];W[di];B[hk];W[hl];B[dh]
;W[eh];B[gj];W[gl];B[ch];W[dg];B[eg];W[fh];B[ef];W[fi];B[fj]
;W[hj];B[gi];W[gh];B[hi];W[ik];B[ij];W[hk];B[ih];W[cg];B[bh]
;W[hh];B[ii];W[bi];B[hg]
(;W[ol];B[pj];W[oj];B[oi];W[pk];B[qk];W[qj];B[pi];W[rk];B[ql]
;W[rj];B[nk];W[ok];B[nj];W[qm];B[nm];W[rl];B[pm];W[pl];B[om]
;W[pn];B[ri];W[si];B[sh];W[sj];B[qh];W[qi];B[rh];W[ph];B[og]
;W[qg];B[pg];W[qf];B[re];W[pf];B[of];W[ni];B[oh];W[nl];B[mi]
;W[nh];B[ng];W[mh];B[lh];W[mg];B[mf];W[lg];B[kg];W[lf];B[le]
;W[mk];B[mj];W[li];B[kf];W[lj];B[lk];W[ml];B[kj];W[kk];B[ll]
;W[lm];B[kl];W[jk];B[ki];W[km];B[cj];W[jl];B[lj];W[ci];B[bg]
;W[cf];B[be];W[bf];B[af];W[ah]
(;B[ck];W[bj];B[ae];W[ag];B[ce];W[gg];B[hf];W[gf];B[ge];W[he]
;B[fe];W[ig];B[if];W[jj];B[ji];W[gc];B[hd];W[ic]
(;B[hc];W[hb];B[fc];W[fb];B[gd];W[gb];B[jc];W[ec];B[fd];W[jb]
;B[id];W[ib];B[db];W[kc];B[kd];W[jd];B[lb];W[kb];B[ha];W[ea]
;B[eb];W[ed];B[da];W[fa];B[ia];W[la];B[ma];W[ka];B[mb];W[ff]
;B[ie];W[jc];B[ee];W[mc];B[lc];W[md];B[fg];W[dh];B[nc];W[ld]
;B[nb];W[nd];B[oe];W[ke];B[oc];W[df];B[de];W[me];B[lf];W[od]
;B[pe];W[pc];B[pb];W[qc];B[qb]
(;W[rc];B[rb];W[oa];B[kd];W[ob];B[ne]C[[Markus\]
This is the end of the game and the end of the review.

If you try to improve your play it's good to start with the opening. Don't fight unesessary fights or make moves to thick when there are so many great opening moves left.

Cann't much say about the middelgame. You saw the failurs of white and judged him, but sometimes you shouldn't play to thick or touching moves.]
)
(;W[na]))
(;B[jc];W[hc];B[eb];W[fc];B[ec];W[jb]
(;B[kb])
(;B[kc];W[kb];B[lb];W[fa];B[fb];W[gb];B[ea];W[ga];B[ia]C[[Markus\]
Killed white.])))
(;B[ag]C[[Markus\]
White already dead.]))
(;W[gg]))
(;W[dm]
(;B[gm];W[gk]
(;B[hl];W[hk];B[il];W[ik];B[jl];W[kl];B[jk];W[jj];B[kk];W[lk]
;B[kj];W[ki];B[lj];W[mj];B[li];W[lh]C[[Markus\]
Bad for black];B[dl];W[mi])
(;B[dl];W[hl]))
(;B[dl];W[gm];B[gk];W[ck]
(;B[cl];W[dg])
(;B[bk]))))
(;W[er];B[fq];W[cr];B[bq];W[br];B[ar];W[bp];B[aq];W[ap]))
(;W[cl];B[el];W[dm];B[em];W[dn])
(;W[dm];B[dn];W[cl];B[em];W[dl]))
(;B[cl]))
(;B[do];W[eo];B[ep];W[en];B[dq];W[cp];B[co]
(;W[bo]
(;B[bp];W[cq];B[bq];W[cr];B[bn];W[dr];B[er];W[eq];B[fq];W[es]
;B[fr];W[br];B[bs]C[[Markus\]
White is dead.])
(;B[bn];W[bp];B[cm];W[cq];B[dr]C[[Markus\]
White is alive.]))
(;W[bp];B[bo];W[ao];B[an];W[ap];B[bm];W[cq];B[dr];W[cr];B[br]
;W[cs];B[ar];W[ds];B[fr];W[er];B[eq];W[es];B[fs]C[[Markus\]
White is dead.])))
(;B[gn]
(;W[hp];B[hq];W[ip];B[jp];W[iq];B[ir];W[jq];B[kq];W[jr];B[js]
;W[kr];B[lr];W[ks];B[ls])
(;W[fp];B[hp])))
(;B[jd]CR[aa][ba][ca][ja][qa][ra][sa][ab][bb][cb][jb][qb][rb]
[sb][ac][bc][cc][jc][qc][rc][sc]C[[Markus\]
There are no points for black, but some possibel ones marked as O.]
)
(;B[fc]SQ[ca][da][ea][cb][db][eb][cc][dc][ec]C[[Markus\]
A knights move is a good option. Here it generates "hard points" marked as squares.]
)
(;B[fq]LB[cn:A][gq:B][jq:C]C[[Markus\]
It's also possible to attack. A, B, C are other options.]))
