(;FF[4]GM[1]SZ[19]ST[2]CA[UTF-8]AP[SGFC:1.15]

PB[leesangoh]
BR[1d]
PW[detachedp]
WR[1d]
KM[6.5]
DT[2008-12-20]
PC[The KGS Go Server at http://www.gokgs.com/]
RE[B+Resign]
TM[300]
OT[2x30 byo-yomi]
RU[Japanese]

C[hi. please review for white.

i felt i misplayed a few moves so would like a strong player's comment on this game.

thank you very much for your review.

>Hi! Thanks for submitting an interesting game!

White played well at the start and got an early lead, but he lost it when he let black get a crucial point at the bottom. Both players failed to make use of their thickness and to attack when they could. It was a quiet game, which makes it even more important to try to find some leverage over your opponent. This means forcing your opponent to invade so you can attack, or invading in order to cut off some of his stones. This is always much better for making territory than just taking big points. There were also a few tactical errors which made quite a big difference.

I hope some of this is useful. If you have any thoughts, questions, or so on, just say hi on KGS (I play as "sixsix") or drop me an email :)

Lloyd];B[pp];W[eq];B[qd];W[dc];B[de];W[dh];B[fe];W[gc];B[he]

(;W[ic];B[cc];W[cb];B[cd]
(;W[dk]C[>Good move. The price of tenuki in this joseki is that b can live with B18, so he is stronger; however, H15 has already made him stronger, so this is not much gain for b. Seems like you have a good feel for this. 

See variation for another option.]
(;B[cp]
(;W[cn]C[Maybe C7 is better?  it ended up I had to play d7 later on.

>This is fine. I've put in a few other choices, depending on your overall game plan.]

(;B[ep]
(;W[dq]C[>First real mistake by either side - see variation.]
;B[dp];W[cq]C[>Very bad shape; if you are trying to attack b, then this is overplay.]

(;B[bq];W[br]
(;B[bp]C[>(See variation)];W[fp];B[fo];W[gp]
(;B[en];W[dm]C[>(This defence is good)];B[hn]C[>B has got out, but he didn't fight hard enough. Seems like both players overestimated the attack, and w got a good result.]

(;W[od]C[>Uninteresting direction, even on a quiet board. Here, the bottom side and the weak b group are much more important. See variation.]
;B[ip]C[I let b took an important point here.  Is j4 a definite move for white here?  I always like to open fast.  This ended up being bad for white.

>You're right, this is a very important move. It's a big move for points, but more importantly b's group is much stronger.]

(;W[kq]C[>This is not a 1d move at all. I guess w panicked since his lead disappeared. B is encouraged to push through the middle of the w position, ruining both sides.

W is still in the game if he stays calm. See the variations for some ideas.]
;B[iq];W[nq]
(;B[oq];W[hr]C[>Same again, encouraging black to push down the middle. Just G2 or A2 to defend is better.]
;B[ir];W[np];B[ar];W[fr]
(;B[cr]C[>(See variation)];W[dr];B[bs]C[I got sentai but didn't how to attach b's corner.

>Yes, b plays an endgame move at a crucial moment.]
(;W[qq]C[Would R17 be better?

>No, bottom right is urgent. See variation for the best move here.]

(;B[or];W[po];B[qp];W[qo];B[rq];W[op];B[ro];W[qm];B[rn];W[pl]
;B[oc]C[>Game is back to even again.

Maybe the avalanche here, to make a moyo using your thickness below? See variation]

(;W[nc];B[pc];W[nd];B[qf];W[je]C[>A lukewarm result for w. B has made as many points in the corner as w has on the top, and his thickness below is ruined by R14]
;B[ch]C[>Ugly move. B18 is big around here.];W[ci];B[cg];W[bi]
;B[eb];W[db];B[ec];W[ed];B[fd];W[fc];B[dd];W[ea];B[fb];W[gb]
;B[ee];W[fa];B[qj];W[jn]C[>Good!];B[kp]
(;W[lq]C[I hesitated here and time was a factor now.

Can I get sentai with k2?

>Not really, it's bad shape and also b doesn't have to stop you connecting if he doesn't want to. You can get sente by not worrying about L3 - see the variation.]
;B[lo];W[mn];B[ln];W[lm];B[km];W[kl];B[ll];W[mm];B[lk]C[I felt b made a weak move here.

>No this seems like the strongest move.]
(;W[jm];B[kn];W[jl];B[ho];W[jo];B[jp]
(;W[oj]C[>Both players have stones floating in the centre - probably best to play there first.]
;B[li];W[kj];B[nk];W[qi];B[nh];W[pi];B[hk];W[ij];B[lf];W[pe]
C[M16 a definite? In retrospect, m16 is huge.

>Yes];B[ld]
(;W[lc];B[kd];W[kc]C[L18 would be much better.  Time is a factor now.]
;B[jd];W[id];B[jc];W[jb];B[ie]
(;W[qe]C[>(See variation)];B[re];W[hj];B[kb];W[lb];B[ib];W[ka]
;B[hc]C[ouch. :-)];W[gk];B[ia];W[ed];B[ri];W[rh];B[rj];W[rd]
;B[rc];W[rf];B[sd];W[qg];B[ok];W[pk];B[pj];W[ni];B[oh];W[oi]
;B[rl];W[mh]C[should've m10.

I thought I could give black more headache. But m17 is really coming back to haunt me.

>M10 is probably enough to win];B[mi];W[mg];B[mf];W[ng];B[lh]

(;W[pq]C[>(See variation)];B[rp];W[nr];B[qr];W[lp];B[ko];W[mo]
C[>B18 is bigger];B[bb];W[ca];B[jh];W[fm];B[fn];W[gd];B[hd]
;W[ge];B[gf];W[gg];B[fg];W[hf];B[ff];W[gh];B[ei];W[dg];B[df]
;W[di];B[fh];W[ih];B[gi];W[hh];B[ej];W[hl];B[dj];W[ck];B[bh]
C[Should've b13 when I had a chance.  I felt I'm behind so I took chances from now on.  Didn't work and ended up resigning.  Again appreciate all the comments!!

>No more comments from me - see the summary at the start. You're not behind by very much, and can still keep playing if your endgame is good.

Hope this helps!];W[hp];B[hq];W[gq];B[hs];W[gr];B[io];W[ah]
;B[bf];W[ba];B[ab];W[jg];B[jf];W[kf];B[ke];W[nf];B[ig];W[kh]
;B[kg];W[ki];B[lg];W[af];B[ae];W[mj];B[lj];W[ob];B[pb];W[nb]
;B[ag];W[pa];B[qa];W[oa];B[sf];W[pf];B[qb];W[rm];B[sm];W[sg]
;B[qn];W[ql];B[qk];W[pn];B[om];W[pm];B[ol];W[nn];B[on];W[oo]
;B[ns];W[ms];B[os];W[nj];B[mk];W[an];B[ai];W[bk];B[ak];W[al]
;B[aj];W[fj];B[el];W[ek];B[fi];W[em];B[ji];W[jj];B[md];W[js]
;B[jr];W[ks];B[bo];W[is];B[mr];W[ls];B[kr];W[lr];B[gm];W[se]
;B[gj];W[rd];B[fk];W[gl];B[fl];W[hm];B[gn];W[in];B[bl];W[am]
;B[pd];W[sc];B[sb];W[bn];B[cl];W[dl];B[fj]C[detachedp [1d\]: thx
detachedp [1d\]: gg
detachedp [1d\]: well played
leesangoh [1d\]: hi thx])
(;W[lg]C[>Can w cut here?]
(;B[kg];W[kh];B[ki];W[jh];B[ji];W[ii];B[ih];W[jg];B[kf];W[ig]
;B[hh];W[lj];B[mj];W[hg];B[gh];W[mk]
(;B[gg];W[nj];B[ml];W[jj];B[mk];W[ol];B[hf];W[nl])
(;B[pg];W[og];B[ph];W[qh]))
(;B[ji]
(;W[jj];B[kg])
(;W[kg]))))
(;W[md]C[>Here prevents the cut];B[kf];W[qe]))
(;W[lb]C[>This probably keeps w connected.]))
(;W[kj]))
(;W[ho];B[io];W[in];B[go];W[hp];B[kn];W[hm];B[gn];W[jm];B[jl]
;W[kk];B[jo];W[im];B[gl]))
(;W[jr]
(;B[is];W[ho];B[io];W[in]
(;B[lq];W[lr]
(;B[kr];W[ks];B[jq];W[kr];B[lp];W[mr];B[go];W[hp]
(;B[lm])
(;B[ln]))
(;B[lo]))
(;B[lr];W[lq]))
(;B[io];W[is]))
(;W[lo];B[lq];W[oj];B[pi];W[nh]))
(;W[pd];B[pc];W[qe];B[qc];W[nd];B[mc];W[md];B[lc];W[jn];B[in]
;W[jl]))
(;B[qp];W[or]
(;B[pr])
(;B[pq];W[mr];B[pl])))
(;W[po]C[>This is the usual punishment for b tenuki. The move in the game is ok too]
;B[qo];W[pn];B[qn];W[qp];B[qq];W[rp];B[rq];W[op];B[pq];W[qm]
;B[ro];W[rn];B[sp];W[pm]))
(;B[pn]C[>Should be here to attack.]))
(;B[gr]C[>Can w even live here?]
(;W[fr];B[gq];W[fq];B[ar])
(;W[ar]
(;B[ds];W[hr];B[hq];W[fr];B[fs];W[gq];B[hs]C[>A very unpleasant ko]
)
(;B[fq];W[er];B[fr];W[es]C[>B can capture stones in sente]))))
(;W[iq];B[jq];W[hq];B[jp]C[>This may be necessary, even though b gets beautiful thickness. But w has sente, and the game is still playable.]
)
(;W[ho];B[io];W[in];B[gn];W[hq]C[>Maybe w can cut, if he's feeling aggressive, but this seems like overplay]
;B[im];W[jn];B[iq];W[hr];B[lp])
(;W[qe];B[re];W[pe];B[rf];W[qc];B[rd];W[ph];B[oc];W[nc];B[pc]
;W[io]C[>If w can get a ladder breaker in place, he can aim at this cut. However, his bottom group will still be delicate.]
))
(;W[jp])
(;W[fm];B[go];W[ip]C[>This looks best. B is far behind with no points, no use for his top stones, and a weak group.]
))
(;B[cl]C[>Maybe here, to fight back?]))
(;B[fq];W[fr];B[gr]C[>Painful for w.]))
(;B[fq];W[fr];B[gq]C[>This is more than enough for b, since w is thin on the left.]
))
(;W[fp];B[eo];W[dq];B[co];W[cq]C[>This is an old joseki. Normally, with the left side empty, b plays C8 and w is slightly better, with more points. Here C8 is obviously bad, and b has no good move. If he plays tenuki, w D7 is a severe attack.]

(;B[mq];W[dm])
(;B[cl];W[ck])
(;B[gn];W[gp];B[cm]C[>Seems the best b can do. W is ahead a little, even if he now defends the left, as b has very few points]
)))
(;B[do];W[dn];B[fo];W[en];B[eo];W[hq];B[gp];W[gq];B[dq]C[>This is probably the best b can do, but w is very happy because b's extra-strong top group is now useless.]
))
(;W[do];B[co];W[dn];B[cm];W[dm];B[cl];W[dl];B[jp]C[>An interesting idea, but b will play first on the bottom, and w doesn't have much. Maybe if you like this plan, you could try to get O3 in first.]
)
(;W[nq];B[qn];W[do];B[co];W[dn];B[cm];W[dm];B[cl];W[dl]C[>Looks better, playable for both]
)
(;W[dn]C[>Taisha would be good for w since he has support];B[co]
;W[eo];B[cm];W[nq]C[>Looks good for w])
(;W[jq];B[cm];W[nq];B[qn];W[pr];B[qq];W[lp]C[>More territorial. It always feels a bit slack to pincer from an established position, so instead w could force b to extend towards strength. W's stones on the left are not exactly "strong", but it's hard to see a good attack on them. The game seems even.]
))
(;B[cm]C[>Maybe here is a better invasion point? B has to make use of his strength at the top.]
))
(;W[eb];B[dk];W[gh];B[cp];W[gf];B[ge];W[je]C[>White can also play like this, to attack, which is not possible without E18. Both ways are fine, but they lead to different sorts of  games.]
))
(;W[id]C[>(Usually here)]))
