(;FF[4]GM[1]SZ[19]ST[2]CA[UTF-8]AP[SGFC:1.15]

PB[meathead]
BR[3k]
PW[thirdeye]
WR[3k]
KM[6.5]
DT[2009-01-12]
PC[The KGS Go Server at http://www.gokgs.com/]
RE[B+5.50]
TM[300]
OT[5x30 byo-yomi]
RU[Japanese]

C[thirdeye [3k\]: hi

JS: I am Juergen Suntinger 3d and come from Vianna, Austria. I hope you can learn something from my comments on this game. If you have any further questions, do not hesitate to contact me on KGS, Juergonaut.]
;B[pd]C[meathead [3k\]: hi];W[dd];B[dq];W[pp];B[co];W[jq];B[fc]
;W[id];B[cf];W[fd];B[gd];W[fe];B[cc];W[ec];B[cd]C[JS: Everything developed normaly so far]

(;W[gc]TR[id]C[I think this should have been at F18

JS: cutting directly is only used, when there is no white stone extending whites wall. White can get overconcentrated quite easily this way.]
;B[de]C[This move by my opponent felt slow

JS: True, there are bigger points to get on the right side of the board]
;W[nc];B[hc];W[fb];B[hd]TR[id]C[JS: This is actually the reason why the cut earlier was not soo good. But if Black should play this way immediately is also questionable.  If there is no tactical reason why the marked white stone is taking a liberty of the black stones then it has lost its meaning. Look at the variation]

(;W[kc];B[hf];W[fg];B[ie];W[ic]C[I wanted to prevent him making an eye by capturing j16

JS: Yes, this keeps the black group some kind of attackable and also stabilises your white group on the right a little bit]
;B[hb]
(;W[qf];B[oe];W[qc]C[R17 hurt my stones to the left so maybe extending around q12 is better?

JS: White is not so strong, so he should first stabilise his group like in the last variation with the urgent shape point, and then decide how to deal with the right corner]
;B[pc];W[qd]
(;B[pf]C[JS: This move by black is bad. It just strengthens White and keeps bad shape. Look at the variations]
;W[qg];B[md];W[mc];B[ld];W[lc];B[jd];W[ib]C[JS: Black should take sente now and play elswhere because white already lives unconditionally]
;B[jc];W[jb];B[kd];W[ob];B[pb];W[la]C[After reviewing the game I don't think this was necessary

JS: Yes it was already alive. So you lost one move here which is quite big]
;B[ia];W[ja];B[oa];W[na];B[mb];W[lb];B[qb]C[JS: Small move by black, there is so much open space left on the board]
;W[pj]C[JS: Good decision by white];B[gb];W[db];B[dc];W[cb]
;B[ed];W[fc];B[pg];W[qh];B[dj]
(;W[bb];B[hq]
(;W[jo]C[I also thought about O4

JS: Yes, it is bigger to stabilise the Hoshi stone with O4 instead of  extending like this.]
;B[qq]LB[jo:B][hq:A]C[JS: This is just what black wanted, because after the A,B exchange white's center will be a little bit overconcentrated]
;W[pq];B[qp];W[qo]
(;B[pr];W[or];B[qr]
(;W[nq]C[Q5 might be better];B[ro];W[qn];B[rn];W[qm];B[rm];W[ho]
;B[gp];W[il]C[I didn't know where to play to expand my moyo here]
;B[ql];W[pl];B[qk];W[pk];B[lj]C[JS: Now white's moyo has no good followup anymore, but is only making about 30 points of territory. When considering the stones played by white this is some kind of overconcentrated.]
;W[dl];B[ck]
(;W[fl];B[cl];W[ll];B[ml];W[mk];B[kl];W[lk];B[kk];W[km];B[mj]
;W[nk];B[jj];W[ni];B[gn];W[hm];B[hn];W[in];B[ip];W[jp];B[mh]
;W[rj];B[nh];W[en];B[gm];W[gl];B[hk];W[hl];B[dm];W[go];B[gh]
;W[ir];B[hr];W[hs];B[gs];W[is];B[fr];W[nd];B[ne];W[em];B[dn]
;W[fp];B[fq];W[ep];B[dp];W[rb];B[ra];W[rc];B[iq];W[kr];B[eh]
;W[bc];B[bd];W[ad];B[ae];W[ac];B[bf];W[eg];B[dg];W[fh];B[ei]
;W[gi];B[hi];W[gg];B[hh];W[hg];B[ig];W[gk];B[fi];W[ik];B[gj]
;W[ij];B[ii];W[pa];B[qa];W[ha];B[fa];W[ea];B[ga];W[oh];B[og]
;W[ph];B[nj];W[oj];B[mi];W[qj];B[sk];W[sj]C[S9 first would have gained an extra point]
;B[rk];W[eq];B[er];W[ps];B[qs];W[os];B[gf];W[ge];B[he];W[ff]
;B[sb];W[sc];B[sa];W[jl];B[ek];W[el];B[qe];W[re];B[pe];W[rf]
;B[ef];W[oi];B[eo];W[fo];B[do];W[jk];B[kj];W[hj];B[fk];W[hp]
;B[gq];W[io];B[oa];W[ia];B[oc];W[pa];B[ee];W[eb];B[oa];W[nb]
;B[pa];W[tt];B[tt]TW[aa][ba][ca][da][ka][ma][ab][kb][mb][rd]
[sd][se][sf][rg][sg][rh][sh][pi][qi][ri][si][hk][ok][ml][nl]
[ol][fm][gm][im][jm][lm][mm][nm][om][pm][fn][gn][hn][jn][kn]
[ln][mn][nn][on][pn][ko][lo][mo][no][oo][po][kp][lp][mp][np]
[op][kq][lq][mq][oq][jr][lr][mr][nr][js][ks][ls][ms][ns]TB[dd]
[be][ce][je][ke][le][me][af][df][if][jf][kf][lf][mf][nf][of]
[ag][bg][cg][jg][kg][lg][mg][ng][ah][bh][ch][dh][ih][jh][kh]
[lh][ai][bi][ci][di][gi][ji][ki][li][aj][bj][cj][ej][fj][ak]
[bk][al][bl][rl][sl][am][bm][cm][sm][an][bn][cn][sn][ao][bo]
[so][ap][bp][cp][rp][sp][aq][bq][cq][rq][sq][ar][br][cr][dr]
[gr][rr][sr][as][bs][cs][ds][es][fs][rs][ss])
(;W[cl]LB[ci:A][ej:B]C[JS: This is the shape point for white, because it leaves bad aji for black. A white placement at A or attachment at B can give black a lot to think about. If you let black get this, he will be ahead I think

JS: Review End]))
(;W[po]C[JS: Yes, this is the reason what black normaly hanes first on the other side]
))
(;B[ro]C[JS: Correct timing for black];W[qn];B[rn];W[qm];B[pr]
;W[or];B[qr];W[nq]C[JS: Better for black]))
(;W[np]C[JS: makes good shape for white]))
(;W[gh]C[JS: If you worry about your group it would be better to make shape in the center instead of  living with only 5 points]
))
(;B[pg];W[pf];B[of];W[og];B[pi]C[JS: Tesuji worth remembering]

(;W[ng];B[qg];W[rg];B[rh];W[rf];B[me])
(;W[ph];B[oh];W[qg];B[ng]))
(;B[og]))
(;W[ke]C[JS: I would suggest this move, stabilising white and attacking the black group. This is some kind of urgent point for both concerning shape]
))
(;W[he]C[JS: White has to fight now. Reading is required, every libertie counts. Because Black now has only three liberties he will have a hard time if he keeps running with his group]
;B[ic];W[jd];B[jc];W[kc]C[JS: Black probably dies or lifes small with his group, e.g.]
;B[ge];W[gf];B[ie];W[hf];B[kd];W[je];B[lc];W[kb];B[lb];W[jb]
C[JS: Just to show you how little liberties black has acutally]
))
(;W[fb]TR[id]C[JS: Yes, this would be the standard reply when the marked stone is present]
)
(;AW[jd]AE[id];W[ge]TR[jd]C[JS: If the marked stone is on space more away from white's position, then this would make correct shape]
))
