(;FF[4]GM[1]SZ[19]ST[2]CA[utf-8]AP[SGFC:1.15]

PB[denifl]
BR[9k]
PW[djaybee]
WR[8k]
KM[0.5]
DT[2009-01-09]
PC[The KGS Go Server at http://www.gokgs.com/]
RE[B+Resign]
TM[1800]
OT[5x30 byo-yomi]
RU[Japanese]

;B[pc]C[denifl [9k\]: gg
djaybee [8k\]: hi good game];W[dp]C[Hi I my name is Shu and I am 3k on KGS. You play a very interesting game and I enjoy reviewing it. Overall you did well to exploit your oppoent's weakness, however you might need to study a bit on joseki.]
;B[pp];W[dc];B[de];W[fd];B[cc];W[cb];B[cd];W[bb]
(;B[dh]C[A high B stone here will make the group prone to a pincer attack by White later in the game]
;W[qe];B[ph];W[qc]
(;B[qd]C[This is not joseki, Black usually reply at R18, see var]
;W[pd];B[rd];W[oc];B[pb];W[oe]C[White did well in response to your move, white is slightly better if he P18.]
;B[rb];W[nq];B[lq];W[qq];B[pq];W[qp]
(;B[qo]C[This is a mistake, the correct joseki is BQ5 See Var]
;W[qr]C[Black could limit his losses by Q5 See Var]
(;B[pr];W[po];B[qn];W[op]
(;B[hc]C[This may be too early, See var for other moves. In my opinion, the bottom left would be the biggest. As mentioned before, black's left side is weak to a white pincer. Also, depending on white's response, black may be able to make use of the M3 stone. 

Also, you might want to poke white at O16 or p18 before invading the top side, as white's pincer in response to this invasion leads it to secure its top right group]
;W[kc];B[id];W[ob];B[qb];W[ke];B[ec];W[eb];B[fc];W[fb];B[ed]
;W[gb];B[gc];W[ck]C[Now it is an open skirt on both sides, black cannot expect much territory here.]
;B[db];W[da];B[fq];W[eq];B[fp];W[dn];B[ip];W[qk];B[pn];W[oo]
;B[ok];W[rh];B[qg];W[rf];B[rg];W[qi];B[oi];W[sg];B[nd];W[od]
;B[me];W[lf];B[mf];W[mg];B[nf];W[ng];B[of];W[kg];B[mb];W[mc]
;B[nc];W[lb];B[nb];W[pf];B[og];W[qh];B[pg];W[qf];B[rl];W[rk]
;B[ql];W[pk];B[ol];W[rj]
(;B[pj];W[pm];B[pl];W[om];B[on];W[nm];B[oa];W[sl];B[sk];W[sm]
;B[rm];W[sn]
(;B[so];W[sj];B[rn];W[nj];B[oj];W[ge]C[A one space jump might do better]

(;B[jf];W[je];B[ie];W[if];B[jg];W[gg];B[fi];W[hh];B[jh];W[hj]
;B[fk];W[fn];B[gl];W[hn];B[cq];W[cp];B[er];W[dq];B[il];W[jj]
;B[ki];W[mi];B[lj];W[kk];B[mk];W[nk];B[nl];W[ml];B[ll];W[lk]
;B[mj]C[denifl [8k\]: this was a really good game
djaybee [8k\]: thanks for the game
denifl [8k\]: thanks
djaybee [8k\]: well my adventure on the right side wasnt all that godd ...]
)
(;B[if];W[gg];B[ih];W[gi];B[jb];W[li];B[ij]))
(;B[rn];W[so]))
(;B[sk]))
(;B[cn])
(;B[nd];W[ob];B[qb];W[od];B[cn];W[fp];B[bp];W[cq];B[ck]
(;W[iq];B[hc];W[kc];B[pf];W[pe];B[mc];W[nf];B[le];W[ke])
(;W[jc];B[hq];W[bq];B[jp])))
(;B[po];W[or];B[pr];W[ps];B[np];W[mq];B[mp];W[lr]))
(;B[po];W[pr];B[or];W[qr];B[oq];W[qn]))
(;B[qb];W[pd];B[oc];W[rc];B[lc]))
(;B[ci]C[C11 is usual]))
