(;FF[4]GM[1]SZ[19]ST[2]CA[UTF-8]AP[SGFC:1.15]

PB[sronen71]
BR[4k]
HA[2]
PW[mittendrin]
WR[2k]
KM[0.5]
DT[2009-01-20]
PC[The KGS Go Server at http://www.gokgs.com/]
RE[B+Resign]
TM[1800]
OT[5x30 byo-yomi]
RU[Japanese]

AB[pd][dp]C[I enjoyed playing this game very much. I did not do very well in the opening, but in the middle and end there were a number of interesting fights.
I will appreicate some analysis of the opening and tactics.

Please also see my questions at the end points of variations  I looked at.
sronen71 [4k\]: hi];W[oq];B[dd]C[mittendrin [2k\]: hi hf];W[cf]
LB[fc:B][ch:A]
(;B[ch]C[I decided to play this move instead of F17, although I don't know which is best.
I am not sure how to cope with the situation that white is making kakari to the two corners and then make a 'tent shape'. I don't like it. see variations.

Nicksib:  Perfectly OK.];W[cc];B[cd];W[dc];B[ed];W[bd];B[be]
;W[bc];B[ce];W[fc]
(;B[qp]TR[ed][pd][po][dp]C[this move seemed natural to me, it is the first choice for empty corner.
Now in review, looking globally, this stone does not coordiante so nicely with the other black stones.

Maybe Q5 will be better? it takes less of the corner but is more in touch with the other stones.

Nicksib:  this move is OK....but I would play q5 in this position.  Influence is very important right now due to your wall and high 4-4 stones.]
;W[po];B[qo];W[pn];B[qm];W[iq]LB[pm:C][gq:A][qq:B]TR[jq]C[In the game, I only thought of blocking white moyo from the left while making corner terriotry.
In reivew, I consider Q7. However,l ooking in Kogo's dictionary,
(on http://eidogo.com),
 it recommends locally R3 instead, when white made the wide extension at J3 instead of K3.

Still Q7 will work nicely with Q16 and the other stones, although white also will build moyo.

I'm inclined for Q7. what do you think?]
(;B[gq]C[Nicksib:  At first glance, this appears to be correct direction.  However, w is over extended and even the direction is technically good, it makes w's shape stronger.]
;W[cn]C[my dillema: the corner is big and vulnerable, but a pincer around C8  is is big too. Which is better?

Nicksib:]
(;B[cp]C[I think this move is good shape with G3.

Nicksib:  shape is fine....but you're not taking control of the game.  when you play so solidly and conservatively, you need to work extra hard later to find correct time/point to truly strike.]
;W[ck]LB[dj:A][dm:B]C[my thoughts: top black group got cramped but I should you thickenss to attack white. However, I am worried about that C14 stone potential to complicate things.

Nicksib:  yep.  you took profit and gave w a little freedom in exchange.  now you have to live with that.]

(;B[dj]C[try to attack this way?
see variation too.];W[dk]LB[sa:B][bf:A]
(;B[bf]SQ[ck][dk][cn]C[I worried of white playing B14 . but is it big deal?

Nicksib:  can't make moves like this.  now b is over concentrated and is applying virtually no pressure to the marked group.  these last two moves are your first truly unfortunate mistakes.]
;W[ej]C[Nicksib:  large move....makes d9 group infinitely strong now and b is going to end up overconcentrated.]
;B[di]C[Nicksib:  blech.  w is already strong, and now you're letting w push you around.  have to tenuki and find an advantage somewhere else.]
;W[en];B[fp]C[Nicksib:  both your last move and w's last move are too conservative for handicap games.]
;W[ei]LB[eh:A][ek:B]C[I considered cutting at E9 but didn't think it will work right now

Nicksib:  cut is bad.]
(;B[eh]SQ[bf][dj]C[Nicksib:  i know it looks like good shape....but it really doesn't help all that much.  all it shows you is how poor d10 and b14 really were.  if you play d10....you HAVE to follow it up with another stone in that area.  w is very happy to push you around like this.]
;W[fh]
(;B[eg];W[fd];B[fg]C[Nicksib:  b should have done this before/instead of e13]
;W[gh];B[gg];W[hh];B[gj]C[Nicksib:  looks like overplay.  Even if it isn't....w can gain an advantage now by pushing this stone around.]
;W[gk];B[ek];W[fk];B[el];W[fm]
(;B[ec]C[I know this push is usually bad, but I wanted to do something about the top side.
I didn't go well.

Nicksib:  the reason that the push is bad....See variation (sv)...]
;W[eb];B[gb];W[fb]
(;B[if]C[Nicksib:  i'm not sure what you're trying to do here.  the top left b group is already safe...f14 doesn't build territory, doesn't limit moyo.  see variation for other ideas.]
;W[id];B[kf]C[Nicksib:  again, this move does nothing.  It looks like it's aiming at f10...but sv....]

(;W[kd]TR[gb]C[now this stone look useless, I just helped white.]
;B[kq]C[Nicksib:  b needs some luck here.];W[hq]TR[eq]C[hmm
I think white as a threat at E3 now

Nicksib:  perhaps...but i don't think this is correct w response.  b should allow e3 is b can get n3 and counter attack right side.]

(;B[go];W[io];B[mq];W[qq]LB[pm:C][pp:B][rq:A]C[hmm
apparently joseki dictionary recommends now something like Q7 and sacrificing  two stones in the cornerwhich I didn't know.
But it doesn't seem right to give white such easy life

Nicksib:  right, you can't give w easy life now]
(;B[rq]C[bad move.];W[mo];B[ko];W[im];B[km];W[qn];B[rn];W[rm]

(;B[rl];W[ro];B[sm];W[rp];B[pp];W[op]C[Nicksib:  do your reading.]
;B[kk];W[ll];B[kl];W[gr];B[fr];W[nc];B[qf];W[pb];B[qc];W[qh]
C[when white played this move, I am aware of the danger of
white R18, black S18, white S16.]
(;B[qj];W[kh];B[jh];W[ji];B[ih];W[ii];B[ki];W[kj];B[li];W[lj]
;B[lk];W[mj];B[ml];W[kg];B[hg]TR[fi]C[this move defends and also threatens F11

Nicksib:  yep.];W[mh]
(;B[nd];W[md];B[ne];W[mc];B[ol];W[qb]C[here it comes, but I'm ready]

(;B[rb];W[rd];B[re]C[I learned this move recently.]
(;W[ln];B[kn];W[pj];B[pk];W[pi]C[surverying the board it looks like endgame for me now. White has a comfortable lead.

Nicksib:  game is over.  big moves still at s17 and f10.  I might argue that f10 is biggest because MAYBE there is still some sort of cut against the j7 group.]

(;B[hd];W[hc];B[gd];W[gc];B[ie];W[jd];B[il];W[hm];B[nr];W[rc]
;B[sb]
(;W[or];B[dm];W[cm];B[hn];W[in];B[gm];W[gl];B[gn]
(;W[eo];B[hl]C[I played this immediately without noticing the danger to my own group]
;W[eq]C[oops];B[hr];W[ep];B[er];W[ir];B[gs]C[seem I got life, big exchange

Nicksib:  good result for b.];W[lr]C[I considered M3 but didn't see clearly the variations]
;B[kr];W[hp];B[fq];W[lp];B[kp];W[dq];B[dr];W[cq];B[br];W[cr]
;B[cs];W[bq];B[bj];W[lq];B[am]C[right now, white threat was K1, which I completely missed.]
;W[bk];B[ak];W[cj];B[bi];W[ar];B[bo];W[bn];B[an];W[bp];B[co]
;W[do];B[ao]
(;W[bs]
(;B[fi];W[fj];B[hi]C[I felt I 'm doing well...];W[js]TR[ei]
[ej][fj][fk][gk][gl]C[oops ! I missed that : white links,  or ko.
but luckily I have now saving line in threat to capture the marked stones.
Had white played it ealrlier, it would have been much more dangerous.
white has so many ko threats at the right top corner.];B[ks]
;W[hs];B[is];W[hk];B[ik];W[hs];B[fl];W[gr];B[fs];W[dl];B[hj]
C[mittendrin [2k\]: thx
sronen71 [4k\]: thank  you

white resigned.


Nicksib:  b got lucky with the cut of the bottom w group.  should have never happeend and w should have won easily.]
)
(;B[fj]C[another variation I missed in the game, seem like much bigger capture.]

(;W[hi];B[fl];W[hk];B[ik];W[hj];B[jj])
(;W[fl];B[hi];W[js]C[if I had played like this, it would be very big capture in the center, but this is huge ko.
white has so many ko threat at top right corner.
In the game, I got a saving line.])))
(;W[al];B[bl];W[ci];B[dh];W[aj];B[ai];W[ap];B[al];W[bm];B[aj]
;W[bh];B[bg]C[doesn't work]))
(;W[ik]C[i think this or])
(;W[hj]C[Nicksib:  this....and w still OK]))
(;W[qd]
(;B[pc];W[qe];B[rf];W[pe];B[od];W[pf]C[Nicksib:  this can't be right for b]
)
(;B[sd];W[pc];B[sc];W[pe];B[od];W[qe];B[rg];W[pf]TR[nd][od]
[pd][ne]C[Nicksib:  b still in trouble])))
(;B[fj];W[rc];B[hn];W[in];B[hl];W[hm];B[gm];W[il];B[gl];W[ik]
;B[bm];W[bn];B[cl];W[dl];B[bk];W[cm];B[bl];W[fl];B[fi]
(;W[em];B[hk])
(;W[hk];B[gn];W[em]C[Nicksib:  i guess w is safe....but it does get a little tricky....maybe w will make a mistake or there's something there that i didn't see.]
)))
(;W[rc];B[qd];W[sb];B[rg]C[Nicksib:  so what? w's gain in the corner is very large.]
))
(;B[ni]C[Nicksib:  i would do this first.]))
(;B[fi];W[fj];B[hi]C[I thought of this but I think this is gote so I left it for later.]
))
(;B[ss];W[qb];B[of]TR[qh]C[Nicksib:  what danger? this stone is going to get eaten.]
))
(;B[ro]C[Nicksib:  you have the ladder!];W[ql];B[pm];W[om];B[pl]
))
(;B[pp]C[this seem interesintg idead but too complicated for me to figure out.]
)
(;B[pm]
(;W[pp];B[nm]
(;W[qn];B[rn];W[rq]C[this will be local joseki, and now black can sacrifice the two stones in the corner to connec to his weak group]
;B[ln]C[I like that result.])
(;W[mo]C[Nicksib:  what do you do if w does this?];B[no];W[np]
;B[mp];W[nn];B[mn];W[oo];B[lo];W[om];B[ol];W[mm];B[no];W[nl]
C[Nicksib:  b's bottom is still in danger.]))
(;W[nn]C[Nicksib:  maybe you can play q7 first, it looks like w should do this]
)))
(;B[mq];W[eq];B[ep];W[gr]
(;B[fq];W[fr];B[er];W[dr];B[dq];W[es];B[cr];W[eq];B[pm];W[bo]
;B[bp];W[bq];B[aq];W[br];B[er]C[Nicksib:  dangerous this way....but at least its a ko that might turn the tide of the game.]
)
(;B[fr];W[fq];B[gp];W[er];B[dr];W[bo];B[bp];W[dq];B[cq];W[fs]
;B[br];W[ds];B[cr];W[aq];B[ap];W[ar];B[cs];W[es];B[as];W[bs]
;B[bq]C[Nicksib:  maybe something like this is better])))
(;W[sa];B[fj];W[fi];B[hj];W[jh];B[jj];W[lh];B[lj];W[kd];B[ih]
;W[ii];B[ig];W[hi];B[ji];W[ij];B[hk];W[ik];B[hl];W[gm];B[il]
;W[jk];B[kk];W[jl]TR[fh][gh][hh][ei][fi][hi][ii][ej][ij][ik]
[jk]C[Nicksib:  i'm not sure what you can do....w can't be captured]
))
(;B[io])
(;B[pm])
(;B[kc]))
(;B[hc]TR[eb]C[Nicksib:  if b can ever get a stone here....now b can direclty invade at marked spot INStEAD of pushing.  

also, the push limits liberties of e16 group (but in this case since you played b14, not that big of a deal)]
))
(;B[fg]C[Nicksib:  you're strong (albeit overconcentrated) here, right?  please find more severe moves.  you play moves like e13 when you are weak in the area.]
))
(;B[ek];W[fk];B[el];W[fl];B[dm];W[dn];B[cm];W[em];B[dl];W[bm]
C[oops]))
(;B[sa];W[bf];B[df];W[ae];B[cg]C[maybe I didn't have much to worry about here

Nicksib:  b is still OK, as you say.  but you can see that B has already lost half of a handicap stone here (when factoring in your tenuki and seeing how its w's move.  if w plays something like L4....w can expect 12 points at the top left, 18 points on bottom, and 4 points on left for a total of 34.  B, on the other hand, can expect 5 points in top right, 6 points on top left, 8 pts on bottom right, and 18 points on bottom left for a total of 37.]
))
(;B[dm];W[cm];B[dk];W[dl];B[el];W[cl];B[dj]TR[io]C[I conisdered this variation during game but didn't play it. It looks actually pretty nic.

Nicksib:  w would sure take this marked point on his next move though....which helps w in a number of ways and limit b's influence..]
))
(;B[cl];W[cq];B[cp];W[dq];B[ep];W[bp];B[bo];W[bq];B[co];W[fr]
;B[go]TR[gr]C[Nicksib:  even though b gave the corner, I think w is starting to get scared of the big b potential.  A white move at the marked space seems prudent however it is painful for w to have to crawl on 2nd line so he will probably turn his attention elsewhere.]
))
(;B[qq]LB[mq:1]C[according to Kogo, this move aims later at invasion at 1, with options of connection or escape.

Nicksib:  i would wait for later to do this.])
(;B[pm];W[om];B[ol];W[nm];B[nl];W[mm]
(;B[qn]C[black helped white build moyo but for black
this seems to coordinate  with Q16])
(;B[qq]C[if your'e going to play this way, you might as well play at r3 now.]
)))
(;B[po];W[qp];B[qo]
(;W[rp];B[no]C[Seems consistent.])
(;W[pp];B[oo]C[Nicksib:  also consistent.])))
(;B[fc];W[cn];B[fq];W[dj]C[I feel this is too nice for white to get this result ?

Nicksib:  W is not unhappy...but B is solid.  This is fine for both; a common handicap joseki.  In short, you are choosing to keep the game simple now and make complications later when you play this way.]
))
