(;FF[4]GM[1]SZ[19]ST[2]CA[UTF-8]AP[SGFC:1.15]

PB[Jeff]
BR[17k]
PW[Unknown]
KM[6.5]
DT[2009-01-20]
RE[W+Time]
RU[Japanese]

;B[pd];W[dq];B[cd];W[qp];B[do];W[co];B[cn];W[cp];B[dn];W[lc]

(;B[fq]C[I know White is supposed to extend to this point in this joseki, so I played here to punish him for this omission.]

(;W[fr];B[ep]C[very good - you played on your vital point - w missed his chance]
;W[eq];B[fp];W[gq]
(;B[eo]C[At this point I am just playing to contain White in his corner and have influence toward both sides and the center. So I make solid connections on all the cutting points. I feel like I haven't taken full advantage of White's failure to extend to the 6-3 point a few moves ago. How could I have played it better?

this move is not necessary - it is a (big) mistake, because you give up sente (you can connect anyway - d4/e5 are miai, and the cutting stone is caught anyway) - see variation)
so you can tenuki and strengthen your position on another side of the board. i am not sure what is the best, it depends on your style and feeling but there are a lot of big points on the board]
;W[bn];B[bm];W[ao];B[ec]C[this is good - you start making a huge left side]
;W[cf]C[i think you should have pincered before you star the sequence in the lower right corner - so you make use of your wall and also w cannot extend down to c11 in the future]

(;B[op];W[oq];B[nq];W[or];B[np]
(;W[fc]C[too aggressive];B[ed];W[fb]
(;B[eb];W[bd]
(;B[bc]C[this is too submissive - you should cut outside];W[be]
;B[cc];W[ee];B[de];W[df];B[fd];W[fe];B[gd]C[I want to make sure my corner group here doesn't get completely hemmed in.]
;W[gc];B[he];W[ge]
(;B[hd];W[hc]
(;B[jp]C[looks ok - but stronger would be to reduce the w wall on the left side to make it a target for attacking

if you wonna play there first extend to g4 - big move (strengthens your wall and presses w down)]

(;W[qc]C[too early from white];B[pc];W[qd];B[qe];W[re];B[qf]
;W[rf];B[qg];W[rg];B[qh];W[pb];B[ob]
(;W[rb];B[oc];W[oa];B[na];W[pa];B[mb];W[mc]
(;B[nc]C[not necessary];W[lb];B[qn]C[Once again I try to attack his corner group since he didn't extend on this side.

this is a good move - but as i showed you earlier you missed the chance for a deciding attack]
;W[ma]
(;B[la];W[ka]
(;B[qq]C[This time I try to be more aggressive in attacking his corner.

is not necessary - just keep him pressed down (you can play this move - but then play on another side and leave it for aji or ko threats for the future)]
;W[pq];B[pp];W[rq];B[qr];W[qo];B[po];W[nr];B[mr];W[rr];B[rp]
;W[ro]C[Well, I screwed up the tactics in this corner completely. He captures my groups before I capture his. So now I have to again play to contain him in this corner and get influence toward the sides and center.]
;B[rn];W[sp]
(;B[pe];W[jd];B[if];W[jf];B[jg];W[kf];B[hg];W[kg]
(;B[jh]TR[he][if][hg][jg]C[I look at this position and I feel like I should dominate the rest of the game, since my influence looks much stronger all over the board. But I didn't.

What I really want to know is how I could have played the next part of the game to take proper advantage of my influence.

as i mentioned before: the target is the upper left group - especially now wiht the marked stones on the board]
;W[gg];B[gh];W[fh];B[hh];W[fi];B[nh];W[kh];B[ki];W[li];B[ji]
;W[lj];B[ll]
(;W[kj];B[ij];W[jk];B[hk];W[il]C[the last b moves were not necessary - you played with w and w dictated the game (what were you afraid about?): the center is not important now there are no points left just play for example: (see variations)

you all the way strengthened w because you didn't play the attacking points]

(;B[gl];W[mk];B[dj];W[cj];B[di];W[ch];B[ci];W[dh]
(;B[eg];W[fg];B[ck];W[bj];B[bi];W[bk];B[bl];W[cl];B[dk];W[am]
;B[ak];W[cm];B[aj]C[Surely I'm way ahead now...but I still didn't manage to control the rest of the game.

because w has a lot of reducing moves now and you should have taken them away-)]
;W[bh]
(;B[dl]C[these w stones are dead anyway - so play elsewhere!!]
;W[ah]
(;B[dm];W[fk];B[fj];W[ej];B[gj];W[ei];B[ek];W[gi]
(;B[fl]C[f9 already dead];W[hn];B[hp];W[gp];B[go];W[ho];B[ip]
;W[gn];B[fo];W[hq];B[ir];W[iq];B[jq];W[hr];B[jr];W[gs];B[kn]
C[good territorial move];W[kl];B[lm];W[nl]C[now there are only a few points left on the right side because w can reduce from the upper side and the center]
;B[pk];W[pl]
(;B[ol];W[ok];B[ql];W[om]C[I simply overlooked the atari.

this can happen-)];B[pm];W[nn]
(;B[ol];W[lo];B[pl];W[oj];B[oi];W[ni]C[i think w is already leading]

(;B[oh];W[pj];B[qj];W[pi];B[ph];W[ne];B[md];W[nd];B[me];W[mf]
;B[ld]C[With not much time left I just misread here and lost these 3 stones.]
;W[kd];B[mo];W[ln];B[mn];W[ko];B[km];W[jn];B[jo];W[jm];B[lp]
;W[mm];B[kp];W[lk];B[lh];W[mh];B[nj];W[mi];B[ml];W[nm];B[hm]
;W[im];B[fa];W[ga];B[ea];W[id]
(;B[ad];W[ae];B[ac];W[ce]C[but anyway - the last moves were good engame moves from you]
;B[dd];W[of];B[qi];W[ik]C[Of course this is a huge blunder by my opponent. Finally he pays for playing too fast, which he has done the whole game to try to pressure me with lack of time since I like to think about my moves and play slowly.]
;B[nk]C[Not only capturing these 4 stones but also killing the 5 stones below, all of which were alive and safe if White had played on this point the previous move. Surely I'm well ahead now...but somehow I still lost!]
;W[jj]
(;B[ii];W[hi]
(;B[hj];W[ng];B[rh]C[huge!!! very excellent];W[sh];B[si];W[sg]

(;B[rj]C[t11 is save]
(;W[gf]
(;B[hf];W[ie];B[io];W[in];B[ns]
(;W[qs];B[os];W[pr];B[ms];W[ma];B[nb];W[la];B[is];W[hs]
(;B[ai];W[gm];B[hl];W[fm]
(;B[gk];W[em];B[el]C[you lost 2 points with this sequence];W[an]
;B[al];W[dp];B[sn];W[hb];B[og];W[oe]
(;B[od]
(;W[le];B[pf]C[but w made the same mistake];W[mj]C[I lost on time here despite the 30-second byo-yomi because of some problem clicking my mouse (first and hopefully only time this happens!). But I counted up the captured and dead stones, then counted all the points of territory we each had, and I found that White is winning by 5 points here.

Clearly I failed to use my influence in the center and especially on the top side where I let White get a lot of territory. I also gave White a lot of territory in the bottom left corner where I was playing for containment and influence.

How could I have played this game better?

so jeff. let me make some concluding remarks:

you had good ideas for the strategy in the opening but then you missed the vital and attacking points (eg. left side and right side) you played too much in the center (w needed a lot of moves to get into this pointless area and you could have played in the meantim on the sides for attacking or getting some territory
the point is : you didn't get your opponent into troubles. he had time to consolidate his position and reduce your territory

also you played some useless stones for capturing already dead ones (improve your reading by trying to solve tesujis or life and death problems) and therefore you missed playing elsewhere

also you missed some more or less big endgame moves  (1 point here, 2 points there...)

so i hope that i could help you and use my hints for your next games

i wish you all the best and good luck,
best greetings, markus

(if you have any further questions just leave a message on kgs for linaria, then we can discuss it or play some teaching game)]
)
(;W[pf];B[pg];W[le]))
(;B[pf]C[1 point]))
(;B[em]TR[jg][jh][ii][ji][ki][fj][gj][hj][ij][hk][fl][gl][hl]
[hm]C[this group is save - so e7 makes points]))
(;B[sn]LB[ai:A]C[a11 is no point]))
(;W[os];B[pr];W[ms];B[ls];W[qs];B[ns];W[ps]C[would have been better endgame for w]
))
(;B[ie]LB[je:A]C[better because you have k15 afterwards]))
(;W[sn];B[sm];W[so]))
(;B[sn];W[sj];B[ri]))
(;B[rh];W[hj];B[gk]))
(;B[hi]C[more points]))
(;B[ha]
(;W[gb];B[ic]C[kill])
(;W[hb];B[ia];W[ib];B[gb];W[ja];B[ga];W[kb])))
(;B[pi];W[pj];B[qj]
(;W[mh])
(;W[mi]
(;B[mf])
(;B[rh]C[better];W[mq];B[mp];W[lq];B[lp];W[lr];B[mn]))))
(;B[mo])
(;B[pj]))
(;B[ql]))
(;B[ok])
(;B[ir])
(;B[rh]))
(;B[ok])
(;B[ir]))
(;B[ok])
(;B[ir]))
(;B[ok])
(;B[ir])
(;B[bh];W[bg];B[bi])
(;B[fj]))
(;B[rh];W[nj];B[pj])
(;B[cj]C[now further away is no longer possible])
(;B[ir])
(;B[nj];W[ri];B[rh];W[sh];B[qi];W[rj];B[qj];W[rk];B[qk]))
(;W[cl]C[now w could attack and make some territory there]N[105]
;B[cm];W[bl];B[dl];W[dk];B[ek];W[dj];B[el];W[gp];B[go];W[nj]
))
(;B[ch];W[bg];B[bh];W[eg];B[ei]C[maybe w manages to live there, but you get a big left side]
;W[fg];B[gp];W[hq];B[gk];W[jh];B[ig])
(;B[mi]C[this looks also big];W[ri];B[rh];W[sh];B[qi];W[rj]
;B[qj]C[just let him crawl on the second line - nearly no points-)]
))
(;B[ne]C[if you are afraid of the cut at q15  you can play more flexible]
)
(;B[jd])
(;B[ch]))
(;B[ch]C[still waiting for being played-)])
(;B[eg];W[ef];B[ch]))
(;B[nb]))
(;B[ch])
(;B[jb]C[big troubles for w - he looses something]
(;W[ic];B[kb]
(;W[lb];B[la];W[kc];B[jc];W[id];B[je];W[ie];B[if];W[jd];B[ke]
;W[kd];B[le];W[hf];B[gf];W[hg];B[ef])
(;W[jc];B[kc];W[kd];B[ld]))
(;W[lb];B[ic];W[id];B[jd];W[ie]
(;B[hb])
(;B[if]C[ladder]))))
(;W[qb];B[nc]))
(;W[cj]C[now b has no use of his influence anymore])
(;W[gp];B[eg];W[ef];B[ch];W[fg];B[eh];W[fh];B[fi];W[lp]))
(;B[ci])
(;B[eg];W[ef];B[ch])
(;B[gp];W[hq]
(;B[jp])
(;B[hp];W[ip]
(;B[ci])
(;B[eg];W[ef];B[ch]))))
(;B[hc]C[better]))
(;B[be]C[cut outside - w cannot live]
(;W[ce];B[bc];W[dd];B[cc];W[bf];B[ad];W[ee];B[fd])
(;W[bc];B[ce];W[cb];B[cc];W[db];B[ea]
(;W[ba];B[ab];W[da];B[ad];W[bb];B[ac]C[dead])
(;W[bb];B[da];W[ca];B[ad];W[ac];B[aa]C[dead]))
(;W[cc]
(;B[ce];W[bb])
(;B[bc];W[dd];B[ce];W[de];B[dc];W[cb];B[bb]))))
(;B[fd];W[eb]
(;B[db]TR[cf]C[isolates the w stone];W[ci];B[gc];W[gb];B[hc]
;W[hb];B[ic];W[ib];B[gf]C[w will live on the left but you got enormous influence and control over the board]
)
(;B[ci];W[ef];B[db];W[gd];B[ff];W[eg];B[ge];W[hd];B[ei]C[w has a hard fight]
)))
(;W[ci]C[now w has a base n the left side-)]))
(;B[ci];W[nq];B[eg]))
(;B[gp]
(;W[dp]
(;B[eo]C[now you are also connected!])
(;B[ch]C[but you need not to connect];W[eo];B[fn]))
(;W[hq];B[op];W[pn];B[qq];W[pq];B[pp];W[rq];B[qo];W[qr];B[rp]
;W[qq];B[qn]C[w is low]))
(;B[fc]
(;W[ic];B[ch]C[this looks nice for b])
(;W[ci];B[cg];W[cl];B[el]C[this is more fighting for w]))
(;B[qg]C[maybe this is a little to slow, but solid];W[nq]))
(;W[ep]C[now i think w could split the b stones]
(;B[dp];W[eq];B[cq];W[bq];B[cr];W[br];B[bp];W[bo])
(;B[eq];W[dp])))
(;B[eq]C[this is the vital point of w - that's why w usually extends to f3]
;W[er];B[dp];W[cr];B[fq];W[fr];B[gq]C[white is pressed down and b has nice influence in the center]
))
