(;FF[4]GM[1]SZ[19]ST[2]CA[UTF-8]AP[SGFC:1.15]

PB[sakaras]
BR[11k]
PW[zako]
WR[10k]
KM[0.5]
DT[2008-12-29]
PC[The KGS Go Server at http://www.gokgs.com/]
RE[W+31.50]
TM[1800]
OT[5x30 byo-yomi]
RU[Japanese]

C[Hi, my name is Marc and I reviewed your game.

Please insert some comments next time (questions, notifications....).
It makes it much more easier for the reviewer to review a game.

First of all I have to say that black lost because of a lot of small moves
at fuseki (the beginning).

The other thing is that both players often throw away sente...
It's so important to keep sente in mind!!
You always should ask yourself:  'does my opponent have to react on my move'!]
;B[pp]C[zako [10k\]: higg];W[dp]C[sakaras [11k\]: hi gg];B[pc]
;W[dd];B[qe];W[pn];B[np];W[pk]LB[fc:4][jc:2][fd:3][jd:1][cf:6]
[df:5][cn:8][dn:7][fq:9]TR[pi]C[Q11 is too small here!

All moves from 3-9 are much bigger...

For myself I would prefer 9 or 4.

9 to support O4 and Q4 and
4 to build up a large terretory with Q17 and R15 later(!).

Of course all moves from 3-9 forcing white to react much more than Q11.]
;B[pi];W[lq]C[This is a mistake of white.

White should play K2 first.];B[mr]LB[jq:A]C[N2 is too small here.

Black should play A instead in order to threat white for playing so close ;-).]
;W[mq];B[nq];W[iq];B[kq]LB[fp:A]C[It's not bad but too early here.

You'll recognize this when you have a look at move 26.

Black should play at A first too keep white low.];W[kp];B[jp]
;W[jq];B[kr];W[lr];B[lp];W[ko];B[mp];W[jr];B[ls];W[io]TR[dp]
[iq][jq][jr]C[This result is much more better for white than for black!]
;B[fq]LB[fp:A]C[I think F3 is too deep here if white reacts with A instead of D6 on it.
Until then it's nearly impossible for black to keep F3 alive.]
;W[dn];B[fo];W[dl];B[dj];W[ch];B[df];W[bj];B[ck];W[cl];B[bk]
;W[bl];B[aj];W[bi];B[dq];W[cq];B[dr];W[cr];B[cp];W[co];B[bp]
;W[bq];B[bo];W[bn];B[am];W[al];B[an];W[ap];B[ep];W[ao];B[ak]
;W[bf];B[dh];W[ce];B[fd];W[fc];B[gc];W[ec];B[ee];W[gd];B[ge]
;W[hd];B[hc];W[id];B[ic];W[jd];B[jc]C[I think white should play L16 to keep black low....]
;W[if];B[kd];W[ke];B[ld];W[kg]C[It is hard to understand white here....

Black could be lucky that white is so kind...!

White should play more agressive!!!];B[mf];W[nh];B[ni];W[mh]
TR[og]C[Black should play P13 in order to save his points.]
;B[mi];W[li];B[lh];W[lg];B[kh];W[jh];B[ki];W[mg];B[lj];W[qo]
;B[og];W[oh];B[ph];W[oi];B[oj];W[pj];B[ij];W[qp];B[qq];W[gp]
;B[gq];W[hq];B[go];W[ho];B[fl];W[nf]C[Now white is punishing black for his neglect.]
;B[me];W[of];B[pf];W[od];B[oc];W[nd];B[nc];W[md];B[mc];W[le]
;B[jg]C[Too deep... black should play H13 instead.];W[ig];B[ih]
;W[ji];B[jj];W[jf];B[ii];W[gg];B[gh];W[fg];B[fh];W[ek];B[gk]
;W[gr];B[fr];W[gs];B[ej]C[This move is really good (E11 is possible too).... 
it secures the upper and the lower group.

If black plays elsewere instead - one or one part of the upper or lower group will be sure dead.]
;W[qi]C[Here black looses some points again];B[qh];W[ri];B[rh]
;W[sh];B[rg];W[ok];B[qm];W[qk];B[om];W[pm];B[pl];W[ol];B[ql]
;W[qn];B[rk];W[rj];B[nm];W[rm];B[nj];W[gb];B[hb];W[ga];B[ha]
;W[eb];B[cg];W[bg];B[cf];W[pq];B[pr];W[rq];B[qr];W[rr];B[op]
;W[km];B[ll];W[lm];B[ml];W[kl];B[kk]C[I will stop commenting here because black is too far behind in order to win....]
;W[hm];B[gm];W[hl];B[gl];W[hk];B[hj];W[jl];B[jk];W[ik];B[hn]
;W[in];B[gn];W[pe];B[pd];W[oe];B[qf];W[eg];B[dg];W[eh];B[ei]
;W[ff];B[fe];W[he];B[cc];W[cd];B[bc];W[ba];B[ef];W[gf];B[hg]
;W[hf];B[hh];W[dk];B[fk];W[cj];B[em];W[dm];B[en];W[ds];B[es]
;W[cs];B[fs];W[is];B[mn];W[ln];B[mo];W[qs];B[ps];W[rs];B[lo]
;W[kn];B[im];W[il];B[fp];W[hp];B[on];W[sg];B[sf];W[si];B[rl]
;W[sl];B[re];W[nk];B[mk];W[po];B[oo];W[sk];B[nl];W[ed];B[di]
;W[ci];B[ks];W[js];B[pg];W[ng];B[jg];W[jh];B[ji];W[jg];B[bd]
;W[be];B[db];W[da];B[cb];W[ca];B[fa];W[fb];B[eo];W[do];B[el]
;W[mm];B[kb];W[tt];B[tt]TW[aa][ea][fa][ab][bb][cb][db][ac][bc]
[cc][dc][ad][bd][ae][ie][je][me][ne][af][kf][lf][mf][ag][ah]
[bh][ai][aj][qj][sj][ak][bk][ck][rk][pl][ql][rl][am][bm][cm]
[im][jm][qm][sm][an][cn][jn][rn][sn][bo][jo][ro][so][bp][cp]
[ip][jp][rp][sp][aq][sq][ar][br][hr][ir][sr][as][bs][hs][ss]
TB[ia][ja][ka][la][ma][na][oa][pa][qa][ra][sa][ib][jb][lb][mb]
[nb][ob][pb][qb][rb][sb][kc][lc][qc][rc][sc][qd][rd][sd][se]
[rf][qg][fi][gi][hi][li][fj][gj][kj][mj][lk][fm][fn][nn][no]
[eq][lq][mq][oq][pq][er][lr][nr][or][ms][ns][os])
