(;FF[4]GM[1]SZ[19]ST[0]AP[SGFC:1.15]VW[]

PB[teddy99]
BR[5k]
HA[0]
PW[chosan]
WR[4k]
KM[0.5]
DT[2009-02-03]
PC[IGS-PandaNet]
RE[W+R]
TM[600]

C[chosan: Hi!

David: Your extension on the top and your 3-3 invasion were both too early when there were bigger moves available on the right side.  

You missed the way to live in the lower right, but you could still give it up and make big moves on the right and have a reasonable game.

you seemed to lose confidence when your 3-3 invasion died.  It you count the territory you will find that the game is still even, so you can afford to take territory on the right.

You could have lived at the end and been behind, but close enough to have a chance to catch up.]
;B[qd]C[I played black in this game and lost due to a move. Please see question following. Thanks]
;W[dp]C[teddy99: hi];B[oq];W[dd];B[oc];W[gc];B[cf];W[cd];B[ci]
;W[cm];B[ic]LB[fq:B][qp:A]C[There are bigger moves.  Enclosing a corner at A is bigger than playing on a side.  The upper side has stable positions on both sides, so any move on the upper side is small.  If you want to play on a side, the lower side is bigger, because it is wider, and the groups on each side are not as strong.]
;W[gq]
(;B[cq]LB[pj:B][qp:A]C[I think this is playable but I cannot get it to work. Black supposed to be able to get the corner.

You can take the corner, but it is way too early.  If white plays here he only gets a small corner, and you are happy to take two moves elsewhere.  For example, say you play A, he takes the corner at your move 13, and you play B.  You gain a  lot by this exchange. So you should take a big move now and save the invasion for later.

If you wait until later you will probably have ko threats just in case the corner becomes a ko.]
;W[dq]
(;B[cp]LB[bp:A]C[It's hard to live with this move.  When white is close on both sides the diagonal move at A is usually better.]
;W[co]
(;B[dr]C[It should be better to hane the other way first, since it's more forcing.]
;W[er];B[eq];W[ep];B[fq];W[fr];B[fp];W[do]
(;B[br];W[ds];B[cs];W[cr]
(;B[ec]LB[kc:A]C[no ko threat

You can still make a big framework on the right side in exchange for this corner.

You do gain a lot on the upper side with this ko threat.  You ge thick so white can't invade around A later.  That's worth a lot of points, so the game is still close.]
;W[bs];B[ed];W[de];B[ee];W[df];B[cg];W[ef];B[hd];W[gf];B[gd]
;W[ei]C[Here my position is getting worse];B[ck];W[dj];B[bl]
;W[el]C[Even here your position is not so bad.  White has very little territoy and you still have a lot of potential on the right side.

White is very thick near your 3 stones so you should not try to pull them out.  White will get a lot of free moves while chasing them, even if they live.  Instead you should build up your right side, and sacrifice the three stones.]

(;B[gp]C[Your decision to pull out this small weak group is really bad. It throws away a game that you can still win.]
;W[hp];B[qp];W[lq]LB[hp:B][gp:A]C[You can see that the exchange of A for B strengthened white so he can extend to 48.]
;B[ho];W[ip]C[should I play that group or just give them up

The last two moves gave white considerable territory on the lwoer side for no compensation.]
;B[gn];W[io];B[in];W[fo];B[go];W[jn];B[im];W[jm];B[ik];W[il]
;B[hl];W[jl]
(;B[gk]C[should be G8?  

No.  white will cut.];W[gm]C[that hurts

The easiest way to win a game is to chase a weak group against your thickness while getting many think moves on the outside. You started with a worthless 3 stone group (just 6 points if you give it up), and you are giving white far more than six points on the lower side and in thickness in the center.  Even if you live now, white's thickness will prevent yuo from making much territory on the right side.]
;B[hm];W[fn];B[hn];W[jk];B[ij];W[jj];B[gi];W[ih];B[ii];W[ji]
;B[hh];W[hg];B[ig];W[jh];B[gg];W[hf];B[fg];W[ff]
(;B[fj]LB[eh:A]C[Better to play at A and make a second eye while threatening to connect.]
;W[hj];B[dk];W[ek];B[ej];W[di];B[dh]
(;W[hi]
(;B[hk]LB[eh:A]C[It's ok to give up 3 stones here to make your group live.  Play A and capture 3 stones to live.

When you live you take gote and white is so thick in the center it will be hard to win.  But white doesn't have a lot of secure territory, so you are not so far behind.]
;W[gh]
(;B[eh]LB[fh:A]C[A seems better.];W[fi];B[gj];W[fh];B[hh];W[hi]
C[teddy99 has resigned the game.])
(;B[fi]C[KO this way.];W[eh];B[fh];W[eg];B[hh])
(;B[fh];W[fi];B[gj];W[hh];B[eh]))
(;B[eh];W[gh];B[fi];W[hk];B[gl];W[qj]))
(;W[eh];B[eg];W[dg];B[ch];W[hi];B[gh];W[hk];B[gl];W[gj];B[fk]
;W[fi]))
(;B[eh];W[dh];B[fi];W[dg];B[eg]))
(;B[gl]
(;W[hj]C[White won't peep.  There is a cut here, so the peep is bad.]
;B[hk];W[kj];B[ij]
(;W[hi])
(;W[kh];B[hi];W[gj];B[ji]))
(;W[hk];B[gk];W[hj];B[gj];W[hi];B[gi];W[hh])))
(;B[qp]
(;W[qj];B[qh];W[qm];B[hq];W[gp];B[kq]C[Black still ahs a good game.]
)
(;W[lq];B[pj])))
(;B[qp];W[bs];B[pj]))
(;B[bo];W[bn];B[bp]
(;W[cr]C[If white captures you can get a good ko.];B[br];W[ds]
;B[aq];W[bs];B[ao];W[ar];B[as])
(;W[br];B[cr])))
(;B[bo];W[bn]
(;B[do];W[cn]
(;B[dr];W[er]
(;B[cr];W[bp];B[bq];W[ao];B[eq];W[ep];B[fq];W[fr];B[fp];W[eo]
;B[fo];W[en])
(;B[bp];W[cr];B[br];W[ds]
(;B[aq];W[bs];B[ao];W[ar]C[This is a much better ko since white has to make the first threat.]
;B[as])
(;B[bs]C[This move is no good.];W[aq];B[ar];W[ao])))
(;B[bp]
(;W[cr]C[If white answers here you can get a better ko.];B[br]
;W[dr];B[aq];W[bs];B[ao];W[ar];B[as]LB[bl:B][an:A]C[This way white makes the first ko threat.  You have a local threat to escape at A (B next), so you can even answer one ko threat.]
)
(;W[br];B[cr];W[dr];B[bs];W[ar];B[aq];W[ao])))
(;B[dr];W[er];B[eq];W[ep];B[fq];W[fr];B[fp]
(;W[do])
(;W[gp];B[fo];W[do];B[br];W[ds];B[cs];W[cr]))))
(;B[bp]
(;W[cp];B[br];W[cr];B[bq];W[dr];B[bn];W[bm]
(;B[cn];W[dn];B[co]
(;W[an];B[ao];W[am];B[bs];W[do];B[bo];W[dl])
(;W[do];B[ao]))
(;B[bs]
(;W[cn];B[bo])
(;W[ao];B[an];W[bo];B[co];W[cn];B[ap];W[bo];B[ao];W[do];B[ar]
))
(;B[co];W[do];B[cn]
(;W[dn];B[ao])
(;W[an];B[ao];W[am];B[dn])))
(;W[cr];B[br];W[dr];B[bn])
(;W[co];B[br];W[dr];B[bo];W[bn];B[bs];W[aq];B[ar])
(;W[dr];B[br];W[cr];B[bn])))
(;B[dq];W[cq];B[cr];W[dr];B[eq]
(;W[er])
(;W[br];B[cp];W[cs];B[do];W[bp];B[co];W[bo];B[er];W[go];B[fp]
;W[gp];B[em];W[cn];B[en];W[lq];B[qp];W[qj])))
