(;FF[4]GM[1]SZ[19]ST[2]CA[UTF-8]AP[SGFC:1.15]

PB[togo]
BR[6k]
PW[moria31]
WR[6k]
KM[6.5]
DT[2009-02-11]
PC[The KGS Go Server at http://www.gokgs.com/]
RE[B+44.50]
TM[1500]
OT[5x30 byo-yomi]
RU[Japanese]

C[*******
I will put all my comments below like this.];B[pc];W[qp];B[dq]
;W[dc]C[*****
I presume you wanted this type of opening. Typically it induces a lot of fighting. You have a fighting style, so that's good.]
;B[ce];W[ee]C[****
This is not typical Joseki. This is a trick play, but it seems you do not know the trick.]

(;B[dg]
(;W[hd]C[White stone is too close. See variation for black]

(;B[do];W[cl]C[*******
This invasion is too early. Black's stones can easily secure themselves. The thickness gained will make territory and influence elsewhere.]
;B[cj]C[**********
This is a perfect black response.];W[bn];B[bo];W[ek];B[hp];W[ep]
C[*********
This is a bad overplay. White is not settled on top, and black is strong. White will be split and in troubl.e]
;B[dp];W[fo]
(;B[lq]C[****
This is too easy on white. See variation.];W[oq];B[fq];W[fm]
;B[qi];W[pe]C[*************
This is overaggressive. Black attacks and white needs to run, and black gains.]
;B[nd];W[kc];B[qd];W[qm];B[nf];W[oh];B[pg];W[ph];B[qh];W[of]
;B[og];W[ng];B[nh];W[mg];B[oi];W[mh];B[ne];W[ni];B[pi];W[nh]
;B[qg]C[*************
Black now has a large corner. White has a very innefficient clump of stones. 

Fighting where your opponent is so strong results in these types of outcomes.]
;W[oc];B[nc];W[pd];B[pb];W[mb];B[nb]C[****
This just gives black more points.];W[cd]C[*********
This is a good move, as was shown in the variation at the beginning of the game. It's still a good move.]
;B[ke]C[***********
Black is thinking he wants to prevent white from sealing off this area. But he is so thick there, he could probably still get in even after white played there.

White needs to attack the D13 group. White is strong there and needs to get points.]

(;W[jf];B[kf];W[kg]C[These moves are small and do little. White is benefiting though, because the outside is strengthening.]
;B[je];W[if]C[****
White cannot play here, though due to black's attack.  White must play K17.]
;B[jc];W[kd];B[jd];W[le];B[lf];W[mf];B[me];W[jb];B[ib];W[kb]
C[********
White got lucky here and black made a mistake.]
(;B[ld];W[ic];B[hb];W[gc];B[lg];W[lh];B[kh]
(;W[jg];B[ki]
(;W[nj];B[kk];W[nl]C[**********

White gets away, but the black stones are helpful in keeping the middle from going to white.]
;B[ie];W[he];B[hf];W[hg];B[gf];W[gg];B[ff];W[fg];B[ef]
(;W[di]C[*******
This move eliminates attack possibilities on the black stones. Not good.]
;B[ci];W[dh];B[ch];W[eg];B[cf];W[de];B[df];W[km]C[**********
While this attack is nice, it would have been better to attack black from two directions, as earlier.]
;B[mk];W[nk];B[lm]
(;W[kl];B[ll];W[lj];B[lk];W[kj];B[jk]C[******
This is a disaster for white.];W[im];B[kn];W[jn];B[il];W[jm]
;B[ln];W[jo]
(;B[jq];W[kp];B[lp];W[kq];B[kr]
(;W[ko]C[*******
This helps black solidify.];B[lo];W[jj];B[ij];W[ii];B[iq]C[******
Black fixes his weakness.];W[hj];B[ik];W[no];B[cn]
(;W[cm]C[*******
White can play as in variation.];B[dm];W[dl];B[eo];W[en];B[gn]
;W[hm];B[gm];W[hl];B[hk];W[gl];B[fn];W[go];B[dj];W[ej];B[gk]
;W[gj];B[fl]
(;W[em];B[fk];W[fj];B[el];W[hn];B[dn];W[dk];B[io];W[gn];B[rl]
;W[rm];B[ql];W[pl];B[pk];W[pm];B[sm];W[sn];B[sl];W[ro];B[nr]
;W[or];B[nq];W[np];B[fe]
(;W[fd];B[gd]C[*******
This was nicely done by black. A disaster for white.

The game is quite lopsided at this point. No further comments until the end.]

(;W[id];B[le];W[fc];B[hc];W[ge];B[gd];W[bd];B[be];W[gb];B[mj]
;W[mi];B[ji];W[li];B[ad];W[ac];B[ae];W[bb];B[os];W[ps];B[ns]
;W[qr];B[ok];W[ol];B[nn];W[on];B[nm];W[fp];B[eq];W[gp];B[gq]
;W[bm];B[ao];W[bk];B[bj];W[oj];B[pj];W[ha];B[ia];W[hd];B[ic]
;W[ge];B[he];W[gd];B[ga];W[fa];B[ed];W[dd];B[eb];W[ec];B[fb]
;W[db];B[ha];W[ea];B[mp];W[aj];B[ai];W[ak];B[mo];W[oo];B[ml]
;W[an];B[jp];W[ho];B[tt];W[tt]TW[aa][ba][ca][da][ab][cb][eb]
[fb][bc][cc][ed][ig][eh][fh][gh][hh][ih][jh][kh][ei][fi][gi]
[hi][ji][ki][al][bl][am][gm][fn][pn][qn][rn][po][qo][so][op]
[pp][rp][sp][pq][qq][rq][sq][pr][rr][sr][qs][rs][ss]TB[ja][ka]
[la][ma][na][oa][pa][qa][ra][sa][jb][kb][lb][mb][ob][qb][rb]
[sb][kc][lc][mc][oc][qc][rc][sc][kd][md][od][pd][rd][sd][oe]
[pe][qe][re][se][af][bf][of][pf][qf][rf][sf][ag][bg][cg][rg]
[sg][ah][bh][rh][sh][bi][ri][si][qj][rj][sj][qk][rk][sk][mm]
[mn][co][ap][bp][cp][aq][bq][cq][hq][mq][ar][br][cr][dr][er]
[fr][gr][hr][ir][jr][lr][mr][as][bs][cs][ds][es][fs][gs][hs]
[is][js][ks][ls][ms]C[***************
Moria,

I believe you are playing too many fast internet games. It seems that you make many aggressive moves and hope for your opponent to make a mistake that you can take advantage of.  As you grow stronger, your opponents will make fewer of these mistakes, and you will cease to progress. 

Generally, attacking is done later, and when you have prepared more with stones somewhere nearby to run to.

Consider expanding your own areas rather than attacking your opponents.

Go is a balance of attack and growing your own territories. Right now you are too far leaning toward the attacking side. Learn to give up heavy groups which are not doing much good.

Good luck with your games!

FindYoda])
(;W[hc];B[fc];W[fb];B[ed];W[gb];B[dd];W[cc]C[****
I think this is the best white can do to minimize the disaster.]
))
(;W[gd];B[fd];W[fc];B[ed];W[ec];B[dd];W[bd]C[**
This move is worth at least the 4 points black got. White is not strong enough to save these stones.]
))
(;W[hn]C[*****
Eliminate the aji];B[fk];W[dn];B[co];W[el]))
(;W[bm]
(;B[cm];W[dl])
(;B[dl];W[dm];B[cm];W[dn];B[co];W[ck])))
(;W[jr]C[****
Black has problems after this.]
(;B[lr];W[iq])
(;B[ir];W[lr];B[js];W[mr])))
(;B[kp]C[***
This is correct for black.]))
(;W[ln];B[mm];W[kn];B[mn];W[mo];B[on];W[pl]C[********
From here, white can try to take profit at the bottom.];B[lo]
C[****
After this cut, black can make life threatening the white stones - I think.]
))
(;W[jj];B[kj];W[km];B[ih];W[ig]C[*********
Black is uncomfortable.]))
(;W[nk]C[********
This is OK.];B[nj];W[mj];B[oj];W[mk];B[mi];W[li];B[lj];W[mi]
))
(;W[ki]C[*****
Give up this stone. White must run.]))
(;B[hc];W[id];B[ic];W[ld];B[fc]C[****
It may not be 100% clear, but black easily wins this fight.]
;W[gd];B[eb];W[gc];B[gb];W[db];B[ja];W[fd];B[ka];W[la];B[ia]
;W[lg];B[lb];W[lc];B[mc]))
(;W[ch]
(;B[dh];W[ci];B[di];W[bj];B[bk];W[ck];B[dj];W[bi]C[*********
One way.])
(;B[cg];W[ci];B[dj];W[eh];B[dh];W[di];B[ei];W[ej];B[fi];W[bj]
C[*********
Another way.])))
(;B[gn];W[fn];B[gm];W[em];B[fq]C[******
Black's stones are all working toward the outside, building up a position. White's stones don't even have two eyes at this point.]
))
(;B[dd];W[ed];B[cc];W[ec]C[White's wall is too close and has lost sente.]
))
(;W[cd];B[de];W[dd]C[****
This is correct play. White has the corner and expansion possibilities on the top. Black is heavily concentrated and innefficient.]
))
(;B[cc]C[Black should play this way];W[dd];B[cd];W[eg];B[ch]
C[Black is a little low, but the territory is clean and efficient. Expansion is possible to the bottom. White gets a good wall and sente, but black's clean territory is worth slightly more.]
))
