(;FF[4]GM[1]SZ[19]ST[2]CA[UTF-8]AP[SGFC:1.15]

PB[Jimkgs]
BR[6k]
PW[Homenokka]
WR[5k]
KM[0.5]
DT[2009-03-01]
PC[The KGS Go Server at http://www.gokgs.com/]
RE[B+9.50]
TM[1200]
OT[1x10 byo-yomi]
RU[Japanese]

C[Hi, thanks for reviewing my game. I take white in this game, in which I probably do plenty of lousy moves, but am especially interested in three parts: black's rightside invasion, the way to use the thickness gained from shutting him in, and finally how to answer black's invasion/reduction in the central framework.

DanielTom (reviewer) - Hello! I'm 2d on KGS so I'm not really strong but I'm going to try to help you. Let's take a look at the game. In the end of the game record you can find what I think are your main weaknesses and how to improve from here.]

(;B[cd]C[DT - I added some variations here to show you the most basic openings and to talk a bit about them so you can choose what you find most pleasant. Probably you already know (most) of them but it's always nice to review this basics. Studying Fuseki (opening) is always a sure way to improve.]
;W[pp];B[pc];W[dq]
(;B[mq]LB[qe:A][qn:B][co:C]C[DT - This is the wrong direction and a bit greedy. Black didn't like the idea of you having the bottom all for youself.
A B and C would be the normal directions of play (see variations).]

(;W[pn]LB[oq:A]C[DT - I would take the the corner with A but there many other options - see variations.]
;B[pr]
(;W[qq]LB[pq:A]C[DT - A instead is better, I think.];B[qr]
(;W[oq]LB[qj:A]C[this was a bad move?

DT - It's not bad, you're making Black walk in the 2nd line (witch is always bad so early in the game) but i would play at A directly.]
;B[or];W[pe];B[mc]C[Here I felt that the following moves gave black an easy time invading,]

(;W[og]LB[qi:A]C[DT - Yes, this move is not really good. A move around A would be much better.]
;B[qd];W[qe];B[pj]C[DT - Black did well here.]
(;W[nj]C[DT - This was a good move.];B[qm];W[pm];B[qn];W[qo]
;B[pl];W[ol];B[pk]
(;W[qh]C[DT - Are you trying to kill here? :)];B[qi];W[rh];B[ri]
;W[rk];B[qk];W[rl];B[ql];W[si];B[sj];W[sh];B[rj];W[ni];B[ph]
;W[pg];B[oh];W[nh];B[oi];W[oj];B[pi]C[I left the cut at O13 unprotected, since I didn't think the R14 group was in danger, and thought that there isn't much territory to be gained even if I connect]
;W[kq]LB[ng:B][om:A]C[is c5 better, since the black group is pretty safe anyway?

DT - Here you need to be careful with A and B cutting points.]
;B[lq]C[DT - This move is bad for Black, it only makes White stronger.]
;W[kp];B[rq];W[rp];B[pq]LB[dq:A]C[now the c3 stone seems a wasted move

DT - I don't see the c3 stone :( If you mean A then no, it's not waisted.]
;W[qp];B[sq];W[rn];B[rm]
(;W[ok]LB[nm:A]C[DT - This is too slow. If you want to fix yur shape locally A would be better.]
;B[op]
(;W[dn]LB[dg:A]C[DT - This is a good point but I think you could have done better. See A variation please.]
;B[ck]C[DT - This move is too deep.]
(;W[cm]TR[nh][ni][nj][oj][ok][ol]C[DT - This was a bad move globally. You didn't pay attention to the whole board. This is a very important lesson: if you have thickness, you must use it! ATTACK! Drive your opponent's weak stones towards your thickness (the marked way). Please see variation.]
;B[ch]TR[nh][ni][nj][oj][ok][ol]C[DT - Black has a solid position and it's now hard to use the marked wall.]
;W[ec]LB[fc:A]C[DT - Usually to avoid fight (a pincer) White plays at A but here it's not too risky because you have thickness in the center.]
;B[dc];W[ed];B[df]C[DT - Black was a bit soft here I think. Maybe it's just a matter of style.]
;W[hc]LB[ic:A]C[J17 much better?
DT - Yes, A is the normal shape.];B[jc];W[db];B[cb];W[dd];B[cc]

(;W[ek]LB[hc:B][ek:D][jm:C][oo:A]C[this seems too greedy, as it doesn't threaten the left side, would something like G4 or G5 be better?

DT - This move was OK. But don't forget Black's painful move at A and the B group.  
Personally, I would play C instead of D.];B[gq]C[DT - This is way too deep. You should try to kill this group.]

(;W[hp]LB[ho:A]C[DT - A looks better.];B[hq];W[ip];B[er];W[dr]
;B[eq]
(;W[ir]C[DT - I think you should just cover Black here. See variation.]
;B[fo];W[gn];B[gp]
(;W[go];B[eo];W[do];B[hr]
(;W[iq]C[DT - This move is not necessary!];B[dp];W[cp];B[ep]
;W[fr];B[ds];W[cr];B[fq]LB[iq:A]C[Here I have little choice but try to take territory in the center, any suggestion how I could handle it better?

DT - A was not necessary, Black should have died :(];W[mo];B[no]
;W[nn];B[np];W[mn]C[I felt W100 was necessary to keep black from breaking through, but the next move ruined my territory prospects]
;B[jj]LB[ec:B][di:A]C[Now what to do? I felt the black stone invaded too deep, but I could't find a way to attack it, while securing territory. What would be the best way to attack?

DT - Yes, this is too deep! Your move in the game was OK but you could also start by playing some forcing moves like A.
The problem is that your B group is not really strong...]
(;W[ih]C[I thought that my only chance was to kill the invasion, but that is unreasonable?

DT - This is the only way, attack (KILL!) the invader.];B[jh]
;W[jg];B[ii];W[hh];B[hi];W[gi];B[gj];W[fi];B[kh];W[kg];B[hl]
;W[ik];B[jl];W[jk];B[kk];W[il];B[hk];W[im];B[fj];W[ej];B[ei]
;W[gg];B[eh];W[fl];B[ig]C[Now the game is pretty much lost

DT - No, you're doing well, Black is having a hard time (isn't he dead?).]

(;W[hg]LB[if:A]C[DT - Oh, no! You should play at A and connect the groups!!!
See variation!];B[if]C[DT - :(];W[lg];B[gh];W[fh];B[fg];W[kj]
;B[lj];W[kl];B[lk];W[ij];B[ki];W[ge];B[gh];W[he];B[je]LB[hk:B]
[fq:A]C[Black has pretty thin positions, but I could'nt find severe invasion or cut possibilities other than the gote ones I played. Any suggestions?

DT - Black is leading now by a lot, so game over now. As I showed you before, you could have killed A and B. See the end of the game record for a list of advices.]
;W[qb]C[DT - This doesn't work (you're probably confused with the star joseki).]

(;B[pb]C[DT - This is bad for Black. See variation.];W[rd];B[qc]
;W[rc];B[rb];W[kd];B[jd];W[kb];B[kc];W[jb];B[lb];W[ic];B[le]
;W[ie];B[jf];W[bj];B[cj];W[bk];B[bi];W[cl];B[ll];W[nd];B[nc]
;W[md];B[ld];W[mf];B[me];W[ne];B[lf];W[mh];B[km];W[gs];B[hs]
;W[es];B[gr];W[dj];B[di];W[de];B[ce];W[hm];B[fn];W[fm];B[gl]

(;W[da]LB[ca:A]C[DT - Your endgame seems OK, but this move is not really good because now Black can get A in sente. See variation.]
;B[ca];W[fb];B[ef];W[sb];B[qa];W[kn];B[ln];W[lo];B[lm];W[jm]
;B[sn];W[ro];B[sp];W[po];B[so];W[lr];B[mr];W[kr];B[fk];W[dk]
;B[ci];W[em];B[is];W[js];B[ka];W[ia];B[sc];W[sd];B[od];W[oe]
;B[fe];W[fd];B[aj];W[al];B[fs];W[cs];B[es];W[pd];B[oc];W[kf]
;B[ke];W[ms];B[ns];W[ls];B[on];W[om];B[oo];W[mp];B[nq];W[ee]
;B[ff];W[hj];B[gk];W[gm];B[mg];W[ng];B[lh];W[mg];B[mj];W[mm]
;B[ml];W[nl];B[mi];W[id];B[kl];W[ja];B[la];W[re];B[ra];W[ak]
;B[ai];W[sc];B[gf];W[hf];B[ha];W[ib];B[fa];W[eb];B[tt];W[tt]
LB[hg:E][ck:D][ok:C][kl:B][gr:A]TW[ea][fa][ga][ha][gb][hb][fc]
[gc][gd][hd][se][nf][of][pf][qf][rf][sf][qg][rg][sg][bl][dl]
[el][am][bm][dm][nm][an][bn][cn][hn][in][jn][ao][bo][co][ho]
[io][jo][ko][ap][bp][jp][aq][bq][cq][jq][ar][br][jr][as][bs]
[ks]TB[aa][ba][ma][na][oa][pa][ab][bb][mb][nb][ob][qb][ac][bc]
[lc][ad][bd][kd][ae][be][af][bf][cf][ag][bg][cg][dg][eg][ah]
[bh][dh][fh][fi][gi][ji][li][kj][qj][rk][sk][rl][sl][sm][fp]
[oq][fr][nr][rr][sr][gs][os][ps][qs][rs][ss]C[Homenokka [5k\]: thanks
Jimkgs [6k\]: ty

DT - I think that your main problems are strategy and reading.
If your reading was better you could have killed the marked groups - A and B. 
As you know, thickness shouldn't be used to make territory. So next time, when you have a wall (C) and you opponent invades (D) use your wall to attack it.
Your main mistake was move E. 
In order to improve your reading, you should do many life and death go problems. Remember: "Focus on solving many easy problems fast - better than working on very difficult ones. It's in simple situations where most mistakes occur during real games."
I advice you to use the Chinese Opening (pros think it's the best opening for your level). And have fun!
I hope this review was helpful. I wish you all the luck in the world. 
Bye bye ^_^])
(;W[eb]LB[ca:B][da:A]C[DT - This is better for White because now B becomes sente for you and if Black wants to play here A is gote anyway.]
))
(;B[qc]C[DT - Black can simply play here.]))
(;W[if]C[DT - Here White is connected and Black is dead!];B[gh]
;W[fh];B[fg];W[gh];B[gf];W[hg];B[hf];W[ig];B[lg];W[lf]C[DT - Black is captured.]
;B[ie];W[mg];B[lh];W[kf]
(;B[ki];W[lj])
(;B[lj];W[ki])))
(;W[kk];B[jk];W[jl];B[il];W[jm];B[kj];W[lj]
(;B[hk])
(;B[im];W[hk];B[ik];W[kh];B[lk];W[kl];B[li];W[mj];B[ki];W[lh]
;B[hi];W[fi];B[hg];W[fg];B[ie])))
(;W[fr]C[DT - Black is dead.]))
(;W[fn];B[dp];W[cp];B[do];W[co];B[iq];W[jq];B[hr];W[jr];B[go]
;W[ho];B[hn];W[in];B[hm]))
(;W[fo]LB[fh:B][ek:A]C[DT - Black is not alive yet and the center is starting to get bigger. Now A is a nice move because you have B as a follow up.]
))
(;W[ho]))
(;W[jm]))
(;W[ci]
(;B[cg];W[dj])
(;B[ek];W[ei];B[bn];W[co];B[gk];W[gi])))
(;W[oo];B[nq])
(;W[dg]LB[ed:B][dj:A]TR[nh][ni][nj][oj][ok][ol]C[DT - I would play something like this. Now if Black plays a pincer around A it's fine because then you could attack it using the power of the marked wall. If Black simply takes the corner with B... (continue variation).]
N[A];B[ed];W[dj]C[DT - Here you get an excellent position. If Black invades...]
;B[co];W[cp]C[DT - You're happy to attack him.]))
(;W[nm]))
(;W[rk]
(;B[oi];W[ql])
(;B[rj];W[ql];B[rl])))
(;W[pl];B[nj];W[qi];B[qj];W[qh];B[qm];W[ql];B[pm];W[om];B[qn]

(;W[ol];B[qo];W[po];B[rq])
(;W[qo]
(;B[on];W[rm];B[rn];W[ro];B[sn];W[sm];B[po];W[so];B[pn];W[nn]
)
(;B[rl];W[rk];B[ro];W[rm];B[rn];W[sl];B[on];W[po];B[ol];W[nm]
;B[rq]))))
(;W[qj])
(;W[qc];B[qb];W[qd];B[ob];W[qi]C[DT - This joseki would be nice for you.]
))
(;W[qj]))
(;W[pq];B[kq];W[qj]))
(;W[oq];B[jq];W[hq]C[DT - Maybe it's just a matter of style.]
)
(;W[qm];B[qq];W[pq])
(;W[qn];B[pr]LB[oq:A]C[DT - If Black doesn't play here then White can play at A (very painful for Black).]
)
(;W[kq]
(;B[pq];W[qq]
(;B[oq];W[qp];B[kr];W[jr];B[lr];W[jq]C[DT - This is too painful for Black.]
)
(;B[qr];W[qp];B[or];W[oq];B[pr]))
(;B[pr];W[qq];B[qr];W[ql])
(;B[kp]C[DT - I would play here as Black.];W[jq];B[mo];W[qm]
;B[qq];W[qp];B[pq];W[oq];B[or];W[nr];B[nq];W[op];B[pr];W[mr]
;B[lr];W[lq];B[ns];W[mp];B[ms];W[np])))
(;B[qe];W[ed])
(;B[qn];W[ql];B[qe];W[co];B[qq])
(;B[co];W[ec];B[gd]))
(;B[pd];W[dp]
(;B[pq];W[dd]
(;B[qk]LB[pk:B][qk:A]C[DT - This is the Chinese Opening, a very good fuseki for your level (10k-1d). Black can also play A at B. Anyway this opening is for creating a moyo so the most important thing to remember here is: MAKE YOUR MOYO AS BIG AS POSSIBLE. If your opponent invades then you can get profite by attacking his weak groups. Please see the following variations.]

(;W[nc];B[pf];W[jd]
(;B[jp]LB[jp:A][fq:C][hq:B]C[DT - This is a classic. Black makes a nice moyo with A. Now White can get B but Black is OK:
Black can also play A at C is he likes to fight - see possible variation.]
;W[hq];B[ho]C[DT - See? This is a nice way of playing for Black. Good spirite.]
)
(;B[fq];W[ip]LB[dn:A][jp:B]C[DT - If W plays at A instead then Black gets a beautiful moyo with B so W must pincer here.]
;B[fo];W[dn];B[kq]C[DT - This is a fight. If you like fighting you can play this way.]
;W[in];B[fm];W[dl];B[il]))
(;W[mp]C[DT - Here Black has two ways: pincer (hard way - fight) or taking the corner (simple way). See variations.]

(;B[po];W[jp];B[jd]LB[mn:B][mr:A]C[DT - This is the simple way. White's shape at the bottom is very good, but later B can either play at A or B.]
)
(;B[jp];W[oo];B[qo];W[gp];B[jn];W[mm];B[jl];W[mk];B[jj]C[DT - Something like this is possible too.]
))
(;W[qo]C[DT - This is a typical kuy mistake. How can you punish White here? Think first before looking at the solution :)]

(;B[qp]LB[qk:A]C[DT - This is the correct move when you have a stone around A. Now White can't get a base.]
;W[po];B[np]C[DT - Black gets the corner and W is in trouble. Of course White won't die, but you can get more territory and power in the center by attacking - see continuation.]
;W[qm];B[ok]C[DT - White doesn't have two eyes yet so she (White) must run.]
;W[nn];B[lp];W[ln];B[mm];W[mn];B[lk];W[jn];B[ip]C[DT - Poor White got nothing. Look at Black. So happy ^__^. This is a nice way of attacking.]
)
(;B[qm]LB[qk:A]C[DT - This is bad because White can go to the corner now and you already have a pincer played (A).]
;W[qq])))
(;B[fq];W[cn];B[jp]C[DT - This is the Kobayashi Opening. It's used for making territory on the bottom (today pros use it to make a moyo too). There are too many variations so I will show you only the basic continuation.]
;W[qn];B[qp];W[qk];B[qi];W[on];B[pm];W[pn];B[mp];W[ok]LB[fc:A]
[qf:B]C[DT - This is the usual way. Black now can play at A or B.]
)
(;B[qo];W[kq]LB[cf:C][cj:D][cn:A][fq:B]C[DT - Black here has many ways. I added A and B variation.]

(;B[cn];W[fp];B[bp];W[cq];B[ck];W[nq];B[fc]C[DT - This opening is OK too.]
)
(;B[fq];W[eq];B[fp];W[dn];B[iq];W[nq];B[cf]C[DT - This is common too.]
)))
(;B[qp];W[dd]
(;B[fq];W[cn];B[kq]C[DT - This is called "Mini Chinese Opening". There are many variations so you can check them later using a database. Here I will only show you the most common way to play.]
;W[qj]C[DT - Of course White has to split Black here. If she doesn't then Black gets a double wing (game over!) :)]
;B[qg];W[qm];B[pk];W[qk];B[pn];W[pl]C[DT - This is the most common way.]
;B[fc])
(;B[oq];W[qj];B[cj];W[qm];B[fc];W[cf];B[cm];W[fq];B[db];W[cc]
;B[ic]C[DT - This is a classic opening.]))
(;B[pp];W[dd]
(;B[pj]C[DT - We all know this one :)];W[nq]
(;B[pn];W[jp];B[jd]C[DT - Classic :)])
(;B[lq];W[qq];B[qp];W[pq];B[op];W[nr];B[mo];W[nc];B[ne]C[DT - Also classic :)]
))
(;B[fq]C[DT - There are too many variations but continue this one to see a nice joseki: the Kobayashi Joseki.]
;W[cn];B[dr];W[cq];B[iq];W[qn];B[np]C[DT - White to play. Think first :)]
;W[qk]LB[qj:C][qk:A][rp:B]C[DT - B and C are also possible but this one (A) is the Kobayashi Joseki, very nice (and simple) to develop fast. See the rest of the joseki.]
;B[qo];W[ro];B[rp];W[qh]C[DT - Looks nice, doesn't it?]))))
