(;FF[4]GM[1]SZ[19]ST[2]CA[UTF-8]AP[SGFC:1.15]

PB[moria31]
BR[6k]
HA[2]
PW[FrIt]
WR[4k]
KM[0.5]
DT[2009-02-19]
PC[The KGS Go Server at http://www.gokgs.com/]
RE[W+12.50]
TM[2100]
OT[5x40 byo-yomi]
RU[Japanese]

AB[pd][dp];W[dc];B[de];W[fc]
(;B[fd]C[rs220675: That is not a good move since it gives white the chance to go "ahead"...better play the joseki in the variation]
;W[gc];B[cc];W[cd];B[dd];W[bc];B[cb];W[db];B[ce];W[bd];B[be]
;W[bb];B[ck]C[rs220675: Well played from black.];W[pq];B[po]
;W[qm];B[qq];W[pp];B[qp];W[qo];B[pr]C[rs220675: Actually the outcome was good for you]
;W[oo];B[pn];W[qn]C[rs220675: Very good.]
(;B[or];W[om];B[op];W[pm];B[oq];W[qf];B[nd];W[qc];B[qd];W[rd]

(;B[pc];W[rb]
(;B[kc]C[rs220675: No, see var.];W[pb];B[ob];W[iq]C[rs220675: Did you see? Because you didn't pressure white, white is living comfortably in the corner and was able to make the next big move, something one should be always worried in the beginning.]

(;B[kq]C[rs220675: Wrong direction. The move itself is ok, but not efficient enough. From a black wall like that you should be able to expant more than 3 points; see var.]
;W[fq]
(;B[dq]C[rs220675: Ok, but the variation is a bit better because more pressured.]
;W[dn]
(;B[co]C[rs220675: Mistake, because you give white an easy way to invade your whole moyo without sacrificing anything.]
;W[cn];B[di];W[fo];B[ko];W[no];B[qh]C[rs220675: Good.];W[pg]

(;B[oh]C[rs220675: Bad move. You need to esatblish are base for your group so that the group can live easily. That is always important, esp. in the beginning of the game and if you invade a moyo. You won't make immediate profit with such an attitude, but later it will pay out., just be patient.; see var.]
;W[mp];B[mq];W[ph];B[oi];W[pi];B[oj];W[pj];B[og];W[lp];B[kp]
C[rs220675: White is striking back, because you gave him the opportunity in the left bottom corner and on the left side with your sloppy play against fundamental go rules (the master would say :)).]
;W[lq];B[lr];W[mr];B[ms];W[nq];B[nr];W[kr];B[np];W[mq];B[mo]
C[rs220675: Ok, from here it seems a typical 5k game. You made two mistakes that already got back to you here:

1. You didn't follow the rule to establish stable groups that live or have enough room to live so that you don't feel to play there more to secure something. That is the most important tool to become stronger...if you realize that big & fancy moves can not make up for necessary moves to avoid pressured or death groups.
2. You didn't have a good understanding of how to invade a moyo or how to react a moyo invasion (I wasn't better when I was 6k :)). If you invade a moyo, try to establish a gruop that is not pressured hard, if someone invades in your moyo try to avoid that he establishes a strong group. The strategic idea behind moyo is not to make quickly big territory but to force the opponent to invade, so then one can fight.]
;W[ls];B[lo];W[ns];B[jr];W[jq];B[ir];W[hr];B[os];W[js];B[ms]
;W[bn];B[bo];W[ns];B[re]C[this one isn't good...
some ko threat?];W[is];B[sd];W[rc];B[pa];W[qe];B[qb];W[rf];B[nn]
;W[on];B[ll];W[ke];B[lf]C[maybe something like H15?];W[jc];B[kd]
;W[jd];B[le];W[kf];B[kg];W[jg];B[kh];W[jh];B[ki];W[ji];B[if]
;W[jf];B[gf];W[kj];B[lj];W[kk];B[lk];W[jb];B[kb];W[eh]C[how to respond here?]
;B[dh];W[eg];B[ef];W[dg];B[cg];W[gh];B[gg];W[hh];B[ei];W[fi]
;B[fj];W[in];B[el];W[er];B[dr];W[ro];B[rp];W[bl];B[bk];W[fm]
;B[gi];W[fh];B[gk];W[hl];B[gl];W[gm];B[hk];W[ka];B[lb];W[la]
;B[ma];W[ja];B[mb];W[ao];B[ap];W[an];B[bq];W[ds];B[cs];W[es]
;B[cr];W[ak];B[aj];W[al];B[bi];W[mm];B[lm];W[mn];B[nl];W[ln]
;B[kn];W[nm];B[jm];W[im];B[il];W[ok];B[nk];W[ie];B[he];W[hd]
;B[gd];W[ig];B[jj];W[ij];B[jk];W[ik];B[jl];W[hj];B[hm];W[hn]
;B[gj];W[ra];B[of];W[hf];B[ge];W[so];B[sp];W[ae];B[af];W[ad]
;B[ol];W[pk];B[df];W[pe];B[oe];W[cl];B[dl];W[dk];B[cj];W[dm]
;B[io];W[ho];B[ip];W[hp];B[pl];W[ql];B[eo];W[en];B[eq];W[fr]
;B[pp];W[jo];B[jp];W[jn];B[km];W[fl];B[ek];W[fk];B[ec];W[eb]
;B[ed];W[qa];B[pb];W[ml];B[mk];W[hi];B[hg];W[hl];B[ej];W[if]
;B[fg];W[fp];B[ms];W[lr];B[ns];W[hm];B[do];W[tt];B[tt]TW[aa]
[ba][ca][da][ea][fa][ga][ha][ia][sa][ab][cb][fb][gb][hb][ib]
[sb][ac][cc][hc][ic][sc][id][sd][je][re][se][sf][qg][rg][sg]
[ih][qh][rh][sh][ii][qi][ri][si][qj][rj][sj][qk][rk][sk][rl]
[sl][am][bm][cm][rm][sm][fn][gn][nn][rn][sn][go][gp][gq][hq]
[gr][ir][jr][fs][gs][hs][ks]TB[na][oa][nb][lc][mc][nc][oc][ld]
[md][od][ee][fe][me][ne][bf][cf][ff][mf][nf][ag][bg][lg][mg]
[ng][ah][bh][ch][lh][mh][nh][ai][ci][li][mi][ni][bj][dj][kj]
[mj][nj][dk][kk][kl][bp][cp][aq][cq][pq][rq][sq][ar][br][qr]
[rr][sr][as][bs][ps][qs][rs][ss])
(;B[qk])
(;B[ph];W[oh];B[oi];W[nh];B[pj]))
(;B[cn];W[cm];B[co];W[dm];B[ek]C[rs220675: Here it shows how much whites invasion would backfire if the answer is proper. White would have no territory by now, is pressured and black has two nice territories including a big one with even more potential.]
))
(;B[eq];W[fp];B[dn]))
(;B[gq];W[lq];B[cq]TR[iq][lq]C[rs220675: Even with just a passive move like that black has an huge advantage by now, because he has a big moyo that becomes harder to invade/reduce and the two marked white stones are under pressure, so white will have to rescue them and if white does so you can use that to accomplish other things (like invading the white moyo at left or work on your moyo at the right)]
))
(;B[qb];W[rc];B[jc]C[rs220675: With your actual cornerplay decision you give white a big moyo at the left side so you should also think big. More important than to make territory is to make your stones insperable and good balanced. Territory comes then later naturally. And the makred black stones is basically not to cut or at the expense of some disadvantages for white.]
))
(;B[re];W[rc];B[qe];W[oc];B[od];W[nb]C[rs220675: You corner play was alright, but this looks also good for black. Black has the next move and prevented white already from creating dangerous frameworks that could force something later. But that is a taste thing.]
))
(;B[nq]C[rs220675: This move gives you even more options as youcan see on the alternatives.]
;W[op]
(;B[or]TR[pn][po]C[rs220675: In this variation white has still one more move to do to erase the danger from the marked black stones.]
)
(;B[on]C[rs220675: This is a variation if you like to fight.]
;W[or];B[qr]
(;W[oq];B[nr]C[rs220675: White in trouble.])
(;W[nr];B[oq];W[mq];B[np];W[no];B[mp];W[lq]C[rs220675: Ladder works for black.]
))))
(;B[cc];W[cb];B[cd]
(;W[bb];B[ch]C[rs220675: Good for black. White looks "pushed down".]
)
(;W[cg]C[rs220675: This would be overplay for White since black can live and white should get in trouble with a nearby move like that later in the game.]
;B[bb]C[rs220675: Black basically lives here and is stable. Of course things can change later in the game but the goal in the opening is to make stable groups that can live easily and are not under immediate pressure.]
)))
