(;FF[4]GM[1]SZ[19]ST[2]CA[UTF-8]AP[SGFC:1.15]

PB[sronen71]
BR[3k]
PW[chunholee]
WR[2k]
KM[0.5]
DT[2009-02-23]
PC[The KGS Go Server at http://www.gokgs.com/]
RE[B+1.50]
TM[1800]
OT[5x40 byo-yomi]
RU[Japanese]

C[sronen71 [3k\]: hi
chunholee [2k\]: hi,re


Dear Reviewer,
In this game I think I got to a good start. I believe my opponent made a mistake in the first joseki but
I am not sure if I took the best advatnage of it. In the middle game I seemed to get a promising position and I believed I should win by a large margin. I was able to kill a large group  of his but then he also killed some stones of mine. Then he manage to crawl deeply into my big moyo - I feel I should have been able to stop him earlier in this but not sure how. In the end it was very close, so review of  the endgame moves will also be much appreciated. (white only 0.5 komi).
Thank you!

Hi, I'm dN21death on KGS. I'm a low dan so please don't take everything I say very seriously. =D So, I'm kind of confused because it seems the game has been reviewed already or I'm supposed to do a review of a review but I'll try to review it anyways. xD

Being able to see shape patterns and using good shape for connections was something you should work on. Also for the endgame white seemed to take control of it. You had two chances to take sente I think. Well Good luck and continue having fun. =O]
;B[pd];W[dp];B[cd];W[qp];B[op]LB[mq:A][oq:B]
(;W[mq]C[this seems a very rare joseki.

-Not that rare.];B[qq]LB[pp:A][pq:B]C[A in game.

(locally, B is more common).]
(;W[pp]C[joseki, though quite uncommon.];B[pq];W[oq];B[rp]LB[oo:B]
[rq:A]
(;W[rq]C[This is not joseki.
I believe correct moves is P5, see variaton.];B[rr];W[ro];B[sq]
;W[oo];B[np];W[nq];B[qo];W[po];B[qn];W[mo];B[cn];W[fq];B[dj]
C[So here I get to build this Kobaychi formation which I recently learned about.]
;W[ip];B[jd]C[- I like b's position right now.];W[qf];B[qh]
LB[qc:B][of:A]C[I show some variations]
(;W[of];B[nd]LB[qc:A][pi:B]
(;W[qc]C[so here, this does not seem joseki, locally.
normal josek is Q11];B[qd];W[rd]LB[pc:A][re:B]
(;B[pc];W[rb];B[qb];W[rc];B[re]C[how about this move?];W[qe]
;B[rf]LB[oe:A][rg:B]
(;W[oe];B[qg];W[pb];B[ob];W[qa]
(;B[nc]C[I thought I need to do something abotu possible white cutting here.
Do you think thisis  too submissive or ok?

-I think you could take sente to attack white now instead of worrying about P18.]
;W[me];B[ld];W[ri];B[oh];W[rh];B[rg];W[mg];B[pk]LB[ec:A][ed:B]

(;W[ec]LB[gc:B][ee:A]C[is A good ?
maybe B better?

- I would contact with D17, white would go into corner otherwise. Contact also gets you two groups to attack (E17 and N13)]

(;B[ee]C[- I think this lets white off too easily though I see your trying to develop left side.]
;W[hc];B[dc];W[ed]C[- Now E15 is out of place.];B[de]
(;W[jb]C[-I'm surprised white didnt jump out.];B[ic];W[ib]LB[kc:1]
C[sometime later, white 1 will get me in trouble];B[hd];W[gc]

(;B[eb]C[-I think it's better to surround him than lower his eyespace.]
;W[fb];B[db];W[gd];B[kg];W[mi];B[ng];W[nf];B[lf];W[nh];B[og]
;W[od];B[oc];W[mf];B[ni];W[mh];B[nj];W[qm];B[pn];W[rn];B[pm]
;W[ql];B[no];W[on];B[nn];W[om];B[pl];W[nm];B[rk]LB[qk:B][mm:A]
C[I think this kills white on the right, so this is huge.

-I never liked the fact that aji was there for white. xD]
(;W[mm];B[mj];W[ki];B[ii];W[jh];B[hg];W[lj];B[jk];W[if];B[he]
;W[ll];B[fn];W[kc]C[aha, so this move took me by surprise
I wasn't careful about my connection];B[kd];W[md];B[lc];W[mc]
;B[kb];W[mb];B[gp];W[gq];B[hp];W[iq];B[in];W[ge];B[hf];W[gf]
LB[gg:B][fh:A]C[white crawl into my moyo and he got very deep.
Wonder if I could hold him back better.

-They're both fine.]
(;B[fh];W[gg];B[gh];W[jc];B[ko];W[ef]
(;B[df];W[eg];B[dh];W[dg];B[cg];W[eh]LB[di:A][ei:B]C[I wished to block at B but I was worried about the variation showed. Maybe it is possible though?]

(;B[di];W[jl];B[il];W[ei]TR[hh]C[now I worried that the cut at H12 could cause trouble]
;B[gj];W[jo];B[jn];W[kn];B[io];W[jp];B[km];W[ln];B[ej];W[dn]
C[now begins the endgame that became very close];B[dm];W[en]
;B[em];W[co];B[bn];W[bo];B[ep];W[eq];B[fo];W[do];B[or];W[ih]
;B[hh];W[jf];B[id]LB[bm:B][cm:A][an:C]
(;W[cm];B[bm];W[cl];B[bl];W[ck];B[bk];W[fm];B[el];W[fl];B[fk]
;W[le];B[ke];W[kf];B[lb];W[kl];B[ja];W[hb]LB[jm:A][ao:B]
(;B[jm]C[-Bad move.];W[nr];B[pr];W[fp];B[hq]C[-You now lose sente.]
;W[hr];B[gm];W[eo];B[gl];W[ok];B[pj];W[oj];B[oi];W[fi];B[gi]
;W[jj];B[ij];W[kk];B[ol];W[ik];B[hk];W[an];B[am];W[ao];B[cj]
;W[nk];B[nl];W[mk];B[ml];W[lk];B[lm];W[mn];B[fe];W[fd];B[ma]
;W[na];B[la];W[nb];B[sd];W[sc];B[se];W[qk];B[qj];W[ea];B[da]
;W[fa];B[ia];W[ha];B[ka];W[os];B[ps];W[ns];B[ig];W[jg];B[dd]
;W[pg];B[ph];W[pf];B[ji];W[jk];B[kh];W[lg];B[je];W[qi];B[rj]
;W[sl];B[rl];W[rm];B[pi];W[tt];B[tt]TW[ga][oa][pa][ra][sa][gb]
[ob][qb][sb][fc][nc][oc][pc][nd][pd][qd][ne][pe][lf][kg][kh]
[lh][li][kj][nn][ko][lo][no][ap][bp][cp][ep][kp][lp][mp][np]
[op][aq][bq][cq][dq][jq][kq][lq][ar][br][cr][dr][er][fr][gr]
[ir][jr][kr][lr][mr][as][bs][cs][ds][es][fs][gs][hs][is][js]
[ks][ls][ms]TB[aa][ba][ca][ab][bb][cb][ac][bc][cc][ad][bd][ae]
[be][ce][af][bf][cf][sf][ag][bg][sg][ah][bh][ch][rh][sh][ai]
[bi][ci][hi][qi][ri][si][aj][bj][hj][sj][ak][ck][dk][ek][gk]
[qk][sk][al][cl][dl][fl][hl][ql][sl][cm][fm][hm][im][qm][rm]
[sm][gn][hn][rn][sn][go][ho][ro][so][sp][rq][qr][sr][qs][rs]
[ss]C[sronen71 [3k\]: thank you
chunholee [2k\]: ty])
(;B[ao];W[ap];B[an];W[bp]LB[nr:A][ns:B];B[nr];W[mr]))
(;W[bm]C[big endgame but white gote];B[cm];W[an];B[bl];W[am]
;B[al];W[ao])
(;W[an];B[bm];W[am];B[al];W[ao];B[bl]C[white sante endgame]
))
(;B[ei];W[ch];B[di];W[cf];B[bg]C[I worried about this, but maybe can manage nonetheless?

-Yes, this is fine for you, white only gets a endgame move.]
))
(;B[dg]C[-This is the move. =P]))
(;B[gg];W[ff];B[eh];W[ef];B[df]C[better ?]))
(;W[qk];B[qj]TR[rm];W[rm];B[rj]))
(;B[gd];W[db];B[cb];W[eb]))
(;W[he]))
(;B[gc]C[maybe this move is better];W[ee];B[df]LB[cc:B][ef:A]

(;W[ef];B[dg])
(;W[cc]LB[bc:A][dd:B]
(;B[bc];W[dd];B[ce])
(;B[dd];W[dc];B[ed];W[fc];B[fd];W[gb];B[hc])))
(;B[dc];W[ed];B[df]))
(;W[ed]C[maybe higher is better idea for white

-Yes, I think so too.]))
(;B[nh])
(;B[oh]))
(;W[rg];B[qg];W[sf];B[pf];W[se];B[pe]))
(;B[re];W[rc]LB[qe:A][rf:B]
(;B[qe];W[ob]C[I am not sure I like this result])
(;B[rf];W[ob]C[and now maybe black can take sente to play a move in the center.]
)))
(;W[pi]LB[qe:B][ph:A]C[this would be locally joseki. Is it good for white? not sure.  not sure, but he may  be able to make efficent use of influence.]

(;B[ph];W[oh];B[qi];W[pj];B[qj];W[pk];B[ql])
(;B[qe];W[qi];B[rf];W[qg];B[rg];W[rh]TR[qn][qo]C[hmm
not sure
one issue is that I think maybe I need a move to take care of the two black stones now. In this case,  the sente can be nice for white.]
)))
(;W[qc];B[pc];W[qd];B[pe];W[rf];B[og]C[this is common locally, but  white could be worried of big black moyo]
))
(;W[oo];B[np]LB[nq:A][or:B]C[Both A and B joseki.

A seems simple
B can lead to complicated fighting, it is much more common.]

(;W[nq]LB[qo:B][ro:A]C[A appears in Kogo's dictionary

I found only B in a large professional database]
(;B[ro];W[mo];B[po];W[mp]C[Result 1

this joseki
appears in Kogo's dictionary])
(;B[qo];W[po];B[qn];W[mo]C[Result 2]))
(;W[or];B[qn];W[po]LB[qo:A][mp:C][rr:B]C[Next, black can locally choose A, or C, sometimes maybe B.

There can be complicated fighting.]
(;B[qo])
(;B[rr];W[mo])
(;B[mp]))))
(;W[pq];B[pp];W[oq];B[nq]C[it gets a bit complicated];W[np]
;B[nr];W[qr];B[rq];W[or];B[qo];W[mr];B[no];W[mp]C[joseki]))
(;W[oq];B[nq];W[pq]C[this is most common]))
