(;FF[4]GM[1]SZ[19]ST[2]CA[UTF-8]AP[SGFC:1.15]

PB[Unicornfr]
BR[11k]
PW[Basa]
WR[11k]
KM[6.5]
DT[2009-03-22]
PC[The KGS Go Server at http://www.gokgs.com/]
RE[W+8.50]
TM[1800]
OT[5x30 byo-yomi]
RU[Japanese]

C[Unicornfr [11k\]: Hi
Unicornfr [11k\]: good game
Basa [11k\]: hi gg

Hi Unicornfr! My name is Jonathan Huber and I will be reviewing the game for you. All in all, you didn't play too badly. There were several chances for black to win this game, and even the mistake at the end could have been absorbed by some careful damage control. I'm not a dan player and can't comment on everything, but I will do my best to answer your questions and point out some additional things that could have swung the game in your favor. I hope this helps!]
;B[qd];W[pp];B[dc];W[dp]
(;B[oc]TR[pj][qj]C[This move should be at C15. Playing here at P17 makes it easy for white to take away your big extension at the marked points. In addition, both the P17 and D17 stones are low (3rd line), so it will be harder to develop this part of the board. See the variation.]
;W[ce];B[ed];W[cc]
(;B[jc]C[Unicornfr [12k\]: I don't think this move is really bad BTW

Well, it's not good. Locally, this is a joseki move if W plays D13 instead of C17, but in this position there are a couple of problems. There's the obvious weakness at G16 which White immediately attacks. In addition, although K17 is an extension from the upper right, K17 and P17 are both low (3rd line) and make it hard to grow. The alternative sequence you suggested is more solid, certainly, but you're starting to fall behind due to P17.]
;W[gd]C[Unicornfr [12k\]: I don't really know what is the best answer to this move, I would like to know please

It's hard to decide on the best way to play here. B has an awkward position right now so there's no simple way to strengthen everything with a single move. The best option would be to avoid the moves that got you here in the first place (P17, K17). However, since you're here, there are a couple of possibilities. First, you can respond locally to save the stones in one of three ways- 1) Connect to friendly stones, 2) make a base (accomplished by the the sequence you chose), or 3) run out to the center. I don't think the game play turned out too badly, but maybe this isn't the best way to play right now. 

Instead of immediately saving the stones, decide if the two black stones are really critical. They're light and easily sacrificed, plus it's hard for white to surround them since they can run out into the center. So, you could ignore them for now a take big point. K15 strengthens the top and prepares to deal with the upper left b stones later. R10 is still a big extension point. So, if you ever don't know what to do in a situation, always ask yourself if you can leave the position as is for now and return later when the overall board situation may clarify how you should treat the stones in question.]

(;B[gc];W[fc];B[fd];W[hc];B[gb];W[hb];B[fb];W[id]C[This turned out ok for b: the upper left is stable, k17 was awkward anyway, and now you have sente to make the next play.]
;B[pj]C[Unicornfr [12k\]: I suppose than this move is good, but there is still a weakness in M17

Yes, Q10 is a big move. It's a nice extension from the upper right enclosure and also prevents white from making the same extenstion. K17 is still awkward and I don't see any efficient way to play on the upper side right now. 

The upper w group is not very strong, but it can escape to the center so it's not easy to attack it yet.]

(;W[qg];B[pg];W[qj];B[qf];W[qh];B[ph];W[pi];B[oi];W[pk]
(;B[oj];W[qi];B[ng]C[Ok, so you got thickness here. How are you going to use it? White got cash, so B is counting on making up those points later using the influence of these stones.]
;W[qn];B[ef];W[ld];B[lc];W[jd];B[kc];W[kd];B[cg]C[Good idea]
;W[bf];B[bg];W[cf];B[cj];W[db];B[eb];W[dd];B[ec];W[cb]C[Good result for black. White lives in corner but b is gaining more and more outside influence. The white group on the upper side is getting weaker and weaker. Don't forget that as the game proceeds.]

(;B[jq]C[This is bigger than C7 (11 lines wide vs. 6 lines wide).]
;W[gq];B[mq];W[mp];B[oq]C[I like this move];W[pq];B[pr];W[qr]
;B[or];W[op]
(;B[nq];W[np];B[lp];W[lq];B[kq];W[lo]
(;B[kp];W[ir];B[iq];W[hr]
(;B[jn]C[Unicornfr [12k\]: I think this move is bad

It doesn't seem to do much, does it? The bottom b group is safe and already has an outlet to the center]
;W[cm];B[cq];W[cp];B[dq];W[eq];B[er];W[bq];B[br];W[cr];B[dr]
;W[ar];B[bs];W[bp];B[cs];W[es];B[fr];W[fq];B[gr];W[hq]C[Good results for b; now white has little territor and few places to gain. The game looks promising for b.]
;B[jr];W[dj];B[di];W[dk];B[ck];W[cl];B[ei];W[fk]
(;B[fi]C[Unicornfr [12k\]: I think now that this move is slow

This b group is already ok, so this is not the biggest place to play. The upper white group is weak and the rest of white's groups are safe, so W will surely play there next. This is your last chance to get the first move. I don't know if B can kill or not, but you have a lot of support so at least attack. Even if you don't kill, you can gain even more outside strength that will help you reduce white's territory in the endgame.]
;W[jg]C[lost chance for B.];B[md];W[me];B[ne];W[mf];B[nf];W[mg]
;B[mh];W[lh];B[li];W[nh];B[mi];W[rf];B[re];W[pf];B[qe];W[sf]

(;B[se]C[TOO SMALL!! Even though w answered, a stronger player would not have. It's only worth 6 points. Plus, this move will still be there later in the game since T15 would finish in gote for w. Play a big point instead (R1, L12, P9, etc.)]
;W[rh]
(;B[lg]C[consider atari from other side];W[lf];B[kg];W[kf];B[kh]
;W[jh];B[ji];W[hh];B[hi];W[ii];B[ij];W[ih];B[hj]TR[om][fn]C[Yay, more thickness! White will have a hard time getting territory around the two marked points, which means b is leading. Do you see how pressuring W on the top helps you in other areas?]
;W[ge];B[ff];W[gf]
(;B[gg]C[This is not the biggest move, as you've already guessed. How about P9?]
;W[hg];B[gh]C[Slow, barely better than passing since the cut at G11 would be meaningless.]
;W[ll];B[ok]C[Good!];W[pl];B[ol];W[om]
(;B[ko]C[see variation];W[ln];B[nm];W[on];B[nn];W[no];B[qk]
;W[ql];B[rk];W[rl];B[rj];W[ri];B[sg];W[sj];B[rg];W[kj];B[ki]
;W[lj];B[mj];W[mk];B[nk];W[ml];B[nl];W[jj];B[jk];W[hn]C[see variation]

(;B[gl];W[fl];B[gm];W[gn];B[fm];W[em]
(;B[fn]C[Unicornfr [12k\]: this is really bad I think

no, you're eating up his points. Compare B F6 to a white move here- big difference. Plus, there's the cut at E4 to aim at.]
;W[fo];B[en];W[dn];B[eo];W[el]C[unnecessary]
(;B[fp]C[Why not cut??];W[ep];B[go];W[ho];B[io];W[gp];B[bl]
;W[bm];B[bk];W[im]C[the throw-in at m9 still works. Other than that, there aren't many points in center. Look at the edges of the board instead (r1, j18, a7, etc.)]

(;B[jl];W[jm];B[km];W[lm];B[in];W[hm];B[ik];W[gk];B[hl];W[hk]
;B[il];W[fo];B[gj];W[fj];B[kl];W[lk];B[ip];W[kn];B[fe];W[de]
;B[df];W[dg];B[dh];W[bh];B[ag];W[af];B[ib];W[ia];B[ja];W[ha]
C[Unicornfr [12k\]: My really bad move in game is here

This sequence turned out badly, sure. However, you are winning right now by about 15 points. You can still save this game if you stay calm.]
;B[ic];W[ka]
(;B[jb]C[Give up the K18 stone and save the larger group of stones. See variation.]
;W[mc];B[mb];W[nd];B[nc];W[md]
(;B[od]C[M18 is better. Losing the upper stones is worth 15 points. Is P16 worth that much?]
;W[lb];B[nb];W[kb];B[sh];W[sk];B[qs];W[rr];B[rs];W[sr];B[is]
;W[hs];B[js];W[gs];B[fs];W[al];B[ak];W[am];B[bi];W[ej];B[da]
;W[ca];B[ea];W[bd];B[ga];W[hp];B[kk];W[do];B[gi];W[mo];B[mn]
;W[ss];B[ps];W[qp];B[ma];W[la];B[as];W[aq];B[si];W[tt];B[tt]
TW[aa][ba][ja][ab][bb][ib][jb][ac][bc][ic][jc][kc][lc][ad][cd]
[hd][ae][be][he][ie][je][ke][le][hf][if][jf][ig][rj][ek][qk]
[rk][dl][sl][dm][pm][qm][rm][sm][an][bn][cn][pn][rn][sn][ao]
[bo][co][go][oo][po][qo][ro][so][ap][fp][rp][sp][qq][rq][sq]
TB[fa][na][oa][pa][qa][ra][sa][ob][pb][qb][rb][sb][fc][pc][qc]
[rc][sc][pd][rd][sd][oe][pe][of][pf][rf][sf][dg][eg][fg][og]
[ah][bh][ch][eh][fh][lh][nh][oh][ai][ci][ni][aj][bj][nj][jo]
[jp][lq][cr][kr][lr][mr][nr][ds][es][ks][ls][ms][ns][os]C[Basa [11k\]: tnx
Unicornfr [12k\]: Thx for the game

Thanks for the chance to review your game! The single most important thing that I think will improve your game is to ask, after every move, where is the biggest place to play? Sometimes the biggest move is the urgent move that helps one of your groups group. Sometimes all of your groups are ok for now and you can attack your opponent or take a large point. Be careful about always responding to your opponent. If you can safely ignore your opponent's move, do so and play somewhere bigger. Good luck!]
)
(;B[lb];W[od];B[pd]
(;W[oe];B[og]C[The game is still close.])
(;W[og];B[oh];W[of];B[ni];W[oe];B[nh])))
(;B[mb];W[jb];B[la]C[B would still be winning.]))
(;B[lk];W[kk];B[kl];W[lk];B[lm]))
(;B[ep]TR[gn][hn][fo][eq][fq][gq][hq][hr][ir]C[I believe this captures all of the marked white stones. You can sacrifice the H10 stones in if necessary to keep the marked stones from escaping.]

(;W[gk];B[im])
(;W[im];B[jm];W[il];B[hk];W[jl];B[kl];W[km];B[kk];W[lk];B[ik]
)
(;W[hl];B[gk];W[ik];B[jl];W[gj];B[fj];W[jm];B[im];W[km];B[in]
;W[il];B[hm])))
(;B[tt];W[fn]))
(;B[lk];W[kk];B[kl];W[lk];B[lm];W[mm];B[mn]))
(;B[nm]
(;W[nn];B[on];W[pm];B[mn];W[oo];B[ln])
(;W[on];B[lm])))
(;B[ml])
(;B[nl]C[Unicornfr [12k\]: may be this move would have be great]
)
(;B[ok];W[pl]
(;B[ol])
(;B[mm])
(;B[hm]
(;W[fm];B[mm])
(;W[mm];B[ol];W[om];B[fm]))))
(;B[kh];W[lg]
(;B[kg];W[kf];B[le];W[lf];B[jf];W[ke];B[if];W[ig];B[hf];W[ki]
;B[jh])
(;B[ih])))
(;B[tt];W[se];B[sd];W[rh]))
(;B[gi])
(;B[gj])
(;B[hf];W[kf];B[kh];W[ig];B[ii];W[hg];B[gf];W[gi];B[gh];W[hh]
;B[hi];W[gg];B[fh];W[fg];B[ff];W[eg];B[dg];W[eh];B[fi];W[dh]
;B[ch];W[df]
(;B[bi])
(;B[ge];W[hd];B[ee])))
(;B[cm]C[Unicornfr [12k\]: This one would have be really great here

I like it. :) It would strengthen the left b group, provoking w to protect the corner. However, then b gets sente to finally attack upper white group.]
;W[co];B[hg]))
(;B[lr]C[again, just capture; this makes the group more stable and removes the weakness that creeps up in the game sequence]
))
(;B[lq]C[better shape]))
(;B[cm]C[Unicornfr [12k\]: may be this move is better ?]))
(;B[qi]C[just capture]))
(;W[lc]))
(;B[je])
(;B[pj]))
(;B[cb];W[cd];B[eb]C[Unicornfr [12k\]: Here I think I could have made this move, probably better]
))
(;B[ce]C[This enclosure faces your R17 stone, which means your stones are working together. The continuations show two possible ways of developing the upper territory depending on how white plays.]

(;W[od];B[mc])
(;W[jp];B[jc])))
