(;FF[4]GM[1]SZ[19]ST[2]CA[utf-8]AP[SGFC:1.15]

PB[moria31]
BR[6k]
HA[4]
PW[gob]
WR[2k]
KM[0.5]
DT[2009-03-16]
PC[The KGS Go Server at http://www.gokgs.com/]
RE[W+Resign]
TM[1800]
OT[5x30 byo-yomi]
RU[Japanese]

AB[dd][pd][dp][pp]C[Review by Jadoube];W[nq];B[lq];W[no];B[pn]
;W[pr];B[qq];W[qr];B[rr];W[fq]
(;B[iq]C[I think pincer attack is necessary here... isn't it?                                                                                                                         J:  Necessary is a bit much. Yes black 10 helps settle on the bottom and leaves white's stones on the right under attack. However since white's stones are weak I don't think it was necessary]
;W[cn]
(;B[co]C[J: I would attach as in the variation];W[dn];B[eq]
;W[cq];B[fp];W[gq];B[gp];W[er]C[J: This is always the problem with the 3-3 invasion when there are suporting stones so close. D2 is not possible.]

(;B[dr];W[dq];B[ep];W[fr];B[cp];W[bq];B[ck]C[J: i like this. C8 might have been even better.]
;W[hq];B[hp]C[J4 seems dangerous for my group on the left...]
;W[ip];B[jp];W[io];B[jo];W[in];B[fn];W[jq];B[kq];W[ir];B[ln]
;W[nm];B[ll];W[pl]
(;B[qm];W[ql];B[rl];W[rp];B[rq];W[pq];B[ro];W[rk];B[rm]C[J: you see how being defensive leaves you with a small territory walled in. The white group is not longer under much threat. AND white has sente to build on the outside.  Also black has to worry about the centre bottom group, which is not yet alive. White will profit from attacking this.]
;W[qf];B[qh]C[J: The pincer is too dangerous. Yuo give white something else to attack]
;W[of];B[oh]C[J: and as a result white gets to attack your top stone.]
;W[nd];B[oc];W[nc];B[rc];W[pi];B[ph];W[fc]C[J: Do you see how white is attacking, walling off your stones into small groups and then building on the outside stones.  This is white's strategy in handicap - separate black's stones.  White is already close to even and only 61 stones palyed so far :(]
;B[df];W[pb];B[ob];W[qc];B[qd];W[rb];B[pc];W[qb];B[re];W[sc]
;B[rd];W[nb];B[oa];W[rf];B[sd];W[sb]
(;B[el]C[J; This is fine, I'd have tried on a larger scale]
;W[dl];B[dk];W[bo];B[bp];W[ap];B[bn];W[ao];B[bm];W[ce]C[what is the best thing to do in this situation?                                                                                                                                                                                       J:  Decide whare you wish to let have what he has earned :)                                                                                                  Some seriously this seems a bit of an overplay by white. At least I've not seen it as joseki before.]

(;B[cd]C[J; your choice seems the better one.];W[de];B[ee];W[cf]
;B[ec];W[dg];B[fd];W[ef];B[gc];W[fe]
(;B[hd]C[J; good, there is no need to worry about the atari.  98 could have been more expansive]
;W[bd];B[bc];W[jc]C[J; which is why you should have moved down the side when you had the chance :)]
;B[mh]C[J:  Yes thinking about making the group safe is correct]
;W[mk];B[lk]C[I thought i could live in the corner, so i reinforce my weak groups...                                                                                       J; Yes, i would reinforce too. Perhaps with k9 to give a little more shape.]
;W[fb]
(;B[ed]C[J: Why?];W[hb];B[gb];W[ga];B[eb];W[fa];B[ea];W[ha]
;B[hc];W[ib];B[ic];W[jb]
(;B[li];W[ge];B[gd];W[ac];B[be];W[ae];B[ad];W[lo];B[ko];W[bd]
C[J;   It we sit back and look at the whole board what is the immediate situation?  black is worried about losing the corner and having a large group on the run.  Losing the corner is not so much a problem if the group can run safely. So is it worth fighting the ko?  it looks to me as if black can run into the centre and connect to the other weak group so black can consider ko threats that are of similar value to the corner.]

(;B[bb];W[lp]
(;B[km]C[J: It hurts to give up the 2 stones, all the bottom territory and let white secure the weak group. But the fight is not at all clear, probably not safe]
;W[kp]
(;B[mo];W[mp]
(;B[nn]C[here i had some problem in cutting white stones...                                                                                                             J: if you're simply guessing it will work it may be better to play elsewhere. Attempts that don't work make the position worse. and there is still the ko.]
;W[mn];B[nl];W[om];B[ml]C[J:  worst outcome of all white comes out of it all connected and with sente]
;W[fm];B[em];W[en]
(;B[eo];W[gn];B[cr];W[br];B[an];W[fo];B[aq];W[ar]
(;B[bs];W[ap];B[ao];W[ds];B[dm];W[bf];B[cb];W[bj]C[J; see the difference sente makes. White extends down the side instead of black extending up the side. It makes a very big difference in territory]
;B[bk];W[kf]
(;B[jh];W[ci]
(;B[fj];W[fh];B[hi];W[kn];B[jn];W[jm];B[kn];W[kl];B[lm];W[jl]

(;B[hm]C[J: seems a bit deep to be safe.];W[hl];B[hn];W[ho]
;B[go];W[fn];B[cm]C[J; C7 is small, 1 point in gote.];W[ng]
;B[nh];W[oj];B[on];W[mm];B[nj];W[ok];B[nk];W[qi];B[rj];W[sk]
;B[ri];W[qj];B[pm];W[ol];B[pf];W[pe];B[og];W[pg];B[mf];W[me]
;B[nf];W[ne];B[lf];W[le];B[na];W[ma];B[qa];W[lg];B[mg];W[kh]
;B[ki];W[ji];B[jg];W[kg];B[im];W[iq];B[ik];W[il];B[jf];W[je]
;B[gg];W[ih];B[if];W[ie];B[he];W[hf];B[gf];W[ig];B[hg];W[ff]
;B[di];W[if];B[gi];W[ei];B[cj];W[ej];B[ek];W[bi];B[dh];W[fi]
;B[gk];W[dj];B[fg];W[eg];B[gh]C[J;  Why use up a ko threat?]
;W[eh];B[ai];W[aj];B[cg];W[ch]C[gob [2k\]: merci
moria31 [6k\]: thx])
(;B[ol];W[pm];B[pj]))
(;B[cj];W[bi];B[di]))
(;B[oj]C[J: rather than run i like this. it takes away something from white and aims to live by capturing. The option of your move is still there for later if necessary.]
))
(;B[ap]C[J: simpler to connect in sente];W[ds];B[ch]))
(;B[gn]C[J: This conncetion gives white fewer options to attack and leaves more room to run to the centre]
))
(;B[om];W[ol];B[nl];W[ml];B[nn];W[nk];B[mn]C[J: white has to defend the group o nthe side so you get sente]
))
(;B[ad])
(;B[ch]C[J: or simply accept the loss and move on.]))
(;B[kp];W[km];B[mp];W[mo];B[np];W[mq];B[op];W[kn];B[oq];W[or]
;B[ms];W[nr];B[mr];W[ns];B[kr];W[rs];B[qs];W[ps]))
(;B[mp])
(;B[bf];W[bg];B[ad])
(;B[cr])
(;B[br]))
(;B[mj]C[J: I prefer this.  firstly attaching moves work better for defence. secondly the white group is not totally safe. If you split it in two both parts may die, so white has to be careful]
;W[nk];B[li]C[J: connecting the two groups is nice and solid. They do not yet have eyes but look very safe.]
))
(;B[gd];W[ed];B[dc];W[hb];B[gb];W[ga];B[eb];W[fa];B[ib]))
(;B[jc])
(;B[ch]C[J: or you could make some teritory while attacking white. The group does not yet have 2 eyes.]
))
(;B[de]C[J: This option appears to give white the corner, but black gets a large side]
;W[cc];B[cd];W[dc];B[ge];W[hd]C[J: I would like this - except black has many weak groups so white will attack them and build up a position from which to reduce the Black moyo.                                                                                           If the black groups were secure black's next move could be around K16 -  with the intention of attacking the marked white group.  since the 3 stones at Q12 are weak this is less likley to work.]
))
(;B[fk]))
(;B[ol]C[J: i think its better to be more aggressive.  Its handicap and if you keep white with weak stones and attack them things should turn out well. Your corner is safe and after Q8 isn't going to be big so why so defensive?]

(;W[pm];B[om];W[on];B[qn];W[nl];B[ok])
(;W[om];B[pm];W[nl];B[ok];W[nk];B[mp];W[np];B[jl])))
(;B[dq];W[dr]C[J: accept white has the corner and take sente]
;B[lo];W[nm];B[pl]))
(;B[dn];W[dm];B[en]))
(;B[cn]C[J: I think this was an option];W[iq];B[lo];W[nm];B[eq]
;W[fp];B[io]))
