(;FF[4]GM[1]SZ[19]ST[2]CA[UTF-8]AP[SGFC:1.15]

PB[techman1]
BR[10k]
PW[WAARGH]
WR[9k]
KM[0.5]
DT[2009-03-12]
PC[The KGS Go Server at http://www.gokgs.com/]
RE[W+18.50]
TM[300]
OT[5x30 byo-yomi]
RU[Japanese]

;B[pd]C[WAARGH [9k\]: hi gg];W[dp];B[pp];W[dc];B[de];W[ce];B[cf]
;W[cd];B[df];W[fc];B[cj];W[nq];B[qn];W[kp]LB[pj:B][fq:A]
(;B[fq]C[
Your Q16 is valuable for expansion.  It seems like F3 is greedy, not wanting white to get anything.  If R3 doesn't interest you, you might develop Q16 more and get very strong on the right side.]
;W[eq]LB[fp:A]
(;B[iq];W[fp]C[
Good punishment by white.];B[gq];W[kr];B[kq];W[lq];B[jq]LB[lp:A]

(;W[pr];B[qj];W[ql];B[qg];W[ol];B[on];W[qq];B[qp]C[good shape.]
;W[oj];B[pk];W[pl];B[ok];W[nk];B[nj];W[mj];B[ni];W[mm]
(;B[nl]C[You can't afford to do this with the Q4 group so weak.  Threaten to connect at S7 instead.]
;W[nm];B[mk];W[ro]C[looks bad.];B[rp];W[rn];B[rm]C[this should not work.]
;W[qm];B[rl]LB[rk:A]
(;W[qk]C[...and silliness ensues...];B[rk];W[pj];B[nk];W[pn]
;B[qo];W[oo];B[om];W[nn];B[pm];W[op];B[lp];W[lo];B[mp];W[mq]
;B[ko];W[kn];B[jo];W[jn];B[ln];W[lm];B[mo];W[io];B[km];W[jm]
;B[kl];W[jl];B[no];W[kk];B[ll];W[lk];B[ml];W[jj];B[lj];W[ki]
;B[mi];W[ip];B[jp];W[cl];B[in];W[go];B[hm];W[fm];B[gp];W[hn]
;B[im];W[fn];B[il];W[jk]LB[hj:A]
(;B[ik]C[
This move doesn't do enough to get free from the white structure.

This move lost the game as much as anything else did.];W[gi]
;B[fk];W[dj];B[dk];W[ck];B[ej];W[di];B[ci];W[ei];B[fi];W[fh]
;B[fj];W[eh];B[ij];W[ii];B[hi];W[hh];B[hj];W[dl];B[kj];W[ji]
;B[ih];W[kg];B[gm];W[gn];B[gj]
(;W[hg];B[hk];W[gl];B[fl]C[There is no reason for this move.  As you progress, this type of situation will be recognizably hopeless.  I guess right now you can hope for a bad mistake from your opponent - this is your only hope for this situation.]
;W[el];B[hp];W[ho];B[eo];W[ep];B[dn]LB[em:A]
(;W[en];B[ie];W[ig];B[fe];W[hc];B[hd];W[ic];B[jd];W[jc];B[kc]
;W[li];B[mj];W[mh];B[lg];W[lh];B[ng];W[mg];B[lf];W[mf];B[le]
;W[me];B[md];W[of];B[nf];W[ne];B[oe];W[od];B[pe];W[nd];B[nh]
;W[pc];B[qc];W[pb];B[mc];W[qb];B[rc];W[rb];B[qe];W[nb];B[nc]
;W[oc];B[mb];W[na];B[bk];W[bl];B[ak];W[al];B[bi];W[ek];B[jr]
;W[lr];B[er];W[dr];B[es];W[ds];B[gr];W[pq];B[kf];W[jg];B[gg]
;W[gh];B[gf];W[rq];B[sq];W[sr];B[sp];W[rs];B[ch];W[po];B[np]
;W[oq];B[jb];W[ib];B[ja];W[ia];B[lb];W[gd];B[ge];W[ed];B[fd]
;W[gc];B[dd];W[cc];B[ee];W[ec];B[be];W[bd];B[ae];W[ad];B[bg]
;W[sc];B[rd];W[sd];B[se];W[sb];B[eg];W[jf];B[je];W[id];B[he]
;W[fg];B[dg];W[cq];B[do];W[fo];B[ks];W[ls];B[js];W[ff];B[ma]
;W[tt];B[tt]TW[aa][ba][ca][da][ea][fa][ga][ha][oa][pa][qa][ra]
[sa][ab][bb][cb][db][eb][fb][gb][hb][ob][ac][bc][ih][jh][kh]
[fi][hi][ej][fj][gj][hj][ij][dk][fk][gk][hk][ik][fl][hl][il]
[am][bm][cm][dm][em][gm][hm][im][an][bn][cn][dn][in][ao][bo]
[co][do][eo][ap][bp][cp][aq][bq][dq][ar][br][cr][mr][nr][or]
[qr][rr][as][bs][cs][ms][ns][os][ps][qs][ss]TB[ka][la][kb][lc]
[kd][ld][qd][ke][re][af][bf][of][pf][qf][rf][sf][ag][cg][og]
[pg][rg][sg][ah][bh][oh][ph][qh][rh][sh][ai][oi][pi][qi][ri]
[si][aj][bj][oj][pj][rj][sj][qk][sk][ol][pl][ql][sl][lm][mm]
[nm][qm][sm][mn][nn][rn][sn][lo][ro][so][kp][hq][fr][hr][ir]
[fs][gs][hs][is]C[
In my estimation, black 99 lost the game.  There were many other things happening, but failing to escape quickly sealed the game.]
)
(;W[em]C[This is perfectly safe.]))
(;W[gh]C[simply connect here, and your black group below is finished.]
))
(;B[hj]))
(;W[rk]))
(;B[rm];W[rl]))
(;W[lp]C[white should make a fist here.  this gives strength enough to mount a serious attack.]
))
(;B[fp]C[Sometimes it's hard to make the move you know you should make.
I know you know you should have done this...]))
(;B[pj]C[Just an idea]))
