(;FF[4]GM[1]SZ[19]ST[1]CA[utf-8]AP[SGFC:1.15]

PB[moria31]
BR[6k]
PW[DucPTNK]
WR[6k]
KM[6.5]
DT[2009-04-13]
PC[The KGS Go Server at http://www.gokgs.com/]
RE[W+20.50]
TM[1200]

;B[pc]C[I'm black.];W[cp];B[pp];W[dc];B[ep];W[eq];B[fq];W[dq]

(;B[gp];W[dm]C[I usualy play C6.
D7 is bigger, but can I invade?
anyway I don't think an invaion is good in the early game...

It's definitely too early to invade, but the connection between c4 and d7 is weak. You should probably aim for somewhere around d10 now.]
;B[qi]C[I wasn't sure about this move. I thought you should have finished the joseki at L3, but in fact I like this better.]
;W[nq];B[kq]C[Now L3 is both pincer and extension.];W[kp]
(;B[jp]C[This leaves you a bit cramped, and allows w to settle easily.]
;W[lq]
(;B[kr];W[lr];B[ko];W[lp];B[qn]C[This leaves a cut at K3 an a slide into the corner. That can't be good.]
;W[pr];B[qq];W[qr];B[rr];W[pq];B[qp];W[qf]C[That's an overplay by w.]

(;B[oe]C[But that's an odd move.];W[rc];B[qd];W[rd];B[qe];W[re]
;B[pf];W[qg];B[rh];W[pb];B[ob];W[qc]
(;B[qb]C[Costly mistake.];W[pd];B[oc];W[pe];B[od];W[rb]C[Not necessary, and not big enough.]
;B[de]C[Good move.];W[ce]
(;B[dd]C[I understand your thinking, but given the weakness on the bottom left, you might have chosen to play c13.]
;W[cd];B[ec];W[cc];B[df]C[The space between your walls is quite big, so an invasion is likely.]
;W[jc]
(;B[kd]C[Wrong direction.];W[gc]
(;B[fd]C[If you want to defend the cut, then play f17. Now you allow w to connect.]

(;W[eb]C[But he shouldn't connect yet.];B[fc];W[fb];B[gd];W[hc]
;B[hd];W[id];B[ie];W[cj]C[W is well ahead now. You must find territory in the middle.]

(;B[ch]C[That's a purely destructive move, and gote. It's also bad shape: to break up the side, C14 would have been simpler.]
;W[ej];B[op];W[np];B[oi];W[jj];B[lj];W[lo];B[nn];W[ml];B[ol]
;W[jo];B[io]C[Same mistake as you made top right.

My comments end here.];W[jq];B[ip];W[kn];B[jr];W[in];B[hn];W[hm]
;B[im];W[jn];B[kh];W[ho];B[go];W[iq];B[hp];W[ir];B[hq];W[js]
;B[hr];W[ks];B[gm];W[nk];B[ok];W[nj];B[ni];W[oj];B[pj];W[jg]
;B[kg];W[jf];B[kf];W[je];B[ke];W[jd];B[hf];W[mb];B[kc];W[kb]
;B[lc];W[lb];B[fh];W[pg];B[of];W[og];B[ng];W[qa];B[bi];W[bj]
;B[do];W[co];B[dn];W[cn];B[em];W[el];B[dl];W[cm];B[en];W[dk]
;B[fl];W[ek];B[il];W[dh];B[dg];W[ci];B[bg];W[eh];B[eg];W[no]
;B[oo];W[rs];B[sr];W[mn];B[nm];W[mm];B[fr];W[er];B[ad];W[ac]
;B[ae];W[be];B[af];W[bd];B[aj];W[ak];B[ai];W[bk];B[hh];W[if]
;B[he];W[lk];B[mj];W[kj];B[ki];W[mk];B[oh];W[oa];B[mc];W[nb]
;B[hk];W[ph];B[pi];W[rg];B[kl];W[kk];B[ei];W[di];B[fi];W[hj]
;B[gj];W[hi];B[gi];W[ih];B[hg];W[ik];B[fk];W[jl];B[jm];W[km]
;B[jk];W[sh];B[si];W[jl];B[hl];W[ll];B[oq];W[or];B[sg];W[sf]
;B[ii];W[ij];B[ji];W[fs];B[gs];W[es];B[bf];W[cf];B[cg];W[sh]
;B[nc];W[dp];B[sg];W[qs];B[sh];W[ss];B[rq];W[hs];B[is];W[mi]
;B[li];W[hs];B[ab];W[bc];B[is];W[ah];B[bh];W[hs];B[db];W[cb]
;B[is];W[fp];B[fo];W[hs];B[ca];W[da];B[is];W[jh];B[hs];W[tt]
;B[tt]TB[ag][ah][ed][ee][ef][eo][fe][ff][fg][fm][fn][fp][ge]
[gf][gg][gh][gk][gl][gn][gq][gr][hm][ho][ld][le][lf][lg][lh]
[md][me][mf][mg][mh][mi][nd][ne][nf][nh][om][on][pk][pl][pm]
[pn][po][qj][qk][ql][qm][qo][ri][rj][rk][rl][rm][rn][ro][rp]
[sj][sk][sl][sm][sn][so][sp][sq]TW[aa][ab][al][am][an][ao][ap]
[aq][ar][as][ba][bb][bl][bm][bn][bo][bp][bq][br][bs][ca][ck]
[cl][cq][cr][cs][db][dj][dl][dr][ds][ea][fa][ga][gb][ha][hb]
[ia][ib][ic][ja][jb][jk][jr][ka][kl][ko][kq][kr][la][lm][ln]
[ls][ma][mo][mp][mq][mr][ms][na][nr][ns][os][pa][ps][qb][qd]
[qe][ra][rf][sa][sb][sc][sd][se])
(;B[jj]C[Something like this might be a good start to construct territory in the middle. W does not have time to finish the left side]
))
(;W[he]C[Something like this would have been better. He can keep the connection for later.]
))
(;B[fc]C[This is the way to defend the cut and separate w.]
))
(;B[hc]C[The wall on the right is stronger, so you should push w towards that direction.]
))
(;B[cf];W[cd];B[df];W[fc];B[dj]C[Now w needs to do something about the left. You have the initiative.]
))
(;B[oc]))
(;B[qd]C[This is better: it takes the corner and forces w to flee.]
;W[of];B[md]))
(;B[jq]C[This is simpler. It does leave you a bit cramped.]
;W[ko]))
(;B[lq]C[This looks better.]
(;W[jp];B[ir])
(;W[lp];B[jp];W[jo];B[ip])
(;W[jq];B[lp];W[hq]C[This would probably be w's strongest way of resisting.]
;B[gr];W[hp];B[go];W[ho];B[gm];W[hn];B[em]C[You have the advantage in this fight, and w's left is starting to look weak.]
;W[no];B[pn]TR[kq][lp][lq]C[The three marked stones are still safe.]
;W[ko];B[lo];W[kn];B[ln])))
(;B[fp]C[With q4, the usual way to play is with f3.];W[cn];B[jp]
C[Because now K4 is at exactly the right spot relative to q4.]
))
