(;FF[4]GM[1]SZ[19]ST[2]CA[UTF-8]AP[SGFC:1.15]

PB[Taz]
BR[8k]
PW[mlansman]
WR[8k]
KM[6.5]
DT[2009-04-24]
PC[The KGS Go Server at http://www.gokgs.com/]
RE[W+3.50]
TM[600]
OT[1x10 byo-yomi]
RU[Japanese]

C[mlansman:

Thank you so much for this review in advance.

My play deteriorated from w138 onwards, as I ran out of time and was on sudden death, so I'm less concerned with my numerous endgame mistakes.

I'm particularly interested in move b97 and my response at w98: I felt that this was a big mistake and a turning point in the game, I didn't really know what to do so I panicked.

Sorry, I have asked a lot of questions, feel free to give short answers to those that you don't think are important.

All the best,
mlansman

Hi miansman,

It's good for you to ask questions, in fact I think you'll stand to learn more from your own questions than my answers. I'm only 4k and I'm only playing on KGS, no real Go lessons whatsoever, so my knowledge will be quite limited. I'll try my best to answer your questions though!

Cheers!
Lib];B[pq];W[dd];B[dq];W[pd];B[jp]C[This is a weird opening for black. As a general rule of thumb, try to make sure your komokus are facing yourself, not the opponent, unless you are sure you can defend it in sente. But in the opening, almost any move can be playable. In this case, white can attack black from both sides, so white should gain some advantage, but the K4 stone is troubling...]

(;W[co]
(;B[cp];W[do]
(;B[di]C[mlansman: I thought this was a terrible move, did I punish correctly with D9?

It looks like a terrible move, but I guess black has his own plans for it...
Usually the stone should prevent white from establishing a base on the left, and the punishment would be that black's corner is sealed off. There is nothing wrong with your response considering his stone is so far away, but you might want to consider the variations, perhaps later when you get sente.]
;W[dk]C[looks like an excellent response to me...];B[cf];W[ce]
C[nice move. Theoretically it should make black overconcentrated, but black didn't follow the joseki]
;B[cj]
(;W[ck]C[This is a very defensive move. I wouldn't say its bad, it depends on your style of play. But you could also consider the variation where you give up territory on the left and go for influence (which makes the corner even easier to attack), since your D9 stone is on the 4th line and not the 3rd anyway. (generally 4th line = influence, 3rd = territory)]
;B[bk];W[bl]C[black can sacrifice.]
(;B[ak];W[al];B[bi];W[eq]C[mlansman: was this the biggest move? With hindsight I now think it may have been better to play elsewhere, as I was already strong in this area.

Nope, this is a great move. With such strength on the left, killing the corner may even be possible]
;B[er];W[fq];B[fr];W[dr];B[cr];W[dp];B[ds];W[fo];B[gq];W[gp]
;B[hq];W[df]C[mlansman: Was this the right strategic? I thought it was sente so I played it but not so sure now.

technically it is the correct punishment for black to not play D14. But since the D11 stone is quite high up anyway (so it'll be difficult for you to seal him in), I would prefer to play F16 first.]
;B[cg];W[jd];B[ec]
(;W[ed]C[mlansman: would D17 have been better? I decided to play for influence, but looking back I think D17 would have been much more severe.

There is too much space for black to live, so E16 might be an overplay. Yes, D17 might have been better.]
;B[dc];W[cc];B[cb];W[bb];B[bc];W[cd];B[ba];W[db];B[ab];W[fc]
;B[eb];W[fb];B[da];W[dg]C[mlansman: I played this slow move because I thought it was sente, was I right?

Ouch. at the end of all the joeskis on the left, black has 2 corners and positions at the left and bottom side, while white only has positions on the left and top side. The black corner at the top is quite big...

actually the D13 move might not be sente...];B[dh];W[po]C[mlansman: was this the best approach? Was it right to make a kakari now?]

(;B[qp]C[wrong direction for black.];W[qo];B[mq];W[pk];B[ph]

(;W[og]C[mlansman: was this the right defence: I aimed to make territory behind, should I have been more aggressive?

Actually this move was too aggressive. the invasion at 3-3 is still available, so perhaps R14 would be better (defending in sente)]
;B[pg];W[of];B[pf];W[pe];B[qj];W[qk];B[rk];W[rl];B[sk];W[sl]
;B[ri]
(;W[re]C[mlansman: would the hane have been better?

the hane would have been gote. this might be better];B[rf];W[fh]
C[mlansman: I was happy with my stratigic choice here, but not so much with my tactical: would F13 have been better?

This move serves a dual purpose of expanding your moyo and threatening to seal black in. F13 would have too too lax.]
;B[md]
(;W[nc]C[mlansman: would M15 have been better? I played here because I was worried about the P15 cut.]
;B[mc]C[bad move for black. now he is heavy.];W[kf]C[nice counter attack.]
;B[nb];W[oc];B[ob];W[pb];B[kc];W[jc];B[jb];W[ib];B[ja];W[ia]
;B[lb]
(;W[ni]C[mlansman: was this a good strategic choice?

Its an OK choice. A play around K6 would have been bigger, but if the black R12 group leaks out into the center, the result is still quite small for white.]

(;B[pj]
(;W[oj]C[mlansman: bad mistake, would P9 have been better?

definitely.];B[ql];W[pl];B[qm];W[pm]
(;B[rm]C[slow...]
(;W[fj]C[mlansman: perhaps this invited K7 too much? (see b97)

Yes, the black K7 area is a lot more open than the F10 area. given a choice, you should ahve picked K7.]
;B[jm]
(;W[io]C[mlansman: This is a big issue for me that often comes up in my play: I don't know how to respond to reductions like these. I cannot decide to go head on with a cut at K6, or play more defensive like K9, so I ended up playing a deeply irrational move at J5 out of desperation!

What was the right move here, and in general how should I play in situations like this?

Is there anyway I could have avoided this situation from arising in the first place?

As they say, prevention is better than cure. But if that fails, the best defence is a good offense. A play around K9 is wayyyyyy too slow. By continuing his attack, he will also build up enough strength to make sure he doesn't get cut off.

this is a weird move, though... it helps black solidify the K7 stone

In general, when the opponent reduces you, try to counter attack, but while doing so, make sure that the battle doesnt escalate to the extent that if you lose the battle the entire center is gone (unless he plays a stupid move, in which case an all-out counter attack would be justified). If countering is not possible/disadvantageous, find a key spot to sacrifice a stone and cut off the invading stone. If all else fails, defend, but that should be the last resort.]
;B[jo];W[in];B[jn]
(;W[jj]C[mlansman: K9?

now that he is strong enough thanks to the J5-6 exchange, a K9 will be too close. You might also consider J9, which also defends the bottom left (which is one of your objectives, I'm sure, since you played J5-6)]
;B[ll];W[hl];B[im];W[hm];B[ip];W[bp]C[mlansman: biggest move?

maybe. I was considering something around P3 or O4. It threatens his territory while breaking his territory in the center.]
;B[cq];W[sn]C[mlansman: don't know what I was thinking here!

well, black T7 is about the best you could hope for.]
(;B[sm]C[S4 might be better.]
(;W[mn]C[mlansman: should I have saved my T6 stone with S5 here in sente?]
;B[ro];W[pp];B[qq];W[oq]C[mlansman: I thought this play would end up being more profitable, what could I have done differently, or was I just mistaken?

This should be a good move.];B[or]
(;W[pr]C[this is a wrong continuation though.];B[nq];W[op];B[qr]
;W[lp];B[lq];W[kp];B[kq];W[bq]C[mlansman: biggest play?

R14 is also a choice, so is B15. as to which is better, I'm not too sure. My yose is pretty bad.]
;B[br];W[qf];B[qg];W[qe];B[sf];W[se];B[rh];W[qn];B[rn];W[be]
;B[bf];W[fa]C[mlansman: this is when I realise that I am on sudden death and my play deteriorates.]
;B[ea];W[ae];B[af];W[mf];B[kd];W[ke]C[mlansman: K15?

Yep.];B[ic];W[id];B[hc];W[hd];B[hb];W[gc]C[mlansman: was this necessary?

No.];B[dj];W[ek];B[eh];W[eg];B[fi];W[gi];B[ei]
(;W[gg]C[This is not needed.];B[lj];W[ki];B[li];W[lh];B[mh]

(;W[lg];B[mi]
(;W[nl]C[mlansman: any bigger points than this? Couldn't see any sente plays.

This should be fine, but in yose, bear in mind that its not just sente and non-sente. there are also reverse sente moves (i.e. sente for the opponent)]

(;B[il];W[ik];B[kk];W[jk];B[mp];W[lo];B[mo];W[ln];B[on];W[nn]
;B[mm];W[nm];B[no];W[oo];B[np];W[pn];B[nh];W[oh];B[pi];W[oi]
;B[ng];W[nf];B[nd];W[od];B[le];W[oa]
(;B[mb];W[na];B[ma];W[pa];B[lf];W[ka]C[mlansman: forgot about the J19 stones atari, but black could have made life anyway because N15 and M16 are miai no?

If you kill the K18 stones, then the black group is dead, otherwise, there is simply nothing there.]
;B[ha];W[me];B[ld];W[aq]C[mlansman: gote, I was rushing!];B[ar]
;W[bo];B[ho];W[hn];B[hp];W[go];B[jl]
(;W[mk]C[mlansman: would N8 have been better?

Yes. the reason why this move is worse than N8 requires some calculation. but since you were short on time, this is an acceptable move.]

(;B[lk];W[ml];B[lm];W[mj];B[kn];W[kj];B[ad];W[bd];B[ac];W[mg]
C[mlansman: More rushing!];B[ej];W[gk];B[ne];W[oe];B[gb]
(;W[fd]C[mlansman: unnecessary?

it looks necessary, but upon calculation, its not.];B[tt];W[tt]
TW[qa][ra][sa][qb][rb][sb][pc][qc][rc][sc][gd][qd][rd][sd][de]
[ee][fe][ge][he][ie][je][ef][ff][gf][hf][if][jf][fg][hg][ig]
[jg][kg][gh][hh][ih][jh][kh][hi][ii][ji][gj][hj][ij][nj][fk]
[hk][nk][ok][cl][dl][el][fl][gl][ol][am][bm][cm][dm][em][fm]
[gm][om][an][bn][cn][dn][en][fn][gn][on][ao][eo][ap][ep][fp]
TB[aa][ca][ia][ka][la][bb][db][ib][kb][lc][ag][bg][rg][sg][ah]
[bh][ch][qh][sh][ai][ci][qi][si][aj][bj][rj][sj][kl][rl][sl]
[km][sn][so][rp][sp][iq][jq][rq][sq][dr][gr][hr][ir][jr][kr]
[lr][mr][nr][pr][rr][sr][as][bs][cs][es][fs][gs][hs][is][js]
[ks][ls][ms][ns][os][ps][qs][rs][ss]C[mlansman:

Score estimate gave me +53.5 on move w138 when I realised I was on sudden death, I only won by only 3.5 in the end.

What were my most important mistakes in the w138-w228 period? I'm less interested in general points about this period, as I say I was rushing due to sudden death so my play wasn't on form.

Do you have any general comments about my play up untill w138?

Thank you so much!
mlansman

In general, your play is quite stable. You seem unacquinted with the possiblility of guerrilla warfare. Sometimes it is better to throw a random piece into a key spot and then sacrifice it. Your play seems more focused on keeping all your stones connected to a living group. A glaring example would be moves 98 and 100 (J5-6).

From your fuseki and yose, you should be a lot better than 8k. Try to improve your fighting techniques so that you'll be more confident when your pieces are not connected together. This will help your middle game by leaps and bounds. Your move-by-move analysis of which is the biggest move is a very good habit, work on it, but keep in mind that urgent moves are more important, and try not to spend too much time on it.

Black's play was also somewhat slow sometimes, allowing you advantages where there shouldn't be. Move 16-17 is an example. learn to give up such 6 point stones. It gives you 2 sente moves.

Oh and the score estimate is next to useless. I was using it throughout the review. the reason it said you were leading by 50+ is because it doesn't take into account invasions/reductions. Black's estimate will be quite accurate, since its all solid territory, but for white its all very wishy-washy. Thus after the reductions, your lead is actually very small, as you can see.

Thats about it.

Cheers!
Lib])
(;W[ko];B[ga];W[tt];B[fd];W[gd];B[fe];W[ee];B[ff];W[fg];B[ef]
;W[de]))
(;B[ml]
(;W[lk];B[nk])
(;W[nk];B[kj];W[ji];B[km])))
(;W[ml];B[lm];W[mk]))
(;B[na]C[This is fine for black...]))
(;B[aq];W[ao]C[this is sente for black, so playing A2 first is reverse sente.]
))
(;W[ar]))
(;W[mi]C[better move.]))
(;W[lj];B[gh];W[fg];B[gj];W[hi];B[fk];W[ej];B[cl];W[cm];B[dl]
;W[el];B[dm];W[em];B[dn];W[cn];B[en];W[fn]))
(;W[nq];B[nr];W[qn];B[rn];W[mp];B[op];W[np];B[oo];W[pn]))
(;W[rp];B[rq];W[pp];B[qq];W[mo]))
(;B[rn]C[this is a better response for black]))
(;W[jk];B[kk]
(;W[kl];B[jl])
(;W[jl];B[kl]))
(;W[ik];B[kk];W[kj];B[jk];W[jj];B[il];W[hl];B[hk];W[ij];B[hm]
;W[gl];B[im];W[gm];B[hn];W[ho];B[gn];W[fn];B[go];W[hp];B[ip]
;W[fp]))
(;W[jk];B[ll];W[lj];B[nk];W[ok]C[it gets harder and harder to cut him off...]
)
(;W[jo];B[io];W[in];B[jn];W[ko];B[hn];W[im];B[hm];W[il];B[ho]
;W[ip];B[hp];W[kp];B[jq];W[mo]C[This is a possibility for white. Its true that your stones will be in/close to enemy territory and have no insurance of survival, but it should be a manageable battle.]
))
(;W[jn];B[ej];W[gj];B[fk];W[gk]))
(;B[qn])
(;B[rn]))
(;W[ok];B[oj];W[nj]))
(;B[jm]))
(;W[jn];B[ni]))
(;W[le];B[oe];W[ne];B[od];W[nd];B[oc];W[nc];B[pc];W[qc]C[At a glance, the cut doesnt seem too dangerous. (in the hands of a pro, it might be a different story though..) but if you were playing for safety, O17 is also fine.]
))
(;W[qf];B[qg];W[rf];B[jf]))
(;W[qf];B[qj];W[me]))
(;B[fd];W[gd];B[fe];W[fg];B[ge];W[hd];B[ee];W[de];B[gg]C[The cut might lead to a fight. This result is bad for black, but it might end up differently. Just be aware of this fighting possibility.]
)
(;B[op];W[qq];B[qr];W[qp];B[mo]))
(;W[dc];B[ed];W[ee]
(;B[ic];W[jc];B[id];W[gc])
(;B[fe];W[gd];B[fd]
(;W[pj])
(;W[ff];B[ge];W[hd]))))
(;B[qo];W[bj];B[bi];W[ak];B[oo]))
(;W[df];B[ck];W[dl];B[cl];W[cm];B[cg]
(;W[eq])
(;W[jc])))
(;B[ck];W[eq]
(;B[er];W[fq];B[dp];W[eo];B[dr];W[gn]C[This is a joseki when black denies white the left base. Black's corner is sealed away, white gets thickness and influence which might be used for a counter attack on the C9 stone.]
)
(;B[ep];W[dp];B[cq];W[er];B[eo];W[en]C[This is also a joseki, but requires a favourable ladder for white.]
)))
(;B[eo];W[cl];B[dn];W[cn];B[dl];W[dm];B[em];W[cm];B[dk]C[white might want to watch out for this variation. the K4 stone sends a subtle signal that black's either going for influence or a huge moyo at the bottom, and in this variation white might have a tough time.]
))
(;W[do];B[co];W[cn];B[cp];W[dn];B[fq];W[cj];B[qo]C[If the play ends up like this, white is more versatile and has positions across the board, while black is confined to the bottom. Black could expand, but it would risk his territory at the bottom. Numerous invasion points exist in black's area (H3 and N3 areas), but for black to spend 2 moves to defend them is too slow. However, white is also unable to strike in anytime soon, or white will end up in a tough fight. White will have to build up strength and influence before he can do so, hence while this opening can be disadvantageous to black, it also puts a burden on white.

point in case: this is a possible variation to play out, though the K4 stone can be both a blessing and a curse.]
))
