(;FF[4]GM[1]SZ[19]ST[2]CA[UTF-8]AP[SGFC:1.15]

EV[Hebsacker Internet Go Cup]
RO[3]
PB[Beholder]
BR[5k]
PW[ideol]
WR[5k]
KM[6.5]
DT[2009-04-30]
PC[The KGS Go Server at http://www.gokgs.com/]
RE[W+35.50]
TM[3600]
OT[15/300 Canadian]
RU[Japanese]

C[Commented by Niall ("N") at the request of B.

I played Black and would like to have a review on this side.
The upper right was the reason for me losing this game so please comment on this area and the general play of Black.]
;B[pd];W[dp];B[cd];W[nc];B[pp];W[jc];B[cn];W[fp];B[dj];W[nq]
;B[lq]C[N: seems unnecessary. A simple move at Q6 or R7 would have helped the Q16 stone. Moreover, if W decides to fight, his strength in bottom right will help him.]
;W[no];B[pn];W[iq];B[lo];W[pr]
(;B[qq]C[N: i don't like this. While it is big, the strategic question is what's happening on the outside. I would play O6 here. See variation for some possibilities. But if you don't have the nerve for that, why not O7?]
;W[nm];B[lm]C[NM: Again here, I would play Q8 and let the M3 group look after itself.]
;W[ll];B[hp];W[hq]C[N: B was lucky here, J4 would have been much more difficult to cope with. But now W has done that, I would play G4 in the hope that W will continue with G3.]
;B[ip];W[jp];B[jo]C[N: NO! B must cut at K3.];W[jq];B[ko]C[N: Very solid, but I would prefer K6.]
;W[pl]
(;B[qr]C[N: Should be P7 - see variation.];W[nk]C[N: Now is the moment for R13. Nothing else is as important.]
;B[gq]C[N: An overplay, as subsequent moves demonstrate. Better G3, or even E3 first.]
;W[gp];B[eq];W[fq];B[ep];W[eo];B[dq];W[do];B[cq];W[bp];B[cp]
;W[co];B[bq];W[bo];B[fr];W[gr];B[es]C[N: OK< B has taken the corner, which is big. But now he must strengthen his weak groups.]
;W[kl];B[il]C[N: Better J7 or H6.];W[in];B[jm];W[io];B[gm];W[fn]
;B[gn]C[N: Not clear what B is gaining by this.];W[go];B[fl]
;W[dl];B[ck]C[N: better C8];W[ek];B[fc];W[fk];B[hk]C[N: If you're going to play here, better G9. But I would play in the top right.]
;W[pf]C[From here on Black loses the game I think.
N: Yes.];B[qh]C[N: BAD. Invites W to split him into 2 weak groups. If you really want to play in this area, Q11 is better. But I would play P15.]
;W[qe];B[qk]C[N: This is not good, trying to live locally. It's difficult to do so, and you will lose somewhere else. Better something like O11.]
;W[ql];B[rk];W[rl];B[nd];W[od];B[oe]C[N: I would prefer P17, but this is playable.]
;W[oc];B[pe];W[qg]
(;B[ph]C[N: Probebly better for B to play P14 or P13. See variation.]
;W[of];B[ne]C[N: Must be O14.];W[nf];B[ld];W[qd];B[mc]C[N: Terrible. Q17 is absoultely necessary to separate the W groups.]
;W[pc];B[je];W[kd]
(;B[le]C[N: WHy on earth not play L15?];W[ke]C[Now Black has two weak groups...]
;B[lf];W[kf];B[lg];W[nh]C[N: hard to see how B R12 group can live now.]
;B[kh];W[hc];B[ge];W[gd];B[fd];W[he];B[gf];W[jf];B[fi];W[gj]
;B[gi];W[hi];B[ij]C[B: B must cut at H10, whatever happens afterwards.]
;W[ii];B[ki];W[jj];B[gk];W[hj];B[ni];W[oi];B[mh]C[N: P12 might give B some remaining chance ...]
;W[oh];B[mj];W[mk];B[kj];W[ik];B[im];W[hl];B[gl];W[hn];B[hm]
;W[km];B[mr]LB[jn:A]C[Big mistake, White could seperate with A and Black at A would have been sente.

N: indeed!]
(;W[nr]C[White either didn't see the cut or got greedy.];B[jn]
;W[ho];B[kr];W[mq];B[jr];W[kq];B[mp];W[ms];B[lr];W[np];B[ir]
;W[is];B[js];W[ls];B[hs]C[N: B is alive here.];W[gs];B[hr];W[nj]
;B[mf];W[mi];B[li];W[lj];B[kg];W[cl];B[bk]LB[rn:A];W[qo];B[pq]
;W[po];B[or];W[rp];B[rq];W[gb];B[gc];W[hd];B[fb];W[ha];B[rh]
;W[rj];B[qj];W[sk]
(;B[ri]C[N: I don't think B can live - see variation for an alternative which also fails.]
;W[sj];B[si];W[sl];B[rg];W[rf]C[N: W has won. No further comments.]
;B[fj];W[bl];B[kk];W[hg];B[hf];W[if];B[gg];W[gh];B[ig];W[jg]
;B[hh];W[ih];B[hg];W[jh];B[ej];W[md];B[me];W[lc];B[jk];W[jl]
;B[ij];W[mo];B[lp];W[ik];B[lb];W[kc];B[ij];W[mb];B[ji];W[nb]
;B[em];W[dm];B[en];W[dn];B[dk];W[fa];B[ea];W[ga];B[db];W[aq]
;B[br];W[ar];B[dr];W[ns];B[ps];W[ak];B[aj];W[al];B[bj];W[ln]
;B[kn];W[mm];B[el];W[gq];B[fs];W[os];B[oq];W[sq];B[sr];W[sp]
;B[qp];W[ro];B[lk];W[mj];B[ng];W[og];B[pi];W[sg];B[mg];W[op]
;B[oj];W[md];B[bs];W[mc];B[as];W[ap];B[fm];W[fo];B[tt];W[tt]
TW[ia][ja][ka][la][ma][na][oa][pa][qa][ra][sa][hb][ib][jb][kb]
[lb][ob][pb][qb][rb][sb][ic][qc][rc][sc][id][jd][rd][sd][ie]
[je][re][se][qf][sf][pg][rg][ph][qh][rh][sh][ni][pi][qi][ri]
[si][oj][pj][qj][ok][pk][qk][rk][ml][nl][ol][am][bm][cm][lm]
[om][pm][qm][rm][sm][an][bn][cn][mn][nn][on][pn][qn][rn][sn]
[ao][oo][so][hp][ip]TB[aa][ba][ca][da][ab][bb][cb][eb][ac][bc]
[cc][dc][ec][ad][bd][dd][ed][ae][be][ce][de][ee][fe][af][bf]
[cf][df][ef][ff][ag][bg][cg][dg][eg][fg][ah][bh][ch][dh][eh]
[fh][gh][lh][ai][bi][ci][di][ei][cj][jj][ek][fk][ik][hl][cr]
[er][pr][rr][cs][ds][is][qs][rs][ss])
(;B[sj];W[si];B[ri];W[sj];B[sh];W[sl];B[rf];W[qf]))
(;W[jn];B[kn];W[ho]C[N: pretty disastrous for B]))
(;B[ke];W[le]
(;B[md];W[lf];B[kc];W[jd];B[jb]
(;W[kb];B[id];W[lc];B[ic]C[N: W fails.])
(;W[ib];B[kb];W[id];B[qc];W[qb];B[rc];W[rb];B[nb];W[ob];B[oa]
;W[pb];B[lb];W[na]
(;B[mb])
(;B[ma]C[N: B lives, and can make trouble with his L15 stones.]
)))
(;B[lf]
(;W[md];B[me])
(;W[lc]
(;B[md])
(;B[me];W[mb]C[N: a big ko if B decides to fight it])))))
(;B[og];W[ph];B[pg];W[rh];B[qi];W[ri];B[of];W[qj];B[pi];W[pj]
;B[oi];W[qf];B[oj];W[pk];B[md];W[mc];B[qd];W[rd];B[rc];W[re]
;B[pb];W[ld];B[le];W[ke];B[lf];W[kf];B[lg]C[N: Looks playable for both sides. Big question is now what happens in the top left.]
))
(;B[om];W[ol];B[nn];W[mn];B[on];W[mo];B[mm];W[ln];B[km];W[kn]
;B[jn];W[jm];B[nl];W[im];B[hn];W[hm];B[gn]C[N: W's prospects are pretty bleak. He may be able to live with R2, but he's lost the advantage.]
))
(;B[nn]
(;W[on];B[oo];W[om];B[np];W[mo];B[mp];W[mn];B[pm];W[ol];B[oq]
;W[qq];B[qp];W[or];B[nr];W[pq];B[mq];W[rp];B[ro];W[rr];B[sp]
;W[rq];B[ln];W[mm];B[qk]C[N: looks very good for B])
(;W[oo];B[on];W[po];B[qo];W[qp];B[rp];W[qq];B[mo];W[mp];B[lp]
;W[ro];B[qn];W[rn];B[rm];W[rq]C[W's corner is big, but B has huge thickness in sente. B should win the game.]
)
(;W[op];B[mo];W[on];B[om];W[oo];B[po];W[pq];B[mm];W[pm];B[pl]
;W[qm];B[ql]
(;W[qn];B[nl])
(;W[ol];B[nm];W[qn];B[ok];W[ec];B[nl]C[N: This is probably the best of the variations for W, but still not good.]
))
(;W[qq];B[mo];W[oo];B[po];W[on];B[om];W[oq];B[nl];W[ro];B[qm]
)))
