(;FF[4]GM[1]SZ[19]ST[2]CA[UTF-8]AP[SGFC:1.15]

PB[kuggel]
BR[9k]
PW[debo]
WR[8k]
KM[0.5]
DT[2009-05-07]
PC[The KGS Go Server at http://www.gokgs.com/]
RE[W+54.50]
TM[1800]
OT[5x30 byo-yomi]
RU[Japanese]

C[burrito reviews debo-kuggle,


You asked: "White was leading throughout the game. how could I play to get sente / bigger moves?"

My response is that black was leading through most of the game.  Black made a big mistake in the lower left at which point the game was over and no amount of of sente moves would have solved the problem.  

I've commented the game up to that point.  I hope that helps.  And remember to try and read out the positions as thoroughly as possible before playing them.]
;B[pd];W[dp];B[cd];W[qp];B[ic];W[pf];B[nd]LB[nd:B][qf:A]C[kuggel [9k\]: was it correch?

Yes.  Normally white approaches the chinese openning at A, and black responds with B.   The high response at B is normal against the high approach of B, so I feel it's right here.]

(;W[qd];B[qc];W[qe]
(;B[dj];W[cl]
(;B[cj]C[this moves seems slow to me.  I would recommend tenuki]
;W[pk];B[kq]C[I think I might favor the move at L4 here to get better position against white's right side, but I can't really justify it more than that.]
;W[lp];B[kp];W[ko];B[jo];W[lo];B[fq];W[dq]
(;B[nr]C[I like the idea, but this seems too far];W[lq];B[lr]
;W[kr]
(;B[jq]C[getting cut and making bad shape - not a good combination]
;W[mr];B[jr];W[ls];B[op]C[at this point, you have to ask what you are trying to accomplish.  saving the O2 stone is just not interesting.  Your idea should be to use the aji of that stone to attack the corner/side in a co-ordinated way.  Although O2 did factor in to the attack, my feeling from watching it is that you didn't have a clear plan and were just hoping that your fighting skills were enough.  That is the wrong strategy at this point, because if you make a mistake you turn a winnable game into a likely loss.  

I would recommend either approaching the corner with a more cohesive attack plan or playing elsewhere to get some immediate profit.

However, since your attack to did succeed you were in good shape]
;W[nn];B[qq];W[pq];B[pp];W[qr];B[rq];W[oq];B[qo];W[rr];B[ro]
;W[nq];B[pm];W[rl];B[nm]C[I feel black is ahead here.];W[kc]
C[kuggel [9k\]: what is a correct reactionon this invasion?

First, notice the effect on your corner from not playing out the joseki.  Your corner is weak and now white's move is hard to deal with]

(;B[lc]C[there is a proverb which is "don't touch weak stones".  This one white stone is weak, and your stones are strong.  Touching the white stones will make them stronger, which is not what you want]
;W[kd];B[ie]C[now, when you build your moyo ...];W[mc]C[white is strong enough to even try and attack you.  though if I were white, I would first jump out to the middle.]
;B[nc]C[your corner is weak, so it's hard not to be submissive here.]
;W[ld]
(;B[md]C[this makes white stronger.  Is your goal only to jump to the center to keep your group safe?]
;W[lb]
(;B[mg];W[nb];B[ob];W[nf];B[mf];W[dc]
(;B[cc];W[dd];B[de];W[ce];B[df];W[cb];B[be];W[bc];B[bd];W[fc]

(;B[fe]C[this move does not do anything for black];W[bb]C[white lives fairly easily here.]

(;B[og];W[pg]C[white is stronger than he was before your move, and you've gained...]
;B[of]C[one white stone?  It seems white is better off for this exchange.  

However, the white group at M16 is looking quite weak...];W[hq]
;B[gp];W[fo];B[el]
(;W[dl]
(;B[em];W[ek];B[dk];W[fk]
(;B[hm]C[the two space jump isn't as solid as a one space jump]
;W[gm];B[gl];W[fl]
(;B[fm]C[this is a reading failure.];W[gn];B[hn];W[go];B[dm]
C[you are throwing away stones here.];W[cm];B[cn];W[dn];B[ho]
;W[hp];B[gr];W[hr];B[ip];W[fp]TR[ek][fk][fl]C[up until the mistakes here, black was ahead.  now white has taken the lead.  Not only did white secure a huge territory in the corner, the marked stones threaten blacks chance of making good use of his position.

black also has weak groups to contend with.  woops!];B[oi];W[qi]
C[white says "thank you for letting me settle this group without asking for any payment in return".]
;B[gb];W[gc]
(;B[hc];W[fb];B[fi];W[gk];B[hj];W[kf]
(;B[jg];W[jf];B[if];W[kg];B[jh];W[hl];B[il];W[jn]
(;B[km];W[im];B[jm];W[in]C[game over...];B[ok];W[ol];B[nk];W[om]
;B[on];W[pl];B[mn];W[no];B[oo];W[sq];B[rp];W[bk];B[bj];W[ik]
;B[ij];W[jk];B[kn];W[io];B[lk];W[nl];B[qm];W[mk];B[mj];W[ml]
;B[kk];W[jb];B[bl];W[bm];B[kh];W[ge];B[gf];W[ff];B[gd];W[ee]
;B[fd];W[ed];B[he];W[ef];B[dg];W[rc];B[fg];W[eg];B[eh];W[ad]
;B[db]C[can't argue with this stone...];W[qb];B[pc];W[oe]
(;B[ne];W[oh];B[ng];W[lj];B[li];W[nj];B[mi];W[oj];B[ni];W[jj]
;B[kj];W[ji];B[ii];W[gj];B[gi];W[aj];B[ai];W[ak];B[bh];W[cf]
C[d];B[ph];W[qh];B[pi];W[pe];B[ql];W[qk];B[rm];W[od];B[oc];W[rk]
;B[na];W[mb];B[ka];W[ja];B[sp];W[ej];B[ei];W[np];B[jl];W[hk]
;B[qa];W[ra];B[pa];W[hb];B[ec];W[ib];B[eb];W[ga];B[pj];W[ln]
;B[lm];W[mm];B[sr];W[rs];B[ma];W[la];B[oa];W[lg];B[lh];W[ll]
;B[kl];W[ki];B[lj];W[jd];B[id];W[le];B[me];W[je];B[qj];W[rj]
;B[ck];W[al];B[ea];W[fa];B[sl];W[sk];B[sm];W[jc];B[sq];W[pr]
;B[tt];W[tt]TW[ha][ia][ka][sa][gb][kb][sb][lc][sc][rd][sd][ke]
[re][se][qf][rf][sf][qg][rg][sg][rh][sh][ri][si][sj][nk][ok]
[bl][el][gl][am][dm][em][fm][hm][nm][an][bn][cn][en][fn][hn]
[mn][ao][bo][co][do][eo][ho][jo][mo][ap][bp][cp][ep][gp][ip]
[jp][kp][mp][aq][bq][cq][eq][fq][gq][iq][jq][kq][mq][ar][br]
[cr][dr][er][fr][gr][ir][jr][lr][nr][or][as][bs][cs][ds][es]
[fs][gs][hs][is][js][ks][ms][ns][os][ps][qs]TB[aa][ba][ca][da]
[ab][bb][cb][ac][bc][dc][ad][dd][ed][hd][ae][ce][ee][ge][af]
[bf][cf][ef][ff][hf][nf][ag][bg][cg][eg][gg][hg][ig][ah][ch]
[dh][fh][gh][hh][ih][mh][nh][oh][bi][ci][di][hi][pn][qn][rn]
[sn][po][so][qp])
(;B[ph];W[qh];B[pe]))
(;B[hk]C[this move fixes your wall and threatens a tough ko for white]
;W[gl];B[im]))
(;B[jb]C[it's still possible to go for a ko here.  a ko would be good for you since you have lots of threats in the lower left, though white can threaten to escape...]
;W[kb];B[na];W[ma];B[mb]))
(;B[hb]C[this move is probably stronger for you]))
(;B[gn]C[maybe this way can be played];W[fm];B[fn];W[en];B[eo]
;W[dn];B[ep];W[hn];B[go]C[but it's not pretty]))
(;B[gm]C[probably you need to play this way from here.];W[ho]
;B[hp];W[hk];B[il]C[but notice that if this white group lives or escapes, you have used your position well above here.   That's why you should consider the cutting points more.]
))
(;B[fl]C[this way supports your moyo a bit])
(;B[ek]C[and this is very solid]))
(;W[fr]C[your group is not so strong, so I don't think you can play away so quickly]
)
(;W[ip]C[some other possibilities that occured to me]
(;B[jp];W[io];B[in];W[go];B[ho];W[hp];B[hn];W[gq];B[fp];W[fr]
)
(;B[io];W[ir];B[js];W[jp];B[iq];W[hp];B[hr];W[gr];B[is];W[ho]
;B[gq];W[go])))
(;B[pi]C[what about a move in here?  You can split up white and possibly even kill one of the two groups.]
))
(;B[bb]C[this should be sente for black];W[eb]
(;B[fe])
(;B[gb]C[and you can attack strongly];W[fe];B[jb];W[kb])))
(;B[jb]C[note that this move should be sente for black to attack the white group, so you can keep it in mind when considering the strength of your groups to attack the invasion]

(;W[kb])
(;W[kf])))
(;B[mb];W[nb])
(;B[nb];W[jb];B[ib];W[mb];B[ka]))
(;B[rc]C[why not move here to secure your group?]
(;W[nf];B[me];W[mf])
(;W[mf]C[this is probably the best I can see for white.  black would still be leading.]
)))
(;B[ie]C[normally, I think I would prefer to play here];W[nb]
C[the most white could normally do would be to come in here.  If your corner were more solid, this would be easier to take.]
)
(;B[mc]C[given the weakness of your corner, I think this is the move to consider]
;W[ke]C[white must jump out];B[ie]C[and you can build your moyo]
))
(;B[jr]C[I think you need to attack the cutting stone here]
;W[mr];B[ks];W[ms];B[jn]))
(;B[mr]C[I'm sure you can see from white's attack that this is a stronger move]
))
(;B[el]C[this move is played sometimes];W[cn];B[ck];W[dl];B[ek]
)
(;B[ed]C[you could also consider playing here];W[bj];B[dl];W[cm]
;B[ci]))
(;B[rc]C[this is the normal way to complete the joseki.  I can understand your desire to get the the other side and build your moyo.]
;W[qj]C[white would typically respond around here and since black has a stone at J17, you can still get to the big point in sente]
;B[dj])
(;B[cn];W[fq];B[dj]C[this is a common way to get the D10 point.  now it's harder for white to approach from the side.]
;W[fc]C[white is almost forced to attack from this side, which works well with your openning]
))
(;W[nf]C[it's more common for white to tennnuki and later play here if it suits the board position]
))
