(;FF[4]GM[1]SZ[19]ST[2]CA[UTF-8]AP[SGFC:1.15]

GN[Shashka-Bogg-465828-20090122]
PB[CT Campbell (Bogg)]
BR[7k]
PW[Rich Lancashire (Shashka)]
WR[5k]
KM[0.5]
DT[2009-01-22,2009-01-22]
PC[Dragon Go Server: http://www.dragongoserver.net/]
RE[B+Resign]
RU[Japanese]

C[Hello, Craig.

My name is Bernd, I am HonFu here in the ladder and on KGS (1k).

First of all I am full of respect for how much time you spent on your personal analysis! Even the cross-references to Go-World with pro opinion and all ... 

When I review a game or study, I always try not to know more and more details, but to look at some crucial moments and to simplify the complicate matters in a way that they are easily graspable - which is kind of the opposite approach to yours. 

Yet I hope, that what I have to say will help you anyway. If questions remain, you can find me easily on KGS:]
;B[pd];W[dc];B[pq];W[cp];B[eq]LB[de:C][po:A][qo:B]C[While I "know" that an approach around 5 is best I don't have a clear understanding as to why it is better than a play at A or B.

My guess is that an approach around 5 works better with Black's two existing stones than an approach around C.

Putting the above into concrete statements:
A) While both approaches (5 and C) work to limit White's potential only an approach around 5 also aims at expanding Black's potential.
B) An approach around A by White may be met by a pincer helping to develop the upper right.

Hon: To put it in a simple way - playing or preventing a shimari is big. But preventing a shimari in the lower left is a double-purpose-move, because it extends from Q3. That's what makes it biggest. 

Playing B would help your Q16 stone somewhat, but the shimari would point into the wrong direction to have a good development.]
;W[hp]LB[qo:A]C[White usually makes an approach around A before responding in the bottom left. This seems logical to me as an immediate approach will probably be met by a pincer but an approach played later may give Black other strong options.

Hon: You can also see white's move at A as miai - you prevented his shimari, he prevents yours. After his pincer you have the option of leaving e3 as it is and play A yourself. As a tendence often you attack or defend any single stone on an assymetrical point (3-4, 3-5, 4-5), and THEN you start with the next phase of fuseki - joseki.]
;B[en];W[cn];B[do]LB[co:A][jp:B][kp:C][cq:D]C[After White A Yang Yilun gives B as the best local play but C seems to be the pincer of choice.

As an aside; while Yang Yilun 7p  considers W8 to be a 'trick play', in Go World 87, while annotating the game Cho Chikun - Yoda Norimoto, game one of the 24th Meijin Titile match, Kudo Norio 9p simply calls it a new move and states that D (the move played) is a popular response. Yang gives D as an error.

After C Black normally gets sente to take the next big point. I expect that to be an approach in the upper left as attacking a White approach move in the bottom right will allow Black to take territory at the bottom in sente.

Hon: Joseki science is not my strong part. I don't think we can handle the nuances of pro thinking anyway at our levels. 

Important for us is that we want to start a counter attack against H4 later. This is enough.]
;W[co];B[kp]LB[hm:B][po:A]C[I was expecting a continuation like B. I think Black is for choice in either case but Black's game seems easy after A.

Hon: If white jumps (what seems logical to me), then L4 was sente and black can play A. Probably white thought, H4 has enough space to settle one way or another later. But jumping seems normal to me.]

(;W[po]LB[hm:B][po:A];B[np]C[This is why I think White 6 should have been played around 12. Now White is hurting his H4 stone.]
;W[qk]LB[qq:A]C[This is just weak. Of course A is better. To bad I didn't do a better job of punishing this as it would have been nearly game over!

Hon: Hmm. Game over you say? I have made the experience that normally - on non-pro level - we don't lose games because we made one slack move. 

Also, this move DOES something, it confronts the influence of the hoshi stone. It's a light extension and I would not call it a losing move, even if it was locally inferior.]

(;B[qo];W[nc]C[Hon: Funny, to leave Q5 like this. At least the hane he should play, then tenuki.]
;B[qf];W[jd]
(;B[cf]LB[pb:B][cf:A][qi:A]C[Perhaps A would have been stronger.

Hon: I am not sure. He has already played lightly in that area, tenukiing after R5. So maybe he can afford to tenuki after A even, since you play too many stones in this area.

For the corner shape, personally I would like B, which takes the corner safely. You can't play it though, since it is too slow now. You would need a good excuse - for example a white move at R12. (See earlier variations.)]

(;W[ch]C[Hon: Wrong joseki.];B[cc]
(;W[cd];B[dd];W[bc];B[cb];W[de];B[ed];W[ce];B[bb];W[fe];B[ee]
;W[ef];B[ec];W[df]LB[qi:A]C[35. R11 would have been much stronger, punishing White for his attempted trick play.

Hon: This joseki was a very bad choice by white. His moyo at the top is in shambles now. (See my joseki variation.)]

(;B[pb]LB[pb:A][qi:B];W[qn];B[qp];W[em];B[fm];W[el];B[fn];W[qh]
;B[pn]C[Black has obviously failed at punishing White's move 14.

White has about 40 points vs. Black's 50.

White's position at the top is still quite loose and if his H4 stone is unable to escape Black's territory at the bottom will be huge.

I think Black is better but this is still a game.

Hon: I think, Q6 is small. It only helps white to strengthen with R7. You should leave this now and rather keep the option of something like R7 instead, which would not cut off one single stone in gote, but weaken the whole group. Never go for single stones in close fights (except they cut apart two heavy groups of your own)! 

I wonder, why H4 is still alive, by the way. It really should be quelled and killed!]
;W[qm];B[on];W[fl]C[Hon: Okay for you. Gives you an excuse to kill the stone.]

(;B[hm]C[Hon: This looks shy to me, since white can, if he is crazy, still play stuff like J6 or K5.]
;W[nl]LB[mm:C][ln:A][mn:B]C[Here I decided that it would be unwise to be greedy about territory at the bottom as White's influence could easily become overwhelming.

During the game I only considered moves at A and B but C might have enabled me to secure a big territory at the bottom without giving away the entire center.

Hon: I am not sure about the exact choice, but if you want the points, C seems best to me. 

The point here is, that you already invested a carload of stones on the bottom. If now H4 manages to escape somehow, your stones will be heavily overconcentrated. So after playing so many stones here, you should make safe you get as many points as possible from them (especially after the mistake at Q, and please also consider that, if H7 was at J5, then white's move would not be anything like sente)]

(;B[hk]LB[hk:A][mm:B];W[ko]C[Hon: Now the trouble starts.];B[jp]
C[Hon: I also thought of this move immediately. Makes it hardest for him to connect or make shape.]
;W[jo];B[io];W[ip]
(;B[in]C[Hon: Bad shape. When white hanes at M4, that doesn't look good.]
;W[lp];B[lq];W[kq];B[jq];W[kr];B[jr];W[mq];B[lr];W[mr];B[ks]
;W[mp]
(;B[lo]C[Hon: Don't go after just a few stones which he can afford to sacrifice!]
;W[mo];B[ln];W[no]LB[nm:A]C[If Black trys to cut with A he loses the capture race.]

(;B[oo]LB[nm:B][oo:A];W[nm];B[lm];W[mm]C[Hon: I think this is not too good for black. White could not hope for much in this area, but now he has entered the lower side and is already in no trouble. The corner will be reduced more later.]
;B[gc]C[Hon: Hmm. Looks slow, but is probably enough, since even after his invasion, you are ahead. He should have escaped with H4 in time.]
;W[hd]
(;B[lk]LB[lc:C][bd:D][gj:A][cr:B]C[Hon: For this move others seem bigger to me, like the marked ones. (See variation for A.)]
;W[jj]C[Hon: Wow. He is reducing your smallest territory. This is a move you should just ignore.]
;B[lf]LB[hi:A]C[I think this move caused me difficulties later but it also caused White problems.

Maybe A would have been better?

Hon: Your move is hanging in midair, having no clear purpose. It is not sente against anything, doesn't build strong influence, doesn't take points, doesn't destroy points ... tenukiing was good, but this move looks like you answered a nonsensical move with another one.]
;W[ne];B[lh];W[lj]
(;B[kk]LB[kj:A]C[After White A Black seems to have an easy game.

Hon: With your peep you help him to connect, which in fact builds strength against your stones at M14 and M12. I think, one should not play this.

I prefer any of my variations, which are not really careful developed lines, but do not strengthen white with no need like your peep.]

(;W[mj]LB[kj:B][mj:A];B[ig];W[hi]C[The exchange of 85 for 86 was to White's benefit.
I think I should have played H11 myself followed by the cut at L10 as in the game.

Hon: Might be right, but I think the real problem was rather your peep at L9.]
;B[kj];W[ki];B[li];W[ji];B[mk];W[nk];B[of];W[mh];B[mg];W[mi]
LB[oh:A]C[Perhaps 97. at A would have been stronger as White's attempt to cut fails.]

(;B[og]LB[og:A][oh:B];W[kg];B[lg];W[jg];B[gj]C[White's position at the top has too many holes to make it a priority for Black while the left side could be consolidated into a huge territory with a single move. This also attempts to derive some value from 85.

Hon: He is behind one way or another.];W[fi];B[gi];W[gh];B[fj]
;W[ei]
(;B[ej];W[er]C[I am not certain I handled this properly. It seemed that White was giving up more than he gained so I didn't sweat it overly much.

Hon: I would see it like this: You have spent many stones to make points here, so if he now takes those points away and lives here, then all those moves were useless. 

You have 20 points here, you shouldn't just give them away easily!]

(;B[dq];W[fq];B[dr];W[fo];B[dn];W[gr];B[es];W[fs];B[fr];W[dp]
;B[ep];W[er];B[fp];W[ds];B[gq];W[gp];B[fr];W[ng]LB[nh:A]C[I didn't like White forcing me to capture before he retook the ko as I didn't want to lose some of my options on the right side.

Hon: Locally it looks like black got tricked. You were the boss at the bottom and had him cleanly killed. Now you got a ko on your hands and can make life. But, he paid a lot allowing you to play D6. I see trouble coming here. 

Still, I think, you should just have taken the points at the bottom. Don't go for crazy stuff when you're clearly ahead.]

(;B[nf]LB[nf:A][nh:B];W[fq]LB[hq:A]C[The variation starting with 129. H3 didn't occur to me until I got here. I think Black would still have the advantage but I prefered the position after 129. C2.
In exchange for the territory given up (about 12 points) Black gets some of the corner, probably in sente and a few big ko threats of indeterminate value.

Hon: If you can manage to take apart the whole left side, I would agree. But I can't see why you should give up the whole bottom for a move at C2, which you could have had earlier.]

(;B[cr]LB[hq:B][cr:A];W[hq];B[dm];W[cl]
(;B[cm];W[bm];B[dl];W[ck]C[Hon: All is safe for white, lifewise. You helped him here.]
;B[oh];W[oj];B[hc];W[ic];B[dj];W[cj];B[di];W[dh]
(;B[ma]LB[pc:A]C[I was expecting the game to continue as in A when Black still has M16 to further erase White's territory.]

(;W[mb]LB[mb:A][pc:B];B[na];W[qc];B[pc]C[While exchanging 148 for 149 allows White to reduce my corner territory it strengthens my position and makes caging the Monkey imperative.]
;W[rf];B[re];W[rg];B[or]C[This was why I played 145. N19 instead of M17. I wanted to reduce or invade the top while maintaining sente for P2.

Exchanging 150 and 152 for 151 and 153 seems bad for White as I still have sente at the top.]
;W[ib]C[White 154 must be a mistake as it threatens to do less damage to me than I can now do to him.]
;B[lb];W[lc];B[kb];W[fa]C[158. G19 is better.];B[fb];W[ga]C[With 160. H19 White can still maintain sente.]
;B[ea];W[hb];B[kc];W[kd];B[gd]LB[ld:F][ge:A][fh:E][ci:B][pi:D]
[bq:C]C[After the better 166. at A White's position is still hopeless as Black still has many sente threats, B-E, as well as F which makes White work to just keep his stones alive.

The variation is to show why E is a threat.]
(;W[fd]LB[fd:A][ge:B];B[ge]C[B+R])
(;W[ge]LB[fd:A][ge:B];B[fh];W[eh];B[hh];W[gg];B[ii]))
(;W[pc]LB[mb:A][pc:B];B[qc];W[oc];B[qb];W[nb];B[na];W[oa];B[ob]
;W[la];B[pa];W[mb];B[oa];W[lb];B[or]))
(;B[kc]C[Hon: How about this instead?

I am sure, that now that you see it, you understand, how it works.]
))
(;B[cj]C[Hon: Isolate the whole group.]))
(;B[hq]LB[hq:B][cr:A]
(;W[fr];B[hr];W[cr];B[cq];W[bq];B[eo];W[br];B[dm];W[cl];B[cm]
;W[bm];B[dl];W[ck])
(;W[iq]C[Hon: Why not this and increase the value of the ko? White should not play wimpy.]
)))
(;B[nh]LB[nf:A][nh:B];W[ni];B[nf];W[fq]))
(;B[dr]
(;W[dq];B[fr];W[ep];B[fq];W[dp];B[fp];W[cr];B[cj]C[Hon: This looks good to me.]
)
(;W[fq];B[dq]C[Hon: Like this white should not be able to live.]
)))
(;B[cr]C[Hon: After you lost the whole lower side, you will say, C2 is big. But you could have played this anyway, so what will be the gain? 

Now of course the in-game move is bigger.]))
(;B[oh]LB[ng:B][og:A][pg:A][oh:B][oi:C]C[The real question is; does Black benefit by the trade as White can defend at C at anytime prior to losing a group of stones forcing Black to connect?

Hon: I like B.]
(;W[pg]LB[ng:B][pg:A];B[og];W[pf];B[pe]
(;W[oe]LB[oe:A][qg:A][nj:B]C[And either Black A or B connects by killing the White cutting stones.]
)
(;W[qg]LB[oe:A][qg:B];B[rf];W[oe];B[nj]))
(;W[ng]LB[nf:A][ng:B][pg:A][nh:B]C[And either Black A or B would suffice.]
)
(;W[oi];B[ph];W[pi];B[qg];W[rh]C[Hon: How about this? No problems remain and you have sente.]
)))
(;W[kj]LB[kj:B][mj:A];B[mk]
(;W[nk]C[Hon: Why should he weaken his K10 stones like this?]
;B[mj];W[mi];B[li];W[ii];B[ni];W[mh];B[mg];W[nh];B[ng];W[oh]
;B[of];W[nj]C[Hon: This sequence is not good for white. White can do better.]
)
(;W[mi]C[Hon: How about just this? I think, you are in a harder position, since now your stones have to find an escape route, while his stones are connected and can find their way to the left and right.]
)))
(;B[mj]
(;W[li];B[mi];W[mk];B[ji];W[kk];B[ll];W[ij];B[kh];W[kj];B[og]
)
(;W[mi];B[li];W[kj];B[ng];W[ni];B[of])
(;W[mk];B[kj];W[li];B[ki];W[mi];B[ji])))
(;B[gj];W[ll];B[kl];W[kk];B[lk];W[ml];B[jl];W[lj];B[ej];W[cj]
;B[og]C[Hon: This is no trouble, right? His potential being all gone.]
))
(;B[nm]LB[nm:B][oo:A];W[mm];B[mn];W[nn];B[om];W[oo];B[ol];W[lm]
;B[kn];W[km];B[jn];W[ok]))
(;B[mn]C[Hon: With a move like this you can start an attack on the whole group, which will destroy his center potential, since you run out along with him right into it.]
;W[hr]C[Hon: This should not kill you.];B[ir];W[is];B[hq];W[gq]
;B[iq];W[gr];B[gp]C[Hon: All is safe.]))
(;B[ho]C[Hon: If you play from the cutting stone, then this is minimum, making better shape and taking a liberty.]
)
(;B[lo]C[Hon: This looks like necessary.]))
(;B[mm]LB[hk:A][mm:B];W[ml];B[lm];W[kk];B[hk]C[Hon: Looks good to me. Center territory is hard to keep, and your profit at the bottom is not small.]
))
(;B[io]C[Hon: Rather block the road completely!]))
(;B[qi]LB[pb:A][qi:B];W[qn];B[qp];W[pn]C[This seems to be nearly forced so 35. R11 would have ended in sente and I could have still played at Q18!

In fact Black's position in the upper right is already quite strong. Solidifying the corner territory and making an invasion at the top even stronger probably isn't enough to make 39. Q18 better than 39. E8.

Hon: If you play R11, you only give the weak stones an excuse to settle like this. Since you're the boss in this area anyway, settling is enough for him. The extension at R6 (variation) seems to have still been good, setting up the inducing-sequence shown earlier.]
)
(;B[qn];W[qh];B[pb]C[Hon: Now both corners look good, and he is thin all around.]
))
(;W[dd]C[Hon: I have seen this as an answer. In this case it seems to work well enough.]
;B[cd];W[de];B[bf];W[eg]C[Hon: See?]))
(;W[de]C[Hon: This would be normal, working with the stones on the right.]
;B[bd];W[df];B[cg];W[dg];B[cc];W[db];B[ch]C[Hon: Now his position at the top makes sense.]
))
(;B[qi]LB[cf:A][qi:B]
(;W[qn]LB[de:B][qn:A];B[qp];W[pn];B[cf]C[If White defends his position on the right I would still get to make an approach in the upper left.

Hon: But white can still invade the upper right. To me it seems, you haven't accomplished a lot except making white solid.]
)
(;W[de]LB[de:B][el:C][hn:D][pn:A][qn:B]C[But how should Black play if White makes an enclosure in the upper left?

Should Black play in the bottom right immediately to take advantage of White's omission or should he play a move like C knowing that he will get to play two moves in a row elsewhere if White comes back to defend?

I am uncertain which is better for Black, A or B, so I think Black C would be my choice.

Hon: There's an easy principle - when you're weak, hane, when you're strong, extend. Playing B leaves white the least opportunity for sabaki, so it is better. After the hane at A he can try to settle with a crosscut. (For B see variation.)

By the way - D is large, since white did not play there. If he runs, he or the complete group on the right might die a natural death in a double attack.]
))
(;B[qn];W[qh];B[pb]C[Hon: So maybe you should force this? You get corner territory on both sides, Q5 squeaks, and the R-group remains weakish.]
))
(;B[qm]C[Hon: Maybe this is better, if you want to punish.]
;W[pm];B[qn];W[pn];B[rp];W[ql]C[Hon: With a variation like this you get the most profit in the corner. His influence has no effect, since you are strong here.]
))
(;W[hm]LB[hm:B][po:A];B[el];W[ck];B[hk]C[Hon: White doesnt have to play C9, since the corner is alive. Probably it's better to do though, but black's cap looks to me as if black is controlling this phase of the game.]
))
