(;FF[4]GM[1]SZ[19]ST[1]CA[UTF-8]AP[SGFC:1.15]

GN[akirago-040162-448062-20090502]
PB[Homer (040162)]
BR[3k]
PW[akirago (akirago)]
WR[3k]
KM[6.5]
DT[2008-11-11,2009-05-02]
PC[Dragon Go Server: http://www.dragongoserver.net/]

C[Dear reviewer,
my name is Thomas. I like to have reviewed this game.
Apparently I chose  a wrong strategy in this game, because I have weaknesses in reading skill. So my opponent could save a group that I assumed as dead.

Hi Thomas, 

My name is Philip and I am 2d KGS. You can fnd me online as cloud, or feel free to email me with any questions. I marked all my comments with R:]
;B[pd];W[pp];B[cd];W[dp];B[id];W[qf];B[nc]C[R: O16 is usual here. The high chinese emphasizes influence. O16 is more consistent with this strategy.]
;W[pj];B[dj];W[ed]C[I like chinese fuseki as black.. Now I have I goal to attack.]
;B[dc]LB[cl:B][df:A][jp:C]C[R: This move is not correct. If white descends to E17 then you will get a good result, but white should not do that. White can play A locally, or just leave E16 as forcing and play B or C.

Black should play A instead, and white will get a cramped result.]
;W[de];B[ce];W[dg]C[R: This is a good result for white. Black's stones are not working well together.]
;B[cn];W[fp]
(;B[ch]LB[ch:A][hq:B]C[Maybe too slow? Would it have been better to put a stone araound k3?

R: Black should play H3 directly here and start a fight. See variation.]
;W[jq]
(;B[qq]LB[gd:B][qq:A]C[Good or should  I have choosen an other place? In return of my territory white gets strong towards the center and this is not consistent with my propper strategy to attack whites e16 group.

R: You are right that you should be focusing on the E16 group, but you need to attack now. White K3 is questionable, but it removed the possibility of a black attack at H3. To get compenstation you have to follow up your move at C12. See variation.]
;W[qp];B[pq];W[oq];B[or];W[nq];B[rp];W[ro];B[rq];W[qn];B[nr]
;W[mq];B[of];W[ph];B[ec]C[R: G16 would be a better idea.];W[gd]

(;B[jo]LB[if:B][jo:A]C[I have much doubtness about black k5. Ohterwise i don't see a better move. I strongly feel that I have to enter there before white gets a stone there.

R: This move is ok. It is hard for white to attack this stone, and it is a key point for white to expand his moyo. I would still like to attack the white group up top though. See variation.]
;W[hp];B[jl]LB[if:A][kq:B]C[R: This move doesn't really accomplish much. Locally, black should attach at B. However, Black should still attack the top stones at A.]
;W[gg];B[if];W[ic];B[jc];W[hc];B[cg]LB[cq:A]C[R: This move is very slow. Black should play at A and steal the corner.]
;W[fc];B[jb]C[R: This is a good move.];W[ih];B[mo]LB[cq:A][rd:B]
C[R: Black should play at A or B instead.];W[rd]
(;B[bp]LB[bp:A][cq:B]C[R: This is wrong. Black needs to come into the corner completely. See variation.]
;W[cq];B[hg];W[hh];B[gh]C[I didn't recognizes that the j16- j14 position is somewhat vulnerable.]
;W[mh]C[R: This is a nice move by white.];B[lf];W[kn];B[ko]
;W[jn];B[ln];W[lm];B[mm];W[ll];B[ml];W[lk]
(;B[in]C[R: This move is a mistake. Black should attach at H5 to make shape.]
;W[km]C[R: This result is very nice for black.];B[ip];W[iq]
;B[gm];W[ho];B[io];W[lp];B[lo];W[em];B[el]LB[dl:A][ql:B]C[My loosing move. I gave away c6 in the hope to get f17. But later white found a tesuji to escape. Therethore is it better to play black 75 at c8? Do you see other possibilities?

R: Play calmly here. A is fine. Also, notice that once black is stronger in the area black can play an invasion at B.]
;W[fl];B[fm];W[en];B[jj]LB[dl:A]C[R: Black needs to extend at A.]
;W[ki];B[fk]C[R: Again, this should be an extension at D8. I know that your line of play is weakening the top, but it's a much risker way of playing. It seems unnecessary.]
;W[dl];B[ek];W[cm];B[fe];W[gb];B[eb];W[ge];B[ff]C[R: This is difficult for white.]

(;W[gf];B[eg];W[ef];B[fg];W[fd];B[fh];W[ib];B[ha];W[ia];B[ga]
;W[jd];B[je];W[kd];B[lc];W[qc]
(;B[ol]LB[ke:B][ol:A]C[I gave the last oportunity away.

Thanks for reviewing this game.];W[ie]C[very surprisingly for me

R: I don't think this move works. See variations.

Overall, I think you played well in this game. You have a good understanding of strong/weak groups, but you should study how to get benefit from attacking. I would recommend the book Attack and Defense in the Elementary Go Series, if you don't already have it. Also, make sure you try to keep a consistent plan throughout the game. For instance, when playing the high chinese, you should strive to build influence throughout your opening. *End of comments*]

(;B[ql];W[ke];B[op];W[qk];B[rl];W[rk];B[nj];W[mi];B[go];W[hn]
;B[fo];W[eo];B[bk];W[bl];B[oh];W[ng];B[og];W[me];B[nf];W[mf]
;B[pi];W[qi];B[pg];W[qh];B[qg];W[rg];B[qe];W[re];B[pf];W[rf]
;B[ji];W[jh];B[ls];W[kr];B[ld];W[le];B[pc];W[hm];B[hl];W[qb]
;B[kj];W[lj];B[np];W[sl];B[sm];W[sk];B[rm];W[na];B[nb];W[oa]
;B[ma];W[pb];B[lb];W[bj];B[ck];W[ak];B[bi];W[hj];B[ai];W[ik]
;B[kh];W[li];B[jk];W[il];B[hi];W[ii];B[ij];W[im];B[gi];W[jg]
;B[hk];W[dh];B[cf];W[df];B[di];W[gp];B[aj];W[al];B[cl];W[bn]
;B[bo];W[fn];B[mp];W[lr];B[mr];W[lq];B[lg];W[jf];B[nh];W[mg]
;B[ob];W[pa];B[gl];W[fa];B[pk];W[gn];B[oj];W[oi];B[ni];W[pi]
;B[fb];W[hb];B[nd];W[kc];B[kb];W[ne];B[oe];W[mk];B[nk];W[ea]
;B[da];W[ga];B[eh];W[ks];B[ms];W[md];B[dd];W[ee];B[mc];W[ja]
;B[ka];W[kp];B[qd];W[dm];B[dk];W[gj];B[fj];W[jm];B[gk];W[kk]
;B[hj];W[tt];B[tt])
(;B[he]
(;W[hf];B[ig];W[hd];B[ie]
(;W[kf];B[ke];W[ld];B[md])
(;W[ke];B[kf]))
(;W[ig];B[hf]
(;W[hd];B[jf];W[ie];B[le])
(;W[jf];B[jg];W[hd];B[kf];W[ie];B[jf])
(;W[kf];B[ke]
(;W[ld];B[le]C[R: This seems like white's best chance.])
(;W[hd];B[le])))))
(;B[ke]LB[ke:B][ol:A];W[ie];B[he];W[hf];B[ig];W[hd];B[ie];W[bk]
))
(;W[hf];B[ig];W[fh];B[gi];W[ie];B[je];W[hd];B[jd];W[fg]C[R: Seems like white might be able to get a ko this way.]
))
(;B[ho]
(;W[ip];B[io];W[go];B[km];W[jm];B[im];W[kl];B[in];W[km];B[fm]
C[R: Something like this.])
(;W[go];B[in];W[hn];B[ip]C[R: Black can fight here.])))
(;B[cq]LB[bp:A][cq:B];W[cp];B[bp]
(;W[dq]LB[bo:B][dq:A];B[br];W[cr];B[bq]TR[nr][or]C[R: Now white has almost no territory on the bottom.]
)
(;W[bo]LB[bo:B][dq:A]C[R: White can not block this way.];B[bq]
;W[co];B[bn];W[an];B[er];W[fr];B[eq];W[fq];B[ep];W[eo];B[fo]
C[R: Bad for white.])))
(;B[if]LB[if:B][jo:A];W[gf];B[hh]LB[jo:A]C[R: This is very difficult for white. White has no time to play a move like A.]
;W[gh];B[gi];W[hg];B[fh];W[gg];B[ig];W[fi];B[hi];W[eh];B[fj]
;W[ei]C[R: Something like this.]))
(;B[gd]LB[gd:B][qq:A]C[R: This is difficult for white. White has no time to play a move at E17, also it is hard for white to defend without strengthening black.]
;W[dh];B[ci];W[gg];B[ig]C[Something like this.]))
(;B[hq]LB[ch:A][hq:B];W[kq];B[ho];W[em];B[cl]TR[de][dg][ed]
C[R: Something like this. Because the marked white stones are not strong, a fight here should favor black. J16 now becomes very helpful to black in the upcoming fight.]
))
