(;FF[4]GM[1]SZ[19]ST[2]CA[UTF-8]AP[SGFC:1.15]

PB[dancor]
BR[8k]
PW[deallo]
WR[7k]
KM[0.5]
DT[2009-05-17]
PC[The KGS Go Server at http://www.gokgs.com/]
RE[W+47.50]
TM[600]
OT[5x20 byo-yomi]
RU[Japanese]

C[this is a game from KGS.  i am black 8k and opponent is 7k, 0.5 komi.

i have a few specific questions about things i can't figure out reviewing the game on a net-vs-ladder in the lower left, then fighting in the lower right, then correct strategy at one point, and then big fighting in the middle.  however, i also am interested in any general tips, especially for what to keep in mind in fighting like this

thank you];B[pd];W[dd];B[pq];W[dp];B[fq];W[hq];B[qo]C[in the past i have played C3 or F5 here but after one of my games i found out that R5 is also popular and i wanted to try it

Yes, You are right, but only if you use it with another stone around L3]
;W[fp];B[ep];W[eq];B[eo];W[gq];B[dq];W[er];B[dr];W[fr];B[co]
C[i wanted to play the C4 ladder or the C5 net if it worked.  at the time i thought the net just barely worked.  but maybe not, or maybe the net works but leads to such a complex semeai that it has even more bad aji than the ladder?


The net is worse aji, always make safe the corner];W[lq];B[jq]
C[i was concerned that M3 makes my earlier R5 pointless so i thought i had to try fighting here

I fell to weak move at the moment];W[jp];B[kp];W[kq];B[jo];W[ip]
;B[io];W[ho];B[hn];W[fo];B[en];W[gn];B[im];W[hm];B[in]C[i thought it was ok to make this empty triangle since i would likely have to anyway after bL5 wM4


Yes, I think the same. Still is important use your lower right corner to support this stones and build influence in the upper bottom direction]
;W[hl];B[df];W[ch];B[il]C[i still didn't like the possibility of wJ8 with wL5 possible

I agree];W[cf];B[ce];W[de];B[cg];W[bf];B[dg];W[bg];B[cc];W[cd]
;B[bc];W[bd];B[dc];W[ec];B[eb];W[fb];B[da];W[cb]C[i was happy with wC18 because i thought white was wasting a ko threat]
;B[bb];W[ck]C[This is a moment to  value the board...

In that way you should play aroun K16 or Q10];B[ed];W[fc];B[ee]
C[i was glad i was able to block white here

You cant block with weak group (E16)];W[ef]
(;B[dh];W[ff]C[i thought i would be able to get compensation on the left in this possibility.  not sure if that was correct thinking though

The right compensation was using E15, see the variation];B[ci]
;W[bh];B[dj];W[el];B[fm];W[dk];B[gl];W[hk];B[gm];W[fn];B[em]
;W[ik];B[ko]C[should have tried to connect my D12 and G8 groups?  i was worried we would end up crosscut and then my D12 would be weakest given that white's C9 group has better threats (connection to B12, wD7 threatening wD5)

Yes, you shold... D12 gives a larger territory to white];W[fj]
C[In general you maybe should be consistent with you choices... I mean, try to save every stone usually put you in troubles. 

See the variation]
(;B[gh];W[fh];B[fi];W[ei];B[gi];W[di];B[gk];W[eh];B[bl]C[Connect G10!!!!]
;W[gj];B[hj];W[jk];B[ii];W[bk];B[jh]C[i thought this was the best way to not have to worry about wH12 and to make sure that the white H9 group didn't threaten my L5 group

The proverb says "Connect your weak groups"];W[np];B[nr];W[lk]
;B[ks];W[jr];B[jd]C[i wasn't sure the correct strategy at this point

Right, You have a fight against K9, and your weaker is J5, because has less exits than G11]
;W[nc];B[nn]C[too large];W[mn];B[mo];W[no];B[mm];W[ln];B[lm]
;W[nm];B[on];W[lo];B[lp];W[mp];B[kn]C[i was happy with this squeeze]
;W[mo];B[kl];W[kk];B[nl];W[li];B[mq]C[Bigger at P10, remember. Is about territory, not stones]
;W[oq];B[or];W[pp];B[op]C[Now R4 instead];W[oo];B[po];W[qp]
;B[nq];W[op]
(;B[qq]C[i think this was a huge mistake and i should have squeezed again (variation)]
;W[rp];B[ro];W[rq]
(;B[qs]C[another huge mistake right?  variation kills and this doesn't?

Right];W[rr];B[om];W[qr];B[pr];W[ps];B[lr];W[kr];B[ms];W[os]
;B[sp];W[rs];B[sq];W[so];B[sn];W[sr];B[so];W[js];B[ls]C[this is necessary now right?  so now i haven't killed and ended in gote!  should i have taken sente and allowed a ko?

Depends of your style... based in my reading of you and the opportunities (like B15,  J3 or more risky M12) maybe better allow the ko]
;W[lg];B[md];W[nd];B[ne];W[mc];B[me];W[oh];B[pj];W[qh]C[In this moment the game depends on the L9 gruop, lives white wins, die you win]
;B[qf];W[qj];B[pi];W[qi];B[ph];W[jf]C[this is scary];B[if];W[ig]
;B[jg];W[ie]C[See the variation]
(;B[hf];W[je];B[hg];W[ih];B[hh];W[ij];B[gd];W[fd]
(;B[ej]C[this didn't make any sense.  what is most important to keep in mind for fights like this?

i try to seek eyes first, you have some, see the variation]
;W[fk];B[ge];W[fe];B[gf]C[this is worthless right?  i didn't realize that bF13 is not a threat

yes, is the worst, you not are allow to lose a move in this point]
;W[kd];B[jc];W[kc];B[ke];W[le];B[id];W[kf];B[hc];W[ib]
(;B[jb];W[hb];B[gb];W[gc];B[lh];W[mh];B[kh];W[mi];B[mg];W[mf]
;B[ng];W[nf];B[of];W[lf];B[og];W[oe];B[mj];W[hi];B[lj];W[kj]
;B[ki];W[mk];B[nj];W[nk];B[ok];W[qm];B[pn];W[pl];B[rk];W[ol]
C[Already one eye, cut!! see the variation]
(;B[ml];W[pg];B[qg];W[pk];B[oj];W[rl];B[sl];W[rj];B[sk];W[rm]
;B[sm];W[qk];B[pm]C[is this necessary or should i tenuki with S12 and Q7 miai to kill white?

in terms of shape, is better... but isnt necessary to kill]
;W[jl];B[rh];W[ld];B[pe];W[cp];B[bp];W[cq];B[cr];W[bq];B[br]
;W[bo];B[do];W[ap];B[ar];W[bn];B[aq];W[bp];B[bm];W[cn];B[cm]
;W[am]
(;B[an];W[dm];B[hj];W[oi];B[pf];W[hi];B[dl];W[fl];B[ob];W[nb]
;B[ma];W[na];B[oa];W[oc];B[pc];W[pb];B[qb];W[pa];B[qa];W[fa]
;B[ca];W[ac];B[ab];W[ea];B[db];W[ad];B[lb];W[kb];B[ka];W[hd]
;B[he];W[ih];B[ig];W[ji];B[jj];W[dn];B[jm];W[ll];B[km];W[sj]
;B[si];W[ji];B[od];W[ih];B[nh];W[ii];B[ne];W[me];B[oe];W[ia]
;B[ja];W[fg];B[ni];W[ql];B[ic]C[useless];W[ga];B[hd];W[mb];B[la]
;W[lc];B[kg];W[rg];B[rf];W[ri];B[sg];W[sh];B[rg];W[tt];B[tt]
TW[ha][oa][gb][ob][ed][md][ae][be][ce][ee][ke][af][df][ag][cg]
[dg][eg][ah][dh][ai][bi][ci][aj][bj][cj][dj][ej][hj][jj][ak]
[ek][gk][al][bl][cl][dl][gl][bm][cm][em][fm][gm][an][en][ao]
[co][do][eo][go][ep][gp][hp][aq][dq][fq][iq][jq][ar][br][cr]
[dr][gr][hr][ir][as][bs][cs][ds][es][fs][gs][hs][is]TB[aa][ba]
[ra][sa][cb][rb][sb][qc][rc][sc][qd][rd][sd][qe][re][se][sf]
[pg][mh][oh][qh][sh][li][mi][oi][qi][ri][si][qj][rj][sj][pk]
[qk][ol][pl][ql][rl][nm][qm][rm][jn][qn][rn]C[In general you need to select your fights... and see when your are strong to fight ok

I hope you can use my review

Claudio Mera])
(;B[dn];W[fl];B[dm]C[miai to kill]))
(;B[qk];W[pk];B[oj]C[and safe]))
(;B[gb];W[fa];B[jb];W[hb];B[gc];W[ga]C[Sorry, dont work]))
(;B[ge]
(;W[fe];B[hc])
(;W[gc];B[hd]
(;W[hc];B[id])
(;W[id];B[hc];W[fe];B[ic];W[jc];B[jb];W[kc];B[ha]))))
(;B[kf];W[je];B[kg]
(;W[lf];B[ke];W[le];B[ld])
(;W[ke];B[lf];W[kd];B[qk]C[And you are winning by 5 or some]
)))
(;B[rr];W[qr];B[pr];W[sr];B[rs]))
(;B[rp];W[qq];B[qr];W[rq];B[rr]))
(;B[jk];W[jj];B[kj];W[ki];B[lj];W[li];B[mi];W[mj];B[kk];W[mh]
;B[ni];W[nh];B[md]C[Still you can fight]))
(;B[ff];W[eg];B[fg];W[dh];B[ge];W[gd];B[fe];W[he];B[hf];W[ie]
;B[if]
(;W[jf])
(;W[je];B[jf]CR[jg][kg][ih][jh][kh][lh][mh][ii][ji][ki][li]
[mi][ni][kj][lj][nj][jk][kk][lk][nk][kl][ll][ml][nl][km][nm]
C[The area there is equal compensation for lose tree stones and give an very open side]
)))
