(;FF[4]GM[1]SZ[19]ST[2]CA[UTF-8]AP[SGFC:1.15]

EV[lorl-boobookan-480505]
PB[Michael (boobookan)]
BR[4k]
BT[Belgique]
PW[Laurent L (lorl)]
WR[2k]
WT[France]
KM[0.5]
DT[2009-03-22,05-17]
PC[Dragon Go Server: http://www.dragongoserver.net/]
RE[W+2.50]
RU[Japanese]
GC[Game ID: 480505, rated]

;B[pd];W[pp];B[dd];W[dq];B[jd];W[co]LB[cf:A][qf:B]C[janr: instead of the shimari, a kakari at A or B looks more normal.  In the game, black gets a huge framework]
;B[pj];W[cf];B[dj]LB[cc:A][fc:B]C[what to play ?

(LL)

janr: invasion at A or double kakari at B seem possible, but the double kakari at B is dangerous as black will answer at A]
;W[cc];B[dc];W[cd];B[de];W[ce];B[df];W[dg];B[eg]LB[dh:A][eh:B]
C[two moves for one choice !?

(LL)]
(;W[dh]LB[eh:A]C[janr: I prefer the double hane at A.];B[eh]
;W[ei];B[di]LB[bh:A]C[janr: notice that black A will now be an annoying forcing move:]
;W[fi];B[ek];W[hi];B[gk];W[gg];B[gd]LB[ik:B][jp:A]
(;W[jp]LB[hd:B][ef:A]C[a mistake ?! white seems not have time to play this move ?...

(LL)

janr: the proverb says: urgent points before big points.  It is urgent to protect the center group.  Also, it's becoming harder to exploit the cut at A.
It may therefore be interesting to look at blacks reaction to B, and accordingly choose to continue locally or leave the position as aji.]
;B[ik]TR[gg][ei][fi][hi]C[black has now a huge attack on the white central group.

(LL)];W[ji]LB[hd:A]C[janr: before enlarging the heavy group, I would prefer to play some moves that query blacks reaction (such as A)]
;B[kk];W[li];B[mk];W[kf];B[ld]C[janr: black gets stronger in the process of attacking the still weak and heavy group]
;W[mf];B[nd]LB[ie:A][ni:B][qn:C]
(;W[ie]C[white is trying to reinforce his group in 'sente'...

(LL)

janr: unfortunately, black makes huge amounts of territory while white is surviving]

(;B[id]C[at this stage, I thought the game was lost :

- the white centre group is still weak,

- black has many points on the upper board,

- black has also an interesting wall in the center, which could help invading the white lower side...

(LL)];W[qn]LB[hf:D][if:B][ni:C][pr:A]
(;B[pr]LB[oq:A][pq:B][nr:C]C[a "classical" invasion...

(LL)]
(;W[oq]LB[pq:A]C[janr: I prefer the move at A. Black is very thick in the center, so white should go for the corner.]
;B[or]
(;W[nr]LB[qp:A][nq:B]
(;B[qp];W[nq]LB[qo:A][pq:B]C[janr: A seems better, because in the game, black can  get advantage on the right side]

(;B[qo];W[po];B[qq]LB[pm:A][ro:B]
(;W[pm]LB[ro:A]TR[pj]C[this move is not the "classical" variation, but I played it in function of the "Triangle" black stone...

(LL)

janr: the move at A is sente on blacks group.    White may be able to avoid the solid connection by playing such sente.]
;B[hq]C[janr: by choosing the side (instead of the corner) white is getting very few points.]
;W[iq];B[ho]LB[in:B][jn:A]
(;W[jn];B[ir];W[jr];B[ip];W[jq];B[eq];W[dp]SQ[dr];B[dr];W[cr]
;B[fr];W[rd];B[qc];W[qf];B[qh];W[rc];B[rb];W[qd];B[pc]LB[pe:B]
[of:A]
(;W[of];B[hf]LB[hg:B][ig:A]
(;W[ig];B[hg]C[janr: black is losing valuable liberties];W[hh]
;B[if];W[jf]LB[je:A][gf:B]
(;B[je]LB[he:A][gf:B]SQ[ff]C[white should now play immediately at square and avoid the A-B exchange]

(;W[he];B[gf];W[ff];B[ge];W[ef];B[bi]LB[db:B][bh:C][cl:A]C[janr: C looks better for black]

(;W[bg];B[ni]SQ[cb][cs]C[janr: playing big endgame moves would be better for black]
;W[db];B[eb];W[cb];B[fc];W[cl];B[lg];W[lf];B[mh]LB[kg:A][jh:B]

(;W[kg];B[cm];W[bm];B[bl]SQ[dm];W[cn]LB[bk:A][dm:B]
(;B[bk];W[dm];B[ln]LB[km:B][io:A][ko:C][lp:D]
(;W[io]C[avoidint the atari would not reinforce black];B[hp]
;W[km];B[lm];W[hn]LB[gn:A][lp:B]
(;B[gn];W[hm]C[janr: the double hane looks more active];B[gm]
;W[hl];B[gl]LB[hk:B][ll:A]
(;W[ll]LB[kl:B][ml:A]
(;B[ml];W[kl]LB[mm:B][on:A]
(;B[on];W[pn];B[lk]SQ[lp][hr][cs];W[rn]SQ[ro];B[ro];W[sb];B[ko]
;W[jo];B[lq];W[lr];B[mp];W[rj];B[qk];W[rk];B[ql];W[rl];B[cs]
;W[bs];B[ds];W[bq];B[hr];W[qi];B[pi]
(;W[ph]
(;B[pg];W[oh]
(;B[og];W[qg]
(;B[nh];W[rh];B[ra];W[ng];B[oi];W[pf];B[nm]LB[ol:C][kq:A][mq:B]
C[noir s'est fait réduire, mais conserve une bonne marge de sécuriré...

surtout que maintenant, les bons coups blancs se font rares !

(LL)]
(;W[kq];B[mo];W[mq];B[eo];W[en];B[fn];W[el];B[fk];W[ep];B[fp]
;W[ck];B[cj];W[lp];B[ch];W[cg];B[lh];W[kh];B[ij];W[ii];B[kj]
;W[ki];B[ol];W[mj];B[nj];W[pl];B[pk];W[ne];B[me];W[le];B[md]
;W[pe];B[jl];W[jm];B[il];W[im];B[jj];W[oo];B[no];W[do];B[fo]
;W[dk];B[ej];W[om];B[nn];W[ke];B[ee];W[kd];B[kc];W[bh];B[fe]
;W[fg];B[ns];W[ms];B[os];W[pq];B[rr];W[al];B[ak];W[am];B[ah]
;W[ag];B[ai];W[ci];B[bj];W[qm];B[sn];W[sm];B[so];W[ea];B[fa]
;W[da];B[gj]C[a forcing move, but...

(LL)];W[gi]LB[od:C][is:A][js:B]C[... white can simply connect, and win the game !

(LL)]
(;B[is];W[js];B[od];W[oe]LB[lo:A][np:B]
(;B[lo];W[kp];B[fm];W[em];B[np];W[ch];B[qb];W[sc];B[tt]C[B+2,5

janr: White could have won by playing better endgame.  I indicated better options for both players with squares.

In the fuseki, white had a heavy group and black got an advantage by attacking it.  However, black too failed to play good endgame and secure a larger margin.]
)
(;B[np];W[kp];B[ch];W[em];B[ci]C[W+1,5

(LL)]))
(;B[js];W[ks];B[is];W[np];B[od];W[oe];B[kp];W[ch];B[lo];W[lq]
C[W+1,5

(LL)])
(;B[od];W[oe];B[js];W[ks];B[is];W[np];B[kp];W[ch];B[lo];W[lq]
C[W+1,5

(LL)]))
(;W[mq];B[kq];W[kp];B[lp]C[noir reste solide...

(LL)])
(;W[ol]C['gote'...

(LL)]))
(;B[pe];W[pf];B[ng];W[rh];B[nf];W[qb])
(;B[rh];W[ng];B[pe];W[pf];B[qe];W[re]))
(;B[qg];W[og]
(;B[pf];W[pe]
(;B[rf];W[qe];B[oe];W[qb];B[ri];W[qj];B[rh];W[sg])
(;B[oe];W[qe];B[rg];W[qb]
(;B[ra];W[qa];B[pb];W[sa]
(;B[rb];W[rf])
(;B[rf];W[sd];B[ri];W[qj];B[sh];W[sf]))
(;B[ri];W[qj];B[rf];W[sh];B[re];W[ra])))
(;B[pe];W[pf]))
(;B[rh];W[og]
(;B[qg];W[pf];B[rf];W[re])
(;B[pf];W[pe];B[qg];W[oe];B[rf];W[qe];B[ri];W[qj];B[sg];W[si]
)))
(;B[qg];W[pg];B[pe];W[pf];B[qe];W[re])
(;B[oh];W[pg])
(;B[rh];W[pg]))
(;W[rh];B[qg];W[rg]))
(;B[mm];W[lk];B[hk]C[(LL)]))
(;B[kl];W[ml];B[nl];W[mm];B[nm];W[mn];B[nn];W[mo]C[ok for white

(LL)]))
(;W[hk];B[fo];W[ll];B[ml];W[kl];B[mm];W[lk]C[(LL)]))
(;B[lp];W[lq];B[mq];W[lr];B[mp]C[(LL)]))
(;W[km];B[lm];W[ll];B[kl];W[ml];B[kn];W[jm];B[jo];W[ko];B[io]
;W[lo];B[mn]C[bad for white

(LL)])
(;W[ko];B[lo];W[lp];B[mp];W[mq];B[mo];W[ll]C[(LL)])
(;W[lp];B[ko];W[jo];B[kp];W[kq];B[lo];W[mp]C[(LL)]))
(;B[dm];W[bk];B[bn];W[al]C[ok for white !

(LL)]))
(;W[jh];B[kg];W[jg]C[(LL)]))
(;W[cl];B[cg];W[ch];B[bg];W[bh];B[ah]C[(LL)])
(;W[db];B[cg];W[ch];B[bg];W[fg];B[eb];W[cb];B[ad]C[(LL)]))
(;W[gf];B[he];W[fe];B[ff];W[ge];B[fd]C[(LL)]))
(;B[gf];W[fg];B[ef];W[ff];B[fe];W[je];B[hd]C[other variation

(LL)]))
(;W[hg];B[if];W[ig];B[jf];W[jg]C[white lives in 'gote'...

(LL)]))
(;W[pe];B[of];W[oe];B[ne];W[nf];B[pg]C[bad for white

(LL)]))
(;W[in]TR[ho][hq]SQ[ik][kk][mk]C[a normal shape between the "Triangle" stones, but perhaps dangerous in front of the "Square" wall !?

(LL)]))
(;W[ro]C[variation seen on Gobase

(LL)];B[rp];W[rn];B[rr];W[om]))
(;B[pq];W[qo];B[rq];W[rp];B[qq]C[variation seen on Gobase

(LL)]))
(;B[nq];W[mq];B[np];W[lr];B[qp];W[qq];B[pq];W[rp];B[op];W[qo]
C[variation seen on Gobase

(LL)]))
(;W[mq];B[qp];W[qo];B[rp];W[nr]C[variation seen on Gobase

(LL)]))
(;W[pq];B[or];W[qr]LB[lq:A][rr:B]
(;B[lq]LB[jq:C][kq:B][nq:A]
(;W[nq];B[rr];W[qs];B[lo];W[nr]C[variation seen on Gobase

(LL)])
(;W[kq];B[lp];W[kn];B[mn]C[variation seen on Gobase

(LL)])
(;W[jq];B[np];W[ql]C[variation seen on Gobase

(LL)]))
(;B[rr];W[qs];B[lq];W[nq];B[nr];W[mq];B[mr];W[lp];B[kq];W[kp]
C[variante vue sur Gobase

(LL)]))
(;W[nr]C[also possible, but perhaps complicated ?!...

(LL)]))
(;B[if];W[ig];B[jf];W[jg];B[hf];W[ff];B[ef];W[ni]C[seems possible

(LL)])
(;B[ni];W[he]C[ok for white

(LL)])
(;B[hf];W[ig];B[hg];W[hh];B[if];W[jf]C[ok for white

(LL)]))
(;B[je];W[jf];B[id];W[qn];B[if];W[ig];B[hf];W[ni]))
(;W[ni];B[qh];W[qn];B[if]C[white group is still unstable...

(LL)])
(;W[qn];B[if]C[white group is under pressure...

(LL)];W[jg];B[ig];W[ih];B[kh];W[ki];B[nh]C[???

(LL)]))
(;W[ik]C[perhaps better here ???

(LL)])
(;W[hd]
(;B[hc];W[gc]
(;B[ic];W[fd];B[ge];W[fe]
(;B[ff];W[gf];B[he];W[fg];B[ef];W[fb])
(;B[gb];W[fc];B[fb];W[he]))
(;B[ge];W[ic];B[hb];W[id])
(;B[he];W[fd];B[ge];W[hb];B[ic];W[ff];B[ef];W[fe]))
(;B[he];W[ge]
(;B[gf];W[fe];B[hf];W[ff];B[ef];W[fd])
(;B[hc];W[ff];B[ef];W[fd];B[gc];W[fc]))
(;B[gc];W[hc];B[he];W[ge];B[hb];W[ie];B[hf];W[ib];B[id];W[ic]
;B[gb];W[ff];B[ef];W[if];B[hg];W[ig];B[hh];W[ih];B[gh];W[fh]
)
(;B[ge];W[he];B[hc];W[ic];B[hf];W[gc];B[hb];W[gf];B[id];W[fe]
;B[ie];W[ef])))
(;W[eh];B[dh];W[cg]C[janr: Black has several cuts to protect]
;B[ei];W[fh];B[fg];W[ch];B[di];W[gh]C[is it better ???

(LL)]))
