(;FF[4]GM[1]SZ[19]ST[2]CA[UTF-8]AP[SGFC:1.15]

PB[Melyandre]
BR[9k]
PW[AlanT]
WR[8k]
KM[6.5]
DT[2009-06-11]
PC[The KGS Go Server at http://www.gokgs.com/]
RE[B+14.50]
TM[2700]
OT[25/600 Canadian]
RU[Japanese]

C[CGA League 2009 - round 2
AlanT (9k) vs Melyandre (11k)


Hello, this was a good game.
The reason white lost this game was because he did not take care of his top group, and it could been saved for a long time.
Also white lost when he pushed from behind around move 80.
Around move 120 the game was over for white.];B[pd];W[dp];B[cd]
;W[pp];B[cn];W[fq];B[dj];W[qf];B[nd];W[pj];B[kq]LB[cq:C][fq:B]
[nq:A]C[Reviewer:  Why not play A?

As the white B stone is on the third line I would play at A.
If the white B best was placed at the fourth line black would have C to attack the group later.]
;W[nq];B[hq];W[bp];B[en]
(;W[ec]LB[fc:B][ic:A][ed:C]C[I would play A, B or C instead.
However I can not say this is a mistake.];B[hc]
(;W[ee]LB[cc:B][de:C][ef:A]C[Black is very strong in this part of the board, white need to figure out what he wants.
This move is not often played, and I would thought about A,B,C.

A:  White will play light.
B: White will play heavy but settle his group fast.
C: This will become a fight, and can become hard for white as black is strong.]
;B[df];W[ef];B[dg];W[id]LB[cc:B][dc:A]C[This can become tricky.
As there are some moves that needs to be played later but depends on the situtation as A and B.]

(;B[kc]LB[ic:B][hd:A]C[This is to loose, and you are giving white an easy time.
You should play A or B in my opinion.];W[ic];B[fd];W[ge]LB[hb:A]
[ed:B]C[I believe this is a mistake.
White can connect with A anytime.
So I think B is the best move here.];B[ed];W[dd];B[dc];W[de]
;B[fc];W[cc]
(;B[db]LB[eb:A]C[Killing with A is correct.]
(;W[bd]LB[cb:A]C[Playing A is better and sente for both.]
(;B[bf]LB[cb:A]C[Playing A first is better.]
(;W[ce]LB[cb:A]C[Play A first.];B[fe];W[ff];B[gf];W[he];B[gg]
;W[cb]C[Good move.];B[eb];W[gb]C[Does not work.];B[hb]LB[ib:A]
[jb:B]C[This is bad for white.
Now black have A and B to escape.]
(;W[gc];B[gd]
(;W[eh]LB[ab:E][ib:A][cc:C][be:D][he:B]C[Again play A as it is sente and you can later attack the top left group.
Now it is time to take a look at the whole board.

B group is weak.
C group is alive. And have D and E miai to live.

White need to take care of B group first.]
(;B[fh]LB[if:B][ig:A]C[Black should instead attack white with A or B]
;W[dh]
(;B[ci];W[ch];B[bi];W[bh];B[of]LB[if:A]C[Black should attack white with something like A]

(;W[ph]C[This is to small for white.];B[nh];W[ib];B[ga];W[lc]
C[I can not see how this can work for white.];B[ld];W[mc];B[kd]
;W[kb];B[lb]C[I wanted (and succeeded) to cut him and let him live only the rigth grouo (N17). Is it the better choice ?

See variation.]
(;W[mb]LB[jb:A]C[A is only move.];B[jb];W[ka];B[ja];W[la];B[ia]
;W[jc];B[ha]
(;W[oc]LB[pb:A]C[Jump longer, A works.];B[pc];W[pb]
(;B[od]LB[qb:A]C[To passive, A works better.]
(;W[ob]LB[qb:A]C[To small.  A works.];B[pm]LB[ql:A][qn:B][rp:C]
C[Is it the good place for an invasion/reduction ?
I would have played A,B or C instead.
As invasion often are better on the third line.]
(;W[qo]LB[ig:B][lh:A]C[I think playing A or B is better for white.]
;B[qk]C[This helps white.];W[qj];B[nj];W[ok]C[Good cut him.]
;B[nm];W[nk]C[Do not push from behind!!
White is alive!];B[mj];W[mk]C[Do not push from behind!!
White is alive!];B[lj];W[lk]C[Do not push from behind!!
White is alive!];B[oo];W[mn];B[mo];W[nn];B[no];W[on];B[ln];W[lm]
;B[kn];W[km];B[jj];W[jr]LB[pn:B][po:A]C[ilmafioso [5k\]: q6 is big
ilmafioso [5k\]: black should q6 now

Is the kibbitzer rigth ? I've added 2 stones before, in order to stabilize my position

Yes the kiblizer is correct, however I believe black should play A first istead of B.]
;B[mr];W[nr];B[gr];W[fr];B[pn];W[mm];B[po];W[qp];B[pk];W[oj]
;B[jn];W[jm];B[go];W[hm];B[in];W[im];B[ep];W[eq];B[do];W[cp]
;B[fi];W[cl];B[bn];W[el];B[fm];W[fl];B[gl];W[gm];B[gk];W[fj]
;B[gj];W[ej];B[ei];W[di];B[cj];W[eg];B[bl]C[Necessary ?
Yes];W[bk];B[ck];W[bm];B[dl];W[al];B[dm];W[bj];B[ai];W[fn];B[em]
;W[fo];B[rd];W[rf];B[qb];W[eo];B[rm];W[cm];B[aj];W[co];B[an]
;W[dn];B[dk];W[ao];B[do];W[hd];B[fb];W[dn];B[rj];W[ri];B[do]
;W[ak];B[dn];W[ah];B[ek];W[rk];B[rl];W[sj];B[sp];W[rq]
(;B[so]LB[sq:A]C[A works better.];W[ik];B[ij];W[ho];B[hp]C[I think I greatly mess up the following sequence in this area, I should have done better, isn't it ?]
;W[lr];B[mq];W[ms];B[kr];W[ks];B[lq];W[ls];B[jq];W[ir];B[iq]
C[Melyandre [9k\]: :)
Melyandre [9k\]: Hard on nerves !!];W[gp];B[io];W[hn];B[pg]
;W[qg];B[oh];W[pl];B[ql];W[ol];B[hr];W[js];B[np];W[qn]
(;B[qm];W[oq];B[sq];W[jp];B[lp]LB[rr:A]C[Mistake.
A is a must.];W[md];B[me];W[ne];B[le];W[nf];B[mf];W[ng];B[mg]
;W[pf];B[og];W[kj];B[ki];W[kk];B[lh];W[ji];B[jh];W[ii];B[hi]
;W[ih];B[ig];W[jk];B[hh];W[oi];B[rr];W[qr]C[AlanT [8k?\]: haha]
;B[sr];W[rb];B[qa];W[rc];B[qc];W[sd];B[se];W[qe];B[qd];W[qs]
;B[sl];W[om];B[fs];W[es];B[gs];W[sf]
(;B[pe]C[Seems I was sleepy !!];W[re];B[ra];W[sc];B[ca];W[ba]
;B[da];W[bb];B[bo];W[ap];B[rp];W[qq]
(;B[sk];W[rj];B[ni];W[rn];B[sn];W[nc];B[rs];W[pa];B[hk];W[hl]
;B[oe];W[gq];B[op];W[pr];B[fg];W[tt];B[tt]TW[aa][ma][na][oa]
[ab][lb][nb][ac][bc][ad][cd][ae][be][af][bf][cf][df][ag][bg]
[cg][dg][rg][sg][qh][rh][sh][pi][qi][si][il][jl][kl][ll][ml]
[nl][nm][gn][go][ep][fp][aq][bq][cq][dq][pq][ar][br][cr][dr]
[er][or][as][bs][cs][ds][os][ps]TB[ea][fa][gb][ib][ec][gc][ic]
[jc][hd][id][jd][ge][he][ie][je][ke][ne][hf][if][jf][kf][lf]
[nf][hg][jg][kg][lg][ng][gh][ih][kh][mh][gi][ii][ji][li][mi]
[bj][ej][fj][hj][ak][bk][fk][al][bl][cl][el][fl][am][bm][cm]
[sm][jo][ko][lo][ip][jp][kp][mp][ss])
(;B[pr]C[Kill white group, no ? Dead 5 space ?]))
(;B[re]C[Obvious]))
(;B[oq];W[qm];B[pr]C[This exchange looks better for black.]
))
(;B[sq];W[sr]
(;B[sn];W[rr])
(;B[rr];W[so]C[Does not work for black.])))
(;W[lh];B[ig]C[This exchange.])
(;W[ig];B[hh];W[jh]C[Or escape with the group.]))
(;W[qb]))
(;B[qb]))
(;W[qc]LB[pc:A][qd:B]C[Black can play];B[ob];W[qd]C[What about this exchange?]
)
(;W[pb];B[ob];W[oc];B[pc]
(;W[qb])
(;W[nb];B[qb];W[oa];B[rc]C[White alive])))
(;W[jb]C[White can answer here,];B[mb];W[nc];B[nb];W[oc];B[ob]
;W[pc];B[pb];W[qc];B[qb];W[rb]LB[lb:1][mb:2][nb:3][ob:4][pb:5]
[qb:6]C[White have only six stones, black can not live here. So the first move was a mistake for black.]
))
(;C[PASS];W[tt]C[PASS];B[qh];W[qc]C[White will always have this move to live.]
;B[qd];W[rd]
(;B[pc];W[rb];B[qb];W[rc]C[This way white can live.])
(;B[re];W[rc];B[qe];W[ob]C[This way white can live.]))
(;W[ig])
(;W[ib];B[ga];W[ig]C[I think this is more important for white.]
))
(;B[ch];W[ci];B[di];W[cg];B[bh];W[cf];B[fj]C[How about this exchange?]
))
(;B[dh]C[Better ?

Yes this is better however not needed.]
(;W[fh]C[But this is not needed.];B[ig])
(;W[gh];B[fg];W[eg];B[ig])
(;W[ei];B[eg];W[fg];B[fh];W[gh];B[fi];W[hg]LB[fh:A]C[This is not good for white, and black can not cut with A]
))
(;B[if];W[dh];B[ch];W[ci];B[di];W[cg];B[bh];W[cf];B[fi]C[How about this exchange?]
))
(;W[ib]C[This is sente.];B[ga];W[ig]LB[gg:A]C[This attack A group and black cannot cut the group.]
;B[hh];W[ld]LB[qc:A]C[And this way white can get a base. and white later have A to attack black.]
))
(;W[ib]C[Play this to later attack left side group.
As it is sente.]))
(;W[cb]
(;B[eb];W[be]C[Play this first.])
(;B[ce]
(;W[eb])
(;W[be];B[cf];W[eb]C[This is not good for black.]))))
(;B[cb]
(;W[bc];B[bf];W[be])
(;W[ce];B[bc]C[This is no good for white])))
(;W[cb]C[Now this is sente.
And white get the corner.];B[eb];W[ce]))
(;B[eb]LB[cb:A][db:B][ce:C]C[Now A does not work for white.
B is a bad Ko fight for White.
And C is gote.];W[ce];B[cb];W[bd]))
(;B[ic];W[jd]
(;B[kc]LB[cc:A]C[Now white can live in the corner with A]
(;W[jc]C[This move does not work very well for white.];B[jb]

(;W[ib];B[kb];W[hb];B[gb];W[gc];B[hd]
(;W[gd];B[he];W[fb];B[if]C[Good for black])
(;W[fb];B[gd];W[ga];B[hf]C[Also good for black.]))
(;W[kb];B[ib];W[lc]C[Also this ladder does not work for white.]
))
(;W[cc];B[bc];W[dd];B[ce];W[cb]TR[hc][ic][kc]C[White now have the corner.
And the white group does not affect black marked stones very much.]
))
(;B[dc]C[This is sente for black. or black will connect.]
(;W[tt]C[Pass.];B[eb];W[fc];B[fb]C[Black connect])
(;W[eb]LB[eb:B][dc:A]SQ[hc][ic]C[Black now get the corner and exchange A with B.
However the A B exchange help white to attack and later take the black marked stones base.]
;B[kc]LB[ha:A][jb:B]C[White can now later go under with A, and the B aji is bigger for black.
However the exchange here is black lose the top side, while black gets the corner.]
))))
(;W[ef];B[cg];W[kc]LB[cc:A]C[This is joseki moves, now white have played light and white have A to live if needed.]
)
(;W[cc];B[bc];W[dd];B[ce];W[cb];B[dg]LB[kc:A]C[White can play this, he will settle his group fast, and later aim for a invasion around A.]
)
(;W[de]LB[dd:B][ce:A]C[This can become risky for white.
Black have A and B.
Where  B will become a fight where black is strongest.
And A will take the side without fighting.];B[dd];W[ed];B[ee]
C[This fight will be very hard for white.]))
(;W[ic];B[kc];W[fc]
(;B[cc])
(;B[dc]C[This can be done.]))
(;W[ed]C[This way white will have a better time.]
(;B[ec];W[fc];B[dc];W[gd];B[cf];W[kc]C[White in a good position.]
)
(;B[gc];W[cc];B[dc];W[dd];B[ec];W[fc];B[fd];W[fb];B[cb];W[bc]
;B[eb];W[ce];B[gb];W[fe];B[gd];W[qc]C[Works for both, however looks alittle better for black in my eyes.]
)))
