(;FF[4]GM[1]SZ[9]ST[1]AP[SGFC:1.15]

PB[wfb]
BR[17k]
PW[kenci]
KM[6.5]
DT[2009-06-01]
PC[The KGS Go Server at http://www.gokgs.com/]
RE[W+29.5]
TM[1800]

C[kenci: hi

Zander: Hi, I'll be reviewing this game for Black.];B[gg];W[ee]
C[wfb [?\]: hi];B[cf];W[eg];B[dc];W[ge]
(;B[ef]C[Zander: White is nearly certain to reply with F4, after which D4, F3 are likely, as in the game. The result is not great for Black, as White connects all his stones well and threatens G3. If Black plays F4 instead, I think he manages to cut White and ends up in the better position.]
;W[ff];B[df];W[fg];B[gd]C[Zander: So far Black is being very aggressive, playing one stone in each corner. In a 9x9 game it is unrealistic to try to take all four corners. Black should be thinking about trying to connect the loose stones into stronger groups.]
;W[fd];B[gc];W[dd];B[cc];W[cd];B[ec];W[he];B[ed];W[de]
(;B[dg]C[Zander: This is inefficient. The 3 black stones had four liberties, and so does this shape with 4 stones. A jump, e.g. at D2, is better for claiming the corner.]
;W[be]
(;B[gf]C[Zander: I don't think Black can save the stone at G3. White will take the lower right for about 16 points. If Black can live in the lower left and claim the top, then the game is still close.]
;W[eh]C[Zander: Unfortunately, after this I think Black will always lose both groups at the bottom.]

(;B[bc];W[bd];B[bf];W[ch];B[dh];W[di];B[fi];W[fh];B[gh];W[ig]
;B[hf];W[if];B[gi];W[ei];B[bi];W[bh];B[ah];W[hh];B[fc];W[fe]
;B[hd];W[ac];B[ab];W[ad];B[bb];W[id];B[ic];W[ie];B[hc]C[Zander: This move is unnecessary and costs Black 1 point.]
;W[hg];B[tt];W[tt]TB[aa][ba][ca][da][ea][fa][ga][ha][ia][cb]
[db][eb][fb][gb][hb][ib]TW[ae][ce][af][bf][cf][df][ef][gf][hf]
[ag][bg][cg][dg][gg][ah][dh][gh][ih][ai][bi][ci][fi][gi][hi]
[ii]C[Zander: The 9x9 board is so small that there's not really enough room for either player to make more than two living groups in a game. By the time each player has played about 8-10 stones it will already be the "endgame" phase; the players should figure out who will claim each part of the board, settle the groups that will live and, if necessary, abandon any that will not. Black continued trying to develop three separate groups throughout the game, but on the small board there is not enough space or time for that.]
)
(;B[dh]C[Zander: Since White has a good attack from either side, Black can't save the group at D4.]
;W[ah];B[bf];W[af];B[bg];W[ag];B[bh];W[di])
(;B[bf];W[bi]C[Zander: This plays out symmetrically like the other variant; Black can't make two eyes.]
))
(;B[bf];W[dh];B[ch];W[eh];B[bh]))
(;B[dh];W[dg];B[cg]))
(;B[ff]
(;W[fe];B[ef];W[df];B[dg];W[de];B[dh])
(;W[ef];B[fe];W[fd];B[ed];W[dd];B[ec];W[de];B[gd];W[fc];B[gc]
)))
