(;FF[4]GM[1]SZ[19]AP[SGFC:1.13b]

GN[dfan-ingwa(B) NNGS]
EV[None]
PB[ingwa]
BR[6k*]
PW[dfan]
WR[6k*]
KM[2.5]
DT[1999-01-01]
PC[NNGS Worldwide: nngs.cosmic.org 9696]
RE[B+11.5]
TM[600]
US[Brought to you by No Name Go Server]

C[dfan: I was White in this game.  I would like advice especially on how I could have stopped Black from making his immense right-side territory, and on how I could have attacked the groups on the left more effectively.  Thanks!]
;B[pd];W[dc];B[pp];W[dp];B[pj];W[nq];B[kp]
(;W[no]C[Once this W move is played there is litle choice for W so dfan's comment attached to move 13 is really a reflection on this move.  None of the variations shown are really much better in my opinion, although in some cases that could me a motter of preference.]
;B[pn];W[pr];B[qq]
(;W[kr]C[If W does not like this then he can always try something inventive like the variation should but I would be hesitant to do it myself.]
;B[nm]C[dfan: At this point I was already beginning to be very afraid of B's moyo.

SGF:  It is not that big yet. W has sente and so should be able to keep it under control.]
;W[jd]LB[kd:a][nc:b][mc:c][me:d][md:e]C[I would go one line further at 'a'.  This has a strong followup at 'b'.  If b plays 'c' to stop this then 'd' limits the moyo.]
;B[de]
(;W[ce]LB[fd:a][dd:b]C[This move feels wrong to me.  The variation starting at 'a' would help W nullify B's thickness on the right.  Also, this W allows B the option to play at 'b']
;B[cf];W[cd];B[df];W[fc]C[This move mays W14 look out of place, thus emphasizing that W16 was the wrong direction.  W14 is now too close to W's thickness at 20.]
;B[cj]LB[dj:a]C[If B is playing for thickness 'a' would be better.]

(;W[nc]LB[pf:a][qf:b][qh:c]C[The W formation at the top has the feeling of a handicap game.  E14 is too far from either 20 or 22 to be a solid connection and so this is not a very secure shape. A Black response at 'a' give B more potential than W. W's overall formation is not good: W is out of place and the relationship between W4 and W12 is bad.  Maybe W shoudl try one of the variations at 'b' or 'c'.]

(;B[lc]LB[pf:a]C[dfan: This felt unreasonable.

SGF:  This is totally unnecessary.  'a' is sufficient  to continue building the moyo.]
;W[ne];B[pf];W[ng];B[le];W[ph];B[og];W[oh];B[nh]
(;W[of]LB[mg:a]C[This is a bad move, removing a lot of the potential in the two W stones. After B connects W must play at 'a' so that move should just be played directly.]
;B[pg];W[mg];B[ni];W[li]LB[kg:a][mh:b]C['a' is better shape. This W36 is good for reducing the moyo but leaves behind the B cut at 'b'.If B makes this cut the relative strengths of the two groups at the top shifts.]
;B[oe]LB[pe:a][me:b]C[dfan: In retrospect I think I should have played Q15 and not let B play here, but I was afraid of gote.

SGF:  'a'  would have just forced B to protect twe corner and so would have been aji keshi.  There is nothing to worry about in this B37. Answering at 'b' helps W more than B]
;W[nd]C[dfan: Better at N15?
SGF: Yes, N15 is much better shape as it  make a solid connection and puts more pressure on B]
;B[nf];W[mf];B[me]C[This not a pleasant ko for W as even if he wins it there is no effect on the corner, whereas if B wins the W stones are probably in big trouble.]
;W[of];B[lh]C[I don't like this move as it really doesn't theaten much.  If W connects the three black stones at the top are still very weak.  cutting off W36 really achieves nothing because if b wins the ko he can chase W's 4 stones after having captured the 3 at the top.]
;W[nf];B[kh];W[kf];B[lf];W[lg];B[kg];W[je]LB[ke:a][ld:b][mc:c]
[jf:d]C[dfan: I played this without thinking, I'm sure it should be at L15 instead.

SGF. If Wa then B can only play at 'b' or 'c' and it seems highly unlikely that either move would save B. this move fails to fill a liberty and this cold be crucial in the ensuing fight.  Also, 'd', not 50, is the correct  shape if the B stones are ignored]
;B[mc];W[pb]LB[nb:a][qc:b][kb:c]C['a' would make miai of 'b' and 'c' and W would have no problems.]
;B[qc];W[qb];B[rb];W[pc]C[W needs to be careful - he is filling his own liberties.]
;B[qd];W[mb];B[lb];W[na]LB[nb:a][oa:b][jb:c]C['a' is better shape. B has to play against this group to stop two eyes and (by a play at 'b') so W gets 'c' and wins the fight.]
;B[ob];W[nb];B[qa]
(;W[oc]LB[jb:a]C[This is a dangerous move. There is no way t oget two eyes so if B runs to the left these stones way very well die.  W can get a sente seki by playing at 'a' (see variation) and probably should do so.]
;B[jb];W[ld];B[md];W[kc];B[kd]LB[jc:a][kb:b][ib:c]C[Forcing W to play 'a' weakens B's shape.  Keeping this capture in reserve and playing at 'b' is better.  If B plays 'b' now W cannot answer at 'c'.  Once Wa os played be can block there.]
;W[jc];B[ke];W[jf];B[ib];W[kb];B[ka];W[la]C[W has got this ko because of the mistiming of B69]
;B[ma];W[mh];B[la];W[ja]C[This can be played anytime.  It may even prove to be bad.  Better too leave it till later.  B is not going to paly here.]
;B[ia];W[mi];B[hd];W[he]LB[ji:a][qh:b][qf:c][qj:d][nj:e][pk:f]
C[W has had a lucky escape but is still behind.  At all cost W must not let B connect the top group with the left side otherwise the game is probably not savable.  Too this end, W84 cannot be right as it forced B to go where he wants.  there is not direct way to do this so just playing at 'a' to capture the 3 stones and secure  the W group is a judicious way to play.  B needs another stone to connect his groups together and he may not want t otake gote to do it.  'b' is a big point to aim ot  on the right, becasue it makes miai of 'c' followed by 'd' and 'e' followed by 'f'.  If B takes to time to play on the left he could find himself in trouble on the right.]
;B[gd];W[fd];B[ge];W[ji]C[As stated ealier the exchange of 84-87 only help B]
;B[cn]
(;W[fe]LB[qh:a]C[There is very little cahnce of killing B so threatening from the outside is a better approach which might result in a large central territory.  However, the play at 'a' is a huge point.  See the variations.]
;B[gf];W[ff];B[gh];W[jg]LB[gb:a][qh:b][fg:c][gg:d][cl:e]C[I don't understand this.  It is not necessary. 'a' is sente for W and makes an eye for B so this is a key point which cannot be missed.  W clearly has not seen 'b', which is big so, ignoring that possibility we have to assume that after 'a' W's only chance is to make a big territory at the bottom or to start a big fight and hope that something happens. I would try invading at 'e ' after exchanging 'c' for 'd'.]
;B[fg];W[eg];B[eh];W[fi];B[fh]LB[ef:a]C[play at 'a' first];W[fq]
LB[cl:a][dn:b]C[w needs more than this.  The previous sequence made 'a' impossible so now W needs a big territory at the bottom.  This is not enough.  I would lean at 'b' and hope to get sente to attack B7]
;B[bp];W[cq];B[bq];W[br]C[Miniscule in the overall picture.]
;B[hq]LB[ho:a][dn:b][mm:c]C[W has to attack B7 and B105 severely.  It has very little chance of succeeding but I would play at 'a', keeping moves like 'b' and 'c' in reserve.]
;W[en];B[gr];W[fr];B[kq];W[lr];B[nj]LB[qh:a]C[w's last chance to play 'a' in now gone]
;W[qr]LB[jq:a][jp:b][ip:c]C[W does not have time for this.. He must attack the bottom group with Wa, Bb, Wc.]
;B[rr];W[cl]LB[ck:a]C[This has a poor relationship with W's other stones. 'a' looks more likely to suceed.]
;B[dm];W[dk];B[el];W[ej]LB[dj:a][ci:b][fk:c]C[Wa, Bb, Wc is better shape]
;B[gl];W[fk];B[fl];W[di];B[ci];W[dh];B[dg]LB[ch:a]C[B does not need this. He is winning so 'a' will secure enough to win.]
;W[ch];B[bh];W[bg];B[ef];W[bi]LB[bf:a]C['a' is better];B[bj]
;W[ah];B[bf];W[be];B[af];W[hf]LB[gb:a]C[What is this.  If W is trying to kill the whole group he must play 'a' first.]
;B[ih];W[jh];B[hj];W[gi];B[hi];W[hg];B[hh];W[gg];B[gb];W[fb]
;B[ga];W[hn]LB[bl:a][bm:b][ck:c][cm:d][dl:e]C[W does not have time for this. Ba, Wb, Bc, Wd, Be leaves him in trouble.]
;B[cp];W[dr];B[do];W[eo];B[dj]LB[bl:a]C[Wrong move. 'a' is correct.]
;W[bk];B[dn];W[ln];B[jn];W[im];B[kj];W[ki];B[km];W[ip];B[jo]
;W[gk]LB[jq:a]C[Why play 162 if it is not follwed by 'a'?];B[hl]
;W[hk];B[ij];W[jj]LB[ik:a][il:b][kl:c]C[Wa, B168, Wb forced B to live on the left and then Wc renews thew attack.  There is stil aji left in the two capture W stones on the left and W must use that to try to cut of the big B group.]
;B[ik];W[il];B[jk];W[bm];B[ek]C[dfan: I had looked at this move before, but I must have had more liberties back then.]
;W[ei];B[gj];W[aj];B[fj];W[kk]LB[jq:a]C[Small.  'a' is big, but the game is over.]
;B[pq];W[oq];B[jq];W[iq];B[ir];W[jr];B[ho];W[hp];B[gp];W[gq]
;B[io];W[hr];B[gn];W[fp];B[go];W[kl];B[jl];W[lm];B[ll];W[lk]
;B[ml];W[mk];B[nl];W[nk];B[ok];W[on];B[pm];W[om];B[ol];W[po]
;B[qo];W[oo];B[dd];W[cc];B[id];W[qh];B[rg];W[ar];B[qs];W[os]
;B[fa];W[ea]C[I don't know what I was thinking.];B[eb];W[db]
;B[da];W[ec];B[ea];W[ca];B[ba]LB[bb:a][cb:b][ae:c][ad:d][ac:e]
[bc:f]C[Ba-f kill W in ko.  W wil win the ko but at a lost somewhere else.]

(;W[bb]C[dfaN: I didn't think I could live after C18.

sgf: I could not see a simple way to kill if W connects.];B[cb]
;W[oj];B[oi];W[ca];B[jp];W[aa];B[hq];W[gs];B[is];W[lq];B[lp]
;W[mp];B[mn];W[op];B[rp];W[hc];B[hb];W[ic];B[gc];W[bn];B[dl]
C[zero points in gote - W need not respond];W[ck];B[mj];W[lj]
;B[ra];W[bo];B[co];W[od];B[hs];W[pe];B[qe];W[gr];B[ae];W[ad]
;B[fn];W[em];B[rs];W[js];B[iq];W[mo];B[lo];W[qg];B[qf];W[rh]
;B[sf]LB[rj:a]C['a' is safer as it avoids the ko];W[qj];B[qk]
;W[rk];B[rj];W[pi];B[oj];W[ri]C[Nice sequence by W but B should not have allowed it.]
;B[qi];W[kn];B[qj];W[jm];B[hm];W[km];B[ps];W[or];B[in];W[mm]
;B[nn];W[pa];B[ql];W[fm];B[fo];W[cg];B[gm];W[ep];B[eg];W[ig]
;B[ie];W[ap];B[aq];W[ao];B[tt];W[tt])
(;W[cb];B[ae];W[ad];B[ac];W[bd]C[At this stage W has enough external liberties to prevent bent four.]
))
(;W[qh]
(;B[rg];W[nj];B[oi];W[rh];B[qg];W[pk];B[qj];W[qk];B[oj];W[ok]
;B[ri];W[rk];B[sh];W[nk])
(;B[oi];W[qf];B[qe];W[qg];B[pe];W[re];B[rd];W[sf];B[sc];W[qj]
;B[qk];W[rk];B[qi];W[rj];B[pi];W[ri];B[ql])))
(;W[jb];B[la];W[kb];B[oc];W[kc];B[od];W[ke];B[mh];W[ka]LB[ld:a]
C[W can also play 'a' to get a ko but he risks a lot if he loses it.]
;B[ld]))
(;W[mg];B[ni];W[qj];B[qk];W[qi];B[rk];W[qe];B[pe];W[qf]LB[of:a]
[pg:b]C[By not exchange 'a' for 'b' W reserved the option to play a sequence such as this.]
))
(;B[pf];W[ne];B[ng]C[B looks better than in the game.  Even though W has sente there is no really good point.]
))
(;W[qf];B[qe];W[pf];B[nd];W[rj]C[Perhaps W can try to play this way.  If B tries to seal W in then W14 is in a good position to nullify the thickness.]
)
(;W[qh];B[qj];W[qf];B[nc];W[ng]))
(;W[fd];B[cc];W[cb];B[cd];W[eb];B[ci];W[nc]))
(;W[nm];B[pl];W[kn];B[hp];W[hn];B[fq];W[dn]))
(;W[qn]
(;B[np];W[mp];B[no];W[qq];B[oq];W[qp];B[mo])
(;B[pn];W[pm];B[on];W[qq];B[qo];W[pq];B[rn]))
(;W[qq];B[qp];W[pq];B[op];W[np];B[oq];W[or];B[nr];W[pr];B[no]
;W[mo];B[mp];W[mq];B[mr];W[lq];B[lp];W[kr];B[nn]))
