(;FF[4]GM[1]SZ[19]ST[2]CA[utf-8]AP[SGFC:1.15]

PB[kebab]
BR[17k]
HA[3]
PW[sojoo]
WR[14k]
KM[0.5]
DT[2009-07-15]
PC[The KGS Go Server at http://www.gokgs.com/]
RE[W+27.50]
TM[1500]
OT[5x30 byo-yomi]
RU[Japanese]

AB[pd][dp][pp]C[> Hi I'm Huginmunin 4k on kgs, I'll be doing your review. I will point out what I think are some of the mistakes you made as well as answer the questions you had. I hope you find it helpfull. Feel free to contact me on kgs.
I'll precede my comments with >



sojoo [14k\]: hey, gl
kebab [17k\]: hey you too];W[dd];B[jp];W[pj]
(;B[pm]C[> This feels like the wrong side, it will weaken your stone at Q16.]
;W[dj];B[pg];W[jd];B[ld]MA[qc]C[> All on the 4th line leaves many weaknesses, an invasion at R17 for example]

(;W[nd]
(;B[oe];W[ne];B[lf];W[jf];B[nc];W[od];B[oc];W[of];B[pe];W[ng]
;B[mc];W[pf];B[qf];W[kb];B[lh];W[ni];B[ke]C[> it's not needed to play this now, you might like to peep on the other side later on in the game, so this is aji keshi]
;W[je];B[kh]C[> It's slow];W[og];B[qc];W[qe]
(;B[qd];W[qg];B[re];W[rg];B[jj]MA[cm][cc]C[> strange move, no need to try and split white groups, better make territory or attack (marks are some of the better plays you can do]
;W[jm]C[Not sure how I should have responded here.  I decided to try to disconect this from the white group in the upper right


> White in upper right lives anyways, so why separate? Lower side is more threatened by this, not much but still...]

(;B[ll]LB[lk:A]C[I think this was a bad move because it allowed W39

I should have played at A?

> No (see previous comment)];W[kk];B[jl];W[kl];B[jk];W[lm];B[lk]
C[> Still making territory on the lower side is more important and easier than killing this group]
;W[kj];B[ji];W[im]
(;B[ei]C[> This wil give white a lot of 4th line territory, and usually you don't want that, unless you get a lot of compensation for it, but here that seems highly unlikely, so better to do a deeper invasion or an extension]
;W[di];B[eh];W[dh];B[eg];W[dg];B[fk]C[I think this move was a mistake.  I was trying to keep my two opposing walls somewhat connected.  But I think It would have been more severe to keep pushing at E14 in order to set up an attack on the upper side

>Pushing at E14 is mostly severe for yourself ^^];W[ej];B[fj]
;W[ef];B[fi];W[ff];B[hg];W[hf];B[dl]C[> it leaves to much space and white will invade somewhere with ease, also it's again on the 4th line, 4th line is for influence and you  won't be able to use  it here.]
;W[dn];B[en];W[cl];B[cn];W[dm];B[em];W[cm];B[co];W[el];B[fl]
;W[ek];B[gp]C[> Again 4th line, it would be easy for white to live underneath]
;W[lj]
(;B[mj];W[mi];B[nk];W[ol];B[qk];W[pl];B[ql];W[qj];B[kn];W[km]
;B[mo];W[rk];B[pk];W[ok];B[rl];W[rj];B[mm];W[ml];B[nm];W[nl]
;B[om];W[fm];B[gm];W[fn];B[eo];W[gn];B[hm];W[hn];B[in];W[ln]
;B[lo];W[jn];B[io];W[ko];B[kp];W[kf];B[lg];W[jh];B[ki];W[ih]
;B[hi];W[ii];B[ij];W[il];B[hl];W[hk];B[gl];W[ik];B[gg];W[gf]
;B[hh];W[ig];B[gj]C[> why play this?];W[bn];B[bo];W[bm];B[cc]
;W[dc]
(;B[cd];W[cb];B[bb];W[db];B[ce];W[cf];B[bf];W[bg];B[ae]
(;W[bd]
(;B[pq];W[ba];B[lb];W[kd];B[le];W[kc];B[an];W[am];B[ao];W[lc]

(;B[md];W[mb];B[nb];W[ma];B[na];W[la];B[me];W[nf];B[mh];W[nh]
;B[mn];W[cq]
(;B[cp];W[dq];B[eq];W[bq];B[dr];W[cr]
(;B[bs]C[> this is bad, but it was explained already];W[er]
;B[fr];W[ds];B[cs];W[br];B[fq];W[fg]
(;B[fh];W[hj];B[go];W[gh];B[ho];W[gk];B[fo];W[gi]C[My mistake]
;B[sf];W[sg];B[rf];W[sl];B[rm];W[sm];B[sn];W[sk];B[qn];W[ro]
;B[rn];W[qq];B[rp];W[qp];B[qo];W[rq];B[so];W[pr];B[or];W[sq]
;B[ps];W[sp];B[qr]C[sojoo [14k\]: haha you didnt bite :(
kebab [17k\]: lol
kebab [17k\]: I'm pretty sure your group in the lower left is dead
kebab [17k\]: am I wrong
sojoo [14k\]: try killing it..];W[jo];B[fs];W[as];B[es];W[aq]
;B[dr];W[cs];B[er]C[kebab [17k\]: I was wrong];W[do];B[ep]C[kebab [17k\]: lol
sojoo [14k\]: :P];W[tt];B[tt]TB[pc][jr][oa][pa][qa][ra][sa]
[ob][pb][qb][rb][sb][rc][sc][rd][sd][qe][se][fm][qm][fn][gn]
[hn][nn][on][pn][no][oo][po][ro][fp][hp][ip][lp][mp][np][op]
[qp][sp][gq][hq][iq][jq][kq][lq][mq][nq][oq][qq][rq][sq][gr]
[hr][ir][kr][lr][mr][nr][pr][rr][sr][gs][hs][is][js][ks][ls]
[ms][ns][os][qs][rs][ss]TW[cj][mj][nj][oj][sj][ak][bk][ck][dk]
[ac][mk][nk][al][bl][dl][ll][kn][ar][bs][aa][ca][da][ea][fa]
[ga][ha][ia][ja][ka][lk][ab][bb][eb][fb][gb][hb][ib][jb][lb]
[bc][cc][ec][fc][gc][hc][ic][jc][ad][cd][ed][fd][gd][hd][id]
[ae][be][ce][de][ee][fe][ge][he][ie][af][bf][df][if][ag][cg]
[gg][hg][pg][ai][ah][bh][ch][hh][oh][ph][qh][rh][sh][bi][ci]
[hi][oi][pi][qi][ri][si][aj][bj]C[> The two left corners lost you the game, but you could do well with some exercises on the opening and direction of play.
Also try not to play so much on the 4th line only, the third is needed for securing territory.

Kind regards and keep go-ing
huginmunin

sojoo [14k\]: good game
kebab [17k\]: good game
kebab [17k\]: thanks
sojoo [14k\]: almost had me
sojoo [14k\]: :P
kebab [17k\]: where])
(;B[hj]C[>Best way]))
(;B[er];W[bs];B[ar]C[sojoo [14k\]: dead
kebab [17k\]: thanks
sojoo [14k\]: :P
kebab [17k\]: I'll work on that
sojoo [14k\]: goproblems.com
sojoo [14k\]: makes you a few stones stronger
kebab [17k\]: could you have lived in my left side
kebab [17k\]: no matter what
kebab [17k\]: if you had played correctly
sojoo [14k\]: bottom left?
sojoo [14k\]: or you mean
kebab [17k\]: yeah
sojoo [14k\]: mm nope]))
(;B[dq]C[>this is easiest way];W[do];B[cp];W[ep];B[fo];W[fp]
;B[go];W[fr];B[fq]C[>white has no way to make life]))
(;B[mb]LB[md:A][hj:B]C[> why not connect? you can always connect the big group to eitehr A or B]
))
(;B[ba]C[kebab [17k\]: oooohhhhhh
kebab [17k\]: I should have read it out better
sojoo [14k\]: yea
sojoo [14k\]: that move wouldve made you live
sojoo [14k\]: i played the corner wrong]
(;W[ab];B[ac]C[sojoo [14k\]: 2 eyes])
(;W[be];B[bc];W[af]C[>this way you still die])))
(;W[ba];B[bc];W[ab];B[ac];W[bd]C[> This way you die]))
(;B[bd];W[cb];B[bb];W[cd];B[bc];W[db];B[bf]C[> this is a better way i think]
))
(;B[nl];W[ml];B[mk];W[mm];B[nk];W[nm];B[ol];W[np];B[lp]C[Saving rescuing my stones in the middle isn't as good a result ?  White takes away a lot of the lower side.

> those two stones that you saved were indeed not that important]
))
(;B[cm])
(;B[cc]))
(;B[cn]C[> something like this is better]))
(;B[qg]C[>Why not here?]))
(;B[oc]C[> I think this is better here]))
(;W[qc];B[pc];W[rd];B[qb];W[rb];B[pb];W[rf]))
(;B[qg];W[pn];B[np]C[> Something like this feels more stable]
))
