(;FF[4]GM[1]SZ[19]ST[2]CA[UTF-8]AP[SGFC:1.15]

PB[tigersmaw]
BR[9k]
PW[Aleix]
WR[9k]
KM[6.5]
DT[2009-07-23]
PC[The KGS Go Server at http://www.gokgs.com/]
RE[B+6.50]
TM[2100]
OT[5x30 byo-yomi]
RU[Japanese]

C[Aleix [9k\]: hi
Aleix [9k\]: gg

Hi,
I'm your reviewer LibaryEx (3k KGS). Do note that the review will not be exhaustive. I recommend going over the review with someone else. Feel free to reply with any questions you might have.
Cheers!];B[pd]C[tigersmaw [9k\]: hi gg];W[pp];B[dd];W[dq];B[do]
;W[co];B[cn];W[cp];B[dp]C[This is not joseki. Black has just solidified and enlarged white's corner in return for nothing. In fact, the aji at D6 is very bad.]
;W[eq];B[dm]C[If I were white, since I already have a big and safe corner, I'll play somewhere like C10. The black D4 move was very disadvantageous.]
;W[hp]
(;B[cj]C[This is generally fine, but a little too narrow for my liking.]
;W[cl];B[dl];W[bn];B[bm];W[cm];B[dn];W[bo];B[bl];W[jd];B[gc]
;W[nc];B[pf];W[pb];B[qc];W[ne];B[qi]C[nice. a comfortable corner]
;W[dg];B[ce];W[cg];B[ge];W[bi];B[bj]C[Black should tenuki. This move is not terribly important. Areas like M3 and R6 are VERY big.]
;W[be];B[bd];W[bf];B[lq];W[jq]
(;B[nq]C[narrow. I would have prefered the variation.];W[pn]
;B[pr];W[qq]
(;B[kr]C[ I think you played too quickly here.];W[qk];B[rj]
;W[rk];B[ib];W[jb];B[ic];W[jc];B[ja];W[ka];B[ia];W[kb];B[sk]
;W[sl];B[sj];W[rl];B[ir];W[jr];B[js];W[hr];B[qr];W[iq];B[is]
;W[hs];B[ks];W[kq];B[lr];W[rr];B[no];W[ci];B[di]C[This helps white settle his shape. A13 might be better. At least white will feel more pressure.]
;W[dh];B[ei];W[gg];B[fg];W[ff];B[fh];W[gf];B[he];W[jf];B[ng]
;W[cc];B[cd];W[dc];B[bb];W[bc];B[ac];W[ec];B[ed];W[fb];B[fc]
;W[gb];B[cb];W[hc];B[hb];W[db];B[hd];W[ab];B[aa];W[ca];B[ab]
;W[ea];B[ga];W[id];B[hc];W[ae];B[ad];W[bg];B[od]C[slow. S1 or R18 is bigger]
;W[nd];B[ef];W[eg];B[hi];W[hh];B[gh];W[ih];B[gn];W[qj];B[ri]
C[bad shape. S12 is better.];W[pi];B[qh];W[og];B[of];W[nf];B[oh]
;W[mg];B[nh];W[mh];B[ni]C[bad shape again. try to avoid empty triangles. usually, there is an alternative with a better shape. In this case, O10 is an alternative.]
;W[nm];B[mn];W[mm];B[ln];W[hn];B[hm];W[fn];B[fm];W[go];B[gm]
;W[in];B[qb];W[qe];B[qf];W[ii];B[hj];W[oq];B[or];W[op];B[jk]
;W[oj];B[ob];W[nb];B[pc];W[nj];B[fo];W[fp];B[eo];W[mi];B[im]
;W[mp];B[np];W[kj];B[fe];W[df];B[ee];W[hg];B[jj];W[ji];B[kk]
;W[lk];B[ll];W[mk];B[ml];W[nl];B[lm];W[lp];B[ie];W[je];B[if]
;W[ig];B[ph];W[ij];B[ik];W[ki];B[pa];W[mq];B[mr];W[pq];B[ah]
;W[ai];B[oe];W[ko];B[jn];W[jo];B[kn];W[oo];B[nn];W[on];B[rs]
;W[sr];B[aj];W[na];B[an];W[ao];B[am];W[cq];B[oi];W[pj];B[lo]
;W[kp];B[eh];W[bh];B[tt];W[de];B[ha];W[cf];B[tt];W[hf];B[tt]
;W[fd];B[fa];W[tt]
(;B[eb];W[fb];B[gb];W[da]C[Aleix [9k\]: maybe ko];B[eb];W[bk]
;B[ck];W[fb]C[tigersmaw [9k\]: you cant put b in atari];B[tt]
C[Aleix [9k\]: hum
Aleix [9k\]: yes
Aleix [9k\]: sorry];W[tt]TW[la][ma][lb][mb][kc][lc][mc][kd]
[ld][md][ke][le][me][af][kf][lf][mf][ag][jg][kg][lg][ah][ch]
[jh][kh][lh][li][lj][mj][nk][ok][pk][ol][pl][ql][om][pm][qm]
[rm][sm][qn][rn][sn][ho][io][po][qo][ro][so][ap][bp][gp][ip]
[jp][qp][rp][sp][aq][bq][fq][gq][hq][rq][sq][ar][br][cr][dr]
[er][fr][gr][as][bs][cs][ds][es][fs][gs]TB[ba][ca][da][ea][qa]
[ra][sa][db][eb][fb][pb][rb][sb][bc][cc][dc][ec][rc][sc][fd]
[gd][qd][rd][sd][pe][qe][re][se][rf][sf][og][pg][qg][rg][sg]
[rh][sh][fi][gi][si][dj][ej][fj][gj][ak][bk][dk][ek][fk][gk]
[hk][al][cl][el][fl][gl][hl][il][jl][kl][cm][em][jm][km][en]
[fn][nr][ls][ms][ns][os][ps]C[Aleix [9k\]: thx
Aleix [9k\]: hum
tigersmaw [9k\]: thank you good game

Generally, your gameplay is pretty solid, but too slow for my liking. If it suits you, its fine, but otherwise, try to look for a faster style. Sente is not always what it seems like, there may be even bigger moves, or even counter sentes. Your opponent was quite cooperative in answering your not-so-sente moves. But as you might have noticed, it is important to look for chances to take the initiative. The L2 - R9 exchange is a good example. If you had played R8 first before L2, white wouldn't dare to play L2: he has to defend the corner: the white corner is at greater risk than your O2 group if they end up in a battle.

I guess that's about it. See yaz!
Library])
(;B[tt]TW[la][ma][lb][mb][kc][lc][mc][kd][ld][md][ke][le][me]
[af][kf][lf][mf][ag][jg][kg][lg][ah][ch][jh][kh][lh][li][lj]
[mj][nk][ok][pk][ol][pl][ql][om][pm][qm][rm][sm][qn][rn][sn]
[ho][io][po][qo][ro][so][ap][bp][gp][ip][jp][qp][rp][sp][aq]
[bq][fq][gq][hq][rq][sq][ar][br][cr][dr][er][fr][gr][as][bs]
[cs][ds][es][fs][gs]TB[qa][ra][sa][pb][rb][sb][rc][sc][qd][rd]
[sd][pe][qe][re][se][rf][sf][og][pg][qg][rg][sg][rh][sh][fi]
[gi][si][dj][ej][fj][gj][ak][bk][ck][dk][ek][fk][gk][hk][al]
[cl][el][fl][gl][hl][il][jl][kl][cm][em][jm][km][en][fn][nr]
[ls][ms][ns][os][ps]C[Aleix [9k\]: seki
Aleix [9k\]: you cant kill isn't it ?
battosai14 [14k\]: yes it's dead !!
tigersmaw [9k\]: no, i killed
Aleix [9k\]: bah
battosai14 [14k\]: white is dead
Aleix [9k\]: not dead
Aleix [9k\]: :)
Aleix [9k\]: we can't
Aleix [9k\]: each other
Aleix [9k\]: it's seki
battosai14 [14k\]: putin jte montrerai Alex t'es nul serieu !!
tigersmaw [9k\]: e18
Aleix [9k\]: try
Aleix [9k\]: reprendre
Aleix [9k\]: undo once]))
(;B[ql]C[better.]))
(;B[qn];W[nq];B[rp];W[qq];B[pl];W[lp];B[mp];W[mq];B[lo];W[kp]
;B[fg]C[Black's right side is very big and secure, PLUS sente to attack the white group, which is not yet alive.]
))
(;B[ci]C[Now, if you are white, will you dare to play C9?];W[ck]
;B[ei];W[ek];B[fl]))
