(;FF[4]GM[1]SZ[19]ST[2]CA[UTF-8]AP[SGFC:1.15]

PB[Bram]
BR[2d]
PW[unknown]
KM[6.5]
RE[W+5.50]
TM[0]
OT[1x60 byo-yomi]
RU[Japanese]

C[BVdb.: This is like the typical game I always play.

 Although it's a blitz game, I only made 2 or 3 reading mistakes. So I feel satisfied about this game. Yet I lost slightly.



I usually have the feeling I'm a little bit behind after opening. Also in this game, but usually these things make no difference after early midgame. Then things become even again.



But then in a 3th phase of the game, it turns out I underestimated the center slightly. ... The game becomes very even again.



The game keeps being close until somebody loses a group.



...

What usually helps me a lot:

reusable tricks and shapes, things that can help us all.



When you are not sure about something, please mention so. Or whenever you have a reference for something, do not hesitate to share it. Sometimes 10 persons have 10 different opinions. So even though I am certainly open for every opinion, I am also trying to verify and double check everything in all possible ways.

janr:
In general, it is not recommended to submit blitz games for review.  It is very easy for the reviewer to find some lementary mistakes that change the game, even if you believe you only made 3 reading mistakes (it's not true, as much of the game is based on reading (to decide whether you can do something or not), even very strong players make many reading mistakes).
Therefore, it is preferable to submit serious games where you get more feedback than things you know already.]
;B[pd];W[dp];B[qp];W[dd];B[fq];W[ip]
(;B[kq];W[cn]LB[dn:B][fp:A][eq:C]C[BVdb.:

I expected A or B.

but this can't be bad for white.

janr: it's a good move, an alternative is to play first the tsuke at C.  It makes black heavier, but in this situation, white has to think about his lower side stone.]
;B[dq];W[cq];B[cr]
(;W[eq];B[dr];W[ep];B[er];W[bq]LB[fn:F][fo:D][go:E][fp:B][hp:G]
[ip:C][gr:A]C[BVdb.:

Somebody commented during the game that A is wrong, but B is correct



janr: yes, B is better I think.  With A, white can make a wall while B allows for the cut.
The big question is here whether white can make his stone at C useful.  If not, he has made a mistake in choice of the variation. (then the tsuke F3/E3 is necessery or the atari at E3 in the game is not correct.  If black can now cut and make whites stone useless (e.g. if black B, white D, black E, white F, black G follows), then C4 would have been better than E3 (black has sente here in contrast to (*1))

Bvdb:
I looked this up in a database, and he is right.
 (janr: yes, but is L3/J4 in the database?)
However I have a question about this. ... see variation.]
(;B[gr]C[Bram Vdb.:



Ok, white does build a lot of influence and the position of black is rather low, I guess white is ahead and my L3 idea turns out to be a bad one.]
;W[fp];B[gp];W[go];B[jq];W[hp];B[gq];W[df]LB[qf:C][hn:B][ho:A]
C[janr: it may be better to protect the cut at A. either with B directly or with some more distant move such as C]
;B[jd]LB[pj:A][ho:B]C[janr: I would prefer A which both builds a moyo and prepares the cut at B (making the fight harder for white due to the influence)]
;W[qf];B[qh];W[nc]LB[qc:B][nd:C][oe:D][pf:A]C[Bram Vdb.:



A: simple and most common joseki. But is it correct ???



B: at the moment I had the idea that B would be a slight overplay, but now that I look at it B looks like a very strong move.



C: same, I would think C cannot be played when white is strong in the upper left corner.



D: the move I never play, leaves too much aji to my taste.

janr: I don't like D either.  I like B.  I think C and A are playable, but probably one is slightly better than the other (there is a whole theory about choosing A or C, but I think white's upper left corner is not the most important issue).]
;B[pf]LB[qc:B][pg:A]C[BVdb.:



Here white should play A before B.

janr: I don't think omitting A is necessarily bad if white wants the corner and a fight on the upper side.]

(;W[qc];B[pc]C[BVdb.:



Here white can still play Q13 to capture the 2 black stone]

(;W[qd]LB[pe:B][qe:A]C[BVdb.:



A is wrong, B is correct.

janr: usually A is better. (see also variation)  But i dont know the correct sequence with O17/K16 present at these exact intersections.]

(;B[qe];W[re];B[pe];W[rf];B[qg]LB[pb:B][qg:A]C[BVdb.: Another mistake.



I should play B here instead. Also A is not that, I worried too much about the cutting point.


janr: yes, i think A is too slow];W[hn]LB[qb:A]C[Bvdb.: A bit overdefensive I think ?

janr: getting a complete (strong) shape is important.  Compare with a black cut in conjunction with the black moyo on the right.  after this overdefensive slow move, white has a moyo on the left and is strong (therefore able to attack invading stones), while also strong enough to support invasions of the black moyo on the right.]
;B[qb];W[rb];B[pb];W[ra];B[ch];W[hc]LB[ib:C][ic:B][jc:A][lc:D]
[hd:E][he:G][cj:F]TR[kc]C[janr:

I think it is better for white to use the strong wall and attack the invading black stone (at F e.g.)


bvdb:

A and D = are too defensive and only does half the job done.



B and C help white and leaves invasion points at the triangled point.



I took E just to make quick shape.

janr:
E is an attachment, usually good fod making life (but black is not weak here), or fighting (but there is nothing to attack).
Among, the different choices you consider, G is missing.  It is the normal move to make shape and make a moyo/influence.]
;B[hd]C[janr: the disadvantage of this move is that White's corner gets strong.]

(;W[id]LB[ie:A][ch:B]C[BVdb.:



Although A can support B a bit, the center does not look interesting enough to me.]

(;B[ic];W[ie];B[he]C[BVdb.: Actually this is a missread.



I seemed to remember that a nobi could break the ladder.

But my opponent stretched correctly once more.];W[if];B[gc]

(;W[jc]C[janr: the proverb advises white to increase a sacrifice of one stone to two stones (see variation)]
;B[hb];W[kd]LB[pk:A]C[
janr: by not sacrificing one more stone, white failed to capture the black stone unconditionally.  The geta does not work here.

BVdb.: Here I'm thinking about playing A later on, but I figured white would ignore A for now. see variation]

(;B[bf]C[Bram Vdb.:



Judging the current situation,

I would say: black is ahead, but the game is only starting of course ...

janr: it is a good idea to strengthen c12.  However, now the white stones can move out easily (with the attachment which is good for making shape), so E12 would be better locally I think.

As white failed to attach C12, his wall is ineffective and he is behind.]
;W[dh]LB[ce:B][cg:A][di:C]C[BVdb:

I didn't want to play A, because it does not look efficient with B.

So I played B first.

janr: even if you would not choose it eventually, considering C is very natural here.]
;B[ce]LB[cg:A][dg:B][di:C]C[janr: what happens if white resists?
I believe the problems of the variation can be avoided by exchanging A for B or by playing C.  later in the game you can still play C15 and hope white will docily answer at D15.]

(;W[de];B[ci]LB[bf:C][eh:B][di:A]C[BVdb:



So here I got what I wanted.

janr: but is it good?  White can now push at A, and get influence working together with his wall.  It still prefer B to C.]

(;W[qn]LB[di:A]C[BVdb.:



Here I was a bit surprised. In my opinion this is bad timing for white. White cannot allow Black A in sente.]
;B[di];W[eh];B[op]LB[di:A]C[BVdb.:



"A" really kills a lot of potential in my opinion. So at this point I had the feeling it would be hard for white to catch up in territory.]
;W[qj]LB[pe:B][ql:A]C[BVdb.:



I shouldn't let my feelings take over, but A looks too risky while B is starting to look heavy.]
;B[mc]LB[oh:A]C[BVdb.:



I realize that white can capture my stone, but on the other hand I will reinforce while sacrificing ... so entering midgame.

janr: 
* I disagree and think white can not capture this stone. (see variation)
* This moves seems to try to reinforce black because he has no eyes.  But it also reinforces white.  
I would prefer a shape-making move such as A white protects the cut and attacks white below at the same time.]

(;W[oj]C[BVdb.: The ladder does not count anymore., so k18 looks like good timing.



On the other hand, now that I look at it, maybe I should have played it a lot earlier. Because it looks like white can play J18 in sente, so that makes it sente for both.]
;B[jb];W[kc];B[md]LB[ke:A][gg:B][oh:D][fi:C]C[securing but also looking at the aji of A

janr: black captured a stone, but did not split whites groups (with B or D), so white has still all options to connect.]
;W[og];B[pg];W[np]LB[no:A][oo:C][nq:B][oq:D]C[BVdb: Here I looked at A and B.



I took B, but maybe I should have taken A instead ?

janr: B looks acceptable, but please also consider the extensions at C and D.  they often avoid forcing moves (e.g. after B, C will be sente for white)]
;B[nq];W[mq]LB[mp:A]C[BVdb.:

Black cannot play A without the ladder ...];B[no];W[mp];B[oq]
LB[no:A][oq:B]C[BVdb.:



Maybe I should play B without playing A first.

janr: yes, I would omit A];W[ko]C[BVdb.:



I can connect under but ... I think it's too early for that. ... see variation.]

(;B[pk]C[BVdb.: Probing...];W[qq]C[BVdb.: Looks like white is probing too ...]
;B[rp];W[po]C[BVdb.:



Looks like white is bluffing.];B[oo];W[pp];B[pq];W[rq];B[rr]
;W[qr];B[sq];W[rs];B[sr];W[om]LB[pj:B][qk:A][om:C]C[BVdb.:



In my opinion white should play A or B here.

However later on in the game C turned out to help white's global stragegy.

janr: after the sequence in the corner, black got stronger and it may  not be wrong for white to try playing lightly.]
;B[pj];W[pi];B[qi];W[qk];B[pl];W[ql];B[oi];W[pm];B[ni];W[ok]
LB[ni:A]C[BVdb.:



In my opninion it's too small to respond to this. If necessary I can always connect with A,
janr: the result looks bad for white, especially A is giving black a lot of advantage.]
;B[ke];W[kf];B[le];W[je];B[cc];W[dc];B[bb]C[In my opinion black should play C16 here.

janr: or C18.]
(;W[kb];B[db];W[mg];B[nf]LB[lb:A][nb:C][nd:E][lf:G][nf:B][gg:F]
[li:D]C[BVdb.:



There was some doubt here between these moves.

janr B: threatens to capture one stone.  I would prefer to cut white on a larger scale with F or G]
;W[li]C[janr: black gave white the opportunity to get stronger (and therefore more connected) in the center]

(;B[nb]C[BVdb.: Securing];W[mo]C[BVdb.: So, there goes connecting under...

Center is starting to close, so I must reduce from both sides.]
;B[mj]LB[gh:B][fj:A]C[janr: A looks bigger to me (threatening B)]
;W[mf]C[BVdb.: Responding to this is too small. White can't kill me.]
;B[lj]C[janr: black is walking very slowly, only one intersection per move.]
;W[me];B[ne]C[BVdb.: Further more it's too small for white to play a 2nd gote move here.]
;W[kj];B[ei]LB[kk:A]C[BVdb.:



This looks sente to me... and a clean way to get in the center.]
;W[fh]LB[gh:C][fi:A][cl:B]C[BVdb.:



I don't think A is sente anymore , and on top of that ... B is big.

Must be about 10 to 15 points.

janr: I still prefer A.  If unanswered, C will give black a good grip on the center.]
;B[cl];W[fi];B[ki]C[BVdb.: Little blitz mistake ...];W[mi]C[BVdb.: Well ... he got me there ...]
;B[kh];W[mh];B[nj];W[kk];B[ld];W[kg];B[gg];W[gf];B[hf];W[hg]
;B[ff];W[hh]
(;B[ge]LB[da:B][eb:A]C[BVdb.:

Capturing also prevents the hane of A and the atari of B which goes with it ...

janr: it's not clear to me that the threat of A is worth sente.]
;W[ol]C[BVdb.: Should I have captured earlier ? I don't think so ...]

(;B[oh]LB[ng:A]C[janr: A is a good alternative (makes more points locally at least)]
;W[ek];B[bm]LB[el:A][bm:B]C[BVdb.: maybe this is a bit stubborn. But I Actually want to play A, which I can't play directly. But B gives me all the support I need to play A ...
janr: B is a big endgame move.];W[dl]C[BVdb.: Looks like white sees right thru it, ... well he should, and he does, good for him.]

(;B[bn];W[ck]C[BVdb.: I didn't expect this, I think I see a little hole ...]
;B[co]
(;W[bl];B[cp];W[cm];B[do];W[en]
(;B[ll]LB[lk:1][mk:3][nk:5][ml:2][nl:4][lm:11][mm:9][nm:7][ln:10]
[mn:8][nn:6][lo:12];W[lk];B[ml];W[mk];B[nn];W[mm];B[nl];W[kl]
;B[lm];W[km];B[lr];W[mr];B[nr]LB[sm:C][lr:A][pr:B]C[janr: this move loses liberties.  morover, the combination with A is usually bad, as you are trying to close to sides while every move on one side makes the oppoent stronger to reduce the other side.
Locally, how about B or even better C?];W[ms];B[iq];W[nm]
(;B[ln]C[BVdb.: I think this is the losing move.

Instead of pushing thru I should have simply connect.];W[mn]

(;B[pr]C[BVdb.:];W[nk];B[ka]C[BVdb.: Ok, this turned out to be a bad idea.]

(;W[lb]
(;B[la]C[janr: again, black is trying to "defend" one side, while damaging the other side (in fact, black does not gain points on the left with this move, nor does white lose any).]
;W[ma];B[ja];W[mb];B[ob];W[ec];B[eb];W[eo];B[bp];W[fc];B[fb]
;W[cg];B[bg];W[bj]LB[cf:A]C[BVdb.:



A = sente for both, I should have played there first

janr: in fact, I guess that most of this kind of problems would not occur is a slow game where you think carefully about every move.  Blitz is fun, but I feel commentaries are often less effective]
;B[qo]LB[sm:A]C[janr: black loses a liberty for one point.  I prefer A]
;W[ro]C[janr: strange decision. White should be happy that black loses a liberty a simply connect.]
;B[pn];W[bi];B[cf];W[dg];B[bh];W[ao];B[bo];W[rn];B[ej];W[fj]
;B[kp]
(;W[jo];B[rg]C[BVdb.: I think white does not need to defend. But it looks dangerous enough to get away with it.
janr: white is alive];W[sd];B[rj];W[sk]LB[rk:A]C[BVdb.: I don't get this move.

janr: A is better];B[ng]
(;W[si]LB[ls:A]C[janr: a small move.];B[ri];W[hq];B[hr];W[cd]
;B[bd];W[gh];B[rk];W[rl];B[sj];W[ls];B[ks];W[am];B[ap];W[al]
;B[an];W[dn];B[br];W[sl]C[Bvdb: 1,5 point reverse sente

janr: t11 turned out to be useless];B[sf]C[Bvdb.: 2 points in sente]
;W[sc];B[lp]C[Bvdb.: 1 point in sente];W[lo];B[ns]C[Bvdb.: 1 point in reverse sente]
;W[jp]C[aji keshi];B[kr];W[lf]C[1 point in sente.];B[nd];W[ah]
C[2 points in gote];B[ag];W[ai]
(;B[so]C[1 point in reverse sente];W[sn];B[sp]LB[on:A]C[BVdb.: White misses a sente move.]
;W[na]LB[on:A]C[BVdb.: White should play A first.];B[on]C[Bvdb.: 1 point in reverse sente]
;W[fe]LB[fd:A]C[janr: A looks simpler (and better, but only in theory).]
;B[fd]C[BVdb.: 1,5 point in gote];W[ee];B[sg]C[BVdb.: aji keshi, I shouldn't play this]
;W[se];B[fg]C[BVdb.: 1 point in gote];W[nh]C[Bvdb.: aji keshi in gote, on the other hand, there are no more points left, so it does not really matter.]
;B[ph];W[pj];B[dj]C[BVdb.: white could also just ignore this, it's dame]
;W[dk];B[oa]C[BVdb.: bluff move, white can just play R19]
(;W[ig];B[qa]C[BVdb.: gained another 2 points



1 point ahead without komi, ... so I'm 5,5 behind.];W[tt];B[tt]
TW[sa][sb][rc][rd][jf][jg][lg][ih][jh][kh][lh][gi][hi][ii][ji]
[ki][aj][gj][hj][ij][jj][ak][bk][fk][gk][hk][ik][jk][pk][cl]
[el][fl][gl][hl][il][jl][ll][ml][nl][pl][dm][em][fm][gm][hm]
[im][jm][lm][qm][rm][sm][fn][gn][in][jn][kn][ln][fo][ho][io]
TB[aa][ba][ca][da][ea][fa][ga][ha][ia][pa][ab][cb][gb][ib][ac]
[bc][hc][nc][oc][ad][od][ae][be][oe][af][of][og][rh][sh][si]
[ao][po][pp][aq][bq][cq][qq][rq][ar][fr][ir][jr][or][qr][as]
[bs][cs][ds][es][fs][gs][hs][is][js][os][ps][qs][rs][ss]C[janr:
I think black should remember to keep weak opponent groups separated (instead of letting them make a big center by connecting).
Both players made seveal tactical mistakes.])
(;W[qa]C[Bvdb.: no danger ... White can play here.];B[lc];W[jd]
;B[ig];W[jf];B[ih];W[jh];B[ii];W[ji]))
(;B[on];W[so]LB[on:A][so:B]C[BVdb.:



2 points in gote. or 1 point in sente ... it's the same.

So from that point of view ... A and B are equally big]))
(;W[hq];B[hr];W[ls];B[ks];W[am];B[an];W[al];B[br];W[dn];B[aq]
;W[cd];B[bd];W[lf];B[nd];W[ns];B[os]C[janr: white has a lot of sente moves.]
))
(;W[hq]C[janr: white can take one more point?];B[hr];W[jp];B[lo]
;W[lp];B[jo];W[kn];B[in];W[ho]))
(;B[mb]C[BVdb: I should play here or tenuki]))
(;W[la];B[ja];W[lb];B[mb]))
(;B[nk];W[pr]))
(;B[nk]))
(;B[ml]C[Bvdb.: I though this to be a little bit soft ...];W[lm]
))
(;W[cp]C[BVdb.: What he should have done in my opinion ...

janr better for white yes];B[bk];W[cm];B[bl];W[bo]))
(;B[cm];W[dm];B[bn]))
(;B[ng];W[oh];B[ph];W[nh];B[pj]))
(;B[fj];W[eb];B[ec];W[da];B[cb];W[fc];B[ed];W[ee];B[fd];W[fe]
;B[gd];W[ge]LB[fj:A][bm:B]TR[eb][fc][ef][ff][gf][eg][fg][gg]
[gh]C[janr: white can capture two white stones and make some points (about 7?) in gote.
I think A (or even B) are bigger.]))
(;B[aa]C[janr: Even if black plays tenuki, I don't see how white will kill black.]
;W[mb]
(;B[lb]
(;W[lc];B[nb];W[la];B[na];W[qa];B[pa])
(;W[nb];B[la];W[ja];B[lc]))
(;B[nb];W[lb];B[na])))
(;W[cd];B[bd];W[cb];B[bc];W[kb]))
(;B[mr];W[lr];B[lq];W[nr];B[ms];W[ns];B[lo];W[ls];B[mr]))
(;W[md];B[mb];W[nb];B[na];W[oa];B[ma];W[ob];B[nd]))
(;W[cg];B[bg];W[di];B[cj];W[dj];B[ck];W[ib];B[hc];W[jb];B[ec]
;W[dc];B[db];W[cb];B[fb];W[da];B[eb]LB[bd:A]C[janr: A may very well become sente.]
))
(;W[cg]
(;B[bg];W[ci];B[bh];W[de];B[di];W[cj];B[eh];W[dg];B[cc];W[dc]
;B[cb];W[fg]C[janr: White succeeding in making a moyo with his weak stones]
)
(;B[de];W[bg]C[janr: both players lost a stone.  Black got a corner, white a side.  black gets gote (or white will probably live).]
)))
(;B[pk];W[bg];B[je];W[kf];B[kc];W[ke];B[jb];W[hf]LB[bg:A][cg:B]
C[BVdb.: So I think white can ignore Q9. the B13 area looks more urgent to me.



Here I have another question!



Is A correct shape for white, or should he play B?

Both seem to leave aji in the corner, but different kinds of aji.]
))
(;W[hb]C[janr: now black has a lot more of trouble to capture the white cutting stone]

(;B[ib]
(;W[gb];B[fc];W[fb];B[ec];W[eb];B[dc];W[jc];B[jb];W[kc];B[kb]
;W[lc];B[db];W[lb];B[eg]C[janr: white has clear aji to cause trouble on the top side, but he should be careful about his corner]
)
(;W[jc]C[janr: White may probe first]
(;B[kc];W[gb];B[jb];W[fc])
(;B[gb];W[jb];B[ha];W[kd]C[janr: white lost territory, but black lost his moyo/  Probably black did not gain much in this variation.]
)))
(;B[gb];W[jc];B[ib];W[jb];B[ha];W[kd])))
(;B[ie];W[ic]LB[jc:C][gd:A][he:B][je:D][kf:E]C[BVdb:



But let's say I do, then what is correct shape next ?

A or B?



I would think sacrificing with C or D is a bit too soft.

janr: black started with attaching, not aiming at solid territory or savin all his stones, but as he declares himself, to make shape quickly.  Given this choice, the most normal and consistent continuation is playing  E or a similar shape-making move.]
))
(;W[gd]LB[jb:D][gc:E][ic:B][jc:C][he:A]C[Bvdb.:

if White would play like this I think A would be the most natural thing to do, however I think I would have played B for territory.

janr:
B is only good in exceptional cases.  Here, given blacks wall on the right, making influence with A is clearly better.  White B / black C may follow, and black would get both territory and influence.  If white chooses another move (C or D) the cut at E is annoying.]

(;B[ic];W[he];B[id];W[gc];B[jf])
(;B[he]
(;W[jb]C[Bvdb.: Is this a possible shape for white ?
janr: the cut (or potential to cut) is very annoying.];B[gc]

(;W[fd];B[ib];W[hb];B[kb]C[janr: white can't run into blacks territory.]
)
(;W[ic];B[ee]C[janr: it is hard for white to link up everything]
;W[ed];B[fd];W[fc];B[ge];W[gb];B[de];W[ce];B[cf]))
(;W[kb]C[Bvdb.: And how about this, how should black play here now? These kind of things are very interesting to me, There is not much to find about these things in books. Yet they often reappear in games. So this kind of knowledge can be reused.



So feel free to share if you have a clear answer to these things.

janr: here too, it is extremely hard for white to stay connected.]
;B[ic]
(;W[ib];B[hb];W[gc];B[jb])
(;W[ld]C[janr: white got a weak group on the right of the upper side, but black got a strong shape and has sente to erase the top left corner.]
)))))
(;B[pe]
(;W[rf]C[janr: I dont agree.  white will resist.];B[pb];W[qb]
)
(;W[qe]C[janr: white has much more space now.];B[pb];W[qg];B[pg]
;W[rh];B[qi];W[ri];B[qj]LB[rb:A]C[janr: white has sente.  A is endgame, and not sente for black.]
)))
(;W[pg];B[qg];W[pe];B[of];W[oe];B[qe];W[qd];B[rf];W[re];B[qf]
;W[od]))
(;W[pg];B[qg];W[qc];B[pc]LB[jd:B][qe:A]C[janr: I would prefer A here, as aster Q17 white gets a too large corner given that black started with 2 stones in this area.  In particular, B looks lonely after the variation.]
;W[pe];B[of];W[oe];B[qe];W[qd];B[rf];W[re];B[qf];W[od]))
(;B[fp];W[gr]LB[fn:C][fo:B][dq:A][hq:D]C[BVdb.:



1) Personally I believe G2 is rather annoying.

Black becomes heavy and not alive yet.

I played A to settle, not to run to the center ...

If I just want to run to the center, then why play A first?

So, I have no interest in C.



2) What if black responds by playing D?


janr: first, the moves suggested for white seem bad.  I don't like the forcing move at G2.  Black can just connect and get stronger by the exchange.  .

1) A is to settle and get eyes.  A and C are both good points.  Getting both A and C is still better than only getting A.  

2) If black plays D and if this works, then it shows clearly that G2 is not good.]

(;B[fr])
(;B[hq];W[iq];B[hr];W[ir]
(;B[gs];W[lq]C[Bram Vdb. :

I guess it's for this kind of reasons?])
(;B[nq]C[janr: I wouldprefer this move, as G1 feels very submissive.]
;W[hs];B[gq]C[janr: black made some points, and white is still weaker than black on the lower side.]
))))
(;W[cp]C[janr: this is a very simple variation.  Block will defend his stones and white gets sente (*1)]
;B[er]))
(;B[oq]C[BVdb.:

I realize that P3 is the normal strategy.

But for the fun of it, I wanted to play something different.]
))
