(;FF[4]GM[1]SZ[19]ST[2]CA[UTF-8]AP[SGFC:1.15]

PB[Silvan]
BR[9k]
PW[Petaurista]
WR[9k]
KM[6.5]
DT[2009-08-09]
PC[The KGS Go Server at http://www.gokgs.com/]
RE[B+9.50]
TM[1200]
OT[5x30 byo-yomi]
RU[Japanese]

C[Hello Kevin ( playing black ),
It is my pleasure to share a review of this game.
0 = Answer question  
1 = Overall impression.  
2 = specific moves that I would do differently.

Kevin Harden wrote:
Thanks you in advance for doing this review.  What I am most interested in is if these huge moyos that develop in the early stages of games I play are a bad thing and what to do about it if they are.

Huge moyos will give you an advantage if they invade and fight in your area.  You have good discipline when fighting, staying at a distance and connecting stones rather than wrapping around.

Your judgement of where to extend ( 17 = J3 )  is also good, giving yourself distance back or forward.

The lower push back and forth gave your opponent solid territory, but made your moyo stronger.  However that battle was started by white, and he kinda of helped your game there.

I think the next area you need to focus on is learning how to push in one direction in order to build up a different one.  In this game the left side is an example.

Time to study how to invade and live.  Your corner invasion was great.  For an invasion to live it needs to threaten two or three things with each stone placed.  The other guy can defend only one thing.  Peeps for example, or ataris, or other forcing moves where they can defend, but you get stuff to fight or make eyes with.

The C5 invasion failed because it was too direct, every stone was right next to the other, monolithic, monotone, plodding along.  Get some team mates in there first with peeps and forcing moves

Moves like C10 will kill your chances to invade.  They force the other guy to get strong and defend himself.  Think scatter gun, think of coughing on the board in that area.  Need to keep the options open for a placed stone

Try to find threatening moves that the guy will defend, but having that stone also threatens or supports something else in the future.  Play light, keeping opportunities open.  Invasions are alot of fun.

Learning how to invade will help you know when to defend your moyo from invasion, when to let things live, even though you could kill it.  In your game you killed M4, but it cost many moves.  Maybe you could taunt more, playing at a further distance, let the guy waste two or three moves living.

Really strong players say things like "you don't need to kill it, just threaten it."  I think this is because if you attack far outside of the thing it cannot cut through, and you have big strong stuff to attack the other side.

You did well with your attacking from a distance early in the game around K4.]
;B[qp]C[

Many of the moves on both sides were direct with a single purpose.  Light moves or multi purpose moves have the intent of doing or threatening to support many future things.  A few attacks started this, where they leaned on one thing to attack something else, but in the moment of jumping on that something else it didn't quite work out.

Plays were a bit too safe and secure.  A few moves here and there were like "pass", where they weren't needed.  When you have strength to support then you can fight.]
;W[dd]C[use shift + click on the position given

46: N5  Sealing in white is important, try a more efficient move that also supports the center.

80: C11  After pushing down with some forcing moves, take profit in the opposite direction.

82: D15 Black is ahead, extend towards center and win.

147: P15  When the defense is strong enough, use a forcing move to make two moves in a row.

152 : D18  Threaten to capture stone to setup a snap back capture.

161 : J7  Gain two more points in end game.];B[pd];W[dq];B[oq]
;W[ck];B[qj];W[nc];B[nd];W[md];B[ne];W[oc];B[pc];W[kc];B[pg]
;W[gd];B[iq];W[gq];B[io];W[go];B[hm];W[hn];B[in];W[gm];B[hl]
;W[gl];B[hk];W[kq];B[mq];W[ko];B[km];W[ir];B[hr];W[hq];B[jr]

(;W[jq];B[ip];W[kr];B[is];W[mr];B[nr];W[lq];B[mp];W[lp];B[mn]
C[Excellent play, attacking from a distance.]
(;W[lo]LB[ml:B][mo:A][jp:C]C[white plays a move that does nothing.

A ( N5 ): Game play = too slow / heavy, N6 does need support, but N5 does only one thing.

B ( N8 ): Suggested move = black seals in white and supports the center.

C ( K4 ): Ignoring the M6 threat is costly.]
(;B[mo]C[black is wise to secure the area.];W[jp];B[ms];W[ls]
;B[ns];W[jm];B[jn];W[kn];B[kl];W[jl];B[jk];W[gk];B[hj];W[gi]
;B[cc];W[cd];B[dc];W[ec];B[eb];W[fc];B[fb];W[gb];B[bd];W[be]
;B[bc];W[hi];B[ce];W[bf];B[cf];W[bg];B[cg];W[bh];B[ch];W[bi]
LB[ed:B][ci:A]C[A = Game play, chase after B12
B = Suggestion, catch D16 in a net.]
(;B[ci];W[ee]LB[de:A][fg:B][kg:E][fj:C][fn:D]C[
With no clear way out, just leave it  play stuff in the general area maybe, but that other stuff needs to have an alternate purpose that may also work.

A ( D15 ) game move = forcing move to form eye at D14
B ( F13 ) lighter move, but where can it go?
C ( F10 ) peep at G10, maybe gives support?
D ( F6 ) peep at G6, forcing move to get another stone in there.
E ( L13 ) suggested move = can connect with L8 or O15]
(;B[de];W[ed];B[ef];W[ff]LB[cj:A][fn:C][co:B][bq:D][dr:E]C[A = aji keshi / opportunity death.  This forces white to get stronger

B = invade while stuff is kinda open.  probably too thick in here with white stones

C = peep to get a helper stone in there.

D = I think this can live

E = a stone that will die, but something else lives as you dance around, especially with H2 poking out.]

(;B[cj];W[bj];B[dk];W[cl];B[eg];W[ej];B[ei];W[fi];B[ek];W[fj]
;B[dj];W[eh];B[fg];W[gf];B[gg];W[hg];B[hf];W[he];B[di];W[fh]
;B[co];W[cp]
(;B[bp];W[bq];B[dp];W[cq];B[bn];W[do];B[dn];W[eo];B[cm];W[dl]
;B[bl];W[bk];B[el];W[dm];B[em];W[en];B[ji];W[lf];B[mg];W[mf]
;B[nf];W[lg];B[mh];W[lh];B[mi];W[li];B[lj];W[ii]
(;B[jj];W[jh];B[ih];W[ki];B[kj];W[ob];B[me];W[le];B[pb];W[od]
LB[mc:B][oe:A]C[A ( P15 ) : Game Move = seal in white, keep things safe.
B ( N17 ) : Suggested Move = use a forcing move to threaten the capture of N16, then capture P17.]

(;B[oe];W[mc];B[fr];W[gr];B[gs];W[er];B[fq];W[fp]LB[db:A][ho:B]
C[A ( D18 ) Game move = secure corner = pass?
B ( H5 ) Suggested move = have some fun.  G3 stones make a common pattern for snap back.]

(;B[db];W[es];B[fs];W[eq];B[hs];W[ij]LB[ik:B][im:A]C[A ( J7 ) black connects two groups, defending
B ( B9 ) black connects and gets two more points.]
(;B[im];W[ik];B[il];W[pa];B[qa];W[oa];B[qb];W[fa];B[ea];W[ga]
;B[ae];W[af];B[ad];W[ho];B[hp];W[gp]LB[ah:B][cn:A]C[A ( C6 ) Game play = defend D6 from capture.
B ( A12 ) Suggested move = threaten to kill B12 group

Probably this move needed to happen sooner, when black had more ko threats around E3 and N17.]

(;B[cn]
(;W[ap];B[ao];W[am];B[aq];W[al];B[br];W[cr];B[bs];W[ar];B[jg]
;W[kh];B[hh];W[if];B[bm];W[ak];B[tt];W[tt]TW[ha][ia][ja][ka]
[la][ma][na][hb][ib][jb][kb][lb][mb][nb][gc][hc][ic][jc][lc]
[fd][hd][id][jd][kd][ld][ce][de][fe][ge][ie][je][ke][cf][df]
[ef][hf][jf][kf][ag][cg][dg][eg][fg][gg][ig][jg][kg][ah][ch]
[dh][gh][hh][ih][ai][ci][di][ei][aj][cj][dj][dk][ek][fk][bl]
[el][fl][bm][cm][em][fm][an][bn][cn][dn][fn][gn][ao][bo][co]
[fo][ap][bp][dp][ep][aq][br][dr][as][bs][cs][ds]TB[aa][ba][ca]
[da][ra][sa][ab][bb][cb][rb][sb][ac][qc][rc][sc][qd][rd][sd]
[pe][qe][re][se][of][pf][qf][rf][sf][ng][og][qg][rg][sg][nh]
[oh][ph][qh][rh][sh][ni][oi][pi][qi][ri][si][mj][nj][oj][pj]
[rj][sj][kk][lk][mk][nk][ok][pk][qk][rk][sk][jl][ll][ml][nl]
[ol][pl][ql][rl][sl][jm][lm][mm][nm][om][pm][qm][rm][sm][kn]
[ln][nn][on][pn][qn][rn][sn][jo][ko][lo][no][oo][po][qo][ro]
[so][jp][kp][lp][np][op][pp][rp][sp][jq][kq][lq][nq][pq][qq]
[rq][sq][ir][kr][lr][mr][or][pr][qr][rr][sr][js][ks][ls][os]
[ps][qs][rs][ss]C[Silvan [9k\]: thanks
Petaurista [9k\]: thx])
(;W[ak]))
(;B[ah];W[al];B[bm];W[ai];B[ak];W[cn];B[hc];W[gc];B[dn]))
(;B[ik]C[black gets two more points by playing here.]))
(;B[ho]C[Sometimes the other player will respond to the short term threat of one stone and the lose the larger group.]
;W[gn];B[gp];W[hp];B[gp]))
(;B[mc];W[ld];B[mb];W[oe];B[pf];W[of];B[ng];W[og];B[oh];W[pe]
;B[qe]))
(;B[jh])
(;B[jg];W[jh];B[kh];W[ih];B[ki];W[kg];B[jf]))
(;B[fn];W[gn];B[bm];W[bk]))
(;B[co])
(;B[fn])
(;B[bq])
(;B[dr];W[er];B[cq];W[cr];B[dp];W[eq];B[br];W[ds];B[bl];W[bk]
;B[fn];W[gn];B[cn]C[so, lots of black stones to play with, sorry I don't know how to get life.  seems close to two eyes though, don't you think?]
))
(;B[fg])
(;B[fj])
(;B[fn])
(;B[kg]))
(;B[ed];W[de];B[ee];W[df];B[eg]))
(;B[jp]C[if black is too aggressive, then white captures L7]
;W[ln];B[mm];W[lm];B[ll];W[mo];B[no];W[np];B[nq];W[nn];B[oo]
;W[ml];B[nm];W[kl];B[lk];W[jm])
(;B[ml]))
(;W[jp]C[even if white gets one eye, where is the other?];B[ms]
))
(;W[ip]C[this seems like the better move, connecting with L3]
;B[jq];W[jp]C[all sorts of things could happen around H6 and K2]
))
