(;FF[4]GM[1]SZ[19]ST[2]CA[UTF-8]AP[SGFC:1.15]

PB[sklx]
BR[22k]
PW[kenshin000]
WR[13k]
KM[6.5]
DT[2009-08-17]
PC[The KGS Go Server at http://www.gokgs.com/]
RE[W+11.50]
TM[1800]
OT[5x30 byo-yomi]
RU[Japanese]

C[Hi.
Thanks for your time spent reviewing this game.

I was playing black in this game and have lost by 11.5 points.

Aside from obvious mistakes, i'm really interested in ideas on how i could've expanded my territory and influence more efficiently, as i feel that forms i'm using are quite heavy and slow while still leaving possibilities of invasion.

REVIEWER: Pete, 4k AGA/KGS

General feedback for Black: read out some of the capturing races. Also try to find worse-case secnarios with immediate atari moves by the opponent and see if you are still alive and how many points it costs. You will then find that you can tenuki. 

General feedback for White: Avoid playing on second line unless you are forced to or the game is very close to the end. You also played a bunch of moves which were meant to pretect a perfectly safe group - those moves lost senta.]
;B[pd];W[dq];B[pq];W[cd]LB[ec:A][ed:B][pd:D][cf:C]C[REVIEWER: the thing to always keep in mind about the 3-4 point is that it has its week and its strong side. In the upper left corner the top side (around A and B) is the weak side for White. Black is likely to aproach on this side (typical josekis start with Black at A or B). Black is not like to begin aproach to the corner at C - that is White's strong side. 

When Black approaches at A or B, the situation works out well for him because of the stone at D. See the variation. So to avoid this, White could play the first move in the corner at D17 instead.]

(;B[qj];W[bc]LB[ec:A][fc:B][ed:C]C[REVIEWER: Very strange move on White's part. If White wants to secure the corner, the optimal way to do it is to play at A (regardless of all other stones on the board). White at B or C are also possibilities but they are not as strong enclosures as the one at A.]
;B[pf]LB[co:A][do:B]C[REVIEWER: Not a bad move locally but I think Black might be better off preventing White from enclosing the lower right corner. Black can start a joseki at A or B.]
;W[cr]LB[co:A]C[REVIEWER: Same comment as for White 6. Move at A would be a lot better.]
;B[jp]LB[jd:A][cj:C][ck:B][qo:D]SQ[qj]C[REVIEWER: Good move. Moves at A or B or C would also be good. 
If Black gets to play at D any time soon, he should be very happy. He will get double-wing formation with the marked stones and the corner enclosure.]
;W[jq]LB[jd:A][cj:C][ck:B]C[REVIEWER: A bit too early for such close-combat fight. Both players should first try to get corner enclosures and extensions first (that's the Go theory at least). Moves at A or B or C are better for White (especially B and C - works well with both of White's corners).]

(;B[po]LB[jp:A]C[REVIEWER: Not responding to White's attack might not be good idea. Black could sacrafice the stone at A but this early in a game such decision would basically indicate that playing at A in the first place was not a good idea. In general one should always first consider responding to attachments like this. See variation.]
;W[qp];B[pp];W[qq]LB[pp:A]SQ[jp]C[REVIEWER: Black's response at A is good. It says: I want the influence, you can take the corner. The question is now: will Black be able to utilize the marked stone to get some of that influence and convert it to territory. If Black doesn't eventually respond to White's attachment and allows White to play there first, the influence of the wall will be reduced a by a lot.]

(;B[qn]LB[qo:B][qr:A]C[REVIEWER: This move by Black is way to timid. See variations. 
Moves at A and B hit on the head of two white stones (which is a Go proverb, actually).]
;W[pr]
(;B[nq]C[sklx: up until this point i was trying to produce influence on lower right part of the board, though i feel like i've spent too many stones on doing so.

REVIEWER: I would not say Black spent too many moves yet. But because of this move, Black allowed White to keep pushing Black around a bit .. this is what caused Black to be over-concentrated here.]
;W[or]LB[nq:A]C[REVIEWER: White utilizes Black's loose move at A.]

(;B[oq]LB[mp:A][np:B]SQ[jp]C[REVIEWER: Empty triangle. Blacks' move would be much better at A. See variaton. Bamboo at B is also better but it does not connect with the marked stone as well.]
;W[nr];B[kq]C[REVIEWER: good timing on this move.];W[kp]C[REVIEWER: White wants to start a fight it seems. The only problem is that Black is much stronger in this area and has the next move...]
;B[lq]LB[ko:A]C[REVIEWER: Good response.];W[jr]
(;B[ko]C[REVIEWER: Might be a bit over-protective. See variation.]

(;W[kr]LB[ip:A]C[REVIEWER: White would be better off playing at A. See variation.]

(;B[jc]LB[ck:A]C[REVIEWER: Definitely good idea to leave the lower right corner and go to one of the remaining big moves on the board. The thing to consider is: Which of the two remaining sides is a bigger move. What if White plays on left side at A like in the variation...

To some extend which side Black decides to go on is a question of personal style and what Black knows about White's style and how the game is going so far. The move up to says "I'll take my stuff, you take your stuff" ... more peaceful. the move the left side says "I'll take my stuff later, but I want to prevent you from taking your stuff first" ... more of a fight invite :)]

(;W[lp]C[REVIEWER: Ladder doesn't work for White obviously so White must be trying to connect very badly...]
;B[mp];W[lr];B[lo]C[REVIEWER: White stones are already connected. No need to make another move there.]
;W[mr]LB[mr:A]C[REVIEWER: This move is worth at most 1 point (and that's only if Black gets to play at A first). Playing on the center of the left side is probably worth 20 or 30 points.]

(;B[qc]C[REVIEWER: This move is too slow and over-protective of territory. The left side is still more important. See variation.]
;W[cj]C[REVIEWER: White sees the left side as the clear oportunity for territory.]
;B[kk]LB[ej:C][jj:A][hp:B]TR[jc][jp]C[sklx: not sure if this move was a reasonable one. is L10 or N10 better?

REVIEWER: Frankly, I would have either played even furhter (at A for example) or assumed another strategy: not giving White the opportunity to take sante and instead pushing into White's territory with a move at B. Another possibility is to try to push White down onto third line with a move like C. As the exchange of moves develops, Black might find that the encosure of the center happens naturally.

The move in the real game (at the circle-marked stone) seems too close to the lower portion of the board and too far from the slightly weaker upper portion. That's why I think move at A would be more balanced. It would also nicely align with the two triangle-marked stones.]

(;W[gm]C[REVIEWER: Odd move. Does not reduce Black's territory or influence and does not build much of those for White either.]

(;B[il]C[REVIEWER: OK but ... see variations on this move and the next one.]

(;W[gg]LB[cl:A]SQ[cj][gm]C[REVIEWER: White is trying to build its own big moyo but the 3 White stones hardly can secure it. Black can easily invade / reduce the whole thing.  If I were black I would probably invade at A.]
;B[kf]LB[mc:C][je:B][jf:A]C[REVIEWER: Similar comment. Black does not need to draw back as much. Move at A would be better and secure more of the moyo. Move at B is also possible. The thing to keep in mind is that White can still try some funny stuff by invading at around C (it will be hard to survive but White could try to form a Ko or just complicate things.]
;W[jh];B[kh]C[REVIEWER: Good response. White cannot hane...]

(;W[jj];B[kj];W[ji]LB[ki:A]C[REVIEWER: This is one of the mistakes I'm sure you are already aware of. Better to respond to this peep at A.]
;B[jg];W[ki];B[li];W[jk];B[jl];W[kl]
(;B[ll]C[REVIEWER: this definitely added fuel to the fire. See variation.]
;W[lh]C[sklx: starting from here i have a problems keeping groups alive and, more importantly, keeping opponent from building solid walls while threatening my groups and reducing my influence]

(;B[lg]LB[kg:A]C[REVIEWER: Yeah, this move would be better at A. See variation.]
;W[lj];B[km];W[lk];B[mh];W[kl];B[kk];W[kj]LB[kj:A][nj:B]C[REVIEWER: Not needed. Black cannot play at A to cut white off. White should play a move that cuts more of Blacks territory (like at B)]
;B[kl];W[nj]C[REVIEWER: Moves that follow until the next comment are natural progression of one side trying to go deeper and the othe side trying to prevent that from happening.]
;B[mj];W[mk];B[mi];W[nl];B[ok];W[nk];B[oi]C[REVIEWER: Yeah, good move.]
;W[ni];B[nh];W[oj];B[pi];W[om];B[pl];W[pm]
(;B[pk]LB[qm:A]C[REVIEWER: trying to save those 2 stones is a mistake as it gives White oportunity to push in at A as you have seen. Best thing is to protect the side (see the variations) and if Black can get sante, start reducing/invading the big White areas.]
;W[pj];B[qk];W[qm]
(;B[nn]C[REVIEWER: No need to try to form a second eye yet. The Black group is very strong and can first push through into White's left side. See variation.]
;W[rl];B[nm];W[ol];B[qi]LB[si:B][nm:A]C[REVIEWER: Exactly .. Black forced himself to connect and allowed White to make monkey jump into B.]
;W[rn]LB[si:A]C[REVIEWER: Monkey jump at A is more valuable and keeps sente.]
;B[ro]LB[fc:C][fd:B][cl:D][co:E][hp:A]C[REVIEWER: Instead of playing here, Black should either reduce White's area by playing at A or perhaps expand his own framework by playing at B or C (or invade at D or E .. for might be best to build support starting with A before such invasion).]
;W[qo];B[pn];W[mq];B[he]LB[fc:A][gc:B][fd:C]C[REVIEWER: This move by Black is OK but normally one tries to sercure side-territory first. Moves at A, B, and C are better because they are worth 20 points or more (if Black doesn't go there and secure another 10 points, White will).]

(;W[mm]
(;B[ml];W[on]
(;B[oo]LB[no:A]C[sklx: this was a mistake. O5 would connect and keep Q3 alive]
;W[no];B[mn];W[np]
(;B[lm]C[REVIEWER: Unnecessary. See variation.];W[op]
(;B[mo]C[REVIEWER: Over-protective. The Black group is safe. See variations.]
;W[fd]C[REVIEWER: big move by White.];B[gc]C[REVIEWER: yes, good move - Black needs to reduce White's side territory and try to expand his own.]
;W[fc];B[gd];W[fe]LB[cg:A]C[REVIEWER: territory lines up top have been secured but now Black has less of a chance to invade the area around A. The door of opportunity is slowly closing.]
;B[gf];W[ge]SQ[gc][gd]C[REVIEWER: might be worth for Black to sacrafice the two markes stones in exchange for being able to poke into White area more... see variation.]

(;B[hg]SQ[fc][fd][fe][ff][fg][fh]C[REVIEWER: this move is OK but allows White to solidify his marked wall which secures the territory on the left-upper side. Black hasn't gained anything except for security of some of the stones that are in contact with that wall.]
;W[ff];B[hf];W[gh];B[hh];W[hi]C[sklx: the opponent continues on building a nice thick walls. and i absolutely don't know what to do with it.]
;B[gj]C[REVIEWER: Nice move.]
(;W[hj];B[hk];W[hl];B[gl];W[hm];B[ik];W[fl];B[gk]
(;W[gi]C[REVIEWER: White wasted a move - this move doesn't protect anything. White's stones are already safe.]
;B[fk];W[ek]
(;B[ii]C[REVIEWER: Black cannot cut the bamboo joint. White responds, stays safe and gains sente. Bad for Black. See variation.]
;W[ij];B[ih];W[fj]C[sklx: starting from here i try to expand as much as possible into opponent's territory

REVIEWER: good idea. White has terrible shape with 4 sente cutting points. It is good to utlize those weak points as Black did.]
;B[ej];W[fi];B[el];W[dk];B[fm];W[dl]
(;B[gn]SQ[dk][dl][dm][dn][do][dp][dq]C[REVIEWER: Going after those 3 stones now will gain maybe 6 points, right? If Black allows White to solidify the marked wall, behind it sits about 20 points or more. If Black can continue reducing White territory in sente, he should do that first.]
;W[em]LB[hn:B][fp:C][hp:A]C[REVIEWER: White wisely decides to forget about this 3 stones for now... they might come handy later. If White can get a move at A, that threatens to resque the 3 stones. So Black might respond at B. Then White can play at C and secure 4-th line territory at the bottom - big.]

(;B[hn];W[dm]
(;B[im]C[REVIEWER: This move is not necessary. White stones could not have escaped. You need to read those sequences out.]
;W[cg]LB[gq:A]C[REVIEWER: This White area is already secure. Better move for White would be at A to secure some territory at the bottom. Black move at A is also big.]
;B[fb]LB[gq:A]C[REVIEWER: too early for this move. Black also lost sente here. Move at A would be better.]
;W[eb];B[gb];W[bn]LB[eo:A][gp:C][gq:B]C[REVIEWER: Very strange move. Never play on second line unless you are in end-game or you are forced to do so. White would be better off playing at A or B or even C.]
;B[ea];W[da];B[fa];W[dc];B[fo]LB[eo:C][fp:A][gq:B]C[REVIEWER: Black could go deeper. Very safe to go at A, B or C.]
;W[gq]C[REVIEWER: Good move by White - secures lower territory at least a little bit.]

(;B[hp]LB[do:A][hp:B]C[REVIEWER: This is a gote move. Beter to try to jump in at A and force White to defend its territory first. Move at B only secured 2 points or so. See variation.]
;W[fr]LB[do:B][hq:A]C[REVIEWER: White is not forced to play on second line - this move is too slow. Better move would be at A or B.]
;B[hq];W[hr];B[iq]LB[do:A][iq:B]C[REVIEWER: Move at A is still bigger for Black. Move at B isonly worth 1 point.]
;W[ir]LB[do:A]C[REVIEWER: Also worth only 1 point. Move at A is worth at least 5 I think.]

(;B[ep]C[REVIEWER: Black can go deeper into the left side althought he result differs only by 1 point or so. See variation.]
;W[dp];B[do];W[co];B[dn];W[cn];B[en];W[eq];B[fp];W[fq]LB[si:A]
C[REVIEWER: Another unnecessary move. It is worth exactly 1 point. The monkey-jump at A is worth 9 and it keeps sente.]
;B[rk]C[REVIEWER: yes, the biggest move on the board at this point.]
;W[sl];B[sk];W[ql];B[gp];W[ei]C[REVIEWER: unnecessary.]
(;B[hd]C[REVIEWER: Not needed. You should read it out. See variation.]
;W[tt];B[fl];W[tt];B[tt]TW[aa][ba][ca][ab][bb][cb][db][ac][cc]
[ec][ad][bd][dd][ed][ae][be][ce][de][ee][af][bf][cf][df][ef]
[ag][bg][dg][eg][fg][ah][bh][ch][dh][eh][fh][ai][bi][ci][di]
[aj][bj][dj][ej][ak][bk][ck][al][bl][cl][am][bm][cm][rm][sm]
[an][pn][qn][sn][ao][bo][oo][po][ro][so][ap][bp][cp][pp][rp]
[sp][aq][bq][cq][nq][oq][pq][rq][sq][ar][br][dr][er][gr][qr]
[rr][sr][as][bs][cs][ds][es][fs][gs][hs][is][js][ks][ls][ms]
[ns][os][ps][qs][rs][ss]TB[ga][ha][ia][ja][ka][la][ma][na][oa]
[pa][qa][ra][sa][hb][ib][jb][kb][lb][mb][nb][ob][pb][qb][rb]
[sb][hc][ic][kc][lc][mc][nc][oc][pc][rc][sc][id][jd][kd][ld]
[md][nd][od][qd][rd][sd][ie][je][ke][le][me][ne][oe][pe][qe]
[re][se][if][jf][lf][mf][nf][of][qf][rf][sf][ig][kg][mg][ng]
[og][pg][qg][rg][sg][lh][oh][ph][qh][rh][sh][ri][si][rj][sj]
[hl][gm][hm][jm][mm][fn][in][jn][kn][ln][eo][go][ho][io][jo]
[ip][kp][lp]C[sklx: although game is finished, it feels like sucessful invasion was possible somewhere around N17.]
)
(;B[fl];W[hd];B[id];W[hc];B[hb];W[ic];B[ib]))
(;B[do];W[co];B[dp];W[cp];B[eq];W[er];B[fp];W[fq];B[ep];W[gp]
;B[go];W[dn]))
(;B[fq]C[REVIEWER: But black can significantly reduce this territory ...]

(;W[fp];B[gp];W[ep];B[hq];W[gr];B[hr];W[fr];B[hp])
(;W[fr];B[eq];W[er];B[gp];W[hq];B[dp];W[cp];B[do]))
(;B[do]
(;W[co];B[dp];W[cp];B[eq];W[er];B[fq];W[fr];B[gp];W[hq];B[hp]
LB[hp:A]C[REVIEWER: Black should push around first. In the end it might still get to make this move at A.]
)
(;W[hp]C[REVIEWER: Black could even ignore this and push hard into white's territory...]

(;B[ho];W[ip];B[io]C[REVIEWER: Black hasn't lost many point here.]
)
(;B[cn];W[cm];B[bo];W[bm];B[bq];W[cp];B[co];W[bp];B[ap];W[br]
;B[fq];W[fr];B[eq];W[er];B[dp];W[cq];B[gp];W[hq];B[ho];W[aq]
;B[ao]))))
(;B[en];W[im];B[in];W[jm];B[jn]C[REVIEWER: Doesn't work for White.]
))
(;B[fn];W[hn];B[ho];W[io];B[hp];W[ip];B[hq];W[iq];B[in]C[REVIEWER: This still captures the White stones plus it reduces the bottom White area.]
;W[jo]C[REVIEWER: ignore...];B[en];W[dm];B[dn];W[cn]C[REVIEWER: .. and keep reducing White]
))
(;B[dm];W[cm];B[dn];W[cn];B[fp]LB[eo:A][hp:B]C[REVIEWER: this is bigger / better for Black - bites more into White's territory on the left and tries to build bigger territory for that center Black group. Black can connect at A or B. This also reduces White's lower side.]
))
(;B[el];W[fm];B[ej];W[dk];B[di];W[ci];B[dh];W[ch]C[REVIEWER: Black should keep pushing in and reducing White's territory as much as possible.]
))
(;W[ei]C[REVIEWER: this would be better - protects upper left corner more.]
))
(;W[hk]C[REVIEWER: .. but this doesn't look good for Black.]
;B[gi];W[hj];B[gk];W[gl]C[.. REVIEWER: Black will have very hard time staying alive. He could use those stones for invasion though ...]
;B[cl];W[ek];B[co]))
(;B[ff];W[hf];B[hg];W[hd];B[if];W[hc];B[id];W[ef];B[fg];W[eg]
;B[fh];W[ic];B[ib];W[gb];B[jd]LB[eh:A]C[REVIEWER: now move at A is big for both sides.]
))
(;B[hp];W[lp];B[kp];W[mo];B[lp]LB[mm:A][ln:B]C[REVIEWER: Black still has 2 eyes at A and B .. not to mention that he can get more eyes as he pushes into White's area.]
))
(;B[hp]
(;W[mo];B[op])
(;W[lm];B[ln])
(;W[ln];B[lm])))
(;B[no]C[REVIEWER: yes, this would have saved them.]))
(;B[mn]C[REVIEWER: Now White has to lose the sente if he wants to save that 1 stone (this is worth very little  .. 4 points perhaps). White should respond to this move until the end-game.]
;W[ml];B[fe]LB[hp:A]C[REVIEWER: Black should try to get sente to make moves like this (or at A).]
))
(;W[gc]LB[hd:A][ge:B]C[REVIEWER: This would be a good move for White now. Good follow-up moves for White later are at A and B.]
))
(;B[hp];W[no];B[mn];W[nn]LB[hn:D][in:C][ln:B][lp:A]C[REVIEWER: Black has one eye at A and can form the second eye at B or even more to the left around C later on if he pushes through and has a chance to play at D.]

(;B[fp]C[REVIEW: Since it is easy to get the second eye, Black should keep pushing through and reduce white's area.]
)
(;B[co]LB[cl:B][hp:A]C[REVIEWER: Or be even more agressive and go in deep... Black Should be able to either connect with A or make base at B.]
;W[cm];B[eo];W[fp]C[REVIEWER: White might not be able to attack the two Black stones very hard. The 2 White stones in the corner are not alive yet.]
;B[fo];W[go];B[gp];W[gn];B[ep];W[fq];B[eq]
(;W[er];B[fr];W[gq];B[gr];W[hq];B[iq];W[hr];B[ir])
(;W[fr];B[er];W[hr];B[bq]))))
(;B[qm]
(;W[pk];B[ql];W[qk];B[rk];W[pj];B[qi])
(;W[qk]C[REVIEWER: Doesn't work for White.];B[pk];W[ql];B[pj]
))
(;B[ql]C[REVIEWER: Can also play here.];W[qm];B[rm];W[rl];B[rn]
;W[rk];B[pj]C[REVIEWER: No extra gain for White. The two White stones are dead.]
))
(;B[kg];W[lj]C[REVIEWER: This is what White is hoping for...]

(;B[lk];W[mi]C[REVIEWER: now White is *inside* and happy about it.]
)
(;B[mi]C[REVIEWER: now White has to caputure the two stones..]

(;W[lk];B[ml]
(;W[mj];B[nj];W[ni];B[mh];W[nk];B[oj];W[mk];B[ok];W[nl];B[ol]
;W[nm];B[ho]C[REVIEWER: This is not great for Black of course but at least it saved the top right corner. Black can still win the game if it manages to reduce / invade White's side.]
)
(;W[nj];B[mj];W[mk];B[nk];W[ni];B[mh];W[nl];B[ok];W[mm];B[lm]
;W[ln];B[km];W[kn];B[jm]C[REVIEWER: Doesn't work well for White.]
))
(;W[mj]C[REVIEWER: If it decides to keep going in, Black will cut it off.]
;B[km];W[ni];B[mh];W[nh];B[mg];W[nj];B[ok]C[REVIEWER: White will die there.]
))))
(;B[lj]
(;W[jm];B[km];W[ll];B[lm];W[ml];B[im];W[jn];B[in];W[jo];B[io]
C[REVIEWER: Black is Ok because of the strength of the stones at the bottom (that's how you use influence! .. you can move faster)]
)
(;W[km];B[in];W[jn];B[io];W[im];B[jm];W[hm];B[kn]C[REVIEWER: Also doesn't work for White.]
)))
(;W[ki];B[ji];W[kg];B[lh];W[jg];B[lg];W[jj];B[ii];W[kj];B[ij]
;W[jf];B[ke];W[jk];B[ik]SQ[ki][jj][kj][jk]C[REVIEWER: White cannot do much. The marked stones will die and the othe r4 might still be in danger.]
))
(;W[im];B[jm];W[in];B[jn];W[hl];B[ik];W[ip]C[REVIEWER: White got a lot here (too much).]
))
(;B[im]C[REVIEWER: Black can be more agressive / blocking because he is so strong at the bottom.]
;W[in];B[jn];W[hn];B[hp]C[REVIEWER: Black jumps in to White's moyo.]

(;W[il];B[jl];W[hl];B[je])
(;W[jl];B[kl];W[jm];B[km];W[jk];B[jj];W[ik];B[ij];W[hk];B[je]
C[REVIEWER: Black should still be happy with this. Massive half-board moyo :)]
)))
(;W[je]LB[lc:A]C[REVIEWER: this might be a good spot to start reduction of Black's influence / terriorry. Or White might just jump in at A and run out to center trying to make eyes while reducing Black's incfluence. That might be too agressive for White though and he might not get what he wants. Black will be in control.]
))
(;B[ck];W[qc]
(;B[pc];W[qd];B[qe];W[pb];B[ob];W[qb];B[nc];W[re];B[rf];W[rd]
;B[hp]C[REVIEWER: White got few points in the top right corner (5 points or so) but Black got Sante .. which this early in the game is very important and worth a ton of points.]
;W[cm];B[ch];W[gc];B[je]C[REVIEWER: At this point in the game Black would be significantly ahead.]
)
(;B[qd];W[pc];B[oc];W[ob];B[nc];W[rd];B[re];W[rc];B[nb];W[pb]
CR[jc][qj]C[REVIEWER: Similar result for both sides because of the two marked stones being on the same spot.]
)))
(;W[ck]C[REVIEWER: This work great for White because it acts as a dual-purpose move: it is an extension for both left-side corners. Might make sense to prevent White from getting this.]
))
(;B[ck]
(;W[cm];B[ch];W[jd]C[REVIEWER: White takes the other big side.]
)
(;W[ch];B[cn];W[jd]C[REVIEWER: White takes the other big side here as well.]
)))
(;W[ks]C[REVIWER: This connects the white stones. The move in the real game does not. But it is too early to think about connecting those two stones with the corner on the right.]
)
(;W[ip];B[jo];W[gp]C[REVIEWER: This builds some territory for White.]
))
(;B[jo]C[REVIEWER: Black can move faster here and assume White is dead.]
;W[ko];B[kn];W[lo];B[ln]C[REVIEWER: White has nowhere to run to.]
))
(;B[mp]
(;W[oq];B[op]C[REVIEWER: White cannot poke through.])
(;W[op];B[oq];W[no];B[mo]C[REVIEWER: If White decided to commit tactical suicide this way, Black could chase it all the way to the center of the board and make awesome territory on the right side and also great center-board influence.]
)))
(;B[or]C[REVIEWER: If White wants to live, he has to protect that stone...]
;W[qr];B[nq]LB[nr:A][or:B]C[REVIEW: this way Black accomplishes the same objective (enclosing White in the corner and taking the influence. In the real game White ended up having stones all the way up to A and could still keep going.]
))
(;B[qo]SQ[qk][rk][ql][rl][qm][rm][qn][rn]C[REVIEWER: This would be my action if I played Black. Feels good to try to isolate White into a tight corner and take the influence on the outside. plus some territory around the marked points.]
;W[pr];B[or];W[qr];B[nq];W[ro];B[rn];W[rp]LB[po:A][qo:B][qp:C]
C[REVIEWER: Black allowed White to take the corner (it wasn't Black's yet because Black used shimari at A. Shimari at B would have enclosed the conver and made White's move at C much less fun for White).]

(;B[qm]C[REVIEWER: Black could solidify there (some players prefer this type of solid style) but it would allow White to start reducing the influence of the Black wall with sente...]
;W[kq];B[kp];W[lq];B[lp];W[ip];B[jn];W[oj]C[REVIEWER: Key is to not allow White to make big reduction moves like this.]
)
(;B[kq]
(;W[iq];B[jn]C[REVIEWER: This is great moyo build-up for Black.]
)
(;W[qn];B[qm];W[pn];B[rm]C[REVIEWER: Even if White tires this, it will have very hard time running away from Black's thickness on both sides.]
;W[pm];B[pl])))
(;B[qr]LB[qj:A]C[REVIEWER: Black can also block from this side but it pushes White into what Black might hope to be his territory around A.]
;W[rr];B[pr];W[qo];B[qn];W[rn];B[qm];W[rm];B[rs];W[sr];B[rl]
;W[sp]C[REVIEWER: still not a bad result for Black. White only gain few points from this.]
;B[kq];W[iq];B[kp]))
(;B[kq]
(;W[iq];B[lp];W[qo];B[qm];W[oo];B[np]C[REVIEWER: Black ends up with a very strong shape at the bottom while White still has to run to the center for life.]
;W[rq];B[qr];W[nn]C[REVIEWER: White will be under a lot of pressure to get two eyes. Black will enjoy building a ton of territory on the right side.]
;B[om];W[mm];B[nk];W[km];B[in];W[lk];B[mi];W[mo];B[mp];W[ko]
;B[kp])
(;W[kp]C[REVIEWER: Bit too early for a cross-cut. White does not have enough support stones near-by.]
;B[lq]
(;W[ko];B[iq];W[jr];B[ir];W[kr];B[lr];W[ip];B[jo];W[jn];B[io]
C[REVIEWER: White ends up terrible here as well.];W[hp];B[hn]
)
(;W[ip];B[jo]
(;W[iq];B[lo]C[REVIEWER: Now the Black corner in the lower right got even more promising...]
)
(;W[io];B[iq]
(;W[jr];B[ir];W[kr];B[lr];W[ko];B[jn]C[REVIEWER: Terrible for white.]
)
(;W[jn];B[ko];W[kn];B[lo];W[hq];B[ir];W[hr];B[jr];W[hn]C[REVIEWER: Best White can do I think, BUT .. it is Black's move and he will not allow White to have all this territory on the left...]
;B[cm])))
(;W[jo];B[ip]SQ[jp]C[REVIEWER: White does not yet have enough support on the left to try to capture these two black stones.]
))))
(;B[ec];W[ed];B[fd];W[ee];B[dc];W[cc];B[jc]LB[jc:A][nc:C][pd:B]
C[The stones at A and B work well together. If White was now to come in at C, Black would have easy time pushing White around and making territory while doing so.]
))
