(;FF[4]GM[1]SZ[19]ST[2]CA[UTF-8]AP[SGFC:1.15]

PB[Blee25]
BR[18k]
PW[Dushan]
WR[11k]
KM[6.5]
DT[2009-07-30]
PC[The KGS Go Server at http://www.gokgs.com/]
RE[W+32.50]
TM[1800]
OT[5x30 byo-yomi]
RU[Japanese]

C[Hi my name is Brett Lee and I played black in this game. As you can see the player is an 11k ans 7 ranks higher than me. Due to this i think i played a little scared. I lost by 32.5 but i think for my rank this is ok. I really want to become stronger a high dan by the end of the year. I would like to use this game as a stepping stone on my way to becoming stronger. Thank you so much for reviewing this game. You can email me at usfgoclub@gmail.com for any questions Have a great day Thank you

Mark: Hi Brett!  My name is Mark Schlatter (mschlat on KGS and DGS).  I'm about 7 kyu and I'll try to help you with your questions and point out where you can improve.  My focus will be on larger concepts when possible, since that's where I believe most players can improve the most.]
;B[qd];W[dp];B[pq];W[dc];B[ce]LB[oc:A][qo:B]C[Mark: An aggressive start for you --- rather than deciding to finish off a corner (say at A or B), you decide to go for an opponent's corner.]
;W[fd];B[ch];W[cm]
(;B[ck]C[I was worried that this was a bad shape but he let me play it fairly well. is there a better way?

Mark: My concern is that you now have "thin next to thin" --- that is, two two-space jumps next to each other.  This group probably won't die, but it can be reduced easily and face pressure from the white groups on the side.  See the variation.]
;W[nc]
(;B[oc]LB[lc:B][qg:A]C[Is this a bad move? what other variations are there?

Mark: Let's talk general moves first, then some specifics.  When your corner is approached, you typically have three options: extend (around A), pinch (around B), or attach (your move).  You typically only attach if you are able to put pressure on the white stone.  (Note that attaching violates the proverb "Never touch a weak stone".)  The variation shows a great time to attach.  Typically, I look at extending or pinching first.

However, in this case, your opponent has used an uncommon appproach.  The variations shows some possibilities that are also uncommon (but useful moves).]
;W[nd];B[od];W[jd]C[Mark: Here your attaching has helped white build a wall, and white gladly extends from it.]
;B[og]LB[ph:B][qh:A][qo:C]SQ[od][pd][qd]C[Mark: I see what I think you're doing here (extending from the top right).  However, since the right side isn't secured yet, I wouldn't play so high.  Since the wall is three points high (where we start counting from the third line), a good extension is three points away.  A is more secure, while B emphasizes the center more.

Note that I don't think this is the biggest move.  You already have a safe group in the top right, so I would probably play to secure the bottom right (C).]
;W[df]C[Mark: So here white starts reducing and flattening you out.  It's a frustrating place to be.]

(;B[cf]C[Mark: I've included some variations on how else to play besides the submission here --- note that all of them will probably lead to fighting.]
;W[dg];B[cc]C[i think this is a good move but was it too dangerous?

Mark: Yes!  No, not too dangerous (and as we've seen before) highly recommended.]
;W[dd]
(;B[cd]C[Mark: I explore in the variations whether you need to answer here --- I believe you do.]
;W[cj]
(;B[bj];W[ci];B[bi];W[dh];B[bg]LB[cg:A]C[Mark: Here just make the strong move at A.  I don't see any reason to let white have the forcing move at C13.]
;W[dk];B[dj]C[this was bad and started  my fall in the game.

Mark: No, this is a reasonable sacrifice.  While I'm still not sure this is the biggest area (what about the bottom right?), it's clear that white is building a large top and center.  Playing somewhere in there is a good idea.]
;W[di];B[dl];W[ek]
(;B[bl]C[Mark: This is the mistake --- connect at C8.];W[cl]
;B[bk];W[em];B[bm]C[Mark: This is not a huge move for black (not as big as the bottom right, bottom left, right side, or center) and doesn't help secure your left group (which is already safe).  Moreover, white responds by building a larger wall.]
;W[cn];B[fq]C[Mark: A difficult choice here.  I would have still emphasized the right hand side.]
;W[hq]C[Mark: And here's the pinch!];B[fo]C[Mark: Good!];W[ho]

(;B[hm]LB[gn:A]C[this was probably wrong but i can not see why. How should i have handeled it?

Mark: This has an easy cutting point at A.  The variations have some ideas.]
;W[gn];B[dq];W[eq]
(;B[cr]C[this is what killed the group i believe.

Mark: Well, I'm not sure what you want this move to do.  You do need to decide which stones are most important here, since your focus shifts from corner to center over the next few moves.  I've tried some variations to see how the atari at E2 (my preferred move) does.]
;W[er];B[cp];W[do];B[ep];W[fr];B[co];W[eo];B[hk]LB[hm:A]C[Mark: Note that your stone at A is not really crucial to the game now.  It might be used later to reduce the territory in the center, but I don't think there's a need to save it now.  Especially since you can save your group in the bottom left by connecting at B6.]
;W[bo];B[bp];W[bn]
(;B[ao];W[ap];B[aq];W[an];B[ap];W[dr];B[ds];W[es];B[cs];W[br]
C[now there dead.

Mark: If you realize this in the game, it's time to abandon the group (that is, don't make moves like 69).]
;B[cq];W[fp];B[mq]C[Mark: Okay, good --- you've returned to the biggest area of the board (the bottom right).  However, you're extending towards a side where white already has a living group.  I'd play to emphasize the right hand side more (maybe Q5?).]
;W[kq];B[dn]C[Mark: But now you change focus from the bottom right and right hand side.  Moreover, while white has few liberties, they have an easy response to this move.]
;W[dm];B[ko]LB[pn:A]C[Mark: Side is larger than center --- a play around A is huge!]
;W[lp]LB[lo:B][mo:A]C[Mark: Moreover, as you see here, your new stone isn't connected to your base at the bottom. 

If you feel you need to play in this area, moves at A (the one space jump) or B (the knight's move) are safer.]
;B[mp];W[lo]TR[hk][hm][ko]C[i lost a lot of moyo here i was scared nd didnt protect my group well.

Mark: Technically, you don't yet have a group to protect yet --- the three marked stones are just stones, and all of them except L5 have some running room.  

This is a great opportunity to take more of the right hand side.]

(;B[ln];W[mo]C[Mark: See how your efforts to protect L5 start affecting your corner enclosure?  You lose more than you gain here.]
;B[kr]C[Mark: You end up losing this stone.....];W[lr];B[mr]
;W[jr];B[ls];W[ks];B[ms];W[oo]SQ[nr][or][pr][ns][os][ps]C[Mark: .... and white makes the move you wanted to make.  You gained some security in the bottom right (the marked stones), but white can now harass you from above.  During all of this, this group wants to extend along the right hand side.]
;B[po];W[oq];B[or];W[np]
(;B[nq]C[Mark: I don't think you need to respond immediately here --- see the variations.]
;W[op];B[pp];W[ns];B[nr];W[lq];B[pr]
(;W[on]C[why didnt he cut here?

Mark: Well, let's look at the variation.....];B[pn];W[om];B[pm]
;W[jm];B[jl]LB[ne:B][ol:A]C[Mark: Okay, this is a good practice --- for defense, attach to a strong stone.  But is this the biggest move?  I like the hanes at A and B (which emphasize the side).]
;W[km];B[ll]LB[ji:B][kl:A]C[Mark: As shown in the variation, I'm not comfortable with this jump.  I'd rather see a strong move at A or a light move around B.]

(;W[lm];B[mm];W[ml];B[mk];W[nl];B[pk];W[nj];B[ne];W[me];B[mf]
;W[nf];B[oe];W[lf];B[mg];W[ld];B[nb]C[Mark: I think it's too early for this move --- better saved for endgame.  Morevoer, you've changed focus from the center stones to the edge.]
;W[mb];B[mc]C[Mark: And as you see, this does not work.];W[md]
;B[lb];W[ma]
(;B[la];W[lc];B[na]C[Mark: No --- this is just a move that means you have to come back and protect these two stones.  Much better just to connect at P18.]
;W[mc];B[ob];W[kb]C[Mark: I believe white wastes a move here --- there's no way I see to make these stones live.]

(;B[kg]TR[lf]SQ[mg]C[Mark: Okay, I see a pattern here --- you make moves that can be cut by the opponent's next move.  It happens here, move 107, move 75, move 43, and move 33.  Look carefully when you make two diagonal jumps or a one space jump next to an adjacent white stone.

If you want to extend into the center to save the middle stones, check the variations.]
;W[lg];B[lh];W[mh];B[ng];W[mi];B[kf];W[le];B[kh];W[ke];B[lj]
LB[gg:B][gh:A]C[Mark: My instincts are telling me to extend from the wall black just built --- something like A or B.]
;W[kl]
(;B[kk];W[jk]
(;B[il];W[jj]C[these are all dead how could i have saved them?

Mark: You want you focus to be on saving some stones by sacrificing all of them --- if you try to save all, you lose all.  See the variation for more ideas.]

(;B[kj]TR[lj][kk]C[Mark: If you don't know the "empty triangle" proverb, it's time to learn --- always avoid this shape (unless of course the triangle is "full" with a stone at M9).  Also, this does not form an eye.]
;W[hj];B[ij];W[ii];B[ik];W[ji];B[hi];W[hh];B[gj]
(;W[jg];B[gh];W[hg];B[gg]
(;W[jf]
(;B[jh];W[ih]
(;B[hf]
(;W[if];B[ki];W[ig]
(;B[ie];W[je]
(;B[ge];W[id];B[he]
(;W[gd];B[fe];W[ee];B[ff];W[fi];B[gi];W[fj];B[fk]
(;W[fg];B[gl];W[fl];B[gk];W[gm];B[im]C[I saved all these and took away a lot of his territory. I was happy with this invasion but wish i didnt lose all the stones to the right of it.

Mark: You do a great job in tight circumstances, but note that white did have more effective moves available.  As I mentioned before, you can't save them all :-)

More seriously, some of your issues arise from playing too much in the center and not focusing on the side.  The three stones you saved were stones I'd give up if I could keep the large moyo on the right.]
;W[jn];B[ni];W[oi];B[nh];W[mj];B[oj];W[ok];B[pj];W[pl];B[ql]
;W[ol];B[qk];W[in];B[ef];W[eg];B[de];W[ed];B[hd];W[hc];B[gf]
;W[ib];B[db];W[eb];B[cb];W[da];B[ca];W[ea]C[minhanh [12k\]: f17

Mark: Just checking --- I don't see F17 working.]
(;B[hn];W[io];B[am];W[fh];B[bs]C[desa [4k\]: b win];W[ar]C[Blee25 [18k\]: ok it is lol]
;B[tt];W[tt]TW[fa][ga][ha][ia][ja][ka][la][fb][gb][hb][jb][lb]
[ec][fc][gc][ic][jc][kc][kd][kf][kg][eh][jh][kh][lh][ei][ki]
[li][dj][ej][kj][lj][kk][lk][mk][nk][dl][el][ll][fm][mm][nm]
[dn][en][fn][kn][ln][mn][nn][ao][co][fo][go][jo][ko][no][ap]
[bp][cp][ep][gp][hp][ip][jp][kp][aq][bq][cq][dq][fq][gq][iq]
[jq][cr][gr][hr][ir][kr][as][bs][cs][ds][fs][gs][hs][is][js]
TB[aa][ba][oa][pa][qa][ra][sa][ab][bb][pb][qb][rb][sb][ac][bc]
[pc][qc][rc][sc][ad][bd][pd][rd][sd][ae][be][pe][qe][re][se]
[af][bf][nf][of][pf][qf][rf][sf][ag][pg][qg][rg][sg][ah][bh]
[oh][ph][qh][rh][sh][ai][oi][pi][qi][ri][si][aj][hj][qj][rj]
[sj][ak][rk][sk][al][hl][rl][sl][qm][rm][sm][qn][rn][sn][qo]
[ro][so][qp][rp][sp][qq][rq][sq][qr][rr][sr][ns][os][ps][qs]
[rs][ss]C[Thank you once again for the review I hope i didnt cause you too much trouble. i know my moves can be shallow sometimes.

Mark: No trouble at all!  Having a game reviewed is a great idea, and I hoped I helped.  Let me make some general comments.

1) I mentioned before the "cuttable moves" --- take a look at those and make sure you understand why white can cut easily.  Then, try to take those moves out of your play (unless, of course, you intend to sacrifice the stones).

2) Focus on corner first, then side, then center.  Your early moves in the center cost you when you had much easier (and more profitable) moves on the right hand side.

3) Look to get corner and side groups "out" --- that is, give them opportunites to affect the center.  You lost the lower left because you did not connect with the group above.  Your upper left was relatively small because you didn't move to the center.  Unless you are making a severe invasion for points that doesn't affect the health of other groups, you don't want to be "sealed in".

Feel free to ask more questions via email (mschlat@gmail.com) if you have them.]
)
(;B[fc];W[fb]
(;B[gb];W[gc])
(;B[gc];W[gb])))
(;W[gl];B[ej];W[ei]))
(;W[ff];B[gf];W[gk];B[fk];W[gl];B[ej];W[el];B[fi];W[ei];B[fj]

(;W[fl])
(;W[fh];B[fg]
(;W[eh];B[ef]
(;W[fe];B[de];W[ee])
(;W[de];B[fe]))
(;W[ef];B[eh];W[eg]))))
(;B[fk];W[fl];B[gl]))
(;B[je];W[ie];B[he]))
(;W[ig]C[Mark: White has a more solid linkup.]))
(;B[fk];W[gl];B[fl];W[gm];B[el];W[ej];B[fm];W[fn]))
(;B[hf]C[Mark: I think you want the outside move first.]))
(;W[hf]C[Mark: White should extend...]))
(;W[gi]C[Mark: White should press...]))
(;B[nk]TR[mh][mi][nj]C[Mark: Note how we start to isolate the marked stones.]
;W[ok];B[oj]
(;W[oi];B[ol];W[nm])
(;W[ol]
(;B[oi];W[li];B[ki];W[kj];B[ni];W[lk]
(;B[mj])
(;B[nh];W[mj]))
(;B[mj];W[ni];B[oi]))))
(;B[jj]C[Mark: Or sacrifice one stone?];W[il];B[ik];W[hl];B[hh]
))
(;B[jk]SQ[mm][ln][ko]C[Mark: Can you sacrifice the marked stones?  The rest of this variation is just guesswork on my part.]
;W[kk];B[kj];W[jj];B[hh];W[jf];B[ig];W[ik];B[il];W[ij];B[gj]
;W[hj];B[gk];W[fl];B[hf];W[gg];B[gh];W[ii]))
(;B[lh]C[Mark: Diagonal move is much safer.])
(;B[kh]C[Mark: The knight's move is riskier, but you have support in the area.]
))
(;B[lc]C[Mark: I can't save these stones....];W[ob]
(;B[la])
(;B[na];W[oa];B[la];W[jb])
(;B[kd];W[le])))
(;W[kl];B[kk];W[lk];B[mk];W[lj];B[kj];W[li];B[ki];W[ml];B[lm]
;W[il];B[jk];W[im];B[in];W[hl];B[gl];W[hn];B[gm];W[jn];B[jo]
;W[io]))
(;W[pn];B[on]C[Mark: White has one liberty...];W[no];B[om]C[Mark: ... and now the white stone is behind enemy territory.  It might live, but it's tough (and you have the ladder).]
;W[pm];B[pl]
(;W[ol];B[qm])
(;W[ql]
(;B[qk]
(;W[pk];B[ol];W[qm];B[qj])
(;W[ol];B[pk];W[nm];B[qm];W[qn];B[rl];W[rp];B[rr]))
(;B[pk];W[qk];B[qj];W[rj];B[qi];W[qo];B[qp];W[rn];B[ig]C[Mark: Huge moyo for black....]
))))
(;B[qo]
(;W[nr];B[nq];W[op];B[pr])
(;W[nq];B[nr];W[pr];B[qr];W[pp];B[qq];W[qp];B[rp];W[op];B[on]
)))
(;B[mo];W[mn];B[ln];W[kn];B[nn];W[mm];B[nm]C[Mark: That's a large corner!  White will probably invade or reduce, but you are controlling the tempo.]
)
(;B[pn]C[Mark: This looks very secure and may work well with the upper right]
))
(;B[ar]C[Mark: I believe this is the saving move.]
(;W[cq];B[bq];W[cs];B[bs];W[ds];B[ap])
(;W[dr];B[cq];W[br];B[bs])))
(;B[er]
(;W[cq];B[ep];W[dr];B[eq];W[cr];B[cp];W[do];B[bp];W[fn]
(;B[br])
(;B[gr]
(;W[gq];B[hr])
(;W[hr];B[gq];W[fs];B[gs];W[es];B[bq];W[br];B[ar];W[bs];B[fr]
;W[ds];B[aq])))
(;W[ep];B[cq];W[dr];B[fr];W[cr];B[bq];W[fp];B[br]))
(;B[cp];W[cq];B[bq];W[cr];B[do];W[ep];B[co];W[bn];B[eo];W[fn]
;B[dr];W[er];B[br];W[ds];B[fr];W[fp];B[gp];W[go];B[gq]))
(;B[gn]C[Mark: Just run with a solid connection.])
(;B[fm]C[Mark: Attaching to a strong stone is a good idea.]
;W[fl];B[gm];W[hm];B[gl];W[gk];B[hl];W[im];B[ik])
(;B[dr]C[Mark: Keep in mind that you have this move to the corner, but it's best done after you have escaped to the center.  (Shygost's proverb: "Run before living!")]
;W[cq];B[cr]))
(;B[cl]C[Mark: Now your left group is not sealed in.]))
(;B[dj]C[Mark: I think taking the hane on the outside gives you more options to move this group to the center.]
;W[bk];B[bj];W[bi];B[ci];W[aj];B[cj];W[bl]))
(;B[cb];W[cd];B[bd]
(;W[bc];B[bb];W[be];B[ac];W[bf];B[cg])
(;W[be]
(;B[bc];W[cg];B[bf];W[bg];B[ae]LB[fa:A]C[Mark: You get a small corner, but risk the middle left.]
)
(;B[bf];W[bc];B[ae];W[bb]C[Mark: And now you've lost the corner.]
)))
(;B[db];W[cd];B[bd]C[Mark: Too many cuts.];W[cb];B[bb];W[bc]
;B[ac];W[cc]))
(;B[de]
(;W[cf];B[ee];W[ef];B[fe];W[ff];B[ge])
(;W[ee];B[cf];W[ef];B[cc];W[cb];B[dd];W[ec];B[bc])))
(;AB[jc][pd]AE[qd]C[Mark: I've moved stones around here to show a more common joseki.  Note that black has help with the stone at K17.]
;B[oc]C[Mark: A great time to attach!];W[nd];B[pf];W[lc];B[je]
C[Mark: Black now has more influence in the corner and is pressuring the dense white group.]
)
(;B[pc]C[Mark: You can just take the corner.])
(;B[od]C[Mark: This is close to attaching, but not as dangerous.  Here you threaten to take the corner or emphasize the right hand side.]
))
(;B[cc]C[Mark: Kogo's joseki dictionary suggests this move --- it's a good run into the corner.]
;W[cb];B[dd];W[ec];B[bc]C[Mark: Notice that you now have good eyespace and White now needs a move around the middle top to secure his group.]
))
