(;FF[4]GM[1]SZ[19]ST[2]CA[UTF-8]AP[SGFC:1.15]

PB[vinhan]
BR[1d]
PW[starbow]
WR[2d]
KM[0.5]
DT[2009-08-21]
PC[The KGS Go Server at http://www.gokgs.com/]
RE[W+13.50]
TM[1500]
OT[5x30 byo-yomi]
RU[Japanese]

C[forfun (hereafter "ff") - Thanks for presenting us with an interesting game for analysis.  In this game Black never seemed to be able to get traction and lead the way.  Early on White gained the initiative and did not let go.  This is an unfortunate but frequent occurance for all of us when we face stronger players.  Our opponents have a nasty tendency to demonstrate a slightly better understanding of the situation on the board and use that to turn aside what we think are our best punches! :-)

In order to improve our games, however, it is of little use admiring our opponents' plays.  Rather we have to dig into our own and consider where and how we should have played better. Let's see what that means in this game...]
;B[dp];W[pq]
(;B[qd]C[ff - If we compare this game against the pros, we can see that this is a rare (but not unknown) choice at the professional level.  Playing in the upper right is one common idea.  However, the most frequent choice is Q17, the so-called "opposing komoku".   See the variations.]
;W[dd]
(;B[cf]C[ff - Fundamentally, a stone on 4-4 finishes the corner in one play.  It is stable and symmetrical.  In contrast, a stone on 3-4 only half finishes the corner.  It is asymmetrical and the next play in the corner is very important for determining who gets the most value in the area.

In this situation, the upper left and lower left are less urgent than the upper right and lower right.  Either continuing against the bottom right or enclosing the upper right would be more typical ideas.

If Black plays against the upper left, the play at F17 would build a connection to the "hot" corner in the upper right.  The play at C14 should be used only as a probe.  See the variations...]
;W[fc]
(;B[bd]C[ff - Years ago Black could count on White answering this play at C17 most of the time.  Modern go is different.]

(;W[cg]C[ff - This is unusual.  Normally White attaches here when the bottom left corner is a White stone.]

(;B[df]C[ff - This should be at D13. D14 is too conservative. See the variations.]
;W[bf];B[cc];W[dc];B[be];W[bh];B[dg];W[ci];B[af];W[bg];B[ce]
;W[ic]
(;B[oc]C[ff - This is the wrong direction.  Once White plays at J17, the top becomes uninteresting. The urgent question now is on the left side. Black should attack the White stones. See the variations]
;W[cn]C[ff - White is very happy to get the opportunity to play first on the left side.]

(;B[cp]C[ff - A very tough play but it assumes that Black can profitably invade the left side.  This is not likely here. See the variation.]
;W[fq]C[ff - Now Black's corner stones may become threatened.]
;B[cl];W[en]
(;B[fp]C[ff - Black can not decide which side to play on and goes back and forth.]
;W[dk]
(;B[bn];W[bo];B[co];W[bm];B[dn];W[cm]
(;B[dm]C[ff - This gives up the left side.  See the variation...]
;W[dl]
(;B[bl]C[ff - Black plays this and seals off the corner.  However, White gets to play the atari at E7 along the way. This does not look good for Black.]
;W[an];B[al];W[em]C[ff - Ouch, that hurts! :-)];B[do];W[am]

(;B[ap];W[bp];B[bq];W[bk];B[aq];W[ck];B[gq];W[qo];B[qj];W[mc]
;B[nq];W[ql]
(;B[oj]C[ff - This looks "normal".  But is it?  Where is Black's next play going to be that will make good use of this stone?  

On the upper side, Black looks at invading at L17.  In that case if White and Black move out into the center together, White has an easy invasion of the right because the gap between R10 and R16 is too wide.

On the bottom right, there is no interesting invasion point that will make use of P10.  Black needs a different plan here.  See the variations...]
;W[rd]C[ff - Good timing.]
(;B[re]C[ff - This seems like one way to reply.  See the variation also.]
;W[qe]
(;B[rf]C[ff - A passive response.  Can Black afford to play this low (and slow) stone? See the variations.]

(;W[qh]C[ff - Undoubtedly White played S16 expecting to play this invasion.  However, Q16 looks like the better way to punish Black S14 here.  See the variation...]
;B[pd];W[rj]
(;B[rk]C[ff - The exchange that results here seems to leave White in the lead. White's original position in the lower right is low. It is not so interesting for Black to try to push into it with an even lower group.

This seems like a key point in the game. Black should target to build the bottom on a large scale. See the variation.]
;W[qk];B[ri];W[pj];B[qi];W[pi]
(;B[sj]C[ff - This is a classic bad play.  Black captures before White threatens anything. As a result, White never plays S12 and Black falls behind.  Black takes a few points on the second line while White builds a wall on the outside that decides the game. See the variations.]
;W[oh];B[rl];W[qm]
(;B[ro]C[ff - This seems off the mark.  In the game, Black attaches at R3 next.  What would happen if Black played there directly without exchanging S5 for S6?]
;W[rn]C[ff - This stone gives White the placement at T8.  As a result, S12 may become a forcing move if there is later fighting in the upper right.]
;B[qq]
(;W[qp]C[ See the variations.];B[pr];W[qr];B[or];W[rq];B[kp]
;W[no]C[ff - Unfortunately this threatens to invade the lower side while starting to build center territory.]
;B[kc];W[ob];B[pb];W[me]
(;B[pg]C[ff - Black can not turn aside like this.  The stone at L17 absolutely has to escape if there is to be any hope in the game.]
;W[og]C[ff - White demonstrates a better grasp of the whole-board situation than Black.]

(;B[ph]C[ff - Black decides to take one stone in gote.  Effectively the game ends here :-)]
;W[pf];B[qg];W[hq];B[gr];W[lq];B[lp];W[kq]
(;B[mp]C[ff - It seems Black has to let the invaders escape.  See the variations...]
;W[jp];B[jo];W[ip];B[ln];W[hn];B[mr];W[ll];B[oi];W[pk];B[mi]
;W[ki];B[nf];W[mh];B[lh];W[mg];B[li];W[kf];B[lg];W[mf];B[ml]
;W[cb];B[bb];W[cd];B[bc];W[db];B[ba];W[jn];B[lk];W[if];B[mb]
;W[nb];B[nc];W[lb];B[md];W[lc];B[ld];W[kd];B[ke];W[jd];B[le]
;W[lf];B[je];W[ie];B[jf];W[jg];B[nd];W[kg];B[kh];W[jh]
(;B[ma]C[ff - Was this to save time?  It is not good yose.  After M19, White can hane at Q19 in sente.]
;W[la];B[kj];W[gp];B[eq];W[ff];B[eh];W[gh];B[ae];W[fo];B[fr]
;W[fj];B[el];W[fl];B[on]C[ff - This looks like an overplay.  In the game, White answers safely but...]

(;W[op];B[kl];W[ji];B[go]C[ff- It looks like Black is too optimistic here...]
;W[hp];B[eo]
(;W[gn]C[ff - If White just connects, what can Black do?...]
;B[fn];W[fm];B[jr];W[jq];B[ir];W[ik];B[il];W[hl];B[im];W[jk]
;B[in]
(;W[ko]C[ff - Black gets lucky here too...];B[io];W[ho];B[jl]
;W[ne];B[pe];W[of];B[fi];W[gi];B[ej];W[ek];B[ee];W[fe];B[ed]
;W[fd];B[ec];W[eb];B[ca];W[qf];B[rh];W[hr];B[hs];W[kr];B[nn]
;W[nl];B[nk];W[mo];B[lo];W[mm]
(;B[mn];W[mk];B[kk];W[nj];B[ni];W[ok];B[da];W[ea];B[fg];W[gg]
;B[dj];W[fh];B[dh];W[ks];B[gs];W[na];B[pa];W[fo];B[cj];W[bj]
;B[oo];W[np];B[oq];W[pp];B[mq];W[nh]
(;B[lj];W[lm];B[km];W[nm];B[rm];W[sm];B[sl];W[sn];B[pn];W[qn]
;B[jj];W[ij];B[oa];W[kb];B[ag];W[ak];B[ah];W[ai];B[ch];W[bi]
;B[ao];W[bn];B[oe];W[om];B[pm];W[pl];B[hm];W[gm];B[de];W[fb]
;B[ei];W[eg];B[gj];W[fk];B[hk];W[hj];B[gl];W[gk];B[hl];W[mj]
;B[qs];W[rs];B[ps];W[ms];B[ns];W[ls];B[ef];W[fg];B[is];W[tt]
;B[tt]TW[fa][ga][ha][ia][ja][ka][ma][gb][hb][ib][jb][mb][gc]
[hc][jc][kc][gd][hd][id][ge][he][gf][hf][nf][hg][ig][ng][hh]
[ih][hi][ii][aj][gj][nk][al][bl][cl][el][ml][ol][fn][go][ro]
[so][rp][sp][qq][sq][rr][sr][ss]TB[aa][qa][ra][sa][ab][qb][rb]
[sb][ac][pc][qc][rc][sc][ad][od][rd][sd][se][sf][rg][sg][qh]
[sh][si][rj][sk][jm][jn][kn][ko][ep][cq][dq][fq][ar][br][cr]
[dr][er][nr][as][bs][cs][ds][es][fs][os]C[starbow [2d\]: ty
vinhan [1d\]: thank
vinhan [1d\]: T.T])
(;B[lm]C[vinhan [1d\]: noooo
vinhan [1d\]: miss]))
(;B[lm];W[mn];B[ol];W[nm];B[ok];W[om];B[da];W[ea]))
(;W[io]C[ff - It seems Black has no good reply...];B[ko];W[jl]
;B[jm];W[km];B[kn];W[kk]C[ff - This looks worse than the game for Black.]
))
(;W[fn];B[gn];W[ek]
(;B[hm];W[gm];B[in];W[im];B[ho];W[io])
(;B[gm];W[hm];B[gl];W[hl];B[gk];W[ij])))
(;W[nn]C[ff - It looks like this would have put Black on the spot...]
;B[oo];W[om];B[nm];W[op]))
(;B[oa]))
(;B[jq]C[ff - Unfortunately it does not seem that Black can resist here!]

(;W[jr]
(;B[iq];W[mq];B[mp];W[mr]
(;B[np];W[nr];B[oq];W[ir];B[hr];W[ks])
(;B[nr];W[np];B[ir];W[kr];B[ls];W[ms];B[js];W[ps];B[ks];W[oq]
))
(;B[jp];W[mq];B[mp];W[mr]
(;B[np];W[nr];B[oq];W[ir];B[hp];W[ks])
(;B[ir];W[np];B[nr];W[kr];B[ls];W[ms];B[js];W[oq];B[ks];W[ps]
;B[is];W[os]))
(;B[ir];W[jp];B[iq];W[mp]))
(;W[mq];B[mp];W[np];B[mr];W[lr];B[ls])))
(;B[ke]C[ff - The only chance. But now the exchange of Q13 for P13 is very unfortunate for Black.]
))
(;B[ke]C[ff - In any case the situation is difficult here for Black.  The stones in the upper left corner have only one eye so far.  Meanwhile the White stones in the upper left are very strong.  Black is weaker here than White but just has to try to fight it out.]
))
(;W[pp]C[ff - What did Black plan to do against this play?]
;B[pr];W[or];B[rr];W[ps];B[qr];W[oq];B[rp]C[ff - Black lives but has made small, low groups everywhere.  It seems unlikely that Black will be able to compete on territory...]

(;W[hq])
(;W[jq])))
(;B[pr]
(;W[qr];B[pp];W[qq];B[po];W[qn];B[fl];W[el];B[gn])
(;W[or]
(;B[oq];W[qr];B[pp];W[qq];B[nr];W[ps];B[po];W[qn];B[fl];W[el]
;B[gn])
(;B[qq];W[pp];B[rr];W[ps];B[qr];W[oq];B[rp];W[ro];B[sq];W[jq]
))))
(;B[ph]C[ff - How about this instead?]
(;W[rh];B[sj]
(;W[sh];B[si]
(;W[sl];B[rl];W[rm]
(;B[qg];W[sm];B[rg];W[sk];B[sg])
(;B[qm]
(;W[pm];B[pk];W[qn];B[oi])
(;W[oi];B[oh];W[ni];B[rn];W[pg];B[og];W[of];B[pf];W[qg];B[nf]
;W[oe];B[mh]
(;W[pe];B[qf];W[rc])
(;W[qf];B[pe])
(;W[ne]
(;B[pe])
(;B[mf])))))
(;W[pg];B[oh]
(;W[qf];B[og];W[of];B[nf];W[oe];B[ne];W[od];B[pe];W[pf]
(;B[qg])
(;B[nd];W[qg];B[rg]))
(;W[qg];B[og];W[of];B[pf];W[qf];B[pe];W[rc];B[sg])))
(;W[pg];B[oh];W[og];B[qg];W[qf];B[rg];W[nh];B[oi];W[pk];B[ng]
))
(;W[pg];B[oh];W[rh];B[sj];W[qf];B[og];W[sh];B[si];W[sl];B[rl]
;W[rm];B[sg];W[qg];B[pe])
(;W[oh];B[pg];W[rh];B[sj];W[sh];B[si];W[sl];B[rl];W[rm];B[qm]
)
(;W[rl];B[oh];W[sk];B[pk])))
(;B[qk]C[ff - If White wants to connect on the second line, Black is willing to let it happen!]
;W[rk];B[pl];W[qm];B[pr];W[qr];B[pp];W[qq];B[pm];W[pn];B[on]
;W[oo];B[po];W[qn];B[no];W[op];B[np];W[oq];B[gn]C[ff - With something like this Black has looked across the full width of the Go board and outplayed White on a strategic level.  Black is back in the game.]
))
(;W[pd]C[ff - White sets out to make Black over concentrated...]
;B[qc];W[pc];B[qb];W[pb];B[pe];W[oe];B[qf];W[of]C[ff - Look at P10 in this position.  Of course it has some value but it is clearly not a 100% play.]
))
(;B[pe]C[ff - More usual...];W[qf];B[rf];W[pd];B[qc];W[pf];B[oe]
;W[rc];B[rb];W[pc];B[qb];W[rg];B[sc];W[qh];B[of];W[rj];B[qk]
C[ff - See the discussion of this in the main line of the game...]
;W[rk];B[pl];W[qm];B[qi];W[ri];B[pr];W[qr];B[pp];W[qq];B[pm]
;W[pn];B[on];W[oo];B[po];W[qn];B[no];W[op];B[np];W[oq];B[gn]
))
(;B[qe]C[ff - More natural here?]
(;W[qc];B[pc];W[qb];B[re];W[sc];B[kc])
(;W[qh];B[re])))
(;B[pg]C[ff - This play connects the side and threatens L17 next.  If White protects the top, Black will protect the bottom.]
)
(;B[no]C[ff - This play invites a fight along the bottom where Black is very strong.  At the same time it threatens the usual play at S7 to seal White in on the right.  If White invades the upper left, Black has to fight but the O5 stone offers support to the R10 stone if it has to run out into the center.]
;W[me];B[pn];W[qn];B[pl];W[pm];B[om];W[qm];B[gn]))
(;B[bp];W[ck];B[ap];W[bk]))
(;B[em]C[ff - This looks better for Black.  It is much too early to worry about White crawling at B4.]
))
(;B[dl]C[ff - Here Black splits the left side.  This looks possible and potentially more interesting as White still has weak stones here...]
;W[dm];B[el];W[em];B[ek]C[ff - If White ends up connecting along the side, Black will be content.]
))
(;B[dl];W[el]
(;B[bn];W[bo];B[co];W[bm];B[dn];W[cm];B[dm];W[bl];B[ck];W[eo]

(;B[dj])
(;B[ep];W[do];B[em];W[fm];B[ek];W[cj];B[dj];W[bk];B[fl]))
(;B[dm];W[dn];B[em];W[fm];B[ek];W[fl];B[dj])))
(;B[bn]
(;W[bo];B[co];W[bm];B[dn];W[cm];B[dm];W[bl];B[ck];W[bk];B[bp]
;W[an];B[fp])
(;W[fo];B[cm])))
(;B[fq]C[ff - If Black answers calmly, White would like to finish the left side and close the bottom right corner.  It is not possible to do both.]
))
(;B[ck]C[ff - Black should pressure the White stones before turning to the upper right.  Approaching closely is one idea but White's shape is not so bad here...]
;W[dh];B[fg];W[eh];B[ge];W[hd];B[fh])
(;B[cm]C[ff - Attacking from a distance while building up the lower corner may be more appropriate.  If White plays C18, C16, and then connects, Black has only one eye in the upper left. So Black has some difficulty in attacking the C11 stones too strongly.]
))
(;B[dg]C[ff - Th];W[ch]
(;B[cc]C[ff - This is a relatively quiet approach...];W[bf]
;B[ce];W[dc];B[be])
(;B[df]C[ff - This is the more active approach currently popular among pros.]

(;W[cc];B[di]C[ff - As mentioned earlier, White C13 is usually played when the lower left is a White stone.  Even then Black D11 is a dangerous play for White to handle.  When the lower left is Black it looks even more troublesome for White.]
)
(;W[dh];B[cc];W[ic];B[cm]))))
(;W[oc]C[ff - This would be a more common choice for White here.]
)
(;W[cc]C[ff - White could also answer calmly here...];B[ci]
;W[qn]C[ff - Now White plays first along the right side.]))
(;B[oc]C[ff - Black could treat C14 as a forcing move and turn to this P17 next.  Because P17 is low, the top becomes less interesting.  If Black plays C14 later, White may answer differently - for example with a pincer.]
))
(;B[po]C[ff - Black approaches one urgent corner from the direction of the other one...]
)
(;B[oc]C[ff - Black closes one urgent corner...];W[qn];B[jq]
;W[cn]C[ff - Black and White settle the "hot" corners before starting a fight...]
)
(;B[fc]C[ff - This side has a different meaning...];W[cf];B[kc]
C[ff - Another idea that takes into consideration the difference in the Black corners.]
))
(;B[pc]C[ff - Black faces off against the White stone in the bottom right...]
;W[dd];B[qo]C[ff - This is a quite common continuation.])
(;B[dc]C[ff - A play around here continues to create a Black framework on the left and waits to see what White will do next.]
))
