(;FF[4]GM[1]SZ[19]ST[2]CA[UTF-8]AP[SGFC:1.15]

PB[cb22]
BR[11k]
PW[fuji55]
WR[10k]
KM[0.5]
DT[2009-09-15]
PC[IGS-PandaNet]
RE[W+19.50]
TM[600]
RU[Japanese]

C[To my dear reviewer

Hi , I'm cb22 and playing black

I've played this game on IGS (10min/25stones) and lost it. I would like to know my biggest mistakes, because I felt I was winning and didn't at the end. Thanks for making my Go better :) and thanks for the review.

I'm a 6k KGS player but IGS is very different in style of play...

Hi Clement,

Thanks for the opportunity o review your game. It was very interesting and I hope my remarks and variations will help you to improve your game.

The main points are: 
- a better understanding of the opening, not necessarily joseki, but more how your stones work together and why you want to play a certain kind of opening.
- how to attack or more specifically how to build while attacking.
- Keeping sente, never stop thinking how to keep sente it's crucial!
- Improve your reading.

The above mentioned points will come back many times in the commemts and variations later on.

Another thing is to try to count, even estimate the score by comparing group size, it gives you a better idea of what you need to do.

 If you have any questions feel free to contact me.

Best regards,
Lothar.];B[pd];W[dp];B[pq];W[dd];B[qk]C[My favorite opening ^^]
;W[qf]C[Here I felt my opponent did a mistake. I hesitate with R12 but chose the O17 extension by the end.

This is a huge mistake and actually from here W should have a very difficult game to say the least.

W should have played K4/K3 or O17/O16.]
(;B[nc]C[Way to easy on W and it contradicts completely with the the whole idea of the Chinese opening.
R12 is an ideal extension and pincer from R9 don't even think twice about playing something else!

See your own var. and compare the board at move 12 in the actual game and in your var. Then I added move 13 that makes the moyo.

This is clearly the biggest mistake you made and instead of having an easy game punishing W's mistake (R14) you let W destroy your Chinese opening by playing O17. 

This is your favourite opening so make the most of it!];W[qi]

(;B[ok]C[I'd like this move at the beginning because I found it work well with the Q3 stone

I'ld prefer R15 which W will have to answer with Q14 and then P9. Now W will have an easy lfe with S16...]
;W[rd]
(;B[dj]C[Maybe I should have answer or close my south corner... don't know what would have been the best...

This is too slow. Look for the biggest point on the board. If you still want to make something of the Chinese opening play K4. W will invade Q5 etc. See var.]
;W[qo];B[rp]C[Think what you want to accomplish. You can either close white off (P5) and build a wall. Which then would enhance D10 and connect P9 or drive W into the center.]
;W[qp]C[W should play lightly into the center.];B[qq];W[ro]
;B[oo]C[Better late then never ;-) this is good.];W[rq];B[rr]
;W[sp];B[pn]C[Why oh why? If W wants to break out let him try to do so and B will build an even stronger wall because of that. Biggest move here is F4!]
;W[rm]C[Still an opportunity to play F4.];B[rl]C[Bad, it's way too small, and it induces W R7which has aji for W.]
;W[qm]
(;B[om]C[Here is a mistake no ? I wanted to connect my above stones but should I have played the big move of K4 instead ?

Your over concentrated. K4 is in the right direction but misses the philosophy of Go. Play away from strength and towards weakness. Now the strength is that wall that you built the weakness is that lonely stone at D4. Attack! 

There's no other move then F4!];W[jp]C[W here neutralizes you wall.]
;B[kq]C[Don't use a wall to creat territory! Though this may seem contradictionary to F4 but it's not. See the var. at move 25.

Instead of L3, which is gote, attack at C6 and then C14, both ideal extensions from D10.]
;W[jq];B[lq]C[You have to push back not give in.. M4 is the only move]

(;W[gq]C[Bad move by W to close to K4 and too far from D4];B[cn]
C[Good!];W[hc];B[kc]C[safety first.];W[qc];B[pc];W[hf]C[Useless move by W.]
;B[df]C[Would have preferred 3rd line here, no skirting allowed...]
;W[be]C[...]
(;B[cp]C[Your just making W stronger. B4 much better.];W[cq]
;B[bp];W[bq];B[bf];W[ce];B[cf];W[fd];B[do];W[ep];B[ee];W[ed]

(;B[fj]C[Seems slow to me. W can still reduce in sente (see var.). Try something around G4. Attack and build (see var.)]

(;W[ek];B[dk];W[el];B[dl];W[em];B[ej];W[dm];B[cm];W[hl]MA[ga]
[gb][gc][fc][ec][dc][cd][bd][ad][ac][ab][aa][ba][ca][da][ea]
[fa][ag][bg][cg][dg][dh][di][cj][ck][cl][bm][bn][bo][ao][lb]
[mb][nb][oc][ar][br][cr][dq][eq][fq][gr][hr][iq][ir][is][ob]
[oa][ra][rb][rc][re][rf][rg][rh][sh][lr][mq][nq][oq][pr][qr]
[qs][ls][rp][sn][la]LB[cb:24][bi:27][se:15][er:20][nr:12][so:3]
[ma:9]C[At this stage W has about 62 points of territory and B about 47. Nothing has remained of the Chinese opening. Both players have equal opportunity at the remaining points.]
;B[eo]C[In general your pushing from the wrong side. Try J6. Attack and build.
However in this perticular situation there was a good opportuniy to splt W up and even take part of his group. Both B and W missed it.]
;W[fo];B[fn];W[gm]C[Mistake by W and missed by B. B F4 see var.]

(;B[go];W[fp];B[gn];W[ap]
(;B[bo]C[?? Read it out or see var.];W[kl]
(;B[in]C[Too tame. See var.];W[ff]C[Biggest points are now on the edge of the board.
 B can play in sente a very nice sequence of about 35! moves and equal the score.

H2 is also an idea to explore.]
(;B[hm];W[gl];B[il]
(;W[ik]C[W must have been a sleep here. W loses 20 points just like that.]
;B[hk]
(;W[hj];B[gk];W[jl];B[im];W[jj];B[ri]C[Mistake ? I wanted to create a solide wall and after that play around L13 but I missed it...

If W would reply at S12 that would never work. See the long var. at move 73 which will explaore that idea more effectively.]
;W[rj];B[qh];W[rh];B[pi];W[si];B[qj];W[ri];B[qg];W[rg];B[pf]
;W[qe];B[pe];W[gj];B[fk];W[kf]MA[gg][hg][ig][jg][gh][hh][ih]
[jh][gi][hi][ii][ji]C[How to invade the center here ? I feel I don't have any support anywhere but it is wide open...

What center ? This small strip ? Much better to concentrate on the edge of the board that's where the points are.

W's blunder before has levelled the score so who ever takes most points in the endgame will win the game.]

(;B[je]C[This only strengthens W and it doesn't build for B. If you want to play here do something like the vars.]
;W[jf];B[ie];W[if]C[All 'thank you moves'];B[he];W[ge];B[ic]
;W[hd]
(;B[mf]MA[nd][ne][nf][of][oe][od]C[Again this gote move will give you about 6 points. Imagine W playing E12
Usually what's a good move for your opponents is good for you. Besides B E12 is sente ..;-)]

(;W[ph]C[Sacrifice two stones by playing P12 ïs better ?

No. Catch the cutting stone.]
(;B[pg];W[oh];B[mi];W[oi];B[pj];W[nj];B[nk]C[No! W will get out. M9 holds him down.]
;W[mj];B[mk];W[lj];B[ko];W[jo];B[kn];W[kp];B[lp]CR[gf][gg][gh]
[gi][hi][ii][ij][jk][ih][ig][hg]LB[cb:24][bj:22][er:23][nr:26]
[se:13][so:3][hh:12][lb:18][em:18]MA[ga][gb][gc][fc][ec][dc]
[cd][bd][ad][ja][jb][jc][lc][kb][mc][nb][oc][ob][oa][rb][ra]
[rc][sd][re][rf][sg][sh][sn][rp][dh][dg][di][cj][ck][cl][bm]
[bn][an][cg][bg][ag][hl][gl][fl][el][ek][dm][dn][en][fm][gm]
[ar][br][cr][dq][eq][fq][gr][hq][iq][ir][is][lr][ls][qr][qs]
[ln][mn][nn][on][op][no][lo][mp][mq][oq][pr][od][oe]C[Let's count points W 63 and B 84. B has gone form about 15 points behind to 21 points ahead. Big reason is the group W lost. 
W has a small moyo in the center with a possibility of 10-15 points that B should try to reduce.]
;W[jr]C[This is big B should answer rightaway or play a sente move that's bigger.]
;B[gp]C[This is bigger and sente.]
(;W[fr];B[hq]C[Still bigger but not sente which means that if W answers at H2 B will need to defend or give up the stone.]
;W[hr];B[ii]C[Still possible.];W[ij];B[gg]C[This is unreasonable. Besides as you are leading it's unnessecary. A simple reduction at E12 would be enough. Think before you play. This is where you actually lose the game. 

It's not a forcing move!];W[fh]SQ[gg][ii][hq][ms]C[Now B has several problems. W will win all those points and with it the game.]
;B[kh];W[ji];B[jh];W[ih];B[ig];W[hh]C[this is very easy reading. Obviously B should play E13.]

(;B[fg];W[eg];B[ef];W[eh]C[W threatens C12...! B must defend.]
;B[jg]
(;W[hg]C[W misses C12..];B[ch]
(;W[lh]C[Why so tight ? M13 much better.];B[lg];W[kg];B[ke]
;W[mh];B[lm]C[Gote...W will in sente take the few big points that are left]
;W[sr]
(;B[qr];W[qb];B[pb];W[pa]C[You don't have to respond.. you can play a move like A15 which is equal in value to Q19.]

(;B[oa];W[qa];B[nb];W[pp];B[op];W[ll];B[ml];W[ms]C[This is a huge move (in the endgame).]
;B[ls];W[lr];B[mr];W[ks];B[ns]
(;W[kr]C[W makes some strange moves];B[nq];W[id]
(;B[jd]C[Auto play ? K17 could have prevented a lot of damage.]
;W[ib];B[jb];W[jc];B[kb];W[le];B[kd]
(;W[lf];B[me];W[ld];B[mc];W[md];B[nd];W[mg];B[ng];W[nh];B[og]
;W[rk];B[ql];W[sl];B[pm];W[hp];B[ho];W[ip];B[ae]C[One of the big points was for B.]
;W[ad];B[af];W[bd]
(;B[fe]C[That's a ko threat safe it there are still other moves to play. Think more about keeping sente!]
;W[gh];B[dh];W[dg];B[cg];W[ei];B[qn];W[rn];B[lk];W[kk];B[lc]
;W[di];B[ci];W[ic];B[ao];W[aq];B[fi];W[gi];B[ia];W[ha];B[ja]
;W[ls];B[qd];W[re];B[jn];W[rs];B[qs];W[sq];B[ss];W[na];B[ma]
;W[rs];B[rc];W[rb];B[ss];W[nf];B[ne];W[rs];B[sb];W[sc];B[ss]
;W[mq];B[mp];W[rs];B[sk];W[sm];B[ss];W[os];B[nr];W[rs];B[ga]
;W[hb];B[ss];W[tt];B[rs];W[tt];B[tt];W[tt]TW[aa][ba][ca][da]
[ea][fa][ga][ra][sa][ab][bb][cb][db][eb][fb][gb][sb][ac][bc]
[cc][dc][ec][fc][gc][rc][cd][gd][sd][se][gf][rf][sf][fg][gg]
[ig][jg][lg][sg][jh][kh][sh][hi][ii][ki][li][mi][ni][kj][sj]
[jk][sk][sn][so][rp][dq][eq][fq][hq][iq][ar][br][cr][dr][er]
[gr][ir][as][bs][cs][ds][es][fs][gs][hs][is][js]TB[ka][la][na]
[lb][mb][ob][oc][od][oe][nf][of][ag][bg][ah][bh][ai][bi][aj]
[bj][cj][ak][bk][ck][ek][pk][al][bl][cl][el][fl][gl][hl][nl]
[ol][pl][am][bm][dm][em][fm][gm][mm][nm][an][bn][dn][en][hn]
[ln][mn][nn][on][co][lo][mo][no][np][mq][oq][or][pr][os][ps]
C[Thanks for the review ! Thanks for the time spending on this, I hope it wasn't too boring ^^]
)
(;B[ao];W[aq];B[qn];W[rn];B[qd];W[rc];B[lk];W[kk];B[dh]))
(;W[me]
(;B[nf];W[lf])
(;B[lf];W[nf])))
(;B[jc]))
(;W[ls];B[kr];W[js];B[nr]))
(;B[ae];W[na];B[ac];W[la];B[bb];W[ja];B[db];W[ib];B[fb]C[I think W loses more then B in this case.]
))
(;B[rs]))
(;W[lg];B[mg];W[mh];B[nh];W[lh];B[ng];W[ni]))
(;W[ch]
(;B[hg];W[lg]C[There's no way out for B.]
(;B[mg];W[lh])
(;B[lh];W[mg]))
(;B[lh];W[hg];B[bh];W[bi])
(;B[ai];W[bi]
(;B[aj]
(;W[ah])
(;W[bj];B[bk];W[ah]))
(;B[ah];W[bj];B[aj];W[ag]))))
(;B[eg];W[fg];B[lh];W[jg];B[fi];W[gi];B[eh]C[Still not great but it's better to be half alive then all dead.]
))
(;W[hq]))
(;B[oh];W[oi];B[pj];W[ni];B[lg];W[li];B[kh];W[ki];B[jh];W[hh]
;B[nh];W[mh];B[nf];W[ng];B[og];W[mg];B[lf];W[lh];B[kg]C[?]))
(;W[eh];B[dh];W[fi]))
(;B[eh];W[fh];B[fi];W[gh];B[gi];W[hi];B[kh];W[jh];B[ki]))
(;B[eh];W[fh];B[fi]
(;W[gi];B[fg];W[gh];B[gg];W[ef];B[eg];W[hg];B[gf];W[fe];B[de]

(;W[ge];B[ae];W[bd];B[ad];W[bc])
(;W[bc];B[kh];W[jh];B[ki];W[ji];B[kg];W[jg];B[lf]C[6 points have remained of the original 16 and B has gained much more!]
))
(;W[gh];B[kg];W[jg];B[jh];W[kh];B[lg]
(;W[ji];B[jf];W[ig];B[je])
(;W[jf];B[ki];W[ih];B[ji];W[ii];B[kj]))))
(;W[gk]C[sleeping (W).];B[hj];W[gj]
(;B[gi];W[hi];B[ij];W[fi];B[gh];W[ii];B[jj];W[fh])
(;B[hi];W[gi];B[gh];W[hh];B[ih];W[hg];B[ii];W[fh])))
(;W[hj]))
(;B[jr];W[ir];B[kr];W[iq];B[ae];W[ad];B[af];W[bd];B[pb];W[qb]
;B[qa];W[ra];B[pa];W[rb];B[rj];W[ri];B[si];W[sh];B[sj];W[rh]
;B[qn];W[rn];B[qe];W[re];B[pf];W[pg];B[qg];W[rf];B[og];W[ph]
;B[jb];W[ib];B[ic];W[hb];B[of];W[id];B[jd];W[jc];B[kd];W[kb]
;B[lb];W[ja];B[kg])
(;B[hr]
(;W[hq];B[jr])
(;W[jr];B[hq];W[hp];B[gp];W[gr];B[ip];W[ho])))
(;B[hq]C[W can do two things H4 and H2. B will profit in any case.]

(;W[hp];B[gp];W[fq];B[ip];W[ho];B[hn];W[io];B[in];W[jo];B[gl]
;W[fm];B[hm];W[gk];B[hk];W[il];B[fk];W[fl];B[gj];W[gl];B[en]
;W[jn])
(;W[hr];B[gr]
(;W[hp];B[gp];W[iq];B[fq]
(;W[hq];B[dq])
(;W[dq];B[hq]C[Big ko in  B's favour.]))
(;W[iq];B[hp];W[ir];B[fq];W[gp];B[dq])
(;W[fq];B[ir];W[hp];B[iq]
(;W[ip];B[jr];W[en])
(;W[jr];B[ip];W[io];B[hs];W[fr];B[ho];W[gp];B[jo];W[in];B[kp]
;W[js];B[kr];W[ko];B[jn];W[kn];B[jm];W[fs];B[ks];W[gs];B[is]
)))))
(;B[ao];W[bo];B[aq];W[ar];B[ap];W[co];B[bn];W[br]))
(;B[fp]
(;W[go];B[fq]
(;W[eq];B[er];W[dq];B[gr]
(;W[gp];B[fr]
(;W[hr];B[dr])
(;W[dr];B[br]
(;W[hr];B[aq])
(;W[bs];B[ar];W[cr];B[ds])))
(;W[dr];B[br];W[es];B[fr];W[gp];B[cs];W[ds];B[aq];W[hr];B[cr]
))
(;W[dq];B[er];W[dr];B[gr]
(;W[bs];B[ar];W[aq];B[br];W[cr];B[ds])
(;W[br];B[cs];W[ds];B[aq])))
(;W[fq]C[Best for W.];B[go])))
(;W[ei];B[ej];W[dh];B[ch];W[gh];B[ci];W[fn]C[etc.]))
(;B[gp]
(;W[hq];B[fn];W[fo];B[gn];W[go];B[gg])
(;W[fq];B[fn];W[fo];B[gn];W[go];B[gg])))
(;B[bp];W[cq];B[bq];W[br];B[cp];W[dq]))
(;W[fq]))
(;B[fp];W[eq];B[fq];W[cn];B[ep];W[dq];B[fm];W[kq];B[mq];W[hq]
;B[jp];W[jq];B[kp];W[ip];B[in]TR[dj][ok][fm][pn][oo][jp][kp]
[mq]C[B now has a wall that spans the total length of the board whle W has 4 groups scattered all over the board.]
))
(;B[jp];W[po];B[np];W[qq];B[qr];W[qp];B[rr];W[pl];B[pk];W[nn]
;B[lo]))
(;B[qe];W[pf];B[ok]))
(;B[qh];W[nc];B[oe];W[qc];B[qd];W[pc];B[jp]))
