(;FF[4]GM[1]SZ[19]ST[2]CA[UTF-8]AP[SGFC:1.15]

GN[Icepick vs JDL]
PB[JDL]
BR[5k]
HA[5]
PW[Icepick]
KM[0.5]
DT[2009-06-29,2009-08-23]
PC[Dave Peck's Go: http://go.davepeck.org/]
RE[B+Resign]
RU[Japanese]

AB[dd][pd][jj][dp][pp]C[> Hi, I use the following conventions in my reviews:

- my comments will start with ">"
- Black is he and White is she
- triangles mark weak spots or stones
- squares mark strong stones

enjoy !]PL[W];W[fc]C[Icepick: Serriously?!
JDL: Seriously, what?];B[df]C[Icepick: Play by web?];W[nc]LB[lc:A]
[jd:B]C[JDL: Long game.  Don't feel rushed to make moves right away.]

(;B[lc]LB[ic:A][ne:B]C[This does walk right into a pincer, but I wouldn't call it a "mistake"   Probably sub-optimal though.

If your goal is to stop my from playing O17 and K16 to claim the top side, then you should pincer F17 on move 2.]

(;W[ic]LB[nd:B][me:A]
(;B[me]LB[md:B][ne:A][qj:C]C[I thought this was a really odd response.   It's not joseki, I checked alot of different places looking for similar postions.

> Slack shape. It doesn't have a compelling continuation, and White can split.]

(;W[ne]C[> A bit rushed maybe.];B[mf]C[I was hoping for a hane, which would help in cutting.

> This nobi is good fighting, avoid a family feud with Q16.]

(;W[pc]LB[qc:B][od:A]C[> Too early. White needs to stick to the outside direction she took with O15.]

(;B[od]C[This was good on your part.];W[oc];B[nd]C[> Early thickness for Black, the game is promising !]
;W[qk]LB[qd:B][qi:A]
(;B[qi]C[Rules of thumb:  push towards your strength   and don't use thickness to make territory directly.

> See variation.];W[qn];B[qd];W[qc];B[ec]LB[eb:A][cc:C][fd:B]
C[> Ouch ! Good move.]
(;W[eb]LB[db:A][fd:B]C[Icepick: Trying something new.

> Playable locally, but Black gets thickness.]
(;B[db]LB[fb:B][ed:A]
(;W[ed]C[> "Atari is a bad move". White solidifies a big black corner.]
;B[dc];W[fd]LB[cj:A][qo:B]C[Icepick: You playing F16 coulda been interesting!
JDL: Agreed. I was trying to avoid a messy fight, and seal up that corner at the same time.



I was particularly unhappy with this result.   I think I should have either ignored E17 or invaded at C17.]

(;B[cj]C[> Nice but not urgent at all.];W[nq];B[pn]C[> Good contact for defense.]
;W[pm];B[on];W[qo]C[JDL: Your R5 response caught me off guard. Interesting to see how this corner plays out.]
;B[qp]LB[po:A][mp:B]C[Icepick: I bet you expected R3, right?


So  far, joskei....but in the joseki, White plays R9 next, which gives black time to protect the cut.]

(;W[po]LB[op:B][oq:A]C[JDL: I thought R3 gave you more profit, but I misread the strength left in R9. I read that you had to defend Q7 before pushing Q5.
JDL: Of course, as soon as you played Q5, then I saw the ladder that R9 traps my R7 cut in. No clue at all how I missed that before.


And since R9 is already there, I decided to cut right away.

> This cut is a bit blunt. Black can yield with a nobi.]
(;B[oq]C[> Black's first serious mistake. Do not get shut in !]
;W[np];B[rp];W[cn]C[Probably a key point in the game.    I debated quite abit between F3, C6, C12, E10, and K3/K4.

> This looks very brave. F3 would give Black a huge side, C12 is too early, E10 doesn't help White much, K3 or K4 look too narrow. But this can start a good fight.]
;B[co];W[dn];B[fp]LB[cl:A][hq:B]
(;W[cl]C[Icepick: If you had played at F3, I would have likely played at F5.   This is what I was trying to explain on Sunday.


Probably a mistake.

> This is probably too slow for a handicap game. Black is too happy to respond with E10 here. White is much behind and needs to take some risks.]
;B[ej];W[el]C[> Ditto.];B[bn]C[This was good.  C3 was coming next if you had played at J3 or K3.

> Very difficult for White now.];W[bm]C[Icepick: Pretty much forced.
JDL: I'm new to this whole sente thing, but I'm trying to keep it in mind.]
;B[iq]C[Icepick: No time like go time.

> Very good move. Black has a fair lead.];W[ch]LB[di:B][bk:A]
C[JDL: You've got a brass set on you, sir.  I'll try to give you a reply worthy of your invasion.


Things are already looking grim for white.

> Yes, White needs to try something !]
(;B[bk]C[Seems slack to me.    Sure, it "denys" me an eye, but I can play B5 and be alive (in gote though) whenever I want.

It does keep me from playing B10 and connecting.

> B9 is wrong direction. Shut C12 in first.];W[eh];B[bf]LB[bg:B]
[fg:A]C[Icepick: B14 is not what I was hoping for.  But this game isn't about hope.

> Lol, that's so true ^^]
(;W[fg]C[I wasn't unhappy with this.

> Yes, White got an easy time reducing the side. But you're still behind, so take chances.]
;B[oi]C[This hurt.];W[kq];B[bp]LB[bg:B][fn:A]C[JDL: I played B14, because it sealed in my corner and gave my running group a monkey-jump escape hatch in case of emergency.

> Makes sense. But B12, not A11, is the escape way for Black.]

(;W[fn]LB[or:A][as:B]C[Now that B5 isn't available to me anymore to live, I've gotta run and get some space.

> This feels slack. Don't run alone, take the opponent with you !]

(;B[or]C[Probably unecessary.


If you're trying to undermine my eyespace, I can always play P5 and connect out.

> Slow move indeed.];W[ok];B[rd]C[Icepick: When are you going to stop playing solidly...and start making mistakes?

> Big move :-)];W[rc]C[JDL: Have no fear.  I'll blow this yet.]
;B[mi];W[hp]TR[gq]C[> This loses the marked invasion. But it might help for an attack on C10.]
;B[hq];W[gp];B[gq];W[fo];B[ep]LB[bg:B][ip:A]
(;W[ip]C[This was a mistake.   Though I don't know what I should have done instead.]
;B[jl];W[ke]LB[md:B][gj:A]C[Icepick: I can probably resign at any point here.

> See variation for a last attempt by White.]
(;B[gj]LB[ri:B][rj:A][ik:C]C[JDL: G10 is because I misread the monkey jump at A11. There's a cut at C9 that I completely missed before.
JDL: Patching up the holes and trying to end this thing without incident.
Icepick: You were okay.  G10 and connecting to the top were miai.


I really suprised me when you didn't respond to L10.

> You mean L15. Right, it's a big threat. Yet with this, White cannot set up a mischief anymore...]

(;W[rj];B[ri];W[sd];B[se];W[sc];B[rf];W[ld];B[hg]TR[ff]C[Icepick: I like H13.  Good move.

> Nice one. It's hard to find a good way to fix White's shape.]
;W[hf];B[ff];W[gf];B[eg]C[This was really good, and unexpected.  I thought I could connect to the top easily, didn't see this move.]
;W[gg];B[fh];W[fi]C[Had to fight or resign.];B[gh];W[ei];B[gi]
;W[fj];B[fk];W[dj];B[di]C[JDL: Apologies on the delay. I've been doing nothing but work and sleep all week. I didn't want to half-ass this move.

> Very sharp.];W[ek]C[Icepick: D12 was sorely tempting, but I don't think I can make it work.]
;B[dh];W[ej];B[bi];W[hh];B[ig];W[gk];B[hk];W[gl];B[ij]C[I had this read out when I played F11.  Now my groups are  all pretty safe, but I'm still behind.

> And Black's safe too, so it is too late.];W[ll]C[An attempt to get some territory.   The problem is that K8 can jump to K6, or maybe even H6.   I can't play on both sides.  :(]
;B[kf];W[je];B[jf];W[if];B[jg];W[ge]C[JDL: Nice call on G15. So much nonsense that I had planned just got squashed.


It  hurt to have to do this.   Playing arround J7 would have been so nice.

> Bad aji indeed. But I would fix with N16 in reverse sente instead. Or at least F15 atari.]
;B[ls]C[Monkey jumps are almost always gote.    If you're trying to wrap things up (and you should be at this point, play the sente stuff first.

K6 or K3 spring to mind.

> K3 indeed is huge, no need to play 1st line while some 3rd line boundaries are open.]
;W[lr]C[Icepick: I've been looking at the same weaknesses that you likely have been.  Trying to find a way to defend in sente...I can't see it.

> This move is not necessary, there is hardly any white territory there.]
;B[ms]LB[ro:A][jr:B]
(;W[ro]C[Gote, but protects some points, and will make P4 sente eventually (most likely anyways.)]
;B[jn];W[ln];B[ea];W[lf]C[All or nothing move.

I figured you'd play M15, and then I could threaten the snap back with J11, and either capture the G11 group or the K13 group.]
;B[le];W[lg];B[kd]C[I really thought I pulled off a big swap at this point.]
;W[ii];B[ih]C[But I didn't see this reponse coming.

> Simply ladder :-)];W[jh];B[hi];W[li]C[Last ditch effort to get you to make a mistake.]
;B[lj];W[mj];B[mh]C[> Summary:

One thing handicap games teach is how to play when ahead (Black) and when behind (White). That is, for Black, simplify by using the huge lead in influence; for White, complicate and take risks.

In this game, Black made a slack shape at N15, a mistake in direction with R11, and a blunder with P3. He also took unnecessary risks with the weird move of B9. Yet overall, he stuck to the basic strategy of simplifying the game.

After offering early thickness with Q17, White went on to reinforce Black at E16. White did complicate the game notably with C6, but then played even game moves to help the group directly. That was not so good a strategy here. White needed to create weak black groups. She failed to take advantage of the only target Black had offered after his B9 move.

So for Black, push the opponent towards your thickness, and do not let your groups get sealed ! It will make fighting easier.

For White, first avoid helping Black, then spot chances and invite him into fights whenever necessary. Put your superior reading to use !]
)
(;W[jr]C[> This looks ok.]))
(;W[ri]C[> Locally, better here.])
(;W[ik]C[> Very last chance to gain something in the center.]
))
(;B[md]LB[gj:A][ik:B]
(;W[gj]LB[bh:B][fk:A]C[I think this would have been horrible for me to play.]

(;B[fk]C[This would suck.])
(;B[bh]C[Or you could just connect out.]))
(;W[ik]LB[bh:B][jk:A]C[> A less direct way.]
(;B[jk];W[bg]TR[be][dj]C[>Then kick here. This gives a nice clamp later that might make F18 a sente. Or just warikomi for a chunk of territory.]
;B[gj];W[hi]C[> Not so easy for Black, White has a chance.]
)
(;B[bh]C[> Black gets afraid ?];W[jk]C[> Good profit !]))))
(;W[bg]C[> Again, White needs to start a fight !]))
(;B[as];W[op]C[If I play here,];B[or]C[Then you can descend to defend your corner.]
))
(;W[bg]C[ > White forces a fight.];B[gj];W[gn]LB[ij:A][gq:B]
C[> Black needs to be careful ! White is aiming at A, or later, B.]
))
(;W[bg]LB[ff:C][cg:B][gj:A]C[> How about this ? Just to ask Black...]

(;B[gj]C[> Black runs ?];W[cf];B[ce];W[cg]LB[be:A][ff:B]
(;B[be];W[ef]TR[dj]C[> Shape is ok. White is aiming at warikomi.]
)
(;B[ff];W[be]C[> Easy eye with profit. Next Black may be tempted to kill and make mistakes.]
))
(;B[cg]C[> Black helps ?];W[dg];B[cf];W[ef]C[> Thank you.])
(;B[ff]C[> Black splits ?];W[cf];B[ce];W[dg]C[> Maybe start a ko.]
)))
(;B[di]C[> This is most severe indeed.];W[dh];B[eh]C[I would have played like this if I were black.]
))
(;W[hq]LB[kq:5]TR[cj]C[> White could make this ideal 5-space pincer extension, leaving the two stones on their own. Black is on the 3rd line over there, which is not so good for fighting.]
))
(;B[op]C[> This is simple and effective for Black. The two center stones are expendable.]
;W[oo]C[> If White is stubborn...];B[np]TR[oo][nq]C[> The side stone gets blighted. White has a broken shape. Black's corner stones are out of trouble.]
))
(;W[mp]C[> White is threatening to cut with good shape.];B[oq]
;W[or]LB[np:A][pr:B]
(;B[np]C[> Shape move.];W[nr];B[pr]C[> Now Black can block.]
;W[mn]LB[nm:A][gq:C][os:B]TR[qr]C[> White is aiming at the clamp.]

(;B[nm])
(;B[os]TR[mq])
(;B[gq];W[qr]C[> Ouch ! This works because White didn't give atari at O5. Otherwise, Black resists with Q1 and the tesuji of S2.]
))
(;B[pr]C[> Mistake.];W[op];B[pq];W[po])))
(;B[qo]C[> Urgent move.];W[pn];B[np]))
(;W[fb]TR[cc]C[> White should simply connect and leave aji in the corner.]
;B[fd];W[gd];B[ge];W[cc];B[dc];W[fe];B[ed];W[hd];B[ff]LB[cb:A]
C[> White has the aji of A.]))
(;B[fd]C[> Possible for Black though not obviously better.]
;W[dc];B[ed];W[fb];B[cc];W[db];B[cb]))
(;W[fd]C[> Pretty much forced in my opinion.])
(;W[cc]C[> This seems wrong.];B[eb]LB[be:B][ce:A]
(;W[ce]TR[fd]C[> Without a White stone at the triangled point, the tobi doesn't work so well. Black will push and cut inside.]
;B[cd];W[bd];B[bc];W[bb];B[be];W[ac];B[cf]C[> Black has a thick game.]
)
(;W[be]C[> Slow move here.];B[ce]LB[bd:A][bf:B]C[> Black presses.]

(;W[bd];B[bf];W[bb]C[> Terrible gote for White.])
(;W[bf]C[> A mistake.];B[bd]LB[bc:B][cd:A]
(;W[cd];B[bc]C[> Nice black corner.])
(;W[bc];B[cd];W[ad];B[cg]C[> Not enough eyeshape.])))))
(;B[qd]C[> 3-3 is maybe better, but this simple move is enough for the purpose of this review.]
;W[qc];B[ec];W[fd];B[qm]C[> Now R11 would be overconcentrated anyway (R10 would be the ideal extension), so push White to the wall.]
;W[qh]C[> The direct territory potential of the wall is nulled. But...]
;B[jp]LB[pi:1][qi:2][dj:A][oj:5][pj:4][qj:6][pk:3][pl:7]SQ[jj]
[qm]C[> Black made a shimari in sente and takes the extension, which is huge in itself. Furthermore, he is threatening to make a huge moyo with the suggested sequence.

If White prevents that immediately, Black will take another big point at A. If White instead invades the bottom, Black will get thick and White's group may come under a severe attack...

So, the power of the wall got converted into massive potential territory. This is an active way of playing for Black.]
))
(;B[qc]LB[od:A][pe:B]
(;W[od];B[pe]LB[pb:A][nf:B]
(;W[pb]C[I was hoping for something like this.];B[nf]C[> So thick ! Black success.]
)
(;W[nf]C[> White would need to push some more.];B[mg];W[pb]
;B[pg]C[> Still nice for Black...]))
(;W[pe]C[> Better shape.])))
(;W[nf]C[>  White needs to push once more.]
(;B[mg];W[pf])
(;B[pf];W[mg])))
(;W[md];B[ld];W[le]C[I considered just "cutting" to the chase.]
;B[ne]C[> But the shape is too good for Black. White misses high stones to fight at some ease here.]
)
(;W[qj]C[> Whatever Black does, aji remains in the top corner.]
))
(;B[nd]LB[oc:B][od:A]C[> The natural move, Black links up. White should not move this stone immediately as it would give Black too much early thickness, while Black will want to add P17 later.]

(;W[od];B[oc];W[oe];B[pc];W[md]C[Ladder doesn't work, so this is obviously not an option for white.]
)
(;W[oc];B[od]LB[mc:B][pc:A]
(;W[pc];B[mc];W[qd];B[qe];W[qc];B[pf]C[Joseki.

Looks bad for white in a handicap game though.])
(;W[mc];B[md];W[lb]LB[kc:A][ld:B]
(;B[kc];W[kb];B[jc];W[pc]C[Joseki, though J17 isn't included in it.

Bad for white though in a handicap game I would think.])
(;B[ld]C[> Here this shape is better. White is forced to crawl and Black will extend down the right side. Good for Black.]
)))))
(;W[ne]TR[lc][pd]C[> Another idea for White : split Black first...]
;B[pf];W[kd]LB[kc:A][oc:B]TR[qc][ch][qh]C[> ... then press to connect on a grand scale, aiming at the marked points later.]

(;B[kc];W[jd];B[ld];W[le];B[jc];W[id]LB[qc:B][me:A]C[> If Black A later, White still retains the invasion at B.]
)
(;B[oc]C[> Black may resist here. Then White gets solid.];W[kc]
;B[nb];W[mc]TR[qe]C[> Later White still has a peep.])))
(;B[jd]TR[fc][nc]SQ[df]C[> I prefer this. D14 is good for attack.]
))
