(;FF[4]GM[1]SZ[19]ST[2]CA[UTF-8]AP[SGFC:1.15]

PB[dawid]
BR[6k]
PW[wojtek]
WR[1d]
KM[0]
DT[2009-09-24]
RE[W+Resign]
RU[Japanese]

C[Ladder game between White 1d KGS wojtek and 6k KGS dawid played in Szczecin Go Club
thx for reviving

[ZD\] I am going to start my comments with this mark.  According to KGS rank, I am not much stronger than the white player, so I will focus on black's play.]
;B[pd];W[cp];B[pp];W[nq];B[lq];W[no];B[pn];W[pr];B[mp]LB[ip:A]
[mp:C][np:D][qq:B]C[[ZD\] This move seems strange.  Once white connects, A and B are miai, and the exchange of C for D strenghtens white a lot.]
;W[np];B[qq];W[jq];B[cd];W[ed];B[ec];W[dd]LB[ec:B][fc:A]C[[ZD\] This strategy (building a moyo in lower left) seems fine for white.  Answering B at A would also be good for white, as he would get a strong group and limit the black potential on right.  B seems to be a mistake, a pincer would be more natural.]
;B[dc];W[ce];B[cc]C[i'd choose the easiest way, i dont know josekis]
;W[fd];B[gc];W[di]LB[be:B][df:A][di:C]C[[ZD\] I would prefer playing at A for white.  In the game, black has a big endgame at B.  Potentially, he might also be able to play around A later, to split white, so white is not as thick.  Anyway, C seems playable as well.]
;B[hq]C[I think its good point

[ZD\] I don't think so.  if white answers as in the variation, black gets a weak group and helps white to close the corner.]

(;W[jo];B[eq]C[[ZD\] You are lucky, white let you get away with this overplay.]
;W[dq];B[ho]LB[co:A][ho:C][er:B]C[e4 seems to slow then i choose h5

[ZD\] e4 is very important.  If you play it, your group gets strong, while white has to protect against A, so you will get to play C anyway.  After your move, your group gets weak (white could also answer at  B to take away your base).]
;W[ep];B[hm];W[nm];B[jr];W[kr]
(;B[ir]C[[ZD\] connecting the groups instead would be better.]
;W[kq];B[ol];W[qf];B[qh]
(;W[qk]C[does r9 good?

[ZD\] I would play it differently (see the variation), but in general I agree with white-- he has no weak groups, so he can play agressively.]
;B[nl]LB[oj:A]C[[ZD\] White could ignore this and play e.g. A.]
;W[om];B[pm];W[pl];B[mm];W[mn];B[oo];W[lm];B[ml]LB[ml:B][lm:A]
C[[ZD\] Exchanging A for B seems bad, as it strenghtens black.]
;W[nn];B[ll];W[pj];B[km]LB[ph:A]C[[ZD\] White needs to ignore this and play A.]

(;W[ln];B[oh];W[qm];B[qn];W[rm];B[rn];W[nj];B[li]LB[pf:C][li:B]
[mi:A]C[what about this exchange? (from 39 to 59)

[ZD\] It does not seem possible to close white in.  A looks tighter than B, but does not work, either.  It might be better to skip B and play C directly.]
;W[mi]
(;B[lj]LB[lh:A]C[[ZD\] This seems like a wrong direction, moving at A (away from your thickness) seems more natural.]
;W[lh];B[pf];W[mg]LB[kl:A]C[[ZD\] now white is OK, while you might run to problems with the cut at A later.]
;B[hj]C[it looks bad that i let white escape to the middle]

(;W[qi]LB[qc:B][pe:A][qe:C]C[[ZD\] This exchange is bad for white, he could play A, B or C instead.]
;B[qe];W[rh];B[dl]LB[md:A]C[i feel like d8 should be on the third line

[ZD\] I would play around A, instead.  It does not seem possible for white to make territory on left side in one turn, given the blacks influence.]
;W[cl];B[cm];W[ck];B[dm];W[nc];B[oc];W[nd]
(;B[gd]LB[jc:C][be:B][cf:A]C[[ZD\] This does not seem to do much.  Attacking the group at A would seem natural, playing endgame move at B or extending to C could also be considered.]
;W[df]
(;B[er];W[gp];B[hp];W[dr];B[kc];W[qc]C[[ZD\] This is an overplay, white should die.]
;B[ob];W[qd]
(;B[rf];W[re];B[qg];W[sd];B[rb]C[[ZD\] White has a ko to connect.]

(;W[qb];B[rc];W[gn];B[hn];W[gl];B[do];W[dp];B[go];W[fn];B[dk]
;W[dj];B[gm];W[fm];B[fl];W[fo];B[fk]C[[ZD\] White lost a bit in these exchanges, I think.]
;W[qr];B[rr];W[jd];B[jc];W[id]
(;B[gf]LB[ic:A]C[[ZD\] Answering simply at A seems better.]
;W[ic];B[mb];W[nb];B[na];W[hb];B[jf];W[oe];B[pe];W[fc]
(;B[gb]LB[fb:A]C[[ZD\] Playing A would probably be better.  Anyway, black lost a lot here.]
;W[fb];B[eb];W[ga];B[ea];W[fa];B[jh];W[if];B[ig];W[hf];B[gg]
;W[lb];B[lc];W[mc];B[ma];W[pa];B[pb];W[qa];B[oa];W[gi];B[gh]
;W[gj];B[gk];W[hi];B[ii];W[fh];B[fi];W[fj];B[he];W[ij];B[hk]
;W[ld];B[ks];W[ls];B[js];W[pq];B[rp];W[jb]
(;B[ri];W[rj];B[rg];W[si];B[bm];W[bj];B[sm]LB[kb:A]C[[ZD\] This is much smaller than A (and it would be sente later).]
;W[kb];B[rl];W[ql];B[bo];W[bp];B[be];W[bf];B[ad];W[jm];B[kn]
;W[jn];B[jl];W[ko];B[kl];W[kh];B[hh];W[ei];B[af];W[ag];B[ae]
;W[bg];B[ie];W[ac];B[bd];W[bb];B[cb];W[ca];B[da];W[ba];B[ab]
;W[aa]C[very painful seki];B[ke];W[kd];B[gq];W[ki];B[fp];W[eo]
;B[br];W[bq];B[cr];W[es];B[ar];W[fr];B[fq];W[co];B[dn];W[bn]
;B[gr]C[really unreasonable g2, should be around k10];W[ji]

(;B[jj];W[ih];B[fs];W[ds];B[ii];W[od];B[pc];W[ih];B[lr];W[ms]
C[i can kill now, i noticed that to late]
(;B[ii];W[ek];B[el];W[ih];B[mr]C[i noticed that i can kill when i was puting the stone at n2]
;W[lp]C[now its to late ;)];B[nr];W[jg];B[jp]C[but im trying, my last chance]
;W[kp];B[ip];W[mq];B[mo];W[or];B[ns];W[ls];B[ms];W[os];B[ls]
;W[qs]LB[ec:A][dd:C][gd:D][dq:B]C[i resigned
i thought about resignation at the moment of a17 stone, i know that is seki and i have been realy behind

[ZD\] You made some mistakes in the beginning -- the attachment at A was a wrong direction, and ignoring B is rarely a good idea. Finally, you missed the chance to attack the C group.  Black made some mistakes as well (attempting to live in the upper right corner was unreasonable), but overall he was ahead most of the game.]
)
(;B[kp]
(;W[jp];B[mr];W[lp];B[mq];W[ns];B[nr];W[os];B[or];W[ps];B[oq]
C[dead])
(;W[mr]C[[ZD\] White lives, but with an unpleasant loss.  However, white would be far ahead anyway, and you still have a difficult ko on your hands.]
;B[jp];W[lo]
(;B[qs];W[lp];B[iq];W[mq])
(;B[lp];W[os]))))
(;B[ih];W[jk];B[ik];W[jj];B[kg]C[[ZD\] Playing the ko is unreasonable, you need to make eyes.]
))
(;B[lr]C[i missed it];W[ms];B[mr];W[ns];B[nr];W[os];B[or];W[ps]
;B[oq]C[works]))
(;B[fb];W[gb];B[eb];W[kd]))
(;B[ic];W[ge];B[gf];W[he];B[eh];W[dh]))
(;W[rc];B[qb];W[sf];B[sg];W[rg]))
(;B[re]C[[ZD\] I don't see how white could live now.]))
(;B[kc]LB[nf:A]C[[ZD\] Black now has ~15 points on top left, ~15 in top right corner, ~5 in bottom right, and ~5 points in the center, 40 in total.

White has ~10 on the bottom. ~10 in lower left, ~10 on right, and ~15 on the left, plus komi, more than 50 points.  The game seems difficult for black now; white has no weakness to exploit (cutting at A does not work).]
;W[fq];B[nf];W[mf];B[me];W[ne]
(;B[le];W[of];B[ng];W[og];B[nh];W[pg]
(;B[oe];W[ph]C[[ZD\] black loses the semeai,])
(;B[ph];W[qg]))
(;B[oe];W[ld])))
(;B[cf]
(;W[de];B[be];W[df];B[cg];W[dg];B[ch])
(;W[be];B[ef];W[de];B[ch])))
(;W[qc]
(;B[pc];W[qd];B[qe];W[re];B[pe];W[rg])
(;B[qd];W[pc];B[oc];W[ob];B[nc];W[nb];B[mc];W[rd];B[re];W[rc]
;B[qe]))
(;W[qe]
(;B[pe];W[qd];B[qc];W[rc];B[qb];W[rg];B[rh];W[rb])
(;B[qd];W[pe];B[oe];W[qg];B[ph];W[pg];B[of];W[og];B[ng];W[nh]
;B[nf];W[rh];B[ri];W[rg]))
(;W[pe]
(;B[oe];W[qe];B[pg];W[qd];B[pc];W[qc];B[qb];W[rb];B[pb];W[rg]
;B[rh])
(;B[qe];W[oe];B[qd];W[pg]
(;B[of];W[og];B[nf];W[qg])
(;B[rf];W[of];B[rg]))))
(;B[lh];W[lj];B[kj];W[mh];B[pf]))
(;W[ph]
(;B[kn];W[ko])
(;B[ln];W[lo])
(;B[lo];W[ln];B[ko];W[kn])))
(;W[of];B[nd];W[pj];B[oh];W[pl];B[om];W[nj];B[mh];W[qc];B[qd]
;W[rd];B[re];W[rc];B[qe];W[ob]LB[nb:A][pj:B]C[[ZD\] Black would like to play A, but that leaves a lot of aji and ends in gote.  So probably he has to leave this open and try to get something from attacking B.]
;B[nb];W[oc];B[nc];W[od];B[oe];W[ne];B[pe]
(;W[pc]C[[ZD\] This looks unpleasant for black.])
(;W[rf])))
(;B[kq];W[ir];B[jp];W[iq];B[ip]
(;W[hr];B[lr];W[js];B[ol]C[[ZD\] This looks bad for white.]
)
(;W[lr];B[hr];W[js];B[ko]C[[ZD\] This is better, but still your group gets strong.]
)))
(;W[fq];B[ho];W[ko];B[mo];W[mn]))
