(;FF[4]GM[1]SZ[19]ST[2]CA[UTF-8]AP[SGFC:1.15]

PB[grelon]
BR[6k]
PW[dawid963]
WR[6k]
KM[6.5]
DT[2009-10-05]
PC[The KGS Go Server at http://www.gokgs.com/]
RE[W+17.50]
TM[1800]
OT[1x30 byo-yomi]
RU[Japanese]

C[Hi Dawid,

I've responded to most of your comments throughout, and made a few about other things.  There are also a few variations showing some diffeent directions you could have tried, some without comment if I thought I'd covered the discussion previously.  Hopefully it all makes sense.

Andrew


dawid963 [6k\]: hi gg
grelon [6k\]: bonne partie

Hi i am dawid. i play white
I feel all the time that black was ahead in fuseki and beginning of chuban.
I had moyo(or potential) in center and i had problems to handle with this moyo
Thanks for review. ;)];B[pd];W[pp];B[dp];W[dd];B[nq];W[qn];B[kq]
;W[cn];B[cl]
(;W[cq]C[i see only way. take the corner. e6 is also playable?]

(;B[cp];W[dq];B[ep];W[bp];B[bo];W[bq];B[co];W[fq];B[cf]LB[ci:A]
TR[ch][di][cj]C[I consider also to invade at A. Would it be right idea?

I think one of the triangle moves is good.  C 10 & 12 because they each press on a weakness of black's: the c6 stone or the lone c14 stone.  D11 has more options to run out from what is black's area of influence.]
;W[fc];B[ff];W[dh];B[dg];W[dl];B[ck]
(;W[dm]C[I feel this is too heavy, ie too many stones invested without much potential for growth.  You really need only reduce black over here.  

See the variation for a possible way to avoid this.];B[bn];W[dk]
;B[cj];W[dj];B[ch];W[hk]C[Having to play this move is painful.  And you have to play it because you recognize that that is a lot of stones to lose.  Playing lightly helps save you from losing sente this way.]
;B[qe]TR[pb][mc][nc][bd][be][iq][or][pr]C[This is odd for black.  Q18 seems like a possible move here, though it is usually played after black r14.  

Q2 and B16 are both cash moves, ie generating a fair number of points while putting a litte bit of pressure on the nearby black stones.  

P2 and B15 are similar but put more pressure on black.  Black will usually respond as in the variation, and white can decide to respond immediately or play elsewhere and still get a reasonable result.

These four look kinda small at first glance, but they are all very playable here.  See second variation.

O17 abd N17 are also both good.  O17 might be more advisable with how strong black's corner is.  

J3 is also big as you would both like to play there.  Black has the e2 follow up to H3, and black l3 is kinda cramped if you get J3.  P2 J3 might be a great combo.]

(;W[qj]C[What i can play instead r10?];B[qh];W[oj];B[ql]
(;W[pm]C[Q7 was rather bad move

This move is a somewhat normal one except for r12's proximity.  R8 turns out to be a strong stone due to that proximity.  Killing it might not be a reasonable thing, so you might just look for way to make it a weak heavy group.]
;B[rj]
(;W[qk]C[s11 definitely seems the way to go in tryign to keep black disconnected.]
;B[rk];W[qi];B[ri];W[pl];B[mc]
(;W[og];B[di];W[hg];B[hi];W[ei];B[eh]
(;W[gi];B[lf];W[mo];B[hq]
(;W[kh]C[this seems unfocussed.  You try to build while pressing on black first, and then if you have to, make these fixing moves.  see variation]
;B[ic];W[gr];B[hr];W[cd];B[lh];W[ph];B[qg];W[li];B[mh]
(;W[ki];B[mi];W[mj];B[hh];W[hj];B[gh];W[jf];B[kd]C[black would win if he reduce moyo]

(;W[in];B[ko];W[kn];B[jn]
(;W[jo];B[ln];W[km];B[lo];W[lm];B[mn];W[oq];B[nr];W[ne];B[nc]

(;W[le];B[ke];W[kf];B[mf]
(;W[me];B[nf];W[of];B[oe];W[hb];B[ib];W[be];B[bf];W[or];B[os]
;W[ni];B[nd];W[ps];B[ns];W[cm];B[bm];W[jp];B[jq];W[qr];B[fi]

(;W[fn]C[no points here now. F11 ruined them all.  connection is the issue, and that seems easy enough.  with H10 right there .]
;B[fk];W[gj];B[fj];W[gl];B[eq];W[er];B[rm];W[rn];B[sn];W[so]
;B[sm];W[qm];B[rl];W[np];B[mq];W[ro];B[mm];W[af];B[ag];W[ae]
;B[bg];W[ml];B[fl];W[fm];B[ha];W[gb];B[ig];W[ii];B[if];W[pf]
C[the game seems close now];B[gd]C[g16 was mistake that made this game easy for white]
;W[pe]
(;B[qd]C[seems r16 right answer but the game is not close no more]
;W[od];B[oc];W[oe];B[ij];W[jj];B[ik];W[il];B[ll];W[nl];B[jm]
;W[kl];B[jl];W[kk];B[im];W[jk];B[mp];W[no];B[je];W[jh];B[ce]
;W[bc];B[fd];W[qf];B[rf];W[ld];B[lc];W[ga];B[ec];W[eb];B[ed]
;W[dc];B[de];W[hc];B[hd];W[ia];B[jb];W[ja];B[ka];W[ha];B[kb]
;W[fb];B[jg];W[kg];B[io];W[hm];B[ip];W[ho];B[kp];W[jn];B[ej]
;W[hp];B[iq];W[fp];B[gq];W[hs];B[is];W[gs];B[gp];W[go];B[eo]
;W[fo];B[dn];W[en];B[ap];W[aq];B[ao];W[nn];B[nm];W[om];B[pg]
;W[oh];B[do];W[em];B[tt];W[tt]TW[aa][ba][ca][da][ea][fa][ab]
[bb][cb][db][ac][cc][ad][bd][lf][mf][nf][lg][mg][ng][lh][mh]
[nh][ji][mi][oi][pi][ij][kj][lj][nj][pj][ik][lk][mk][nk][ok]
[pk][hl][jl][ll][ol][gm][im][jm][gn][hn][on][pn][oo][po][qo]
[op][qp][rp][sp][pq][qq][rq][sq][ar][br][cr][dr][fr][pr][rr]
[sr][as][bs][cs][ds][es][fs][qs][rs][ss]TB[la][ma][na][oa][pa]
[qa][ra][sa][lb][mb][nb][ob][pb][qb][rb][sb][jc][kc][pc][qc]
[rc][sc][id][jd][rd][sd][ee][fe][ge][he][ie][re][se][df][ef]
[gf][hf][sf][cg][eg][fg][gg][hg][rg][sg][ah][bh][dh][fh][rh]
[sh][ai][bi][ci][ei][si][aj][bj][sj][ak][bk][sk][al][bl][sl]
[am][an][lp][lq][ir][jr][kr][lr][mr][js][ks][ls][ms]C[grelon [6k\]: merci
dawid963 [6k\]: thx

finally i won, but without killed n12 group it would be close game]
)
(;B[od];W[qf];B[rf];W[re];B[qd];W[rg];B[sf];W[rh];B[sh];W[pg]
;B[sg];W[si];B[sj];W[se];B[si];W[sk]))
(;W[ia];B[fk];W[fl];B[el];W[ek]
(;B[em];W[fj])
(;B[fj];W[gm];B[gl];W[fm];B[hl];W[gk];B[il];W[jj];B[jm];W[ho]
;B[ij];W[ik];B[gj];W[jk])))
(;W[nf];B[me];W[od];B[oc]))
(;W[od];B[oc];W[pe];B[pf];W[oe];B[qd];W[le];B[ke];W[kf];B[me]
;W[mf];B[ld];W[lg];B[mg];W[le]C[ko]))
(;W[ln];B[jm];W[jo];B[io];W[jp];B[hn];W[im]C[complicated, but I think what has a better chance here.]
))
(;W[lp];B[lq];W[jo]))
(;W[mi];B[ki];W[jh]C[black has no where to run really.  Only fix when you have, which takes some reading.]
))
(;W[jp];B[jq];W[ip];B[iq];W[lp];B[lq];W[kh]C[This seems better]
))
(;W[fi]))
(;W[ph]C[just hane when you can])
(;W[ci]C[thbsi is kinda nice too];B[bi];W[di];B[bh];W[cm];B[bm]
))
(;W[rk];B[qk];W[ri];B[pj];W[qi];B[pi];W[pk];B[pl];W[ok];B[ol]
C[it would be complicated])
(;W[ri]
(;B[qi];W[rk];B[pj];W[qk]
(;B[pk];W[pl];B[rl];W[sj];B[sl];W[sk];B[rh];W[rm];B[sh];W[sm]
;B[si];W[qm]C[Thsi is fine.])
(;B[pl]C[this gets complicated,];W[pk];B[ol]C[black is seperated. white has an eye already.]
))
(;B[rk];W[qi];B[pl];W[ol];B[pk];W[ok];B[pj];W[pi];B[oi];W[ph]
;B[ni];W[on]C[thsi way is bad for black.])))
(;W[pl]C[I calculated that Q8 kills r8

I'm not sure about that.  It seems like black has some options to escape here even still.]
;B[pk]
(;W[pm];B[qk])
(;W[qk];B[pm];W[ol];B[qm]))
(;W[ri]C[Perhaps you just need tp threaten soem of his points, before q7]
))
(;W[be]
(;B[ce];W[cd];B[bf];W[nc];B[bd];W[bc];B[ae];W[ac])
(;B[bf];W[nc];B[bd];W[bc];B[cd];W[cc];B[de];W[ad];B[ce];W[ed]
))
(;W[or];B[nr];W[be];B[bf];W[mc]C[Whtie has good claims to three corners with end game moves at c15 and p3 to make the corners big.  Plus white gets N17.  Black probably won't play along so nicely, but when do they ever? :)]
))
(;W[eg];B[ef];W[cg];B[df];W[dj]C[White can sacrifice any stone or even stones here, and still keep black to a reasonable amoutn of points.  Further, most of black's moves against it get a stone or two, but nothing much.  Wait till black presses on you to firm up your stones.  Black is then the one who has to pick which bad thing he wants to happen.

F17 and d16 are kinda pissed here :) but this is just one way to make some light shape here.  The key is sprinkling stones around in black's influence with good relations to each other.]

(;B[dk];W[gi];B[ci];W[ch];B[di];W[ei];B[cj];W[fj])
(;B[ch];W[ci];B[bg];W[bh];B[eh];W[cg])))
(;B[dq];W[cp];B[do];W[bn];B[em]C[This is the direction I would expect from black.  A bad relation with L3, but not terrible.  That bad relation is also why this way is fine for you.  K4 is a great reducing moves, and is probably needed right now.]
;W[jp]))
(;W[en]C[this is one possible direction for things];B[fp];W[dk]
;B[ck];W[dj];B[dl];W[el];B[cj];W[di];B[ch];W[eg];B[dm];W[cq]
;B[cp];W[bp];B[bo];W[bq];B[co];W[er];B[fr];W[eq];B[fq];W[dq]
;B[no];W[jp]C[the last two moves are for later.  and k4 makes this playable for you, as it is a natural reducing move.]
))
