(;FF[4]GM[1]SZ[19]ST[2]CA[UTF-8]AP[SGFC:1.15]

PB[DwDf]
BR[10k]
PW[bougetu]
WR[10k]
KM[6.5]
DT[2009-09-29]
PC[IGS-PandaNet]
RE[B+6.50]
TM[420]
RU[Japanese]

C[bougetu: Hi!
DwDf: hello

Dear reviewer!

This is a game I won on Pandanet by 6.5 moku. There wasnt much fighting, and it was close altough I cant see many mistakes on my part. I was losing till endgame and than I made a few moves I belive were quite good. Can you please comment it and point the weakness in my game? It would be great if you could tell me what literature to do or what games to study.

Regards,

Lovro Furjanic.

Hello, my name is Daniel and I'm 1-2 kyu on KGS. I added some notes for you. Major advice: don't stick to patterns, try to use your own understanding of the game, don't play moves that you don't understand. And always start from your weaknesses.

Also try to replay (on real board if possible) pro games (japanese pros 90s), this will improve your sense of shape and your understanding of Go.

I would also recommend to read fuseki books. Choose one fuseki (for example low/high chinese) and play 50 games using it, thus you will learn it.

If you have any Go related questions feel free to contact me via e-mail.

Best regards,
Daniel.];B[qd];W[dc];B[pq]C[I always do this with black

Daniel: Well, actually I would not recommend you to stick to one fuseki, especially this one. Komoku joseki are most difficult ones, so you should be ready for difficult games. As of myself I prefer to play komoku and hoshi as opening. The most important is that you should know how to use concrete fuseki, how to develop your position.]
;W[cp];B[ep]C[I prefer to kakari as soon as corners are taken. I know that R9 or Q9 would have been large. What other points of interest are there on the board?


Well, as I can see you are not really aware of this fuseki. As I know P17 is normal continuation for b. It's difficult to make 5th move wrong, it's just a matter of style or preference, to make shimari or to approach corner.
But R9 or Q9 are used for low and high chinese fuseki, when R16 stone is at star point.]
;W[gp];B[cq];W[bq];B[dq];W[bo]C[His shape is far from perfect.]
;B[gq];W[hq];B[gr]C[Maybe F3?

G2 is okey.];W[ip];B[oc]C[I know he has weakness but Im leaving it for later. He will now go Q5 and I will play O4

Shimari is very big. Yea, it's too early for attack.];W[fd]
C[Strange move.];B[qo]LB[ce:B][ci:A]C[Im more than happy to do two shimaries.

I would prefer invade his position A or B not to let him connect all stones in one frame because if you invade later it will be easier for him attack your stones. It's always a matter of time, good timing is a success to winning.]
;W[dj];B[ce]
(;W[jc]C[Wrong way of attacking.];B[ch]C[Also good for me I belive.

Yes, it's always good to make a base for weak group.];W[mc]
;B[pi]LB[pj:B][qj:A]C[Maybe R10 or 11. or Q10?

It's a rule to extend from shimari on 5 points. So A or B are best. B is preffered, because A gives low position for black.]
;W[ri]
(;B[qh]C[I tought for some time on this move. Im sure bnow that R11 was better.

Hard to say, but it looks for me you played in wrong direction.]
;W[rh];B[rg];W[qj];B[pj];W[ql];B[rk];W[qk];B[rm];W[rl];B[sl]
;W[qm];B[rn]C[This move and a few others were made under time pressure.


An advice I got from chinese 5 dan. When I studied Go, he said it's best not to play more than 3 games a day. Try to play fewer games but with longer time control and serious ones. This is the best way to improve.]
;W[qn];B[ro];W[sm];B[sn];W[qg]C[Overplay from white. White shouldn't start another weak group.]
;B[rf]
(;W[qf];B[qe];W[qi];B[ph];W[og];B[pg];W[pf];B[of];W[oe];B[pe]
;W[nf];B[oo]C[The result is a disaster for white. Now it's hard to lose the game.]
;W[sk];B[sj];W[si];B[sk];W[on]
(;B[om]C[No need to play so agressively. Just take points on attacking, it's the best strategy.]
;W[ol];B[nn]C[This move was without time pressure. I was very close (4 sec) to losing on time.]
;W[ok];B[nl];W[nk];B[ni];W[ml];B[nm];W[lk]
(;B[pf]C[Maybe too small. Im thinking about his weakness now.

Yea, it's too small. Always try to find an object for attack (not for kill).]
;W[nd];B[lq]LB[jq:A]C[Too far.

Yep, A is correct way of attacking. But you think in right direction.]
;W[mp]
(;B[mo];W[lp]
(;B[np]C[Your top priority should be not to let 2 weak groups connect.]
;W[mq];B[nq];W[kq];B[nr];W[mr]C[The result is very bad for black. White had 2 weak groups, now he has one strong and got points. And your corner is small.]
;B[br]C[if he doesnt answer, I go C6 and make great wall

Well the wall might be great, but that's not the point. The point is can you make your wall (thickness) effective.]
;W[ar];B[bs];W[ck];B[cn];W[bn];B[cm];W[bm];B[cl];W[bl];B[co]
C[Im more than happy. His moyo is down too nothing and I have really thick position.

You need thick position for attack. Your wall actually is not working because you can't use it for attack. White has now strong groups. The problem is that you lost sente.]
;W[bi];B[bh];W[cd];B[ci]C[BLunder. He didnt punish it tough]
;W[bj];B[bd];W[bc]
(;B[be]LB[dd:B][be:A];W[gc]C[B's group is not alive yet. I would prefer to play from it and destroy w's moyo.]

(;B[ho]C[Doesn't really give you anything, so it's a waste of ko threat.]
;W[hp];B[go]C[You can't make moyo here because of w's D10 stone.]
;W[fp];B[fo];W[fq];B[fr];W[eq];B[er];W[dl]C[I read this out and belive that the result isnt bad for me.]
;B[dp];W[bp]
(;B[em]C[What for is this move? You don't need to defend your group, it's not attacking, so it's just pass.]
;W[dm];B[dn];W[de];B[df];W[ef];B[ee];W[dd];B[eg];W[ff];B[dg]
;W[je]C[Now Im losing a belive.

Let's count. W has around 52 points plus komi. B has around 54. So the result will be decided in yose.]

(;B[li];W[lo]C[planning to attack the middle right group and build up my middle

MIddle? You don't have any points in the center.];B[ln];W[mj]
;B[mi];W[kn];B[km];W[lm];B[mn];W[kl];B[jm];W[jl];B[jn];W[ko]
;B[il];W[ik];B[hl];W[hk];B[el];W[dk];B[fj];W[ji];B[kj];W[jj]
;B[kk];W[jk];B[jg];W[ki];B[lj];W[ig];B[hg];W[if];B[ih];W[jh]
;B[hh];W[kg]C[I made a lot of points. on left in middle.

Not really. Around 5-6 points.];B[ng];W[mg];B[nh];W[gl];B[im]
;W[fk];B[gm];W[gj];B[fi];W[gi];B[gh];W[fh];B[fg];W[gf];B[hf]
;W[he];B[js]C[I belive it was the winning move. It destroyed his territory and there is a threat to kill the group]
;W[kr];B[jr];W[jq]C[I cant kill the eye because he goes J2 and Im captured. Do you see any other way?

Nope, I don't see the way to kill it.];B[jo];W[jp]LB[nb:B][ac:A]
[mf:C]C[These are biggest moves. A and B are sente.];B[hr]C[Do you need this move?]
;W[ks];B[ir];W[ns];B[os];W[ms];B[pr];W[pn];B[po]C[Small.]
(;W[nc];B[nb];W[mb];B[ac]C[I read that he must answer this because he cant take a ralllly big profit in upper right

Yep, it's your sente.];W[ab];B[ad];W[cb];B[ob];W[od];B[ma]C[dou bnle sente so. if he goes on o19 Im in trouble]

(;W[la];B[na];W[lc];B[mf]C[biggest point that I could see...]

(;W[me];B[lf]C[I tought I was losing so I had to risk something]
;W[le];B[kf];W[jf];B[lg];W[ah];B[ag];W[ai]
(;B[bg];W[io];B[ke]C[I calculated this was larger. Was it correct?

You need to defend Q16, it's urgent.];W[kd];B[ne];W[fl];B[fm]
;W[ej];B[ei];W[ek];B[in]C[bigger than D11 I belive

Yep.];W[di];B[eh];W[ii];B[hi];W[hj];B[nj];W[mk];B[pd]C[Nice, you first saw it.]
;W[gg];B[fh];W[oj];B[oi];W[lh];B[mh];W[kh];B[nf];W[sg];B[sf]
;W[sh];B[no];W[pk];B[pm];W[ll];B[tt];W[rj];B[sm];W[aq];B[cr]
;W[cj];B[tt];W[dh];B[tt];W[tt]C[You can check your score with the score command, type 'done' when finished.
Click on a group of stones to mark it dead and remove it from the board.]
;B[tt]TW[aa][ba][ca][da][ea][fa][ga][ha][ia][ja][ka][bb][db]
[eb][fb][gb][hb][ib][jb][kb][lb][cc][ec][fc][hc][ic][kc][ed]
[gd][hd][id][jd][ld][md][ee][fe][ge][ie][jg][aj][ij][ak][bk]
[gk][al][am][an][ao][ap][kp][lq][lr][ls]TB[oa][pa][qa][ra][sa]
[pb][qb][rb][sb][pc][qc][rc][sc][rd][sd][ae][re][se][af][bf]
[cf][qf][cg][mg][og][qg][oh][hm][en][fn][gn][hn][do][eo][so]
[op][pp][qp][rp][sp][oq][qq][rq][sq][dr][or][qr][rr][sr][cs]
[ds][es][fs][gs][hs][is][ps][qs][rs][ss]C[Game 671 DwDf is removing @ E15
Game 671 DwDf is removing @ M3
Game 671 DwDf is removing @ P13
You have typed done.
bougetu: 62.5 to DwDf: 69.0


Thank you for reviewing my game!])
(;B[pd]))
(;W[pc]C[This way you lose the game. 
Here is golden rule: Always play from your weakness. Don't rush to take points, think of your weakness first.]

(;B[pd];W[pb])
(;B[pb];W[qc];B[qb];W[rc];B[rb];W[pd])
(;B[qc];W[pb])))
(;W[pc]C[What about this move? I don't see how can black stop it.]

(;B[pd];W[pb]
(;B[pa];W[na];B[oa];W[qa])
(;B[qb];W[oa]))
(;B[pb];W[pd];B[qc];W[na];B[oa];W[la];B[qb];W[na])))
(;W[nb];B[ob];W[oa];B[pa];W[na];B[pb];W[lg]C[This way he might have won.]
))
(;B[kf]C[This looks more effective, also pointing at O13 cut.]
))
(;B[mj];W[mk];B[jk]C[Group is still eyeless, I would prefer an attack.]
))
(;B[fh]))
(;B[dd]LB[dd:B][be:A]C[White can't play A.]
(;W[be];B[cc];W[ad]C[I was afraid of this.

Actually the result is good for you. Ko is much bigger for him than for you.]
;B[cb];W[bf];B[cf]C[See, white can't play this way.])
(;W[cc];B[be];W[de];B[df];W[ed];B[ff])))
(;B[kp];W[mq];B[kq];W[lo];B[ko];W[ln];B[ho];W[hp];B[kn];W[lm]
;B[in]))
(;B[lp]C[This move looks better. Always try to think of the whole board.]
;W[mo];B[kn];W[ln];B[lo];W[mn];B[ho];W[hp];B[jq]))
(;B[jq])
(;B[mj];W[mk];B[lm]))
(;B[no];W[nm];B[ln];W[nk];B[jq]))
(;W[pg]C[This way you can't kill white. A difficult fight is coming, but b is better as he has one weak group and white 2.]
))
(;B[qk];W[rk];B[ql];W[qg];B[jq]C[This way you prepare indirect attack on w's weak group and build your frame work.]
))
(;W[cd];B[de];W[dg];B[fe];W[gd]C[You see, you missed the invasion, now the invasion is hard, and he gets points attacking you, you can't make base.]
))
