(;FF[4]GM[1]SZ[19]ST[2]CA[UTF-8]AP[SGFC:1.15]

PB[wren]
BR[3k]
PW[Hylebos]
WR[2k]
KM[6.5]
DT[2009-10-07]
PC[The KGS Go Server at http://www.gokgs.com/]
RE[W+2.50]
TM[1200]
OT[5x40 byo-yomi]
RU[Japanese]

C[Hello, and thank you for reviewing my game!  This was an even game (6.5 komi) between me and a kgs 2k. I took black (wren).
This was my first even game in almost a year.  I feel I really took control for a lot of the game and could easily play at 1-2k as I get back into things, but have some gaping holes in my play still that need to be worked on.  We were a bit chatty, I will try and leave my comments above the conversation in a sepereate section to keep it clear.]
;B[pd]C[wren [3k?\]: hello
Hylebos [2k\]: Have a good game and good luck with the rank :)]
;W[dp]C[wren [3k?\]: have a good game
wren [3k?\]: thanks!];B[cd];W[pp];B[ic]C[I like the chinese opening, it makes me feel solid with a lot of potential for expansion.]
;W[qf];B[pf]C[____
Reviewer: This move might be rushing it a bit, this move is not really wrong, but i feels it contradicts a bit the low chinese. It gives you and your opponent a strong position, while the low chinese opening is more terretorialy oriented, and whites two starpoint stones gives him an influence oriented game.]
;W[pe]LB[oe:A][qe:B]C[This surprised me.  Maybe it is a lesser known joseki variation, but I felt I got the upper hand from the resulting sequence.

___
wren [3k?\]: hm
Hylebos [2k\]: Yup.
Hylebos [2k\]: I'm pretty sure this will work.
wren [3k?\]: ok
wren [3k?\]: it isn't joseki, but it is interesting
___
Review:
This is a borderline trickplay, given that white has the ladder. If white doesnt have it, it is disaster for white, you should come out of this ahead.
A is correct
B is the ladder does not work for white];B[oe];W[qe]
(;B[of]C[At this point I already feel like I will have a significant advantage due to my outward influence, even if I lose the corner.  However, looking back, This sin't much better than the normal joseki, and I end up losing the corner.

___
Hylebos [2k\]: I thought it was.  =(];W[qd]C[Considered hane here, but felt I shoudl just play it safe.]

(;B[pc]C[wren [3k?\]: hehe];W[pg]
(;B[nq]LB[cn:A]C[Looking back, something around d10 seems stronger, as it puts my influence to good use.  I hate dealing with an oponent's strong area of control, though, so I tend to jump in early.

___
Reviewer: Personally i would play at A, in order to try and get huge influence on the left. But this is not wrong.]
;W[kq]
(;B[qn]C[This was pretty much on impulse.  not sure if I like it.  I think i was considering attacking the top stones, but this seems silly now, they are very thick.

____
Reviewer: This move works in a way, might want to play a high move or just go in at 3,3 point. Whites move is quite bad, and regarded as nonstandard]
;W[pn]
(;B[qq];W[pq];B[qp];W[pm]C[White gets awesome influence.  This is just silly.

___
Reviewer: That is why you play the hane];B[qm];W[qo];B[ro];W[po]
;B[pr];W[or];B[qr];W[oq]C[At least I get sente to counter act the wall I just built him.]
;B[dj]C[Finally, where I should have started...

____
Reviewer: Good move];W[ps]C[meh..

____
Reviewer:
Bad move];B[ql];W[pl];B[qk]C[Sure, I'll take a bit more territory and threaten your stones...

____
R: This push and crawl favours you in a way, because white answers, he can tenki without worries because your corner is open]

(;W[qi];B[cn]LB[jo:A]C[Now I'm feeling good.  Whites wall is huge, but I got the approach and th ehigh start at d10, so I'm feeling good about my prospects.  I don't know why I always undervalue my opponent's influence and overvalue mine, but this felt dominant to me.

______
R: You are ahead, but also think about different mesures of reducing white such as A.]
;W[dg]
(;B[ch]C[perhaps a bit conservative... Maybe Black should press down a bit because of the c16 stone on the third line preventing w from entering the corner, then launch an attack on the thin ness around g3?

_____
R: This is a bit direct, and i feel it strengthens your opponent, you should attack him while taking terretory]
;W[ee];B[ec];W[fc]C[This exchange turns out poorly...];B[ed]
;W[fd];B[fe]C[I'm not sure why I decided to give up the corner... I think I ready something else.]
;W[de]
(;B[ge];W[dd];B[dc];W[cc];B[cb];W[bc]
(;B[bd];W[bb];B[fb];W[be]C[For some reason I wasn't thinking about those two stones.  Bad result.]

(;B[ip]C[wierd placement, a little cose to w's wall and too far away from d4 to attack it.


____
R: Yes double approach is a good move, is a good reduction move, but lacks a bit of force]
;W[go]C[w gets to come calmly into the center.];B[gq]LB[kp:A]
C[I decide to dig in.

____
R: Quite complicated, but it works. Attach at A might work aswell, as it strethens your group, white is more than strong enough with his wall, he does not gain much here.]
;W[jo];B[cq]C[Quite risky What if white play  the other side?]

(;W[cp];B[dq];W[ep];B[eq];W[fp]C[You are safe and winnning]

(;B[em]LB[io:A]C[Feeling great here.  W's d4 wall is all but useless.  He has a lot of power building in the center, but my top side is bigger, and I've got more territory on his half of the board as well.  Of course, I didn't see how rough it could get for my bottom left group.

How should black continue  most simply from here to clinch the win?
How should white fight his way back into it?
__________
R:
Playing low is better, safer. You are winning no need to take risks, but als see the potential of this move leaving tyhe cut at A a possibility

White has to make a daring invasion of the top if he wishes to keep himself in the game,]
;W[fq];B[fr]C[(there was a misclick here)
___
Hylebos [2k\]: Accidentally hit my undo >.<
Hylebos [2k\]: Meh, problem solved.
wren [3k?\]: haha
Hylebos [2k\]: I was like.... F1 isn't a tesuji I know...
wren [3k?\]: lol];W[bq]C[Things are getting ugly..

___
wren [3k?\]: this is true]
(;B[hq]C[This is really bad];W[ir];B[hr];W[cr]C[Life dissapearing...]
;B[er];W[bo];B[io]
(;W[jn];B[in];W[gm];B[bn]TR[jr]C[This is a bit cowardly, this group is safe enough and white has managed to get a base, get your other group out. The marked space gives you life if you are worried]
;W[il]LB[lk:B][jr:A]C[W gets the best of the last 20 moves or so for sure.  B's group is in trouble, and w's influence is spreading...
-----
R: This is too sente, white can capture the three stones. You can play B and se how he responds, the probe you play makes your stone really weak and heavy right away, It does not give you much potential for further reduction]

(;B[ok]C[probe.];W[pk];B[nh];W[og];B[ng];W[nj];B[li];W[gb];B[gc]
C[Hylebos [2k\]: Ah, now I remembe rwhy that doesn't work.
wren [3k?\]: ^_^];W[ig]C[Oh no you didn't. Get out of my house.]
;B[ii];W[fg];B[gg];W[gh];B[hg];W[ih];B[hh]C[mine.];W[ji];B[jj]
;W[ij];B[hi];W[kj];B[jh];W[ki];B[kh];W[lj];B[mi]C[We now both have our territories laid out. I let white get quite a bit more than I expected.  It will have to come down to some clever reducing to win now.]
;W[mj]
(;B[fh]LB[qc:A][jr:B]C[This is too small, A abd B are the large moves]

(;W[eg];B[bf]
(;W[ce];B[jr];W[jq];B[iq];W[kr];B[is];W[ks]
(;B[js]C[wren [3k?\]: sigh ooooo kayyy

(I did NOT want to spend a move here, but without it there is a ko?)
_____
No];W[qc]C[wren [3k?\]: i'll build life];B[pb]C[Big.];W[qb]

(;B[nd]C[wren [3k?\]: that was big
wren [3k?\]: i wanted to hane
Hylebos [2k\]: Well you should have done that first because I didn't see K2 =(
wren [3k?\]: lol
wren [3k?\]: yeah, but making sure i was alive down there was nice
wren [3k?\]: <P
wren [3k?\]: wouldn't want it to come back to bite me
Hylebos [2k\]: I can't argue with that.];W[dk]C[wren [3k?\]: eek
Hylebos [2k\]: This should be interesting.]
(;B[ck]C[I fall back too much here, I don't think it was necessary. the game is tilting away from me.

___
wren [3k?\]: yup
R: This is quite complicated, and playing the low hane lets you play it the easy way out]
;W[dl];B[cl]C[Hylebos [2k\]: Dans do it all the time and I figured I should give it a try.]
;W[dm];B[dn];W[fk]C[This is a crazy concession.]
(;B[fj]C[Misclick.  I went with it, it wasn't that bad of a move.

___
wren [3k?\]: whoops
wren [3k?\]: oh well lol
wren [3k?\]: thats fine];W[ej];B[ei]C[wren [3k?\]: turning of touch to click on mousepad
wren [3k?\]: hate that thing
wren [3k?\]: =)];W[ek]C[Hylebos [2k\]: Tell me about it.];B[cj]
;W[en]C[wren [3k?\]: should have gotten that ><
wren [3k?\]: darn mislick lol
wren [3k?\]: let's see];B[gk];W[gj];B[hj];W[ik];B[gi];W[gl]
;B[cm];W[fl];B[rj]C[wren [3k?\]: sory phone];W[ri]C[Hylebos [2k\]: Alright.]
;B[si];W[pa]C[Hylebos [2k\]: Up for a game of mutally ensured destruction?]
;B[oa]C[wren [3k?\]: ^^];W[qa]C[wren [3k?\]: i was just thinking that]
;B[nb];W[sh]C[wren [3k?\]: good move
wren [3k?\]: lots of kyu players just respond mindlessly];B[sj]
C[wren [3k?\]: lose 20 pointson the endgame <P
Hylebos [2k\]: Well you see, I really wanted to play that move and your sente moves were ticking me off ^,&
wren [3k?\]: haha
wren [3k?\]: that's my motto
wren [3k?\]: "frustrate them with sente!"];W[rh];B[jp];W[kp]
;B[jm]C[Probing for some weakness. I feel like I have a slight advantage but would love to pick up a few points in here.  My endgame is weak and I want a bigger buffer.]
;W[im]C[wren [3k?\]: oh lets just use up some aji];B[ko];W[kn]
;B[lo];W[mr]C[Here I am getting devious...];B[oh];W[ph];B[oj]
;W[oi]C[I agonized over this.  There are a ton of weak points, and I feel like I can get something.]
;B[pj];W[ni]C[I was hoping he would defend at q11 and let me connect, and I was tempted to cut q11 and fight out his invansion at m12, but it was too risky.
___
wren [3k?\]: this is the interesting variation...
Hylebos [2k\]: You would prefer the one where I let you into my big territory with no questions asked?
wren [3k?\]: lol]
(;B[lg];W[qj];B[km];W[ln]C[No ladder];B[rk];W[qs];B[rs];W[os]
;B[rq];W[eb];B[gd];W[db];B[ea];W[ca]
(;B[nl];W[mn];B[pi];W[qg];B[bg]C[One liberty short of killing. =(  I'm now just a few points behind, with nothing I can see to make it up.

____
Hylebos [2k\]: These better not be time tesujis for some super plan you are devising.
wren [3k?\]: ah for a liberty ^_^];W[ff]C[wren [3k?\]: i'm one short, alas]
;B[gf]C[Hylebos [2k\]: Verily.];W[dh];B[eo];W[fn];B[do];W[hk]
;B[gj];W[di];B[ci];W[hn];B[dr];W[bs];B[gp];W[fo];B[ao];W[ap]
;B[an];W[co];B[eh];W[da];B[fa];W[cg];B[cf];W[df];B[bh];W[af]
;B[ag];W[ae];B[ds];W[cs];B[ho]C[Hylebos [2k\]: Hah, and no dame too.]
;W[tt]C[wren [3k?\]: pretty sweet];B[jk]C[We have a little crazy fun.

___
wren [3k?\]: waaaa
Hylebos [2k\]: Watashi was shinen!  Shinenzuuuuu! D:<];W[kk]
C[Hylebos [2k\]: *wa];B[mo];W[nn];B[tt];W[tt]TW[aa][ba][ra]
[sa][ab][cb][rb][sb][ac][rc][sc][ad][bd][cd][rd][sd][re][se]
[ef][rf][sf][rg][sg][qh][pi][jj][oj][pj][jk][lk][mk][nk][ok]
[el][hl][jl][kl][ll][ml][nl][ol][em][fm][hm][jm][km][lm][mm]
[nm][om][gn][on][ko][lo][mo][no][oo][bp][lp][mp][np][op][aq]
[lq][mq][nq][ar][br][lr][nr][as][ls][ms][ns]TB[ga][ha][ia][ja]
[ka][la][ma][na][gb][hb][ib][jb][kb][lb][mb][ob][fc][hc][jc]
[kc][lc][mc][nc][oc][fd][hd][id][jd][kd][ld][md][od][he][ie]
[je][ke][le][me][ne][hf][if][jf][kf][lf][mf][nf][ig][jg][kg]
[mg][ah][gh][ih][lh][mh][ai][bi][fi][aj][bj][ak][bk][sk][al]
[bl][rl][sl][am][bm][rm][sm][rn][sn][so][hp][rp][sp][sq][gr]
[ir][rr][sr][es][fs][gs][hs][ss]C[White by 2.5.   Ouch.  I went from feeling like I was in control to being behind to close loss.  Fun game, nonetheless.
I could use some advice on holding on to a won game, knowing when to fight, opening, and direction of play.

Thanks again for reviewing, and good luck in your games!

~Clayton Smith (wren)

_________
R: You played a good game, where you got a good strong position, some misjugements cost you a lot of points in the midgame, but you came into the endgame with a 10 point lead, sadly you managed to lose it...
Count more often and if you are ahead dont take any chances 


Beefheart


_____
wren [3k?\]: arg!
wren [3k?\]: no way
wren [3k?\]: that stings
Hylebos [2k\]: Thanks for the game :)
wren [3k\]: yes, thank you
wren [3k\]: man
Hylebos [2k\]: No more ?
Hylebos [2k\]: Yay.
wren [3k\]: e12 lost the game
wren [3k\]: boo
wren [3k\]: yeah i wanted 2k no ? tho lol
Hylebos [2k\]: I would have let you undo had you offered :0
wren [3k\]: no its ok
Hylebos [2k\]: Your rank can still move pretty quickly though :0
wren [3k\]: yeah
Hylebos [2k\]: Just beat up some six kyu :)
wren [3k\]: good game
wren [3k\]: haha
Hylebos [2k\]: Well I got a lab to go to.
Hylebos [2k\]: late.r
wren [3k\]: seeya
wren [3k\]: thanks again])
(;B[pi];W[nk]))
(;B[pi]C[Perhaps there is something?
No];W[lh]
(;B[lg];W[mh];B[kg];W[mg];B[nf];W[mf];B[le];W[qj];B[qg];W[rk]
;B[qh];W[sk];B[rg];W[sj];B[sf];W[se];B[re];W[rf]
(;B[sd];W[sg])
(;B[sg];W[rd]
(;B[qs])
(;B[nl])
(;B[km];W[ln];B[lm];W[mn]
(;B[nl])
(;B[mm]))))
(;B[mh];W[lg])))
(;B[fn];W[ej];B[di];W[bg];B[cg];W[cf];B[bh];W[af];B[dr];W[br]
;B[qs];W[os];B[qa];W[ra];B[pa];W[sb];B[rj];W[ri];B[si];W[sh]
;B[sj];W[rg];B[jp];W[kp];B[im]C[You should win]))
(;B[ek]C[Does whit even have a good response here?]))
(;B[nb]C[This is better, if you wanna play it safe]))
(;B[qc]
(;W[gs];B[fs];W[js];B[ds];W[dr];B[br];W[ir])
(;W[js];B[gs];W[ir];B[hs];W[es];B[ds];W[dr];B[br];W[cs];B[bs]
)
(;W[dr];B[gs])))
(;W[cf]))
(;W[iq];B[gs];W[hp];B[qc]))
(;B[jr];W[kr];B[jq];W[rb]))
(;B[lk]
(;W[lm])
(;W[ki];B[nj])
(;W[iq];B[gs];W[hp])))
(;W[in];B[hn]))
(;B[hr];W[cr];B[dr];W[ds];B[er];W[br];B[bo];W[bp];B[io];W[in]
;B[hn]C[Still possible];W[ho];B[jp]
(;W[jn];B[kp]C[white is destroyed])
(;W[ko];B[kp];W[lo];B[lq])))
(;B[cl])
(;B[bp]C[this works too];W[bo];B[bq];W[co];B[bn];W[ao];B[dl]
))
(;W[dq];B[cp];W[do];B[dm];W[io]))
(;B[fp];W[fq];B[gq];W[eq];B[gp];W[bp]))
(;B[bb];W[bd];B[fb];W[bf]C[This is better, now double approach his corner]
))
(;B[cc]C[This move works, split him and let him suffer]))
(;B[ed]C[This is better takes lots of points and white has to strenghten your group in order to gain stability or he risks losing his stone]
))
(;W[dl]))
(;B[pm]C[Play the hane here];W[on];B[qq]C[Now white has a choice and]

(;W[pq];B[qp];W[qo];B[ro];W[po];B[rm]C[This is generally regarded as good for B]
)
(;W[qo];B[pq];W[rn]C[Whites other option])))
(;B[qq]C[Where should white block?]
(;W[pq];B[qp];W[po];B[pr];W[or];B[qr];W[oq];B[qn]LB[np:A]C[This is quite good, white still wants to play A, and is a bit overconsentrated if he does]
)
(;W[qp];B[pq];W[op];B[nr]C[White is a bit overstreched])))
(;B[cn];W[fq];B[dj]))
(;B[qc];W[pc];B[od];W[qb];B[rc];W[rb];B[oc];W[pb];B[qg]))
(;B[od]C[____
Reviewer, this is more correct. Defend the corner if possible, and this should give you a good result]
;W[pg];B[of];W[qd];B[qc];W[rc];B[rb];W[qb];B[pc];W[rd];B[pb]
;W[qk]C[This looks even, or perhaps a bit better for black]
))
