(;FF[4]GM[1]SZ[19]ST[2]CA[UTF-8]AP[SGFC:1.15]

PB[Yaoundee]
BR[11k]
PW[Sassan]
WR[10k]
KM[0.5]
DT[2009-10-06]
PC[The KGS Go Server at http://www.gokgs.com/]
RE[B+12.50]
TM[360]
OT[6x360 byo-yomi]
RU[Japanese]

C[Sassan [10k\]: hi
Yaoundee [11k\]: hi gg

Dear reviewer, can you review for both sides please? I'll sent it to Sassan.

As to me, this was a difficult game. Although I could control it a great deal the many fighting places confused me. I think I could have played much better the second half of the game. Technical I tried to stick to the basics, which I'm studying at the moment.
Can you tell me where I can improve my play?

Thank you very much for taking the time!
  Yaoundee];B[pd];W[dp];B[ce];W[pq];B[po];W[qm]
(;B[qp]C[I don't like this move, its somehow akward, maybe its better to stick to the joseki]
;W[qq];B[rp];W[rq];B[np];W[pp];B[pn];W[nq];B[mp];W[qo];B[qn]
;W[ro];B[rn];W[sp];B[qj];W[dc];B[ed];W[ec];B[fd];W[gc]
(;B[cd]C[this move is a little slow for B];W[gd];B[kc];W[ke]
C[W:usually a move like this one works for reducing territory, which at this point of the game isn't a priority]
;B[md];W[qc];B[qd];W[pc];B[oc];W[ob]
(;B[nc];W[nb];B[mb];W[rd];B[re];W[rc];B[qf];W[jc];B[jb];W[jd]
;B[ib];W[me];B[ne];W[fc];B[cc];W[cb];B[dj];W[mq];B[kp];W[oj]
;B[mf];W[le]
(;B[ol]C[I think this move wasn't very good for B, there is a go proverb, "Use the Knight's move to attack, the 1-point jump to defend", it was better got B to attack with a knight's move in my opinion.]
;W[pk];B[pl];W[rm];B[sn];W[qk];B[ql];W[rk];B[rj];W[oh];B[qh]
;W[nf];B[mg];W[mh];B[ng];W[mk];B[kg];W[kk];B[ig];W[bb];B[je]
;W[ie];B[jf];W[kd];B[hd];W[he];B[hc];W[id];B[ge]C[this could start a fight that in my opinion could be better for B, don't know if you saw this move, it also depends on your style of play, but I would have cut without hesitating]

(;W[gf];B[fe];W[hf]
(;B[ji]TR[je][jf][ig][kg]C[I think this is a mistake for B, becouse although this grouop is somewhat light, its still very solid, so G12 coudl be played without risk.
K11 does absolutely nothing in my opinion, becouse you are trying to secure a group that's already safe]
;W[hh];B[ij];W[dd];B[de];W[ff];B[ee];W[ei];B[fh];W[eh];B[ch]
;W[hb];B[ic];W[hj];B[hk];W[gj];B[lc];W[mn];B[il];W[fk];B[cm]
;W[dn];B[dm];W[cn];B[fp];W[em];B[el];W[fl];B[fm];W[en];B[bm]
;W[fo];B[gm];W[ek];B[dl];W[dk];B[ck];W[cj];B[bj];W[di];B[ci]
;W[ej];B[go];W[nl]
(;B[ok];W[pj];B[nk];W[nj];B[nm];W[ml];B[ln];W[lm];B[rl];W[kn]
;B[lo];W[kl];B[jm];W[nh];B[eq];W[dq];B[dr];W[cr];B[er];W[bn]
;B[bp];W[bq];B[eo];W[ep];B[fn];W[kr];B[lq];W[lr];B[km];W[mm]

(;B[jq];W[fi]C[Its amazing how this move you guys played it at this point, B could have kill all W's group before, its a tsumego, whoever played first won]
;B[jr];W[ae];B[bf];W[sj];B[sh];W[oo];B[nn];W[no];B[on];W[mo]

(;B[sl];W[sk];B[bc]
(;W[ac];B[si];W[li];B[hg];W[gg];B[hi]
(;W[gi];B[ii];W[am]
(;B[al];W[an];B[bk];W[pg];B[og];W[ph];B[qg];W[pf];B[of];W[pe]
;B[qe];W[af];B[bg];W[gb];B[ag];W[ad];B[na];W[pa];B[sb];W[rb]
;B[sd];W[sc];B[se];W[oe];B[od];W[kh];B[lg];W[dg];B[ih];W[gh]
;B[kj];W[lj];B[pi];W[oi];B[qi];W[ki];B[jj];W[js];B[is];W[ks]
;B[hr];W[mr];B[op];W[oq];B[lp];W[jh];B[jg];W[ds];B[es];W[cs]
;B[kb];W[gl];B[hl];W[ef];B[ea];W[db];B[do];W[co];B[fo];W[cp]
;B[bd];W[kq];B[jp];W[cg];B[be];W[ab];B[ha];W[ga];B[ia];W[jk]
;B[ik];W[df];B[ma]
(;W[oa];B[qa];W[pb];B[ra];W[sa];B[br];W[aq];B[sb];W[cf];B[bh]
;W[sa];B[bs];W[cq];B[sb];W[bl];B[qb];W[cl];B[ai];W[ak]C[B actually]
;B[cj];W[al]
(;B[tt]C[this game isn;t over]
(;W[tt]TW[aa][ba][ca][da][ea][fa][eb][fb][eg][fg][fh][mi][ni]
[fj][mj][lk][dl][el][ll][bm][cm][dm][ao][bo][ap][bp][qp][rp]
[sq][ar][br][nr][or][pr][qr][rr][sr][as][bs][ls][ms][ns][os]
[ps][qs][rs][ss]TB[ja][ka][la][oa][pa][sa][lb][nb][ob][pb][rb]
[mc][pc][qc][rc][sc][nd][rd][nf][rf][sf][rg][sg][ah][rh][bi]
[ri][hm][im][om][pm][qm][rm][sm][gn][hn][in][jn][kn][ho][io]
[jo][ko][gp][hp][ip][fq][gq][hq][iq][fr][gr][ir][fs][gs][hs]
C[B wins by 3.5 if he decides to seki, and by 11.5 if he plays Q7]
)
(;W[pm]C[seki];B[tt];W[so]))
(;B[pm]))
(;W[qa]C[this is the way to close]
(;B[pb];W[oa])
(;B[oa];W[pb])))
(;B[gh];W[fg];B[gh]C[W dies]))
(;W[gh]C[W lives]))
(;W[pm]C[seki]))
(;B[pm]))
(;B[hg];W[gg];B[eg];W[fg];B[fi])
(;B[fi];W[gi];B[ii]))
(;B[hg];W[gg];B[eg];W[fg];B[fi];W[ef];B[dg];W[df];B[cf];W[dh]
;B[cg]C[B wins]))
(;B[gh]
(;W[ff]
(;B[ef])
(;B[de]C[theres no escape for W in my opinion, B just have to play calmed and slowly surround W]
))
(;W[hg];B[hh];W[ih];B[jh];W[dd];B[de];W[ff];B[ee];W[fh];B[fi]
;W[ii];B[eh];W[lg]
(;B[lh];W[lf];B[nh])
(;B[lf]
(;W[kf];B[lh];W[if];B[jg])
(;W[lh];B[kf]C[see no worries, when I attack with the knight's move I always expect to be cut, but you have to read wheter the remaining groups will be safe, if so, then attack!]
)))))
(;W[fe];B[gf];W[dd];B[ee];W[de];B[ef];W[df];B[bg];W[hb];B[ic]
;W[kb];B[ka];W[lc]
(;B[gb];W[mc];B[lb];W[ma];B[kc];W[ff])
(;B[la];W[mc];B[gb];W[lb];B[ma];W[na])
(;B[lb];W[ia];B[kc];W[ff];B[kb]
(;W[eg];B[hg])
(;W[gg];B[hf];W[hg];B[if]))))
(;B[ok];W[pj];B[pk];W[qi];B[qk];W[nj])
(;B[pl];W[pm];B[om]))
(;B[nb];W[nc];B[od];W[mb];B[pb];W[na];B[qb];W[kb]
(;B[lc])
(;B[jc];W[jb];B[ic];W[ib];B[ie]C[B can profit a little bit more from W 's premature invasion]
)))
(;B[fc];W[fb];B[gd];W[hc];B[cj]C[B can settle quickly]))
(;B[ro])
(;B[qq])
(;B[pm]))
