(;FF[4]GM[1]SZ[19]ST[2]CA[UTF-8]AP[SGFC:1.15]

PB[cb22]
BR[6k]
PW[Abydos1]
WR[5k]
KM[0.5]
DT[2009-10-20]
PC[The KGS Go Server at http://www.gokgs.com/]
RE[W+3.50]
TM[1200]
OT[5x30 byo-yomi]
RU[Japanese]

C[Hello to my dear reviewer,

I'm cb22, 6k KGS and I play black in this game. The game was quite even (until I make a big mistake) and I would like to know what are my weak points.

I really want to improve my way of playing. It's hard to change my style of play, which is kinda automatic. I don't know how to construct my reflection about what to play ! - I impose myself to find 3 good things about why to play a point and not another, but sometime my hand don't wait !

I'll hope you will enjoy to review my game !

Hello, Clement, I am Bernd from Germany, I play as HonFu (1d) on KGS. I suffer from the blitz-disease myself and have found no solution for it yet. If you play quickly, you got to rely on your intuition.

If I should say which is your largest weak point, I would say it is your perception of the safety of groups. In many cases you did not kill when you had a good chance, and you died where you didn't need to. I hope that after this review your intuition for that aspect of the game will have improved a bit!]
;B[qd]C[I wanted to start with a double komoku opening, but I don't know if it's playable whatever my opponent does...

Hon.: It is.];W[cp];B[pq];W[dc];B[nc]C[Is there a better corner in this position ? (R5/6 extension)

I hesitate here with P17 and M17. I like those 3 extensions.

Hon: Securing the upper right corner is normal, since white would attack there next and at the same time extend from D17.

If he attacks your lower right, that stone will be inside your moyo, and it will have no relation to the lower left, so that is in theory good for you.

How you save the upper right is a matter of taste. P17 is most solid, and the farther you extend from there, the more it changes from territory to moyo.]
;W[qj];B[qn]LB[po:B][qo:A]C[Is it too timid ? I know that the R10 invasion is miai generally but I didn't want to let white put pressure on my Q3 stone and let him have a 3 space extension.

Hon: This move is the most normal move.

Traditionally white would prevent the second shimari at A or B. Since he did not do it, you take the shimari. The point you took is the only one, because now the right side is NOT miai anymore (see variation). White has to extend, and then you have sente and can go on with the opening.]

(;W[qf]
(;B[qh]C[Is the invasion too early or too risky ? I felt it was good for me as this side was dominated by black

Hon: I think, you can invade here, but there is some bad aji in the corner, since you went to O17 and not P17 (see variation).]

(;W[of]
(;B[oh]
(;W[ql];B[oj]C[Hon: This is normally bad shape, when R10 has help at R8.]

(;W[ok];B[nk]C[I don't think the hane was the good answer (or maybe on the other side at Q9?). I wanted to put pressure on the 3 white stones and attack the 2 upper white stones.

Hon: If you want to build up influence to attack the upper group, then the hane is just right.]
;W[ol]
(;B[on];W[nj]
(;B[ni]C[Hon: This kind of atari normally is bad, because you help him to get out.]
;W[mj]
(;B[ml];W[pj];B[oi]
(;W[ri]C[Hon: Thank you, white!];B[rh]C[I played on the second line to not let white connect.

Hon: Good.];W[nm];B[ll]C[Hon: A bit timid, but I see what you were afraid of.

If you have to ensure connection, at least take the diagonal move!]
;W[kj];B[lo];W[eq]C[Hon. Hm. can you kill him now? 

Since you played the surrounding move at M5, it would at least be the logical thought now.]

(;B[de]C[White as made a shimari I can't let him have a second one. But maybe the approach is wrong ?

Hon: From the viewpoint of opening theory this is logical, but there is an important go proverb.

"Urgent before big!"

When there is the life or death of large groups at stake, then you do not play large moves. 

You can see that when you watch a dan game on KGS. The board seems quite open, and there is lots of place on the sides, but the players rather play out a running battle. Why? Because matters of life and death, of attack and defence, always have priority before large points!]

(;W[dh];B[ge];W[gc];B[fh];W[eg];B[ff]C[I really liked this move, allowing black to connect his four stones and keeping white separated.

Hon: I also like this kind of moves. :-)];W[ck];B[fc];W[fd]
;B[gd];W[fb];B[hc]C[I'm still trying to isolate the two white stones on the left and create a big territory

Hon: Do you mean the two white stones on the right? That's where your focus should go. And to the other weak group around L10.

The strategy should now be, as you do, to build some influence in sente, then to split those two groups, start a double attack and kill one of them. If they don't die, at least get more influence and points at the top. 

But really - one of them should die.];W[gb]
(;B[iq]LB[kq:A]C[Hon: This totally disregards the urgent matters at hand. 

Furthermore, it is not a very good point, since it has no good connection to the M5 stone. Your stone, if played in this area at all, should be at some place like A.]

(;W[ic]C[Hon: Why are we playing endgame now? :)];B[hb];W[mf]

(;B[lh]C[Hon: Now white should see that he lives at the top, no matter how.]

(;W[ij]
(;B[im]C[Hon: I think, the top is the urgent place.];W[jh];B[kg]
;W[kh];B[li];W[lj];B[lf];W[mg]
(;B[jg]C[I wasn't afraid of the white cut as I can still connect with S14, but maybe there was a better move?]
;W[lg]C[Hon: Now white can cut and use the bad aji to live, although he should have just died a natural death.]
;B[rf]C[Hon: Now white should just try to live.]
(;W[qg];B[rg];W[pc]C[Hon: Terrible. 

White can not invade, when he's dying on the outside. Even in a handicap game this would be risky.]
;B[pd];W[oc];B[od];W[nb];B[mc];W[le]
(;B[mb];W[ig]
(;B[je]C[Big mistake here... It's maybe what cost me the sure win...

Hon: The actual mistakes were earlier, where you waited for your opponent's weakness to just be repaired, and did not attack immediately.]
;W[jf];B[ie];W[kd];B[jc];W[nn]C[Hon: So here white aims on your thinness. You got to find a way to solidify.]
;B[no];W[oo]
(;B[op]C[Hon: Like this you just invite the counter atari.]
;W[po];B[qo];W[mo];B[np];W[mp];B[mn];W[ln];B[mm];W[kn]C[Hon: I think, if you can, you have to refuse coming under attack. This is YOUR territory!]

(;B[ko]C[Hon: Like this you are pushing him from behind. That is generally bad, especially if you push him into a direction he wants to go anyway. Like here towards the outside, aiming at the thinness around K7.]
;W[jn];B[jo]C[Hon: Even worse ...];W[in]C[Hon: ... since now J7 gets actually hurt. 

But once started, it was hard to stop the pushing action. I can see the problem ... consider the easier variations I showed you.]
;B[om]C[Hon: This move forces him to connect, but his connection will make him atari the crucial cutting stone at P9. Stones that cut groups apart shouldn't be lost, so you can't easily sacrifice it. 

Which means, P7 is a move that hurts yourself more than him.]
;W[nl];B[io]C[Hon: The final push ...];W[hn]C[Hon: ... and he's out.

Remember, because it's very important and basic. Don't push from behind!]
;B[mq];W[qm];B[pn];W[ho];B[hp];W[gp];B[di];W[ch];B[dk];W[dj]
;B[ej];W[cj];B[eh];W[ef];B[ee];W[ci];B[dl];W[jp];B[ip];W[fj]
;B[ei];W[fk];B[ek];W[qc];B[rc];W[ke];B[if];W[hg];B[gl]C[Hon: This is a cut-me-move. You can only play it in special situations where you have read out that you can capture the H6-group for example. If you can't, then this is just bad technique.

Cut the opponent - not yourself!];W[ib];B[ha];W[jb];B[kc];W[jd]
;B[id];W[lc];B[lb];W[kb];B[go];W[fp];B[fn]
(;W[kl]C[Hon: Good move.];B[kk]
(;W[jk];B[km];W[jl];B[jm];W[hm];B[il];W[hl];B[hk];W[ik];B[lm]
;W[lk];B[lp];W[mo];B[mp];W[mk];B[mo];W[gk]
(;B[gm];W[hj];B[gn];W[hk];B[fg];W[cf]
(;B[df]C[Hon: Do not go for two stones.];W[dg];B[cl];W[ce];B[bl]
;W[ed];B[fe];W[cn];B[dd];W[ec];B[cd];W[bd];B[cc];W[db];B[bc]
;W[bn];B[cb];W[rd]
(;B[rb]C[Here is another of my mistake. Saving my stones and let white lives small in the corner is bigger...

Hon: Maybe the mistake is later.];W[nd]
(;B[ob];W[re];B[qb];W[qe];B[ne];W[oe];B[md];W[pe];B[pb];W[me]
;B[nf];W[ng];B[og];W[nd];B[qi];W[rj];B[bg]C[Hon: Good question. Is he alive? 

This of course would be a good moment to really read carefully before you try to kill and rather give him life.]
;W[bh]
(;B[aj]C[Hon: One point too short.];W[ai];B[ak]C[Hon: After this no more comments. Some more hints at the very end!]

(;W[ag];B[bf];W[be];B[af];W[ad];B[ah];W[bi];B[ag]C[Hon: He should have started a ko fight at least.]
;W[em];B[hf];W[rm];B[rn];W[hr];B[ir];W[hq];B[dn];W[dm];B[cm]
;W[en];B[hs];W[gr];B[gs];W[fs];B[is];W[fr];B[da];W[ea];B[ca]
;W[ac];B[ab];W[gh];B[gg];W[hh];B[bp];W[bq];B[bo];W[co];B[am]
;W[an];B[bm];W[sn];B[so];W[sm];B[sd];W[se];B[sc];W[sp];B[ro]
;W[qp];B[pp];W[ga];B[ne];W[fi];B[el];W[fl];B[ld];W[kc];B[ka]
;W[ia];B[hd];W[la];B[ma];W[pm];B[nd];W[nf];B[tt];W[bk];B[al]
;W[tt];B[tt]TW[fa][eb][fc][jc][kf][lf][pf][rf][sf][jg][kg][og]
[pg][rg][sg][ih][lh][mh][nh][oh][ph][qh][rh][sh][gi][hi][ii]
[ji][ki][li][mi][ni][oi][pi][qi][si][gj][jj][oj][sj][kk][nk]
[pk][qk][rk][sk][gl][pl][rl][sl][fm][gm][dn][fn][gn][ao][bo]
[do][eo][fo][go][ap][bp][dp][ep][aq][cq][dq][fq][gq][ar][br]
[cr][dr][er][as][bs][cs][ds][es]TB[aa][ba][na][oa][pa][qa][ra]
[sa][bb][nb][sb][ac][oc][pc][qc][ad][bd][ae][be][ce][he][cf]
[ef][gf][cg][dg][eg][bh][ch][dh][ai][bi][ci][bj][cj][dj][bk]
[ck][oo][po][jp][kp][qp][rp][sp][jq][kq][lq][nq][oq][qq][rq]
[sq][jr][kr][lr][mr][nr][or][pr][qr][rr][sr][js][ks][ls][ms]
[ns][os][ps][qs][rs][ss]C[Thanks for the review. I hope it wasn't too much annoying ^^

Hon: Haha, not at all! :)

I think that you tend to get confused in fights and lose out of sight what is important. When there is a group to kill, your sword is not ready, or not sharp. But even when it is not about killing, you play sequences that rather help the opponent than you, or you overlook a tesuji that would help you or hurt him.

In short - you should work at your fighting skill. 

Two basic ways to do this:

1.) Improve your reading ability. Two good books I can recommend:

Richard Bozulich: 1001 Life and Death Problems
Richard Bozulich: Get Strong at Tesuji

Work with these books like you would in a gym - repeat them over and over (then look for harder ones), until your reading muscle grows really big and flexible.

2.) Improve your fighting strategy. One book I like explains the basics and also tells you a lot of details of what is a good, solid move with proper technique in any given situation.

Michael Redmond: ABCs of Attack and Defence

Good luck on your way up! ;-)])
(;W[bj]C[Hon: Why not here?]))
(;B[bf];W[be];B[ai]C[Hon: Looks dead to me.]))
(;B[re]C[Hon: Why not here now?];W[ob];B[md];W[ne];B[qb]C[Hon: You're ahead with liberties!]
))
(;B[re];W[rb];B[sd];W[pa];B[ne];W[nf];B[ph];W[qe];B[pf];W[pe]
;B[oe];W[pg];B[og];W[pf];B[ob]
(;W[na];B[ma];W[oa];B[sb];W[qa];B[pb];W[qb])
(;W[pb];B[na]
(;W[oa];B[ra];W[qa];B[sb];W[sa];B[sc];W[nb];B[ma])
(;W[sb];B[oa];W[qa]))))
(;B[ce]C[Hon: Isolate the corner!])
(;B[cl]C[Hon: Or cut him here!]))
(;B[hj])
(;B[fl];W[gm];B[cl]))
(;W[jl];B[jk];W[ik];B[lk];W[il];B[jj];W[ii];B[ki]C[Hon: And now you would be happy, if O9 was not on atari, right? :)

Do not play moves that weaken your other stones. There even is a name for it: family feuds. Don't have the clans of your own realm fight each other!]
))
(;W[fm]C[Hon: I wonder if he can do just this.]
(;B[em];W[en]C[Hon: The crosscut-tesuji again. You can not disconnect him.]
)
(;B[en]C[Hon: Or, if you run ...];W[em]
(;B[dm]C[Hon: ... and you go on like this ...];W[gn];B[fo];W[dn]
C[Hon: ... he gets you.])
(;B[dn];W[gn];B[fo];W[dm];B[cn];W[cm]C[Hon: ... it might get tricky. I'm not sure. Maybe white should save the crosscut tesuji for later.]
))))
(;B[lp];W[mq];B[jl]C[Hon: How about this? Now he's the one on the run.]
))
(;B[np]C[Hon: Often this move works.]
(;W[pn]C[Hon: If white ataries ...];B[po]C[Hon: ... you counter atari, double even ...]
;W[om];B[qo]C[Hon: ... and have no problems. Instead white will have to live in gote now.]
)
(;W[po]C[Hon: So what if white comes here?]
(;B[pn]C[Hon: We would want to play here.];W[qo]C[Hon: I can't read it to the end, but it might be overplay.]
)
(;B[qo]C[Hon: But just going here will be an acceptable loss for you.]
))))
(;B[jf]C[Hon: Ugly, but the only move. Hopefully it works ...]
;W[jd];B[if];W[hd];B[kf];W[md]C[Hon: Doesn't look like it though ...]
))
(;B[ig]C[Hon: I guess some move like this is necessary now.]
))
(;W[qe];B[re];W[pd];B[qc];W[md];B[mc];W[kf];B[le];W[jf];B[ig]
;W[ld];B[ke];W[jd];B[je];W[lc];B[pc];W[hd]C[Hon: I don't know if this sequence really works, but you see that there is a lot of bad aji in black's position that white can exploit to find eyes.

Now compare this with the result where black just connected!]
))
(;B[lg]C[Hon: Connection is the only move.

Now How does white plan to live here?

You don't want to give white aji to work with. Like this you are solid and he is dying.]
))
(;B[ne];W[nf];B[kg]C[Hon: Go on with your attack. If you kill this group, white will have a lost game.]
))
(;W[ie];B[id];W[jd];B[hd];W[md];B[mc];W[ld]C[Hon: Maybe something like this.

That's why I like the peep - it keeps white less flexible.]
))
(;B[ne]C[Hon: Maybe first here, to make him heavy.];W[nf];B[lh]
C[Hon: Then here.

Peeps can be tricky, so I am not sure, but if he answers your peep, then the value of this jump is increased, and his top group is in very bad condition now!]
))
(;W[jp]C[Hon: If white plays here now you will find it hard to find a good answer.

Of course he will not play it now though, he will defend his weak groups. But this point here remains for him to play later!]
))
(;B[lh]
(;W[mf];B[ne];W[nf];B[kg]C[Hon: Where will white run?])
(;W[ng];B[mi];W[lf];B[ne];W[lg];B[jh]C[Hon: I can not see which sequence is the best or even likely, but I think you should really go on the offensive now and torment his weak groups!]
)))
(;W[rm]C[Hon: If he plays here, you will certainly not kill this group.

Also territorially it is not at all small.]))
(;B[rk];W[rl];B[rj];W[qi];B[si];W[qk];B[sj];W[rn];B[ro];W[sn]
;B[qm];W[rm];B[sl]C[Hon: Maybe something like this works. But your surrounding shape seems a bit thin to me, so maybe white can break out.]
)
(;B[rm];W[rl];B[rk];W[sk];B[pm];W[pl];B[qk];W[si];B[rj];W[qi]
;B[pg];W[pf];B[mg]C[Hon: Or maybe like this?]))
(;W[rh]
(;B[rg];W[qg];B[ri];W[ph];B[qi];W[pi]C[Hon: This was white's sequence still!]
)
(;B[ri];W[qi];B[rg];W[ph];B[qg];W[pg];B[pi];W[rf];B[sh];W[sf]
C[Hon: No escape.])))
(;B[pj]C[Hon: You should look for a way now to make shape, separate him and attack at least one side.]
;W[qi];B[ph]
(;W[pk])
(;W[ml];B[mi];W[lj];B[mf]C[Hon: This time white doesn't seem to have an easy way out. Although ...]
;W[qc]C[Hon: ... he still can take the corner ...

Now you see why I said helping the corner right from the start is good. I don't know if I'm right about it, but to me it feels logical.]
)))
(;B[mj]C[Hon: You could consider driving him around like this.]
;W[ni];B[nh];W[mi];B[mh];W[li];B[mf]C[Hon: One of his groups is safe, but the other is in danger. Or rather would be, if not ...]
;W[rh]C[Hon: ... white had this connection. 

Now you see why the diagonal move was important!]))
(;B[pj]C[Hon: I think you should continue here - to improve your shape, to weaken his shape, and first of all, to prevent the connection at B12!]

(;W[qk];B[qi]C[Hon: Like this is convenient for you.])
(;W[qi];B[ph];W[pk]C[Hon: Like this is also alright. White is disconnected and the top group is very weak.]
)))
(;AE[ql]C[Hon: If white was alone, then he would not be able to cut.]
;W[pi];B[ph];W[oi];B[ni];W[nj];B[ok];W[nh];B[mi];W[ng];B[qk]
;W[rk];B[rj]C[Hon: Black is alright, since he has the crosscut tesuji for connection - he will capture the cutting stones.]
))
(;W[rh];B[rg];W[qg];B[ri];W[ph];B[qi];W[pi]C[Hon: This time white can handle the invasion.]
))
(;B[pi]C[Hon: You should play here, because this prevents against the connection at B18.]
;W[rh];B[rg];W[qg];B[ri]TR[pi]C[Hon: White has no way to connect, because the marked stone is in just the right place. 

Remember the diagonal move to separate the opponent's stones!]
))
(;W[qc]C[Hon: This move works, when you have the shimari with O17 and white has R14.]

(;B[pd];W[rd];B[re];W[rc];B[qe];W[ob];B[nb];W[oc];B[od];W[pc]
;B[me]C[Hon: White takes away the corner ...];W[rf];B[se];W[rh]
C[Hon: ... then he sees if he can have it both ways.

It is not necessarily bad for you if he tries that, but it is good to know that there is this bad aji in your corner. When white plays R14, the corner is not safe anymore.]
)
(;B[pc]C[Hon: Like this it is dangerous for black because ...]
;W[pd]C[Hon: ... white has an easy time to throw the right side into confusion.

(Black wants to keep it simple here, where he is strong, and not help white to settle his stones easily. Black wants to leave the trouble to live on white's sidae.]
)))
(;B[od]C[Hon: You maybe can also just play patiently. Will he tenuki now? I don't think so. And if he tenukies, then your invasion will really hurt.]
))
(;W[eq];B[qh]LB[qg:A][qm:B]C[Hon: If now you attack from above, the white stone has no full extension. That is why R6 is sente and considered as the best move. If you had enclosed the corner at R5, then A and B would have been miai for white, and your shimari would not be sente.]
))
