(;FF[4]GM[1]SZ[19]CA[Windows-1252]AP[SGFC:1.15]

GN[schEkkEr-kermit-526489-20091107]
PB[kermit (kermit)]
BR[15k]
HA[2]
PW[Stefan (schEkkEr)]
WR[15k]
KM[-0.5]
DT[2009-10-18,2009-11-07]
PC[Dragon Go Server: http://www.dragongoserver.net/]
RE[B+15.5]
OT[Fischer time: 30 days with 1 day extra per move]
RU[Japanese]
GC[Game ID: 526489, rated]

AB[dp][pd]C[> Hi I'm Huginmunin 4k on kgs, I'll be doing your review. I hope you find it helpfull. Feel free to contact me on kgs.
I'll precede my comments with >


Hi, I'm Stefan and played White against  a two stone handicap and lost by 15,5 points at the end. Apart from a badly handled invasion on the bottom, maybe you could show me where I could have fared better. Especially I didn't handle the yose well, I think.]
PL[W];W[pp];B[cd];W[qf];B[nc];W[ed];B[dc];W[ec];B[cg];W[jd]
LB[id:A][ic:B]C[> Maybe a bit too far, but since you're up against a handicap it's ok. A or B are safer]
;B[kc];W[kd]C[Stefan: Up to here nothing spectacular. I tried to go for a big moyo in the center.

>You generally don't really want center moyo, there are no points in the center. You could say center influence though. This helps with fighting. Or your moyo along the sides could enlarge into the center. But going for center moyo is not usually good.]
;B[jc];W[id];B[qn]LB[nq:A]C[>wrong side, A would be good];W[on]
LB[jp:A]C[> might be a bit tricky, you'll need to end in sente or risk getting pincered around A]
;B[rp];W[qq];B[rq];W[qr];B[ql];W[qi]C[Stefan: Securing the R14 stone.]

(;B[pj];W[pi];B[oj];W[fq]TR[oj][pj][ql]LB[jq:A]C[> Probably too far from your stones on the right, considering the black thickness. A would be better i think.]
;B[fp];W[eq];B[dq];W[ep];B[eo];W[fo]C[Stefan: Maybe g4 and stressing the bottom would be better here.


>Yes G4 is better];B[fn];W[go];B[dn];W[gn];B[fm];W[hl];B[kq]
;W[ko];B[mp];W[nq];B[mo];W[mm];B[ln];W[lm];B[kn];W[jo];B[jn]
;W[jl]C[Stefan: I think this is the bad move here. j5 or so would have been better, I think.

>hmm hard to say, letting black get out after J5 and you would have very little chance of winning. But if black can live in this area, it's also going to be hard to get back in the game.]
;B[io];W[iq];B[jp];W[ip];B[im];W[il];B[hm]
(;W[fk]TR[hm][im][jn][kn][ln][io][jp][kq][mp][mo]C[> very bad move, your only chance to win is if you somehow kill the marked black stones. If they connect out, it's over.]

(;B[dk];W[ei];B[di];W[eh];B[dh];W[df];B[cf];W[de]
(;B[ce];W[ni];B[oi];W[oh];B[nj];W[mi];B[qe];W[pf];B[re];W[kp]
C[Stefan: Bad move, I know ^^];B[jq];W[lq];B[lp];W[ho];B[in]
;W[jr];B[kr];W[lr];B[lo];W[ir];B[gm];W[mj];B[me]
(;W[kf]C[Stefan: Too loose? Maybe better m14.

> It's too tight, M14 is good];B[mg];W[lg];B[nh];W[mh];B[ng]
;W[og];B[nf];W[qj]C[> Can this white live? Probabbly it should die.]
;B[pk];W[qk];B[ol];W[nk];B[nl];W[ml];B[nm];W[nn];B[mn];W[pm]
;B[pl];W[qm];B[rm];W[pn];B[qo];W[qp];B[po];W[rn];B[rl];W[oo]
;B[ro];W[np];B[rr];W[rs];B[ic];W[hc];B[gl];W[gk];B[ej];W[fj]
;B[ek];W[dr];B[cr];W[er];B[cq];W[rf];B[db];W[eb];B[hb];W[gc]
;B[gb];W[dg];B[ld];W[le];B[md];W[rk];B[sl];W[oe];B[od];W[ne]
;B[mf];W[nd];B[of];W[pe];B[qc];W[oc];B[nb];W[ob];B[na];W[lf]
;B[mc];W[cs];B[bs];W[ds];B[br];W[ks];B[mq];W[mr];B[sr];W[se]
;B[rd];W[sk];B[sn];W[sf];B[sd];W[pc];B[qd];W[qb];B[oa];W[pb]
;B[rb];W[cc];B[dd];W[da];B[ca];W[cb];B[ea];W[ba];B[da];W[bc]
;B[ab];W[km];B[fb];W[fc];B[fl];W[sb];B[qa];W[qs];B[hk];W[fi]
;B[jm];W[kl];B[no];W[op];B[ok];W[mk];TR[jq][in][kr][hm][im]
[jm][jn][io][kn][ln][mn][lo][mo][no][mp][lp][mq][kq][jp]LB[ko:A]
TB[cn][ja][jb][sa][rn][rc][ra][sc][pb][sq][sp][so][pa][mb][ko]
[kb][ka][jo][kp][la][ma][lc][lb][bq][sm][af][ae][ad][ac][ag]
[ah][ak][aj][cj][aa][cc][oc][pc][bp][qb][sb][cb][ba][bc][al]
[ob][bj][bi][bh][bg][bk][bl][am][bn][bo][bf][bm][aq][an][em]
[ar][ap][be][bb][bd][as][el][do][dm][en][fa][ib][ai][ia][ha]
[ga][dl][dj][ck][ci][ch][cl][cm][cp][co][ao]TW[ps][rj][ri][rh]
[rg][sg][sh][sj][si][is][qh][qg][or][oq][ns][nr][os][pg][pr]
[pq][ph][ms][gq][gd][fs][fr][fh][ge][gf][gi][gh][gg][fg][ff]
[ee][hk][fp][kk][eg][fe][fd][es][gj][gp][ie][hs][hr][hq][if]
[ig][ij][ii][ih][hp][hj][hd][gs][gr][he][hf][hi][ef][hg][ik]
[kj][lh][ki][lk][ll][ls][lj][li][jk][ji][jh][jg][jf][jj][je]
[kg][ke][js][kh][hh]C[White: 84 territories + 2 prisoners + -0.5 komi = 85.5
Black: 86 territories + 15 prisoners = 101
Result: B+15.5

>There wasn't any real yose to discuss, both players made some mistakes that need attention and I pointed them out throughout the game.

Watch out for extending too far from your position.
Try to keep you opponent's stones separated, especially if the game depends on it.
Try to keep your stones all connected, it will help a great deal.

(As you can see, if you had kept the marked black stones separated from the rest you might have been able to kill that group by playing at A, although probably it would have found a way to live.)

Good luck and happy playing

Huginmunin]N[RESULT])
(;W[lf];B[le];W[ke];B[mf];W[lg];B[mg];W[mh]LB[nh:A]C[>This protects the cut at A that happened in your game]
))
(;B[gm];W[ce];B[be];W[ne];B[mj];W[ki]C[>White can never win this game]
))
(;B[gm]C[> like this the game is over]))
(;W[gm]C[>letting black connect out, and the game is over.]
))
(;B[jq]C[>This would be bothersome. So ending in sente after P6 is quite valuable. This point is more important than R11 extension]
))
