(;FF[4]GM[1]SZ[19]ST[2]CA[UTF-8]AP[SGFC:1.17]

PB[clydesdale]
BR[3k]
PW[TJman]
WR[3k]
KM[6.5]
DT[2009-12-03]
PC[The KGS Go Server at http://www.gokgs.com/]
RE[B+Resign]
TM[1800]
RU[Japanese]

C[T: Thank you in advance for reviewing my game! =)

N: no thanks ;-)
It appears you panniced in the early game by the idea your opponent would make a territory. But instead of giving this territory to your opponent, you gave him superior thickness, this troubled you for the rest of the game.
Nelis (aka Lambic)];B[pp];W[dd];B[qd];W[dq];B[fc]
(;W[cf]LB[od:B][cf:A]
(;B[db]LB[db:A][kc:B]
(;W[od]LB[cc:B][od:A];B[mc]
(;W[qc]LB[qc:A][md:C][ne:B]C[T: I think I misplayed here.  Maybe I should've settled d16 before moving on to p16?

N: I think P16 is certainly playable, maybe R17 is a bit more difficult and you might have chosen a different joseki, but i guess you played the one you knew best ;-)]
;B[pc];W[pd];B[oc];W[nc];B[nd];W[nb];B[qb];W[rc];B[ob];W[qe]
;B[mb];W[ne];B[md]
(;W[hc]LB[cc:B][hc:A]C[T: I regret this move now.  Could I have played anything else that wont give b big territory there?

N: If you didn't want to give black territory, you shouldn't have played the joseki in the upper right.
In go you should be able to give your opponent some territory, as long as it is not too big, but you should never be fixated only on the territory of your opponent.]
;B[fe]
(;W[kc];B[he];W[gd]LB[ic:A]C[T: Is this peep good or bad?

N: not good, your group is too weak, attaching at A is for example very bad aji for you.]
;B[fd];W[ge];B[gf];W[hf]
(;B[hd];W[gc];B[jd];W[jc];B[kd];W[id];B[ie];W[ic];B[jf];W[fb]
;B[eb];W[gb];B[dc];W[lb];B[lc];W[ka];B[ch]C[N: this is looking very bad for white]
;W[cc];B[cb];W[bc];B[ff];W[dg];B[dh];W[eg];B[fi]
(;W[ck];B[dj];W[dk];B[bg];W[bf];B[gh];W[qj];B[bb];W[bd];B[ce]
;W[de];B[ef];W[af];B[ac];W[bh];B[cg];W[ci];B[ag];W[di];B[eh]
;W[nq];B[lq]
(;W[qq];B[pq];W[qp];B[po];W[pr];B[or];W[qr];B[oq];W[qn];B[om]
(;W[jp]C[N: playing close to thickness];B[qm];W[pn];B[on];W[qo]
;B[hp]
(;W[kq]C[T: Wrong move?

N: I think k4 was more wrong then this move, it is difficult because of all the black thickness]
;B[lp];W[jn];B[hn];W[jl];B[hl];W[nj];B[ko];W[jo];B[km];W[kn]
;B[ln];W[jm];B[ll];W[kk];B[lk];W[hk];B[gk];W[hq];B[gq];W[hr]
;B[gp];W[fr];B[do];W[co];B[cn];W[cp];B[dn];W[ej];B[el];W[bl]
;B[bn];W[ep];B[fo];W[eo];B[en];W[gj];B[fj];W[bp];B[rb];W[pm]
;B[pl];W[ol];B[ok];W[nl];B[nk];W[pk];B[nm];W[ql];B[oj];W[oi]
;B[mk];W[ni];B[rd];W[re];B[sc];W[of];B[se];W[rf];B[sf];W[sg]
;B[sd];W[qg];B[bi]C[T: Is there any way for that group to live now?

N: not that i can see.];W[bj];B[ah];W[ak];B[ek];W[cj];B[ei]
;W[ai];B[bh])
(;W[lp]C[N: lighter move]))
(;W[qm];B[do]C[N: but you'll be still in trouble.]))
(;W[pn]C[N: another option:];B[np];W[mp];B[mq];W[qp];B[oq];W[qq]
))
(;W[dj]C[N: this move is better to destroy black shape]))
(;B[ie];W[ff];B[gg];W[ef];B[ic];W[ib];B[hb];W[gb];B[gc];W[ha]
;B[hd]))
(;W[he]))
(;W[cc]LB[cc:B][hc:A]
(;B[id]LB[hd:B][id:A]C[N: still it is possible to either reduce black or build white influence/thickness on the top]
;W[jd];B[je];W[ic];B[kd]
(;W[jc]LB[jc:A][hd:B];B[hd])
(;W[hd]LB[jc:A][hd:B];B[jc];W[ie]))
(;B[hd]LB[hd:B][id:A]C[N: still some weaknesses rest on top]
)))
(;W[ne]LB[qc:A][md:C][ne:B]C[N: Maybe you know this less good, but probably the same holds for your opponent.]
;B[qg];W[qc];B[pc];W[pd];B[oc];W[qe];B[rd];W[qf];B[qb];W[pg]
)
(;W[md]LB[qc:A][md:C][ne:B]C[N: i used to play this variation a few years ago to sidestep common joseki's]
))
(;W[cc]LB[cc:B][od:A];B[ic]
(;W[od];B[mc];W[qc]
(;B[pc]LB[pc:A][rc:B]C[N: if black plays this way...];W[pd]
;B[oc];W[nc];B[nd];W[nb];B[qb];W[rc];B[ob];W[qe];B[mb];W[ne]
;B[md]SQ[ic]C[N: now black is overconcentrated and the marked stone seems to be on the wrong place]
)
(;B[rc]LB[pc:A][rc:B];W[pc];B[qg];W[rb];B[rd]C[N: now for white it is less easy to settle.]
))
(;W[oc]C[N: i think i'd prefer to play here])))
(;B[kc]LB[db:A][kc:B]C[N: small chinese is most common here]
))
(;W[od]LB[od:B][cf:A]C[N: this is also possible]))
