(;FF[4]GM[1]SZ[19]ST[0]CA[UTF-8]AP[SGFC:1.17]VW[]

PB[SaurusDNA]
BR[7k]
HA[0]
PW[airlow]
WR[6k]
KM[0.5]
DT[2010-01-02]
PC[The KGS Go Server at http://www.gokgs.com/]
RE[W+Resign]
TM[1500]
OT[5x30 byo-yomi]
RU[Japanese]

C[Hi. I am SaurusDNA, 7 kyu on DGS, and I was playing black against a 6 kyu player with no komi.
(Time: 25 minutes + 5x30sec byo-yomi)

I feel I started well in this game, but I had no idea how to handle white's invasions.

I believe that my defense is lacking, and I am hope that this review will teach me a little more about how to defend against invasions.

I have also asked a few specific questions where I had no idea what to do.


airlow [6k\]: hi
SaurusDNA [7k\]: hi];B[pd];W[dp];B[pp];W[dc];B[de];W[ce];B[cf]
;W[cd];B[fq]C[I don't mind if white cuts at w-d14, since I plan to play at b-q10, building a big moyo.

Okay, but you do need a plan for these stones: how are you going to use them? They would work well with a kakari at C6, for instance, but there are other possibilities.]
;W[df]
(;B[pj];W[nq];B[lq];W[qq]
(;B[pq]C[This is the wrong side: you're stronger on the right than on the bottom, given white's D4.]
;W[qp];B[po];W[pr];B[or];W[qr];B[oq];W[qn]
(;B[om]C[Here, I wondered if b-p7 was too slow, and I considered b-j4, but then there was no point in giving up the corner for the wall in the first place.

I think P7 is okay. J4 leaves a lot of aji, and looks a bit overconcentrated. I find it difficult to decide between the two, however.]
;W[dn];B[dr];W[cq];B[hp]C[Up to here, I think I did well, and the board is still even, but this is where white started to invade, and devastated my moyo.

Remember that a moyo is not territory, it's potential. Invasions are to be expected.]
;W[nr];B[os]C[Should I have connected here. Would b-r8 have been better?

No, this is good. You want to make it as difficult as possible for white. R8 is submissive.]
;W[no]
(;B[oo]C[Is there a better way to connect?

See variation.];W[mp];B[lp]C[I was reluctant to allow the white tiger's mouth at w-m6, but didn't see a better move.

It's not that bad, since it works well with H4.];W[lo];B[ko]
;W[ln]
(;B[mn]C[This was a mistake. I think here b-L6 may have been better.

See variation.];W[nn];B[mm];W[mo];B[nm];W[qm];B[pm]C[You're doing fine so far: you have good thickness, the bottom group is reasonably big (although it is open at m1/2) and W's bottom group has no eyes.]
;W[kn]
(;B[jp]C[Was b-k5 better?

See variation.];W[jo]
(;B[ip];W[kp];B[kq];W[qk]
(;B[qj];W[rk];B[rj];W[hn]C[Now that W got away, his influence on the right side is growing. Time to put C14/D15 to use. The variation shows two examples.]
(;B[jc];W[gd];B[je];W[nc];B[oc];W[qf]C[What to do now? I cannot see how to defend, even in my post-game analysis.]
;B[qd]C[That's a strong move.];W[oe]
(;B[pf]C[That doesn't quite work.];W[pe];B[pg];W[qe]
(;B[ne]C[Too fancy, should be at O18 I think];W[od];B[pb];W[nf]
;B[me];W[mf];B[le];W[og];B[ph];W[of];B[ni];W[mh];B[nd]C[Good move. Again, look at what you have won: you have about 20 points on the top, and W doesn't have eyes yet.]
;W[ob];B[pc];W[nb]
(;B[rb];W[kd]
(;B[ke];W[mi]
(;B[jd]C[I was scared about the cut at w-k16.

But the threat to your group at the right is bigger.];W[nj]
(;B[mk];W[pk];B[oj];W[ok];B[mj];W[nk]
(;B[oi]C[Here, I think my only option is to try and kill the w-p14 group, although I know it is unlikely.]
;W[rh];B[ki];W[lj];B[lk];W[kk];B[li];W[kj];B[qh];W[ri];B[re]
;W[rf];B[se];W[kl];B[lm];W[sj]C[I resigned here.

I would like to know how I could improve my defence, and if you have any suggestions for any areas where I may improve.

Many thanks
Mark


I think you need to think in terms of attack rather than defense. A moyo is not territory: it is prospective territory. Expect to be invaded, and then make it is hard as possible for the opponent, all the while making real territory. Turn the invasions to your advantage. Keep your opponent from getting eyes, and keep him from connecting.




airlow [6k\]: ty
SaurusDNA [7k\]: Thanks!   :)])
(;B[qg]C[You could still try to save it.]))
(;B[oj]C[Keep them connected.]))
(;B[nj]C[Remember: the white group doesn't have any eyes either. Attack is your best defense.]
;W[jd];B[lc]))
(;B[kc]C[This looks better: it makes sure O18 stays capured.]
))
(;B[rd]C[This way you attack W at the same time as defending your corner.]
))
(;B[nb];W[mc];B[qg]))
(;B[nd]C[I think this is the strongest defence.];W[od];B[mc]
;W[pc];B[ob];W[qc];B[rc]C[W gets nowhere.]))
(;B[cj]
(;W[cl];B[cg])
(;W[cg];B[cm])))
(;B[kl]C[This strengthens your group, and it is sente.];W[hn]
;B[qj]C[Then you can defend.]))
(;B[kp]C[It's not pretty, but better than giving away L5 in gote. W gets away now.]
))
(;B[jo]C[Definitely better.];W[kp];B[jp];W[kq];B[kr]C[There's no need to fear the cut.]
))
(;B[nn]C[This connects and makes N5 a false eye. W should have played here instead of M6.]
))
(;B[pn]C[This is better. Now w has to defend the corner or get shut in.]
(;W[qm];B[mp];W[np];B[mn]C[W is dead])
(;W[qo];B[mp];W[np];B[ln];W[nm];B[qm];W[rm];B[ql])
(;W[mn];B[qo];W[ro];B[rn];W[sp];B[qm])))
(;B[ip];W[nr]C[W can still create problems starting with this move.]
))
(;B[qp];W[pq];B[op];W[nr];B[mo]C[This would be the usual way to make a moyo here.]
))
(;B[cn]C[This would be a good way to use both F3 and the stones top left]
))
