(;FF[4]GM[1]SZ[19]ST[0]AP[SGFC:1.13b]VW[]

PB[regginos]
BR[23k*]
HA[5]
PW[miya]
WR[18k*]
KM[0.5]
DT[1999-01-15]

AB[dd][dp][jj][pd][pp]C[In this game Black plays some vey good middle game plays. Black
needs to play solidly at the beginning .. remembering defense
before attack .. black must not attach to weak white stones as
this helps white. Black can develop into a strong fighter based
on this game.];W[qf]C[B is much better for Black .. creates good relationship with
d16]
(;B[rc];W[np]C[B is much better for Black .. because of white r14 b strenghtens
q4]
(;B[jq];W[qn]C[Blcka must move out here to split up white]
(;B[oq]C[p3 only seerves to strengthen o4 .. best to not attach to single
stone];W[nq];B[op];W[kp];B[jp];W[ko]
(;B[of];W[pj]
(;B[fq];W[cf];B[ef];W[bd]
(;B[cc];W[ci];B[cl];W[jc];B[hc];W[nc]C[o17 is still weak .. if you attach to it you help white .. if
you want to attack then m17 is best]
(;B[oc];W[nd];B[pe];W[pg];B[og];W[ph];B[id];W[jd];B[je];W[ke]
;B[jf];W[kf];B[kg];W[lg];B[kh];W[lh];B[ki];W[ld];B[nb];W[mb]
;B[ob];W[mc];B[dg];W[cg];B[dh];W[di];B[ei];W[cp]C[c3 is great ,, shut out white]
;B[cq];W[co];B[cn];W[do];B[ep];W[dn];B[cm];W[dk];B[dl];W[fn]
;B[fl];W[ej];B[fi];W[fj];B[gi];W[gj]
(;B[hk];W[gp];B[gq];W[hp]
(;B[hq];W[bq]
(;B[cr];W[br];B[bs];W[gl]C[white cuts off and kills group!]
;B[gk];W[fk];B[el];W[gm];B[hj];W[ck];B[bk];W[bj];B[bl];W[bo]
;B[ch];W[bh];B[aj];W[bi];B[ai];W[bg];B[qo];W[pn];B[li];W[ro]
;B[rp];W[rn]C[this is a very good sequence for black .. black can kill white
group];B[dj];W[cj];B[ek];W[dj]
(;B[en];W[eo];B[fp];W[fo];B[jo];W[im];B[jl];W[jm];B[kl];W[km]
;B[ml];W[nn];B[ni];W[bc];B[cb];W[bb];B[ba];W[cd];B[dc];W[de]
;B[ee];W[df];B[eh];W[ib];B[hb];W[ha];B[ga];W[ia];B[gb];W[rq]
;B[ic];W[jb];B[sq];W[qq];B[qp];W[or];B[pr];W[nr];B[rr]C[Black plays well here]
;W[kq];B[kr];W[lr]
(;B[ks];W[ls];B[jr];W[ol]C[o9 is too slow .. in the endgame look at edges first .. normally
more points there]
(;B[nk];W[mf];B[mh];W[mg];B[ng];W[re];B[qd];W[ne];B[oe];W[mn]
;B[lm];W[ln];B[hl];W[hm];B[il];W[mm];B[ll];W[ip];B[iq];W[oj]
;B[nj];W[nl];B[io];W[ho];B[hn];W[go];B[in];W[jn]C[B8 group is dead]
;B[bn];W[rd];B[sc];W[qe];B[fm];W[gn];B[ao];W[so];B[sp];W[oo]
;B[ap];W[bp];B[os];W[ns];B[ps];W[oh];B[nh];W[ab];B[ca];W[sd]
;B[qc];W[ar];B[cs];W[oi];B[ok];W[pk];B[am];W[ak];B[dm];W[na]
;B[oa];W[ma];B[al];W[pf];B[as];W[kn];B[aa];W[od];B[pc];W[nf]
)
(;B[rf];W[rg];B[qe];W[qg];B[re];W[nk];B[mk];W[nj];B[mj];W[oi]
;B[nh]C[Better result for Black]))
(;B[jr]C[k2 is better endgame move]))
(;B[ce];W[be];B[bc];W[de];B[df];W[cd];B[ed];W[af]C[White lives]
)
(;B[bc]
(;W[be];B[ad]C[White is dead])
(;W[ce];B[ad];W[ae]
(;B[cd];W[ac];B[ah];W[ag];B[ak];W[bf]C[white lives])
(;B[ah];W[ag];B[ak];W[ac];B[bf]C[White dies]))))
(;B[hm]C[h7 is urgent]))
(;B[hm]C[h7 is urgent otherwise b8 group will die]))
(;B[hl]C[h8 is best  .. h9 is too loose]))
(;B[lc];W[lb];B[kb]
(;W[kc])
(;W[ld];B[kc];W[mc];B[mb];W[nb];B[ma];W[kd];B[jb];W[ic];B[ib]
;W[me])))
(;B[jd]C[k16 creates good shape .. c17 is too slow]))
(;B[dj]C[big move like d10 is best here .. f3 is too slow]))
(;B[jd])
(;B[rp]C[s4 is best as q4 group is weak .. defense always before attack]
))
(;B[oo];W[no];B[on];W[nn];B[pm]))
(;B[qn]))
(;B[nd];W[pi];B[jp]))
