(;FF[4]GM[1]SZ[19]CA[utf-8]AP[SGFC:1.17]

GN[gtl6]
PB[EagleHelm]
BR[8k]
HA[3]
PW[usagi5]
WR[5k]
KM[0.5]
DT[2010-02-21]
PC[The KGS Go Server at http://www.gokgs.com/]
RE[B+19.5]
TM[1500]
OT[5x30 byo-yomi]
RU[Japanese]

AB[pd][dp][pp]C[usagi5 [5k\]: hi!
EagleHelm [8k\]: hey

I played this game on February 21, 2010.

Hi

Thanks for the chance to review your game. I will preface my comments with "C:"

C: General comments. In a 3 stone handicap game, you should be patient. A game of go is long, and you have to trust that your opponent will make at least 3 mistakes big enough to counter the initial handicap. 

Play for influence, take opportunities to split black's stones apart, try to connect your stones. Don't worry about territory, especially in the first part of the game.

In particular, you should try to leave positions fluid - if you see a sequence isn't going to work, don't push it. Leave the aji for later. I'm referring here particularly to the early fight, that you should have been able to see wasn't going to work.

What I typically find in handicap games is that in the fuseki, or first 50-100 moves, my opponent doesn't really make mistakes. However, once the middle game gets going, then the mistakes start happening. And that was the case here - black made plenty of errors in the middle game fighting, despite having a "won" position after the early fight.]
;W[dd]C[EagleHelm [8k\]: have a good game
usagi5 [5k\]: good game to you too];B[pj];W[nq];B[qn]
(;W[pg]C[I'm not sure if I should have played this. I was worried about all that black was building up on the side.

C: You have to be patient. there's 200+ moves to go...black will make mistakes :) Personally I like to create strong shapes which leaves me free to attack hard. So, although Q13 leaves plenty of aji, it feels premature to me to play it. I would simply play out the usual joseki on the bottom right.]
;B[nd];W[jp]C[C: Playing a faster, lighter game, as you've chosen to do, is also possible, it's a matter of style.]
;B[cj]C[C: I don't like this from black. Black should be seeking to undermine your stones on the bottom, attacking Q13 on a large scale, or approaching D16. It's not a bad move in itself, but it lacks severity in the current context.]
(;W[dn]C[C: The problem with this is that it's likely to induce black to move to the right, which will probably weaken your stones on the bottom. Also, you've played into a pincer, which can't be good. F3 feels natural to me.]
;B[fp];W[no]C[C: You now have two isolated stones. They're both light, but still.]
;B[cm]C[C: This is probably too close from black. The secret to effective attacks is to attack from a distance. Sometimes you have to play on a vital point to kill a shape, but that's not possible when there's only one stone. 

In particular, a diagonal moves is essentially a contact move, and is likely to strengthen your opponent.]
;W[cn];B[hq]C[C: This is the induced weakening of your bottom group I suggested might happen earlier - and I didn't look ahead, promise :)]
(;W[cl]LB[dm:b]C[C: I don't understand this move. Hane or bend is more usual shape move.]
;B[bm];W[bn];B[bl];W[ck];B[bk];W[el];B[dm];W[en]C[C: I'm not sure I understand this sequence. Are you hoping to kill black's stones on the left? That seems incredibly unlikely. It's certainly not building influence.]
;B[em];W[fn];B[bp]TR[bn][cn][dn][en][fn]C[C: That's a lot of stones played on dame points.]
(;W[dj]C[I think I should have just G8.

C: The stones just aren't worth saving. Do something else.]
;B[di];W[ci]
(;B[dk]C[C: Mistake from black.];W[bj];B[dl];W[cj];B[ek];W[fl]
C[I don't know why I tried to save this stone.

C: I can only think you still had fanstasies of killing the black group.]
;B[fm];W[gp];B[go];W[fo]C[When I cut here, I am thinking I can live in the corner.]
;B[gn]C[C: I think black is overplaying here, but it's hard to read so far ahead.]
(;W[gm];B[gl];W[hm];B[hp]C[C: Now your atari doesn't work as well as the earlier variation]
;W[ep];B[fq];W[eq];B[dq]
(;W[ho];B[gq];W[hn];B[gp];W[er];B[dr];W[fr];B[gr]
(;W[br]C[Maybe this was an overplay.

C: Looks like it. It's very complicated, however. There are some variations shown that appear to work, but I may have missed some tesuji's.]
;B[bq];W[cr];B[do];W[eo];B[cq];W[ds];B[ar];W[aq]C[I think this was a bad throw-in; it made have to play A6 or A7 to block.]
;B[ap];W[am];B[fk]C[Since I played A7 and black captures the two stones, I have no hope. Is there anything I could have done differently in this fight?]
;W[es];B[as];W[cs];B[ao];W[an];B[co];W[bs];B[al];W[aq];B[ar]
;W[as];B[gs];W[aq];B[fs]C[I die.

C: True. Still, there's a big ko threat there :) Actually, once you see that a fight is going to fail, the sooner you stop it, the better, as it means you have more ko threats. However, in this game, it's really time to resign. To win now would really require a terrible blunder from black.]
;W[pr];B[qq];W[qd]C[C: Need to be very active now, so this is good.]
;B[qc];W[qe];B[rc]
(;W[qj]C[C: Can consider an invasion, see variation. Not neccessarily better, tho. Either way, your stones are just too weak for these moves.]
;B[qi];W[qk]C[C: Crosscut probably only option here.];B[pi]
(;W[pk]C[In this case, Q8 is probably better shape.];B[ok]
(;W[ol]C[C: overplay];B[pl];W[pm]C[When I played atari from this side, I was misreading, thinking I could capture it.]
;B[ql];W[qm];B[rl];W[nk];B[oj];W[rm];B[om];W[nl];B[rk];W[pn]
;B[rn];W[sl];B[rj]C[As I lose the three stones, I try to hurt the corner group.]
(;W[po]C[C: Missed the vital point, which is R2];B[qr]
(;W[qo]C[C: S4 sort of kills, but black can probably capture Q2 to live on the bottom.]
;B[ro];W[qp];B[rp];W[pq];B[ps]
(;W[sq]C[How could I have killed this corner?

C: Not that I can see. Earlier, yes, now, no];B[sp];W[rr];B[rq]
;W[os];B[qs];W[sn];B[sr];W[jd]
(;B[cf]C[C: Unnecessary from black. C17 is surely enough to easily win the game.]
;W[dh];B[ei];W[ce];B[df];W[eh];B[ch];W[cg];B[bh];W[bg];B[dg]
;W[ah];B[bf];W[bi];B[fh];W[fi]
(;B[ej]C[C: Here, black gives you a chance. You were too impatient in the game, you have to trust that black will make mistakes. Up until now, he's hardly put a foot wrong, but finally it happened :)]
;W[eg];B[ef];W[fg];B[gh];W[fc];B[ge];W[ff];B[fe];W[ch];B[aj]
;W[gg];B[hg];W[hh];B[gi];W[hi];B[gj];W[hf];B[ig];W[if];B[gf]
;W[jg];B[ac];W[be];B[ae];W[bd];B[ad];W[ee];B[ed];W[de];B[af]
;W[bc];B[bb];W[cb];B[ca];W[db];B[ec];W[eb];B[gc];W[fd];B[gd]
;W[fb];B[lc];W[jb]C[I this the correct response?

C: Sure. Black's faulty play over the last 50 moves has put you back into the game.]
;B[jf]
(;W[kg]C[C: Oops. K15 leaves you in a decent position.];B[ie]
;W[ih];B[je];W[he];B[id];W[hd];B[ic];W[hc];B[ib];W[hb];B[jc]
C[C: Now black is well ahead again.];W[le]C[C: This helps your stones on the right, but it's not sente.]
;B[kd]C[C: No idea why black answered. But this is what I meant in my opening comments - black has made another wasted move/blunder.]
(;W[mh]C[C: Too far.];B[ng];W[nh];B[og]C[Now my side group is getting cut off.]
;W[oh];B[ph];W[of];B[nf];W[oe]
(;B[od]C[C: Another mistake from black. See variation.];W[ne]
C[C: Lucky!];B[pf];W[mf]
(;B[qg]C[C: Another mistake.];W[pe];B[kk]C[C: It's impossible to turn the middle into territory, so if you were playing on in the hope of getting something from the middle, it was futile. There were too many entry points for black.]
;W[hk];B[hl];W[il];B[ik];W[hj];B[im];W[gk]C[I sacrifice four for four, but I think it was actually a really bad exchange.

C: Terrible :( But it's too late anyway. There's no way to win.]
;B[jl];W[fj];B[io];W[jn]C[Now I lose the potential territory I had had.]
;B[in];W[km];B[lq];W[jq];B[lo];W[kp];B[ks];W[js];B[jr];W[kr]
;B[is];W[lr];B[lp];W[mr];B[lm];W[ll];B[kl];W[ln];B[mm];W[mn]
;B[ml];W[mk];B[lk];W[nm];B[ll];W[ki]C[I did not realize black's threat at L5.]
;B[ko];W[jo]
(;B[iq]C[Wouldn't I have lost a lot if black had played L6?

C: The local fight, yes, but the game is over anyway :)

No further comments.];W[kn];B[ia];W[ha];B[or];W[oq];B[ns];W[mg]
;B[rf];W[pg];B[og];W[qf];B[pg];W[re];B[sg];W[md];B[mc];W[lj]
;B[kj];W[li];B[ji];W[ij];B[jj];W[rd];B[kf];W[lf];B[ld];W[sc]
;B[sb];W[sd];B[rb];W[me];B[sf];W[pc]C[I thought this was a threat of some sort.]
;B[pb];W[oc];B[nc];W[ob];B[nb]C[It failed.];W[ls];B[sk];W[sm]
;B[js];W[nr];B[os];W[nj];B[oi];W[jh];B[ni];W[mi];B[tt];W[tt]
TB[qb][kc][pc][jd][qh][jk][pk][il][bo][fo][cp][sq][fr][ir][ds]
[ss][ja][ka][la][ma][na][oa][pa][qa][ra][sa][jb][kb][lb][mb]
[ob][oc][rg][rh][ri][sh][si][sj][qj][qk][el][fl][am][an][gm]
[hm][bn][cn][dn][en][fn][hn][ho][eo][ep][eq][er][es][aq][ar]
[as][br][bs][cr][cs][hr][hs][rr][rs]TW[bb][cd][ed][fe][dg][bh]
[kh][mj][nn][pp][aa][ab][ac][ad][ae][af][ag][ba][ca][da][ea]
[fa][ga][gb][gc][gd][ge][gf][cc][dc][ec][bf][cf][df][ef][hg]
[ig][lg][lh][fh][gh][gi][gj][om][on][oo][op][ko][lo][mo][lp]
[mp][np][kq][lq][mq]C[usagi5 [5k\]: thanks for the game
EagleHelm [8k\]: thank you
usagi5 [5k\]: good game

That is the game. Thank you! (In counting we missed O13.)])
(;B[kn];W[jm];B[kq];W[ir];B[js]))
(;B[pe];W[mg];B[qg]))
(;B[ne];W[od];B[oc];W[pe];B[pc]
(;W[rg])
(;W[qg]
(;B[rf];W[qf];B[rg];W[rh])
(;B[rh];W[rf];B[rd]))))
(;W[nf]))
(;W[je]TB[lc][jf][ps][na][nb][nc][oa][ob][oc][pa][pb][pc][qa]
[qb][qc][ra][rb][rc][sa][sb][sc][mb][mc][md][nd][od][pd][hg]
[ig][fh][fi][fj][fk][fl][fm][fn][fo][fp][fq][fr][fs][gh][gi]
[gj][gk][gl][di][ei][pi][pj][pk][pl][qi][qj][qk][ql][ri][rj]
[rk][rl][si][sj][aj][ak][al][am][an][ao][ap][aq][ar][as][ej]
[ek][el][em][en][eo][ep][eq][er][es][oj][ok][bk][bl][bm][bn]
[bo][bp][bq][br][bs][dk][dl][dm][dn][do][dp][dq][dr][ds][cm]
[cn][co][cp][cq][cr][cs][gn][go][gp][gq][gr][gs][qn][rn][ro]
[rp][rq][rr][rs][so][sp][sq][sr][ss][hp][hq][hr][hs][qq][qr]
[qs]TW[jg][os][aa][ab][ac][ad][ae][ba][bb][bc][bd][be][ca][cb]
[cc][cd][ce][da][db][dc][dd][de][ea][eb][ec][ed][ee][fa][fb]
[fc][fd][fe][ga][gb][gc][gd][ge][ha][hb][hc][hd][he][ia][ib]
[ic][id][ie][ja][jb][jc][jd][je][qd][qe][qf][af][bf][cf][df]
[ef][ff][gf][hf][if][pf][pg][ag][bg][cg][dg][eg][fg][gg][ah]
[bh][ch][dh][eh][hh][hi][ai][bi][ci][bj][cj][dj][ck][cl][nk]
[nl][nm][nn][no][np][nq][nr][jl][jm][jn][jo][jp][kl][km][kn]
[ko][kp][ll][lm][ln][lo][lp][ml][mm][mn][mo][mp][ol][om][on]
[oo][op][oq][sl][sm][sn][gm][hm][im][pm][pn][po][pp][pq][pr]
[qm][rm][hn][ho][in][io][qo][qp][kq][kr][ks][lq][lr][ls][mq]
[mr][ms]V[-8.1]))
(;B[ff]))
(;B[cc];W[dc];B[cd];W[ce];B[be]
(;W[bf];B[cf];W[de];B[bg];W[bd];B[af];W[bc];B[ch])
(;W[cf];B[bf];W[cg];B[db];W[eb];B[cb];W[fc];B[fh])))
(;W[sr];B[sq];W[rr];B[rs]))
(;W[rp]
(;B[qo];W[qp];B[rq];W[ro])
(;B[qp];W[qo];B[ro];W[rq];B[rr])
(;B[or];W[qp];B[pq];W[nr];B[rq];W[ps])))
(;W[qr]
(;B[rr];W[rp];B[rq];W[qo];B[ro];W[so];B[qp];W[sn])
(;B[rq];W[rr])))
(;W[pm]C[This is more usual, but it ends up leaving R15 stones incredible weak.]
;B[qm];W[ol];B[ql];W[pl];B[nj];W[nk];B[oj];W[mk];B[rg];W[rf]
;B[qg];W[pe];B[od]
(;W[pf];B[ng])
(;W[nf];B[qf];W[pf])))
(;W[pl]))
(;W[ql];B[pl];W[qm];B[pm];W[rn]
(;B[ro])
(;B[qo];W[qk];B[pk];W[qj];B[fc])))
(;W[ip];B[jr];W[iq];B[ir];W[gs];B[hr]
(;W[kq];B[kr];W[lr];B[lq];W[lp];B[mq];W[mr];B[do];W[eo];B[an]
;W[ks];B[bo];W[js];B[fs];W[es];B[co];W[is];B[ds];W[hs];B[fs]
)
(;W[kr];B[kq];W[lr];B[jq];W[kp];B[lq];W[lp];B[mq];W[mr];B[mp]
;W[mo];B[np];W[op]))
(;W[ir]
(;B[do]
(;W[eo];B[an];W[hr]
(;B[gs];W[ip];B[bo];W[iq];B[es];W[hs];B[co];W[fs])
(;B[fs];W[ip];B[bo];W[iq];B[gs];W[hs];B[es];W[ds]))
(;W[iq]))
(;B[iq];W[jq];B[ip];W[io])
(;B[eo];W[do];B[an]
(;W[hr];B[gs];W[ip];B[bo];W[iq];B[co];W[eo];B[es];W[hs];B[fs]
)
(;W[ao];B[bo];W[am];B[al];W[ip];B[ap];W[hr];B[gs];W[iq];B[co]
;W[hs]))))
(;W[dr]))
(;W[ep];B[fq];W[eq];B[dq];W[dr];B[cr];W[fr];B[gq];W[cs];B[br]
;W[bs];B[eo];W[do];B[bo];W[ao];B[ap];W[an];B[co];W[cq];B[cp]
;W[er];B[am];W[eo];B[ds];W[es];B[gr];W[ar]))
(;B[bj]
(;W[ej];B[dh])
(;W[ei];B[dk];W[ej];B[dl];W[dh])))
(;W[gl];B[fm];W[gm]C[C: This is dangerous.];B[gn];W[go];B[hn]
;W[fo];B[ho];W[gp];B[gq];W[ep];B[fq];W[hp];B[ip]))
(;W[bm];B[cl];W[ch])
(;W[dm];B[cl];W[gn];B[dl];W[el];B[ek];W[fl];B[ej]))
(;W[fq];B[dn];W[pr];B[qq];W[fo]))
(;W[pr];B[qq];W[kq];B[fc]))
