(;FF[4]GM[1]SZ[19]ST[2]CA[UTF-8]AP[SGFC:1.17]

PB[viper69]
BR[6k]
PW[flam]
WR[6k]
KM[6.5]
DT[2010-02-20]
PC[The KGS Go Server at http://www.gokgs.com/]
RE[B+27.5]
TM[60]
OT[3x30 byo-yomi]
RU[Japanese]

;B[pp]C[flam [6k\]: hi
viper69 [6k\]: hi];W[pd];B[dd];W[dp]C[I never know what to do after this.

****
There is a lot of material on opening theory available.
As far as free material, shygost publishes "the list" but then charges for lessons to interpret what it means :)
http://senseis.xmp.net/?Shygost#toc1

I have a book called "The fundamentals of go" which is pretty good at all skill levels.  "The direction of play" also addresses this in its opening chapters, but is really intended for dan players (AKA, a tough read).]
;B[nq];W[jc]C[****
I believe this is the wrong direction to extend from this corner. The two stones in the lower right can be thought of as the start of a box shape.  That means that an extension by black is extra valuable along the right side.  Since white can profit roughly equally by extending along either the top or the right, it's best to extend along the right because it limits black's growth.  In most opening theory that I've seen, the sample problem would be when R4 is at R3, but the same basic principle should apply.

Opening really revolves around the ability to grow the territory of stones and reduce the territory of your opponent's stones.  This is done through more or less obvious ways along with shifting the relative strength of groups.  Probably the biggest hole I see in your play is a large disregard for the weakness of your groups.  That leaves a literal minefield for your to navigate through the later phases of the game.  Establishing strong groups that can grow in strength and territory should ultimately lead to more wins for you.]
;B[oc];W[pc];B[md];W[fc];B[kc];W[jd];B[kd];W[jb]C[****
2nd line plays are rarely correct in the opening.  Center influence can be more valuable than the mild territorial profit that comes with this play.  Black should live easily,  If you feel threatened, try to look for moves that allow for more dynamic growth.  Personally, I like G15 for since it stabilized your stones, puts strong pressure on black's corner, and starts growth into the center.]
;B[cg];W[cn];B[je];W[qj]C[****
Extensions should be chosen carefully based on the relative strength of surrounding groups.  The lower black corner is stable.  The upper black group is weaker, but you have an even weaker group to the left, which makes it stronger than it migght appear.  Factoring in how the Q16 stones are floating on the 4th line and really need to be defended, I think your extension is way too far.  I probably wouldn't extend past R13 given the board situation.]
;B[qg];W[qm];B[qe];W[oe];B[nd];W[rc];B[ri];W[rj];B[qi];W[hq]
C[****
You can't leave any weak groups lying around, and you're currently up to 3! H3 is an overplay.]
;B[dr]
(;W[kq];B[bq];W[fp];B[bo];W[ck];B[en];W[co];B[cq];W[bn];B[bp]
;W[cc]C[****
This is another overplay.  You're only making your weak group weaker, and you already have too many weak groups!]
;B[dc];W[cd];B[ce];W[be];B[cf];W[db];B[eb];W[cb];B[ec];W[fb]
;B[fd];W[gd];B[fe];W[ie];B[jf];W[jj];B[ek];W[di];B[gm];W[pi]
;B[ph];W[oi];B[cl];W[dl];B[el];W[dm];B[dk];W[cj];B[em];W[mh]
;B[oh];W[on];B[ni];W[nh];B[mi];W[pj];B[li];W[lh];B[ml];W[nf]
(;B[rd]C[****
Black S16 followed by T16 seems way too kind to you.  I tried out some variations where black is more aggressive, but I think they still need a defensive move before getting aggressive.  It's also improbable that the final S18 move would be played by black.  It's probably better to enclose you and force you to play something like that in gote instead.]
;W[qd];B[sd];W[sc];B[rf];W[qb];B[mf];W[lf];B[le];W[mg];B[me]
;W[kg];B[ol];W[ki];B[lk];W[jm];B[kk];W[jk];B[ln];W[mp];B[np]
;W[no];B[mo];W[lp];B[nn];W[oo];B[nm]
(;W[pm]C[****
This isn't very good shape.  Consider R5 instead];B[qo];W[nk]
C[I feel like I'm playing passivly. However, I tend to play too agreesive and get a lot of my groups killed.

****
Actually, this move feels aggressive.  if you play this move, you must be able to answer this question: Will you succeed in killing?  If the answer is not "yes", then it's probably the worng move.  You have a really weak group (that's been week forever).  Rest assured that if you fail to kill, that your group is probably dead.]
;B[ok];W[nj];B[mj];W[mk];B[lj];W[oj];B[om];W[kl];B[ll];W[pl]
;B[pn]C[this was bad];W[nl];B[po];W[pk];B[op];W[rl];B[fi];W[rn]
;B[ei];W[dh];B[fg];W[ef];B[eg];W[dg];B[df];W[hg];B[kb];W[mb]
;B[ob];W[ma];B[ka];W[mc];B[lc];W[ja];B[pa];W[pb];B[oa];W[od]
;B[nc];W[ig];B[he];W[if];B[hd];W[id];B[gc];W[gb];B[hc];W[hb]
;B[ea];W[jg];B[ke];W[gf];B[ff];W[ge];B[bf];W[ae];B[af];W[ac]
;B[aj]C[how should I have answered this?]
(;W[ai];B[bi];W[bj];B[ak];W[al];B[ah];W[bk];B[ai];W[bl];B[dn]
;W[cm];B[ci];W[dj];B[ej];W[rq];B[ro];W[pr];B[qr];W[qq];B[rr]
;W[or];B[nr];W[sr];B[rs]
(;W[pq];B[sp]C[is there anyway to make life here?

****
See variations starting with your previous move for a ko. Also, this group is stone cold dead now.  Any further plays for the group is simply giving free points to your opponent.]
(;W[os];B[qs];W[ns];B[mr];W[ms];B[lr];W[kr];B[ls];W[sq];B[sn]
;W[sm];B[so];W[qn];B[kn];W[jn];B[ko];W[jo];B[kp];W[jp];B[lq]
;W[hj];B[jr];W[jq];B[ks];W[ir];B[js];W[fr];B[eq];W[ep];B[fq]
;W[gq];B[er];W[fs];B[es];W[gr];B[go];W[fo];B[fn];W[hl];B[gp]
;W[hn];B[gn];W[pf];B[pg];W[qf];B[rg];W[re];B[se];W[sh];B[si]
;W[sj];B[sg];W[og];B[gg];W[hf];B[hh];W[ih];B[hi];W[ii];B[gj]
;W[gk];B[fk];W[gl];B[fl];W[hm];B[hp];W[km];B[qa];W[ra];B[lm]
;W[ao];B[ap];W[br]
(;B[cs];W[ar];B[cr];W[cp];B[bs];W[an];B[ip];W[iq];B[is];W[hs]
;B[re];W[pe];B[kf];W[fa];B[da];W[ca];B[bd];W[ad];B[ab];W[bc]
;B[ba];W[ch];B[bh];W[eh];B[fh];W[tt];B[io];W[in]C[flam [6k\]: opps]
;B[tt];W[tt]TW[ga][ha][ia][sa][ib][rb][sb][gc][hc][ic][qc][hd]
[he][of][ng][jh][kh][ji][ij][hk][ik][qk][rk][sk][cl][il][jl]
[ql][sl][am][bm][im][rm][hr][gs]TB[la][ma][na][lb][mb][nb][mc]
[ed][ld][de][ee][ef][sf][ag][bg][gh][qh][rh][sh][gi][fj][fm]
[mm][mn][on][lo][no][oo][lp][mp][qp][rp][aq][mq][oq][pq][qq]
[rq][sq][ar][br][or][pr][sr][as][ds][ms][ns][os][ps][ss]C[flam [6k\]: thx]
)
(;B[ar]))
(;W[qs];B[ps];W[os];B[qs];W[sq]))
(;W[qs];B[ps])
(;W[sp];B[so]
(;W[rp]C[****
This variation won't work because after black Q3, white is short on libeties all over the place.  One variation shown.]
;B[pq];W[qs];B[ps])
(;W[qs]C[****
This should lead to a ko with black Q1 in response.  For a bit, I thought black P1 would kill, but it does not]
(;B[ps];W[os];B[rp];W[qs])
(;B[os];W[ss]TR[rp][rr]))))
(;W[ak];B[bk];W[bj];B[al];W[ai]))
(;W[qo]))
(;B[qb]
(;W[pb];B[ob];W[pa];B[qd];W[qc];B[rb])
(;W[ob];B[nb];W[pb];B[qd];W[qc])))
(;W[cq]C[maybe here instead?

****
I'm not sure :(]))
