(;FF[4]GM[1]SZ[19]ST[2]CA[UTF-8]AP[SGFC:1.17]

PB[linsin]
BR[19k]
PW[palusijf]
KM[6.5]
DT[2010-02-13]
PC[The KGS Go Server at http://www.gokgs.com/]
RE[W+32.5]
TM[1800]
OT[5x30 byo-yomi]
RU[Japanese]

C[Hi, I'm reviewing this game for White - I'll mark comments with CJT.

First off, there were many mistakes made in this game - but you managed to make more use of your opponents mistakes and come out with a large advantage.

For this reason though, I'm not able to go into each bad move in detail - but where I see general trends or areas to improve I'll try to point them out.


My general points of advice:
- Use thickness!  You built up a huge wall early on, which only became useful when black unwittingly got tangled up in a fight there.  You should try to find any opportunity to push your opponent towards your thickness.
- Remember the whole board!  Don't get drawn into endgame fights before the opening is halfway through!]
;B[oc];W[cd];B[eq];W[pp];B[co];W[ec];B[qq];W[qp];B[rp]LB[pq:a]
C[[CJT\] - well this is not the usual move - A is more common.  However the 3-3- invasion is not the best idea with such an open board and the top corner wide open...]
;W[ro];B[sp]
(;W[so]LB[pq:a][qd:b]C[[CJT\] - I think A is more severe - see variation for worst case for W...

Otherwise the open top corner looks very inviting... Around B is very big.]
;B[pq];W[oq];B[or];W[op];B[nr];W[mr]LB[mq:a]C[[CJT\] - This move seems odd - you should be quite happy to see black crawl along the second line - building great outer influence as you go.  A seems more natural.]
;B[rq];W[nq]C[[CJT\] - Now stones 18 and 20 are just doing roughly the same job as the single stone left of 20 would be.]
;B[pr];W[mq];B[ms];W[ls];B[ns];W[lr];B[rs]C[[CJT\] - A totally unnecessary move from your opponent.  You have used maybe 2 stones more than you needed to here - but your opponent has wasted even more.

Now with sente I would go for attacking the top corner - using your thick wall below.]
;W[jd]LB[cj:a][dj:b][qd:c][qg:d]C[[CJT\] - If you want to play an extension - then you usually play the other side of a 3-4/5-3 corner enclosure - A or B are bigger.

However I think the most urgent move is around either C or D.

C prevents black getting the corner, while D also attacks the corner while threatening to make a large moyo on the right-hand-side.]
;B[qd]LB[ph:a][dj:b]C[[CJT\] - Now black is able to secure the corner - the most vital point is in front of the enclosures - first around A, then around B.]
;W[lc]C[[CJT\] - This is not a bad move - it settles some of the top terr]
;B[md];W[ld];B[mc];W[mb];B[nb];W[ma];B[lb];W[kb];B[na];W[la]
LB[dj:a][qh:b]C[[CJT\] - Looking at the board here it is quite clear that both players have been playing too small.  Usually the 1st line (round the edge) is reserved for end-game plays.  However here we have 8 stones on the 1st line, with two sides completely untouched.

It is obviously inportant not to let your opponent steal territory from you in the opening, but you must also consider whether there are more important places to play.

For example your last move saved your 2 stones being captured - locally this is the best move, but you could have taken sente to play A or B, then if black captures your stones, you can have a second move in sente... Worth the trade???]
;B[iq];W[dj]C[[CJT\] - Good move! (Fort!)];B[dl];W[ch];B[mf]
;W[lf];B[le];W[ke];B[me];W[lg];B[mg];W[lh]LB[pi:a][qi:b]C[[CJT\] - This move looks good too - you have a good opportunity to attack the lower part of the black corner, since you are so strong below.  Moves around A or B are still possible later.]
;B[fj];W[fh];B[ej];W[di];B[ei];W[eh]C[[CJT\] -  Solid - keeping yourself a very large corner.]
;B[dk];W[ck]C[[CJT\] - As I've said before, there are bigger moves on the board in the wide open spaces on the right...]
;B[cl];W[bk];B[bl];W[mh]C[[CJT\] - Good - a very strong 'turn' here - almost always the right move, hemming black in, and exerting more influence on the centre.]
;B[gh];W[gg];B[hh];W[hg];B[ig];W[if];B[jg];W[kf]LB[jf:a]C[[CJT\] - Better at A - black cannot cut...]
;B[jf];W[je];B[hf]
(;W[he]C[[CJT\] - Not the best move here I don't think - see variation.]
;B[ie];W[id];B[if];W[gf];B[ge];W[hd];B[ff];W[fg];B[ef];W[fe]
;B[gd];W[gc];B[fd];W[ed];B[ee];W[fc];B[fe];W[de];B[dg];W[dh]
;B[cg];W[df];B[eg];W[bg];B[cc];W[cf];B[dc];W[db];B[cb];W[eb]
;B[bd];W[ce];B[be];W[ac];B[bc];W[ab];B[ae];W[bb];B[ba];W[af]
;B[ca];W[bf];B[ad];W[da];B[aa];W[ab]C[[CJT\] - Well done to kill black here... Often these are easy if you've studied hundreds of life-or-death problems, or have loads of time to work it out - but to do this on instinct is very good.]
;B[ak];W[aj];B[al];W[bj];B[nj]
(;W[nh];B[oh];W[og];B[ng];W[oi];B[ph];W[pg];B[pi]
(;W[ni];B[oj];W[mj];B[kj];W[mk];B[lj];W[lm];B[lo];W[mn];B[mo]
;W[no];B[nn];W[nm];B[on];W[om];B[oo];W[np];B[pn];W[pm];B[qn]
;W[qo];B[qm];W[ql];B[rl];W[rm];B[rn];W[sm];B[sl];W[sn]C[[CJT\] - See how strong that wall is now?  Black had nowhere to go.

My comments end here as we enter the endgame.];B[nl];W[ml];B[ln]
;W[po];B[ll];W[li];B[km];W[mm];B[kl];W[ki];B[nk];W[pk];B[pj]
;W[qj];B[rj];W[rk];B[qi];W[ri];B[qk];W[sk];B[qj];W[sj];B[rh]
;W[si];B[sh];W[ji];B[jj];W[ii];B[ij];W[hi];B[gi];W[hj];B[ih]
;W[fi];B[gj];W[hk];B[hl];W[gk];B[fk];W[il];B[ik];W[gl];B[hm]
;W[fn];B[gm];W[fm];B[fl];W[im];B[hn];W[ho];B[in];W[io];B[jn]
;W[jo];B[kn];W[kp];B[lp];W[kq];B[jp];W[ko];B[gn];W[go];B[fo]
;W[fp];B[eo];W[gp];B[gq];W[fq];B[fr];W[gr];B[hq];W[hr];B[ir]
;W[is];B[gs];W[er];B[hs];W[ep];B[dp];W[dq];B[cq];W[es];B[dr]
;W[eq];B[cr];W[ds];B[cs];W[js];B[jr];W[kr];B[ks];W[js];B[kh]
;W[ip];B[qg];W[lk];B[kk]LB[jl:a];W[jq];B[ol];W[pl];B[qh];W[ok]
;B[kg];W[jh];B[jl];W[tt]C[linsin [19k?\]: ouais];B[tt]TW[aa]
[ba][ca][ea][fa][ga][ha][ia][ja][ka][bb][cb][fb][gb][hb][ib]
[jb][lb][ac][bc][cc][dc][hc][ic][jc][kc][ad][bd][dd][fd][gd]
[kd][ae][be][ee][fe][ge][ef][ff][ag][cg][dg][eg][ah][bh][ai]
[bi][ci][mi][cj][rl][sl][qm][nn][on][pn][qn][rn][oo][hp][jp]
[gq][hq][iq][fr][gr][hr][ir][jr][fs][gs][hs][is][ks]TB[oa][pa]
[qa][ra][sa][ob][pb][qb][rb][sb][nc][pc][qc][rc][sc][nd][od]
[pd][rd][sd][ne][oe][pe][qe][re][se][nf][of][pf][qf][rf][sf]
[og][pg][rg][sg][ek][jk][el][il][am][bm][cm][dm][em][fm][im]
[jm][an][bn][cn][dn][en][fn][ao][bo][do][ap][bp][cp][aq][bq]
[sq][ar][br][qr][rr][sr][as][bs][os][ps][qs][ss]C[palusijf [?\]: c Bon?
linsin [19k?\]: bien joué
palusijf [?\]: merci])
(;W[oj]C[[CJT\] - I prefer this to keep the black stone as weak as possible.  Your stones will be able to escape to your strong wall below.]
))
(;W[ih]C[[CJT\] - Not necessarily a move I would recommend yet, but you should have been looking for an opportunity to play this cut.  Black cannot save both groups.]
;B[jh];W[ii]
(;B[ji];W[gi])
(;B[hi];W[ji])))
(;W[ie];B[gf];W[fg]C[[CJT\] - In this variation black has nowhere to go.]
))
(;W[pq];B[so];W[rn];B[sn];W[rl];B[sm];W[sl];B[rm];W[qm];B[qn]
;W[qo]
(;B[rr];W[pn])
(;B[pn];W[rq])))
