(;FF[4]GM[1]SZ[19]ST[1]AP[SGFC:1.17]

PB[rko]
BR[20k]
PW[palusijf]
WR[19k]
KM[0.5]
DT[2010-02-24]
PC[The KGS Go Server at http://www.gokgs.com/]
RE[B+51.5]
TM[1800]

C[Hi, I'm SadSido, 12k Go player from Saint-Petersburg, Russia. I will review this game for White and make some comments aboud Black's most strange moves =)

The opening of the game was won by Black, who used his stones effectively, while White had no clear game plan. Afterwards the players exchanged solid territories and tried some desperate invasions (and even suceeded there), leaving the game almost even. My last comment is at move 162, where White has missed an important cut.

In general, I have the following advices for White:

- learn the meaning of the stones, you play at the opening. The opening is always an experiment, but there are some basic concepts, you should use to find your game.

- estimate who is ahead and who is behind. The player, who is ahead must play solid moves and look for exchange. The player who is behind must look for a fight, making some ambitious and risky moves. Please note, that White player starts from behind, until he has a komi.

-don't follow your opponent blindly. Before answering to *every* opponent's move, ask yourself "Can I leave this situation and play elsewhere?". Sometimes you cannot - your opponent forces you. But sometimes you can and you should always give it a try (or at least a thought =) ).

Enjoy your game! Hope, you like the review!];B[pc];W[dd];B[dq]
;W[pp]C[[SadSido\] White plays 4-4 stones, that are very flexible an can be a source of either influence or territory. Black plays 3-4 stones, which are oriented on territory rather than on influence.]
;B[pn];W[np];B[qi]
(;W[nd]C[Better in D5  O17 or D10?

[SadSido\] I would prefer D5 here, because it applies some pressure on the lonely D3 stone. 

D10 seems too quiet for me, and it gives black the initiative. I wouldn't play O17 as well, because it will let black develop his left side framework.]
;B[oe]
(;W[kd]C[[SadSido\] I think O15 is better here. Building some kind of a wall, facing the 4-4 stone is a good idea.

L16 move neither brings you territory (because it is too high), nor prevents black from developing his stones.]
(;B[nc];W[mc];B[nb];W[mb];B[iq]
(;W[lq]C[[SadSido\] M3 is too tight. You should prevent black from building a corner enclosure. No need to worry about your O4-Q4 stones - they seem safe now.

When you have stones on the 4th line, you cannot expect them to bring territory. Use them to corrupt your opponent's territory instead (for example, consider Q8 move, supported by your stones in the corner)]
;B[dk];W[di]C[D13 or invade at D7 ?

[SadSido\] At this moment, you can see that your opening game went wrong. Black's stones are definitly better. All the white stones are played on the 4th line, two corners are isolated from each other. The stones does not support each other much.

The main strategy for now is corrupting the game for Black. Black has the lead and will make solid moves. White must try risky moves to gain initiative.

Possible moves are invasion at D7 with the idea to run away to the center (and NOT to live on the side), invasion at Q8, cutting Q6 stone from the main black forces, maybe Q15, followed by the cut at P16..]
;B[hl]
(;W[gi]C[[SadSido\] Chasing black will only give him stable territory. You may think that it gives you the territory as well, but keep in mind that black leads for now and black is happy for any exchange.]
;B[kl]
(;W[ii]C[[SadSido\] One more time, you are following black's game, instead of playing your own. White must take the risk.]
;B[mi];W[kh]C[[SadSido\] Black is too tight now, and he is totally connected. Not much left for white in this game]
;B[mf];W[kf];B[mn];W[qo];B[qn]C[[SadSido\] Black is happy to exchange territory. White must find some way of challenging black's territory instead of gaining his own.

There are still some desperate invasions (with not much chance, but the opponents are 20k, why not give it a try =) ). Consider C8, K4 or K5. 

Also note, that black has a killing move at C17, after which white has nothing but to surrender. White must protect against this move.]
(;W[ro]C[[SadSido\] Here it is ok, because of sente. Black sees the threat of monkey jump (at T8) and must protect by playing S6.]
(;B[sn]C[[SadSido\] ??? No excuse for this move. Why not S6? =)]
;W[rn];B[rm]
(;W[sm]C[??? T5

[SadSido\] No move required at all here! White should switch his attention elsewhere (still at C8, or K4, or break through O6)]
(;B[sl]C[[SadSido\] Black really wastes time here. He has enormeous borders to protect and he is challenging white for 3-5 points. Just render white off by 3-3 invasion.]
;W[so]C[[SadSido\] No need for this move either. You protect 2 points, while you are behind by 30 points. You must search for a fight with black.]
;B[sm];W[jq]C[[SadSido\] White's focus is correct, but the move is too territorial. This move triggers exchange of territories, not the fight.]
;B[jp];W[jr];B[ir];W[kp];B[jo];W[ko];B[kn];W[mo]C[[SadSido\] White cannot be happy of this. N5 is not necessary, because black has sente now and has some victorious moves to play. C17 (lethal), C11 or E11 (challenging), C10 or P16 (quiet).]
;B[nn]C[[SadSido\] Too small even for Black. P5 would bring more challenge for example, threatening White... C10 is quiet and simple]
;W[ln];B[lm]
(;W[lo]C[[SadSido\] No challenge here. Black forces white's every move. White must take more risk (see the variation)]
;B[fl]C[[SadSido\] What move does black afraid of? Why not F9? Or even more ambitious F10?]
;W[kj];B[ci]C[[SadSido\] Good. Black finally sees its move]
;W[ch];B[bi];W[bh];B[ah];W[ag];B[ai];W[bg];B[cj]C[[SadSido\] Why not D10]
;W[ej];B[po];W[qp];B[op];W[oq];B[oo];W[no];B[hj];W[hi];B[fj]
;W[fi];B[jj];W[ji];B[lk];W[lj];B[mj];W[li];B[ij];W[gj];B[fk]
C[[SadSido\] From now on, most of the territory is sealed. White still has to try C4 or C5, but it is merely a hope for opponents mistake.]
;W[dj];B[ek];W[gk];B[gl];W[hk];B[ik];W[il];B[jk];W[kk];B[jl]
;W[jm]C[????];B[im];W[km]C[????];B[jn]C[rko [20k\]: mauvais ca
palusijf [19k\]: ouais
palusijf [19k\]: je fais pas gaffe];W[le];B[cn]C[[SadSido\] Blacks sees its victory and plays safely. That is a good idea.]
;W[me]
(;B[ne]
(;W[md]C[[SadSido\] Does white afraid of cut at N16? =)];B[lg]
;W[kg];B[lh];W[ki];B[lf];W[ke];B[ma];W[la];B[na];W[lb];B[od]
;W[is];B[hs];W[js];B[hr]C[[SadSido\] The game is over. Black has still invasion at C17 to try...]
(;W[rg]C[? Better in R13 ?
Or cut at C9 ?

[SadSido\] Cut at C9 seems a failure to me. R13 and S13 only call for an opponent's mistake, receiving a ko here would be a great success for white =)]
(;B[qf];W[qc];B[qd];W[rd];B[qe];W[pb]
(;B[ob]C[[SadSido\] ? Bad move by Black? Gives white an access to the corner and a chance to live...]
;W[rb];B[pa];W[qb];B[re];W[sd]
(;B[se];W[qa]
(;B[oc]C[[SadSido\] I cannot explain, why does black let white live. It seems a matter of a good will to me =)]
;W[sb]C[[SadSIdo\] White is alive. Big invasion success and some chances are back!]
;B[rh]C[[SadSido\] One more wasted move by black. This white stone cannot expect to live.]
;W[oa];B[qg];W[pa]C[[SadSido\] Three moves wasted in total. No points, no challenge, no threats.]
(;B[dc]C[palusijf [19k\]: où tu vois les points ?
rko [20k\]: j'avais 123
rko [20k\]: et toi 114
rko [20k\]: .5
palusijf [19k\]: ok

[SadSido\] Black seeks revenge for the invasion. Well, why not. But it should definitly be C17, not D17]
;W[cc];B[ec];W[ed]
(;B[fc]C[[SadSido\] Whenever one invades so desperately, he should fight his access to the corner. It is easier to gain life in the corner]
(;W[db];B[eb]
(;W[da];B[ea];W[gc]C[connect at C18 ?

[SadSido\] Well, yes... Black gains one eye after capturing at C18.]
;B[cb]C[palusijf [19k\]: le c..
rko [20k\]: ...];W[bc];B[ca];W[gb];B[bb];W[ab];B[ga];W[ha];B[fa]
;W[fd];B[aa]
(;W[ba];B[dh]C[I think I lose the game here.

I must connected before !!

[SadSido\] Not here, I beleive. You still have to fight.];W[ei]
;B[dg]
(;W[cg]C[C14 ?

[SadSido\] C14 or B15 are ok. C13 brings white down. But as far as I estimate the score, White has lost anyway, even if black fails the invasion.

As an answer to the question at the last move, the invasion at C3 is always possible. Why not give it a try? The chances are low, but black can make a mistake and let white live. It is only up to you to decide whether to test your opponent or to give up (I prefer giving up, though, but it is a matter of personal attitude =) )

... this is my last comment here...

Bye! Good luck in the world of Go!];B[cf];W[bf];B[be];W[ce]
;B[af];W[cd];B[bd];W[ac];B[aa]C[rko [20k\]: tu gagnes pour l'instant
rko [20k\]: car le groupe est mort
palusijf [19k\]: même avec ce que tu m'a bouffé];W[df];B[eg]
;W[ef];B[fg];W[gg];B[ff];W[gf];B[fe];W[gd];B[ge];W[he];B[ee]
;W[de];B[fb];W[hb];B[ad];W[ba];B[fh];W[gh];B[ib];W[ic];B[ia]
;W[jb];B[tt];W[tt]TB[pd][ae][pe][bf][nf][of][pf][rf][sf][ag]
[bg][cg][mg][ng][og][pg][rg][sg][bh][ch][mh][nh][oh][ph][qh]
[sh][ni][oi][pi][ri][si][aj][bj][nj][oj][pj][qj][rj][sj][ak]
[bk][ck][mk][nk][ok][pk][qk][rk][sk][al][bl][cl][dl][el][il]
[ll][ml][nl][ol][pl][ql][rl][am][bm][cm][dm][em][fm][gm][hm]
[jm][km][mm][nm][om][pm][qm][an][bn][dn][en][fn][gn][hn][in]
[on][ao][bo][co][do][eo][fo][go][ho][io][ap][bp][cp][dp][ep]
[fp][gp][hp][ip][aq][bq][cq][eq][fq][gq][hq][ar][br][cr][dr]
[er][fr][gr][as][bs][cs][ds][es][fs][gs]TW[aa][ca][da][ea][fa]
[ga][ia][ja][ka][ra][sa][bb][cb][db][eb][fb][ib][kb][dc][ec]
[fc][hc][jc][kc][lc][rc][sc][hd][id][jd][ld][ie][je][hf][if]
[jf][hg][ig][jg][hh][ih][jh][lp][mp][rp][sp][kq][mq][nq][pq]
[qq][rq][sq][kr][lr][mr][nr][or][pr][qr][rr][sr][ks][ls][ms]
[ns][os][ps][qs][rs][ss]C[An invasion at C3 is still possible ?]
)
(;W[be])
(;W[cf]))
(;W[ac]C[[SadSIdo\] Black has still one eye, but there are complications, such as H18...]
))
(;W[cb]))
(;W[cb]
(;B[gc];W[fa])
(;B[db];W[hb])))
(;B[cb];W[bc];B[bb]))
(;B[tt];W[tt]TB[pd][pe][nf][of][pf][rf][sf][mg][ng][og][pg]
[rg][sg][mh][nh][oh][ph][qh][sh][ni][oi][pi][ri][si][aj][bj]
[nj][oj][pj][qj][rj][sj][ak][bk][ck][mk][nk][ok][pk][qk][rk]
[sk][al][bl][cl][dl][el][il][ll][ml][nl][ol][pl][ql][rl][am]
[bm][cm][dm][em][fm][gm][hm][jm][km][mm][nm][om][pm][qm][an]
[bn][dn][en][fn][gn][hn][in][on][ao][bo][co][do][eo][fo][go]
[ho][io][ap][bp][cp][dp][ep][fp][gp][hp][ip][aq][bq][cq][eq]
[fq][gq][hq][ar][br][cr][dr][er][fr][gr][as][bs][cs][ds][es]
[fs][gs]TW[aa][ba][ca][da][ea][fa][ga][ha][ia][ja][ka][ra][sa]
[ab][bb][cb][db][eb][fb][gb][hb][ib][jb][kb][ac][bc][cc][dc]
[ec][fc][gc][hc][ic][jc][kc][lc][rc][sc][ad][bd][cd][ed][fd]
[gd][hd][id][jd][ld][ae][be][ce][de][ee][fe][ge][he][ie][je]
[af][bf][cf][df][ef][ff][gf][hf][if][jf][cg][dg][eg][fg][gg]
[hg][ig][jg][dh][eh][fh][gh][hh][ih][jh][ei][lp][mp][rp][sp]
[kq][mq][nq][pq][qq][rq][sq][kr][lr][mr][nr][or][pr][qr][rr]
[sr][ks][ls][ms][ns][os][ps][qs][rs][ss]C[rko [20k\]: ca donne quoi mtn
rko [20k\]: mmm
rko [20k\]: trop juste]))
(;B[sb]))
(;B[sb]
(;W[sa];B[ra])
(;W[se];B[rf];W[sf];B[rh]C[[SadSido\] Now, Black, be careful not to give a second eye =)]
)))
(;B[qb];W[ob];B[oc]
(;W[rb];B[rc])
(;W[rc];B[qa];W[rb];B[ra])))
(;B[re]C[[SadSido\] White has nowhere to run from here...]))
(;W[ck];B[bk];W[cl];B[bl];W[aj];B[bj];W[bm];B[cm];W[ak];B[dl]
C[[SadSido\] Cut at C9 is a failure]))
(;W[od];B[pd];W[oc];B[ob];W[md]))
(;B[lh];W[ki];B[lg];W[kg];B[lf]))
(;W[jn];B[lo];W[io];B[ip];W[il];B[in];W[im];B[hn];W[hm];B[gm]
;W[gl];B[hk];W[gn];B[ho];W[fm]C[[SadSido\] Some challenge here. White has a sudden feeling of hope, while black is in danger now =)]
))
(;B[cc];W[cd];B[dc];W[ec];B[eb];W[fc];B[fb];W[gc];B[bd];W[be]
;B[bc];W[cf];B[gb];W[hb];B[cj];W[ci];B[bi];W[bh];B[bj]C[[SadSido\] And white has nothing. Both players must consider the possible moves on all the board, and must not stick to local action =)]
))
(;W[nn];B[nm];W[on];B[om];W[mm];B[ml];W[lm];B[ln];W[lo];B[kn]
;W[jp]))
(;B[rn];W[sn];B[sm];W[so];B[rl]))
(;W[cl];B[ck];W[bk];B[bj];W[bl];B[ci];W[cp];B[dp];W[cq];B[co]
;W[bo];B[cn];W[bn];B[cr];W[bq])
(;W[jp];B[kp];W[kq];B[jq];W[ko]))
(;W[nl];B[nn];W[om];B[on];W[ni])
(;W[pg];B[ng];W[nf];B[of];W[og];B[ne];W[mf];B[me]))
(;W[pl];B[nn];W[nl];B[ln];W[qn];B[qm];W[pm];B[qo];W[po];B[rn]
;W[pi])
(;W[cm];B[ck];W[fm];B[dm];W[el];B[ek];W[fk]))
(;W[do];B[co];W[cn];B[bo];W[bn])
(;W[co];B[do];W[dn];B[eo];W[cm]))
(;B[ne];W[me];B[mf]))
(;W[ne];B[nc];W[mc];B[nb];W[mb]))
(;W[do];B[cp];W[co];B[iq];W[dj]))
