(;FF[4]GM[1]SZ[19]ST[2]CA[UTF-8]AP[SGFC:1.17]

PB[NOBUM]
BR[6k]
PW[goabc]
WR[5k]
KM[0.5]
DT[2010-02-15]
PC[The KGS Go Server at http://www.gokgs.com/]
RE[W+35.5]
TM[1500]
OT[5x30 byo-yomi]
RU[Japanese]

C[goabc [5k\]: hi
NOBUM [6k\]: hi gg

[General Queston\]
Around 50 moves, I (black) had an advantage.
What was wrong?
What should I study for improving my skill?

$ hi, i'm sylvainc on kgs i will try to do my best to comment]
;B[pd];W[dc];B[pq];W[cp]LB[cp:D][dp:A][ep:E][dq:B][eq:F][pq:C]
C[$ this is not big but it is why kageiama 9p calls 'the move who lost the game'

white D stone is usually approch by  black E of F stone, and it is a kind of extension from the side of C stone. so in this case, kageyama prefers A or B for white]
;B[pk]LB[ep:A]C[$ naturally, if i was black i would play A. but those first comments are just small things, perhaps question of style]
;W[df]LB[eq:A]C[[My comment\] I love China style and Moyo game.

$ for the same reasons i prefer the othe side for a white extension.
in this moment of the game, both player are only on one side (black on right, white on left)
Guo Juan 5p recommand to make 3D move in fuseki, means extend on 2 sides as soon as possible]
;B[jp]LB[ep:A][jp:C][eq:B]C[$ in my opinion, according to my previous comments, black should go to A or B. A or B are sente, C is gote.]
;W[hq]LB[hq:A]C[$ is A weak or strong stone ?
A is still alone, so it is weak stone now. Don't touch weak stone]
;B[iq]
(;W[fq]LB[hp:A][fq:B]C[$ black A seems natural.];B[jd];W[qo]
;B[qp];W[ql];B[qk];W[po];B[nq];W[pp]LB[pp:A]C[$ white A just help black to get stronger shape]
;B[qq];W[no]LB[qf:B][pl:A][hp:C]
(;B[jj]LB[jj:B][qo:A]C[$ i dont  really like it because white A is still weak, and black B doesn't attack white]
;W[pl]LB[ol:A]C[$ hane at the head of 2 stones. don't even think, just play it]
(;B[ck]
(;W[qf]
(;B[qe];W[qi]
(;B[ol];W[pf];B[nd];W[om];B[nl];W[oj]
(;B[pj];W[pi]TR[pj][pk][qk]C[$ what a ugly shape !];B[ok];W[nj]
(;B[rk];W[rl];B[sh]LB[nl:A]C[[Question\] I thought that this move could take eye shape from the 6 white stones. Was this wrong move?

$ this is end game move. you seem to impatient to kill white, just escape A black to center : it will secure black, separating white stones. you can t attack properly if your own stones are weaks.]
;W[rh];B[si];W[rf];B[re]
(;W[sg];B[rj];W[ri]C[$ too smal, and gote, 2 stones is nothing]
(;B[sj]C[$ too small];W[lp];B[nm];W[on];B[lq]
(;W[mo];B[ll];W[kq];B[mp]
(;W[np];B[mq]
(;W[op];B[lo];W[oq];B[or];W[kp]
(;B[nr];W[ko];B[ln]
(;W[nn]C[$ ?]
(;B[jq]TR[jp][iq]C[$ hugly shape];W[kn]
(;B[lm];W[kr]
(;B[hr];W[io];B[hp];W[gq];B[ho];W[in];B[ip]C[$ see now how black is eyeless....]
;W[hn];B[fp];W[ep];B[fo];W[jl]
(;B[kk];W[eo];B[fn];W[gm];B[em];W[fl];B[dl];W[cm];B[ch];W[jk]
(;B[lj]C[[Question\] Was that bad move? How about L11 or K11?]
;W[ki];B[li];W[ij];B[ji]
(;W[kh];B[lh];W[kg];B[mf];W[nh];B[mg];W[kj]
(;B[ih];W[ii];B[jh];W[kl];B[lk];W[el];B[dm];W[ej]
(;B[dj];W[ke]
(;B[kd]C[[Question\] I think this was the worest my move.
I should have played J14 instead.];W[if];B[hh];W[hf];B[fh];W[eh]
(;B[ei];W[fi];B[di];W[gh];B[gi];W[fg];B[fj];W[fh];B[hj];W[ik]
;B[ek];W[hi];B[gj];W[le]
(;B[me];W[ld];B[lc];W[md];B[of];W[oe];B[ne];W[mc]
(;B[pe]C[[Question\]I afraid the big O15 group, so I connected here.
However I had thought that I would like to play P13 or (P12 earlier).
P13 could work?

$ see move 135];W[og]
(;B[od];W[kc];B[jc];W[kb]
(;B[gc];W[ob];B[qb];W[pb];B[jb];W[lb];B[qc];W[fb];B[gb];W[hd]
;B[fc];W[eb];B[hc];W[ia];B[ed];W[dd];B[id];W[fe];B[ee]
(;W[ef];B[he];W[gd];B[ge];W[ff];B[fd];W[ja];B[ib];W[cn];B[de]
(;W[cd];B[ce];W[be];B[cf];W[gf];B[ha];W[bf];B[bg];W[cb];B[bc]
;W[bd];B[bb];W[ba]LB[sl:A][gr:B]C[$ A sente bigger];B[ka];W[gr]
;B[dq];W[eq];B[cq];W[br];B[bp];W[bq];B[dp];W[co];B[do];W[dn]
;B[en];W[dr];B[cl];W[hk];B[im];W[fk];B[gk]LB[sl:A]C[$ ;( gote
still A bigger];W[gl];B[ej];W[km];B[jo];W[jn];B[gn];W[gp];B[go]
;W[jr];B[ir];W[lr];B[mr]C[$ ? still A much bigger];W[rp];B[rq]
;W[ro];B[bm];W[bn];B[pg];W[ng];B[ph];W[oh];B[an];W[cr];B[bl]
;W[ao];B[am];W[rr];B[sq];W[qr];B[pr];W[ms];B[ns];W[rs];B[ps]
;W[sp];B[ls];W[jg];B[js];W[ks];B[is];W[ms];B[bo];W[ap];B[ls]
;W[ig];B[sr];W[dg];B[ss];W[se];B[sd];W[sf];B[rc];W[nc];B[mj]
;W[ni];B[nk];W[nf];B[mh]LB[lg:A][mh:B]C[$ A and B are miai, so B is useless, like pass move]
;W[qh];B[af];W[ae];B[ag];W[cg];B[bh];W[fa];B[mn];W[la];B[ja]
;W[qa];B[ra];W[je];B[pa];W[oa];B[qa];W[oc];B[gs];W[fs];B[hs]
;W[sl];B[lf];W[kf];B[mi];W[oe];B[es];W[fr];B[of];W[qg];B[oe]
;W[tt];B[fm];W[sk];B[ms];W[dh];B[hl];W[hm];B[tt]
(;W[hg];B[tt];W[tt]TW[aa][ca][da][ea][ma][na][ab][bb][db][mb]
[nb][ac][bc][cc][lc][ad][jf][eg][gg][pg][rg][hh][ih][jh][ph]
[ji][oi][jj][hl][il][im][jm][pm][qm][rm][sm][pn][qn][rn][sn]
[bo][do][oo][so][bp][dp][aq][cq][dq][ar][er][as][bs][cs][ds]
[es]TB[ia][sa][hb][rb][sb][ic][sc][gd][hd][qd][rd][ah][ai][bi]
[ci][aj][bj][cj][ak][bk][dk][mk][al][ml][mm][qr][rr][os][qs]
[rs]C[NOBUM [6k\]: thanks
NOBUM [6k\]: gg])
(;W[tt]TW[aa][ca][da][ea][ma][na][ab][bb][db][mb][nb][ac][bc]
[cc][lc][ad][jf][eg][pg][rg][ph][oi][hl][il][im][jm][pm][qm]
[rm][sm][pn][qn][rn][sn][bo][do][oo][so][bp][dp][aq][cq][dq]
[ar][er][as][bs][cs][ds][es]TB[ia][sa][hb][rb][sb][ic][sc][gd]
[hd][qd][rd][ah][ai][bi][ci][aj][bj][cj][ak][bk][dk][mk][al]
[ml][mm][qr][rr][os][qs][rs]))
(;W[ce];B[cf];W[cg];B[bf];W[be];B[bg];W[bc]LB[ih:A]C[$ A is dead]
))
(;W[ge];B[ef];W[dg]))
(;B[jb];W[lb];B[fc]))
(;B[gc]C[$ no need to take p16, black is connected]
(;W[od];B[oc])
(;W[nf];B[od])))
(;B[og];W[oh];B[pg];W[qg];B[ph];W[od];B[oc];W[pe];B[nc];W[pc]
;B[qd];W[qc];B[rc];W[se];B[rd];W[qb];B[qh]))
(;B[og]C[$ to save O15, threats, white Q11 group];W[ng];B[nf]
;W[of];B[md]))
(;B[fg];W[eg];B[fe];W[hd];B[fc]C[$ the battle is fair, both W and B have a weak group to save]
))
(;B[if]C[$ i prefer Black j15];W[kd];B[jc];W[lc];B[nb]))
(;B[if]))
(;B[ii]
(;W[jf])
(;W[ke];B[kd];W[ig];B[ik];W[hj])))
(;W[ii]LB[ki:B][jk:A]C[$ saving A is more important than B]
))
(;B[jh];W[kj]C[$ W cuts];B[lj];W[ki];B[li];W[kh])
(;B[kj]C[$ i prefer L 11]))
(;B[lj]))
(;B[hp];W[hr];B[in];W[jm];B[hl]))
(;B[km]C[$ better];W[in];B[kr];W[io]))
(;B[hp]))
(;W[jo]))
(;B[kr]C[$ doesn't seem any problem]
(;W[nr];B[mr];W[pr];B[ns];W[qr];B[rr])
(;W[jq];B[jr];W[ko];B[jo];W[ln];B[kn];W[lo];B[ip])))
(;W[kp]LB[jp:A]C[$ threat A to be cut]))
(;W[kp]))
(;W[kq];B[kp];W[mq];B[lr];W[mp];B[mr];W[ir]))
(;B[nm];W[on];B[rn];W[ro];B[rm];W[sm];B[oh];W[oi];B[ll]LB[qi:A]
[ll:C][ql:B]C[$ A and B are not out of trouble, black C both escape and cut]
))
(;W[se]C[$ sente];B[sd];W[sf]))
(;B[oh];W[oi];B[ll]LB[oi:B][rk:C][om:A]C[$ i prefer black escape to center separating A from B than black C]
))
(;B[ok];W[nj]LB[pi:B][pj:A]C[$ do you imagine now black exchange A for B ?]
;B[pj];W[pi]LB[pj:A]C[$ same result than in the game. it shows how black A was ugly]
))
(;B[pf]LB[qe:B][pf:A]C[$ if white doesn t play the natural A answer to contact move B, then take the place]
;W[qg];B[ol];W[om];B[oi];W[pg];B[of];W[og];B[nf]))
(;B[qh];W[of];B[ne]))
(;W[ci];B[cn];W[eo];B[ek]C[$ white extensions are sente]))
(;B[ol];W[om];B[nl]SQ[jd][pd][jj][qk]C[$ white has no choice to answer and black makes moyo]
))
(;B[pl])
(;B[qf]))
(;W[hp]LB[hp:A]C[$ A is natural answer to the contact move, and white is stronger now]
))
