(;FF[4]GM[1]SZ[19]ST[2]CA[UTF-8]AP[SGFC:1.17]

PB[Teudis]
BR[19k]
HA[2]
PW[iging]
WR[17k]
KM[0.5]
DT[2010-03-03]
PC[The KGS Go Server at http://www.gokgs.com/]
RE[W+Time]
TM[60]
OT[5x10 byo-yomi]
RU[Japanese]

AB[pd][dp];W[pp];B[dd];W[qf];B[pf];W[pg]
(;B[oe]C[odd move]
(;W[qd]
(;B[oc];W[qc];B[qe];W[re];B[pe];W[pc];B[pb];W[qb];B[ob];W[qg]
;B[dj]TR[fb][gb][fc][gc][fd][gd][bf][cf][df][bg][cg][dg]C[San-rei-sei is actually for fighting not territory, i went like "say what" when i was showed why first time.
In short 3:rd line is for territory and 4:th line is for influence.
3-3 invasion alwas lives, some exeptions occur when ther is a stones in marked area.
C5-9 and C11-15 should almost always live or make it out to the center and live, leaving zero teriitory on the edge.]
(;W[qj]C[to close, better if W plays R6 and aim for the corner.]
;B[jd];W[fc];B[ec];W[cc]C[If W is gonna make a 3-3 invasion why play at F17 first?]
;B[fd];W[dc];B[fb];W[gc]C[either have the cake or eat it... 2 tiny groups with tiny hopes of survival.
Basicly i think B15 and give up the F17 stone is better. even though black gets big influence towards the center white has to keep in mind that 1 of 100 times center becomes points.]
;B[gb];W[hc];B[hb];W[eb];B[ed];W[he];B[hd];W[gd];B[ge];W[id]
;B[ic];W[ib];B[hd]C[Sloppy or lucky, you choose.. :)];W[ie]
;B[jb];W[cd];B[ce];W[cg];B[dg];W[cf]
(;B[df];W[be];B[de];W[dh];B[ch];W[bh];B[ci];W[eh];B[eg];W[fh]
;B[gg];W[fg]C[What is whites F12 thing trying to do?? Eat a dragon?]
;B[bi];W[bg];B[gh];W[gf];B[ff];W[ej];B[ei];W[fi];B[di];W[fj]
;B[hf]
(;W[if]C[Don't run with a "dead" group, run to a "dead" group.

When i learned this the first time it was painfull, now 20 million time or so later it's still pianfull... I feel black's next move is liked the borg in star trek here, "resistance is futile you will be assimilated"

Seriously that phrase should be obeyed every sigle time or pain will follow. There are no exceptions.]
;B[ig];W[jf]C[running now is ponitless.];B[jg];W[kf];B[kg];W[lf]
;B[lg];W[mf];B[mg];W[nf];B[ng];W[of];B[og];W[ne];B[od];W[kb]
CR[la][ma][na][lb][mb][nb][kc][lc][mc][nc][kd][ld][md][nd][ke]
[le][me]TR[jd]C[If white can kill the marked black stone, he can survive but ONLY then. Any black stone at all in cirklemarked area and white is only gonna live by a big misstake from black, if even that enough.]
;B[kc];W[ja];B[ia];W[lc];B[lb];W[kd];B[ka];W[je];B[ld];W[jc]
;B[mc];W[md];B[jd];W[le];B[ke];W[nc];B[nb];W[kd];B[lc];W[jc]
;B[nd];W[jd];B[me];W[dk];B[ck];W[dl];B[cl];W[bj];B[cj];W[bk]
;B[bl];W[ai];B[ak];W[ah];B[aj];W[cn];B[dm];W[cm];B[dn]
(;W[ek];B[bm];W[co];B[bn];W[do];B[eo];W[cp];B[dq];W[cq];B[cr]
;W[br];B[dr];W[bo];B[an];W[ao]
(;B[bk]C[Why??? Black cannot die.]
(;W[cs]
(;B[ds];W[bs];B[op];W[gi];B[gf]SQ[dn][eo][dp]C[O.o

um, why?? Black didn't give sente away, he trow it at white screaming "You take sente or else...."

Blacks marked group is one step away from death..... But on the brightside a stone at H4 or so would be jippi :D for black.
D6-7 have lost al importance when White lives in the corner, the only thing they are good for now is 4 points.]
;W[ii];B[po];W[qp];B[pq];W[qq];B[qo];W[ro];B[oq];W[oo];B[on]
;W[no];B[np]
(;W[mo];B[mp];W[lo];B[lp]
(;W[en];B[em];W[fn];B[fo];W[fm];B[go];W[fq];B[ko]C[black have to play E5 or he could just give up.]
;W[ep];B[eq];W[fp];B[fr]
(;W[gr]C[White have to play E1, he just have to....];B[gq];W[gn]
;B[gp];W[ho];B[hp];W[io];B[ip];W[jo];B[jp];W[kq]C[Hoho, white is going deepsea fishing in sahara.
survivalechans less then 1 % or something... that white acutally makes life is nothing short of a mirical...]
;B[kp];W[ir];B[hr];W[jr];B[jq];W[lq];B[mq];W[mr];B[nr];W[lr]
(;B[ms];W[hs];B[gs];W[is];B[gr];W[ls];B[ns];W[ks];B[qr];W[qn]
;B[pn];W[rp];B[rn];W[qm];B[mn];W[ln];B[lm];W[kn];B[jm];W[mm]
;B[nn];W[km];B[ll];W[kl];B[lk];W[kk];B[nm];W[ml];B[mk];W[nl]
;B[ok];W[om];B[mj];W[nk];B[nj];W[pm];B[kj];W[jj];B[ki];W[jh]
;B[kh];W[hh];B[ih];W[hi];B[ji];W[jk];B[pj];W[pi];B[oi];W[oh]
;B[nh];W[ph];B[oj];W[mi];B[ni];W[pk];B[ol];W[pl];B[rq]
(;W[sq];B[rr];W[sr];B[rs];W[sp]
(;B[pr];W[hg];B[ss];W[pa];B[oa];W[qa];B[db];W[cb];B[ea];W[ca]
;B[da];W[tt]C[Teudis [20k\]: me dormi
iging [17k\]: nice close game i win with 2 points])
(;B[ss];W[pr]))
(;W[rr];B[rs];W[sq];B[qs]))
(;B[ks]C[now what?]))
(;W[es];B[er];W[gr];B[gq];W[fs];B[hq];W[jq]
(;B[hr];W[jo];B[ln]
(;W[in]C[black gonna run to where??])
(;W[kn];B[kp];W[mn];B[jn];W[km];B[jp];W[io];B[ip]))
(;B[kq];W[hr];B[iq];W[jp];B[jr];W[jo];B[jn];W[kp];B[kn];W[kr]
;B[lq];W[ir];B[io];W[js];B[ip];W[jr];B[hn];W[gp]
(;B[mn];W[mr])
(;B[lr];W[nr];B[qr];W[rr];B[pr];W[rs];B[qs];W[os];B[mr];W[nq]
;B[ls];W[mm];B[mn];W[nm];B[nn];W[om];B[pm];W[pl];B[qm];W[ql]
;B[rm];W[rl]))))
(;W[ep];B[eq];W[fp];B[fq];W[gp];B[gq];W[hp];B[fn]
(;W[hq];B[hr];W[ir];B[gs];W[fr];B[fs];W[er];B[jr];W[is];B[iq]
;W[jq];B[ip];W[kr];B[ho];W[js];B[go])
(;W[gn];B[gm];W[hn];B[hm];W[hq];B[hr];W[ir];B[fr];W[hs];B[gs]
;W[gr];B[qr];W[rr];B[hr];W[fl];B[fm];W[gr]C[Black is neckdeep in troubble, D3 group have to win the ko to survive, F7 need 2 eyes. And white has J9 and then L-M10 and L3-M2 and Q2 attacks.
In short, if i have to chose side i would take white any give second.]
)))
(;W[nn];B[om];W[nm];B[ol];W[qm];B[pn];W[oj];B[nl];W[lo];B[nj]
;W[ni];B[oi];W[pi];B[mi];W[oh];B[mk];W[mp];B[mq];W[lq];B[mr]
;W[lr];B[qr];W[rr];B[ps];W[rq]LB[or:A]C[does white at A kill black??]
))
(;B[bs];W[as];B[ds]
(;W[bs];B[bq])
(;W[aq]
(;B[bp];W[bs])
(;B[bs];W[bp];B[ar]))))
(;W[aq];B[bs];W[bp];B[ar]C[Ko for life.])
(;W[bs]C[white ONLY move, when black is so kind...

Well C1 works as well but the point IS protect the B1 point.]
;B[aq]
(;W[bq];B[ap];W[ar])
(;W[ar];B[bq];W[en];B[em];W[fn];B[fm];W[ep];B[fo];W[gn];B[gm]
;W[hn];B[hm];W[fp];B[cs]TR[fg][dh][eh][fh][fi][ej][fj][dk][ek]
[dl]C[white have to make 2 eyes with the marked stones but he did get out with the corner, though he still doesn't have 2 eyes...]
)))
(;B[bs]
(;W[aq];B[bp];W[en];B[em];W[fn];B[fm];W[gn];B[gm];W[hn];B[gk]
)
(;W[ep];B[fo];W[fp];B[go];W[gp];B[hp];W[hq];B[ho];W[gq];B[hj]
;W[hk];B[ik];W[ij];B[hi]
(;W[il];B[gk];W[hl];B[gl])
(;W[hl];B[il];W[hm];B[im];W[en]
(;B[em];W[fn];B[fm];W[gn];B[gm];W[hn];B[in];W[gk];B[iq])
(;B[gm];W[hn];B[in];W[gk];B[em];W[fn];B[gn])))))
(;W[fl];B[el];W[ek];B[em];W[hk]))
(;W[mg];B[og];W[oh];B[nh];W[ng];B[of];W[oi];B[mh];W[lh];B[mi]
;W[li];B[mj];W[kg];B[jf];W[lj];B[mk];W[hj]C[B N-group is eyeless, should make it. W has 80% conected in the center makeing the "no eyes" problem a harmless one. And L15 - O16 for W are nice sentemoves that should give B's P group panic.]
;B[hi];W[ij];B[ii];W[jj];B[ji];W[ke]
(;B[lc]C[safe for B.
K15 is 12-14 point endgame move.])
(;B[je];W[nd]
(;B[od];W[lc]C[Have B connection?])
(;B[mc];W[od]))))
(;B[be]C[Do W have the gut to leave the corner alone and tenuki (play elsewhere) or is W dead regardless?
This close to the corneredge the 2-2 point becomes wery intresting.]
(;W[bd];B[bb];W[cb];B[ab];W[ac];B[ea])
(;W[ad];B[bb]
(;W[cb];B[bc];W[bd];B[ea];W[ab];B[ba];W[ca])
(;W[bc];B[cb];W[db];B[ab];W[ca]
(;B[da];W[ea])
(;B[ea])))
(;W[ac];B[bb];W[cb];B[bc];W[bd];B[ab];W[ad];B[ea];W[da];B[db]
;W[de];B[df];W[eb];B[fa];W[ba];B[db];W[ee];B[ef];W[eb];B[rf]
;W[rd];B[db];W[bf];B[fe];W[eb];B[ae];W[aa];B[ci])))
(;W[qn];B[nq];W[oq];B[np]
(;W[qk])
(;W[nr];B[mr];W[qk];B[or];W[pr];B[ns];W[ps];B[qi];W[pi];B[pj]
;W[qj];B[ph];W[ri];B[qh];W[oi];B[oh];W[rh];B[og];W[rf];B[ni]
;W[oj];B[nj];W[ok];B[nk];W[jd])))
(;B[qc]C[Why not R17 and aim for the corner.];W[rd]
(;B[rc])
(;B[ld]C[S17 small sente and if W plasys it safest answer is Q17 but best is R18, then W S18 becomes gote.]
)))
(;W[of];B[pe];W[og];B[qe];W[rf]C[N-L 15-16 is ok but D10 is bigger.]
))
(;B[of]C[Joseki exampels, could be worth looking at.]
(;W[qe];B[qd]
(;W[qi];B[nd])
(;W[rd];B[rc];W[re];B[qb];W[qj];B[nd]))
(;W[qd]
(;B[qc];W[pe];B[oe];W[qe];B[pc])
(;B[qe];W[re];B[pe];W[rf];B[qc];W[rd]))))
