(;FF[4]GM[1]SZ[19]ST[2]CA[UTF-8]AP[SGFC:1.17]

PB[mard]
BR[17k]
PW[nerino]
WR[15k]
KM[0.5]
DT[2010-03-24]
PC[IGS-PandaNet]
RE[W+37.5]
TM[600]
RU[Japanese]

C[Hi mard,

I'm 4k on KGS, don't know the level equivalence for IGS.

I will do my best to answer your question and review this game but don't forget that we all have different styles and someone stronger than me could say that what I'm saying is not true.

Hope this review will help you anyway and fill free to send it back if you have another quastions after going through it.

Regards,
Florian];B[pd];W[dc];B[co];W[pp];B[dq]C[nothing wrong about it, but I want to point out something about your 3-5 stones.]
(;W[nc];B[qf]
(;W[pb];B[qc]
(;W[kd]
(;B[qj]C[wrong direction];W[dj];B[nq];W[oq]C[this is bad play by white]
(;B[qn]
(;W[pn]C[Was my opening effective? Was there something I should have done that would have been more important? I admit I didn't have much of a strategy yet. Could I have read White's intentions this early and prepared or diffused them? I ended up running most of my groups towards the edge and making almost no territory, while my opponent built a strong base in the top almost immediately, then played aggressively to prevent me from doing the same.

So the question is already answered, we can't say that your moves were fatal mistakes, but they don't take into account the direction of the stones.]
;B[pm];W[qo];B[on];W[np]
(;B[mq];W[mp];B[lp];W[lq]C[Hane at the head of two stones failed me. What is the best response to this?

regarding lower left shimari, what you've done here was best but as showed earlier, when you didn't answered p3, o3 is best to be sacrified]
;B[kq];W[lr];B[kr];W[mr]
(;B[hp];W[kp];B[lo];W[ko]C[I read the ladder out and decided to connect my L3 and H4 stones instead. This ended up preventing white's later invasion, so I think it was a pretty good decision.]
;B[iq];W[ln];B[mo]
(;W[no];B[mn];W[mm];B[nn];W[km]C[White looks like it is already in a very strong position, with an unasailed corner and two whole sides, and a nice wall near the middle.]
;B[po];W[qp];B[op]C[Was the timing right here or should I have waited or played differently? I wanted to use the two dead stones, but I don't feel I gained anything from them.

the two dead sontes will be a source of ko threat so keep them for a ko

Moreover when white captures, p4 is a 3 pts gift so better force with p5]
;W[nr];B[ce];W[cg]
(;B[fc]C[Don't know this counterpincer? Is this joseki?]
(;W[fd];B[ed];W[ec];B[fe];W[gd];B[ee];W[df];B[cc];W[dd];B[de]
;W[cd];B[bd];W[cb];B[bc];W[fb];B[db];W[eb];B[bb];W[da];B[gf]
;W[bf];B[be];W[rn]
(;B[rm];W[oo];B[pn];W[ql];B[rl];W[qk];B[rk];W[pj]
(;B[qm];W[qi];B[rj];W[ph]
(;B[pk];W[ok];B[ol]C[I am happy I played here instead of Q8, my group would have been blocked from the middle otherwise!]
;W[oi];B[nk];W[oj]
(;B[nl];W[qg];B[rg];W[pf];B[qe];W[rh];B[sg];W[sh]
(;B[rf];W[cm];B[fh];W[fp];B[fq];W[gq]
(;B[gr];W[eq];B[fr];W[dp];B[er]
(;W[ep];B[cp];W[gp];B[hq];W[cq];B[dr];W[bq];B[dn];W[gn];B[ho]
;W[en];B[dm];W[em]
(;B[bp];W[ap];B[ao];W[bn];B[dl];W[cl]
(;B[ek]TR[em][km]C[Did I played the following moves correctly or could I have done something differently? The group at E4 looked very weak and I wanted to surround and kill it, as I could tell I did not have enough territory by this point.

Difficult to answer your questions, as it is now the situation is good for black so can't say you did something wrong but I want to say that overplay a lot here. He has two weak groups lost in black sphere of influence, keep them separated and one at least (can be both) will die.]
;W[hl]C[Could it still be cut off after White played here? Black J7, WJ8, it looks like White has connected its wall and vulnerable group with this H8 stone.

Now that I know the outcome of the fight, would peeping his two potential eyes at L6 and M7 have been more effective, since I would have been able to connect both of those stones with safe groups? White could have then fled further towards the center and probably make life there, so perhaps it was already a lost cause and I should have tried to make moyo or invade at J16?]
;B[gk];W[hn];B[hk];W[bo];B[aq];W[cn];B[do];W[dk];B[el];W[jn]
;B[il];W[im];B[gl];W[jl];B[ik];W[jk];B[jj];W[ej];B[ll];W[lm]
(;B[jo];W[lk];B[mj];W[ml]C[This is where I allowed the white group to make life, and I did not realize it was alive until later in the game. I probably lost because I misread the status of this group.

Now w is ahead in territory, you have to launch a severe attack on the north side, the problem is that r18 is dangerous for your side group so I don't think you can have much of it. Let's try a variation]
(;B[fo];W[fn];B[jp];W[kn];B[lj];W[kj];B[ki];W[kk];B[ji];W[fi]
C[This stone hurt my potential in the H11 area, but I still thought it was possible to kill his large group, so I ignored it.

with l16 and q14, you won't have enough points to make in the center for winning this game]
;B[hm];W[qb];B[oc];W[ob];B[nd];W[mc];B[md];W[oe];B[od];W[ng]
;B[le];W[rc];B[rd];W[pc];B[qd];W[rb];B[lg];W[if];B[he];W[id]
(;B[je]LB[ie:B][je:A]C[See variation. I had a chance to cut him at J15, but I'm glad I hadn't as the outcome is unfavorable.]
;W[ie];B[hg];W[kf];B[ke];W[jd];B[jf];W[ig];B[hh];W[eh];B[eg]
;W[fg];B[dg]C[I was happy with how this turned out.]
(;W[dh];B[ef];W[cf];B[gh];W[gi];B[hi];W[jg];B[kg];W[mf];B[lf]
;W[an];B[ap];W[ld];B[me];W[nf];B[in];W[io];B[ip];W[in]C[I hoped for a Ko, but he had no reason to play it. I couldn't find another opportunity for one, so I lost this fight.]
;B[hd];W[hc];B[nh];W[ni];B[mh];W[oh];B[ro];W[rp]
(;B[so];W[sp];B[sn];W[go];B[eo];W[ks]
(;B[jr];W[js];B[is];W[ls];B[fj];W[gj];B[fk];W[ch];B[hj];W[ei]
;B[jh];W[mi];B[li];W[ih];B[ii];W[hs];B[ir];W[ba]C[big, long time both players should have played here]
;B[ab];W[ae];B[ad];W[af];B[aa];W[ca];B[ri];W[sd]C[I probably should have protected this sooner.]
;B[og]C[Could his group in this area be killed? I thought I saw a weakness when I eventually played at T11, and this was my attempt to threaten or kill the group. I think white's group was unconditionally alive, now. With the one real eye at Q11, and the ability to make another at either Q13 or P14. Is this correct?

If it's possible, I can't kill it, I have kept an eye on it the whole game and won't find anything to kill after he played o13]
;W[of];B[si];W[qh];B[hf];W[se];B[ic]C[Was there any potential to invade White's massive territory up here, or was it too late? I saw some potential by using my F17 stone, but was unable to make anything happen. I realize this was a bad play, but I was desperate since I was already so far behind.

As i said long before and as you pointed out, the problem was that your s16 group was not enough strong so you couldn't invade... now it is, but white has no weaknesses in the area anymore]
;W[jc];B[ib];W[jb];B[mg];W[gm]
(;B[hl];W[pg];B[nm];W[gc];B[tt];W[sc];B[tt];W[tt];B[tt]TW[ea]
[fa][ga][ha][ia][ja][ka][la][ma][na][oa][pa][qa][ra][sa][db]
[gb][hb][ib][kb][lb][mb][nb][sb][fc][ic][kc][lc][ag][bg][og]
[ah][bh][ai][bi][ci][di][pi][aj][bj][cj][ak][bk][ck][al][bl]
[kl][ll][am][bm][jm][op][mq][nq][pq][qq][rq][sq][or][pr][qr]
[rr][sr][ms][ns][os][ps][qs][rs][ss]TB[ac][ff][kf][fg][gg][kh]
[lh][ij][sj][qk][sk][pl][ql][sl][om][sm][rn][bq][cq][jq][ar]
[br][cr][hr][as][bs][cs][ds][es][fs][gs][hs]C[nerino: 80.5 to mard: 43.0

Clearly I let White gain too much territory, and my lack of strategy did not pan out. I feel I played fairly well tactically and kept my opponent on his toes (this was an hour long game), but was unable to capitalize on any of my opponents mistakes to secure a win. Despite my early strategy to play safely, I ended up playing an entirely aggressive game, and gained nothing by it. Any advice you can give would be greatly appreciated, as well as any criticisms. Thank you in advance!

Bigger the group is, harder is to kill. So if you're going for murdering, just keep your opponents weak group separated.
Most of what I have to say is in the game and I hope it will be usefull for you. It was a good game but white shinogi (living in hostile area) in the center turned it into an irremiedable loss for black. There's a proverb that say you can't make more than 5 living groups on a goban, as long as I see, it was always true. If you count here, white has5 groups, so keeping his two center groups cut and you would have killed one ;).

Feel free if you have question and good continuation.])
(;B[nm]C[this is a point, h8 just a ko]))
(;B[js];W[jr];B[ls]
(;W[hr];B[ir]C[nothing to fear])
(;W[ir];B[hr];W[is];B[jq];W[ks];B[hs])))
(;B[sn]C[better to take, t4 is now your privilege because it's sente for you and not for white]
))
(;W[gh];B[dh];W[ef];B[cf];W[ff];B[bg];W[ch];B[bh];W[ci]C[don't know which variation is better]
))
(;B[ie]LB[ie:B][je:A];W[je];B[jf];W[kf];B[jg];W[ke];B[kg];W[lf]
;B[mf]C[Would have been a more favorable outcome. I should not have allowed White to connect at J15, when I was strong enough to cut. My top right group could be killed by White at T15, so perhaps I had no choice here.]
;W[mg];B[lc];W[ld];B[me]
(;W[lb];B[kc];W[jd];B[hd];W[jc];B[ic];W[kb];B[se];W[hc]C[w is in gote too]
)
(;W[kc];B[lb];W[nb];B[hd];W[hc];B[ic];W[kb];B[se];W[jd]C[white ends in gote and you have a bunch of ko threat, and you still have some points in the center so it's better than in the game]
)))
(;B[hc];W[gc];B[lc];W[ld];B[mc];W[md];B[nb];W[oc];B[jb];W[jc]
;B[kb];W[ib];B[kc];W[ic];B[ob];W[pc];B[ma];W[qb];B[rc];W[rb]
;B[rd];W[oe]C[not enough, w still ahead by 20 pts]))
(;B[kj])
(;B[io];W[lk];B[ml];W[kj];B[kl];W[kk];B[ji];W[mi]C[hard to kill that now that he has connected the 2 groups]
))
(;B[im];W[gl];B[jn];W[kn];B[dk];W[ck];B[jk]))
(;B[dl]C[c7 was a huge move when played, now it looks like a useless stone]
))
(;W[cp];B[ep];W[do];B[cq];W[bp];B[eo];W[fj];B[jn];W[kn];B[ll]
;W[lm];B[il]))
(;B[gp];W[eq];B[fr];W[ep];B[er];W[dp];B[cq];W[cp];B[bp];W[do]
;B[bo];W[dn];B[ck];W[dk];B[cl];W[dl];B[bm]))
(;B[re]C[making an eye is better]))
(;B[rh]C[stealing eye and connecting group];W[nl];B[mk];W[ll]
;B[mi];W[ng];B[kj];W[in];B[lg];W[ne];B[gn];W[il];B[ij];W[gl]
;B[cl]))
(;B[rh]C[you can connect])
(;B[oi];W[pi];B[rh];W[ok];B[nl];W[nk];B[ml];W[mk];B[ll]TR[mm]
SQ[pi]C[keep his two weak groups separated]))
(;B[qi];W[qm];B[pk]C[no need to connect]))
(;B[cl]C[attack white weak group]))
(;W[de]C[don't see any good moves for b here so I think the counterpincer f17 is not good for black]
))
(;B[ee];W[fd];B[hd];W[fe];B[dg];W[ch];B[ff];W[he];B[ed];W[ec]
;B[ge];W[gf];B[gd];W[fc];B[fg]
(;W[id];B[hf];W[ie];B[gg];W[hc];B[cl]C[This looks a little weird but is joseki]
)
(;W[hf];B[jd];W[ke];B[je];W[jf];B[kc];W[lc];B[jc];W[md];B[hb]
)))
(;W[nn]C[you effectively read the ladder but did you read that? Here it doesn't work beacuse of o5 atari but be sure to read all the possibilities]
))
(;B[kp];W[hq];B[ho]C[white will have hard time to deal with it]
))
(;B[po];W[mq]
(;B[iq])
(;B[nr];W[mr];B[iq]TR[qq]C[you still have the aji of san san and your q6 ponnuki is huge]
;W[tt];B[qq]
(;W[qp];B[pr];W[or];B[rr];W[rp];B[rq];W[qs];B[ps];W[rs];B[ss]
;W[sr];B[sq];W[ss];B[qr];W[rs];B[ss];W[sr];B[qs]C[alive])
(;W[or];B[ro]C[connected]))))
(;W[np];B[mq];W[mp];B[lq];W[jq]))
(;B[np]C[a must];W[qn]
(;B[jq]TR[co][np][dq][nq]C[shape is so nice and san san is still open for corner reduction]
)
(;B[jp]C[matter of taste...])))
(;B[nq];W[qn];B[jp]C[b shimari is now happy]
(;W[qh]C[if now white comes here];B[qb]TR[ic][lc]C[you simply live with that... and moreover because of l16 thinness, r18 puts w stones under pressure]
)
(;W[qb];B[qi])))
(;W[kc]C[joseki move is here, I can understand why white play l16 instead on the 4th line because here, all his stones are low. But l16 let more room for b, so the wrong move was the choice of q18 joseki.]
))
(;W[jd]C[matter of taste but prefer it, in relation withe d17

b now have to approch to prevent the shimari];B[cf];W[cd];B[dj]
;W[jq]C[and b shimari is developped in the wrong direction...]
))
(;AE[dq]LB[ci:A][dq:B]C[A stone on the 3-5 point is oriented toward the board, his primary direction is toward A and then B so in this position, c5 calls for an extension along the board.]
;W[tt]
(;B[de]
(;W[ce]C[If w goes for profit.];B[cf];W[cd];B[df];W[fc];B[dj]
;W[dq];B[ep];W[eq];B[fp];W[gq]C[you have a nice moyo])
(;W[cg]C[so w must counterattack but...];B[ef];W[cj];B[fc]TR[pd]
C[it's now your hoshi stone that is shining]))
(;AB[dq]AE[co]LB[co:A][jq:B]C[if you want to enclose a corner, it's better to start with a komoku, because A is the primary direction of d3 and B the secondary.]
))
(;W[jq]C[I consider it as a must])
(;W[ce]C[or this if w has komi because with a symetrical position, w has a lead, but here there's no komi]
))
