(;FF[4]GM[1]SZ[19]ST[2]CA[utf-8]AP[SGFC:1.17]

PB[sronen71]
BR[2k]
PW[ysku]
WR[2k]
KM[6.5]
DT[2010-03-24]
PC[The KGS Go Server at http://www.gokgs.com/]
RE[W+23.5]
TM[3000]
OT[5x50 byo-yomi]
RU[Japanese]

C[sronen71 [2k\]: Hi
sronen71 [2k\]: Enjoy

Dear Reviewer!

This is a serious slow game (50 min +5x50 sec) I played on KGS.
In this game I believe that I (black)  played the opening decently. All josekis are locally correct and
fuseki seems fine too. In the middle game I think I lost sente more than once and white took the advantage big way. I also tried to build two big moyos but white built even bigger one. I was able to invade it with great difficulty but as a result white could
invade easily into mine, split my groups, and I could hardly make life.
I think I should have taken more sente and also invade earlier into white open moyo, but am really not sure.

Thank you in advance for your review,

Shai

Chris: Hi Shai, my name is Chris, and I will try my best to review your game. After looking through this game, it is nice to see very little local mistakes (probably because of the long time settings?). As a general advice, I believe you should work on positional judgement and counting in endgame. It is important to chose the strategy according to necessity. For example accuratedly judging how much the invasion on the bottom was worth in comparison to the sudden loss of vitality on the right side, would have given you a possible win.]
;B[pd];W[pq];B[dd];W[dp];B[po]TR[pd][pq]C[I like this for black, seems like pressing white

Chris: Yes, this is the classical theory.];W[oo];B[on];W[no]
;B[pp];W[oq];B[pk];W[qq]LB[jd:D][cn:A][fq:B][jq:C][qq:E]C[I played A
any clear perefence between A-B-C-D?

Chris: Here you will decide what type of game you want to play. B and C seem to be wrong direction. See how the move at E makes white incredibly stable. So we can regard it as thickness, hence play away from it. B may be possible, as there is more room to maneuver. Personally I prefer A, but a move at D would make a good moyo game also.]
(;B[cn];W[fp]LB[dj:B][bp:A]C[played A
maybe B better here, it seems to work well globally

Chris: Again it depends on what you prefer! A is very teretorial. If you regard the side and center as more important, you should play B. Since this game seems to become a moyo game, I would play B myself, for a speedier opening, leaving the 3-3 invasion possibility open.]
(;B[bp];W[cq];B[ck];W[fc];B[df];W[jd];B[lc];W[qc];B[qd];W[pc]
;B[oc];W[ob];B[nc];W[nb];B[rd];W[mc];B[md];W[mb];B[le]TR[nd]
[od]C[some weakness remains,];W[rc];B[ec];W[fd];B[hb]C[my idea was: make white  group weak, then let it run while attacking and enlarging black moyos.

Chris: Very normal idea indeed.];W[hc];B[fb];W[gb];B[ga];W[gc]
;B[ib];W[eb];B[fa];W[jb];B[ic];W[jc];B[id];W[ie];B[db];W[he]
(;B[lb];W[ha];B[ea];W[ja];B[ia];W[hd];B[ha];W[jf];B[ke];W[je]
LB[ma:A][oh:B]C[I played A

I think B better.]
(;B[ma]C[stop conncetion
but it is gote];W[oi]LB[og:B][mi:A][qi:C]C[white jumps into the moyo

how should I respond?

I played A, idea also to separate two weak groups
B- seems overconcentrated
C - seems to passive]
(;B[mi]TR[he][oi]C[Chris: I dont see a clear way for Black to attack. Hence your assessment of N19 was correct.]
;W[ok];B[pj];W[oj];B[ol];W[nl];B[om];W[mk]C[Chris: Great success for White. Not only is Blacks moyo severely reduced but Whites potential on the bottom increases too!]
;B[fg];W[ji]LB[fg:A][ji:B]C[but now white seems almost connected so my plan didn't work well

Chris: Furthermore A induces B, which helps White, Blacks potential on the left is not big enough to win the game, so Black should have invaded.]
;B[hh];W[lg]LB[qh:C][en:A][hq:B]C[I played A
after game I think locally I choose B out of A and B
but C also seems urgent

Chris: Invading the bottom is very urgent now.]
(;B[en];W[gn]LB[gm:A][jq:B]C[I played A
I think should have gone for B

Chris: Now it already becomes difficult to invade effectively.]
(;B[gm]C[Chris: Helping White more than Black.];W[hm];B[gl]
;W[hl];B[gk];W[fn];B[hn]C[this was mis-click
but no undo]
(;W[jm];B[em];W[hp]LB[op:A][mm:B]C[I got worried of white so big moyo
but seems very difficult to go in now
basicly I was messing around,
is there any clear way to do it?

Chris: The only weaknesses that are there are around A and B. It seems too late to invade now, maybe Black should go for the right side and try to win by endgame. By my count the game is still reasonable close. Within 10 points is my guess. So better play normal endgame.]
(;B[eq];W[ep];B[mm];W[nm];B[nn];W[mn];B[mo];W[ln];B[go];W[fo]
;B[gq];W[hq];B[bq];W[br];B[dr];W[cr];B[lo];W[mq];B[kn];W[lm]
;B[km];W[ll];B[kl];W[in];B[lk];W[ml];B[hk];W[ik];B[jk];W[ij]
;B[lj];W[pi];B[mg]LB[qm:A][ne:B]C[after great difficulty seems like invasion was successful

Chris: As a side effect the life and death status of A and B groups has become unclear, which is probably the reason for loss.]
;W[lh];B[mh];W[qi]C[but black pays big price now, white splits]
;B[qm];W[ro];B[rp];W[qp];B[qo];W[rn];B[rm];W[rk];B[rq];W[rr]
;B[qn];W[sq];B[sn];W[sp];B[rj];W[qj];B[qk];W[rl];B[ql];W[ri]
;B[pm]SQ[mi][lj][lk][kl][jk][km][kn]C[some how managed to live

Chris: Beforehand the right side potential was around 25 points, now it is reduced to about 6. The marked pushin is worth less than 15, considering the possible endgame beforehand. So a "normal" endgame would have been a better plan.]
;W[oe]C[now another problem];B[og];W[pf];B[ne]C[I think I have to sacrifice or the whole dragon would die]
;W[od];B[nd]LB[il:1]C[black has 1 in mind];W[ih];B[of];W[pe]
;B[qg];W[re];B[pg];W[qe];B[mf];W[li];B[mj];W[hi]C[white seems leading big way

Chris: Yes White is ahead. Taking the top right corner plus destroying the right side did it. As you can see the shape of the two right side Black groups was so weak, that the invasion on the bottom enabled White to attack very hard. Hence I believe securing the right side instead of the deep invasion would have been much better.]
;B[fi];W[gh]LB[fh:A][kp:B]C[I played A
maybe B instead better]
(;B[fh];W[kp];B[ko];W[jp];B[np];W[op];B[mp];W[nq];B[hg];W[gg]
;B[gf];W[gi];B[ff];W[hf];B[cp];W[dq];B[na];W[pb];B[fm];W[ee]
;B[de];W[ef];B[eg];W[do];B[co];W[dn];B[dm];W[jl];B[nj];W[nk]
;B[jo];W[io];B[lp];W[lq];B[sl];W[sj];B[rf];W[sh];B[sm];W[sk]
;B[so];W[rp];B[kf];W[kg];B[ar];W[oa];B[la];W[jj];B[kk];W[gj]
;B[fj];W[hj];B[kj];W[ki];B[se];W[sd];B[sf];W[nh];B[ng];W[ge]
;B[ed];W[fe];B[rh];W[qf];B[rg];W[si];B[kd];W[kc];B[aq];W[bs]
;B[tt];W[tt]TB[bd][al][aa][ba][ca][da][ab][bb][cb][eb][ac][bc]
[cc][dc][ad][cd][ae][be][ce][me][af][bf][cf][nf][ag][bg][cg]
[dg][ah][bh][ch][dh][eh][ai][bi][ci][di][ei][aj][bj][cj][dj]
[ej][ak][bk][dk][ek][fk][bl][cl][dl][el][fl][pl][am][bm][cm]
[an][bn][pn][ao][bo][ap]TW[os][ps][jg][rs][ss][pa][qa][ra][sa]
[qb][rb][sb][sc][gd][pd][qd][rd][if][qs][hg][ig][hh][jh][kh]
[ii][rj][il][im][mm][hn][go][ho][gp][ip][eq][fq][gq][iq][jq]
[kq][rq][dr][er][fr][gr][hr][ir][jr][kr][lr][mr][nr][qr][or]
[pr][sr][cs][ds][es][fs][gs][hs][is][js][ks][ls][ms][ns]C[sronen71 [2k\]: thank you
ysku [2k\]: thx])
(;B[kp]C[maybe this?

Chris: Yes very very big indeed, but to my count, White would still be ahead.]
))
(;B[qh];W[ro]C[Chris: Looks like a close game still,,,]))
(;W[fm];B[in];W[jm]C[Chris: Looks like White played a bit soft on the missclick ^^]
))
(;B[jq];W[lq]))
(;B[qh]))
(;B[og]C[I don't like this direction, it is overconcentrated
Chris: Yes];W[nj])
(;B[qi]C[Chris: Passive.])
(;B[nn];W[mo];B[mi]C[Chris: Maybe better, to prevent the nice thickness White is about to get by connecting.]
))
(;B[oh]C[Chris: Since Blacks shape indeed is a little awkward, I like this direction too.]
;W[iq]))
(;B[je]C[Chris: I keep wondering about this cut, in order to increase your thickness, and naturally deal with the cutting points.]
;W[ke];B[jf];W[kd];B[kf];W[ld];B[me]C[Chris: This result would be very good for black.]
))
(;B[dj]))
(;B[jq];W[hq];B[mq];W[pn]LB[op:A]C[Chris: This trick to cut helps White greatly in the fight.]
))
