(;FF[4]GM[1]SZ[19]ST[2]CA[UTF-8]AP[SGFC:1.17]

PB[GPG]
BR[8k]
PW[alfabeta]
WR[8k]
KM[6.5]
DT[2010-03-31]
PC[The KGS Go Server at http://www.gokgs.com/]
RE[B+0.5]
TM[1200]
OT[5x30 byo-yomi]
RU[Japanese]

C[Hi, i am playing black in this game.  The game ended with me winning by 0.5, so obviously my opponent kinda gave me a hard time.  Can you please focus mainly on reviewing for black, but if you feel something should be mentioned about white, then please do.  My main concerns are what I should have done better, and how to punish my oppoent when he makes a bad move.

Thank you in advance.

Hello! 
Thank you for the interesting game to review. I hope, that I answerd all your questions, but if you have some more, don't hesitate to ask me.
See also final game notes.

/Igor' [Felisratus 3 kyu on KGS\]];B[qd]C[alfabeta [8k\]: hi]
;W[pq]C[GPG [8k\]: hi];B[dc];W[qj];B[cp];W[cj];B[ce];W[cq]C[This move took me by surprise, it looks like an extremely bad move, but I was not sure how to respond and how to kill it.

FR: Black can't really kill c3 stone, but he can enclose it in the corner and build a perfect outside wall. This is normally much better for black, than for white.
(white 3-3 attachment to 3-4 stone can be good, if white can effectively neutralize black's wall. For example see variation.)]
(;B[dq]C[FR: this is the best answer for black];W[cr];B[dr]
;W[bp]LB[bo:A][co:B]C[FR: black can think about building a solid wall (B)]
(;B[bo];W[co];B[dp];W[bn];B[bq];W[ao];B[br];W[do]
(;B[hq]LB[oc:B][kd:A][po:C]C[FR: this is the first black mistake so far. 
Black corner is already alive, so you don't need to build "base" for d3 stones.  Because black corner is strong, h3 is too close to your strong poistion and so is overconcentrated (the rule "play away from thikness" is true not only for enemy thickness, but for your own too!). 
This move gives you about 5-10 points of territory. At this stage of the game this is kinda slow. 
Locally e5 is much bigger (see variation), but black  also can play tenuki (A-C moves)]
;W[ep]C[FR: white takes the very big point.];B[eq];W[fp];B[fq]
;W[hp]C[FR: compare this result with the variation at move 20. 
Do you see the difference?]
(;B[ip]C[This is not good right? Should I have played G3 instead?

FR: This move is better, than g3, but I think, j3 is the best move for black (see variations).]
;W[gq];B[gr];W[gp];B[ir];W[io];B[jp];W[jo];B[kp];W[mq]TR[bn]
[co][do][io][jo][ep][fp][gp][hp]SQ[iq][jq][er][fr][hr][jr][es]
[fs][gs][hs][is][js]C[FR: After h3-e4 exchange black has about 10 points on the bottom and white has  a very, very big wall. This result is clearly bad for black.]
;B[lq];W[mo]LB[mo:B][lq:A]TR[qj][pq]C[FR: "A" move is very slow. It gives black just about 6 points. It's too small for now! See variation for futher explanation...
"B" stone instead works good with the marked stones and builds a moyo on the lower-right. So A-B exchange isn't good for black.]
(;B[qg];W[qf];B[pf]C[Is this good? or is S14 better?

FR: This move is better. s14 is too passive.];W[qe];B[pe];W[rd]
;B[qc];W[rc]
(;B[rb]C[FR: this is mistake led to enormous troubles for black! r18 was the right move and it's very good for black. See variation.]
;W[rg]
(;B[rh]C[FR: with r10 stone double-hane is too dangerous. Just q13 was good enough for black.]
;W[rf]
(;B[qi]LB[pd:A][pg:B]C[FR: with 2 cutting points now black is in real trouble.  
Maybe it was better to play q13 and let white connect?];W[pd]
;B[pc];W[od];B[ph];W[oc];B[pb];W[ob];B[qa];W[sb];B[sg];W[oa]
C[Ok, so here black is dead on the top right corner.  So how should I have played to prevent this?  Can you please play out several possible variations for me?

FR: your main mistake was s18 instead of r18. 
Also you played some very aggressive moves, trying to kill white, but leaving weak points in your own position. Try to play more solid moves - solid position is the best preparation for attack. You can't really attack your opponent, when you are weak yourself.]
;B[sf];W[re];B[sa];W[pa]
(;B[qm]LB[ic:B][qo:A]TR[qg][ph][rh][qi]SQ[qj][rj][sj][qk][rk]
[sk][ql][rl][sl]C[FR: the marked black stones are really strong ("ponnuki cost 30 points"), so you must use their strength to play actively. r7 is close to your strong stones - white must be happy to give you the marked territory and enclose the corner with r5. 
"A" was the most active move for black, "B" is ok too.]
(;W[qk]LB[qo:A]C[FR:  It's much better to sacrifice r10 stone and protect the corner.]
;B[qp];W[qq];B[rp];W[rq];B[pl]C[FR: good move! Now white stones are in trouble.]
;W[oj]
(;B[kc]TR[oa][ob][oc][od]C[FR: l17 is too close to white's wall. Play away for thikness! J17 or even h17 is better. To use his wall, white should counter-attack with j17.
But... why you don't want to continue attack on p10 stones? o9 will be a good move to start it.  Playing some attacking moves in sente is better, than closing territory in gote.]
(;W[ok]C[Now white stones became stronger and black 4 stones are in danger.]
;B[ch]C[FR: this move helps white to build a huge moyo in the center.  If you want to make some points, play h16 instead. 
But... are your r7 stones really ok? See variation.]
(;W[dh];B[dg];W[ci]
(;B[bh]
(;W[bi];B[eh]C[FR: good move.];W[di]
(;B[ef];W[ei]
(;B[gk]TR[ei][io]C[FR: good point to reduce white's moyo.];W[fh]
(;B[ek]C[FR: This is a very greedy move. If black just runs away instead, it would be good enough for him.]
;W[eg];B[cf];W[ij]C[FR: now 2 black stones are in real trouble.]
;B[hj];W[hi];B[ik];W[gj];B[hk];W[jj];B[jk];W[kj];B[kk];W[lj]
;B[lk]
(;W[mk];B[ml];W[nl];B[mm];W[nm];B[mn];W[nn];B[lo];W[mp];B[lp]
;W[kn];B[ln]LB[hc:B][rn:A]TR[ij][jj][kj][lj][mk][nl][nm][nn]
C[FR:  OK, you handled you g9 stones well and alive now! But white get the marked stones in exchange which is good compensation.  see A and B  variations:]
(;W[km];B[ll];W[dk];B[dl]LB[hd:A][gf:D][sq:B][mr:C]C[was this a bad move? Or did I just play it wrong?

FR: locally e8 or f7 was better. But any of the marked points is bigger for black!]
;W[el];B[fl];W[em];B[fm];W[en];B[hn]C[FR: losing d8 isn't really important for black. It's much more important to save sente.]
;W[ho];B[gn]LB[id:C][gf:D][ah:E][rl:B][sq:A][mr:F]TR[gk][hk]
[fl][fm][hn]SQ[gl][hl][gm][hm]C[FR: this is very slow move. 6 stones to protect 4 points in gote :( 
Any of the A-F moves is bigger!];W[ej];B[fj];W[fk];B[gi];W[gh]
(;B[hc]C[FR: H16 is better, than h17.
f14 or g14 is very big too.];W[ff];B[ee];W[fe];B[fd];W[gd];B[gc]
;W[hd];B[id];W[ge];B[ie]LB[ng:A]C[FR: it's a good time to protect your q12 group instead of j15.]
;W[og];B[pg];W[oe];B[oh];W[of];B[nh]LB[lg:A]
(;W[ng];B[mh];W[mg];B[lh];W[ih]C[FR: l13 or l14 for white threatens to kill the black group !]
;B[hf]LB[kg:!!!]C[FR: Black *need* to play l13 now! this is very urgent!]
(;W[ah];B[bg];W[fi];B[gj];W[ek]LB[kg:A][rl:B][rn:C][sp:D][mr:E]
C[FR: all the marked moves are much bigger for white. A, B and C threaten to kill black groups.]
(;B[sl]C[This was a misclick. I was going to play S8

FR: s8 was a really good idea!];W[rl];B[rm];W[sk];B[sm];W[pp]
;B[qo];W[po];B[pn];W[sp];B[so]
(;W[sq]C[If white played S6, black would have died right?

FR: Yes];B[rn]LB[kg:!]
(;W[lr]LB[kg:A]C[FR: black need to save his group (A)!]
(;B[kr];W[ls];B[ks];W[mr];B[ql];W[rk];B[pk];W[pj];B[kg]C[FR: Finaly you deed it first! =)]
;W[jg];B[jf];W[kf];B[lf];W[ke];B[le];W[kh];B[lg];W[lb];B[kb]
;W[lc];B[ld];W[ri];B[si];W[rj];B[pi];W[sj];B[sh];W[qb]C[FR: white don't need to capture right now.]
;B[ig];W[jh];B[mj];W[nk];B[mi];W[hg];B[if];W[gf];B[im];W[fn]
;B[go];W[ka];B[ja];W[la];B[ib];W[cc];B[cb];W[ag];B[af];W[ai]
;B[mc];W[ma];B[mb];W[na];B[md];W[se];B[qh];W[ed];B[fc];W[dd]
;B[cd];W[bc];B[ec];W[ae];B[bf];W[bb];B[db];W[bd]
(;B[ba]C[FR: black can tenuki - white need 2 moves in a row to live. So b19 is minus one point in gote for black.]
;W[aq];B[ar];W[ap];B[li];W[ki];B[fo];W[eo];B[jn]C[This is bad right?]
;W[ko];B[jm];W[kl];B[jl];W[in];B[hm];W[on];B[pm];W[ne];B[mf]
;W[me];B[kd];W[lm];B[nj];W[oi];B[tt];W[tt]TW[qa][ra][sa][pb]
[rb][pc][qc][sc][qd][sd][fg][gg][eh][hh][ii][ji][aj][bj][dj]
[ak][bk][ck][al][bl][cl][dl][am][bm][cm][dm][an][cn][dn][bo]
[no][oo][np][op][nq][oq][nr][or][pr][qr][rr][sr][ms][ns][os]
[ps][qs][rs][ss]TB[aa][ca][da][ea][fa][ga][ha][ia][ab][bb][eb]
[fb][gb][hb][jb][ac][bc][cc][ic][jc][ad][bd][dd][ed][jd][ae]
[be][de][je][ke][df][kf][cg][gl][hl][il][gm][qn][sn][ro][cq]
[iq][jq][kq][cr][er][fr][hr][jr][as][bs][cs][ds][es][fs][gs]
[hs][is][js]C[Other than that just some tips and suggestions for better moves during the opening and end game would be much appreciated.  Thank you for your help.


FR: You played a good game! Three main tips to improve is: 

1 - Play away from thikness!
2 - Play urgent moves instead of big moves!
3 - Defend yourself before starting the attack.

this 10 rules of Go will be very useful to learn: http://senseis.xmp.net/?TenGoldenRulesOfGo

I'll also recomend you to read something abotu good and bad shapes and ofcourse to solve life and death problems to improve your reading.
Good luck and enjoy the Go!

/Igor' [Felisratus\]])
(;B[aq]LB[ab:?]))
(;B[kg]))
(;W[kg];B[lg];W[lf];B[kh];W[jg];B[sj];W[rk]
(;B[rj];W[pi])
(;B[pi];W[si])))
(;W[rn];B[om];W[ql]
(;B[on];W[ol])
(;B[ol];W[on])))
(;B[rl];W[rj];B[rn]C[FR: now black is alive, but white l14 still can kill q12 dragon :(]
))
(;W[kg]C[FR: Black is dead :(
You could be surprised, but this is the consequence of e9 move.]
(;B[pi];W[rj])
(;B[rj];W[rk]LB[pi:A][si:B])))
(;W[lg]C[FR: hard to live for black after this move.];B[rj]
;W[rk]LB[pi:A][si:B]C[FR: black need both A and B to make 2 eyes.]
))
(;B[hd]TR[dc][kc]C[FR: good balacne of 3rd and 4th line stones.]
)
(;B[gf];W[ff];B[fe];W[fg];B[ge]TR[fe][gf]C[FR: marked stones indirectly protect territory around j17.]
))
(;W[rn]TR[nl][nm][nn][mo][mp][mq]C[FR: could black live now?]
(;B[rl];W[rk])
(;B[rm];W[sk];B[qn];W[sp];B[so];W[sq]))
(;W[hc]TR[oa][ob][oc][od][ij][jj][kj][lj]C[FR: l17 has some problems now. 
q12 group is also very weak now.]))
(;W[mm]C[FR: Now it will be hard for black to escape.]))
(;B[ik]C[FR: now it's hard for white to catch this stones. e9 isn't so big.]
;W[ek];B[hh]))
(;B[fh]TR[kc]C[FR: just extending is good too, because it makes l17 stone stronger.]
))
(;B[fh]C[FR: this is more active way to protect the cutting-point.]
))
(;W[eh]TR[do][io][fp][gp][hp]C[FR: bigger for white.]))
(;B[eh]C[FR: play e12 first];W[di];B[cg]))
(;W[nm]TR[pl][qm][qp][rp]C[FR: White can attack first. Now black need to live inside. After this White e11 will build a very big center.

So I think, that o7 is a very urgent point and black should played it instead of c12.]
))
(;W[ic];B[gc];W[je]))
(;B[hc]TR[oa][ob][oc][od]C[FR: Locally this is better]))
(;W[qo]))
(;B[qo])
(;B[ic]))
(;B[pg];W[ri];B[qh];W[sh];B[jd]))
(;B[pg];W[rh];B[jd]C[FR: Better for black, than the real game. If white cuts...]
;W[pd];B[pc];W[od];B[oc];W[nd];B[nc]C[FR: It will be really hard to live and black will gain alot on attacking the cutting-stones.]
))
(;B[qb]C[FR: now there is no cutting point at q16 and black is really strong!]
;W[rg];B[rh]
(;W[qh]C[FR: white can't play this way...];B[pg];W[ri];B[rf]
;W[sh];B[re]C[FR: ...because  black gets both the corner and the outside strength.]
)
(;W[rf];B[qh];W[se]C[FR: white need this move to live.];B[jd]
C[FR: this is very, very good for black! All his stones on the top work together to build a very impressive moyo.]
)))
(;AE[mo][lq]CR[mq];B[oc]LB[ic:A][jj:C][qo:B][kr:?]C[FR: if black doesn't answer white n3 and takes a big point (p17), how do you think, will white play l2  (second-line yose-move) now or he will take a big fuseki point (A, B or C) instead? 
So was it really urgent to protect 6 points with  m3?]))
(;B[gq];W[ip]SQ[hq]C[FR: g3 is slow for black. White is very strong around, so he shouldn't worry about g4 cut and can extend to j4. Now white goes ahead of black, so this is good for white.]
)
(;B[iq]SQ[hp]C[FR: this way black is one step ahead, so it's better for black.]
))
(;B[eo]C[FR: E5/E4 is a key point for both players. The one, who plays there first, develops his own position and press down opponents position at the same time. This is a very urgent move!]
;W[en];B[fn];W[em]
(;B[fo]TR[cj][em][bn][en][co][do]C[FR: white position is overconcentrated (15 points for 8 stones) and black has a good outside strength.]
)
(;B[fm];W[el];B[fl];W[ek];B[fo]SQ[ak][bk][ck][dk][al][bl][cl]
[dl][am][bm][cm][dm][an][cn][dn]C[FR: Ideal result for black! His wall is very strong and costs much more, than whites territory.]
)))
(;B[co];W[bo];B[cn]
(;W[bn];B[cm]C[FR: If white likes to take second-line territory, give it to him as much, as possible ;) Second line is a line of defeat, it's extremly slow to play second-line stones if fuseki.]
)
(;W[ds];B[es];W[cs];B[fr]C[FR: note, that this is not a joseki, because in most situations black's result (a perfect outside strength) is better, than white's (just about 5-6 points in the corner).]
)))
(;B[tt];AW[cg][cm][gq][jq]AE[cq]LB[cq:A]TR[cj][cm][gq][jq]C[FR: In this  overdone position c3 is extremly good for white, because the marked stones are strong and will make black's wall useless.]
))
