(;FF[4]GM[1]SZ[19]ST[2]CA[utf-8]AP[SGFC:1.17]

PB[D]
BR[10k]
HA[3]
PW[B]
KM[0.5]
DT[2010-03-25]
RE[B+1.5]
RU[Japanese]

AB[dd][pd][dp]C[> Hi I'm Huginmunin 4k on kgs, I'll be doing your review. I hope you find it helpfull. Feel free to contact me on kgs.
I'll precede my comments with >



This is a copy of a game played at the local go club.

I'd like to see another's perspective on how black could have played better.

Thanks!];W[qp];B[pn]C[Questionable?

> Yes, P4 works better with your stone on D4, and it is the most common approach.
This move is sub-optimal in this situation];W[oq]
(;B[no];W[qn];B[qm];W[rm]
(;B[ql];W[ro];B[po]C[Seems solid, but maybe unnecessary.

> it is indeed (see previous variation)];W[cf];B[fc];W[fq];B[cn]
;W[ck]C[> white is taking risks with only one solid group, the rest might become a bit thin]
;B[dl]TR[fq]C[Questionable?

>Somewhat, but the continuation is more so. One could say this serves in building up strength to attack the marked white stone, but the continuation you chose is rather odd.]
;W[dk]
(;B[ek];W[ej];B[df]TR[el]C[>leaving a nasty cutting point];W[cg]
;B[dh];W[dg];B[fh];W[eh];B[ei];W[eg];B[dj];W[fj];B[fi];W[gk]
;B[fl];W[cj];B[di];W[gl];B[fk]C[Unnecessary?

>yes, but even worse: it is bad shape that will need fixing later, and it actually helps white]
;W[gj];B[fm];W[gm];B[gn];W[fn];B[en];W[fo];B[cl];W[hn]TR[el]
C[> as you probably noticed, leaving the weakness at E8 rsulted in white getting stronger. Even attacking F3 is now out of the question

Even if you catch the 3 stones, white is better of than before. But the thinness of his positions has cost him somewhat]
;B[ci];W[bi];B[bh];W[bl];B[bm];W[do]
(;B[eo]TR[em]C[> risky, playing at C5 is better (see variation)]
;W[ep];B[co];W[em]C[> a very painful choise];B[el];W[dn];B[bk]
TR[dq]C[> connecting at C7 is slightly better I'd say
A big point remains at D3];W[cd];B[bf]C[>seems not so good  to me, white can just run between your stones (see variation)]
(;W[bj];B[al];W[ch]C[> still better to B13 for white];B[bg]
;W[be];B[ef];W[fg];B[ai];W[gh];B[aj];W[hg]C[> unimportant];B[pi]
TR[ic]C[> no good, you are open along the side, and there is no real prospect in the center for either player, so playing high (for influence) is not good

Also considering your weak position in the upper left, you might want to play something there, like J17 maybe]
;W[hc];B[fe];W[he];B[cc];W[bc];B[db];W[cb];B[dc];W[bb];B[gb]
;W[hb];B[eb];W[nc]C[> a good result for white];B[nd];W[md];B[me]
;W[od];B[ne];W[pc];B[oe];W[oc];B[qd];W[ld];B[le];W[qc];B[kd]
;W[kc];B[je];W[jc];B[jd]C[Unnecessary?

> Yes and bad shape again];W[kp];B[mq];W[mp];B[nq];W[np];B[op]
(;W[lq]
(;B[mo];W[lp];B[lo]C[> a bad choise, Q3 is better];W[pp];B[oo]
;W[jn]TR[mi]C[> too kind of white, something like N11 would probably wrap up the game.]
;B[km];W[li]TR[km]C[> now this is a little harder because of your stone at L7, but it is a good choise]
;B[jh];W[ji];B[ki];W[kh]TR[kj]C[> other side is better];B[kj]
;W[jg];B[lh];W[ih];B[lg];W[kk];B[lj];W[jj];B[lk]TR[dq]C[> You can be very happy with this result, there might be a small chance for you to win, Although D3 is probably enough for white to win.]
;W[gd];B[jk];W[ik];B[jl];W[ff];B[ko];W[jo];B[im];W[in];B[dq]
C[> A very big point, well done being the first to play there]
;W[er];B[rl];W[rd]C[> The last big point remaining, considering this you should probably have played S17 instead of S8]
;B[re];W[qe];B[pe];W[rf]C[B T15 here.

> Yes];B[qf];W[se]C[>This ko is heavy for you];B[rg];W[qe];B[qo]
;W[rn];B[re];W[ed];B[fd];W[qe];B[pq];W[or];B[re];W[fa];B[ga]
;W[qe];B[rp];W[qq];B[re];W[da];B[ea];W[qe];B[qr];W[rq];B[re]
;W[kn];B[rc];W[qe];B[sq];W[sp];B[re];W[ln];B[mn];W[qe];B[rr]
;W[pr];B[re];W[lm];B[ml];W[qe];B[lc];W[mc];B[re];W[mm];B[nm]
;W[qe];B[jp];W[mr];B[re];W[pm];B[om];W[qe];B[lr];W[nr];B[re]
;W[jm];B[sd];W[kl];B[ll];W[km];B[dr];W[ca];B[rb];W[qb];B[es]
;W[fs];B[ds];W[de];B[ee];W[ce];B[eq];W[fr];B[ha];W[jb];B[gi]
;W[hi];B[dm];W[en];B[kg];W[jh];B[if];W[hf];B[jf];W[ia];B[ge]
;W[gf];B[sm];W[sn];B[sl];W[gc];B[fb];W[id];B[ae];W[ad];B[af]
;W[ra];B[sb];W[qa];B[sa];W[ie];B[ig]TB[qe][se][kf][lf][mf][nf]
[of][pf][rf][sf][ag][mg][ng][og][pg][qg][sg][mh][nh][ah][oh]
[ph][qh][rh][sh][bi][li][mi][ni][oi][qi][ri][si][bj][cj][mj]
[nj][oj][pj][qj][rj][sj][ak][ck][dk][mk][nk][ok][pk][qk][rk]
[sk][bl][nl][ol][pl][am][pm][an][bn][ed][nn][on][ao][bo][ap]
[bp][cp][aq][bq][cq][ar][br][cr][as][bs][cs][fa][ec][sc][cm]
[rd][ke]TW[aa][ba][ja][ka][la][ma][na][oa][pa][ab][ib][kb][lb]
[mb][nb][ob][pb][ac][ic][bd][hd][gg][hh][ii][hj][ij][hk][jk]
[hl][il][jl][hm][im][gn][eo][go][ho][io][so][fp][gp][hp][ip]
[jp][rp][gq][hq][iq][jq][kq][mq][nq][pq][sq][gr][hr][ir][jr]
[kr][qr][rr][sr][gs][hs][is][js][ks][ls][ms][ns][os][ps][qs]
[rs][ss][lc][lr]C[> White was ahead by the end of the middle game, but you regained the lead with a better endgame. Well done.

Just pay attention to those empty triangles, most of the time they are to be avoided and usually there is a better local response.
Also try to keep in mind the direction you want to be playing in and try to stick with your plan. Always assume your plan is better than your opponent's :)

Happy playing
Grtz,
Huginmunin])
(;B[pq];W[or];B[pp]C[> better for you]))
(;W[pp];B[oo];W[lq]C[>better for white]))
(;W[bg];B[ch];W[ah];B[bj]TR[bf]C[> you lose your stone at B14, and it has little aji , so it became a bad mov]
))
(;B[co];W[eo];B[dn]))
(;B[hq]C[> try attackin the white stone, for example like this]
;W[cq];B[dq];W[dr];B[er];W[cr];B[eq];W[bo];B[lq]C[> This result is beter for black than the one in the game]
))
(;B[qo];W[rn];B[pp];W[pq];B[ql];W[ro];B[po]C[> here you get a similar result as in your game, but white is left with more weaknesses]
))
(;B[pj]C[>The more usual continuation. Since your play at Q6 stresses the side it might be best to continue in that sense.]
))
