(;FF[4]GM[1]SZ[19]ST[2]CA[UTF-8]AP[SGFC:1.17]

PB[dancor]
BR[5k]
PW[sakurajima]
WR[4k]
KM[0.5]
DT[2010-04-06]
PC[The KGS Go Server at http://www.gokgs.com/]
RE[W+3.5]
TM[600]
OT[5x20 byo-yomi]
RU[Japanese]

C[
J: Hi. My name is Joe and I am about 1D AGA. All of my comments are preceded with a "J:". I've included several variations along the way. At the end, I've included a a summary of things you can work on to get to the next rank.
Enjoy.];B[qd]C[sakurajima [4k?\]: onegaisimasu
dancor [5k\]: hi];W[dp];B[dc];W[pq];B[po];W[qm]
(;B[qo]TR[ro]C[J: I don't know of a joseki that decends like this. There is one where black drops to S5. 

See variations.];W[np];B[qk];W[om];B[qq];W[qr]
(;B[rq]C[J: This move is bad shape. This corner is looking bad for black.]
;W[rr];B[pm];W[pl];B[pn];W[ql];B[ol];W[pk];B[nm]
(;W[on]C[J: This is greedy by white.];B[no];W[nl];B[ok];W[nn]
;B[mn];W[mm];B[oo];W[nm];B[mp]TR[om]C[J: You punished white for trying to keep P7 alive. White is left with a dumpling shape, and his bottom is damaged. This corner is looking more even now.]
;W[nq];B[oj];W[qj]
(;B[ln]C[J: White is suffering from shortage of liberties with his dumpling. M7 would be the more active move.]
;W[mj];B[mk]C[J: Very nice cut.];W[nk];B[nj];W[lk];B[lm];W[ml]
;B[ll];W[mk];B[mi];W[li];B[kk];W[lj]
(;B[oh]C[J: This move allows white to capture a stone and get some breathing room. Keeping up the pressure on white here is good for you.]
;W[ni];B[oi];W[mh];B[qh];W[rk]
(;B[fq]TR[cn]C[J: The bottom is a hard area to get territory because you are open on the right. It would be better to push from the other side. 

It is also hard for white to get much here, since you have a strong wall to the right.]
;W[mq]C[J: White's move is too early. The corner needs a play first.]
;B[cn];W[fp];B[gp];W[fo];B[eq];W[dq];B[lp];W[dn];B[dm];W[co]
;B[en];W[do];B[bn];W[em];B[el];W[fm];B[dl];W[de]
(;B[ce]C[J: A pincer would work better with your stones on the left. It would be a dual-purpose extention and attack.]
;W[cf];B[cd];W[df];B[fc];W[cj];B[bl]C[J: It is painful to play a defensive move, but it seems needed here. It does make future invasions possible, such as B12 , since you can connect to either side.]
;W[od];B[oc];W[nc];B[pc];W[nd];B[pe];W[jc];B[je];W[kd];B[hd]
;W[hc];B[gd];W[id];B[ei];W[dh];B[ie];W[hf];B[fg]C[J: Better to just connect against the peep here. You could then launch an attack from strong stones.]
;W[ff];B[gf];W[gg];B[ge];W[fh];B[eg];W[eh];B[gh];W[hg];B[ef]
;W[fi];B[hi];W[ej]
(;B[fk]C[J: This move doesn't appear to attack anything. If you are worried about the life of these stones, you can try to grab eyes on the side while attacking white.]
;W[jg]CR[ie][je][gh][hi]TR[fg]C[J: Your attack starting with F13 ended up in whites favor. You captured 1 stone at F14, but your stones on the outside (marked with circles) are weaker than white's. You need to spend moves to connect them.

During this exchange, white also captured a stone and solidified his left side. He no longer needs to worry about a black play at B12 threatening his entire group.]
;B[gn];W[fn];B[go]C[J: Again, it is hard to get territory here when you are open on the bottom. It would be better to play M3 first to seal white off.]
;W[gk]C[J: White should have played on the bottom. You spent too many moves on the bottom to ignore a white play there. Then white should still have the initiative to play elsewhere.]
;B[gj];W[fj];B[gl];W[hk];B[fl];W[hj];B[gm];W[bo];B[lq];W[mr]
;B[ji];W[kj]
(;B[jk]C[J: You could have saved K10. See variation.];W[jj]
;B[nf];W[mf];B[ng];W[mg];B[il];W[ij];B[lr];W[sq];B[ro];W[dr]
;B[er];W[ri];B[gb];W[he]C[J: White's gain in the center seems to be larger than your gain on the bottom. 

If you had connected here initially, white would not be able to expect much in the center. You were also entitled to some territory on the bottom. You were each able to gain territory, but white seemed to get much more than he deserved.]
;B[ee];W[dg];B[dd];W[hb];B[ha];W[ia];B[ga];W[jb];B[ob];W[nb]
;B[na];W[ma];B[oa];W[mc];B[rh];W[sh];B[sg];W[si];B[rg];W[pd]
;B[qc];W[bf];B[ai];W[ac];B[bh]C[J: This is small. You have a lot more territory to lose than white. It would be better to protect your corner.]
;W[bc];B[cb];W[bb];B[ba];W[cc];B[db];W[ae];B[bd];W[ad];B[ag]
;W[bg];B[bk];W[bj];B[aj];W[ch];B[dk];W[ck];B[dj];W[di];B[cl]
;W[ci];B[ds];W[cs];B[es];W[br];B[ep];W[eo];B[gq];W[hl];B[hm]
;W[oe];B[pf];W[of];B[og];W[rm];B[ne];W[me];B[sn];W[or];B[sp]
;W[sr];B[ms];W[ns];B[ls];W[qp];B[rp];W[pp];B[qi];W[sk];B[sm]
;W[sl];B[pj];W[rn];B[so];W[an];B[am];W[ao];B[op];W[oq];B[nh]
;W[mi];B[gc];W[ik];B[im];W[qn];B[mo];W[tt];B[ak];W[bi];B[ah]
;W[af];B[ca];W[ab];B[tt];W[tt]TW[ja][ka][la][ib][kb][lb][mb]
[ic][kc][lc][jd][ld][md][ie][je][ke][le][if][jf][kf][lf][cg]
[ig][kg][lg][gh][hh][ih][jh][kh][lh][ei][gi][hi][ii][ji][ki]
[gj][rj][sj][qk][rl][en][ap][bp][cp][aq][bq][cq][ar][cr][nr]
[pr][as][bs][os][ps][qs][rs][ss]TB[da][ea][fa][pa][qa][ra][sa]
[eb][fb][pb][qb][rb][sb][ec][rc][sc][ed][fd][rd][sd][fe][qe]
[re][se][ff][qf][rf][sf][pg][qg][ph][pi][al][jl][kl][bm][cm]
[jm][km][hn][in][jn][kn][ho][io][jo][ko][lo][hp][ip][jp][kp]
[hq][iq][jq][kq][fr][gr][hr][ir][jr][kr][fs][gs][hs][is][js]
[ks]C[sakurajima [4k?\]: thks
dancor [5k\]: ty

J: W+3.5
You didn't lose by much.
You were very fotunate that you were able to recover from a poor corner exchange in the lower right.

There were 2 points in this game where you ignored your opponent to either grab or destoy territory, but allowed your opponent to gain or destroy more. One was the monkey jump on the left side at move 169. The other was a series of moves that focused on the bottom, while ignoring white's center.

You made several moves to surround territory on the bottom, while you were open from the other side. Your opponent let that work for you here, but you shouldn't have gotten the territory you did.

You also missed joseki opportunities in the lower right and upper left. In the lower right, you were lucky to come out with anything. Even at the end of the game, you can see that you formed no territory there and you just have a snake of stones leading out. You also missed an oppertunity in the upper left to develop your stones on the side with a pincer. 

The 3 things I think you should work on:
1. Try not to let yourself be blinded by moves that seem to surround or destroy a large territory, when your opponent has larger moves available. Try to find your opponents best move.

2. Don't enclose territory while your "skirt" is open.

3. Study joseki! This is the easiest to work on. Learn a new joseki and when it is best applied. If you have a game where you aren't sure what joseki would work with the arrangement of stones, try to find a joseki that would have worked after the game.
~~
Thanks for submitting this game. If you have any questions that I didn't answer or you need me to elaborate, feel free to contact me at: schmee007@yahoo.com
-Joe])
(;B[jj];W[jk];B[ik];W[kl];B[hl];W[gi];B[ij];W[gj];B[jl]
(;W[kk];B[km])
(;W[km];B[kk]C[J: Tough ko for white to fight.])))
(;B[bj];W[bi];B[ck];W[aj];B[bk];W[ci];B[jh]
(;W[cm];B[bo];W[bp];B[am])
(;W[bo];B[cm])))
(;B[cg]))
(;B[mq];W[mr];B[lr];W[or];B[ms];W[nr];B[kq];W[fq]))
(;B[mh];W[lh];B[mg];W[lg];B[mf];W[lf];B[le];W[ke];B[ld]))
(;B[lm];W[ln];B[mo];W[ll];B[km]))
(;W[qj]C[J: Wrapping here gives white a very solid position, and the ability to extend along either the right or the bottom.]
))
(;B[rr]C[J: This move feels better to me.];W[rq];B[qp];W[pr]
;B[rs];W[rn];B[rp];W[sq];B[sp];W[sr];B[no];W[mo];B[nn]C[J: Still a struggle.]
))
(;B[ro];W[np];B[on];W[qj]C[J: This looks better for white, but playable.]
)
(;B[qq];W[qp];B[pp];W[qo];B[qn]
(;W[rn];B[oq]
(;W[pn];B[pr]C[J: Good for black.])
(;W[pr];B[pn];W[rp];B[pm];W[ql];B[or];W[qr];B[jq]))
(;W[pn];B[rn];W[rq];B[qr];W[ro]
(;B[oq];W[rm];B[on];W[pm])
(;B[rm]
(;W[pm];B[so];W[rp];B[rr];W[op]C[J: Ladder is good for Black. White can not play like this.]
)
(;W[oq];B[np];W[rr];B[ql]C[J: Good for black.])))))
