(;FF[4]GM[1]SZ[19]ST[2]CA[UTF-8]AP[SGFC:1.17]

PB[hmplipupli]
BR[5k]
PW[flintstone]
WR[5k]
KM[6.5]
DT[2010-03-27]
PC[The KGS Go Server at http://www.gokgs.com/]
RE[W+7.5]
TM[60]
OT[25/480 Canadian]
RU[Japanese]

;B[pd]C[P: I´ve won this game but I think I`ve make many mistakes and there are some things that I don't see very clear

Hi, Paco I will let my comments start with a *.

In the opening I think you got far behind. During the middle game it  started to tilt in your  favour however you did miss few oppertunities then to decide the game. 
It was only of some mistakes of black in the endgame you did win.

It looked like that during the opening you followed black's move and during the end-game it was the opposite black followed all your moves. 

I do think that the opening was the weak point for you in this game middle and end game was good. Suggest to study the opening especially the direction of play.]
;W[dp];B[pp];W[dd];B[fq];W[dn];B[dr];W[cq];B[iq];W[dj];B[fc]
;W[fd]LB[hc:A][nc:C][id:B][pj:D]C[P: I think this is better than d14

* I think D14 is a bit too passive as well, but there are other options like A, B or C as well. However you will get a totally different game.
The downside of your choose is that you end in goto and your opponent gets to play D. Optically black has the advantage then.

So to summarize, your move locally is good, however since you loose sente and you give black al ot of influence I think you should play another way.]
;B[gd];W[fe];B[ec];W[dc];B[hc];W[df]C[P: Is too early to play here?

* No you must play here, there is a weak point here and you really defend here.]
;B[pj]
(;W[nc]LB[qc:A][qq:B]C[* Where to play is probably also a matter of taste but I personally do not like this move.
The major reason is that the black group on the left is too strong and is very hard to attack, so white will get a small group and black a lot of influence on the right.
What other options did you investigate ?
Other options are, A, B playing here will not create a weak group, downside is that you do give black more influence. When you have both corners you will have a bout 65 points, and it is hard to estimate how much points black will get.

I think the game has become very difficult for white.];B[oc]
;W[nd];B[qf]
(;W[jc]C[p: L17 better?
* Think so as well since black is very strong on the left.]
;B[jd]LB[hf:A]C[* Not good, better at A this forces white to strengthen his group]
;W[kc];B[mc]
(;W[nb]LB[mb:A]C[*playing at A will connect.but this move is good as well (maybe even better)]
;B[lc]
(;W[lb]LB[ld:A]C[* You can also play at A will capture the 2 stones]
;B[le];W[mb];B[kd];W[me];B[db];W[cb];B[ea];W[id]LB[ld:A]C[P: This is wrong I think

* This is a good move, it separates black. A move at A and white will live so the white group is strong. Now suddenly black has a weak group.]
;B[ic];W[ie];B[jb];W[kb];B[ig];W[jf]LB[ge:A]TR[id][ie]C[* better to play A. This will seal in black and connect the 2 white stones. The black stones will still be weak..]
;B[dl];W[lf]LB[fo:B][go:A]C[* White is already alive. this only adds 8 points to your total, it is too small. Move around A (or B) is better will weaken the black stone drastically.]
;B[fl];W[nq]C[* You should attack the 2 black stones to keep them weak. At a later stage invade the order.]
;B[cm];W[cn];B[oq];W[np];B[qn];W[kq];B[di];W[ci];B[dh];W[ch]
;B[dg];W[cg];B[fh]LB[ej:A]C[* Must be at A to link the 2 groups. Black has no weak groups then and the gane will be very hard for white.]
(;W[qj]LB[ge:C][ej:A][fj:B]C[P: I usually play here to make sabaki, and usually it ends ok for me, but I think its because black dont play well. I see this area is too big and I dont know well the best way to reduce


* This is too soon. First play A or B  and see how black responds.
A move here splits the 2 black groups as well. 
See the difference when white would have a stone at C.];B[qi]
;W[pi]C[* The fight that follows I think playes some bad moves and white came out fairly easy.]
(;B[ri];W[pk];B[oj];W[ql]
(;B[rj]LB[on:A]C[*Aji keshi. would prefer to play at A to separate the white group.]
;W[qk];B[nk]C[* Wrong side, black is forcing the weak stones of white to connect.]
;W[om];B[pm];W[ol];B[on];W[mm];B[nm];W[nl];B[nn];W[mk];B[mo]
;W[ko]C[P: I played this not thinking about M4];B[lp]
(;W[kp]LB[lq:A];B[lq];W[oi]LB[ln:A]C[* Too small if you want to defend the white stones play A, this will connect the 2 white groups.]
;B[ni];W[og];B[li];W[ji];B[ll];W[ml];B[mj];W[lk];B[ki];W[jh]
;B[kj];W[kk];B[jj];W[il];B[hj];W[gk]TR[dl][fl][cm]SQ[ki][li]
[ni][jj][kj][mj][oj][pj][nk]C[P: I think Im behind and so I need to do something big. Im trying to kill

* When you think you are behind, you really should count first. Because this will largely determine how to go forward.

However this is a good move, it does separate the 2 black groups and keeps the pressure on black.

The count is:
White: 
left 20 p.
left down: 8 p
top 18 p
Total: 46 p.

Black 
top: 6 p.
bottom left: 8 p.
Bottom right: 32 p
Top Right: 13 p. minimum.
Total 59 p.


Indeed black is ahead];B[ej];W[dk];B[ek];W[em];B[ck];W[cj];B[el]
;W[gj]
(;B[gm]LB[gi:A][ii:B]C[* Black get out,]
(;W[gi]LB[ij:A]C[* Play at A, black is split.];B[hi];W[gh]LB[ij:A]
C[* A is still possible.];B[hh];W[gg];B[jg];W[kh];B[kg]
(;W[kf]LB[lh:A]C[* should be at Ablack cannt capture the 3 stones.]
;B[lg];W[mg];B[hl];W[hk];B[ik];W[jk];B[ij];W[mh];B[jl]
(;W[kl]LB[im:A]C[* A will not work.];B[im];W[ln];B[lr];W[io]
;B[go];W[hp];B[gq];W[jm];B[il];W[jn];B[fo];W[cr]
(;B[er]LB[ob:A]C[* Too passive, must be at A.];W[qc];B[qd];W[ob]
;B[rc];W[pc];B[qb];W[pb];B[rb];W[lh];B[ph];W[oh];B[ca];W[bb]
;B[ia];W[pg];B[qh]LB[qg:A]C[* Better at A];W[qg];B[rg];W[hq]
;B[hr];W[kr];B[nr]C[* Is not needed.];W[rm]C[* game is even now.]
;B[rn];W[eg];B[fi];W[fg];B[bk];W[bj];B[bm];W[bn];B[an];W[ao]
;B[am];W[bp];B[cs];W[bs];B[ds];W[ar];B[ed];W[ee];B[ba];W[cc]
;B[sm];W[sl];B[sn];W[gb];B[hb];W[ka];B[ja];W[hd];B[gc];W[ge]
;B[od];W[oe];B[pe];W[pf];B[sk];W[rl];B[ip];W[ho];B[jr];W[rf]
LB[rd:A]C[* play at A, 5 stones are lost and game is over.]
;B[re];W[qe];B[rd];W[qf]C[P: I thougt of playing t14 and start a ko, but I tnink Im ahead now and is better to ensure the game]
;B[sf];W[rk];B[sg];W[sj];B[si];W[sk];B[qm];W[jp];B[ks];W[jq]
;B[ir];W[hn];B[fm];W[eo];B[aj];W[ai];B[ak];W[eh];B[ei];W[hg]
;B[ih];W[if];B[nh];W[ng];B[ep];W[mi];B[lj];W[nj];B[ni];W[dq]
;B[eq];W[gp];B[fp];W[cf];B[in];W[lo];B[mp];W[qa];B[ra];W[pa]
;B[ab];W[ac];B[ga];W[qq];B[sr];W[rp];B[qr];W[pr];B[rq];W[qs]
;B[rr];W[pq];B[sp];W[or];B[op];W[mr];B[ns];W[ms];B[os];W[qp]
;B[mq];W[ps];B[no];W[ls];B[js];W[en];B[dm];W[mn];B[da];W[nr]
;B[po];W[rs];B[so];W[pl];B[qo];W[tt]C[P: Finally I was right about the idea of not starting the ko]
;B[tt]TW[la][ma][na][oa][bc][lc][mc][ad][bd][cd][jd][kd][ld]
[md][ae][be][ce][de][he][je][ke][le][ne][af][bf][ef][ff][gf]
[hf][mf][nf][of][ag][bg][ah][bh][bi][ll][km][lm][kn][bo][co]
[do][jo][ap][cp][aq][bq][br][as]TB[fa][ha][sa][eb][fb][gb][ib]
[sb][sc][sd][se][rh][sh][al][bl][cl][pn][oo][ro][np][qp][rp]
[nq][pq][qq][sq][fr][gr][mr][nr][or][pr][es][fs][gs][hs][is]
[ls][ms][ns][os][ps][qs][rs][ss])
(;B[ob]C[* Black is at least 20 points ahead.]))
(;W[im];B[jm];W[in];B[jn];W[jo];B[ln];W[ho];B[lh];W[lm];B[kn]
;W[kl];B[nh];W[pg]
(;B[ng];W[nf];B[of])
(;B[qm];W[mi];B[lj];W[ng];B[mn];W[hg];B[rl];W[if];B[rk])))
(;W[lh];B[lg];W[mh];B[kf];W[ij]LB[ld:A]C[* still possible to cut, with A the white group on top can still live]
))
(;W[ij];B[ik];W[ii];B[jk];W[hk];B[hi];W[hm]C[* game is over, the black group left or on the right is dead now.]
))
(;B[gi];W[ii];B[ij];W[hi];B[hl];W[hk];B[ik];W[gl]C[Failure for black]
)
(;B[hi];W[ij];B[ik];W[ii];B[jk];W[hk])
(;B[ii];W[hi];B[gi];W[hh];B[ih]
(;W[gg])
(;W[hk];B[ij];W[gg];B[gf];W[fg]
(;B[ge])
(;B[hg];W[gh];B[ge];W[gn]))))
(;W[lq];B[kp];W[jq];B[jp];W[ir];B[hq];W[mr]C[w* White lives down side is that black has become strong. The way you played is better I think although playing the way you did, did cost points.]
))
(;B[on];W[nl];B[mn];W[ll];B[oh]C[* Minimal damage for black and wwhte has 2 weak groups on the left side now.]
))
(;B[pk];W[qh];B[ri]
(;W[ph];B[rh]C[* you are right this no success for white has to defend the 3 white stones.]
;W[pf];B[pe];W[of];B[qg];W[pg])
(;W[rh];B[ph];W[oi];B[rj];W[pg]C[* dowside is that black has sente now.]
)))
(;W[ej];B[fj]C[* White can plat at A to cut the 2 black stones.]
))
(;W[ld]))
(;W[mb]C[* black does not have a good move anymore.]))
(;W[kc]))
(;W[qc];B[qd];W[pc];B[oc];W[ob];B[nc];W[nb];B[mc];W[qq];B[qp]
;W[pq];B[oq];W[or];B[nq];W[nr];B[mq];W[qj]C[This is one possible scenario.]
))
