(;FF[4]GM[1]SZ[19]ST[2]CA[UTF-8]AP[SGFC:1.17]

PB[sakurajima]
BR[13k]
PW[creedfoxx]
WR[13k]
KM[6.5]
DT[2010-04-26]
PC[IGS-PandaNet]
RE[W+Resign]
TM[600]
RU[Japanese]

C[sakurajima: Hi!];B[pc];W[pp]C[It is up to you but at this point, you might want to play D4. Playing Q4 allows B to play D4. Causes some early fighting.]
;B[dp];W[dd];B[jc];W[pe];B[nd];W[ph];B[cq]
(;W[mp];B[qo];W[qm];B[qn];W[pm];B[qp]
(;W[qq];B[rq];W[qr];B[rr];W[op];B[pr];W[pq];B[qs];W[or];B[ps]
;W[os]C[don't need to play this move. Keep it for a ko thret]
;B[rs]
(;W[jp];B[jq];W[kq];B[jr];W[kr];B[hq];W[dg];B[cl];W[cj];B[dm]
;W[gd];B[fc];W[fd];B[gc];W[ec];B[hd];W[he];B[id];W[hf];B[cg]
;W[ch];B[cf];W[ce];B[df];W[eg];B[be];W[bd]C[this looks good. 
Here is an example of how it benifits you when B plays inside your teritory.]
;B[de];W[cd];B[ae]
(;W[ad];B[bg];W[bh];B[fe];W[ge];B[ff];W[fg];B[ah];W[ai];B[dh]
;W[di];B[eh];W[fh];B[gg];W[gf];B[gh];W[fi];B[gi]
(;W[nf]C[good. You know it is dead and you don't want to waste any more moves. However, maybe a different move.]
;B[rh];W[rf];B[qj]
(;W[pj];B[pk]
(;W[ok];B[pi];W[oj];B[oi];W[qk];B[rj];W[rk];B[qh];W[pg];B[ni]
;W[mj];B[mi];W[lj];B[lm]C[Try to play farther away from the stone that you are attacking]
(;W[kl];B[kn];W[jn];B[jo];W[ko];B[jm];W[in];B[km];W[io];B[lo]
;W[mn];B[ln];W[lp];B[mo];W[nn];B[no];W[ik];B[jl];W[kk];B[on]
(;W[nm];B[oo];W[ml];B[om];W[ol];B[np];W[nq];B[mg];W[mf];B[lg]
;W[il];B[ih];W[gj];B[ii];W[fm];B[en];W[fn];B[fo];W[qd];B[qc]
;W[md];B[mc];W[ld];B[lc]
(;W[lf];B[kf]
(;W[ne];B[od]
(;W[oe];B[kd];W[le];B[jf]C[A lot of these moves are small. It seems like you were a little nervous. 
Try to make larger jumps. espesually if they make B connect.]
(;W[el];B[ck];W[dk];B[bj];W[ci];B[ag];W[bi];B[bk];W[go];B[fp]
;W[gp];B[gq];W[js];B[is];W[ir];B[iq];W[hs];B[hr];W[is];B[gs]
;W[ks];B[im];W[hm];B[jk]
(;W[ij];B[jj]
(;W[ll];B[mm];W[nl];B[ki];W[em];B[cn];W[eo];B[dn];W[fq];B[ep]
;W[fr];B[eq];W[gr];B[er];W[fs];B[es];W[gs]C[Opps you allready thought of this... GOOD!!!]
;B[hj];W[hk];B[gk];W[hi];B[hh];W[hj];B[fj];W[hl];B[ej];W[ei]
;B[rm];W[rl];B[sm];W[sl];B[rn];W[fb];B[gb];W[fa];B[ga];W[db]
;B[rd];W[re];B[pd];W[qe];B[sd];W[se];B[rb];W[qg];B[og];W[ng]
;B[oh];W[of];B[nj];W[nk];B[li];W[ke];B[je];W[nh];B[mh];W[rg]
;B[sh];W[sg];B[if];W[sj];B[si];W[pl];B[hg];W[qi];B[sk];W[hc]
;B[hb];W[sj];B[ed];W[ee];B[sk];W[ib];B[ic];W[sj]C[sakurajima has resigned the game.

Good game. 

I think that you should try to keep your opponant's group seperated as best you can. 

hope this was helpfull.])
(;W[eo];B[do];W[fq];B[ep];W[fr];B[fs];W[es];B[er];W[gr];B[gs]
;W[fs];B[eq];W[gs])
(;W[fq];B[fr];W[eq];B[er]))
(;W[jj];B[ij];W[hk]))
(;W[kh];B[kg];W[ig];B[jh]
(;W[jg];B[ki])
(;W[ki])))
(;W[kd];B[kc];W[je]))
(;W[ke]
(;B[je];W[jf])
(;B[jf];W[je];B[if];W[ie];B[hj];W[hk];B[gk];W[fj]))
(;W[je];B[ke];W[kd];B[ie]
(;W[jf];B[if];W[ig])
(;W[if];B[jf];W[jd];B[kh]
(;W[li])
(;W[hj]))))
(;W[kd])
(;W[je]))
(;W[pn];B[oo];W[po];B[np];W[nq];B[nm];W[hl]C[b is dead]))
(;W[jl];B[jn];W[ho];B[ip];W[io];B[kp];W[jo];B[im];W[kn];B[km]
;W[jm]))
(;W[oj];B[ok];W[qk];B[ql];W[qi];B[rk];W[ri]))
(;W[oj];B[pk];W[ol];B[ok];W[nk];B[nj];W[oi];B[nl];W[mk];B[om]
;W[pl]C[this isn't the best shape but I think it is a bit better.]
)
(;W[ok])
(;W[rm];B[rn];W[nl]))
(;W[le]
(;B[lc])
(;B[nf];W[lc])))
(;W[bg];B[ad];W[bc]C[he doesn't have anywhere to go on the upper left side.]
;B[ee];W[ed];B[ff];W[fg];B[gg];W[gf]C[B is dead];B[dh];W[ci]
;B[fh];W[gh];B[eh];W[hg];B[ef];W[gg]))
(;W[gq]C[I'd actually go a little farther. One of my friends told me once that it is best to try to force your opponant to play inside your teritory. It helps you keep sente.]
))
(;W[pq];B[qq]C[I'd drop down one or two stones before hane]
;W[qr]))
(;W[cj]C[you might want to approach from the other side])
(;W[cm]))
