(;FF[4]GM[1]SZ[19]ST[2]CA[UTF-8]AP[SGFC:1.17]

PB[KaiHansen]
PW[chenguva]
WR[5k]
KM[6.5]
DT[2010-04-09]
PC[The KGS Go Server at http://www.gokgs.com/]
RE[B+10.5]
TM[0]
OT[3x30 byo-yomi]
RU[Japanese]

C[Hi,

Thanks in advance for this review.

 I'm playing black on this game, white was new on this server and this 5k wasn't confirmed yet so I can't say anything about his level. Mine is not regular, turning between 3 and 5k KGS.

Although I won it, I think I made a lot of mistakes in this game, without speaking of the yose where I use to be bad at it... I love so much fighting that my games rarely go to this stage. Any comments you think that can be helpful to improve my game would be welcome.

Regards,
Flo];B[qd];W[dp];B[dc];W[pp];B[ce];W[od];B[mc];W[kc]C[This move is very unusual by white and probably a mistake. Black can simply take the corner by playing P17]
(;B[me];W[ob];B[pf];W[qc];B[rc];W[qb]LB[lc:C][nc:A][md:D][nd:B]
C[At this point I like O17 for black since it keeps the white stone split and forces white to live in the corner. Lots of other moves keep white split. Any of A-D keep white split and black will get a decent result from.]
(;B[pd];W[mb];B[nc];W[nb];B[oc]TR[qm][qn]C[My personal preference for whtie on this side is one of these.]
;W[pj]LB[pl:A][ql:B][qm:D][qn:E]C[I would be satisfied of the result if I get sente for approaching LR. Did I ask for too much? I think I missed something in this l17 counter pincer.

You definitely missed something in the L17 counter pincer as the sequences I showed give what hopefully seems to be better results for black.

I don't like white's extension this far and this high. As black is very thick in the top right, there is no problem for black to invade the extension with a move at any of A - E. My personal preference for solid play would be white extending no farther than R7.

White is too high because, if white were lower he could more easily make a base.]
(;B[cn]C[Extending from a corner enclosure on the most open side is definitely a good move in the next biggest area on the board.]
;W[fp];B[dj];W[kq]C[I prefer at this point to try getting into white's sphere of influence with a move that separates the lower right stone from the right star point.]
(;B[qp];W[qq];B[qo]C[The pushing seuqnece that followed went badly for black because black did not separate the white stone on the right side from it's allies on the lower side.]
;W[po];B[rq];W[qr];B[qn];W[pn];B[pm];W[om]
(;B[pl];W[ol];B[pk];W[ok]
(;B[qj];W[qi];B[qk]TR[em][kn][bp]C[These three moves look nice to me for white at this point in terms of developing the bottom side. Corner moves like B4 are worth a lot of points and are solid and make the black extension nearby weak. L6 and E7 are simple logical shapes for expanding the moyo.]
;W[im]C[This is an awkward jump as if black just wanted to reduce he could play some place like G5.]
(;B[cq];W[cp];B[bp];W[bo];B[br];W[ap];B[bq];W[co];B[fr];W[dn]
(;B[jp]
(;W[jq];B[ip];W[hq];B[eq];W[hp];B[ep];W[eo];B[fo];W[go];B[fn]
;W[cm];B[iq];W[ir];B[jr];W[kr];B[hr];W[js];B[gq]
(;W[io];B[gp];W[ho];B[ic];W[gc];B[hd]
(;W[fd]TR[ge][ff][gf]C[I might also consider these three points.

The question of white direction to push the opponent is often difficult. If you push from the right you'll make a wall towards the top right center. If you push from the left you'll solidify a little more territory on the left.

I am inclined to think pushing from the right is best here. I like G14 best.]
(;B[ef];W[ff];B[eg];W[dd];B[cd];W[ec];B[db];W[he];B[ie];W[hf]
C[At this point I would push more and make the white stones on the left heavier.]
(;B[kd]C[Letting white connect at this point is very very bad. It is better to keep the white group on the left separated and weak.]
;W[jc]
(;B[jd];W[lc]C[No need to block a push at M16, it doesn't really threaten to cut black at all. Black should play H18.]
(;B[ld];W[ib];B[hb];W[hc]C[Filling is an interesting alternativeand builds incredible thickness, but I wouldn't really recommend it. It just looked interesting.]
(;B[jb];W[id]LB[nj:D][oj:C][oq:A][pq:B]C[My preferences for ko threats are

A with a follow up at B

and

C with a follow up at D

This ko up top is very very big and these are the only ko threats that seem comparably big.]
;B[no]C[This ko threat seems bad to me. I don't think it was followed up very well and the intended follow up of P6 doesn't seem good.]
;W[gd]
(;B[jo];W[jn];B[on];W[np];B[mo];W[ko];B[mp];W[nq];B[mq];W[mr]
;B[mm];W[ml];B[ll]C[Cutting works here, although white has to be willing to give up the Q10 stone if he cuts.]
;W[mk];B[ln]C[Alternative move for white seals black in for good.]
(;W[lk];B[kl]C[K10 seals black in]
(;W[jj];B[il];W[hl];B[ik]
(;W[hk];B[ij];W[ji];B[hj];W[gj];B[gi];W[fj];B[hh];W[fi];B[fh]
;W[di];B[ci];W[dh];B[ch]C[White can push one farther, a missed opportunity.]
(;W[ej];B[dg];W[dk]C[At this point taking Q11 is MUCH MUCH bigger C10. In fact I'd say black is officially behind after white gets Q11. Q11 has been waiting to be played for sooo long and it has been extremely big the whole time. See score analysis in the line if black takes Q11 here instead.]
(;B[cj]C[A white connect at Q11 is slightly better as it doesn't let blak crawl towards the top.]
(;W[oi]C[Now black is slightly behind and the rest is just fighting over smaller points.]
;B[or]C[a missread

We all make misreads like that ocassionally.];W[nr];B[ri];W[qh]
C[Pushing one more time is an alternative.]
(;B[rg];W[rh]C[The intent of that jump seemed to me to be to connect underneath. You should still do it.]
(;B[rj];W[rr];B[rp];W[mg];B[rb];W[pc];B[qa];W[pb];B[oe];W[je]
;B[if];W[jf];B[ig];W[kg]
(;B[nh];W[ng];B[oh];W[og];B[ph];W[qg]C[At this point locally poking in and capturing the stone is bigger, but connecting is sente.]
(;B[pg];W[pi];B[fl];W[gl];B[op];W[oq];B[pq]C[No fancy tesujis here :(]
;W[pr];B[oo]C[B9 is bigger]
(;W[rf];B[bl];W[bm];B[dl];W[cl];B[ck];W[ek];B[bk];W[el];B[em]
;W[dm];B[ee]C[E18 is worth more.];W[km];B[kn];W[jm];B[lm];W[pq]
;B[kk];W[li];B[re];W[sg];B[kj]C[White should just play L11, no need to lose stones here unless the white group will die.

Review ends here, I hope it was helpful.]
(;W[mi];B[ni];W[nj];B[ki];W[kh];B[jh];W[jg];B[ih];W[jl];B[jk]
;W[gg];B[hm];W[kp];B[gm];W[en]C[capturing is better.]
(;B[fm];W[gk];B[gh];W[eb];B[ea];W[fa];B[da];W[fb];B[ed];W[pa]
;B[ra];W[dq];B[dr];W[hs];B[gr];W[ei];B[sr];W[nm];B[lf];W[lg]
;B[mh];W[lh];B[lj];W[mj];B[se];W[sf];B[si];W[qf];B[fe];W[of]
;B[pe];W[ge];B[aq];W[ao];B[lq];W[lr];B[fg];W[gf];B[nf];W[mf]
;B[ne];W[kf];B[le];W[gs];B[fs];W[is];B[rs];W[qs];B[sq];W[ss]
;B[hn];W[in];B[am];W[an];B[al];W[rs];B[tt];W[fk];B[fq];W[gn]
;B[fp];W[cs];B[ds];W[bs];B[cr]TW[ga][ha][ia][ja][ka][la][ma]
[na][oa][gb][hb][jb][kb][lb][fc][ic][hd][rg][oj][nk][nl][bn]
[cn][do][jo][ip][jp][iq][jr][or][ks][ls][ms][ns][os][ps]TB[aa]
[ba][ca][sa][ab][bb][cb][sb][ac][bc][cc][sc][ad][bd][dd][md]
[nd][od][rd][sd][ae][be][de][af][bf][cf][df][ag][bg][cg][ah]
[bh][ai][bi][hi][ii][ji][aj][bj][jj][sj][ak][rk][sk][ql][rl]
[sl][qm][rm][sm][rn][sn][ro][so][sp][ar][er][as][bs][cs][es]
)
(;B[gk]))
(;W[ki];B[lj];W[mi];B[nj];W[oj]))
(;W[bk]))
(;B[pi];W[pg];B[oj]))
(;B[sh]C[letting white close this territory and connecting underneath bigger?]
))
(;B[sh];W[qg];B[rf];W[qf];B[qe]))
(;B[rh];W[qg];B[rf]))
(;W[pi];B[ri];W[rh];B[rj]
(;W[qg])
(;W[re];B[rd];W[qg])))
(;B[pi];W[oj];B[oi];W[ni];B[nh];W[mh];B[ng];W[cj]TR[aa][ba]
[ab][bb][ac][bc][cc][ad][bd][md][nd][od][ae][be][oe][pe][qe]
[re][se][af][bf][cf][of][qf][rf][sf][ag][bg][cg][og][pg][qg]
[rg][sg][oh][ph][qh][rh][sh][qi][ri][si][rj][sj][rk][sk][ql]
[rl][sl][qm][rm][sm][rn][sn][ro][so][cr][er][as][bs][cs][ds]
[es]SQ[ia][ja][ka][la][ma][na][oa][pa][hb][jb][kb][lb][ic][hd]
[dj][al][bl][am][bm][an][bn][cn][do][jo][ip][jp][iq][pq][jr]
[nr][or][pr][ks][ls][ms][ns][os][ps]C[Now black has a very good chance to win.]
))
(;W[dg]
(;B[ei];W[eh];B[ej];W[fg];B[gh];W[df])
(;B[cg];W[df];B[de];W[eh])))
(;W[ij];B[hk];W[gl];B[gk];W[fk];B[fj];W[ek];B[ej]))
(;W[jk];B[kk];W[kj];B[jl];W[il]))
(;W[km];B[lm];W[lk];B[kl];W[jk];B[jl];W[il];B[kk];W[kj]))
(;B[oq];W[pq]
(;B[lo];W[nn])
(;B[on];W[nn];B[oo];W[mo];B[mn];W[nm];B[mp];W[lo];B[nq];W[rr]
;B[rp];W[or];B[nr];W[ps])))
(;B[id];W[jb];B[gb];W[fb];B[gd];W[fc];B[fe]))
(;B[hb]C[Much better move!];W[ld];B[le];W[md];B[nd]))
(;B[ib]C[As I see it there is no choice but here now and this doesn't bode well for black.]
;W[jd];B[id];W[je];B[if]))
(;B[if];W[hg];B[ig];W[hh];B[ih]))
(;B[ff]LB[ee:A][ge:C][dg:B][hg:D]C[This cap is worth considering, although after some more analysis I like G14 better than this cap.. The initial thought would be
If A then B
If C then D

White can still cause some problems.]
(;W[ee];B[dg])
(;W[ge];B[hg];W[he]
(;B[ie];W[if]
(;B[hf];W[je];B[id];W[jf];B[gd];W[fe])
(;B[je]))
(;B[jd]))
(;W[dd];B[cd];W[ec];B[db];W[ef];B[df];W[gf];B[eg];W[ge]))
(;B[gf]
(;W[dd];B[cd];W[ec];B[db];W[ef];B[dg];W[eg];B[dh];W[gg];B[hg]
;W[gh];B[hh];W[gi]C[Something like this gives black a decent result and leaves the white stones somewhat weak.]
)
(;W[ff];B[fg])))
(;W[fe]C[alternative spot to run out to];B[gd];W[fd];B[fc];W[ec]
;B[fb];W[eb];B[gb];W[dd])
(;W[db]C[Another move to try to make shape]
(;B[cb];W[dd];B[cd];W[ec];B[cc];W[fe])
(;B[eb];W[cc];B[dd];W[cb];B[fc];W[bd];B[be];W[ab])
(;B[ec];W[cc];B[cd];W[bc];B[eb];W[ca])))
(;W[gp]C[Huge white mistake, this is the only move. Black is completely split in an area where white is very strong, and the white push at F3 is a problem for black.]
))
(;W[gr];B[eq];W[gq];B[dq]C[If black has to come back and defend this then K4 is very premature.]
))
(;B[gq]C[This is the simplest move that guarantees no getting cut off and makes a good poke into white's area.]
))
(;B[go];W[gp];B[ho];W[iq];B[en]C[now the white stone that was a jump to the middle is awkward.]
))
(;B[oj]C[By here splitting should be obvious.];W[qj];B[rl];W[oi]
;B[nj];W[ni];B[mj]C[White may live on the right but cutting him off and making a fight of it is important. Now there is more hope for reducing  the bottom side later.]
))
(;B[ol]C[This double hane at this point is somewhat risky, but splitting white ASAP is necessary. Perhaps a few moves later is better.]
;W[qm];B[pl];W[rm];B[rn];W[qk];B[rr];W[oq]
(;B[qs])
(;B[rs])))
(;B[qn];W[np];B[qp];W[qq];B[rq]C[Whatever happens on this variation black makes decent shape in white's sphere of influence]
(;W[pq];B[ro])
(;W[qo];B[rp];W[po];B[ro]
(;W[pn];B[pq];W[oq];B[qr];W[qm])
(;W[qr];B[pn];W[on];B[om]C[Another fine variation for black. The pushing up and haneing is important to split the white stone on the right.]
))))
(;B[ql];W[qn];B[ol];W[nj];B[mk])
(;B[qm])
(;AE[pj];AW[qj]C[If whtie is here instead, he can settlte himself more easily if black invades.]
;B[ql]
(;W[qn];B[ol]
(;W[qg]C[Making a base works well.];B[qf];W[rf];B[re];W[rh]
)
(;W[oj]C[Jumping out farther is also a legitimate option.]))
(;W[oj]C[Jumping and being in the lead is another valid approach, but white isn't making any territory.]
)))
(;B[nc];W[pd];B[qe];W[of];B[pg])
(;B[rb]C[This is not another bad alternative. If white links up black has a nice shape that is better than in the game, although white gets sente.]
;W[mb];B[nc];W[nb];B[oc]))
(;B[oc];W[pc];B[pd]
(;W[ob];B[nc];W[qc];B[rc];W[rb];B[rd]C[White can live here but black is doing rather well on the outside.]
)
(;W[nc];B[ob];W[nd];B[nb];W[md];B[mb]C[Whatever white does here, he isn't doing well.]
(;W[ke];B[qg])
(;W[pf];B[rf]))))
