(;FF[4]GM[1]SZ[19]ST[0]CA[UTF-8]AP[SGFC:1.17]VW[]

PB[Oyabun]
HA[0]
PW[gusto2]
WR[15k]
KM[6.5]
DT[2010-04-11]
PC[The KGS Go Server at http://www.gokgs.com/]
RE[B+19.5]
TM[0]
OT[5x40 byo-yomi]
RU[Japanese]

C[Hello, I played white, comments are put into the game marked as GVi. I lost the game, indeed it was a quick game, but I failed at opening (seems it is one of my weaknesses) and it lost the game as whole.

Thank you for your review
__________________________________________________

Saurus: Hi GVi. I am Saurus, and I'm 6 kyu IGS.

I will be reviewing the game your game for the white side.

I think you came out of the opening quite well. You shouldn't fear large moyos, as they can normally be reduced quite effectively.

I think the most important thing you need to learn is how to play inside your opponent's moyo. Read as much as possible about "light" moves. Three key concepts when playing inside your opponents moyo (General rules):

- If his stones are on the fourth line, invade deeply.
- If his stones are on the third line OR if he is strong in the area, reduce by playing fast and light moves such as 5th line reductions and two-space jumps.
- If you are forced to live inside his moyo, play as many contact moves as possible. See comments for how to put this into practice.

I have also put a summary of key areas that I think you should work on at the end of this game.

I enjoyed reviewing your game, and hope that you find my comments useful.

Regards
Mark (Saurus)];B[qd];W[dd];B[pp];W[dq];B[fc];W[df];B[kc];W[qn]
C[GVi: I was not sure if it was correct time and place, but I did not like the idea the B will gain two sides, he already had a small chinese opening in the top side. There is another variation I use, but I wanted try something different, seems it was too small

Saurus: This move was fine, but I think your follow-up was not ideal - see comments on the next move.]
;B[ql]
(;W[qq]C[Saurus: I think you need to set goals before choosing joseki.

Let's evaluate the board...

White has potential to make territory on the left and bottom.
Black has potential to make territory on the top and right.

Therefore your goals should be:
- Make territory on the bottom and left.
- Reduce or invade black's moyo on the top and right (don't expect to make any territory in this area.)

Your move at r3 is joseki, but it is bad here, because it will damage your potential to make territory along the bottom.

If there was a black stone at k3 or k4, your move would have been perfect, since there was then little potential for white territory along the bottom, but there isn't, so your move does more harm than good.

In this situation, a move like w-o4 would use the aji of r6 to make a nice chunk of territory and would go towards achieving your goals. 

(See variation)];B[qp];W[pq];B[oq]
(;W[rp];B[ro]
(;W[sq]C[Saurus: This move ends up very badly for white. Black's unchallenged p3 stone means that black has influence along the bottom, which should belong to white.

See the variation for the correct continuation. It is worthwhile memorizing it, since it occurs in almost every game. 

(See variation)];B[qo];W[rr];B[pn]
(;W[od]C[Saurus: There are two vital issues here that I think I should mention...

1) There is a proverb which says: "Beware of going back to patch up."  Each time you leave a weakness, you leave more and more options open for your opponent to try something later, and his invasions are much more likely to succeed. P2 is an example of a weakness which could have been fixed in sente before moving on.

2) In fuseki, you should always play the biggest move. 
Which is bigger - invading my opponent's moyo, or building my own moyo? 

If white invades his opponent's moyo, black will chase white out to the center, while making territory. White will have to live or run, and the sequence will certainly end in gote for white, giving black a chance to invade at d5. Since the space at d5 is so wide open, black will settle easily, and might even make some territory in white's moyo. End result: Black makes territory top right and bottom left.  This result is unacceptable for white here. In this position, building your own moyo with c5 or d5 was MUCH bigger.

(See variation)];B[oe]
(;W[ne]C[Saurus: Good!];B[pe]
(;W[pd]C[Saurus: This is terrible shape. 

It's as if black has played a hane at the head of your two stones. With black to play now, he can simply cut at o16.

Connecting your stones was urgent. 

(See variation)];B[nf];W[me];B[mf]C[Saurus: You were very lucky that black did not cut.]
;W[mc]C[Saurus: Now you have to prevent the cut in gote. Connecting earlier would have been sente.]
;B[ke];W[qc];B[re];W[co];B[iq];W[dj]C[GVi: maybe P2 was more urgent

Saurus: No, after w-p2, b-d10, black's influence is too much.
W-d10 was urgent.];B[db]
(;W[ge]TR[qd][oe][pe][re][mf][nf][ql][pn]C[GVi: too far, at the nd I lost the stone.. now I realized the B has a strong wall with stones playing to the wall and I did not know what to do with it.

Saurus: Not a problem. Your territory top right and bottom left, along with your potential territory on the left are more than enough to compensate for the territory that black can make from his moyo.

You still have the ability to reduce black a lot, as long as you don't invade too deeply.]
;B[hd];W[he];B[id];W[gp]C[Saurus: White is now clearly in a better position.

Both white and black have large moyos (roughly equal in size.)
White's potential to make territory on the left is about the same as black's potential to make territory on the right.

However, white has a lot of secure territory bottom left and top right, whereas black has only a little territory on the top.]
;B[ho]
(;W[go]C[Saurus: This is tiny. You already had the corner. W-g5 only adds three points to your score, whereas black's h15 has added about 15 points to his.

G4 was safe, and did not need strengthening. If black EVER approaches a stable group, it is gote, and you have the chance to tenuki.

Why not take the initiative immediately with something like k10?

(See alternative)];B[hn];W[fm]C[Saurus: Two points in gote. If black had played there, and you had replied at w-d7, you would have been two points worse off.]
;B[cc];W[cd];B[rc];W[qb];B[gr]
(;W[hr]C[GVi: this was a mistake, I wanted somthing like the variations. but later a realized that keeping black away just strngthned his center area. Now I fould pretty hard to go for center.

Saurus: Yes, h2 was a huge mistake. Reducing black's moyo was urgent.

(See variation)];B[hq];W[gq]C[Saurus: The next few move should all have been omitted.]
;B[fr];W[er];B[fq];W[ep];B[or]
(;W[pr]C[Saurus: I think a reduction would have been bigger. To give black sente here is catastrophic.

(See variation)];B[hk]
(;W[pj]C[Saurus: Too deep! Black can either cap and kill or make huge profit while chasing you out.

Always reduce a large moyo fast and lightly. Be prepared to sacrifice some stones in exchange for life elsewhere.

A standard reduction technique you should know is the 5th-line reduction. Here, you should have played at w-p10 (and not w-q10)

(See important variation)];B[ph]
(;W[pm]C[Saurus: No. This make your group heavy, meaning it becomes too valuable to sacrifice. You have to live, and you will suffer because of it.

This is probably the most important lesson for this review...

Always reduce with fast and light moves.

Fast, meaning bigger jumps such as two-space jumps and light, meaning you always have the option to give up some stones to make life elsewhere.

(See variation)];B[qm];W[pl];B[rj]
(;W[qk]C[Saurus: Black is MUCH stronger than you in this area. Fighting is futile. Leave you options open for later!

Play fast and light!

(See variation)];B[rn];W[mk];B[mm];W[on];B[oo];W[nn];B[mn];W[no]
;B[np];W[mo];B[km];W[mi];B[nm]
(;W[om]C[No! Don't try to save everything. This is your opponent's moyo, not yours. There is no way you can have it all.

When invading a large moyo, you will always have to give up something to come out on top.

(See variation)];B[nk];W[nj];B[nl];W[ok];B[oi];W[oj];B[qj];W[ki]
;B[ih]C[Saurus: This result is not altogether unexpected, since you made your group heavy.]
(;W[ni]C[Saurus: Technique to learn:

If you are forced to live inside your opponent's sphere of influence play contact moves whenever possible, to increase your eye space. Black will have to defend each time, giving you sente to play another space-making contact move.

(See variation)];B[le];W[lb];B[kb];W[oh];B[pi];W[jg];B[ig];W[jf]
;B[if];W[jh];B[ii];W[lg];B[lj];W[kk];B[lk];W[ll];B[kl];W[li]
;B[lm];W[mj];B[ml];W[kj];B[ll];W[mg];B[kf];W[kg];B[ng];W[nh]
;B[lh];W[mp];B[rk];W[je];B[ie];W[jd];B[lc];W[mb];B[jc];W[nq]
;B[op];W[kp];B[kr];W[lq];B[lo];W[nr];B[os];W[lr]
(;B[jr];W[ms];B[lp];W[mq];B[rb];W[fk];B[ob];W[pb];B[oc];W[pc]
;B[nc];W[nb];B[la];W[oa];B[qa];W[nd];B[ma];W[lf];B[pg];W[oc]
C[GVi: now I belive I should defnd my left side more, I payed for the mistake

Saurus: Yes, remember that if your stones are on the fourth line, an invasion will almost always succeed.

Invade your opponent if his stones are on the fourth line.
Reduce your enemy if his stones are on the third line or if he is strong in the area.

Black played correctly here.

{End of comments. Go to last move for summary and additional advice.}]
;B[cj];W[ci];B[di];W[ch];B[dk];W[ej];B[cl];W[eh];B[el];W[fl]
;B[bn];W[bo];B[cn];W[ko];B[il]C[GVI: I was greedy, it did not worth it]
(;W[ln];B[bj];W[bi];B[ao];W[ap];B[an];W[bq];B[fi];W[ei];B[fe]
C[GVi: I don't think the stones could be saved, at least I should get most of sacrifying them

Saurus: Correct];W[ff];B[gf]
(;W[ee];B[fd];W[gg];B[hf];W[na];B[fg];W[ef];B[fh];W[gj]C[GVi: I should find bigger moves, never mind.. the endgame did not gained me much..]
;B[bd];W[be];B[bc];W[dc];B[eb];W[ka];B[ib];W[ja];B[ia];W[hp]
;B[ip];W[hj];B[ij];W[fj];B[gh];W[eg];B[gn];W[fo];B[do];W[cp]
;B[fn];W[em];B[dm];W[en];B[dn];W[eo];B[ek];W[aj];B[ak];W[ai]
;B[bk];W[jn];B[im];W[ps];B[ae];W[bf];B[so];W[sp];B[og];W[eq]
;B[fs];W[es];B[hs];W[fp];B[ir];W[gi];B[hh];W[jm];B[jl];W[kn]
;B[ks];W[pk];B[af];W[ag];B[ad];W[kd];B[ld];W[jk];B[ik];W[gm]
;B[jb];W[la];B[jp];W[ed];B[kq];W[ls];B[in];W[jo]
(;B[tt];W[tt]TB[aa][ba][ca][da][ea][fa][ga][ha][sa][ab][bb]
[cb][fb][gb][hb][sb][ac][gc][hc][ic][sc][gd][rd][sd][ge][he]
[qe][se][of][pf][qf][rf][sf][gg][hg][qg][rg][sg][qh][rh][sh]
[qi][ri][si][sj][ck][sk][al][bl][dl][rl][sl][am][bm][cm][rm]
[sm][qn][sn][po][jq][hr][gs][is][js]TW[ma][ob][nc][ce][de][cf]
[bg][cg][dg][ah][bh][dh][kh][lh][mh][di][lo][bp][lp][aq][cq]
[rq][ar][br][cr][dr][mr][qr][sr][as][bs][cs][ds][qs][rs][ss]
C[Here are the things that I think you should focus on to improve your game...

Summary of key points:

1) Beware of following your opponent around. Remember that if your opponent approaches a stable group of yours, it is almost always gote, and you should be able to take the initiative. If your opponent plays a move near one of your strong groups, ask yourself: Is it stable? If yes, then tenuki. (Example - moves 42 and 44)

2) Change your thinking about how to invade large moyos: 
- Focus on not making a group heavy (ie. don't make it too valuable that it cannot be sacrificed). 
- All your moves in your opponents moyo should be fast and light.
-Read and understand the concept of light and heavy groups. 
- Don't try to save everything. Go into the reduction with the idea that you WILL give up a few stones.
- Reduction moves along the 5th line are often highly effective, since they may force your opponent to protect his territory along the third line, and you gain a lot on the outside.

3) If you are forced to live inside your opponent's sphere of influence, play as many contact moves as possible. This will force your opponent to defend on the outside, allowing you a series of sente moves to increase your eye-space.

4) Remember always that Go is largely a game of psychology.
He who has the strongest will wins. Tenuki as soon as possible AFTER ensuring that your group is stable (meaning that it can either live or run.)

I hope you found this review useful.    :)])
(;B[tt];W[tt]TB[aa][ba][ca][da][ea][fa][ga][ha][sa][ab][bb]
[cb][fb][gb][hb][sb][ac][gc][hc][ic][sc][gd][jd][kd][rd][sd]
[ge][he][je][qe][se][jf][lf][of][pf][qf][rf][sf][gg][hg][jg]
[kg][lg][mg][qg][rg][sg][jh][kh][lh][mh][nh][oh][qh][rh][sh]
[ji][ki][li][mi][ni][qi][ri][si][jj][kj][mj][nj][oj][pj][sj]
[ck][jk][kk][mk][ok][pk][qk][sk][al][bl][dl][ol][pl][rl][sl]
[am][bm][cm][jm][om][pm][rm][sm][jn][kn][ln][nn][on][qn][sn]
[io][jo][ko][lo][mo][no][po][kp][lp][mp][jq][lq][mq][nq][hr]
[lr][mr][nr][gs][is][js][ls][ms][ns]TW[ma][ob][nc][ce][de][cf]
[bg][cg][dg][ah][bh][dh][di][bp][aq][cq][rq][ar][br][cr][dr]
[qr][sr][as][bs][cs][ds][qs][rs][ss]C[Oyabun [-\]: fair game ?
Oyabun [-\]: beginner ?]))
(;W[fd];B[ee];W[ed];B[gd]))
(;W[bj];B[ck];W[em]))
(;B[ms];W[mr];B[lp];W[ko];B[ln];W[kq];B[jr]))
(;W[ii];B[hi];W[ik];B[hj];W[kf];B[le];W[jf];B[if];W[ig];B[hg]
;W[jg];B[hf];W[jh]C[Much more eye space. White shoiuld be able to make two eyes easily now.]
))
(;W[jj];B[om];W[ih]C[White is alive and happy, even a little ahead.]
))
(;W[lk]C[This is one example of how a reduction might turn out...]
;B[nk];W[nl];B[mk];W[ml];B[ll];W[lj];B[ni];W[kl];B[lm];W[km]
;B[ln];W[il];B[hl];W[hm];B[gm];W[im];B[gn];W[gl]C[White has sacrificed a small group in exchange for massive territory. White will probably kill the two black stones.

This is an example of how to reduce.

Don't try and save everything!]))
(;W[mj]C[This would be a good continuation...];B[ol];W[oh];B[pi]
;W[kh]C[White looks OK.

You are giving yourself options, and your group already looks almost alive.]
))
(;W[oj]C[Force black to make a decision. Either he must protect his territory at r10 or chase you out.

A 5th line reduction is a techique you must know.]
(;B[qj]C[If black protects, then...];W[oh];B[qh];W[li]C[White has reduced successfully.]
)
(;B[ol];W[lj]C[Fast and light. Black requires at least two stones to kill p10, and causes complications, so even if he does choose to kill, you do big damage elsewhere by sacrificing p10.]
)))
(;W[oj];B[qs]C[If black kills, then...];W[oh];B[qj];W[ol];B[hl]
;W[lo];B[nn];W[kj]C[Reduction is massive.]))
(;W[fr]C[Saurus: This is also bad. See other variation for reducing black]
;B[gq];W[fq])
(;W[nj]C[Saurus: Something like this would have been good for white.]
;B[pj];W[nh];B[ph];W[ki]C[Saurus: Fast and light.]))
(;W[jj];B[lj];W[jn];B[kp];W[hp]C[What about something like this?]
))
(;W[fe])
(;W[cc]))
(;W[nd]C[This give you the option to play at r17 or attack at j17. An excellent result for white.]
))
(;W[pd];B[pe];W[qc]))
(;W[or];B[nq];W[co]))
(;W[rq]C[This is the standard reply.];B[qo];W[or];B[nq];W[nr]
;B[mq]C[White has sente, and no weaknesses in this corner.]
))
(;W[or];B[nq];W[nr]))
(;W[np]C[Something like this this would have made better use of white's potential.

The following continuation would be a typical example...];B[oo]
;W[qq];B[qp];W[pq];B[pn];W[op];B[rq];W[rr];B[rp];W[kq]C[White is happy.]
))
