(;FF[4]GM[1]SZ[19]ST[2]CA[UTF-8]AP[SGFC:1.17]

PB[Andr3]
BR[10k]
PW[kodysh]
WR[18k]
KM[7.5]
DT[2010-04-27]
PC[The KGS Go Server at http://www.gokgs.com/]
RE[B+49.5]
TM[2700]
OT[5x30 byo-yomi]
RU[AGA]

C[Hi, I play as Numsgil on KGS.  Currently ranked 8 kyu.

The main reason you lost this game is simply that black had more territory.  I know that seems like a silly statement, since of course black has more territory if he won.  But what I mean is you weren't really out fought tactically.  You lost because you allowed black to build up his moyo on the bottom right.  If you keep an eye on the balance of territory as you play games, you'll win more games like this.  When the opponent pulls ahead, pull him back down.

The best time to invade a moyo is right before it's finished.  But it's also the riskiest, and "finished" is difficult to define.  So at our non-shodan level, invade when you feel threatened by black's moyo.  That's usually when it's more like 75% done.  Don't leave it and hope it'll get better later.  It won't.

Reduction is also usually a safer alternative to invasions.  Doubly so if you have your own framework nearby so you can expand it at the same time you reduce your opponent.  Reduce at the "door" of the opponent's moyo.  That's the imaginary line between two stones in the moyo that's open to the outside, without any stones in between.  You can also think of it as the "border" of the moyo.

Anyway, I hope this review is helpful.  Don't feel shy about emailing me questions.]
;B[pd];W[cp];B[pp];W[dd];B[eq]
(;W[gq]C[I like the joseki that comes from the two space high approach better.  But it's a judgement call here really (yes, black responded oddly).]
;B[iq];W[fo];B[io];W[fm];B[dj]C[This is too high on black's part.]
;W[dl]C[This is fine, but I think you'd be better to push from the other side.  You're relatively strong on the bottom.  Don't be afraid to push your opponent towards places where you are strong if it means you can also strengthen a weaker area (eg: your top left star stone).]
;B[dg]C[Black is too high.  I think you can rob him of a base and send him running towards the center.  The best way of doing that isn't clear, though.  So leaving it be is probably fine if you can't see a good way to attack.  See variation for my thought.]
(;W[nc];B[oc];W[nd];B[pf];W[jd];B[fc]
(;W[ec]C[Okay, so this is the first move that starts feeling wrong-ish.

When you kick a stone (that's what this is called), you aren't defending.  You are attacking.  The goal is to either make it heavy, and gain profit (territory) while chasing it around the board, or to make it over concentrated.

Because of the black group on the left, black should have no trouble running and being safe.  So you can maybe get a little profit from it, but you still need to go back and defend the corner.

You never never never ever ever ever want to kick and just leave it.  Two white stones at a diagonal in contact with a two stone black wall is bad for white.  You need to follow up in some way.

See variations];B[fd]
(;W[pj]C[Just to drive the point home, this is a bad tenuki.  See variations.]
;B[pm]C[Black is threatening your white stone.  It does not have a base.  So you need to extend towards the center or react in some other way.  This is not a good stone to play and leave.

Black is also gaining profit by attacking your weak stone.  Don't place stones if the opponent can immediately push them around to gain profit.]
(;W[nf]C[This does not work well with the stone you just played.  Consider instead pressing black and building a wall.  Black gets 4th line territory, which is sort of a pain, but at this point the damage is done.

See variation.];B[oh]C[This is a good move by black.  White is cut in two.  Oops.]
;W[ph];B[og]
(;W[rg]C[See variation.];B[rf];W[qg];B[qf];W[ql];B[qm];W[pl]
(;B[ic]C[See variation];W[jc];B[id];W[ie]C[Good.  Hane at the head of two stones.  Prevent expansion towards the center.]
;B[ce];W[cd];B[jb];W[kb];B[ib];W[ob];B[pb]
(;W[nb]C[This is an end game move.  There are bigger points on the board.  See variation.]
;B[je]
(;W[kc]C[Does not feel good.  Bad shape (there's an empty triangle) and gote.  See variation for a possible variation.]
;B[if]
(;W[ke];B[he]C[Do not give black a ponnuki.  Even if the group will still be captured eventually, extend from an atari of one stone (unless it's a ladder obviously).

Black will probably not remove the stones from the board, so they will be a thorn in black's plans for the rest of the game.  They might have some life in the end game, or allow you to make moves elsewhere in sente.

Allowing an opponent to get a ponnuki, on the other hand, means he has power and influence that radiates like a star over the whole board.

Dead stones on board = possible power to be untapped in the future

Removed stones = unhindered strength for white];W[jf];B[ie]
;W[jg];B[ih];W[ig]C[Don't push like this unless you can gain immediate advantage.  All you do is force black to reinforce, gain maybe 1 point, and remove a liberty from your group.  Generally speaking, 1 point < 1 liberty.  Treasure liberties.  Protect them.]
;B[hg];W[jh];B[ii]
(;W[il]C[Ill timed and ill placed.  See variation.

Basically you encourage black to invade to the right.  You're also a bit thin.  And you gave up in the middle of a pushing battle.]
(;B[jm]C[Black's response was passive, so it made your questionable move okay.  But black has a huge moyo turning into territory now, so he still gets the better of this I think.]
;W[jl];B[km];W[kl];B[lm];W[ni]C[Your center territory is smaller than you think.

Jump to the end of the game from here and see how much of this actually turned in to territory.  Then think about what you were thinking at this point of the game.  See if the two jive.]
;B[mh]
(;W[mg]C[This is a tesuji move.  But it does not really work here, since black has so many open liberties.  See variation.]
;B[nh];W[mi];B[lh];W[ji];B[ee]
(;W[de]C[This white corner group is making alarms go off in my head.  Give your poor reviewer a break and put some legs on that group. ;)

See variation];B[cf];W[ej];B[ei];W[fj];B[fi];W[gi];B[gh];W[hi]
;B[hh]
(;W[hj]C[Oh no!  Empty triangle, and black still can peek through an opening in your wall.

See variation.];B[ck];W[cl];B[bk];W[bl];B[ak];W[dk];B[ci];W[al]
;B[qq]
(;W[dq]C[See variation];B[gp];W[hp];B[hq]
(;W[go]C[This is the wrong side.  There's just no way this ends as nicely for white as the other direction.]
;B[fq];W[fp];B[gr]
(;W[gp]C[There's no need to defend.  If black captures the stone, it's a ko.  And not a ko that matters, since you can just connect at H5.

All you do here is save 1 point in gote.  Too small for move 102.]
;B[ep];W[dn];B[dr]
(;W[dp]C[Empty triangle (bad shape), and black can take more of the corner.

See variation.];B[cr];W[bq];B[ip];W[eo];B[ol]C[This move was larger than most of the last 25+ moves.  It should have been made in the middle game (you're well into the end game at this point, in case you were wondering).]
;W[ok];B[nl];W[nk];B[ml];W[lk];B[mk];W[mj];B[ij];W[hk];B[jj]
;W[ki];B[li];W[kj];B[eb];W[db];B[ed];W[dc];B[fb];W[be];B[bf]
;W[bd];B[hn];W[gm];B[hm];W[hl];B[im];W[lg];B[rl];W[rk];B[rm]
;W[ll]C[This does not do anything (though black responded, so nothing lost).

See variation.]
(;B[nm];W[oe];B[pe];W[od];B[pc];W[pa];B[qa];W[oa];B[qb];W[ea]
;B[fa];W[da];B[lj];W[lq];B[mq];W[mr];B[nq];W[nr];B[or];W[jr]
;B[kq];W[kr];B[lp];W[lr]C[You need a group like this (all stones on the second line) 7 stones long + sente to live on the side.  There is one way to live if black does nothing.  And lots of ways to die.  (see variations)]
(;B[ir]C[White is dead.]
(;W[os]C[hane's do not produce eyes.  They destroy eyes.  See variation.]
(;B[ps];W[ns];B[pq];W[is];B[hs]
(;W[ks]C[Extra extra bad.  K1 is a false eye.  You've not only died in gote, you've committed suicide in gote, since your eye space now isn't large enough to form two eyes.]
(;B[kp]C[Black is being overly cautious.  There's really no need.]
;W[oi];B[sg];W[sh];B[sf];W[rh];B[sk];W[sj];B[sl];W[rj];B[br]
;W[ar];B[bs];W[af];B[ag];W[ae];B[bg];W[ja];B[ia];W[ka];B[jk]
;W[pg];B[of];W[df];B[ef];W[ng]C[0 point move.  L12, by comparison, is worth 1 point.]
;B[as];W[aq];B[cq];W[bp]
(;B[er]C[-1 point move.  Black is safe without this.]
(;W[gn];B[ho]C[0 point move];W[kk]C[0 point move];B[kh]C[1 pt move.  All those 0 point moves were wasted opportunities.]
;W[kg];B[ik];W[tt];B[tt]TW[aa][ba][ca][la][ma][na][ab][bb][cb]
[lb][mb][ac][bc][cc][lc][mc][ad][kd][ld][md][le][me][ne][kf]
[lf][mf][qh][pi][qi][ri][si][gj][nj][oj][qj][ek][fk][gk][pk]
[qk][el][fl][gl][am][bm][cm][dm][em][an][bn][cn][en][fn][ao]
[bo][co][do][ap]TB[ga][ha][ra][sa][gb][hb][rb][sb][gc][hc][qc]
[rc][sc][gd][hd][qd][rd][sd][fe][ge][qe][re][se][ff][gf][hf]
[cg][eg][fg][gg][ah][bh][ch][dh][eh][fh][ai][bi][di][aj][bj]
[cj][mm][om][sm][in][jn][kn][ln][mn][nn][on][pn][qn][rn][sn]
[jo][ko][lo][mo][no][oo][po][qo][ro][so][jp][mp][np][op][qp]
[rp][sp][jq][lq][oq][rq][sq][fr][hr][jr][kr][lr][mr][nr][pr]
[qr][rr][sr][cs][ds][es][fs][gs][is][js][ks][ls][ms][ns][os]
[qs][rs][ss])
(;W[fr]))
(;B[ss]C[if black tenukis];W[er];B[fr];W[es];B[fs]C[White can't use the aji for anything.]
))
(;B[ss];W[kp];B[jq];W[mp];B[lo];W[np];B[oq]C[No amount of squirming will help.]
))
(;W[ls];B[js]C[Andr3 [10k?\]: thank you btw
kodysh [18k\]: me going at k1 wnt work
kodysh [18k\]: thxs
Andr3 [10k?\]: like this it is dead too])
(;W[js];B[ls]C[Andr3 [10k?\]: and like this too
kodysh [18k\]: o well had to try
Andr3 [10k?\]: ;-)
kodysh [18k\]: kno i was behind
kodysh [18k\]: gg
Andr3 [10k?\]: yes
Andr3 [10k?\]: thx
Andr3 [10k?\]: i liked it
Andr3 [10k?\]: so, bye bye
kodysh [18k\]: bye
Andr3 [10k?\]: =^.^=]))
(;B[ns]C[Black's throw in reduces your eye space even more.]
))
(;W[ns]C[Best way to produce eyes is just to descend (still dead though).]
))
(;B[ss]C[tenuki]
(;W[ir];B[hr];W[jq];B[kp];W[is];B[ns];W[ms];B[ks]C[Dead])
(;W[fr];B[er];W[hr];B[fs];W[ir]C[So close!  This white group now lives or dies by sente.]
;B[hs]
(;W[is];B[ns];W[ms];B[ks]C[Dead!])
(;W[kp];B[jq];W[mp];B[lo];W[oq];B[np];W[pr];B[pq];W[os]C[Life!]
;B[qr];W[is];B[qs];W[ps];B[op];W[or];B[ls];W[ks]C[Just for completeness.  This is not how black would play.]
))))
(;B[ss]C[Say black tenukis somewhere else.];W[mm]C[If you try to attack...]
;B[om]C[Black can just connect.]))
(;W[cr]C[Save the corner.  Black can press a bit in sente, but let him.]
;B[dp];W[cq];B[er];W[do]C[Much better]))
(;W[ep]C[Bad shape, but you can block black off from your territory.]
;B[gp];W[ho];B[dr];W[cr];B[er]C[Maybe something like this.]
))
(;W[fp];B[go]
(;W[ho]C[Loose ladder does not work now.];B[gn];W[hn];B[gm]
;W[gl];B[hm];W[im];B[in])
(;W[gn];B[ho];W[fq]C[Much better.])))
(;W[gr]C[Descend to form an "iron pillar" if you want to defend this territory.]
;B[gp];W[fp];B[fq]C[Black can try to cut all he wants];W[hp]
;B[go];W[ho];B[gn];W[hn]C[It just ends poorly for black.  You can capture these stones in a loose ladder.]
;B[gm];W[gl];B[hm];W[im]))
(;W[ij]C[Be willing to sacrifice some stones to keep black out.  However...]
;B[gj];W[hj];B[fk];W[ek];B[el];W[dk]C[Seems white is safe though.]
))
(;W[eb]C[This feels a bit better.  You can even monkey jump into black territory]
;B[bd];W[bc];B[be];W[ha]C[Monkey jump.]))
(;W[nh];B[ng];W[mg];B[lg];W[mf]C[Just the pedestrian push and cut will work just fine here.]
))
(;B[hm]C[If black were extra aggressive...];W[gl];B[hl];W[gk]
;B[hk]C[Family feud with your lone white stone.  Oops.]))
(;W[kj]C[Maybe here instead?];B[jk];W[kk];B[jl];W[kl];B[km]
C[Something like this is actually okay for white.  White's formation in the corner means black probably can't]
)
(;W[om]C[Or here?  Reduce black's moyo a bit.])
(;W[nq]C[Or maybe it's time for an invasion?  Either here or at the 3-3.]
))
(;W[he]C[Extend!];B[ke];W[jf]C[As we discovered before, the ladder doesn't work.  Huzzah!]
))
(;W[jf]C[So black's move here is severe.  You will need to respond in ways that feel slow.  But before you do, see if you can strengthen your cutting stone a bit.]
;B[ke]C[Black cannot give you a ponnuki, so he extends.];W[kc]
C[Now you can defend with this move.];B[if];W[he];B[jg]C[This ladder does not work.]
;W[kf]
(;B[lf];W[kg];B[kh];W[lg];B[mg];W[lh];B[li];W[mh];B[nh];W[mi]
;B[mj];W[ni];B[oi];W[nj];B[nk];W[oj]C[Ladder is broken!  Huzzah!]
)
(;B[kg];W[lf];B[ff]C[Okay for white.  Not a resounding black success.]
)))
(;W[he]C[Seal black in.];B[nb]C[Oh no!];W[mb]C[But you can defend in sente.  Black has to take gote, and has only gained a few points.

The idea of moves like white P18 in the middle game is to allow you to defend in sente when the time comes.  They should not be defended until well into the end game.]
;B[oa];W[ee]C[You can take sente to keep black's groups separate.]
))
(;B[ol]C[Black should not miss the opportunity to hane at the head of two stones.  You should not miss the opportunity to prevent black from sealing you in.]
(;W[ok];B[nl];W[nk];B[mk]C[Maybe something like this.  Black ends up with an impressive moyo, but it's less impressive than in the variation where you do not do anything after the hane.]
)
(;W[ss]C[say you tenuki];B[ok]C[Black seals you in.  Oops];W[oj]
;B[nj];W[ni];B[oi];W[nk];B[mj]C[Good for black.])))
(;W[qg];B[qf];W[rg]C[This works better, as it has fewer weaknesses.  Black may not always respond like this, though.  But this is the sort of line of play you should be thinking about.]
))
(;W[og];B[pg];W[oh]C[So actually making this variation, I see you have a weakness.  So this is playing with fire a bit.  But this should still at least be an instict for a line of play to consider.

The idea is that you can run black towards your white stone on the 4th line and connect up and limit black's ability to expand towards the center.

You can then use the wall to either build a moyo or run a weak black group towards it.]
;B[ne];W[oe];B[of];W[nf];B[me];W[mf];B[od];W[le];B[pe];W[md]
;B[oe];W[mh]C[Maybe something like this.  Not great for either side, though black gains some nice corner territory.  Your thickness, on the other hand, radiates across the whole board.  Let black bring it on!]
))
(;W[hc];B[ff];W[cf];B[cg];W[bf]C[Not great, but I think it's playable.]
)
(;W[qk]C[If you must tenuki right now, and want to play here, play low, and leave enough space.  Here you have enough space to make a 2 space extension on either side.  If you play high, it's too easy for black to rob you of any base.  If you play off center (not off center of the board, but off center of the stones), it's easy for black to rob you of any base.]
;B[qi];W[qn];B[np];W[rp];B[qq]C[This would be locally what I would play.]
))
(;W[dc]C[If you want to defend the corner, this is better than kicking.  When attach, you strengthen your opponent's stone as well as your own.  When you kick, you strengthen your opponent more than you strengthen yourself.

So the one rule to take away is this: don't kick if you want to defend.]
))
(;W[ch]
(;B[cg];W[cj];B[ck];W[dk];B[ci];W[bj];B[bi];W[di];B[ej];W[bh]
C[Tada!  Black has to run towards the center, and you gain profit on the side.]
)
(;B[dh];W[ci];B[cj];W[cf];B[df];W[ce];B[de];W[di];B[ei];W[cg]
C[Another line.  Black has ceter influence, but you gain territory on the side.  This is a bit dangerous, though, since black has a whole board moyo developing.]
)))
(;W[hp];B[fp];W[dn];B[cr];W[cj]C[joseki.  C10 works nicely with the star point stone at the top.]
))
