(;FF[4]GM[1]SZ[19]ST[2]CA[UTF-8]AP[SGFC:1.17]

PB[yueshen]
BR[5k]
PW[flintstone]
WR[5k]
KM[6.5]
DT[2010-05-24]
PC[The KGS Go Server at http://www.gokgs.com/]
RE[W+1.5]
TM[60]
OT[25/600 Canadian]
RU[Japanese]

C[*Hello, my name is Litost, I am around 1k, and I'll be your reviewer. All my comments with start with a star (*).

* As a synthesis, I would say that your play is flexible. You should however be paying a bit more attention to good shape / bad shape (especially what makes a group heavy and light).

* Shape is essential in go. A good shape make your stones solid, and you can play agressively without having to worry about your opponent retaliating. Bad shape, on the contrary, is a burden, since your opponent can attack it continuously, and gain profit from attacking (either territory, more influence to attack elsewhere, or even a kill).]
;B[pd];W[dp];B[qp];W[dd];B[fq];W[op];B[dq]LB[kq:A]C[* As Black, I would rather pincer the P3 stone, (for instance around A) trying to develop both sides.]
;W[qq];B[rq];W[pq];B[ro];W[qn]C[* I have never seen this move. The shape looks a bit thin to me, because Black can separate white stones and then pincer in either direction. Still, it's an interesting move, leading to dynamic situations.]
;B[rn]LB[po:A]C[* This move by Black is a mistake, playing at A (forcing bad shape on White with an elephant's eye) was necessary. Crawling on the second line is painful.]
;W[qm]C[* Of course, White should not allow Black to come out, so this move is excellent.]
;B[rm];W[ql];B[cq];W[rl]C[* Coming back here to make this turn is the right decision. Now Black will be enclosed with little territory, so we can say that you have gained the lead from this move on.]
;B[qr];W[pr];B[rr]LB[po:A]C[* Excellent result for White here. Still a weakness at A, to be aware of (Black can try and activate some aji with a peep later).]
;W[qf];B[of];W[ph];B[qd];W[nc]LB[ic:A][cf:D][cj:C][iq:B]C[* An agressive play, and maybe an overplay. While this move is usual in handicap go, there are other big points on the board (from A to D).]
(;B[oc]C[* A bit passive. Black needs a pincer here, all the more this pincer could work well with a kakari on the top left. See variation.]
(;W[nd]LB[ic:A]C[* While this is usually the correct shape locally, it appears to be  too heavy here. If Black pincers right  now, then your stones will have a hard time.

* Why not a soft extension at the top, treating O17 as a forcing move? Black is already very solid on this corner, so will not add a move.]
;B[pf];W[qg];B[lc]C[* A bit close, but the right direction.]
(;W[ic]C[* This shows the problem of the o17 sequence. Now you change your strategy and sacrifice, but Black gains a lot of points in the process - and I'm afraid that the advantage you had gained at the bottom right has now vanished.

* Why not try and follow-up by extracting the group with a kosumi ? See variation.]
;B[le];W[if]LB[cf:C][ci:B][iq:A]C[* This lacks a bit of direction. Also, you are not really attacking any Black group, and Black has enough space to invade and live inside your moyo.

* An extension at the bottom at A ("extend from thickness"), or or on the left side at B or C ("reduce the opponent's influence") would be good candidate moves.]
;B[lg]C[* A bit slow, though good for the balance of power, as it reduces a bit White's influence.

* Balance of territory: black has about 40 points, white about 15 points. 

* Balance of power: White has better prospects (a good influence and something like a moyo at the top).

* Black's strategy now could be to gently offset White influence while making territory. White's strategy could concentrate on enlarging the moyo, inducing an invasion, and looking for some fight.]
;W[hq]LB[cj:C][iq:A][jq:B]C[* Good direction, but I feel this is a bit too close. I would play at J3, or maybe K3. Now Black can pincer the stone, and still have room to make shape against your influence.

* Also, maybe C, offsetting Black's influence and building a moyo, should be considered.]
;B[ip]C[* A standard reduction move. This reflects Black's style, which is pretty calm so far.]
;W[hp];B[iq]
(;W[kq]LB[io:A]C[* I understand your wish to deprive Black from his base, but here the two White stones come under a severe attack. J5, playing at the head of two stones, was the correct shape, to be played absolutely.

* When attacking, it's first a story about who's making the good shape and who's forcing a bad shape on the opponent. Attacking from bad shape is nearly impossible, so this preliminary fight is essential.]
;B[ho]C[* The right shape for Black.]
(;W[gp]C[* Playing an empty triangle really hurts. In such cases, where the opponent drives you around and forces bad shape upon you, it is always good to stop and ponder whether playing the bad shape really is necessary. See variation.]
;B[go];W[fp];B[hr];W[gr];B[ir];W[eq];B[er]
(;W[fr]C[* You must connect here.];B[ep];W[eo]
(;B[eq]C[* Black could also fight the ko, with little to lose.]
;W[fo];B[gq]C[* A bit slow, but it does connect effectively, so probably the correct move.

* Balance of territory : Black has around 50 points, White around 20 points.

* Balance of power : White's influence has been damaged at the bottom, but there is still the moyo at the top. White has a weak group at F5.]
;W[dn]C[* You should extend further here. Your stones look a bit overconcentrated.]
(;B[gm]C[* A bit slow. Black should try a more dynamic play, for instance a move on the left side. The game would be difficult for White after this.]
;W[el]LB[di:A]C[* This shape looks a bit strange. Now the natural extension lies around D11, which looks high. Still, this is the right direction.]
;B[cf];W[io];B[in];W[jo];B[jn];W[ko]
(;B[fn]C[* This move does not really help Black. Pushing from behind once more looks good (because it reduces White's moyo), and then Black can go back to the left life, attacking White's group.]
;W[cj]LB[dk:A]TR[el]C[* I think you'd rather have these stones a bit lower. Also, this leaves a weakness at A (elephant's eye).]
(;B[cd];W[cc];B[bc];W[dc]
(;B[bd];W[kn]C[* Good move.];B[jl];W[ll];B[jj];W[lj];B[mi];W[nj]
;B[ni];W[oi];B[li];W[ef];B[dg];W[fh];B[ei];W[bh];B[en];W[do]
;B[dm];W[cm];B[dl];W[cl];B[dk];W[ck];B[bn];W[bo];B[bp]
(;W[cn]C[* This is a bit passive (and this forms an empty triangle). Why not descend? If you are to finish gote, then grab some points doing so.]
;B[ao];W[bm];B[co];W[dj];B[ej];W[di]
(;B[dh];W[eh]C[* Good cut !];B[gi];W[gh];B[bg];W[ch];B[bi];W[ci]
;B[cg];W[ag];B[af];W[ah];B[ak];W[al];B[am]
(;W[an]C[* This is not a real ko (you can live without condition, see variation), but taking it first captures a stone.]
(;B[mj];W[am]C[* Letting Black enter your moyo is big.];B[nk]
(;W[oj]C[* You can also try and kill the upper top left. See variation.]
(;B[lk]LB[ml:A]C[* This leaves a peep at A to White (bad shape).]
;W[nm];B[de];W[ee];B[cb];W[db];B[bb]
(;W[hi]TR[gj]C[* What about G10 instead of H11?];B[gj];W[ii]
(;B[ij]C[* This move is a mistake. Black needs H10.];W[hj]
(;B[hk];W[ek]C[* Good! You take advantage of the aji.];B[em]
;W[fj];B[fk];W[fi];B[gk];W[ml];B[mk];W[re];B[rd];W[kb];B[lb]
;W[kc];B[jd];W[id];B[kd];W[cp];B[jc];W[jb];B[ie];W[he];B[ib]
;W[hb];B[je];W[hf];B[ls];W[lr];B[ks]
(;W[js];B[jr];W[ms];B[kr];W[mq]TR[ns][ps]C[* Before protecting a cut, it is important to evaluate which kind of protection is best. Here, you need a solid connection (at N2), otherwise Black can activate the aji (and he did later). This is also related to good shape or bad shape.]
;B[po];W[oo];B[pn];W[on];B[nl];W[pm];B[qo];W[bo];B[bq];W[sd]
;B[sc];W[se];B[rc];W[nh];B[mg];W[ng];B[nf];W[jm];B[im];W[km]
;B[ji];W[ih];B[qe];W[rf];B[sl];W[sk];B[sm];W[rj];B[ol];W[pk]
;B[om];W[kl]
(;B[kk]C[* Mistake. Black needs a bamboo joint here.];W[il]
;B[hm];W[jk];B[ik];W[jl];B[fl];W[ej];B[da];W[eb];B[ea];W[fa]
;B[ca];W[fb];B[eg];W[fg];B[ns];W[mr];B[ps];W[or];B[os];W[nr]
;B[qs];W[jh];B[kh];W[jf];B[kf];W[jg];B[mh];W[ap];B[pl];W[ok]
;B[og];W[oh];B[ka];W[ia];B[pg]
(;W[qi]C[* Not sure this is needed.];B[hl];W[jp];B[is];W[ja]
;B[la];W[aq];B[ar];W[ao];B[br];W[df];B[ce];W[kg];B[pp];W[jq]
;B[tt];W[tt]TW[ga][ha][gb][ib][ec][fc][gc][hc][ed][fd][gd][hd]
[fe][ge][ff][gf][sf][gg][hg][ig][rg][sg][hh][qh][rh][sh][ai]
[bi][ei][pi][ri][si][aj][bj][pj][qj][sj][ak][bk][qk][rk][bl]
[lm][mm][bn][ln][mn][nn][co][lo][mo][no][kp][lp][mp][np][lq]
[nq][oq]TB[aa][ba][ma][na][oa][pa][qa][ra][sa][ab][mb][nb][ob]
[pb][qb][rb][sb][ac][mc][nc][pc][qc][ad][ld][md][nd][od][ae]
[be][ke][me][ne][oe][pe][bf][lf][mf][lh][ki][kj][lj][gl][fm]
[gn][hn][sn][so][rp][sp][sq][cr][dr][fr][gr][sr][as][bs][cs]
[ds][es][fs][gs][hs][js][rs][ss]C[* Do not hesitate if you have questions. Bye!]
)
(;W[aq];B[qh];W[rh];B[qk];W[rk]
(;B[qj];W[qi])
(;B[qi];W[qj])))
(;B[jk]))
(;W[ms];B[js];W[mr]))
(;B[gk];W[hk];B[hl]))
(;B[hj];W[ij];B[ik]))
(;W[gj]TR[ei][gi][ej]C[* White strikes at the weak point of the shape.]
(;B[hi]C[* Black cannot extend, otherwise White can force a connection and collect some stones.]
;W[fi];B[fj]
(;W[ek])
(;W[fk]))
(;B[fi]C[* Black cannot connect here either.];W[ek];B[em];W[hi]
)
(;B[fj]C[* This does not work.];W[ek];B[em];W[fk])
(;B[hj]C[* This does not look good as well.];W[fj]
(;B[fi];W[ek])
(;B[ek];W[fi]))))
(;B[mk]))
(;W[be];B[cb];W[db];B[ba];W[ab];B[ce];W[ae]))
(;B[aj]C[* If Black plays here...]
(;W[bo]C[* Forcing Black's corner... and then we can revert to other variations if needed.]
)
(;W[bk]C[* Or making eyes.];B[am];W[bj];B[bl];W[ai]TR[cp]C[* We're happy to have a remaining liberty at C4 :)]
)))
(;W[aj]C[* This can live, though in gote.]
(;B[bl];W[bk]C[* Connect-and-die.])
(;B[bk];W[bj]C[* snapback.])))
(;B[eh]C[* Connecting is safer. Leaving weaknesses in fighting positions is asking for trouble.]
))
(;W[ao]))
(;B[be]C[* Slightly better shape, since it helps making eyes.]
))
(;AW[ci][dk]AE[cj][el]TR[ci][dk]))
(;B[kn];W[ln];B[lm];W[mn];B[mm];W[nm];B[bd];W[cc];B[ci]C[* White has to defend his D6 group; Black can also aim at invading the top.]
))
(;B[ci];W[cg];B[dl]LB[dc:A]C[* Still aiming at A.]))
(;B[fo]))
(;W[ep];B[fr];W[dm]))
(;W[fp]C[* White can try this. Let's see if this works.];B[gp]
;W[gq];B[go];W[eq];B[fr];W[er];B[hr];W[cp];B[bp];W[bo];B[br]
;W[ap];B[aq];W[bq]C[* What about this?]))
(;W[io];B[lq];W[jo];B[lo]C[* Black is under a severe attack, with a weak shape.]
))
(;W[me];B[ic];W[jd];B[jc];W[ng]C[* White shape is still thin, but at least you have some something, and the Black group at the top can still be attacked.]
))
(;W[ic]))
(;B[kc]C[* Let's study the flow of the stones.];W[me]C[* White tries to escape lightly...]
;B[fc]C[* Black makes a corner approach, working well with his pincer at L17.]
;W[cf]C[* Pincering at H17 would be induce a one-space jump at L15, giving Black a splitting attack, so White calmly retreats.]
;B[ng]C[* This kosumi attacks White, while reducing the center influence.]
;W[ke]C[* White runs away.];B[id]C[* Black forms a base, makes some points, and still has an attack.]
))
