(;FF[4]GM[1]SZ[19]ST[2]CA[UTF-8]AP[SGFC:1.17]

GN[05/27/2010]
PB[xkm86671]
BR[6k]
PW[craftfish]
WR[5k]
KM[0.5]
DT[2010-05-28]
PC[PANDA NET]
RE[W+Resign]
RU[Japanese]

C[Hagios: Hello, I'll do my best to assist you with your game.  I've done my best to point out main points in this game, and left some general pointers at the end of the review to help you.]
;B[qd];W[dp];B[pq];W[dd];B[fc];W[hc]LB[od:A]C[H: This is normally played when W wants to avoid the mini/micro chinese fuseki.  A is also possible.]
;B[gd]LB[id:A]C[H: I don't know exactly what to do here.  This move separates W, but isn't very effective at making huge pressure.  I'd probably play at A.  B is under more pressure than W.]
;W[oc];B[oe]
(;W[kd]C[This was more or less the result I was hoping for, to help the H17 stone. I don't know if it's a "good" result. Also, I wonder if black has a better response once I tenuki from the connection at G16.

H: The shape here is definitely bad.  There's more pressure on the p17 stone than on the h17 stone, so the short extension should be from that one.  Either way, though, this shape is thin and B can take advantage later.]
;B[hd]C[H: B helps W fix his shape...  A "thank you" move.]
;W[ic];B[qk]
(;W[po]C[H: This is too hasty.  B has a weak group to attack, and W has plenty of space to build.  Jumping in here is a bad idea with this shape.]
(;B[qo]LB[jp:A]C[H: B gives W a chance to fix his mistake.  This is the right direction when B has a stone around A.]
(;W[qn];B[qp]C[I know there's a joseki here, but I didn't know it at the time. I remember that jumping out is important. The only variations I know have me jump along the right side.

H: This position won't be joseki.  The psuedo-joseki you refer to deals with when B has a double-wing extension from his corner.]
;W[nn];B[nq]C[H: This result is clearly bad for W.  B gains territory and W has no compensation.]
;W[qi]LB[qi:B][qn:A]C[Feels a little agressive, but I thought the right side was too big, and a move at P9 for black would be huge.

H: This is a bad idea.  You have 1 weak group at A, and you have created a second weak group now at B.]
;B[pj];W[pi];B[oi];W[oj]C[P12 is maybe better? I couldn't read out, but if I can kill, I could connect my two groups. I don't think it actually works though (and it didn't)]
;B[ok];W[nj]
(;B[oh];W[qg];B[nk];W[mk];B[ml];W[mj];B[nl];W[re];B[rd];W[og]
;B[mh];W[ng];B[mi];W[kj];B[kh];W[mf];B[qe]LB[pn:A];W[rf];B[pc]
;W[ln]
(;B[lm]C[H: This helps W.];W[kn];B[jl];W[ij];B[ih];W[jg];B[jh]
;W[hf];B[ob];W[dc];B[ff];W[gg];B[hi];W[hk];B[rl];W[pl];B[pk]
;W[fk]C[H: W is turning the tables now, B has two weak groups.  However, there's one big problem W's missed...]
(;B[fi]
(;W[fg];B[ef];W[eh];B[ej];W[dg]C[I think up until this move I did a respectable, for a 5k, job of keeping pressure on all of black's groups. But inducing black to seal in my corner is I think when this started to fall apart.

H: B gave you chances, but you took them.  Overall, your play has been a bit over-aggressive.  Remember to gather strength before attacking; otherwise you just lose fast.]
;B[df];W[cg];B[cf];W[be];B[bf];W[bg];B[af];W[eb];B[fb];W[bc]
C[I think I'm alive in the corner. More importantly, I think black is dead, but I did worry that my position around K13 is a little thin.

H: I don't think B can kill W's corner.  I'm not sure B should be able to live with his stones at this point.]
;B[ph];W[pg];B[qh];W[rh];B[ri];W[jp]LB[ik:A]C[H: I'm not sure the purpose of this move.  It doesn't make territory, and I don't feel less uncomfortable about your groups.  A still exists, as well.]
;B[ek];W[gm];B[cn];W[co];B[dn];W[fp];B[cj]C[I still assume that black is dead, so I played passively in the lower right and the center.]
;W[eg];B[ie]
(;W[kf]C[H: This way is too thin.];B[ke];W[le]C[I don't know if this is wrong, but it felt like the only move.

H: The mistake was probably earlier.];B[jd];W[je];B[if];W[ig]
;B[jf]
(;W[id];B[he];W[kg];B[jc]C[This was all one massive mis-read that I never gave up on. I should have just played L17 and made some eye shape in sente.]
;W[jb];B[kc];W[lc];B[kb];W[lb];B[ka];W[ke]C[H: This misses the only chance.  W agreed to a ko with j16.]
;B[ib];W[la];B[ja];W[hb];B[gb];W[ha];B[ga];W[fe]C[I thought this move was sente to cut off F14. I was wrong.]
;B[gf];W[hg];B[md];W[ne];B[ld];W[nd];B[mc];W[nb];B[nc];W[od]
;B[mb];W[pb];B[na];W[qb];B[rb];W[pd];B[qc];W[pe];B[im]C[H: This game looks lost for W, now.]
;W[ho]
(;B[hq];W[jq]C[After failing to kill on the top, I needed this whole area to win...]
;B[er];W[eq];B[fr];W[dr];B[ir];W[jr];B[gr];W[hs];B[io];W[hp]
;B[ip];W[iq];B[hn];W[gn];B[go];W[gp];B[bo];W[bp];B[fo];W[eo]
;B[fn];W[en];B[fm];W[em];B[fl];W[gl];B[el];W[dm];B[fj];W[cm]
;B[lq];W[jm];B[km];W[jn]
(;B[in];W[il]C[This is when I had a fighting chance again.

H: Indeed, a lot of B mistakes, and you did well taking advantage of them.]
;B[jk];W[jj];B[ik];W[hl];B[hj];W[kl]LB[pn:A]C[KGS' score estimator says I'm up by, and I counted myself down by 2. Regardlss, he resigned here.

H: It's hard to count this game, since there is still a working cut in W's shape at A.  What is unquestionable, though, is that you have made the game close again.


This game showed a lot of fighting spirit, which is good.  Overall, you should focus on two points:

1) Try not to be jealous of your opponent's territory.  Especially don't be jealous of your opponent's moyo.  Jumping into a moyo early is the best way to give your opponent an early lead.  I recommend "How Not to Play Go" by Yuan Zhou (available from Slate & Shell) to help with this idea.

2) Focus more on feeling the strength and weakness of stones.  You failed to find some key points in your and your opponent's shape during this game.  I recommend "Shape Up!" by Charles Matthews (available as a download from Gobase) to help with this idea.]
)
(;B[il];W[in];B[hm]C[I lose here..]))
(;B[cq]C[H: If B plays this way...];W[dq];B[bo];W[bp];B[cp]
;W[bq];B[do];W[cr];B[jr]C[H: W doesn't have much in the corner.  B appears to win this game.]
))
(;W[jc]C[H: This looks best.]))
(;W[jf]C[H: this is the most solid defense.];B[je];W[ke];B[kf]
;W[kg];B[lf];W[lg];B[le];W[nd]C[H: This appears to work.]))
(;W[kk];B[kl];W[hh];B[ii];W[gi];B[gj];W[gh];B[hj]C[H: W can't do this because h10 is sente.]
))
(;B[ik];W[hj];B[jj];W[ji];B[jk]C[H: Can't fix both problems.  This is a weakness in this shape, so be careful.]
))
(;B[ll]C[H: Can't reinforce everything...]
(;W[ko];B[kk];W[lj];B[jj])
(;W[kk];B[on];W[oo];B[om];W[no];B[pn]C[H: B's profit is huge and W still is weak.]
)))
(;B[ni]C[H: Ladder is good for B.];W[nk];B[ol];W[pm];B[nl];W[lj]
;B[ml];W[mi];B[mh]LB[mj:A]C[H: The ladder at A is also good for B...]
(;W[lh];B[ph]C[H: This result can't be good for W.  3 groups still aren't 100% alive.  W will almost certainly lose one.]
)
(;W[pg];B[mj];W[mk];B[lk];W[mj];B[kj];W[li];B[lh];W[ki];B[ji]
)))
(;W[pp];B[qp];W[oq]
(;B[qq];W[pn]C[H: Like this, W is better.])
(;B[pn];W[qq];B[pr];W[rq];B[or];W[np];B[nq];W[qn];B[op];W[oo]
;B[no];W[on];B[mp];W[pm]C[H: like this, now the r9 stone is badly placed ("do not approach thickness")]
)
(;B[qn];W[pr];B[qq];W[jp]C[H: This is an optimal shape for W]
)
(;B[or];W[pr];B[qq];W[nr];B[pn];W[np];B[no];W[mo];B[on];W[mn]
;B[op];W[nq]C[H: This result leaves W with wonderful thickness, and leaves B with a poorly placed stone at r9.]
)))
(;B[np];W[qq];B[qr];W[qp];B[rr];W[qm]C[H: this is the optimal way to attack W.]
))
(;W[db];B[gg];W[df]C[H: Even if only playing like this, W makes some cash while B isn't alive.]
))
(;W[hd];B[gf];W[ld]C[H: Perhaps this is a better result.  Difficult to tell.]
))
