(;FF[4]GM[1]SZ[19]ST[2]CA[UTF-8]AP[SGFC:1.17]VW[]

EV[A game played by modem]
PB[Raúl]
BR[10k]
PW[Pedro]
WR[8k]
KM[6.5]
DT[2010-04-24]
PC[Cdad Hab, Cuba]
RE[W+Resign]
RU[Japanese]

C[Greetings to the reviewer. My name is Raul, i´m from Cuba, my english is no good so sorry for any troubles this may cause.
The review is for Black, but if you see any mistakes in white´s move, feel free to comment.

Please if you could tell me if the strength of the players is correct I´ll be more than grateful. Here in Havana the Cuban Go Asociation has no way of tell the real strength of the cuban go players, so they only gives estimates, and I want to know if it´s correct.
Thank You]PL[B]PM[2];B[pc]C[Hola saludos desde Venezuela, te hago la revision en castellano entonces asi nos entendemos mejor.]
;W[dp];B[cd];W[qp];B[ec];W[cj];B[op];W[po]
(;B[lp]LB[kq:B][qq:A]C[B9 was a good answer to W8?

no es el joseki conocido si es lo que preguntas, A y B son las respuestas estudiadas]
;W[pe];B[nd];W[jd];B[qm];W[pj];B[qd];W[qe];B[om]C[Perhaps kosumi to Q8, pressing the Q10 stone, instead of P7?? or may be make life??

Pienso que p7 era la jugada correcta, q8 es una jugada muy corta sobre todo tan temprano en el juego, p7 tambien presiona q10, no puedes hacer vida, no se si conoces la regla del doble salto, necesitarias jugar en r10 para pensar en hacer vida y en este caso eso no funciona]
;W[mc];B[md];W[lc]
(;B[nc]C[B21 feels like an overplay??
I personally think it was necesary

Es una jugada muy rigida, greedy, no quiere decir que sea inferior eso depende del estilo de juego, yo juego agresivo y eso significa jugar ligero a veces, h17 seria mi jugada y considero B21 overplay.]
;W[jq];B[pq];W[qq];B[qr];W[rr];B[pr];W[rn]
(;B[kq]LB[fq:A][gq:B]C[After I review the game i see B29 and B31 too slow and I lost sente.
May be F3 and then jumping to 3-3 instead, or from the other side B6 and then 3-3, any way, white will get a nice wall working consistent with one of the stones K3, C10 depending on the attack but the other will be attackable.

A y B atacaban a k3 y al mismo tiempo sirve como una aproximacion a la esquina, mata 2 pajaros con una piedra,]
;W[jr];B[kr];W[gp]C[W32 secure territory and I just let him to play H16.
After the game i realize white got a big corner];B[hd];W[cp]
C[After this should I go for the C7-D7 invasion?

c7-d7 no seria una invasion, seria una reduccion, es temprano para jugar de esa manera pero blanco tiene un gran moyo en esa esquina, c8 seria mi jugada]
(;B[cg]C[This was slow, i know, and it helps white build more territory]
;W[dm];B[fp]TR[jq][jr]C[Desperate play, was it good?

Si es una jugada desesperada, estas comenzando una pelea en una zona llena de blancos, blancos y moros como dicen uds pero aqui los moros pierden jeje. Despues de que blanco juege f5 no llevas ningun chance de hacer nada.

Quizas si se equivoca y aislas el grupo del medio

Las blancas aqui debieron jugar f5 no f3]
(;W[fq];B[go];W[hp];B[ho];W[fo];B[fn];W[eo];B[ip];W[iq];B[jp]
C[I saved the H3 aji for later on];W[pl];B[pm];W[mj]
(;B[rj]C[This move was to take some of white´s territory, (i was envious of it), but i think my 3 stones are quite heavy and a move at N7, attacking the 3 tones, allow white to enter in my insipient moyo

s7 es una jugada forzada, el grupo de la esquina es muy debil]
;W[rk];B[qk];W[qj];B[rl];W[rm];B[sk];W[ri];B[og]C[This was so wrong, if white just played at R8 the point of B S10 was wasted, Again I was affraid white make some territory there, that´s the point of B59, and also trying to go into the center with that group


r8 es muy complicado, no es bueno para ninguno de los dos es una ruleta,]
(;W[qg];B[pk];W[ok];B[oj];W[oi];B[nj];W[ni];B[nk];W[mk];B[nl]
;W[mg]
(;B[ic]TR[og]C[B71 was out of time right? I should´ve play at O14 to accomplish the point of B P13

Si, o14 conectaba la piedra y al mismo tiempo atacaba amenazando en cortar con q11]
;W[nf];B[jc];W[kd];B[ld];W[kc];B[lf]C[Again trying to get into center, pressing the L16 group, But i realized later that perhaps from the other side J14, could´ve give me more profit, I was building a moyo]
;W[jf];B[ml];W[jk];B[dk];W[ck];B[dl];W[cl];B[en];W[dn];B[gk]
C[was B87 correct, I was aiming on a moyo on top, or a moyo on bottom, wich was more dificult giving the stone at K9

g6 corta y te reduce, debiste jugar para cerrar esta debilidad]
(;W[jm];B[li]C[Here I started a secuence to separate the K7-9 stones and close the moyo, please if you could show some variations of how i should´ve played

l9 era la jugada despues de m11, pero te recuerdo q tienes la brecha en g6 que te va a cortar los grupos]
;W[mi]
(;B[kj];W[kk];B[lk];W[lj];B[ll];W[jj];B[ki];W[ih];B[ji];W[ii]
;B[ij];W[lg];B[jg]C[at this point i realized that it was a waste, so i try to cut the group at L16]
;W[kg];B[ig];W[jh];B[kf];W[if];B[hg];W[ke];B[le];W[id];B[hc]
;W[he];B[ge];W[hf];B[gf];W[jb];B[ib];W[ka];B[mb];W[lb];B[ia]
;W[ja]C[The group couldn´t be killed but it help to build up my moyo]
;B[hh];W[hi];B[gi];W[dh];B[di];W[ci];B[ch];W[dj];B[ei];W[ej]
;B[fi]C[I sacrificed the two stones to secure the top territory and as white is already into the center-bottom moyo, i think it was correct, was it??

Si muy bien, no vaciles en hacer sacrificios, piensa en grande y utiliza tus piedras muertas como aji

Las blancas debieron jugar g6 desde hace rato]
(;W[el]
(;B[hj];W[kh];B[hq];W[gq];B[hr];W[gr];B[ir];W[fm];B[gm];W[in]
;B[io];W[rd];B[rc];W[pd];B[qc];W[nb];B[ob];W[fk]
(;B[gl]C[B155 was not necesary rigth?..

no, era mejor matar la esquina inferior];W[oo];B[no];W[np];B[nq]
;W[nn];B[mo];W[pp];B[oq];W[hn];B[gn];W[fj];B[gj];W[on];B[oe]
;W[of];B[rh];W[qh];B[si];W[rg];B[qi];W[pi];B[re];W[rf];B[sd]
;W[ma];B[qn];W[qo]
(;B[kn]C[B183 is playing dame rigth?
i think other big points such as B11, S1, N6, T7 are more important??

no eso no es dame, aqui si moria la esquina sin ko];W[od];B[oc]
;W[hs];B[js];W[bh];B[bg];W[bi];B[jn];W[im];B[kl];W[jl];B[mn]
;W[km];B[lm];W[ri];B[pf];W[qf];B[qi];W[gg];B[gh];W[ri];B[ep]
;W[eq];B[qi];W[ff];B[fg];W[ri];B[sh];W[sg];B[sj];W[qs];B[ps]
;W[rs];B[sm];W[so];B[sl];W[sq];B[sn]C[was there a way to kill this group??]
;W[ro];B[nm];W[ne];B[is];W[gs];B[fl];W[ag]C[and here was LOSING MOVE, i don´t know what was i thinking, is so simple, B A14, W A12, B B14, and the game is almost over]
;B[em];W[bf];B[cf];W[be]
(;B[bd];W[ce];B[df];W[de];B[ee];W[ef]C[I misread a lot in this final secuence so i resign here.
Again Thank You very much for your comments,
please if could tell me, are the strength of the players correct??
I will appreciate if you could make a resume of my game style

Bueno es dificil saber si es correcto el nivel de los jugadores, las negras tenian el juego ganado de no ser por los errores al final, tuviste la esquina inferior derecha en tanga todo el juego.

Los estilos de juego son agresivo, defensivo, pasivo, orientado a la influencia, greedy y flexible. BLanco es pasivo, mi impresion sobre tu estilo es flexible, jugaste greedy al principio y muchas jugadas eran agresivas y otras orientadas a la influencia. Sin embargo te recomiendo este test que te dice tu estilo si estas interesado, y tambien te orienta un poco sobre que areas prestar atencion.

http://style.baduk.org/

Creo que tienes buena nocion de juego pero debes prestarle atencion al tsumego, leer bien las posiciones y no desesperarte.

Bueno cualquier cosa estoy a la orden, si quieres buscame en KGS mi nick es Sickboy y jugamos una partida, no sabia que en Cuba habia un club de go suerte con eso. Estoy planeando viajar de vacaciones a Cuba quizas el año que viene y aprovechar las ofertas del gobierno para visitar la isla, mantente en contacto quizas aparte de visitar las playas puedo pasarme por su club. Saludos espero mi review te haya sido de ayuda.]
)
(;B[ce];W[bd];B[bc]
(;W[bb];B[ac];W[cc];B[cb];W[dc];B[db];W[dd];B[de];W[ed];B[fd]
;W[ee];B[ef];W[df];B[fe])
(;W[ac];B[bb];W[ab];B[ba];W[af];B[ad];W[ae];B[aa];W[ah];B[ad]
;W[ac];B[oa];W[na])))
(;B[rs];W[sq];B[rp];W[ro];B[sp];W[so];B[sm];W[mn];B[ln];W[lm]
;B[km];W[mm];B[kn]))
(;B[rs];W[sq]
(;B[rp];W[ro];B[sp];W[qn]
(;B[pn];W[pp];B[oo])
(;B[pp]))
(;B[ro];W[rp];B[qn];W[qo];B[so];W[sp];B[sm];W[sn];B[sr];W[ss]
;B[so];W[ro];B[sr];W[oo];B[no])))
(;B[fk];W[ek];B[hj];W[kh];B[in];W[gm]
(;B[fm];W[fl];B[gn];W[gl])
(;B[gn];W[fm];B[hm];W[hl];B[gl];W[im];B[hn];W[il];B[hq];W[gq]
(;B[hs])
(;B[hr];W[gr];B[js];W[hs];B[ir];W[jn];B[io]))))
(;W[gn]))
(;B[kl];W[jl];B[kk];W[kj];B[jj];W[km];B[ll];W[ij];B[ji];W[ki]
;B[ii];W[hj];B[hi];W[gj];B[fh]))
(;W[gn]
(;B[hn];W[gm];B[hm];W[gl];B[fl];W[fm];B[el];W[em];B[hk];W[hl]
)
(;B[gm];W[hn];B[io];W[fm];B[hm];W[in];B[jn];W[im])
(;B[fm];W[gm];B[fl];W[io];B[hn];W[hm];B[in];W[im];B[jn];W[hk]
)))
(;B[nf];W[ic]
(;B[qi];W[pi])
(;B[pi]
(;W[qi];B[ph];W[rd];B[rc];W[pd];B[qc];W[se];B[rf];W[re];B[rg]
)
(;W[ph];B[qi];W[oh]
(;B[pg];W[qh];B[mf])
(;B[hb];W[hc];B[gc];W[gd];B[fc];W[ge];B[ff];W[fe];B[ee];W[ed]
;B[fd];W[ef];B[dd];W[gf];B[fg];W[gg];B[fh])))))
(;W[ql];B[pk];W[ol];B[ok];W[nl];B[nk];W[mk];B[ml];W[nm];B[on]
;W[mm];B[ll]
(;W[oj];B[lm];W[nj];B[rk];W[mn])
(;W[lm];B[km];W[kl];B[lk];W[kk];B[lj];W[kn];B[jm]
(;W[nj];B[ln];W[oj];B[rk];W[mn];B[lo])
(;W[no];B[oo];W[lo];B[nn];W[mn];B[np];W[jn];B[mo];W[ln])))
(;W[pk];B[ql];W[qg];B[mf]))
(;B[rm];W[mm];B[rs];W[rp];B[qn];W[qo];B[sn];W[so];B[sr];W[sm]
;B[rl];W[sq];B[rq];W[sl];B[sk];W[rr];B[sn];W[sm];B[rq];W[oo]
;B[no];W[rr];B[nk];W[ss];B[qh];W[nj];B[ok];W[pk];B[oj];W[oi]
;B[nm];W[pi];B[mk]
(;W[rj];B[ni])
(;W[nh];B[rj];W[lj];B[lk];W[jk];B[jj];W[kj];B[kk];W[ij];B[ji]
;W[ik];B[jh];W[ii];B[jg];W[ih];B[jf];W[ig];B[lf];W[ke];B[kf]
;W[le];B[if];W[hf];B[ie])))
(;W[fo];B[gq]
(;W[fq];B[hp];W[go];B[hq];W[jp];B[ho];W[hn];B[io];W[jo];B[in]
;W[jn];B[jm];W[hm];B[im])
(;W[hq]
(;B[hp];W[go];B[iq];W[hr]
(;B[ir])
(;B[ip];W[ir];B[gr];W[jp];B[io];W[jo];B[in];W[jn];B[im];W[fq]
;B[fr];W[eq];B[er];W[dr]))
(;B[go];W[hp];B[eo];W[fn];B[ep];W[fm];B[dq];W[cq];B[do];W[co]
;B[dn];W[cn];B[er];W[gr];B[fq];W[cr]))))
(;B[cl];W[cg];B[ek]))
(;B[fq];W[lr];B[kr];W[kq];B[mr];W[lq];B[mq];W[hq];B[fo];W[dn]
;B[fm]))
(;B[hc];W[nc];B[od];W[pd];B[oc];W[qc];B[qb];W[rd];B[ld]))
(;B[kq];W[oo];B[np];W[pq])
(;B[qq]
(;W[rq];B[pq];W[ro];B[lq])
(;W[pq];B[pp];W[qr];B[qo];W[rq];B[rp];W[qq];B[pn])))
