(;FF[4]GM[1]SZ[19]ST[2]CA[UTF-8]AP[SGFC:1.17]

PB[Christian]
BR[12k]
HA[4]
PW[Unknown]
WR[8k]
KM[0.5]
DT[2010-05-19]
PC[The KGS Go Server at http://www.gokgs.com/]
RE[W+34.5]
RU[Japanese]

AB[dd][pd][dp][pp]C[Dear reviewer,

for a long time now I'm swaying to and fro from 14k to 12k. I feel hanging around without coming forward.
So I ask for your advice to get new aspects of developing my playing go.

This ist the kifu of a game, played during the tournament Bambus at Basel, Switzerland, on 2010-05-16.
I played Black as a 12k against White 8k with a handicap of 4 stones, 60 min. time, from which I needed about 50 min..

Hi,

My name is John (FL, USA) and I'm around 5k.  My comments will appear after "JFR:"

Remember that I am 5k and I do not see everything.  I will try to concentrate on concepts and go theory.

My main comment would be to put more pressure on white.  In your game your stones would become over-concentrated and white would be able to make dual purpose moves that connected areas more efficiently than yours.

Let me know if you have any questions and keep playing!

Best Wishes, John  

I didn't comment on everything but tried to touch on main points over minor ones.]
;W[cn]
(;B[fp]C[to get influence to the middle and have contact to the edge]
;W[bp]
(;B[cq]LB[pd:1][cn:2][bp:4][fp:3][cq:5];W[qn]TR[ck][cl]C[JFR:  be aware of w weakness on left and put pressure on w before w can make an overplay that connects everything]
(;B[np];W[rp];B[qq]TR[ck][qk][cl][ql][iq][jq][kq][lq]C[i'm not happy about this consecution - to symmetric, I think

JFR:  There are a few things going on.  W is making some overplays by not making shape (at the square marks).   Bottom is open for an invasion.  This is a case where you will have to play an extra stone to close off an area.  

Since you have the handi stones you are in a better place, but this sort of play is not good in even games.]
(;W[cf]
(;B[fc];W[bd];B[cc];W[dj]TR[ch][dh][cl][dl]C[JFR:  This looks good for w (it is too nice to let w connect the whole left side) but b can put pressure on the right side 

When you are playing handi do not fear of white's strength

esp in the start of game: put pressure on w

Also, at the end of game w had a huge left side.  Be aware of weak points and don't wait too long to probe, push and take sente to strengthen b and rein w in]
(;B[jq];W[nc]
(;B[lc]C[JFR:  In this case I would say that the right side needs more b stones to make shape]
;W[qf]C[JFR:  w wants the right side like they got the left side.  soon 4 stone handi will be mostly gone]
(;B[oe]C[JFR:  you could also try an attachment];W[qc];B[pc]
;W[qd]TR[pg][pj]C[JFR:  b can push on the right side]
(;B[ne]C[JFR:  wrong direction.  Gives w too much on the right side]
;W[jc]TR[nc]C[JFR:  white used aji here]
(;B[hc]C[JFR: this move is too small];W[je]
(;B[he];W[nn]
(;B[pj]TR[nn][qn]C[JFR: good but would be nice to play before w O6]
;W[pk];B[om]TR[pj]C[JFR: you want to stay connected.  Q10 stone needs support]
;W[on];B[pm];W[pn];B[ok];W[qk];B[nm];W[qm]
(;B[qh]C[think this was no good]
(;W[ch]C[Christian: this was forward-looking];B[og];W[oj];B[nj]
;W[oi];B[mk];W[ph]
(;B[ni];W[pg];B[oh];W[pi];B[nk]C[i got influence to the middle, but I couldn't develop it

JFR:   Right side is huge after w cutting b off.];W[cl]
(;B[kg]C[i think it ist to far away to the different possibilities of making territory]
;W[jg];B[kh];W[gf];B[ef];W[fg];B[hg];W[hf];B[ge];W[eg];B[ff]
;W[hh]
(;B[jh];W[ih];B[mn];W[hq]
(;B[gq];W[hp];B[in];W[hn];B[io];W[ho];B[co];W[dn];B[bo];W[bn]
(;B[ap]C[my opponent said, this wouldn't have been necessary

JFR:  well there are bigger moves on the board now, but for endgame you would have to play on the first line to stop the connection]
;W[do];B[bq];W[im];B[jm];W[il];B[jl];W[ik];B[jk];W[fo]TR[bc]
[rq]C[I felt in gote for a very long tim, and i didn't see a way to get in sente

JFR:  You have bigger sente points in the corners (as marked)

Also, the sequence shown in the var is still avail

Sente moves around H2 also]
(;B[eo];W[en];B[ep];W[gp];B[gr];W[rq];B[rr];W[pb];B[ob];W[qb]
;B[le];W[bc];B[bb];W[ab];B[ba];W[jp];B[ip];W[iq];B[jo];W[jr]
;B[kq];W[hm];B[kr];W[sr];B[rs];W[qp];B[pr];W[ib];B[hb];W[jj]
;B[kj];W[ji];B[ki];W[cd];B[db];W[de];B[ed];W[kb];B[lb];W[kf]
;B[lf]C[the difference is about 30 pt. White won with 34 pt.
How can I improve ?

Thank you for your advice.

Sincerely yours

christian])
(;B[if]
(;W[gg];B[jf])
(;W[jf];B[ig];W[ie];B[gg];W[gh])))
(;B[tt];W[ao];B[bq];W[do];B[cp]))
(;B[hp]C[JFR:  try a cap]))
(;B[if]C[JFR:  This is very big]
(;W[gg];B[jf])
(;W[jf]
(;B[gg])
(;B[ig]))))
(;B[jf]C[JFR:  maybe a little more direct

b is strong here, put more pressure on w]))
(;B[pg]
(;W[pi];B[qg]C[JFR: connected])
(;W[qg];B[pi];W[oh];B[nh])))
(;W[oj])
(;W[pg]))
(;B[oh]C[JFR: better shape])
(;B[oi]))
(;B[ol])
(;B[qo])
(;B[pn];W[pm];B[om];W[po];B[on];W[oo]
(;B[qo])
(;B[no]))
(;B[qj])
(;B[qh]C[JFR: this is sente against the corner]
(;W[pg]
(;B[qk])
(;B[ph]))
(;W[nl]C[random white mvoe];B[re]
(;W[rf];B[qe])
(;W[qe];B[rf]))
(;W[pb];B[ob];W[qb];B[pl])))
(;B[id];W[jd];B[if])
(;B[eg]))
(;B[eg]
(;W[je])
(;W[ch];B[ke])))
(;B[pg];W[qg];B[ph];W[qh]
(;B[pi];W[qi];B[pk])
(;B[pj]))
(;B[ph]))
(;B[pf])
(;B[nd]))
(;B[qj]C[JFR:  extesion and pincer]))
(;B[qj]C[JFR:  maybe this way to put pressure on w];W[ql];B[oj]
C[JFR: w is small there]))
(;B[ch]TR[cn][bp]C[JFR:  A pincer looks good here.  w is still weak in the bottom and we do not want to let w play one move to connects the left side (a "free" move).

This b pincer has sequences that lead to a black wall]
(;W[cc]C[JFR:  this is one joseki path that would be good for b]
;B[cd];W[dc];B[ed];W[bd];B[be];W[bc];B[ce]
(;W[fc];B[ck]C[JFR:  w needs a base on the bottom now and you may be able to make points in sente pushing on w while w makes life]
)
(;W[ck]C[JFR:  if white makes shape here then w is in trouble at the top.]
;B[ec];W[eb];B[fb]))
(;W[ck];B[df])))
(;W[jq];B[hq];W[mr];B[om]C[JFR:  If w tries to invade b can use this chance to attack the side but this could be a problem for the bottom right]
))
(;B[pn]C[JFR: this is possible];W[pm];B[on];W[qo]C[JFR:  b has an advantage so playing even moves (joseki) may make it even better for b]
;B[qp]
(;W[ql];B[np])
(;W[qk];B[om];W[pl];B[nq])))
(;B[dm]C[JFR:  You can build a wall];W[cq];B[dq];W[cm];B[dl]
;W[dn];B[en]C[JFR:  This is something I just made up:  a possible way to make a wall and use your handi cap stones for influence]
))
(;B[fq]SQ[dp][pp]C[JFR:  Because you started out with 4 stones (4-4 star hoshi points which already concentrate on influence) I would play the mirror knights move which alternates 3rd and 4th line play.  You move was playable but I believe it to be more advanced and risky.  I would try this type of play (if you are going to mirror and not pincer) to advance.]
;W[bp]
(;B[cq];W[ck]C[JFR:  b is good])
(;B[cl]C[JFR:  Extension and pincer.  W has no base yet.  This can be very good for b]
))
(;B[co];W[dn];B[fp];W[ck];B[ci];W[ek]C[JFR:  This sequence puts a lot of pressure on w.

Applying the right amount of pressure early on is important in handi games because that is when you have the advantage.  

In this case, with 4 stones, you can squeeze white and make w live small and strengthen around.]
))
