(;FF[4]GM[1]SZ[19]ST[2]CA[UTF-8]AP[SGFC:1.17]

PB[dedroid]
BR[2k]
PW[s19is73]
WR[1k]
KM[0.5]
DT[2010-07-28]
PC[The KGS Go Server at http://www.gokgs.com/]
RE[B+0.5]
TM[1200]
OT[5x30 byo-yomi]
RU[Japanese]

C[Hello reviewer, thank you for your time and effort in looking over this game.
  I held black, and without a doubt, made many mistakes.
thanks again for looking over this game.

arlequ1: hi dedroid
Have a nice read with those comments. Hope you enjoy :)
 
summary:
- You both made joseki mistakes but it lead to interesting variations. This way the opening evened up :)
- You took back the lead with better fighting skills, but lost it against due to misreading.
- Your ideas were good, but need to be backed up by more reading.

-> your fighting skills seems ok but you need to improve your reading.
-> take great care of bad habits like thank-you-move (often sente moves).
     "sente is bad": no sente is a good thing, but when you exchange 2moves, you have to be sure that your opponent don't get more than you do :)

That's all, keep having fun playing go !

Arlequ1];B[pd];W[qp];B[dd];W[dp]
(;B[oq];W[lp]TR[dp][qp]C[arlequ1: the pincer is severe and works well with the opposite starpoint, therefore... (see previous variation)]
;B[po]
(;W[pp];B[op];W[oo]
(;B[qo]C[arlequ1: I am not familiar with this variation but I think it is not joseki. Let's find why :)]
;W[ro]
(;B[rp]C[arlequ1: I guess only move (see variation)];W[rq]
(;B[sp]C[arlequ1: this is maybe overplay...]
(;W[sq]C[arlequ1: this was white mistake (see variations). White got tricked by T4 and put into a bad shape.]
;B[qq];W[so];B[rp];W[sp];B[pq];W[rp]C[arlequ1: white shape is uggly :s]
(;B[on]C[arlequ1: This is a thank-you-move.];W[no]LB[on:A][no:B]
C[arlequ1: the exchange A for B is good for white. Atari is bad (see variation)]
;B[rn];W[qn];B[pn];W[qm];B[nn]LB[rm:B][mo:A]C[arlequ1: miai so white is in trouble.]
;W[qr];B[mo];W[np];B[mp];W[rm]C[== i'm not familiar with the joseki, so i went with this and the result seems good for black, but i feel white could do better.  i got the better result because he made a mistake, so it probably makes sense if white could do better

arlequ1: Yes this is definitely good for black.];B[cn];W[lq]
;B[nq];W[dk];B[fp]
(;W[eo]
(;B[cq];W[cp];B[dq]C[== i wanted this result so that i could attack his m4 stones

arlequ1: see variation];W[hq]C[== but he got here faster than me

arlequ1: of course, this is urgent :)];B[ep];W[do]
(;B[fo]C[arlequ1: this move was unnecessary, as white had no way to connect.]
;W[dm];B[em];W[dn];B[jq]LB[jo:B][fr:A]C[== this was a misread

arlequ1: white is actually hard to attack. black can play A in sente to take territory or play anywhere around B to gain power in teh center. So it is better for black to live it as it is for now.]
;W[jp];B[ip];W[iq];B[kp];W[jo];B[ko];W[kq];B[jr];W[kr]C[arlequ1:  ouch, now your thickness is completely useless so you lost your opening advantage :(]
;B[ci];W[fr];B[gq];W[gr];B[eq];W[el];B[hp];W[ir];B[bp];W[bo]
;B[bq];W[co];B[qg]TR[jc][jd]C[== maybe should be on the top side around the triangles

arlequ1: yes probably, r7 is low and black strong at p6 so maybe not so much potential on the right side.]
;W[cf];B[fd];W[dh];B[di]C[== hane seems better for white, he's stronger than me]
(;W[fh];B[ei];W[eh];B[fi];W[hh];B[gi];W[hf];B[ff]
(;W[fg];B[ef];W[hd];B[ce];W[df];B[bk];W[bl];B[ck];W[cl];B[ch]
;W[cg]TR[cf][df][fg][eh][fh]C[arlequ1: white shape is so unefficient, black have to be happy]
;B[gl];W[fm];B[gm];W[fn];B[be];W[bh];B[bi];W[bg];B[kc];W[nc]
;B[oc];W[nd];B[le];W[nf];B[oe];W[ne];B[lg];W[nh];B[li];W[ij]
;B[hi];W[ii];B[ih];W[hg];B[jh]C[== i felt like this was a good exchange for black

arlequ1: indeed white is cut in 2 pieces, none of which is alive ^^ (o17 not alive either)
now black have a won game, thanks to better fighting skills.]
;W[fc];B[ec];W[fb];B[gd];W[jd];B[jc];W[ic];B[kd]TR[eb]C[== i think white might be able to try e18 or something like that from here]
;W[gc];B[eb];W[hb];B[nj];W[ph];B[pg];W[ni];B[oj];W[pi];B[pj]
;W[qj];B[qk];W[ri];B[qh];W[qi]
(;B[jn];W[io];B[in];W[ho];B[go];W[gp]C[== maybe take sente here to fix the corner

arlequ1: yes, but again cut at s9 is better then fixing the corner :)]
(;B[lo];W[qc]
(;B[ob];W[re]
(;B[rf];W[qe]LB[qe:B][rf:A]C[== i'm not sure how i should have handled the upper right

arlequ1: again a thank you move, you help white cutting your group, also it is a very bad shape for black
This corner make this won game become a lost game :(
White took back the lead thanks to reading skills this time :)

See the first node for a summary.

~ end of the commentary ~];B[og];W[of];B[ng];W[mg];B[mf];W[mh]
;B[pe];W[pf];B[qf];W[nb];B[rc];W[qd];B[qb];W[pc];B[pb];W[od]
;B[lh];W[rk]C[== i think white should have killed the corner here]
;B[ra];W[mj];B[mi];W[ol];B[nl];W[pk];B[nk];W[hm];B[hn];W[gn]
;B[fl];W[en];B[hp];W[js];B[er];W[ap];B[aq];W[rd];B[sb];W[ea]
;B[da];W[fa];B[db];W[es];B[ds];W[fs];B[cr];W[mr];B[pl];W[ql]
;B[pm];W[pr];B[or];W[af];B[ae];W[de];B[ee];W[je];B[ge];W[kf]
;B[lf];W[kg];B[ji];W[fk];B[gk];W[fj];B[gj];W[lb];B[he];W[ie]
;B[ig];W[if];B[ps];W[rs];B[oi];W[oh];B[jb];W[ib];B[dj];W[ek]
;B[ao];W[bn]C[== i think white should a6 instead];B[lc];W[mc]
;B[na];W[ma];B[oa];W[ka];B[ja];W[kb];B[ia];W[ha];B[ok];W[kh]
;B[ki];W[sd];B[sc];W[ak];B[aj];W[al];B[ke];W[jf];B[ns];W[ms]
;B[os];W[qs];B[gp];W[ip];B[an];W[am];B[ap];W[ah];B[ai];W[bf]
;B[eg];W[dg];B[qk];W[cd];B[bd];W[pk];B[gh];W[gg];B[qk];W[kn]
;B[il];W[pk]C[== i don't think i have enough ko threats to win this ko]
;B[me];W[md];B[qk];W[im];B[jm];W[pk];B[tt];W[qk];B[tt];W[tt]
TW[ga][la][gb][mb][hc][id][pd][oe][pe][se][qf][rf][sf][ag][ng]
[og][pg][qg][rg][sg][qh][rh][sh][si][rj][sj][sk][dl][rl][sl]
[bm][cm][em][sm][cn][rn][sn][jq][hr][jr][lr][rr][sr][gs][hs]
[is][ks][ls][ss]TB[aa][ba][ca][pa][qa][sa][ab][bb][cb][rb][ac]
[bc][cc][dc][ad][cd][ed][fe][ii][bj][cj][hj][ij][jj][kj][lj]
[mj][hk][ik][jk][kk][lk][mk][hl][jl][kl][ll][ml][ol][hm][im]
[km][lm][mm][nm][om][kn][ln][mn][no][oo][np][ar][br][dr][as]
[bs][cs])
(;B[nb]LB[rk:A]C[arlequ1: this way - but it would be much better with a black stone at A (see variation to move 144)]
))
(;B[pc]LB[rk:A]C[arlequ1: this move is another idea but since white can anytime connect at A, black can neither kill the outside group nor the corner, and will probably die.]
;W[rd];B[qd];W[rb];B[qb];W[rc];B[pa];W[rf]))
(;B[rk]))
(;B[rk]C[arlequ1: white shape is so unefficient, black have to be happyblack should have cut here, white group is now dead, and if white invade the corner, black can let white live inside to connect on the outside]
;W[qc];B[pc]C[arlequ1: now this is the strongest reply from black, this time white outside group is dead.]
))
(;W[gh]))
(;W[ei]C[arlequ1: yes]))
(;B[bp]C[arlequ1: black is probably better taking the corner that white abandonnned to play h3.]
(;W[bo];B[bq];W[dm]LB[fo:A][fr:B]C[arlequ1: now black wont play A but B if he wants to attack the white group, taking territory at the same time.]
;B[fr])
(;W[fo]TR[gp]C[arlequ1: white wont play here himself, as black would have the perfect answer at G4 :)]
)))
(;B[fo]LB[en:A][iq:B]C[arlequ1: what about this move ? A and B becomes miai.
if white extend at B, black play at A which would be an awfull result for white (enclosed + broken + bad shape + e5 meaningless)
therefore, white has to extend at A and black can switch to attacking the white stones at m4. Note that c6 is far from being dead and still has a lot of potential.

Actually (see variation) f5 is a the point where white should have played. As the proverb says: "your vital point is my vital point".]
))
(;W[dn]
(;B[dm];W[en];B[co];W[ep];B[bq];W[em];B[iq]LB[dm:2][em:7][dn:1]
[en:3][co:4][ep:5][bq:6]C[arlequ1: up to seven is a common joseki, but after black plays around j4, he has the advantage in the fight.]
)
(;B[cq]C[this variation is not good here];W[co];B[dq]LB[cm:A]
[iq:B]C[if white A then black is very happy with B but...];W[hq]
C[...white will again play the urgent point at h3 :), and this result is even better than the game, because white has better shape.]
))
(;W[fo]C[f5 is a better choice for white here]
(;B[go];W[eo];B[cq];W[gp];B[cp];W[hp]C[ok for white])
(;B[cq];W[cp];B[dq];W[ep];B[eq];W[en];B[gp];W[iq]C[again ok for white (better shape then in the game)]
)))
(;B[pm]C[arlequ1: correct shape];W[no]LB[pm:A][on:B]C[arlequ1: the stone at A is better than at B]
;B[qm]C[arlequ1: black now has solid shape, and white corner is in big trouble without eye shape.]
;W[qr];B[pr];W[rr];B[lr]C[arlequ1: white actually seems to be dead]
))
(;W[pr]C[arlequ1: white can answer here instead];B[rn];W[or]
C[arlequ1: p4 group is in trouble, so this result seems ok for white.]
))
(;B[qq]C[arlequ1: I guess black can only play r3];W[sp];B[pq]
;W[rp];B[pm];W[no];B[qm];W[qr];B[pr];W[rr];B[lr];W[kr]C[arlequ1: black will struggle to survive while making white strong on the outside. White is ok]
))
(;B[rn];W[rp];B[qm];W[pq]C[arlequ1: now that white is alive in the corner, p4 group becomes a burden.]
))
(;B[mp];W[on];B[mo];W[qm];B[lq]C[arlequ1: This is the usual joseki. White takes sente but black is settled. Next white probably invade the upper edge at o17 for instance.]
))
(;W[qo];B[pn];W[qm]C[arlequ1: I would have prefered this variation as white because d4 is very useful in the fight, while q16 potential is reduced by r7.]
))
(;B[op]TR[dp]C[arlequ1: As black I prefer the high approach, because there is no severe pincer.]
;W[lp];B[pm]C[arlequ1: some usual continuation]))
