(;FF[4]GM[1]SZ[19]ST[2]CA[UTF-8]AP[SGFC:1.17]

PB[yt]
BR[6k]
HA[2]
PW[kachusha]
WR[4k]
KM[0.5]
DT[2010-08-11]
PC[The KGS Go Server at http://www.gokgs.com/]
RE[W+6.5]
TM[1800]
OT[5x60 byo-yomi]
RU[Japanese]

AB[pd][dp];W[pp]C[Dear Reviewer:

I feel I have played a bit too slowly and a bit too clumsily in quite a few part of this game. I would appreciate any comments that addresses that. Also, if this is not too much trouble, could you go particularly over direction and timing of play, and invasion?

Thank you very much in advance.

-yt

I'll try my best :-)];B[dd];W[nc]C[I think the white move here on the other side is due to the handicaps. I think I should have played around M17, M16 to increase the efficiency of my stones, but I am not comfortable with fighting this early.

Is this a mistake? What should black due to take advantage?

While your answer is a kind of "can't be bad' move (which means well played!) M17 is also a good idea. see var

My feeling about M16 here is, that you shouldn't try anything complicated whithout resaon and especially not in a handicap game (R14 and M17 are both quite easy to understand)]
(;B[qf];W[qh]
(;B[pb]C[good move!];W[ne];B[kd]C[good move!];W[hc];B[fc];W[he]
C[What's the best way for black to handle this?
 P14 or not so nice L14 directly

Your situation is qutie comfortabe since b is alive or allmost (on both sides)
The idea should be to make w 2 weak groups, which sees possible]
(;B[md];W[nd];B[lf];W[ng];B[lb]C[this is a slow move (does what you wanted to do), but i wouldn't even think about this move

2-line is good in endgames, tesujis, (or sometimes in josekis)

... but in the end you got what you want. Your plan was to get you group alive. Went  ok]
;W[nb];B[ib];W[ic]
(;B[hb]C[ok (in the sense of your plan)

K18 also ok for your plan];W[gb];B[gc]
(;W[jb]C[I was expecting this move at F18.];B[fb]
(;W[jc]C[I felt this was a mistake. It doesn't seem to leave white with eye shapes. Was my expectation right?

yes, K16 is better for w];B[mf];W[nf];B[kb]
(;W[ja];B[ie];W[hd]
(;B[cj]C[I felt the white group is weak, and my black group is strong enough to live or escape. So, I am planning to chase the white middle group down. Before that I want to prepare the ground work a bit. If I coule, I would also like to put pressure on the white group on the upper right.

Your thoughs are very good, but the the move is too soon
see var];W[hf]
(;B[jf]C[Is this a mistake in the overall game? I think this is a good local move, but slow overall.

your plan seems still to hunt w, which is not possible anymore, so better jump to M12

even more C10 is now too far away];W[df];B[cf];W[cg]LB[ce:a]
C[Should I have fought harder here?

A ist the correct move, it's sente];B[de];W[dg];B[bf];W[bg]
;B[ff]C[this is an overplay (and from the wrong side/ direction, because the middle group is in danger not the corner]
;W[fg];B[gg];W[gf];B[fh];W[eg];B[gh]SQ[gg][fh]C[I chose to build strength here with the square stones for later fight.

But this looks more like another weak group];W[fe];B[ei]C[Create a bit of moyo, also limit the white wall. It's not a live strictly, but it has many liberties. I don't think I can kill white, but I want to be able to profit while white tries to live.


Main problem here is, that w is not sealed in. So for me w is more hunting the middle group than the other way round. Still this move is quite necessesary only showing that the F14 cut was an overplay)]
;W[ig]C[the only move];B[kh];W[ii];B[jh];W[ih];B[kj];W[ik]C[now the left side is not much of a moyo]
;B[ph]LB[ni:A]C[My group in the upper middle is pretty much alive. At some point i want to play around A. But, I think it's still premature, since it could connect to the right and live on the side. So, I want to give white a bit of a hard time.

So again your overestimating a bit the strength of your groups, but perhaps playable]
;W[pg];B[qg];W[pf]
(;B[rh]C[this is the first kind of mistake, better R15; w has later to add another move to caputre Q12]
;W[qi]
(;B[ri]C[why crawling on the 2-line?];W[qc]
(;B[pc]LB[qd:a]C[mistake
A is correct
see var];W[qe]C[this is now the key point]
(;B[qd]C[This was a huge mistake. I was expecting Q15, and I would S15. Afte my expectation was confounded, I play way to softly and passively.]
;W[re]LB[qj:a]
(;B[rf];W[sf];B[rg];W[pe];B[rc];W[qj]
(;B[jq]C[My corner was alive, I went after another big point to make up my loses.]
;W[im]C[this is not neccessary]
(;B[gq]LB[kl:a][mi:b]C[Profit while preparing to meet white.

this is wrong direction, because the issue is on the weak group
A and B are more like it];W[kl];B[mi];W[qm];B[mq];W[cn]
(;B[bp]C[I was aiming for C8, while capturing corner.];W[en]
;B[bm];W[bn];B[dm];W[dn];B[cm];W[em];B[el]C[I decided to live with my group.]
;W[fl];B[fk];W[gk];B[bh]LB[ek:a]C[A is the keypoint, don't  miss to defend a double atari in fighting]
(;W[ag];B[gl];W[fm];B[gj];W[hk];B[ek];W[cc]C[I wasn't sure how to handle this move. I feel it was an over play. But since white also have A13. I felt very cautious.]
(;B[bd];W[cd];B[ce];W[dc];B[ed];W[bc]
(;B[db];W[ec];B[fd];W[eb];B[ea];W[cb];B[da];W[ad];B[ae]
(;W[be];B[af];W[ca];B[fa];W[ha];B[ga]
(;W[ia]C[I feel this move was too greedy, and he was expecting me to fill in.]
;B[ab]
(;W[bb];B[aa];W[ee];B[bd];W[eq]C[I didn't respond to this ko threat was that I felt the upper left corner was now much bigger. I didn't have many effective ko threat to respond. I also think the invasion was timely. He would have gotten the corner, or a large reduction either way I played, so ended the ko.

yes right :-)]
(;B[ac];W[ep]LB[dq:a]C[I tried to read to see if i could have lived. But, I paniced and gave up the corner group too soon.

Yes A is correct, lives unconditionally]
(;B[er]
(;W[dr];B[fr];W[dq]C[Now I think my corner is really dead, and started playing else where.]
;B[qq];W[qp];B[pq];W[op]LB[oq:a]C[A is correct]
(;B[rp];W[ro]
(;B[rq];W[oq]C[this is bitter for b, should have connected]
;B[or];W[nr];B[ps];W[nq];B[gd]C[can't understand that move. nothing happens if w tenuki]
(;W[ge]C[big w mistake];B[if];W[hg];B[ml]C[I think I should have handled my lower group first. I played this trying to reduce white, since I knew my bottome group will live one way or another.

allright];W[ol];B[mo];W[mr]
(;B[lr]C[I misread a bit here.

indeed];W[lq];B[mp];W[kr];B[lp];W[kq];B[kp];W[jr];B[iq];W[ir]
;B[hr]
(;W[jo]LB[jp:a]C[this was too easy for b
correct is A];B[jp];W[io];B[fo];W[eo];B[hn];W[hm];B[ho];W[oi]
;B[on];W[pn];B[oo];W[po];B[lm];W[km];B[kn];W[om];B[nm];W[nl]
;B[no];W[mk]
(;B[lk];W[ll];B[mm];W[nk];B[mj];W[jn];B[ko];W[sp];B[sq];W[rs]
;B[rr];W[pr];B[qr];W[ns]
(;B[os]C[I think I played too passively here, and missed a chance.]
;W[so];B[nh];W[oh];B[mg];W[ni];B[mh];W[hi];B[gn];W[gm];B[ds]
;W[cs];B[es];W[cr];B[an];W[ao];B[am];W[bo];B[sd];W[se];B[rd]
;W[di];B[dj];W[ci];B[bi];W[gi];B[fi];W[fj];B[ej];W[ah];B[bj]
;W[ai];B[aj];W[ef];B[jd];W[me];B[le];W[mc];B[ld];W[kk];B[lj]
;W[oa];B[pa];W[od];B[ob];W[na];B[nj];W[oj]
(;B[jj];W[ji];B[jk];W[jl];B[ki];W[jg];B[kg];W[fp];B[gp];W[ip]
;B[hp];W[in];B[gb];W[hs];B[gs];W[is];B[fn];W[oc];B[id];W[rb]
;B[qb];W[hj];B[fj];W[ch];B[eh];W[hh];B[mb];W[dh];B[ma];W[ka]
;B[la];W[cl];B[ck];W[tt];B[tt]TW[oe][ff][of][qf][rf][og][qg]
[rg][sg][ph][rh][sh][pi][ri][si][pj][rj][sj][ok][pk][qk][rk]
[sk][gl][hl][il][pl][ql][rl][sl][jm][pm][rm][sm][qn][rn][sn]
[co][do][qo][ap][bp][cp][dp][aq][bq][cq][ar][br][lr][as][bs]
[js][ks][ls][ms]TB[ba][ca][qa][ra][sa][bb][cb][eb][rb][sb][bc]
[cc][dc][ec][qc][sc][ad][cd][be][je][ke][kf][lg][lh][li][ak]
[bk][dk][al][bl][cl][dl][ln][mn][nn][go][lo][hq][gr][pr][sr]
[fs][qs][rs][ss]C[Some generell remarks:

1) a wide range of senseful moves following your plan (very good)
2) good calculation about what will or can happen
3) try more to connect your groups (just count your 6 alive groups against 2 w groups) and let this be more part of your plans
4) as a lot of players sometimes your focus is too much on attacking, when you have own weak groups (best is to have 0 or maximum 1 weak group)
5) quite often in this game you got your plan working, without getting any advance; therefore you have to rethink about your plans (that's not easy and more or less every amateurs problem)

Nice game to review (even I got not really so much time for analysing), I hope I could help a bit.
If any questions, feel free to ask (my account on KGS is pet, you can also leave a message there).

Best wishes,
Peter Schwartzkopff])
(;B[ji];W[jj]))
(;B[so]
(;W[sn];B[rn];W[sp];B[se]
(;W[so];B[sd])
(;W[sd];B[so]
(;W[rm];B[sm];W[sl];B[qo];W[sn];B[os];W[qn];B[ro])
(;W[os];B[sm];W[rm];B[rl];W[qn];B[sn];W[rj];B[ss];W[sr];B[qs]
)))
(;W[os];B[ss]
(;W[sr];B[qs];W[pr];B[ss];W[sn];B[rn];W[sp];B[se])
(;W[pr];B[qs]C[yes this is sente])))
(;B[tt];W[os];B[ss];W[sr];B[qs];W[pr]))
(;B[ll];W[lk]))
(;W[jp]
(;B[jo];W[ip];B[hq];W[io];B[gs];W[es]C[b dies])
(;B[ip];W[jo]
(;B[kn];W[io];B[ho];W[hp];B[hq];W[gp]C[b dies])
(;B[io];W[jn];B[go];W[mk]C[b dies on the other side]))))
(;B[lq];W[lr];B[kr]))
(;W[nk]C[this is a game over move]))
(;B[oq];W[rq];B[rr];W[sp]))
(;B[nq];W[rq];B[rr];W[rp])
(;B[oq];W[np];B[mp];W[mo];B[rq];W[rp];B[lo];W[mn];B[nk]C[something like this]
))
(;W[fr];B[dr];W[dq];B[cq]))
(;B[dr]
(;W[cq];B[dq];W[cp];B[cr];W[bq]
(;B[br])
(;B[er];W[fr]))
(;W[er];B[br];W[dq];B[cq];W[ds];B[cr];W[do];B[cp])
(;W[dq];B[er]
(;W[cr];B[cq];W[br];B[bq];W[fr];B[fq];W[gr])
(;W[fr];B[fq];W[gr];B[hr];W[cr];B[es];W[cs];B[fs];W[ds];B[gs]
)))
(;B[dq];W[bq];B[br];W[cq];B[cp];W[cr];B[dr];W[bs];B[ar];W[er]
;B[es]
(;W[fr])
(;W[fs];B[ds];W[gr];B[pr])))
(;B[ep];W[be];B[ac];W[ba];B[ab];W[cq];B[cp]
(;W[dq];B[fq];W[bq];B[er];W[dr];B[ar];W[aq];B[bs];W[cs]
(;B[br];W[ap];B[ao])
(;B[ap];W[br];B[fo]))
(;W[bq];B[aq];W[fq];B[fp];W[gr];B[dq];W[dr];B[fr];W[er];B[br]
;W[cr];B[hr];W[fs];B[hp])))
(;W[aa];B[ba];W[bb];B[aa];W[ac];B[aa];W[ee];B[ba];W[gd];B[bd]
;W[ab];B[aa];W[gb];B[hb];W[be]C[I think white could have fought on better.]
))
(;W[ab]
(;B[bd];W[ba]
(;B[ac]C[I think this is what white should have done. My opponent was also greedy, and didn't read out the sequence.]
)
(;B[ia]))
(;B[ba];W[bd])))
(;W[ca];B[fa];W[be]
(;B[af];W[bd];B[ab]
(;W[ha];B[ga];W[ia];B[ba])
(;W[ba];B[bb];W[ha];B[ga];W[ia];B[ac];W[aa];B[ab]))
(;B[rj];W[qk];B[bd];W[ac];B[bb];W[be];B[rk];W[rl];B[bd])))
(;B[ac];W[ab];B[ad];W[ba]))
(;B[dc]
(;W[db];B[bd];W[bc];B[eb]
(;W[ad];B[ae];W[cd];B[ac];W[be];B[ce];W[af];B[bb])
(;W[bb];B[da];W[ca];B[ea];W[ac];B[aa]
(;W[ae];B[be])
(;W[cd];B[ce];W[ae];B[be])))
(;W[cd];B[ce];W[db];B[bd];W[bc];B[eb];W[ad];B[be];W[ba];B[da]
;W[cb];B[ab])
(;W[bd];B[be];W[ae]))
(;B[cd];W[bd];B[af];W[dc];B[ed];W[bb];B[db];W[ec];B[fd];W[eb]
;B[ea];W[cb];B[da];W[ca];B[fa];W[be]))
(;W[ek];B[dl];W[fj];B[ag];W[di];B[dj];W[ci];B[bi];W[ej]C[bad for b]
))
(;B[co];W[dn]
(;B[bo])
(;B[bn];W[bm];B[bo];W[cl]C[I didn't want this because my left group would be killed.]
)))
(;B[kl]))
(;B[rj]
(;W[rk];B[qk]
(;W[pk];B[ql];W[pj];B[rl])
(;W[rl];B[pj]))
(;W[qk]C[b can jump an live in ko
but this life is not worth a lot]
(;B[rk];W[rl];B[ql]
(;W[pl];B[qm];W[rm];B[pk];W[pj]
(;B[rn];W[qn];B[pm];W[pn];B[om];W[ro])
(;B[qn];W[rn];B[qo];W[ro];B[ok];W[oi]))
(;W[qm];B[pl];W[rm];B[pi]))
(;B[rl];W[rk];B[sk];W[ql];B[rm];W[qn];B[rn];W[qo];B[ro];W[rp]
;B[sg];W[se];B[sl]))))
(;B[pe];W[rg]C[bad for b])
(;B[rg]C[better than S14]
(;W[rd])
(;W[rc];B[rd];W[sd];B[pe];W[rj];B[rf];W[se];B[sc];W[sb];B[sf]
;W[sc];B[qb])
(;W[pe];B[qj];W[pi];B[pj];W[oi];B[qn]
(;W[rd])
(;W[rc];B[rd];W[sd];B[rb];W[qb];B[qa];W[sc]))
(;W[rj];B[qj];W[pi];B[pj];W[oi];B[rk]))
(;B[qj];W[pi];B[pj];W[oi];B[rd];W[rg];B[rl]C[this might be playable, but still not good for b after s15 this get a hard game for b]
))
(;B[pe];W[re];B[rg];W[qb];B[qj]LB[qd:a]C[w will play A!];W[pi]
;B[pj];W[oi];B[qn];W[nq];B[rp];W[qq];B[qd];W[rd];B[rb];W[rc]
;B[qa];W[sb];B[ra];W[oa];B[pa];W[oe]
(;B[se])
(;B[rf];W[sf];B[se];W[sd];B[sg];W[od];B[se])))
(;B[rd]C[looks like shape, but here you better try to calculate it out ( r16 simply works)]
(;W[pc];B[rc];W[qb];B[rb];W[qd];B[qe];W[pe];B[qj];W[pi];B[pj]
;W[oi];B[qn]C[This would also been better.])
(;W[qd]
(;B[qe];W[rc];B[re];W[pc])
(;B[rc];W[qb];B[qe];W[pe];B[rb];W[pc];B[qa];W[od];B[qj])))
(;B[qd];W[pc];B[rc];W[qb];B[rb];W[qj]))
(;B[qe]C[correct!];W[ri];B[oi]LB[ri:a][rh:b][qi:c]C[I think I was a bit greedy with my moves on the right. This way, I think black would be much stronger. I wasn't able to read out the corner correctly.

the exchange on the right side now is bad for b and P11 would be the right idea before (directly R15)]
))
(;B[qe]
(;W[qi];B[oi];W[li];B[jj];W[oj];B[ni];W[nj];B[mh]C[now w is in serious trouble]
)
(;W[oh];B[pi];W[li];B[jj];W[oj];B[qi]C[this is a good result for b, still the middle group is difficult to handle (not alive, must run), but the big profit on the right is perfect]
;W[gi])))
(;B[ff]C[well hard for both sides (not a good idea  in a handicap game)]
;W[jg];B[lh];W[je];B[dg];W[ni])
(;B[jg]C[Maybe this would be better, at least locally?

Yes, but i'd still prefer M12]
(;W[if]
(;B[jf];W[je];B[ke];W[ee];B[de];W[ef];B[dg];W[jd];B[pg]C[this is expectable and ok for both]
)
(;B[je];W[jf];B[kf];W[df];B[ce];W[cf]LB[kg:a]C[bad for b

w can aim the cut at A]))
(;W[je];B[if];W[jf];B[jd];W[id];B[ig])))
(;B[if];W[fe];B[df];W[gg];B[ci]C[this is an easy way to make a huge profit!
ANd also you group is now as good as alive and w is still running]
))
(;W[ia]C[better for w]))
(;W[jd];B[je];W[ie];B[jf];W[hg]))
(;W[fb];B[eb];W[jb];B[fa];W[jd];B[je];W[ie];B[jf]C[I was expect the outcome to be something like this. I still have the 2 white groups separated. I basically take the upper corner during the pursuit although white more or less have 1 eye.]
))
(;B[jb];W[je]
(;B[hb]C[I have also been contemplating this sequence. I think both the black and white side are a bit better off. I wasn't worried about bu upper center group, since I have a lot of eye space, even if I didn't play this sequence and connect.

I am not sure how to effectively attack white and profit from the attack. I think white can now basically tenuki or strength his O18 group. I wanted to have my opponent's attention on the upper side.

How do you think I should have handled that? Or should I just placed this way to simply and then go after big points?]
)
(;B[dj]C[Go after bit points right away, and leave the connection as something potentially for yose?]
)))
(;B[id];W[hd]C[W];B[jf];W[hg];B[jb];W[hb];B[mb];W[nb];B[md]
;W[nd];B[lc]C[Another sequence I contemplated.])
(;B[of]
(;W[nf];B[og];W[qk];B[kf]C[this i would expect, now this running is very much in favour of b (2:1 weak groups)]
)
(;W[kf]C[w can't close b in];B[jf]
(;W[je];B[id];W[hd];B[ke];W[lf];B[ie]C[w desaster])
(;W[ke];B[id];W[hd];B[je]C[bad for w])
(;W[jg];B[id];W[hd];B[if]C[bad for w]))))
(;B[lc]C[I have also been contemplating this move. But, I am not sure how to follow up.
 see var
is too good for w and what w wants in a handicap game];W[pc]
;B[qc];W[qb];B[oc];W[pb];B[qd];W[ob];B[od];W[mc]C[w can try something like that, now b M17 is kind of cut away and w R12 is in a perfect position]
))
(;B[ld])
(;B[lc]
(;W[qc]C[not good for w in this case (o17 was a bit wrong direction for w)]
;B[pc];W[qd];B[pe];W[pb];B[ob];W[qb];B[oc];W[qf];B[nq]C[This result is allmost perfect for black
But of coursew need not to play R17,  but anyway m17 is a good idea.]
)
(;W[ne]C[w might play here (but in handicap game this w doesn't like)]
;B[pf];W[kd];B[kc];W[jd];B[ld];W[le];B[jc];W[id];B[hc]C[This is another joseki, which might w choose,still this is ok for b.
(since b has some points for sure and no really weak group)

hint for the future: w r12 is a bit difficult for b but the answer would lead to far and i don't know all about it, but still b is ok]
)))
