(;FF[4]GM[1]SZ[19]ST[2]CA[UTF-8]AP[SGFC:1.17]

PB[kithus]
BR[9k]
PW[cobbp]
WR[9k]
KM[6.5]
DT[2010-08-13]
PC[The KGS Go Server at http://www.gokgs.com/]
RE[W+4.5]
TM[1800]
OT[5x30 byo-yomi]
RU[Japanese]

C[Dear Review:

I was trying to play in a more aggressive manner. I find that my reading is not always on target. I would appreciate it if you could focus your review on opening, direction of play, and some useful tesuji in combat situation in particular as well as an overview of the whole game.

I reviewed the game myself. If you could take a look at that as well, and see if my own opinion is right, that would be very helpful, as it would confirm that my reading of my own mistakes are right.

Thank you very much in advance.

[j\] Hi, Jamie here. I'll focus more on black per your request.

One issue with a type of fighting you tried is that your attacking stones were immediately also weak stones. It's important to have a position of strength to fight from.

Where you provided some of your own options the move you actually played in the game was often equal to or better than your options. Generally, the error arose before you recognised it as such. This is a standard problem, as your strength improves you will see these errors sooner.]
;B[pd];W[dp];B[pp];W[dc];B[fq]LB[ce:B][de:A]C[[j\] Approaching the wider side in the unfinished corner is more normal. I did some research on this point and discovered the issue is more complex than I can handle, so I suggest you stick with the more usual technique of approaching the unfinished corner first.]
;W[dn];B[cl]LB[cl:A][fq:B]C[I wanted to try a new tactic.

[j\] You've just given white a choice between two weak stones to attack. Better to avoid this situation.]
;W[ci];B[dq];W[cq];B[ep];W[dr]LB[cl:B][do:A][kq:C]TR[hq][nq]
C[I wonder if white trying to keep corner is a mistake.

[j\] White should just connect at A, this leaves black with a weak stone at B and a need to extend to prevent white invading at C where white would find life easily (2 space extension in either direction).]
(;B[er]LB[jp:B][eq:A]C[[j\] B has several other options here. See variation for the one I like the best. A would have achieved a similar result to your play without the complication B dodges the problem entirely and allows you to move on to bigger things.]
;W[eq]LB[do:A]C[[j\] White still better to just play A. Why play the ko?????]
;B[eo];W[do]C[[j\] The variations you have here are about rescuing a problem situation. Better to avoid it earlier.]
(;B[dk];W[cf]LB[ei:A][kq:B]C[[j\] white is too submissive. A shows more spirit. White should also be looking for B to erase the value of your wall.]
;B[en]
(;W[dm]
(;B[el];W[nc]LB[pj:A][kq:B]C[[j\] Your best potential lies in the direction of A and B. White helps you towards this with this play.]
(;B[qf];W[jd]LB[lc:B][qf:A]C[[j\] This is not a good choice for white. With your stone at A the corner is closed (somewhat anyway) to white so an invasion at B seems both inevitable and good for black (now right now though, when there are bigger things left).]
;B[pb]LB[pj:A][kq:B]C[[j\] This gives you maybe 9 pts. A and B are both larger.]
;W[gc]LB[ne:A][qk:B][kq:C]C[[j\] This is very slow and does very little to help whites position. A is preferable. Black has much potential in the right, centre and bottom which white must deal with.

B and C are both beckoning for white to play as well. So many good options.]
;B[lc];W[kc]
(;B[md];W[lb];B[kd];W[jc];B[nb];W[mb];B[mc];W[ob];B[oc];W[na]
;B[nd];W[nb]C[[j\] This whole sequence up here was filled with opportunities for either black or white to tenuki and play somewhere far far bigger.]
;B[pj]LB[em:B][kq:A]C[[j\] Good. Important to be here first. However, perhaps A was bigger. The reason I prefer A is that a white invasion on this side takes advantage of the weakness at B, and the weakness at B can have some really unpleasant results later.]
;W[jq]LB[kq:A]TR[hq][nq]C[[j\] I think this is too close to your wall. White really really ought to be at least 1 space to the right giving 2 space extensions possible on both sides.]
;B[lq]LB[em:A][mq:C][nq:B]C[[j\] This *is* the bigger side but the cut at A is potentially a serious problem. Later white invades at the weak point at B, playing C now would have made this more difficult for white.]
;W[jo]
(;B[hq]LB[em:B][lo:A]C[[j\] this is so close to you other stones, however much I would prefer to play A the cut at B is becoming worrying.]
;W[nq]C[[j\] This seems inevitable at this point, clearly a problem earlier.]
;B[np]C[[j\] you cant kill everything white, this move basically allows white the option of connecting.]
(;W[qq];B[qp];W[pq];B[mq];W[nr];B[kp];W[jp];B[ln]LB[km:A]C[[j\] I think you can apply more pressure on white here by playing at A.]
;W[ql]
(;B[rq]C[[j\] Attack a group by stealing its base. See variation.]
;W[rr];B[qr]C[This is a over play on my part. I think my opponent could have punished.

[j\] Yeah, not particularly productive here at the moment. But it did leave a very interesting issue (see much later)]
;W[pr];B[rp];W[rj]LB[jo:C][rp:B][rq:A]C[[j\] Much as I dislike picking just one move as the deciding point this one is large. The black attack at A, and the connection at B surrenders sente to white and white puts this to good use getting a base, a bonus for white is that C is not immediately harmed and you later need to spend a move to seal C in.]
;B[rm];W[rl];B[rh];W[qm];B[rn];W[ol];B[om];W[pm];B[pk];W[pl]
;B[nm];W[nk];B[nl];W[ok];B[lk];W[qi]C[[j\] White now looks to have enough options to live.]
(;B[pi];W[qh];B[ph];W[rg];B[qg];W[ri];B[rf];W[sh]
(;B[jm]LB[ei:A][em:C][jo:B]C[[j\] You are behind at the moment so you need to approach this on a grander scale. A perhaps, though you must still suceed in killing B and C is a lingering problem. See variation.]
;W[ir];B[kr];W[hr];B[gr];W[hn];B[iq];W[jr];B[in];W[io];B[ho]
;W[em];B[gn];W[hm];B[gm];W[go];B[hp];W[hl];B[fo];W[ff];B[fl]
;W[hj];B[ik];W[hk];B[mi];W[mj]
(;B[nj];W[mk];B[li];W[kq];B[lr];W[fi];B[bn];W[bo];B[bj];W[bi]
(;B[fm]C[This move was unnecessary.

[j\] agreed];W[cj];B[dl];W[bk];B[ds];W[cs];B[dq];W[es];B[fs]
;W[eq];B[ds];W[dq];B[ej];W[ei];B[ke];W[if]C[[j\] White's game to lose from here. I'll just comment on the odd endgame point from here on.]
;B[je];W[ie];B[jg];W[ig];B[jh];W[jf];B[kf];W[ih];B[ii];W[lj]
;B[kj];W[kk];B[ll];W[ki];B[jj];W[ni]
(;B[nh]LB[oj:A]C[[j\] A is possible, and a little dangerous. However your tenuki after white A was also dangerous. See following variation.]
;W[oj];B[hi]C[[j\] White needs to connect, some danger remains for black.]
(;W[gh]
(;B[hh];W[gi];B[hg];W[gf];B[hf];W[he];B[gj]C[[j\] Earlier would have been better, however you were there first, good.]
;W[fj];B[gk];W[fk];B[gl];W[lh];B[mh];W[kh];B[lg];W[dj];B[sf]
;W[sg]
(;B[sr]C[[j\] There is an interesting alternative here. Difficult to read out, however there is more left in this position than first meets the eye. See variation.]
;W[rs];B[cn]C[This is also a mistake

[j\] not **too** bad.];W[cm];B[bl];W[bm];B[am];W[co];B[ao]C[This could be consider the losing move.

[j\] So many other moves in the game were bigger game losing moves. This one was just closer to the end and close to the eventual point difference.]
;W[ap];B[al];W[an];B[aj]C[[j\] Good];W[ai];B[ak];W[ck];B[gp]
C[This move is also unnecessary.

[j\] Premature certainly];W[ek];B[oq];W[or];B[op];W[ms];B[qs]
C[This was a misread.

[j\] Yeah, the group is alive, all you are really doing here is eliminating ko threats.]
;W[ps];B[ns]
(;W[mr];B[mp];W[ls];B[ks];W[jn];B[jk];W[km];B[kl];W[gg];B[ij]
C[This move was also unnecessary.];W[qk];B[oi];W[nj];B[pg]C[This move is also unnecessary.]
;W[ml];B[mm];W[im];B[jl]C[This move is also unnecessary.];W[id]
C[This is a unnecessary move by white.];B[pa]C[[j\] good you got here first.]
;W[sm];B[pn];W[qn];B[qo];W[sn];B[ro];W[so];B[sp];W[sl];B[es]
;W[ss];B[sq];W[tt];B[tt]TW[aa][ba][ca][da][ea][fa][ga][ha][ia]
[ja][ka][la][ma][ab][bb][cb][db][eb][fb][gb][hb][ib][jb][kb]
[ac][bc][cc][ec][fc][hc][ic][ad][bd][cd][dd][ed][fd][gd][hd]
[ae][be][ce][de][ee][fe][ge][af][bf][df][ef][ag][bg][cg][dg]
[eg][fg][ah][bh][ch][dh][eh][fh][rh][di][si][ej][sj][rk][sk]
[bn][cn][ao][bp][cp][aq][bq][ar][br][cr][qr][as][bs][ns][os]
[qs]TB[qa][ra][sa][qb][rb][sb][pc][qc][rc][sc][ld][od][qd][rd]
[sd][le][me][ne][oe][pe][qe][re][se][lf][mf][nf][of][pf][kg]
[mg][ng][og][kh][lh][oh][ji][ki][hj][hk][kk][hl][il][hm][im]
[km][lm][fn][hn][in][jn][kn][mn][nn][on][go][io][jo][ko][lo]
[mo][no][oo][po][fp][ip][jp][lp][gq][jq][kq][fr][hr][ir][jr]
[gs][hs][is][js])
(;W[os];B[mr]C[This is what i was expecting.]))
(;B[rs]
(;W[qs]C[[j\] This way moves quickly to a ko.];B[sr]C[[j\] perhaps white wins the ko ... but at a cost]
)
(;W[sr]C[[j\] ... this is harder to read it out. Hopefully I have it right :).]
;B[qs];W[ps];B[oq];W[or]C[[j\] The way I read this black should now connect.]
(;B[op]C[[j\] Time to chicken out I think. To me, the ko fight is not quite in blacks favour.]
)
(;B[ns];W[op];B[oo]C[[j\] This is the second ko.];W[po]LB[no:A]
C[[j\] A does not work for white.

If you'd cleared up some of the ko threats around the board first, this would be great.]
))))
(;B[gj]C[[j\] Here and cut white off.];W[gi];B[ji]C[[j\] Connecting here avoids some complications.]
))
(;W[gj];B[gh];W[gi];B[hh];W[kh]C[[j\] This is not so easy to handle. Try some variations for yourself.]
;B[mh];W[jl];B[il];W[im];B[jn];W[ij];B[ji];W[jk];B[ml];W[oo]
;B[op];W[pn];B[on];W[po];B[no];W[kl];B[km]))
(;B[oj];W[hi]
(;B[ij]C[[j\] Problems follow.];W[il];B[jl];W[kh];B[lg];W[kg]
)
(;B[il]C[[j\] Problems follow.];W[kh];B[lh];W[lg];B[mh];W[mg]
;B[nh];W[ng];B[oh];W[kg];B[ji];W[jk];B[ij];W[im];B[jl];W[jn]
)
(;B[jk]C[[j\] Problems follow];W[kh];B[lg];W[im];B[jn];W[jl]
;B[il];W[ij]
(;B[kl];W[ji])
(;B[ji];W[kg]))
(;B[ji]C[[j\] Strangley this seems to be one of the few safe follow ups.]
;W[im];B[jn];W[jl];B[il];W[ij];B[jk];W[kh];B[kg];W[lh];B[mh]
;W[lg];B[mg];W[lf];B[mf];W[le];B[ld])))
(;B[cj];W[dj];B[ej];W[di];B[ei];W[eh];B[fj]
(;W[gi])
(;W[gj];B[fh];W[gi];B[dh];W[eg];B[ch];W[bh];B[ai];W[bg])))
(;B[lj]C[This is probably the better choice.

[j\] yes, definitely.]))
(;B[ni]LB[mi:A]C[[j\] Better to play at A if you want to attempt to seal white in here.]
)
(;B[ei]LB[jo:A]C[[j\] The question here, for white, is do I save A? If white makes the attempt and black kills then black wins the game, the variation here is one possible result and really just demonstrates white should try something other than a brute force attempt to escape.]
;W[ir];B[kr];W[hr];B[gr];W[jm];B[jk];W[hm];B[ho];W[in];B[il]
;W[kn];B[im];W[km];B[ko];W[hn];B[em];W[gk];B[hj];W[gj];B[hi]
;W[gi];B[gh];W[hh];B[fh];W[hk];B[ik];W[ih];B[ji]))
(;B[ph]C[This might be the better choice.

[j\] This does not appeal to me as much as the move you played. This move really just accepts that the white group is alive.]
(;W[pi];B[oi];W[oj];B[ni];W[qh];B[qg])
(;W[qh];B[qg];W[pi];B[oh];W[oi];B[ni];W[nh];B[mh];W[ng];B[mi]
)))
(;B[pl]C[This would probably have been better.

[j\] White should live with this. It is not a big help.])
(;B[qk];W[pl];B[nj];W[nl]LB[qn:A][rp:B]C[[j\] White would like to play A but I don't believe black has to respond, if black does respond a simple descent to B has the potential to kill the corner.]
;B[kk]TR[nl][pl][ql][jo][jp][jq]C[[j\] there is a very good chance both white groups will die.]
))
(;W[mq];B[mp];W[lr];B[lp];W[kr]LB[ke:C][ei:D][em:A][rp:B]C[[j\] now white no longer has a weak group for you to attack. The cut at A is still worrying, White can live starting at B or extend the territory up top left with C or D. The right side is still very open with so much work to do to secure territory the black moyo will be eaten away significantly as the game progresses.]
))
(;B[kp];W[jp];B[ln]C[This approach is probably better.

[j\] hmmm, what might follow this?];W[jm];B[ll];W[em];B[fm]
;W[gm]C[[j\] There is the potential for complication now, it is quite hard for black to handle this clamp without losing something. Even if white only rescues these stones in sente black has lost something.]
))
(;B[nb]C[I also contemplated this move.];W[ld];B[mb];W[lb];B[mc]
;W[md];B[nd];W[ne];B[od];W[lg]LB[qk:A][kq:B]C[Black seems over concentrated.

[j\] The problems I see with this are the missed moves at A and B (for white) and that white gets influence in to the centre and right sides which were at risk of becoming a black moyo.]
))
(;B[nq];W[qf];B[oe];W[qc];B[qd];W[pc];B[qh];W[rd];B[re];W[rc]
;B[qe];W[me]LB[ic:A][pl:B]C[This would be bad for black.

[j\] Why? Black can still invade at A, B is huge, even if white gets in there first black is strong on both sides and thus black can attack any invasion strongly.]
))
(;B[fl]LB[pj:A][kq:B]C[Maybe this would be lighter and more flexible.

[j\] I'd be tempted to play A instead, hope white attacked the two stones and look for a chance at B.]
))
(;W[kq]C[[j\] White living in here reduces your potential markedly.]
))
(;B[el]C[I was also contemplating this move.])
(;B[em]C[This as well, but I didn't like the possible result.]
;W[dm];B[dl];W[en];B[fn];W[el];B[fm];W[ek])
(;B[en];W[dm]C[This way, the movement of my C8 stone is almost gone.]
;B[el];W[dl];B[jp];W[em];B[fm];W[dq]
(;B[fr];W[fl];B[ek];W[fn];B[fp];W[gm])
(;B[fp];W[fl];B[gl];W[ek])))
(;B[do]C[[j\] I think this might have been a better choice than trying to force a ko fight.]
;W[cp];B[co];W[eo];B[en];W[fo];B[cn];W[dm];B[cm];W[er];B[iq]
C[[j\] This way you get a reasonable base started on both sides.]
))
