(;FF[4]GM[1]SZ[19]ST[2]CA[UTF-8]AP[SGFC:1.17]

PB[ElVicente]
BR[7k]
HA[3]
PW[flintstone]
WR[4k]
KM[0.5]
DT[2010-08-15]
PC[The KGS Go Server at http://www.gokgs.com/]
RE[B+21.5]
TM[1500]
OT[5x30 byo-yomi]
RU[Japanese]

AB[pd][dp][pp]C[Hi. I'm Bruno (kilshii on kgs). I will do the review for you.]
;W[dd];B[pj];W[cn];B[fp];W[dj];B[cf]
(;W[df]C[This move works well. But see some variations.];B[dg]
;W[ef];B[dh];W[ce];B[bf]
(;W[ci]C[This move doesn't put too much pressure, because it doesn't threat to cut. Better to fortify your position with B4 variation.]
;B[dl];W[cl];B[ck];W[dk];B[cm];W[bl];B[dn];W[bm];B[dm]LB[fh:A]
[co:B]C["A" is the best move here. But keep in mind that "B" it's very big.]
(;W[fi]C[Bad move.];B[fh]C[Now black has a chance to scape. But white can still do something.]
(;W[gg];B[gh]C[Nothing for white now.];W[nc];B[fg];W[ff];B[gf]
;W[hg];B[lc];W[ne];B[ic]
(;W[qf]SQ[nc][ne]C[Since you already played the two marked stones, it's a good idea to stabilize it before making another weak group with R14. See variation.]
;B[pf];W[pg];B[of]
(;W[qe]C[Good choice.];B[od]
(;W[nd]C[Very risky to have two weak groups.];B[qd];W[qi];B[qk]
(;W[nq]SQ[ne][pg]C[Bad move. You still have two weak groups. Remember, important moves first, then you play big moves. See some variations.]
;B[kq];W[qq];B[pq];W[qp];B[qo]
(;W[qr]C[Q2 gives you a much better result.];B[pr];W[po]C[Dubious plan.]
(;B[op];W[qn];B[ro];W[rn];B[oo];W[pn];B[rr];W[qs];B[ps];W[rp]
;B[on]C[White got the corner, but still has two weak groups. Black lead by a lot.]
;W[iq]C[Another weak group, now white has 3 weak groups. It would be really something if white won this.]
;B[ko];W[io];B[co]
(;W[gr]C[See variaton.];B[fr];W[gq];B[fq];W[nh]C[Finally trying to save those weak groups. Black missed a lot of oportunities.]
;B[bn];W[bk];B[fb];W[lf];B[ge];W[fd];B[gd];W[fc];B[gc]
(;W[ec];B[eb];W[db];B[cc];W[cb];B[be];W[bc];B[cd];W[bd];B[de]
;W[dc];B[ce];W[ab]C[Big loss for white.];B[hj];W[re];B[og];W[oh]
;B[rd];W[qh];B[rb];W[pb];B[qb];W[ol];B[nj];W[ml];B[lk];W[ll]
;B[kk];W[kl];B[jk];W[jl];B[jg];W[jf];B[if];W[je];B[ie];W[kg]
;B[jh];W[jr];B[kr];W[lp];B[kp];W[mo];B[mn];W[ln];B[lo];W[nn]
;B[mp];W[no];B[np];W[mj];B[mk];W[nk]
(;B[mi]C[Big mistake for black. And a big succes for white.]
;W[oj];B[ni];W[oi]C[Now white won a lot of points. But there are not too much big points, so the game is almost ended.]
(;B[mh];W[ng];B[mg];W[nf];B[mf];W[me];B[pc]LB[ea:A][ob:F][jc:C]
[sd:H][bh:B][fk:G][nm:E][om:I][fs:D]C[Here starts the yose. Just try to aim the sente moves, big moves, reverse sente moves (moves wich are gote, but prevents a sente move from the opponent). And specially, try to look for double sente moves. (moves that are sente, and also prevents a sente move from the opponent). I will mark some moves. It's a good idea to study then.

A, B, and D are sente moves.
E, F and G are big moves.
H and I is reverse sente.
C is double sente.

So the best move is C.];W[ob];B[jd]C[Black plays the best move first.]
;W[la];B[kb];W[ld];B[kd];W[ke];B[mb];W[nb];B[ma];W[ch]C[Here you starts a great yose sequence.]
;B[cg];W[fs];B[es];W[gs];B[er];W[ks];B[ls];W[js];B[lr];W[fk]
C[Nice move];B[in];W[ho];B[hn];W[go];B[gn];W[fo];B[fn];W[eo]
;B[ep];W[hr];B[gp];W[hp];B[nm]C[Black takes a big move in sente, really painfull.]
;W[nl];B[om];W[pm];B[ei];W[ej];B[gi];W[fj];B[eg];W[fe];B[kh]
;W[ea];B[ga];W[ik];B[ij];W[hk];B[lg];W[kn];B[jn];W[jo];B[fm]
;W[le];B[lj];W[sd];B[sc];W[se];B[bh];W[bi];B[ag];W[ai];B[ah]
;W[ad];B[gk];W[gl];B[gj];W[fl];B[fa];W[da];B[am];W[al];B[an]
;W[na];B[mc];W[qa];B[ra];W[pa];B[jp];W[ip];B[di];W[el];B[ae]
;W[kf];B[ee];W[tt];B[do];W[tt];B[tt]TW[aa][ba][ca][oa][bb][ac]
[rf][sf][qg][rg][sg][ph][rh][sh][pi][ri][si][aj][bj][cj][pj]
[qj][rj][sj][ak][ck][ek][ok][pk][qk][rk][sk][pl][ql][rl][sl]
[qm][rm][sm][sn][qo][ro][so][sp][hq][rq][sq][ir][rr][sr][hs]
[is][rs][ss]TB[ha][ia][ja][ka][la][sa][gb][hb][ib][jb][lb][sb]
[hc][jc][kc][qc][rc][hd][id][he][af][hf][bg][gg][hg][ig][eh]
[hh][ih][lh][hi][ii][ji][ki][li][jj][kj][mj][cn][nn][ao][bo]
[mo][no][ap][bp][cp][lp][aq][bq][cq][dq][eq][lq][mq][nq][oq]
[ar][br][cr][dr][mr][nr][or][as][bs][cs][ds][ms][ns][os])
(;AW[ba][nf][ng][cj]AB[qc][sc]AE[ck]C[Just to show the counting.]
))
(;B[ok];W[nl];B[mi]))
(;W[eb]C[This does it.];B[gb];W[dc]))
(;W[fr]C[Here is better.]))
(;B[ro];W[op]C[White wins here.])
(;B[oo];W[pn];B[qn];W[op];B[on];W[pm];B[om];W[qm];B[rm];W[rn]
;B[ro];W[rl];B[sn];W[ql];B[rk];W[ol];B[sl];W[pl];B[nl];W[ok]
SQ[ne][pg][nq][qr]C[White gets a lot of problems with so many weak groups. Something shall die.]
))
(;W[pr];B[or];W[qr];B[oq];W[ro];B[qn];W[rn];B[qm]C[Much better.]
))
(;W[og];B[nf];W[le];B[ng];W[oi];B[pi];W[ph];B[nh];W[oh];B[nk]
;W[rd];B[rc];W[se];B[ie]C[White has problem. But still playable.]
)
(;W[nf];B[og];W[ph];B[ni];W[rd];B[rc];W[se];B[ie])
(;W[le];B[ie];W[mh];B[og];W[ph];B[oh];W[oi];B[pi];W[rh];B[ni]
C[White is doing well here, saved both groups without big losses. But black is still a lot better.]
))
(;W[qd]C[You can consider sacrificing to get sente];B[nd]C[White has sente. Still have chances.]
))
(;W[qd]C[This doesn't work.];B[qe];W[re];B[pe];W[rg];B[qc];W[rd]
;B[og];W[ph];B[lf]C[Not too good for white.]))
(;W[pf];B[qc];W[gc]C[This would make a nice attack in his stones.]
))
(;W[gh];B[fg];W[gg];B[ff];W[gd];B[gf];W[hf];B[ei];W[ig];B[fj]
;W[gi];B[ej]C[White make a lot of points and a wall.]))
(;W[fh];B[ei];W[gj]C[Black is sealed.];B[fj];W[fk];B[gi];W[fi]
;B[ej];W[ek];B[gk];W[hj];B[fg];W[eg];B[eh];W[gh];B[hi];W[gg]
;B[ij];W[hk];B[gl]C[White has the lead in this fight.]))
(;W[bp];B[cq];W[en]))
(;W[ce];B[df];W[fd]C[Here black has no good continuation.]
(;B[ch];W[bp];B[cq];W[en]C[White is happy with this.])
(;B[ff];W[bp];B[cq];W[en]C[Same here.])))
