(;FF[4]GM[1]SZ[19]ST[0]CA[UTF-8]AP[SGFC:1.17]VW[]

PB[unknown]
HA[0]
PW[Mike]
WR[3k]
KM[6.5]
RE[W+21.5]
TM[1800]
OT[5x30 byo-yomi]
RU[Japanese]

C[Mike: Hi reviewer!

Mike: I was white in this game. Hope you can point out my mistakes in strategy and help me to improve. There isn't very much I can tell about this game. I think my opening was bad and black was getting away, but in the end I won with many points.
Most of my games I try to get good influence towards center & sides and usually find myself losing all corners to my opponent and getting no points. In this game I tried to get as much as I could from corners and and see what would happen.]
;B[pd]C[Evgeny: Hello, Mike. My name is Evgeny. Nice to meet you. 

In my point of view roots of your problems are not from the bad opening but for misunderstanding some types of basic shapes. A good example is the opportunity to attack black wall in move 91 you have missed. It's good practice when you learn joseki always asking yourself questions like "what if W plays that way?". Usually those variations has a lot of interesting things you probably don't know yet. It helps you to improve a lot. And of course, keep practicing, play more games.

If you have any questions, mail me at: eshavlyugin@gmail.com]
;W[pp];B[dd];W[dp];B[qn];W[ql];B[on];W[nq];B[pk]C[Mike: Sometimes my oppenent plays R10. What is the right way to deal with it?
Evgeny: you almost handle it right. Main idea is to cut black in 2 parts. I had explained few ideas behind this few moves later. See joseki dictionary for more variations.]
;W[qk];B[pj];W[qj];B[pi];W[qh];B[qp];W[qq];B[rp]C[Evgeny: This is bad for black, because connection between his stones is not strong. It's better start with 'b'.]
(;W[pm]LB[rq:A]C[Eveny: I don't like this move. It's better to block black at A and keep cut opportunity for later. See variations.]
;B[po];W[pq];B[om];W[ph];B[oh];W[nc];B[lc];W[qc]LB[ne:A]C[Mike: I wasn't very confident about this...
Evgeny: I'm not sure too. Black could have built a strong wall after it. Simple jump at A is better]
;B[pc];W[qd]
(;B[qe]LB[pe:A]C[Evgeny: A bad move. Extension at A is better.]
;W[pb];B[ob];W[qb];B[oc];W[pe]C[Evgeny: correct. Now black in trouble]
(;B[re];W[nb];B[nd];W[oe];B[od];W[oa];B[pf];W[of];B[nf];W[og]
;B[ne];W[ng]C[Mike: there must be better sequences for b...
Evgeny: yes, it is. Now black has lost his wall and stones in the corner. You have gained a lot of territory. The opening is good for White.]
;B[rh];W[rg];B[ri];W[qi];B[qg];W[rf];B[sf];W[rj];B[sg];W[si]
;B[qf];W[rd];B[sd];W[sc];B[sb];W[rc];B[pa];W[qa];B[mc];W[rg]
;B[mb];W[sh];B[na];W[se];B[cn];W[cl];B[fq];W[eo];B[cq]
(;W[cp]C[Mike: Is this the right direction?
Evgeny: Yes, it is, because if you choose other side...];B[dq]
;W[dm];B[ci];W[cc]C[Mike: Only move that I could figure out. My plan was to get sente and play M13 after corner is safe.
Evgeny: This is a good move];B[dc];W[cd];B[cf];W[ce];B[de];W[bf]
;B[cg];W[db];B[eb];W[cb];B[lg]LB[fc:B][fb:A]C[Mike: N13 better for b perhaps?
Evgeny: Black has to finish his wall at B first. A is standard attack for this kind of shapes. Even it's not possible to break through black wall, white can establish a strong group playing with A. See variations for details]
(;W[ig]C[Mike: B's moyos was getting huge so I had no choice than trying reduction. This move seems very risky and I think outcome far was more than I deserved.
Evgeny: This is a good move. One line higher would be too submissive.]
;B[ii];W[fc]LB[fb:A]C[Mike: just to create some aji
Evgeny: This is a 'thank you move'. A is correct way to exploit weakness of black wall.]
;B[fb];W[kg];B[jf];W[jg];B[if]C[Mike: B's last two moves weren't quite good.]
;W[kf]C[Mike: I played this because b was only thinking big moyo and didn't attack my stones from outside.
Evgeny: I don't think black can kill white. Black isn't strong enough from outside to do it.]
;B[jd];W[gg];B[ge];W[hf];B[he];W[ki];B[mi];W[lh];B[mq];W[mr]
;B[nr]
(;W[or]LB[lr:A]C[Evgeny: Bad because...];B[lr];W[ns];B[kq];W[rq]
;B[mp];W[iq];B[hp];W[jp];B[ip];W[jq]
(;B[jo];W[kp];B[lp];W[ko];B[jn]C[Evgeny: It's better to start ko for connection]
(;W[kn];B[km];W[lm];B[jr];W[hq];B[gp];W[mn];B[no];W[kl];B[jm]
;W[lk];B[lo];W[ln];B[ml];W[ll];B[mg];W[mh];B[nh];W[pg];B[mk]
;W[li];B[nj];W[ik];B[bp];W[bo];B[bq];W[bn];B[bg];W[be];B[gi]
;W[eg];B[ef];W[gk];B[ei];W[fj];B[fi];W[hn];B[hm];W[in];B[gn]
;W[im];B[io];W[gm];B[hl];W[il];B[fm];W[gl];B[fo];W[en];B[fn]
;W[er];B[eq];W[fr];B[gr];W[gq];B[dr];W[hr];B[es];W[ep];B[fp]
;W[gs];B[el]C[Mike: I think my opponent was a bit hurry and missed some important endgame moves.
Evgeny: Even if he didn't you have a lead sufficient to win.]
;W[bj];B[cj];W[bk];B[hj];W[hk];B[fg];W[ke];B[kd];W[hh];B[hi]
;W[gf];B[ff];W[np];B[mo];W[je];B[ie];W[sp];B[so];W[sq];B[rn]
;W[rl];B[jj];W[kk];B[bi];W[mf];B[me];W[le];B[ld];W[pl];B[ol]
;W[ap];B[aq];W[ao];B[ej];W[dk];B[ek];W[ea];B[ec];W[fa];B[ga]
;W[da];B[gb];W[ck];B[gh];W[hg];B[ls];W[ms];B[is];W[ji];B[ij]
;W[em];B[fl];W[dj];B[di];W[cm];B[mm];W[nn];B[nm];W[op];B[oo]
;W[sm];B[rm];W[ag];B[ah];W[af];B[aj];W[ak];B[sd];W[rh];B[ra]
;W[rf];B[pa];W[se];B[oa];W[lj];B[mj];W[ih];B[ai];W[ir];B[js]
;W[pn];B[qo];W[ho];B[hs];W[gr];B[ds];W[tt]C[Mike: Thanks for the review.
Evgeny: Good bye])
(;W[kr]))
(;B[jr]))
(;W[lr]C[Evgeny: Black has no chance to resque her stone];B[oq]
;W[np];B[op];W[or];B[oo];W[ns]))
(;W[fb];B[ea];W[ec];B[fc];W[ed];B[gb];W[fd];B[gc];W[df];B[ee]
;W[fe];B[ef];W[ff];B[eg];W[fg]
(;B[eh];W[fh]C[It's not easy to kill white stones and black territory have been significantly reduced.]
)
(;B[fh];W[eh];B[dg];W[gh];B[fi];W[hg])))
(;W[dq];B[cp];W[em];B[dr];W[er];B[cr];W[fr];B[bn]C[White in low position from right. He cannot use his thickness efficiently.]
))
(;B[oe]C[Still better];W[pf];B[of];W[og];B[ng];W[pg];B[nd]))
(;B[pe]C[This is a standard joseki];W[pb];B[ob];W[qb];B[oc]
;W[qf];B[pf];W[qe];B[pg];W[qg]C[Black would get a nice wall in sente]
;B[dj]))
(;W[rq];B[po];W[op]LB[om:A]C[White has secured corner and saved opportunity to cut black later starting with A. The result is bad for black.]
))
