(;FF[4]GM[1]SZ[19]AP[SGFC:1.13b]

EV[Game 15]
PB[Ron White]
BR[3 Kyu]
HA[0]
PW[David Dinhofer]
KM[5.5]
DT[1999-04-03]
PC[Email - 12/20/98 to 3/23/99]
RE[B+R]

;B[cp];W[pd];B[pp];W[dd];B[ip];W[ep];B[dn];W[cq];B[bq];W[dq]
;B[bo]C[HK: B2 is better than B5.];W[gq];B[iq];W[br]
(;B[cj]LB[ar:a][bs:b][fo:c]C[Is this the wrong direction?  Do I need to play in the lower
right first?
HK: Black should move at a(A2) instead of this C10.  If white respond at b, black's c can block white's progress into the center.  Refer to the variation.]
;W[nq]
(;B[lq]LB[or:a]C[HK: Don't move from a strong stones.  a(P2) is recommended .  See the variation.]

(;W[no]C[HK: White should move at R3 instead of this O5, because black's lower center group is strong.  Refer to the variation.]
;B[pn];W[pr];B[qq];W[ln];B[ko]LB[in:a]C[This seems like a reasonable result for B. Is it?
HK: Very submissive move.  Black should progress to the center with a(J6).]

(;W[mm]C[HK: Very awkward move.  See the variation.];B[ol]LB[pk:a]
C[HK: a(Q9) is better.];W[fn];B[hr];W[gr];B[jm];W[pj];B[qr]
LB[nk:a][oj:b]C[This doesn't get a response from W.  Is it incorrect?
HK: Black should progress into the center with a(O9) or b(P10).]

(;W[lk]C[HK: White should move at O9.  Refer to the variation.]
;B[oj]C[This area didn't work out for B.  Is this a bad move?  What would
be better.];W[pk];B[ok];W[pi]
(;B[jk]LB[pl:a]C[HK: K9 is not an urgent point now.  And don't run after the weak white group.  Refer to the variation.]
;W[li];B[oi];W[pg]C[HK: Q12 is better than this Q13.];B[nc]
LB[oh:a]C[Does B need to defend around Q8 first?
HK: a(P12) is a very important point to aim at white's weak group.  And O17 is not a good move.  If black wants to reduce white's right side territory, he should enter at R17.]
;W[ld]
(;B[ne]LB[oh:a]C[HK: a(P12) is a vital point even now.  Refer to the variation.]
;W[ng]
(;B[pb]C[HK: Maybe P17 is better than Q18.  Let's try a variation.]

(;W[id]LB[mc:a]C[HK: White should move at a(N17) instead of J16.  Refer to the variation.]

(;B[lb]C[Would R17 be better?  Or something around N14?
HK: R16 is better.  Let's try a variation.];W[cf]C[HK: Now Q8 is very important point.  Refer to the variation.]

(;B[ej]LB[ar:a]C[HK: Black should move at a(A2) before this E10.  And C12 instead of E10.]
;W[fd]C[HK: E17 is better.]
(;B[db]LB[pl:a]C[Reasonable invasion?  Necessary?
HK: Even now a(Q8) is very important.  White's upper left corner needs one more protecting move.  So let's try a variation.]
;W[bc]C[HK: White should move at D17.  Then black could not easily get life there.]
;B[cc];W[cd]C[HK: White should move at B16 instead of C16.  Black got a lot of gain here.]
;B[bb];W[dc];B[cb];W[eb];B[bd];W[be];B[ac];W[qn]C[HK: Maybe an unreasonable move.  I think R7 is better.]

(;B[pl]C[HK: Black should move at R7.  Black's R7 would lead him to win.  Refer to the variation.

===============
END OF THE REVIEW
===============];W[qm];B[nn];W[pm];B[om];W[po];B[oo];W[on];B[op]
;W[nm];B[np];W[mn];B[mj];W[mh];B[pe];W[qe];B[oh];W[og]C[I resigned here because I didn't see how I could get any more
territory and defend the  stones in the upper right.  Does B
have any good moves at this point?])
(;B[qm];W[pm];B[pl];W[po];B[om];W[on];B[qo];W[pm];B[rn];W[pn]
;B[rl]C[HK: This game will end up in black's win.]))
(;B[pl];W[eb];B[ph];W[qh];B[oh];W[qf];B[ar];W[bs];B[rj];W[ri]
;B[kj];W[lj];B[lg]C[HK: Black's position is very difficult now, but not hopeless.]
))
(;B[pl];W[cl];B[dl];W[ck];B[dk];W[bj];B[bi];W[ci];B[dj];W[bk]
;B[cm];W[bh];B[ph];W[qh];B[oh];W[qf];B[rj];W[ri];B[kj];W[lj]
;B[lg]))
(;B[qd];W[qe];B[qc];W[re];B[lb]))
(;W[mc];B[md];W[lc];B[qc];W[qd];B[nb];W[lf]))
(;B[pc];W[qc];B[qd];W[pe];B[rc];W[qb];B[pb];W[rd];B[of];W[pf]
;B[og];W[oh];B[nh];W[ph];B[mg]))
(;B[oh];W[og];B[ph];W[qh];B[qg];W[qf];B[rg];W[rh];B[ng];W[nf]
;B[mf];W[mg];B[nh];W[ne];B[lh]))
(;B[oi];W[ph];B[li];W[kj];B[qc];W[qd];B[pc];W[oc];B[ob];W[nc]
;B[nb];W[mc];B[rd];W[re];B[rc];W[qf];B[jh];W[ij];B[ji];W[jj]
;B[fc]))
(;W[nk];B[nl];W[ml];B[mk];W[lk];B[mj];W[ok];B[pl];W[lj];B[mi]
;W[pg]))
(;W[om];B[ql];W[pk]))
(;W[qq];B[pq];W[qp];B[po];W[pr];B[or];W[qr];B[oq];W[qn]))
(;B[or];W[kp];B[in];W[kn];B[jl]))
(;B[ar];W[bs];B[fo];W[eo];B[en];W[go];B[fn];W[gp];B[in]))
