(;FF[4]GM[1]SZ[19]ST[1]AP[SGFC:1.17]

PB[rarellano]
BR[5k]
PW[stajima]
WR[4k]
KM[0.5]
DT[2010-10-01]
PC[The KGS Go Server at http://www.gokgs.com/]
RE[W+3.5]
TM[1800]

C[stajima [4k\]: hi

rarellano [5k\]: hi

J: Hi my name is Jay, and I will be reviewing your game.  My comments begin with "J:".]
;B[pd];W[dc];B[dp]C[J: Black plays cross fuseki to start a fight.]
;W[pq];B[po];W[qo];B[qn];W[qp];B[pm]C[RA: don't know if was the best aproach

J: Everything looks ok so far.];W[qi]C[J: White's play here is strange.  Black can punish white with P3 immediately.  See variation.]
(;B[qj]C[J: Black should not contact here. It'll only make the lonely white stone stronger.]
;W[rj]C[J: white wants to live small...  When it's this early in the game, black should be happy.]
;B[pi];W[qk];B[pj];W[qh];B[ri];W[rh];B[rk];W[si];B[ql]C[RA: too small or its ok?

J: Too small.  The variation that black chose causes black to become overconcentrated; but it's hard to find a better outcome after the contact play.]
;W[nq]C[J: White is very happy to fix his mistake.];B[qf]C[J: R14 applies some amount of pressure on white's group, but black can't be sure if he cares more about the corner or outside influence with say P13.  Black should omit playing in this area for now to see how the rest of the board develops.]
;W[ph];B[oh];W[pf];B[pe];W[og];B[nh];W[ng];B[mh];W[oe];B[nd]
C[J: O17 is the correct shape here for black.];W[fq];B[hq]C[J: This lower pincer feels weird when white has such a strong group in the lower right side.  The bottom is uninteresting for it is hard to develop meaningful territory.]
;W[fo];B[mp]C[J: An interesting direction to play from;  but it feels that black's center moyo is nullified with F5 influence. Also, be wary of white surrounding the lower left corner.]
;W[np];B[no];W[mq];B[lp]CR[nr][ns][nn][mm][mn][mo]C[J: Black looks like he is expanding his center territory;  but if we step back and look at it from a pure points perspective, black has only gained about four points; and white has gained two.  No reason to lose sente for this.

When trying to use center influence, it's very hard to make territory.  Many times, it's better to try to force a weak white group inside to kill it.]
(;W[hp]C[J: White's development here is too slow. White has the severe play of D6.  See variation.]
;B[ip];W[ho];B[cm];W[io];B[jp];W[mg]
(;B[de]C[J: White's group at the bottom left is not alive yet.  See variation.]
;W[ce];B[cf];W[cd];B[dg];W[lh];B[li];W[ki];B[kh];W[lg];B[lj]
;W[kj];B[kk];W[jh];B[id]C[J: Black's high move here seems too distant from his other stones when there are so man white stones around.  White doesn't need to worry about the ladder here when black's upper corner is weak.]
;W[ld];B[le];W[ke];B[kd];W[od]C[J: The O16 mistake rears it's ugly head.]
;B[oc];W[me];B[ne];W[of];B[md];W[lf];B[lc];W[pc];B[qc];W[nc]
;B[pb];W[mc];B[le];W[mi];B[mj];W[ld]C[RA: I didn't found a ko thread.

J: see variation.]
(;B[qg];W[nf];B[fc];W[ch];B[bf];W[bc]
(;B[dh]C[J: Attack from a distance, maybe E11.  See variation.]
;W[di];B[cj];W[ci];B[ed];W[jd];B[jc];W[kc];B[ie];W[jb];B[ic]
;W[gq];B[jj];W[ji];B[ei]C[J: It's hard to catch white now.  D3 in the corner is the biggest move.]
;W[dj];B[ck];W[ej];B[fi];W[fj];B[gi];W[gj];B[hi];W[cq];B[cp]
;W[dq];B[ep];W[fp];B[fm];W[hj];B[ij];W[hl];B[hm];W[im];B[il]
;W[gm];B[hk];W[gl];B[gk];W[fk];B[ik];W[fl];B[eq];W[er];B[bq]
;W[br];B[jm];W[bp];B[bo];W[aq];B[dn];W[hg];B[ig];W[ih];B[hh]
;W[if];B[hf];W[jg];B[gg];W[jn];B[kn];W[km];B[in];W[jo];B[ko]
;W[se];B[rg]C[J: very nice response.];W[pg];B[sg];W[ib];B[hb]
;W[he];B[ig];W[re];B[qe];W[hg];B[gf];W[je];B[hc];W[bi];B[bj]
;W[hn];B[im]C[J: four points gote is too small.];W[ao];B[bn]
;W[kq];B[lq];W[lr];B[jq]C[RA: maybe was not the best

J: P4 was always black's sente.  K3 looks ugly, but it's hard to find a better local repsonse.]
;W[mo];B[nn];W[jr]
(;B[mn]C[J: I don't think black has to respond here.  See variation.]
;W[hr];B[lo];W[iq];B[kp];W[em];B[eb];W[db];B[rn];W[ro];B[nb]
;W[mb];B[na]C[J: you might as well push to N19, both are gote.]
;W[ec];B[fb];W[aj]
(;B[ak]C[J: black needs to play here to live.];W[ai];B[an];W[bl]
;B[ap]C[J: white B3 to kill black.];W[cl];B[bq]C[J: white should fight this ko.]
;W[ar];B[bp];W[eo];B[do];W[dm];B[bm];W[al];B[en];W[fn];B[kr]
;W[ks];B[ia];W[ka];B[pp];W[qq];B[oq];W[op];B[oo];W[or];B[kq]
(;W[be]C[J: R9 aji is painful... See variations.];B[da];W[ca]
;B[ea];W[bb];B[sk];W[dd];B[ee];W[ma];B[so];W[sp];B[sn];W[bg]
;B[ag];W[ah];B[af];W[cg];B[ae];W[ad];B[df];W[ja];B[ha];W[ig]
;B[ii];W[sj];B[sh];W[ri];B[pk];W[tt];B[tt]TB[fa][ga][oa][pa]
[qa][ra][sa][gb][ob][qb][rb][sb][gc][pc][rc][sc][fd][gd][hd]
[qd][rd][sd][fe][ge][he][re][se][ef][ff][rf][sf][eg][fg][eh]
[fh][gh][mi][ni][oi][nj][oj][jk][lk][mk][nk][ok][qk][jl][kl]
[ll][ml][nl][ol][pl][rl][sl][km][lm][mm][nm][om][qm][rm][sm]
[cn][ln][on][pn][ao][co][mo]TW[aa][ba][la][ab][cb][kb][lb][ac]
[cc][lc][bd][kd][md][nd][le][ne][jf][kf][mf][kg][bh][kh][bj]
[cj][ak][bk][ck][dk][ek][dl][el][fm][gn][go][gp][rp][hq][oq]
[rq][sq][cr][dr][fr][gr][ir][mr][nr][pr][qr][rr][sr][as][bs]
[cs][ds][es][fs][gs][hs][is][js][ls][ms][ns][os][ps][qs][rs]
[ss]C[rarellano [5k\]: thx

rarellano [5k\]: good game

stajima [4k\]: yhx

White wins by 3.5 points.

J: Thanks for showing me this game.  I think there are several take-aways from this game:

Try not to contact weak stones, you'll only make them stronger;  almost always attack from a distance.

Secondly, realize that sometimes it's useless to attack a group.  Just take the big point.]
)
(;W[pk]C[J: Hmm, white missed this.]
(;B[ok];W[oi];B[ni];W[oj])
(;B[oj];W[ok]
(;B[nj];W[rl];B[sk];W[sl])
(;B[rl];W[nj];B[oi];W[lk];B[mk];W[ml];B[ll];W[nk];B[lk]))))
(;B[bl]C[J:];W[dl];B[am]))
(;B[ir];W[lo];B[kp];W[ln];B[iq];W[is];B[kr]
(;W[hr];B[js])
(;W[ks];B[lm];W[hr];B[js]C[J: make him waste a ko threat before taking M6.]
)))
(;B[ei];W[ck];B[dj];W[cj];B[el];W[bl];B[bm]C[J: not sure if white's alive.]
))
(;B[ec]C[J: This seems like a viable ko threat.  But it's only one or too, i doubt you can win this ko.]
;W[nf];B[db];W[cb];B[dd];W[cc];B[je];W[kc];B[jc];W[jd];B[jf]
))
(;B[gq];W[fp];B[dq];W[gl]C[J: black has this for later; not now.]
))
(;W[dn];B[cn];W[cm];B[co];W[dm];B[dr];W[gd]C[J: White is now solidly ahead.]
))
(;B[oq];W[or];B[pp];W[qq];B[nq];W[nr];B[mq]))
