(;FF[4]GM[1]SZ[19]ST[2]CA[UTF-8]AP[SGFC:1.17]

PB[Arroc]
BR[6k]
PW[yosomi]
WR[5k]
KM[0.5]
DT[2010-10-28]
PC[The KGS Go Server at http://www.gokgs.com/]
RE[W+Resign]
TM[1500]
OT[5x30 byo-yomi]
RU[Japanese]

C[yosomi [5k\]: hi
Arroc [6k\]: Hello.];B[pd];W[dp];B[pp];W[dd];B[qj];W[nq];B[pn]
;W[pr];B[qq];W[kq];B[cj];W[ch];B[cm];W[co];B[fd]C[Should I have strengthened the group on the left instead?

What's the purpose of F16?  To counter D16?  That's not Joseki.
Yup.  Simply jump to F7 is a calm move.  It's stil wide open.  3-3(C17) is always a good reducing move later on.]
;W[hd]
(;B[dc]C[C17 better.];W[cc];B[ec];W[cb];B[ff];W[df];B[fp];W[en]
;B[iq]C[This is wrong?

Well, you end up with two weak groups here.  So neither is wrong but you are under pressure now.]
;W[er];B[hp]C[Not a good  move.  Keep it light for now.  J5 is good shape.]
;W[nc];B[pf];W[pb];B[qc];W[kc];B[he];W[dl];B[cl];W[dj];B[di]
;W[ck];B[bk];W[dk];B[ci];W[bl]
(;B[bh]C[Wow.  This's a bad move.  B10 first.];W[bj];B[bi];W[ak]
;B[cg];W[bf];B[dg];W[cf];B[eg];W[jr];B[gn];W[qb];B[no]C[Instead of this, I probably should have strengthened the group at H4.

No idea why here.  A more normal move to enlarge your moyo is P10. O5 is too close to your own strong group.  You could also play N4 to prevent white's jump if you really want.  H4 group is weak and w will start attacking here and there and get lots of advantage.]
;W[qh];B[pi];W[rc];B[rd];W[ko];B[lp]C[Bad poke.  Strength your opponent, weaken yourself:-).]
;W[kp];B[mp];W[mq];B[nl];W[lm];B[in];W[hm];B[hn];W[hk];B[ne]
C[H4 is in danger];W[me];B[nf];W[jl];B[id];W[ic];B[hc];W[hb]
;B[gc];W[jd];B[ie];W[ib];B[hi];W[gq]
(;B[fq]C[Definitely too late to defend the group on the bottom.

Yup.  As dead as it can be.];W[fr];B[gp];W[gr];B[gm];W[gl];B[em]
;W[fm]
(;B[eo];W[fn];B[do]
(;W[dn];B[cp];W[bo];B[dq];W[cq];B[bp];W[bq];B[ap];W[aq];B[ep]
;W[ao];B[dp];W[dr];B[cn];W[am]C[W lucky];B[md];W[ld];B[nd];W[mc]
;B[le];W[ke];B[lf];W[il];B[qr];W[or];B[lk];W[kf];B[fo];W[dm]
C[No more review after this since w is too far ahead. 

Thanks for the game.  It's very interesting.  B created two weak groups in the beginning and was under pressure after that.  The key is to keep things light and look for oppurtunities to strength them.  Usually this happens when you start to attack a weak group of the opponents.

Hope this helps.];B[jo];W[jp];B[kn];W[ln];B[km];W[kl];B[bd]
;W[bc];B[cd];W[de];B[db];W[ad];B[ab];W[ca];B[da];W[ac];B[oc]
;W[ob];B[lq];W[lr];B[lo];W[ll];B[gj];W[fk];B[mk];W[lg];B[mf]
;W[kh];B[mh];W[oo];B[on];W[op];B[nn];W[np];B[mo];W[rb];B[pc]
;W[re];B[sd];W[mi];B[ni];W[nj];B[li];W[mg];B[ng];W[ig];B[hg]
;W[gb];B[fb];W[rl];B[lh];W[kg];B[ih];W[rj];B[qk];W[rk];B[qi]
;W[ri];B[rg];W[qo];B[po];W[qn];B[rp];W[qe];B[ro];W[rn];B[qd]
;W[rh];B[ql];W[sn];B[qm];W[qg];B[rf];W[qf];B[se];W[sf];B[sg]
;W[sh];B[sf];W[rm];B[ai];W[ag];B[aj];W[bk];B[jg]C[Arroc [6k\]: Thanks...
yosomi [5k\]: thx])
(;W[cp]C[W mistake:-).  B almost alive after this.]))
(;B[fn];W[fl]
(;B[eo];W[dn])
(;B[dq];W[eq];B[ep];W[eo]
(;B[cp];W[do]
(;B[bp])
(;B[bq];W[bp];B[cq];W[bo];B[dr];W[aq];B[ar];W[bs];B[br];W[ds]
;B[cs];W[cr];B[kn];W[ln];B[cs]))
(;B[cq];W[bp];B[bq];W[cp];B[dr];W[br];B[aq];W[ds];B[cs];W[es]
;B[bs];W[ar];B[hr];W[ap]))))
(;B[cq];W[dq];B[bo]))
(;B[bj];W[bm];B[bh];W[cg];B[bg];W[bf]C[this way c15 is a aji for B.  big yose move.]
))
(;B[cc];W[dc];B[cd];W[ce];B[be];W[cf];B[bf];W[bg];B[dg];W[cg]
;B[db];W[eb];B[cb];W[fc];B[em]C[How about this sequence?]))
