(;FF[4]GM[1]SZ[19]ST[2]CA[UTF-8]AP[SGFC:1.17]

PB[tomasz100]
BR[14k]
PW[Aki13]
WR[11k]
KM[0.5]
DT[2010-11-24]
PC[The KGS Go Server at http://www.gokgs.com/]
RE[W+7.5]
TM[1800]
OT[5x30 byo-yomi]
RU[Japanese]
GC[why I lost?
movement 20
if you can save a group of s4?]

C[Hi Tomasz100, i just skimmed through this game and without looking deep into the moves i can already say that you focus WAY too much on the small pieces of the board and do not see the board as a whole, i will come back to this several times in this review most likely.

There was not much to say for white that i did not already say for black as the game turned into one big mess around move 25.

I would also recommend that you watch theese videos from a fantastic go teacher, it helped me to rise from the 14k stage.

http://breakfast.go4go.net/?Free_Go_lectures_on_video

I am sorry this rewiev was kept so short, but i highly doubt that analyzing the game further would help you progress much and it would also be a pain in the ass for me to think through every possible variation on every move you made in the fight on this board. It basicaly becomes a "big pain with little gain" situation.]
;B[pd]C[tomasz100 [14k\]: hi gg];W[cp];B[dd]C[Aki13 [11k\]: hi gg]
;W[pq]
(;B[jj]C[Ah you play in tengen, this move will in most cases only work if you have a big moyo. We will see in the next move why this is a bad move in this situation.

This is also not a good way to play if you are unfamiliar to the game

If you are unsure what type of moves you can play in this situation i will make some suggestions in the variations.]
;W[jd]C[Here your opponent plays between your corner stones to avoid you from gaining a moyo and increase your probability of making your tengen stone strong.




White: Good move, it prevents black from playing in the same spot to gain a big moyo and get a powerful tengen stone.]
;B[pp]CR[gc][hc][lc][mc][gd][hd][ld][md]TR[po]SQ[qo]C[2 Mistakes.

1. It is too close, attacking at either triangle or square would be more effective, see previous variations to see why.

2. You ignore whites previous move and give him every opportunity to settle down in the middle of potential moyo to exploit your tengen stone. You can place at either of the circles to preven white from getting a too easy time. It could allso be possible to ignore it like you did here, but when you need moyo i think you should try to get in a fight with white on the top.]
;W[qp]TR[jd]SQ[fc][nc]C[White: I am more in favor of expanding your invasion at K16by attacking at one of the squares although it is notthing wrong with your defence of the corner.]
(;B[qq]C[Here you try to fight for the corner, in most cases, if white wins he will gain a wall facing the middle wich will most likely compromise your tengen stones strength.

I would do something like the other variation.];W[rq];B[qr]
;W[pr];B[rp];W[qo];B[rr]TR[gc][hc][lc][mc][gd][hd][ld][md][je]
[cf][df][pf][qf][cg][dg][pg][qg][cj][dj][pj][qj]C[From here on out the game just turns into a huge fight over very little territory, i personally do my best to avoid huge fights like theese and try to find the move that gives me the most points, for example in any of the spots marked with triangle wich is far better than fighting that tiny local fight you two did for the rest of the game.]
;W[qs]C[See variation]
(;B[oq]C[See variations.];W[rs];B[sq];W[or]
(;B[po];W[ro]TR[gc][hc][lc][mc][gd][hd][ld][md][cg][dg][pg]
[qg][cj][dj][pj][qj][eq]C[This is the time you realize you have lost this fight and start playing big moves like the triangled spots.]
;B[ps];W[os];B[nr]C[I'm not gonna comment the fighting from here as i doubt it will help any of you very much and it is very hard to analyze fights like this too.]
;W[nq];B[mr];W[op];B[oo];W[no];B[qn];W[rn];B[rm];W[qm];B[pn]
;W[rl];B[pm];W[ql];B[nn];W[mo];B[mp];W[np];B[mn];W[lp];B[lo]
;W[mq];B[lr];W[ko];B[ln];W[kq];B[kr];W[jr];B[jq];W[ir];B[iq]
;W[hr];B[jp];W[kp];B[jn];W[ks];B[jo];W[ls];B[kn];W[ms];B[hq]
;W[gq];B[fr];W[fq];B[er];W[gr];B[eq];W[ep];B[dp];W[dq];B[do]
;W[dr];B[dn];W[nc];B[fp];W[eo];B[fo];W[en];B[em];W[fn];B[gn]
;W[go];B[fm];W[gp];B[ds];W[cr];B[cs];W[bs];B[es];W[bq];B[co]
;W[bo];B[bn];W[gc];B[ao];W[bp];B[ar];W[ap];B[br];W[an];B[cq]
;W[bm];B[cn];W[bl];B[aq];W[cj];B[ao];W[cg];B[dg];W[ce];B[cd]
;W[df];B[be];W[bf];B[de];W[ch];B[cf];W[ef];B[bg];W[bh];B[af]
;W[eh];B[fe];W[ff];B[hd];W[hc];B[id];W[ic];B[ge];W[eb];B[fc]
;W[fb];B[dc];W[db];B[cb];W[ec];B[fd];W[je];B[nd];W[md];B[nf]
;W[qh];B[jf];W[qe];B[qd];W[oh];B[nh];W[ok];B[qf];W[pf];B[pe]
;W[qg];B[re];W[rg];B[pg];W[og];B[of];W[ph];B[ng];W[ni];B[ke]
;W[kd];B[le];W[li];B[ld];W[lc];B[me];W[mc];B[oc];W[ob];B[pl]
;W[pk];B[mj];W[mi];B[nj];W[oj];B[lj];W[nl];B[ki];W[lg];B[lh]
;W[mh];B[kh];W[mg];B[kg];W[gj];B[fg];W[eg];B[gh];W[fh];B[gg]
;W[ek];B[fk];W[fj];B[dk];W[gk];B[dj];W[di];B[fl];W[dl];B[ej]
;W[ck];B[el];W[ei];B[ek];W[hl];B[dm];W[jl];B[kl];W[hi];B[ik]
;W[il];B[gi];W[fi];B[hh];W[ij];B[ii];W[hj];B[jk];W[gf];B[ig]
;W[hf];B[if];W[hg];B[ih];W[ll];B[ml];W[km];B[mm];W[kk];B[mk]
;W[ol];B[kj];W[pc];B[gl];W[hk];B[cl];W[qc];B[od];W[rb];B[ah]
;W[ai];B[am];W[ak];B[cm];W[bj];B[ag];W[in];B[hn];W[ho];B[io]
;W[im];B[hp];W[om];B[on];W[ed];B[ee];W[he];B[ie];W[lf];B[kf]
;W[rf];B[mf];W[oi];B[pf];W[al];B[rc];W[qb];B[sc];W[sb];B[se]
;W[ca];B[ba];W[bb];B[da];W[bc];B[cc];W[ea];B[ca];W[bd];B[gb]
;W[hb];B[fa];W[ha];B[ga];W[sf];B[gd];W[jc];B[lk];W[kl];B[gs]
;W[lq];B[js];W[is];B[fs];W[hm];B[hs];W[ns];B[gm];W[tt];B[tt]
TW[ia][ja][ka][la][ma][na][oa][pa][qa][ra][sa][ib][jb][kb][lb]
[mb][nb][pb][kc][dg][sg][dh][rh][sh][bi][ci][pi][qi][ri][si]
[aj][pj][qj][rj][sj][bk][qk][rk][sk][sl][rm][sm][sn][so][mp]
[rp][sp][oq][qq][rq][sq][kr][lr][mr][nr][qr][rr][sr][js][ps]
[ss]TB[aa][ea][ab][bb][db][eb][fb][ac][bc][ec][ad][bd][ed][rd]
[sd][ae][ce][ne][oe][qe][bf][jg][jh][ji][dl][en][fn][bo][eo]
[ap][bp][cp][ep][ip][bq][dq][cr][dr][as][bs]C[tomasz100 [14k\]: thx
Aki13 [11k\]: thx])
(;B[ro]TR[sr]C[There we go, alive group, white can do a KO fight by playing on triangle laterin the game because you did not make your group alive from the start, but it is still very much alive.]
))
(;B[rs]C[Your shape is alive, just maintain your eyes and it will work out nicely.]
(;W[ro];B[sq])
(;W[sr];B[sq])))
(;B[po];W[qo];B[pn];W[qn];B[pm]C[Try to build up a wall facing the tengen to exploit its strength.]
))
(;B[jd]C[Standard chinese opening to get the moyo you want and then eventualy play in tengen if it turns out you gain a good amount of moyo]
)
(;B[qo]C[Standard attack, it is on the 3rd line to be safe, you can also put it on the 4th line to be agressive.]
(;W[mq];B[qq];W[qr];B[rq];W[or];B[ql]C[Here you])
(;W[po];B[pn];W[oo];B[qp];W[qq];B[qm];W[nq]C[This is the safe way to go about it as you get a very stable shape, but not much territory.]
))
(;B[po]C[High attack for a more agressive approach.];W[qo];B[qn]
;W[qp];B[pm];W[nq];B[qj]CR[ph][qh]TR[pd]SQ[ql]C[Now the shape becomes a bit more open and you get some territory that compliments the triangle stone. White can also play at square later if he gets a wall at around the circles]
)
(;B[pj]TR[dj]C[This or triangle also works though my guts says to bet on this one.]
))
