(;FF[4]GM[1]SZ[19]ST[2]AP[SGFC:1.13b]VW[]

GN[Fuchs-endofages(B) IGS]
PB[endofages]
BR[24k]
HA[2]
PW[Fuchs]
WR[22k*]
KM[5.5]
DT[1999-05-08]
PC[IGS:  igs.joyjoy.net 6969]
RE[W+134.5]
TM[1800]
US[Brought to you by IGS]

AB[pd][dp]C[Here is the review of your game. Look very throughly through
it. I have made many variations for you.

Have fun];W[dd];B[pp]C[So far so good. Black taking the last remaining corner is wise.]

(;W[cf]LB[qj:d][jq:c][cn:b][nc:a]TR[cf]C[I think this is a white mistake. It would have been better for
white to either play kakari at 'a' or 'b' or split one of blacks
sides by playing 'c' or 'd'.  The marked stone is just too low
for the influence that black has on the board.

See variations.]
(;B[fc]C[This approach move by black is bad. Black should punish white
severly by making the sanren-sei formation on the right side.
In this game making the sanren-sei formation on the right side
is very powerful as it threatens to make a  3 dimensional moyo. Look at the variations. for Black 4]

(;W[hd]LB[hc:a]C[White 5 is allright but I think the low pincer at 'a' would be
better. See the variation.]
(;B[hc]LB[fe:a]C[F16 instead?

No F16 would have just made a heavy black group. There are circumstances
where making the "iron pillar' is powerful.    At this point jumping to 'a' is best. See the variation. If you
take the corner white gets huge thickness and you will have to
deal with it for the rest of the game. Look at the white thickness
long and hard in that varation. Convince yourself that it is
worth way more than the black territory and you will gain a couple
stones in strength.];W[fd]LB[gd:a]C[This move by white is not good. Black can severly punish him
if he is not timid.
By pushing through at 'a' . After that whites position is full
of cutting points.]
(;B[ch]C[K16 instead?

As I should in another variation playing at 'a' would have been
best for black.  K 16 would have been bad.  But playing here is the worst.  After
playing the marked stones at the top you just can't leave them.
Lets look at some variations.];W[ec]C[This white move fails to punish black as severly as he could
have.]
(;B[fb]TR[ch]C[This descent by black is very bad. It is small. It is gote. It
does nothing to secure the black stones. Pushing at 'a' still
would be far far superior. In fact now that the marked stone
is on the board this move becomes better.];W[eb]C[This move by white is okay. But I think there are much bigger
moves on the board. E18 is not urgent becuase the black stones
are weak anyways. Let black deal with the problem. You go stir
some trouble up on the board.]
(;B[nc]LB[gd:a]C[J16 or K16 instead?

Still Pushing at 'a' is best.];W[ic]C[I have no complaints about this move. If black is to take the
corner then I would take these stones. White will be very thick
when he takes them. All of his stones will be strong and he will
be free to attack black.];B[ib]
(;W[hb]C[This white atari is bad. It just makes B's stones stronger. White
should press at 'a' instead. Settleing his corner (which is quite
large) and then attack B's resulting weak positions.

See variations];B[gc];W[jb];B[id]C[This black cut is great!]
;W[ia]
(;B[jc]C[This B atari is bad. If B is going to push out at 'a' then I
would do that first and see how white responds.];W[ib];B[gd]
;W[he];B[ge];W[ie];B[fe];W[jd];B[ed]C[This exchange is odd and should have never happened. White should
have taken the two stones shown in an earlier variation.];W[kc]
LB[dc:a]C[taking with white 29 is bad here as B will (or should (smile)
immediatly cut at 'a']
(;B[lb]LB[jp:d][dc:c][id:b][jc:a]C[This move is pointless. It is on the second line. It "could be"
an eye-stealing tesuji. If white was not already alive with eyes
at 'a' and 'b' black should have cut at 'c' left the strong b
stones (the marked stones) to look after them selves and made
a sanren sei at 'd'];W[ee]LB[ee:a]C[This white move is bad as black should just cut at 'a']

(;B[ef];W[de];B[cn]
(;W[fq]TR[cn]C[Why didn't white cut at 'a'. this really would have been terrible
for black. So this definatly shows that black playing the marked
stone is a mistake. But white makes a mistake also by approaching
the Black corner enclosure.];B[eq]TR[ch]C[Protecting the corner is wise for black now. Especially with
his weak group at the top. and the marked stone which is to close
to whites thickess for comfort.];W[iq]C[This white extension is bad as you know the next move that is
coming from black. So this would say that the approach  move
at F3 was bad.];B[fp];W[gp]C[This white move is really bad.  As Black will just G3]

(;B[fr]C[G3?

Yes G3 would have been better. This strengthens white.];W[gq]
;B[nq]LB[pj:a]C[This black shimari is great right now. When you extend from stromg
positions the value of each move increases. In this postion Blacks
follow up move at 'a' is huge. the problem is if white takes
it black will slide to 'b' making the marked white group easy
prey.]
(;W[gr];B[es]LB[dr:b][er:a]C[Black should simply connect at 'a' here. Look at the board before
you play your stones. What will you do if white later plays at
'b'? Here the hanging connection just leaves devastating aji
behind in the corner.];W[fo];B[ep];W[lq]C[All these last white moves where ok in settling his group I think.
Though in a handicap game white needs to play more strongly than
he is here.];B[qj]LB[oj:g][qp:e][qd:d][qq:c][qc:b][dr:a][ck:f]
SQ[po][pn][pm][pk][pl][pj][pi][ph][pg][pf][pe][pd][od][nc][mc]
[mb][lb][pp][op][nq][nr][ns][es][er][eq][ep][dp][cp][co][cn]
[cm][cl][cj][ci][bh][ah][af][bf][cf][de][dd][ec][eb][ea]C[Okay this is a great move by black. All commendations for this
move. It is the right direction of play.  Though it is to bad
that in this game the corner shimari's are based on the 4-4 stone.
If these shimaris where based on the 3-4 stone then would have
been devastating to white. But with the stones high. White  still has the opportunity to invade the corner when the time
is right.

Okay at this point lets look at who is ahead. Some quick territory
analysis.
If we say the territory within the enclosed areas are each players.
Then black is clearly in the lead. But at we have discussed before
there is the bad move at 'a' White could play as well as invasions
at ''b', 'c', 'd', 'e' or 'f'  or a capping play at 'g'


Even so if black plays safely he should win this game.];W[ln]
TR[lq][iq][gp][fq][gq][gr]SQ[fo]C[why didn't white invade right hand side?

White is still worried about the life of his marked stones. But
becuase of the presence of the marked white hane  they are quite safe. But in addition to strengthening his group
he is building up to invade the right side. What makes this move
especially nice us that it is again an indirect attack on the
eyeless black group at the top. As we see in the continuation
of the game as black takes territory white expands his influence
in the center.];B[qm];W[nm]LB[fh:a][gf:c][ff:b]TR[ch][ef]C[After this move the white stones are  attacking the eyeless black
group at the top fiercely. If I where black I would definatly
play at 'a' now.  The white  stone is a ladder break for the
cut at 'b'  so black would have to push at 'c' weakening the marked stones
severly.  The group at the top would still be eyeless.  White 51 is an
excellent move. Black should not have let white make it.

If white cuts at 'b' after black 'a' black can get a good squeeze
play.]
(;B[ok]SQ[rr][qr][qq][rq][rp][qp][rc][rd][qd][qc][re][rf][rg]
[rh][qh][qg][qf][qe]C[needed?

It is a good move but your corner is still open and the marked
area is open to invasion. As well as the marked area below. Whites
center is getting larger and the poor black group is getting
sadder.]
(;W[nk]C[This is an okay move by white.  But I can't help but think the
non contact play of the knight move to 'a' to be better.];B[nj]
;W[nl]C[would the cut have been significant? white  could've still lived

White cannot cut here. If white cuts at P10 P11 captures w in
a ladder. I like this white move. It is steady.];B[pg];W[mj]
C[pressing black again here is good. Every move strengthens the
attack on the top b gropu and increases whites terratorial chance
in the center.];B[ni];W[fg]C[After white 59 it is difficult for black to salvage the situation.
I think blacks only choice is to play at maybe 'a' sacrificing
the black group and attempting to make sabaki in the center and
get white to drive you into his moyo and hope to make life. Otherwise
with the top group and the entire center which white would get
if you tried to save this group. And if you did save this group
white would be sio strong everywhere that he would invade all
your weak positions. So again in this game this black group was
vital. Not for territory but for the balance of power on the
board. With this group unstable white was able make a very keen
attack.];B[ff];W[eg];B[df];W[dg];B[cg];W[ce];B[gg];W[hf];B[gf]
;W[gh];B[fh];W[eh];B[fi];W[ei];B[fj];W[ej];B[ij];W[hh];B[jh]
;W[hj]
(;B[ek]LB[hg:a]C[is there any way black can win this fight?


At this point black is almost hopeless. but you could try the
sequence starting with Black 'a'];W[cj];B[bi];W[bj]
(;B[hk];W[hg];B[hi];W[cq];B[cp];W[dr];B[er];W[bq];B[dq];W[cr]
;B[bp];W[ds]
(;B[cl]C[Black could have played the throwin A2 and killed the white corner
group.];W[bs];B[em];W[fm];B[fl];W[gm];B[gl];W[hl];B[il];W[hm]
;B[im];W[in];B[km]C[Here blacks play improves. He must reduce the white center now
that he has lost his top group. It is too bad he missed killin
the bottom left that would have been some compensation.];W[kn]
;B[li];W[lj];B[kk];W[jg];B[kg];W[ii];B[gj];W[ji];B[ih];W[kh]
;B[lh];W[ki];B[kj];W[ig];B[mk];W[lk];B[ml]LB[mm:a]C[Here white should play differently and push at 'a' to connect
his groups. Its okay as he can do it in sente. Never worry about
connecting strongly especially if you can do it in sente. The
sacrifice of the white stones is only 6 points. Invading a black
corner after 'a' is much bigger than 6 points.]
(;W[ll];B[mm];W[lm];B[mn];W[nn];B[mo]TR[mo][mn][mm][ml][mk]
C[What were you thinking when playing the marked black stones?
Had white played properly here you would have only damaged yourself.
Always look at the best move that your opponent could make. And
make the best response to that move before he makes it. Don't
ever hope he will make the blunder that you needed to win the
game.];W[no];B[mp];W[np];B[mq];W[lp];B[op]C[should I have cut at m5?

This result is excellent for you. Unfortunatly you only got it
becuase white was overly concerned with saving 3 stones and not
looking at the whole board.  This is perfect for you. You have
a chance to win again.];W[lo];B[kf];W[oq];B[or];W[qq];B[pq]
;W[qp];B[qo];W[ro];B[rn];W[sp];B[rs];W[po];B[qn];W[oo]C[As soon as you saw White 153 you should have saw the forcing
sequence at Q2, etc.. You should have laughed and calmly played
R2 this kills both white groups and may even win you the game.]

(;B[pk];W[pr];B[oq];W[qr];B[on];W[mr];B[om];W[os];B[ol];W[nr]
C[Okay after this the game is over for black. White can still invade
the top right. The b group at the top is dead. White just made
40 pts at the bottom.

This game was lost by black making some very bad oversights in
reading. Look at the board read out positions much more carefully,
Don't leave forcing moves for your opponent.

I would reccomend you both to pick up Lessons in the fundementals
of Go. It is a great book and you both would gain at least 3-4
stones from really studying it.

Study some Tesuji, Some L & D, and maybe pickup 38 basic joseki.

Hope you enjoyed my review.];B[dk];W[dj];B[bf];W[be];B[ag];W[ai]
;B[ah];W[aj];B[bk];W[ae];B[af];W[en];B[dn];W[dm];B[el];W[cm]
;B[bm];W[jm];B[jl];W[kl];B[jj];W[lc];B[mc];W[le];B[me];W[mi]
;B[mh];W[lg];B[mg];W[lf];B[mf];W[qc]C[Is white's invasion in this position guaranteed  success?]
;B[qd];W[pc];B[oc];W[rd];B[re];W[rc];B[sb];W[pb];B[ob];W[rb]
;B[qa];W[pa];B[ra];W[sd];B[se];W[qe];B[pe];W[qf];B[qg];W[rf]
;B[rg];W[pf];B[of];W[sf];B[kb];W[md];B[nd];W[ld];B[eo];W[fn]
;B[pn];W[oe];B[od];W[og];B[ne];W[nh];B[ng];W[oh];B[oi];W[sg]
;B[ph];W[sh];B[rj];W[si];B[sj];W[ri];B[qi];W[oa];B[na];W[ka]
;B[la];W[mb];B[nb];W[ma];B[ak];W[ci];B[ck];W[bh];B[gs];W[hs]
;B[fs];W[ir];B[dh];W[ap];B[ao];W[aq];B[bn];W[sn];B[sm];W[so]
;B[rh];W[gi];B[hj];W[tt];B[tt];W[tt];TB[sl][sk][rm][rl][rk]
[ql][qk][qh][pm][pl][pj][pi][oj][oh][og][oe][nh][nf][jk][ik]
[gk][fk][do][dm][dl][co][cm][bo][bl][an][am][al]TW[ss][sr][sq]
[se][sc][sb][sa][rs][rr][rq][rp][re][ra][qs][qb][qa][ps][pq]
[pp][or][oq][op][ns][nq][ms][mq][mp][mo][mn][mm][ml][mk][ls]
[lr][lb][la][ks][kr][kq][kp][ko][km][kg][kf][ke][kd][kb][js]
[jr][jq][jp][jo][jn][jh][jf][je][jc][ja][is][ip][io][ih][if]
[id][hr][hq][hp][ho][hn][hc][ha][go][gn][gg][gf][ge][gd][gc]
[gb][ga][ff][fe][fd][fc][fb][fa][ef][ed][ea][di][dh][df][dc]
[db][da][cs][ch][cg][cd][cc][cb][ca][br][bi][bg][bf][bd][bc]
[bb][ba][as][ar][ah][ag][af][ad][ac][ab][aa])
(;B[qr]))
(;W[mm];B[ll];W[qq]C[This move alone would win the game for white.]
))
(;B[ar];W[aq];B[bs];W[ap];B[bn];W[br];B[as];W[cs];B[as]C[There is no way for white to play after the placement move. If
I haven't said it before in this review. Some study of Life and
death tesuji would be useful for both of you. Knowing the eye-stealing
tesuji, the eye protecting tesuji, and some basic fundementals
of life and death are important. guaranteed to make you stronger.]
))
(;B[hg];W[ig];B[ih];W[hi];B[hk];W[fk]))
(;B[hg];W[ig];B[ih];W[gj];B[fk];W[ek];B[fl];W[hl];B[ck];W[ci]
;B[bi];W[cj];B[bj];W[dk];B[cl];W[bf];B[dl];W[dh];B[bh];W[gb]
;B[el];W[fa];B[dj];W[fd]C[So it is hard for black to win here.]
))
(;W[mk];B[ni];W[qd];B[qc];W[qe];B[qg];W[rc];B[qb];W[pg];B[pe]
;W[qf];B[pf];W[rg];B[qh];W[rh];B[ri];W[rb]C[This does alot of damage to Blacks territory.]
))
(;B[fg];W[dg]LB[fi:a]TR[nm][ln][lq][iq][fo][fq][gr][gq][gp]
C[But this brings on white 53. So no matter how we look at it during
analyis of this game. When  black failed to settle this group
he gave himself a big burden. I think now black must play a one
point jump to 'a' and sacrifice the marked stone. To build influence
in the center to reduce the influence of the looming menace of
the marked stones];B[fi];W[eh];B[fh];W[ei];B[ej];W[fj];B[gj]
;W[fk];B[gk];W[fl];B[gl];W[gm];B[hm];W[hn];B[im];W[dk];B[cl]
;W[ck]C[See how painful this weak black group is? lets look at some more
variations])
(;B[fh];W[ff];B[gf];W[fg];B[gg];W[eg];B[dg];W[eh];B[ei];W[df]
;B[dh];W[ef];B[gi]C[This setlles the black group. There is some ajeft behind. But
this can't be helped. Whites attack was very well done. I don't
like sounding like a broken record here but white would never
have had any of this attack had black settled these stones when
he had the chance.]))
(;W[qj];B[kq];W[qm];B[io];W[fo];B[ep];W[ho];B[gn];W[go];B[hn]
;W[ip];B[jo];W[jp];B[kp];W[gr];B[er];W[ir]LB[qp:a]C[Maybe B should simply enclose the corner at 'a' now?]
;B[qp];W[in];B[im];W[jn];B[ko];W[jm];B[il];W[jl];B[ik];W[jk]
;B[ij];W[jj];B[fn];W[en];B[eo];W[em];B[dk]C[This would be horrible for white.]
))
(;B[gq];W[fr];B[gr];W[er];B[dr]TR[iq][gp][er][fr][fq]C[The three marked white stones are dead. And the marked stones
on the outside are looking very sad.]))
(;W[ff]LB[fg:b][gf:a]TR[fb][fc][gc][hc][gd][ge][fe][ed]C[Now B's only choice is to push at 'a' pushing at 'b'would kill
the marked  stones.]
(;B[fg];W[gf]C[Now Black is dead.])
(;B[gf];W[fg];B[gg]C[Don't let the opponent hane at the head of your stones.]
;W[fh]C[Don];B[gh];W[fi];B[gi];W[cj]LB[pj:a]C[Black makes alot of territory this way. Black builds up some
thickness in the center. But at our level I don't know if it
is sufficent compensation even if he plays at 'a' now and makes
a sanren-sei formation];B[pj];W[qf];B[qe];W[pf];B[re];W[qj]
;B[qi];W[qk];B[pi];W[qn];B[pk];W[pl];B[ol];W[pm];B[om];W[on]
;B[nn];W[nm];B[nl];W[mm];B[oo];W[pn];B[no];W[ml]C[So many ways to play. Difficult to show. Just remember that groups
must make life in thier opponnest sphere of influence. if they
cannot they die. Learn to profit from the attack. Don't try to
kill a group unless you can read out that from becoming to end
each move in the sequence is absolutly forced. If not fighting
a big fight and losing makes what is known as korigutchi (spelling)
meaning over developed shape. Moral of the story. Only fight
a fight you know you can win. Otherwise make a strategy that
can profit indirectly from the attack.])))
(;B[de];W[fd];B[ef];W[ed];B[fg];W[df];B[dg]LB[cg:c][eh:b][gf:a]
C[The black group breaks out. But this can't be called thickness
as White has kikashi moves (forcing moves) at 'a', 'b' and 'c'.
No matter what way I look at it I think settleing this B group
earlier was better.]))
(;B[dc];W[db];B[de];W[cd];B[ce]
(;W[be];B[cc];W[bd];B[cb]C[So you can see that white has to let black split him or suffer
severe losses.])
(;W[cc];B[be]C[This is a great result for black.]))
(;B[jp]LB[pj:b][dc:a]C[Now if white protects the cut at 'a' Black plays 'b']
;W[cc];B[pj]LB[fg:b][ee:a]C[Black is easily in the lead. Should White press at 'a' Black
should just jump to 'b'];W[ee];B[fg]LB[dc:a]C[Black is safe. White won;t have much to gain from this attack..Though
maybe B shouldn't have left this group weak and cut at 'a' long
agi. Then he would have not had to worry about running to the
center.]))
(;B[gd];W[he];B[fe];W[ed];B[ge];W[hf];B[jd];W[lb];B[jc];W[ib]
;B[kc];W[lc];B[ld];W[mc];B[md];W[nb];B[oc];W[ob];B[pb]
(;W[ei];B[kb];W[ka];B[ma];W[la];B[oa];W[mb];B[pa]C[Whites groups is dead so white has to  block at L18.]
)
(;W[kb]C[Now Black is free to attack the white center stones. And the
white stones on the side are low, not completly alive. black
has huge thickness extending down the right side. The game is
over black wins. moral of the story. Don't ne so eager to take
territoty. learn the power of thickness. use it to attack with
incredible force.];B[pj];W[eh];B[dg];W[df];B[eg];W[ef];B[fg]
;W[ff];B[gf];W[gg];B[hg]
(;W[if];B[gh])
(;W[gh];B[if];W[fh];B[ck]C[You see how hard it is going to be for white now? Anywhere he
moves B is taking huge territory.];W[nq];B[oq];W[np];B[pn];W[jq]
;B[or];W[nr];B[nn];W[fq];B[eq];W[fp];B[er];W[fr];B[ii];W[hh]
;B[ig];W[ih];B[jo];W[lp];B[hp];W[hq];B[jh];W[hi];B[ij];W[hj]
;B[ik];W[hk];B[il]C[Look at the moyo B is building. poor white ;(]
))))
(;W[gc];B[hb];W[gb];B[id];W[jc];B[jb];W[kc];B[kb];W[lc];B[lb]
;W[ie]C[This is a great result is white. Making black crawl on the second
line for life is sucess, sucess, sucess. The fourth line is the
line of influence, the third line is the line of terrotory, the
second line is the line of defeat. Don't crawl on thje second
line. Always push on the third line. Okay?]))
(;B[gd];W[ge];B[gc];W[he];B[fe];W[ed];B[id];W[ie];B[jd];W[ff]
;B[ck]))
(;B[gd];W[fb];B[gc];W[ge];B[fe];W[ed];B[he];W[gf];B[id]C[Now Black has some compensation at least for giving up the corner.
Before he had nothing.]))
(;B[gd];W[ge];B[gc]LB[ed:c][he:b][fe:a]C[Now white has cutting points at 'a' and 'b' as well as black
can play at 'c' in sente splitting the white groups in 2. Julias
Ceasar divide and conquer. It applies to go.])
(;B[jc];W[gc];B[gb];W[gd];B[ic];W[ec];B[fb];W[cn]C[This is a simple explanation but it is easy to see that white
can leave the sitation before black to make a big move somewhere.
Remember everytime you play go. When you are reading out sequences
always keep at the top of your mind whether you are ending in
sente or gote. These are not just words but essential concepts.
DON'T PLAY IN A WAY THAT GIVES YOUR OPPONENT FORCING MOVES.]
))
(;B[fe]
(;W[db]LB[fg:a]C[If white takes the corner black should just expand his influence
along the side by playing at 'a'];B[fg];W[ch];B[jd])
(;W[hf]LB[hb:b][db:a]C[If white jumps to 7 then black slides to 'a' then to 'b']
;B[db];W[cc];B[hb];W[jc];B[cb];W[bb];B[ba];W[ac];B[fg]C[Okay you guys (gals) see the difference?]
)))
(;W[hc];B[cc];W[dc];B[cd];W[de];B[db];W[eb];B[cb];W[ec];B[ce]
;W[df];B[bf];W[bg];B[ae];W[fd]LB[pj:a]C[This is much better for white. Black may have got the corner
but they are sealed in and out of the game. This white thickness
black will have to deal with for the rest of the game. At this
point it still would be best for black to make the sanren-sei
formation by playing at 'a']))
(;B[pj]LB[nc:f][fq:e][nq:d][qn:c][qf:b][jp:a]C[Here is a powerfull play it threatens to play 'a' and forms a
huge moyo. It doesn't matter where white approaches now and he
is going to help black. But there are terrible moves. Whites
worst moves would be at b,c,d,e Any of these moves black would
simply attach and make white heavy. Lets look at one ,
what happens if W approaches at 'c'?
If I was white I would approach at 'f'];W[qn];B[qo]C[Black attaches]
;W[pn]C[White stands at 7];B[no]LB[qj:b][pl:a]TR[pj]C[Black plays the perfect attacking aiming at the two white stones.
Because of the marked stone. White can only make a very narrow
extension to 'a' When the proper move (honte) would have been
to play at 'b'  or one above. White is now heavy and rather Black
trying to kill this group he should attack it in such a way as
to make territory while attacking.];W[pl]C[To continue];B[nk]
C[There are may ways to play from here ok? Do you see this as clearly
superior way to play?]))
(;W[nc];B[pf]
(;W[jd]C[White can either play this way leaving an invasion at the corner
for later, or see variation])
(;W[pb]C[Or white can settle the shapes this is more peaceful and simple.
The 3 space high extension is more high level play.];B[qc];W[kc]
)))
