(;FF[4]GM[1]SZ[19]ST[2]CA[utf-8]AP[SGFC:1.17]

PB[neilh23]
BR[8k]
HA[0]
PW[gonosen]
WR[7k]
KM[0.5]
DT[2010-11-14]
PC[The KGS Go Server at http://www.gokgs.com/]
RE[W+17.5]
TM[600]
OT[5x20 byo-yomi]
RU[Japanese]

C[Hi, thanks for the reviewing this game!
I've flagged the moves I flagged from reviewing myself; in general, I think I failed to strengthen myself whilst attacking my opponent's weaker groups.

B: Hello. I'm Biondy (1 dan) I'll start my review with B];B[qd]
;W[dp];B[dd];W[pp];B[kc];W[fc]
(;B[dj]C[B: I think this is quite strange...];W[ic];B[ke];W[cc]
;B[cd];W[dc];B[ed];W[pj]
(;B[jp]C[This move proved very difficult for me - I want to play near Q13 after Q10, but white's follow-ups (r12, or o10) looked set to create a huge moyo. There was also the top right hand corner, which didn't feel settled - should I have punished white's tenuki?
With this move, I wanted to stop white k4 - looking back, I think it was a mistake

B: I personally think this move is strange... Usually K3 is the usual place for this invasion.]
;W[oc];B[pc]CR[kc]C[B: This move is correct due to the marked stone. Good move.]
;W[od];B[qg]C[Overplay - as proved by white's response

B: not really...];W[pd]
(;B[qb];W[qe];B[rd];W[re];B[ob];W[pg];B[ph];W[og];B[oh];W[qh]
;B[qi];W[rh];B[ri];W[rg];B[qk];W[nh];B[oj];W[qm];B[pk];W[sd]
C[I'm not sure why white played this?

B: It's sente in endgame, but... I think you can ignore this move for now]
(;B[rb];W[ie];B[nb];W[bc];B[bd];W[dg];B[ec];W[eb];B[fd];W[gc]
;B[ci]
(;W[cg]C[B: This is too heavy. If you're under the same situation with white (I mean... when you're invading), remember to play it light.]
;B[fg];W[ff];B[ef];W[eg];B[gf];W[fh];B[gg];W[ei];B[cm];W[gh]
;B[ig];W[co]C[B: Nice moves by black. The white stones are still weak..]
;B[om]C[Bad move, I should've played e7, I think?

B: E7 is fine.. but I think this move has its own potential....]
;W[ck]C[ouch :-(];B[dk];W[cl]
(;B[dm];W[bm];B[bn];W[bo];B[bl];W[bk];B[am];W[bi];B[dl];W[bj]
;B[fq];W[eq];B[fp];W[fr];B[gr];W[er];B[hq];W[fn]C[overplay from white?

B: Yes. I think this is too dangerous.];B[eo];W[en]
(;B[do]C[B: Perhaps a direct block is better here.];W[dn];B[cn]
;W[fk];B[bp];W[cp];B[ao];W[bq];B[ap];W[aq];B[an];W[cr];B[fl]
;W[gl];B[fm];W[fo];B[gm];W[ep]
(;B[hm]C[messy for black

B: I think black should cut here.];W[hl];B[il];W[hj];B[ik];W[mp]
;B[pq];W[qq];B[qp];W[rq];B[op];W[po];B[oo];W[oq];B[pn];W[qo]
;B[qn];W[ro];B[nq];W[pr];B[np];W[rn];B[nr]C[B: black somehow grab a big moyo. The game is still even I think.]
;W[nn]C[B: Black must handle this fight right if he wants to win.]
(;B[on];W[ml]
(;B[mn]C[B: I think this is wrong place to start an attack.. And perhaps the losing move.]
;W[ln];B[mo];W[lo];B[lp];W[mm];B[mq];W[kl];B[jm];W[mj];B[hh]
;W[hi];B[ii];W[ij];B[ji];W[bf];B[jf];W[me];B[ko];W[kn];B[jn]
;W[ho]LB[ni:A][ij:B]C[B: The game is over. Too bad black can't cut due to the stone at B.

I personally think black should pay attention more in the opening. I think you should learn the opening from pro games (just see the first 20 moves or so and learn the usual moves at the opening) so you can improve your opening.

Also I think you should learn about attacking as well. Black has a nice influence in this game, but didn't use it well to fight. Perhaps you should look for "Get Strong at Attacking" to get more feel about aiming weak stones. 

I think these two are the issue from this game, but overall you're playing well. Keep up the good work.

Biondy (http://unlimitedgo.blogspot.com/)]
(;B[io];W[hp];B[iq];W[nj];B[ok];W[lc];B[ld];W[lb];B[kb];W[mc]
;B[md];W[nc];B[ne];W[oe];B[mf];W[nf];B[le];W[mg];B[lg];W[lh]
;B[kh];W[li];B[kg]C[not neccessary];W[gd];B[rl];W[rm];B[nm]
;W[ql];B[rk];W[oi];B[pi];W[ni];B[nk];W[mk];B[ib];W[hb];B[jb]
;W[ge];B[fe];W[gp];B[gq];W[sc];B[sb];W[kj];B[hk];W[gk];B[jj]
;W[ej];B[ac];W[bb];B[rc];W[se];B[ab];W[ba];B[km];W[lm];B[gn]
;W[go];B[hn];W[jd];B[kd];W[ch];B[sh];W[sg];B[si];W[pl];B[or]
;W[pq];B[ps];W[qs];B[os];W[nd];B[jk];W[kk];B[la];W[ma];B[ka]
;W[mb];B[na];W[hf];B[if];W[he];B[hg];W[di];B[cj];W[ek];B[ak]
;W[ai];B[al];W[be];B[ae];W[af];B[ad];W[de];B[fs];W[es];B[gs]
;W[df];B[ee];W[ce];B[ff];W[ia];B[je];W[jc];B[me];W[sl];B[sk]
;W[sm];B[aa];W[db];B[aj];W[bh];B[ip];W[ki];B[ja];W[ha];B[jl]
;W[em];B[el];W[qf];B[ol];W[tt];B[tt]TB[bm][hr][hs][ih][im][in]
[ir][is][jg][jh][jo][jq][jr][js][kf][kp][kq][kr][ks][lf][lq]
[lr][ls][mp][mr][ms][ns][oa][pa][pb][pj][qa][qc][qj][ra][rj]
[sa][sj]TW[ag][ah][ar][as][bg][br][bs][ca][cb][cf][cq][cs][da]
[dh][do][dq][dr][ds][ea][eh][eo][fa][fb][fi][fj][ga][gb][gi]
[gj][hc][hd][id][lj][lk][ll][mh][mi][ng][of][pe][pf][qg][qp]
[qr][rf][rp][rr][rs][sf][sn][so][sp][sq][sr][ss])
(;B[ni];W[mi];B[mh];W[ng];B[lh];W[jj];B[kj];W[kk];B[ki];W[jk]
))
(;B[mj]C[B: This is the vital point.];W[jj];B[ij];W[ii];B[ji]
;W[ki];B[jh]
(;W[kj];B[mh];W[ni];B[mi];W[nj];B[nk];W[oi];B[ok];W[pi];B[mf]
C[B: White stones are still weak.])
(;W[lj];B[mi];W[ni];B[nj];W[lh];B[mh];W[mg];B[lg];W[kg];B[lf]
;W[kh];B[jg];W[kf];B[jf];W[le];B[mf];W[je];B[kd];W[hg];B[li]
;W[kj];B[hf];W[hh];B[if]
(;W[me];B[ng];W[kl];B[lm];W[mm];B[ln]C[B: Black can fight here.]
)
(;W[ng];B[me]))))
(;B[mo];W[on];B[pm];W[ml];B[mj];W[lo];B[mn];W[nm];B[ln];W[ol]
;B[pl]C[B: I think black is fine here.]))
(;B[gk]C[B: Black should cut here.];W[hl];B[hk];W[ik];B[ij]
;W[jk];B[hi]C[B: White stones would be weak.]))
(;B[dn];W[do];B[fl]C[B: I think this one is better.]))
(;B[dl];W[bm];B[dm];W[bn];B[gj]CR[om]C[B: You can try to attack white. Your marked move makes black thick in the center. You may start a fight here...]
))
(;W[fg];B[bg]))
(;B[fq];W[nb]
(;B[sc]C[B: This one is incorrect.];W[rc];B[se];W[rb];B[ra]
;W[oa];B[pb];W[sb];B[pa];W[sd])
(;B[rc]C[B: I think black can still alive this way...];W[oa]
;B[pb];W[sb];B[sc];W[rb];B[se]
(;W[qa];B[ra];W[sa];B[ra])
(;W[sf];B[ra];W[sd];B[sa]))))
(;B[qc]C[B: why not this?];W[qe];B[re];W[qf];B[rf];W[pg];B[qh]
CR[kc][ke]C[B: However, you must take care of these 2 stones... But I personally think they're quite strong.]
))
(;B[nq]C[B: you can start the direct approach...]
(;W[qn];B[pr];W[qq];B[kq])
(;W[oq];B[np];W[pn];B[jp]C[B: perhaps this...]))
(;B[cn];W[fq];B[bp];W[cq];B[en]C[B: or like this? Black stones are working well here..]
)
(;B[jq]))
(;B[hc]
(;W[cc];B[dc];W[cd];B[de];W[db];B[eb];W[cb];B[ec];W[cf];B[eg]
;W[cg]C[B: Black looks ok here...])
(;W[fe];B[df];W[db];B[cc];W[he];B[ci]))
(;B[cf];W[db];B[cc];W[ic]C[B:This one is too easy for white...]
)
(;B[ec];W[fd]
(;B[df];W[ic];B[je];W[gf];B[ci]C[B: this one is also usual. Black can skip the last move and tenuki.]
)
(;B[cf];W[ic];B[od];W[ef];B[df];W[eg];B[ci];W[mc]C[B: You can play this way if you like territory.]
)))
