(;FF[4]GM[1]SZ[19]ST[2]CA[UTF-8]AP[SGFC:1.17]

PB[Karosa]
BR[5k]
PW[FireTruck]
WR[4k]
KM[0.5]
DT[2010-10-27]
PC[The KGS Go Server at http://www.gokgs.com/]
RE[B+11.5]
TM[1800]
OT[5x30 byo-yomi]
RU[Japanese]

C[Hi,
firstly thanks in advance for taking your time to review this for me.

Recently I've noticed that in many of my games when I've lost, I don't really know why. It seemed as if my opponent was doing what I wanted them to do yet result, it seems was disadvantageous for me. I this review, if you could, I would like to know where in my basic attacking strategy am I going wrong, where I should play instead and if you would be so nice to also show me some ways to attack more effectively. I've sort of read the 'Attack and Defense' book but it seems hard to find similar positions in my own games.

And finally after all that, I was white in this game.

Hello!

I am Bernd, HonFu here in the GTL, on KGS and in most other online go places.

To find out how to attack in the right way is a long road, on which we all are travelling. To become better at it, you must study every area of knowledge in go: life and death, tesuji, shape, and so on. Most of all it is a matter of experience. But I will try as well as I can to point out some basic things which hopefully will help you on your way.

The main thing that is necessary for you now is to learn about the "business" side of go - what is it that you get, and what do you give for it?

I will explain with many examples.];B[pd];W[qp];B[cd]
(;W[dq]C[Hon: First of all, before you can fight, you must build up a strong position in the fuseki. You can not attack, where you are not strong. But in this game you are white, and with this move you go for a rather patient game, relying on accumulating points here and there and reducing black's influence later.]
;B[do]TR[cd]C[Hon: The reason is, that black can play a corner approach that at the same time develops from his own stone.]
(;W[dm]C[Hon: You pincer him. And although that is not impossible, a pincer normally works better when the stone in the upper left is white, not black.]
(;B[cq];W[cp]LB[cm:A]C[Hon: I have never seen this variation, just had to look it up at kogo's myself. :-)


I am not really strong enough for joseki science, but I will try my best to find some alternatives.]
;B[dp];W[bq];B[cr];W[eq]
(;B[co];W[bp]
(;B[br];W[bo]C[Hon: Good spot.]
(;B[em]
(;W[cn]C[Hon: Yes, of course playing it safe is enough. If you capture the corner stones and stand on both sides, it will be a good result for you.]
;B[en]
(;W[gp]C[at this point i think i was doing better than black

Hon: But the sequence that follows is not bad for black I think.]
;B[dl];W[cl];B[ck];W[dk];B[el];W[bk];B[cj];W[bm]LB[ci:A][ej:B]
C[Hon: Black acquired a lot of strength and has sente.

If we go back to your initial question - why do I get no convincing result, although he did what I wanted - we have to look at the local result from a neutral point. What did both players get in this sequence?

White has got something like 20 points in the corner. That in itself is not so bad, but also no terrific win. (Compare 2nd variation.)

White has started to develop on the lower side, but on the left side he is rather subdued. There will be a tesuji at A later though, if black does not do anything here now. But as it is, black has got a wall in the center, which combines not too bad with his two other stones. Let's say he captures with B now, his stones have just started to make a moyo.

All in all, white has got more profit than he should have had, but black has not been owned here. At least on our level this would not yet decide the game.]
(;B[go]C[Hon: This move is totally pointless. He strengthens you for no reason.]
;W[hp];B[op]
(;W[mq]C[Hon: I think, this pincer is a bit pointless, because you extend from a strong group. 

We always want to play away from living groups. If you go from here, black might just give you what you want, and you end up with 40 or 50 points in the lower left - but nothing else. meanwhile black develops in every other place. When a group is solid, it is important to play somewhere else, away from it.]
;B[kq]C[Hon: Your answer for this move will show, if you have understood the meaning of the tight low pincer or not.]
(;W[mo]C[Hon: I think, this may be possible, but you can do easier.]
;B[ko];W[iq]C[Hon: This move is way too slow. You play once more from your living group.]
;B[on];W[qn];B[mn];W[oq];B[pq];W[pp];B[nq]
(;W[oo];B[or];W[no];B[mr]C[Hon: Like this black gets the points in the corner, and your group is not yet completely settled.]
;W[np];B[lq];W[oq];B[mp];W[pr];B[op];W[qq];B[oq]LB[nc:B][ed:A]
C[Hon: Okay, so far you have become solid again in the corner, that is alright. But you must now watch out, that his influence does not grow anymore. The group is alive - so just tenuki and play something on the upper side.]
;W[nn];B[mm];W[nm];B[nl];W[ol]
(;B[lo]C[Hon: Strange.];W[nk]C[Hon: Good.];B[ml]
(;W[om];B[mk]C[Hon: Again, strange, pushing you like this.]
;W[nj];B[id]TR[ok][pk][qk][rk][sk][pl][ql][rl][sl][pm][qm][rm]
[sm][on][pn][rn][sn][po][qo]C[Hon: Including your opponents fault, you have got around 20 more points here, in gote. Also you have increased your influence. Locally it is a great result for you. But black has also got something - he has played first on the upper side.]
(;W[ph]C[Hon: This is terrible ...];B[qf]C[Hon: ... and your opponent punishes you right away.]
;W[qh]TR[pi][qi][ri][si][oj][pj][qj][rj][sj]C[i think my move here might have been a little too passive. if you think so too could you suggest some better moves with follow up moves? because a lot of the time when i invade deeply i either die or hurt my own territory

Hon: Again the problem is to calculate, what BOTH players get. You have increased your position by 9 points in gote (a medium-sized endgame), while your opponent got in R6 for free.

Invading and thereby losing territory is not necessarily a catastrophy - you get something, you lose something. If you shun away from invading and instead add stone on stone to your already alive groups, you will just take one bite at a time, and let the opponent have two bites, without any fight.]
;B[nd]LB[oc:A]C[Hon: Should be rather at A to enclose the corner. He will have something around 17 points in the corner then - a total plus, compared with your 9 points. Also he will develop the upper side.]
;W[mj];B[lj];W[li];B[ki];W[lh];B[kj]
(;W[in]TR[iq]C[maybe this was a little early, i probably could have done something on the top first, but again I guess I played there because i didn't know what I could do on the top

Hon: From the flow it was logical - you first give him some more influence, so afterwards you have more reason to play J6. The problem is, that you overconcentrated yourself already. too much.

The marked stones have increased your corner somewhat, and reduced the black influence somewhat. But since you have played too cramped on the right side, the black wall - in relation to your group and the moves he got on top and in the upper right - has not to do so much to obtain an at least equal result.]
;B[ec]C[Hon: A very large point.];W[ce]
(;B[de];W[cf]
(;B[df];W[bd]C[Hon: Good.];B[cg];W[cc];B[dd];W[bg];B[bh];W[bf]
;B[ch]
(;W[bb]C[this is probably too small since I was losing

Hon: The corner seems alive without, so yes.];B[kh];W[hm];B[gl]
;W[ik];B[lg];W[nh];B[rg]C[Hon: Game over. So - end of review.

I think my main problem, particularly in this game is where and when to invade, this is probably out of the scope of this game but in many of my games where I have invaded and lived, i looked back wondering if i should have invaded at all, my invasion cut off my potential reducing places and it lived small and heavy. Also I don't know if this helps but in most of the games I've lost without a fairly large area dying, it's been about 5 - 15 moku.

and of course, thanks again for this review

Hon: If invasion is necessary, do not hesitate. In positions where you are behind, there is no other choice, so dive right in and try your best. If you want to improve your survival skills, practice tesuji and life-and-death problems.

But what is more important - get more experience with the trading matter. Whenever you play something, try to evaluate, what both players get, and who is better off. But don't think like - Yes, I got a good result, so I won! But rather try to find out, if you have a slightly better result, a better result, a promising result, or if the result means total ownage of your opponent. 

In this game, there were many places where you did not get that much more, and in some places you even got a lot less than your opponent. So this is what you must work at.

First, you got to try this in every game with every move - evaluate the local result for both sides. To practice that and get into this kind of thinking more, two things are good.

- Study the endgame (there are some good books). You got to learn to know the exact value of a move, otherwise you can not determine if it's worth playing it now.

- Study a joseki dictionary (of course that takes a bit longer). Because in joseki, again and again this kind of evaluation is done - who is better, and why, and by how much, so you will get a better feeling for it.

Good luck on your journey!];W[rh];B[sh];W[si];B[sg];W[rj];B[hi]
;W[hj];B[gj];W[hk];B[gk];W[ii];B[ih];W[qc];B[qd];W[pc];B[oc]
;W[ob];B[nb];W[pa];B[rc];W[rb]
(;B[rd];W[sb];B[na];W[ra];B[bj];W[db];B[eb];W[ea];B[fa];W[da]
;B[gb];W[mg];B[mf];W[nf];B[me];W[qg];B[rf];W[oe];B[od];W[hh]
;B[gi];W[jh];B[ig];W[ji];B[jg];W[gm]C[maybe even here there could have been a better move, but i think by now I was definitely losing]
;B[jk];W[ij];B[jr];W[ir];B[is];W[hs];B[js];W[gr];B[qr];W[rr]
;B[ps];W[rs];B[og];W[ng];B[pf];W[oh];B[ak];W[bl];B[dn];W[cm]
;B[fp];W[fq];B[fo];W[jq];B[kr]C[here i realised black might have been able to do something with the b7 group]
(;W[an];B[jm];W[hl];B[ho];W[io];B[jo];W[jn];B[kn];W[fm];B[fl]
;W[al];B[aj];W[jl];B[kl];W[il];B[ag];W[af];B[ah];W[pe];B[ip]
;W[jp];B[kp];W[sc];B[sd];W[qe];B[re];W[ne];B[ep];W[lf];B[kg]
;W[md];B[le];W[ld];B[ke];W[pg]
(;B[kd];W[of];B[qs];W[jj];B[kk];W[im];B[km];W[ip];B[dc];W[ba]
C[probably nothing here but to lazy to see if there was by the point]
;B[oa];W[pb])
(;B[of];W[mc];B[kd];W[kc];B[mb]C[i don't think this works for me but oh well it was worth the try]
))
(;W[jm];B[an]
(;W[am];B[aq];W[ap];B[ar];W[dr];B[aj];W[cs];B[al]C[and i think it works ... unless i misread]
)
(;W[ar];B[bn])))
(;B[sb];W[rd];B[sd]C[black could have played ko here but i guess they didn't want to...]
))
(;W[lc]C[Hon: Since you have some support in this area, you can afford a deep invasion. Either you run towards M12, or you live at the edge and steal away a lot of his territory.]
))
(;B[bd];W[bj];B[ci];W[bi];B[ch];W[bg]C[Hon: Submissive. If it's enough to win alright, but it does not look like it.]
))
(;B[bd]C[i felt like trying c15 but if black had played b16 instead could i have done anything?]
;W[ci]C[Hon: There is some aji for you to exploit. 

The question is - will a small living group RIGHT NEXT TO THE OTHER LIVING GROUP be enough? Rather it seemed more important to split the top.

Play away from living groups!]))
(;W[ed]C[Hon: In the chinese formation you can normally enter here.]
(;B[df]C[Hon: A usual sequence goes like this ...];W[cc];B[bc]
;W[dc];B[bb];W[gc];B[hb];W[ge];B[if]C[Hon: ... which would give you a cramped position, but you have invaded at least.]
)
(;B[dc]C[Hon: This is another standard ...];W[de];B[ce];W[dg]
;B[cf];W[fg];B[ch]C[Hon: ... with black taking territory and you travelling outwards in light shape. Now black's influence might help attacking you sharply though.]
)
(;B[dd]C[Hon: Since black has very much influence, he can also attack you very hard ...]
;W[ee];B[df];W[gd]C[Hon: ... but you should be able to survive this.]
)))
(;W[pf]C[maybe i should have gone deeper here? or maybe there are problems with my previous moves

Hon: Your previous moves were okay. But it is again the problem: You got to watch out not to become overconcentrated. The lower right is a large territory, and totally alive, so it is not really necessary to play from there. IF you play from there, then with the maximum effect.]
;B[nd];W[qd];B[qc];W[qe];B[rc];W[nf]TR[og][pg][qg][oh][ph][qh]
[rh][sh][oi][pi][qi][ri][si][oj][pj][qj][rj][sj]C[Hon: If we assume, that black does the monkey later, you have added the marked points to what was there before. So you acquired about 18 more points in gote, but you also gave black a corner of 13 points, so your move did not add SO much to your position down there and rather helped black.]
)
(;W[nc]C[Hon: In my own games, if I fear overconcentration, I would rather split the opponent than extending more from a very solid group.]
;B[oc];W[nd];B[qf];W[kc]C[Hon: It has the disadvantage that he reduces your power on the right side somewhat, but you split the upper side and can enter his corner later. Your territory on the right has not become any smaller.]
))
(;W[ok]C[Hon: This side is more important. Black can not really do anything with his stone.]
))
(;B[ok]C[Hon: Black should just press on. The bottom group is alive on its own.

With your push at O6 you will capture P6 for an additional profit of maybe ten or so points, but is it really worth it, if black gets more strength in the center?]
))
(;W[or]C[Hon: I think, taking the corner is better.];B[np];W[nr]
;B[mp];W[in]C[Hon: If you play for example like this, you keep your points and split his influence.

But better would have been to not start a fight in the corner after L3, but just connect.]
))
(;W[oq]C[Hon: You can just connect, this is what the pincer was aiming at. Black usually prevents that instead of playing something like L3.]
;B[pq];W[pp];B[nq];W[or];B[np];W[nr];B[mp];W[mr];B[ko]LB[fc:A]
[nc:B][in:D][jp:C]C[Hon: Even if he makes some shape in one way or another, the group sits right to your living group and has no real effect. The main influence of the wall pointing upwards is again undermined by your strong stones at Q4 and R4.

You can go on with the fuseki, something like A or B, and have a good game.

Just like you should not have played from your living group, he should not play close to your living group. Living groups should be avoided by both players!

Also, if you play something like C, then D, you can aim at a double attack.]
))
(;W[pn];B[qq];W[rq];B[pq];W[ro];B[kq]C[Hon: If you play like this, he is making a group in front of your living group. It is a pointless place for him to be.]
;W[tt];B[fq];W[fp];B[er];W[fr];B[dr];W[gq];B[ar];W[es]C[Hon: Nothing here.]
))
(;B[iq]C[Hon: Maybe he should go here, to make most use of his dying stones.]
;W[kq]C[Hon: If you pincer ...];B[fq]C[Hon: ... he can go here to reactivate his corner stones.]
;W[fp];B[gq];W[ep];B[hp];W[fr];B[gr];W[er];B[oq]C[Hon: Something like this.]
)
(;AW[co][fq]AB[dj][cn][dn]AE[cj][bk][ck][dk][cl][dl][el][bm]
[dm][em][en][bo][bp][dp][gp][bq][cq][eq][br][cr]C[Hon: If we assume this formation, white has 15 points, also not so bad.]
))
(;W[cj]C[Hon: Locally one should add a move somewhere here.]
;B[fq]C[Hon: Maybe, black can sacrifice his stones then for outside influence, but the variations I put in here, do not suggest a result too great for black.]
;W[fr];B[gr];W[fp];B[gq];W[ep];B[er];W[dr];B[fs];W[ds];B[gp]
;W[fo]
(;B[gn];W[go];B[ho];W[fn];B[fm];W[gm];B[hn];W[dn];B[eo];W[fl]
C[Hon: Okay, this does not work ...

I leave the variation here so that you can follow my thinking.]
)
(;B[hn];W[gm];B[gn];W[fn];B[fm];W[gl]C[Hon: This seems too hard for black.]
)))
(;W[en]C[Hon: Resisting comes to my mind.]
(;B[dn]C[Hon: If black just cuts ...];W[eo]C[Hon: ... he is playing into white's hands.]
;B[cm];W[dl];B[cl];W[ep];B[cn];W[ck];B[dk];W[el];B[bk];W[cj]
;B[bj];W[ci]C[Hon: Black captures some stones, but white gets a lot of influence.]
)
(;B[fp]C[Hon: Black should go for a counter measure like this.]
(;W[ep]C[Hon: Now this push does not really work well ...];B[eo]
;W[fo];B[fn]C[Hon: ... because black gets this double atari.]
;W[go];B[dn];W[cn];B[en];W[cm]C[Hon: Black has a strange lump, but ...]
;B[fq]C[Hon: ... white loses the cutting stones, and E5 and F5 become almost useless.]
)
(;W[fm]C[Hon: If white gives atari here, he reactivates the pushing through.]
(;B[el]C[Hon: So if black pulls out ...];W[ep];B[eo];W[fo]C[Hon: ... he ends up captured.]
)
(;B[fq]C[Hon: So black would have to capture the two white stones ...]
;W[el]C[Hon: ... but now look at this unusual shape. :-)

Black can still capture the 4 stones, but white gets a radiating ponnuki right in the center.

Maybe this can be called even? 

Well, this happens if you ask a KGS 2d to do some joseki science. ;-)]
))))
(;W[dl]LB[el:A]C[Hon: The normal move would be either this or the hane at A.]
;B[fp];W[fq];B[gp];W[gq];B[hp];W[iq];B[jo];W[jq];B[dj];W[el]
;B[fl]C[Hon: Maybe this kind of confused fight would also be alright?]
))
(;B[cn];W[bn];B[cm]C[maybe this would have been better for black?]
;W[bm];B[cl];W[dr]LB[fq:A]C[Hon: Black gets the advantage of pushing through white's shape, and he has sente. E3 should be rather at A now. But the black group seems to be in an awkward position, the wall pointing to the lower side, where white has stuck his head out already. Also he has no eyeshape yet. 

Hard to say for me for whom this is better.]))
(;B[bo]C[black probably should have played here, i think

Hon: Kogo says so.];W[br];B[fo]C[Hon: This is given there as the normal variation.]
;W[dj]C[Hon: But that would also be a bit easy on white. Black has no base, and white has the corner plus the side.]
))
(;B[bp]C[Hon: Kogo does not say anything about it, but I wonder, if this move is possible.]
;W[co];B[cn];W[bo];B[bn];W[ap];B[an]
(;W[ao]C[Hon: If white plays here ...];B[dn]C[Hon: black connects, and if white tenukies now ...]
;W[tt];B[br];W[ar];B[as];W[bs];B[cs]C[Hon: ... then this ugly ko remains.]
)
(;W[br];B[dn]C[Hon: Black connects, getting a very strong shape. D6 gets hurt, and black can play ko threats in the corner later.]
)))
(;B[fo]C[Hon: Black can jump out, thereby separating the white stone at D7 ...]
;W[fq];B[dj]C[Hon: ... then counter attack.

In this kind of fight, black stands to acquire more at the left side and top than you can get at the bottom.]
))
(;W[fp]C[Hon: One normal way to counter this is to choose a calm joseki without a pincer, one that ends in sente.]
;B[cq];W[cr];B[cp];W[er];B[ck]C[Hon: You end in sente ...];W[fc]
C[Hon: Then get to approach his formation in some way, thereby patiently reducing it and taking a few points.]
)
(;W[co];B[cn];W[cp];B[dn];W[fq];B[dj]C[Hon: This joseki gives you more points in the corner and is also not impossible, but black acquires more strength in the center, you will have to fight more against his growing influence.]
)
(;W[cm]C[Hon: If you really want to go for the left side ...]
;B[en];W[cj]C[Hon: ... then you should extend there. But of course that leads to ...]
;B[fq]C[Hon: ... losses in the other direction.

It might be a matter of taste, but I think it is not necessary for white to battle so hard for the left side. Hand it over to black from the start, and go for some large spot of your own.]
))
(;W[cp]LB[ep:A][eq:B]C[Hon: If you do not want to help black in combining his forces, play here. Of course now he also can approach your corner at A and B, but that move will not necessarily have a relation to C16.

Of course he can still go for a moyo, playing the Chinese fuseki for example.]
)
(;W[ed]C[Hon: There are players who hate all the black moyo fusekis so much, that they approach the corner right away. This is also not impossible, might be a matter of taste.]
))
