(;FF[4]GM[1]SZ[19]ST[2]CA[UTF-8]AP[SGFC:1.17]

PB[Ferushen]
BR[5k]
PW[teofilo]
WR[4k]
KM[0.5]
DT[2010-11-06]
PC[The KGS Go Server at http://www.gokgs.com/]
RE[W+1.5]
TM[60]
OT[20x30 byo-yomi]
RU[Japanese]

C[Hi, thanks for the review.
I chose this game because the end score is w +1.5

Please review for black.

I have made alternate lines in some places where I think I went wrong.]
;B[oe];W[qo];B[ec];W[dp];B[pq];W[np];B[po];W[pp];B[op];W[qp]
;B[oo];W[oq]
(;B[nq];W[or];B[mp];W[nr]
(;B[mq]C[Not good, better to take the stone.];W[pn];B[no];W[qj]
(;B[fp]C[N2 is sente to capture three stones, black can play it in a proper time.

Here, i'd play as black from the other side. Black group n3 can serve as wall toward extension.]
;W[dn];B[dq];W[cq];B[eq];W[cr];B[cl];W[dg]C[Strange move.]
(;B[ci];W[fg];B[cd]C[Also good, white has a floating group, although not that weak.]
;W[jc];B[hc];W[mc];B[oc];W[rd]C[Again a strange move by white.]
;B[qd];W[re];B[qe];W[qc];B[pc];W[qb]
(;B[hg];W[ei]
(;B[kb];W[kc];B[lb];W[lc]
(;B[qh];W[oj];B[lf];W[jf];B[jg];W[if];B[ig];W[kf];B[kg];W[le]
;B[mf];W[jb];B[mb];W[hd];B[gd];W[he];B[ge];W[ic];B[hb];W[je]
(;B[ek];W[gi];B[gk];W[bg];B[hj];W[be];B[bd];W[ce];B[de];W[df]
;B[ee];W[ch];B[di];W[bi];B[bj];W[aj]
(;B[bk];W[bm];B[co];W[do];B[cn];W[cm];B[dm];W[dl];B[em];W[bl]
;B[ck];W[ak];B[cp];W[bp];B[en];W[bo];B[pl]
(;W[ol];B[pk];W[ok];B[pj];W[om];B[pi];W[fs]
(;B[es];W[er];B[fr];W[ds];B[gr];W[lr];B[mr];W[ms]
(;B[pr];W[ns];B[lq];W[kr]
(;B[kq];W[jr];B[mm]C[First force white towards your thick stones.]
;W[jq];B[jp];W[mk];B[lk];W[ml];B[ll]C[Endgame starts.];W[hq]
;B[ip];W[hr];B[pm];W[on]
(;B[qn];W[qm];B[rn];W[rm];B[rl];W[ro];B[ql];W[sn]C[at least 5 stones loss]
;B[mj];W[nj];B[mi];W[nm];B[lm];W[hp];B[ho];W[hi];B[ij];W[qf]
;B[pf];W[qg];B[pg];W[rh];B[rg];W[rf];B[ri];W[sg]
(;B[qi];W[dk];B[el];W[dj];B[ej];W[cj];B[fi];W[eh];B[gh]C[Loss about 10 points in this local exchange.]
;W[ad];B[ac];W[ae]
(;B[bb];W[gp];B[go];W[gs];B[me];W[md];B[fq];W[fh];B[fj];W[gg]
;B[hh];W[ni];B[nh];W[pb];B[ob];W[nd];B[od];W[ne];B[nf];W[oi]
;B[oh];W[iq];B[eo];W[bn];B[dr];W[es];B[si];W[sl];B[rk];W[nn]
;B[mn];W[ia];B[ha];W[ff];B[fe];W[ep];B[sk];W[ef];B[sh];W[rg]
;B[pa];W[qa];B[oa];W[ka];B[nc];W[la];B[ma];W[ja];B[sm];W[fo]
;B[fn];W[sl];B[nk];W[nl];B[sm];W[mo];B[lo];W[sl];B[rc];W[rb]
;B[sm];W[gq];B[fo];W[sl];B[sb];W[sc];B[sm];W[nb];B[na];W[sl]
;B[ra];W[sa];B[sm];W[pe];B[pd];W[sl];B[ld];W[kd];B[sm];W[dd]
;B[dc];W[sl];B[os];W[ps];B[sm];W[cc];B[bc];W[sl];B[hs];W[is]
;B[sm];W[gc];B[fc];W[sl];B[cs];W[bs];B[sm];W[gb];B[fb];W[sl]
;B[ls];W[ks];B[sm];W[ib];B[ga];W[sl];B[cf];W[bf];B[sm];W[tt]
;B[tt]TW[ra][sb][rc][id][jd][ld][sd][ie][ke][se][af][cf][sf]
[ag][cg][eg][ah][bh][dh][ai][ci][di][bj][bk][ck][nk][al][cl]
[am][an][cn][qn][rn][ao][co][so][ap][cp][rp][sp][aq][bq][pq]
[qq][rq][sq][ar][br][ir][pr][qr][rr][sr][as][cs][hs][js][ls]
[os][qs][rs][ss]TB[aa][ba][ca][da][ea][fa][ab][cb][db][eb][gb]
[nb][cc][gc][dd][ed][fd][pe][of][lg][mg][ng][og][ih][jh][kh]
[lh][mh][ph][gi][hi][ii][ji][ki][li][gj][jj][kj][lj][qj][rj]
[sj][fk][hk][ik][jk][kk][qk][fl][gl][hl][il][jl][kl][fm][gm]
[hm][im][jm][km][gn][hn][in][jn][kn][ln][io][jo][ko][mo][kp]
[lp][np]C[You lost in the endgame. The loss on the left together with th right side was about 20 points.]
)
(;B[bc]C[Better local move. No ko threat there.]))
(;B[ej]C[Bigger than r11.]))
(;B[rm]C[this should be better than the game]))
(;B[ls];W[ks];B[kq]))
(;B[ns];W[ls];B[pr];W[os];B[ps];W[ns];B[kq];W[qq];B[ml]))
(;B[fr]C[A standard answer.]))
(;W[dk];B[cj];W[dj]C[This is a problem. It shows, b9 was not a good move.]
))
(;B[co]C[This looks good.]))
(;B[em]C[This looks locally good, but white can play some contact moves to live easily.]
)
(;B[bn];W[co];B[dm];W[en];B[fl]))
(;B[oj]C[This stone is the key stone for white to be stronger and for black yo attack and reduce the right side.]
))
(;B[bn];W[co]
(;B[dj])
(;B[dm]C[leaning attack])))
(;B[he]C[This make a pressure on both white groups.]))
(;B[de]C[This promises a lot of points on the top. Black c8 is not in a direct danger.]
))
(;B[dn];W[fp]
(;B[hq])
(;B[dj];W[jq];B[mr];W[pr];B[hq]C[Not good for white, white's k3 not good, as well as the direction of extension f4. White should try to playa different direction.]
)))
(;B[no];W[qm]))
(;B[mq];W[nq]C[teofilo [4k\]: undo?
Ferushen [5k\]: thanks]))
