(;FF[4]GM[1]SZ[19]ST[2]CA[utf-8]AP[SGFC:1.17]

PB[Lupus]
BR[2d]
PW[ptitlou]
WR[2d]
KM[6.5]
DT[2010-11-19]
PC[The KGS Go Server at http://www.gokgs.com/]
RE[B+17.5]
TM[1800]
OT[5x30 byo-yomi]
RU[Japanese]

C[Lupus [2d\]: hi
ptitlou [2d\]: hi have a good game
ptitlou for reviewer : I choose this game because it drove me into a situation i find both very hard to avoid and very hard to cope with, which is black doing a very big and closed black framework. I don't get at which point I am letting the moyo getting too closed.

[kb\]: Hi - looked like an interesting game.  I will do my best]
;B[pd];W[dc]C[Lupus [2d\]: you too];B[pp];W[dq];B[de];W[cg]
;B[be]C[[kb\]: This move is not good.  It aims to split the White stones, but the bottom White stone has help in the lower left corner.  This move is better if D3 was Black.]
;W[fd]C[[kb\]: Correct.];B[ef]
(;W[eg]C[[kb\]: This move is not good either - it forces the Black group into the White group on the top.  White should just extend to D11 or C10.]
;B[fg];W[eh];B[ge]C[[kb\]: This move helps White.];W[gd];B[fh]
;W[dj]C[ptitlou for reviewer : Is this the correct point in this shape ?

[kb\]: Looks OK.];B[do]C[[kb\]: This feels like an overplay.  Black should extend to H15.]
(;W[co]C[[kb\]: This stone should definitely be a one-space low pincer.  This move hurts your group on the left side.]
;B[cn];W[cp];B[he];W[ic]TR[he]C[[kb\]: Should have exchanged this before D5.]
;B[jd];W[jc];B[kd]
(;W[fi]C[[kb\]: Locally, you should just make a base.  However I still would play M17.]
;B[gi];W[fj]
(;B[gj]C[[kb\]: Big but not sente, so should play around G6.]
(;W[em]C[[kb\]: Just cut, unless you are sure you can get enough out of the attack.  Anything else probably leaves too much aji.]
;B[en];W[dm];B[eq]C[[kb\]: Interesting];W[dn];B[dr];W[eo];B[cq]
;W[dp];B[br];W[bq];B[cr]
(;W[bp]C[[kb\]: Very slow, and the wrong direction.  You already have a lot of points on the left side.  Either leave this or play on the outside to force Black to take B3.]
;B[fp];W[kc]C[ptitlou for reviewer : I was pretty happy with the result on the bottom left in sente. Was it good ?

[kb\]: It is OK.  Getting F3 in sente is much better than B4.]
;B[lc]C[[kb\]: Overplay.  See variation]
(;W[qf]C[[kb\]: Too early, see variation];B[id]C[[kb\]: Good move]
(;W[of]C[ptitlou for reviewer : I thought with thi tobi to have a very good point to erase black overall influence, but it happened that it was not enough. Is this where I missed an opportunity ?

[kb\]: This move is slow.  Extending here is probably enough.]
;B[hc];W[hb];B[hd];W[gb];B[kb];W[ja];B[pj]TR[of][qf]C[[kb\]: Now these stones are under attack.  It is more important to make a base first]
;W[rd];B[qc];W[rc];B[nq]C[ptitlou for reviewer : a few move before I was happy with the result, and at this point I feel late...

[kb\]: Yes, Q10 is in an excellent spot.]
(;W[rp]C[ptitlou for reviewer : Is this the correct move on the board ? THis is really a point in most of my games where I don't know to deal with the overall balance...

[kb\]: The balance of the game shifted when you let Black get F4, M17 and Q10, all of which were the key points in the game.  You didn't get any big points.

Locally, the correct move is R4.  Globally-];B[qp];W[ro];B[rq]
;W[ql];B[qn];W[rn];B[qm];W[rm];B[pl];W[qk];B[pk];W[ri];B[pg]
;W[pf];B[rj];W[qj];B[qi];W[rk];B[rh];W[sj];B[qg];W[og];B[pi]
;W[oc];B[od];W[qb];B[nc];W[qd];B[gn]C[[kb\]: It's huge...]
(;W[gk]C[[kb\]: Small.  Now the game is high stakes - you need to throw a stone in the center and watch it live or die.]
;B[hk];W[hl];B[gl];W[fk];B[hm]C[ptitlou for reviewer : and here I start to do rubbish because I feel I am very late... Don't know what to do, is it too late anyway ?

[kb\]: Too late - resign.

Final comment.  Biggest thing this game is that you let the game get away from you because you missed the big points after the beginning.]
;W[il];B[im];W[fo];B[go];W[jl];B[jj];W[fl];B[gm];W[kj];B[ji]
;W[kn];B[jm];W[gh];B[ij];W[ff];B[fe];W[kl];B[km];W[ki];B[kh]
;W[lh];B[li];W[mi];B[lj];W[kk];B[mj];W[nj];B[mk];W[jh];B[kg]
;W[ml];B[nk];W[lm];B[gg];W[nl];B[ni];W[mq];B[mp];W[lp];B[mo]
;W[lo];B[mn];W[lr];B[ln];W[nr];B[kq];W[oq];B[lq];W[np];B[on]
;W[kr];B[jq];W[jr];B[iq];W[nn];B[no];W[oo];B[nm];W[mm];B[nn]
;W[pn];B[om];W[qo];B[op];W[nq];B[po];W[pm];B[ol];W[pc];B[cc]
;W[cb];B[bb];W[cd];B[bc];W[dd];B[db];W[eb];B[ca];W[df];B[ee]
;W[ce];B[bf];W[cf];B[bh];W[bd];B[ad];W[bg];B[ag]C[ptitlou for reviewer : I lost too much territory on this upper corner I guess...]
;W[bi];B[ai];W[bj];B[aj];W[ak];B[ch];W[dh];B[ac];W[ci]C[ptitlou for reviewer : fortunately my opponent missed this I think]
;B[ir];W[is];B[hs];W[js];B[fr];W[nd];B[ne];W[md];B[me];W[mc]
;B[mb];W[nb];B[ld];W[nc];B[mg];W[nh];B[mh];W[qr];B[qq];W[rr]
;B[sr];W[pr];B[oe];W[rf];B[ea];W[fb];B[jb];W[ib];B[ed];W[ec]
;B[oh];W[ma];B[lb];W[sh];B[rg];W[sg];B[ng];W[ar];B[fn];W[ah]
;B[ae];W[ep];B[pe];W[gc];B[qe];W[re];B[nf];W[fa];B[da];W[sp]
;B[sq];W[rs];B[bs];W[af];B[la];W[na];B[ka];W[ia];B[ag];W[hh]
;B[ih];W[af];B[tt];W[hg];B[gf];W[ag];B[oo];W[aq];B[tt];W[tt]
TB[jf][kf][lf][mf][hg][ig][jg][lg][gh][hh][jh][nh][ph][qh][hi]
[ii][lh][ki][mi][oi][hj][kj][nj][oj][ik][jk][kk][lk][ok][hl]
[il][jl][kl][ll][ml][nl][lm][mm][hn][in][jn][kn][ho][io][jo]
[ko][lo][hp][ip][jp][kp][lp][je][fq][gq][hq][er][gr][hr][cs]
[ds][es][fs][gs][aa][ba][ab][cb][ie][gp][ke][le][ff][hf][if]
TW[ga][ha][oa][pa][qa][ra][sa][ob][pb][rb][sb][fc][qc][sc][sd]
[se][dg][bh][ch][ai][di][ei][si][aj][cj][ej][rj][bk][ck][dk]
[ek][sk][al][bl][cl][dl][el][rl][sl][am][bm][cm][qm][sm][an]
[bn][cn][qn][sn][ao][bo][so][ap][mr][or][ks][ls][ms][ns][os]
[ps][qs][do][sf]C[ptitlou [2d\]: thanks
Lupus [2d\]: thanks])
(;W[jq]C[[kb\]: Awfully difficult to kill this stone, but that is a lot of Black influence.]
;B[hq];W[mq];B[mp];W[nr];B[mr];W[lq];B[or];W[np];B[oq];W[lr]
;B[ns];W[mo];B[lp];W[ko];B[no];W[hr]))
(;W[hp]TR[br][cr][cq][dr][eq][fp]C[[kb\]: This is the only somewhat weak group on the board for Black.  You should start by putting pressure on it to gain back some influence.]
))
(;W[lb]C[[kb\]: This doesn't work];B[hc];W[hb];B[hd];W[gb];B[mb]
;W[mc];B[ld];W[kb];B[qi])
(;W[qi]C[[kb\]: You already have a lot of points - this move reduces the influence a lot.]
))
(;W[id]C[[kb\]: Probe first]
(;B[ie];W[mc]C[Now it works])
(;B[kf];W[ie]C[[kb\]: Black isn't good here, so])))
(;W[fq];B[bp];W[bo];B[aq];W[qj]))
(;W[en];B[dn];W[fq];B[em];W[gn]C[This is still no better than cutting]
))
(;B[gn];W[gj];B[kc]))
(;W[cl]C[[kb\]: Locally here is probably best.])
(;W[dn]C[[kb\]: I'm not sure how this would turn out for White.]
;B[dk];W[ej];B[dm];W[en];B[cl]
(;W[bn];B[bm])
(;W[fl];B[cj];W[ci];B[bk])))
(;W[cm]C[[kb\]: Locally, this is the best response, but...]
)
(;W[he]C[[kb\]: This move is enormous.  If Black plays again on the left side...]
;B[cl];W[ff];B[fe];W[gf];B[ee];W[if]TR[be][de][ee][ef][fe][ge]
C[[kb\]: The Black stones are under a lot of pressure!];B[cc]
;W[cb];B[bb];W[cd];B[bc];W[dd];B[cf]
(;W[bd];B[ad];W[db];B[ch];W[fi];B[dg];W[dh];B[bg];W[hh])
(;W[bg];B[db];W[eb];B[ca];W[fi];B[hd];W[hc];B[id];W[ic];B[jd]
;W[jc];B[hg];W[hf];B[kd];W[hh];B[kc];W[co];B[cn];W[cp];B[qn]
)))
(;W[di];B[hc];W[ge]))
