(;FF[4]GM[1]SZ[19]AP[SGFC:1.17]

GN[shade-ingvar-565247-20101117]
PB[Igor Kovalev (ingvar)]
BR[14k]
HA[6]
PW[shade (shade)]
WR[6k]
KM[0.5]
DT[2010-04-16,2010-11-17]
PC[Dragon Go Server: http://www.dragongoserver.net/]
RE[W+R]
OT[Japanese byoyomi: 90 days + 1 day per move and 10 extra periods]

RU[Japanese]
GC[Game ID: 565247, rated]

AB[pj][dj][dd][pp][dp][pd]C[Hello!

My name is Vitalii, I was playing white and interesting in review for both sides. After reviewing game myself I haven't find big obvious mistakes, so I think I should have choosen another tacktics..
Can you help me to see my and my opponent's mistakes and other possibilities in fuseki and till middle game.

I try to comment most valuable point/moves in the game where another variation can change the way of game cardinally..

\\m/ : Hi, I'm Florian, around 1d on KGS. I will do my best to review this game.  H6 stones are hard to review because in this kind of games, you have to force your opponent to the mistake for taking back the handicap. So, even with a correct play by white, if black doesn't make big enough mistakes, the game is easy for him.

But anyway, let's try to look at this.]PL[W];W[fq];B[cn];W[nq]
;B[or]LB[qp:a][no:b]C[I was a bit disturbed about next move and what to do with it next..

Should white invade or play for influence or even tenuki just now?

\\m/ : The first idea that comes to my mind in this position would be a pincer as you played.    When you're 6 stones stronger, you can try the joseki starting with A, there's a chance that black forgot a cut in the sequence. The simple jump at B ito continue building your moyo is also good. Tenuki is always a possibility.]
;W[qn];B[qo];W[pn];B[no]MA[op]C[Black left cutting point P4.
What move for black fit better in this situation?

\\m/ : Untill now this is joseki. This joseki is fight oriented with letting this cut, but here with q10 pincering the r6 stones, I find it's a good choice for b.]
(;W[ol];B[qk];W[ql]C[\\m/ : A bit slow, better to go out.];B[pl]
;W[pm];B[pk];W[nn];B[op];W[mo]C[I try to keep my stones connected - is it nessesary just now, or I can tenuki?

\\m/ : this a good result for you, b is enclosed to the corner and your weak r6 can breath a little. Tenuki now is asking for being cut and more trouble.]
;B[hq];W[kq];B[ho];W[cq]
(;B[cp]C[\\m/ : obviously, wrong direction];W[dq]
(;B[fp];W[fr];B[hr]
(;W[nc]C[Is it right direction?

But with this move, seems I allow black to eliminate weakness near 13/14 line..

\\m/ : Here you push b in the direction of his empty triangle. Attacking the four stones before, look at how b reacts and go for the corner after]
(;B[ob]C[Black again play low moves, but for me upper side was move important..]
(;W[nb];B[oc]
(;W[fc];B[ee];W[hd]
(;B[hf]
(;W[hj]TR[nd][ff][cc][cj][eg][ph][lm]C[\\m/ : O16 is still an urgent move

This looks impatient, b starts a moyo and you feel you have to invade it. But there are still rooms for invasion and weaknesses in the moyo. In general, it's really hard to make points in the center]
(;B[lj]C[\\m/ : strange...];W[jj];B[kn];W[np];B[oo];W[mn];B[ll]
C[This move seems not nessesary,
black can get more profit, I think, from K14 or O15 or B3..

\\m/ : k14 good, e17 too, o15 will permit w to protect his weak shape, o16 instead is deadly. b3 big yose and sente but too early for that because of c6(w won't play it because it will be gote so it's black privilege, small compensation for wrong direction when blocking 3-3 invasion)]
;W[jg]C[I was afraid it is too far and can be cut..
which variation can you propose?

\\m/ : Now that you have engaged 2 stones in the center, you can't abandon them so you do'nt really have choice.]
(;B[hh]C[I think black should cut at J15 or even J11?

\\m/ : right, b should cut, I like k14 here although "don't touch what you're attacking" but here, it's a good leaning attack against the top]
;W[je];B[jh];W[ig];B[ih];W[ci]
(;B[cf]C[I try to make more threats for future, while there is a possibility..
Playing sente wK10 still can run away after wL10];W[cj];B[bl]
C[\\m/ : another strange move, hane looks easier];W[ki];B[kh]
;W[li];B[ni];W[mh];B[lg];W[ng];B[pg];W[ne];B[le];W[of];B[pf]
;W[od];B[qc]
(;W[mf]C[Seems it is unnessesary and white can defend L16 - it should work, I think am I right?..]
;B[lf];W[kc];B[md];W[nd];B[kd];W[jc];B[jd];W[ic];B[ie];W[qq]
;B[nr];W[mr];B[rn];W[rm];B[rp];W[rq];B[so];W[qp];B[po];W[pr]
;B[oq];W[rs];B[sr];W[sq];B[rr];W[ps]
(;B[pq];W[qr];B[rl];W[sm];B[qm];W[bg];B[ql]
(;W[bf];B[bd];W[bk];B[cl];W[cg];B[df];W[eh];B[fi];W[dk];B[ei]
;W[di];B[ej];W[ck];B[fk];W[ep];B[eo];W[eq];B[gp];W[lm];B[km]
;W[ml];B[mk];W[nl];B[ik];W[ij];B[hk];W[el]TR[db][bp][jr][oa]
[ms]C[Seems this is the last reduction, white can do.
And other moves are just end-game.
Black have made a mistake, so white get few points to make game almost equal, but it was just a luck..

\\m/ : delta look biggest endgame moves, but yose seems to be my weakest point and you play it very well :)]
;B[fm];W[db];B[cc];W[cb];B[bb];W[gg];B[hg];W[bq];B[bp];W[kl]
;B[lk];W[jk];B[jl];W[il];B[kk];W[gk];B[hl];W[gl];B[hm];W[fl]
;B[gh];W[oa];B[pa];W[na];B[pb];W[kp];B[jp];W[em];B[gm];W[bm]
;B[al];W[cm];B[am];W[bn];B[dn];W[an];B[bo];W[dm];B[fg];W[fh]
;B[gj];W[eg];B[ff];W[ge];B[gf];W[en];B[fn];W[do];B[co];W[jq]
;B[ip];W[ko];B[jo];W[fe];B[ef];W[ec];B[ks];W[lr];B[oh];W[mc]
;C[\\m/ : with correct yose by both, w leads is about 10 pts, not sure black really counted before resigning. 

I think your principal problem in this game is a lack of patience. In handicap games, stay flexible and build strong shape to launch attack at every weakness that appears in black's shape. But you've done the job here with a lead of about 10 points, you had your 6 stones back and enough to have a comfortable endgame, so you can be proud of your game. In a more general way, take care of your shapes (and your opponent's ones)]
)
(;W[cc]C[\\m/ : b14 and d17 miai for connection]))
(;B[qr]C[\\m/ : b wins this semeai]
(;W[pq];B[os]
(;W[on];B[sp])
(;W[qs];B[sp];W[ss];B[rr];W[on];B[qr]))
(;W[on];B[sp];W[pq];B[os])
(;W[ns];B[os];W[on];B[sp])))
(;W[kd]C[\\m/ : doesn't connect because of N16 peep]))
(;B[cj];W[cf];B[ce];W[df];B[ec];W[fd];B[fh]LB[df:a][hj:b]C[\\m/ : both A and B in danger]
))
(;B[jf]C[\\m/ : hard to deal with that];W[kf];B[je]
(;W[kg];B[jc])
(;W[jc];B[kg])))
(;B[jj])
(;B[nd];W[md];B[me];W[ld];B[ec];W[fd];B[jj]TR[nj][jd][ff]C[\\m/ : w can't take all this big points]
))
(;W[je]C[Should white build shape?

\\m/ : building shape here is o16])
(;W[pg]C[Or even attack, using blacks' weakness.

\\m/ : regarding to shape, this attacks looks better on q12]
))
(;B[nd]C[\\m/ : This hurts your shape...];W[md];B[me]C[\\m/ : ...and reinforce q10 at distance]
))
(;W[nd]C[\\m/ : This is a must, you can't allow b to hane at the head of your stones.]
;B[gc]C[\\m/ : if b plays to reduce the board];W[pe]C[\\m/ : You can put pressur on both corner and q10]
))
(;W[qd]C[\\m/ : Here this could be interesting for exchanging o17 to a good position for attacking q10.]
(;B[qe];W[pc];B[oc];W[pe];B[od];W[qf];B[qc];W[rd];B[oe];W[pf]
C[\\m/ : In even game, letting b make thickness in front of san ren sei would not be good. At H6, it's easier to neutralize thickness and this gives you an opporunity to attack q10]
)
(;B[qc];W[qe];B[pe];W[qf];B[rc];W[pf];B[ne])))
(;B[nd];W[md];B[ne];W[oc];B[pc];W[kc];B[pf]))
(;W[fc]C[Or should be here at first?])
(;W[ph];B[nj];W[nc];B[qf];W[og]LB[nj:a][qc:b]C[\\m/ : corner still open and 31 won't have big troubles if b cut with p15 because going out is attacking A]
))
(;B[ep]C[\\m/ : shape is here]))
(;B[dq];W[dr];B[er];W[cr];B[eq];W[bo];B[bn];W[co];B[do];W[aq]
;B[em]))
(;W[pl]C[Is it better way for escape?

\\m/ : better at o8 (see end of var.)];B[nj]
(;W[nl]C[\\m/ : Here q8, just permit b to play o10 in sente. Playing directly 11 (o8) is faster and a good shape for escaping in this position.]
)
(;W[nm])))
