(;FF[4]GM[1]SZ[19]ST[2]CA[UTF-8]AP[SGFC:1.17]

PB[dtslife]
BR[2k]
PW[geldar]
WR[1k]
KM[0.5]
DT[2010-12-10]
PC[The KGS Go Server at http://www.gokgs.com/]
RE[W+2.5]
TM[600]
OT[5x30 byo-yomi]
RU[Japanese]

C[
[dts\]
Dear Reviewer,
I am playing black in this game.
The result is W+2.5
In this game there were two big mistakes. The first was where white let me reclaim the top left corner. The second is where I missed a huge killing opportunity.
My comments are marked with [dts\].

General comments for both sides appreciated particularly for fighting.

--

[Reviewer\]
My comments are preceded by a "[Reviewer\]", as above.

There are some points in the game where you make a comment, but I don't. This means that I think your analysis is fine, or that I have nothing to add.

In some spots, there are just far too many variations to show, so I simply show the straightforward one and one or two non-obvious ones. I hope they're good enough for you to be able to explore the rest of the variations on your own.

I summarize the game and mention areas which I think both players can improve at the end of the game.]
;B[pd];W[dp];B[dd];W[pp];B[qn];W[pn];B[pm];W[om];B[po]C[[dts\] According to Kogo's Joseki Dictionary, this is an old joseki.
My gut instinct was put push through at q5 and possibly claim the corner.]
;W[on];B[qp];W[oo];B[qo];W[pq];B[pl];W[qq]LB[jp:A][nq:B]C[[dts\] r3 seems slow. I feel that the big point for white was around A.

--

[Reviewer\] 
I think R3 is fine. As you note later, it prevented Black from expanding his right side on a larger scale. Also, if White lets Black play R3, it creates a weakness around 'B'.]
(;B[ok]LB[nk:A][ol:D][jp:B][kp:C]C[
[dts\] ...However I was hesitant to play there and I wanted to expand my right side so i played kosumi. Now I ilook at it the kosumi seems small. Should I reduce or attempt to live in the B C region? I feel that living is too hard. What move do you recommend?


[dts\] In the game I though A was dangerous because of all the cutting points.(see variation)

--

[Reviewer\]
I agree that playing at 'A' doesn't lead to a pretty result for Black. White R3 is partly responsible for this, so I don't think it was a slow move.

Playing at 'B' or 'C' makes sense, but could also be too early. You might not be able to live directly, but it's fairly simple to run out at this point in the game. See variation.

If you wanted to expand your right side, then 'D' is probably what you want. Unfortunately, this also strengthens White's lower side. See variation.

The move Black actually plays here seems to be fair - it aims at both expanding the right side and reducing White's lower side.]
;W[jp];B[mk];W[rl]LB[jc:B][dj:A]C[
[dts\] This looked like a bad move for white.

--

[Reviewer\]

Looks like an overplay, yes. Even if it isn't, it's too early in the game. There are far bigger points left on the board; 'A' and 'B' are two examples.]
;B[qk];W[rk];B[rj];W[ri];B[qj]LB[qm:A]C[
[dts\] I didn't fear the cut because I had a ladder.];W[sj]
(;B[qi]LB[qh:A]C[
[dts\] This felt like a helping move. Is A possible? (see variation)

--

[Reviewer\]

Does feel like a helping move, yes. Comparing this to 'A', however, this move seems to lead to a much more straghtforward position that still leaves Black with a very nice result.]
;W[rh];B[qg];W[qh];B[ph];W[rg];B[qf];W[rf]
(;B[qe]C[
--

[Reviewer\]

Too soft, maybe? See variation.];W[rm];B[qm];W[rn];B[sk];W[sl]
;B[ro];W[sn];B[re];W[sf];B[jd]TR[rl]C[
--

[Reviewer\]

Black didn't manage to kill White, but the disastrous result of the invasion that began with White S8 (marked with a triangle) is quite evident here.]
;W[oc]LB[gd:B][ld:C][dj:A]C[

--

[Reviewer\]

Once again, this is probably a big overplay from White. 

A move around 'A' is very big at this point in the game.

White might feel the need to invade very deeply at this point, but this move targets the wrong area. A much better place to invade/reduce would be around 'B', or if White wants to go in deeper, around 'C'.]
;B[pc];W[pb];B[mc]C[
--

[Reviewer\]

Right direction. The corner is tiny.];W[nb];B[qb];W[lb];B[kc]
;W[qa];B[rb];W[lc];B[ld];W[md];B[nd];W[od]
(;B[me]C[
--

[Reviewer\]

Probably much simpler to block directly. See variation.];W[oe]
(;B[ra]C[
--

[Reviewer\]

I would be a bit apprehensive about letting White into the middle, regardless of how strong Black is there. There's nothing to be gained from this move - I would much rather play it safe by closing the gap in the center somehow.]
;W[og];B[nf];W[df];B[dh]C[[dts\] How do you judge this pincer?
I thought it would effectively push white toward my wall on the right.


--

[Reviewer\]

Looks good.];W[dj]C[
[dts\] White forms a double wing position which leads to huge territory in the bottom center later.]
;B[fh]LB[fd:C][ff:B][ch:A]C[[dts\] This felt like a natural folllow up.
However it looks as though white could break through at A (See variation)
If white played B I would play C and claim territory.

--

[Reviewer\]

See variation to see how I would have handled 'A'.]
(;W[bg]C[[dts\] This looked like a helping move more me and an easy way for me to clinch the corner.]
;B[bh];W[ch];B[ci];W[cg];B[di]C[
[dts\] I felt like this was a reasonable follow up because I could dimish white's moyo in the bottom.

--

[Reviewer\]

It's a decent result, I agree.];W[cd]
(;B[cc]LB[dc:A][bi:B]C[[dts\] Hane seemed bad for me. Is there a better follow up? d17?

--

[Reviewer\]

Golden rule: When ahead, keep things simple. :) I think it's rather unreasonable to try to kill White here, especially considering the eye White can gain by playing at 'B'. D17 ('A') does seem much simpler. That being said, Black can still salvage this position after the cross-cut at the next move.]
;W[dc]C[
[dts\] White's  cut was really special.]
(;B[ed]LB[ec:A]C[
--

[Reviewer\]

Wrong approach here, I think. Black wants to seal White in the corner - the center is the important spot. I would play at 'A' instead. See variation.

The approach starting with Black 'A', I think, disagrees with your assessment of the position. In the actual game, Black does get the corner when White plays 82. You considered that to be a mistake on White's part - see the variation at that move to see why I don't agree.]
;W[ec];B[fd]
(;W[gb]LB[cb:A]TR[cd]C[
[dts\] The 1st big mistake. I got my lucky break here. Now I can extend to c18 and kill the marked stone.

--

[Reviewer\]

Is it? It seems to me that Black's life would be much easier if White had stayed in the corner. See variation.

This seems to be the right way to cause havoc and give White any type of chance to win the game.]
(;B[cb]LB[fc:A]C[--

[Reviewer\]

Probably a better idea to play at 'A' first. See variation.]
;W[fc];B[ce];W[jb];B[kb]
(;W[gd]C[--

[Reviewer\]

Could White have tried to connect the groups right now? See variation.]
(;B[la]C[
[dts\] I felt that this move was necessary other white would save the group. Perhaps too overcautions?

--

[Reviewer\]

Well, based on the variation I presented, this wasn't being overcautious. In a real game, where we don't have the ability to play out all feasible variations (in our heads or otherwise), I think it's quite reasonable to play this way. I still think Black is ahead -- no need for Black to take chances.]
;W[gf]
(;B[bd]C[

[dts\] Again this was being cautious. I had trouble reading out the ensuing fight, so I took the stone to avoid trouble.
I could have profiteered though. (See varaition)];W[bi];B[bj]
;W[ah];B[cj];W[fe];B[ef];W[ee]
(;B[dg];W[de];B[cf];W[bf];B[be];W[af];B[aj];W[ai]
(;B[db]C[

[dts\] Too cautious? I thought I had to play here to make the corner live. Can I tenuki elsewhere?

--

[Reviewer\]

Not sure. It either leads to a seki or Black being dead, depending on the ruleset being used. See variation.]
;W[eb];B[ac]C[
[dts\] Being safe again. This is frustrating because I felt that my L&D is rusty.

--

[Reviewer\]

Same comment as move 107. Either seki or bent-four without this move.]
;W[gh];B[dm];W[cn];B[cm];W[mh];B[of];W[jh];B[fp]C[--

[Reviewer\]

Good timing by Black.];W[hq];B[dq];W[cq]
(;B[cr]C[

[dts\] This exchange seemed bad for me.

--

[Reviewer\]

Definitely bad. The corner is small. I think this is actually one of the bigger mistakes in the game by Black. See variation.]
;W[eq];B[dr];W[ep];B[cp];W[co];B[bp];W[bo];B[bq];W[fo];B[go]
;W[fn];B[kk];W[hm];B[jn];W[kn]
(;B[mn]C[
[dts\] Wrong reducing move?

--

[Reviewer\]

Too deep, in my opinion. The gap has all but disappeared due to the big mistake in the lower left corner, but I think playing simply is still the way to go here. See variations.]
;W[nl];B[nk]LB[lm:A]C[[dts[ I felt I couldn risk the cut  it to play elsewhere such as A.

--

[Reviewer\]

I do agree that the cut is somewhat risky. I think this is where letting White into the center way back at move 64 is finally affecting Black's position.]
;W[mm];B[ln];W[lm];B[ko];W[km];B[jm];W[jo]C[
--

[Reviewer\]

Great result for White here, pretty much giving him the lead.]
;B[jl];W[in];B[hg];W[hh];B[ej]C[[dts\] I just wanted to make my group live.]
;W[ie];B[kh]C[
[dts\] Attempt to make more points.

--

[Reviewer\]

Seems to have worked fine. Good one.];W[kg];B[lh];W[lg];B[mg]
C[--

[Reviewer\]

I'm starting to sound like a broken record here, but this made the game very close once again.]
;W[jj];B[kj];W[bm];B[bl];W[fj];B[am];W[er];B[ao];W[ic];B[rq]
;W[rr];B[sr];W[qr];B[jf]C[[dts[ I was try to reduce.];W[jg]
;B[gg];W[fg]TR[jg][kg][lg][gh][hh][jh]C[ [dts\] I thought I saw a chance to pressure the white stones. Too optimistic?

--

[Reviewer\]

Seemed too optimistic to me, but I'm considered to be too pessimistic. :) It's difficult to read out, considering the many variations that can arise out of this. That being said, if you counted that Black was behind and decided to start a complicated fight, this is a good way of going about it.]
;B[if];W[je];B[kf];W[lf];B[ke];W[mf];B[ng];W[ne]C[[dts\] Didn't worry about the disconnect]
;B[mb];W[le];B[ii]LB[md:A]C[[dts\] I forgot about the ko at A.]
;W[hf];B[ig];W[ih];B[kd];W[md];B[ji];W[nc]C[[dts\] Liberty fight!]
;B[hj]
(;W[gi]C[--

[Reviewer\]

I think White has a better way to connect. See variation.];B[fk]
;W[eh];B[eg];W[fi];B[ff];W[ei];B[ek];W[na];B[pa];W[oa]C[[dts\] The 2nd big mistake. I should have connected. (see variation)]
(;B[he]LB[fh:A]C[[dts\] Instead I thought white had a  ko for life and it was urgent for me to live. I did not see Ko at A.]
;W[qa];B[si];W[sh];B[pa];W[pf];B[nh];W[qa];B[ge];W[hd];B[pa]
;W[oh];B[ni];W[qa];B[dn];W[pa];B[do]C[
[dts\] You can end comments here. Thanks for the review!

--

[Reviewer\]

Go to the last move for a short summary of the game and areas where I think you can improve.]
;W[pg];B[pi];W[pe];B[rd];W[id];B[es];W[gr];B[hl];W[gm];B[gl]
;W[em];B[el];W[im];B[il];W[sc];B[rc];W[fs];B[ds];W[ja];B[eo]
;W[fm];B[gj];W[oi];B[oj];W[ol];B[ll];W[ml];B[kl];W[so];B[sp]
;W[rs];B[nr];W[np];B[sq];W[da];B[ca];W[ea];B[ae];W[se];B[sd]
;W[jc];B[hi];W[me];B[ql];W[ka];B[ma];W[fh];B[fl];W[tt];B[en]
;W[ho];B[tt];W[tt]TW[fa][ga][ha][ia][fb][hb][ib][ob][gc][hc]
[nd][ag][sg][bh][si][sk][nm][sm][gn][hn][ln][mn][nn][go][io]
[ko][lo][mo][no][fp][gp][hp][ip][kp][lp][mp][op][fq][gq][iq]
[jq][kq][lq][mq][nq][oq][fr][hr][ir][jr][kr][lr][mr][nr][or]
[pr][gs][hs][is][js][ks][ls][ms][ns][os][ps][qs]TB[aa][ba][sa]
[ab][bb][lb][sb][bc][lc][qc][sc][ad][cd][qd][de][ee][fe][df]
[gf][hf][mh][ki][li][mi][dj][ij][jj][lj][mj][nj][pj][ak][bk]
[ck][dk][gk][hk][ik][jk][lk][pk][al][cl][dl][bm][an][bn][cn]
[bo][co][ap][aq][cq][ar][br][as][bs][cs]C[
--

[Reviewer\]

End of game. W+2.5

A short summary:

-White's move 20 was a big overplay. Black didn't manage to kill the invading White stones, but still got a great result. This was White's first big mistake.

-White tried another deep invasion with move 46. Black capitalized, and this time managed to kill the stones. This was White's second big mistake. At that point, Black was far ahead in the game.

-Black 77, however, seemed to have been a mistake. White took advantage with 82, caused some trouble, and managed to eliminate Black's potential in the center. Regardless, Black was still ahead.

-Black 121 was, in my opinion, Black's biggest mistake in the game. This threw White right back into the game.

-Black's reduction attempt at 137 seemed to have been too deep, and let White gain about 15 points, more than enough to give White the lead.

-Black 153 was a great move that cut off two White stones in the center. The game was very close yet again.

-With 175, Black cut off and attempted to kill White's entire center group.

-White missed a way to end the game completely with 194. White's third big mistake.

-Black then missed his own chance to end the game with Black 205. Black's second big mistake.

-The resulting ko fight eventually led to an exchange with Black killing two smaller groups and White reviving his top one. White eventually won the game by 2.5 points.


Areas that I think can be improved:

White tends to panic when he sees that an opponent has a lot of thickness. White should learn to try lighter reductions, and remember that there are much bigger points in the opening. White played fairly well after that and his lack of significant mistakes from there on, paired with Black's big ones, contributed to the close final result.

For Black, I think the 'golden rule' I mentioned a few times is a good one: keep the game simple when you're ahead! Black, I think, unnecessarily made the game too complicated at a few stages. Making the complicated when behind is a good strategy that Black did apply, however. 

You also mentioned a few times that it was difficult for you to read out the situation. This is partially why you want to keep the game simple and predictable if you're ahead. However, another way to approach this is to improve your reading skills - do Go problems. Playing games is nice, but I honestly believe that doing problems is the best way to improve your reading.]
)
(;B[qa];W[id];B[gj];W[jc];B[hi];W[ja];B[fh]C[[dts\] I win the liberty fight even if I don't win this two step ko.]
;W[me];B[fg]))
(;W[fi];B[eh]LB[hi:B][gj:A]C[--

[Reviewer\]

White can play at 'A' or 'B' here.]
(;W[hi];B[gj];W[ij];B[ki];W[gk];B[hk];W[gi]LB[fk:A][gl:B]C[--

[Reviewer\]

Black can play either 'A' or 'B'.]
(;B[fk];W[gl]LB[ek:A][ik:B]C[--

[Reviewer\]

'A' and 'B' are now miai for White to connect.])
(;B[gl];W[fk];B[hl];W[fl];B[gm];W[fm]C[--

[Reviewer\]

White connects.]))
(;W[gj];B[hi];W[gi];B[gl];W[fl]
(;B[gm];W[fm]C[--

[Reviewer\]

White connects.])
(;B[fm];W[gk]C[--

[Reviewer\]

White connects here as well. It may not be obvious, so please verify this.]
))))
(;B[km]C[--

[Reviewer\]

The more obvious alternative.];W[jm];B[jl];W[im];B[ln];W[ko]
;B[lm];W[lo];B[gi];W[hh];B[fr];W[fq];B[gr];W[hr];B[kh]TR[og]
[mh]C[
--

[Reviewer\]

By cutting off the two marked White stones, the game should be slightly in Black's favour.]
)
(;B[jm]TR[go][fp]C[
--

[Reviewer\]

Even simpler. I think this is even better because White can't both capture the marked stones and defend his lower side at the same time.]
;W[km];B[jl];W[jo]LB[hn:A]C[
--

[Reviewer\]

Black can play 'A' later to salvage some points.]))
(;B[eq]C[
--

[Reviewer\]

Much simpler, and much more effective.];W[cr];B[fn];W[bn];B[lo]
;W[lp];B[kp];W[kq];B[ko];W[mp];B[jo];W[ip];B[gi];W[hh];B[hn]
C[--

[Reviewer\]

Unless my counting is grossly off, it should be a fairly straightforward win for Black from here.]
))
(;B[fp]C[
--

[Reviewer\]

Assume Black plays elsewhere...];W[ac]
(;B[ab];W[bb];B[ba]C[--

[Reviewer\]

Black can fight a ko if he wants to...];W[aa];B[ca];W[ab]C[--

[Reviewer\]

If Black doesn't fight the ko, Black dies.])
(;B[bb];W[ab];B[db];W[eb];B[da];W[ae];B[ad];W[ba]C[--

[Reviewer\]

I'm not sure about this position. I think most people would consider this a seki, but I believe it's technically dead under Japanese rules ("bent four in the corner").]
)))
(;B[de];W[eg];B[dg]))
(;B[ff]
(;W[de];B[bd])
(;W[bd];B[be];W[de];B[ef])))
(;B[ff]C[
[dts\] If black plays here, white seems to have the potential to save the group in the bottom right.]
;W[ka];B[mb];W[ma]
(;B[la]C[
[dts\] capture is too early. (See variation)

--

[Reviewer\]

Capturing is right. See amendment to variation. :)];W[lb];B[ib]
;W[ic];B[jc]
(;W[ja]C[--

[Reviewer\]

White has a better alternative. See variation.]
(;B[ia]C[--

[Reviewer\]

Not a good idea to play here unless necessary. This reduces Black's liberties later on. See variation.]
;W[la];B[hc];W[id];B[hd];W[ie];B[hb];W[he])
(;B[hc];W[id];B[hd];W[ie];B[hb];W[he];B[gc]C[--

[Reviewer\]

With the extra liberty, Black can play here.]))
(;W[ia]C[--

[Reviewer\]

Start a ko.]))
(;B[ib]
(;W[ic]C[--

[Reviewer\]

White has a better move.];B[jc];W[ja];B[ia]C[
[dts\] I guess I was being overcaution then.])
(;W[jc];B[la];W[ic];B[ja];W[hb];B[ia];W[id];B[fa];W[ha];B[ka]
;W[ea];B[eb];W[db];B[da];W[fb];B[ea];W[ga];B[ca];W[bd]C[--

[Reviewer\]

I think this works for White.]))))
(;W[ka];B[mb];W[ma];B[la];W[lb];B[ib]
(;W[ia];B[ic]LB[gd:A]C[--

[Reviewer\]

White can connect, but it's very difficult to find 2 eyes for the groups. So, White 88 ('A') in the original game seems to have been the right approach.]
)
(;W[ic];B[jc];W[ja];B[hc];W[id];B[ie];W[hd];B[gd])))
(;B[fc];W[fb];B[cb];W[db];B[da];W[eb];B[ce]TR[cd]C[--

[Reviewer\]

I prefer this to the real game because it eliminates the good-shape move of White 88 from the original game. It might not seem important, but in a position such as this where you're chasing the opponent around, the effect of destroying their shape can be quite significant.]
))
(;W[bc]C[
--

[Reviewer\]

If White plays the safe way...];B[cb];W[bb];B[ce];W[bd];B[fc]
;W[db];B[eb];W[ca];B[dn]TR[qa][lb][nb][pb][lc][oc][od][oe][og]
C[--

[Reviewer\]

This actually seems to be a much more comfortable position for Black. For one, the marked White stones are still safely dead, and there's still a lot of potential for Black in the center. Compare this to the actual game, where White has broken into the center, the marked stones are almost revived, and Black was forced to live in the corner. I think White's move 82 in the real game is actually a better way to play in this situation.]
))
(;B[ec];W[db];B[eb];W[de];B[ed];W[cb];B[ff]C[--

[Reviewer\]

This looks good enough for Black.]))
(;B[dc];W[cc];B[de];W[ce];B[ef]C[[dts\] d17 Would have been satisfactory.

--

[Reviewer\]

Good result for Black, yes.]))
(;W[ch]LB[ee:C][cg:A][ci:B]C[
--

[Reviewer\]

'A' or 'B' are the obvious moves, but I think something like 'C' is the way to go here. The center is more important.]
(;B[cg]C[
--

[Reviewer\]
Something like this can lead to Black claiming the corner somehow, but the important spot here is the center. Plus, this is also somewhat complicated -- Black is ahead, no reason to dive in.]
;W[dg];B[ci];W[eh];B[di];W[ei];B[eg];W[cf];B[bh];W[ee];B[fg]
)
(;B[ee]C[
--

[Reviewer\]

It's difficult to prevent White from connecting, so I would simply close up the center if White plays at C12.]
;W[ef];B[ff]
(;W[fe];B[fd];W[fg];B[ge];W[gg];B[eg];W[dg];B[eh]C[--

[Reviewer\]

I think the fight here looks good for Black.])
(;W[fg];B[gg];W[fe];B[eg];W[fd];B[cf];W[de]C[--

[Reviewer\]

Two ways to play here:]
(;B[ce];W[ed];B[dg];W[ee];B[cd]C[--

[Reviewer\]

Terrible shape for White; plus, White's top group is in dire straits.]
)
(;B[ed]C[--

[Reviewer\]

Possibly safer and definitely simpler.];W[ce];B[cd];W[bf];B[be]
;W[cg];B[dg];W[cf];B[bd];W[di])))))
(;B[og]C[
--

[Reviewer\]

I would probably close the gap here.];W[nf];B[lg]))
(;B[oe]
(;W[nc];B[me])
(;W[mb];B[me];W[nc];B[oa])))
(;B[re]C[
--

[Reviewer\]

I think Black can probably get away with this move.]
(;W[qe];B[qd];W[pe];B[oe];W[pf];B[pg];W[of];B[rd]LB[sf:B][rm:A]
C[
--

[Reviewer\]

'A' and 'B' are now miai to kill White.])
(;W[rd];B[qe];W[se];B[rc];W[sc];B[qc];W[rb];B[qb]LB[sf:B][rm:A]
C[
--

[Reviewer\]

Again, 'A' and 'B' are miai to kill White.])))
(;B[qh]C[
--
[Reviewer\]

This might work, but potentially leads to some complicated situations.]
;W[rh];B[rg];W[qi];B[qg];W[pi]
(;B[oh];W[oi];B[nh];W[nj];B[nk];W[mj]C[
[dts\] If White escapes, I feel that black has been severely weakened.

--

[Reviewer\]
I agree.])
(;B[ni]C[
[dts\] Perhaps this is better.];W[oh];B[mg]C[
--

[Reviewer\]

This leads to rather complicated positions. I can't comment whether White lives or dies in the following variations. I've found some where White lives, and some where White dies. Exploring all of them is too difficult for me. I have included some variations (by no means exhaustive) that I considered to illuminate this difficulty somewhat. There are many different ways to play at literally every step.

All the advice I can offer at this point is to keep it simple -- it's difficult to NOT get a good result for Black here. Simply letting White live inside seems to be a good idea in most cases.]
(;W[of]C[
--

[Reviewer\]

This one seems to lead to White dying.];B[ne];W[qe];B[pe];W[pf]
;B[qf];W[re];B[qd];W[rd];B[rc])
(;W[nf]C[
--

[Reviewer\]

This one is a bit more difficult.]
(;B[ng];W[og]
(;B[of]C[
--

[Reviewer\]

Cutting directly probably isn't such a good idea.];W[pf];B[oe]
;W[qe]C[
--

[Reviewer\]

I can't find a way to kill White after this one.])
(;B[pf];W[of];B[le];W[nd];B[lc];W[pc];B[qc];W[qd];B[qe];W[od]
;B[rd];W[ob];B[pb];W[oc];B[qb];W[mc];B[lb];W[ld];B[kd];W[md]
;B[kc];W[me])
(;B[mf];W[pf];B[qe];W[ne]
(;B[me];W[qf];B[rf];W[nd];B[lc];W[pc];B[qc];W[oc];B[qb];W[mc]
;B[lb];W[nb]LB[pe:B][rm:A]C[
--

[Reviewer\]

A and B now seem to be miai for life.])
(;B[ld];W[nc];B[mc];W[me];B[le];W[mb];B[lb];W[md];B[lc];W[od]
C[
--

[Reviewer\]

Seems like White lives here as well. The worst I can find is a ko.]
)))
(;B[og];W[nh];B[ng];W[mh];B[lh];W[mi];B[li];W[mj];B[lj];W[nj]
;B[nk];W[rm];B[ll]C[
--

[Reviewer\]

White lives, but still a great result for Black.])))))
(;B[nk]C[I don't like the push and cut for white.];W[ol];B[ok]
;W[pk];B[qk];W[pj];B[qj];W[pi]LB[qm:A]C[Cutting point at A.]
;B[qi];W[qm]
(;B[rm]C[Block the other way.

--

[Reviewer\]
Other way, definitely. This pretty much makes the two Black stones in the center useless and defeats the purpose of O9.]
;W[ql];B[rl])
(;B[ql];W[rm];B[rn];W[rp];B[sm];W[ph]CR[pi][pj][pk]TR[nk][ok]
C[
[dts\] The two black stones look weak or is the fight worth it.

--

[Reviewer\]
They don't have a base, but they can run in 3 directions. That being said, I don't think they can attack the circled White stones very effectively, and so Black doesn't achieve his aim of expanding his right side. I would prefer this position as White.]
))
(;B[ol];W[nl];B[nk];W[ml];B[mk];W[ll]LB[ip:A]C[
--

[Reviewer\]

Whether or not it's wise for Black to reduce at around 'A' now is a tough question.]
)
(;B[jp];W[ol];B[pk];W[ok];B[pj];W[hp];B[jn]C[
--

[Reviewer\]
Not too dangerous for Black. This looks fairly simple as well - Black has some solid territory on the right, but in exchange for that, a running group in the center.]
))
