(;FF[4]GM[1]SZ[19]ST[2]CA[UTF-8]AP[SGFC:1.17]

EV[lorl-sprang-607313]
PB[Todd Sprang (sprang)]
BR[2k]
BT[USA]
PW[Laurent L (lorl)]
WR[2k]
WT[France]
KM[6.5]
DT[2010-11-10,12-14]
PC[Dragon Go Server: http://www.dragongoserver.net/]
RE[B+10.5]
RU[Japanese]
GC[Game ID: 607313, rated]

C[Dear reviewer,
I lost during the beginning of the game, but I didn't understood what was my major mistake...
could you find it ???
thank you
(LL)


N: hello, at first sight i can't see any major mistakes, which is a good thing. You made a wall, but failed to use it (see comments for a 'logic' alternative). Afterwards, you kept playing calmly and fell behind. Also in the endgame, you missed opportunities. Because of this I must disagree that you lost during the beginning. You can always turn around the game later, if you fall behind, you must try to play more aggressive and because we make many mistakes, our opponents can do the same, if we give them the opportunity. Alternatively, we can try to keep up, and hope for a good yose to equal with our opponent.

Kind regards,
Nelis (aka Lambic)

(my comments are preceded with "N:")
(you added a lot of variations, please discover yourself where I added something, because lack of time, i did not weed out anything)]
;B[pd];W[pp];B[cd];W[dp];B[cn]
(;W[ed]C[a Kobayashi refused !
(LL)];B[hd]C[I don't feel easy to play against this pincer...
(LL)

N: If you want to avoid Kobayashi, you must learn to live with this pincer or try something different]
;W[ef];B[cf];W[eh];B[ch]LB[cc:C][hg:B][ej:A]C[different variations found in pro games...
(LL)]
(;W[ej];B[kd]LB[ck:B][fp:A]TR[ed][ef][eh][ej]C[Seen in two professional games... so the position shall be ok.
But I don't really know how to exploit the "Triangle" wall...?!?
(LL)

N: Playing on B seems the most logical to me, the top and the side felt like miai, if black plays on one side, i would play on the other side.]
(;W[fp]LB[bp:A][kq:B]C[  Event     2nd Rico Cup Pair Go
  Round     2
  Black     Chinen Kaori, 2 dan
  White     Aoki Kikuyo, 6 dan
  Komi     5.5
  Date     1996-12-14
  Place     Japan
  Result     B+R
(Gobase)]
(;B[bp];W[cq];B[dl]LB[qf:C][ci:B][jq:A]C[black is solid. what is now the right direction for white ???
(LL)]
(;W[jq];B[di]C[a very big move !!!
(LL)];W[ei];B[qn];W[nq]C[N: i would play this move high];B[qk]
LB[nc:C][qf:B][rp:A]C[it seems that black is already ahead in the game !!!
what is the best point, now ??? all choices seems to be tought for white...
(LL)

N: I think this depends on your playing style. I would also be tempted to play A, but it feels a bit local

C seems bad, your chances of attacking the two-space jump seem small to me.
B seems ok, but because your wall is not so strong, it will be difficult indeed
You might also go for a reduction, followed by a san-san invasion]
(;W[rp];B[ro];W[qo];B[po];W[qp];B[qe]TR[cc][nc][qi][oo]C[differents ideas, but what to do ???
(LL)

Invasion on top seems possible
The invasion on the left seems easy to attack, so maybe a reduction is locally better
P5 is too small, too local, too slow]
(;W[qi]
(;B[oj]LB[oh:A][oi:B]
(;W[oh]C[is it a correct shape ??
(LL)

Not sure, it feels weak, but the attachement is more heavy]
;B[qg]LB[qh:A][oi:B]C[good point]
(;W[qh]
(;B[mh]
(;W[pg];B[rg]C[N: the variation was clearly better];W[ni];B[nj]
;W[mi];B[kh];W[li];B[nc]
(;W[pn];B[pm];W[on];B[om];W[nn];B[ml]LB[ki:A][ln:B]
(;W[ki];B[ip];W[iq];B[hp];W[hq];B[gp];W[gq];B[jp];W[kp];B[jn]
C[N: Black made himself heavy];W[kl];B[ko];W[lp];B[rn]
(;W[il];B[lm]TR[cc][jh][lh][fl]C[and now...???
(LL)

N: attach on top]
(;W[jh];B[ec]C[very big move !!!
(LL)];W[fc];B[dc];W[fd];B[hc]
(;W[lh]C[N: still small];B[bq]C[N: 14-16 points!];W[br];B[cp]
;W[dq];B[fg];W[eg];B[hg];W[hi];B[me];W[dk];B[ck];W[cl]C[N :Nice]
;B[dm];W[cj];B[bk];W[ci];B[dh];W[dj];B[bl];W[jf];B[ie];W[fl]
;B[gm];W[gl];B[ih];W[ii];B[lo];W[mo];B[ar];W[bs];B[bh];W[ke]
;B[le];W[lf];B[gb];W[fb];B[eb];W[fa];B[mf];W[mg];B[ng];W[nh]
;B[pf];W[nf];B[ne]
(;W[og]
(;B[je];W[kf];B[rj];W[ea];B[da];W[bi];B[ah]
(;W[bj];B[ff]
(;W[fe];B[de];W[ee];B[hm];W[im];B[in];W[do];B[hl];W[hk];B[dd]
;W[ll];B[mm];W[rh];B[sg]
(;W[ri];B[sp];W[sq];B[so];W[rq];B[mn];W[no];B[nm];W[qj];B[rk]
;W[mk];B[nk];W[mj];B[km];W[gh];B[if];W[co];B[bo];W[fo];B[jl]
;W[jk];B[jm];W[ik];B[qc];W[go];B[ho];W[of];B[oe];W[dn];B[cm]
;W[el];B[dg];W[ga];B[ha];W[gc];B[hb];W[ge];B[jg];W[kg];B[ig]
;W[gg];B[gf];W[fh];B[hf];W[pj];B[pk];W[oi];B[si];W[sh];B[sj]
;W[fn];B[aj];W[ai];B[ak];W[em];B[aq];W[cr];B[hn];W[fm])
(;W[so]C[N: better];B[sh];W[ri];B[si]))
(;W[dd];B[cc]C[N: you have sente];W[hb]))
(;W[dd]))
(;B[of]C[N: now you give black the chance to play here later]
))
(;W[of]C[N: better]))
(;W[bq];B[lh]C[N: does not seem good for black]))
(;W[lh]C[too small and not 'sente' !?
(LL)])
(;W[fl];B[jh]C[very good for black
(LL)])
(;W[cc];B[bc];W[dc];B[ih]C[ok for black
(LL)]))
(;W[lm]C[N: here you connect and seperate at the same time, looks nice]
))
(;W[ln];B[kl];W[ki];B[jh];W[ji];B[ih]TR[pg][oh][qh][ji][ki]
[li][mi][ni][qi]SQ[ed][ef][eh][ei][ej]C[white will have problems with "triangle" stones and "square" stones !
(LL)]))
(;W[lk]C[N: playing from the side of the weak group might be easier]
))
(;W[rg]C[N: more easy to make eyes];B[rf];W[pg]C[N: nice forcing move]
))
(;B[pg]))
(;W[oi];B[ri];W[rj];B[qj]C[bad for white.
(LL)]))
(;W[oi];B[ni];W[oh];B[nj]
(;W[mg];B[me]C[black is better !
(LL)])
(;W[qg]C[N: better shape])))
(;B[pj]C[N: i think this is more severe]))
(;W[nc];B[ob];W[ne]C[seems difficult for white...
(LL)])
(;W[cc];B[bc]C[N: you should play tenuki right now, this move was to make a black attachement more difficult, so you can play elsewhere now.]
(;W[dc];B[oo]C[white is 'gote'
(LL)])
(;W[pj];B[ec];W[dd];B[dc];W[cb];B[bb];W[ce];B[bd];W[fc];B[db]
;W[eb];B[ca];W[gd]))
(;W[oo];B[pn];W[nn]C[what about that ?!
(LL)]))
(;W[qf];B[nc];W[qi];B[rp];W[qq];B[rd]C[easy for black !
(LL)])
(;W[nc];B[oc];W[nd];B[pf];W[nf];B[ph]C[good for black !?
(LL)])
(;W[pj];B[qj];W[ph];B[pi];W[oi];B[qi];W[qc];B[pc];W[qd];B[qe]
;W[re];B[qf];W[rf];B[qg];W[pb];B[ob];W[qb];B[nc];W[mh]))
(;W[ci]C[N: seems one logic possibility]
(;B[di];W[dh];B[jq]C[???
(LL)])
(;B[bi];W[cj];B[bj];W[ck];B[cl];W[bk]C[N: black still is not solid]
))
(;W[qf];B[nc];W[pj];B[di];W[ei];B[kq]C[ok for black !?
(LL)])
(;W[iq]C[N: locally I would play here because you have C3, now you have solid territory]
))
(;B[kq]C[  Event     2nd Rico Cup Pair Go
  Round     2
  Black     Chinen Kaori, 2 dan
  White     Aoki Kikuyo, 6 dan
  Komi     5.5
  Date     1996-12-14
  Place     Japan
  Result     B+R
(Gobase)]))
(;W[ck]C[  Event     2nd Rico Cup Pair Go
  Round     2
  Black     Chinen Kaori, 2 dan
  White     Aoki Kikuyo, 6 dan
  Komi     5.5
  Date     1996-12-14
  Place     Japan
  Result     B+R
(Gobase)]))
(;W[hg];B[kd]C[  Event     Female Meijin,3,Japan,
  Round     1
  Black     Sugiuchi Kazuko, 8p
  White     Aoki Kikuyo, Women's Meijin
  Komi     5.5
  Date     1991-01-17
  Place     Japan
  Result     B+R
(Gobase)])
(;W[cc];B[bc];W[jc];B[fg]C[  Event     Kisung,6,Korea,
  Round     League
  Black     Kim In, 9 dan
  White     Seo Bongsoo, 9 dan
  Komi     5.5
  Date     1994-05-12
  Place     Seoul, Hanguk Kiwon, Korea
  Result     W+6.5
(Gobase)]))
(;W[dk]))
