(;FF[4]GM[1]SZ[19]ST[2]CA[UTF-8]AP[SGFC:1.17]

PB[Shujinko]
PW[TenguOmni]
WR[17k]
KM[0.5]
DT[2010-12-23]
PC[IGS-PandaNet]
RE[B+Resign]
RU[Japanese]

C[Hello there, my name is Michael.  I'll be reviewing your game.  You seem to be much better than your opponent in this game.  I don't know what rank you are, I'm unsure if my 11kyu KGS will be sufficient but I'll do my best. :)

Feel free to reach out to me about any questions at my e-mail address, and let me know if my review isn't satisfactory, so I can get this assigned to a more appropriately ranked player.

You asked specifically for a review of move 137.  I'll take care of that first, and then pepper the rest of the game with random thoughts.  Feel free to jump ahead.

Shujinko: hi];B[dd]C[*TenguOmni*: sup];W[pp];B[dq];W[pd];B[ck]
C[Chinese Low Opening.  I don't know how much you know about it, but in this opening you're seeking to build a large moyo and use your influence to push around the other player.  You don't do that in this game though.  From looking forward you mostly just creep through his defenses.  Normally, that would be disaster for black because white builds up influence to counter yours.  But it wasn't a big problem for you :)]
;W[jj];B[nd];W[ld];B[nf];W[ne];B[oe]C[By playing P15 instead of N15 you're taking the side.  Chinese opening says to take the middle and use moyo for massive damage, so you're actually working against your stones on this.]
;W[me]
(;B[pe]
(;W[nc];B[od];W[ng];B[qc];W[pc];B[oc];W[pb];B[nb];W[mc];B[ob]
;W[qb];B[rc];W[sb];B[rb];W[ra];B[re];W[of];B[pf];W[mf];B[ph]
;W[oa];B[na];W[pg];B[qg];W[og];B[pj];W[qh];B[rg];W[pi];B[rh]
;W[oh];B[qi];W[ri];B[ph];W[oi];B[rj];W[qh];B[qj];W[oj];B[pl]
;W[rk];B[pk];W[sj];B[si];W[sk];B[rm];W[sl];B[sm];W[qm];B[rl]
;W[ql];B[qk]C[*TenguOmni*: nice];W[ok]C[Shujinko: thanks];B[qn]
;W[pm];B[om];W[pn];B[po];W[on];B[nn];W[oo];B[qo];W[nm]C[Shujinko: ladder breaker...]
;B[ol];W[nl];B[op];W[no];B[pq];W[qp];B[rp];W[qq];B[qr]C[*TenguOmni*: -.-]
;W[oq];B[rq];W[np]
(;B[pp]C[You shouldn't respond, this is very small.  There are way bigger moves on the board.]
;W[mn];B[or];W[nr];B[nq];W[mq];B[oq];W[ns];B[os];W[mp];B[mr]
;W[lr];B[ms];W[ls]C[White has lots of moyo, you have none, you should probably do something about this 20 moves ago. :)]
;B[ns]C[Unneeded, O1 and O2 are miai for the eye, and you don't even really need the eye.]
;W[lq];B[eo];W[ma];B[mb];W[la];B[lb];W[kb]
(;B[ka];W[ja];B[la];W[jb];B[lc];W[kc];B[md];W[kd];B[dg];W[le]
;B[gc];W[he];B[gf];W[hd];B[hc];W[ib];B[hb];W[ic];B[ge];W[fe]
;B[gd];W[ha];B[ga];W[ia]
(;B[fb];W[hf];B[hg]C[to teaching ladder:
I think I made a mistake at 137, what was I supposed to do?

Michael: 
Well, you've been getting very lucky and getting more than your fair share from this opponent.  You can't have everything.  I personally wouldn't have played 135 at the location it was played.  You don't need to protect that cut point and you really don't need to make life over there yet.  See the variation at 135 for a better line of play.

I'll stop my review at this point.  Some things I would recommend is paying more attention to the entire board.  I would recommend reading Elementary Series Go Volume 1 (The Opening) for some tips and things to watch out for.  I would also recommend reading the Sensei's Library page on the Chinese Opening (and subpages) to get more of an idea how this opening is supposed to work.

If you have any questions or corrections feel free to e-mail them to me.]
;W[gg];B[gh];W[fg];B[ff];W[hh];B[ig];W[fh];B[gi];W[fi];B[fj]
;W[gj];B[hi];W[hj];B[ih]C[*TenguOmni*: im going to resign >.>]
;W[ii];B[ji];W[hh];B[eh];W[jh];B[ei];W[ki];B[eg];W[if];B[fl]
;W[jg];B[fk];W[gk];B[gl];W[rk];B[sk];W[ej];B[dj];W[ek];B[el]
;W[qf];B[qe];W[ea];B[da];W[ca];B[db];W[eb];B[cb];W[ec];B[ed]
;W[fa];B[gb];W[fd];B[ef];W[ee];B[de];W[cd];B[cc];W[df];B[cf]
;W[ce];B[bd];W[be];B[bc];W[bf];B[bg];W[ag];B[bh];W[ah];B[ai]
;W[af];B[bi];W[rd];B[qd];W[sf]C[TenguOmni has resigned the game.
Shujinko: thank you for the game])
(;B[hf]C[This turn is much bigger than making the eye.];W[if]
C[If white hanes];B[ih]C[Split white from the tengen and invade.]
(;W[ig]C[peep];B[gh]C[Good shape.])
(;W[hg]C[cut (correct response)];B[gh];W[hh];B[hi];W[ig];B[gg]
;W[ii]
(;B[hj]C[Steady.];W[il]C[This is as good as black can reasonably expect.]
)
(;B[ij]C[Too fast.];W[hj]
(;B[ji];W[gi];B[gj];W[ii];B[fi];W[hi])
(;B[gi];W[ik])
(;B[gj];W[ik];B[hk];W[gi];B[fi];W[gk];B[hi];W[hl])))))
(;B[lc]C[Instead you can atari two stones];W[md];B[kc]C[And run even bigger.]
))
(;B[gc])
(;B[do])
(;B[jq]))
(;W[od]C[Otherwise white gets a very big corner.]))
(;B[od]C[need to stay together.]))
