(;FF[4]GM[1]SZ[19]ST[2]CA[UTF-8]AP[SGFC:1.17]

PB[Brakeshoe]
BR[8k]
HA[9]
PW[Tiesto]
WR[4d]
KM[0.5]
DT[2010-12-30]
PC[The KGS Go Server at http://www.gokgs.com/]
RE[W+70.5]
TM[1200]
OT[5x30 byo-yomi]
RU[Japanese]

AB[dd][jd][pd][dj][jj][pj][dp][jp][pp]C[Brakeshoe- Thanks! I have left comments throughout the game and some questions. Thanks again!]
;W[nc];B[oc];W[nd];B[pf]C[solune [2k\]: Go brakeshoe];W[fd]
LB[hc:A][df:B]
(;B[hc]C[pasive];W[dc];B[cc];W[jb];B[ec]C[good move];W[fc]LB[db:B]
[je:A]
(;B[je]TR[jf]C[If you want the play here, you gotta play one field lower for good shape.]
;W[db]C[Now white settles himself well, which eases the game for him by a big deal.]
;B[cb];W[eb]LB[gb:C][ed:B][df:A]C[There are two posible strategies. One is to connect @ B, making a good shape in sente, the other is to keep the attack by C.]
(;B[df]TR[ed]C[Problem with this move is that you will have to answer W E16 later and with D14 in place you will make a bad shape.]
;W[fg];B[dh];W[jg]LB[lc:A][le:C][me:D][kg:B]C[Usual strategy in high handicap. The main course is to scare the oponent, so that he tryes to live at the (top) side, while W makes a lot of outer strength, which is what he needs to win.

There are many playable moves, like B-D. The important thing is to keep white separated and move to the middle.]
;B[lc]C[Brakeshoe- I tought i could kill that stone and therefore make life at least if i cant then run out.

You do exactly what W wants. You should never try to live like this.]
(;W[le];B[kf]C[no choice now];W[lh]C[White wants to direct you towards the corner so that he can rape it once you get close.]
;B[lb]TR[mf]C[Play this only when you really have to, it badly damages the corner territory. You should get out instead, which you can do.]
;W[nb];B[hb];W[he]LB[lf:A][mf:B]
(;B[lf]TR[mf];W[mf];B[ld]C[Suramasa [3d\]: tiesto not overplaying enough]
;W[me]C[Suramasa [3d\]: he forgot about crosscut everything]
;B[if];W[hh];B[ih];W[ig];B[hf];W[hg];B[ff];W[ee];B[ef];W[cd]
LB[bd:B][ce:A]C[This is a trick move]
(;B[ce]C[Now you got cheated];W[bd];B[be];W[ad];B[de];W[bb]
;B[ge]C[This is 100% gote. You are either connected or alive without it.]
;W[ph]LB[ob:A][og:B]C[Brakeshoe- Right there I was quite happy with my overall result. I had white drifting in the center, connected my crap and made a life on top, plus I have some aji left . Now this was a good move cause I have to defend a weakness at P18, perhaps a keima at R14 would have been a wiser play. Is it better to play a keima when u have more than 6 stones handicap ?

First part is wrong - W gained a corner and what you call drifting stones, well those indeed are drifting stones, but in a 9hcp these are actually central thickness, as he can use them for attacking better than you can attack them.

Q14 shape is better in high handicapes as it is more active and allowes much better attacks on white. But of course you need to know how to answer moves like Q12.]
(;B[ob]C[This move is ok, but passive];W[qe]LB[qc:A][qd:B][pe:C]
C[Almost all is better than your response.]
(;B[qc];W[pe];B[od];W[oe];B[rd];W[re];B[nh]C[Brakeshoe- Empty move? I played it because it could serve many purposes depending on w's answer.

There is a proverb - never peep a possible cut. You force white to connect at N13, which is was main worry until now.]
;W[oi]C[W should happily connect at N13 instead];B[kh]C[This looks like a very good counter-attack]
;W[kg];B[lg];W[mg]LB[ki:B][li:A]C[In case you plan to connect at B, play there directly and you get an extra move, or close to it.]
(;B[li]C[But, in this situation you dont need to connect];W[mh]
LB[ki:A][hj:B]
(;B[ki]C[This is heavy and unneccessary.];W[gk]C[Brakeshoe- But it didnt serve anything :( He made it useless

your middle group is a bit heavy now];B[gi]C[Nah, don't play this, unless you know why you do it. Other wise you just help him.]
;W[hi]
(;B[hj]C[Brakeshoe- Didn't want to play the var. I was dead then.]
;W[gj];B[ij];W[fi]C[Brakeshoe- So now he has to make a second eye, and I couldnt fight properly. Is it a situation where you have to kill because of my weak group in center or can I still make more profit by playing around him?

There isn't very much you can do now. But he is not alive yet, so just take it easy, jump out with the center and see later.]
;B[im];W[qn];B[qo];W[pn];B[nq]TR[np]C[Now you want to play higher even more, to be closer to the still weak center.]
;W[no]LB[nk:C][pl:B][rl:A]C[This looks like an overplay

A is wrong (see comment in next move), B is best for attacking as it severes his base, C is a safe distatnt attack.]
;B[rl]TR[rj]C[Don't play on second line, unless it's an endgame.. Of course the proverb cannot be followed literaly, but this is the case. Are you afraind of the connection underneath, as he did at the top? Don't worry about that, as it would be him playing on second line, therefor playing weak.]
;W[rm]C[Exchange good for white];B[mk]C[looks possible, but needs a lot of reading.]
;W[nk];B[oo]TR[qo][pp]C[Brakeshoe- Bad shape. I find myself doing that shape quite often, is there a remedy?

Well, in some cases it's possible to play. In this case you are saying that you will take the bottom center in exchange for corner and right side. Which favours white.]
;W[on];B[nn];W[mo]LB[nm:B][lp:A]C[Hmm, I would just take the right side, this looks unreasonably aggresive.

You have no choice but to fight at B.];B[lp]C[This way you leave white with the right side and get nothing for yourself.]
;W[op]C[Now white connects, even in sente. Disaster.];B[oq]
;W[po];B[rp];W[pq];B[qq]C[Was this your plan when you played S4?? Why did you play it then? 
If you play R4 instead, I think it would be a direct ko, which you can play with the threats in top left.]
;W[qp];B[gh];W[gg];B[pp];W[il]
(;B[pr]C[Brakeshoe- I have too many threats in the center so , maybe it wasnt that bad to ignore , had I had a chance to run out and connect to k4 - m4 by some wise tesuji.

You have many threats at top left corner.];W[jl]LB[kl:B][lm:A]
C[Now the game is very bad.

If you want to connect, B is the shape. You need to take away whites liberties.]
(;B[lm];W[kn]
(;B[jm];W[km];B[kl];W[ll];B[kk];W[hm];B[jo];W[mm];B[jn];W[ko]
;B[hn];W[gm]C[The game is over, so I will stop strategy comments and just point few little things, mainly answer questions.]
;B[lk];W[ln];B[cm];W[gn];B[jk];W[hl];B[nj];W[oj];B[nl];W[ok]
;B[nm];W[ql];B[ni];W[pg];B[mn];W[lo];B[ml];W[lm];B[rk];W[qk]
;B[pk];W[pl];B[pi];W[qi];B[oh];W[qj];B[gp];W[cq];B[dq]C[Tiesto [4d\]: you shouldnt have ignored my threat]
;W[cp];B[co]C[Tiesto [4d\]: pretty much dead after that];W[bo]
;B[bn]C[Brakeshoe- Overplay?

no, it's joseki];W[do];B[cn];W[dr]
(;B[eq]C[this is overplay];W[er];B[fq];W[ap];B[eo];W[el];B[dl]
;W[fr];B[gr];W[gs];B[fs];W[es];B[hs];W[cr];B[hr]C[Brakeshoe- Too much to lose on that ko]
;W[ma];B[la];W[pb];B[qb];W[oa];B[pc];W[sb]
(;B[rb];W[sd]
(;B[pa];W[ra];B[sc];W[rc];B[eh];W[fh];B[sc];W[kp];B[sa];W[jq]
;B[iq];W[kq];B[qa]C[gote];W[ho];B[ip];W[ro];B[np];W[oo];B[fl]
;W[em];B[ej];W[ek];B[fj];W[fk];B[gi]C[Brakeshoe [8k\]: i hope its dead
daladim [1d\]: you re deader :D];W[mi];B[mj];W[ii]
(;B[gf]C[Brakeshoe- Brain cramp.];W[jh]C[Illyria [?\]: ...]
;B[fn];W[fm];B[go];W[qp];B[se];W[rf];B[ed];W[ke];B[jf];W[kd]
;B[kc];W[jc];B[ib];W[ja];B[ia];W[dk];B[ck];W[dm];B[cl];W[eg]
;B[dg];W[ei];B[di];W[mr];B[lq];W[lr];B[jr];W[mq];B[mp];W[kr]
;B[so];W[pq];B[ae];W[ca];B[pp];W[qo];B[rq];W[sn]C[Brakeshoe [8k\]: :(]
;B[nr];W[in];B[io];W[hn];B[dn];W[en];B[fo];W[hp];B[gq];W[js]
;B[ir];W[gb];B[gc];W[gd];B[ga];W[fb];B[hd];W[sf];B[fe];W[fa]
;B[id];W[sp];B[sq];W[ns];B[pq];W[os];B[ps];W[rs];B[rr]C[even worse, you read the var wrong in the comment :)]
(;W[na]C[Brakeshoe- Didn't read the var properly. That explains why he tenukied lol. I thought he wanted to make fun of me trying to make me play away then kill me.

no, he did, he was polite.];B[qs]C[Brakeshoe- Therefore I played this. -1 pt in gote ( clap clap clap )]
;W[sd];B[da];W[bc];B[se]
(;W[ar]C[Brakeshoe- ?

not needed at all, maybe he didnt have time?];B[sd];W[an];B[am]
;W[ao];B[so];W[ha];B[sp];W[ga];B[tt];W[md];B[ic];W[mc];B[kb]
;W[mb];B[ka];W[fs];B[is];W[ks];B[or];W[ms];B[nf];W[ne];B[of]
;W[rh];B[tt];W[tt]TW[aa][ba][da][ea][ab][cb][ac][cc][nf][of]
[pf][qf][ng][og][qg][rg][sg][gh][ih][kh][nh][oh][qh][sh][gi]
[ji][ki][li][ni][pi][ri][si][hj][ij][jj][kj][lj][mj][nj][pj]
[rj][sj][hk][ik][jk][kk][lk][mk][pk][rk][sk][fl][gl][kl][ml]
[nl][ol][rl][sl][nm][om][pm][qm][sm][mn][nn][rn][bp][aq][bq]
[br][as][bs][cs][ds][ls]TB[ja][ra][jb][pb][sb][jc][rc][ee][he]
[ie][af][bf][cf][ag][bg][cg][ah][bh][ch][ai][bi][ci][aj][bj]
[cj][ak][bk][al][bl][bm][do][ep][fp][qr][sr][rs][ss]C[Brakeshoe- I tought I would die everywhere , but I managed to get some points still. I would have loved to have my center alive but i had a lined 3 eyeshape so. As tiesto said I shouldn't have ignored, but I often ignore threats in handicap games because I can't evaluate them. Maybe it died even if I answered it and that way I might have lost the corner and the center.

Not to die everywhere is not enough to win a game, white did very well.
The main problems were the start, when you got cheated in a classical way at the top, defending instead of attacking. Then you missed the oportunity to take first the right side, then the middle and when you started the ko at bottom right, it was already bad. When you lost the middle, the game was over.
Try to look at some high handicap games of very strong players, even pro's play it sometimes. You would see the proper josekis at the sides.]
)
(;W[an]C[he could play here];B[am];W[ao];B[aq];W[bp]
(;B[bs];W[cs];B[br];W[bq])
(;B[br];W[bs];B[as];W[cs]C[white alive])))
(;W[qs];B[ss];W[sr];B[qr]
(;W[ms];B[ss])
(;W[or])))
(;B[jh]))
(;B[sc];W[rc];B[pa]
(;W[ra];B[sc]C[Brakeshoe- That way he makes the 1st threat

thats true])
(;W[se];B[sc])
(;W[sc];B[ra])))
(;B[sc]C[why not here?]))
(;B[er];W[cr];B[fq];W[bp];B[eo]C[this is the joseki move, but not needed now as you are strong on both sides.]
))
(;B[ln];W[lo];B[km];W[jm];B[jn];W[ko];B[hl];W[in];B[jo];W[hm]
;B[gl])
(;B[km];W[jm];B[jn];W[ln];B[hl];W[in];B[jo];W[hm];B[gl]))
(;B[kl]
(;W[km];B[jm];W[hl];B[lm];W[kn];B[ln])
(;W[jm];B[km];W[kn];B[jn];W[hl];B[ln];W[ko];B[lo])))
(;B[hl];W[qp];B[ae];W[bc];B[pp];W[qd]C[I don't think this kills threats to kill the corner, at least can't see a direct way.]
;B[rc];W[qp];B[eh];W[fh];B[pp];W[hk];B[ik];W[qp]))
(;B[gj];W[hj];B[hk];W[ik];B[hl]C[Nope, also not very good.]
))
(;B[hj]C[You can skip the connection and play directly here. White stones are pretty much dead.]
))
(;B[ki];W[mh]C[White will have to connect, now or a bit later.]
))
(;B[pe]C[You can answer here and white is in trouble actually.]
;W[qf];B[qg]C[as this works well];W[pg];B[qh];W[qi];B[ri]
(;W[qj];B[pi]TR[og]C[Now ladder works, so white collapses])
(;W[pi]
(;B[qj]C[even this should work]
(;W[rj];B[rh];W[rk];B[qd]C[W captured])
(;W[qd]C[this is a bit complicated, byt black should win]))
(;B[rj]C[this works])
(;B[qd]C[and if you are really not sure, you can play here. Anyway, having a big corner is great, white has hard work ahead getting such territory.]
)))
(;B[qd]C[This is a normal defensive response.];W[pe];B[re];W[qf]
;B[rf];W[qg]C[White gets a lot, but it's still better than the game.]
))
(;B[og]C[This is a strong attacking move. White cannot do much to counter as he would loose the top right stones.]
;W[mg]C[W has to defend the top];B[oh]C[and looses the stone]
))
(;B[bd]
(;W[ce];B[de];W[be];B[bc]C[you are fine like this, w dead])
(;W[ed];B[ce];W[gb]C[living in gote, blah])))
(;B[mf]C[correct shape to go out, it actually works.];W[lf]
;B[kg];W[kh];B[lg];W[mg];B[mh];W[ng];B[me]))
(;W[lf]C[I would play here, it has better fighting potential.]
))
(;B[ed];W[gb]TR[ff]C[This is the proper answer, otherwise you would play there yourself in sente and take away his base. As this is a handicap, he would probably play T. instead and fight.]
)
(;B[gb];W[ed];B[de]TR[df]C[White doesn't have any eye yet. This fight is not difficult for him, but attacking is always good. The point is - if you play D14 first as in the game, now this shape with D15, which you must play as an answer to E16, is painful.]
))
(;B[db]TR[dc]C[This is the kind of stone that can cause a LOT of trouble, so taking it is the best move you can play. Now he has nothing effective to do.]
))
(;B[df]C[This move is more natural. The white stones are still separated well enough, so strenghtening corners keeps more presure on W.]
))
