(;FF[4]GM[1]SZ[19]ST[2]CA[UTF-8]AP[SGFC:1.17]

PB[jettero]
HA[2]
PW[mukai]
WR[8k]
KM[0.5]
DT[2010-12-20]
PC[The KGS Go Server at http://www.gokgs.com/]
RE[B+5.5]
TM[600]
OT[5x20 byo-yomi]
RU[Japanese]

AB[pd][dp]C[mukai [8k\]: hi
mukai [8k\]: good game];W[pp]C[jettero [?\]: hi. have fun];B[dd]
;W[dj];B[jd];W[fq];B[cn];W[dr];B[cq];W[cf]LB[fc:D][bd:A][cd:C]
[fd:B][be:E]TR[iq]C[D: If your 4x4 stone is approached, respond.  Especially since white's C14 stone is already stable because of D10.  That is, you can't pincer C14 without a bad fight.  

A-E are all possible I think.

C feels a little slack, E looks like it destroys aji for no good reason.

Also, white "owes" a move around J3, so if black settles this upper left joseki, he shouldn't lose the initative.  If white tenukis, black can punish with a move around this area that white has ignored.]
(;B[pj]LB[qn:A]C[Q10 is a 70% move.  A is bigger (approaching a 4x4 stone), but settling the upper left corner is urgent.]
;W[fc]C[This double approach is more difficult for black now with white having a fairly stable group on the left side.]
;B[ee];W[cc];B[dc];W[cd]TR[be]C[there is a little aji with that hole in white's shape.  Don't ruin it by a needless move like C15.]
(;B[ce];W[be];B[de];W[bg]TR[dc][dd][ce][de][ee]C[white has fixed his shape and black is heavy with bad shape.
4 stones in an inefficient arrangment.];B[cb]LB[qn:A][iq:B]
C[follow a move like this through before you play it.  If black C18, white B18.  Then black must either leave a weakness behind to keep sente or connect at D18 in gote. 

This is an end-game move; white could even tenuki. There are bigger areas to play, such as the A and B areas.]
(;W[bb];B[db];W[nd];B[pf];W[pc];B[qc];W[oc];B[qb];W[kc];B[jc]
;W[kb];B[kd];W[nf];B[jb];W[lc];B[ld];W[mc];B[qn];W[qo];B[pn]
;W[nq];B[qq]TR[lq]C[This is premature.  if there was a black stone around M3, then this invasion has good potential.  Here, it is just letting white get stronger.]
;W[ro];B[pq];W[oq];B[qp];W[po];B[rp]
(;W[or];B[rr]TR[pn][qn]C[Black gained the corner because of white's error, but has left the outside stones weak. This makes things nasty in a few moves.]
;W[ph];B[og];W[oh];B[nh];W[pl]LB[oh:A][pj:B][pn:C]C[complicated!

White has a set of weak stones (A), but black has a cutting stone (B) and a pair of stones (C)  also under threat.  

B is a cutting stone, capturing A is bigger than saving C, so we should probably focus on helping B.]
(;B[ql];W[qk];B[pk];W[qm];B[rn];W[rm];B[rl];W[rk];B[so];W[on]
;B[pm];W[sl];B[ol];W[qi];B[oo];W[op];B[no]
(;W[lq];B[ng];W[of];B[pg];W[pb];B[qe];W[nn];B[ql]
(;W[lo];B[rh];W[ri];B[qh];W[lf];B[me];W[mf];B[ne];W[nb]C[white is cut.  black is done here for now. time to tenuki.]
(;B[oe];W[cl];B[cr];W[er];B[oi];W[fo];B[ba]
(;W[bc];B[jg];W[lh];B[ki];W[gg]
(;B[eg];W[ge];B[gi]LB[dc:A]TR[fh]C[black's group at A is not thick.  it has no eye shape and cannot live on it's own.  capping at G11 leaves a hole at F12, and black will be under attack instead of white. 

E13 was a dubious move.];W[fh];B[ei];W[fi];B[fj];W[eh];B[dh]
;W[di];B[ej];W[dg];B[ch]
(;W[ef];B[df];W[fg];B[fd];W[gd];B[gc]
(;W[fe];B[ed];W[hc];B[gb]
(;W[if]
(;B[hb];W[jf]
(;B[kf];W[kg];B[ke];W[jh]TR[gd][ge][if][gg]C[practice reading ladders.  This one is a short one.  Practice moving the white stones around, or inserting some black stones to see how the ladder changes.]
;B[ig];W[ih];B[hg];W[hh];B[hf];W[he];B[li];W[iq];B[em];W[dl]
;B[el];W[cg];B[hm];W[hj];B[gj];W[ij]LB[bm:B][io:A]C[A and B are big moves.]
(;B[jm]C[slack];W[il];B[im];W[kk];B[io];W[hp];B[ho];W[hl];B[gl]
;W[jp]
(;B[ip];W[hq];B[jo];W[kp];B[mk];W[gk];B[fk];W[gm]
(;B[gn];W[fl];B[fm];W[gl];B[fn];W[eo];B[do];W[en];B[dm]
(;W[cm];B[dn];W[bn];B[bo];W[an];B[ao];W[bl];B[fp];W[gp];B[ep]
;W[go];B[dk]
(;W[ck];B[ek]C[mukai [8k\]: sorry];W[cj]C[jettero [?\]: meh]
;B[pr];W[ll];B[ml];W[mm];B[mn]LB[ca:B][pa:D][ic:A][jl:F][ds:C]
[os:E]C[wasted move.

Other moves:

A - sente +1 point
B - sente
C - reverse sente
D - reverse sente
E, F, etc.


Review ends here.];W[mo];B[ln];W[kn];B[nm];W[lm];B[om];W[np]
;B[jn];W[lk];B[jl];W[jk];B[mh];W[lg];B[pa];W[oa];B[qa];W[ic]
;B[ie];W[gf];B[ib];W[hd];B[ka];W[la];B[ja];W[cs];B[bs];W[ds]
;B[br];W[eq];B[os];W[ns];B[ps];W[lj];B[mj];W[je];B[id];W[md]
;B[le];W[ab];B[ji];W[aa];B[ca];W[km];B[hn];W[kh];B[dq];W[tt]
;B[tt]TW[ma][na][lb][mb][ob][ac][nc][ad][bd][ae][af][bf][ff]
[hf][ag][eg][hg][ig][jg][ah][bh][ch][dh][ai][bi][ci][aj][bj]
[ak][bk][hk][ik][al][am][bm][ln][mn][no][oo][lp][mp][gq][jq]
[kq][mq][fr][gr][hr][ir][jr][kr][lr][mr][nr][es][fs][gs][hs]
[is][js][ks][ls][ms]TB[da][ea][fa][ga][ha][ia][ra][sa][eb][fb]
[rb][sb][ec][fc][rc][sc][qd][rd][sd][pe][re][se][qf][rf][sf]
[qg][rg][sg][oh][ph][sh][mi][ni][pi][qi][ri][si][nj][oj][qj]
[rj][sj][nk][ok][qk][rk][sk][nl][pl][rl][sl][qm][rm][sm][in]
[sn][co][ap][bp][cp][sp][aq][bq][rq][sq][ar][qr][sr][as][qs]
[rs][ss]C[mukai [8k\]: thanks
jettero [8k?\]: thanks!])
(;W[cj];B[ck]))
(;W[dn];B[cm]))
(;B[hk]C[take, now black can either push up at K8, or connect with G6.]
;W[gn];B[jl];W[ik];B[jk];W[jj];B[kj];W[ll];B[lm]))
(;B[bm]C[sente and large.]))
(;B[io]TR[nh][ki][li][oi][ej][fj][gj][pj][pk][el][ol][em][hm]
C[use your thickness to support an erasing move.];W[hn];B[in]
;W[im];B[ho];W[gn];B[jm];W[il];B[kn];W[jl];B[kl];W[hl])
(;B[bm];W[bl];B[al];W[ak];B[am];W[bj];B[io]C[perhaps this order, since I think B is sente.]
))
(;B[kg];W[kf];B[lg]C[can cut this stone]))
(;B[jf]LB[lf:B][gg:A]C[keep white A and B split.]
(;W[hb];B[fb])
(;W[fb];B[hb];W[ib];B[ic];W[ga];B[hd];W[ha];B[ia];W[fa];B[ea]
)))
(;W[hb];B[fb]))
(;W[hc]))
(;W[cg];B[fg];W[gh];B[gf];W[ff];B[ef];W[hf]C[black is in trouble.]
))
(;B[ge]C[prolly better to play safe.]))
(;W[he]C[white can ignore B19. it is only 4 points.]))
(;B[jl];W[oe];B[od]))
(;W[rg]))
(;W[kq]))
(;B[ni];W[on];B[ql];W[qk];B[pk];W[qm];B[ol];W[pm];B[qj];W[rl]
;B[rk];W[ql];B[om]C[perhaps like this.]))
(;W[pr]C[Black dies I think.]
(;B[qr];W[or];B[sr];W[rs];B[rr];W[qs])
(;B[rr];W[qs]
(;B[sq];W[rs];B[qr];W[or])
(;B[rs];W[sq]
(;B[sr];W[sp])
(;B[sp];W[sr];B[or];W[nr];B[os];W[ns])))))
(;W[iq];B[bb];W[qn];B[bd];W[mp];B[ae];W[bf]C[White could even lose the corner without losing stability of his group - meanwhile white could be building a large moyo, or other similar big moves.]
))
(;B[eg]TR[ch]C[just extend; now black is aiming into the weak point of white's shape.]
))
(;B[bd]TR[ch]C[For example this would immediately expose the weakness in white's shape and begin to secure corner territory at the same time.]
))
