(;FF[4]GM[1]SZ[19]ST[2]CA[UTF-8]AP[SGFC:1.17]

GN[2011-01-12b]
PB[ffgudoa]
BR[4k]
PW[astralth]
WR[4k]
KM[6.5]
DT[2011-01-12]
PC[The KGS Go Server at http://www.gokgs.com/]
RE[B+19.5]
TM[600]
OT[5x20 byo-yomi]
RU[Japanese]

C[Hi,

My name is Johanna Tuominen, I'm EGF 1 dan. I added some comments during the game and to ypur questions. Hope they help. Enjoy the game of Go.



Dear reviewer,
As I now see this game after reviewing it, I know the sheer number of mistakes in the middle and end game, by both players, make the neither easy nor very interesting to study.

That is why I would like to focus more about the fuseki : which moves, which josekis should I have chosen ?

I feel I have been thinking a lot too locally throughout this game, do you have some general advice to give about my game, or how I should work in order to step it up?

Thanks a lot !

By the way, I played white. And my questions are marked Astralth :]
;B[dd];W[pp];B[dp];W[pd];B[nq];W[kp]LB[pn:D][qn:C][no:B][qq:A]
C[Astralth : I tend to use this pincer a lot in my latest games, in which situations is it interesting?

JT: I think in this situation it is ok. I like more the tight pincer played in M3 and the josekis starting from there but if you are more familiar with this it's ok. There are atleast four josekis for black from this point. I put some variations.

I don't like the black next move to B. The joseki book says that the variation from B is good only if you are trying to reduce moyo, and therefore I think it is too slow.]
(;B[no]
(;W[qn]LB[pn:A]C[JT: Joseki move is A.];B[pr];W[qq]
(;B[lr]LB[fc:A][gp:C][fq:B]TR[no][nq][pr]C[JT: I think the biggest point in the board is to play at A. It is a correct direction of play from the hoshi stone Q16. The marked blakc stones are alive but small so it is not an urgent matter. 

The white stone in L4 is problematic because if you try to approach, for instance to B or to C like happened in the game black can just play pincer.]
(;W[gp]C[Astralth : Now my position feels too high ... 
JT: Yeps, and the blcks next move is annoying... for white]
;B[iq];W[kr]C[JT: Does not work because of the marked stone.]
;B[jr]
(;W[ks];B[kq];W[lq];B[jq]
(;W[mp]C[JT: Good decision to give the connection to white. See the variation from previous node.]
;B[mr];W[np];B[oq];W[op];B[qr]
(;W[df]LB[fc:A][cn:B]C[Astralth : Is this good direction of play ?
Maybe I could make a better use of the wall in lower right corner?

JT: See the variation from previous node. I think first A then B if white gets sente.]
;B[cj]C[Astralth : I have trouble adding a second move after my approach is somewhat treated lightly, please give me some clues.
JT: The double approach you played is ok.];W[fc];B[fd]
(;W[dc];B[ec];W[eb];B[ed];W[fb];B[cc];W[db];B[hc];W[cd];B[ce]
;W[bd];B[be];W[bc];B[de]LB[mc:A][qg:C][cn:B]C[Astralth : Now my D14 stone feels lonely, and after this starts my local thinking.
My questions end here, however, please feel free to add comments where you think it may help me get better.
Thanks again for your time !

JT: You should not worry about the D14 stone. Leave it there and play somewhere else like A, B or C. 
It might give you aji later and if it worries you opponent then he can use extra stone to defend but other than that it is useless at this moment of the game.]
;W[gd];B[gc]TR[mc][nc][qi][cn]C[JT: Still the marked places would be bigger.]
(;W[ff];B[ge];W[di];B[ch];W[ci];B[bi];W[hd];B[id];W[he];B[fe]
;W[hf];B[jc];W[gf];B[eg];W[dh];B[dg];W[cf];B[ef];W[bf];B[bg]
;W[ae];B[ee];W[gi];B[cg];W[af];B[ad];W[ac];B[ag];W[ad];B[cb]
;W[bb];B[ca];W[ba];B[gb];W[pj];B[fi];W[gj];B[dj];W[fj];B[fh]
;W[dn];B[hh];W[gh];B[gg]C[JT: H13 is better move here.]
(;W[fg];B[hg];W[eh];B[ei];W[je];B[jf];W[ie];B[ke];W[jg];B[jd]
;W[ig];B[if]LB[qf:A][cq:B]C[JT: How about A or B here.];W[ij]
;B[qf];W[pf];B[pg];W[qe];B[of];W[pe];B[qg];W[og];B[pi]
(;W[mc];B[oh];W[ng];B[nf];W[mf];B[mg];W[nh];B[ni];W[mh];B[lg]
;W[oj];B[oi];W[lh];B[kg];W[mk];B[me];W[re];B[qj];W[qk];B[qi]
;W[rk];B[nj];W[nk];B[li];W[kh];B[ki];W[ji];B[kk];W[jj];B[jh]
;W[ih];B[lk];W[mj];B[mi];W[jh];B[lo];W[ko];B[kn];W[ln];B[mo]
;W[jn];B[km];W[lp];B[mm];W[jm];B[jl];W[nm];B[lm];W[cq];B[hi]
;W[hl];B[il];W[hj];B[hm];W[gm];B[gl];W[fl];B[hk];W[dl];B[fm]
;W[el];B[gn];W[eo];B[cp];W[bo];B[bp];W[ep];B[dq];W[eq];B[bn]
;W[co];B[cm];W[cn];B[bm];W[ao];B[cr];W[bk];B[cl];W[ck];B[dk]
;W[al];B[bl];W[ak];B[er];W[ne];B[lf];W[kb];B[oe]
(;W[od];B[nd];W[nc];B[om];W[ol];B[nn];W[pm];B[nl];W[ns];B[jo]
;W[rr];B[rs];W[jp];B[io];W[ip];B[hq];W[ho];B[in];W[hn];B[im]
;W[gq];B[gr];W[fr];B[fs];W[fq];B[rq];W[rp];B[sr];W[jb];B[pl]
;W[ok];B[pn];W[qm];B[ro];W[sp];B[qo];W[po];B[qp];W[rn];B[pq]
;W[so];B[qq];W[on];B[fa];W[da];B[nm];W[rh];B[rf];W[ri];B[qh]
;W[fn];B[em];W[dm];B[go];W[hp];B[hr];W[ib];B[oo];W[se];B[rj]
;W[sj];B[rg];W[sk];B[sn];W[sm];B[pn];W[fo];B[gm];W[ai];B[ah]
;W[am];B[ap];W[aj];B[fk];W[ek];B[gk];W[ej];B[lc];W[lb];B[md]
;W[kc];B[kd];W[ld];B[mq];W[ha];B[hb];W[ia];B[ga];W[ml];B[ll]
;W[si];B[on];W[lc];B[le];W[sn];B[sf];W[qc];B[lj];W[pk];B[bj]
;W[an];B[tt];W[tt]TW[aa][ca][ja][ka][la][ma][na][oa][pa][qa]
[ra][sa][ab][cb][mb][nb][ob][pb][qb][rb][sb][cc][oc][pc][rc]
[sc][qd][rd][sd][bl][cl][pl][ql][rl][sl][bm][cm][rm][bn][fp]
TB[gd][hd][he][ie][je][ne][ff][gf][hf][kf][mf][fg][bh][dh][eh]
[ph][ci][di][hl][kl][jm][jn][ln][mn][aq][bq][cq][ar][br][dr]
[ir][kr][nr][or][rr][as][bs][cs][ds][es][gs][hs][is][js][ks]
[ls][ms][ns][os][ps][qs][ss])
(;W[nd];B[od];W[oc];B[mf]))
(;W[qj]C[JT: The marked corner stones are not in trouble so I would consider this move.]
;B[oh];W[ng];B[oj];W[ok]C[JT: Even if white escapes you can get nice territory below the blacks group and most likely to the corner as well.]
;B[nj];W[nk]))
(;W[hg];B[fg];W[ih]))
(;W[cn]
(;B[fq];W[bp];B[cq];W[cl])
(;B[co];W[dn]TR[gd][df]C[JT: You might benefit those marked stone in a fight starting from this variation.]
)))
(;W[gd]TR[pd][qn][kp][mp][np][op][pp][qq]C[JT: I would have chosen to play like this because it supports the corner stone in Q16, and works well with the wall.]
;B[fe];W[ec];B[de];W[cb];B[ge];W[hd]))
(;W[fc]C[JT: I think this would be a correct direction.];B[cf]
;W[db];B[cc];W[ic];B[qf];W[qh];B[qc];W[qd];B[pc];W[od];B[rd]
;W[re];B[rc];W[qe];B[nc];W[me]))
(;W[mr];B[lp];W[mq];B[mp];W[nr];B[oq];W[or];B[pq];W[ls];B[ko]
C[JT: White can live but the result is good for black]))
(;W[kq];B[ks]TR[kp][kq][kr]C[JT: Black connects and the marked stones are in trouble.]
))
(;W[fc])
(;W[fq];B[hq]TR[no][nq][lr][pr]C[JT: Ends up in a difficult fight where it is easy for black to connect the marked stone to the marked stone.]
))
(;B[kr]))
(;W[pn]LB[qq:B][pr:A]C[JT: Black can play A or B. See the variations]
(;B[pr];W[qq];B[kr]
(;W[nm]TR[pd]C[JT: Because of the marked stone white can play here.]
)
(;W[qj]C[JT: If white does not have the corner stone then this is more safe move.]
))
(;B[qq];W[pq];B[pr];W[or];B[qr];W[oq];B[ro];W[mp];B[np];W[mr]
;B[kn])))
(;B[qq]LB[qp:B][pq:A]C[JT: Personally I like the both outcomes (A or B). Blocking from B gives nice influence.]
(;W[pq];B[qp];W[po];B[pr];W[or];B[qr];W[oq];B[qn];W[np])
(;W[qp];B[pq];W[op]LB[np:C][mq:D][oq:B][rq:A][mr:E]TR[kp]C[JT: White has four continuations. According to joseki white gets gote in each variations but it is ok because in all of them white gets nice influence.  Thus getting the wall is the point here. After these sequences if black does not approach the corner stone in Q16, white approach D16 stone making huge moyo.]
(;B[np];W[oq];B[or];W[pr];B[qr];W[nr];B[ps]LB[mr:A]TR[np][nq]
C[JT: Continuatiing from A is not good. Will end up in to difficult fight because black most likely takes out the marked stones, and then whites influence is gone.]
;W[no];B[mr];W[mo];B[nc];W[qf];B[pb];W[qc];B[kc];W[cf]LB[me:B]
[ne:A]C[JT: Maybe something like this. Playing at A or B is also big soon. White makes nice moyo.]
)
(;B[rq];W[np];B[mq];W[mp];B[rp];W[ro])
(;B[oq];W[np];B[mp];W[mo];B[lo];W[lp];B[mq];W[mn]LB[kn:A][ln:B]
C[JT: White hopes to protect from A, black aims to play at B at some point. However this is not urgent since there are bigger points on the board]
)
(;B[mq];W[oq];B[or];W[nr];B[pr];W[np];B[mp];W[mo]
(;B[mr];W[lo])
(;B[lo];W[lp];B[mr];W[mn]))
(;B[mr];W[np];B[mp];W[mo];B[lo];W[lp];B[mq];W[mn])))
(;B[qn]LB[oo:B][np:A]
(;W[np];B[mp];W[no];B[qq];W[oq];B[qp]
(;W[nr];B[mq]C[JT: If black connects it will be struggle for black since these marked stones must run so I think black plays elsewhere.]
;W[mr];B[lq];W[kq]C[JT: Problems for black.])
(;W[mo])
(;W[mq]))
(;W[oo];B[qq];W[pq]C[JT: Easy way.];B[qp];W[om]))
(;B[pn];W[np]LB[mp:A][qq:B]
(;B[mp];W[no];B[oq];W[po]
(;B[qr];W[mo];B[mq];W[kn])
(;B[mo]C[JT: Blacks mistake.];W[mn]C[JT: This is bad because black must play empty triangle.]
;B[lo]LB[ko:A]C[JT: A is even bigger mistake. Furthermore, if white plays Q3 black lacks eye space. So the correct way for black is to play to the corner.]
))
(;B[qq];W[qp];B[pq];W[oq];B[or];W[op];B[nr];W[pj])))
