(;FF[4]GM[1]SZ[19]ST[2]CA[UTF-8]AP[SGFC:1.17]

PB[htrk5]
BR[3k]
PW[greendemon]
WR[2k]
KM[0.5]
DT[2011-01-28]
PC[The KGS Go Server at http://www.gokgs.com/]
RE[W+Resign]
TM[1500]
OT[5x30 byo-yomi]
RU[Japanese]

C[Thank you for looking at my game.  I play white.  I won this game, but only because black misread how to live at the end: I think I was at least 20 points behind before that.  If you can help me see where I went wrong, I would really appreciate it.

Xinwen:::

Hello i'm your reviewer, i will provide as much help as possible.

During the review, i had few friends reviewed the game together with me.

Xinwen (3-dan)
KX (1-dan)
PC (2-dan)
TW (4-dan)

END COMMENT:::

I will put the opinion regarding the game here.

Overall it is quite clear commented from this game certain issue at which you need to work on such as

1) direction, of how you should put pressure on opponent's weak gorup.
2) how you should plan and execute it.
3) how you must look at little detail and judging who is leading or not.
4) when not to take unecessary risk.

That is all.

Thank you.];B[pd];W[dc];B[dq];W[qp];B[co]LB[iq:A][kq:B]C[Xinwen:::

Follow A or B to see suggestion.]
(;W[jq]LB[ce:B][gq:g3][oq:A]C[I felt that the bottom was biggest.  Looking back maybe I should have just played an enclosure.

---------------------------------------

Xinwen: what you think KX?
KX: For me, I think it's style..
TW: ok ba...(it's okay)
PC: i think here(j3) or there (l3) better. because extend at g3 doesnt give much impact to shimari.

Option Path:::

Black continues at B basing on Professional games]
(;B[qk]LB[nc:A]C[




TW suggestion]
(;W[op]LB[mq:A]SQ[qp][jq]C[TW: defend is ok........but i think better don't
TW: this shape not good... too wide
TW: Black "A" can still go in];B[hq]LB[lp:A]C[
PC: Wah.. White didn't protect!
TW: for here, think should remedy for White "A"];W[nc]C[I also thought about C15 here, but decided this was more active.

Xinwen::: You are correct.];B[qf]
(;W[pb];B[qc];W[kc]LB[ld:A]C[PC: Maybe White A better, because D17 at low position.]
;B[de]
(;W[cg]C[I didn't want to make it easy for Black to reach back to the B5 stone.

Xinwen: You are right.];B[cc];W[gc]C[I saw this in a pro game, so I wanted to try it :)]
(;B[db];W[cd];B[dd];W[ec]C[TW: oh.....
TW: B got tricked];B[eb];W[fb];B[bc];W[ce]C[I felt Ok with this, black is sealed in and I have both sides.]
(;B[ge]C[TW: bad for B
TW: Too Heavy];W[df];B[ed];W[fc];B[fd];W[bd];B[bb]
(;W[he]C[A lot depends on how I pressure this group

Xinwen: the black..
Xinwen: lol
TW: no....................
TW: cos...]
(;B[hf]
(;W[gf];B[hd];W[gd];B[ie];W[fe];B[hc]
(;W[hb]LB[ib:A]C[I needed this to keep black from connecting underneath

PC: Black A better];B[ff]C[TW: ..............
TW: wrong way to approach ko
TW: if it was me...
Xinwen: white asking for trouble nehh]
(;W[he];B[mq]C[The ko is big, but this seems really big also.  Should I have filled the ko?]
(;W[mp];B[ge];W[ee];B[gg]C[Overall, I was happy with how this fight turned out, although black was able to settle.

TW: haiz (sigh)
TW: bad result for W
PC: Wall gone for no reason];W[dr]C[just a probe];B[cr]LB[eq:A]
C[PC Suggestion A]
(;W[lq]C[I felt like removing this aji was biggest, although the left side is very big now]
(;B[pq]LB[qn:A]C[PC: q3 removed aji
PC: so bad];W[qq];B[ck];W[qm]C[Threatening the R11 invasion

PC: R7 is good, reduce aji and protect corner too.];B[ir]C[small?  I didn't see that black could do anything here, can't connect to N3.  It does remove most of my chances around D2]
(;W[qi];B[ok];W[oi]TR[pd][hf][ok]C[black has 3 groups I could potentially pressure, I thought this was a good invasion, especially since I have S9 if I need it.

PC: I don't feel the pressure! Black only need to take care P9 group.]
;B[nj]C[TW: B is quite goo already
TW: its just that both is not very strong in details
Xinwen: he is back to the game!
TW: for instance]
(;W[ni];B[mi];W[ng];B[mh];W[of]
(;B[qb]C[TW: Nooooooooooooooo (to black)
Xinwen: Ha!];W[mj]C[This cut was a bit dangerous, but it seemed too tempting to pass up.

PC: This cut looks good];B[mk];W[lj];B[lk];W[kj];B[kk]
(;W[jj]C[I think this was a mistake, looking back];B[kh];W[jk]
C[Now my center group is starting to feel heavy];B[no];W[np]
;B[jl];W[nl];B[nk]
(;W[il]C[O5 was a good move for him, because it prevents my cut at L8 now]
;B[jm];W[im];B[jn];W[jg]C[trying to maintain the attack];B[lf]
;W[jh];B[ld];W[lc];B[ne];W[oe];B[od];W[nd];B[me]C[Now black is connected to J15 and I have to save my P11 group.  Something went wrong somewhere.]
;W[rk]
(;B[rj];W[qj];B[rl]C[TW: now B gg already (gg: done for it)]
;W[pk];B[ql];W[pl];B[rm];W[qn];B[ol];W[pm];B[ri]
(;W[gi]C[protect against J9];B[ib];W[jd];B[qh];W[pj];B[je];W[ic]
;B[ls]C[TW: W won right?
Xinwen: Yes];W[mr];B[id];W[in];B[nm];W[jc]LB[jc:C][ln:B][jo:A]
C[PC: White Should A first (sente) exchange with Black B then C.]
;B[go];W[lm]C[I thought maybe I could kill, but I don't think there's a way]
;B[ln];W[kn];B[km];W[ko];B[jo];W[io];B[lo];W[kp];B[nn]LB[ci:A]
[eo:B]C[not sure if Black even needed this move.  Black has a solid lead in territory, about 12-15 points if he keeps the left.

TW: A Suggestion
PC: B Suggestion]
(;W[cm]C[This turned into a disaster for me.  Was it too deep?]
;B[dl];W[dm];B[em]C[TW: a bit greedy here
Xinwen: Asking for trouble again~];W[bk];B[bj];W[jp];B[kl];W[hp]
C[I played this to ensure life for my group];B[gp];W[cl];B[dk]
;W[cj];B[bl];W[en];B[fm];W[fn];B[gn];W[bm];B[ak];W[eq];B[dp]
;W[if]C[A complete waste, so I try to kill the black stones.  I'm far behind now.]
;B[jf];W[ig]
(;B[pg];W[nh];B[kg];W[ke];B[kd];W[mg];B[md];W[mc]
(;B[fi];W[fh];B[gh];W[eh]
(;B[ki]C[Black resigns.  I do think I can kill this way];W[hi]
;B[ii];W[ji];B[ik];W[hk];B[ij];W[ih]LB[fg:B][hg:A][lg:E][li:C]
[hj:D]C[Xinwen: Er...
PC: Black next move A, White B, Black C, White D kill Black E Alive.
Xinwen: It sure is.])
(;B[hi]C[If black had just played here I think he lives.

Xinwen: No Comment is added here.];W[gj]
(;B[hj]
(;W[hk]
(;B[ji];W[ii];B[ki];W[ij])
(;B[ii];W[ji])
(;B[gk];W[fj];B[ei]
(;W[hh];B[hg];W[ih];B[ji])
(;W[di];B[ej]
(;W[ek])
(;W[fk];B[gl];W[ek]
(;B[ci])
(;B[dj])))
(;W[ej];B[di];W[dj];B[ci];W[gl];B[fk];W[ek])))
(;W[fj];B[ei]
(;W[ej];B[di];W[dj];B[ci])
(;W[di];B[ej];W[ek];B[dj];W[el];B[ci];W[gk];B[hk];W[gl];B[ik]
)))
(;B[ik];W[ij];B[hj];W[hk];B[gk];W[fj];B[ei];W[hh])))
(;B[hg]C[TW: like this];W[fg];B[fh];W[eg];B[ji];W[ih];B[ii]
;W[hh];B[ki]C[TW: B should be able to live]))
(;B[kg]C[TW: like this ba
TW: may have better shape];W[fh];B[hg];W[ji];B[mg]C[TW: may have two eyes]
))
(;W[em]C[maybe somewhere around here?];B[gm];W[ek])
(;W[ci]C[TW: like this enough already
Xinwen: Yup, Whtie is enough to win])
(;W[eo];B[fn];W[dl]
(;B[dk];W[el])
(;B[cl];W[dm];B[cm];W[dn])))
(;W[ke]C[I don't think this works];B[kd];W[jd];B[je];W[kf];B[jc]
))
(;B[qj];W[rj];B[ql];W[rl];B[pm]C[PC: Black should do this.. or..]
)
(;B[in]C[PC: or This]))
(;W[kl];B[km];W[ll];B[ml];W[lm];B[ln];W[mm];B[nm];W[mn];B[mo]
))
(;W[kh]C[I wish I had just played here

Xinwen: No Comment in Fighting =)]
(;B[lg];W[kg]
(;B[kf];W[lf];B[ki];W[ji];B[li];W[jj];B[jh];W[jg];B[ih];W[mg]
)
(;B[lf];W[kf];B[ke];W[le];B[me];W[ld]
(;B[nd];W[mf])
(;B[nf];W[oe])))
(;B[jj];W[ji];B[mg];W[kf])))
(;B[nd]C[TW: of course is like this ba,,,]
(;W[pe];B[oe])
(;W[md];B[ne];W[mg];B[oc];W[nb]
(;B[ld])
(;B[me]))))
(;W[ne]C[TW: u can also like this ba];B[og];W[mg];B[nh];W[rk]
;B[rj];W[rl];B[qj];W[cm]C[TW: this is also one way to reduce]
))
(;W[pj];B[qj];W[pi];B[qh];W[pl]C[PC: Maybe this variation better?
Xinwen: It becoming a long game.]))
(;B[qq]LB[rp:A]C[TW: here more aji ba
Xinwen: Definitely
PC: or A for Black too.]))
(;W[cl]C[maybe this is bigger?];B[lp];W[eq])
(;W[eq];B[er];W[dp];B[cq];W[fr];B[ds];W[lq]LB[fo:A]C[PC: I like this kind of W move
Xinwen: Nice sequence.
PC: or White A jump]))
(;W[ge];B[pq]))
(;W[gg];B[ee];W[ef];B[fe];W[fg];B[he];W[ib]C[TW: B is worse
Xinwen: Agree]))
(;W[gg];B[fa];W[gb];B[hb];W[ee];B[ga]))
(;W[hd]C[I could have played this way instead, but capturing the black stones seemed big]
))
(;B[bf];W[cf];B[ci]C[TW: next time if B is safe
TW: B can play this]))
(;W[gg]TR[he][ie][je][ke]SQ[nd][ne][nf][ng][nh]C[TW: may be better
TW: we want B to run here
Xinwen: KX close eye also can win this black
TW: so that we can cut
TW: then strike at R12
XW: that's the plan!];B[ie];W[hd];B[he];W[ig];B[ke];W[jd];B[je]
;W[kg];B[lf];W[ne];B[lg];W[ng];B[li];W[qh]C[TW: ideal stage ba]
))
(;B[je]C[TW Suggestion.];W[jd];B[ld];W[lc];B[nd];W[md];B[me]
;W[mc]
(;B[le])
(;B[ne];W[ie];B[ck]C[TW: something like this ba
Xinwen: Agree])))
(;B[dd];W[db];B[be]C[Xinwen: Usual Pattern]))
(;W[ce];B[cf];W[cd];B[df];W[fc];B[dj]C[This seems too good for black

Xinwen: Indeed]))
(;W[jd]C[maybe this way instead?

Xinwen::: does not matter?]))
(;W[nc]C[TW: like this ba (should be like this)];AW[qn]AB[op]
LB[nc:1][qn:3][op:2]C[TW: If B attacks
Xinwen: easier to settle..
TW: yup]))
(;B[ce];W[ed];B[oq];W[mq];B[dg];W[fq];B[qj];W[pq];B[ic];W[cd]
;B[nd];W[qd];B[qc];W[pe];B[qe];W[rd];B[re];W[pf];B[od];W[rf]
;B[rc];W[qf];B[sd];W[pi];B[pj];W[oi];B[oj];W[ni];B[qn];W[op]
;B[qi];W[nj]C[White::: Kim Teok Kyu 6p
Black::: Seo Neung UK 9p

27th P'aewang , 1991
Last 8]))
(;W[oq]LB[ce:A]C[Discussion:::

KX: No matter what, it is still go (it doesn't matter which move you go)

Xinwen: Based on my studies, in fact more professional players would make p3 shimari first. After all, we can do anything we want.

Option Path based on professional game:::

A];B[ce]LB[ed:C][fd:A][qj:B]
(;W[fd]LB[hc:B][qk:A]
(;B[qk];W[di];B[cc];W[cb];B[bc];W[dd];B[cg];W[de];B[df];W[cd]
;B[bd];W[be];B[cf];W[bb];B[ck];W[qf];B[qe];W[pf];B[nc];W[qm]
;B[qh];W[pj];B[qj];W[ph];B[pk];W[pi];B[rh];W[rf];B[og];W[qc]
;B[re];W[ng];B[pc];W[of];B[nk];W[lc]C[White: Seo Neung Yk 8p
Black: Jang Su Yeong 8p

28th Ch'oegowi, 1988
Loser Section, Round 2])
(;B[hc];W[cg];B[dg];W[dh];B[df];W[ci];B[fg];W[ge];B[eh];W[id]
;B[dj];W[cj];B[dk];W[cl];B[jc];W[ke];B[mc];W[iq];B[qk];W[qm]
;B[qe];W[ic];B[ib];W[hb];B[gb];W[jb];B[ha];W[kc];B[hd];W[ie]
;B[ec];W[dd];B[ed];W[ee];B[de];W[eb];B[fc];W[fb];B[gc];W[bd]
;B[he];W[hf];B[gf];W[be];B[me];W[pj];B[pk];W[oj];B[ok];W[nj]
;B[ri];W[bm]LB[no:3][lp:2][gq:1]C[the follow-up, Black 1, White 2 and Black 3.

White: Seo Neung-uk
Black: Yun Seong-Hyeon

19th Kiawang League. 1995]))
(;W[qj];B[gd];W[ed];B[dg];W[cd];B[de];W[gb];B[jq];W[dj];B[fc]
;W[fb];B[ec];W[eb];B[dd];W[cc];B[dl];W[fj];B[gg];W[fl];B[qg]
;W[lq];B[jo];W[dr];B[eq];W[hj];B[qo];W[po];B[qn];W[rp];B[om]
;W[oj];B[oo];W[qc];B[pc];W[qd];B[pe];W[rf];B[ph];W[mj];B[pb]
;W[qb]C[White: Takagawa Kaku 9p
Black: Hashimoto Utaro, 9p

20th Oza, 1972
Final])
(;W[ed];B[dg];W[iq];B[qk];W[nc];B[pf];W[pb];B[qc];W[kc];B[qn]
;W[fq];B[bc];W[hd];B[oo];W[qi];B[ld];W[lc];B[nd];W[oc];B[nq]
;W[nr];B[or];W[pr];B[pq];W[op];B[pp];W[np];B[no];W[mp];B[qr]
;W[os];B[qq];W[qg];B[qf];W[pg];B[ng];W[oi];B[mi];W[rk];B[rj]
;W[qj];B[rl];W[pk];B[sk];W[ql];B[rk];W[mk]C[White: Yang Chae-ho
Black: Seo Neung-uk

16th Kiwang League, 1991]))
(;W[iq]LB[fq:A]C[PC: because later can extend at A, right side is easier to get land.]
)
(;W[kq]C[PC: Mini Chinese pattern.]))
