(;FF[4]GM[1]SZ[19]ST[2]CA[utf-8]AP[SGFC:1.17]

GN[2011-01-25-White-Calvin-gtl]
PB[Calvin]
BR[5k]
HA[2]
PW[unknown]
WR[3k]
KM[0.5]
DT[2011-01-25]
RE[B+3.5]
RU[Japanese]

AB[pd][dp]C[I am black.  In this game I tried to play solidly and not attack too early, but since the game became close I think I missed some good opportunities.]
;W[pp];B[dd];W[qf];B[nd];W[rd];B[qc];W[qi]
(;B[kc]C[\\m/ : slow, sente for kakari against LR is much worth leaving 8 unplayed]
;W[fq];B[dn];W[dr];B[cq];W[iq];B[ck]TR[kc][qi][iq][dd][pp]C[A little simplistic, I suppose, but I can't say black is bad.

\\m/: b won't be bad in an even game. Each player had a double wing formation with 2 solid groups and a hoshi, but w has sente so nonetheless he recovers from the 2 stones but he has taken another one (the sente)]
;W[fc];B[ec]C[\\m/ : good with strong l17 group in place];W[fd]
;B[df];W[ic];B[je];W[ff];B[fb]TR[dh]C[\\m/ small this soon, keep jumping, making 4th line territory]
;W[gb];B[eb];W[dh]C[\\m/ : b's corner is solid,w don't have to fear to renforce it so contact play at d13 should end in better shape]
(;B[eg]LB[cf:A][qn:B]C[I considered playing A (C14) to take sente and then invading at B (R6)

\\m/ : good, 26 is better than A. Linking and cutting is the essence of go, the stones have to work together, a shape like UL corner here can't be bad for b.]
;W[cg]
(;B[be]C[Defending the corner like this may be a little to slow.  See variation.]
;W[cj];B[dk];W[fi];B[fg];W[hf];B[gg];W[if]
(;B[gi]C[I had a hard time deciding on a move for black here.  Although I can keep white split, the question is how to profit?

\\m/ : here w has 2 weak groups so keeping them separated is a sure source of profit. Now the question is how to attack, remember this principe : "Don't touch what you are attacking". With 36, you are reinforcing d12 group to attack j14 one. Nothing wrong with that if it is what you wanted to do. My choice would be the keima j12 to let white chose what group will run out and enclose the other.]
;W[fj];B[fl];W[gj];B[hi];W[ee];B[de]C[Hmm.  Black might not need to connect here.

\\m/ : No, connecting is good. Tenuki would allow w to cut d14 from the corner and let b with a eyeless group surrounded by w. The hunter would become the prey.]
;W[hj];B[ii];W[hl];B[hp];W[hq];B[fp];W[ip];B[gp];W[gq];B[eq]
;W[er];B[io]C[\\m/ : about 52/53 exchange, don't push into a keima if you don't cut. Just reinforce w and waste a ko threat.]
;W[jo];B[in];W[jn]SQ[cg][dh][cj][hl][fi][fj][gj][hj]C[Big for white as long as it is not too dangerous for white's marked group.

\\m/ : w pushing from the strong side to his weak position, big mistake in direction. Sansan still open so after corner invasion, w position would just be overconcentrated.]
;B[im];W[jk]LB[jm:A]
(;B[qn]TR[jn][jo]SQ[im][in]LB[jm:A]C[Very tempting to continue at A (K7) instead.  It's probably necessary after allowing white the marked exchanges.

\\m/ : As you seen in your variation, A is a great move.
In the corner, I prefer sansan invasion.];W[pn];B[pm];W[qo]
;B[on];W[po];B[nl]LB[om:A][rn:B]C[The usual moves at A and B looked too heavy, so I decided to play a lighter shape.]
;W[km];B[nj];W[pl];B[qm];W[om];B[ol];W[nm];B[mm];W[nn]
(;B[pk]LB[mn:A]C[I wanted to atari once more at A (N6), but see variation.]
(;W[mn];B[jb];W[jf];B[rc]SQ[gb][ic][ee][ff][fc][fd][hf][if]
[jf]C[Just playing big endgame now.  The game seemed pretty close to me.  I am not certain if white's marked group is completely alive yet, but I didn't see a good move against it.

\\m/ : huge move and almost sente because of the powefull position in q9, this is good.]
;W[re];B[rn];W[ro];B[so];W[sn];B[sm];W[sp];B[sn]C[\\m/ : well... small don't you think?]
;W[rp]C[\\m/ : c2, b14, b9, l15... all of them bigger than 89]
;B[kf];W[kg];B[lg];W[ke];B[lf];W[jd];B[kd];W[le];B[me];W[ie]
;B[ld]C[\\m/ : small too, what about c2 or b12 ?]
(;W[hd]C[Was that necessary for white?

\\m/ : seems not but I may miss something. See var.];B[qj];W[rl]
;B[ql];W[rj];B[rk];W[ri];B[pi];W[rg];B[jl];W[kk];B[kl];W[lk]
;B[ll];W[mk];B[ml];W[ji]
(;B[jh];W[ki];B[kh];W[ij];B[li];W[lj];B[mi];W[bj]C[This is a pretty big point.  I think black should maybe have played hane there before.]
;B[bk];W[ak];B[al];W[aj];B[bm];W[gm];B[cr];W[eo];B[ep];W[em]
(;B[dm]C[F7 seems better.];W[el];B[ek];W[dj];B[pg];W[pf];B[of]
;W[oe];B[og];W[pe];B[od]LB[fm:A][hb:B]C[Pretty small now.  It looks like A (F7) still works.  And B (H18) looks big.]
;W[sc];B[sb];W[sd];B[qb];W[cs];B[bs];W[ds]
(;B[br];W[ln]
(;B[fn]C[F7 still better.

\\m/ : right];W[fm];B[en];W[gn];B[go];W[fk];B[ag];W[bg]
(;B[af]LB[ah:A]C[Black can play A (A12) instead.

\\m/ : that's one of the reasons for sometimes prefering the small keima to the big monkey jump ;)]
;W[ah];B[hb];W[hc];B[ga];W[gf];B[ig]LB[ih:A][sk:B]C[White doesn't get anything by cutting at A, so this is small.  B (T19) seems big now.

\\m/ : looks like the cut is 1 or 2 points in sente. If you have to protect, better to connect at A, there won't be any other sente move there.]
;W[hg];B[jg];W[gh];B[ih];W[ne];B[nf];W[sk];B[qk];W[bf];B[ae]
;W[ce]
(;B[cd]LB[cf:A]C[Cutting at A (C14) works.];W[cf];B[bd];W[dg]
;B[fh];W[hh];B[ef];W[ed];B[ej];W[ei];B[qh];W[rh];B[sl];W[sj]
;B[qd]C[Smaller than J18.]
(;W[qg];B[ph];W[gc];B[ib];W[il];B[dl];W[jm];B[nk];W[eh];B[je]
;W[ke];B[le];W[hm];B[ho];W[qe];B[dq];W[fr];B[je];W[jc];B[ke]
;W[tt];B[tt]TB[rb][ad][md][kg][lh][pj][pl][aa][ba][ca][da][ea]
[fa][ha][ia][ja][ka][la][ma][na][oa][pa][qa][ra][sa][ab][ac]
[bb][bc][cb][cc][db][dc][kb][lb][mb][nb][ob][pb][lc][mc][nc]
[oc][pc][mf][mg][mh][ng][nh][ni][oh][oi][oj][ok][bl][cl][rl]
[rm][am][an][ao][ap][aq][ar][as][cm][cn][co][cp][bn][bo][bp]
[bq][do][eo][fo]TW[id][fe][he][rf][ai][di][gd][ge][se][sf][sg]
[sh][si][bh][bi][ch][ci][jj][kj][gk][hk][ik][fl][gl][kn][ko]
[kp][kq][kr][ks][on][oo][op][oq][or][os][lo][lp][lq][lr][ls]
[mo][mp][mq][mr][ms][no][np][nq][nr][ns][jp][jq][jr][js][qp]
[qq][qr][qs][pq][pr][ps][rq][rr][rs][sq][sr][ss][gr][gs][hr]
[hs][ir][is][es][fs]C[\\m/ : To conclude, w recovered the handicap at move 14 so fuseki was far too slow. But just a few moves later he let you split 2 weak groups and even if you could be more severe, you managed well to take profit from the following fight. It ended with a close game where you did well enough in the yose to finally win this game. Good game :)]
)
(;B[ib]))
(;B[cf];W[cd];B[bd];W[cc];B[bc];W[cb];B[bb]C[White doesn't have enough liberties.]
))
(;B[ah];W[af];B[bf]))
(;B[fm];W[fn];B[en];W[gn];B[fo]))
(;B[ln]C[\\m/ : bigger sente than the 5 points in the corner.]
))
(;B[fm];W[fn];B[gn]SQ[em][fn][eo]C[It doesn't look like white can save these stones now.]
))
(;B[ij];W[ik];B[kh];W[jg];B[jh]))
(;W[rj]
(;B[hd];W[hc];B[ge];W[gf];B[ib]
(;W[hb]C[\\m/ : mistake];B[gd];W[ed]
(;B[jc];W[ef];B[id];W[je];B[he])
(;B[ef];W[jc];B[gc];W[fe]))
(;W[gd];B[he];W[hb]C[\\m/ : alive]))
(;B[ib];W[hd]
(;B[ge];W[gf];B[hb];W[hc];B[gc];W[gd];B[ga]TR[id][he]C[\\m/ : alive]
)
(;B[gf];W[ge];B[hb];W[gc]))
(;B[hc]
(;W[ib];B[hd];W[ia];B[hb];W[gc];B[ga];W[ha];B[gf];W[ge];B[fa]
)
(;W[hb];B[hd];W[ib];B[gf];W[ge];B[ef])
(;W[hd];B[hb];W[gc];B[ib];W[jc]))))
(;W[ml]C[\\m/ : This is the same pb as in variation]))
(;B[mn];W[no];B[pk];W[ml]C[Can black handle this cut?

\\m/ : if atari twice doesn't work, why atari once should ?]
))
(;B[jm];W[km];B[kl]C[It seems that white is hard to handle.]
))
(;B[jf]C[\\m/ : here the opposite idea of what you play. You lean on the other to attack f11, nothing wrong with it, a matter of taste.]
;W[hh];B[hg];W[ig];B[ih];W[jg];B[ii])
(;B[hh]C[Maybe?

\\m/ : as said earlier,  keima is more active but this would be the same strategical idea. Remember another principle : "keima win runing battle"]
)
(;B[fk]C[\\m/ : don't like this, you push w to his allies];W[hi]
;B[ih];W[hh];B[hg];W[ig];B[jh];W[kg]C[Can black fight this way?]
)
(;B[ih];W[hh];B[hg];W[ig];B[ii]TR[gj][kg]C[\\m/ : compare the position with your f9 variation please]
))
(;B[fg];W[hf];B[ej]C[This way seems more active to me now.

\\m/: true, what about adding g13 before e10 ?]))
(;B[cf];W[fh]C[If white defends his group is very safe, but I end in sente.]
;B[qn]C[However, having white be completely secure seemed like a bad idea.  Also, the lower right is not urgent.]
))
(;B[nq]
(;W[pn];B[jp])
(;W[lq];B[qq];W[qp];B[pq];W[op];B[nr];W[mo];B[pj])))
