(;FF[4]GM[1]SZ[19]ST[2]CA[UTF-8]AP[SGFC:1.17]

PB[felix37]
BR[7k]
PW[jcdenton71]
WR[11k]
KM[6.5]
DT[2011-02-17]
PC[The KGS Go Server at http://www.gokgs.com/]
RE[B+21.5]
RU[Japanese]

C[Hi, I played as white and my friend played as black, his rank is still not determined on kgs so 7k is not necessarily accurate.

I will make some comments on my moves through out the game although my friend has not done so.

Please could you review for black and white.

Thanks];B[pq];W[dc];B[pc];W[eo]C[Just trying a different starting move

oddalot: Trying something new is fine, although this move seems kind of out there.]
;B[cq];W[jc]C[oddalot: It's probably better to either a) enclose a corner b) prevent your opponent from enclosing a corner 
then extending from the side of a 3-4 stone.];B[gc];W[de];B[cj]
;W[qj]C[oddalot: This seems OK considering....C13 might be a better move, but I'm not sure]
;B[qn];W[jq]C[oddalot: Playing R10 and then playing K3 seems kind of slack, next black can enclose the upper right
corner and attack the R10 stone simultaneously. R13 might of been a better move?]
;B[ge]
(;W[eq]C[oddalot: Although this makes good shape and puts some pressure on the C3 stone, the K17 stone is probably in more need of attention. Plus the C3 is on the 3-3 point, so it's probably not to worried about getting attacked.]
;B[co];W[mc];B[qf];W[oj];B[cg]
(;W[jj]C[I am not happy with this move and feel I should have strenghten my top left corner

oddalot: Yes, the top left is most definitely the most important play now. Not only because it strengthens your own group, but because the
G15 group will become weaker if your D17 group gets stronger.

This move (K10) Lacks direction as well....It's not to say that it doesn't have any benefits, it just is a very vague move.
Why not play moves that have many benefits and are clearer to a strategy you might have?]
;B[ib];W[je];B[gg];W[mq]C[oddalot: Still time to do something about the top left]
;B[bc]C[oddalot: This move by black might not be the best way to attack....you may be able to counter attack.

Now you need to think: 1) Can I make this group live? 2) By living, can I gain influence or territory 3) Can I counter attack my opponent as well to live and 4) If all else fails, can I sacrifice to get some compensation for a capture?

Those are important things to consider when your group has no eyes and is trying to live.]
;W[cf];B[eg];W[bg];B[ch];W[fh]C[oddalot: This peep really serves no purpose at the moment. In fact, if black replies at F13 it will make his group
surrounding your half alive E17 group stronger. This is probably the worst possible thing to happen, keep this in mind.
Never play moves that strengthen your opponent if you can help it, even if they seem like good moves, always keep the
priorities of your current situation in mind.];B[cb];W[fg];B[eb]
;W[ef];B[id];W[dm]C[oddalot: This seems like a pretty good move, his C12 group is now under pressure and you will be able to
gain much from this, if not kill it out right. Of course you should usually never try to actually kill a group unless
it is very easy or they continue to ignore your moves. Just try and get influence or territory from the attack.]
;B[bh];W[eh];B[dg];W[ff];B[gf];W[be];B[bl];W[bm];B[cl];W[cm]
;B[hl];W[po];B[pn];W[oo];B[pk];W[pj];B[qk];W[on]C[I am not happy with my overall board position here

oddalot: Your position is actually very good here considering, black really doesn't have many points at all.
You on the other hand have a good position on the bottom, and P6 is a decent move.
Blacks only real territory is the top right, and it probably won't amount to much because your white stones are facing
it on both sides.

Black has two really weak groups now....C12 and H8. You should focus your attention on attacking these will solidifying your territory on the
bottom and bottom-middle.];B[om]
(;W[pm]C[oddalot: hmmm don't think this works, O7 seems like the natural move here, seems more sente, and
has the huge effect of making good shape for the N3 area];B[ol]
;W[qo]C[oddalot: This is good too, now black is under some pressure.]
;B[qm];W[rq];B[nq];W[mp];B[ll];W[jn]C[I feel now a move to help my three stones on line 10 would have been better

oddalot: Yes, your last 5 moves or so weakened your Q10 group significantly, even though
it made good solid territory in the corner. Always keep that in mind when you are playing, of course
you can't keep every group healthy, you have to compromise....but just try and compromise in your favor.

Not only that, but now it's going to be harder to attack the H8 stone.]
;B[me];W[jd];B[lg];W[jg];B[lj];W[qg];B[pf];W[pg];B[dp];W[ob]
C[oddalot:

I would probably use this opportunity to make sure that the Q10 group is absolutely alive.
At this point in the game, if it dies black will win the game. And if it lives, white will almost certainly win.]
;B[oc];W[nb];B[md];W[jb];B[ie];W[gp]C[Bad

oddalot: Bad, but not the worst, still time to attack C12 and H8]
;B[ep];W[gn]C[oddalot: F8 here seems manditory for white.];B[fp]
;W[fq];B[go];W[fo];B[ho];W[hn];B[hp];W[hq];B[gq];W[gr];B[gp]
;W[iq];B[og];W[of]C[oddalot: Hmmm....I don't know if this cut and sacrifice starting with this move is really worth it.
It is quite clever and well played out, that is good on your part, although just making this group live by itself
is probably better.];B[oh];W[rf];B[rg];W[qe];B[pe];W[pd];B[oe]
;W[rd];B[qh];W[od];B[nf];W[qc];B[nd];W[qd];B[nc];W[pb];B[lc]
;W[lb];B[mb];W[rh];B[sg];W[jl];B[mc];W[dl];B[dk];W[di];B[bj]
;W[ek];B[dj];W[gj];B[jf]C[oddalot: Ok you CAN NOT afford to lose this K16 group. You shoul of read this cut out earlier and known
that you can't afford to let this happen. This is not good at all....this is a losing move.]
;W[kh];B[lh];W[kf];B[if];W[kg];B[ke];W[le];B[kd];W[kc];B[ld]
;W[ma];B[na];W[oa];B[ja];W[kb];B[la];W[qb];B[ic];W[bo];B[in]
;W[im];B[bp];W[cn];B[dq];W[do];B[dr];W[es];B[ds];W[fr];B[ao]
;W[bn];B[br];W[ah];B[ai];W[ci];B[al];W[bi];B[ag];W[bk];B[bf]
;W[df];B[ae];W[ln];B[gh]C[I should have played G12 myself];W[gi]
;B[bd];W[hh];B[ki];W[ji];B[ig];W[ih];B[lf];W[jh];B[mm];W[io]
;B[db];W[ec];B[fc]
(;W[fe]C[oddalot: Urgent before big. E10 saves a group and just seems like nice shape as well.
Make sure you have sente on your mind at all times as well in the endgame.]
;B[ej];W[fj];B[ei];W[fi];B[dh];W[kj];B[li];W[ro];B[rn];W[mn]
;B[sf];W[re];B[er];W[an];B[ap];W[lm];B[nm];W[kl];B[lk];W[fd]
;B[am];W[fl];B[ce];W[cd];B[cc];W[be];B[na];W[se];B[ph];W[hr]
;B[fs];W[gd];B[hd];W[ce];B[ma];W[cp];B[gs];W[hs];B[es];W[co]
;B[nn];W[no];B[kk];W[jk];B[so];W[sp];B[sn];W[ip];B[hg];W[tt]
;B[tt]TW[pa][qa][ra][sa][rb][sb][rc][sc][dd][ed][sd][ee][hi]
[ii][hj][ij][fk][gk][hk][ik][el][gl][hl][il][em][fm][gm][hm]
[jm][km][dn][en][fn][in][kn][jo][ko][lo][mo][jp][kp][lp][np]
[op][pp][qp][rp][kq][lq][nq][oq][pq][qq][sq][ir][jr][kr][lr]
[mr][nr][or][pr][qr][rr][sr][is][js][ks][ls][ms][ns][os][ps]
[qs][rs][ss]TB[aa][ba][ca][da][ea][fa][ga][ha][ia][ka][ab][bb]
[fb][gb][hb][jb][kb][lb][ac][hc][jc][kc][ad][jd][he][je][le]
[ne][af][hf][mf][of][bg][mg][ng][pg][qg][ah][mh][nh][rh][sh]
[bi][ci][di][mi][ni][oi][pi][qi][ri][si][aj][mj][nj][oj][pj]
[qj][rj][sj][ak][bk][ck][mk][nk][ok][rk][sk][ml][nl][pl][ql]
[rl][sl][pm][rm][sm][aq][bq][ar][cr][as][bs][cs]C[oddalot: Not too bad considering. Losing the L18 group was probably the only huge mistake.]
)
(;W[ej]C[oddalot]))
(;W[nm];B[nl];W[mm];B[ol];W[jm];B[qo];W[ek]))
(;W[cf])
(;W[fb]))
(;W[mc]C[oddalot: This move seems good.]))
