(;FF[4]GM[1]SZ[19]ST[2]CA[UTF-8]AP[SGFC:1.17]

PB[HandofGod]
BR[3k]
PW[masaru909]
WR[3k]
KM[0.5]
DT[2011-03-09]
PC[IGS-PandaNet]
RE[B+11.5]
TM[600]
RU[Japanese]

C[Hi, I am Martin and my comments will begin with "FM:" as my nick is Field Mouse.]
;B[pd];W[dp];B[qp];W[cd];B[ec];W[de];B[nq];W[fd];B[gc];W[gd]
;B[hc];W[qj];B[ql];W[qg]
(;B[re]LB[nd:B][qe:A]C[FM: first uncommon thing, black move at A or B is standard.]
(;W[qe]C[FM: not a good choice, white does not want to strenghten black]
;B[qd];W[rf];B[pe];W[qf];B[ld]C[FM: black got too ideal position on the upper side]
(;W[lc]C[FM: premature. All black needs to do now is to make a wall in sente and then play on the left side.]
(;B[mc]LB[kc:A][kd:B]TR[ec][gc][hc]C[FM: I would chose A or B to protect the weaker group.]
;W[kd]C[FM: now the black group feels a little uneasy];B[kc]
;W[jc];B[lb];W[kb]
(;B[id]
(;W[lc]
(;B[mb]
(;W[jd];B[ie]
(;W[kf];B[le];W[jf];B[hf]
(;W[di];B[hh]
(;W[ig];B[hg];W[mg]C[FM: bad direction]
(;B[fq];W[dn];B[jp];W[ff]
(;B[cb]LB[fc:A]C[FM: unfortunately a lot of A aji still remain after this move. Black did not have any really good move here.]
(;W[iq]LB[ip:B][hq:A]C[FM: A or B are more common invasion moves]
;B[jq]C[FM: good response];W[hp];B[ho];W[gp];B[cq]C[FM: painful for white]
;W[cp];B[dq];W[ep];B[gr];W[jr];B[kr];W[hr]
(;B[eq]C[FM: small];W[ip]
(;B[cl]LB[bp:A]C[FM: too ambitious when A is sente for white]
;W[dk]C[FM: good move. Looks like black is dead.];B[bj];W[ck]
;B[bk];W[ci];B[bn];W[bp];B[bq];W[cm];B[bm];W[dl];B[bi];W[bh]
;B[bl];W[aq];B[ar];W[ap];B[bs];W[ai]C[FM: unnecessary move, black died in gote there]
;B[jn];W[go]
(;B[og]C[FM: bad direction, forcing white to run into center where you want to have points.]
;W[ji];B[nl];W[jk]LB[fc:B]TR[og]C[FM: Good white move. Please note that B is quite nasty now and that the marked move is not really worth much as it has no attacking value - white is safe everywhere..]
;B[rd];W[rk];B[rl];W[sl];B[sm];W[sk];B[rn];W[ph];B[oh];W[oi]
;B[kl];W[jl];B[jm];W[kk];B[ll]
(;W[gk]
(;B[bc]C[FM: too optimistic];W[fc];B[fb];W[eb];B[gb];W[dc];B[ea]
;W[db];B[da]
(;W[bd];B[ib]C[FM: lucky black];W[ic];B[hd];W[jb];B[ia];W[ok]
;B[ol];W[nf];B[of];W[ne];B[nd];W[jo];B[ko];W[io];B[hm]
(;W[hn];B[im]C[FM: Okay, just a simple endgame from now. I hope you liked the review, feel free to give me any feedback so that I can improve my reviewing skills! Bye!]
;W[gm];B[ad];W[ae];B[ac];W[cc];B[bb];W[bf];B[qk];W[ri];B[fh]
;W[hl];B[js];W[is];B[ir];W[ca];B[fa];W[jr];B[lr];W[ks];B[ls]
;W[gi];B[fg];W[pk];B[mj];W[eg];B[fi];W[fj];B[eh];W[dg];B[fp]
;W[fo];B[lf];W[lg];B[ni];W[pl];B[pm];W[oj];B[dh];W[ch];B[hi]
;W[hj];B[ge];W[fe];B[li];W[kh];B[ii];W[mk];B[lk];W[nk];B[ml]
;W[ij];B[mh];W[ng];B[oe];W[il];B[gq];W[kp];B[lo];W[kq];B[lq]
;W[lp];B[mp];W[ih];B[kj];W[jj];B[ei];W[ej];B[sf];W[sg];B[se]
;W[pg];B[ki];W[nh];B[lh];W[nj];B[lj];W[gs];B[fs];W[hs];B[mi]
;W[la];B[ma];W[ka];B[gf];W[kg];B[gh];W[js];B[kc];W[jh];B[lc]
;W[me];B[oc];W[gj];B[tt];W[in];B[mn];W[tt];B[pf];W[rh];B[tt]
;W[tt]C[You can check your score with the score command, type 'done' when finished.
Click on a group of stones to mark it dead and remove it from the board.]
;B[tt]TW[ec][dd][ed][be][ce][ee][af][cf][df][ef][ag][bg][cg]
[jg][rg][ah][qh][sh][bi][pi][qi][si][aj][bj][cj][dj][pj][rj]
[sj][ak][bk][ek][fk][hk][ik][al][bl][cl][el][fl][gl][am][bm]
[dm][em][fm][an][bn][cn][en][fn][gn][ao][bo][co][do][eo][ho]
[jp][jq][ir]TB[aa][ba][ca][ga][ha][na][oa][pa][qa][ra][sa][ab]
[hb][nb][ob][pb][qb][rb][sb][nc][pc][qc][rc][sc][od][sd][he]
[gg][km][lm][mm][nm][om][qm][rm][kn][ln][nn][on][pn][qn][sn]
[mo][no][oo][po][qo][ro][so][np][op][pp][rp][sp][mq][oq][pq]
[qq][rq][sq][br][cr][dr][er][fr][mr][nr][or][pr][qr][rr][sr]
[as][cs][ds][es][ms][ns][os][ps][qs][rs][ss]C[Game 90 HandofGod is removing @ C19
Game 90 masaru909 is removing @ B9
Game 90 masaru909 is removing @ E17
You have typed done.
masaru909: 75.5 to HandofGod: 87.0
masaru909: Thank you for the game.
HandofGod: Thank you for the game.])
(;W[gm]C[FM: white wants to play this]
(;B[hn];W[hl]
(;B[kp]C[FM: black has to protect, white has sente])
(;B[ss];W[kp];B[kq];W[kn];B[lo];W[im]))
(;B[hl];W[gl]C[FM: black has to invest one more move again]
;B[ss];W[kn];B[kp];W[im];B[in];W[hn]
(;B[il];W[km])
(;B[km];W[il]))))
(;W[ib]C[FM: black is dead];B[ab];W[ba];B[bd];W[be];B[ad];W[ca]
))
(;B[db]C[FM: looks like all black can do here is to play this]
;W[bc];B[bb];W[ab];B[ib]))
(;W[fc]C[FM: white could put black into a very big trouble]
;B[fb];W[eb];B[gb];W[dc];B[ea];W[db];B[da];W[ib]TR[og]SQ[ji]
[jk][kk][jl]C[FM: black dies - note that it is a result of the marked move, which made white to run into center]
))
(;B[pj]C[FM: simply here or something similar is good enough here.]
))
(;B[el]LB[fn:A]C[FM: locally this would be my choice, aiming at shape making at A if white tries some counterattack]
;W[cl]C[FM: and if you force white to get points like this then the reduction is very successful. Black wins on points now.]
))
(;B[io]C[FM: black is alive, so this move looks natural];W[fp]
;B[aa]LB[eq:A]TR[io]C[FM: and black can play elsewhere. Much better to have the marked stone instead of A.]
;W[bq];B[br];W[bp];B[ar];W[er];B[eq];W[fr];B[gq];W[gs];B[dr]
C[FM: no problem for black]))
(;W[fc];B[fb];W[eb];B[ga];W[dc];B[ea];W[db];B[da];W[ic];B[hd]
;W[hb]LB[ki:A]TR[mg]C[FM: black has only one eye in the corner. And now you can see that white would really like to have the marked stone on A.]
))
(;B[hj]LB[kh:A][dk:B]C[FM: just jumping is better, aiming at A and B. Playing at A directly might be also possible if you like to fight.]
))
(;B[kh]C[FM: this is big white's shape weakness black should aim at.]
;W[lf];B[mi]C[FM: black gets easy free influence, white gets dame]
))
(;W[ki]C[FM. still better to just jump,]))
(;W[ji]LB[fc:A]C[FM white wants to jump here. As the black group has a severe weakness at A black will not be able to do anything too good on the left side]
(;B[dg];W[eg];B[eh];W[ef];B[di];W[fc];B[fb];W[gb];B[hb];W[eb]
;B[ga];W[db]C[FM: white can settle very easily, for example with this. Black attack was not very successful]
)
(;B[hh];W[ij]LB[fc:B][qn:A]TR[fd][gd]C[FM: white gets innitiative in the center, preparing for A. Again, if black tries to attack white upper left group white will strenghten the marked stones in sente and then play B.]
)))
(;W[le]C[FM: and again]))
(;W[le]C[FM: again, atari first!]))
(;B[ke]C[FM: now black wants to hane here.];W[md];B[kc]C[FM: white cannot win the ko and has no good threat.]
;W[jd];B[je];W[lc];B[le];W[mb];B[kc];W[dj];B[lc];W[jp]C[FM: this is not so great for white as black upper wall is too solid]
))
(;W[le]C[FM white wants to paly this]
(;B[jd];W[lc]
(;B[md]C[FM: black must protect];W[ke];B[kc];W[dj];B[lc];W[ip]
LB[fc:B][ie:A]C[FM: white is okay, next white is aiming at A and B aji.]
)
(;B[qi];W[md]C[FM: taking the stone is too big];B[pi];W[og]
LB[ri:A]C[FM: and still there will be some aji like A]))
(;B[ke];W[lc];B[md];W[je]
(;B[jd];W[kf];B[kc]C[FM: white is happy with this ko as he ristks only a few points]
;W[dj];B[lc];W[jp]LB[ie:A]TR[dj]SQ[kd][je][le][kf]C[FM. white got two free moves, influence and is happy. White could also play the last move at A, which would be also powerful.]
)
(;B[kf];W[jd]C[FM: black is weak, white is okay.]))))
(;B[hd]LB[fc:A]C[FM: this move is slightly better as it protects against A.]
))
(;B[kd]C[FM: for example this move when you want to keep things simlpe]
(;W[mc];B[kc]
(;W[ne];B[nd];W[md];B[me];W[od];B[oe];W[nc];B[nf]C[FM: white cannot chose this way]
)
(;W[oc];B[ne];W[qb]C[FM: black kept a few points, built wall, has no weak groups on the board and has sente to split the left side]
))
(;W[kc];B[jd];W[md];B[me];W[nd];B[oc];W[ne];B[mf];W[nf];B[mg]
;W[nb];B[nc];W[mc];B[ob]C[FM: black gets a nice wall, having no weak groups on board.]
)))
(;W[dj]LB[lc:A]C[FM: much better. Black will not protect A now and will play something on the lower side, so white can get to A later.]
))
(;W[oj]LB[nc:B][qn:A]C[FM: I like this move, strenghtening white group and making miai of AB]
(;B[ol]C[FM: this can be expected];W[nc]LB[nd:A]TR[re]C[FM: now white plays this or A. The marked stone is a bit strange]
)
(;B[rg];W[qh]C[FM: this exchange does not really give black much as it strenghtens white and is gote]
;B[qf];W[qn]C[FM: white can attack strong now, black seems to be in trouble]
)))
(;B[qe];W[oj]LB[nc:B][qn:A]TR[qp][nq]C[FM: I think this is not a good choice for black here as the weakness at A is too severe when there is an ogeima shimari. And if black protects A, then B remains a weakness.]
)
(;B[nd]LB[qn:A]C[FM: this is my choice here. Strenghtening white and motivating him to invade at A would be bad.]
))
