(;FF[4]GM[1]SZ[19]ST[1]CA[UTF-8]AP[SGFC:1.17]

GN[Ixidron-ufotds-635486-20110414]
PB[ufotds (ufotds)]
BR[5k]
PW[Ixidron (Ixidron)]
WR[3k]
KM[-6.5]
DT[2011-03-09,2011-04-14]
PC[Dragon Go Server: http://www.dragongoserver.net/]
RE[W+10.5]

C[ufo: Hi, thanks for reviewing this game. The game is played with a komi of -6.5 because previous games showed my opponent is stronger. Particularly in reading. from DGS

I know that in the end bad reading is what lost me this game, but there is only so much one can do about that. The (maybe for reviewing more interesting) questions that I also had are about the opening in the left bottom. I wasn't to happy with the exchange because white seemed to have staked out a much nicer area, although they did leave weakness that I kind of exploited later. I just wonder if there are more interesting variations possible.

Secondly I have a period of trying to respect the idea that go is about living stones and not about territory, and that does help me sometimes, but often not. In this game I struggled with how to attack the two weak groups in the top. In retrospect something like the variation on move 73 would have been much better, but as I missed completely the sequence by which white connected their two weak groups, I have a hard time finding the thinking process to come to something like the variation on 73.

I left in the communication we had during the game so you can see what was going on.

Of course any other general comments are welcome.
ty

----

From reading this game, I believe your approach to the game is to try to kill something to win, or invade successfully if there is nothing to kill. You made many, many small but clear mistakes here, which I think you are used to ignoring because you expect the game to be resolved by resignation, and so you rarely lose on points. As you get better and start to play stronger opponents, opportunities to kill will get fewer and fewer. This really is true. If you continue playing this style, then innevitably you will start to find your opponents manage to wriggle out alive (because they have cunningly kept their groups well enough defended), or on the occasions when you kill a group you will still lose the game because your opponent has cunningly extracted too much compensation.

You need to start attacking for profit instead of attacking for the kill.]
;B[pd];W[po];B[dd];W[dq];B[do];W[fp];B[cq];W[cr];B[cp];W[br]
;B[cm];W[jq];B[pj];W[cf];B[ch];W[fd];B[df];W[dg];B[ef];W[cg]
;B[cd];W[dh];B[ci];W[di];B[cj];W[id];B[ek];W[gi];B[gf];W[lc]
;B[gk];W[ii];B[mp]C[This is silly. White can take the corner in a big way. You could instead just jup into the corner at q3 and live. Q10 puts pressure on White from above. While White can make something of a moyo on the bottom side, k3 is low so reduction will be easy, and q10 and g9 reduce its influence.]
;W[pq];B[hq]C[This is a good move, but it's a good move without the n4/q3 exchange.]
;W[ip];B[eq];W[er];B[fq];W[ep]C[White h4 is better.];B[dp];W[gq]
;B[fr];W[gr];B[dr];W[hp];B[go]C[This is way too small. White should take sente and sacrifice those two stones.]
(;W[gp];B[qm];W[pm];B[ql];W[qn];B[if];W[mm]C[White is right. j14 is too slow. All it does is seperate two groups that are both too strong to attack yet.]
(;B[jm]C[You're giving up on n4 on a grand scale. I think perhaps you could get away with m6. Let's see.]
;W[kn];B[ki]C[I hope you can see that the exchange of k7 for l6 is really bad for you.]
;W[jh];B[kf];W[kh];B[lh];W[lg];B[li];W[kg];B[hh]C[Don't make forcing moves like this immediately. You might regret it. Leave it, because you might want to force in a different way later. For example you can't force at h10 now.]
;W[hi];B[gh];W[fh];B[ej]C[Again, this achieves nothing. You are removing weakness from White's group. That can't be good.]
;W[fi];B[ke];W[kd]
(;B[nf];W[ng]
(;B[ne]C[You need to play lighter here. What are you tring to do? Connect q16 to the left side? Why? They are both strong! Just attack!]
;W[mf];B[me];W[pg]
(;B[mh]C[Worst ove of the game in my opinion. When you force here, you make White so strong that he can cut at m15.]
;W[mg];B[oh];W[og];B[ph];W[le];B[lf];W[ld];B[qe];W[qg];B[qh]
;W[jf]C[ufotds: I missed this move in all my attempts at careful reading

Ixidron: I better live now before you cut me off.

----

It's not that you can't read out that situation, it's just that you didn't. Go back a move from here and you can easily see that k14 works.]
;B[ie]C[ufotds: It's not like I don't practice reading or something, I just have no talent for it.

I don't know how I managed on the bottom left. Then again, you compensated more that enough on the bottom right...]
;W[je]C[Ixidron: You just have to be aware that you just need 0,5 points more than your opponent to win the game.

Of course it's a great feeling if you manage to catch a big fish and it's one of the things that make go exciting.
But by pushing my group towards the right part, you also pushed me inside your potential territory.

A proverb also says "Big groups never die" (which is not always true...). If you fail in captureing, then you also lose a lot of potential points - or you find yourself in a situation where you suddenly become the hunted.  Therefore I consider it is a better strategy to make territory WHILE attacking. E.g. you could attack from the right side and push me towards the center & make a huge mojo around q13.

However, your territory on the left side is still huge!];B[hd]
C[ufotds: well obviously I'm aware of that, but at some point one decides to go for the kill. I definitely improved my play up until now because I hold on to attack/kill strategies for to long as they become less and less feasible. however in this case I think I managed that very well. I decided to not try to make right hand side territory after trying to read out all your possibilities for escape/making eyes and I found I covered all.

In my place, would you have played any different if you had read it all out and found that the group had no way out?

Dragons don't die, but this is actually not very big though. It had two possible breach points in the middle, and to ends that might have made eyes. That should be manageable enough not to have to rely on proverbs, rather on reading.

that's why it frustrates me. I can't rely on my reading however hard I practice or try. Above a certain level that is.

One only needs 0.5 points to win, but one needs to either win or loose by quite a bit to learn I reckon.

----

No. Good players don't go for the kill. Good players attack in profit, and take kills where they can get them. It's not an either-or proposition. You don't have to gamble the whole game on a kill. You gave up too much, for example k7/k6 exchange. Don't take a loss just to strenthen your position so that you can kill a group to win the game. It just doesn't work. Attack the group, attack it well, take profit while you squeeze it into small life, and if the opportunity presents itself and you are strong enough that all you risk is letting the group live, then you can go for the kill.

You do NOT have to win or lose by quite a bit to learn. The close the game, the more game-turning mistakes there are. And every mistake is a chance to learn. You don't "learn how to win at Go" by studying why you won or lost. You learn how to analyse and play specific localized situations better by looking at your localized mistakes. And then you get better at the WHOLE game. And then you win more often. And then you play higher ranked players. And then you get more challening situations.]
;W[hc]C[Ixidron: "In my place, would you have played any different if you had read it all out and found that the group had no way out?"

In my opinion this is exactly the problem. Go is just too complicated to read everything out. It's so easy to miss a tesuji and personally I don't like it to put all one's eggs in one basket.

In case you haven't read it I can recommend Kato's "Attack and Kill" (http://www.amazon.co.uk/Katos-Attack-Kill-Kato-Masao/dp/B0006D1GOA/ref=sr_1_2?s=books&ie=UTF8&qid=1300228236&sr=1-2)]
;B[ic]C[ufotds: I had never heard of that book... I'll have a look at it at some point. thanks]
;W[jd];B[gc];W[hb];B[gb];W[gd];B[he];W[ib];B[ec];W[qc];B[pc]
C[The ko starting with q18 is standard. Take this as your opporunity to learn it, so that you never miss it again. Here is the lesson:

When Black is on the 4-4 point with defense on only one side, a 3-3 invasion followed by a 3-4 contact move can lead to a ko.

That said, what about q18 instead of Black q17? I don't think it works, but it's worth considering.]
;W[pb];B[ob];W[rb];B[pa];W[qa];B[qb];W[fs];B[es];W[pb];B[ji]
;W[ih];B[qb];W[fc];B[fb];W[pb]C[Ixidron: It looks like you have more ko threats, but I hope I will get something in compensation.]
;B[ln]C[ufotds: well, that is what a flowerviewing ko is for...]
;W[lm]C[Ixidron: It's not really a flower ko. I need something, otherwise your territory is too big.

----

You should recognise that moves like this cost you points. You are expanding White's territory here, and strengthening the border.]
;B[qb]C[ufotds: suppose yes, places to invade are getting a bit scarce]
;W[eb];B[db];W[pb];B[ko];W[jn];B[qb];W[ea];B[da];W[pb];B[nn]
;W[nm];B[qb];W[ga]
(;B[fa]C[No. Let it go.

When a ko like the top right develops, it is imperative that your recognise that you need to win it as soon as possible. Please, do me this exercise so that you know that you have to look at these situations differently in the future. Answer me these questions:

1. Do you think Black can live if White wins the ko?
2. Given that, how many points is the ko in the top right worth? I.e. How much better off is White if White wins it than if Black wins it. Try to be precise.
3. How big is f19. I.e. how much better off (locally) is Black playing f19, than letting White e19?
4. Given the answers to the above, which is the better move: f19 or s19?]
;W[pb];B[jo];W[in]C[Reminder: these exchanges cost you points.]
;B[qb];W[eb];B[ha]C[Same questions as before.];W[pb];B[io];W[ho]
;B[qb];W[dj]C[Even this, you should strongly CONSIDER ignoring.]
(;B[dk];W[pb];B[qp];W[rn];B[qb];W[ck];B[bk];W[pb];B[pp];W[op]
;B[qb];W[cl];B[dl];W[pb];B[oq];W[nq];B[qb];W[bl];B[bm];W[pb]
;B[or];W[nr];B[qb];W[al];B[am];W[pb];B[np];W[oo]
(;B[qb]C[Actually I think you could perhaps lose the ko instead. See variation.]
;W[pr]C[White is right to end the ko in this way. Black q2 is huge. But you should not feel that you won this fight. If you had won the ko earlier, you could go back to the bottom right and perhaps mount a successful invasion.]
;B[ra]C[ufotds: hmm, what an outcome... you won sente I would think

----

I look at this ko fight and I see you determined to win the fight, but so deterined that you kept losing little bits along the way.]
;W[rg]C[Ixidron: Great.. Unfortunatelythere there is no move that would be worth 50 points.

I had to play q2, because otherwise you would threaten to kill the whole group.]
;B[rf];W[sj];B[rj];W[sk];B[rk];W[sl];B[jb];W[jc];B[ia];W[kb]
;B[ic]C[ufotds: strange move];W[nj]C[Ixidron: I wanted to leave in sente, that's much mor important than the 6 points.

----

He's right. He knew what he was doing.];B[mk]C[ufotds: I thought you could have had sente without sacrificing because of my shortage of liberties at the top.]
;W[nh];B[ni];W[oi];B[oj];W[mi];B[nk];W[pl];B[jk];W[ok];B[pk]
C[When you make a move like this (that loses points if it doesn't work) you should be:

1. Sure you will live, or
2. Planning to resign if it does not work.

If not, read it out until you are sure.];W[ol];B[sh];W[rh];B[pi]
;W[ni]C[You recognise q11 for o11 is a bad exchange, right?]
;B[hl]C[ufotds: you outread me again. your sente was well worth it]
;W[fn];B[km];W[hn];B[be];W[lk];B[kk];W[ll];B[gs];W[hr];B[bg]
;W[bf];B[af];W[ce];B[bd];W[de];B[ee];W[ik];B[il];W[hk];B[gm]
;W[gn];B[eo];W[nc];B[nb];W[nd];B[oe];W[mb];B[sg];W[ri];B[hs]
;W[ir]C[Should be j1.];B[em];W[fm];B[fl];W[hm];B[gl];W[qf];B[re]
;W[kl];B[jl];W[is];B[md];W[mc];B[la];W[ka];B[ma];W[na];B[oa]
;W[ig];B[fg];W[hg];B[gg];W[ja];B[ib];W[si];B[sf];W[lb];B[lj]
;W[mj];B[fo];W[na];B[ma];W[en];B[dn];W[jj];B[kj];W[ij];B[fj]
;W[gj];B[fs];W[eg];B[ei];W[eh];B[tt];W[hf]C[Ixidron: This is 1 more point because Wg15 would be a double-atari.]
;B[ge]C[ufotds: you are again correct... somehow I did consider you starting at e16 but didn't consider starting at g15...]
;TB[aa][ab][ac][ad][ae][ag][ah][ai][aj][ak][al][an][ao][ap]
[aq][ar][as][ba][bb][bc][bh][bi][bj][bl][bn][bo][bp][bq][br]
[bs][ca][cb][cc][ck][cl][cn][co][cr][cs][dc][dm][dq][ds][ea]
[eb][ed][el][er][fc][fd][fe][ff][fk][ga][gd][hb][hc][pb][qa]
[qc][qd][rb][rc][rd][sa][sb][sc][sd][se]TW[hj][hq][io][iq][jg]
[jo][jp][jr][js][kc][ke][kf][ko][kp][kq][kr][ks][lf][ln][lo]
[lp][lq][lr][ls][mk][ml][mn][mo][mp][mq][mr][ms][nk][nl][nn]
[no][np][ns][oh][oj][om][on][oq][or][os][ph][pi][pj][pk][pn]
[pp][ps][qh][qi][qj][qk][ql][qm][qo][qp][qq][qr][qs][rj][rk]
[rl][rm][ro][rp][rq][rr][rs][sm][sn][so][sp][sq][sr][ss]C[Ixidron: So, I think now we are finished :)
Ixidron: That was quite close. Without the -6.5 komi you would have won with 0,5 points (I think you have to add another stone in the s16 territory to avoid the ko).

Actually you would have won if I didn't capture your q12 group. That's why I played l18 and tried to get out in sente.
ufotds: Thanks,

It was not that close. Without the komi you would have won by 17.

I need to take more margin with situations that are difficult to read out, like the life and death situations in this game. Especially since I usually manage to come with a headstart out of the opening. On the other hand it doesn't suit my character and I think one can probably learn a bit more by pushing the limits, but it usually occurs to me when seeing a pro game how much they invest in covering their weaknesses, and probably that is for a good reason. ;)

I don't see the ko though...

thanks alot for the nice games

White: 79 territories + 43 prisoners + -6.5 komi = 115.5
Black: 69 territories + 36 prisoners = 105
Result: W+10.5

----

I think you need to take more margin with difficult situations too. If you can't read out a situation, and you push it, you are trusting to luck. You don't know what will happen, and playing it out does not even necessarily answer the question, because mistakes are made by players. It is quite normal for professional players to make a move to protect a group because they couldn't be sure it would live otherwise.

You say that it doesn't suit your character to be more careful and do more reading during the game. I say that Go is challening you to change your character, if only a little bit.]
)
(;B[pr];W[oa];B[mr];W[lp];B[lo];W[mo];B[no];W[mn];B[lq];W[kp]
;B[rg];W[rf];B[rh];W[re];B[jb];W[jc];B[ia];W[ic];B[rm];W[pl]
;B[qk]))
(;B[ra];W[ck];B[bk];W[cl];B[bl];W[dm];B[cn];W[dk];B[el];W[en]
;B[jk]C[g9 probably dies... but big deal, no?]))
(;B[ra];W[ed];B[ce];W[dc];B[cc];W[cb];B[ec];W[fa];B[dc]))
(;B[oh]
(;W[nh];B[ni])
(;W[mh];B[mi]C[It's not like White gets an eye.])))
(;B[of]C[This attacks much better, and keeps all your groups safe.]
))
(;B[qf];W[me];B[hd];W[hc];B[ic]))
(;B[ln];W[jm];B[lm];W[ll];B[ml];W[kl];B[nm];W[mn];B[nn];W[mo]
;B[no];W[lo];B[lp];W[ko];B[op]))
(;W[ql];B[gp];W[hr];B[mn]))
