(;FF[4]GM[1]SZ[19]ST[2]CA[UTF-8]AP[SGFC:1.17]

PB[berangkat]
BR[9k]
PW[bran]
WR[8k]
KM[0.5]
DT[2011-03-23]
PC[The KGS Go Server at http://www.gokgs.com/]
RE[B+17.5]
TM[1500]
OT[5x30 byo-yomi]
RU[Japanese]

C[berangkat [9k\]: hi
bran [8k\]: hi gg];B[pd]C[Hi,thank you for your review.I played white.

\\m/ : Hi, I'm chevelu on KGS. I don't play ranked games because it goes against my thoughts of what a game is so I don't have a fixed account. Although my level of play can vary between 2k-2d depending on the time. All my comments will be preceded by the metal horn sign \\m/. My English may be awfull but hopefully enough understandable.
So let's look at it :)];W[cp];B[pp];W[dd];B[pj];W[eq];B[cj]
;W[ch]C[\\m/ : book's theory advises to approach from the shimari side. But I already saw some pro approaching like that too so both sould be ok.]
;B[cm];W[eh];B[ej];W[nc];B[ne];W[ld];B[le];W[ke];B[lf]
(;W[kf]
(;B[lg];W[kg];B[fc];W[dc];B[jd]C[\\m/ : have you said "thank you" for this move ? ;)]
;W[kd];B[jb];W[qc];B[qd];W[pc];B[fe];W[df];B[kh];W[em]C[\\m/ : too early and not so dangerous for b, you will eventually prefer the peep at d9 later. There's still a lot of empty space around o3 and depending on what happened there, deciding how to press left side group.]
;B[el];W[fm];B[fl];W[gl];B[gm];W[hl];B[gn];W[fo];B[go];W[eo]
;B[jn];W[gj];B[fi];W[dk]C[mistake ,i thought he would connect]
;B[dl]TR[dk][em]SQ[el]C[\\m/ : This shape, broken keima, is the ugliest shape in go. Compared to this, empty triangle is beautiful.
If you expected d10 because of the weakness in his shape, check your weaknesses before, it will help to improve your reading.]
;W[dj];B[di];W[ei];B[ek];W[ci];B[ck];W[fj];B[gi];W[hi];B[gh]
;W[ij];B[hh];W[ih];B[ig];W[hg];B[gg];W[hf];B[gf];W[if]C[\\m/ : good use of b's weaknesses to stabilise yours :)]
;B[nq];W[gp];B[hp]
(;W[ho];B[io]
(;W[hn]C[next mistake];B[hm];W[im];B[in];W[jl];B[jm];W[kl];B[mn]
C[\\m/ : this move doesn't accomplish anything, b should have protected the corner so now is your chance to jump in]
;W[gd];B[fd];W[ic];B[jc];W[hd];B[db];W[eb];B[ec];W[cb];B[fb]
(;W[da];B[hb];W[lb];B[id];W[ge];B[hc];W[ff];B[ie];W[fg];B[gc]
;W[fh];B[qm]
(;W[bn];B[bm];W[bi];B[bj];W[cn];B[dj];W[od];B[oe];W[rd];B[qe]
;W[re];B[qf]
(;W[rf];B[rg];W[lh];B[mh]C[this helps him more than me..alternatives?

\\m/ : LR corner ko];W[li];B[mi];W[lj];B[mj]
(;W[qp]C[\\m/ : you can think about the ko too];B[qq];W[po]
;B[qo];W[op];B[rp];W[pq];B[qp];W[nn];B[oo];W[no];B[pn]
(;W[on]C[\\m/ : see var.]
(;B[po];W[np];B[oq];W[nl];B[ml];W[mm];B[lk];W[ll];B[mk];W[ln]
;B[kj]
(;W[il]C[\\m/ : No need to connect living group, keep in mind that b too only have one eye]
;B[lq]
(;W[mo]C[\\m/ : better at h3, only 2 points in gote];B[gq]TR[hq]
[iq][jq][hr][ir][jr][kr][lr][mr][hs][is][js][ks][ls][ms]C[this was big

\\m/ : yes, should be yours as m3, you lost a lot here, 15 points minimum]
;W[fq];B[gr];W[pk]TR[nl][pl][nn][on]C[\\m/ : too greedy, shape move in q8]
;B[ok];W[ol];B[pl];W[qk];B[qj];W[rh];B[sg];W[nk];B[oj];W[nj]
;B[ni];W[nd];B[me];W[kp];B[kq];W[jp];B[jq];W[mq]
(;B[pr];W[mr];B[lp]
(;W[lr]C[wrong,of course

\\m/ : yes, you give back b's mistake with q2];B[mp];W[ko];B[iq]
;W[am];B[al];W[an]
(;B[bk];W[ji];B[ki];W[dh];B[ds]C[too big];W[dr];B[es]
(;W[fs];B[fr];W[cs];B[gs];W[er];B[fs];W[cr];B[dm];W[dn];B[jh]
;W[jg];B[jj];W[kb];B[kc];W[lc];B[qg];W[ee];B[sf];W[rc];B[md]
;W[mc];B[fa];W[ea];B[ib];W[ja];B[ia];W[ka];B[fn];W[en];B[fp]
;W[ep];B[gp];W[jk];B[se];W[sd];B[ai];W[ah];B[aj];W[fk];B[he]
;W[gf];B[km];W[lm];B[lo];W[kn];B[ip];W[om];B[pm];W[ii];B[je]
;W[ed];B[kk];W[tt]C[i was loosing pretty much in the endgame,no?i was afraid of the big moyo black had. my invasion feels wrong..thank you for your effort

\\m/ : your beginning was a little slow. You could also learn a lot by studying shapes. If dealing with san ren sei's moyo is a problem for you, you may find useful to look at games between Cho Chikun and Takemiya Masaki during the 80-90's. And in a more general way, I recommend to look at games of Cho Chikun if this game reflets your playing style.
I hope this will be useful for you. Keep on rockin'];B[tt]TW[aa]
[ba][ca][la][ma][na][oa][pa][qa][ra][sa][ab][bb][db][mb][nb]
[ob][pb][qb][rb][sb][ac][bc][cc][oc][sc][ad][bd][cd][ae][be]
[ce][de][af][bf][cf][ef][ag][bg][cg][dg][eg][gg][ig][bh][gh]
[hh][fi][gi][hj][gk][hk][ik][nm][mn][ao][bo][co][do][ap][bp]
[dp][aq][bq][cq][dq][ar][br][as][bs]TB[ga][ha][gb][ic][pe][mf]
[nf][of][pf][mg][ng][og][pg][lh][nh][oh][ph][qh][rh][sh][li]
[oi][pi][qi][ri][si][lj][rj][sj][ak][dk][pk][qk][rk][sk][bl]
[cl][ql][rl][sl][rm][sm][hn][qn][rn][sn][ho][ro][so][sp][hq]
[mq][pq][rq][sq][hr][ir][jr][kr][lr][mr][nr][or][qr][rr][sr]
[hs][is][js][ks][ls][ms][ns][os][ps][qs][rs][ss]C[berangkat [9k\]: thx
bran [8k\]: ty])
(;W[cs]C[\\m/ : no need to sacrifice a stone]
(;B[cr];W[fs];B[bs];W[er];B[cs]
(;W[cq])
(;W[fr];B[cq];W[bp]))
(;B[fs];W[cr])))
(;B[ai];W[ah];B[aj];W[dh]))
(;W[mp]))
(;B[mr]
(;W[pr];B[mp])
(;W[mp];B[nr])))
(;W[hq];B[iq];W[gq];B[mo];W[mp];B[lo];W[lp];B[ko];W[mq]C[\\m/ : so saving n6 seems unreasonnable]
))
(;W[mq];B[mr];W[nr];B[or];W[lr];B[ns];W[lq]C[if b tries to cut]
(;B[il];W[gq];B[hq];W[jr]
(;B[gr];W[fr]
(;B[hr];W[ik]C[b now has to live so he can't play like this]
)
(;B[ik];W[hr];B[ir];W[gs];B[iq];W[is]))
(;B[hr];W[gr];B[ik];W[jp];B[ko];W[lo];B[kp];W[kq]C[this is alive.]
))
(;B[gq];W[ir])))
(;B[np];W[po];B[oq];W[oo];B[mo]))
(;W[np];B[oq];W[mq];B[mr];W[nr];B[or];W[lr];B[ns];W[lp]))
(;W[qq];B[qp];W[rp];B[ro];W[rr];B[sp];W[sq]TR[fa][me][qg][rh]
[am]))
(;W[rg]))
(;W[qq];B[qp];W[rp];B[ro];W[rr];B[sp];W[sq]C[\\m/ : this ko will give you the corner or two moves elsewhere]
))
(;W[hb];B[ea]C[\\m/ : only 1 eye :/];W[ef]C[\\m/ : b looks dead to me, game over :)]
))
(;W[hq]C[better?
 \\m/ : yes, even better earlier, h5 sacrifice is not needed]
))
(;W[hq]C[\\m/ : as you'll see later]))
(;B[md]C[\\m/ : allowing tiger mouth like that can be very costly]
;W[mc];B[kd];W[lc];B[jd];W[jb];B[kg]))
(;W[md]C[\\m/ : shape move]))
