(;FF[4]GM[1]SZ[19]ST[2]CA[UTF-8]AP[SGFC:1.17]

PB[mschlat]
BR[5k]
PW[qazxcvbnm]
WR[5k]
KM[6.5]
DT[2011-05-13]
PC[The KGS Go Server at http://www.gokgs.com/]
RE[W+Resign]
TM[1500]
OT[5x30 byo-yomi]
RU[Japanese]

C[Mark: Thanks for reviewing this game.  I know in broad terms why I lost the game --- I did not see the danger to my group in the lower right.  However, I would like review of the first hundred thirty moves or so -- in particular, the development of the center left (see comment on move 27), the work in the center (move 49), the lower left (move 60), and the question of whether I can live in the upper left (around move 120).  However, any comments of any other portions of the game would be appreciated.  Thanks!]
;B[pq];W[ec];B[pd];W[dp];B[pk];W[de];B[jd];W[jp];B[ck];W[dj]
LB[ci:A][cm:B]C[This W move is quite unusual. Its normally played around A or B.]
;B[cj];W[di]LB[dk:A]C[Here, you have an option to play A.]
(;B[ci];W[dk]LB[dl:A]C[Qiute strange to play this way. Here, the hane at A is very good.]
(;B[cl]C[Not bad, but hane is better.];W[dl]
(;B[gc];W[cm];B[bm];W[cn]
(;B[cg];W[dh]LB[be:D][ce:E][bf:C][dg:B][ch:A]C[Everything is possible. Please, check it yourself.]
(;B[ch];W[cf];B[dg];W[bn];B[fg]C[Mark: It strikes me that I haven't made a good tradeoff here.  I have a group with at least one eye and minimal territory while white has gained strong influence in the center and lower left.  Do I need to be more aggressive in earlier moves?]
;W[jm]
(;B[jj];W[qd];B[qe];W[qc];B[pc];W[re];B[qf];W[rf];B[qg];W[qb]
;B[pb];W[pa]
(;B[nb]C[Mark: I don't know why I thought this move would be good.

Gelya: the thing is that you can tenuki here. But the move itself is good.]
;W[oa]C[Tenuki. This is not much a move for W.]
(;B[na];W[rg];B[qh];W[rh]
(;B[qi]C[Mark: Okay, when is it a good time to hane?  I do like the alternative I have here.

Gelya: Just compare the alternative. The move here is better than thee hane.]
;W[ii]
(;B[ij]C[Mark: Wrong direction here?  I am not facing my wall.

Nothing to aware.];W[ji]
(;B[hj];W[hi]
(;B[gj];W[gi]
(;B[kj];W[fh];B[ff];W[kh];B[mq];W[po]LB[qm:A][mn:D][no:B][qp:C]
C[Mark: I like A, B, and C all better than my move (D). They are all more direct attacks, since they remove running directions.  I think A and C are preferable to B since they emphasize side and center.  I thought my move meant "I will kill Q5".  Instead, my move meant "I will take outside influence".]
(;B[mn];W[qq]
(;B[qp];W[pp]
(;B[rq];W[qr];B[rp];W[oq];B[rn];W[mo];B[rr];W[pr];B[no];W[np]
;B[lo];W[mp];B[lp];W[kq];B[lq];W[ln];B[kn];W[lm];B[jo];W[ip]
;B[km];W[nn];B[mm];W[ll];B[kl];W[mk];B[nm];W[on];B[om];W[lj]
;B[li];W[mi];B[lh];W[mh];B[lg];W[mg];B[lf];W[pj];B[qj];W[ok]
(;B[oj];W[pl]
(;B[nk];W[qk];B[ol];W[nj];B[pk];W[kp];B[ko];W[ok];B[cc];W[nl]
;B[pn];W[oo];B[pm];W[qo];B[ro];W[cb]C[Mark: I really don't have a good idea of how to respond to this --- can I make life in the corner?]
;B[db]C[The best move];W[bb];B[dc];W[bc]
(;B[eb];W[cd]
(;B[dd];W[be];B[ki];W[mf];B[me];W[ne];B[md];W[ie];B[id];W[gp]
;B[cq];W[dq];B[dr];W[er];B[cr];W[bp];B[gn];W[hn]
(;B[hm];W[ho]
(;B[im];W[gm];B[fm];W[gl]
(;B[fn];W[fl];B[ig];W[jg];B[jf];W[hg];B[if];W[hf];B[he];W[ge]
;B[hd];W[fe];B[bg];W[bl];B[bk];W[am]
(;B[ai]C[Pseudo-game-over move];W[ag]C[Game move.];B[ah];W[ed]
;B[fc]
(;W[af];B[bi];W[rl];B[rm]
(;W[oe];B[pe];W[fj];B[og];W[oh];B[ng];W[nf];B[of];W[rs]C[After this move, you have no chance to live.]
;B[sr];W[sm];B[kk];W[lk];B[ml];W[nk];B[rj];W[nh];B[sk];W[sl]
;B[sn];W[sp];B[ql];W[qm];B[qn];W[pk];B[ql];W[rk]C[Well, the main thing is - study hane and two-step hane, invasions, and a little life-and-death. 
Thanks, Gelya])
(;W[sm];B[sn];W[rs];B[sr]))
(;W[bi]C[Well, that kills.];B[bf];W[af];B[ae];W[af];B[ad];W[gf]
))
(;B[bi];W[ah];B[ag];W[aj];B[ak];W[ai]))
(;B[ql];W[rl];B[pk];W[rk];B[pi];W[qm];B[qn];W[pl];B[rs];W[sm]
;B[sn];W[pj]))
(;B[gm]))
(;B[ho];W[io];B[in];W[hm]))
(;B[be];W[bf];B[dd];W[bd];B[ee]C[Playable.]))
(;B[bd];W[cd];B[be];W[bf];B[ce];W[dd];B[df];W[ae])
(;B[ce];W[cd];B[bd];W[be])
(;B[cd];W[bd];B[ce];W[be];B[bf];W[df];B[bg];W[eb]
(;B[ed];W[dd])
(;B[ea];W[dd];B[da];W[fa])))
(;B[qk]))
(;B[pl]C[W is unconditionally dead.]))
(;B[qr];W[rq];B[rr];W[oq];B[pr];W[rp];B[nq];W[op];B[or]))
(;B[qr];W[qp];B[rr];W[qm];B[rl]C[Hard to live inside.];W[om]
;B[nl];W[rm];B[rq];W[rp];B[ql];W[qn];B[ro];W[so];B[on]))
(;B[qo]C[I like that move. Please, see the other variations in Kogo's Joseki Dictionary.]
;W[qn];B[qp];W[mo];B[pn];W[on];B[pm]))
(;B[fi]C[Again!!]))
(;B[gi]C[The hane is still better. You are leaving white an opportunity to run away from your framework.]
))
(;B[hi];W[hh];B[gh]C[Two-step hane works perfectly.];W[hj];B[gi]
;W[kj];B[kk]
(;W[ik];B[jk])
(;W[jk];B[ik];W[jl];B[ki];W[lj];B[jh])))
(;B[ji]))
(;B[ri];W[qi];B[pi];W[qj];B[qk]
(;W[pj];B[oj];W[rj];B[rk];W[si];B[ok])
(;W[rj];B[pj])))
(;B[rg];W[na];B[mb])
(;B[cc]))
(;B[oa]
(;W[ob];B[qa];W[na]
(;B[pa]C[wrong];W[rb])
(;B[rb];W[pa];B[rd];W[ra];B[rc];W[qa];B[rg]))
(;W[qa];B[nb]))
(;B[rg];W[ob]
(;B[lq])
(;B[mc])))
(;B[jk]TR[jd][pd][pk]C[I like that much)))]))
(;B[bf]C[This have a powerful effect on the upper left corner.]
;W[be];B[bd]))
(;B[bn]C[I'll recommend this, because b6 is a good point for both W and B.]
))
(;B[cq]C[This is sente move. And this is the best moment to invade.]
(;W[dq];B[cp];W[do];B[dr];W[er];B[cr];W[fq];B[co]C[The result is big side.]
)
(;W[cp];B[dq];W[eq];B[er];W[fq];B[fr];W[gq];B[bp];W[bo];B[bq]
;W[cn];B[dh]C[Nothing to worry about that group.];W[eh];B[dg]
;W[eg];B[df];W[ef];B[ce];W[cd];B[be])))
(;B[dl];W[el]
(;B[em];W[dm];B[cl];W[fm];B[en];W[dn];B[dh];W[fl];B[eh]C[Ref. var.]
)
(;B[dm])))
(;B[dk]LB[cq:A]C[This move will have big effect on the invasion at A.]
;W[fj];B[ci]))
