(;FF[4]GM[1]SZ[19]ST[2]CA[UTF-8]AP[SGFC:1.17]

PB[Knitis]
PW[diggyminer]
WR[17k]
KM[0.5]
DT[2011-05-17]
PC[IGS-PandaNet]
RE[B+1.5]
TM[600]
RU[Japanese]

C[Knitis: hi
diggyminer: Have a good game

Hi --- my name is Mark Schlatter.  I'll be doing your review.  If you want to find me online, I'm mschlat on KGS and DGS.  I'm happy to answer questions on KGS.]
;B[pp];W[dp]C[Knitis: have a good game];B[pc];W[cd];B[pj];W[fc]
;B[cq]LB[cg:B][cj:A][cm:C]TR[fc][cd]C[Mark: The 3-3 invasion is probably not the best idea here.  If White carries out the proper response (see my variation at 14), you get a small black group and white gets a large wall.  Moreover, that wall faces white's enclosure in the upper left.  With a few moves, White has major influence on the left.

I'd make a move like A to ensure a presence on the left.  Note that I can extend to B or C if approached.  I can also play A at C11 as well.]
;W[cp];B[dq];W[eq];B[er];W[fq];B[fr]
(;W[gr];B[gq]C[Mark: Good idea to cut here.];W[hr];B[gp];W[ep]
;B[iq];W[kq];B[ir];W[nq];B[oq]LB[pn:B][pq:A]C[Mark: I'm not comfortable with the kick here, since White already has L3 as a followup.  A does a better job of protecting the corner and making White's live difficult.  B emphasizes the side.]
;W[np]
(;B[op]TR[pp][oq]SQ[pq]C[Mark: Okay, you are breaking a proverb here --- never make an empty triangle.  The triangle are the three marked black stones.  It is an empty triangle because there's nothing at Q3.  This is almost always bad shape.

If you are making this move to attack the white group, your thinking is sound, but your stone placement is wrong.  See my variations.  Typically, you attach or touch a stone for defense.  For offence (or attacking), you do not touch stones.]
;W[no];B[oo]C[Mark: Same error --- empty triangle.  Q6 is still a better choice.]
;W[jp]C[Mark: You can ignore this and play elsewhere --- see my variations.]
(;B[kr];W[lr]
(;B[hs]C[Mark: I'm not following the logic here.  You play L2, but then leave it for White to take.  You then take a move to capture H2, which you already have surrounded.

A few tips here: 
1) Playing on the first or second line is often a bad idea in the opening.
2) Look for big areas that you can play in --- the top and the left are good ideas.  It is tempting to play in the same area as your opponent's last move, but that assumes he made a correct assessment as to the important area.  If he's wrong, you can profit.]
;W[jr];B[hq];W[or];B[pr];W[nr];B[jq];W[ks];B[ip]LB[cm:A]SQ[cp]
[dp][ep][eq][fq]C[Mark: Again, I think you are playing close to where your opponent plays.  Here, the stone at J4 accomplishes very little.  The white group on the bottom is fairly safe, as is your black group.  Playng close to white will only help him strengthen his position.

Note White's marked stones --- they have no eyes and limited room to run.  An attack on the side (for example, at A) could be very effective.]
;W[jo];B[io];W[jn];B[om];W[qe];B[qd];W[pe]
(;B[pd]C[Mark: Again, you have an empty triangle.  See the variation.]
;W[ph];B[qh];W[qg];B[qi];W[rh];B[ri];W[rg];B[re];W[rf];B[rd]
;W[si];B[sj];W[sh];B[rk];W[sf]
(;B[oh]LB[kc:C][ci:B][cm:A]C[Mark: I have given some variations below.  The stone at P12 doesn't really help the group below or above --- both have good eyespace.  The attack you make helps make white stronger here.

I would be aiming at creating influence along the top.  You can play the hane at P15 and follow the variations.  Or you can make a big move around A, B, or C.]
;W[og];B[pi];W[pg];B[nh];W[oe];B[ng];W[nf];B[nc];W[jc];B[lc]
CR[ng][nh][oh][pi][pj][om]LB[ll:A]C[Mark: This is a very small extension from a group that looks alive.  I would look to bigger moves.  Besides the moves aready mentioned on the left, something like A (or even further out) starts to build a moyo.  However, I still think a move on the left is the biggest.]
;W[kd];B[ld];W[le];B[me];W[md];B[nd];W[mf];B[mc];W[kf];B[kc]
;W[jd];B[jb];W[ib];B[lb];W[hc];B[lh]LB[jh:A]SQ[fc][hc][jc][cd]
[jd][kd][kf]C[Mark: Note what White has been able to do here.  With the marked stones, White has huge influence pointing towards the bottom and left.  With a capping move at A, White builds a huge moyo.  Again, you want to be looking for moves earlier in the big areas on the board.]
;W[dm]C[Mark: A little conservative for white.  I would at least play at C8 and maybe further out.]
;B[dj]LB[cf:B][ci:A][cl:C]C[Mark: I'm not sure about the fourth line play here.  I would rather play at A (third line) and then extend to B or C as needed.  That two space extension is usually enough to guarantee at least one eye.  In your case, playing high gives White the opportunity to remove any eyespace along the side.]
;W[dg];B[ch];W[cg]
(;B[dh]TR[ci][di]SQ[ch][dj]C[Mark: I have put some variations below.  The one space extension you have created is very small.  Any move that gives you more space would be helpful here.]
;W[ck]
(;B[cj];W[bj]
(;B[bp]LB[fi:A]C[Mark: I would run with the invading stones instead --- perhaps to A.]
;W[bo];B[br];W[cn];B[fn]C[Mark: Again, if you don't run out your invading stones, you are in danger of losing them.  See the variation.]
;W[fo];B[go]
(;W[en]C[Mark: White should cut here --- see the variations.]
;B[fm];W[bh];B[eh];W[fj];B[ek];W[fg];B[fh];W[gg];B[gh];W[jh]
;B[ll];W[hh];B[gj];W[gi];B[fi];W[hi];B[gk];W[ji];B[ik];W[dk]
;B[el];W[dl];B[jl];W[im];B[hm];W[mm]
(;B[mn]C[Mark: I think it is better to seal White in than make a move like this (unless you think you are behind).  See my variation at 138 to show how White starts to take away your territory.]
;W[nn];B[ln];W[lm];B[km]
(;W[kn];B[nm];W[lo];B[ml];W[mo];B[kj];W[in];B[hn];W[ap];B[bq]
;W[lg];B[kh];W[kg];B[eg];W[ef];B[bi];W[ai];B[ci];W[bg];B[bk]
;W[aj];B[bl];W[bm];B[aq];W[ao];B[em];W[mh];B[mi];W[ni]
(;B[nj]C[Mark: Just take the stone --- see the variation.];W[li]
;B[mg];W[ki];B[mh];W[mj];B[oi];W[lj];B[mk];W[jj];B[kk];W[jk]
;B[il];W[lk];B[kl];W[ij];B[hj];W[ig];B[fp];W[eo];B[cc]SQ[fc]
[ef][bg][cg][dg]C[Mark: Very tough to do an invasion with the white stones around.]
;W[dc];B[cb];W[bc];B[bd];W[be]
(;B[db]C[Mark: I've tried, but I don't see a way to make life.]
;W[ec]
(;B[eb]
(;W[bb];B[dd];W[ce];B[fb];W[gb];B[ak];W[ah];B[rp]C[Mark: I think Q1 is bigger than this.  White will have a hard time making life in here.]
;W[on];B[pn];W[ps];B[qs]
(;W[os];B[qr];W[js];B[is];W[ja];B[kb];W[ka];B[la];W[ia];B[se]
;W[od];B[oc];W[ne];B[md];W[gl];B[fk];W[tt];B[jm];W[lp]TW[aa]
[ba][ca][da][ea][fa][ga][ha][ab][cb][db][eb][fb][hb][ac][cc]
[gc][ic][ad][bd][dd][ed][fd][gd][hd][id][ae][de][ee][fe][ge]
[he][ie][je][ke][af][bf][cf][df][ff][gf][hf][if][jf][lf][of]
[pf][qf][ag][hg][jg][sg][ih][ii][ak][bk][al][bl][cl][am][cm]
[an][bn][dn][co][do][ko][kp][mp][lq][mq][kr][mr][ls][ms][ns]
TB[ma][na][oa][pa][qa][ra][sa][mb][nb][ob][pb][qb][rb][sb][qc]
[rc][sc][sd][di][ei][ni][ej][fj][oj][qj][rj][hk][nk][ok][pk]
[qk][sk][fl][gl][hl][nl][ol][pl][ql][rl][sl][gm][lm][mm][pm]
[qm][rm][sm][gn][qn][rn][sn][ho][po][qo][ro][so][hp][qp][sp]
[pq][qq][rq][sq][ar][cr][dr][gr][hr][rr][sr][as][bs][cs][ds]
[es][fs][gs][rs][ss]C[So, some general comments:

1) One big issue I see is a tendency to play near where your opponent has played.  You need to look at the large open areas of the board and see if playing there would be worth more than playing close to an opponent's group.

2) Avoid the empty triangle.

3) If you wish to attack your opponent (either to kill their stones or make profit with territory), avoid the moves where you attach to one of their stones.  You do want to remove space from them, but attaching them allows them to hane and become stronger. 

4) You tend to play a "kick" when your 4-4 stone is approached  (see moves 23 and 47) , as opposed to an extension or pinch.  Try using the other responses to add some variety to your game and avoid bad shapes.

I hope this is helpful.  Feel free to contact me on KGS or via email if you have questions.

Thanks,
Mark
mschlat@gmail.com])
(;W[qr];B[os];W[rs];B[ps];W[ns];B[pq]))
(;W[fb];B[bb];W[ad]
(;B[ac];W[ab];B[aa];W[ac])
(;B[aa];W[ac];B[ab];W[ea])))
(;B[bb];W[ad];B[eb];W[fb];B[ab];W[ea];B[ac];W[bd]))
(;B[dd];W[ce];B[ec];W[bb];B[db];W[fb];B[fd];W[ee];B[ed];W[eb]
))
(;B[mg];W[oi];B[mh]
(;W[mj];B[nj])
(;W[ki];B[mj])))
(;W[nm];B[kn];W[nk]))
(;B[ml];W[nm];B[nl];W[lm];B[km];W[kn];B[nn];W[mn];B[on];W[mo]
))
(;W[gn]
(;B[gm];W[hn];B[in];W[hm];B[hl];W[im];B[jm];W[il]
(;B[jl];W[fm])
(;B[ik];W[gl]))
(;B[hn];W[gm])))
(;B[dk];W[cl];B[bi];W[bk];B[bg];W[bf];B[ah]C[Mark: And you're close to alive!]
))
(;B[dk];W[cl];B[cj]C[Mark: A little more room here.]))
(;B[cl]
(;W[bh];B[bi]
(;W[dh];B[ci];W[bg];B[cm])
(;W[ci];B[dh];W[di];B[eh];W[ei];B[bj];W[bg];B[fh]))
(;W[cm]
(;B[bh];W[bl];B[bk];W[ck])
(;B[bl];W[bh];B[ci];W[aj];B[bi];W[ai];B[bg];W[ah];B[bf]))))
(;B[oe];W[of]
(;B[nf];W[ne];B[od]
(;W[mf];B[ng];W[og];B[me])
(;W[ng];B[mf];W[me];B[lf];W[le];B[pf];W[og];B[qf];W[pg]))
(;B[ne];W[nf])))
(;B[nd];W[qh];B[qj]C[Mark: Now you have helped secure both corners on the right, while white has a small weak group.]
))
(;B[jq])
(;B[jr]))
(;B[ci]
(;W[ip];B[hq])
(;W[hq];B[hp];W[ip];B[hs])))
(;B[qn])
(;B[pn]C[Mark: My favorite choice.])
(;B[or]C[Mark: Not a great choice, but now White has to fight for an eye on the bottom.]
;W[po];B[qo];W[oo];B[qp]))
(;W[gq]C[Mark: This is what White should do.];B[bp];W[bo];B[bq]
;W[cn]C[Mark: Note White's influence on the left.  Your group, while alive, is worth about nine points.  White's influence is worth more.]
))
