(;FF[4]GM[1]SZ[19]ST[2]CA[UTF-8]AP[SGFC:1.17]VW[]

PB[Rugstreeppad]
PW[GoPeterGo]
WR[12k]
KM[5.5]
DT[2011-04-08]
PC[JijBent]
RE[B+15.5]
RU[Japanese]

C[Hi reviewer,
thanks in advance.
I think my weakness lays in the part between the opening and the middle game. I don't know when to take points or influence.
On the other hand I loose a lot of points in the endgame.
Any advice on my many mistakes or my common mistakes are very welcome.


Hi Peter,

I think the best "field" to improve for you is the opening. You made some mistakes during the opening, that is also why it was difficult for you to catch up later.
Of course you think, that the problem is later at the end of the opening and the beginning middle game. But that is only, because it is the moment you realize that something is not right. The mistakes were made before.
So here are some guidlines for the opening:
1. Corners fist, then sides, then center
2. Choose widest side to play/form moyo/invade.
3. Big move lays in corner.
I think especially the second guidline is helpful to choose the right move during the opening. Try to follow this principle in your games. I bet you will improve rapidly!
If you have further questions regarding your game, feel free to contact me.

Best regards,
Felix];B[dp];W[pc];B[pp];W[cd];B[pi];W[qe]LB[cn:C][jq:B][nq:A]
C[This is a move not following the opening principles I suggested.
"Choose widest side to play/form moyo/invade."
That means playing A or B (also to prevent a black double wing formation) or C.
Because Black already played on the right, it is not so good to play there.]
;B[ci]C[Black is following the opening principle nicely.];W[jq]
C[Good move! Also following the principle.];B[hq]
(;W[mq]LB[nq:A]C[A is possible and should be considered. See possible variations.]
;B[mo]
(;W[or]LB[pr:A]C[12 - Is this correct or better on M4 or K5?

I think A would be best. M4 is a bit overconcentrated and K5 is difficult because of a peep (see variation).]
;B[jp];W[kp];B[iq]
(;W[jr]C[It is better to get out instead of beeing shut in. See variation.]
;B[ko]
(;W[qr]LB[qq:A]C[This move is better on A.];B[mp]LB[jd:C][cn:D]
[rp:B][lq:A]C[I would not answer this move. White can live with A or B. So better to play a big move somewhere else, like C or D.]
;W[lq];B[jd]C[Now Black got the big point...];W[ec];B[mc];W[qn]
LB[hc:A]C[White can attack the top formation with A. This move also makes some territory.
Attacking and making territory at the same time is very good style.]
;B[ql];W[qp];B[pn];W[cg]LB[hc:A]C[Better on A.];B[fi];W[ck]
;B[cm];W[cq]LB[ck:A][cm:B]C[If you want to go in the corner, you should do so without the A/B exchange.
Because of B it is usually more difficult to live in the corner.]
;B[dq];W[cp];B[co];W[bo];B[bn];W[do];B[cn];W[dr];B[eq]LB[er:A]
C[Black should have played this move on A, after which White would be enclosed in a small corner.]
;W[er];B[fq];W[gs];B[ir]
(;W[is]LB[di:A][ei:B]C[This move seems like an endgame move to me. The corner should be alive without connecting (see variation).
So it would have been a possible to break into Black's moyo with A or B.]
;B[bi]LB[di:A][ei:B][hi:C]C[Because of the additional Black stone A and B aren't severe anymore.
Black has a big center moyo. White needs to reduce it.
Starting with C should be best. Later cutting A or B might be possible.]
(;W[hc]C[Locally very good, but reducing Black's center moyo is more urgent.]
;B[pf]LB[hi:A][ek:B]C[Black is increasing his moyo...
I would still try to start with A.
Pulling out on B is quite heavy and risks to loose the hole group.]
;W[ek];B[gk]C[Ouch!];W[bp]C[Not necessary. This is an endgame move. Black is not in danger.]
;B[gr]C[Slow.];W[hs]C[Again not needed.];B[qm]
(;W[di]LB[hi:A][hk:B]C[56 - Trying to make live for C9 and E9 or are there other more important moves?

It's good to not answer Black's move on the bottom right.
But I would prefer to play from the outside, because that does not risk the hole group. And you can use the strength you build on the outside to attack the top.]
;B[dh];W[dj];B[dg]C[Your group is very weak inside Black's moyo and you also hurt your top left group.]
;W[em];B[en];W[eo]LB[gl:A]C[You need to get out!
Better to play A.];B[fn];W[dm];B[dn];W[fm];B[gm];W[ei];B[eh]
;W[fj];B[gj];W[fk];B[cf]C[White lives very small, but Black gets a good return on the top left.
So living inside Black's moyo was not a good choice. Better to reduce from the outside.]
(;W[rn]LB[nd:A][jo:B]C[Black's center moyo is still pretty big. White may reduce with A or trying to live inside starting with B.]
;B[pq];W[qq];B[pr];W[qf];B[qg]LB[nb:A][me:C][oe:B]C[If you want to jump into the center moyo, you have to do it right away. A move like 'A' just solidifies Black. White may try B or C.
Or you try to live inside like in the variation after move 73.]
;W[nb];B[mb];W[ee];B[ef];W[fh];B[gi];W[gh];B[ge];W[hh]LB[ih:A]
[jh:B]C[A very heavy move. Black is not su much in danger. So it is better to play lightly, for example A or B.]
;B[fe];W[me]LB[nd:B][oe:C][kh:A]C[90 - There is too much black influence to the center, I wanted to jump into it, was this move good for that? Alsoo trying to connect with the 3 whitestones in the center or make live in the center.

Your move is to far away from the three white stones and it is also not connected to the top right (Black can cut).
So you should either play A and try to live inside. Or you should play moves B or C which are connected to the top right group.]
;B[ne]C[And here is the cut...];W[nf];B[oe];W[jb]C[94 - making some points.

Black is leading with 20 to 30 points, this won't be enough.]
;B[hd];W[gc];B[de];W[ed];B[dd];W[dc];B[ce];W[bd]C[102 - defending the corner. Still now 40 points behind.]
;B[be];W[ii]LB[ie:A][kh:B]C[You should play more lightly. You could for example peep at A first and then B to make some space for creating eyes.]
;B[hl];W[ob]LB[kh:A]C[You should stick to one strategy. Try to live in the center.
Playing some stones in the center and then turning elsewhere won't win the game. If Black plays somewhere around A next, you won't have a chance to live there.]
;B[bk];W[cl];B[bl];W[if];B[ie];W[md];B[nd];W[kf];B[jf];W[jg]
;B[je];W[lh];B[lj];W[ki];B[kj];W[ff];B[fg];W[lc]LB[kc:A]C[124 - make forcing moves, threatening to capture the black stones and meanwhile making a connection to the stones in the center.

What if Black plays at A? But the idea is good!]
(;B[nc];W[of]C[126 - same purpose as move 124];B[lb]LB[kb:A]
[kc:C][pe:B]C[B is better then A.
But locally instead of A, I would play C.]
(;W[kb];B[ld];W[kc];B[mf];W[le];B[ng];W[kd];B[gg];W[pg];B[og]
;W[rg];B[qh];W[rh];B[ri]LB[ik:A][ps:B]C[Black has some holes in the center, you should expoit them!
Then you may have a last chance to turn around the game.
I would start with A. All variations end with White having sente, so you still get to play B after that.]
(;W[ps];B[ij]C[Black fixes the hole...];W[po];B[oo];W[qo];B[op]
;W[on];B[pm];W[sl];B[rl];W[sk];B[sh];W[rf];B[mh];W[lg];B[ig]
;W[ih];B[hg];W[jj];B[jk];W[ji];B[hi];W[qj];B[rj];W[si];B[rk]
;W[sm];B[li];W[kh];B[ad]
(;W[bb]LB[bc:A]C[Better at A.

Comments ending here.];B[ab];W[bc];B[ac];W[jo];B[ip];W[lo];B[kn]
;W[lp];B[ln];W[sj];B[ke];W[lf];B[ic];W[ib];B[pd];W[qd];B[pe]
;W[mg];B[oc];W[pb];B[ae];W[cb];B[na];W[qc];B[ao];W[ap];B[an]
;W[fr];B[fd];W[fc];B[nq];W[nr];B[mn];W[gp];B[gq];W[oa];B[ma]
;W[cj];B[bj];W[jc];B[id];W[ik];B[hj];W[il];B[kk];W[gn];B[hn]
;W[fl];B[gl];W[go];B[ho];W[in];B[im];W[jm];B[hm];W[jl];B[jn]
;W[oq];B[np];W[gd];B[hf];W[rm];B[ba];W[ca];B[aa];W[nf];B[of]
;W[mf];B[ka];W[nl];B[ja];W[ia];B[la];W[om];B[qi];W[mi];B[nh]
;W[mj];B[kl])
(;W[bc];B[ac];W[ab];B[ae];W[bb]C[Usual continuation.]))
(;W[ik]
(;B[jj];W[ij];B[ji];W[jh];B[jl];W[jk];B[kl];W[kk];B[lk];W[il]
;B[im])
(;B[ij];W[hj];B[jj];W[hk];B[gl];W[hi];B[jl];W[jk];B[kl];W[kk]
;B[lk];W[il];B[im])
(;B[jl];W[jk];B[kl];W[kk];B[lk];W[il];B[im])))
(;W[pe];B[kc];W[ld];B[kb]))
(;B[kc]
(;W[nc];B[lb])
(;W[kb];B[ld];W[lb];B[nc])
(;W[ld];B[lb])))
(;W[nd];B[md];W[ne];B[lf];W[ng];B[mh];W[nh];B[ni];W[mg];B[lg]
)
(;W[jo];B[ip];W[kn];B[lo];W[gi];B[fh];W[gl];B[hl];W[fl];B[hm]
;W[ij];B[hi];W[oh];B[ph];W[of];B[og];W[ng];B[pg]LB[me:A][kj:B]
C[Droping some stones on the border of the moyo helps to create life inside.
White could start on A or B now.]))
(;W[hi];B[ik]C[If Black defends his moyo passively...];W[jj]
;B[jk];W[lj];B[kk]LB[jb:A]C[...White can attack the top starting with A.]
)
(;W[hk];B[hj];W[jo];B[ip];W[kn];B[lo];W[ik]C[Or White can try to live inside.]
))
(;W[hi]))
(;W[tt];B[bp];W[bq];B[ao];W[bs];B[ar];W[aq];B[fr];W[fs]
(;B[br];W[cr];B[es];W[ds])
(;B[es];W[br];B[hs];W[ds])))
(;W[qq];B[qp];W[rp];B[ro];W[rq];B[qn]))
(;W[jo];B[ip];W[kq]C[Now White can get out to the center.]))
(;W[jo];B[kp]
(;W[kq];B[jp])
(;W[jp];B[kq])))
(;W[nq]
(;B[lq];W[no]
(;B[pn];W[kp])
(;B[lo];W[pn];B[qn];W[qm];B[qo]))
(;B[oq];W[np];B[pn];W[jo])
(;B[qn];W[pr];B[qq];W[lp])))
