(;FF[4]GM[1]SZ[19]ST[0]AP[SGFC:1.17]VW[]

GN[hysticali-xiao77-641068-20110522]
PB[xiao77 (xiao77)]
BR[12k]
HA[0]
PW[Derric Lee (hysticali)]
KM[6.5]
DT[2011-04-02,2011-05-22]
PC[Dragon Go Server: http://www.dragongoserver.net/]
RE[W+Resign]
OT[Japanese byoyomi: 90 days + 1 day per move and 10 extra periods]

RU[Japanese]
GC[Game ID: 641068]

C[Hello Derric,

This is a game with some interesting swings; I'll do my best. Where I wish to show a variation, it will be marked in advance "see var", usually with a comment at the end of the variation.

There are several points in the game, for especially black but also for white, where a better choice could have been made if you were aware of who was ahead.  You do not succeed at go by "Trying to win by 100 points".  When you are well ahead you must not embark on unpredictable fights that could lose a group.  Conversely if you are behind you have to make the game complicated rather than just take big points.

You started well, lost a lot in the middle, then overhauled black right at the end.

Counting is a difficult art but at 12kyu it is time to start practicing it.]
;B[pd];W[qp];B[dp];W[dd];B[oq];W[op];B[np]
(;W[nq]C[This is odd, allowing black to push between your two stones. You came out of it with a good result owing to black's mistake. See variation.]
;B[pp];W[oo];B[pq];W[po]
(;B[qq]C[If black had simply captured O3, the result would slightly favour black, see variation.]
;W[mp];B[qo];W[qn];B[ro];W[rn];B[rp];W[nr]C[It is recommended that a stone caught in a ladder be captured at the earliest opportunity.  The reason is that black will choose his moment and make a ladder breaker at the most painful time, as happened in the game!

Especially since there is a weakness at Q6, which may be exploited later.

Move 20 is only a fairly large yose play and not important right now.  It does not threaten to kill the corner.

Capturing the ladder stone NOW gives black a modest corner completely hemmed in by a very thick white formation - good result for white.]
;B[df]C[Black tries a ladder breaker.];W[ef];B[de]C[Black is pushing his head into a wall - bad move.]
;W[ee];B[dg];W[cd]C[Good. This is enormous. Takes territory, undermines the black position and defends against the cut at E16.

White is now significantly ahead, with a good result in both corners.]
;B[fg];W[jj]C[If this is intended to protect the ladder, just capture!

Another approach is to play a big point down either side, so that O4 ceases to be a threat as a cutting stone. (Cutting two weak groups is valuable; cutting two strong groups is irrelevant). But I still prefer to capture.]
;B[dk]TR[qf][fq][jd]C[Black : A two-point jump to D10 would have been normal and would have avoided the problems that black had later.

White : I can see that you are looking for a fight here, and it is true that black has some weakness.  But early in the game, when there are large open spaces, it is usually more profitable to get the first move there, rather than going for a localised profit as you did with the push at this move.  The triangled points are all obvious options, working well with your wall in the bottom right AND with the tengen (K10) stone.

You don't have to panic about black building territory on the left side if you can gain better territory elsewhere.

The push-and-cut will still be available later.];W[eg];B[eh]
;W[dh];B[ch];W[di];B[ci];W[dj];B[cj];W[ei];B[fh];W[ek];B[dl]
;W[el];B[em];W[gl];B[fl];W[fk];B[fm];W[gk];B[fc];W[fd];B[ec]
;W[ed];B[hc];W[hd];B[id]
(;W[bf]C[See variation];B[cg]C[Black should be at B13.  Better still G16.]
;W[ah]C[This is just yose - presumably you were thinking that the cut at C9 now works?  If you were just intending to deprive black of a few points on the edge, it's much too small.

You have lost sente and black is back in the game.]
(;B[pj]C[See variation.];W[pg]C[Good.  Isolate and attack the black stone at Q10.  It may well live, but in the process you should build strength around which can be used to gain profit elsewhere.]
;B[mc];W[he]C[Phew! At last.];B[jp]C[The game is now getting quite complex strategically and it would be interesting to know what you were thinking.

TIP : when submitting games for review, try to put down your reasons for choices at key points of the game.  That way the reviewer can understand whether any mistake is due to lack of strategy or of misreading the potential.  You can also put in questions for the reviewer.

There is a big battle coming on the right side and the bottom side.  I hope you noticed that both black corners are open at the 3-3 point; they can wait for the moment, as the side battle is more important, so long as you don't spoil the potential by your actions nearby.

A 3-3 invasion is worth 30 points, compared to the opponent defending it.  But you will give black very valuable outside influence. So you have to time the invasion for when the outside influence will not be too profitable for black; too early and you hand him a major side territory.  This is a common situation and you should have your eye on this all the time as the nearby situation develops.

Note that the cut at J17 or even the simple push at J15 are yours to play at the right time.]
(;W[hp]C[Good idea in principle.  As with 60, isolate and attack the black stone, using the power of your wall in the bottom right and of tengen.  Either K4 or Q10 would die (if you had already captured that ladder stone).

Unfortunately your attack peters out because you have to spend a turn to hold in the ladder stone.


So the question arises : Have you noticed that white has virtually no definite territory?  Are you just fighting for the sake of it or do you have a plan?  Where are you going to get some territory? It looks like the centre or the right side.

The bottom left is very big but black cannot seal it all off in one move.  Therefore my choice is to play N12, possibly preceded by J15 if I think black is going to answer it.  See variation.]
;B[jn];W[ln]C[This was your third play that was stopping O4 from getting away. If you had taken it off before, you could have skipped out at H6 happily and black would be on the run.]
;B[hm];W[gm];B[gn]
(;W[jq]C[Good.  If black blocks to the left, you steal some territory at the bottom and the corner is still open.  It's a difficult fight and hard to predict the outcome.

The right side is still massive, so I would be aiming to get a useful reduction on the bottom in sente then attack with O13/N12. It's worth a lot to play here before black.

A simpler approach would be to make the 3-3 invasion at C3, which ends in sente for you, gives black some side territory (undermined on both sides by O2 and A12, then play on the right side.  See variation.]
;B[kq];W[fo]C[What's the purpose of this?  Black has several cutting points here and you have just forced him  to mend one of them.

Don't peep without a good reason.

A peep can have the purpose of
a) destroying eye shape.  Not applicable here.  Or
b) providing an extra stone to make your neighbouring position less thin.  In which case, you would have made the peep with the intention of following it up with a stone at maybe E4, or E3, D5.]
;B[fn];W[kl]TR[fo][hp][jq][pl][mh][ie]C[Loss of focus here, I'm not quite sure what you were afraid of. There is much to play for on the bottom left.  Not to mention attacking the black Q10 stone at one of the marked points.

Your 3 stones on the bottom haven't achieved anything and if black plays D3 he secures both the corner and the bottom side.]
;B[ik]C[Now black mounts an attack on your G9 group.];W[fi]
;B[hh];W[hi];B[hf]
(;W[if]C[You could just connect at say J11, or more aggressively at J12. Your group is now safe and black still has cutting points.  Don't get too excited over capturing the 3 stones at F13 unless you see them as a threat to the upper group.]
;B[ii];W[ij];B[ig];W[gf];B[jf];W[ie];B[hg]
(;W[je]C[Skating on thin ice here.  If you read the semeai all the way to the ko, congratulations.  Otherwise consider....If black cuts at H10 and kills your group, you lose the game.  But if you win the fight you don't gain much because the black F12 stones were already weak and not worth much.   So it's not worth it.

A safer approach would have been to connect at H10, or better play K11 first, then when black runs out split between his group and Q10.  Perhaps you didn't see the danger.]
;B[hj];W[gi];B[hk];W[gh];B[gg];W[ji]
(;B[ih]C[Black does not need to go for broke as the variation is good for him.]
;W[jg];B[jh];W[kh];B[kg];W[kf]C[Good recovery, but the ko is very painful for you.]
;B[lg];W[jg];B[no]C[This is a very interesting ko and black has just made a huge ko threat.  

Let's just look at whether white can afford to ignore the ko threat...]
(;W[ff];B[nn]
(;W[pm]C[This looks like a natural response, but black's next move is tesuji and the Q10 stone is at just the right place to prevent your escape.

Better to dodge and give a little away rather than throw good stones after bad.  Variation shows one option.]
;B[om]
(;W[pn];B[pl];W[ol];B[nl];W[dm];B[cm];W[dn];B[cn];W[eo];B[do]
;W[go];B[fq];W[ck];B[cl];W[bk];B[bl];W[aj]C[ Ok, I realized this mistake as soon as I hit submit.]
;B[bj];W[ak];B[ai];W[bi];B[al];W[jr]C[At this point, black is miles ahead, having captured the Q6 group and consolidated the bottom left.  All he has to do is capture the D6 stones and not lose his group.  Unfortunately he tries to capture the whole bottom side as well.]
(;B[iq];W[ip];B[kp];W[en]C[Now white is back in the game.];B[hn]
;W[ir];B[gq];W[hq]C[There are several places the ight could have gone differently but black cannot hope to prevent eyes for white, prevent the connection and secure eyes for his own group.  So no detailed comment.]
;B[gr];W[kr];B[lq];W[mq];B[lr];W[io]
(;B[in];W[jo];B[ko];W[kn];B[gp];W[ho];B[kk];W[jk];B[jl];W[jm]
;B[ok]C[Despite that huge loss, black appears slightly ahead.]
;W[ng]
(;B[mf];W[mh];B[lh];W[li]
(;B[mi]C[Black appears to be trying to kill the white stones, see variation.]
;W[nj];B[mj];W[ni];B[mk];W[mg];B[lf];W[od]C[Good shot.  If black disconnects this from his group, you destroy the corner.]
;B[pe];W[oe];B[nf];W[of];B[le];W[nc];B[pc];W[ld];B[md];W[lb]
;B[mb];W[nb];B[lc];W[qi];B[pi];W[ph];B[qf];W[ri]C[White finally regains the lead.]
;B[rk];W[rg];B[qg];W[qh]C[In addition to the comments earlier, I feel that both players have a tendency to become fixated on a particular fight and play it out to the finish, regardless of the consequences.

Learn to choose your fights carefully

1 be aggressive when you have supporting strength nearby
2 be cautious when the opponent is strong nearby
3 if a fight is going badly, stop tto re-evaluate and look for ways to limit your loss by conceding some less important stones
4 if you are ahead, do not start big fights with an unclear outcome.

Best wishes on your journey to single digit kyu.])
(;B[qe]C[Easy win for black]))
(;B[qe]))
(;B[kn];W[in];B[im];W[jm]))
(;B[kr];W[kp];B[lp];W[ko];B[mq];W[mo];B[mr]))
(;B[pn]))
(;W[om]
(;B[on];W[pn];B[pm];W[nm])
(;B[pn];W[on];B[pm];W[pl];B[qm];W[ql];B[rm];W[rl];B[sn];W[ol]
C[Not so devastating for white])))
(;W[nn]C[White answers.];B[jf]C[black takes ko];W[gc]C[
 white makes a ko threat elsewhere..];B[jg]C[Now white cannot follow through with his ko threat, oe else black plays at J7 and kills white's G11 group.

In other words, black wins the ko in sente and after that can respond to white's ko threat.  In this situation the ko threat is called 'invalid'.

**Be careful to look beyond the ko itself to see what further profit can be made by the winner of the ko.]
;W[gb]C[and follows through with the ko threat after black connects the ko....]
;B[im]C[now, not only has black saved his J13 dango, but the white group is dead.]
))
(;B[jg];W[ih];B[lg]C[Black is now out in the open safely and attacking Q13.  White has very little territory and black is clearly ahead]
))
(;W[hj]C[Easy.  Black still has a lot of cutting points and you should get some profit in the fighting to come.]
)
(;W[ji]
(;B[hj];W[gi]TR[ii][hj]C[Now you are out into the open as you can capture one of the marked stones and, importantly, having more influence over the right side.]
)
(;B[gi];W[hj])))
(;W[ii]C[Playing here makes your group safe and prepares to attack Q10.]
;B[ie];W[if]C[Doesn't look good for black.]))
(;W[cq];B[dq];W[cp];B[co];W[bo];B[cn];W[dr];B[er];W[cr];B[fq]
;W[bn];B[bm];W[kq];B[jq];W[ng]C[Sure black has some territory round H4 but it's overconcentrated and offset by your 7 points in the corner.]
))
(;W[ie];B[jd];W[mh]C[You have consolidated black's top side in exchange for gripping 15 points around the 3 stones and made a strong claim on the right.]
))
(;B[gd];W[he];B[ge]C[See?]))
(;W[he]C[Tsuke nobi again.  When you have played the attachment at 54, it is very wrong to leave that stone unprotected as black can do a lot of damage with atari from either side.  It is normal to extend.

This 56 leaves a strong follow up at J15 or a cut at J17.

Both players left this position for too long.]))
(;B[mq];W[nr];B[mr];W[no];B[mp];W[qq];B[or];W[pr];B[ns])
(;B[qo]C[Black R5 starts a very difficult fight]
(;W[rp])
(;W[qq];B[qr];W[rr];B[nr];W[mq];B[os];W[ro];B[qn];W[rn];B[qm]
;W[mo];B[rm])))
(;W[oo]C[This formation is normal, called tsuke-nobi (attach-extend). It is more commonly seen after an approach to hoshi but can be used elsewhere on the board too.  The purpose of p4-p5 is to push black and gain strength over the right side, as here and it also creates a black weakness at O3 which black needs to defend.

See also my comment at move 55.]))
