(;FF[4]GM[1]SZ[19]ST[2]CA[UTF-8]AP[SGFC:1.17]VW[]

PB[SaurusDNA]
BR[4k]
PW[suna2002]
WR[3k]
KM[0.5]
DT[2011-03-02]
PC[The KGS Go Server at http://www.gokgs.com/]
RE[B+1.5]
TM[1500]
OT[5x30 byo-yomi]
RU[Japanese]

C[SaurusDNA [4k\]: Hi!

Hi, I'm Saurus.

Please review for the black side.

This game was a nice game, with no mistakes or big losses for either side. In the end, I lost by 1.5 points, and I can't find ANYTHING in this game where I think I could have done better. I am completely stumped as to where I could improve.

I have written down my thoughts for many moves to give you an insight into my way of thinking.

I also asked some questions.

I am hoping that perhaps you will see and point out some key concepts that I might be misunderstanding or missing from my play.

Many thanks
Mark (SaurusDNA)];B[qd];W[dp];B[pq];W[nc]
(;B[qo]LB[cd:A]C[Q17 felt really small here, so I decided to make my lower shimari instead, knowing that o17 is too far from r16 to cause serious pressure.

H: I feel that Q17 was the proper move; see the variations.  This isn't too bad, but White has a great follow-up at A now.]
(;W[jq]C[Already, I can see that white does not want me to build a moyo, and wants to fight. Therefore, I play 4-4 at d16 for flexibility.]
;B[dd]C[H: I feel this was a good exchange for black.];W[cf]
(;B[fd]C[I also considered f17, but I intend to pincer o17 as soon as possible with a low pincer, which would then be misplaced if f16 was at f17.

H: I would prefer f17 here.];W[bd];B[cc]C[I play here, because I intend to play k17, and then I have made some nice potential territory, without having to worry about the 3-3 invasion at c17.]
;W[ci];B[jc]C[My plan all along...];W[qc]C[H: q17 looks too dangerous here...  q16 is the only choice.]
;B[pd];W[pc];B[od];W[nd]C[H: The proper move here is p17]
(;B[rc]C[Looking back, this move doesn't look so good, but I was worried about my shape if white played at s16.]
;W[rb];B[rd];W[ne];B[of];W[qh];B[oc];W[ob];B[pb];W[qb];B[nb]
;W[pa];B[mb];W[oe];B[pf];W[pe];B[qe];W[qf];B[qg];W[rf];B[rg]
;W[pg]
(;B[sf];W[nf];B[og];W[ic];B[jd]C[As far as I can see, this is the only move.]
;W[id];B[ie]C[Big decision here - I still don't know if hane or nobi was better.

On the one hand, if I start a nobi-train, the top left starts feeling intense pressure.

On the other hand, if I hane, I minimize the pressure on the top left, but I don't know if my k17 stones are strong enough to handle the cut at k15.

Was j15 OK here?];W[je]
(;B[ke];W[jf];B[he];W[lc];B[lb];W[jb];B[kb];W[kc];B[kd];W[ib]
;B[mc];W[ld];B[lf];W[le];B[kf];W[ng];B[oh];W[md];B[jg];W[nh]
;B[oi]C[Up till now, I feel OK with the result of this battle. In exchange for 10-odd points on top, I have made 10-odd points of territor on the right, and white's O13 group is still not happy.

H: White's o13 group is fine, and you lost your territory on the top entirely.  I think this is a loss for Black.]
;W[fb];B[mi]C[This was a bad move.

My idea was to force white to kill the n18 group, thereby making outside influence...

H: Yes, this move wasn't forcing at all...]
(;W[na];B[lq]C[But then I changed my mind, because playing down the n-line doesn't really give me any influence.

But OK, white had to o19, and also, it is hard for O13 to get out, so I guess it turned out OK.

I tenuki, and take what I believe to be the biggest point on the board.]
;W[jo]
(;B[cn]C[I felt here that invasion was urgent now, before it becomes impossible. I chose c6 because of miai between c9 and c3.]
(;W[gq];B[ck]
(;W[np];B[oo]C[Protecting my investment on the right...];W[ol]
;B[lo]C[I can't kill p8, so I exchange some of the right side for a large corner.]
;W[no];B[nn];W[mn];B[on]
(;W[mm];B[mo];W[nl];B[kn];W[qm]LB[ka:20][se:7][bg:7][al:4][gr:15]
[pr:27]TR[fa][ra][gb][hb][sc][ad][be][cg][ch][ai][bi][ak][bk]
[cl][cm][an][bn][po][ro][so][ep][fp][hp][ip][lp][dq][cr][dr]
[jr][lr][cs][js][ls]C[H: At this point we should count the territories.  If we calculate the worst case scenarios, we know how much cash each player has.

White: 42

Black: 42 including the k14 captures, but keep in mind that those captures also represent a forcing move for White.]
;B[qj]C[Too small?

Where else was better?

(But also, I was scared of r12 escaping.)

H: I like this move.  It prevents White from forming a base.  White should aim to escape next.]
(;W[qk];B[pj];W[lj];B[mj];W[ll];B[mk];W[km]
(;B[nr]C[Was k6 better?

H: Why not l2?];W[jn];B[ml];W[nm];B[lk];W[kk];B[kj];W[jj];B[bp]
;W[bc];B[cq];W[dq];B[dr];W[er];B[cr];W[dn];B[co]C[Don't like the shape much, but can't see anything better...]
;W[do];B[dm];W[em];B[dl]C[Yuck!];W[mq];B[mr];W[ko];B[mp];W[ln]
;B[nq];W[ki];B[el];W[fm]LB[ka:20][af:8][sh:19][rl:3][an:18]
[hp:23][pr:27]TR[fa][ra][gb][hb][ac][sc][be][cg][ch][ai][bi]
[rj][sj][ak][bk][rk][sk][pl][rm][sm][gn][hn][in][po][ro][so]
[jp][fr][ir][jr][kr][ds][fs][is][ls]C[H: We can count again.

White: 46
Black: 67 including k15

By now, the game looks better for Black.];B[fl];W[gm];B[cg]
C[Thinking of capturing c11.];W[ch]C[I];B[dg];W[bg];B[df];W[ce]
;B[ei]C[It turned out OK.];W[gl];B[gk];W[hk];B[gj];W[hi];B[hj]
;W[ij];B[gi];W[hh];B[hg];W[gh];B[fh];W[gg];B[ih];W[ii];B[gf]
;W[fg];B[eg];W[ff];B[fe];W[de];B[hc];W[hb];B[bb];W[db];B[cb]
;W[ed];B[ec];W[ee];B[fc];W[eb];B[dc];W[gc];B[bj];W[bi];B[dj]
;W[ef];B[di];W[rn];B[ro];W[so];B[qn];W[rm];B[sp];W[sn];B[rp]
;W[kr];B[kp];W[jp];B[es];W[fr];B[pk];W[pl];B[rk];W[rl];B[ai]
;W[ah];B[aj];W[rj];B[ri];W[sk];B[rh];W[fs];B[dh];W[bf];B[hd]
;W[jh];B[ig];W[lh];B[mh];W[ka];B[gd];W[gb];B[ab];W[da];B[ac]
;W[ad];B[ds];W[sb];B[sc];W[kq];B[lr];W[lp];B[op];W[li];B[mf]
;W[ma];B[mg];W[ks];B[ls];W[ca];B[ba];W[sj];B[si];W[bh];B[cj]
;W[ok];B[oj];W[pm];B[pn];W[la];B[cp];W[kp];B[tt];W[tt]TW[ea]
[fa][ga][ha][ia][ja][oa][qa][ra][sa][kb][lb][mb][nb][pb][mc]
[ae][be][af][ag][ji][kj][ik][jk][rk][hl][il][jl][kl][ql][sl]
[hm][im][jm][lm][sm][en][fn][gn][hn][in][kn][eo][fo][go][ho]
[io][ep][fp][gp][hp][ip][eq][fq][hq][iq][gr][hr][ir][jr][gs]
[hs][is][js]TB[aa][sd][ge][je][re][se][hf][if][jf][qf][rf][pg]
[sg][eh][ph][qh][sh][fi][pi][qi][ej][fj][ak][bk][dk][ek][fk]
[al][bl][cl][am][bm][cm][an][bn][ao][bo][no][po][ap][np][pp]
[qp][aq][bq][mq][oq][qq][rq][sq][ar][br][or][pr][qr][rr][sr]
[as][bs][cs][ms][ns][os][ps][qs][rs][ss]C[SaurusDNA [4k\]: Thanks

H: Playing safe near the end of the game was fine, and black remained ahead.

Most of the mistakes were in direction early on, which led to a situation from which you had to claw back.  I would recommend studying pro games fuseki, and looking into the books by Yuan Zhou, which will help to explain the mindset of a strong player.]
)
(;B[kr]
(;W[jn];B[ir]C[H: This hurts White's bottom side. White is safe, so l6 isn't important anymore.]
)
(;W[jr];B[jn]C[H: If White blocks, you can then run out.])))
(;W[nj];B[ni];W[kl]C[H: I'd expect something like this soon.]
))
(;W[mo]C[H: This looks dangerous for Black.]))
(;W[co];B[dn];W[bo]C[H: This is still a reasonable result for W, but g3 is badly placed, compared to f4]
))
(;W[co];B[dn];W[fp];B[ck];W[bo]C[H: This looks too nice, for me.]
))
(;B[cq];W[dq];B[cp];W[cn];B[bn];W[nj];B[ni];W[pn]C[H: I would like to play something like this.]
))
(;W[pn]C[H: This sort of move is nice for White.]))
(;B[ib]C[H: This is a tesuji worth considering.]))
(;B[og]C[H: I would prefer to make this trade first.];W[ph]
;B[sf];W[nh];B[oh];W[oi];B[ni];W[ng];B[re];W[qf];B[rf];W[nf]
;B[qf];W[pi];B[rh];W[ri];B[qj];W[qi];B[sh]C[H: Black is kept small, but White has some attacking chances.]
))
(;B[oc];W[ob]LB[nb:B][pb:A]C[H: A or B]
(;B[pb];W[qb];B[nb];W[pa];B[mb]C[H: This result gives you a weak White floating group.]
)
(;B[nb];W[mb];B[pb];W[na];B[qb]C[H: This result gives you a solid corner, with a strong white group near your h17 invasion.]
)))
(;B[fc];W[bd];B[cc];W[ci];B[lc];W[qc];B[pc];W[pd];B[qb];W[rc]
;B[od];W[pe];B[oc];W[rb];B[of];W[oe];B[ne];W[qe];B[qf];W[re]
;B[nf]C[H: This joseki looks favorable for Black.]))
(;W[cd];B[jp];W[hc]C[H: White can build a micro-chinese on the top, and prepare for fighting, or for building a large framework.  I don't like this result for Black.]
))
(;B[pc]LB[ec:B][kc:A]C[If you play here, as White, I'm not sure how to play next.  my best guesses are A or B.]
(;W[kc];B[dd]C[H: It's difficult to call this result good for White.]
)
(;W[ec];B[lc];W[ne];B[pf]
(;W[kd]LB[jc:A]C[H: I feel this is better than starting an all out fight with A.]
;B[kc];W[jd];B[ld];W[le];B[jc];W[id];B[hc];W[hd];B[gc];W[gd]
;B[fc];W[fd];B[eb];W[dc];B[ci]C[H: This is another possibility, but even if Black gets completely buried, this result doesn't look like White gained.]
)
(;W[jc];B[le];W[ng];B[lg];W[pg];B[qg];W[ph];B[qh];W[pi];B[id]
C[H: Starting an all-out fight feels worse for White, overall.  Black can profit, and it doesn't look like there's ever much danger.]
))))
