(;FF[4]GM[1]SZ[19]ST[2]CA[UTF-8]AP[SGFC:1.17]

GN[2011-06-26a]
PB[lemike]
BR[8k]
PW[juggal]
WR[7k]
KM[0.5]
DT[2011-06-26]
PC[The KGS Go Server at http://www.gokgs.com/]
RE[B+27.5]
TM[1800]
OT[10/300 Canadian]
RU[Japanese]

;B[qd]C[lemike [8k\]: hey
lemike [8k\]: good lucky];W[pp]C[juggal [7k\]: hey! have a nice game and fun!]
;B[dc]C[lemike [8k\]: like your hat];W[dq]C[This move is not wrong, but I think you need to be prepared to pincer the approach stone. Otherwise black's stones seem to work together. This may just be my style however.]
;B[do]
(;W[fp]C[I don't like this. A black group on the left works with b's corner]
;B[cq]
(;W[dp]LB[hp:B][hq:A]C[This helps black. He gets to strengthen his corner while decreasing your liberties.  Also, your stones are inefficient. Would you ever extend 1 space from two stones if the black stones were not there? (I hope not :) ). A and B are the ideal exensions from the two white stones. You should always look for an alternative to any move that creates a formation with 2 stones standing and a stone closer than A or B early in the game (regardless of move order.]
;B[cp]C[Note that your two stones have only half their original liberties, and now a black play at e5 might become a threat. Although th stone at f4 helps the two weak stones, it's realy bad that you are needing to help weak stones on your 4th move. D4 is a terrible move. I see lots of players your level making it and I think it tends to come from the fact that it's easy to predict black's response.]
(;W[de];B[dh]C[Black is gaining already. His stones are more efficeint. This pincer can lead to very complicated positions.]
(;W[cg]C[This is not joseki. See vars for locally joseki moves.]
(;B[dg]C[Slack move by black];W[ce];B[fd]
(;W[ed]C[This helps b much like the problem in the lower left]
;B[ec];W[fe];B[ge];W[gd];B[fc];W[gf];B[he]
(;W[ef]C[ better not to give black a free move];B[fg]C[Black says thanks for the free move]
;W[ff]C[See variation for tewari (move order) analysis.];B[ic]
(;W[oc];B[mc];W[oe];B[qf];W[qb];B[me];W[og];B[qh]
(;W[eo]C[Pushing from behind. Strengthens black. Makes 3 points of black territory and improves black's connection with the marked stone. Your compensation is only a small amount of influence.]
;B[dn];W[kq];B[qn]C[juggal [7k\]: thanks, from Sweden];W[qk]
C[This stone will compete with your upper right for life];B[nq]
C[This is a bad plan by black. Black wants sente to play on left side, starting a fight is not the right plan. Nobody knows how this ends, or who gets sente. Besides black is ahead, why start a fight when you are ahead?]
;W[qq]C[lemike [8k\]: oh then you r a wiking :)];B[oo];W[op]
;B[np];W[no];B[nn];W[mo];B[oi];W[po];B[on];W[pn];B[pm];W[qm]
;B[ql];W[rm];B[pk]
(;W[om]C[The ladder is cute, and fun to read, but the other movee is more valuable.]
;B[pl];W[nm]C[Cute ladder but not as valuable]
(;B[kn]
(;W[ln];B[lm]C[lemike [8k\]: nice];W[ko];B[jo];W[jn];B[km];W[in]
;B[mm];W[mn]C[Kinda painful to give b outside stones compare with variation]
;B[dr]C[Ouch]
(;W[eq];B[fr];W[gr];B[fq];W[gq];B[er];W[ep]C[Soooooo painful]
;B[en];W[go];B[ch]C[With this move b clearly leads. W 50 pts bottom. B 30 left 25 top plus 10-20 on right. W has only one territory worth counting, b has 2 or 3. 

Did you count, or did you think "I have a big territory, I must be OK"?]
;W[bg];B[bh];W[bc];B[rl]C[Game over unless mistake];W[rn]
(;B[lj]C[slack];W[ek]C[Desparate, but at this point it's appropriate since you are loosing.]
;B[fn];W[gk];B[hn];W[gn];B[gm];W[hm];B[ho];W[hp];B[fl];W[gl]
;B[fk];W[fm];B[el];W[em];B[dm];W[fj];B[gm];W[gj]
(;B[hl]C[Did I mention "unless mistake" :)];W[fm];B[im];W[io]
;B[ej];W[ei];B[dj];W[di];B[ci]
(;W[dk]C[Wasting ko threats! You need to read before you play inside]
;B[cj];W[dl];B[em]
(;W[cl];B[fi];W[co];B[cn];W[bo];B[bn]
(;W[il]C[Terrible. Who cares about one or two black stones that are stuck to a huge white wall? They are almost useless!]
;B[mg]C[B should attack your base points in the center are hard]
;W[nb];B[mb];W[hf]C[OH NO... you could die!! not now!]
(;B[if];W[ie]C[Giving black your stones? Wasting Ko threats?]
;B[hd];W[id]C[Wasted ko threat. You still only have 2 liberties]
;B[gc];W[ig];B[jf];W[hh]
(;B[jg];W[jh];B[ii];W[rc]C[Good!!];B[pc];W[pd];B[qc];W[pb];B[rd]
(;W[sb]
(;B[pe];W[od];B[of];W[nf];B[pf];W[ne];B[mf];W[ng];B[ih];W[hg]
;B[jj];W[nh];B[gm];W[mi];B[hn];W[gi];B[fh];W[hk];B[hm];W[jm]
;B[cb];W[bb];B[lh];W[li]
(;B[kh];W[ki];B[ji];W[kj];B[jl];W[jk];B[ik];W[lk];B[kk];W[mk]
;B[ni];W[mh];B[ho];W[jp];B[sd];W[pi];B[ph];W[oj];B[pj];W[sc]
;B[nj];W[nk];B[ok];W[rk];B[sl];W[cc];B[df]C[??];W[db];B[eb]
;W[ca];B[dd];W[ee];B[cf];W[bf];B[cd];W[bd];B[sn];W[ro];B[sm]
;W[eg];B[eh];W[md];B[ld];W[nd];B[lc];W[pg];B[qg];W[qi];B[ri]
;W[fs];B[cr];W[es];B[ds];W[gs];B[so];W[rp];B[sp];W[sq];B[mj]
;W[ml];B[nc];W[na];B[ma];W[kl];B[jk];W[ob];B[oh];W[ea];B[fa]
;W[da];B[ag];W[af];B[ah];W[hi];B[ol];W[nl];B[tt];W[tt]TW[aa]
[ba][oa][pa][qa][ra][sa][ab][cb][rb][ac][ad][ae][ll][km][lm]
[mm][kn][nn][on][qn][jo][lo][oo][qo][ip][kp][lp][mp][np][qp]
[hq][iq][jq][lq][mq][nq][oq][pq][rq][hr][ir][jr][kr][lr][mr]
[nr][or][pr][qr][rr][sr][hs][is][js][ks][ls][ms][ns][os][ps]
[qs][rs][ss]TB[ga][ha][ia][ja][ka][la][fb][gb][hb][ib][jb][kb]
[lb][hc][jc][kc][gd][id][jd][kd][ie][je][ke][le][qe][re][se]
[kf][lf][rf][sf][kg][lg][rg][sg][jh][rh][sh][ai][bi][di][ei]
[pi][qi][si][aj][bj][oj][qj][rj][sj][ak][bk][ck][dk][ek][qk]
[rk][sk][al][bl][cl][dl][il][am][bm][cm][fm][an][ao][bo][co]
[ap][bp][aq][bq][ar][br][as][bs][cs]C[lemike [8k\]: thanks
juggal [7k\]: ty])
(;B[ki]C[??];W[mj];B[lk]))
(;B[nd];W[od];B[ra]
(;W[rb]C[This way is death];B[na];W[oa];B[qa];W[ma];B[nc]C[Only one eye]
;W[lb];B[lc];W[kb];B[jb];W[kc];B[ke]C[w is dead])
(;W[qa]C[If you don't find this move you might die b will use it in ko or time trouble. Solid is simpler and the first line followup is sente for you, gote for you opponent, so you should get it. Did you consider this move before choosing T18? Even if you did, why leave the ko threat?]
)))
(;W[rb]C[Solid is better]))
(;B[pd]C[Now you are in real trouble.]))
(;B[pd]
(;W[od];B[rc];W[rb];B[sb];W[qc];B[rd]
(;W[pb];B[oa])
(;W[pc];B[pa]))
(;W[rc]C[You can cut your losses... this way you only loose a few points total if you end with sente, and also play j15]
;B[od];W[se];B[rf];W[re];B[qe];W[rd];B[sf];W[ie];B[hd];W[id]
;B[gc];W[jf];B[jd])))
(;W[rc]C[This point secures life, makes territory and reduces black. What could be better than that?]
))
(;W[fh]C[If you can't read for sure that you win inside take an outside play]
;B[cl]C[Now if b protects you have 10-20 pts in sente yose]
;W[hf];B[ie];W[rc];B[rd];W[cb];B[db];W[sl];B[sk];W[sm];B[rj]
;W[nb];B[mb]
(;W[fs])
(;W[nk];B[mi];W[ne];B[mf];W[if];B[jf];W[jg];B[kf];W[jj])))
(;W[fh];B[eg]
(;W[gg])
(;W[hf];B[ie]
(;W[mb];B[lb];W[nb];B[lc];W[cb];B[db];W[rc];B[rd];W[la];B[ka]
;W[ma];B[jb];W[nc])
(;W[gg]LB[cj:A]C[Later you get to cover this perhaps. As liberties fill in A becomes dangerous. With this weakness left unresolved a12 might be sente. Your play without reading ruined gave away at least 2 points or 2-4 ko threats for nothing.]
))))
(;B[dj]C[Better to defend]))
(;B[rc]C[Better. W stones have one eye, B can help the 4 in the middle while chasing them]
;W[rb];B[pd];W[od];B[nb];W[ob];B[sb];W[nh];B[ni];W[mh];B[mi]
;W[lh];B[ki];W[jg];B[lf];W[kg];B[je]))
(;W[er]C[Why not this?]
(;B[cr];W[fq])
(;B[eq];W[ep];B[fr];W[es];B[fq];W[cr])))
(;W[mn]C[Just take. Now B's stone is floating in space with unclear purpose.]
))
(;B[mn]C[If you read this ladder out, then that's very good! Problem is it seems black can read ladders too.]
;W[ln];B[mm];W[ml];B[lm];W[km];B[ll];W[lk];B[kl];W[jl];B[kk]
;W[kj];B[jk];W[ik];B[jj];W[ji];B[ij];W[hj];B[ii];W[ih];B[hi]
;W[gi];B[hh];W[hg];B[gh];W[fh]))
(;W[rl]C[This is huge];B[pl];W[mn]C[This way two black stones slowly die of loneliness while you erode black and expand into the center.]
;B[rk];W[qj];B[rj];W[rn]
(;B[qi];W[bi])
(;B[aa]C[There is also bad aji if black ignores];W[pj];B[oj]
;W[om];B[nm];W[ol];B[ok];W[nl];B[mm];W[lm];B[ml];W[ll];B[nk]
;W[kn]LB[bi:B][fm:A]C[White should now get either A or B])))
(;W[jp])
(;W[bi]))
(;W[mc])
(;W[nc]))
(;W[ff]C[Solid is better];B[fg]C[Now this move is gote for black.]
(;W[ef]C[Would you play here with this move order?])
(;W[gg]C[I think you would rather play this])
(;W[bi]C[or this])))
(;W[fe];B[ge];W[ff];B[gd];W[bi]C[Sente makes 2 black stones weak]
;B[hq]C[But this is a problem no matter what]))
(;B[ch];W[dg];B[eh];W[ff];B[fd]C[B plays both sides, W is small and not yet alive]
))
(;W[fe]C[This keeps it simple])
(;W[gd]TR[qd][do]C[This is very popular with dan level players because it's complicated, but right now black has help in both directions so complicated fighting is not good]
)
(;W[ge]C[also good for defense])
(;W[ec]C[Can lead to fighting. White is at a disadvantage here so avoid fighting.]
))
(;W[eo]C[This is another continuation I see often in games around your level, but it's terrible. White pushes from behind, making no new territory, and gaining very little influene, and black responds by making 3 points of territory and making his corner 100% solid.]
;B[dn]))
(;W[cr];B[cp]
(;W[er]
(;B[cl])
(;B[ck]C[Normal locally]))
(;W[br];B[ck];W[iq]C[Or this locally])))
(;W[cm];B[cq];W[cp];B[dp];W[co];B[cn]
(;W[dn];B[bn];W[bq];B[cr];W[bo];B[eq];W[bm];B[en];W[dm]C[Not sure I like this]
)
(;W[bn];B[dn];W[bq];B[cr];W[bl];B[eq];W[kq];B[ce]C[Looks like a game]
(;W[oc])
(;W[od])
(;W[jc]))))
