(;FF[4]GM[1]SZ[19]ST[2]CA[UTF-8]AP[SGFC:1.17]

GN[gtl original]
PB[stndtrkyns]
BR[7k]
PW[SailorSam]
WR[6k]
KM[0.5]
DT[2011-07-06]
PC[The KGS Go Server at http://www.gokgs.com/]
RE[W+22.5]
TM[1800]
OT[5x30 byo-yomi]
RU[Japanese]

C[hi , my name is Mythical and my comments will begin with [M\]:

from what i've seen in your game your biggest problems are reading and leaving weak shapes.


in the beginning of the game you let opponent get good result which affected the rest of your game , so the problem was you didnt read enough.

your second problem was the weak shapes you left over and over , stronger player will always attack weak shapes when he has the chance.
you should try keep your groups strong and connected - dont make it easy for oponnent to attack you.

also , you sometimes attack before you defend .
think about life first , keep your groups safe !
thats the key for you to getting to the next level.

i hope i helped you .]
(;B[pq]C[SailorSam [6k\]: hi enjoy];W[dd]C[stndtrkyns [7k\]: glhf]
;B[cp];W[pc];B[qe];W[qg];B[oe];W[qd]C[[M\]:in situation like this where you dont know how exacly to respond to get reasonable result , i'd suggest to take few minutes to read possible continuations .
because as in your game, making a mess in the beginning of the game will make the game a lot harder than it should be.]
(;B[pd]C[[M\]: this is a bad move , since it lets white to fix her shape and black doesnt get anything good in return , and instead it leaves black with weak spots of his own .]
;W[qc]C[[M\]: white plays solid with no weaknesses to her shape what so ever , and black has very weak shape.
white will definetly get some profit attacking this group.]
(;B[oc];W[re]SQ[pf][nd]C[[M\]: now white is connected and is solid , while black has a group with many weaknesses which white could attack.]
(;B[rf]C[[M\]: you should be able to see/read these things , clearly it doesnt works.]
;W[qf];B[pe];W[rd];B[qh]C[thought this was a good move

[M\]: sometimes its good move , and good that you know it since it can be useful.
in this situation i think you should use it as a probe , just to see how white would reply - meaning use this move lightly .]
;W[rg]
(;B[ph]C[maybe P12 better?

[M\]: Q 12 is trying to surround white , but before you do it , try to read if it will work or will give you problems.

p 12 is not good (see variation)
i would just play L 16 (see variation)];W[pg];B[og];W[oh];B[rh]
;W[oi];B[qk];W[of];B[ng];W[nf];B[pf];W[sf];B[ne];W[mf];B[mg]
;W[me];B[md];W[ld];B[mc];W[lc]
(;B[le]C[[M\]: must live first , leave this thing for later .

this is also important part in getting stronger , you must try and find right timing for moves like this.
you are still not alive and and already trying to cut him.
most chances this will not work now , so not only that you leave your group weak , but also you ruin your chance to use this move later (when you make your group alive).
if white fixes his shape before you can use this move , then atleast you will have sente , maaning you can decide how the game will continue.]
;W[lf];B[ke];W[lg]
(;B[mh];W[mb]C[[M\]: now black is dead  :(

either way now , you cant expect good result in this area.
white has many points and a lot of influence towards the center and the top area.]
;B[nc];W[nb];B[lh];W[kg];B[lb];W[kb];B[kc];W[la];B[kd];W[lb]
(;B[jh]C[[M\]: this doesnt works .

there is a proverb (sort of) , dont attack when you are weak , make yourself strong first .
and this didnt work anyways , but i guess you had to try.];W[jg]
;B[ig];W[jf];B[if];W[kh];B[ki];W[ji];B[je];W[ih];B[kf];W[jh]
;B[jb];W[ob]C[this was a screwup never meant to lose these stones

[M\]: you mean "misread"  :)
happens to the best of us...
but this game is already clear resign and probably nothing can be done.]
;B[kj];W[ok];B[hh]TR[ie][hg][jc]C[use dead stones to maximum efficiency

[M\]:yes but must also remember that you have many weakspots.]
;W[jj];B[jk];W[ij];B[ik];W[hj];B[mj];W[om];B[qn];W[ml]
(;B[ll]C[[M\]: "dont touch weak groups" with this move you are making his group stronger.
try to attack from distance.];W[mk];B[lm];W[lk];B[kk];W[nj]
(;B[ni]C[[M\]: dont quite see the point in this move , gives white extra forcing move (atari)]
;W[lj];B[li];W[mi];B[gj];W[hk];B[mj];W[mm];B[mn]CR[ln][kl]C[[M\]: remember to be careful .]
;W[mi];B[hl]
(;W[nh]C[[M\]: this is mistake by white , he should not be afraid for his group , it has many many ways to live.]
;B[gk];W[nd];B[hi];W[od];B[cf]C[[M\]: first you have to fix weaknesses .
the key to become stronger is to try and keep your groups strong.
if you have weakness fix it (preferebly with good shape)
if oponent has weakness attack it.]
(;W[fc]C[[M\]: im not sure if this good move by white , he gives you the time to fix your weaknesses , i would probably attack right away.]
;B[cc];W[dc];B[cd]
(;W[ie]C[[M\]: might be bad now , since  his group will become weak after this.]
;B[he];W[id];B[hd];W[ic];B[hc];W[ib];B[hb];W[hf]C[[M\]: too early by white , should keep this aji (weakness potential) for later .]
;B[hg];W[ia];B[de];W[fe];B[ff]C[thought this was dead as he abandoned it next move

[M\]: dont follow around your oponents moves too much.
white has some space and shape there he could live.]
(;W[iq];B[gq];W[lq];B[mr]
(;W[lo]C[[M\]: this white move helps to fix black weakness and make him a lot stronger.]
;B[ln];W[mq];B[lr];W[kr];B[nq];W[np];B[oq];W[io];B[go];W[ko]
;B[jr];W[jq];B[ks];W[kq];B[ir];W[gl];B[hm];W[fl]
(;B[gi]SQ[fl]C[[M\]: white's move is not sente.
if you want to fix something i'd start with your center group , since it is still weak.]
;W[jm];B[jn];W[kn];B[km];W[im];B[il];W[in];B[gn];W[ck];B[ci]
;W[cn];B[bm];W[cm];B[bl];W[cl];B[bn];W[di];B[ch];W[en];B[el]
;W[em];B[ek];W[ep];B[eq];W[dp];B[dq];W[co]
(;B[bp];W[fp];B[gp];W[ej]
(;B[dj]C[[M\]: you are playing with fire here , better play safer move especially with stones that can be killed.]
;W[dk]
(;B[cj];W[fk]C[[M\]: now white is alive.];B[ei];W[dl];B[bk]
;W[ql];B[rl];W[rk];B[rj];W[rm];B[sk];W[qm];B[rn];W[sm];B[sl]
;W[sn];B[rp];W[pn];B[po];W[oo];B[pp];W[pk];B[pj];W[pi];B[qi]
;W[fi];B[eh];W[fh];B[fj];W[gf];B[ge];W[eg];B[ek];W[gm];B[hn]
;W[fn];B[ha];W[ja];B[so];W[fq];B[fr];W[bo];B[gr];W[ap];B[aq]
C[[M\]: very bad move , you should try read situation like this.
i understand its byo yomi time , but this is very famous trick tesuji , you should know it.]
(;W[ao];B[bq];W[nn];B[mo];W[mp];B[kl];W[sh];B[si];W[sg];B[qj]
;W[oj];B[an];W[fo];B[hq];W[ip];B[tt];W[el];B[ej];W[op];B[jl]
;W[no];B[hp];W[cb]C[craziest thing ever I can't believed I passed as a move once]
;B[bb];W[ee];B[fd];W[ed];B[ef];W[gd];B[gc];W[gb];B[gg];W[eb]
;B[fa];W[fb]
(;B[ca];W[ga];B[ea];W[da];B[db];W[gf]
(;B[fd]C[[M\]: you have sort of double ko , and white has much more threats so you probably cant win this.]
;W[cb];B[ba];W[gd]
(;B[db]C[massive blunder

[M\]: you must save your stones.];W[hf];B[fg];W[cb];B[bc];W[db]
;B[tt];W[tt]TW[ea][fa][ha][ka][ma][na][oa][pa][qa][ra][sa][hb]
[jb][pb][qb][rb][sb][ec][gc][hc][jc][kc][mc][nc][oc][rc][sc]
[fd][hd][jd][kd][md][pd][sd][ge][he][je][ke][le][ne][oe][pe]
[qe][se][kf][pf][rf][ni][mj][nk][nl][ol][pl][dm][fm][nm][pm]
[dn][jn][on][do][eo][jo][jp][kp][lp]TB[aa][ab][ac][ad][bd][ae]
[be][ce][af][bf][df][ag][bg][cg][dg][eg][ah][bh][dh][fh][gh]
[ai][bi][di][fi][ri][aj][bj][sj][ak][rk][al][am][qo][ro][qp]
[sp][cq][qq][rq][sq][ar][br][cr][dr][er][hr][nr][or][pr][qr]
[rr][sr][as][bs][cs][ds][es][fs][gs][hs][is][js][ls][ms][ns]
[os][ps][qs][rs][ss]C[SailorSam [6k\]: ty gg])
(;B[hf]))
(;B[hf]))
(;B[ga]C[[M\]: white is dead :)]))
(;W[bq];B[ao];W[cq];B[ap];W[ar];B[an];W[cr];B[dr];W[ds];B[er]
;W[bs]C[[M\]: white is alive .]))
(;B[fk]C[[M\]: must.]))
(;B[fk]C[[M\]: very important to defend this.]))
(;B[bo]C[[M\]: safer connection.]))
(;B[gn]))
(;W[ln]C[[M\]: in my opinion he should have tried something like this.
since your group is still weak , white can try and make her group alive in sente .]
))
(;W[gb];B[ha];W[eb];B[cb];W[ee];B[ef];W[ga];B[ea];W[da];B[db]
;W[fa]C[[M\]: alive.]))
(;W[ic]C[[M\]: i think now white must save his group .];B[jc]
;W[ib];B[id];W[ja]))
(;W[ie]))
(;W[gk]MA[kj][ki][li][lh][mh][mg][ng][og][kk][jk][ik][ll][lm]
[hl][hh][ig][if][je][ke][le][kf][kd][kc][jb]C[[M\]: this is gold move for white.

these groups are very weak , once white fixes his group he will try to kill something - and will probably succeed.]
))
(;B[mi]C[[M\]: just this. (now there is no ko)]))
(;B[kl];W[mn];B[ko];W[mp];B[kq]C[[M\]: white will probably live , but you will gain some profit by attacking it .]
;W[po];B[pn];W[on];B[qo];W[pp];B[qp];W[oq]C[[M\]: just one exampe.]
)
(;B[km]))
(;B[hd]C[[M\]: perhaps try to make your group healthier?

but still though , this game is kinda over and you have to worry about a lot of things (besides catching up in points)]
)
(;B[nj]C[[M\]: i would just capture the 2 stones for now.]))
(;B[nb]C[[M\]:still not too late.];W[mi];B[kc]))
(;B[nb]C[[M\]: this is probably the best move for life.];W[nd]
;B[od]
(;W[lb];B[pb];W[mb];B[nc];W[qb];B[oa]C[[M\]: alive.])
(;W[pb];B[lb];W[kb];B[ma]C[[M\]: alive.])))
(;B[oh]TR[ph][of][og]C[[M\]: P 12 doesnt do anything , and is very thin.
white can easy cut the black stones (they are not connected)]
;W[og];B[ng];W[of];B[nf];W[ne]C[[M\]: easy target for white to attack.]
)
(;B[kd]C[[M\]: just to make some sort of base , now black is ok !
he cant be easily attacked , and can play elsewhere.]))
(;B[qf];W[rf];B[pg];W[pf];B[pe];W[ph];B[of];W[qi];B[jd]C[[M\]: something like this perhaps]
))
(;B[qf]C[[M\]: you might think about playing this move];W[nd]
;B[rg]C[[M\]: White gets a lot of profit on top , but atleast black has created safe group out of that mess.]
))
(;B[re]C[[M\]: this move probably would not be good either , since white plays O 16 and she is looking good.]
;W[nd])
(;B[rd];W[rc];B[pd];W[qc];B[oc];W[ob];B[nc];W[nb];B[mc]C[[M\]: this would be normal continuation , white gets some corner teritory and black gets a wall which he can use later to attack the R 13 stone or perhaps build something else .]
)
(;B[qf]C[[M\]: black can also try to make himself stronger so that he could pressure white's corner.]
;W[pg];B[oc];W[od];B[nd];W[pd];B[of];W[nc];B[md]C[[M\]: now white will have to choose if he wants to keep top group big and healthy or to defend her R 13 stones.]
(;W[qk]C[[M\]: if she defends the stones];B[ob];W[nb];B[mb]
;W[pb];B[mc];W[oa]SQ[mb][mc][md][nd][oe][of][qf][qe]C[[M\]: black will make his group a lot stronger]
;B[fc]C[[M\]: and now he can make this extension.

any fight that will happen on top area or some of the top center area , black will have advantage there.

white got corner points and gave some health to his right side group , while black gained strong group with influence which he could use to make some points or attack something later.]
)
(;W[ob]C[[M\]: if White decides to fix the aji];B[qj]C[[M\]: black will of cource attack the 2 stones.]
)))
(;B[sg]))
