(;FF[4]GM[1]SZ[19]ST[2]CA[UTF-8]AP[SGFC:1.17]

PB[stndtrkyns]
BR[7k]
HA[3]
PW[shu7584]
WR[4k]
KM[0.5]
DT[2011-07-03]
PC[The KGS Go Server at http://www.gokgs.com/]
RE[W+Resign]
TM[1200]
OT[5x30 byo-yomi]
RU[Japanese]

AB[pd][dp][pp]C[X: Hi, I will put my comments with "X:" preceding it. I am Steve, or "Xue" (hence the X), roughly 3 kyu.

Comments: Alright, I'll leave it at this for now, and send it to you. There are a couple of comments that I didn't understand, so this way you get the first feedback and can ask again, just email me at lifesayko@gmail.com (preferably send the .sgf again).

In general: My impression is you should pay more attention to the direction of play. Sometimes the moves are good locally, but don't fit with the big picture. Sometimes it seems you're too concerned with a particular part, but then it creates difficult situations somewhere else on the board, which makes a chain-reaction of difficult situations.]
;W[fq];B[cn]C[shu7584 [4k\]: hi
stndtrkyns [7k?\]: glhf];W[de]
(;B[dr]C[like the big corner

X: In my opinion this is a bit slow, too over-concentrated.]
;W[cl];B[cj];W[dg];B[ej];W[el]
(;B[fk];W[fm];B[hq];W[gp]
(;B[kq];W[hp];B[ip];W[nq]
(;B[pr];W[qn];B[on]C[X: Yes, keep the groups split.];W[io]C[stndtrkyns [7k?\]: how my play so far?]
;B[jp];W[mo]C[shu7584 [4k\]: good]
(;B[pl]C[stndtrkyns [7k?\]: what do you think about Q2? and the follow up?]
;W[po];B[oo]C[shu7584 [4k\]: a littlt lower];W[qp]
(;B[oq];W[qq]C[stndtrkyns [7k?\]: um what?
X: uhm what what? Please, more specific questions :)
In anycase, no need to answer here....bad shape in fact.

I just realized these are not comments to me, but your conversation to shu >__< lol :)]
(;B[pq];W[qr];B[np];W[mp];B[kn]C[shu7584 [4k\]: Isaid lower
wasn't so sure which move he meant maybe the cap was wrong?

X: ? Which cap? What do you mean, "which move he meant?" I don't follow... :\\

Split is good];W[ln];B[jn];W[in]
(;B[lm];W[mm]C[stndtrkyns [7k?\]: as in too low?];B[ll]C[stndtrkyns [7k?\]: or you mean play an attachment?

X: Is there a conversation I can't see? :( Don't get it...]
;W[lp];B[kp];W[nm];B[pm];W[nk]
(;B[im]C[X: Not sente, which direction do you want to go?];W[hm]
;B[hl];W[gm];B[il];W[en];B[dm];W[dl];B[fl];W[do];B[co];W[em]
;B[eo];W[dn];B[fo]C[X: ??? This seems very odd. Are you trying to kill the entire group?]
;W[ep];B[eq];W[fp];B[nn]
(;W[mn];B[mk];W[ok]
(;B[pj]
(;W[nr];B[lq];W[mq];B[pk];W[mj];B[nj]C[X: Seems a bit risky. You should be able to see a good outcome before cutting.]
;W[oj];B[ni];W[oi];B[nh];W[pi];B[qi];W[qh];B[rh]
(;W[ri];B[qj];W[rg];B[ph];W[sh];B[oh];W[lr];B[kr];W[ks];B[ms]
;W[ns];B[ls];W[mr]
(;B[ls];W[ps];B[nl]C[messed this up when he cam back to it]
;W[pg];B[qf];W[qg];B[pb];W[pf];B[qe];W[nf];B[mf]
(;W[ne];B[me];W[nd];B[md];W[nc];B[rf];W[ob]C[played on instinct was sorta in time pressure

X: Ok, not too bad at this point. But pay attention to the direction of play. Black now is very much behind on territory. (And bottom left corner is ignored by both players, I don't understand this >__<, worth so much, costs only 1 move for either side.)

Black does however have 2 huge walls. The key to winning here isn't "I have to kill something big", but to materialize these walls or "moyos" into territory in the center and top.]
;B[oc];W[lc];B[mc];W[mb];B[kc];W[ld];B[kb];W[lb];B[kd];W[le]
;B[ke];W[kf];B[lf]C[this was too tempting

X: But black just rebuilt a wall again, 2 lines inside....without starting on an opposite wall. Black needs to attack the two white stones in the top left, be aggressive, so that you can plant down a couple of "netting" stones.]
;W[jf];B[gc]C[X: I think black needs to be even more aggressive at this point, perhaps F16]
;W[jh]
(;B[ng];W[om];B[pn];W[ol];B[qo];W[ro]
(;B[qm];W[rn];B[rm];W[rk];B[no]C[X: Still dead, and now gote.]
;W[rl];B[rj];W[sj];B[of];W[oe];B[pe];W[og];B[oa];W[nb];B[sf]
;W[sg];B[sl];W[mg]C[shu7584 [4k\]: thx])
(;B[rn]C[X: Only way, with ko.]))
(;B[lh]C[X: Better shape, more solid connection, puts more pressure on white.]
))
(;W[ng];B[mg];W[nd]))
(;B[qs];W[jr];B[ir]C[X: Dead. And right group weak, needs attention, so black can get sente.]
))
(;W[qg];B[rg];W[qf]C[X: Fight, outcome uncertain. Pretty positive or black though.]
))
(;W[pk]C[X: "Black says -cut me!" Why leave a gap?]))
(;B[pk];W[nr];B[lq];W[mq]C[X: Now, would you play simply Q10? Of course not, jump or keima, whatever, but much faster.]
))
(;W[cp]C[X: Your big corner is destroyed! With a single stone :( This needs to be defended.]
))
(;B[mk];W[nj];B[pi]))
(;B[kk]C[X: If you're trying to live, play contact. If you're trying to kill, play near but not contact. And even better, attack threatening to kill, but actually to create influence and secure territory.]
))
(;B[kn];W[pq];B[op];W[or];B[nr]C[X: Cutting is impossible.]
))
(;B[op];W[qq]C[X: Still connected.]))
(;B[kn]C[X: Keep groups split up. Left gropu is strong now, but not yet completely alive. If it connects, it becomes easy for white to escape into the center with everything. Also, the middle black group is still somewhat weak. If it gets closed in, then it's strength becomes useless and weak, so breaking out into the center is important.]
))
(;B[oq];W[np]C[X: Same shape again, however because of black's presence in the lower center, white's "influence" is useless, and the white group becomes heavy and adrift.]
))
(;B[hp]C[X: This shape is nice for black. Black gets a strong shape with plenty of influence, which work nicely as a moyo with the bottom right corner.]
))
(;B[go]C[X: Divide and conquer. If you don't like getting cuts, a more solid jump is also ok, but black shouldn't push white to connect, that's what white wants!]
))
(;B[hq]C[X: If black wants to attack the white stone, then black should push it towards it's strength. remember "Play away from strength", valid both for your own strength and the opponent's.]
)
(;B[eq]
(;W[fp];B[jp]C[X: If you like the large corner, why not this? White would probably make a one-space jump at the square to try and be lighter, but black in anycase takes a large corner, while still attacking the white stones.]
;W[fo])
(;W[fo];B[jq])))
