(;FF[4]GM[1]SZ[19]ST[2]CA[UTF-8]AP[SGFC:1.17]

GN[2011-07-11b]
PB[SilverHawk]
BR[2k]
PW[greyhound]
WR[1k]
KM[0.5]
DT[2011-07-11]
PC[The KGS Go Server at http://www.gokgs.com/]
RE[B+Time]
TM[600]
OT[5x20 byo-yomi]
RU[Japanese]

C[forfun (hereafter ff) - First of all thanks for providing an interesting game to put on the board and analyze. I had an enjoyable time preparing the review. Both players showed lots of fighting spirit. If there is one single piece of advice that I would give to Black it would be, "Finish what you start!" Many times during the game Black played a few moves in an area and then played away. These means giving you opponent many opportunities to exploit. To become stronger at Go we all have to learn to play the reality on the board. We are all weaker to the extent that we are willing to leave things unfinished and just "hope for the best" when fighting continues in the future.]
;B[qd];W[dd];B[pp];W[dq];B[co];W[cm];B[eo];W[fp]
(;B[dl]C[ff - See the variation for an alternative...];W[cp]
(;B[dm]C[ff - This is a mistake in direction. Why? Because these stones can not accomplish much toward the right after White has played the F4 stone. Joseki is to play down at C8 to build strength up the left side, see the variation.]
;W[bo];B[cn]C[ff - Pretty pointless. Black would do better here by just playing C8 instead.]
;W[bn]C[Q: I feel like I came out way worse in this corner.  Should I have done something differently?

ff - See earlier comments. You are correct that Black is dissatisfied. The Black stones achieve little while White's corner is big.]
;B[oc]
(;W[qj];B[qh];W[qn]
(;B[nq]C[Q: In retrospect, this was probably too defensive, but the kick felt like it would help W out.  Was there a better response?

ff - See the variation.];W[rp]
(;B[qq]C[ff - May not be the best here. See the variation...]
;W[pl]C[ff - Compare the variation on White 16. White's position is a little bigger and can not be flattened out nor easily invaded. However, White has used four stones instead of three and Black has sente.]
(;B[cl]C[ff - Black plays away from the lower right and pays the price when White immediately plays M3. Black would have been better off to extend on the lower side in order to prevent White from getting full value from the F4 stone. See the variation...

Locally Black should probably cut at B7 instead. Here if White ever comes back and connects at B7, Black will still be open at the side. See the second variation...]
;W[lq]
(;B[jq]C[Q: Too ambitious?  Maybe a shoulder hit or something else would have been better?

ff - White' sM3 directly threatens the life of the lower right group. Black has to defend first, and worry about the bottom side later. See the variation...]
;W[kp];B[gq];W[fq];B[fr];W[er]
(;B[hr]C[ff - This is a fundamentally flawed idea that takes a nice, light group and makes it a heavy burden. G3 and F2 are good as forcing moves, but they should be understood as forcing moves. Now Black should want to move out quickly. See the variation...]
;W[fs];B[gp]C[ff - Forcing a response where White wants to play anyway!]
;W[fo]C[ff - Ouch! White starts to hurt the left-side stones...]
;B[kr]C[ff - A very damaging play for the lower right.];W[lr]
;B[jd]C[ff - Black has two weak groups at the bottom, neither of which are alive. So he turns to the top. This can not be done.

In addition, this is not the right direction. The left side Black stones have been weakened by White F5. Looking just at the upper left, Black should play C14.]
;W[rq]C[ff - White sets out to lock up about fifty points in the lower right.]
;B[rr];W[pr]C[Q: I feel like I really botched this corner.  How could I have defended better?

ff - See previous comments.];B[qr];W[oq];B[op];W[nr];B[fc]C[ff - Black plays away again. Basically Black has just used up three large ko threats in the lower right for no reason.

Again this should be C14. Black just invites White to play against the left-side Black stones.]
;W[cf];B[db]C[ff - See previous comment.]
(;W[ld]C[ff - Now White returns the favor. Up to here White was looking like a sandbagger masquerading as a kyu player. :-) See the variation...]
(;B[kc];W[cc];B[ch]C[ff - Good choice!];W[lg]C[ff - With this jump, most of the pressure is off the White stones.]
;B[oh]
(;W[lc]C[ff - See the variation...];B[om]C[ff - Good idea. Black needs to do something with these stones in order to stay in the game.]
;W[ol]
(;B[nm]C[ff - Is this heavy? See the variation...];W[mk]
(;B[fe]C[ff - Bad idea :-) It is not time to leave the bottom alone.]
;W[cb];B[eb]C[ff - Maybe a ten-point gote play?];W[km]C[ff - Fundamental bad shape, begging Black to play at M8. If White had played M7, Black looks dead?]
;B[ll]C[ff - Black answers the call! :-)];W[ml];B[pn];W[qo]
;B[pm];W[qm];B[mo]C[ff - A good choice for trying to make eyes. But is it too ambitious here?]
(;W[ln]C[ff - This looks like it assures Black of life. The question is what about T2? See the variation...]
;B[sr]
(;W[no];B[mp];W[hn];B[ip]C[ff - Good, the key point for eyeshape.]
;W[gr]
(;B[hs]C[ff - Dangerous? Should this be at J2 to be sure of living? See the variation on White's next play...]
(;W[ho]C[ff - Not the killing play.];B[hp];W[ir];B[iq];W[kb]
C[ff - The center looks bigger than this.];B[jb]
(;W[kd]C[ff - Thank you White! This erases the bad aji in Black's position. See the variation...]
;B[jc];W[nb];B[ob];W[oe];B[nd]C[Q: I feel like there was a better response than this...]
;W[ne];B[hk];W[pd];B[qc];W[qe];B[re];W[qf];B[rf];W[rg];B[qg]
;W[rh];B[ri];W[qi];B[rj];W[ph];B[pg];W[og];B[pf];W[pe];B[pi]
;W[of];B[ph];W[nh]C[Q: Obviously my shape here is awful.  Was there some way I could have avoided it?

ff - Shape is only a general guide. Black has successfully connected along the side after playing away in order to gain the upper hand in the center. He also has sente to play against the upper left. Black should be very happy with this result.]
;B[pj];W[qk];B[bg];W[bf];B[eg];W[bm]
(;B[bl]C[ff - Black follows White. Isn't the center larger than this?]
;W[cg];B[bh];W[hi]
(;B[ii];W[ih];B[ij];W[hg]
(;B[gh]C[ff - The White stones are too strong to make them heavy with a play like this. See the variation...]
;W[hh];B[lk];W[gi]C[ff - Black can not keep White out.];B[fh]
;W[fj];B[li];W[mj];B[lj];W[fl];B[mm];W[lm];B[mi];W[ni];B[nl]
;W[ok];B[kh];W[kg];B[jl];W[jm];B[il]
(;W[jk]C[ff - Big mistake?];B[jh];W[jg];B[jj])
(;W[jh]C[ff - Is Black dead after this? The direction of play with J11 has not turned out well.]
(;B[ji];W[jk];B[kk];W[lh])
(;B[jk];W[ji];B[jj];W[kl])
(;B[gl]
(;W[hm]
(;B[fm];W[gk];B[hl];W[gm])
(;B[gm];W[fm];B[gn]))
(;W[gm]
(;B[fk];W[ek];B[gk];W[fm];B[im];W[hm];B[in];W[io]
(;B[jn];W[jo];B[kn];W[lo];B[ko];W[lp];B[jp];W[np];B[oo];W[mq]
;B[nn];W[mn];B[po])
(;B[jo]
(;W[jn]
(;B[jp]
(;W[lo];B[mq];W[mr];B[ko];W[lp];B[mn];W[ji];B[pq];W[or];B[ls]
;W[kl];B[kk];W[jj];B[jk];W[hl];B[ps];W[lh];B[os];W[ki];B[ns]
;W[kj];B[ms];W[mh];B[ik];W[gj])
(;W[mq]
(;B[np];W[ko];B[ls];W[ms]
(;B[ks];W[lo])
(;B[kl];W[ji];B[ks]))
(;B[lo];W[ko];B[np];W[kq];B[jr];W[ms];B[el];W[dj];B[fn];W[go]
)))
(;B[ko];W[lo]))
(;W[jp];B[jn];W[lo];B[mq];W[kq];B[jr])
(;W[ko];B[jn];W[jp];B[mq];W[mr];B[kl];W[ji];B[jj];W[ki];B[kj]
(;W[jk])
(;W[hj];B[hl];W[jk];B[pq];W[kq];B[jr];W[or];B[mn];W[lh];B[ps]
;W[mh];B[ls];W[gj];B[ms];W[kn];B[ns];W[os];B[ks];W[qs];B[lp]
;W[kk];B[ik];W[jk];B[ej];W[el];B[dk];W[ei];B[dj]
(;W[fi])
(;W[eh];B[dh];W[fi];B[gf];W[rs])))))
(;B[fm];W[gk];B[hm];W[gn];B[im];W[in])
(;B[im];W[in];B[fk];W[ek];B[gk];W[hm];B[el])))
(;B[gk];W[gl];B[fk];W[ek];B[el];W[dj];B[gm];W[fm];B[hm];W[gn]
)
(;B[hm];W[gl];B[gm];W[en];B[fm];W[em];B[el]
(;W[dn];B[fn];W[do];B[go])
(;W[fn];B[gj];W[gk];B[hj];W[fi];B[in];W[im];B[hl];W[fk];B[io]
;W[mq];B[np];W[ko];B[ls];W[ms];B[ks];W[jn];B[os];W[ps];B[or]
;W[ns];B[or];W[pq];B[qs];W[os];B[qp];W[dj];B[cj]))))
(;B[gi]C[ff - More appropriate with this shape?];W[gh];B[fi]
))
(;B[hg]C[ff - It seems more natural to squeeze White this way. Black takes profit at the top.]
))
(;B[jg]C[ff - Would something like this be bigger?];W[bk];B[bl]
;W[al];B[cj]))
(;W[mb]C[ff - This would have been more trouble for Black. White threatens both the left and the right.  See the variations...]
(;B[ob];W[ih]C[ff - White plays around the outside but always looking into the heart of Black's group...]
;B[gk];W[ic];B[jc]C[ff - This kind of aji is waiting in this group.]
;W[gd];B[fd]
(;W[ib]
(;B[ka];W[la]C[ff - White is always ready to play this ko...]
)
(;B[ja];W[ie];B[id];W[hd]
(;B[hc];W[gc];B[hb];W[gb];B[ia];W[hf];B[ga];W[fb];B[fa];W[ec]
;B[he];W[ge];B[gf];W[he]
(;B[hg])
(;B[je];W[hg];B[le];W[me];B[lf];W[mf];B[jf]
(;W[ke])
(;W[kf];B[ke];W[kg])))
(;B[he];W[ge];B[gb];W[hc];B[hf];W[gf])))
(;W[ie];B[hb];W[ik]))
(;B[jf];W[pc])))
(;W[ir]C[ff - Playing here directly makes it tougher for Black...]
(;B[iq];W[hp];B[ho];W[go];B[hq];W[io];B[jo];W[in];B[ko];W[lo]
;B[lp];W[kq]
(;B[jr];W[np])
(;B[mr];W[mq];B[np]
(;W[jr])
(;W[ms])))
(;B[hp];W[iq]
(;B[ks];W[is])
(;B[is];W[ks]))))
(;B[ir];W[hp];B[ho];W[go];B[hq]))
(;W[mn];B[nn];W[np];B[no])
(;W[mp]
(;B[np];W[mn];B[nn];W[oo];B[po];W[no];B[mq];W[lo];B[mr];W[ms]
;B[or];W[os];B[pq];W[or];B[qs];W[ls])
(;B[no]
(;W[po];B[oo])
(;W[ip];B[iq];W[go];B[hp];W[gr];B[jp];W[io];B[jo];W[in];B[jn]
;W[jm];B[lo];W[ko];B[kn];W[lm];B[lp];W[kq];B[jr];W[mq];B[np]
(;W[ms];B[ks];W[ls];B[is])
(;W[ks];B[js];W[ls];B[ms];W[mr];B[pq];W[or];B[ps]))
(;W[gr];B[ip];W[ir];B[hs];W[hq];B[iq];W[is];B[hp];W[gs];B[hq]
(;W[in];B[hn])
(;W[hn];B[in];W[im];B[jn];W[kn];B[jm];W[jl];B[hm];W[il];B[gn]
;W[hl];B[gm];W[gl])))))
(;W[sr]C[ff - If White keeps the pressure on, can both groups survive?]
;B[mq];W[mp];B[np];W[lp];B[mr];W[ms];B[pq];W[or];B[ns];W[os]
;B[qs];W[ls];B[lm];W[mm];B[ln];W[lo];B[mn];W[kn]C[ff - White drives the group out into the center with only one eye.]
))
(;B[lm]C[ff - Black can not walk away here. White's N9 stone has increased the size of the loss if Black does not live here. Black should also be conscious of the fact that the White stones at the bottom can be attacked. They do not have two eyes either. The urgent part of the board is around here, not in the upper left.]
;W[kn];B[kl]))
(;B[mm]C[ff - Is something like this lighter and easier for Black?]
;W[nl];B[mo]C[ff - The White stones  will be reduced to one eye if Black plays N3, so White faces some threats here as well as Black.]
))
(;W[mj]C[ff - The flow of the game is around here. White encloses the bottom while reaching out to the top at the same time.]
))
(;B[kf]C[ff - I think that Black would prefer to play something from this direction. If Black can keep pressure on the White stones and build some strength facing the center, it will be easier to do something with the weak stones along the bottom.]
))
(;W[ci]C[ff - What did Black plan to do against this?]))
(;B[io]C[ff - Black jumps out quickly.  This takes these stones out of danger and also prepares help for the lower right...]
;W[rq];B[no]C[ff - instead of responding directly, Black jumps out, turning against the two White stones.]
;W[kn]C[ff - If White jumps out, Black can go back and defend in the corner...]
;B[rr];W[pr]C[ff - this no longer works because of the O5 stone...]
;B[qr];W[nr];B[mr];W[oq];B[mq];W[op];B[oo];W[hn]C[ff - If White turns back against the bottom...]
;B[go]C[ff - Black always has a back door, created by the forcing play at G3 :-)]
;W[ho];B[gp];W[fo];B[gn];W[hp];B[iq];W[hq];B[hr]C[ff - Thanks to the play at F2]
))
(;B[rq]C[ff - Black should just play here.  Any other choice will leave these stones weak so that Black will not be able to play effectively on the bottom side.]
;W[gn];B[gl];W[lo];B[cf]C[ff - I think that Black should be expecting something like this. How well Black can reduce the bottom side is a question for later. If Black can not afford to play like this, then C8 was the losing move!]
))
(;B[kq]C[ff - This would make Black fully safe and limit what White can do with the lower left. However, Black does have the feeling of being overconcentrated. Black would rather not have played the R3 stone since together R3 and L3 create an over-concentrated shape. So in the end, Black is dissatisfied after choosing O3. He would have been happier to have invaded at R8 instead, or to have played L3 directly instead of R3.]
)
(;B[bm]C[ff - Black is willing to give up a stone in order to ensure that he can close the side. If White pulls out the stone...]
;W[cl];B[ck];W[bl];B[bk];W[am];B[ej]C[ff - Black is happy with this result.]
))
(;B[kq]C[ff - Black should definitely have considered this.]
;W[qq]C[ff - If White plays here, Black still has opportunities to invade at R8 and meanwhile has reduced the opportunities for White to make use of the F4 stone. The basic shape formed by three stones on O3, Q4, and R3 is overconcentrated. That is why White will so often rush to play S4 when Black answers an approach move with O3. Black should always consider whether answering S4 with R3 is worth it or not. Here it probably is not!]
))
(;B[ql]C[ff - There is a lot of professional experience with the position on the right side of the board. The pros will most frequently invade immediately at R8...]
;W[on];B[nq];W[rp];B[pk];W[qq];B[kq]C[ff - Black is happy to get this in to avoid letting White develop from the high stone on F4.]
;W[iq]C[ff - White probably chooses this, again due to the F4 stone.]
;B[pq]C[ff - The Black stones are settled now...];W[pj];B[nk]
;W[oj];B[ok];W[ph]
(;B[qg]C[ff - If Black pulls back...];W[mi]C[ff - White jumps out.]
;B[lk];W[ki];B[qp]C[ff - Note that Black has the following combination to connect his stones...]
;W[rr];B[qr];W[rq];B[pn];W[pm];B[rn];W[ro];B[qo];W[po];B[rm]
;W[pr]C[ff - Forced or White dies in the corner.];B[or];W[qs]
;B[mn]C[ff - This is a more or less "standard" outcome in such positions. It has appeared in a number of pro games.]
)
(;B[pg]C[ff - If Black plays the hane instead...];W[og]C[ff - White has this standard continuation...]
;B[oh];W[nh];B[pi];W[oi];B[ph];W[mi]C[ff - White moves out in good shape while leaving the Black stones with bad shape.]
)))
(;W[qn]C[ff - This variation is for reference in the note to White 76 at Q8 in the game...]
;B[nq];W[rp];B[qq];W[qk];B[qi]C[ff - Here Black can follow up by flattening the White position starting with Q8 or by bulding strength on the outside by invading at S8 and sacrificing two stones. However, White has used only three stones and has sente. Compare this to the situation after White 22 in the game.]
))
(;B[cl]C[The direction of play is up the left side...];W[bo]
;B[cn];W[bn];B[bm]C[ff - Black has power facing up the left side. In the game this did not exist. In addition, the Black stones are well anchored through the capture of the C7 stone.]
)
(;B[bo]C[ff - The other standard choice is like this...];W[cl]
;B[dk];W[dm];B[em];W[ck];B[dj];W[ci];B[dn]))
(;B[hp]C[ff - This is another joseki choice here, particularly with the lower-right corner being a black stone.]
;W[fo];B[dm]
(;W[cl];B[fn];W[gn];B[fm];W[ho];B[jp];W[cp];B[cn];W[ci];B[oc]
)
(;W[fm];B[cl];W[cp]
(;B[bo])
(;B[cn]))))
