(;FF[4]GM[1]SZ[19]AP[SGFC:1.17]

PB[Kyouki]
BR[3k]
HA[2]
PW[fi990070]
WR[1k]
KM[0.5]
DT[2011-08-02]
PC[The KGS Go Server at http://www.gokgs.com/]
RE[W+28.5]
TM[1500]

AB[pd][dp]C[Hello,

I played black in this game. To me, the game felt pretty even until I made a mess of the right hand side.
I would like comments on whatever aspect of my game you feel needs improving.

Thank you for your time.];W[pq];B[dd];W[fq];B[po];W[pl];B[oq]
;W[or];B[pr]C[klin: This move does not look like a Joseki.]
;W[qr];B[nr];W[ps];B[op]C[klin: This result is not bad for B.]
;W[qf];B[nd];W[cn];B[dn];W[dm];B[en];W[co];B[cp];W[cj];B[fp]
;W[gp];B[fo]C[klin: F5 not good.  E3 is Joeseki];W[eq];B[hq]
C[klin: H3 not good, J4 is better];W[gq];B[dr];W[hp];B[iq];W[ip]
;B[jq];W[hm];B[em]C[klin: E7should F7];W[dl];B[jp];W[rd];B[qc]
;W[pi];B[cf];W[lc];B[ld];W[kd];B[mc];W[le];B[md];W[fc];B[eb]
;W[fb];B[ec];W[kc];B[hc]C[fi990070 [1k\]: wow];W[fd];B[he];W[ff]
;B[hg];W[de];B[ce];W[ed];B[cc];W[df];B[ke]C[klin: L5 too strong]
;W[id];B[hd];W[ic];B[kf];W[hb]C[White connect and soon my own stones are in trouble.

klin: It was because of L15];B[rc]C[klin: S17 too early, K7 attack, or P13 is better]
;W[bp];B[bq];W[bo];B[br];W[qo];B[qn];W[qp];B[pn];W[jn];B[kn]
;W[km];B[jo];W[in];B[lm];W[mr];B[ns];W[nq];B[mq];W[np];B[lr]
;W[mp];B[lq];W[nm];B[nn];W[oo];B[pp];W[ln];B[ko];W[mn];B[on]
;W[kl];B[mo];W[rl];B[rn]C[After the game my opponent and I agreed this was a mistake.
Perhaps should have been played at n7 or n14.

klin: S6 small now.];W[mf];B[kh];W[mh];B[qg]C[I feel I lost the game in the sequence to follow. We found some effective variations in the area.
Can you should me what you think would have been most effective?]
;W[pg];B[qh];W[rf];B[ph];W[oh];B[og];W[pf];B[nh]C[klin: O12 should P11 than Q10]
;W[oi];B[mg];W[lg];B[lf];W[ng];B[me];W[bg]C[klin: Now the 3 stones become gifts.

No comment beyond this point.];B[cg];W[ch];B[bf];W[bh];B[ej]
;W[ea];B[da];W[fa];B[db];W[mm];B[rq];W[qq];B[rp];W[ro];B[so]
;W[sp];B[sq];W[rr];B[sn];W[sr];B[sp];W[dq];B[cq];W[er];B[cs]
;W[kg];B[jg];W[jh];B[jf];W[ji];B[ol];W[om];B[ql];W[qk];B[qm]
;W[pm];B[hj];W[ik];B[ij];W[jj];B[hk];W[il];B[rk];W[rj];B[lb]
;W[kb];B[mb];W[dg];B[dk];W[ck];B[eh];W[el];B[fg];W[gf];B[hf]
;W[af];B[bd];W[sc];B[sb];W[sd];B[rb];W[hh];B[gh];W[hi];B[gi]
;W[fk];B[gg];W[gj];B[hr];W[es];B[ds];W[sm];B[qd];W[qe];B[nf]
;W[mg];B[of];W[qi];B[pe];W[rh];B[fl];W[gl];B[fm];W[dj];B[fj]
;W[gk];B[ek];W[bm];B[di];W[dh];B[gm];W[hl];B[ci];W[bi];B[ei]
;W[ae];B[ad];W[sk];B[ka];W[ja];B[la];W[lo];B[lp];W[aq];B[ar]
;W[ap];B[ag];W[ah];B[be];W[ag];B[gr];W[gn];B[go];W[do];B[ep]
;W[hn];B[jd];W[jc];B[je];W[eg];B[gb];W[ib];B[gc];W[ga];B[ge]
;W[fe];B[ih];W[ii];B[ig];W[gs];B[hs];W[fs];B[ms];W[os];B[no]
;W[rm];B[tt];W[ie];B[tt];W[tt]C[Thank you again for you time.]
)
