(;FF[4]GM[1]SZ[19]ST[2]CA[UTF-8]AP[SGFC:1.17]

PB[luzverano]
BR[10k]
HA[2]
PW[PPKun]
WR[8k]
KM[6.5]
DT[2011-08-02]
PC[The KGS Go Server at http://www.gokgs.com/]
RE[W+6.5]
TM[1800]
OT[4x20 byo-yomi]
RU[Japanese]

AB[pd][dp]C[W: I mark my comments in the game record like this. My final comments are at the last move, the scoring screen.]
;W[pp];B[cd];W[ec];B[df];W[cl];B[ic];W[cb]
(;B[bc]C[luzverano [10k\]: not sure if this was the best move, seems like D11 would have been better'

W: No, this is good, and black can always play on D11 when white replies. It's good to have a solid group here to attack top or left. If you want to secure the group by leaning on C8, it's best to play on the third line, either C11 or C10.]
;W[gc]
(;B[he]C[W: This is questionable. You seem to want to shut white in, but white can still either live or escape out, so it's better if you moves serves a secondary purpose. Playing at J15 makes a world of difference in the usefulness of the stone for the top, after white lives or escapes. It is worth considering merely securing the J17 stone as a fundament to attack from with M17 or similar.]
;W[ch]C[W: White, with this move, says he thinks black can't kill the top. I would try to prove him wrong.]
(;B[cj];W[co];B[cp];W[eh]
(;B[bf]C[W: It /seems/ too slow, but I think this move has some potential; the combination with C10 creates some aji here.]
;W[dj];B[bh];W[bi]
(;B[cg]LB[cg:A][ci:B];W[ci]C[W: Now white is solid, the exchange removed any aji C10 might have had. B12 clearly calls out for a cut with black playing C11.]
;B[md];W[kc];B[jd];W[ld];B[kd];W[le];B[lc];W[kb];B[mc];W[ib]
(;B[fd]C[W: Small mistake. For profit or to kill, K18 or H18 is needed]
;W[hc];B[hd];W[ed];B[fc];W[fb];B[ee]C[W: Another mistake. What if white cuts at F15?]
(;W[dd];B[fe]C[W: Securing on G16 is better, since it also threatens L18.]
;W[cc];B[de];W[bd];B[ce];W[db];B[jb]C[W: Does not work without M18 - but that means you could play M18 in sente.]
;W[jc];B[id];W[ja];B[nq];W[qn];B[pr];W[kq];B[qq];W[oq];B[or]
;W[qp];B[op];W[pq];B[np]C[W: The P4->Q3 exchange gains you nothing (and weakens your corner)  - just play O4 directly.]
;W[qr];B[rq];W[rr];B[rp];W[ro];B[po]C[W: The Q5->R5 exchange does you no good. Play Q6 immediately.]
;W[qo];B[pn];W[pm];B[om];W[on];B[oo];W[pl];B[ol];W[mr];B[hq]
C[W: Mistake by both white and black here. Black should connect at O2 - and when he doesn't, white should cut at once.]
;W[fq];B[ho];W[ep];B[er]C[W: You absolutely must break out here. Always prioritize access to the centre over immediate life. If your opponent gives chase, you can always go back and live.

Furthermore, cutting solidly here breaks white up into weak groups.]
;W[do];B[ko]C[W: Attacking white does no good if he has a move giving immediate life. If you meant to gain central influence, there are much better moves, such as pushing down with Q9.]
;W[nr];B[lp]C[This move accomplishes nothing.];W[dq];B[cq];W[dr]
;B[cr];W[ds];B[cs];W[eq];B[bo];W[bn];B[ao];W[an]
(;B[bp]LB[bp:A][bq:B];W[cm];B[lr]C[W: This does nothing. Black should cut at E5]
;W[lq];B[mq];W[kr];B[ok];W[mn];B[jp];W[lo];B[mo];W[ln];B[kp]
C[W: The N5->M6 exchange gains little, and strengthens white's weak group. Play L4 directly.]
;W[ll];B[mj];W[qf];B[qh]C[W: A pincer here is needless - if you want to attack the stone, protect the corner. You already have P9 for strength below, and R12 just leaves a weak stone that prevent you from blocking off white's access to the centre.]
;W[rd];B[qc];W[of];B[oh];W[mf]C[W: At this point, the black corner group is in jeopardy - you should play S17 at once, and prefer it over several future moves you make.]
;B[mh];W[lg];B[lk]C[W: If you want a splitting attack, keep playing in the middle between the two groups. Only lean on one group like this when you've decided to let it live, to build strength to attack the other.]
;W[jl];B[jk];W[hl];B[hh];W[ig];B[jh];W[jg];B[fl]C[W: You have already strenghtened white's lower middle group too much, attacking it at this point is rather futile - it can run both up and down, and attack you stone besides.]
;W[ik];B[ij]C[W: If your goal is to attack the lower middle group, you are playing too close, in this and subsequent moves. Attack from afar, defend up close. Touching your opponent's stones only strengthens them.]
;W[hj];B[gj];W[ii];B[jj];W[hi];B[ih];W[gi];B[gk];W[hk];B[fn]
C[W: Those stones are not worth saving. Keep your eye on the prize; killing the top middle white group. This move also induces white to connect a weak point, that could be attacked now or later.]
;W[en];B[fo];W[eo];B[km];W[kl];B[lm];W[kn]
(;B[ml]LB[ml:A][mm:B]C[W: Just N7 is much better. But either move is in the wrong place, when the attack at S17 is possible.]
;W[jm];B[mm];W[in];B[dk];W[ei];B[ej];W[di];B[ck];W[ek];B[el]
;W[fj];B[dl];W[fm];B[gm];W[em];B[gl];W[gn];B[hn];W[gh];B[nn]
;W[ji];B[kh];W[ki];B[kg]C[W: Black should have connected on M12 here.]
;W[lh];B[hg]C[W: Black should have cut at M11 here. The ladder does not work, as later demonstrated.]
;W[kk]C[W: White should have connected on M11 here.];B[li];W[kf]
;B[jf];W[if];B[je];W[hf];B[gg];W[gf];B[fg];W[ph];B[pi];W[pg]
(;B[qk]C[W: You are already alive here, and should focus on the task at hand: killing the white group.]
;W[oi];B[nh];W[qi];B[pj];W[ri];B[qm];W[rm];B[ql]C[W: This is very small in exchange for letting white live.]
;W[rl]
(;B[rk];W[jn];B[gq];W[fp];B[go];W[gr];B[ir]C[W: This lets white's move be sente, when black could make it gote by playing H2.]
;W[aq];B[br];W[ar];B[as];W[pe];B[ne];W[qd];B[nf];W[od]
(;B[oc];W[pc];B[pb];W[nc]
(;B[pd];W[ni]
(;B[nb];W[mi];B[lj];W[ng];B[nj];W[og];B[oj];W[mg];B[nd];W[pc]
(;B[qb];W[kj];B[rc];W[oe];B[bl];W[bm];B[al];W[bj];B[bk];W[dm]
;B[sl];W[sp];B[sm];W[rn];B[sn];W[sq];B[hr];W[fr];B[jr];W[jq]
;B[ks];W[ls];B[iq];W[js];B[is];W[os];B[ks];W[ff];B[eg];W[js]
;B[ke];W[lf];B[ks];W[lr];B[sd];W[se];B[sc];W[rf];B[be];W[bb]
;B[ac];W[ab];B[ad];W[ah];B[bg];W[fk];B[ag];W[fh];B[io];W[gp]
;B[hp];W[hm];B[gs];W[fs];B[hs];W[js];B[lb];W[la];B[ma];W[ka]
;B[sj];W[so]
(;B[sk];W[si];B[jo];W[ai];B[pd];W[gd];B[ge];W[bs];B[dg];W[as]
C[W: White also had the choice to play the ko. He does lack ko threats though.]
;B[pc];W[ks]
(;B[ak];W[ap]C[W: Silly mistake by white];B[bq];W[aj];B[gn]
;W[tt]
(;B[tt]TW[aa][ba][ca][da][ea][fa][ga][ha][ia][eb][gb][hb][jb]
[dc][qe][re][pf][sf][qg][rg][sg][qh][rh][sh][fi][ej][ij][jj]
[jk][il][im][cn][dn][rp][qq][rq][er][or][pr][sr][es][ms][ns]
[ps][qs][rs][ss]TB[na][oa][pa][qa][ra][sa][mb][ob][rb][sb][nc]
[bd][ae][ie][af][cf][ef][ff][gf][hf][if][ig][jg][mi][ni][oi]
[mk][nk][pk][nl][pl][nm][pm][on][no][ap][ip][mp][aq][ar][as]
[bs]C[W: In summary, the main two type of mistakes that stand out are forcing moves that ignore the consequence of the follow-up (see http://senseis.xmp.net/?OneTwoThree for more details), and uncertainty in how to attack groups. The latter is a major area of go study, so not something easy to give general advice on beyond the specific points mentioned in the review, but I have heard the book Attack and Defense recommended by a lot of people as the thing to study to get better at it (e.g. see review at http://senseis.xmp.net/?Crux#attackanddefense)]
)
(;B[rh]C[[Variation added before review\]

W: This move isn't needed - black should just fill the dame, and force white to fill one point (the most that can be forced here) that the KGS score method does not see.]
;W[sh];B[sg]
(;W[sf];B[qe];W[re];B[qj];W[rg];B[rj];W[qg])
(;W[rg]))
(;B[qj]C[[Variation added before review\]]
(;W[am];B[rh];W[sh];B[sg])
(;W[rh];B[hb];W[gb];B[ha];W[ga]))
(;B[ha]C[[Variation added before review\]];W[hb];B[ga];W[gb]
;B[ea];W[fa];B[eb];W[da])
(;B[ga]C[[Variation added before review\]];W[gb];B[ha])
(;B[ns]C[[Variation added before review\]];W[ps];B[or];W[pr]
)
(;B[rg]C[[Variation added before review\]]))
(;B[sg]C[[Variation added before review\]];W[sf];B[rg];W[rh]
;B[qg])
(;B[rg]C[[Variation added before review\]];W[qg];B[rh];W[sg]
)
(;B[qj]C[[Variation added before review\]]))
(;B[rh]C[[Variation added before review\]];W[sk];B[si]
(;W[sh])
(;W[sg]
(;B[rg])
(;B[sh];W[sl]C[luzverano [10k\]: this would have been better yose]
))))
(;B[kj]C[[Variation added before review\]];W[rc]C[W: White now lacks eyes, he can't play S17, but must rather connect his group out at B9]
;B[qb];W[rb]))
(;B[mi]C[[Variation added before review\]

luzverano [10k\]: direct response would have been better

W: Yes, it is a valid ko threat. There are ko threats for black too, though, e.g. against the E5 group]
(;W[nd])
(;W[nb];B[nd];W[pc];B[ob];W[mb];B[lb];W[la];B[ma];W[na];B[oa]
;W[ma];B[ka];W[jb])))
(;B[nb]C[[Variation added before review\]];W[ob]))
(;B[pc]C[[Variation added before review\]];W[oc];B[ob]
(;W[ni]C[W: White would not play this, but rather just cut at O18 and take the black corner.]
)
(;W[nb]C[[Variation by the reviewer\]]
(;B[pb];W[nc];B[mb];W[na];B[oe];W[ma];B[la];W[lb];B[oa];W[ka]
;B[rc];W[qa];B[ra];W[sb];B[sc];W[rb];B[qb]C[W: Black can live, but white has a big follow-up in O13. Getting P19 in sente seems necessary for black to live.]
;W[ng];B[og];W[pf];B[mg];W[me])
(;B[oe];W[pb];B[og];W[pf];B[nc];W[oa];B[nd];W[ob]
(;B[qb];W[mb])
(;B[mb];W[qb]))))
(;B[oe]C[[Variation added before review\]

W: Gives up the corner too easily.])
(;B[pb]C[[Variation added before review\]];W[pc];B[oc];W[ni]
C[W: O11 is a ko threat only - white now holds the ko. He will play on the top instead.]
))
(;B[jn]C[[Variation added before review\]];W[rk]C[luzverano [10k\]: better for black

W: I do not think so. It's eight points straight profit for black, but white gets a solid position without aji, and some direct territory too.]
))
(;B[rh]))
(;B[mm]LB[ml:A][mm:B];W[jn];B[jm];W[im];B[in]C[W: White has nothing.]
))
(;B[bq]LB[bp:A][bq:B]C[[Variation added before review\]

luzverano [10k\]: this would have prevented the seki

W: Yes.];W[ap];B[bp]))
(;W[fe];B[gd];W[ef];B[de];W[fg];B[bb];W[jc];B[id];W[lg]C[W: Horrible.]
))
(;B[hb];W[hc];B[jb];W[id];B[jc];W[ie];B[hf];W[hd]C[W: White's base has been reduced, and he wll try to run out.]
)
(;B[jb]
(;W[hb];B[jc];W[ja];B[lb];W[ka];B[ia];W[ha];B[la];W[ia];B[fd]
C[W: Now F16 works as a combined reduction and strenghtening of the black own stones.]
)
(;W[jc]C[W: This would leave white's corner demolished.];B[hb]
;W[ja];B[hc];W[lb];B[mb];W[la];B[ha];W[ia])))
(;B[ci]LB[cg:A][ci:B]
(;W[dh]
(;B[bj];W[bg];B[ai];W[cg];B[ag];W[cf];B[be];W[el]C[W: Black is secure, white floating, but with some influence.]
)
(;B[bg];W[bj];B[ck];W[bk];B[dk];W[dl];B[ek];W[bo]C[W: It's a fight]
))
(;W[bg];B[dh];W[cg];B[dg];W[di];B[bj];W[ah];B[dk];W[ck];B[ei]
;W[ej];B[fi];W[fj];B[gj];W[el];B[hg]C[W: White gets a little more territory, a little less influence.]
)))
(;B[ej]C[[Variation added before review\]

W: The obviously correct move.];W[gh];B[gj])
(;B[ff]LB[ed:B][ff:A]C[[Variation added before review\]

W: This is good if white answers on the top, but I think white would be happy securing the left with more influence towards the centre. It's still unclear whether white can make the top group live.]
)
(;B[ed]LB[ed:B][ff:A]C[W: This is more severe if white does not answer, and is better shape than F14.]
))
(;B[dj]C[[Variation added before review\]

W: White will be happy connecting on C10, and D10 will be blighted.]
)
(;B[ei]C[[Variation added before review\]

W: Too weak a connection - white will be happy to cause trouble here.]
;W[dh];B[eh];W[eg];B[dg]C[W: This isn't as good for black as it might look; after white F13, the top left black group is now in danger, and white will have many opportunities to gather influence or territory by threatening it.]
)
(;B[bb]C[W: A strong attack on the top white group - if it isn't killed outright, the black stones here should become more solid and connected.]
))
(;B[ie];W[bb];B[ci]C[W: A strong start for black]))
(;B[cj]C[[Variation added before review\]];W[ch]C[W: Black should be happy with this. White now has three disconnected groups, to black's two, and black have strong positions outside to play out to.]
)
(;B[di]C[[Variation added before review\]];W[bc];B[bd]C[W: Now D11 looks wrong on the fourth line.]
))
