(;FF[4]GM[1]SZ[19]ST[2]CA[UTF-8]AP[SGFC:1.17]

PB[hade]
BR[1k]
PW[Himiko]
WR[1k]
KM[6.5]
DT[2011-08-11]
PC[The KGS Go Server at http://www.gokgs.com/]
RE[B+Resign]
TM[300]
OT[5x45 byo-yomi]
RU[Japanese]

C[*Hi, I will focus mainly on the opening and fighting as requested.
My comments will start with an *];B[pc];W[qo];B[dq];W[de];B[qj]
;W[pq];B[jq]
(;W[do]C[*The low approach is also playable.
As most of the stones on the board are low, this becomes a territorial game. 
The high approach will be good if it is used in combination with the d15 stone.]
;B[fp];W[cq];B[cr];W[cp];B[er]
(;W[cl]MA[do][de]C[Tami: Perhaps I should have played at C9 to get a better balance with d15.

*The stone at d15 aims at taking influence/territory on the left side, and the high approach move at d5 also looks at taking influence. Since these two stones have a similar purpose white should try to combine them. White could for example construct a moyo here instead of taking immediate territory. So a move like c8 or c9 which mainly takes territory is insufficient.

Low moves like c8 or c9 can be met with a shoulder hit which easily flattens the moyo, so they should be avoided in cases like this.

Whenever choosing a move in the opening, try to find the most efficient way to use your stones. Stones with similar meanings can often be used together.

If the d15 stone was on the star point then c9 would make good balance. But in this case, it's difficult for black to approach from the left side at c13 for example, therefore black will most likely approach from d17 which makes it very easy to construct a moyo here.

Compare this with the following variation:];B[dc]
(;W[fd]C[*Because of white's move at c8, it is too difficult for white to construct a moyo anymore. White should now focus on taking territory or fighting.]
;B[cd]C[Tami: Black's move looks too tight and small, and it's not even in Kogo.

*In this kind of territorial game, this is a good move. 

This move was played in a game between Go Seigen and Shinohara Masami - 1933-04-05. The following moves were:]
(;W[ce]
(;B[dk]C[Tami: Perhaps this was his plan with d17 - to make the corner very tight so as to be able to play hard on the left carefree.

*That seems to be the case. I would prefer to play out the rest at the top left first though as it ends in sente for black.]
;W[eb];B[dl]
(;W[cm];B[db];W[fo];B[ck];W[gp];B[gq];W[go];B[hq]
(;W[ch]TR[ce][de]MA[ck][dk][dl][qh]C[Tami: I was worried about C13, but it looks too close to my marked stones.

*Instead of c13 your opponent has the move at c12. A little too close to his own stones but it gives him some room for eyes.

Furthermore, this move gives you eye space and a little territory while preventing your opponent from taking it with his weak group. And also attacks the 3 stones. I can't see a better move than this one.

Your group in the bottom left is not completely alive yet, but as long as these 3 stones are weak, your group won't have any problems.

Remember that in the opening you played 2 high stones. Your opening emphasised outside strength. I said earlier that you can use this to create a moyo but since that was denied you should find another use for it. Now you can use your strength to attack as you are here.

Whever you attack you shouldn't have killing the group as your goal, you need to see if you can make any other gains. Ofcourse if you can see a clear way to kill a group then do that, but here black can run towards the centre.

In this case your goals should be to secure the top area as it's the biggest area left and to settle your bottom left group. Another idea is to split black's stones on the right side with a move at r12 for example. Since you are strong in the centre and black is weak, you should win any fights that occur here.

Now compare this position with a black stone at c12 instead of a white one.]
;B[dh];W[ci];B[di]
(;W[cg]C[*This move is too passive. White is strong so white needs to be agressive here.]
;B[bk]
(;W[gk]C[*Too passive. Black can still just jump out into the centre with g11, g12.
And it doesn't help the white group much either.
Jumping to g8 is enough. After black jumps into the centre with his group, white can take sente to play elsewhere.]
;B[gi];W[fj]TR[fm][gm]MA[gk]C[Tami: This seems like an overplay - I have to mind the potential cuts around the marked points.

*Yes the white group is too weak to attack with.
White should just play in another big area.
The white stone will probably be cut off from the rest of the group later on, but whtie can sacrifice it to run into the centre with the weak group or to make eyes. Adding more stones here is too slow.]
;B[gg]CR[oc][md][ke][if][ii][kj][mj][oj]C[Tami: I like Black's move - it's very ??  (3 Dimensional).

*Yes it's a good move, the centre is big now.]
(;W[dj]C[*This is an overplay, this area is settled for the moment, you need to go back to playing fuseki.]
;B[ej];W[cj];B[fl]C[Tami: I find out why F10 was an overplay!]
(;W[ei]C[*Very bad.];B[gl]CR[cl][cm][do][fo][go][cp][gp][cq]
C[Tami: Now the group I had "strengthened" with the F5 and G4 moves turns out to be weak.

*It is now extremely weak. It is almost dead.];W[ek];B[dm];W[cn]
;B[en];W[eo];B[hk]
(;W[hl]MA[el]C[Tami: This seems only to make my case worse.

*Yes, need to be more careful when your stones are weak.];B[hm]
;W[il];B[im];W[jl];B[br]C[*Very tough game for white now.];W[ip]
;B[jm];W[iq];B[kl];W[ij]
(;B[kk]C[*?? I don't understand.];W[hj];B[hp];W[ho];B[io];W[fq]
;B[fr]
(;W[ep]
(;B[jp];W[eq];B[bo];W[bn];B[bp];W[bq];B[aq];W[co];B[ar];W[an]
;B[jh];W[ir];B[hr];W[hs];B[gr];W[km]C[Tami: Again, this is another unreasonable cut.

*White is far behind at this point, so maybe unreasonable is white's only chance. White can only hope black makes a mistake.]
;B[lm];W[kn];B[jo];W[ki];B[ji];W[jj];B[kj];W[li];B[lg];W[mk]
;B[ln];W[mg];B[mf];W[ng];B[lf];W[qh];B[nf];W[pg];B[ni]
(;W[oj];B[qm];W[rk];B[qk];W[rj];B[rl];W[ri];B[om];W[pl];B[pm]
;W[ql];B[rn];W[kr]C[*This jump is too far.]
(;B[jr]C[*Mistake.];W[mq];B[mh];W[of];B[nj];W[ok];B[nk];W[jc]
C[*Earlier this move was not a problem, but with all of the black stones in the centre, this is too far, black can easily jump in.]
;B[qe];W[oi];B[ol];W[nh];B[lh];W[pk];B[oq];W[op];B[nq];W[np]
;B[mr];W[pr];B[lq];W[mp];B[nr];W[ro]C[*At this point the game is already over, black's lead is too great.]
;B[hc]
(;W[hd];B[ic];W[id];B[jb];W[kc];B[gc];W[fc];B[kb]
(;W[lc]C[*should connect.];B[gd];W[ge];B[he];W[ie];B[hf];W[ke]
;B[lb];W[gb];B[ib];W[mc];B[oe];W[mb];B[fe]
(;W[dd];B[ob]C[*Unnecessary.];W[jg];B[if];W[jf];B[kh];W[ih]
;B[ii];W[hh];B[hi];W[gh];B[fh];W[ig];B[gf];W[fi];B[ed]
(;W[ec]C[Tami: I missed the chance to save the dragon, but in any case I would suffer from a distinct lack of territory.

*Yes either way black is way ahead.];B[ee];W[da];B[eg];W[ef]
;B[ff];W[dg];B[ca];W[cb];B[ea];W[eh];B[fg];W[nd];B[od];W[ld]
C[Tami: I resigned without waiting for K16.

The most obvious mistakes were the overplay at F10 and two ill-judged cuts. Also, I should have killed the top left corner in exchange for receiving a slightly heavy group on the left.



*Actualy black doesn't need to play any moves here, the white group needs 2 more moves to live.

For the opening, look at the whole board and see what is important, territory or influence. Then look at your stones and see how you can combine them so that they work towards the same goal. 

For the fighting, try to spend more time identifying strong and weak stones. When you are strong, fight. When you are weak, don't.

My recommendations: study go problems and openings. Go problems should be based on life and death, tesuji and semeai. Avoid endgame study completely for now, it is not important for you at this point.

You can study openings by looking at professional games and trying to see how they use their stones in context of the whole board position. Don't spend too much time on joseki. Commented games are always better. 
Another option is a fuseki dictionary, or if you have access to strong players you may be able to get more reviews of your games.

And finaly, play go. Don't just study. Very important.

Ok that's all, hope it was helpful. :)];B[bd]MA[gj]
(;W[kf];B[jd];W[je])
(;W[jd];B[kf];W[me];B[le]
(;W[ne];B[nc])
(;W[nc];B[ne]))
(;W[me]
(;B[le])
(;B[ne]
(;W[nc];B[le])
(;W[le];B[nc]))))
(;W[fg];B[ec];W[bd]))
(;W[ob]C[*White can't live.];B[pb]
(;W[oc];B[nd];W[nc];B[na])
(;W[na];B[nc])
(;W[oa];B[ma];W[na];B[oc]
(;W[la];B[nc])
(;W[nc];B[la]))
(;W[ma];B[oc];W[nc];B[oa]))
(;W[pb];B[ob];W[oc];B[od];W[nc];B[qb];W[pd];B[pa];W[pe];B[qd]
;W[pf];B[ne])
(;W[oc];B[ob];W[od];B[pd];W[ne];B[pe];W[me];B[le]
(;W[ld];B[nc])
(;W[md];B[nc];W[nd];B[nb])))
(;W[gd];B[jd];W[je];B[kd];W[ke];B[lc];W[od];B[oc]))
(;W[id]C[Tami: Black has too much support around to make this realistic.]
;B[hd];W[he];B[ge];W[gd];B[ie];W[hf];B[gf];W[if];B[je];W[hb]
;B[ic];W[jd];B[ib];W[jf];B[ke];W[jb];B[gb];W[gc];B[ha];W[ja]
;B[fb];W[ia];B[hb]))
(;B[mq]C[*What does white do after this?];W[mr];B[nr]
(;W[lq];B[nq]MA[kr][lq][mr][pq][qo])
(;W[nq];B[lr])))
(;W[ql];B[qe]TR[mg][ng][pg][qh]C[Tami: Black gets chances against the marked group, and if I defend, then playing around K17 will be very large.]
;W[pk]
(;B[pi];W[mi])
(;B[jc];W[mq]C[Tami: White has at most 30 points in the lower right, and nothing much else, plus komi. Black has at least 30 at the top plus 15ish on the bottom and 5-10 points in the top left. Therefore, Black is comfortably ahead.]
)))
(;B[bo]C[*Black can kill.];W[bn];B[bp];W[bq];B[aq];W[co];B[ar]
;W[an];B[eq]
(;W[bl];B[ap])
(;W[ap];B[bl])
(;W[in];B[jo];W[jn];B[hn];W[kn];B[km];W[ir];B[hr];W[hs];B[gr]
(;W[ko];B[jp];W[jr];B[kq]MA[gp][fq][ho][go][fo][eo][ep][do]
[co][cp][cq][bq][cn][bn][an][cm][cl]C[*White is dead.])
(;W[jp];B[ko];W[ln];B[lo]))))
(;W[bo]C[*White needs to play here.];B[an];W[bq];B[ap];W[ao]
;B[aq];W[am];B[bm];W[bl];B[al];W[bn]))
(;B[hj]MA[ij][hl][il][jl]C[*Why not here by black?
I don't see how white will benefit by having this group here. Black will make a huge profit here and this group will most likely die.
The centre has become huge for black.]))
(;W[ip]C[Tami: I considered here, but it doesn't look very forcing.]
)
(;W[jo]C[Tami: This is too loose.];B[io])
(;W[io];B[il];W[jc]C[Tami: It's the best overall line I can find, but could it be that my game was already spoiled by my overplay at F10?

*I can't find anything better for white here.
But I think rather than your move at f10 the bigger mistake was c13 instead of c10 earlier which would have left you with no weak groups.]
))
(;W[gl]C[*Need to block here.]))
(;W[jd]C[*White needs to play this way to stop black from making the centre any bigger for himself.]
))
(;W[ej]C[*It's a little bit too difficult to attack the black group anymore since white's bottom group is looking pretty weak now, but I think this is a good try.]
;B[dj];W[gj]C[*This puts alot more pressure on black.]
(;B[fh];W[hh])
(;B[fl];W[hl]MA[go][fo][do][cm][cl][cp][cq][gp]C[*Because white is weak at the bottom left, w can't afford to be split off.

Remember your aim here is to settle this group and to take the top area. Don't push too hard to kill black's group, although it has no eyes yet, it's not so easy to kill because of the weak white group.]
)))
(;W[cj]C[*How about this move instead?]
(;B[dj];W[bk];B[cg];W[dg])
(;B[bk];W[dj];B[ej];W[dg]MA[ei][ek]C[*Black is not looking good.]
)))
(;W[jc]C[*If white takes a big point instead:];B[ch]C[*Doesn't look like white has gained much. The bottom left white group and the top white group both have bad aji. White will have to do work hard on the right side.]
))
(;W[cb]MA[cn]C[Tami: I think I should kill the corner.

*This is a huge point.
Killing this is a difference of about 30 points (the points you gain + the points you stop black from getting in the corner) and also outward influence.

But your group in the bottom left is extremely weak. After black plays c6 white will be in alot of trouble. If this group dies, black gains alot more than 30 points. Even if it manages to live, black will be able to easily profit from chasing it. So deciding to play the game move was better.]
(;B[cm]C[Tami: Black will play this painful move, but White can defend. My gain in the upper left would be big enough.

*B has the stronger move at c6. You must be very careful when deciding to tenuki while you have a group that is not definately alive. Make sure to double check that you didn't miss something.]
;W[cn])
(;B[cn]C[*White is in trouble.])))
(;B[be];W[bf];B[bd];W[cg];B[ed];W[ee];B[fc];W[gd];B[dk]C[*As white I would resign here.]
))
(;W[ce];B[be];W[bf];B[bd];W[cg];B[ed];W[ee];B[fc];W[gd]MA[dk]
C[*I'll stop here becuase the situation in the bottom left was different in their game.
In this case, white creates a moyo but it can easily be flattened again by black's shoulder hit.
Black is ahead on territory.]))
(;W[fc]C[*With a pincer for example.]))
(;W[ck]C[Tami: If I play here, it looks better balanced.

*Yes you are right, this is better than c8.])
(;W[fo];B[gp];W[dj];B[dc];W[fd]MA[fo]C[*What do you think of this instead? 

It looks easy for white to turn alot of his moyo into territory later on. If black tries to jump in, he will have a tough fight.

Also it's ok to play a move like f5 here strengthening the black group, as it is already very strong, so making it stronger is not a problem.]
))
(;W[co];B[ep];W[ck]CR[iq][hq][gq][fq]C[*White may be able to use this gap later on.]
))
