(;FF[4]GM[1]SZ[19]ST[1]AP[SGFC:1.17]

GN[gtl]
PB[rtrt]
BR[14k]
PW[Thrones]
WR[13k]
KM[0.5]
DT[2011-08-02]
PC[IGS-PandaNet]
RE[W+24.5]
TM[600]

C[Hello !

Thanks for reviewing my game.

I played this game as white (my current rank is 13 kyu) on IGS. My opponent rating was 14+kyu

Eventhough I finally won the game by a large amount, the score doesn't reflect the game. I was actually rather lagging behind before my opponent seriously blundered.

I expect from this review to understand the mistakes I did in the fuseki and middle game, as I really need to improve my strategy reasoning in these phases.

Cheers,
Maxime];B[pd];W[dd];B[pp];W[dq];B[pj];W[nq];B[dj];W[cn];B[oq]
;W[np];B[cf]C[Naively, I expected my opponent to answer according to the joseki at Q6. From black's point of view, is this correct to tenuki here ? If not, how do I punish black ?

Ben: Honestly I don't know how to "punish" B here either.  But I give some possible variations.  One thing to do might be to try this yourself against a stronger opponent and see what they do.

Another option, when you don't know what to do is to simply continue the joseki as if B had responded as you expected (i.e., with a move around k4), the best B can do is play at q6 in that case, then you would have the advantage of sente.]
(;W[fc]C[I couldn't imagine not answering to black's approach. However I was worried that my two stones at O3 were lacking a base. What is the priority here ?

Ben: Of course the whole point of a tenuki is that he gets an advantage in one sector of the board with his power decreasing in the area he played away from.

So there is no priority to play in either area, just shifting balances of power.  Use tenuki to put your opponent off balance, and to turn a boring position into an interesting one.]
;B[bq];W[cp]C[Ben: This move is appropriate.];B[jq]C[This is basically what I was afraid of.

Ben: Nothing to be afraid of.  B should play q6 before considering moves like this.]
;W[hq]C[Ben: This is fine.];B[fq]C[Was H3 too careless ?];W[gp]
C[Here I decided to push black to left, toward my "strong" stones. But actually, how strong are they ?

Ben: Lets look.  In general these moves (by you) seem acceptable to me.]
(;B[fp]
(;W[fo];B[go];W[ho];B[gn];W[eo];B[gq];W[hp];B[bp];W[bo];B[dp]
(;W[do]SQ[gq][fq][fp][dp]C[Ben: Why not c3 here?

Keep your groups connected by keeping the marked stones dead.  That's how you stay "thick".]
;B[dr];W[eq];B[er]C[Ben: B getting connected  complicates things.]
(;W[cq];B[cr];W[ep]SQ[go][gn][dj][cf]C[Ben: Obviously the situation has become less than ideal, however W does not need to roll-over just yet, rather than this move why not around d8?  True the marked move makes  two eyes for your group and therefore unconditionally alive but that is only one thing.  Other moves here could serve a similar purpose but set up a potentional attack against the marked black stones.]
;B[gr];W[po]C[My aim here was to take advantage that black didn't play Q6 earlier.

Ben: This seems fine but h2 seems like alternative, I can't say which approach is better.]
;B[qp];W[qo];B[op];W[oo];B[ro]C[I guess a cut at O5 would hurt ....

Ben: If your afraid of the cut you could have played p5 instead of r5.

It would be double edged for B though, these box-shapes in the corner can be tricky, you might have played s3 and r2 or q2 and it may become tricky for him to live later in the game.]
;W[mn];B[hr];W[jo]C[Ben: B has been very generous to you, letting you connect your groups.]
;B[rn]C[Ben: Very small move at this stage.];W[dh]C[Here I decided to invade black's stones.
I have a question of judgement: can the white group at the bottom be considered as strong and thick ? Without the 2 black stones at G5/6 I would say so, but in this case I am not sure. Anyway I invaded because I though I was strong enough at the bottom.

Ben: In my estimation W is doing much better on the bottom, especially after Bs recent plays.  This is an appropriate strategy for W.]
;B[gl];W[nc]C[Maybe I should have continue with my invasion instead of approaching black here ?

Ben: This is a big point as well, don't be afraid to "tenuki".]
;B[oc]C[Ben: By the way, never play this kick unless you already have a stone around q14 or say l17, he is just making you stronger, and it doesn't make the corner any more secure.]
;W[nd];B[pf];W[jd];B[ef]C[Ben: Backing up what I said earlier you may play in the following way: see variation.]
(;W[fh];B[gf];W[hg]C[Ben: I probably wouldn't even bother "leaning" on these stones.  Just h12 is good enough (and more solid, can't be cut) and go ahead and let him run away with this group that isn't worth hardly any points for him while you build up power.]
;B[hd]C[I felt that trying to attack black I was now actually the one under attack ...

Ben: If there is one lesson you should take away, you can't attack from weakness, you have many more stones in this area of the board, you have two fairly sold bases on the top, and your other stones have lots of room to run, his stones can be cut and in the end you should come away with something.]
;W[hf];B[gg]MA[ge]C[Ben: How about g15 now?]
(;W[gh];B[he]
(;W[hh]SQ[hg][hf]C[Again a cut at H12 would hurt ...

Ben: Would it? Im not sure you need to worry overmuch about this cut at the moment.  Ask first; is he getting any real territory here, even if he wins the marked  stones it amounts to 4 points, there are many places on the board that are bigger.   What about this cut on g15?

Actually I wouldn't cut on g15 and I will give a variation why but the cut on h12 isn't that great either.  If you played at k14 for instance and allow him to cut you then in the ensuing fight he will damage his stones around g8/6/5 and d10.

In short don't fear cuts, try to visualize what will happen after the cut and if it lacks teeth don't bother preventing it.]
;B[fd];W[ed];B[bd];W[cc];B[bc];W[gd];B[fe];W[hc];B[cb];W[db]
;B[id];W[ic];B[je];W[kd];B[bh];W[ci];B[cj];W[bi]C[I think it's fair to say here that my invasion wasn't a success: black is strong and I am not.

By keeping black disconnected, all my hope relied on attacking and killing the black group. I didn't succeded, hence I should have lost the game.

Ben: I wouldn't throw in the towel just yet.  Significant questions remain about the loose grouping around g8..]
;B[hn];W[jm]C[Ben: This is an excellent move.];B[in]
(;W[io]C[Ben: But this one is unfortunate.  There is a proverb I believe that goes "if you can make a bamboo joint then do so".]
;B[jn];W[ko];B[kn];W[ln];B[km];W[fk];B[lp];W[lo];B[fl];W[ek]
;B[el];W[dk];B[dl];W[cl];B[ck];W[cm];B[fj];W[gk];B[hk];W[gj]
;B[hj];W[gi];B[ch];W[di];B[pm]C[I totally overlooked that my group was still lacking eye-space. A tough fight ensuid, I could eventually live in the center, but I lost quite a few points at the bottom.]
;W[kq];B[kp];W[lq];B[jp];W[ir];B[mq]C[Ben: Based on how this ultimately turns out, he really ought to play at k2 now.]
;W[mr];B[mp];W[nr]C[Ben: Based on how this ultimately turns out, he ought to play at k2 now.]
;B[no];W[nn];B[mo]C[Ben: Actually  here it looks like k2 works for you.]
(;W[om];B[jr];W[kr];B[ks];W[iq];B[is];W[pl];B[qm];W[mk];B[on]
;W[pn];B[qn];W[on];B[ll];W[ml];B[mm];W[lm];B[kk];W[lk];B[kl]
;W[oj];B[pk];W[ok];B[ql]
(;W[ol]C[Ben: Id probably take this opportunity to go p11, before he does so himself.]
;B[nb];W[mb];B[ob];W[oi];B[bb];W[li];B[eb];W[da];B[ma];W[lb]
;B[og]C[Ben: Your group here is alive, might as well go q11 and suck a lot of points away from him.]
;W[kj];B[jj];W[ji];B[ii];W[ih];B[jh];W[ki];B[jg]C[Here I feel like the game is settled, and black is ahead by a large amount.

I woudn't mind if you stop the review here and focus more on what happened until here. I would like to improve my reasoning to avoid ending in situation like that in the future.

Thanks again !
Maxime

Ben: Seems like you have a pretty good feel for what ought to be played but falter when it comes to plays that are novel.  I would suggest experimenting with tenuki plays yourself.  After that try some more unconvential approaches.  In the opening don't get fooled into following your opponent around the board, take your time and look for the biggest move even if he seems to be most concerned about plays that take 1 point of territory (e.g., s6).  It looks like your doing this already but it doesn't hurt to emphasize it, and since you are doing this already make sure to be confident about your approach.  Everybody has a bad game once in awhile it won't do to give up on solid pragmatic play.]
;W[jk];B[ij];W[il];B[hl];W[jl];B[fn];W[pi];B[qk];W[qi];B[qg]
;W[df];B[de];W[dg];B[cd];W[dc];B[ai];W[aj];B[ah];W[bj];B[eg]
;W[ee];B[ce];W[lf];B[ge];W[gc];B[ke];W[le];B[eh];W[fg];B[ff]
;W[ei];B[ie];W[cg];B[lg];W[mg];B[lh];W[mh];B[mi];W[ni];B[kh]
;W[mj];B[kf];W[if];B[ld];W[lc];B[bk];W[bg];B[am];W[an];B[bf]
;W[ap];B[br];W[rh];B[rg];W[sg];B[sf];W[sh];B[qh];W[rj];B[re]
;W[rk];B[mf];W[me];B[nf];W[ne];B[af];W[ag];B[kc];W[jc];B[la]
;W[ka];B[na];W[kb];B[aq];W[ao];B[en];W[dm];B[oe];W[ng];B[of]
;W[oh];B[ph];W[rl];B[rm];W[sm];B[rp];W[sn];B[so];W[sl];B[ca]
;W[ec];B[em];W[ip];B[lr];W[qj];B[tt];W[tt]C[You can check your score with the score command, type 'done' when finished.
Click on a group of stones to mark it dead and remove it from the board.]
;B[tt]TB[aa][ab][ac][ad][ae][ar][as][ba][be][bs][cs][ds][es]
[fm][fr][fs][gm][gs][hm][hs][ik][il][im][jk][jl][jm][js][kq]
[kr][lq][ls][mr][ms][np][nq][nr][ns][oa][or][os][pa][pb][pc]
[pe][pg][pq][pr][ps][qa][qb][qc][qd][qe][qf][qq][qr][qs][ra]
[rb][rc][rd][rf][rq][rr][rs][sa][sb][sc][sd][se][sp][sq][sr]
[ss]TW[ah][ai][ak][al][am][bh][bk][bl][bm][bn][ch][cj][ck][co]
[dj][dp][ea][eb][ef][eg][eh][ej][fa][fb][fd][fe][ff][fi][fj]
[ga][gb][ge][gf][gg][ha][hb][hd][he][ia][ib][id][ie][ig][ja]
[jb][je][jf][jg][jh][kc][ke][kf][kg][kh][ld][lg][lh][lj][mc]
[md][mi][mm][nh][nj][nk][nl][nm][ri][si][sj][sk]C[Game 76 Thrones is removing @ B9
Game 76 rtrt is removing @ O3
Game 76 Thrones is removing @ F10
Game 76 rtrt is removing @ K8
Game 76 Thrones is removing @ A7
Game 76 Thrones is removing @ G14
Game 76 Thrones is removing @ M13
Game 76 Thrones is removing @ M16
Game 76 Thrones is removing @ E18
Game 76 Thrones is removing @ N7
You have typed done.
Thrones: 109.5 to rtrt: 85.0])
(;W[oi];B[ol];W[pi]))
(;W[jr];B[on];W[iq];B[pn];W[ip]))
(;W[jp]C[Ben: Play around with the position, you will see this holds much more potential than your play on j5.]
;B[jn];W[lp];B[jl];W[km];B[kn];W[lm];B[ln];W[im]C[Ben: This should be a fairly interesting struggle and it's not possible to tell who will end up on top.]
))
(;W[ge];B[gd];W[fe];B[fd]
(;W[ff];B[ee];W[fg]
(;B[ed];W[ec])
(;B[ec];W[ed];B[dc];W[cd];B[fb]))
(;W[ee];B[ed];W[de];B[ec];W[dc];B[je])))
(;W[ge]C[Ben: This looks promising to me..];B[gh];W[ej];B[ek]
;W[fj];B[dl];W[gi];B[hh];W[hk];B[he];W[fe]
(;B[ig];W[if];B[jf];W[ie];B[je];W[id];B[jh];W[hl])
(;B[if];W[ig];B[jg];W[ih];B[jh];W[ii];B[je];W[kf];B[jf];W[ke]
;B[bh];W[ci];B[bd];W[cc];B[bi];W[cj];B[bj];W[ck];B[bk];W[cl]
;B[bl];W[bm])))
(;W[qc];B[qd];W[ob];B[pb];W[pc];B[qb];W[od];B[rc]C[Ben: These moves are all sente by W and make Bs corner small in comparison and not worth it compared to what W gets with k16.]
))
(;W[ep]C[Ben: This is a minor improvement with the threat b2 coming later.]
))
(;W[cq];B[do];W[ep];B[dn];W[eq];B[co];W[bn]C[Ben: And we can see that B has accomplished little.]
))
(;W[gn];B[fo];W[in]C[Ben: This might be an alternative, now B has to choose, if he runs out with the k3 stone, though he might get o3/o4 but your bottom left is huge.  Plus a splitting attack at e12 would be painful for him.  However if he chooses to save the f4 stones you connect up your groups with l4 and his f4 group is still not safe and also is not worth much.]
))
(;B[cr];W[dr];B[ds];W[er]C[Ben: This move is key here, e1 lets him live I believe - have a look for yourself and confirm it.]
;B[bp];W[bo]
(;B[bs];W[ar])
(;B[ar];W[bs])))
(;W[po];B[qo];W[qp]
(;B[qq];W[qn];B[rp];W[pn]C[Ben: B could have had 4th line territory and instead here he is confined to the corner, so this looks inferior to me.  That being said B can try to "split" the W groups with P5 but it looks like a situation where white makes a base for one side and then its a matter of W's weak group vs. B's weak group.
Also note that B can now play at f-16 and increase his advantage there, considering this which do you think is more important?]
)
(;B[pn];W[oo];B[qq];W[qn];B[rp];W[pm])
(;B[qn];W[pq];B[op];W[or];B[oo];W[no];B[on];W[qq])))
