(;FF[4]GM[1]SZ[19]ST[2]CA[UTF-8]AP[SGFC:1.17]

PB[GoPlayerV]
BR[5k]
PW[Lasr4TW]
KM[6.5]
DT[2011-07-25]
PC[The KGS Go Server at http://www.gokgs.com/]
RE[W+Resign]
RU[Japanese]

C[Hello, my name is Tapir and I made a short review of your game.]
;B[qd];W[dp];B[pq];W[dd];B[oc];W[qo];B[ql];W[pn];B[np];W[qj]
(;B[pk];W[qg]
(;B[qp];W[nn];B[nl];W[ln];B[mo];W[mn];B[kp];W[iq]
(;B[ll];W[jn];B[kq];W[io]C[Now White is comfortable connected. Running slow and pushing from the wrong side both contribute. Compare this with R3 at O6.]
(;B[ri]TR[pk][ll][nl][ql]C[Feeling behind you probably wanted to gain sth. by attacking. Did you like the result? Are your triangled stones strong enough to attack?]
;W[rj];B[rg];W[qi];B[qh];W[ph];B[rh];W[oi];B[mi];W[qf];B[rf]
;W[mg];B[og]C[This stone ended up wasted.];W[nh];B[lg];W[qe]
;B[re];W[lf];B[mh];W[ng];B[kf];W[kg];B[lh];W[le];B[jf];W[oe]
;B[jh];W[nc];B[pd];W[ob]LB[qb:B][rc:A]C[You are behind already. If this move doesn't affect the life and death of your group play elsewhere. (Whether it does is a reading exercise for you. Can you live after Black tenuki, White A or B?)]
;B[pb];W[od];B[pc];W[jd];B[tt]LB[cn:A]C[Where is this move? At A?]
;W[cp]C[I resign.

I would say too early. The right side is completely undecided and you have center strength to help you in any fighting there.]
;AB[cn];B[dk];W[cf];B[dc];W[cc];B[ec];W[cb];B[ed];W[de];B[hc]
C[Black is still behind (15 points?), but there are enough opportunities for White to mess up. L17 is a point to aim at, Black has a little center potential and G4 area isn't definite territory as well.]
)
(;B[oi]))
(;B[jo];W[ll];B[oi]C[Keep White divided.]))
(;B[nn]LB[fq:A]C[Forcing to live small is often bigger. White has to move now and Black can approach at ''a'' next.]
;W[rq];B[fq]))
(;B[ol]C[Faster.]
(;W[qg];B[nn]C[White can not afford to extend at R13 if you jump out faster. Black O6 is too good.]
)
(;W[nn];B[oj]C[Likely outcome.])))
