(;FF[4]GM[1]SZ[19]ST[2]CA[UTF-8]AP[SGFC:1.17]

PB[StanleyLim]
BR[16k]
PW[tamara]
WR[15k]
KM[0.5]
DT[2011-09-07]
PC[The KGS Go Server at http://www.gokgs.com/]
RE[B+24.5]
TM[1500]
OT[5x30 byo-yomi]
RU[Japanese]

C[tamara [15k\]: hi


Stanley: Hi, my name is stanley, i hope to understand how i can use my stones more effectively and where is my major mistake? I have made a few big mistake at my end game, can you comment on how i can improve it?

Thank you so much, hope to learn from you !

===========================
Review
===========================

Hi Stanley,

I'm a little rusty but I'll do my best to review.

I think the main mistake in this game was your response to white's first invasion on the right. After that fight white had a really thick group facing the centre, and that should have given you a much harder time when you tried to extend towards the left.

Instead white played close to the thick stones and neglected the corners on the left. After some big fights you managed to reduce white's territory enough to win, but white really should have secured their territory much earlier instead of trying to capture/save everything (e.g. W72).

At some points you were a bit too possessive over your territory and played unsafe or risky moves instead of playing it safe. You don't want to avoid risk altogether but you need to be aware of where your weaknesses are. If you have too many weak groups on the board your opponent can exploit them and gain strength/territory through attacking.

Sometimes it's better to sacrifice or conceed territory if it strengthens another area that is more important.

See the comments on the individual moves & variations for more detail.

You might also benefit from doing go problems, (goproblems.com is good) and focusing on cutting/connecting and the endgame.

Cheers,
Mat];B[qd];W[dd]C[StanleyLim [16k\]: hi];B[pq];W[dp];B[oc];W[oe]
(;B[pf]C[This seems a bit too defensive. The corner is strong already and you could get more influence by playing elsewhere.

Also, white doesn't actually need to respond to your move right now, and could even choose to abandon that stone completely later on as it's only one stone. So responding like this lets white keep sente. White could use this to create a shimari on the other side, or prevent you from making one in the bottom left.

See variations for areas I'd consider (although take these with a grain of salt, as I'm not so good at the opening)]
;W[op];B[qo];W[ce]
(;B[ip]C[This seems a bit too far from either of white's stones, and white can easily prevent you from making a good base.

I think you either need to threaten the left or pick a fight with the right. In either case, white cannot play as agressively as they have their own weaknesses to worry about. See alternatives.]
;W[fq]C[This is a good move for white. It attacks you while building up the corner. White also has the prospect of taking the centre left point to create a big moyo on the left.]
;B[lq]C[At this point it looks like each side has similar territories, with black on the right and white on the left.

White can still creep in on the bottom left and can block you on the bottom right, so that whole side is still in trouble.]
(;W[hq]C[This is a bit slow. Compare to the variations. All of these are big points for both sides.]
;B[iq];W[ir];B[jr];W[hj]C[this was a bit odd]
(;B[go]C[This doesnt do anything useful. Use this oppurtunity to take one of the big points. White is trying to build a massive moyo on the left but there is still room to invade and the top is wide open.]
;W[is];B[js];W[gr]
(;B[jq]C[L3 or 4 would be better shape. Or you can just tenuki. This group is safe enough for now.]
;W[gp]C[This move does nothing for white, since you can just respond at h5 and strengthen your position]
(;B[no]C[Trying to take the whole bottom right is too greedy, you have too many weaknesses. Strengthen your stones on the right instead.

If white runs then you can build up the right more easilly than trying to trap and kill white's group.]
;W[pj]
(;B[qh]C[Should I defend from R12 or should i be more agressive and try to attack from P12?

Neither approach is really more aggressive than the other, as either way white can escape pretty easilly (see variations).

Choosing r12 helps you protect as much of your top territory as possible and makes it harder for white to form a base.

p12 would make it harder for white to run out and may be worth persuing if you wanted to build up some thickness on the outside. This could work well if you then jumped out at the top (as it limits the influence of p15)

In this situation I think p12 is the better move. In the game white gained a lot of outside influence and you were mostly shut off from the left side. Considering the state of the left side of the board, I think you could really benefit from more influence in the centre.]
;W[ok];B[pm]C[This doesn't hinder white much.];W[pl];B[ql];W[qk]
;B[qm]C[The last 3 moves turned out much better for white than black. You could have just conceeded the middle right to white and played elsewhere and you would have been a lot better off.]
;W[om];B[on]C[This protects the bottom, but now there is not much room for expansion there. White could also prevent you from developing the top right by playing e.g. O13.]
;W[nm];B[rk];W[rj];B[ri]C[This is small. You need to do something about the top left.]
;W[rl];B[rm];W[sk];B[pn]C[Not necessary];W[qi];B[rh];W[ph];B[qg]
;W[og];B[md];W[of];B[mf]C[This is good, as it limits white's power and threatens to jump out to j16 or thereabouts]
(;W[pe]C[Useless.];B[qe];W[rf];B[qf];W[mg];B[lg];W[lh];B[mh]
;W[ng]
(;B[mi]C[This stone isn't worth saving.];W[li];B[mj];W[lj];B[ml]
;W[mk];B[nk];W[lk];B[nl];W[nj];B[ol];W[mn];B[pk];W[oj];B[lm]
;W[ll];B[mm];W[nn];B[pl];W[lo];B[kn];W[mo];B[np];W[mp];B[nq]
;W[mq];B[mr];W[nr];B[or];W[kp];B[jo];W[kq];B[kr];W[km];B[jm]
;W[kl];B[ln];W[kg];B[lf];W[je];B[kd];W[nh];B[ic];W[ie];B[gd]
;W[hd];B[gc];W[ge];B[ec];W[ed];B[dc];W[fd];B[hc];W[fc];B[fb]
C[this connection isn't safe]
(;W[cc];B[eb];W[cb];B[da];W[ca];B[hl];W[bd];B[fk];W[fj];B[en]
;W[fo];B[fn];W[gn];B[ho];W[eo];B[dn];W[do];B[cn];W[co];B[bo]
;W[bp];B[ap];W[bn]
(;B[an]C[Atari from the other side. You don't want B7 to live.]
(;W[ao]C[White could have done more damage here. Compare variation.]
;B[bm];W[am];B[al];W[cm];B[an];W[bo];B[cl];W[am];B[bl]C[You can just capture at D7 instead to link your groups.]
;W[dk];B[ck];W[cj];B[dj];W[di];B[bj];W[ej];B[bh];W[bi];B[ai]
;W[ci];B[ch];W[dm];B[dl];W[em];B[fm];W[el];B[ek];W[gk];B[fl]
;W[ik];B[dh];W[il];B[im];W[jl];B[hm];W[hk];B[fh];W[gg];B[ef]
;W[cg];B[dj];W[ei];B[dg];W[cf];B[ff];W[bg];B[gf];W[fe];B[hf]
;W[he];B[if];W[jf];B[ih];W[gi];B[gh];W[hh];B[hg];W[hi];B[fg]
;W[ag];B[ah];W[df];B[eh];W[ii];B[jh];W[ji];B[jg];W[kf];B[le]
;W[kh];B[ig];W[db];B[ea];W[gb]C[At this point I realized i have not defend properly, may I know if there is a way to better understand where is my weak point?

These things just come with practice. It's ok to make these kinds of mistakes from time to time if you are able to sacrifice stones for the greater good :)

In this case if you'd have connected at g18 you would have only lost one stone, so the defense wasn't that bad.]
;B[ga];W[fa];B[hb];W[ha];B[ia];W[ga];B[an];W[jc];B[jd];W[id]
C[Here again I thought i was protected but I was wrong.

There are two problems here -
1. j17 and l16 are a knights move apart, which means they can be cut
2. Once cut, the group on the left is short of liberties, so it is very difficult to defend.

This just needed another defending move after move 220.

Maybe spend some time studying which shapes can be easily cut, so you can recognise them in your games.]
;B[jb];W[ib];B[kc];W[ic];B[ka];W[ja];B[kb];W[nd];B[nc];W[lc]
;B[mc];W[nf];B[od];W[pd];B[pc];W[qc];B[qb];W[rc];B[rb];W[rd]
;B[re];W[sb];B[sd];W[mb];B[lb];W[pb];B[sc];W[sm];B[sn];W[rn]
;B[sl];W[rk];B[sm];W[ro];B[rp];W[qp];B[so];W[oo];B[qn];W[oq]
;B[ns];W[nq];B[pp];W[pr];B[os];W[qq];B[po];W[ps];B[ms];W[rr]
;B[sr];W[sq];B[rs];W[ss];B[rq];W[qr];B[sp];W[gl];B[gm];W[hp]
;B[jp];W[ne];B[ko];W[ee];B[lp];W[ke];B[ld];W[fi];B[dk];W[pg]
;B[si];W[qj];B[am];W[ia];B[sj];W[tt];B[tt]TB[sb][lc][rd][se]
[eg][gg][sh][bk][el][io][sq][lr][nr][ss][la][ma][na][oa][pa]
[qa][ra][sa][mb][nb][ob][pb][qc][rc][rf][rg][sf][sg][aj][ak]
[cm][dm][em][nm][om][gn][hn][in][jn][mn][nn][lo][mo][no][oo]
[rn][ro][kp][kq][mp][mq][np][nq][op][oq][qp][qq][pr][qr][rr]
[sr][ks][ls][ps][qs]TW[hb][cd][gd][de][oh][ki][gj][cp][gq][hr]
[da][ea][eb][fb][aa][ab][ac][ba][bb][bc][dc][ec][gc][hc][ad]
[ae][af][be][bf][ni][oi][pi][ij][jj][kj][mh][mi][mj][jk][kk]
[ep][fp][ap][aq][ar][as][bq][br][bs][cq][cr][cs][dq][dr][ds]
[eq][er][es][fr][fs][gs][hs]C[tamara [15k\]: thx
StanleyLim [16k\]: tq
StanleyLim [16k\]: nice game])
(;W[bm];B[cl];W[bl];B[ck];W[dj]))
(;B[bm];W[ao];B[cl]C[Two stones captured, but you have reduced the left hand side a lot.]
))
(;W[gb];B[hb];W[eb];B[ga];W[db];B[cc];W[cb];B[bc];W[bb]))
(;B[kh];W[li];B[kf]))
(;W[dj]C[White still hasn't played here.]))
(;B[oh]
(;W[qh]
(;B[ql];W[nj];B[mi];W[mj];B[li];W[on];B[oo];W[pl];B[jd])
(;B[oj];W[pl]
(;B[rl];W[ok];B[nj])
(;B[ok];W[ol];B[pk];W[nl];B[ql];W[qm];B[qk];W[pn])))
(;W[nj];B[ql])))
(;B[pj]))
(;B[kp])
(;B[pj];W[jq];B[kp];W[kq];B[kr];W[jp];B[jo]))
(;B[gd];W[dh];B[jd]C[If white wants the left, take the top.]
))
(;W[dj]C[big moyo on the left])
(;W[ic]C[expand the top left, preventing black doing the same in the top right]
)
(;W[pj]C[break up the right]))
(;B[mp];W[oq];B[mq];W[qp];B[po];W[pp];B[no])
(;B[gq];W[jq];B[dr];W[mq];B[pn]))
(;B[po])
(;B[pj])
(;B[fp])
(;B[cf]))
