(;FF[4]GM[1]SZ[19]ST[2]CA[utf-8]AP[SGFC:1.17]

PB[BaiZiHeizi]
PW[wjw670408]
WR[1d]
KM[0.5]
DT[2011-09-09]
PC[The KGS Go Server at http://www.gokgs.com/]
RE[W+1.5]
TM[1500]
OT[5x30 byo-yomi]
RU[Japanese]

C[        Hello !
   Before playing this game, I had already a losing feeling because in my head it's fermly written "I'm not 1dan, theses guys are scaring" (by the way I don't know how to manage that ^^), so maybe I have been passive some times and not at my better strength, but in the end the game was close so ...
  Anyway, I lost that game (I am black), and I would like to know if the game was well-balanced, where I did mistakes, especially how I could manage having points in the middle and reducing white's lower side. Thanks for any help, some more specific questions will follow in the sgf !
    Clément];B[pd];W[pp];B[ce];W[dp];B[qn];W[nq];B[pj];W[nc]
;B[jd];W[dc];B[fd];W[ed];B[ee];W[de];B[df];W[dd];B[fe]C[I connected this side because I wanted to attack O17 after that.

[Nexik\] Good decision];W[cf];B[cg];W[bf];B[dg];W[bg]C[Here is a first question : do I answer that or not ? I did in this game but didn"t protect after this so, I don't know if it was a good choice. I feel that white's move here is just yose so I better go tenuki.

B12 is sente so its good move. White add one stone in his territory (B15).]
(;B[bh];W[be];B[oc]
(;W[nd];B[pf]
(;W[kc]C[white mistake];B[jc];W[kd];B[ke];W[le];B[lf];W[me]
C[Ihad a doubt here, how can I close this group ? Because of the weakness of the L15 stone, I choose a nobi, I'm not sure it's the best.]
(;B[lg]C[It looks nice, but now white K18 is very good]
(;W[ng];B[ph];W[ni];B[li];W[nk];B[pl];W[qc]C[Here I really don't want the groups to connect, so I descended, but the following peeps really made me hesitate.]
;B[ob];W[qe];B[pe];W[qg]C[Here is it best to connect, or cut somewhere these three stones ?]
(;B[qf];W[rf]
(;B[re]C[mistake];W[rg];B[qd];W[pg];B[og];W[oh];B[of];W[pi]
C[I ened up here, deciding that my choice was bad, I still killed the upper group but my right group was in trouble.]
;B[nf];W[je];B[kf];W[jb];B[ib]
(;W[ka]C[mistake];B[lb];W[kb]
(;B[hc]C[mistake]
(;W[mb]C[mistake];B[lc];W[ld];B[mc];W[nb];B[na];W[ma];B[ne]
C[And white dies];W[oa];B[pb];W[qo];B[oj];W[nj];B[on];W[mn]
;B[ro];W[rp]
(;B[po];W[qp];B[no];W[mo];B[nl];W[ml];B[nm];W[mm];B[op];W[oq]
;B[qi];W[qh]
(;B[ok]LB[ri:A]C[I don't know if that move is important or not, but I think it's normal to end gote here, ad then white makes his lower side more solid

it looks like black need to add one stone but A is better place to end in a gote]
;W[cm]
(;B[ci]C[This is probably a huge mistake, given white's next move.

yes it's very slow];W[eq]C[Now white's lower side is very strong, so I needed to get points in the middle while reducing white, what do you think is the best choice around here ?]
;B[ip]C[Too deep]
(;W[jq]C[mistake];B[iq];W[jp]
(;B[in];W[io];B[ho];W[jo];B[hn];W[hp]
(;B[fm]C[This is a mistake ?

yes, gote];W[gp];B[lk]C[wrong order]
(;W[el]
(;B[fk];W[jm];B[ri];W[mk];B[ij];W[kj]C[White did a mistake here I think.]
;B[lj];W[jj];B[ii];W[kh];B[ki];W[ji]
(;B[jh];W[kl];B[ik];W[kk]
(;B[fl]C[mistake];W[dj];B[ei];W[bk]C[Where to play now ? Does black has any chances to win ? What looks the score like ? I don"t know at all how to count here ...]
;B[dn];W[cn];B[ck]C[My turn to play a mistake :)

yes huge mistake];W[cj]
(;B[ek]C[also not so good];W[dk];B[do];W[co];B[dm];W[dl];B[fo]
;W[fb];B[fc];W[gb];B[fp];W[fq];B[go];W[ir]
(;B[ep]C[And this is stupid too, I was so sure it was sente that I didn"t read it :(

very bad. White get chance to back to the game. lossing move]
;W[rn]C[This is huge. (by the way, how can one estimate the value of this move ?)]
;B[rm];W[so];B[rl];W[ej];B[fj];W[di]
(;B[dh]C[very bad];W[bi]C[Here I was stupid, I ended gote anyway but didn't try to protect these two stones ...]
(;B[fi];W[ch];B[mg];W[nh];B[oi];W[ph];B[jn];W[kn];B[np]C[Gote move ... I think the big question was earlier, when I hd to decide how to make points and reduce white, and how much ?]
;W[mp];B[nn];W[ah];B[gc];W[hb];B[ia]
(;W[em]C[mistake];B[eb];W[ec];B[db];W[cb];B[cc];W[cd];B[ca]
;W[bb];B[fa];W[ea];B[ha];W[da];B[eb];W[db];B[ga];W[eb];B[en]
;W[im];B[hm];W[mh];B[lh];W[il];B[hl];W[jk];B[ll];W[lm];B[sm]
;W[sn];B[sh];W[rh];B[se];W[sg];B[si];W[tt];B[tt]TB[nc][qj][ja]
[ka][la][ma][na][oa][pa][qa][ra][sa][jb][kb][mb][nb][qb][rb]
[sb][ic][kc][pc][qc][rc][sc][gd][hd][id][kd][ld][md][nd][od]
[rd][sd][ge][he][ie][je][le][me][oe][qe][ef][ff][gf][hf][if]
[jf][mf][eg][fg][gg][hg][ig][jg][kg][eh][fh][gh][hh][ih][kh]
[gi][hi][gj][hj][rj][sj][gk][hk][pk][qk][rk][sk][gl][ol][ql]
[sl][gm][om][pm][qm][fn][gn][pn][eo][oo]TW[os][ps][bl][rs][ss]
[aa][ba][ca][ab][ac][bc][cc][ad][bd][ae][ce][af][ag][bh][ai]
[ci][aj][bj][ak][qs][ck][al][cl][jl][am][bm][km][an][bn][ln]
[ao][bo][ko][lo][ro][ap][bp][cp][ip][kp][lp][sp][aq][bq][cq]
[dq][gq][hq][iq][kq][lq][mq][pq][qq][rq][sq][ar][br][cr][dr]
[er][fr][gr][hr][jr][kr][nr][lr][mr][or][pr][qr][rr][sr][as]
[bs][cs][ds][es][fs][gs][hs][is][js][ks][ls][ms][ns]C[good intuition. Very bad yose.]
)
(;W[eb]))
(;B[ch];W[ah];B[eh]))
(;B[eh]C[better];W[bi];B[ch]LB[ah:A][ai:B]C[A is Gote
B is black sente];W[ah];B[ll];W[lm];B[jn];W[kn];B[gc]))
(;B[rn]C[This is huge.]))
(;B[rn];W[fb];B[fc];W[gb];B[sp];W[sq];B[so];W[rr];B[do];W[co]
;B[fo]))
(;B[ek]C[huge]))
(;B[jk]C[black can capture whole group]))
(;B[oi]C[black chance];W[ph];B[mk]))
(;W[qj];B[qk];W[el]C[now white can tenuki]))
(;B[ck]LB[co:A]C[Now invasion at A is really strong]))
(;B[gq]C[it's hard to kill black]))
(;W[im]C[proper answer]))
(;B[fq]C[Maybe it's better to come here, or somewhere around J3 ?]
(;W[hq];B[cq])
(;W[eq];B[fp];W[iq];B[gn]))
(;B[ck]C[better but left side is not important])
(;B[oi]C[I would first test opponent.];W[ph];B[lk]
(;W[mk]
(;B[dq];W[eq];B[er];W[ep];B[dr];W[fr];B[cp];W[co];B[bp];W[gq]
;B[jl])
(;B[dr];W[cq];B[gq]))
(;W[eq];B[mk]
(;W[qj];B[rj];W[qk];B[rk];W[ql];B[qm]
(;W[rl];B[ri])
(;W[ri];B[rl]))
(;W[ri];B[rj]
(;W[rk];B[qj];W[sj];B[rl])
(;W[qj];B[rk])))))
(;B[ri]))
(;B[rj]C[simple solution]))
(;W[lc]
(;B[nb];W[mb])
(;B[mb];W[nb];B[na];W[ma]C[alive])))
(;B[lc];W[ic];B[id];W[hc];B[ld];W[hd];B[ie];W[he];B[if];W[ia]
;B[hf]LB[la:A]C[black A is sente so black is connected]))
(;W[lb];B[ja];W[ka]C[Ko is maybe better for white])
(;W[kb];B[hc];W[nb]C[This seems to live ... Then black strategy was bad somewhere, but where ?]
))
(;B[pg];W[qd];B[rg];W[se];B[nf];W[mf];B[mg];W[jb];B[ib];W[kb]
;B[je];W[nb];B[nm]LB[nh:A][of:B]C[Miai]))
(;B[qh]C[This choice seems to lead to on of white's group die (I assume the upper group dies if the same as in game happens)]
;W[qf];B[qd];W[pg];B[og];W[rd];B[rc];W[re];B[qb];W[oh];B[of]
;W[rh]
(;B[ri]
(;W[rg];B[rj]
(;W[mg];B[sf])
(;W[sf];B[nf]))
(;W[sg];B[rj]
(;W[mg];B[sf];W[rf];B[si];W[se];B[sh])
(;W[sf];B[nf])))
(;B[qi];W[ri];B[rj];W[sg];B[nf])))
(;W[jb];B[ib];W[kb];B[je]C[white is alive in sente]))
(;B[je]C[this looks very strong];W[ng];B[lh]))
(;W[ld]C[proper one]))
(;W[bi]C[just connect];B[ch])
(;W[ch]C[this is more difficult but know center is more important]
;B[dh];W[ci];B[di];W[cj];B[dj];W[ck];B[el];W[dm];B[em];W[dn]
;B[on]))
(;B[oc]))
