(;FF[4]GM[1]SZ[19]ST[1]AP[SGFC:1.17]

GN[p2501-zariuq-674584-20110914]
PB[zariuq]
BR[8k]
HA[0]
PW[p2501]
WR[10k]
KM[6.5]
DT[2011-09-08,2011-09-14]
PC[Dragon Go Server: http://www.dragongoserver.net/]
RE[W+0.5]
OT[Canadian byoyomi: 30 days + 5 days per 5 stones]
RU[Japanese]
GC[Game ID: 674584, rated]

C[This is cime. First of all, thank you for letting me review this game. As there were no comments by the player, any comment in here is from me. I hope it helps you a bit.

I made a short summary in move 217.];B[qd];W[dc];B[cp];W[pq]
;B[oc];W[qo];B[eq];W[dj];B[de];W[ce];B[dd];W[cd];B[ec];W[eb]
;B[db];W[cc];B[fb];W[ed];B[fc];W[df];B[ee];W[ef];B[fe];W[cb]
;B[cl]LB[qi:A]C[this is a nice exensions, but something around A looks better to me, is it uses the strength you just got in the top left and builts up a moyo
if w plays e.g. c7, that's still okai, as you can extend on the lower side, which is big by itself _and_ prevents white from extending there]
;W[ck];B[dl];W[qj]
(;B[kp]C[this is one too high and one too far in my opinion, see var.]
;W[iq]LB[gq:A]C[this invasion hurts, as w can play A but it is rather difficult for b to play there, as it would overconcentrate b]
(;B[kq]C[too solid ... remeber that b needs eye shape as well, as there is the strong whhite shimari]
;W[gq];B[fo];W[ho]C[w is more or les settled];B[kn]C[this is not so good as w is hard to attack at the moment .. it might be better to settle your group around o3 first and come back to attack the group later]
;W[jo];B[mn];W[qg];B[pi]C[good move]
(;W[pe]C[see var.];B[qi]C[good, stay with your plan and cut]
;W[pl]C[now you need to attack the w stones at q15 and r13]
(;B[pd];W[nf]
(;B[md];W[ni];B[pj];W[qk];B[nj];W[mj];B[nk];W[mh];B[om]C[b has gote and whites group is pretty much without problems because it could attack the stones at r11 and q11]
(;W[le]C[here b is lucky, see var.];B[ld];W[ke];B[jd];W[je]
;B[id];W[mk];B[im]C[good move as w tried to create a moyo in the center]
;W[hr]
(;B[gh]C[this move looks a bit random ... you wanted to reduce the territory so you just played somewhere ... see var.]
;W[ff];B[ge];W[gf];B[gk]C[a bit loose];W[ol];B[nl];W[nm];B[mm]
;W[nn];B[no];W[on];B[oo];W[pn];B[ml];W[fr];B[er];W[fj];B[gj]
;W[fk];B[gm]C[here you see, whyit is a bit loose];W[jk];B[fl]
;W[fi];B[ih];W[hl];B[gl];W[hm]
(;B[oq]C[too aggressive ... even though you manage too reduce whites territory a bit, you get yours reduced as well]
;W[or];B[pp];W[qq];B[qp];W[rp];B[po];W[ro];B[qn];W[pm];B[rq]
;W[qr];B[rr];W[rs];B[nq];W[nr];B[mr];W[ms];B[lr];W[ri]C[w gets the big point]
;B[ns]LB[rh:A]C[A is important to prevent the connection ... o1 is small]
;W[os];B[ls]C[this move makes no points ... you are too focused about something you hope in the corner ... don't hope for you opponents mistake
btw. see var]
(;W[qh];B[jr];W[jn];B[jm];W[in];B[bl];W[bk];B[ak];W[aj];B[al]
;W[bj];B[rf];W[rg]
(;B[qf]C[see var.];W[pf]LB[re:A]C[w can still play A];B[ij]
;W[es];B[ds];W[fs];B[cr];W[gi];B[hi];W[hk];B[hj];W[ko];B[lo]
;W[km];B[ln];W[kl];B[fh];W[eh];B[fq]C[very small];W[hg];B[rn]
;W[sq];B[hh];W[he];B[hd];W[gn];B[fn];W[oi];B[pk];W[ph];B[li]
;W[mi];B[ea];W[kd];B[kc];W[lh];B[me];W[mf];B[ki];W[kh];B[jj]
;W[kj];B[lj];W[kk];B[lk]C[another zero point move];W[re];B[qe]
;W[sf];B[rd];W[se];B[sd];W[sg];B[ca];W[ba];B[bb];W[da];B[ok]
;W[ql];B[ca];W[lc];B[kb];W[da];B[ei];W[eg];B[ca];W[mc];B[nd]
;W[da];B[ej];W[ek];B[ca];W[gd];B[fd];W[da];B[di];W[ci];B[ca]
;W[jc];B[jb];W[da];B[dh];W[ch];B[ca];W[ll];B[aa];W[ji];B[ae]
;W[bc];B[ac];W[bd]
(;B[be]C[see var.

i will finish the review here because there are only some endgame moves left.

1. It was pretty difficult to make this review for you as you didn't go through the game and comment on it yourself beforehand. But that is actually the first step for improving. And Go is a fight of plans and ideas. So if I don't know what you think, I can't say whether the move you played was "good" or "bad". It all depends on what you want to achieve.
2. Take your time and think more deeply about your moves and find reasons for them. A lot of your moves seemed like "oh, I need/want to play there." and then you jsut played somewhere in the area, but you didn't reason each possibility and then decided on which will lead to the best result (in you understanding). But this is a big part of the game of go.
3. Try to read more ahead. This was a game on the dragongoserver, so you had all the time you needed. Moves like B15 shouldn't be the result, if you would have read properly.
4. Think about points. You played a few time moves, that didn't make points, especially in the endgame (e.g. M1).
5. Basics. All the things I mentioned above are actually the Basics of Go. For now, you don't need fancy knowledge to improve, but just a base understanding and level of ability. Afterwards, you can actually try to concentrate on fancy openings, josekis etc.

For now, I think these are the major things. If you try to concentrate on these, you should be able to improve by a lot.]
;W[bf];B[da];W[af];B[ba];W[ie];B[oe];W[of];B[jg];W[jh];B[ig]
;W[kg];B[jf];W[ne];B[od];W[is];B[kf];W[lf];B[ir];W[js];B[ks]
;W[hs];B[jq];W[jp];B[gp];W[hp];B[go];W[el];B[em];W[dk];B[hn]
;W[ik];B[gg];W[hf];B[ns];W[ps];B[ms];W[gn];B[ab];W[ad];B[hn]
;W[ic];B[hc];W[gn];B[so];W[sr];B[hn];W[ib];B[hb];W[gn];B[gr]
;W[gs];B[hn];W[lp];B[mp];W[gn];B[ip];W[io];B[hn];W[dr];B[cs]
;W[gn];B[rq];W[sp];B[hn];W[lq];B[mq];W[gn];B[fg];W[hn];B[fm]
;TB[am][an][ao][ap][aq][ar][as][bm][bn][bo][bp][bq][br][bs]
[cm][cn][co][cq][dm][dn][do][dp][dq][dr][eb][ed][en][eo][ep]
[fa][fp][ga][gb][gc][gd][ha][ia][ib][ic][ja][jc][ka][kr][la]
[lb][lc][lp][lq][ma][mb][mc][mo][na][nb][nc][np][oa][ob][op]
[pa][pb][pc][qa][qb][qc][ra][rb][rc][sa][sb][sc]TW[ae][ag][ah]
[ai][be][bg][bh][bi][cf][cg][cj][dg][dh][di][ei][ej][gr][hq]
[il][im][ip][jl][jm][ki][lg][li][lj][lk][mg][ng][nh][og][oh]
[om][pg][pr][qm][qn][qs][rh][rj][rk][rl][rm][rn][rq][rr][sh]
[si][sj][sk][sl][sm][sn][so][ss]N[RESULT]C[White: 56 territories + 33 prisoners + 6.5 komi = 95.5
Black: 71 territories + 24 prisoners = 95
Result: W+0.5])
(;B[ad];W[be];B[bf];W[cf];B[da];W[bg];B[ba];W[af];B[ab]C[nice reducation (:]
))
(;B[pf]
(;W[qe];B[qf];W[re];B[rd]
(;W[oe];B[se])
(;W[sf];B[oe]))
(;W[og];B[oe]))
(;B[qe];W[qf];B[se];W[pf]))
(;W[qs]C[w can answer here when you take the ko ... so your throw-in didn't actually mak any points]
))
(;B[nq];W[nr];B[mr];W[or]C[just like this is fine]))
(;B[ff];W[fg];B[fi]
(;W[gg];B[ci]C[this looks pretty hard for w, so w will have to play more submissively]
)
(;W[bk]
(;B[ek];W[bm];B[gn])
(;B[bl];W[gg];B[fk]C[nice reduction and w still has too defend around e12]
;W[dh];B[nq]))))
(;W[gd];B[fd];W[kd]C[this is what i would have played ... now w can run from there or/and even try to make sabaki in there as there is some space (for one eye at least)]
))
(;B[ni]C[here first seems safer]))
(;B[pj]
(;W[pd];B[pc];W[qc];B[rc];W[qb];B[rd];W[rb];B[sb];W[pb];B[ob]
;W[qe];B[pa];W[re];B[ra]C[b is faster, so it is okai (even though there might be a ko possible, but that would be hard to fight for w, so w is not going to cut)]
)
(;W[qk];B[md];W[og];B[mi];W[mg];B[ke];W[kg]
(;B[mk]C[b is making territory and good shape while w runs]
)
(;B[ki];W[ig]))))
(;W[qi];B[pg];W[ph];B[oh];W[qh];B[pf];W[oi];B[nh]C[something like this would be standard, but of course, this is way too good for b here so whites decision to do something different is good]
))
(;B[kr]C[maybe here might be lighter]))
(;B[jq]
(;W[lq];B[jo];W[lo];B[jm];W[lm];B[qh];W[oj];B[oh]C[imagining a seriously calm play, b got more in the end]
)
(;W[hq];B[jo];W[ho];B[fo];W[hm];B[jm];W[hk];B[mq]C[b is settled and made terrtory ... and there is still aji to invade both of whites moyos]
)))
