(;FF[4]GM[1]SZ[19]ST[2]CA[UTF-8]AP[SGFC:1.17]

GN[Suphyph-billg-661790-20110914]
PB[Bill]
BR[10k]
PW[Suphyph]
WR[9k]
KM[-2.5]
DT[2011-07-06,09-14]
PC[Dragon Go Server: http://www.dragongoserver.net/]
RE[W+15.5]
RU[Japanese]
GC[Game ID: 661790, rated]

C[Reviewed by NM.];B[pp];W[pc];B[dd];W[dp];B[pe];W[nd];B[qd]
C[NM: R17 better.];W[kd]C[NM: I would play R17 here, which is more or less sente (otherwise a move somwhere round Q13 becomes very nasty.]
;B[cj]C[Big, but again I would play R17 in a sort of reverse sente]
;W[np];B[pn]C[NM: Good];W[oq]C[NM: again Q3 would be better]
;B[pq]C[NM: more or less sente];W[kp]C[NM; B can play N3 later]
;B[qi]C[NM;: good, reinforces both sides.];W[gq];B[cn];W[gc]
C[NM: I think I would play F17, which is harder on the hoshi stone - bearing in mind there's still R17 if W tries to invade.]
;B[bp];W[cq];B[bq]C[NM: Big, but probably not the biggest point on the board. I would prefer F6, R17, K4, or E17]
;W[cd]C[NM: I don't like this. G4 isn't near enough to give effective support. The simple answers C17 or D17 are quite effective. I would play here either C14 or C5 followed by D6. Or even R17.]
;B[ce];W[cc]
(;B[df]C[I prefer D17. See variation for one sequence.];W[dc]
;B[qc]C[NM: Big but a little passive];W[dn]C[NM: Good];B[cm]
;W[pl]C[NM: possible, but I would play R9, which threatens the R11 stone. If W answers Q10 (probably his best play), this stone is poorly placed.]
;B[ql];W[qk]C[NM: So W gets R9 after all.];B[qm];W[pk]C[NM: very solid, but I'm tempted by R10 to keep sente.]
;B[cr];W[dr];B[cp];W[dq];B[br]C[NM: Surely not the biggest play on the board? What about O6, P11, J3 or K4, J17, E16 (pretty well sente, followed perhaps by G15 or H15), N16, or D7? Any of these would be bigger.]
;W[nm]C[NM: a bit thin, but big. Still leaves B P7, then  O6. I would play R13 here.]
;B[ic]C[NM: Good. My only question would be whether B should play P11 first,]
;W[id]
(;B[mc]C[NM: Interesting. The more conventional K16 would also work well, because B wins the ladder. The problem with this play is it can lead to B taking low territory, while W has a high moyo. See variation.]
;W[md]C[Sup: I'm sure I messed up the the defense of this invasion. NM: It came out quite well for W in the end.]
;B[kc];W[lc];B[lb];W[ld]
(;B[nc]C[NM: I don't like this: it leaves W too easy an answer at N18. I would play N18 or K18. See variations.]
;W[od]C[NM: W should cut, preferably at N18]
(;B[ob];W[jc];B[jb];W[kb];B[ka]
(;W[ib]C[NM: I would cut at M18 - see variation.];B[kc];W[hc]
;B[pb]C[NM: I don't think B got full value from his invasion, particularly since the weakness at R13 remains.]
;W[dm]C[NM: bigger than it looks, but still I would prefer R13, P13, or C13.]
;B[dl]C[NM: Does B have to answer? I think I would play K4 or J3.]
;W[fm];B[fk]C[NM: A big move in itself, but it provokes an even bigger answer by W.]
;W[hl]C[NM: Huge!]
(;B[iq]C[Sup: This is probably way too deep, right? I would have played something more around L8. 

NM: I don't think L8 is enough to win. I think I would play L6, and if W tried to surround me I would play L3. The fight gets pretty complex though.  See variation for some examples. Another possibility would be to start with M6.  Or indeed P7/O6. See more variations.]
;W[kr]C[NM: defensive, but very sound. protects N3 as well.]
;B[io]C[NM: Hopeless. I would jump to K5, but I wouldn't even be sure that will survive.]
;W[kl]C[NM: Good.];B[il]C[NM: a nice effort to save what he can, but I think it is not enough to win.]
;W[im];B[hm];W[jm];B[gl]
(;W[gm]C[NM: Bad. If B replies H6, things get nasty. Much sounder to play H6.]
(;B[hk];W[hn];B[ge]C[NM: Very big, but is it enough?  B has 23 in TR, 20 in BR, 52 on L. W has 20 in TL, 57 at bottom., sente, and better prospects for more.]
;W[ig]C[NM: A reducing move, nearly sente. But if B plays P11, the game is still close, i think.]
(;B[hh];W[hg];B[gg];W[gf];B[ff];W[hf];B[fh];W[qg]C[NM: at last!]
;B[pg];W[ph];B[qf];W[og];B[pf];W[pi]C[NM; terrible! Should be R12 (which also stops any attack on Q9).]
;B[kj]
(;W[jj]C[NM: Doesn't seem much point in cutting unless you can stir up trouble somewhere, and I don't see how to do that. How about J12?]
;B[jk];W[kk];B[ji];W[lj];B[ij]C[Sup: Maybe L11 here instead could have reduced much more.

NM: That would indeed be better.];W[kh];B[qh]C[NM: Good];W[qj]
;B[rg];W[of];B[pr];W[or];B[be];W[bd];B[ds];W[es];B[cs];W[er]
(;B[op]C[NM: Surely O6 is bigger? See variation.];W[nq];B[no]
;W[mo];B[nn];W[mn];B[he];W[ie];B[om];W[ol]C[NM: B has finished with a similar position to the variation, but has played P4 rather than P1 and Q1, thereby losing some 6 points. W is now about 6 points ahead.]
;B[jh];W[jg];B[ed];W[ec];B[fd];W[el];B[ek];W[ps];B[qs];W[os]
;B[qr];W[ae];B[af];W[ad];B[bf];W[oe];B[fc];W[fb]
(;B[ih]C[NM: Small. L18 is bigger. Or B can try and stir up real trouble with M11. See variation for one possibility.]
;W[rk];B[rl];W[ki];B[jj];W[co];B[bo];W[do];B[ri];W[kb];B[ja]
;W[ia];B[mb]C[NM: B must fight the ko! He will still find it difficult to win, but without he's 12 points behind.]
;W[la]C[NM: W has won. No further comments.];B[ma];W[ka];B[sk]
;W[fl];B[hl];W[pm];B[on];W[sj];B[qn];W[nl];B[sl];W[rj];B[oc]
;W[pd];B[si];W[gd];B[fe];W[jl];TW[aa][ba][ca][da][ea][fa][ga]
[ha][ja][ab][bb][cb][db][eb][gb][hb][jb][ac][bc][ic][kc][jd]
[je][ke][le][me][ne][if][jf][kf][lf][mf][nf][kg][lg][mg][ng]
[lh][mh][nh][oh][li][mi][ni][oi][mj][nj][oj][pj][lk][mk][nk]
[ok][ll][ml][em][km][lm][mm][en][fn][gn][in][jn][kn][ln][eo]
[fo][go][ho][io][jo][ko][lo][ep][fp][gp][hp][ip][jp][lp][mp]
[eq][fq][hq][iq][jq][kq][lq][mq][fr][gr][hr][ir][jr][lr][mr]
[nr][fs][gs][hs][is][js][ks][ls][ms][ns]TB[na][oa][pa][qa][ra]
[sa][nb][qb][rb][sb][rc][sc][rd][sd][de][ee][qe][re][se][cf]
[ef][rf][sf][ag][bg][cg][dg][eg][fg][qg][sg][ah][bh][ch][dh]
[eh][gh][rh][sh][ai][bi][ci][di][ei][fi][gi][hi][ii][aj][bj]
[dj][ej][fj][gj][hj][ak][bk][ck][dk][gk][ik][al][bl][cl][am]
[bm][rm][sm][an][bn][rn][sn][ao][oo][po][qo][ro][so][ap][qp]
[rp][sp][aq][qq][rq][sq][ar][rr][sr][as][bs][rs][ss]C[White: 107 territories + 8 prisoners + -2.5 komi = 112.5
Black: 93 territories + 4 prisoners = 97
Result: W+15.5]N[RESULT])
(;B[li];W[ki];B[lk];W[mj];B[mk];W[nj];B[in];W[hl];B[mm];W[nl]
;B[hm];W[gn];B[km];W[lm];B[kn];W[ll];B[jl];W[hl]C[NM: Gets very messy.]
))
(;B[nn];W[mn];B[no];W[mo];B[om];W[ol];B[os];W[ns];B[ps];W[nq]
;B[ed]C[NM: Looks very close to me.]))
(;W[ih];B[hi];W[lh]))
(;B[oi];W[gh];B[fh];W[gg];B[om];W[nl];B[ol];W[ok];B[nk];W[pm]
;B[on];W[nj];B[mk];W[oj];B[nn];W[lm];B[lk];W[ll];B[kk];W[ni]
;B[oh];W[nh];B[og];W[ng];B[mo];W[mp];B[lo];W[ko];B[kh];W[of]
;B[pf]C[NM: B: 29 at TR, 20 at BR, 45 on L. W: 25 at top, 45 at bottom, and sente.  Pretty close, maybe B slightly ahead.]
))
(;B[hn];W[hk];B[ik];W[hj];B[fo]C[NM: Messy!]))
(;W[hn];B[gm];W[gn]
(;B[hk];W[in])
(;B[in];W[hk]C[B fails.])))
(;B[kn];W[kk];B[kq];W[lp];B[hq]
(;W[jq];B[jp];W[iq];B[ip];W[hr];B[hp];W[gr];B[il];W[ik];B[hm]
(;W[jl];B[gl];W[im];B[gm];W[hn];B[gn])
(;W[hk];B[gm];W[gl];B[ll];W[lk];B[ml];W[mk];B[ko]C[NM: I think B can make a living shape exploiting W's weaknesses.]
))
(;W[jp];B[jq];W[ip];B[hp];W[iq];B[ir];W[hr];B[gr];W[jr];B[hs]
;W[kr];B[eo];W[do]))
(;B[mn];W[nn];B[mo];W[no];B[jn];W[jk];B[lk]C[NM: difficult to cut off now.]
)
(;B[om];W[nl];B[ol];W[ok];B[nk];W[pm];B[on]C[NM: Now if W plays O6 he'll have to struggle to save R9; if not, B marches into his moyo.]
))
(;W[mb];B[kc];W[nb];B[jd];W[je];B[jc];W[ie]C[NM: W does quite well here.]
))
(;B[pb];W[ob];B[oc]
(;W[pd]C[NM: gives B all the territory, but is quite interesting ...]
;B[nb];W[qe];B[re]C[NM: The cut at R18 means B can't resist this.]
;W[qf];B[rf];W[qg];B[rg];W[qh];B[rh];W[pi]
(;B[ri];W[of]C[NM: Now the game hangs on whether B can reduce the W moyo in TR, starting with something like K11.]
)
(;B[qj];W[pj];B[ph];W[rk];B[ri];W[pf];B[of];W[oe];B[pg];W[pe]
C[NM: an interesting challenge here. If B can reduce W's moyo here substantially, he should win. I would play somewhere round M12, treating the B Q13 group lightly.]
))
(;W[mb];B[pd];W[nb];B[pc]C[NM: sente, because of L17/L18.];W[kb]
;B[nf]C[NM: This protets B's weakness at R13, and means W gets no moyo. There remain W weaknesses round points like H16.]
)))
(;B[mb];W[jc];B[kb];W[jb];B[ob]
(;W[oc];B[pb])
(;W[pb];B[oc]C[NM: Failure for W]))
(;B[jb]
(;W[mb];B[hc];W[hd];B[gb];W[fc])
(;W[hc];B[nc];W[oc];B[ob];W[pb];B[nb];W[od];B[qb])))
(;B[jd];W[jc];B[je]
(;W[kc];B[hd];W[ib];B[hc];W[hb];B[gd];W[fc];B[fe]C[NM: a satisfactory result for B from his invasion.]
)
(;W[hc];B[kc];W[ib];B[ld]C[NM Again, the ladder works.])))
(;B[dc];W[be];B[bf];W[cf];B[de];W[bg];B[bd];W[af];B[bc];W[eg]
;B[ge];W[hd];B[ch];W[df]))
