(;FF[4]GM[1]SZ[19]CA[UTF-8]AP[SGFC:1.17]

GN[Riani-grommit-654012-20111022]
PB[grommit (grommit)]
BR[14k]
PW[Freddy (Riani)]
WR[20k]
KM[6.5]
DT[2011-05-28,2011-10-22]
PC[Dragon Go Server: http://www.dragongoserver.net/]
RE[B+Time]
OT[Japanese byoyomi: 60 days + 1 day per move and 10 extra periods]

RU[Japanese]
GC[Game ID: 654012]

C[===
Hi,
I'm Scaerloc, and I'll review your game.

General commentary :
It's quite good, you see things clearly, and you hve good ideas.
The the things that both of you missed were the cutting points and the timing for attack.
Just remember three things :
       - Cut whenever you can. Divide to reign.
       - Attack quickly when there is an opportunity, a thin wall for instance.
       - Do not try to settle in your opponent's territory.
If you keep that in mind, I'm sure you'll become stronger!

See you, and continue to enjoy go :-)];B[pd];W[dp];B[dd]LB[jc:a]
[pq:b]C[==
Well, I never played the next move (R5), so...
As white, I would play a, so as to prevent black from playing K16.
b would be a mistake, I guess.]
(;W[qo]LB[jc:b][pq:a]C[either inviting him in with A, or after he completes his formation with B, then A to see his plan.]
;B[jc]C[==
Black K16 is better, I guess. White K15 is problematic for black, while a sanrensei is  powerful shape.]
(;W[pq]C[==
Like previously : black should attack now.]
(;B[cj]C[==]
(;W[qf]C[sente is the goal.]
(;B[nc]C[== 
there, you let white getting a strong right side];W[qi]C[not joseki, but fast and flexible. settling comes later.]
(;B[gq]
(;W[iq]C[building the moyo goal of the Orthodox];B[cn];W[dn]
LB[eo:a]C[feels wrong. is A better?

==
Yes, you should put the pressure on  G3, and force him to flee.]
;B[bp]C[proving he previous point.];W[cq];B[go]
(;W[lq]LB[io:a]C[A instead shows more kiai (spirit)

==
Yes, same remark.];B[pj]C[==
It's a good idea to hit the shoulder, but G3 is still weak : play D2 instead, for instance.]
;W[ql]
(;B[qj];W[rd]C[setling before dealling with the cut threat.]
;B[qc];W[rj];B[pi];W[qh]C[settling.];B[mj]C[oba

==
The situation I had shown previously was better for black : white wasn't settled.]
(;W[ml]C[mirroring to test...
==
3 spaces jump is too weak : black can easily break through.]
;B[jj]LB[io:a]C[his stones spring to life.
A is probably best, but I didn't have the guts at the time.

== 
your stones at N10 are not endangered : you can flee in two directions.
So, help you stones at G3, and atack the stones at C3.];W[cg]
;B[cd]LB[ce:a]C[too slow. A puts more pressure on W.];W[di]
(;B[dl]TR[go][gq]C[a light response which gives me a way to attack teh two marked stones.]
;W[dm];B[cm];W[dk];B[ck];W[el]LB[em:a]C[get thick before a fight. this atari was mostpy to ensure the kiri  at A, bu was probably not nessecary in hindsigh.]
;B[in]LB[il:b][io:a]C[Knowing my fears at the time, one line lower, at A would have probably crushed me.
it also does not leave the defect at B or the cut threat.]
(;W[il]C[hitting the weak point. Bluffing.

== 
You are too light to prevent him from connecting.
Instead, attack him at his weak points.];B[gl]C[bought it?]
;W[hm]C[commmence leaning attack.];B[gm];W[hn]C[last chance.]
(;B[gn];W[io];B[hl];W[ho];B[fr];W[eq];B[er];W[dr];B[hj]
(;W[gd]C[Atakc recommences.];B[fc]
(;W[gc]C[aiming for eyes and quick life if nessecary.

==
bad move : do not try to settle in black's territory.];B[ef]
;W[je]C[a bold move that should have been punished.]
(;B[ld];W[lf]LB[mf:b][mg:a][og:c]C[too timid?
would have A B or C been better?];B[of];W[oh]TR[qj][pi][pj]
C[aiming to attack the three stones. miscalculated, but leads to good aji.]
;B[ph];W[pg];B[og];W[fg]CR[hj][jj][mj][qj][gq][of][og][ph][pi]
[pj][gl][hl][gm][gn][go][er][fr]SQ[je][lf][cg][di][dn][dp][cq]
[eq][dr][gc][gd]TR[ni][nh][oh][dk][ek][cl][dl][el][dm][em]C[==
At this point, there are two filiform groups (square and circle), with two cutting points (triangle). 
Those points are the focal ones.
Both players must take the control of those points, so as to make the life uneasy for his opponent : when you can, cut.]
(;B[eh];W[eg];B[dh]TR[dg][ch][dj]C[Extremely stong mve exploiting the weaknesses of the three marked points.]
(;W[dj];B[ci]LB[dg:a]C[feard A instead.];W[ii]CR[gd][je][lf]
[fg][oh]C[moyo establisment.

==
This is not a moyo.
This is a weak group that has to struggle for life.
Your moyo is in the bottom left corner (and this is a huge one !), 
your circled group is a way of disturbing black's moyo.];B[ij]
;W[ji];B[ki];W[kh]LB[jh:a]C[after the cut at A foce him to destroy his own territory.]
;B[li];W[hi];B[ol]C[==
good. black destroys white's too thin wall.
When you make a wall, make it small, but thick especially when your opponent is strong nearby.]
;W[ok]C[aiming for a ko-shape furikarwari.];B[pk];W[pl];B[nk]
;W[nl];B[om]C[we arent 30k.  should have seen this coming.]
;W[kl];B[oo];W[nn];B[on];W[no];B[oq];W[op];B[pp];W[np];B[qq]
;W[pr];B[qp];W[po];B[or];W[nq]C[defending the lower atack on the moyo.]
;B[qr];W[qk]C[simplifying and heading to endgame is the goal here.]
;B[oj]C[==
catastrophic isn't it ?];W[fb];B[ec];W[cl];B[bl];W[dg];B[ch]
;W[fi];B[fh];W[gh];B[bf]
(;W[fe]LB[bg:a]C[massive error. should be at A. as in variation.]
;B[bg];W[hb]LB[ja:d][ka:b][db:c][eb:a]C[if A, B; if B or D. C.]
;B[eb];W[ka];B[kb];W[ja];B[jb];W[ib];B[la];W[ia];B[lb]
(;W[mh];B[lh];W[kg]
(;B[rc]C[a big yose point, but B can still get it  later..]
;W[mg];B[id]
(;W[he];B[ie];W[if];B[nr];W[mr];B[ps];W[bq];B[cp];W[ne];B[oe]
;W[hr];B[hp];W[ip];B[hq];W[pm];B[ro];W[rn];B[rp]
(;W[qd]LB[pn:a]C[merits of this vs and immediate A?];B[qe];W[re]
;B[pf];W[qg];B[nh];W[ni];B[oi];W[mi];B[kk];W[lk];B[lj];W[jk]
;B[kj];W[jl]LB[mk:a][pn:c][gr:b]C[bad. even A is better and B and C have definite merit.]
;B[nj];W[gr];B[fq];W[gj];B[gk];W[fp];B[gp];W[ng]LB[pn:a]C[shoud be skipped .go to A first.]
;B[oh];W[pn];B[fk];W[ei];B[fo];W[ep];B[ee];W[ff];B[cf];W[jd]
;B[ic];W[kd];B[md];W[le];B[me];W[nf];B[od];W[nm];B[ok];W[lg]
;B[fj];W[gi];B[ik];W[mk];B[kc]C[I didn't see this. Very good move.]
;W[jf];B[fa];W[gb];B[aq];W[ar];B[ap];W[bs];B[do];W[eo];B[co]
;W[en];B[fd];W[df];B[de];W[ga];B[ea];W[sc];B[sb];W[se]LB[sd:a]
C[B+T
A foolish move on my part.
A is sufficient as the ko allows for resolotion of a permanant eye in response.]
)
(;W[pn];B[re]
(;W[qe];B[sd];W[qd];B[se])
(;W[qd];B[qe];W[sd];B[se])
(;W[rf];B[qe]))
(;W[ni]C[==
! Cut ! Black is dead !]))
(;W[ni];B[qn];W[pn];B[pm];W[qm];B[ro]))
(;B[mg];W[mf];B[lg];W[ne];B[rc]))
(;W[rc];B[rb]C[==
white keeps sente.]))
(;W[bg];B[ff];W[gf]
(;B[ge];W[he];B[fe];W[hf];B[ps]C[Tenuki];W[aj];B[ah];W[bh];B[bi]
;W[ai];B[ag];W[af];B[ae];W[ag];B[be];W[bk])
(;B[bh]C[==
Blak is not crazy !
Nevertheless, Black is still very weak, with tons of aji ...]
)))
(;W[bq]C[==
it is useless to connect D11.
make eyes instead.]))
(;B[cl]
(;W[ek];B[em];W[fm];B[en];W[do];B[fn];W[bq];B[dj];W[ej];B[ei]
;W[fi];B[eh];W[eg];B[dh];W[ci];B[ch];W[bi];B[bh]C[==
catastrophic for white.])
(;W[em];B[ek];W[fk];B[ej];W[dj];B[fj];W[bq]C[==
Bad for white.];B[mg])))
(;B[hd]C[coninuation unknown. this has more kiai though.]))
(;W[ng]C[==
Black won't kill G16 easily, so, prevent him from locking his right side.]
)
(;W[gf]))
(;W[ng]C[==
good too.]))
(;B[ho];W[io];B[jo]
(;W[jn];B[ip])
(;W[ip];B[jn];W[jl]C[maybe not so good.

== 
very good so white : you get a strong territory !]
(;B[hk];W[gn];B[fn];W[fm])
(;B[gn];W[cl];B[bl];W[dl];B[hk];W[kk];B[gd]))))
(;W[cl];B[bl];W[ng]))
(;B[dj];W[ei];B[eg];W[ej];B[ek]C[==
Better for black.]))
(;W[ej]C[==
attack black.])
(;W[je]))
(;B[mj]C[==
play lightly : your goal is to erase White's influence, not to build territory.]
))
(;W[io];B[gm];W[co]))
(;W[jq]C[==
I would have played there,]))
(;B[jq]C[==
Attack there : if white comes on one side, you go on the other side.]
(;W[lq];B[gq])
(;W[hq];B[mq])))
(;B[qi]C[==
Pincering would be a good idea : you attack the white stone, and you create a shape near R11.]
))
(;W[jp]C[==
Playing here makes a very strong shape, but it would let black play R10.]
))
(;B[jq];W[lq];B[gq]))
(;W[je]))
(;W[pq];B[po];W[qo];B[qn];W[qp];B[pn];W[nq];B[pj]C[==
and black is happy. with his influence.]))
