(;FF[4]GM[1]SZ[19]ST[2]CA[UTF-8]AP[SGFC:1.17]

GN[speedchase-OmnipotentEntity-690647-20111212]
PB[Michael Reilly (OmnipotentEntity)]
BR[14k]
PW[Ben (speedchase)]
WR[13k]
KM[0.5]
DT[2011-11-13,2011-12-12]
PC[Dragon Go Server: http://www.dragongoserver.net/]
RE[B+33.5]
RU[Japanese]
GC[Game ID: 690647, rated]

C[Hi there Mister or Madam reviewer!

I was hoping to get some insight what we're doing wrong and right. :)  Each of us made a few obvious mistakes, and loads of not so obvious ones.  I was hoping to get some insight on the not so obvious ones.  As well as fuseki and chuban.

I've gone and marked all of the obvious mistakes in the comments.  Please correct me if I'm wrong and let me know if I missed anything.

Thank you so much in advance.

================================

Hi Michael

My comments in the game are preceded by my initials, "NR". 

In general, try to avoid responding to each other just because a move was played somewhere. Try to think out the reasons for playing somewhere, and try to have more than 1 reasons to play somewhere. That is, try to achieve 2, or even 3 purposes by placing one stone (e.g. defend and make territory, or attack and make territory, or attack and reduce opponent and make territory etc).

I think black had a comfortable game once the right side was connected. That's a reason to keep the game simple and gain few points here and there rather than complicating the game with risky invasions. As you noticed, the invasion you felt was awkward, ended up as a group that would have died if it wasn't for white's oversight. By not complicating things, you avoid risking mistakes like that that may easily cost you the game. 

Feel free to ask me if you need any clarifications. I hope you will find this review helpful.]
;B[dd];W[pp]C[Ben: onigaishimasu];B[cp]C[Michael Reilly: You have a good game too :)]
;W[ep];B[pd];W[cq];B[bq];W[dq];B[bo];W[iq];B[dn];W[qf];B[qh]
;W[qc];B[qd];W[pc];B[od]C[NR: See variation. White usually goes for S16 here.]
(;W[oc];B[nc]LB[nb:A][nd:B]C[NR: White could perhaps cut here?]
(;W[nb];B[mc];W[rd];B[re];W[rc];B[qe]LB[dj:A][pj:B]C[NR: The two sides seem to be the most open areas currently on the board. Personally I prefer the right side (i.e. B) since it is also an extension from the bottom right corner (Q4). R10 is therefore not a bad move if you ask me, however it may be considered to be "close to black's thickness"... If that is what worries you, perhaps R9 is also a good option?]
;W[qj]LB[mb:A][di:B][qn:C]C[This seems questionable to me.]
;B[qn]LB[mb:A][di:B]C[This too.  What's the best way to play this stuff out?

NR: Now this move is perhaps not the best, as you are basically invading white's area without much reason to do so at the moment. You still have big moves to play on the left and top. With R6 you can end up with a weak group, for no reason. Having said that, it's a mistake I still do! so you may wish to also review this with a strong player who can further elaborate.]
;W[qo];B[pn];W[np];B[ql]LB[pi:A]C[NR: R8 is now too close to R6 stones, making the shape inefficient. Also white has the option to prevent connection of black's stones, by playing for example at A. Then black gets his weak group there. See variation.]
(;W[oj];B[rj];W[rk];B[qk];W[ri];B[pj];W[qi];B[pi];W[rh];B[ph]
;W[sj];B[nn]C[NR: Result seems too good for black, with all his stones on the right connected..]
;W[ci]
(;B[ck]C[NR: You can also try to play from the top side, as you are already strong at the bottom and C9 is considered close to your strength. If you try C13, you can start developing the top corner as well. See variation.]
;W[cf]C[NR: Black can answer solidly at C16 and avoid complications with invasion etc.]
(;B[ce];W[df];B[fd];W[cc];B[dc];W[be];B[bd];W[cd];B[cb]C[Wrong order, obvious mistake.]
;W[bc]
(;B[nr]LB[mb:C][id:A][lp:D][qq:B]C[Questionable.  I was considering also A and B.

NR: C also seems like a big point to me. You are right, O2 seems a bit awkward. I would not play it. Black seems ahead and no need ot invade so deep. How about M4 (i.e. D) or L4?]
;W[pr];B[qq];W[qp];B[oq];W[pq];B[op];W[nq];B[or];W[lq];B[no]
;W[mr];B[lp]C[Slow

NR: Compare this, with just playing M4 without the preceding moves (i.e. variation at move 57).]
;W[kp]
(;B[lo];W[id]LB[ff:A][gf:B][if:C]C[NR: I would probably try something from above. Threaten to close in and/or capture the invading stone, while also developing centre influence?]
;B[kd];W[gc];B[fc];W[gb];B[bb];W[ad];B[ib]C[Strange.

NR: Indeed.];W[if];B[kf];W[eb];B[fb];W[fa];B[gd];W[hc]LB[gf:A]
C[NR: Try to play more lightly. No need to force white to attack your stones. You help white connect and at same time make your strange move "J18" even weaker.]
;B[hd];W[ic];B[ie];W[je];B[he];W[jd]LB[jf:A]C[NR: Can probably just cut here and fight.]
;B[gg];W[ke];B[db];W[kc];B[mb];W[ob];B[ld];W[jb];B[jf];W[fn]
;B[fl];W[dj];B[fj];W[jn];B[ko];W[jp];B[jo];W[io]
(;B[im]C[NR: In general, don't peep if you can cut! Go for the cut here. See variation. It is in my opinion good for black.]
;W[in]C[NR: Now white is happily connected and heading to reduce any potential territory in the centre.]
;B[hm]LB[km:A]
(;W[go];B[kl];W[kk];B[jl];W[ll];B[lm];W[jj];B[lf];W[mj];B[ml]
;W[lk];B[li];W[ki];B[lh];W[ek];B[fk];W[el];B[dl];W[em];B[dm]
(;W[bj];B[bk];W[cj]TR[ci][dj]C[Slow

NR: Right! Slow, unnecessary, and simply BAD SHAPE. It is basically the Empty Triangle (twice). Avoid forming this unless in the rar cases where it is considered the "only move" - I think in some life and death situations.]
;B[ps]LB[oo:A]C[Big mistake,];W[qs];B[os]
(;W[rq];B[oo]C[Michael Reilly: oh man, that was almost bad. :X]
;W[eg];B[fh];W[eh];B[rg];W[sh];B[sg];W[rl];B[ma];W[lb];B[ms]
;W[ls];B[mq];W[mp];B[mo];W[km];B[mm];W[rn];B[la];W[ka];B[lc]
;W[kb];B[ec];W[ea];B[da];W[ha];B[cr];W[dr];B[br];W[ak];B[al]
;W[aj];B[mq];W[lr];B[ds];W[es];B[cs];W[er];B[ga]C[NR: ??];W[fa]
;B[jm];W[kn];B[ab];W[ia];B[de];W[ac];B[ff];W[gm];B[gl];W[le]
;B[me];W[qm];B[pm];W[rm];B[eo];W[fo];B[dp];W[en];B[do];W[na]
LB[fp:A]C[Mistake, but neither of us caught it.

NR: Right. Very similar with situation after N3 on the other side of the white structure.]
(;B[nd]C[NR: Do you really need to defend here? Why not take some points elsewhere? See variation. What is black afraid of?]
;W[hn];B[ei];W[di];B[sd];W[sc];B[se];W[ef];B[ee];W[dk];B[bl]
;W[hk];B[hl];W[hi];B[ih];W[ii];B[ik];W[jk];B[lj];TW[ga][ja]
[oa][pa][qa][ra][sa][hb][ib][pb][qb][rb][sb][jc][bd][ae][af]
[bf][ag][bg][cg][dg][ah][bh][ch][dh][ai][bi][si][rj][sk][sl]
[sm][gn][sn][ho][ro][so][fp][gp][hp][ip][rp][sp][eq][fq][gq]
[hq][jq][kq][qq][sq][fr][gr][hr][ir][jr][kr][qr][rr][sr][fs]
[gs][hs][is][js][ks][rs][ss]TB[aa][ba][ca][ed][md][fe][ge][ne]
[oe][pe][gf][hf][if][mf][nf][of][pf][qf][rf][sf][hg][ig][jg]
[kg][lg][mg][ng][og][pg][qg][gh][hh][jh][kh][mh][nh][oh][fi]
[gi][hi][ii][ji][ki][mi][ni][oi][gj][hj][ij][jj][kj][mj][nj]
[oj][gk][hk][jk][kk][lk][mk][nk][ok][pk][cl][il][ll][nl][ol]
[pl][am][bm][cm][nm][om][an][bn][cn][on][ao][co][ap][bp][mp]
[np][aq][nq][ar][as][bs][ns])
(;B[sa];W[nd];B[md];W[ne];B[mf]))
(;W[oo]C[NR: Of course, white missed this :) Q1 was a blunder by black, but P1 was even worse!]
))
(;W[bi]))
(;W[km]))
(;B[in]
(;W[im];B[hn];W[hm];B[ho];W[ip];B[jm];W[kn];B[km];W[ln];B[lm]
;W[mn];B[mm];W[mo];B[mp];W[mq])
(;W[hn];B[im];W[hm];B[ho];W[ip];B[hl])))
(;B[jd]C[NR: No ned to protect M4 here I think. It is just one stone with not much significance. And as you can see in variations it cannot even be captured by white.]
(;W[lo];B[mp];W[mq];B[mo])
(;W[mp];B[lo];W[mo];B[mn];W[mq])))
(;B[lp]))
(;B[cd]))
(;B[cg];W[cl]))
(;W[pi];B[rj];W[rk];B[qk];W[ri];B[qi];W[pj]))
(;W[nd]))
(;W[rd];B[re];W[rc];B[qe];W[nc]))
