(;FF[4]GM[1]SZ[9]ST[2]CA[UTF-8]AP[SGFC:1.17]

GN[frankoverweel-zakzak-692727-20111127]
PB[D Z (zakzak)]
BR[28k]
PW[Frank (frankoverweel)]
WR[28k]
KM[5.5]
DT[2011-11-20,2011-11-27]
PC[Dragon Go Server: http://www.dragongoserver.net/]
RE[W+1.5]
RU[Japanese]
GC[Game ID: 692727, rated]

C[I think the more important thing for you right now is:
If you notice that the opponent's territory is getting much bigger than yours, then play inside that territory. Do nut push on the border, because it will not be enough. Invade right away. It's more difficult because it's always a little frightening to play inside ennemy territory, and at the beginning you may lose some games until you find out how and when to invade efficiently, but in the long run it will definitely help your game to try.]
;B[gc];W[dc];B[cg];W[gf];B[ee];W[de]
(;B[dd]C[Playing like that just between two enemy stones is often bad, because it's just calling for an atari. So the question is, what is the purpose of this move? Some questions you might want to ask yourself:
1. Can you separate the two white stones by playing it?
2. Do you need to separate the two white stones?
3. What will be your shape after the exchange?

I'd have rather tried something like E4, trying to isolate G4 and link up your E5 and C3 stones at the same time.]
;W[cd];B[ed];W[gd];B[ec];W[ef]C[In this position, white is very vulnerable. Its shape is full of weaknesses you can use. On the other side, black is a little cramped and need to develop more.The move you play next, at F4, does not make use of white's weaknesses. It even helps white to strenghten its position. Let's look at some other moves you could have tried...]
(;B[ff]C[That's the second time you're playing that move. By playing this way, you're helping white to separate your group from the lonely black stone at C3. Again, in general you should not play like this between two enemy stones when you have no true chance to separate them, except in the end game when you want to push a little the enemy territorry.]
;W[fg];B[fe];W[dg]C[Now white is beginning to strengthen a little its position, but there's still some fun stuff to do if you take advantage of the remaining weaknesses.]
(;B[ge];W[cf];B[db]C[You play too small. I think being more agressive would help you here.]
;W[cc];B[cb];W[bb]
(;B[bc];W[bd];B[ba];W[ac];B[hf]C[You keep pushing white on the borders, but by doing that you also make those borders stronger. And it's not in your interest to do that , because those borders give 2/3 of the board to white. Right now you very badly need that C3 stone to live, so it's urgent to help it. The more you push white on the border, the stronger white gets in the area, and the harder it becomes for you to win.]
;W[gg];B[hd];W[hg];B[if];W[ig]
(;B[aa]C[First defend at E8.];W[ab];B[eb];W[ca];B[da];W[ba]
;B[eh]C[Your opponent allowed you to connect here, but there was a lot more to try.]
(;W[fh];B[eg];W[dh];B[df];W[bg];B[ce];W[ch];B[bf];W[cg];B[be]
;W[ei];B[ef];W[af];B[ae];W[ad]
(;B[ag];W[ah];B[de];W[af];B[fi]
(;W[di];B[gi];W[hi];B[ag];W[bi];B[af];TW[aa][bc][bh][gh][hh]
[ih][ai][ci][fi][gi][ii]TB[ea][fa][ga][ha][ia][fb][gb][hb][ib]
[fc][hc][ic][fd][gd][id][he][ie]C[White: 11 territories + 7 prisoners + 5.5 komi = 23.5
Black: 17 territories + 5 prisoners = 22
Result: W+1.5]N[RESULT])
(;W[gi]C[That's the right answer. There's nothing to try here.]
))
(;B[de];W[ag]))
(;W[eg];B[dh];W[ch];B[bg];W[bh];B[bf];W[be];B[fh];W[gh]C[A number of variations are possible here. I can't tell you it's impossible to make that black group alive, I'm not sure. But at the very least, it would be very, very tough. It's pretty late at that point to try to save that black stone, you should have tried something like that earlier in the game, before white was too strong in the area.]
))
(;B[eb]))
(;B[ba];W[bc]C[This way you avoid sacrificing a stone and get the initiative, too.]
))
(;B[ce];W[df]
(;B[cc];W[bd];B[db]C[Here your group in the lower left is still in a unsatisfaying position, but you get to keep the corner.]
)
(;B[cf];W[cc];B[dh];W[eg]C[White is cut and has bad shape.]
)))
(;B[df];W[ce];B[cc];W[db];B[bc];W[bf];B[bg]C[Look, that white C6 group has no eye shape, and the D8 group above is short on liberties. I'd say this looks good for you.]
))
(;B[ef]))
