(;FF[4]GM[1]SZ[19]ST[2]CA[UTF-8]AP[SGFC:1.17]

PB[SkizoR]
BR[7k]
PW[memestile]
WR[7k]
KM[6.5]
DT[2011-12-29]
PC[The KGS Go Server at http://www.gokgs.com/]
RE[W+13.5]
TM[1800]
OT[5x30 byo-yomi]
RU[Japanese]

;B[pd];W[dp];B[pq];W[dc];B[qk];W[nc];B[pf];W[pb];B[qc];W[kc]
LB[cn:A][fq:B]TR[dc][nc]SQ[pd][pf][qk][pq]C[K: good for you, so far.
White have a low position on top, while your right side have a better shape, with low and high stones.
The next move is probably the first mistake. It is time to approach the corner stone. It is too early to add an extra one on the right, it makes you overconcentrated.]
(;B[ph];W[qo]
(;B[np]C[K: this is good, white is too deep and greed, you can gain a lot while he runs away.]
(;W[qm];B[qp];W[po];B[ok];W[om]
(;B[kp]TR[ml]C[At this point, I don't know how to efficiently use the bad shape of W

K: Never stop pressing!
You did a good job, now N8 is a good point to keep white running, if he tenuki.
You can also consider to push him to the center (because your right territory is solid) and build a large scale mojo at the bottom. (see variation at move 18)]
;W[mm];B[mk];W[nf]
(;B[md];W[nd];B[me];W[mc]C[K: Here it is urgent to connect, or you will get a group under attack, and white's mojo will benefit from it]
(;B[ke];W[of];B[qb];W[ob];B[lg];W[od];B[pe];W[iq];B[kq];W[io]
;B[kn]C[K: very good, this put even more pressure on the white group, if you can encircle it, White have some serious trouble.]
;W[ll];B[hd]TR[de]C[Maybe this reduction move is inapropriate

K: it seems good as a preparation for an approach to the corner, but white can play D15 now making it a bit useless]
(;W[ic];B[lk];W[jl];B[hc];W[id];B[ie];W[kd];B[jf];W[he];B[ge]
;W[hf];B[gf];W[hg]
(;B[fc]C[K: the have at move 64 explain why this move doesn't work properly, a corner approach is better.
When you create a new group, it is better to have a plan to set it quickly, attacking (better) or creating a base.]
;W[ce];B[gg];W[hh]
(;B[gh];W[hj];B[cj];W[cm];B[cg];W[ee];B[eg];W[hb];B[gb];W[gd]
;B[fd];W[gc];B[fe];W[eb];B[fb];W[nh];B[li];W[pj];B[pk];W[oi]
;B[pi];W[oj];B[qj];W[mi];B[nj];W[oh];B[nl];W[mn];B[kk];W[im]
;B[cq]C[K: Good timing, there was no other choices for the invasion, usually D3 would be good too, but white is too strong on the outside now.]
;W[dq];B[cp];W[co]
(;B[dr];W[er];B[cr]C[K: this order of the moves is vulnerable, see variation at move 91]
(;W[eq];B[bo];W[bn];B[bp];W[ds];B[ar];W[el];B[bf];W[be];B[ec]
;W[db];B[dd];W[cd];B[ed];W[ei];B[di];W[ej];B[bl];W[bm];B[jr]
;W[ir];B[rl];W[bk];B[ck];W[al];B[bj];W[lo];B[ko];W[mq];B[mp]
;W[lp];B[lq];W[op];B[oq];W[no];B[mr];W[jg];B[kg];W[cl];B[jk]
;W[ik];B[jh];W[jj];B[ki];W[cf];B[bg];W[eh];B[dh];W[qa];B[ra]
;W[pa];B[rb];W[ro];B[rp];W[sp];B[sq];W[so];B[rr];W[ao]
(;B[ap];W[bs];B[cs];W[br];B[es]C[Turns out W could SEKI here]
(;W[fs];B[bq];W[fr];B[gi];W[gj];B[dk];W[dl];B[ek];W[fk];B[de]
;W[df];B[ef];W[bc];B[dg];W[kj];B[lj];W[rm];B[ii];W[ij];B[ld]
;W[lc];B[nm];W[nn];B[jn];W[in];B[kl];W[ql];B[sl];W[sm];B[rj]
;W[pl];B[pn];W[pp];B[pm];W[ol];B[ml];W[lm];B[mh];W[mg];B[lh]
;W[mf];B[le];W[jq];B[js];W[is];B[lr];W[pg];B[qg];W[og];B[qh]
;W[jm];B[km];W[jp];B[ni];W[aj];B[ai];W[lf];B[ig];W[kf];B[je]
;W[ak];B[jd];W[jc];B[ae];W[ad];B[af];W[if];B[jg];W[pc];B[ha]
;W[ia];B[ga];W[fh];B[fg];W[hi];B[fi];W[fj];B[dj];W[oe];B[ea]
;W[da];B[an];W[mo];B[nq];W[oo];B[fa];W[am];B[as];W[tt];B[tt]
TW[aa][ba][ca][ja][ka][la][ma][na][oa][ab][bb][cb][ib][jb][kb]
[lb][mb][nb][ac][cc][hc][oc][bd][hd][ng][gk][hk][bl][fl][gl]
[hl][il][dm][em][fm][gm][hm][pm][cn][dn][en][fn][gn][hn][on]
[pn][qn][rn][sn][do][eo][fo][go][ho][ep][fp][gp][hp][ip][fq]
[gq][hq][gr][hr][gs][hs]TB[sa][sb][rc][sc][qd][rd][sd][ee][qe]
[re][se][ff][qf][rf][sf][ag][rg][sg][ah][bh][ch][kh][rh][sh]
[bi][ci][mi][qi][ri][si][mj][sj][nk][rk][sk][aq][mq][qq][rq]
[br][kr][nr][or][pr][qr][sr][bs][ks][ls][ms][ns][os][ps][qs]
[rs][ss]C[K: your endgame is good, you gained a good amount of points in yose.
I think you played a slow opening, that caused you problems, because it was invaded (on the right) and you gained really little in exchange for the invasion, making you thick right side really small (look at it now).
I think that was the main mistake in this game.])
(;W[bq]SQ[bo][ap][bp][cp][cq][cr][dr][cs]C[K: actually, this is not a seki, it is dead, because the marked chain will be in atari.
for reference: http://senseis.xmp.net/?L2Group
this group and his variation are really common, it is worth to know them and their properties.]
))
(;B[bs]C[K: alive]))
(;W[bo];B[eq];W[fr];B[fq];W[gq]))
(;B[bo];W[bn];B[do];W[cn];B[dr];W[er]
(;B[cr]C[K: with the cutting stones, you are alive without conditions.]
;W[fq];B[bp])
(;B[br]C[K: this leave you with a smaller corner, but in sente!
If white tries to kill, see the second variation.]
(;W[bp];B[bq];W[ao];B[cs];W[fq])
(;W[ds];B[ap];W[bs];B[cr];W[cs];B[ar];W[bq];B[eq];W[ep];B[fq]
;W[fr];B[fp];W[eo];B[gr]C[K: white can't kill, and have to lose the sente.]
))))
(;B[fi];W[hj]))
(;B[de]C[K: now, if white cuts, the corner is under attack, and you gain a base]
;W[gd];B[fd];W[gc];B[fc];W[hb]
(;B[fb];W[ce];B[cf];W[cd];B[dg];W[cb];B[ck])
(;B[cc];W[fb];B[ci])))
(;W[de]))
(;B[ne];W[oe];B[of];W[od];B[mf]))
(;B[kl]))
(;B[mn];W[mm];B[lm];W[ml];B[nn];W[ol];B[fp]))
(;W[qq]C[This is White's strongest answer, with this order of the moves.]
))
(;B[qp];W[po];B[np]C[k: in this way, White have no way to get a base in the corner.
It reverts to the way you played, but it is more forceful.]
;W[pl];B[pk];W[nl];B[fq]))
(;B[cn]
(;W[fq];B[dj])
(;W[cl];B[cq];W[cp];B[dq];W[ep];B[bp];W[bo];B[bq];W[co];B[fq]
;W[ci];B[de]))
(;B[fq];W[dn];B[dr];W[cq];B[hp]))
