(;FF[4]GM[1]SZ[19]ST[0]AP[SGFC:1.17]VW[]

PB[unknown]
HA[0]
PW[Georg]
WR[10k]
KM[6.5]
DT[2011-12-04]
RE[W+15.5]
RU[Japanese]

C[Hello. My name is Shane. I'm KGS 1d and I'll be review this game.

The biggest problem in the opening was the way the one space pincer was used and handled by both sides. 

In the middle game, players lost sight of the large territorial moves . This was a fairly peaceful positional game with no large weak groups becoming in danger. In these games one must always be aware of sente/gote issues and the size of moves.]
;B[pc]LB[qd:a]C[Hello. I'm George10k , and here I play white. I don't know the rank of my opponent.

Thanks in advance for the review.

S: So I'm guessing that this game is a live game ? Because you don't have your opponent's rank or name and likewise your name is just George, but maybe I'm wrong... Anyway, this is a very small point (but worth knowing), but normally black's first move if playing a 3-4 point should be at A. This is an old convention because it makes the opponent not have to cross his hand over the first move to make an appoach. Obviously this nuance doesn't matter in online games, but perhaps this is worth knowing.]
;W[dp];B[qp];W[dd];B[fq]
(;W[hq]TR[qp]LB[cn:a]C[S: This pincer seems a little speculative becuase the presence of black in the lower right. Defending at A for white seems simple and best. This isn't an outright mistake, but if you look at the variations you might see why it is more normal to extend on the left.]
;B[fo];W[dn]TR[hq]LB[ip:a][kq:b]C[Black now can get a pretty good result by pressing at A, or may even try the very agressive B which makes use of the R4 stone.]
(;B[dr]C[This move helps white - see variation on corner invasion.]
;W[cq]LB[dr:9]C[Exchanging black 9 for white 10 is almost always a mistake. It helps white close the corner and black still lacks a base with those stones.]
;B[ip]
(;W[iq]TR[pq]LB[dr:9][cq:10][hp:a]C[For White 12, pushing up at A first is correct and also will indirectly punish black's exchange of B9 W10.

Playing as in the game at 12 is only correct when black's lower right corner is at Q3 instead of R4. (Please navigate further for explanation.]
;B[jp];W[jq]LB[kp:a][hp:b]C[Black should continue at A instead of acutal game at B.]
(;B[hp]C[This move is no good by B.]
(;W[lq]LB[kp:a]C[George: During the game I also thought about  keima  at M4 here, and now it seems like a better idea than what I actually played.

Keima at M4 would be too loose, it leaves very bad aji (potential). Your move at M3 is safe and solid, but stronger way is to play nidan bane (two step hane) at A]
;B[nq];W[kp]SQ[jp][ip][hp]TR[nq]C[Getting this is very big for W. Now the lower side pincer (which could have been a mistake) was huge sucess for white.  White developed two groups and black has a potential weak group. Furthermore, this hane by white negates any possible influence or wall that black might have wanted to make with the marked group.

In summary, so far white got two small territories, black only got a semi weak group and the triangled extension from the play so far. White is ahead.]
(;B[no]C[George: I think playing tenuki here was a mistake. I am not even sure if the bottom white group is alive here, but my opponent never punished me for that.

S: Your group is very very comfortable. Only groups that are enclosed or very easily enclosed should be worried about life and death issues. You can move out to the center if he plays G2, also the hane at G4 is large for W. Even emergency attachments aroud O2 are possible. The lower white group is actually much stronger than the black group at G4 which has no clear eyeshape.

Here black 19 has no effect on white and although it protects the invasion at Q3, this is a small concern so early in the game, there are many big points to play. Therefore black 19 is slow and gote. See variaitons for other possible ways for B.]
(;W[pe]TR[kn]LB[ph:a]C[George: Suppose black plays hane at G2, can white live locally?

S: I wouldn't worry about it , but see variation for the answer to your question.

Given that black is now strong on the lower right, i'd look for a lighter approach to the upper right. Although one cannot say this move is 100% incorrect, I'd prefer R14 or Q14 for the white approach.]
(;B[qg]LB[ph:a]C[I think this near pincer misses the mark. Black can try to build nearer to his strong lower right.

A high pincer at A seems feels better to me.]
(;W[of]C[This move is normal, but I feel that white needs to get creative here because the normal joseki doesn't feel like white is accomplishing much]
;B[mc];W[ph]
(;B[qh];W[pi];B[qi];W[pj];B[qk];W[pk];B[ql];W[om]C[So here black developed both sides and white created a wall, yet that wall doesn't seem to be working with the other white stones, so black is better off. Furthermore, this is gote, so black ended sente.]
;B[cf];W[ch]LB[cc:a][ef:b][dh:c]C[This pincer seems natural, but others might be playable too (see variation). I like this pincer because black cannot move into the corner at A as usual. Also, jumping to B is sub-par because whtie will get territory and black's wall will be useless because it will only face white's wall.

I think black's best option is to use the more seldom move at C.]
(;B[ef];W[fd];B[bd]C[Again this slide is very bad suji for B.]
;W[cc];B[di];W[ci];B[dj];W[cj];B[dk];W[cl];B[dh];W[ic]C[White now has a comfortable winning position.

This is due to black's misplay of white's pincer twice];B[em]
TR[pq][op][qq]LB[qc:a][bc:b][cr:c]C[White has more points currently and the center is difficult for either player to score because have equal influence. The game is now about consolidaing territories and playing biggest points. There are no significant weak groups on either side. I've marked some of the larger points.

There is even still some reduction potential in the lower right for white. Please see that all the largest areas are still along the sides and corners, but both players soon become preoccupied with a center that amounts to less than 5 or so points for either player. Where as all the marked points have a value of over 10.]
(;W[mn];B[pn]LB[qc:a]C[Black 49 is very big.

A is largest point left on the board.];W[gf]LB[jj:a][qe:b]C[White 50 seems to expand out, yet it scores no new points for white, erases none of black points and doesn't attack any weak groups, so in fact it isn't that useful.

In the actual game, black played A, which seems to score points... yet black still needs too many moves for not enough points. 

One way of looking at it is that black needs about 3-4 moves in a row to score about 20-25 points in the center, but a single move at B is worth nearly 20 points.]
(;B[jj]LB[qc:a][nr:b]C[George: what should white do now?

A is still large
B is now good to play since black solidified that area and it is sente

Please follow the variation to see how small the center is.]
(;W[jl]LB[pn:49][nr:a][qc:b][cr:c][bc:d]C[White 52 is worried about black territory but doesn't think any about white territory. Again, these plays in the center are almost all dame points.


Here ends most of my comments because the rest is who gets the important points in along the sides and corners. The game is still in white's favor but only by a little becuase black got the move at 49. White got more large points and won the game. Most of the center ended with just a few points for either side.

Good luck to you both, and thanks for letting me review!];B[kl]
;W[jn];B[il];W[im];B[jk];W[kn];B[hm];W[hn];B[jm];W[in];B[gp]
;W[fn];B[en];W[fm];B[do];W[co];B[eo]
(;W[gj]LB[dm:a]C[White should protect at A]
(;B[fk];W[gk];B[gm]TR[qc][nr][cr][bc]C[My advice is to look up from the local situation more. This is fighting over very small points. The marked areas are HUGE]
;W[hl];B[gn];W[gh];B[nk];W[li];B[ni];W[mg]C[This move seems dangerous for W.]
(;B[hi];W[gi];B[ol];W[pl];B[nm];W[nn];B[ng];W[nf];B[nh];W[pg]
;B[lh];W[mh];B[lj];W[ml];B[ki];W[lg];B[mi];W[jh];B[on];W[ld]
;B[qd];W[lc];B[cg];W[cr];B[ck];W[bk];B[bl];W[bm];B[bj];W[ak]
;B[bh];W[fl];B[el];W[gl];B[qj];W[pm];B[qm];W[mk];B[kh];W[kg]
;B[hg];W[ig];B[hh];W[hf];B[gg];W[fg];B[ji];W[ii];B[ij];W[hj]
C[Now the game favors white. Review ends here.

Thanks!];B[mj];W[lk];B[kk];W[bc];B[bp];W[bo];B[mb];W[lb]C[George: At this point I had 10 minutes left on the clock, and black had 4, and the game started to become rushed.]
;B[cd];W[ad];B[de];W[ed];B[ae];W[ac];B[be];W[md];B[oc];W[qf]
;B[rf];W[ma];B[ob];W[er]C[George: probably a mistake. Sure, I got some points, but I strengthened black, which allowed him to take points from me.]
;B[eq];W[dq];B[fr];W[ds];B[mr];W[lr];B[is];W[jr];B[fs];W[qe]
;B[re];W[mq];B[nr];W[mo];B[np];W[nl];B[na];W[ok]C[George: a blunder.]
;B[la]C[George: obviously, I should have played K18. This ko was a completely unnecessary risk. But I wasn't aware that I was leading.]
;W[ka];B[kb];W[ma];B[ih];W[ii];B[la];W[ja];B[cn];W[dm];B[aj]
;W[al];B[dl];W[cm];B[fe];W[ge];B[fj];W[fi];B[ei];W[go];B[lm]
;W[mm];B[ln];W[lo];B[hr];W[js];B[gq];W[km];B[ll];W[ff];B[ee]
;W[eg];B[dg];W[eh];B[nd];W[ne];B[ls];W[ks];B[ms];W[jl];B[ir]
;W[ik];B[ep];W[nj];B[pd];W[oe];B[od];W[ai];B[bi];W[mp];B[es]
;W[dr];B[ho];W[gn];B[jo];W[oi];B[jb];W[ma];B[cp];W[ap];B[la]
;W[ia];B[ib];W[ma];B[bq];W[br];B[la];W[ha]
(;B[ma];W[hb];B[tt];W[tt])
(;B[gb];W[ma]))
(;B[pl];W[ol];B[ok];W[pg];B[lo]SQ[mn][kp][kn]C[Now white has some connection problems]
))
(;B[dm];W[cn];B[cm];W[bm];B[bn];W[bl];B[bp];W[cp];B[cr];W[bq]
C[Black getting all this in sente is too good.];B[qe]C[Now the outcome favors black.]
))
(;W[dm]))
(;W[nr];B[or];W[mr];B[oq];W[qc];B[qb];W[rb];B[pb];W[qd]LB[gh:a]
[jm:b]C[A and B are miai (interchangable points). Its too hard for the center to become territory in this game.]
;B[gh];W[jm]TR[ii]C[There is no easy way to make territory even if black can play in the center.]
))
(;B[qe]))
(;W[qc];B[qb];W[rb]C[White can now play here for territory.

This is very large as it also forces black to settle on the top.]
(;B[qd];W[rc];B[pb];W[qe];B[pd];W[rd])
(;B[pb];W[qd];B[kc];W[op]C[There is almost nothing black can do locally that prevents a reduction. This game is all but won for white here.]
)
(;B[rc]C[Black cannot take advantage of white's cutting point.]
;W[qd]
(;B[ra];W[pb])
(;B[pb];W[rd]))))
(;B[cc];W[cd];B[dc];W[ed];B[bd];W[be];B[bc];W[ce];B[fc];W[fm]
)
(;B[dh]LB[di:a][ci:b]
(;W[di];B[dg]LB[fd:a][cj:b]C[A is most normal.
B although natural neglects the lone corner.]
(;W[fd];B[ci];W[cj];B[bi];W[dj];B[bh]C[Black is satisfied because he is settled and the left side territory is open as is the corner at 3-3. White, too can be happy with sente some top side potential and the thickness built around D10.]
)
(;W[cj]
(;B[fd];W[bd]C[White aims to connect under.];B[bh];W[fc];B[gc]
;W[ec];B[gd];W[bi])
(;B[bd];W[fc];B[cc];W[ic])))
(;W[ci];B[ef];W[fd];B[di]LB[cj:a][dj:b]
(;W[dj];B[cg];W[ck];B[bd]LB[ic:a][cc:b]C[Extending to A is better than B.]
(;W[cc];B[hc]C[White now is attacked.];W[hd];B[id];W[ic];B[gb]
;W[gd];B[jc];W[ib];B[jb];W[ie];B[jd];W[fb];B[hb];W[hf]C[White can survive easily, but black get benefit.]
)
(;W[ic];B[cc];W[dc]))
(;W[cj];B[dj];W[dk];B[ek];W[dl];B[bd];W[ic];B[cc];W[dc]))))
(;B[qe];W[qh];B[pd];W[ql]))
(;W[pg];B[ph];W[og];B[qf];W[qe];B[nd];W[ne];B[md];W[qc];B[qb]
;W[pb];B[ob];W[oc];B[pa];W[pd];B[pb];W[od];B[nb];W[pj];B[oh]
;W[nh];B[oi];W[qi];B[qh];W[ok];B[ni];W[mh];B[nk];W[nl];B[mk]
;W[ql];B[ml];W[nm]))
(;B[gr]TR[gp][kn][lm][ln][nr]C[With all these options it is impossible to easily kill white.]
)
(;B[ph]LB[md:a][ne:b]C[Black's pincer here feels better.

White could settle at A or create a running battle with B. I think black would welcome either.]
(;W[md];B[oe];W[of];B[ne];W[pd];B[nc];W[qc];B[oc];W[nf];B[me]
;W[rd];B[nh])
(;W[ne];B[nc];W[le];B[lc];W[pk];B[mh])))
(;W[qf];B[qd];W[pj];B[ql];W[of];B[nd];W[rj];B[fc])
(;W[pf]C[I like this approach best. White can play flexable on this side.]
;B[qe];W[qj];B[qf]C[If black pushes. White settles on the right.]
;W[qm]TR[oc][ph]C[Later white has follow-ups at either of the marked points.]
;B[fc];W[cf];B[db];W[gc]))
(;B[fc])
(;B[pi]))
(;W[kp];B[ko];W[lo]C[White doesn't have to fear any cut here.]
(;B[kn];W[lp];B[oq];W[ln];B[km];W[fm];B[qe];W[jd];B[lc];W[le]
;B[nd];W[kc];B[ld];W[ke])
(;B[lp];W[kq];B[mp];W[gp];B[go];W[jo]
(;B[kn];W[ho]SQ[go][fo][fq][dr]TR[lo]C[Black would have a weak group and bad aji at M5]
)
(;B[gq];W[kn]C[Also a sucess for white.]))))
(;B[kp]
(;AB[pq]AE[qp]TR[pq]LB[iq:12][hp:a]C[Here if black was at this point, pushing at 12 would now be correct instead of A. (please contiue for full explanation)]
;W[lq];B[lp];W[mq];B[mp];W[nq];B[np];W[oq];B[op];W[pp]LB[hp:a]
C[This cut is only possible because white didn't push up (keep going !)]
;B[qq];W[qp];B[rp];W[ro];B[rq];W[pn];B[or];W[nr];B[pr]LB[hp:a]
[ho:b][kq:c]C[If white were enclosed by exchanging A for B, then now he would need C to live, but because he isn't completely enclosed he may tenuki]
;W[qj];B[kq]C[This push seems dangerous, but white can breakout.]
;W[kr];B[gr];W[hr];B[ms];W[lr];B[ns];W[go];B[gp];W[hp];B[ho]
;W[gq];B[gn];W[fr]C[So now white can still live. Sorry for the long winded explanation of when to push up and when to push horizontally.]
)
(;W[lq];B[lp];W[mq];B[mp];W[oq];B[nq];W[nr];B[np];W[pr];B[op]
;W[qq]
(;B[rp];W[qf]LB[qh:a][qd:b]C[This move is proper approach given black's large wall.

Black's most common answer would be A. Closing corner at B here would be a mistake]
(;B[qd];W[pj]C[Black's wall is meaningless. White is very comfortable]
)
(;B[qh];W[qc];B[qd];W[pd];B[rc];W[qb];B[pe];W[od];B[qe];W[rb]
;B[ne];W[oe];B[of];W[oc];B[pf];W[fm]C[Black's moyo may seem vast, but personally it seems like it will be hard to consolidate. In contrast, white has three corners and potentialy for all four, also the left side is a very developable area for white.]
))
(;B[qf];W[rp];B[qo];W[jd]))))
(;W[hp];B[ho];W[iq];B[jp];W[jq];B[kp];W[lq];B[mo];W[mq];B[op]
TR[hp][ho]LB[dr:9][cq:10][go:a]C[Here it is clear that Black 9 scored no point for B and helps white. Also, now white's play at A is larger territorially than normal (see complete line for explanation).]
;W[go];B[gn];W[gp];B[fn];W[fp]C[Normally, this would be small because black could still invade the corner at 3-3, but he made a poor forcing move so now the whole lower side would become white territory which is big.]
))
(;B[kq]LB[hq:6]C[Although this creates early hostilities that can complicate the game, one can see that this fight favors black and that white 6 was perhaps a mistake.]
)
(;B[ip];W[hp];B[ho];W[iq];B[jp];W[jq];B[kp];W[lq];B[mo];W[mq]
;B[op];W[pe];B[ph]C[Although black hasn't made territory yet,  his wall is more useful that white's small lower side territory.]
)
(;B[cq]C[Much later, black may take the corner profit when the outside battle has settled or become unimportant. This variation is just to show how the invasion works.]
;W[dq];B[dr]LB[er:a][cp:b]C[A is usual, B is not as good (but possible depending on whole board).]
(;W[er];B[cr];W[eq];B[bo];W[bn];B[co];W[cn];B[cp];W[do]C[Black can live in sente. Although this invasion must be well timed.]
)
(;W[cp];B[br];W[bq];B[cr]C[Letting black connect under like this is sometimes possible, but generally slack because black takes territory and is not enclosed. But whole board cicumstances sometimes make this also playable for W.]
)))
(;W[cn]C[From here black can set up mini chinese or slide at D2.]
(;B[kq];W[pe])
(;B[dr]LB[gq:a][hq:b][cq:c][op:d]C[A for territory or 
B for influence.
C is normal but doesn't take the whole board into account (white's stones are all on one side.
D is also good and possible but can lead to early complications.]
(;W[gq];B[gp];W[hq];B[hp];W[fr];B[eq];W[jq];B[ip];W[kq];B[cq]
;W[ck];B[oq];W[pe])
(;W[hq];B[cq];W[eq];B[er];W[fp];B[gp];W[gq];B[fr];W[fo];B[oq]
;W[pe])
(;W[cq];B[iq];W[qe];B[ph]C[Still one possible game, but i prefer black because the exchange in the lower left helps black develop better globally.]
)
(;W[op]))))
