(;FF[4]GM[1]SZ[19]AP[SGFC:1.13b]

GN[Klimber-pig(B) IGS]
PB[pig]
BR[19k*]
PW[Klimber]
WR[18k*]
KM[0.5]
DT[1999-08-02]
PC[IGS:  igs.joyjoy.net 6969]
RE[B+13.5]
TM[420]
US[Brought to you by IGS]

C[Holo: Both players made good and solid moves. There were some slight mistakes espacially in the endgame. You should realize two proverbs.
a) Don't attach what you are attacking
b) Don't approach too close to strength (your own and this of your opponent)]
;B[pd];W[dd];B[dp];W[pp];B[nq];W[qn];B[pr]
(;W[rq]LB[qq:A]C[Holo: Unusual but ok. The usual move is at a, see variation]
;B[kp];W[fq]C[Holo: In general it is not good to play where your opponent is strong. White will live there if he wants, but black will get strength around it.]
;B[fp]
(;W[gq]LB[gp:A]C[Holo: Better at A, see variations.];B[gp];W[eq]
;B[dq]LB[ep:A]C[Holo: Easier for black is A.];W[ep]C[Holo: Good, this creates cutting points. But white can omit this move until he threatens to use them.]
;B[eo];W[hq];B[hp];W[iq];B[jq]LB[ip:A]C[Holo: That is a slight mistake by black. He should have played at A.]

(;W[dr]LB[ip:A]C[Holo: And white had to do that move too. see var]
;B[cr];W[er];B[do]C[Holo: Good move];W[nc]TR[cr][dq][dp][do]
[eo][fp][gp][hp][kp][ch]LB[ch:A][ce:B][cj:C]C[Holo: See the black wall. White should neutralize its strength by playing a A. A is the right place as it allows to extend to B if black playes at C.]
;B[oc]LB[cg:A]C[Holo: And black should have played immediately around A using his strength. The reason behind that is, that it it very difficult to invade between A and the black wall. White may loose his invading stones.]
;W[nd];B[qf];W[jc];B[pi];W[qk]C[Holo: Good, the white group is completely secure now.]
;B[cf]C[Holo: The biggest move on the board, but perhaps a little bit too far away from the wall.]
;W[fc]LB[ef:A][dj:B][ch:C][dh:D][di:E]C[Holo: White takes territory at the top, but blacks moyo increases. What had you done if black played at A or B now? So i prefer to play at C, D or E. Black is then able to run into the corner, but white gets a base at the left side, nullifying blacks influence.]
;B[bd];W[cb]C[Holo: See my first commentary for the local response.]
;B[ci]C[Holo: Works perfectly with the other stones.];W[cl]
LB[dk:A][ek:B][el:C]C[Holo: I think white realized the black moyo. So he invaded there. But now it is a little late and very dangerous. Black is VERY strong around here. What would you do against black A, B or C?]
;B[dl]C[Holo: Don't attach what you're attacking. The reason is, that both groups become stronger by those moves. A strong group is more difficult to attack.]

(;W[cm]LB[dm:A][dk:B]C[Holo: I prefer A or B. see var.];B[dm]
;W[dk]C[Holo: Dangerous]
(;B[ek]LB[ck:A]C[Holo: I would have played at A. see var.];W[dj]
;B[ej]LB[bj:A][cj:B]C[Holo: Black should think about a kikashi at A or even B. This destroyes white's eye shape, without strenghtening him.]
;W[di];B[dh];W[ei];B[fj]C[Holo: Bad shape. From a two stone 'wall' you can jump at least 1 stone.]
;W[eh];B[dg];W[eg];B[ef];W[cj];B[bi];W[bj];B[ff];W[gh]C[Holo: Now white escaped, :-), but
1) he is not completely secure and
2) black begins to secure territory in the center.];B[hj];W[he]
;B[kl]LB[pl:A][po:B]C[Holo: I prefer A or B. There is a reason behind that. You should not secure territory with strong groups as black does it here. but use it for attacking. A and B threaten to cut something off the white group or get an even bigger moyo in the center.]

(;W[oj]LB[ai:A][ip:B][bo:C]C[Holo: I think all group are settled now, and you have to count. Counting is very important, if you want to win. You must know whether to play solidly or aggressively.
 Of course you may not be able to count exactly, but you will know, if you a far behind or far ahead or the game is close. I myself loosed some won games because i played too aggressive moves. :-(
white:
30 points at the top
10 points at the bottom
20 points at the right
black:
25 points top right
10 points top left
10 points at the bottom
30 points in the center
So white is about 15 points behind. If white plays all the sente moves he should be able to win the game. But where is the biggest point on the board? I give some variations instead of the white move. On the other hand side you shoul examine your opponents possibilities. If you have to answer it is sente for him. Local areas where a black or a white move are sente must be occupied first.
I would have played first at A, then at B and wait how blacks responses, and then at C. Try to count after this moves.]
;B[oi];W[nj];B[pj];W[pk];B[qj]TR[qi][ri][si][ph][qh][rh][sh]
[pg][qg][rg][sg]MA[nk][ok][ol][nl][pl][pm][om][nm][nn][on][pn]
C[Holo: Notice that black has secured about 11 points of territory, while white gained little because his moyo is open to the center.]
;W[nl];B[ln]C[Holo: Good];W[ip]C[Holo: Good];B[io]
(;W[jp]LB[jo:A]TR[ln]C[Holo: Notive that the move at a may not be possible because of the presence of the marked stone.]
;B[jo];W[kq];B[lq];W[kr];B[lr];W[jr];B[lp]C[Holo: I think this is not necessary.]
;W[cn]LB[bo:A][cq:B]C[Holo: If white wants to take territory, A is easier. The white move leaves the possibility of black A. A also threatens the cut at B.]
;B[co];W[dn]C[Holo: Play move as this only if you want to cut, or in the very endgame. This looses 1 liberty, i hope it is not necessary for you later.]
;B[en];W[ni]LB[mh:A][mg:B]C[Holo: What is the purpose of this move? The white group is secure so you have not to flee. It does not surround any territory. If white wants to surround territory a move at A or B looks better.]
;B[og]LB[nh:A][ih:B]C[Holo: Locally better at A, but first a move around B seems simpler.]
;W[mf]C[Holo: Good];B[hf];W[if];B[ge];W[gd];B[fd];W[hd];B[hg]
;W[hh]LB[gg:A][fg:B][fi:C]C[Holo: Look out for kikashis. You must always decide wheter a move is possible later, or your opponent forces you with kikashi, and you have no chance to play the move. Here white can play first at A, threatening a cut and connecting with bamboo joint. If white doesn't doplay there black may play at B or C later, having a ko threat an and forces white into bad shape (empty triangle.)]
;B[ig];W[jf]LB[ih:A]C[Holo: Very dangerous. Is the white group alive if black plays at A?]
;B[ob]C[Holo: Very big.];W[nb]C[Holo: Good];B[jj]LB[nn:A][bn:B]
[ed:C]C[Holo: Small. A takes territory while reducing white's. B exploits the possibility of reducing whites eye shape. C prevent a white kikashi here.]
;W[ii];B[ij];W[jg];B[mg];W[ng]C[Holo: That does not work];B[nf]
;W[nh];B[oe]LB[me:A][ne:B]C[Holo: Better A then B.];W[ne];B[of]
;W[lg];B[lj];W[mi];B[qq]C[Holo: Good];W[qp];B[rr]
(;W[sp]LB[cd:A][bc:B][rp:C]C[Holo: You should not answer every black move obediently, but try to find sente move yourself. Perhaps playing first at A or B. Notice that a black move at C is gote.]
;B[rj];W[rk];B[nn]C[Holo: Good];W[on];B[oo];W[po];B[op];W[nm]
;B[mm]LB[mn:A]C[Holo: Better at A];W[pq]C[Holo: Good];B[qr]
LB[oq:A]C[Holo: Better at A];W[oq];B[nr]LB[or:A]C[Holo: Better at A]
;W[no];B[mn]LB[np:A]C[Holo: Better at A.];W[np];B[na];W[ma]
;B[oa];W[lb];B[cc];W[dc];B[bb];W[db];B[cd];W[bh]C[Holo: Big, but gote]
;B[ch];W[de];B[df];W[ce];B[be];W[ed]LB[ai:A][sj:B][bo:C][bq:D]
C[Holo: Too small. Consider A, B, C or D.];B[bg]LB[aj:A]C[Holo: Better at A.]
;W[fe]C[Holo: Small];B[gf]C[Holo: Also small];W[gi];B[gj];W[ki]
C[Holo: very small];B[bn]C[Holo: worth 6 points in gote];W[bm]
;B[an];W[am];B[bo];W[ak]C[Holo: Not necessary. White's group is connected.]
;B[ji]TR[ak]C[Holo: Nearly worth to nothing. The Cut is no threat because of the marked stone.]
;W[kh];B[mk];W[bl]LB[bk:A][bl:B][sj:C]C[Holo: The group is alive without that move. A and B are miai. C is worth 4 points in sente.]
;B[sk]LB[cs:A][ba:B][sr:C]C[Holo: 4 points ins gote. A, B or C are even bigger.]
;W[sl];B[sj];W[oh];B[ph];W[od]C[Holo: Is this really sente?]
;B[pc]C[Holo: :-)];W[ml];B[ll]
(;W[li]LB[kj:A][ba:B][cs:C][or:D]C[Holo: First at A. There are some big points on the board, B, C or D.
C is worth at least 2 points in sente.
D is worth at least 3 points in sente.
B is worth 2 points in sente, or 4 points in gote.
See variation for a possilbe end of the game. You loose only by 4.5 points.]
;B[kj];W[mj];B[or]C[Holo: 3 points in reverse sente.];W[cs]
C[Holo: Good];B[br];W[bs];B[fm]LB[ar:A]C[Holo: Not necessary. A is good enough.]
;W[ar];B[bq];W[ds]LB[ba:A][sr:B]C[Holo: A or B are bigger.]
;B[aq];W[as];B[rl];W[sm];B[ro]
(;W[so]LB[rp:A]C[Holo: Terrible mistake. A is good enough.]
;B[rp];W[rn];B[sq];W[sn];B[mp];W[nk];B[lk];W[mo];B[lo];W[ls]
;B[ms];W[ks];B[ba]C[Holo: Good];W[ca];B[ee];W[fd];B[pg]C[Holo: not necessary.]
;W[ai];B[ah];W[aj];B[tt];W[fi];B[fg];W[qo];B[rq];W[tt];B[tt]
;W[tt]C[
 Klimber dead @ S8
 Klimber dead @ N13
 Klimber done];TW[al][bk][ck][da][ea][eb][ec][es][fa][fb][fr]
[fs][ga][gb][gc][gr][gs][ha][hb][hc][hr][hs][ia][ib][ic][id]
[ie][ir][is][ja][jb][jd][je][jq][js][ka][kb][kc][kd][ke][kf]
[kg][la][lc][ld][le][lf][lh][mb][mc][md][me][mg][mh][ok][ol]
[om][oo][op][pl][pm][pn][ql][qm][rl][rm]TB[aa][ab][ac][ad][ae]
[af][ag][ao][ap][bc][bf][bh][bp][cg][cp][cq][el][em][fk][fl]
[fn][fo][gk][gl][gm][gn][go][hk][hl][hm][hn][ho][ik][il][im]
[in][jk][jl][jm][jn][kk][km][kn][ko][lm][mq][mr][ns][os][pa]
[pb][pe][pf][ps][qa][qb][qc][qd][qe][qg][qh][qi][qs][ra][rb]
[rc][rd][re][rf][rg][rh][ri][rs][sa][sb][sc][sd][se][sf][sg]
[sh][si][sr][ss])
(;W[rp];B[rm];W[sn];B[so];W[rn]))
(;W[or];B[os];W[ps]C[Holo: This prevents an extra eye here.]
;B[qs];W[sr]LB[ns:A][ps:B][rs:C]C[Holo: Black has now to connect at A (or B). If he playes tenuki, you are able to play C , which is ko. Black can loose 5 stones.]
;B[ns];W[cs];B[br]
(;W[ba];B[bs];W[ab];B[bc];W[kj];B[kk];W[ds];B[nk];W[ok];B[li]
;W[lh];B[ks];W[js];B[ls];W[mo];B[lo];W[mp];B[mq];W[aa];B[ac]
;W[ca];B[ai];W[sq];B[ps];W[mj];B[lk])
(;W[bs];B[ba];W[ar];B[bq];W[kj];B[kk];W[mp];B[mq];W[ls];B[ms]
;W[ks];B[li];W[lh];B[nk];W[ok];B[ca];W[da];B[aq];W[ds];B[mo]
;W[ai];B[ah];W[aj];B[ee];W[fd];B[lk];W[as];B[ps];W[sq])))
(;W[cd]
(;B[rp];W[ro];B[sq];W[be];B[ce];W[bc];B[bf];W[ad])
(;B[bc];W[rp];B[cc];W[dc];B[bb];W[db]))
(;W[bc];B[cd];W[de];B[df];W[cc];B[rp];W[ro];B[sq]))
(;W[jo];B[in];W[jp];B[kq];W[jn];B[jm];W[kn];B[km];W[jr];B[kr]
;W[ir]C[Holo: This is clearly smaller as in the game.]))
(;W[ai]LB[de:A][bg:B][ah:C]C[Holo: If black doesnt answer, white can play at A and B destroying his eye shape completely. Notice that the blocking move at C is not possible.]
)
(;W[ip]C[Holo: White played that later. But is is not necessaryly sente.]
;B[io];W[jo];B[in];W[jp];B[ko];W[jn];B[jm];W[kq];B[lq];W[kr]
;B[lr];W[jr]LB[ho:A][fo:B][im:C][lp:D]C[Holo: This is big, and there is left some aji because of the cutiing points A, B, C and D. So black might has to defend soon.]
)
(;W[bo]LB[cq:A]C[Holo: This secures whites group completely and threatens to cut at A.]
)
(;W[cd]C[Holo: If black answers white can take the next point.]
)
(;W[pq]C[Holo: same here])
(;W[qc]C[Holo: Because white is strong at the top, you can invade successfully.]

(;B[nb];W[qb];B[qd];W[rd];B[re];W[sc];B[se];W[pb];B[ob];W[ra]
C[Holo: Notice that black is able to cut away something of white's top area, but he is he not quit sure of two eyes now. That might help yowhite.]
)
(;B[qd];W[ob];B[pc];W[pb];B[qb];W[rb];B[rc];W[qa]C[Holo: The corner is now nothing worth.]
))
(;W[ri]C[Holo: might be to slow.]))
(;B[ck];W[cj];B[dj];W[bk];B[ek];W[ck];B[di]C[Holo: Now white is confined to the side, not quite alive, and black black is VERY strong in the center.]
))
(;W[dk]C[Holo: I show one possible variation.];B[ck];W[cj];B[bk]
;W[el];B[dm];W[dj];B[bj]C[Holo: Necessary because white could play there himself cutting black into two.]
;W[fj]))
(;W[ip];B[io];W[jo]
(;B[in];W[jp]LB[kn:A][kq:B][jn:C][ln:D][mq:E]C[Holo: Now white can move out at C A or D, or he may attack later at B or even E.]
)
(;B[jp]C[Holo: That would by a fatal mistake.];W[ho]LB[in:A]
[fo:B]C[Holo: Because white breaks thru either with A or B, catching 3 black stones]
)))
(;W[gp]
(;B[fo];W[eq];B[dq];W[hq]C[Holo: That is one possibility. White is now able to run into the center. If white cannot reach the center, black will confine him to the side, thus making strength.]
)
(;B[eq];W[fo];B[ep];W[go];B[gq];W[hq];B[fr]LB[hr:A][gr:B][io:C]
C[Holo: This is the other common possibility. Both are josekis. Black chooses this one to secure the corner, but now white reaches easyly into the center.]
)))
(;W[qq];B[tt];W[qr]LB[or:A]C[Holo: The reason is in the endgame that move is possible. It threatens to catch the black stone with A.]
))
