(;FF[4]GM[1]SZ[19]ST[2]CA[UTF-8]AP[SGFC:1.17]VW[]

PB[A1523]
BR[16k]
PW[kikunoji]
WR[15k]
KM[0.5]
DT[2012-01-30]
PC[The IGS Go Server at http://www.pandanet.co.jp]
RE[W+38.5]
TM[1800]
RU[Japanese]

C[Kikunoji: Hi I played this game at IGS server, I won the game 
but I know that I did a lot of mistake, and I want some advice 
to improve my GO
Thank you for reviewing my game.

-----
S: 

Hi, I'm your reviewer for this game. As always, as I am 6kyu on KGS, take my advices for what they worth. I will try to answer your questions and to give you some advices all along. I use some Japanese Go terms, if you don't know them you can go to http://senseis.xmp.net/?JapaneseGoTerms.

Let's Go !];B[dp];W[pd];B[dc];W[pp];B[ci]C[-----
S:

Here Black played the Chinese Fuseki : see http://senseis.xmp.net/?ChineseFuseki
B usually waits for W to invade and attack him, building territory / influence in the meantime.]
;W[dn]LB[gd:B][de:A][pj:D][fq:C]C[-----
S:

For what I know,  A is prefered to invade. Other possible moves : around B and C to limit black moyo and work well with your two hoshi corner stones. My personnal taste is to play D to get a san ren sei that somehow balance the Chinese fuseki.

I can see some possible drawbacks with your move at D6 :

- As it is a high approach move, it is harder to invade and live in the corner.
- Black can cut you from your Q4 stone, chasing you and building in the process.

This said, I can not say it is a bad move, let's see how it goes ...]
;B[fo]C[-----
S:

Black choose to attack and cut you from Q4. That was to be expected ^^]
(;W[co]LB[ck:A][fn:B][cp:C]C[-----
S:

A bit dangerous. Try to build a better base like A, more open to the center (see variation). Here Black can gain a lot by attacking around C8 (see var.). And if Black reinforce his corner (as in the game) he gets a big corner while you have to reinforce yourself ...

Playing A get you a base and see how Black goes on. 
Another idea is to go to the center with a move like B.
If you want to go to the corner you have C.

I suggest to get a base at A and keep the sansan invasion at C3 for later ...]
(;B[cp];W[ck]LB[co:A][cp:B]C[-----
S:

Yes, good. But I think you should have played it first, before the A-B exchange.]
;B[ei]
(;W[eo]C[kikunoji: here I think that i should play in another place but i want to attack his groupe and it was a bad exchange for me

-----
S:

Yes, this is a bad move :

- You should not attack from a weak group.
- A contact move is usually a defense move, not an attack one. Play from a distance to attack.
- If you want to cut a keima, the other side (E4) is usually better.
- This move gains you nothing, it forces black to get a strong group, with a lot of territory. Black says "Thank you !"
- Your shape is not a good one, see ? After Black play E4, He gains a forcing move at D5.

If your idea is to attack, you first have to strengthen your group.

See variations for some ideas.];B[ep];W[fn]
(;B[do]C[-----
S:

Not the right time, I think. G5 is better for Black.];W[en]
;B[cn]C[-----
S:

G5 first for Black. This move can wait.];W[cm];B[bn];W[bm];B[bo]
;W[go];B[fp]C[kikunoji: here should not I protect the cut at g6??

-----
S:

Well, Black is solid, and you have some weaknesses, it seems wise to protect. This way you get strong and can see what Black will do.]
(;W[gp]C[-----
S:

Maybe not the best way to protect the cut ^^];B[gn];W[gm];B[hn]
;W[hm]
(;B[in];W[iq];B[hq];W[hp];B[gq];W[ip];B[kn];W[mq];B[kq]C[kikunoji: here i think that my openent did me a favor in this exchange, he could kill my groupe easeally

-----
S:

Perhaps not easily, but it's sure that he could have managed better ...]
;W[jo];B[jn];W[ko];B[lo];W[lp];B[kp];W[jr];B[kr];W[lr];B[jp]
;W[io];B[ks];W[js];B[ir];W[hr];B[gr];W[is];B[lq];W[mp];B[mr]
;W[nr];B[ms];W[ns];B[ln]
(;W[mo]C[-----
S:

To attack Black do it from a distance. See variations for ideas.]
;B[jl];W[pm]C[-----
S:

Good !];B[el];W[fm]
(;B[dm]C[-----
S:

Black helps you. You are lucky ^^];W[dl]
(;B[em]C[------
S:

No way out ...];W[ek];B[am];W[bl];B[gk];W[fl];B[fj]
(;W[il]C[kikunoji: my groupe here was alredy alive and should not I play tenuki??

------
S:

Before this move, you are at a key point in the game. You have two stabilized groups, some territory, potential and sente. At such key points, you need to think about your strategy. Then you have to try to play the best move to serve this strategy. 

Your move is a contact move. Contact moves are usually for defense, as both player will usually strengthen themselves. As you can see in the game. If your idea was to attack Black you should not play like that. 

As there is some big points to get, you should get them first, and come back to attack black and get something in exchange.

See variations for some ideas.];B[ik];W[hk];B[hj];W[hl];B[jk]
TR[ij]SQ[il]C[------
S:

Here you can see that the only thing you have achieved with your squarred move (J8) is to reinforce black. You get no points, your group was already alive and strong. The only worst thing possible is you losing sente ^^

Black still had a weakness at J10 but overall, it is not a good result for White !]
;W[fd]LB[id:A]TR[ci][ei][fj][hj][gk][ik][jk]C[------
S:

Probably too close / too deep into Black zone of influence for a reduction. Black can pincer around A and you face Black influence (triangle stones)]
;B[de];W[ff]C[-----
S:

Hum, probably better to get a base first.If Black deny you a base, you are in trouble.]
;B[eg]C[-----
S:

Black gets a lot of territory while you lck a base ...];W[ej]
C[-----
S:

Why ? You only stregthen Black ... And he can even play tennuki ...

Try to avoid playing moves like this. At the least you can keep them as Ko threats.]
(;B[fi];W[id]C[-----
S:

Yes but probably too high for a base ...];B[kd];W[md]C[-----
S:

It is good fighting spirit. The problem you have in this situation, is that your J16 group is weak, facing Black influence. Black is doing a splitting attack. If Black does not make mistakes, you will not be able to get J16 alive and gain points to the east. It is a way to reduce your potential.]
;B[ke]C[-----
S:

In such situation the one space jump (tobi) is better (L14). L15 is slow / heavy. Black's mistake ^^]
;W[jf];B[kf];W[jg]C[kikunoji: here my idea was to kill his ivasion but instead of that i kill my self, how should i do for the invasion m16 here??

-----
S:

Not really an invasion. More a reduction / spliting attack. It is hard to kill Black as you are weak, and Black can use his influence. But he has made mistakes (nobi instead of tobi) so you can get more than expected. 

In any case, remember a great advice : Attacking is NOT killing. Killing is usually hard, and if you are not sure about the killing, your best tactics is to attack from the right direction to get points / influence while Black thrive to survive ^^

Of course if in the meanwhile you can kill, do it ^^

In your situation, you have a weak group. Attacking from a weak group is usually not effective as you have to reinforce yourself.

That's why a basic rule of thumb is :

- First, strengthen your weak groups
- Second, attack opponent's weak groups to gain territory/influence (attack not kill ^^)

That basically what you are doing here. But has black has split you he can attack N16 after your reinforcement.

The more you push, the more you weaken N16.];B[kg]
(;W[jh]C[-----
S:

Better to reinforce N16 while attacking Black heavy stick shape ...]
(;B[kh]C[-----
S:

You are lucky Black wants to follow you ...]
(;W[ji]LB[ij:A]C[------
S: 

this one is not that bad as it threaten the cut as A. But it is usually better to cut than to threaten to cut, unless you read the cut does not work ^^]
;B[ki]
(;W[kj]C[-----
S:

You like complex fights ^^
Better to play a move on the right side. If black connects, you will have another move to get territory ...]
;B[jj];W[lj];B[mi];W[ml];B[mm];W[nl];B[ie]
(;W[he]TR[je]C[------
S:

No !!!
Remember the fundamentals : connect and keep separated !
K15 !];B[je];W[if];B[hd];W[gd];B[hf];W[ge];B[hg];W[hh];B[gg]
C[-----
S:

Ouch !];W[gh];B[fg];W[fh]C[------
S:

Useless. 
Do not play move like that. you have to keep aji ! At least a ko threat !]
;B[eh];W[ii]C[-----
S:

Useless too...];B[ij];W[jc];B[kc];W[jb];B[kb];W[ed];B[dd];W[ec]
;B[hc];W[ic];B[hb];W[gb];B[ja];W[ha];B[jd];W[gc];B[ib];W[db]
(;B[fb]TR[cb]C[------
S:

In Tsumego, you usually have to limit space. If Black plays C18, I think he can get a Ko.]
;W[cb];B[fa];W[ga];B[bc];W[bb];B[cc];W[eb]C[------
S:

Probably not needed. Try to prove it ^^]
(;B[ll];W[mk];B[mj];W[lk];B[kl]C[------
S:

Small. Black gives you sente and probably the game.];W[qg]C[-----
S:

Good !];B[pj]LB[qc:A][qp:D][rp:C][qq:B]C[------
S:

Too small. A seems to be the biggest point left, but I'm not good at counting points ^^
An invasion at B, C, D seems possible too because of the aji in this zone, but more difficult to handle.]
;W[nm];B[mn]C[------
S:

Way too small ! Say 'thank you' to black ^^];W[nn]
(;B[nq]C[-----
S:

This weakness is aji. Black should have use it to make an invasion...]
;W[ls];B[oq];W[pq];B[or];W[pr];B[no];W[jq];B[oo];W[po];B[pl]
(;W[ok]LB[qc:A]C[------
S:

Play the sansan at A, Black has no way to win ^^];B[pk];W[ql]
;B[oj];W[ol]CR[ac][ai][qk][gs]LB[qc:A]TR[md][pd][qg]SQ[kb][kc]
[kd][ke][kf][kg][kh][mi][oj][pj]C[-----
S:

too small !!! 
Do not answer your opponent's move blindly !

Look at the goban, you should see that your 3 stones in the upper left corner are weak facing black wall, an invasion at A or anywhere in this part of the goban is the first thing to handle ! You should have played there when you get sente many moves ago ! If black invades you will probably lose ...

Even if the upper right corner were settled, there is really BIGGER move to play like the circled ones ...

Your P8 move is really the last one to play ^^];B[nj];W[li]
LB[qc:A]C[------
S:

Again, too small. I will not say it for now on, but preventing an invasion in the upper right corner is the FIRST thing to do. Then you can consider yose moves, beginning by double sente one's, sente one's, biggest gote one's, etc.]
(;B[ng];W[mf];B[mg];W[lh];B[lg];W[nf];B[mh];W[of];B[qj];W[rk]
;B[rj];W[rh];B[sj];W[sk];B[qm];W[rm];B[qn];W[rn];B[pn];W[on]
;B[om];W[op];B[qk];W[pm];B[rl];W[qo];B[om];W[df];B[ef];W[pm]
;B[ee];W[ql];B[qm];W[qn];B[sl];W[oh];B[og];W[pg];B[fe];W[ab]
;B[gf]CR[ac]C[------
S:

A17 of course ...];W[ac];B[ad]C[kikunoji: here B is mistake, can i exploy it beter than i did??

-----
S:

Maybe, you have to count precisely. But you managed pretty well, with some help of Black ^^
Anyway with this mistake Black can not come back even with an invasion in the upper right.]
;W[bd]
(;B[ag];W[bf];B[be];W[ae];B[ce];W[bg];B[bh]C[-----
S:

'thank you Black' ^^];W[cg];B[ah];W[af];B[dg];W[cf];B[ch];W[ad]
;B[cj];W[bj];B[bi];W[dk];B[dj];W[aj];B[al];W[bk];B[fk];W[mb]
;B[lc];W[mc];B[ql];W[sm];B[gs];W[sh];B[pi];W[ph];B[an];W[le]
;B[qc]C[------
S:

too late, but B&W should have played here before playing VERY SMALL moves !!!]
;W[pc];B[qd];W[qe];B[re];W[rf]
(;B[pe]C[-----
S:

I'm no sansan invasion expert, but black should live anyway. But it's too late to win this game ...

Q15 is not the way ...];W[qf];B[qb];W[pb];B[sd];W[sb];B[qa]
;W[rb];B[rc];W[sf];B[se];W[sc];B[pa];W[ob];B[nd];W[oe];B[nb]
;W[nc];B[na];W[oa];B[od];W[ma];B[lf];W[ld];B[hs];W[ir];B[im]
;W[la];B[ka];W[tt];B[tt]C[kikunoji: thank you for reviewing my game

-----
S:

Nice game to review. I hope my advices will help you.
Feel free to send me questions about my comments.

Play and enjoy Go that's the best way to improve ... along with great GTL comments ;)

     Sysith])
(;B[sd];W[qb];B[rb];W[pb];B[rc]C[-----
S:

Something like that I think ... Again I'm no expert ^^]))
(;B[be];W[ae];B[af]
(;W[ad];B[bf]C[-----
S:

peaceful, but not very good for you.])
(;W[bf]C[-----
S:

Ko is better, there you feel sorry to have wasted your Ko threats ^^]
;B[ad])))
(;B[qc];W[qd];B[pc];W[oc];B[ob];W[nc];B[nb];W[mb];B[rd];W[re]
;B[rc]C[-----
S:

See ? Perhaps not the best invasion, but Black is on his way to victory ^^
He should have played it earlier, and if he manages to do another one in the lower right ...]
))
(;W[qc]))
(;B[qq]C[-----
S:

Better to invade. Black can probably get a ko.])
(;B[rp]TR[pj]C[-----
S:

Or that. Probably better than the sansan thanks to the triangle stone.]
))
(;B[lk]TR[kj]C[-----
S:

Better for Black ... Here you see that your cut was bold, it leads to complications ...]
(;W[mk];B[mj]
(;W[ll];B[kk])
(;W[kk];B[ll];W[kl];B[lm]))
(;W[mj]C[-----
S:

Better than N9 it seems.];B[mk];W[nj];B[nk];W[ok];B[oj];W[oi]
;B[ol];W[pj];B[om];W[pl];B[nm];W[ll];B[kk])))
(;B[cb];W[fb];B[da];W[ea]C[-----
S: 

Ko !]))
(;W[je]C[-----
S:

way better ...];B[jd];W[he];B[if]
(;W[hg]C[-----
S:

Black is caught in a net (geta)])
(;W[ig]C[-----
S:

Or in a ladder (shicho)];B[hf];W[hg];B[gf];W[gg];B[ge];W[gd]
;B[hd];W[ic]
(;B[hc];W[fe];B[he];W[hb]C[-----
S:

the ladder ^^];B[gc];W[fc];B[gb];W[ga];B[fb];W[eb];B[fa];W[ea]
)
(;B[fe];W[ee];B[he];W[hc]C[----
S:

Nice try ^^]))))
(;W[qf];B[kj]TR[fd][id][ff][jf][jg][jh][ji]C[-----
S:

here you get sente, to play a big point or strengthen your triangle group.]
))
(;W[ij]C[-----
S:

Probably possible, but hard to read ...]
(;B[ii];W[jj];B[ji];W[kj];B[ki];W[lj])
(;B[jj];W[ii])))
(;B[ne]C[------
S:

He can play something like that to strengthen while attacking ...]
))
(;W[mf]C[-----
S:

Black will save his stones but you can hope to keep your two groups and gain something in the right side ...]
))
(;B[kc];W[fi];B[gi];W[fh];B[eh]C[-----
S:

Seems that your move is not a forcing one ^^]))
(;W[jd]TR[ei][fj][gk]C[------
S:

Here, you get a big point, that balance black newly gained influence (triangled stones). If black links his group at J9, you get sente.]
;B[ik]LB[gd:B][qg:A]C[------
S:

Black links his group, so you get sente to get another big point around A, or reduce around B]
)
(;W[ik]C[------
S:

Probably the best point to split black ...];B[il];W[hl];B[hk]
;W[ij]LB[jd:A]C[------
S:

... but you have to prepare yourself first or you have a tough fight at hand ^^

Here you will be OK if you have some stone/influence around A. That's why first playing around A is a really good move ^^]
)
(;W[hk]C[-----
S:

Also a contact move. It seems to lead to complex fight or failure ^^]
;B[hl]
(;W[il];B[ik]
(;W[gl];B[hj]
(;W[hl];B[jj]C[------
S:

Missed ^^])
(;W[jk];B[hl];W[im];B[kl];W[jj]C[-----
S:

Hard fight ...]))
(;W[hj];B[im];W[gl];B[il]C[-----
S:

Not very good ^^]))
(;W[gl];B[il];W[hj]C[------
S:

not working ...])))
(;B[dk];W[em];B[ek]C[------
S:

Way better for black. you have a false eye, and will be fighting to live ...]
))
(;B[hk];W[dl];B[ek];W[bj];B[bi];W[bl];B[nc]C[-----
S:

Black probably could have sealed you in and gained a lot... He should have threatened you from a distance and gained something while you thrive to live ^^]
))
(;W[pn]C[-----
S:

Strengthen before attack ...

The idea when your opponent has a weak group is to let him live while gaining territory and / or influence. therefore you have to threaten him from some distance ...]
;B[jl];W[hk];B[nm];W[pl];B[jj];W[hi];B[nk];W[pj]C[-----
S:

Even if this is hypothetical, you can see how you gain a lot letting Black live with less than ten points, while you get the side and you own group strengthened ^^]
))
(;B[gq]C[-----
S:

If Black plays this move, you are in trouble ^^
I've not explored all possibility but Black will probably win.]
(;W[in];B[ho];W[hp];B[io]
(;W[jo];B[ip];W[hq];B[iq];W[hr];B[ir];W[fq];B[eq];W[fr];B[er]
)
(;W[ip];B[jo];W[jp];B[ko]))
(;W[ho];B[in])))
(;W[gn]C[-----
S:

Here the simpler seems the better. But one can argue that Black gets sente after a big corner. Your D6 move leads to that sort of result.]
))
(;B[go]C[-----
S:

Better in my humble opinion ...]))
(;W[ek]LB[ip:A]TR[dn]C[-----
S:

Here you get strong. But you end gote. With sente, Black can do many things. I think your D4 move can only get you to something like that ...

Nevertheless, as you are now strong Black must think about his F5 group as you can now threaten to attack around A.]
)
(;W[fm]C[------
S:

More of an attack move. But not the best shape for your group...]
(;B[em];W[en];B[fn];W[el]C[-----
S:

The cut does not work ...])
(;B[cm]C[------
S:

This seems to work for black ^^]
(;W[dm];B[bo]C[------
S:

you have no base left ^^])
(;W[bo];B[dl]C[-----
S:

Difficult for you ...])))
(;W[ip]C[-----
S:

You should attack from this side, but with your weak group, it is not really possible immediatly. That's why you have to strengthen your group first ...]
))
(;B[cl]C[-----
S:

See ? You will have a tough fight and Black can build along two sides along the process...]
))
(;W[ck];B[ei];W[ek]C[------
S:

Not a great result, but now you have options.])
(;W[fn];B[gn];W[fm];B[eo]C[-----
S:

Something like that is possible too, but not quite good for you ...]
)
(;W[cp];B[cq];W[co];B[eq];W[ck]C[-----
S:

Also possible, maybe the best way ...]))
