(;FF[4]GM[1]SZ[19]ST[2]CA[UTF-8]AP[SGFC:1.17]

PB[eko]
BR[3k]
HA[2]
PW[laras]
WR[1k]
KM[0.5]
DT[2012-02-25]
PC[The KGS Go Server at http://www.gokgs.com/]
RE[B+3.5]
TM[1800]
OT[5x30 byo-yomi]
RU[Japanese]

AB[pd][dp]C[I played white in this game. I thought I played well most of the time, but there were times when I couldn't decide on the best move - and other times where I couldn't even find a move that I thought was decent.

In my fuseki I usually emphasize speed and thickness over safety and territory (respectively). I find that most of my games are decided by how well I attack an opponents invading group. When games develop in other ways (In this game I tried to play moves I am not as comfortable with, to experiment/challenge myself) I sometimes don't know how to proceed. Most of my games do not make it to the yose phase, so sometimes I feel uncertain of myself in that stage of the game as well.

forfun (hereafter ff) - This is an interesting game and must have been fun to play. Clearly White thought hard during the game and has studied the result prior to asking for a review. At the same time, there are limits on how fruitful it is to study games we play against weaker players. We all want to play good, strong Go. When we play against weaker players, our Go can look stronger than it really is. In reviewing this game, a lot of the comments are about what Black could have done differently rather than White. Why is that? I hope that by showing stronger alternatives for Black, we can more clearly understand where White could and should have done better.

Overall I think that White deserves praise for wanting and seeking to keep up the pressure throughout the game. Like all of us, White made some mistakes here and there in shape, direction, etc. However, throughout they were mistakes while trying to play actively. That is a good sign!]
;W[pp];B[cd];W[ec];B[df];W[id];B[nq];W[nc]C[I am trying to develop quickly, to complicate the game and make up for the two stones]
;B[qf]
(;W[ck]C[I thought a lot about this move. I don't know if it is in the right place on the left side, but I like it because the two space extension in either direction threatens the other black group.

I didn't think the right side was as big as the lower and left side - so I didn't want to play R7 or something in that direction - and if I pincered on the bottom I was worried that I would end in gote if black jumped in the corner- and my influence would not be useful. I also worried that black might jump out, and while I handled my pincer stone black would seal the left side - and I wouldn't  have enough territory to win... I don't know if that is good logic.

ff - In the beginning of a handicap game, it is not possible for White to immediately equalize unless your opponent makes a significant mistake. In that case the handi is probably too small so there is no point in that case either. A key to handicap Go is to work on understanding the remaining potential in each position and playing so that you have more future possibilities than your opponent. Here it seems that White is overthinking. Splitting the side this way looks tame. It does not look bigger than answering in the bottom right. If Black played R6 now, how would White answer? Black responds here, but Black handles the flow of the game on the left side in a very reasonable way in my opinion.]
(;B[dc]C[I think this move is bad for black? It strengthens white's thin upper side and, if black plays C7, white C12, this exchange does not solve the weakness at C15?

ff - I think this is natural for Black. After this exchange Black can still invade at various points on the upper side. By giving White E16, Black takes the corner and also makes the next play, at C11, a dual-purpose stone since it both attacks White and protects C15.]
;W[ed];B[ci]C[ff - Good flow for Black.];W[cn];B[co];W[dn];B[fq]
;W[jp]C[I liked this direction rather than playing on the right...

ff - Since B played low in the lower left at F3, it is not so easy to develop this area. Of course R14 is also low so in one sense there are no really urgent areas. However, the right side between R14 and Q4 is wider than the bottom side between F3 and O3.]
(;B[no]C[ff - Black plays up (or should play up) in order to attack K4. Since the C6 group is weak, this would be a powerful idea for Black. It could turn out that K4 is an overplay for White. In the game, Black plays much more passively. However, that does not mean that White's plan was good. Rather it means that Black was not strong enough to push White to the limit.]
;W[pn];B[pr];W[qq]
(;B[kr]C[ff - A very passive play by Black. Basically Black passes.]
;W[qj]C[ff - Actually White gives Black a second chance with this overextension. It should be at R9 instead.]
(;B[pb];W[ne]C[I think this exchange is bad for black... Whites shape at the top was strange and not feels safer...]
(;B[ff]C[This move seemed to threaten white, but it didn't seem to help black's shape too much... with C11 already in place, connecting on the bottom seemed more important.

Not that I know whether my moves were good up to this point - but after black played here I wasn't sure where to play... Eventually I decided on trying to split black on the lower side...

ff - I agree with your assessment of this play. Black has played away from the more urgent areas along the bottom. White should not answer this now.]
(;W[hq]C[ff - Probably an overplay, although in handicap Go White has to force the pace somewhere.]
;B[fo]C[I think this move makes my H3 look like it was from the wrong direction. I considered this answer before I played H3, but this move looks better on the board than it did in my head...

ff - You are correct. This move strengthens the corner while separating your stones. White should have gotten into trouble here.]
;W[cq]C[I thought a lot about playing this move... I expected black to let me settle my group on the left - after which the central stones will be hard to handle...

I thought that if black blocked, it would hurt the left side but I could play E4 and connect/attack black and try to settle both groups that way...

ff - White voluntarily creates a third, although temporary :-), weak group. But it is rather hard for White to recover from the H3/F5 exchange.]
;B[bo];W[ep]C[I thought that if black cut at E5 white could still make something - but looking at it now, this looks like an overplay, which means C3 was bad.]
;B[eq];W[eo];B[dq];W[fp];B[gp];W[gq]
(;B[en]C[ff - A bad mistake by Black IMHO. Just connecting is better.]
;W[do]
(;B[gn]
(;W[hp]C[ff - Is this the wrong order? In the game, Black answers E7 with F7. If White plays E7 first, will Black hane or connect?]
;B[go];W[em];B[fm];W[cp];B[cr];W[fr]C[ff - The question is which White stones are weaker.]
(;B[er]C[ff - This creates a cut at G2 but allowing B6 in sente is painful.]
;W[es];B[dr];W[bn];B[bq]
(;W[el]
(;B[hl]C[ff - Half-way, Black gives White scope to play on both sides...]
;W[jr];B[kq];W[jq]
(;B[bj]C[ff - Mistake in direction. Black tries to be severe but just forces White to wander through Black's position and take advantage of White's superior fighting power. White is able to take advantage of Black's loose play at H8. B10 is pretty much a wasted play]
;W[gk]C[Still, I think white is in trouble... in the game I wasn't feeling worried but looking back I think this looks bad for white...]
(;B[jm];W[kp]
(;B[lp]C[ff - A weak response that lets White off the hook. See the variation...]
;W[lo];B[mp];W[kn]C[I think this is an excellent result for white... keepling black weak while moving out... I don't know whether white should have gotten something this good?

ff - Definitely not. In this game Black did not have enough skill to punish White's earlier mistake. White should not be happy with the result up to here. He just got lucky! :-)]
(;B[nm]C[ff - This is poor timing. Black is running now with no threat to invade White's weak extension on the right.]
;W[ll]C[ff - So White is able to break out with weak Black stones on either side. White demonstrates why this is a handicap game. ;-)]
;B[jk];W[qr]C[I think this works well in the game, but maybe black should play E10 first, try to end in sente and then come back to this corner? I played R2 because I don't think black is fully alive and it would help with the fight in the center if I could threaten this corner group a little]
(;B[pq]C[ff - A bad play that simply forces White to do what White wants to do anyway.]
;W[op]
(;B[on]C[ff - A terribly sad play for Black, "forcing" White to protect against the invasion on the right. This also does not fix Black's shape problems as White proceeds to demonstrate.]
;W[pm];B[nk];W[mn];B[oo];W[lj]
(;B[hk]C[In the game I thought this result was reasonable because E10 might be from the wrong direction? still, this makes white's situation easy.

ff - Pushing from behind, strengthening White more than Black.]
;W[gj];B[hj];W[gi];B[hi];W[gh];B[kk]
(;W[lk]C[ff - White reacts without thinking...];B[jh];W[ni]
;B[mm]
(;W[lm]C[ff - Again, isn't there better here?...];B[po];W[qo]
;B[oq];W[mr]C[I'm not sure whether this should create a ko...

ff - It does not seem so to me...];B[lr]
(;W[ns]
(;B[os];W[ls];B[ks]
(;W[js];B[ms];W[gl]C[I played this move because I wasn't certain that the black group in the lower right could die, so I thought this was a 'safe' ko threat - it didn't cost points and it hurt the black group in the center, I didn't expect black to take the ko...

ff - You were correct to wonder about the ko. It is very difficult for White to "win" it. It is not difficult for White to make seki, but actually killing Black is much harder.]
(;B[nr];W[hm];B[in];W[gm];B[jo];W[io];B[jn]
(;W[ko]C[ff - Why protect this cut? Since White is already out at the top and Black is already alive in the bottom right, it means nothing.]
;B[hh]
(;W[hg]C[As soon as I played it I didn't like this move, I like G13 better...]
;B[ig]
(;W[gf]C[ff - Why protect the cut at G13?];B[fe];W[if];B[jf]
(;W[kg]C[I think this move was also a mistake...]
(;B[jg]C[but this move doesn't punish white];W[ie]C[ff - I have to say that around here I lost my head and analyzed the situation for some hours. :-) White's last few plays have left the top with some defects and Black pretty much alive in the center. Meanwhile there are the six Black stones in the lower center hanging around plus many large yose points. So how much damage can Black do at the top and how should White resist? How much is sente worth? Honestly, I could not come to a clear conclusion, the situation was too complex for me.]
(;B[kh]C[ff - This play assures Black of two eyes in the center. However, Black lets White off easily here as well. See the variations...]
;W[ke]C[ff - This looks like a mistake in direction. Black is alive after L12, so this is not sente. Luckily for White, in the game Black goes back and connects at H6. However, what would White have done if Black had moved into the top? During the review I became quite obsessed with this position and tried various things for hours without coming to a clear conclusion! :-) See the variations, which are really just stubs - the solution to the problem is left as an exercise for the student! ;-)]
(;B[hn];W[gd];B[fg];W[gg];B[qh]
(;W[ri]C[Here I thought I was ahead if I could take some large yose points in sente...

ff - However, I do not think that Black should answer this play. See the variations.]
(;B[rh]C[ff - Black kindly follows you around...];W[dh];B[ch]
;W[eb];B[db];W[ob]
(;B[pc];W[om];B[nn];W[oj]C[ff - There is no chance that Black will make any territory here. This is a small play. It seems like here and then the play on the left side is where White loses this game.]
;B[qi];W[rj];B[lg];W[dg];B[cg];W[de];B[cf]
(;W[ce]C[ff - This idea also can not be big. Better to just hane and connect?]
;B[be];W[ef];B[eg];W[eh];B[fh];W[ei];B[fi];W[ej];B[ee];W[dd]
;B[cc];W[ao];B[bp];W[bk];B[fd];W[gc];B[ea];W[fb];B[gr];W[gs]
;B[fs];W[bd];B[bc];W[fr];B[hr];W[ir];B[fs];W[pa];B[qa];W[oa]
;B[qb];W[fr];B[je];W[jd]
(;B[fs];W[bf];B[ad];W[fr];B[oc];W[nb];B[fs];W[kf]C[I thought if I cut the stone at M13 and make some territory around that area it might be worth about as many points as the ko...]
;B[hs];W[lh];B[li];W[mh];B[ki];W[mi];B[ok];W[pk];B[ol];W[mj]
;B[pl];W[ql];B[pi];W[pj];B[ak];W[al];B[aj];W[bl];B[ap];W[cj]
;B[bi]C[I thought for a long time, because when I played L14, I thought black would end up reinforcing his group in gote... but it looks alive, so I made it a little smaller first...]
;W[im];B[il];W[kj];B[jj];W[kl];B[jl];W[og];B[pg];W[of];B[nd]
;W[md];B[od];W[me];B[qs];W[rs]C[risking a ko, but the I thought the game was too close to avoid it...]
;B[ps];W[rr];B[fn];W[sh];B[sg];W[si];B[rf];W[pe];B[qe];W[fa]
;B[da]C[I think the game is lost at this point. I played out what I think is a better endgame (white makes better choices?) in case there is enything else you want to add about my choices this late in the game...

THANKS SO MUCH FOR YOUR TIME!]
(;W[an];B[fj];W[fk];B[ip];W[iq];B[dj];W[dk];B[di];W[ek];B[fc]
;W[gb];B[bg];W[ge];B[ef];W[oh];B[pf];W[oe];B[ho];W[qp];B[mo]
;W[ln];B[ip]C[We fight this ko because we knew it was close (we both thought black would win by about 2 points) and we didn't trust our counting/have time to count carefully and be sure...]
;W[ml];B[nl];W[io];B[mc];W[mb];B[ip];W[ii];B[ij];W[io];B[lc]
;W[lb];B[ip];W[ji];B[ih];W[io];B[qm];W[qn];B[ip];W[rg];B[qg]
;W[io];B[rl];W[rm];B[ip];W[sf];B[se];W[io];B[qk];W[rk];B[ip]
;W[ae];B[af];W[io];B[kc];W[kb];B[ip];W[nj];B[io];W[tt];B[tt]
TW[ga][ha][ia][ja][ka][la][ma][na][hb][ib][jb][hc][ic][jc][kc]
[lc][mc][hd][kd][ld][he][le][hf][lf][mf][nf][lg][mg][ng][nh]
[sj][qk][sk][cl][dl][rl][sl][am][bm][cm][dm][qm][sm][rn][sn]
[ro][so][rp][sp][rq][sq][sr][ss]TB[aa][ba][ca][ra][sa][ab][bb]
[cb][rb][sb][ac][qc][rc][sc][bd][qd][rd][sd][ae][re][bf][sf]
[ag][rg][ah][bh][ai][ii][ji][ik][cp][aq][cq][lq][mq][ar][br]
[fr][mr][or][as][bs][cs][ds][es][gs][ls][ns])
(;W[fj];B[di];W[dj];B[fl];W[ho];B[fk];W[ek];B[an];W[ge];B[bg]
;W[fc];B[ef];W[am];B[oh];W[nh];B[oi];W[mo];B[np];W[qp];B[ml]
;W[mk];B[oe];W[pf];B[ao]))
(;B[le]C[ff - Bigger than the ko since it relates to Black's eyeshape?]
(;W[kd];B[kf]C[ff - Threatens N16...];W[md];B[fs])
(;W[hs];B[kd];W[kc];B[ld];W[lc])
(;W[ld];B[kf];W[kd];B[fs])))
(;W[da];B[ca];W[ea];B[cc];W[ei];B[fd];W[fc];B[ge];W[hd]))
(;B[oc];W[nb];B[nd];W[md];B[od]))
(;B[nb]C[ff - Looks bigger here.];W[mb];B[oc];W[na];B[ob];W[mc]
;B[eb];W[fb];B[db];W[fd];B[rh];W[sh];B[sg];W[si];B[rg])
(;B[ma]C[ff - Or just this.];W[mb];B[na];W[la];B[ob];W[nb];B[oa]
;W[lb];B[rh]))
(;W[ob]C[ff - So to my eye this looks bigger here.];B[oc];W[od]
;B[pc];W[nb];B[ri];W[rj];B[sj];W[sk];B[si];W[rk];B[eb];W[fb]
;B[db]
(;W[fd])
(;W[pe];B[qe];W[pa];B[qa];W[oa];B[qc];W[fd];B[bk];W[ao];B[bp]
;W[bl])))
(;B[gd];W[gc];B[je];W[jd];B[kd])
(;B[gb]
(;W[gc];B[hc];W[gd];B[eb])
(;W[fc];B[hc];W[gd];B[jc]))
(;B[gc];W[gd];B[fc];W[fd];B[eb];W[db];B[cb];W[fb];B[da];W[gb]
;B[ma])
(;B[je];W[jd];B[kd]))
(;B[kf]C[ff - But this play also lives with more impact on White's territory...]
(;W[im];B[il];W[kl];B[jl]
(;W[kj];B[jj];W[ii];B[kh]C[ff - M13 and J10 are miai.])
(;W[ij];B[ii];W[ki]
(;B[kh];W[ji])
(;B[ji];W[kj]
(;B[jj])
(;B[kh];W[jj];B[lg])))
(;W[ji];B[ki];W[kj];B[jj]
(;W[kh]
(;B[ii])
(;B[li];W[mi];B[ii];W[kd]))
(;W[ii]
(;B[lg];W[lh];B[kh];W[lf];B[mg])
(;B[kh]))))
(;W[kd]
(;B[gd];W[gc];B[hn];W[ob])
(;B[nb];W[mb];B[oc];W[na];B[ob];W[mc])))
(;B[ke]C[ff - The real question is whether White can kill Black after this and how much damage Black might do to White's top.]
(;W[im];B[il];W[kl];B[jl]
(;W[kj];B[jj];W[ii]
(;B[ki];W[ij];B[lg];W[lf];B[kf])
(;B[kh];W[ij];B[lg];W[lf];B[mf]))
(;W[ji];B[ki];W[kj];B[jj]
(;W[kh];B[li];W[ii];B[mi];W[mj];B[lg])
(;W[ii];B[kh];W[ij];B[lg];W[lf]
(;B[mf]
(;W[me])
(;W[le]))
(;B[kf];W[lh])))
(;W[kd]
(;B[ld];W[le]
(;B[me])
(;B[jd];W[je];B[kc]))
(;B[le];W[ld];B[hn];W[gd]
(;B[ri])
(;B[ma]))))
(;W[kd];B[ld];W[le];B[me];W[lf];B[md]
(;W[lh];B[mf])
(;W[mf];B[nd]))))
(;B[ie];W[hf];B[jg];W[je]
(;B[ke];W[he];B[kf];W[kd];B[ld];W[lc];B[kc];W[jd];B[mc];W[lb]
;B[md];W[mb];B[nd])
(;B[gd]C[ff - May be even worse for White.]
(;W[he];B[hc];W[im]C[ff - White's only chance will be to kill Black - not an easy task...]
;B[il];W[kl];B[jl])
(;W[hd];B[gc];W[hb];B[gb];W[im];B[il]))))
(;W[je])
(;W[ie];B[ke]))
(;W[hf];B[hn];W[jf]))
(;W[gg]C[ff - Looks solid but it puts less pressure on Black.]
;B[jf]C[ff - What now? L15 and H15 are both threats.]
(;W[kd];B[hf])
(;W[hf]
(;B[ke])
(;B[jd]))
(;W[hn];B[jd];W[ie];B[je])))
(;W[hn];B[ko];W[lh]))
(;B[hm];W[ls];B[lq];W[nr]C[ff - White has to play here to keep anything going. Connecting the ko after this is noly eight points in gote. It does not become a real threat to Black until all the outside liberties are filled.]
))
(;W[lq];B[mq];W[js];B[ms];W[sk];B[rk];W[ls];B[lq];W[nr];B[or]
))
(;B[nr]C[ff - Good enough? White can reduce the territory, but in gote. So N2 was too early.]
(;W[ps];B[os];W[or];B[mq];W[os];B[ms];W[qs];B[jf];W[kd];B[gd]
)
(;W[ls];B[ks];W[js];B[lq];W[ps];B[os];W[or];B[mq];W[os];B[ms]
;W[qs])
(;W[ms];B[os];W[ks];B[mq])))
(;W[ms];B[ls]
(;W[js];B[nr];W[ks];B[lq];W[os];B[ps];W[ns])
(;W[os];B[ps];W[nr];B[mq];W[js];B[or])))
(;W[kl]C[ff - Let Black force you to reduce the eyespace of these stones...]
(;B[jl];W[oq];B[or];W[mr];B[nr];W[ks])
(;B[po];W[qo];B[oq];W[jl];B[il];W[jj];B[hh];W[hg];B[ig];W[hf]
)))
(;W[ml]C[ff - Natural and better here...];B[nl];W[mj]C[ff - White is better oriented for stopping either the left or the right Black group.]
;B[pk];W[qk];B[pl];W[ql];B[po];W[qo];B[oi];W[ig];B[ki];W[lg]
C[ff - Surround the top on a large scale while chasing Black.]
))
(;B[ji];W[oq];B[or];W[mr];B[nr];W[ks];B[ls];W[lr];B[js];W[lq]
;B[ks];W[is]))
(;B[mr]C[ff - Removes all doubts about life here without destroying other aji.]
;W[or];B[oq];W[ps];B[nr];W[os];B[ns];W[qs];B[ks]))
(;B[oq]C[ff - Better eyeshape. It looks like there is nothing here.]
(;W[lr];B[lq];W[mr];B[ks]
(;W[nr];B[ps];W[pq];B[or]
(;W[ms];B[ns])
(;W[ns];B[ms]))
(;W[pq];B[or];W[ps];B[op]C[ff - Black still has the potential for an additional eye here.]
))
(;W[mr];B[lr];W[ns];B[os];W[ls];B[ks];W[js];B[lq];W[nr];B[or]
;W[ms];B[op])))
(;B[ll]C[ff - Better for Black, keeping more pressure on.];W[mn]
;B[qr]C[ff - Black will not die here.]))
(;B[mn]C[ff - The problem is that L4 is not much of threat locally. Black should have just continued to wall White off.]
;W[mp];B[np]
(;W[mq];B[mr];W[nr];B[lr])
(;W[lo];B[ln];W[lq];B[lr];W[mr];B[mq];W[ks];B[lp]C[ff - White could go all out for a ko like this, but it Black 'already' has compensation by walling off the center. Losing the ko will cost Black very little. Winning the ko will mean that Black threatens to kill White with G2.]
)))
(;B[kn]C[ff - This does look more enterprising. However, either way White got off easy in the game.]
(;W[in]C[ff - This is not a good idea unless White can clearly see a way out or how to live in sente. Playing around here naturally strengthens Black toward the outside. Once White lives locally, the rest of the game will be played on the outside. The stronger Black becomes here the worse White's overall prospects become. Is simply H2 better?]
;B[jm];W[hr];B[ej];W[ek];B[fj];W[gl];B[hm];W[gj];B[jk])
(;W[kp];B[mn])))
(;B[kp];W[jo];B[kl]C[ff - I think something like this is better for black... It reveals the fact that White has been stuck with small tight shapes that have little prospect for making territory.]
;W[ko];B[nm];W[mp];B[np];W[mq];B[mr];W[nr];B[lr];W[lo];B[mo]
;W[lp];B[or]))
(;B[jn]C[ff - Something like this looks more logical....];W[in]
;B[im];W[hn];B[hm];W[jm];B[kn];W[jl];B[hk])
(;B[fl];W[fk];B[gk];W[fj];B[jn]))
(;W[fl];B[el];W[dm]
(;B[gl];W[fk])
(;B[ek];W[gm];B[fn];W[hm])))
(;B[bq]C[ff - If Black had answered here, the left side stones would have been weakened. B6 is no longer sente.]
))
(;W[em]
(;B[fm];W[fl])
(;B[fn];W[hp];B[ho];W[io])))
(;B[go];W[hp]))
(;B[go]C[ff - This leaves both the left and bottom groups weak without giving any cuts to White.]
;W[jn];B[gm]C[ff - Black is happy to play against either White group...]
;W[jl];B[em];W[dl];B[fk];W[bj];B[bi];W[bn];B[nm];W[pl];B[nk]
))
(;W[fo]C[ff - This is probably more reasonable, preparing to invade at C3 while loosely connecting to K4.]
))
(;B[lc]C[ff - If Black just invades immediately, how would White handle it?]
;W[md];B[jc]
(;W[ic];B[ke])
(;W[je];B[hb];W[nm];B[of]C[ff - Note that Black can aim at the weak point L15]
))
(;B[nm]C[ff - Even more importantly I think that Black should play here, countering the influence from White's last play and threatening to invade the right around R8. Meanwhile Black is also planning to play F5 on the left to separate the K4 stone from the left side.]
))
(;B[nm]C[ff - Black threatens to invade behind R10...];W[pl]
;B[fo];W[jn];B[fm]))
(;B[nm]C[ff - I think White would have been under pressure with something like this. Black would accept either Q8 or F5]
(;W[qk];B[fo];W[jn];B[fm]C[ff - White has to handle both K8 and something like B7.]
)
(;W[gp];B[fp];W[gn];B[go];W[ho];B[fo];W[hn];B[pl]C[ff - Note that there is still a gap at F6 for Black to aim at.]
)))
(;B[qn]C[ff - Of course Black could go ahead and make the double approach as well.]
))
(;B[qn]C[ff - Once this corner is played out, how will White gain compensation on the left side?]
(;W[ch];B[dc];W[ed];B[cg];W[dh];B[ff]
(;W[gd];B[cm])
(;W[cn];B[gc];W[gd];B[hc];W[hd];B[ic]))
(;W[cn];B[fp];W[ch])))
(;W[lq];B[qq]
(;W[qp];B[pq];W[op];B[nr];W[mo];B[qi])
(;W[pq];B[qp];W[po];B[pr];W[or];B[qr];W[oq];B[qn];W[om];B[gq]
)))
