(;FF[4]GM[1]SZ[19]ST[2]CA[UTF-8]AP[SGFC:1.17]

PB[napor]
BR[15k]
PW[purpleFrog]
WR[14k]
KM[0.5]
DT[2012-03-24]
PC[The KGS Go Server at http://www.gokgs.com/]
RE[W+22.5]
TM[1500]
OT[5x30 byo-yomi]
RU[Japanese]

C[Max: Hi];B[pd];W[dp];B[pp];W[cd]
(;B[nq];W[ec]
(;B[nm];W[nc];B[pc]
(;W[jq];B[kq];W[jp];B[kp];W[jo]C[Max: Good for white];B[qg]
;W[nf]C[Max: This is fast but black has room for life on top and this two space jump is easily cut once black has something on the other side. It's not as good as it seems.]
;B[dj]
(;W[fj]LB[cg:E][dg:F][cl:C][dl:A][cm:B][dm:D]C[purpleFrog: I'm searching for influence but I guess it would be better to secure some points on the west border. preferencialy in the south but where?

Max:6th line isn't helping much at this stage ,  I like a or d12 instead.]
;B[dm]
(;W[gp]C[Max: Wrong - Don't use thickness to surround territory. It may look good but tis a mistake. You overconcentrate yourself and it may be reduced later.]
;B[co];W[cp];B[cg]LB[ch:J][ci:G][di:I][cj:H][ck:F][dk:D][cl:E]
[dl:C][bn:K][cn:A][dn:B]C[purpleFrog: I lost the whole west border.
Max: You can still break his shape, he went fast and loose like o17 and o14, you can make use of labelled moves.]
;W[eg]C[Max: I'd say this is consistent woth o17 and o14. Hopefully this loose moyo will hold.]
;B[bo]C[Max: Slow];W[jd]C[Max: Good];B[eo];W[ep];B[bp];W[do]
TR[bq]C[purplefrog: it appears to me that play at B3 would have been far more usefull.
Max: d5 isn't that bad either];B[en]C[Max: Mistake];W[dn];B[fm]
(;W[fn];B[gm];W[gn]TR[fo]C[purpleFrog: may be F5 first.
Max: Hmhmhm, not sure.];B[cq]C[Max: Get reduced? Reduce as well, this is the secret of a good endgame. But right now it's not endgame yet since right is wide open so I'd say c3 was small.]
(;W[dq];B[cr];W[dr];B[cm];W[el];B[em];W[dk];B[ck];W[ej];B[cj]
C[Max: You solidified black.];W[di];B[ci];W[bf]TR[df]C[purpleFrog: not very usefull. D14 would have blocked the black expension to the north.
Max: Yeah];B[df];W[dg]C[Max: You waste aji.];B[cf]
(;W[bg]C[Max: Small];B[bh];W[dh];B[ch];W[be];B[ee];W[ef];B[dd]
C[purpleFrog: I was expecting D15. with this move I have to defend and black can progess furher.]
;W[dc];B[fe];W[gd];B[gf];W[gg];B[dl];W[ek];B[fo];W[go];B[fp]
;W[fq];B[cn]C[purpleForg: thanks.]
(;W[if]C[Max: Now black has room and he can unleash dangerous attacks.]
(;B[jr];W[ir];B[kr];W[hq];B[ne];W[oe];B[me]
(;W[qf]
(;B[qe];W[pf]
(;B[pg]
(;W[pj];B[rf];W[pm];B[qi];W[qj];B[qn];W[qm];B[rn];W[rm];B[rj]
;W[oo];B[nd];W[od]
(;B[oc];W[mc];B[og];W[of];B[mg];W[mf];B[ng];W[lf];B[po];W[on]
;B[nj]C[purpleFrog: At this point I have tow things in head:
1/ I'm not sure that my east group will survive. I hope to connect in the south and invading the black area even if the corner seems locked.
2/ I don't like the black wall on the north and I would like to reduce its influence.


Max: Don't get surrounded, bad things happen when you are enclosed.]
(;W[oi]LB[ni:A]C[purpleFrog: The wall first then. But A seems more effecient
Max: This is an inside move, try to play outside or, "breaking out" moves.]
(;B[ko];W[kn];B[ni];W[mn]
(;B[mm];W[ln];B[jj];W[kk];B[lk];W[kj];B[jk];W[ki];B[kl];W[jl]
;B[il];W[jm];B[ll];W[ik];B[hl];W[hj];B[ds];W[es];B[cs];W[er]
;B[kh];W[ji]C[purpleFrog: I am very happy to kill the two stones in the center and connect all my groups.

Max: This connection is small because all your groups are already alive. Connecting groups to save them as you did with r7 group is more important.]
;B[jh];W[ih];B[lg];W[kf];B[kg];W[mi];B[mj];W[lj];B[ma];W[nb]
;B[ob];W[na];B[oa]
(;W[rh]LB[oj:A]C[purpleFrog: a fuzzy idea which will not work. something like A may be?]
(;B[ri];W[rg];B[re];W[qh];B[pi];W[ph];B[oj]
(;W[pk]C[Max: Bad shape];B[ok];W[ol];B[nl];W[lm]
(;B[oh];W[rk];B[sh];W[sn]
(;B[ro];W[so];B[sp];W[sm];B[rp];W[mp];B[mq];W[op];B[oq];W[lp]
;B[lq];W[im];B[hk];W[ij];B[hm];W[hn];B[mh];W[li];B[jg];W[jf]
;B[ig];W[hg];B[np];W[no];B[lo];W[mo];B[ff];W[fg];B[he];W[hf]
;B[fd];W[ed]C[purpleFrog: a little trick to see if black is tired...]
;B[fc]C[purpleFrog: I think the black group is dead];W[de];B[hd]
;W[gc];B[hc];W[gb];B[fb];W[ia];B[hb];W[ha];B[eb];W[db];B[ge]
(;W[ga]
(;B[ce];W[dd];B[bc];W[bd];B[cb]C[purpleFrog: I feel uncomfortable with all what append in this corner...]
;W[da];B[ba];W[ac];B[ag];W[af]
(;B[ah];W[gk];B[js];W[is];B[om];W[pl];B[pn];W[sk];B[ad];W[ae]
;B[ea];W[ab];B[bb];W[jb];B[sj];W[ic];B[aa];W[ad];B[lb];W[ld]
;B[kc];W[ib];B[kd];W[le];B[tt];W[md]C[purpleFrog: I'm not used to play with japanese rules, then I play too much...]
;B[pe];W[id];B[tt];W[ie];B[tt];W[fa];B[tt];W[tt]TW[aa][ba][ca]
[ea][ja][ka][la][ma][bb][cb][eb][fb][hb][kb][lb][mb][bc][cc]
[fc][hc][jc][kc][lc][fd][hd][kd][nd][ee][fe][ge][he][je][ke]
[me][ne][ff][gf][eh][fh][gh][hh][ei][fi][gi][hi][ii][gj][jj]
[jk][qk][ql][rl][sl][in][jn][ho][io][hp][ip][eq][gq][iq][fr]
[gr][hr][fs][gs][hs]TB[pa][qa][ra][sa][pb][qb][rb][sb][qc][rc]
[sc][qd][rd][sd][se][sf][rg][sg][nh][ph][qh][rh][ai][bi][oi]
[si][aj][bj][ak][bk][mk][nk][al][bl][cl][ml][am][bm][an][bn]
[ao][qo][ap][qp][aq][bq][pq][qq][rq][sq][ar][br][lr][mr][nr]
[or][pr][qr][rr][sr][as][bs][ks][ls][ms][ns][os][ps][qs][rs]
[ss]C[Max: Not a bad game, you can play simpler moves. I have left a couple of variations for fighting ideas, there are, most likely, mistakes in them as i am only 3k.]
)
(;B[ad];W[ab];B[bb];W[ae];B[jb]))
(;B[jb]C[Max: B can live]))
(;W[jb];B[ga]
(;W[ea];B[gc]C[Max: Miai])
(;W[gc];B[ea])))
(;B[so];W[ro];B[sm];W[pn];B[qo]))
(;B[qk];W[pl];B[rl];W[sm]
(;B[sn];W[sl];B[oh];W[sk];B[rk])
(;B[nn];W[no];B[mo])))
(;W[rk];B[qk];W[pk];B[sk];W[ql]))
(;B[rk];W[ri];B[qh];W[rl];B[si];W[qk];B[sh]C[Max: B wins the race]
))
(;W[rk]C[Max: This is the biggest move in this area]))
(;B[nn];W[no]
(;B[mo];W[lo];B[mp];W[nl];B[mm];W[ml];B[ln];W[lm];B[lp];W[km]
;B[om];W[ol];B[pn];W[rk])
(;B[ln];W[lo];B[lm];W[mm];B[ml];W[mo]
(;B[nl];W[ll])
(;B[ol]))))
(;B[ol])
(;B[rk]))
(;W[rk]C[Max: In fact you have to use forcing moves you already got.]
;B[ri];W[mo];B[ko];W[nk];B[nl];W[mk];B[ok];W[oj];B[mj];W[lk]
;B[lm];W[ol];B[om];W[pk];B[pn]C[Max: Now you are alive and I think you cna even save this little group.]
;W[ln]
(;B[kn];W[mm];B[ml];W[ll];B[mn];W[nn];B[lo];W[mm])
(;B[km];W[kn];B[jn];W[jm];B[mn];W[lo];B[no];W[mm];B[nn];W[ml]
;B[np];W[kl];B[in]))
(;W[ni];B[oi];W[oj];B[nk];W[pi];B[ri];W[oh];B[ph];W[mi];B[lg]
;W[mn];B[nn];W[no];B[mo];W[ln];B[ll];W[jl];B[kn];W[km];B[ko]
;W[lm]
(;B[jn])
(;B[lj];W[li];B[ki];W[kj];B[kk];W[jj];B[jk];W[ml])))
(;B[nb];W[oc];B[mc];W[ob];B[kc];W[mf];B[le];W[mb];B[lb];W[na]
;B[ic]))
(;W[rf]C[Max: Cut]))
(;B[od]))
(;B[pf];W[od];B[pe];W[nh]))
(;W[od]C[Max: Connect]))
(;B[ie])
(;B[hd])
(;B[hg]))
(;W[hf]C[Max: Don't be affraid, you have to read - carefulness is useless if you don't read.]
;B[he];W[ge];B[hg];W[if];B[fg];W[gh];B[ff];W[fh];B[fd];W[fc]
))
(;W[ef]))
(;W[ch])
(;W[cn]))
(;W[cn]C[Max: I would play there]))
(;W[co]C[Max: Perhaps this])
(;W[cl]C[Max: This is interresting, try to find a use to it.]
))
(;W[dh])
(;W[dl]))
(;W[jd])
(;W[qf]))
(;B[pj])
(;B[qj])
(;B[jd])
(;B[fq])
(;B[cj]))
(;B[ec])
(;B[ed]))
