(;FF[4]GM[1]SZ[19]ST[2]CA[UTF-8]AP[SGFC:1.17]

PB[da9304]
BR[7k]
PW[foxtrotzou]
WR[6k]
KM[0.5]
DT[2012-04-23]
PC[The KGS Go Server at http://www.gokgs.com/]
RE[W+Resign]
TM[1200]
OT[5x30 byo-yomi]
RU[Japanese]

C[da9304 [7k\]: Hi !
da9304 [7k\]: have a nice game

[Reviewer's comments\]
[Agi\] Hi, I'll be reviewing this game and will tag my comments accordingly. This game is a fighting game, and I will be covering general lines of play without being picky with the details. The moves presented won't be ideal, but illustrate concepts to think about.]
;B[pp]C[foxtrotzou [6k\]: slt];W[pd]C[da9304 [7k\]: ah, oui, salut :D
foxtrotzou [6k\]: bp];B[dq];W[dd];B[co];W[qn];B[jq]LB[nq:A]
C[da9304 [7k\]: Is this move more important than an direct answer to white R6 ?

[Agi\] There's nothing inherently bad about K3 and is a playable position. It makes white entering around A more difficult.]
;W[nq];B[oo];W[lq]C[[Agi\] Already white's feeling tight because she can't extend as much as she wants.]
;B[jo];W[no]LB[mn:A][mo:B][jr:D][pr:C]C[[Agi\] O5 is not a very good move for white. If she wants to run, A or B would do a better job of it. C and D would be an attempt to live in a tight space (which is very not good for white since black gets a huge outside)]
(;B[np]LB[nn:A]C[[Agi\] Playing O4 means you're looking to cut white somehow. See variations.]
(;W[mp]
(;B[nn]LB[mp:B][np:A]C[[Agi\] exchanging A for B to make this move is counter productive. You let white take a stone and weaken your black group.]
;W[op]LB[pq:A]TR[on][po]C[[Agi\] With this, white's group is very close to being alive, and now black is just 3 lonely stones]
;B[pn];W[qo]
(;B[qm]C[[Agi\] Letting white connect all his stones is a bad idea. See variation]
;W[po]C[[Agi\] Now that white has connected, he can turn his attention onto attacking black's group, or moving to any of the large points on the board]
;B[on];W[qp]LB[pq:A]C[[Agi\] White should catch the stone securely at A instead... if black extends...]
(;B[pj];W[mn]LB[jd:D][qh:A][cj:C][ql:B]C[[Agi\] This move seems a bit small. Playing at something near A (aiming to use the clamp at B) or something large like C or D would probably be better.]
;B[qf]C[[Agi\] Black's comfortable on the right side now.];W[nl]
C[[Agi\] Again, slow and aiming to catch 4 stones. White needs to look at the whole board.]
;B[pl]LB[nc:A][nd:B][pm:C]C[[Agi\] The double kakari at A or B would be worth more than giving up the stones around C. R14 and Q10 can live on their own without C]
;W[nd];B[of];W[nm]C[[Agi\] White is obsessed with these 4 stones.]
;B[rd]LB[cf:B][cj:A]C[[Agi\] The right side is overconcentrated. A black stone at A or B is worth so much more than this slide.]
;W[ol]C[[Agi\] White still obsessed.]
(;B[cf]TR[nd][pd]SQ[fc]C[da9304 [7k\]: I was ready to sacrifice thos stones, that I thought they were not that important (Did white waste his time while trying to capture it ?)
da9304 [7k\]: Is black F17 better than C14, considering white..."weak stones" at the upper right corner ?

[Agi\] O16/Q16 aren't that weak just yet. See variation];W[pm]
LB[rd:B][cf:A]C[[Agi\] White has wasted 4 moves, and given up both A and B to capture 4 stones. Let her choke on them.]
(;B[ql]C[[Agi\] Black should let white just take these. see variation]
;W[fd];B[bd]C[[Agi\] This is the wrong direction. The left is worth much more to black than the corner.]
;W[cj]C[[Agi\] White invades.]
(;B[dk]C[[Agi\] This is trying too hard to take territory on the bottom. See variations]
;W[cc]
(;B[ck]C[[Agi\] With C17, black lost the option to live in the corner. C9 is hurting those stones now.]
;W[dj]
(;B[eg]LB[cf:A][eg:B][ej:C]C[[Agi\] Weak group running with a knight's move. This is asking to be cut.

Black really wants to play C, but is having trouble because he has a weak group]
;W[ce];B[cg]C[[Agi\] This is an awkward move that was needed because e14 was in a weird place.]
;W[fj]C[[Agi\] Now black is the one under attack. White's invation has been a huge success.]
;B[ej]LB[ei:A]C[[Agi\] Again, black is hurting his own group with this move. White already wants a stone at A, black is giving her the perfect excuse to put a stone there. In sente.]
;W[ei];B[ek];W[dh]C[[Agi\] More pain.];B[be];W[dg]C[[Agi\] White is trying to cut black and get to safety. It doesn't work. see variation]
(;B[ee]C[[Agi\] This doesn't work. it's already cut.];W[df]
;B[de];W[cd];B[ed];W[ec];B[bc];W[ef]LB[dh:A]C[[Agi\] sacrificing these stones for life in the corner is a big loss for black. If black lived, white's group at A would still be weak enough to attack (which lets him destroy territory at the top]
;B[cb];W[fe];B[lc];W[jc]LB[qc:B][le:A]C[[Agi\] White would really want to play something at A instead and try to kill black., but because there's no easy life in the corner, white can't.]
;B[le];W[mc];B[ld];W[qc]
(;B[oc]LB[rc:B][nf:A]C[[Agi\] Black is in a rush to kill white. but A and B give white options.]
;W[nc];B[od];W[nf];B[ne];W[me];B[oe];W[lb];B[kb];W[ob];B[mb]
;W[nb];B[la];W[pc];B[rb];W[rc];B[re];W[sb];B[qb]
(;W[qa]C[[Agi\] White shouldn't go here];B[pa];W[pb];B[ra]
(;W[oa]C[[Agi\] This is a mistake by white here];B[qa];W[sa]
;B[qa];W[je]TR[ic]C[[Agi\] White is desperate and trying to kill black]
;B[ic]LB[jb:B][mf:A][lg:C]C[da9304 [7k\]: I think it's a big mistake, considering the flow of the game, isn't it ?

[Agi\] If black lives, white is dead in the corner and the game is over. Much more simpler moves like A, Bor C would get the job done without complications.]
;W[ma];B[lb];W[md];B[mf];W[lf];B[mg]LB[fj:A];W[jb];B[kf]LB[fj:A]
C[[Agi\] The ladder doesn't work.]
(;W[hq]LB[lf:A]C[[Agi\] For huge ladders like this. Spending the extra move to capture A is worth exploring. see variation]
(;B[ho]TR[mn][no][mp][lq]C[[Agi\] Before you make this move you have to read out whether the double peep is workable.]
;W[ip];B[jp];W[io];B[in];W[hn];B[go];W[jn];B[im];W[fq];B[gr]
;W[gl];B[gm]TR[hk];W[lg];B[ke];W[kg];B[jd];W[id];B[ib];W[kd]
;B[ja];W[jf];B[fb];W[jd];B[ia];W[eb];B[hd];W[he];B[gc];W[kc]
;B[ka];W[hb];B[ea];W[hc]TW[ed][de][ee][np]C[da9304 [7k\]: merci pour la partie
foxtrotzou [6k\]: merci

[Agi\] Final comments:
In this game, we saw many instances where black weakened his own stones by forcing white to play somewhere. If we're playing in an area and we have stones on both sides, we usually want to play FROM the weaker side, to add stones there to make them stronger.

White spent too much time early on chasing the 4 stones on the lower right, and that gave black a huge lead all over the board. Unfortunately, black couldn't hold onto the lead and died at the top.]
)
(;B[lg]C[[Agi\] Taking this, white is definitely dead in the corner.]
;W[ho];B[jm]TR[jg][ji][jk]C[[Agi\] It also makes a very strong group for black to run to.]
)
(;B[fq]C[[Agi\] Threatening to connect is simpler.]
(;W[ho];B[hr])
(;W[ip];B[jp];W[hn];B[jm])))
(;W[lg];B[lh];W[kg];B[jg];W[kh];B[ki];W[jh];B[ih];W[ji];B[jj]
;W[ii];B[hi];W[ij];B[ik];W[hj];B[gj];W[hk];B[hl];W[gk];B[fk]
))
(;W[na]C[[Agi\] Here would be seki];B[sd];W[sc];B[qa]))
(;W[pb]LB[na:B][ra:A]C[[Agi\] A and B are miai to live (or at least seki)]
)
(;W[pa]LB[na:A][ra:B]C[[Agi\] White would live here, A and B are miai.]
))
(;B[rc]
(;W[rb])
(;W[nf];B[ne];W[me];B[oe];W[md];B[mf]C[[Agi\] It's a bit of a hard struggle to keep white contained. Hard to know who will win out in the end.]
;W[lf];B[ng];W[kf];B[jd]
(;W[id];B[je])
(;W[je];B[id]))))
(;B[df]C[[Agi\] it's not elegant, but black can force through here.]
;W[ef];B[ee];W[ff];B[de];W[cd];B[ed];W[ec];B[bc];W[cb];B[fe]
;W[ge]C[[Agi\] White is too strained to hold black back.]))
(;B[ef]C[[Agi\] Just run outside or..])
(;B[ch]LB[bc:A][fg:B][bi:C]C[[Agi\] Black can widen out. In an emergency, can still live with something at A, B or  C]
))
(;B[dj];W[ci];B[dh];W[di];B[ei]
(;W[ch];B[dg])
(;W[eh];B[dg])))
(;B[ej]C[[Agi\] A cap tries harder to kill white])
(;B[cl]LB[cc:A]C[[Agi\] If you're not wanting to kill, chasing white for profit is another option. Black can always live in the corner w/ A if he gets in trouble]
;W[ch];B[ef]C[[Agi\] It's important to keep white weak so you can chase for profit.]
;W[fi];B[gf];W[fk];B[hd]LB[ed:A][od:B][ei:C][gq:1]C[[Agi\] if something like this comes up, Now white has 3 problems. groups A, B and C. White will be too busy to protect everything, and black will easily pull ahead in territory.]
))
(;B[fc]TR[pm]C[[Agi\] If black ignores white's Q7];W[ql]LB[qc:A]
[mf:C][qj:B]C[[Agi\] Black's right side still has 3 very easy ways to live. Take the corner at A. Make eye space with B, run to the center at C]
)
(;B[dj]C[[Agi\] The bottom left is a black fortress.]))
(;B[fc]C[[Agi\] If black comes in here.];W[jc]C[[Agi\] White can help O16 with something like this.]
;B[qc]C[[Agi\] This play is also not too dangerous for white because she can still run to the side]
;W[je]))
(;B[pq];W[qq]C[[Agi\] This by itself is nothing interesting, but it is worth a number of ko threats]
))
(;B[po]LB[qm:C][mn:A][pq:B]C[[Agi\] If black keeps white separate. The bottom group still needs either A or B to stay secure. If black gets both white is in trouble again.

At the same time, white wants to do something to help at C]
))
(;B[op];W[nn];B[on];W[nl];B[om]LB[nm:A][qm:B]C[[Agi\] Going this way, white still has to defend against something at A, or B. Black can take either and get some room to live if necessary.]
))
(;W[mo]C[[Agi\] If white goes here, he's willing to give up 2 stones]
;B[mp];W[on]C[[Agi\] White could aim to sacrifice them and build up the top and left]
))
(;B[nn]C[[Agi\] If black was going to play O6 any way, he should play here directly]
(;W[on]LB[pn:A][np:B]C[[Agi\] If white cross-cuts. Pushing through with A or B will give black something]
)
(;W[mo];B[on]LB[qn:B][mp:A]C[[Agi\] If white goes this way, keep splitting white. She'll have to worry about 2 sides, and you will head out to safety with no trouble.]
)))
