(;FF[4]GM[1]SZ[19]ST[2]CA[UTF-8]AP[SGFC:1.17]

PB[NicoChiaro]
BR[15k]
PW[carthage31]
WR[14k]
KM[6.5]
DT[2012-04-15]
PC[The KGS Go Server at http://www.gokgs.com/]
RE[B+17.5]
TM[1800]
OT[5x30 byo-yomi]
RU[Japanese]

;B[pp]C[carthage31 [14k\]: hi gg
NicoChiaro [15k\]: hi];W[dd]C[NicoChiaro [15k\]: good luck]
;B[dp]C[Hi ! I'm Jeff and I will do my best to comment your game]
;W[pd];B[qf];W[cn];B[fq];W[nc];B[rd];W[bp];B[cq];W[qc];B[pi]
;W[ci]TR[pp]LB[ck:a]C[Here ends the Mirror Go opening. White 14 is slack. A would be the normal extension.

On the black side, Q11 is better, more in line with the triangle black stone (building influence).]
;B[fc]LB[jp:a][np:b][pn:c][ic:d][jc:e]C[here you could also extend your influence in the south instead of approaching in the north : A,  B or C

you could also play a splitting play at D or E];W[ec];B[fd]
;W[ed]LB[jc:a]C[white 18 is useless (white's 2 stones are already connected).

You should instantly extend at A to give some base-building space to the 2 black stones]
;B[fb]C[This stone on the second line is useless at this stage of the game :

the 2nd line is used :

- to make life or to kill a group

- to grab points in the endgame];W[eg];B[lc]TR[nc]LB[ic:a]C[Your extension from the wall is way too far, especially considering the triangled white stone. 

See what can happen if white invades at A]
(;W[el]C[White 22 is bad. Too high and not connected to any stone. A black play at D10 would split the white group]
(;B[mp];W[jo];B[jp];W[io];B[ip];W[ho];B[hp];W[go]
(;B[gp]LB[kp:a][gq:b][ko:c]C[here A or C would be better because if white plays at 31 there is no cut : you block at B.]
;W[jj];B[jl]LB[jd:a][cc:b][db:c]C[33 here is kind of useless : you jump into white's area of influence without any support around.

Instead you could fix your weakness in the north with A, invade at B, slide at C]
;W[il];B[jm];W[im]
(;B[gi]TR[jl][jm]C[37 is very lonely, with no base, no support.

why not try to fix you 2 lonely stones situation (see variation)]
;W[ni];B[ol]LB[ql:a][qn:b][pl:c]C[Good idea but very high : what happens if White invades at A or B ?

A play at C would be slightly better.


A play directly on the 5th line is usually too high because your opponent can invade and live under.

To build a position, start with the 3rd line (territory) or the 4th line (influence).]
;W[ml];B[ln];W[kl];B[km];W[lm];B[mn];W[jk];B[kk]TR[jm][jl][km]
LB[ko:a][cc:b][db:c][qp:d][pq:e]C[L6, would be better I guess

Yes, and even more L5 : it connects the triangle group and prevents White from puching in.

but anyway : the triangle group has very small potential and it would be better to play B, C D or E]
;W[ll];B[lj]LB[kk:a]C[The small A+49 group is already almost dead]
;W[li];B[mk];W[kj];B[gk]LB[gg:a]C[Is G13 better here?
G9 - kind of risky

Yes, with A you start a link between G11 and the north group]
;W[gl];B[fg]C[As a thumb rule : you attach a stone to defend or make shape.]
;W[fh];B[gg];W[fi];B[gh];W[fj];B[fk];W[ek];B[fl];W[fm];B[gm]
;W[hl];B[em];W[fn];B[ej];W[dj];B[gj]MA[ej][em][gm][fl][fk]CR[gg]
[gh][gi][gk]LB[bq:a][qp:b][pq:c][qq:d]C[Here you played 5 stones and gave 3 of them, to finally connect with 71.

If that was your idea, you could have played it first.

Now look at the situation : do you think the big circled wall is going to give you any profit ?

Compare it to a single stone at A, B, C or D.];W[ei];B[jf]LB[jd:a]
[le:b][me:c]C[Too far in the center : white could come in deeply and ruin your apparently big territory (see variation)

A is safer, and after you can extend again at B or C]
(;W[kf];B[ke];W[kg];B[le];W[lf];B[me];W[mf];B[ne];W[nf]
(;B[of]C[P15 would be better (see variation)];W[oe];B[od];W[pe]
;B[oc];W[nd];B[ob];W[nb];B[qb];W[pb];B[pa];W[pc];B[oa];W[na]
C[I should have read that out, hm];B[la];W[oi];B[oj];W[nk];B[nj]
;W[lk]
(;B[ok]LB[mj:a]C[why not connect ?];W[mj];B[nl]C[you could use 105 in a better way. White could ignore it and take sente to play somewhere else.]
;W[mk];B[ph];W[pg];B[qg];W[pf];B[oh]C[Weak. There are a lot of points to grab on the side or corners]
;W[nh];B[jg]C[same comment as 111];W[jh];B[ih];W[ii]
(;B[eb]LB[db:a][cc:b]C[A or B have more potential (see bvariation)]
;W[db];B[ef];W[df];B[dg];W[eh];B[de];W[cf]C[Nice !];B[ce];W[ff]
;B[ee];W[gf]
(;B[fe]LB[hf:a]C[here a play at A is much better.

It firmly captures the 2 white stones (see variation)];W[hf]
;B[hg];W[if];B[ie];W[he];B[id];W[hd];B[hc];W[ic];B[gc];W[jd]
;B[je];W[kd];B[ld];W[ig];B[hh];W[hi];B[gd];W[hj];B[ge];W[hk]
;B[cc];W[cb]
(;B[cd]LB[dc:a]C[A would be better];W[qq];B[qp];W[pq];B[oq]
;W[or];B[nq];W[nr];B[mr];W[ms];B[ls];W[ns];B[lq];W[qr]LB[rp:a]
C[Here 166 is bad for white.

A play at A would probably save his groups by enlarging his base]
;B[ps];W[pr]LB[qs:a]C[Second mistake : a play at A would be much better for White]
;B[qs];W[rs];B[rq];W[rr];B[sr];W[rp];B[ro]
(;W[sp]LB[sq:a]C[Another white mistake : T3 would capture and save his group]
;B[so];W[sq];B[rq];W[op];B[oo];W[kn];B[ko];W[jn]
(;B[bf]LB[cg:a]C[A is also good and would capture white's 2 stones]
;W[cg];B[bg];W[ch];B[bh];W[bi];B[dm];W[cm];B[en];W[fo];B[do]
;W[ep];B[eq];W[bq];B[dl];W[cl];B[dk];W[ej];B[ck];W[cj];B[bk]
;W[dh];B[co];W[cp];B[cr];W[br];B[bo];W[ao];B[bn];W[cs]
(;B[ds]LB[dr:a]C[Here A is the only answer];W[dr];B[er];W[dq]
;B[bm];W[es];B[fs];W[mm];B[nm];W[nn]
(;B[on]LB[mo:a]C[A is better and does not leave the weakness]
;W[lo];B[mo];W[kp];B[kq];W[ko];B[og]LB[qe:a][rc:b]C[A or B are worth more points]
;W[ng];B[rc];W[rb];B[qe];W[qa];B[qd];W[fp];B[gr];W[hr];B[mb]
;W[jq]
(;B[jr]LB[iq:a]C[Instead of K2, a play at A to avoid any problem]
;W[iq];B[gq];W[ir];B[is];W[kr];B[ks];W[js];B[lr];W[hs];B[jr]
;W[sq];B[sp];W[kr];B[ds];W[gs];B[jr];W[es];B[is];W[fr];B[js]
;W[hq];B[an];W[eo];B[al];W[sc];B[ai];W[aj];B[ah];W[bj];B[ae]
C[useless. If white cuts at B15, the cutting stone will be captured.]
;W[sd];B[se];W[sb];B[mc];W[sf]
(;B[re]LB[sg:a]C[here A is better.];W[sg];B[rh];W[sh];B[si]
;W[ri];B[sj];W[rj];B[sk];W[rk];B[sl];W[pj];B[rg];W[qi];B[ql]
;W[qh];B[rf];W[rl];B[rm];W[pl];B[pm];W[pk];B[om];W[qk];B[qm]
;W[sg];B[sh];W[ma];B[ap];W[aq];B[ao];W[bc];B[dc];W[ba];B[ab]
;W[ac];B[da];W[md];B[lb]C[pointless];W[tt];B[tt]TW[oa][pa][ra]
[sa][ob][qb][oc][od][of][dg][lg][mg][og][kh][lh][mh][oh][ph]
[di][ji][ki][mi][pi][ij][lj][qj][ik][kk][jl][gm][hm][jm][km]
[gn][hn][in][gp][hp][ip][jp][cq][eq][fq][gq][ar][cr][er][gr]
[as][bs][ds][fs]TB[aa][ba][ca][ea][fa][ga][ha][ia][ja][ka][bb]
[cb][db][gb][hb][ib][jb][kb][ac][bc][ec][ic][jc][kc][ad][bd]
[dd][ed][hd][jd][kd][be][he][af][ff][gf][hf][if][sf][ag][ig]
[sg][bl][cl][am][cm][sm][cn][dn][pn][qn][rn][sn][po][qo][rp]
[mq][pq][qq][sq][kr][nr][or][pr][qr][rr][ms][ns][os][rs][ss]
C[NicoChiaro [15k\]: thank you
carthage31 [14k\]: thx

CONCLUSION  :

A-
I did not get the game's timing, but I think you could afford to take more time to think before you play. This way you could get a better evaluation of the positions on the board.

B-
When you build on the corners or sides, start with 3rd and 4th line, then you can extend higher. Starting on the 5th is far too high (your opponent can build a living position under your stones), starting on the 2nd is not efficient.

C-
When the center of the board starts to get crowded, think about looking at the sides and corners. Very often, simple plays along the sides or in the corners have greater value than stones in the center :

"The corner is gold, the side is silver, the center is a desert". Meaning that it's very difficult to build something in the desert, it takes a lot of effort and does not pay back so much.

Have good fun playing Go !

Bye])
(;B[sg];W[re];B[rg]))
(;B[iq];W[jr];B[ir]
(;W[kr];B[lr];W[lp];B[js])
(;W[is];B[kr];W[js];B[ks];W[hs];B[gs])))
(;B[mo]))
(;B[dr];W[ds];B[es];W[bs];B[an]
(;W[ap];B[ar]MA[ao][ap][bp][cp][bq][br][bs][cs][ds]C[the full group dies.]
)
(;W[ar];B[ap])))
(;B[cg];W[bf];B[bg];W[be];B[bd]))
(;W[sq];B[sp];W[rq]C[now white has 2 eyes]))
(;B[dc]))
(;B[hf];W[ge];B[he];W[gd];B[hc]C[After 133, White is trapped]
;W[hd];B[id];W[gc];B[gb];W[be];B[fe]))
(;B[db];W[eb];B[ea]C[now you cross under white's stones];W[cb]
;B[ca];W[dc];B[da];W[ba];B[fa];W[bb])
(;B[cc]
(;W[eb]C[If white blocks in the North, you can live by playing in the West]
;B[be];W[cd];B[bd];W[cb];B[bb];W[dc];B[bc]C[the group is alife and can extend towards the south]
)
(;W[cd]C[If black blocks in the West, you can connect in the North]
;B[db];W[eb];B[ea]C[the 3 stones are now connected, white's corner is spoiled]
)))
(;B[mj];W[mi];B[ok];W[nl];B[nm]))
(;B[oe];W[of];B[pe];W[pf];B[qe]MA[nc][pd][qc]C[the white group is now very weak (in direct contact with your wall). It can be attacked, maybe even killed...]
))
(;W[kd]
(;B[ld];W[ke];B[le];W[kf])
(;B[kc];W[ld];B[md];W[mc];B[me];W[kf])))
(;B[ko];W[kn];B[jn]CR[kn]C[one possible scenario. White's circled stone is cut and if white tries to save it, you will probably profit from his rescue operation to build to territory in the East..]
))
(;B[kp];W[gp];B[gq];W[hq];B[iq];W[hr];B[ir];W[gr];B[fr]TR[hq]
[hr][gr]C[White stones are dead]))
(;B[dj]MA[ci][el][eg]))
(;W[ic]
(;B[ie];W[jd];B[je];W[kd];B[ke];W[ld]CR[lc]C[your stone is now cut]
)
(;B[jd];W[id];B[ie];W[he];B[hd];W[hc];B[gd];W[je];B[if];W[kd]
;B[jc];W[kc];B[jb];W[kb];B[ib];W[hb]CR[ib][jb][jc][jd]SQ[lc]
TR[fb][fc][fd][hd][ie][if][gd]C[the circle stones are captured,

the square stone is cut

the triangle stones have heavy shape and no base])))
