(;FF[4]GM[1]SZ[19]ST[2]CA[UTF-8]AP[SGFC:1.17]

GN[jusi-shimiz30 3k B 6,5 V 2,5]
PB[shimiz30]
BR[3k]
PW[jusi]
WR[3k]
KM[6.5]
DT[2012-05-12]
PC[The KGS Go Server at http://www.gokgs.com/]
RE[W+2.5]
TM[2700]
OT[20/300 Canadian]
RU[Japanese]

C[Hello and thanks for your review. That is a KGS long game (45min each + 15 stones/5 min byo-yomi). I'm 3k and my opponent too. The game was close. I'm white (6.5 komi) and I finally win by 2.5 points. I would like to improve my yose and check if my direction of play was good. In particular, my move 64 (K12) seems to be the key move of the game and I never know how to choose such a move. But any comment is welcome :).

-Hi there, I'm SkyOverSea on KGS. It's a new account but I'm 2d. I think a lot of the moves before move 64 is the important part. You don't usually want to reach a point where you need to dive into an opponents moyo unless you made significant profit before he got such a  moyo. You definitely did not make significant profit, aha. You should have focused on keeping solid groups and not being pushed to the second line/low. The yose could have been played better but I think it was more reading errors rather than missing big moves. I know since it was a close game, it also makes it seem like looking at the yose is more important.

If you have any more questions, can email me or message me if you see me online.]
;B[qd];W[dd];B[pq]LB[oc:B][dp:A]C[-Another way to play if you don't want black to get two shimaris.]
(;W[dp];B[oc]LB[qj:B][qk:A][ql:C]C[-I'm going to try to not talk too much about just one stone away in play. There is actually quite the difference in each move but I don't even know all of it. I don't think it's too important yet for you but it's something to know.]
(;W[qk];B[qo];W[qg]C[Was R12 better? I got the feeling that this bigger extension was ok here since black stones are not so close. But I'm sure at all.

- I don't really like this move but black won't just invade. Black is safe on both sides so he doesn't have anything to worry about and you will sooner or later need another move to make a safer base there.]
;B[jp]LB[gq:A][hq:B]C[-I think the high extension is weird for black right now.]
(;W[gq]C[Black already got 2 shimaris + a perfect extension while I only got very little. This extension is big compared to the usual F3 but it is better for invading the bottom black area latter. Is it the best move?

-I would play H3, I showed you some variations. You don't have to be scared to play so close since its a high move. He will get some influence most likely but there are many ways to reduce corner extension moyos and such.]
;B[cf];W[ch]C[-Pincer was right, it is the biggest side.];B[ef]
;W[fd];B[di];W[ci];B[dj];W[dh];B[eh];W[cj];B[dk];W[cl];B[cq]
;W[cp]C[No choice here: I can let black take b6.

-Okay, here I shall show you some ways to deal with this 3-3 invasion. You played the wrong moves at the end.]
;B[dq]LB[ep:B][bq:C][eq:A]C[-Your move was alright but just showing you another way. I prefer C in this context but your move was fine.]
(;W[eq];B[er];W[fr];B[ep];W[fq];B[bp];W[bo];B[bq]LB[bn:A][cn:B]
(;W[bn]C[I need to protect the C5 cut (I read the first variation), but I'm unsure where is the best move. F5 seems to be ok (second variation), but I find it not so strong since it lets a lot of possibilities for black (e.g. B6).

-I cut out your variations cause I don't know why they're there aha. You absolutely need to fix this cut unless there was a life and death situation somewhere. First of all, this is the wrong move to play to fix the cut. The right move is C6.]
;B[dr]LB[bd:A][eo:B]
(;W[bd]C[I found this move very big: taking the corner while weakening the black group (D13 or E13 becomes very big now). But maybe I had to strenghten my F2 group before? It is not weak since I can E5 or K2 but it is attackable...

-No, you must fix the cut. It's even worse for you given that E5 is a easy play for black. This move does not take the corner as you think it does though it does strengthen it. All 3 of those stones are on the 4th line, black could live there in some way later maybe. E5 is not a move you could play because black would play it but K2 is. I do believe the F2 group will not die but as you can see, you are pushed down to second line. I would gladly do that as black everytime and he gets a huge moyo off a weak wall(D9).

Another thing to consider, I know you feel you're attacking black more but black needs another move to strengthen his weak wall. Fix the cut, be safe because black still needs to fix his weakness as well.]
;B[ck];W[bk];B[dl];W[cm];B[eo];W[dn]C[Maybe should I protect the F2 group first? But my stones at C4 are still important and I want not to let black connect D8 too easily.]
;B[en];W[jr];B[iq];W[ir];B[hq];W[hr];B[gp]C[-I don't know if you see how terrible this is for white. It's really bad, aha.]
;W[lq];B[kq];W[kr];B[lp];W[mq];B[pi]C[I didn't feel good: black was getting a very big moyo at the center and I had to play many moves on the second line :-(.

-Yes he was, I don't like this move by him but I see where he's going with it of course. It's pretty obvious. I honestly don't know how to play here, I feel like R11 is still fine but hmm, I think I still prefer R11.]
;W[ri]C[I choose this move to finish the sequence in sente.]
;B[qj];W[rj];B[pk];W[ql];B[pl];W[mp]C[Now I want to enter in the moyo! What is the best move? I begin with this small sente one. Maybe it is bad after all?

- I don't think it's big enough compared to the whole view of the board. But he answers so it's good for you.]
;B[lo];W[jh]C[This move seems good. But I was very unsure about it. How choose such a move? I usually overplay in such cases (even if it was not the case here).

-This is a hard situation, I can't tell you a magical move here. I can tell you if you can get capped or shut in basically with one move, then the move you played is not good. You might want to try taking advantage of the cuts at E13. I might play F12 or who knows.]
(;B[ii]C[-You're lucky black just wanted to build territory within his moyo. I could go into variations in him attacking you but it gets messy and I'm not even sure of all the ways.]
;W[ji];B[ij]C[-Black could hane.];W[kk]
(;B[jl]LB[jc:A][ih:B]C[I think black was too passive and the sequence was good for me, even if black got many points in the center. Do you think black might attack more aggressively?

-Black could definitely attack more aggressively, he could even cut you here instead.]
(;W[jc]C[I was very happy with this move which is a perfect extension according to F16 and the black shimari. It is also is in the perfect direction for K12 (even if K16 would be better to protect these stones).

-This is a lovely move in most occasions. This is not one of those. Black is going to cap you. I'm surprised he didn't. It wasn't time for you to play this because of what you did.]
(;B[gf]C[-Again, surprised.  Black could have just invaded too.]
;W[fp]C[Sente move... I was the feeling that a tesuji is possible to enter/reduce black central area.]
;B[go];W[hd]C[-You still need to protect K12.]
(;B[qm];W[rm];B[rn];W[pm];B[qn];W[oj]C[Kikashi is often bad, but it seems ok here, doesn't it?

-I wouldn't say kikashi is often bad. I would play this move as well in many situations.]
;B[pj];W[og]C[This move seem important to protect both the S11 group and the K12 group. If black plays here, it is a double attack :-(. It also attack the Q11 group.

-Definitely much needed move.];B[om];W[mc]C[Seem huge: weaken black shimari and I have now the feeling I can build something in the center now.

-This is huge for sure, gives you so much at top. Honsetly though, I could see black living top left maybe. Starting with C17. I haven't fully read it but it seems possible.]
;B[ig];W[ih];B[hh];W[jg];B[if];W[rd];B[rc];W[oe]C[Probably not the best way to attack the black shimari? But I would like to build a central moyo...

-Well you aren't attacking that shimari aha but he does leave it a bit weak later.]
;B[jf];W[kf];B[oi];W[ke];B[nh];W[lg]C[I protect the cut which also protect the K10 cut. I cannot lost the L9 stone (without compensation).]
;B[mb]LB[lb:A][nb:B]C[This move is great. Maybe I should answer it, but I don't like to play submissively.

- think you could hane from other side if you wanted to know.]
(;W[fo];B[fn];W[jk];B[ik];W[kl];B[jm];W[re]C[Even if gote, seem not so small (compared with a black move at this point) and keep presure on black top group.

-This is big.];B[fs];W[gr];B[lc]C[-This is also huge for black.]
;W[nc];B[nb];W[od];B[pc];W[ld];B[kb]
(;W[nr]C[This move is small while closing the top at K18 is huge, but since the exchange F1-G2, a black move at O2 seems problematical for me. I hesitated to play Q2 but I feel incomfortable with an answer at P2. P2 is possible but seems gote (my move at O2 is not fully sente, but if black tenuki, Q2 becomes a big sente play).

-You actually live in sente if black plays O2. Well sente in the sense that you can make blacks lower left corner a seki or ko depending on how he plays. This isnt small but top is bigger for sure.]
;B[ib];W[jb];B[ja];W[hb]C[-You must play L17 first before this.]
;B[ha];W[gb];B[ga];W[fa];B[ia];W[ic];B[ka];W[fb];B[qe];W[rf]
;B[or]C[This was a great sequence for black. Black looks ahead.]
;W[kc];B[lb];W[sc];B[rb];W[mi];B[mh];W[lh];B[ce];W[ni]C[Probably a mistake for me since I don't read the black sequence beginning at C16 (move 169).]
;B[oh];W[nl]C[-Well O9 is the move to play here. This doesnt even gain more points than O9.]
;B[jj];W[kj];B[ok];W[km];B[kn];W[oo];B[pn];W[mn]C[-Need to play O9 here instead of this. Or play C16 which is huge as well.]
;B[nk]C[Didn't see that this move was so big. N6 was probably better at O10.]
;W[mk];B[mj];W[lj];B[nj];W[dm]C[I searched a lot, but I did not find any sequence beginning at F7 (since D4 may become short of liberties after D7. So I choose this move.]
;B[em];W[op]C[Seem small but activate some aji in the corner.

-There is  bigger moves like C16 I think right now but you do gain some from this. Just realize it took a gote move first to gain profit in corner which was actually just aji aha.]
;B[nf]C[Didn't see before that this move works :-(.];W[of];B[mf]
C[I was a bit affraid now: all my white central area is destroyed and black can capture stones when he wants at M11 and N8.]
;W[qr]C[Seem to work even if not 100% sure. Anyway I'm late and I must take risk.

-I don't think it works aha but well you got something.];B[qq]
;W[pr];B[rr];W[oq];B[qs];W[os]C[Nice reduction even if gote :).]
;B[cd]C[-This was huge.];W[cc];B[dc];W[bc];B[ed];W[db];B[de]
C[One more black reduction which compensates my previous sequence.]
;W[bg];B[bf]C[Now trying to reduce the central area.];W[jq]
;B[ip];W[kp];B[ko];W[gn];B[ho];W[hn];B[in];W[el];B[fl];W[ei]
;B[ek];W[eg];B[fh];W[fg]C[Seem to be an overplay but I am still late. So I try it (at least there would be aji).

-Well this should lose you points cause it doesnt work but he complies.]
;B[gg]C[Black submits :).];W[dg];B[ff];W[ec];B[dd];W[rl]C[Seem big now. But Is it the biggest move?

-It's pretty big.];B[qh];W[rh];B[li];W[rp];B[rq];W[sn];B[so]
;W[sm];B[ro];W[pp];B[qp]C[I'm happy to have found this nice reduction in sente :).]
;W[nm];B[ln];W[lm];B[sb];W[gs];B[mo];W[es];B[bs];W[ap];B[ar]
C[Maybe it was possible to reduce better this area (or even to kill it)?

-You could have made a ko or kill it I believe instead of playing E1. I think it was mainly a ko though. Once he played B1, it was alive though.]
;W[no];B[do];W[co];B[fe];W[ge];B[he];W[gd];B[pg];W[pf];B[ph]
;W[sd];B[md];W[nd];B[me];W[qf];B[id];W[jd];B[ie];W[ki];B[mi]
;W[af];B[ae];W[ag];B[be];W[cg];B[on];W[le];B[nn];W[mm];B[ad]
;W[ac];B[ds];W[df];B[ee];W[pd];B[fi]C[Is it really useful? Seem to be a -1 point move here.]
;W[kq];B[aq];W[ao];B[rs];W[ps];B[fs];W[qc];B[qb];W[es];B[qc]
;W[fs];B[ng]C[Dame now.];W[je];B[lf];W[ol];B[qi];W[tt];B[mg]
;W[po];B[ne];W[pe];TW[aa][ba][ca][da][ea][ab][bb][cb][eb][fc]
[gc][hc][kd][se][sf][kg][rg][sg][ah][bh][kh][sh][ai][bi][si]
[aj][bj][sj][ak][lk][rk][sk][al][bl][ll][ml][sl][am][bm][an]
[cn][np][nq][lr][mr][or][hs][is][js][ks][ls][ms][ns]TB[la][ma]
[na][oa][pa][qa][ra][sa][ob][pb][hf][hg][gh][ei][gi][hi][ni]
[ej][fj][gj][hj][oj][fk][gk][hk][el][gl][hl][il][fm][gm][hm]
[im][pm][gn][hn][jn][io][jo][hp][rp][sp][sq][br][cr][sr][as]
[cs][ss]C[White wins by 2.5 pt.])
(;W[kc];B[lb];W[jb];B[nr];W[mr];B[ms];W[ls];B[ns];W[nq];B[or]
;W[oq];B[pr];W[gs]C[-4 spots and bad for B.]))
(;W[nb];B[nc];W[lb];B[md];W[lc];B[ob];W[ma];B[ne];W[re];B[qe]
;W[qf]))
(;B[id];W[ic];B[he];W[gd];B[jf]C[-Now white needs to live again. Though I probably wouldn't have played those forcing moves, they're good for white and I don't feel they do enough.]
)
(;B[jf]))
(;B[jf]C[-Black must play here.];W[mh];B[pg]))
(;W[ih]C[-I'm wondering about this move. It looks solid and leans to take advantage of blacks weak part there. It also gives you an extension to the top. I'm mainly wondering if black simply hanes here which leads to simple outcome on both sides or black keeps attacking.]
))
(;B[jj];W[kj];B[ki];W[oj];B[pj]))
(;B[jf]C[-This seems like the most normal move. The top is still big and whites top left isnt territory yet.]
))
(;W[eo];B[fp];W[go];B[do];W[co];B[fo];W[fn];B[en];W[gp];B[eo]
;W[em]))
(;W[cn]C[-This is the right move.]))
(;W[ep];B[eq];W[fq];B[bp];W[bo];B[bq];W[cn]C[-B is alive.])
(;W[bq]C[-I think this is the best move for you but it's okay that you didn't play it.]
;B[fq];W[fp];B[ep];W[eo];B[eq];W[gp];B[br];W[bp];B[gr];W[hr]
;B[fr];W[iq]C[-B is alive except you get a sente move with A2 and then H1 or J1 is sente.]
))
(;W[hq];B[ho];W[fp];B[iq];W[hp];B[io]LB[oo:A][pr:B]C[-Later, here are some ways to reduce.]
(;W[pr];B[qr];W[oq]
(;B[or];W[pp];B[qq];W[nr];B[ps];W[no])
(;B[pp];W[no]))
(;W[oo]C[-Simplest moyo reducing move.];B[np];W[qn])))
(;W[qj]C[-This is the obvious move. Now if Black makes the regular shimari, you have two space extension on both sides.]
(;B[qh]
(;W[qo];B[qm];W[oo];B[np];W[pl])
(;W[qm];B[qo]C[-This is more simple if you want to be safe, just gives black two shimaris.]
))
(;B[qo];W[qg]))
(;W[ql];B[qn];W[qi];B[qg]))
(;W[oc]C[-Later you talked about feeling bad black got two shimaris. That's usually what happens when black plays this way. So here's something to stop it.]
;B[cp]LB[po:A][qo:B]
(;W[po];B[pe])
(;W[qo];B[pe])))
