(;FF[4]GM[1]SZ[19]ST[2]CA[UTF-8]AP[SGFC:1.17]

PB[DorfZwei]
BR[1d]
PW[WiGoStar2]
KM[7]
DT[2012-05-10]
PC[The KGS Go Server at http://www.gokgs.com/]
RE[W+9]
TM[3600]
OT[15/300 Canadian]
RU[Japanese]

C[Hi,

This is a game I recently played. It is a German online tournament.

I played black in this game.

I placed some questions within the file where I was unsure during the game and afterwards.

I hope you will enjoy the game and commenting.

Thx in advance



Peter];B[pd];W[dc];B[dp];W[oq];B[de];W[ce];B[cf];W[cd];B[dg]
;W[fc];B[ck];W[fq];B[dn];W[jp];B[po];W[oo];B[on];W[no];B[pp]
C[I though a little about Q3 instead but feared Q6.];W[pn]LB[pq:A]
C[janr: I feel white must block at A];B[pq]C[janr: yes, this is big.]
;W[or]LB[nq:A][nr:B]C[janr: maybe A (or B??) is better shape as no cut remains.]
;B[pr];W[qn]
(;B[qo]LB[ro:A][op:B]C[janr: A is the normal shape.
Also, I would be tempted to first see white's reaction to the cut.]
;W[op];B[om];W[pl]LB[ql:A]C[janr: the jump is bad shape since black can cut.  A seems better]
;B[pm];W[qm];B[ql];W[rl];B[qk];W[ro];B[rp];W[rk];B[qj];W[rn]
;B[rr]LB[rj:C][sk:D][sm:B][so:A]C[Safety first. But I am not sure if white is able to attack the corner. But there a so many possibilities, so I defended.

As black I would play A and expect white B, black C white D.]
;W[rj];B[qi]C[Here I thought about P9 instead but I didn't like a white stone on R11

janr: I prefer R11 too];W[nl];B[ol];W[ok];B[pk];W[nm];B[ri]
;W[nn];B[pl];W[sm];B[ip]LB[hq:A][dr:B]C[And this is very important I think. Somewhere around here or a move like O17 instead?

janr: O17 looks natural, but given white's wall an invasion is probably good too.
A is the most common start
The next common move is B.];W[iq]
(;B[fp]LB[ip:A][hq:B][dr:C]C[janr: no. once Black attaches at A he should continue, e.g. with B.  Unfortunately, the ladder doesn't work, so black should not have played A.

I still prefer C above the game move.];W[cq]C[janr: Now white also gets the corner.]
;B[cp];W[gp];B[fo]LB[eq:A]C[janr: I feel black is overconcentrated now.  I would prefer A]
;W[dq];B[eq]C[When I reviewd this I think now simply playing G3 is better.

janr: if you plan to sacrifice, just playing G3 is better instead]
;W[er];B[gq];W[ep];B[hp];W[go]C[janr: white shouldn't play the unfavorable ladder]
;B[gn];W[qf]LB[qi:A]C[janr: group A becomes weak.  With a stone at O17, the fight in the upper right would be easier.]
;B[ho]C[I played this a tempo. But perhaps a move at P13 myself is better. an then taking the 2 stones.]
;W[og]LB[of:A]C[Getting difficult.

janr: I prefer A, which can not be cut.];B[pf];W[pg];B[qg];W[rg]
C[janr: living inside is not a good option I think.];B[qh];W[qe]
;B[pe];W[qd];B[qc];W[rc];B[pb];W[qb];B[pc];W[oi]LB[ni:A]C[janr: other fencing in moves (e.g. A) are probably better]
;B[oj];W[nj];B[nk];W[mk];B[ni];W[mj];B[rb]
(;W[rd]LB[sd:A]C[janr: I prefer A for more eye space.];B[sh]
C[This got a semeai between those 2 groups.];W[sg]C[janr: the white shape is poor.]
;B[se];W[sb]
(;B[rf]C[I was very unsure about this semeai. So I decided to let live both groups.

And at that time I thought I were ahead.

janr: black can win the semeai.];W[ra];B[oh];W[nh];B[pi];W[mh]
;B[lc];W[jc];B[le];W[ek];B[dj];W[bp];B[bo];W[eo];B[en];W[bq]
;B[cn];W[fm]C[janr: white's move is not useful.  Blacks i not forced to connect.]
;B[fr];W[eq];B[jq];W[jr]LB[kq:A]C[janr: white is unreasonable.  Atari at A is normal.]
;B[kq];W[hr];B[gr];W[kr];B[ir];W[is];B[hq];W[lq];B[kp];W[ir]
;B[jo]C[This maybe too small. Sould I have played a move around H10?

Another idea, I had during the game, was H17.

janr: capturing is good for black, who gets strong and neutralizes white's wall.]
;W[kf];B[lf];W[kg];B[ng];W[kd];B[pa]C[A blunder];W[sd]C[This is bigger of course.]
;B[rh];W[ld];B[md];W[mc];B[nc];W[mb];B[nd];W[mg];B[nf];W[mf]
;B[lb]LB[me:A]C[janr:  A is bigger];W[kb];B[ma];W[ne];B[of]
;W[me]C[janr: white has no more cutting points.];B[ge];W[fe]
LB[ek:A]C[janr: white is trying too hard on the left side with small moves.
'A' has become aji keshi (a bad forcing move).];B[ff];W[ee]
;B[gg]C[janr: black got stronger];W[ef];B[eg];W[fh];B[fg];W[hk]
;B[gc];W[gd];B[hd];W[fd];B[he];W[hc];B[ic];W[gb];B[je];W[ib]
;B[ke];W[if];B[ie];W[hh];B[lg];W[kh];B[lh];W[li];B[ki]LB[be:B]
[jl:A]C[This was definitely too optimistic.

I think now, that white got too many stones in the center. He will be able to connect some which makes the game close.

janr: instead of cutting, it is better to just reduce.  If white answers a reduction at black A, black can switch to endgame at B.]
;W[kk];B[ji];W[ih];B[gh];W[gi];B[lp];W[mp];B[os];W[ns];B[ps]
;W[mr];B[gj];W[hj];B[fi];W[hi];B[fk];W[gk];B[fj];W[bf]C[This is big.]
;B[bg];W[df];B[cg];W[gl]LB[be:A]C[janr: A is still big.];B[fl]
;W[gm];B[em];W[in];B[jn];W[jm];B[km];W[jl];B[ll];W[ln];B[kn]
;W[lk];B[ig];W[hg]
(;B[hf]C[Another blunder.];W[be];B[jf];W[jh];B[hn];W[ag];B[ah]
;W[af];B[bi];W[lo];B[ko];W[im];B[fn]LB[io:A]C[janr: A is 1 point better at least]
;W[kc]C[janr: doesn't make points.];B[nb];W[lm];B[kl];W[do]
;B[co];W[es];B[qa];W[rb];B[so];W[id]LB[ap:A]C[janr: A is bigger]
;B[ap];W[aq];B[ao];W[jg];B[hm];W[hl];B[ml];W[mm];B[io];W[jj]
;B[oe];W[mi];B[oi];W[sj]LB[jd:A]C[janr: A is better];B[ka];W[ja]
;B[la];W[jd];B[ok];W[sn];B[sp];W[if];B[gf];W[ig];B[fs];W[cs]
;B[sf];W[hs];B[tt]LB[ld:C][be:A][df:B][qf:F][ki:E][ip:D]TW[aa]
[ba][ca][da][ea][fa][ga][ha][ia][sa][ab][bb][cb][db][eb][fb]
[hb][jb][ac][bc][cc][ec][gc][ic][sc][ad][bd][dd][ed][ae][de]
[ii][ji][ij][kj][lj][ik][jk][sk][il][sl][rm][mn][mo][np][mq]
[nq][ar][br][cr][dr][lr][nr][as][bs][ds][js][ks][ls][ms]TB[na]
[oa][mb][ob][mc][oc][od][og][pg][rg][sg][bh][ch][dh][eh][fh]
[ph][ai][ci][di][ei][aj][bj][cj][ej][pj][ak][bk][dk][ek][al]
[bl][cl][dl][el][am][bm][cm][dm][an][bn][go][gp][jp][qp][qq]
[rq][sq][qr][sr][qs][rs][ss]C[janr: Important mistakes were:
- endgame at A (10 points + B is not sente)
- failure to connect at C.
- attachment at D
- wasted move at E
- failed follow up of ko threat at F.])
(;B[be];W[bd];B[af]))
(;B[ra]
(;W[re];B[rh];W[rf];B[sc])
(;W[rf]
(;B[sc];W[sd];B[rh];W[ok];B[qa];W[pj];B[sa];W[pi];B[re];W[ph]
)
(;B[oh];W[nh];B[pi];W[mi];B[oi];W[mg];B[sc];W[sd];B[qa];W[ok]
;B[sa];W[ph];B[re];W[rh];B[si];W[sj];B[nk];W[sf];B[se];W[ok]
)))
(;B[qa];W[rf];B[oh];W[nh];B[pi];W[mh];B[mi]
(;W[li];B[ng])
(;W[lh];B[li])))
(;W[sd];B[re];W[rf]
(;B[oh];W[sg];B[se];W[si])
(;B[sh];W[sg]
(;B[se];W[sb];B[qa];W[pi]C[janr: white has an eye, black has no eye.]
)
(;B[oh];W[sb];B[qa];W[nh];B[pi];W[mh];B[ng];W[nf];B[mi];W[mg]
;B[se];W[li];B[rh];W[ph]
(;B[oi]C[janr Black can't connect. ...];W[sj];B[sa];W[si];B[sc]
;W[ok])
(;B[sa];W[ra];B[sj];W[sk];B[sa];W[oi];B[sc]C[janr: white has insufficient ko threats, but black must spend one more move.  White got a strong position by fencing in black, so the result is proably acceptable for white too.]
)))))
(;B[hq];W[hp];B[io];W[hr];B[jq];W[gq];B[kp]C[ladder doesnt work]
))
(;B[op];W[np];B[nq]
(;W[mq]C[janr: black can capture two stones and gets a big corner]
)
(;W[nr];B[ro]C[janr: bad aji remains for white];W[rn];B[qo]
(;W[qf];B[mq];W[mr];B[lq];W[lr];B[kq];W[kr];B[jq];W[jr];B[iq]
;W[ir];B[hq])
(;W[mq]C[janr: black has sente]))))
