(;FF[4]GM[1]SZ[19]ST[2]CA[UTF-8]AP[SGFC:1.17]

PB[GOtoHades]
BR[7k]
PW[oti]
WR[6k]
KM[0.5]
DT[2012-06-27]
PC[The KGS Go Server at http://www.gokgs.com/]
RE[W+29.5]
TM[600]
OT[25/900 Canadian]
RU[Japanese]

C[GOtoHades [7k\]: GG
oti [6k\]: hi

Hello, my nick on KGS is Betka (1d), so if you have any questions to the review, you can contact me there or write me a mail. I am 3k EGF. 

How to read the review:
All the comments in this sgf are mine, so I am not going to mark them with any special sign. The right order to read is first to find the commentary to the discussed move in the main line and then read the explaining variations from the top one to the bottom, since I try to order them logically. The summary is given at move 129.]
;B[pd];W[pp];B[de];W[dp];B[cn];W[co];B[dn];W[fp];B[cj];W[dc]
;B[ec];W[dd]C[Until now the fuseki looks rather normal, but his white move is a severe mistake ...]
;B[ed];W[ce]C[... because a double hane is perfect for you now (see variations)]
(;B[df];W[cf]LB[cg:A][dg:B]TR[cd][ee]C[Here, both black and white shape are bad because of the marked cutting points, so you should continue locally. Hane at the head of two stones at A is good here (after w protects, you protect too), if that is too hard to read then streching at B is also fine.]
;B[id];W[cg];B[dg];W[qf];B[pf];W[pe];B[oe];W[qe];B[od];W[qd]
(;B[pg]C[The hane in the corner is another possibility (variation)]
;W[pb]LB[qc:A]C[This is a slight oveplay from white, which should be punished by the cut at A (variation)]
(;B[ob];W[pc];B[oc]SQ[aa][ba][ca][qa][ra][sa][ab][bb][cb][qb]
[rb][sb][ac][bc][cc][qc][rc][sc][ad][bd][cd][rd][sd][ae][be]
[re][se][af][bf]C[White now played two times in a corner where you were first and two times got a big amount of territory and sente (I count him aproximatelly the marked 29 points by drawing a straight line to the edge where I dont know who will get to the important double-sente moves). He also has round 10 points in the bottom left corner and good potential on the bottom side. I is white turn.

Black has a moyo which will be converted to 30-40 points and maybe 5 points for his group on the left. 

White tricked you twice and is better off from the fuseki. The game is not lost yet, but it is necessary, that you trick him somewhere too :)]
;W[qg]
(;B[le]LB[ph:A]C[When playing on influence, you must be as ambitious as possible. W already got something like 30 solid points in both corners and some more on the bottom side. That means, that solidifying 35 points on the top side cannot be enough. Also a move in your own moyo showes that you are very focused on having territory in only one area of the board.

Here, a move at A is a must for several reasons.
1) w hane here makes a really huge difference on the right side (see var. starting with w playing A)
2) it enlarges your moyo (see var. starting b playing A)
3) not that important, but a good guide: it is shape]
(;W[jp];B[nq];W[oq];B[np];W[pn];B[kp];W[jo];B[jq];W[iq];B[jr]
;W[ir]
(;B[ph]C[Ah. Still a big move, but no time for it now.];W[kq]
;B[kr];W[lq];B[lp];W[lr];B[mr];W[ks];B[mq];W[js];B[or];W[pr]
(;B[ns]C[Its better to run into the centre then make one gote eye. Besides, w can start a ko at N1 to ruin your eye later.]
;W[ps];B[os]LB[nn:A]C[A jump around A is still necessary. Problem is, the group is still very weak, w can it enclose easilly.]
(;W[qj];B[pj]C[Ok, disregarding the weak group, this is a way to enlarge your moyo.]
;W[qi]
(;B[pi]C[This move is very safe but slow, always try to stay ahead of your opponent]
;W[qk]
(;B[lh]TR[eg][fg][gg][hh][ih][ji][ki][li][mj][nj][oj]C[This move is again too slow. Play it above the triangled line or use it to protect a weakness.]
;W[jh]
(;B[jg]C[Try to get more out of your moyo, a good possibility is to attach from the other side. See variation.]
;W[ih];B[ig];W[hh];B[hg];W[fh];B[fg];W[dh];B[eh];W[ei];B[eg]
;W[di];B[dj];W[ej];B[ek];W[fk];B[el];W[fl];B[fm];W[gm];B[fn]
;W[gn];B[fo];W[go];B[bh];W[bg];B[bi];W[ch]LB[eb:A][mo:B]TR[bg]
[bh][bi]C[The last two exchanges were actually not sente, w could have easilly played the hane of A himself (or kill around B)]
;B[db];W[cb];B[eb];W[ca];B[pa];W[qa];B[qb]C[well done :)];W[oa]
;B[qc];W[rc]
(;B[pa];W[rb];B[ra];W[li];B[mi];W[kh];B[lg];W[lj];B[mj];W[mk]
;B[op];W[pq]
(;B[ln]LB[on:A]TR[ih][jh][kh][li][lj][mk]C[Ok, hard to do anything with this group after allowing all the marked exchanges. A looks like a good forcing move aiming at the connection (see variations - rather complicated).]
;W[mo];B[nn];W[mn];B[mm];W[nm]
(;B[nl];W[no];B[om];W[oo];B[kn];W[mp];B[ll]LB[pb:2][dd:1][le:3]
[jg:5][lh:4]TR[dg][ph]SQ[np][op][mq][nq][mr][or][ns][os]C[Now the game is decided, most of the territories solidified, so I end my review here and give a summary.

From the third move (5-4 point) you started a game on influence. White tricked you with move 1 in the first corner  where you didnt see the double hane and a little also in with move 2 in the second corner, where he should not have taken sente. The triangle marks show places where you didn't finish the wall and the shape by extending and left white the possibility to hane over your two stones, although he didn't use it. Numbers 3, 4 and 5 mark slow moves which you played into your own moyo, unnecessary protecting and not expanding it. They also show that you were very focused on one territory on the top. When considering a move like 3, it is nearly always better to play in a completely different area of the board. With moves like 5 it is good to think about attack.
A major issue for the second half of the game was the weak group on the bottom, which really needed a jump into the centre. 

You can see that your loss is a problem of a few slow moves, two unpunnished overplayes and a weak group, so you can get a lot better by improving few things :) I think you should try counting solid territory which each side has even early in the game, in this way you can see how much you must get from your moyo. Also try not to have only one territory on the board, split opponents areas of influence earlier.]
;W[nk];B[ok];W[lk];B[oj];W[kl];B[jn];W[ml];B[lm];W[on];B[nm]
;W[in];B[pm];W[qm];B[qn];W[ql];B[jl];W[jk];B[il];W[ik];B[hl]
;W[hk];B[gl];W[gk];B[jm];W[eo];B[en];W[bn];B[bm];W[bo];B[cm]
;W[do];B[gh];W[fi];B[gi];W[gj];B[hi];W[ij];B[ii];W[ji];B[gp]
;W[hp];B[ag];W[af];B[ah];W[ci];B[bj];W[am];B[al];W[an];B[bk]
;W[hm];B[nj];W[pl];B[ol];W[sb];B[qh];W[rh];B[cc];W[cd];B[bc]
;W[bb];B[ae];W[bf];B[bd];W[ac];B[da];W[ab];B[kg];W[hj];B[gg]
;W[kk];B[qa];W[rd];B[im];W[sa];B[io];W[ho];B[hn];W[pc];B[pb]
;W[in];B[rg];W[ri];B[hn];W[bl];B[cl];W[in];B[qo];W[po];B[hn]
;W[ak];B[aj];W[in];B[qp];W[ls];B[hn];W[qq];B[in];W[ip];B[tt]
;W[tt]TW[aa][ba][bc][cc][sc][ad][bd][sd][ae][be][re][se][rf]
[sf][rg][sg][sh][ki][si][fj][jj][kj][rj][sj][rk][sk][rl][sl]
[rm][sm][qn][rn][sn][ao][qo][ro][so][ap][bp][cp][ep][gp][np]
[op][qp][rp][sp][aq][bq][cq][dq][eq][fq][gq][hq][jq][mq][nq]
[rq][sq][ar][br][cr][dr][er][fr][gr][hr][jr][kr][mr][nr][or]
[qr][rr][sr][as][bs][cs][ds][es][fs][gs][hs][is][ms][ns][os]
[qs][rs][ss]TB[ea][fa][ga][ha][ia][ja][ka][la][ma][na][oa][fb]
[gb][hb][ib][jb][kb][lb][mb][nb][fc][gc][hc][ic][jc][kc][lc]
[mc][nc][pc][fd][gd][hd][jd][kd][ld][md][nd][ee][fe][ge][he]
[ie][je][ke][me][ne][ef][ff][gf][hf][if][jf][kf][lf][mf][nf]
[of][mg][ng][og][mh][nh][oh][ai][ni][oi][ak][ck][dk][bl][dl]
[dm][em]C[GOtoHades [8k\]: TY
oti [6k\]: thx])
(;B[on]C[ah, looks like this works too];W[lm];B[pm];W[qn];B[nl]
;W[ml];B[ol]))
(;B[on]
(;W[om];B[nn];W[mo];B[nm];W[pm];B[nk]C[this is connected];W[nl]
;B[ml])
(;W[mo];B[po];W[qo];B[oo];W[pm];B[om];W[pl];B[ol];W[ok];B[nk]
C[this is connected];W[nl];B[nj];W[pk];B[ml];W[nm];B[mm];W[nn]
;B[mn];W[no];B[lo])
(;W[oo];B[no];W[po];B[ln]C[b made shape, w can start the ko, but then you have a lot of threads for the connection]
)))
(;B[rb]C[even better :)]))
(;B[ji]
(;W[ih]C[Can the w group die?];B[ii];W[hh];B[hi];W[gh];B[gi]
;W[fh];B[di];W[ki];B[kh];W[fi];B[fj];W[ej];B[ei];W[gj];B[fk]
;W[kj];B[hk]C[I think so!])
(;W[ii];B[ih]C[Kill at least the K12 stone ...]
(;W[ki];B[jj];W[kh];B[kj]C[w cannot play this])
(;W[hh];B[ig];W[jj];B[ki];W[hi];B[hg]LB[kj:A]TR[jg][kg][lg]
[jh][kh]C[At least by the marked points and the possibility to turn round at A better then the game]
))))
(;B[jk]C[Black has given w a lot territory on the right. To get adequate compensation from his moyo, he might want to try something like this.]
(;W[hk]C[If w comes in on the boarder ...];B[hj];W[ij];B[ik]
;W[gj];B[hi];W[gi];B[hh];W[gk];B[gh]C[... black moyo gets much bigger then in the game. He might be able to win.]
)
(;W[mo]C[The problem with this strategy is, that w can still use the weakness of this group :(]
;B[no];W[mn];B[nn];W[mm];B[nm];W[ml];B[ol];W[mj];B[ki];W[mh]
;B[lg];W[gl];B[gj]C[w reduced both halves of the moyo and is ahead]
)))
(;B[pk];W[qk];B[pl];W[qm]TR[pi]C[The cut doesnt work ... black has built an even bigger wall in sente and he can close his moyo in the best way he can find :)]
))
(;W[nn];B[mn];W[mm];B[ln];W[lm];B[kn];W[km];B[jn];W[jm];B[in]
;W[hl];B[gn];W[gl];B[fm];W[jg]C[Even if you escape like this, w uses his wall to jump into your moyo as far as possible and potentially make his own territory in the middle. Thats the reason why weak groups should escape to the centre.]
))
(;B[nn]C[much better])
(;B[ps]C[The proper technique to make an eye];W[qs];B[os];W[qr]
;B[ms]C[This way no ko is left behind]))
(;B[lq]C[Fix your shape. This is urgent.]))
(;W[ph]C[Any black move on the right side now is sure to come under attack. If b playes from the bottom, w just protects the left. It looks like either the right or the bottom will all become territory for w.]
(;B[oh];W[pi];B[oi];W[pj]C[Looks like enlarging moyo, but giving your opponent fourth-line territory is a sure way to lose.]
)
(;B[qn]C[This stone will get under attack immediatelly];W[ql]
(;B[on];W[np]C[no points for you])
(;B[qq];W[qp];B[pq];W[op];B[rp];W[ro];B[rq];W[qo];B[nq];W[mo]
C[all the right is territory for w]))
(;B[nq]C[better approach, but still];W[pn]TR[ph]C[with the help of the marked stone w can make the whole side territory with only one more move]
)))
(;B[ph]TR[eg][fg][gg][hg][ig][jg][kg][lh][mh][nh][oh]C[This is a very nice moyo. Lets look how to protect it in a good way.
I say that w cannot invade deeper then the marked line (the line between the edges of the moyo) without taking big risk. If he does reduce somewhere on the line, then you can still play the protective move you played in the game, or you have the option to attack.

A conclusion from the variations should be, that playing protective moves below the marked line is not good (if w cannot live easilly on the 3 line, cut you somewhere badly or something - not this case). Much better is playing elsewhere and using a w invasion for attack, or enlarging the moyo on the side - moving the marked line further into the centre.]
(;W[kd]C[Illustration 1: this is too deep];B[kg]
(;W[je];B[ig];W[ie];B[hd]C[if w tries to escape, he is in trouble]
)
(;W[ic];B[hc];W[jc];B[hb];W[mc];B[kb]C[w cannot live locally]
))
(;W[kf]C[Illustration 2: risky for w]
(;B[kh]C[Here you can attack in the same way as in the previous example, though it will be more technically complicated. I still say this is a good fight for black. W either dies or gets a running group and you get a wall facing outside.]
)
(;B[kd]C[You may also choose to protect now, although it is pasive. Note that you make about the same amount of points as in the game while w has played once more in the area. 
White may now choose to help his weak stone or to view it as a forcing move and decide later in the game if he helps or sacrifices it.]
))
(;W[kg]TR[eg][fg][gg][hg][ig][jg][lh][mh][nh][oh]C[Illustration 3: on the boarder]
(;B[ke]LB[ig:A][jp:B]C[Protecting is possible. W has a move to help his stone on A while making influence himself, or to play on the bottom at B.]
)
(;B[li];W[ih];B[jj]C[Even if w reduces on the boarder of your moyo, an attack is often still the best strategy. Your goal is to enclose w in a small space. W will probably live (or excape), and you risk some territory inside your moyo, but in exchange you get outside influence, which in this game means that w wont make much territory on the bottom. Also you have a good chance to come out of the fight with sente.]
))))
(;B[qc];W[pc];B[rc];W[qb];B[qg];W[rd];B[rf];W[rb]LB[nc:B][qn:A]
C[Now you can continue making a territory by approaching at A or possibly close the side of by B]
))
(;B[qc];W[pg]C[This goes back to joseki];B[of];W[rc];B[rb];W[qb]
;B[pc];W[rd];B[pb];W[qj]C[Here w gets a little more influence on the side, but black has points in the corner and a move]
))
(;B[cf]C[w must make a living group somehow]
(;W[df];B[ee]
(;W[be];B[cg]C[this is one possible outcome, good for black]
)
(;W[cg]C[w cannot play this];B[bf]C[whatever w plays, he is in trouble]
))
(;W[ee]C[this cut doesnt work well];B[df];W[eb];B[fb];W[db]
;B[gc];W[bd];B[be];W[cd]C[w is for sure alive, but b has great influence]
)))
