(;FF[4]GM[1]SZ[19]ST[2]CA[UTF-8]AP[SGFC:1.17]

PB[If]
BR[15k]
PW[kenshinsan]
WR[15k]
KM[6.5]
DT[2012-07-19]
PC[The KGS Go Server at http://www.gokgs.com/]
RE[B+17.5]
TM[1800]
OT[5x30 byo-yomi]
RU[Japanese]

;B[pd];W[cd];B[op];W[dq];B[pj]
(;W[ec];B[co];W[ck];B[fq];W[iq];B[eo];W[cp];B[dp];W[bp];B[bo]
(;W[er];B[eq]TR[eo]SQ[cq][dr]C[You are making his triangle stone very efficient, and giving yourself cutting points at the square points.]
;W[cr];B[cm]
(;W[bl]
(;B[jp]
(;W[gr]
(;B[id];W[hc];B[jq]
(;W[jr];B[kr];W[js];B[jc];W[nc]C[This is too aggressive]
(;B[qf];W[pc];B[qc]TR[od]C[Triangle is a key point for both sides here]
(;W[pb]
(;B[mc];W[ne];B[oe];W[nd];B[of];W[qb];B[rc]
(;W[qp];B[rn]
(;W[rp];B[qr]TR[op]C[This is a weak formation]
(;W[pn];B[qo];W[lr];B[ks];W[kq];B[lq];W[ls];B[lp];W[or];B[pq]
;W[mg];B[dj];W[cj];B[ci]
(;W[bi]TR[ec][cd]C[This is too passive. These stones don't exert much influence anymore.]
;B[ch];W[cf];B[bh];W[ai];B[dk];W[ak];B[cl];W[am];B[bm];W[ao]
;B[ah];W[bj];B[bn]
(;W[an];B[hp];W[mi];B[jj];W[ff];B[ih];W[fh];B[fi];W[if];B[eh]
;W[eg];B[kf];W[mk];B[me]
(;W[mf]
(;B[le];W[nf];B[kh];W[kl];B[po];W[ol];B[pm];W[om];B[on];W[pl]
;B[qm];W[ql];B[rl];W[il];B[hm];W[hl];B[gm];W[gl];B[fl];W[jn]
;B[hf];W[he];B[hg]
(;W[gf];B[ie];W[hd];B[gh]
(;W[fg];B[mn];W[mq];B[nq];W[nr];B[mp];W[mr];B[hr];W[hq];B[gq]
;W[hs];B[fr];W[ir];B[fs];W[gs];B[nl];W[nk];B[ok];W[mm];B[nm]
;W[no];B[nn];W[ln];B[lm];W[ml];B[kn];W[km];B[lo];W[ll];B[ln]
;W[oq];B[pp];W[np];B[qk];W[oj];B[pk]
(;W[pi];B[oi];W[nj];B[ph];W[oh];B[qi];W[ni];B[pi];W[hn];B[go]
;W[gn];B[fn];W[im];B[fm];W[ip];B[kp];W[ho];B[gp];W[gj];B[io]
;W[in];B[jo];W[kr];B[bf];W[be];B[cg];W[df];B[nb];W[ob];B[mb]
;W[od];B[qe];W[og];B[pg];W[hi];B[ii];W[ki];B[kj];W[lj];B[lh]
;W[mh];B[li];W[ij];B[ik];W[jk];B[hj];W[hk];B[ij];W[fk];B[kk]
;W[jl];B[lk];W[mj];B[ek];W[gg];B[gi];W[fj];B[ej];W[gk];B[dh]
;W[lg];B[kg];W[md];B[ld];W[af];B[bg];W[ib];B[jb];W[ic];B[je]
;W[na];B[ma];W[oa];B[rb];W[ra];B[sb];W[ja];B[ka];W[ia];B[kb]
;W[pr];B[qs];W[ps];B[qq];W[es];B[oo];W[nq];B[ag];W[ae];B[sa]
;W[qa];B[tt];W[tt]TW[aa][ba][ca][da][ea][fa][ga][ha][pa][ab]
[bb][cb][db][eb][fb][gb][hb][ac][bc][cc][dc][fc][gc][oc][ad]
[bd][dd][ed][fd][gd][ce][de][ee][fe][ge][ef][ng][nh][aj][bk]
[al][jm][ap][aq][bq][cq][ar][br][dr][hr][as][bs][cs][ds][is]
[ks][ms][ns][os]TB[la][lb][kc][lc][sc][jd][kd][qd][rd][sd][ke]
[pe][re][se][if][jf][pf][rf][sf][ig][jg][qg][rg][sg][hh][jh]
[qh][rh][sh][di][ei][hi][ji][ki][ri][si][qj][rj][sj][rk][sk]
[dl][el][ol][pl][ql][sl][dm][em][om][rm][sm][cn][dn][en][pn]
[qn][sn][do][fo][ko][ro][so][ep][fp][qp][rp][sp][rq][sq][rr]
[sr][rs][ss]C[If [15k\]: Thanks
kenshinsan [15k\]: thnks])
(;W[oi];B[pi];W[ph];B[oh];W[og];B[nh];W[pg]TR[nh][oh]C[Dead]
))
(;W[ph]C[Play elsewhere]))
(;W[ie];B[ge];W[gf]TR[ge]C[Dead]))
(;B[nf]
(;W[md];B[le]TR[mf][mg][mi][mk]C[These stones are in trouble]
)
(;W[le];B[md];W[lf];B[kd]TR[le][lf][mf][mg][mi][mk]C[These stones are in trouble.]
)))
(;W[nf]C[N14 is asking to get cut]))
(;W[mb]C[Play elsewhere]))
(;W[di]TR[ec][cd]C[Consider cutting and fighting -- you are strong above because of the triangled stones]
))
(;W[pq]C[Just cut here.];B[pr];W[oq];B[or];W[nq]C[Pushing is bad for him here -- he gets second line territory and you build a wall.]
))
(;W[pq]C[Secure the corner here.]))
(;W[nf];B[og];W[mb]TR[jc][mc][id]C[These stones are in trouble, and white stands to gain a lot of territory if they fall.]
))
(;B[od]TR[qc][pd][qf][pj]C[Black is building a large framework here]
;W[nd];B[oc];W[ob];B[ne];W[qb]))
(;W[od];B[pe];W[oe];B[of];W[nf]TR[jc][id]C[Black's stones here are weak now. Compare this to the above variation.]
))
(;B[oc];W[nd];B[pf];W[lc]TR[oc][pd][pf]SQ[nc][nd]C[Black builds a lot of territory on the side, and white's stones are struggling to live]
))
(;W[hp]C[Play towards the center instead.]))
(;B[gq];W[hr];B[ip]TR[bo][co][dp][jp][eq][fq][gq]C[Black's wall is starting to look imposing, and you have 2nd line territory -- not a good trade-off.]
))
(;W[ip];B[jo];W[gr]))
(;B[ch]TR[ck][bl]C[These two stones aren't safe]))
(;W[ek]TR[ec][cd][ck]C[Starting to build a framework with the triangle stones. B8 is a small move in the beginning and does not stabilize your stones -- you cannot really threaten his wall effectively, so he can ignore your move, which he does.]
))
(;W[eq]TR[eo]C[Force him into bad shape this way. Now the triangle stone is out of place -- it shoudl be at E4.]
;B[ep]TR[eo][dp]C[This is bad shape for black];W[cr]TR[fp]C[Alive with 1 extra point, with the extra cut at triangle.]
))
(;W[dj];B[ec];W[de];B[hc]C[More framework-oriented]))
