(;FF[4]GM[1]SZ[19]ST[2]CA[UTF-8]AP[SGFC:1.17]

PB[rarellano]
BR[5k]
PW[daniel17]
WR[4k]
KM[0.5]
DT[2012-10-02]
PC[The KGS Go Server at http://www.gokgs.com/]
RE[W+19.5]
TM[1500]
OT[5x30 byo-yomi]
RU[Japanese]

C[daniel17 [4k\]: hi
rarellano [5k\]: Hi

Hi reviwer, I'm rarellano 5k (black). And I lost by 18.5 points. I feel the game was close. I got the four corners but was not enougth.

Hope to get some general advice on the opening and reveal the mistakes.
 thanks in advance.

K: Let's start!
I will add a general comment at the end of the game.
I will write my comments as "K:"
Enjoy!];B[pd];W[pp];B[cc];W[dp];B[cn];W[cl];B[nq];W[qn];B[pr]
;W[qq];B[fp]C[K: It is really difficult to tenuki at this point on the joseki in the lower-right corner. Almost any move by W is sente.
The left hoshi stone is still safe, thanks to C8. You can expect a severe counterattack!]
(;W[fo]
(;B[ep];W[do];B[dq];W[eo];B[cq];W[bp]TR[gp]C[K: this is a really good result for you. W is oveconcentrated and you have a nice side, with a lot of further potential.
You have to fix your shape with G4 soon, to avoid being pressed.]
;B[jp];W[nc];B[qf];W[fc];B[ed];W[ce];B[fd];W[gc];B[gd];W[hc]
C[K: This is strange, but good!
Opening in 3-3 is usually for territory only, no influence, and you used your C17 to build a nice sente wall and attack. It is a brave change of strategy.]
(;B[cg];W[ec];B[dd];W[dc];B[cd];W[hd]TR[pb][cj][qj]C[K: here you can tenuki, you don't want to secure any territory now, and there are too little points to defend.
Tenuki is the only option.
I would consider any of the marked points.];B[gg];W[ci];B[kc]
;W[qc]
(;B[qd];W[pc];B[rc];W[od];B[qb];W[pb];B[rb];W[ke];B[qj];W[ql]
;B[oe];W[ne];B[of];W[jq]TR[gp]C[K: the marked point is a weakness to consider.
There is not really a good answer to this invasion, it is destructive anyway, because you can't hane at right because of the marked point, and you can't hane at left, because of O3-Q2 that are under attack.]
;B[kq];W[kp];B[kr];W[ip];B[jo];W[hq]
(;B[lp]C[rarellano: ladder dont work

K: see variation at 58];W[pj];B[io];W[ho]
(;B[gq];W[gp];B[gr];W[hr];B[bq];W[ko];B[cp];W[co];B[bo];W[bn]
;B[ap];W[bm];B[nn];W[kn];B[qr];W[rr]
(;B[di]TR[pj]C[K: both the marked stones are to avoid.
The center is really small in this game, because there are six groups contending it! too many to squeeze enough points. You just need to be sure that your opponent don't get any points in the center too!
Playing in second line is bigger in a situation like this.]
;W[ch];B[dh];W[bg];B[cf];W[bf];B[be];W[dj];B[fi];W[ej];B[gj]
;W[qi];B[qh];W[ri];B[rh];W[ph];B[pg];W[oh];B[je];W[jf]C[K: This sequence is a very bad loss of points and influence, this is probably the move that cost you the game. even extracting it, the forcing move by white can seriously damage your  near group on the left and make W too strong in the center.]
(;B[kf];W[le];B[jd];W[if];B[ie];W[he];B[hf];W[kg];B[md];W[nd]
;B[mf];W[me];B[lf];W[nf];B[lh];W[lg];B[mg];W[mh];B[ig];W[ng]
;B[ge];W[sh];B[sg];W[si];B[rf];W[mo];B[no];W[mp]
(;B[mq];W[np];B[lo];W[ln];B[lq];W[oq];B[or];W[in];B[kk];W[ik]
;B[rq]C[K: nice yose tesuji!]
(;W[pq];B[rp];W[ji];B[mn];W[op];B[po];W[ml]C[Here I felt that i was ahead, but white center is still big..

K: that was a huge capture.
Extracting L9 somehow or using it to reduce is the only way to recover, now.]
;B[nl];W[nm];B[om];W[mm];B[on];W[ol];B[pl];W[ok];B[pm];W[qm]
;B[qo];W[pk];B[gl];W[hm];B[fm];W[em];B[el];W[dl];B[hl];W[il]
;B[en];W[dm];B[fn];W[dn];B[cb];W[db];B[pa];W[jb];B[ob];W[oc]
;B[nb];W[mb]LB[rn:B][fq:A]TR[bd]C[K: there are 2 huge yose moves, before the closures.
One for W, one for B.
A is bigger.]
(;B[oa];W[ma];B[jh];W[jg];B[ih];W[kh];B[ii];W[jj];B[ij];W[ek]
;B[fl];W[hk];B[gk];W[hj];B[hi];W[ei];B[eh];W[ae];B[bd];W[fq]
;B[eq];W[fr];B[er];W[gs];B[ad];W[bh];B[rn];W[rm];B[sn];W[sm]
;B[gn];W[go];B[jr];W[iq];B[jm];W[jk];B[im]
(;W[jn];B[hn];W[km];B[gm];W[jl];B[hm];W[fj];B[gi];W[ca];B[ba]
;W[da];B[ab];W[an];B[ao];W[ir];B[af];W[es];B[ds];W[fs];B[js]
;W[is];B[ag];W[ah];B[ae];W[fh];B[eg];W[qa];B[ra];W[na];B[qa]
;W[pn];B[oo];W[so];B[ro];W[og];B[pe];W[tt]TR[cj];B[tt]TW[ea]
[fa][ga][ha][ia][ja][ka][la][eb][fb][gb][hb][ib][kb][lb][ic]
[jc][kc][lc][mc][id][jd][kd][ld][md][ie][je][kf][lf][mf][mg]
[lh][nh][ai][bi][ki][li][mi][ni][oi][pi][aj][bj][cj][kj][lj]
[mj][nj][oj][qj][rj][sj][ak][bk][ck][dk][kk][lk][mk][nk][qk]
[rk][sk][al][bl][kl][ll][nl][rl][sl][am][cm][lm][cn][io][jo]
[hp][jp][gq][gr][hs]TB[aa][sa][bb][sb][ac][bc][sc][rd][sd][ce]
[de][ee][fe][qe][re][se][df][ef][ff][gf][pf][sf][dg][fg][hg]
[qg][rg][fh][gh][hh][mo][so][bp][mp][np][op][pp][qp][sp][aq]
[oq][pq][qq][sq][ar][br][cr][dr][lr][mr][nr][rr][sr][as][bs]
[cs][ks][ls][ms][ns][os][ps][qs][rs][ss]C[rarellano [5k\]: thx
daniel17 [4k\]: thx

result: W+18.5

K: the 18 points are almost exactly the size of center territory that white manage to build in the center!
The two crucial mistakes are K15 and the sequence that follows (it is quite clear)
and N3 instad of connecting your bridgehead into W zone of influence.
The rest of the game was quite balanced, your opponent wasn't stronger than you, it was just a matter of chances.
You should try to play safer in the opening. You tend to tenuki too much in the first moves (spying your kgs games too) leaving weak groups that ofter are left on their own, but stronger opponents will easily take advantage of them, attacking!
On the opposite, you can try to tenuki more in the middle game. You often lose track of the global situation to play some local fight.

You have a very good sense of shape, and you can "fix" quickly a group that needs to be protected, that is in your favour.
It seems almost like you play an amashi strategy ( http://senseis.xmp.net/?amashi ), with group left unprotected by purpose, to leave to your opponent the hard choices on how to attack them, while you take all the big points of the opening. You can try it in some game, it is really funny and instructive! (but I wouldn't recomment it as a regular style, it is really hard to use and people will hate you ^^)

Andrea])
(;W[hn];B[lm];W[jn]))
(;B[er];W[gs];B[fr];W[rn])
(;B[fq];W[gs];B[fs];W[hs];B[er];W[rn])
(;B[rn];W[rm];B[sm];W[sl];B[sn];W[fq];B[eq];W[fr];B[er];W[gs]
))
(;W[qp];B[rp];W[ro];B[rs];W[sp];B[sr]))
(;B[np];W[mq];B[mr];W[lq];B[lr]LB[jm:B][mn:A]C[rarellano: maybe this ?

K: yes, this is much better. you split white and avoid that the influence in the center become too big!
If W tenuki, after the forcing move at A, the attack at B is sever and really difficult for W to deal with.]
))
(;B[ie];W[if];B[he];W[kd]))
(;B[bi]
(;W[bj];B[bh];W[ei]C[K: proper exchange.])
(;W[ch];B[bh]
(;W[dg];B[dh]C[K: and W can't push too much safely!])
(;W[cj];B[dg]))))
(;B[fr]C[K: this is proper shape to defend.
It is also the right timing for B3 to ensure life in the corner.]
)
(;B[bq];W[bo];B[fr]))
(;B[lo];W[lp];B[mp];W[lq];B[lr]C[K: but a loose ladder works perfectly!
It is a sort of "turning" net, where you keep the stone to capture at 2 liberties, and you don't create any potential double-atari in your surrounding stones.
http://senseis.xmp.net/?LooseLadder]))
(;B[pc]C[rarellano : maybe this side ?

K: this is better, yes.
Not because you get the other side, you get the same side but in sente!
In the second variation I show why W can't choose to take the right side.]
(;W[pb];B[qd];W[rb];B[rc];W[qb];B[qj]TR[kc]C[K: The marked stone now is hard to attack, you can leave it here for now.]
)
(;W[qd]C[K: Let's see what happens if W try to get the other side, _apparently_ bigger!]
;B[qe];W[pb];B[ob];W[qb];B[oc];W[re];B[rf];W[sd];B[nd]C[K: W have 5-6 points in the corner (because of all the closure in sente for B)
B have a huge influence and some solide territory too!
R16 was definitely a mistake.])))
(;B[df]))
(;B[go];W[eo];B[hp]C[K: This is natural, you get a big influence in the lower side, and C6 still have a lot of aji.
Later you can choose if you want to enter in 3-3 or you want to run out with D7!]
))
(;W[lq];B[no];W[lo];B[nm];W[hq]TR[dn][fq]C[K: that is safe for white.]
))
