(;FF[4]GM[1]SZ[19]ST[2]CA[UTF-8]AP[SGFC:1.17]

PB[colllo]
BR[13k]
PW[Graytheory]
WR[13k]
KM[6.5]
DT[2012-10-23]
PC[The KGS Go Server at http://www.gokgs.com/]
RE[B+0.5]
TM[1500]
OT[5x30 byo-yomi]
RU[Japanese]

C[Graytheory [13k\]: yo
colllo [13k\]: hi];B[pd]C[Hello, my name is Michael Reilly.  My rank is about 5 kyu.  I'll be reviewing your game.  I've marked all of your comments.  I'll also mark mine.]
(;W[cd]C[Michael: A 3-4 does not fully secure a corner.  A 3-3 does.  But that way of play is considered to be slow.  Moreover, if you want to play a 3-4 you should have played D17.  Because a play at E16 or E17 works very well with Black's 4-4 stone.

Graytheory: My plan this game involves agressive reduction, and connecting out with many small bases for control of the middle. I figured the plan would leave me with less overall territory, so I decided to fully secure this corner.]
;B[pp];W[qf]C[Michael:  It doesn't matter.  I will totally allow a double approach on a 4-4 to get the first move on an open corner.

Graytheory: Hoping that he will get greedy for that unused corner, and allow me into this one.]
(;B[nc]
(;W[rd]C[Michael: But playing this way is even worse for you.  Because you're playing a gote joseki, which means... (go to move 9)... What you really want to do it play a sente joseki.  Here's one possibility: (see variation)]
;B[qc];W[qi];B[dp]C[Michael: Black gets the first move in 3 corners. (back to move 6)]
;W[pn]LB[ec:B][ed:A]C[Michael: A much larger move would be around A or B.

Graytheory: High approach for better influence];B[np];W[qp]
C[Michael: Don't think of it in terms of who has the most corners.  Think of it in terms of balance of territory.  Right now the only real territory is under your 2 space extension and under black's panther shape near Q18.

Graytheory: cant let him have 3 corners.];B[qq]
(;W[rp]C[Michael: Just pull back for now.

Graytheory: just trying to keep the group strong for now.];B[rq]
C[You need to answer this.]
(;W[cq]C[This move is WAY too early.  Why are you invading the 3-3 already?  A 3-3 invasion should be sort of a last resort, in the very late beginning of the game.]
;B[dq];W[cp];B[co];W[bo];B[cn];W[bn];B[cm]
(;W[bm]C[Too far.];B[cl];W[ec]C[Michael: Well, I'm glad you got this move in, but you gave up a lot to do it.  Don't be too greedy, or you will collapse.

Graytheory: Seemed like the right time to enclose.];B[cr];W[br]
;B[dr];W[jp]C[Michael: It won't die, but it is very small.

As far as this move is concerned.  When playing an invasion you should look for forcing moves first.  You don't really have many that can be used effectively here though.  There's the move at E5, but it gets rid of aji and doesn't help you much.  As far as this invasion goes, the point looks good, but I probably would have played L3 instead, because you threaten to undercut black's group (sente or trade.) And you can still get out quickly.

One BIG thing you need to know about invasion is, invade too much and you give the game to your opponent.  Because the most important part of go is attack and defense, and that revolves around weak groups.  If you constantly invade, you are constantly giving your opponent a weak group to attack.

Graytheory: Now that I look at it, the bottom left may have died if he played right. Not sure, ill have to replay it a few games.

Following my plan with this move.

Setting up for some dramatic reductions. Playing high so I can connect out.]
;B[kq];W[jq];B[kp];W[fq];B[jo];W[kr];B[lr];W[ir]C[

Graytheory: Bad move maybe. need to keep this group alive though.]
;B[ks];W[jr];B[ko];W[io];B[in];W[hn]C[Too much.];B[ho];W[ip]
;B[go]C[Michael: Yes, you were being too greedy.

Graytheory: Should have read the double hane better. Did not turn out in my favor.]
(;W[fo]C[Michael: A better move for that would be E5, see variation.

Graytheory: attempting to escape, while also removing a liberty, while also trying to connect out.]
;B[fn];W[gm]C[Michael: You should always protect cutting stones and try to make them live, if feasible.

Graytheory: cant get out, so I try to make h6 usefull to me later in the game.]
;B[gn];W[hm];B[jn]
(;W[hq]C[Michael: Well, let's try, see variations... It looks like white's best bet would be a very heavy ko.  So you needed this move.

Graytheory: Got a little worried about life here. Couldnt read out if he attacked.]
;B[bl]
(;W[ap]C[Michael: I'm pretty sure that you're alive without this move, see variations.

Graytheory: Alive? yes. Pretty sure.];B[fp];W[eo]C[Michael: It does look bad.  It's very small, you have bigger things to worry about, like R4, like K17, like H7, like C11. Just to name a few. :)

Graytheory: I knew this looked bad at the moment, but I just had a feeling that I needed f5 later this game.]
;B[ep];W[en];B[em];W[cg]C[This could stand to be a few spaces further.  Your corner is secure, and if black invades then simply jumping up will work well with your H7 stones (if you're intending to sacrifice them, as this move suggests.)]
;B[kc];W[gd]C[Michael: You should do another low extention, or a shoulder hit.  This move isn't really an option.  It's awkward, and it doesn't really get you much.  As you can see.

Graytheory: eeeeeeeeeeehhhhhhhh

I dont like this shape. But I didnt want to do another low extention.]
;B[qk]C[Michael: It actually doesn't hurt as much as you think it does.

Graytheory: This hurts. Really bad. I wish I had seen this before I played the last move.  Spent some time thinking here.

Cant push him tward r11, or I will get sealed in. Cant push him tward q6 or that group will be in trouble. I think after the fact, q9 would have been good.]
(;W[nn]C[Michael: Correct group, wrong idea.

Graytheory: Need this group out, fast.];B[ok]C[

Graytheory: Got what I wanted, dint push him tward my groups. Still doesnt look good.]
;W[ic]C[Michael: And you just had to commit suicide in order to make it. :D

Graytheory: Shape looks a little better now.];B[rj];W[ri];B[rn]
C[Michael: Ouch.  That really hurts.

Graytheory: This probably lost me the game. Should have connected these groups.]
;W[nk]C[Michael: It doesn't help you do any of that though.  I think you panicked.  All you're doing now is helping black.

Graytheory: this move should help me connect out with r11, or connect out with 06.]
;B[nj];W[mk];B[mj]
(;W[oj]C[Michael: I think you're too obsessed with killing things.

Graytheory: This cut will maybe help me kill r9. Kindof desperate though.]
;B[pj];W[oi];B[pi];W[ol];B[pk]C[Michael: Things are not quite as dire a you expect.  You have reasonably good eyeshape now for your group, you might be able to live small locally or run.

Graytheory: very bad for me.]
(;W[nh];B[ph];W[of]C[Michael: No.  You'll collapse and give black another weak group to attack.  Floating without a base.

Graytheory: gotta stick with my plan and hold the middle.];B[qh]
;W[rh]
(;B[oh];W[ni];B[qo];W[lj];B[kf];W[mi];B[rc];W[re];B[il]
(;W[gk]C[Michael: No, those stones are still light.  You can afford to sacrifice them.  Currently they are splitting J6 from H5.  Both of those groups are immortal, so those cutting stones don't matter at all.

Graytheory: need these stones. They MUST get out.];B[ek];W[cj]
C[Michael: Why?  Where is black's territory coming from? He's got a little at the top.  And a large corner.  You also have a large corner.  Don't be too jealous of your opponent's territory.  At your level, this is still anyone's game.

Graytheory: Looking at the game at thsis point, I need more points bad.]
;B[fj];W[hk];B[jj];W[hi];B[gh]C[By insisting on saving those stones, you're driving black right through your moyo.]
;W[gi];B[fi];W[hh];B[gg];W[jh]C[

Graytheory: bamboo my way out :)];B[hg];W[ig];B[if];W[kg];B[jf]
(;W[lh]C[Michael: See variation.

Graytheory: eeeeeh... this move looks bad.];B[ne];W[nf];B[me]
;W[mf];B[jb];W[ib];B[ia];W[ha];B[ja];W[jc]C[Michael: It only works because black's L17 stone can be ataried.  Always read out your moves, if you have time.  Clever move, I'll have to remember it.  Though I believe that black's way too early to be playing these moves.  He should be invading your corner.

Graytheory: Couldnt quite read this out all the way. Might have been a terrible risk.]
;B[lb]C[

Graytheory: He knew what I was up to.];W[hb];B[fr];W[gr]C[

Graytheory: gotta stay alive or I lose.];B[eq];W[gq]C[Michael: You're correct, it is not needed.

Graytheory: maybe not needed.];B[bi]C[Michael: Why eww?  It's a standard reduction.

Graytheory: eww...];W[ci];B[bj];W[bh]C[Michael: Actually quite standard, and should be expected.

Graytheory: nasty little reduction.];B[bs];W[bq];B[fs];W[gs]
;B[mo];W[mn];B[ln];W[lm];B[km];W[jk]C[Michael: You're not taking the middle there.

Graytheory: good time to take the middle.];B[ik]
(;W[jl]
(;B[im];W[ij];B[ll];W[mm];B[kk];W[kj];B[kl];W[ji];B[jm];W[jj]
;B[qg];W[rg];B[pf];W[pe];B[pg];W[sf]C[Michael: yes.

Graytheory: not needed. Just me playing too fast. Could have just connected out.]
;B[oe];W[qe]C[Michael: *nod*

Graytheory: it looks alive, but connection would have been better.]
;B[jd];W[id];B[ie];W[ef]C[

Graytheory: point grab.];B[eh];W[rm]C[Michael: 

Graytheory: trying to weed out some vulnerablility in his shapes here. Might be able to kill q9, or connect s4.

big move ether way I think.];B[qm]
(;W[sn]C[Michael: Overplay.

Graytheory: Threatening to connect.];B[rl];W[qn]C[

Graytheory: Setting up a double atari.];B[sm];W[ro];B[po];W[rm]
;B[pm]C[This is now a huge ko (56 points), and you don't really have any threats big enough.]
;W[sl]C[Michael: This is the only move that makes sense.  There's no ko threat on the board that works. And you can make a smaller, winnable ko for life.

Graytheory: This move was VERY bad and it lost me the entire game.]
;B[on]C[

Graytheory: dead.]
(;W[rn];B[om];W[sj];B[sk]C[

Graytheory: set up a ko for life, good move. however...];W[rk]
;B[dg];W[df];B[sk];W[ka]C[

Graytheory: did not think this out. Very very very very very bad ko threat.]
;B[si]C[

Graytheory: duh];W[kb]C[

Graytheory: cant go back on it now.];B[la];W[kd];B[lc];W[je]
;B[ke];W[jd];B[ld];W[lf];B[le]C[

Graytheory: some slow play here I think.];W[dh];B[eg];W[el]
C[Michael: Not quite.

Graytheory: this is where e5 finally became useful.]
(;B[fl];W[fm];B[dl];W[gp];B[dn];W[hp];B[fe];W[ed];B[fd];W[fc]
;B[ge];W[ff];B[gf];W[ee];B[hd];W[gc];B[di];W[ch];B[dj];W[ai]
;B[ck];W[aj];B[bk]
(;W[cf]C[You don't have to worry about connecting this, unless you fear kos.]
;B[fg];W[hc];B[he]
(;W[no];B[mp];W[oo];B[op];W[ml];B[pl];W[nl];B[og];W[ng];B[sd]
;W[sh]C[Michael: See variation on move 232.  You only gave sente up a little early.  On this board black simply has better end game position.  

Graytheory: feeling like I gave up sente too early. Getting pushed around too much. Losing points.]
;B[qj];W[se]C[Not yet required.];B[sc];W[qd];B[pc];W[fk];B[gj]
;W[hj];B[hl];W[gl];B[el];W[sp]C[

Graytheory: derp.];B[sq];W[al];B[ak]C[

Graytheory: derp];W[js];B[ls];W[ah];B[am];W[an];B[ar];W[aq]
;B[cs];W[jg];B[al]
(;W[do];B[es];W[sj];B[sm];W[si];B[so];W[tt];B[as];W[tt];B[tt]
TW[aa][ba][ca][da][ea][fa][ga][ia][ja][ab][bb][cb][db][eb][fb]
[gb][jb][ac][bc][cc][dc][ad][bd][dd][ae][be][ce][de][af][bf]
[rf][ag][bg][lg][mg][sg][ih][kh][mh][ii][ki][li][mj][nj][fn]
[gn][ao][go][ho][bp][iq][hr][hs][is]TB[ma][na][oa][pa][qa][ra]
[sa][mb][nb][ob][pb][qb][rb][sb][mc][oc][md][nd][od][hf][fh]
[ei][ej][dk][rk][ql][sl][dm][rm][kn][pn][qn][rn][sn][lo][ro]
[lp][qp][rp][sp][lq][mq][nq][oq][pq][er][mr][nr][or][pr][qr]
[rr][sr][ds][ms][ns][os][ps][qs][rs][ss]C[Michael: A very close game indeed.  You could have won it as recently as move 268.

My thoughts on your overall play.  You're very jealous of your opponent's territory, and that's a bad thing.  Go is a game of trades.  You trade this for that.  You need to allow black to have territory, so that you can also have territory.

You also seemed to panic quite a bit when your groups were in danger.  You need to learn to let stones go, especially when they don't seem to be serving a purpose.  Saving your three stones at H6 meant that Black drove his group right through your moyo, and if he were a stronger player, he would have broken into your territory in the top left corner.

I would suggest learning about Attack and Defense.  Especially Defense.  It's OK to Defend.  It's an honest way of playing.  Currently, you're spreading yourself so thin that if your opponent plays correctly, even if you get everything you want, you'll still lose.  By defending you secure what you have and you can attack without worrying about leaving weaknesses behind.

Hope this was informative.  Let me know if you have any questions.

colllo [12k\]: ty
Graytheory [13k\]: thank you, good game


Graytheory: Close game.

Several big mistakes evened out the game, and I lost it at the end by not keeping sente.

Better than my average game though.])
(;W[es];B[do];W[er];B[sj];W[as];B[go];W[fn];B[ar];W[lo];B[lp]
;W[as];B[ja];W[jb];B[ar];W[pq];B[pr];W[as];B[tt];W[ar];B[tt]
;W[tt]))
(;W[js];B[ls];W[sc];B[sb];W[sd];B[ra];W[es];B[do];W[er]C[You mentioned losing sente early, you did, here is the best reduction sequence that I see.  I'm not very good at endgame though.]
))
(;W[tt];B[cf];W[bf]C[It's a ladder.];B[ce];W[be]C[Short one too.]
))
(;B[fm];W[fl];B[dl]C[Black simply misplayed.]))
(;W[sj]C[Another ko, to connect.];B[sk];W[rk];B[sa];W[ra];B[sk]
;W[om]C[And you have local ko threats.];B[oo];W[rk];B[sb];W[rb]
;B[sk];W[pl];B[rn];W[rk];B[sm]C[Black cannot turn into a double ko.]
;W[qj];B[so];W[ql]))
(;W[qn];B[ro];W[ql];B[rl];W[pm];B[sm]C[This is a good reduction, that white can be satisfied with.]
))
(;B[kk];W[im];B[jm]))
(;W[ij];B[kk]C[The middle's taking you.]))
(;W[lg]C[This is better.  But stop right here and look at this board compared to move 95.  What territory have you earned by running away in this fashion?  You've actually lost a lot of territory by running black right through your moyo.]
))
(;W[if]C[This is WAY bigger.]))
(;B[pf]C[White is cut.  And must live in gote.  Black now has three white groups to attack.]
))
(;W[qm];B[rm];W[ql];B[rl];W[pl];B[lk];W[ml];B[om];W[mm];B[nm]
;W[kl]C[Something like this is possible.]))
(;W[lk];B[oh]C[This is what I would have expected.]))
(;W[qm]C[This move protects the cut at R5, denies black a base in this area and secures your own base.]
;B[pj];W[pi];B[oi]C[If you're worried about this don't be.]
;W[oh]C[Even if you play calmly];B[oj];W[nh];B[nm];W[rl]C[You're fine on both sides.]
;B[ro]C[This would be the best point of attack.];W[qo];B[sp]
;W[rn];B[so];W[sn];B[sq];W[po];B[pm]C[If black tries to kill you.]
))
(;W[tt]
(;B[ap];W[bp];B[aq];W[am];B[ao];W[bs])
(;B[am];W[bs]
(;B[bp];W[bq];B[ap];W[aq])
(;B[ap];W[aq]
(;B[ao];W[bp])
(;B[an];W[bp])
(;B[bp];W[bq]))
(;B[aq];W[ar];B[bq];W[bp]))))
(;W[tt];B[hq]
(;W[hp];B[gp];W[gq];B[hr]
(;W[hs];B[gr]
(;W[js];B[iq];W[ls];B[gs];W[lq];B[mr];W[fr];B[is]C[Ko.])
(;W[fr];B[js]C[Dead.]))
(;W[gr];B[hs]
(;W[is];B[ls];W[gs];B[er]C[Dead.])
(;W[gs];B[is]C[Can't atari.])))
(;W[hr];B[gq];W[gr];B[fp];W[er];B[es];W[fs];B[ds];W[hs];B[js]
C[Dead.])))
(;W[eo];B[do];W[fo]C[Now black cannot hane.  If black tries:]
(;B[fn];W[gn]
(;B[gm];W[hm];B[hl];W[im];B[jn];W[gp])
(;B[hm];W[gm];B[gl];W[fm];B[en];W[gp])
(;B[gp];W[gq])
(;B[fm];W[gp]))
(;B[gn]C[Instead black should bend.];W[em]C[Which allows you to come out.  And now the extention at H7 is a good followup.  And black's wall has suddently become heavy and it has poor eyeshape.]
)))
(;W[dr];B[er];W[cr];B[fq]C[This is joseki.]))
(;W[tt];B[qo]
(;W[ro];B[qn];W[po];B[rn]C[Otherwise you can lose these stones.  Which, if you're willing to lose this, why play S4 in the first place?]
;W[qm];B[rm];W[ql]TR[qm][pn][po]C[Dangerously weak.  Needs reinforcement.  Causes simple approach joseki in the upper left to become a dangerous ladder breaker:]
;B[ec];W[de];B[hc]TR[hd][he][ie][if][jf][jg][kg][kh][lh][li]
[mi][mj][nj][nk][ok][ol][pl][pm])
(;W[qn];B[ro];W[rn]C[This diagram though, shows why black should hold off a bit on capturing those stones.  White gets a very efficient side shape as compensation.]
)))
(;W[qo]C[Just connect back.  It's more secure.]))
(;W[qd];B[qc];W[rc];B[qe];W[rd];B[pe];W[re];B[qb];W[dp]C[However, the problem with this position is black gets a wall facing your 3-4 stone. Which makes the next move:]
;B[ed]C[Very very big.]))
(;B[dp];W[nc]C[There are lots of 4-4 josekis for the double approach, here's one.]
;B[nd];W[md];B[ne];W[oc];B[pc];W[pg];B[qe];W[re];B[pf];W[rf]
;B[rd];W[ng];B[mf];W[kc];B[ob]C[Black retains the corner, and still has a path out to the center.  It's not nearly as bad as it might look at first glance.  There's a lot of life left in a double approached 4-4.]
))
(;W[dc]C[But there's a reason why white usually does not play a 3-4 to begin with.]
;B[dp];W[pp];B[de]C[Because now we have the same sort of situation that I warned against.

It's not a HUGE deal.  But it is thought to be suboptimal.]
))
