(;FF[4]GM[1]SZ[19]ST[2]CA[UTF-8]AP[SGFC:1.17]

PB[rarellano]
BR[5k]
PW[shu]
WR[5k]
KM[6.5]
DT[2012-11-12]
PC[The KGS Go Server at http://www.gokgs.com/]
RE[W+6.5]
TM[600]
RU[Japanese]

C[- Hi reviewer. This is a recent game that I (rarellano, black)  lost by 6.5 points. I think i didn't make big mistakes and I wish to know how this game could have been played better.
Maybe i could got more territory from the moyo in the right side, but i didn't find the timming to do it.

Anyway. The commentary would be apreciated.

DC: Hi Rarellano. I am Dylan Carter. I have played go since 2003 and am now around 1 dan (1.2 dan EGF).

My summary of this game;

Black needs to elicit a strategical attack on the weaker white stones at the critical juncture of the game. Timing issues allowed white to settle and negate much of the black influence in the centre. In the end black was reduced and lost. It is critical one formulates meaningful attacks that lead to profit in a game of go.]
;B[pd]C[rarellano [5k\]: hi
shu [5k\]: hi gg];W[cp];B[cc];W[pp];B[qn];W[nq];B[rp];W[qq]
;B[qk];W[jd]C[DC: A key principle of the openning is to play in the most open area. The sequence is natural.]
(;B[dj]LB[hc:B][dj:A];W[nc];B[qf];W[fc];B[eq];W[gq]
(;B[do]LB[cm:B][do:A];W[dp];B[ep];W[eo];B[fo];W[en];B[gp];W[hp]
;B[ho];W[ip]
(;B[dn]LB[dn:A][bo:B]
(;W[bn];B[em];W[cr];B[fn]C[DC: A Good result for B.];W[ce];B[dd]
;W[dg]
(;B[de]LB[de:A][ee:B]C[DC: Aji-keshi. Removes potential for attack.]
;W[cf]C[DC: Strengthening W. Please consider E15 as you may want to attack either K16 or D13 group severely.]
;B[fe];W[fg];B[gc];W[gd];B[fd];W[hc];B[gb];W[hb];B[fb];W[pb]
C[DC: Consider the driving sequence.]
(;B[ld]LB[hd:B][ld:A];W[lc];B[kc];W[kd];B[mc];W[lb];B[md];W[mb]
;B[oc];W[ob];B[nd];W[qc];B[nb];W[na]C[DC: I have always found a quick S.W.O.T analysis helpful when one reaches such a juncture in the game.

S - Stengths, black is strong everywhere.

W - Weakness, Nill.

O - Opportunities, F13 Group deserves an attack for some attack profit.

T - Threats, Not playing anything active allthough O6 is big it is not urgent. And can also be played as part of a meaningful sequence.

Let's see what the forcing attack looks like here.]
(;B[nn]LB[hd:B][nn:A];W[jn];B[mp];W[mq];B[lp];W[kq]
(;B[pi]LB[mi:B][pi:A]C[rarellano : pretty conservative.

DC: Change this aspect of your game. Seize the opportunity for a meaningful and profitable attack where possible. strategically there is an opportunity here, one must attack the F13 group using the thickness of the black stones.]
;W[kf];B[ge]C[DC:Might  not be forceful enough. Give up a stone.]
;W[fj]
(;B[hg];W[cj]C[DC: This move settles whites weak group well and is hard to refute.]
;B[ci];W[dk];B[ck]LB[bj:B][ck:A];W[bj];B[bi];W[bk]
(;B[cl]LB[ek:B][cl:A];W[ek];B[ei];W[bl];B[fi];W[gh];B[gi];W[hh]
;B[ig];W[ii]
(;B[gj];W[hl]
(;B[gl];W[hk]
(;B[gk];W[lm];B[ml];W[qo];B[ro];W[pn];B[pm];W[qm];B[rn];W[om]
;B[pl];W[on];B[qp];W[rq];B[po];W[op];B[oo];W[no];B[qo];W[nm]
;B[mn];W[mm];B[np];W[lq]
(;B[hj];W[ij];B[ik]C[rarellano: bad reading here.

DC: The game is difficult now the white group has escaped.]
;W[jk];B[il];W[hm];B[im];W[hn]
(;B[io];W[in];B[jo];W[ln];B[mo];W[nj]C[DC: White gains to much here.]
;B[jp];W[jq];B[nh];W[mi];B[mh];W[mf];B[li];W[lj];B[ni];W[mj]
(;B[nf]C[DC: Attack first, then defend. (make sure the attack is good!) M]
;W[lh];B[lg];W[kh];B[kg];W[lf];B[jh];W[ki]C[DC: Order in the next few moves makes a big difference.]
(;B[qd]LB[qd:A][mg:B];W[mg]
(;B[ng];W[jg];B[ih];W[cm];B[dl];W[bd];B[bc];W[hd];B[df];W[hi]
;B[eg];W[dh];B[di];W[eh];B[fh];W[gg]
(;B[hf];W[ef];B[cg];W[ch];B[bg];W[bh];B[ah];W[eg];B[gm];W[rd]
;B[re];W[rc];B[oj];W[ok];B[pk];W[ol];B[co];W[bo];B[dr];W[cq]
;B[hr];W[gr]
(;B[fr];W[hs]
(;B[hq]LB[hq:A][iq:B];W[iq];B[fq];W[ir];B[sq]C[DC: See the endgame sequence reffered to earlier.]
;W[sr];B[sp];W[qr];B[kp];W[ds];B[es];W[cs];B[jf];W[kg];B[je]
;W[ie];B[ke];W[he];B[gf];W[aj];B[ai];W[dm];B[el];W[ga];B[fa]
;W[ha];B[ec];W[ko]
(;B[nc];W[jc]
(;B[gn];W[ji];B[ee]C[DC: Endgame reverse sente

Endgame order: large sente -> small sente -> reverse sente -> large gote -> small gote. Makes a difference.]
;W[se];B[sf];W[sd];B[cn];W[bm];B[lo];W[kn];B[me];W[dq];B[er]
;W[tt];B[tt]TW[ia][ja][ka][la][ma][oa][pa][qa][ra][sa][ib][jb]
[kb][qb][rb][sb][ic][kc][sc][id][lg][li][jj][kj][ak][ik][kk]
[lk][mk][nk][al][il][jl][kl][ll][ml][nl][am][im][jm][km][an]
[ao][ap][bp][aq][bq][hq][oq][pq][ar][br][hr][jr][kr][lr][mr]
[nr][or][pr][rr][as][bs][is][js][ks][ls][ms][ns][os][ps][qs]
[rs][ss]TB[aa][ba][ca][da][ea][ab][bb][cb][db][eb][ac][dc][fc]
[ad][bd][cd][ed][od][ae][be][ce][ne][oe][pe][qe][af][bf][cf]
[of][pf][rf][ag][og][pg][qg][rg][sg][oh][ph][qh][rh][sh][oi]
[qi][ri][si][ej][fj][pj][qj][rj][sj][dk][ek][fk][rk][sk][fl]
[ql][rl][sl][fm][qm][rm][sm][en][sn][eo][go][no][so][fp]C[shu [5k\]: thx
rarellano [5k\]: komi
rarellano [5k\]: thx
shu [5k\]: its exiting
shu [5k\]: bye
rarellano [5k\]: bye])
(;B[ji];W[jj];B[cn];W[bm];B[lo];W[kn];B[sd];W[sc];B[se];W[me]
;B[ne];W[dq];B[er];W[gn];B[go]C[DC: 1 point difference. for taking the small sente in order.]
))
(;B[kb]C[DC: This works. White lead you around the board first! pesky white!]
(;W[nc];B[jc];W[id];B[ib];W[ka];B[ja];W[la];B[ic])
(;W[jc];B[la]))
(;B[ji];W[jj]))
(;B[iq]LB[hq:A][iq:B];W[hq];B[ir]))
(;B[gs]C[DC: H2 losses points but G1 salvages some back. Often when one has made a mistake, we feel the pain of despair and compound the mistake with a few more. In my experience if you make a hash of a move or misread don't play there for a while and recovery scenarios are more likely to come to mind.]
(;W[fs];B[is]
(;W[hq];B[fr];W[ir];B[es];W[hs];B[ji];W[jj];B[hr];W[js];B[fs]
;W[hs])
(;W[hs]))
(;W[fr];B[fs]
(;W[er])
(;W[es];B[hs]))))
(;B[he]))
(;B[jg];W[ng];B[pg];W[of];B[ne];W[og];B[pq];W[oq];B[pr];W[or]
;B[rr];W[qr];B[sq];W[ps];B[ph]))
(;B[mg]LB[qd:A][mg:B];W[re];B[rf])
(;B[jf]C[DC: Attack the shape first.];W[ke];B[qd]))
(;B[lg];W[lf];B[qd]))
(;B[in];W[io];B[gn]C[DC: ko, the four stones are not so important to you and B has more ko threats so enjoy the ko! A good opportunity to turn the game around.]
;W[go];B[ih];W[hi];B[ho]C[DC: White strugles a little with ko threats.]
))
(;B[ij];W[jj];B[ik];W[jk];B[il];W[jl];B[im];W[kh];B[lg];W[kg]
;B[mh];W[dr]C[DC: A Closer game.]))
(;B[ij]C[DC: B makes H9 strong and so this move has more risk but is almost playable.]
))
(;B[ij]C[DC: Cut the shape. H8 is fluffy at best against Blacks thickness.]
;W[ji];B[jj];W[ki];B[kg];W[lg];B[jf];W[kh];B[jg];W[le];B[lh]
))
(;B[hk]
(;W[gj];B[hj];W[hi];B[fk];W[gk];B[gl];W[fl];B[ej];W[fk];B[gm]
)
(;W[ki];B[kg];W[jk];B[lf])))
(;B[ek]LB[ek:B][cl:A]C[DC: C9 is not an important stone. The variations seem to give more attack profit.]
;W[cl];B[di];W[ej];B[dl];W[ck];B[cm];W[bm];B[eh];W[eg];B[fh]
;W[gh];B[gi];W[fi];B[fk];W[gj];B[hi];W[gg];B[hj];W[gk];B[hl]
;W[dh];B[ei];W[ai];B[bh];W[ah];B[ag]))
(;B[ch];W[hg];B[if];W[ig];B[jg];W[hf];B[he];W[jf];B[ie];W[hi]
;B[jh];W[hk];B[lg])
(;B[eh];W[eg];B[fh];W[gh];B[gi];W[fi];B[dh];W[gg];B[hi];W[ch]
;B[ej];W[ig]))
(;B[mi]LB[mi:B][pi:A]))
(;B[hd]LB[hd:B][nn:A];W[ge];B[gf];W[he];B[hf];W[ie];B[eh];W[eg]
;B[gi]C[DC: White will survive, but can you profit in that attack? I think so.]
;W[bh];B[nn]TR[gi]C[DC: These stones are smiling in their control of the centre.]
))
(;B[hd]LB[hd:B][ld:A];W[ge];B[gf];W[he];B[hf];W[ie];B[eh];W[eg]
;B[ff]C[DC:]))
(;B[ee]LB[de:A][ee:B]TR[bg]C[DC: Leaving more attacking options is a matter of patience.]
))
(;W[dm]C[DC: This is hard to handle D6 error.];B[em];W[fn];B[cm]
;W[dl];B[cn];W[cl]C[DC: Black would be in trouble here D6 is dubious.]
))
(;B[io];W[jp]LB[bo:B][jo:A]C[DC: A is an older joseki whereas B is more modern. A is very playable although we are gving away 4th line, white is not so satisfied as O3 is strong.]
;B[bo]C[DC: Black wants white to push at C5 and secure his position. C2 is the correct continuation.]
;W[cr];B[co];W[er];B[dq];W[cq];B[dr];W[fq];B[fp];W[ds];B[fr]
;W[es];B[gr];W[hq];B[fn];W[em];B[bq];W[bs]C[DC: The shape move else a peep here is trouble.]
;B[fm];W[el];B[cl]C[DC: B is very good.]))
(;B[cm]C[bDC: Also possible.]))
(;B[hc]LB[hc:B][dj:A];W[nc];B[pf]
(;W[ep]LB[cj:B][ep:A]C[DC : Attacking with profit at M17 later, B is the most open area miai with A.]
;B[dj])
(;W[cj]LB[cj:B][ep:A];B[ep])))
