(;FF[4]GM[1]SZ[19]ST[0]CA[UTF-8]AP[SGFC:1.17]VW[]

GN[Let's play go!]
PB[VipassanaMan]
BR[19k]
HA[0]
PW[oppala]
WR[18k]
KM[0.5]
DT[2012-06-01,2012-10-25]
PC[Online Go.com: http://www.online-go.com]
RE[W+12.5]
RU[Japanese]
GC[Game ID: 353729]

;B[pp];W[mq]TR[dq][cq][dp][cp][qd][pd][dd][cd][qc][pc][dc][cc]
C[Better to play at one of the marked spots.   Stake out another
corner, as Black (with proper play) already has this one.];B[np]
;W[nq];B[mp]C[The first thing I notice is that both players are concentrating
on one corner.  Normally it is best for each to play a stone
in one corner, typically giving each player a head start in two
corners.   The reason for this is that it's easier and safer
to make a stable (if not living) group in the corners, then develop
from there.  It is normally a little bit harder to secure territory
on the sides and much harder in the center.

Try this experiment, starting with a new board.  Black puts three
stones in one corner while White puts one stone in each of the
other corners.  Who looks better?  Not Black!  So White put himself
at a disadvantage by beginning this way.];W[pq];B[qq];W[pr]
;B[qr];W[lp]C[VipassanaMan: This felt like a bad start and that I came out
behind on this corner?

VipassanaMan: I wrote that when I thought I was white. lol. So
now i've remembered which colour i was playing as..... was this
a good result for black (me)?

Whether you are "ahead" or "behind" in this corner is almost
meaningless at this early stage.   Even though White has definite
territory and Black does not, I would say the corner is better
for Black because of its upward influence along the right side.
More about this notion later.];B[pd];W[dp];B[dd];W[cf];B[fc]
C[Notice now that Black "has" 3 corners and White has only 2.]
;W[dj]LB[dp:C][dm:D][pj:X][dj:B][di:F][dh:E][cf:A]TR[qr][qq]
[pp][np][mp]C[VipassanaMan: Too far a jump?

Yes, too far.  But Black should ignore it to play at X.  This
will give Black a huge advantage, helped by the influence of
the marked stones.  Failing to capitalize on this now contributed
to Black's eventual loss.

Regarding your extension question , generally two-space extensions
are best in open areas.  Three or more can work if you have other
stones to help (as Black does).    Also, you want to consider
what you may do next.  A further extension to D could be logical.
Now suppose Black wants to make mischief by invading that side.
Where would he go?  Exactly at E, where he played the next move.
So you would have done better to extend in a large knight's move
only to F, which does not give Black an attractive target.]
(;B[dh]LB[pj:X]C[This is an OK forcing move but it overlooks the much bigger (and
more urgent) move at X, which is what Black should play (see
variation).

In this commentary I will generally not critique small tactical
details because with a few noted exceptions,  both players played
accurately enough on a local level.  What I saw missing in their
thinking were things like whole-board awareness,  recognition
of urgent moves and controlling the flow of the game.

PLEASE CONSIDER CAREFULLY THE SUGGESTED VARIATION AND ITS IMPLICATIONS.]
;W[ch];B[df];W[dg];B[eg];W[cg];B[ef];W[eh];B[fh];W[ei];B[fi]
;W[fj]LB[pj:X][kd:Y]C[VipassanaMan: I thought his jump was too far but that i didnt
punish him?

So far Black is OK.  But I would label the next move a problem.
Invading at A is relatively small.  You have MUCH bigger moves
at X, as mentioned earlier, and at Y, which is smaller but analogous.
You may not be able to makle both these moves, as they are equally
attractive to White.  If you play at X, White will probably play
at or around Y, or vice-versa.   This is a basic go concept called
miai, which you can check out at Sensei's Library, http://senseis.xmp.net/.]
;B[cn];W[dn];B[cp];W[cq];B[co];W[do];B[bq];W[dr];B[cl];W[ck]
;B[bk];W[bj];B[bl];W[dl];B[pj]LB[op:B][ip:E][fp:D][qf:A]TR[dr]
[cq][dp][do][dn][dl]C[Good!  Now you (Black) are finally using influence. by playing
at Q10.

Speaking of influence, notice all the outward strength projected
now by White's marked stones.   Another word for this is "thickness"
(see Sensei's Library).  How did this happen?  When you were
securing your invasion, White's defense built up this outer wall,
which is worth a lot more than your 10-12 points of territory.
White can secure this large territory by playing at E, or by
trick to strengthen his stones on the right (variation).

Notice too that Black's potential invasion at D has been ruled
out.  That is another casualty of Black's invasion on the side.
It might have been possible to play at D first and then, depending
on how that worked out, to play the invasion later.   Some moves
must be properly timed.]
(;W[qf]C[This is OK but White had a better move (variation).]
;B[qh];W[qd];B[pc];W[qc];B[pf]LB[iq:C][io:B][jh:D][jd:A]TR[qr]
[dr][qq][cq][pp][np][mp][dp][do][dn][dl][pj][fi][qh][fh][eg]
[ef][pd][pc][fc]MA[qb]C[X would be better, although this does help keep White out of
the center.

Note also that Black's thick wall protects the top side just
as White's protects the bottom side.  

There is actually quite a bit of thickness in this game (marked
stones).  Black has more than White so, even though this isn't
territory yet, Black is slightly ahead.  There is a go proverb,
"Stay away from thickness."

Thickness makes invasions difficult.  Still, White should think
about invading at or around A if Black doesn't secure it first.

Black's idea (after defending at A) should be different.  Placing
a stone at B would probably cause White to play around C in order
to make safe territory underneath.  That gives Black an opportunity
to extend from B upwards into the center.  If Black is able to
place 
another stone at D and can also save B somehow (connect or make
eyes), he will have a formidable position.  

But of course it's still White's move...];W[qg];B[pg];W[pb]
;B[ob];W[qb];B[kf]LB[hj:C][hi:C][jh:B][jd:A]C[Better at A to defend the top from invasion.  Later Black can
play at B to defend against White C (either one).  

The stone you played, unfortunately, can't do both jobs.];W[ln]
;B[nn];W[ll];B[lj];W[nl]LB[nk:A][mc:B]TR[ob]C[I like this move, although one line higher at A is probably more
flexible.   Also, White's invading at B might work because Black's
marked stone is weak.];B[pl];W[jk];B[ji];W[hj];B[hh];W[cd];B[cc]
;W[ce];B[de];W[hc]LB[kd:C][nc:B][lc:D]TR[ob]C[VipassanaMan: I always feel like i ought to be able to kill an
invasion like this outright....


White's invasion should succeed but needs to be farther to the
right, allowing rooom on both sides.   Best is for White to invade
at B.  True, that leaves no more room on the right, but it directly
threatens Black and he must answer.  If Black connects the weakened
stone,  White can extend to C and probably live small if he plays
accurately.  If Black does not connect at B but defends at D,
for example, White can capture (or bridge under) the marked stone
and reduce Black's 
territory.];B[jc];W[jb];B[kb];W[ib];B[ic];W[gc];B[ja];W[fb]
;B[hb];W[dc];B[ec];W[db];B[eb];W[cb];B[fa];W[gb];B[hd];W[gd]
;B[he]LB[ok:B][mk:A]
(;W[mk]LB[ok:A][ha:B]TR[gd][hc][gc][jb][ib][gb][fb]C[Here White is correct to abandon his failed invasion at the top
because those stones are essentially dead.  I would prefer A
to the move played because Black would probably answer the peep,
allowing White to push in to the area above (variation).   

Another choice is to capture at B, allowing White a few more
liberties.  This might create useful ko threats, for example,
or require Black to make unnecessary moves to kill White's stones,
or give White an extra chance in case Black makes a mistake.

In fact, the latter is what happened.  These marked stones, though
"dead", had aji which allowed them to help capture Black and
thereby live.  You can read about the term aji, which means "taste",
at Sensei's Library.];B[mj];W[nj];B[ni];W[oj];B[oi];W[om];B[on]
;W[pm];B[ol];W[nm];B[hq]LB[qo:A][qn:A]TR[pm][om][nm]C[This invasion worked only because White did not play accurately.

More urgent for Black was to play at either A to prevent White's
marked stones from marching in as a dragon and reducing Black's
side territory.];W[iq]LB[jq:B][fq:A]MA[lq][dq]C[Generally contact moves are not the best defense.  White should
focus on denying Black the eye space necessary to make life.

A or B are better plays for White, but in either case Black can
make a two-space extension in the other direction by peeping
at one of Xs.  This could make it a tough fight.];B[eq];W[dq]
LB[er:A][jq:B]
(;B[er]LB[jq:B][qo:A][qn:A]C[Remember, A is still an urgent defensive move for Black.  If
White plays A first, he threatens Black's whole corner.

But, ignoring that for the purpose of discussion, the correct
move here might be for Black to clamp at B.  I have not analyzed
this in detail but I think it's what I'd try after playing either
A (variation).];W[hr];B[hp];W[gq];B[gp];W[fq];B[ep];W[fr];B[fp]
;W[ip];B[io];W[fn];B[ir];W[jr];B[jp];W[jq];B[kp];W[kq];B[lo]
;W[ko];B[lq];W[lr];B[kn];W[lp];B[fs]LB[gr:B][jo:A]
(;W[jo]C[White's mistake (see variation).];B[gr];W[mo];B[no]
;W[hs];B[fq];W[in];B[gn];W[gm];B[hn];W[hm];B[ho];W[ql];B[pk]
;W[pn];B[qo];W[qn];B[rn];W[rm];B[ro];W[qk];B[nk]C[Congratulations to Black for spotting this killing move.  White
cannot recapture because it's a snap-back.  These things are
hard to see.];W[qi];B[rh];W[ri];B[pi];W[pe];B[oe];W[qe];B[se]
LB[sc:A]C[White might be able to live by answering at A, but his corner
will be greatly reduced.  Before Black's move White had 10-12
points in the corner; after, he will be lucky to have 5.   A
famous go proverb says, "The monkey jump is worth 10 points."]
;W[oc];B[od];W[nc];B[nb];W[ha];B[mc]C[oppala: Now was the time probably for black to connect with e6
for example. White group in the bottom is dead in that case


??? No, both Black and White are alive on the bottom.  I'm not
sure that E6 does anything, although A (F5) secures a point of
territory and sets up a cut at B, although I'm not convinced
that's really useful either.];W[nd]C[oppala: 166.d6, no need to wait, I don't remember what was in
my mind, I probably saw it later...];B[ne];W[md];B[ld];W[da]
;B[ea]MA[ed]C[Black has to play at X to save these stones.]
;W[ed];B[fd];W[fe]LB[ff:A][ee:B]
(;B[ff]C[Black cannot prevent the loss of stones, unfortunately (variation).]
;W[ga]C[VipassanaMan: I was pretty annoyed with myself about not killing
his invasion, i had THOUGHT I had it under control, but obviously
not.];B[sc]LB[sb:A]C[Excellent.  Even moving one space farther at A, would work.]
;W[rg];B[sg];W[sb];B[rb];W[rc];B[sa];W[sd];B[rd];W[re];B[sd]
;W[ra];B[qa]LB[sf:B][pa:A]
(;W[pa]C[oppala: Big miss! 190.t14 should win the game.

Yes; good call!  See variation.  T14 starts a lethal ko.  Black
doesn't have sufficient threats.];B[sf];W[kc];B[lc];W[gf];B[hf]
;W[gg];B[fg];W[hg];B[ge]LB[ig:A][kd:B]TR[hf][he][hd]C[This unfortunate move took one precious liberty away from the
three stones in a line, making them easy to attack.  This is
a common motif in go.  Black should play first at A, then capture
at B.];W[id];B[ie];W[ig];B[hi];W[je];B[jd];W[if]LB[kd:A][id:B]
TR[kc]C[Notice how the aji of White's dead stone aids in this capture.
If Black had removed it earlier, he could answer White's threat
by simply connecting at B. 

This said, Black's four dead stones have a heavy and inefficient
shape.   Even if alive they don't increase Black's territory,
although they do reduce White's territory by 4 points.  However,
when White captures them, White obtains a double benefit: 4 more
points of territory plus 4 captive stones.  So the scoring balance
shifts 12 points now in favor of White!   

Clumpy eyeless shape like this are inherently dangerous because
they are profitable and relatively easy for an opponent to attack
and kill.    In a few situations such shapes may be necessary,
but unless you know exactly what you're doing it's best to avoid
them.];B[jf];W[id]C[VipassanaMan: And this annoyed me further, again felt like it
was entirely avoidable but somewhere I got it badly wrong.]
;B[kd];W[gj];B[ii];W[kj];B[ki];W[ij];B[kk];W[kl];B[lk];W[ml]
;B[jj]C[Nicely played by Black.];W[br]C[Good move for White.  Black would have no problems if he played
here first.];B[aq];W[ar];B[bp];W[cm];B[bm];W[dm];B[aj]LB[ak:A]
[bi:A]C[If at A, Black would be 100% safe.]
(;W[bi]C[Actually White has an easy trick to kill Black here (variation).]
;B[ai];W[ak];B[al];W[ah];B[an]C[Maybe Black finally saw the threat.  He would be dead without
this move.];W[qj];B[ak];W[mn]LB[oq:B][ke:A]C[oppala: with the threat p4, black may play now p4 himself for
saving the group.
237.p3 seems also good.]
(;B[ke]LB[oq:C][op:B][po:A]TR[np][mp][no][on][nn][je]C[VipassanaMan: I dont remember why on earth i thought this was
the biggest move on the board.....!!

Yes, Black had to protect these stones with at A or B (simplest)
or C (variation).   C is best if you are comfortable with it.

Don't worry about White's marked stone pushing one space farther
to the right: Black can simply block with atari.];W[op]C[VipassanaMan: Another annoying moment... just totally didnt see
it.  I dont think he did either until now though. But he got
there 
first.];B[po];W[oo];B[ps];W[os];B[qs];W[nr];B[fo]LB[eo:B][en:A]
(;W[en]LB[eo:A]C[White might save a point of territory by playing A instead. 
This gives Black some cutting threats, but White can manage nicely
(variation).];B[si];W[sj];B[sh];W[ie];B[jg];W[sm]LB[ds:C][so:B]
[sn:A]C[White played the best move.  He might consider playing at A instead
to remove one point of Black territory.  However, Black's would
simply answer B (sente), White would connect (gote), and Black
would use his sente once again to play at C.];B[sn];W[ds];B[gs]
;W[is];B[ee]LB[ih:A]C[This move does nothing.  It doesn't strengthen Black and it doesn't
reduce White's territory.  Black needs to block White at A. 
It's a small endgame move that saves one point, but Black has
nothing better.];W[ia];B[ka];W[il]LB[ph:A][ih:B]C[VipassanaMan: Was this a wasted move by white or did i miss an
invasion opportunity?

Yes, wasted move.]
(;B[ph]LB[ih:A]C[Again, Black should block at A.   Black can still connect here
later if forced by White (variation).];W[ra]LB[ih:A]C[White is definitively dead, so playing one more White stone in
order to capture one Black stone will not change the score. 
On the other hand, White could take a point away from Black by
extending at A (which he does on the next move).];B[sb];W[ih]
;B[jh];W[gi];B[gh];W[tt]C[Pass.];B[tt]TR[np][mp][no][on][nn]
[hf][he][ge][hd][fd][fc][ec][eb][fa][ea]C[Pass.

Result: W+12.5

VipassanaMan: Overall I feel like this is a game i could have
won by not making a few big reading mistakes that led to me losing
groups i could have saved - but maybe im wrong.
But even so, I thought I was actually AHEAD at the end, was surprised
i'd lost, especially as i'd killed such a big group at R15 etc.
So, still a bit perplexed why I lost!

Overall, I think Black won the spatial battle in spite of overlooking
some  big territorial moves (see discussion starting around move
16).  Mainly he lost by letting 15 stones (marked) be captured
unnecessarily.   White played sharper tactically except for the
upper right corner, which he lost, and Black's group on the left
side, where he missed an opportunity to kill.])
(;B[ih];W[ra];B[sb];W[rf];B[ph]))
(;W[eo];B[fm];W[en];B[im];W[jn];B[ik];W[jl];B[hl];W[gl];B[fl]
;W[gk];B[ek];W[dk];B[ej];W[di];B[gi];W[il]C[No problem for White.]
))
(;B[oq]LB[or:A][op:B]
(;W[or]MA[op]C[This is White's most likely answer, but he can also throw in
at X (variation).];B[op];W[po];B[ps];W[os];B[qs];W[nr];B[sm]
;W[sl];B[sn];W[oo];B[qp])
(;W[op];B[oo];W[po];B[op];W[or];B[qp];W[sm];B[ps];W[nr];B[os]
;W[ns];B[qs];W[sn];B[so])))
(;W[ak]C[White throws in.  Black is forced to capture.];B[al]
;W[ai];B[ak]C[Now Black has a shortage of liberties.];W[bn]
TR[bm][cl][bl][al][bk][ak][aj]C[White kills.]))
(;W[sf];B[rf];W[br];B[pa];W[bp]TR[bq][cp][co][cn][cl][bl][bk]
C[Black is dead.];B[bo]))
(;B[ee];W[ga];B[ed];W[fg];B[ff];W[gf]))
(;W[gr]C[White must connect here, then capture];B[gs];W[is]
;B[jo]C[This a sente move for Black.  White must cut.];W[ho]
;B[qn]TR[ho]C[White's cut give Black time to make this urgent move defending
against White's dragon.];W[qm];B[ql];W[rm];B[rn];W[rl];B[rk]
;W[sk];B[sj];W[sl];B[rj];W[sn];B[so];W[sm];B[ro];W[pn];B[po]
;W[mo];B[lq];W[no];B[lp];W[oo];B[op];W[mn];B[im]TR[gs][fs][er]
[hq][eq][hp][gp][fp][ep]C[Black cannot be dissatisfied, even though his marked invasion
stones are dead.]))
(;B[jq]LB[qo:A][qn:A]C[Assume Black has a stone at either A.]
;W[ip];B[ir];W[kq];B[kr];W[jp];B[jr];W[fq];B[fr];W[er];B[gq]
;W[fp];B[gr]C[Black is alive.]))
(;W[ok]C[Here is a more interesting possiblity (variation).]
;B[pk];W[oj];B[oi];W[mj];B[mi];W[ni];B[mk];W[nj];B[nh];W[mh]
;B[li];W[oh];B[pi];W[ng];B[lk];W[ml];B[ol];W[nk]C[It might not play out this way exactly, but this helps White
by reducing Black's territory.   However, it is only a false
eye, so White must be alert to capture.]))
(;W[op];B[oo];W[oq];B[po];W[lo];B[no];W[lm]LB[jd:A][mc:B]C[Now White has gained a lot of territory but still needs to invade
near A on top.  Black will probably play next at B to prevent
this.  

Let's continue the variation a few more moves to see what White
could do.];B[mc];W[qf];B[of];W[rd];B[qc];W[qi];B[qj];W[pi];B[oj]
;W[oi];B[mj]C[Black does not want White pushing into the center.]
;W[nh];B[mf];W[mh];B[kg]LB[jd:A]C[Very important move for Black, because if White played here it
could help him to invade around A.

One of my favorite go proverbs is "Opponent's next move is usually
my best move."];W[ki];B[kj];W[ji];B[jj];W[jl];B[ij];W[il];B[hk]
;W[hl];B[gk];W[hj];B[ik];W[gj];B[gl];W[gm];B[ig]C[With proper play now Black would win.]
))
(;B[pj]C[This is purely hypothetical, but let's play this out a little
to see how this could work.];W[dm];B[pg];W[op];B[oo];W[oq];B[po]
;W[iq]LB[jd:A][cq:C][fp:D][dh:E][mc:B]TR[cf]C[Next Black could think about something like A, B, C or maybe
D.    And of course E is still open.   
A is probably the safest but D and E are sente.  Either one,
as it plays out,  will get Black into the center, where he needs
to be before White gets a stronghold there.   

Now imagine a few moves ahead.   Let's stay that Black plays
at D and reaches into the center.   It doesn't make much sense
for White to try to kill him, so once things settle down a bit,
what is White to do?  He will invade the top around A or B.

Of course, the game might not unfold that way but, it it does,
Black would do better by playing at E instead of D because (1)
it threatens to isolate White's marked stone, (2) it will strengthen
Black in the upper left, and (3) this influence (thickness) can
be used to contain White's expansion once he invades.  If this
goes well he still play at D later.  

This position (even though it did not actually occur) is very
instructive and I recommend you study it before we continue quickly
through a few more moves.];B[dh];W[ch];B[dg];W[cg];B[df];W[cd]
;B[cc];W[bd]LB[fp:D][jd:A][bc:B]C[Notice how much better this is now for Black.   If I were Black, I'd play at A (or maybe one space to the right of that), which I consider to be an urgent move.

But even if I played somewhere else like B, which would be silly, you can see what White has less room to develop after an invasion.]
;B[bc];W[nc];B[oc];W[kd];B[ic];W[jc];B[nd];W[mc];B[jb];W[kb]
;B[ib];W[kf];B[he];W[ig];B[hg];W[ii];B[jd];W[kc];B[je];W[ke]
;B[jf];W[jg];B[lh];W[kg]LB[fp:D][mn:X]C[White is nicely settled (almost alive), so the invasion has succeeded. Black is just starting to get some influence toward the center but he needs more.

Don't forget, Black still has a big move at D.  Before that, however, he should play at X both to prevent White's cut and to enlarge his side (and move more into the center).]
))
