(;FF[4]GM[1]SZ[19]ST[2]CA[UTF-8]AP[SGFC:1.17]

PB[AKANE44111]
BR[12k]
PW[Schmidtch]
WR[11k]
KM[0.5]
DT[2012-12-07]
PC[The KGS Go Server at http://www.gokgs.com/]
RE[W+Resign]
TM[1200]
OT[5x30 byo-yomi]
RU[Japanese]

C[AKANE44111 [12k\]: hi

// Hi. Glad to be doing this review. I'll be reviewing for the white side.]
;B[dq]C[Schmidtch [11k?\]: hi];W[dd];B[pq];W[pd];B[jp];W[po]
TR[jp][pq]LB[qn:a][pn:b]C[//Too close of an approach. The marked formation is the same as kobayashi opening. The far pincer is dangerous(variation). 

Usual approach is A or B.]
(;B[pm];W[qq];B[pp];W[qp];B[oo];W[on];B[pn];W[qo];B[nn]C[//Mistake by Black. See variations.]
(;W[op];B[om];W[oq]C[This is a good result too.];B[nq]
(;W[or]C[See variation.];B[np];W[cj]LB[qj:a][pi:b]C[I think this opening is more favourable for White, because Black's thickness on the right seems inefficient with the K4 stone. What do you think?


//Yes I also think it is favourable for White, but only slightly. the ponnuki near the centre is big. 

White also wants to play a checking extension around A or B to fight against the Black ponnuki's influence.]
;B[nr];W[pr];B[qi];W[co];B[eo];W[en];B[fn];W[fo]C[Is there any variation after this that White can consider? I'm no good with crosscuts.

//Crosscut here is a mistake I think. Black can solidify the bottom. Black can choose what happens after crosscut.]
;B[dn];W[do];B[ep];W[em];B[gn]C[This is a reasonable outcome from the crosscut, but I think Black has a better result out of it because the Black is higher(sixth line) and the extension stone is fourth line.]
(;W[dm]C[Overcautious.];B[jn]C[The black bottom area is about 45 points.]
;W[jc]C[What do you think about the opening stage? My opinion is that Black is rather quite inefficient on the bottom side, and White seems to be quite spreaded out. But Black could form a big moyo on the right

Black is overconcentrated but has a lot of points. White is probably slightly ahead(but behind on territory).]
;B[fd]
(;W[ec];B[ic];W[jd];B[ee]
(;W[cf]C[Big mistake. Too tame.];B[fc];W[fb];B[gb];W[eb];B[de]
;W[ce];B[ed]
(;W[dc];B[jb];W[kb];B[hb]
(;W[if]LB[kc:a]C[There is a cut at A. White should fix it.]
;B[id];W[je]
(;B[pe];W[qd]LB[pg:a][oe:b]C[I am not sure whether this is the right response. But I was thinking of securing the corner first.

//It is okay. Black is making use of his ponnuki more now. I would maybe pincer at A or hane at B to fighting against the Black influence.]
;B[qe];W[oe];B[of];W[nf];B[og];W[ne]LB[kc:a][rn:b]C[The cut at A is fixed, but the right side is large after Black goes to B.]
;B[rm]LB[mh:a]C[It is urgent now to play at around A. It affects the growth of both moyos.]
;W[cq];B[cr];W[bq];B[er]C[A fair sequence for both sides in the corner here.]
;W[mi]C[For this move, I was trying to stop black's progress on the right, and limit black's influence on the bottom, while extending from my top, and overall preventing black from getting a big moyo. I think this move is quite well played. What are your thoughts?

Yes it is the right move. It is even more urgent than the exchanges in the bottom left corner.]
;B[ni];W[mh];B[mj];W[nj];B[nk];W[nh];B[oi];W[oh];B[ph];W[oj]
;B[pi];W[lj];B[mk];W[lk]C[A well played series here.];B[sd]
;W[re];B[rf];W[rd];B[se];W[sc];B[sf];W[qf]C[This I think was a mistake by White. Probably white should block the cut at S17 first and get sente. I think now black can cut at S17, forcing me to capture the two stones, and proceed to get the corner, which is rather big.

Yes.]
(;B[qg];W[pf];B[rg];W[rc];B[pg];W[ml]C[Overplay.]
(;B[nl]
(;W[ll]C[I don't think this exchange is good for white. Should white play this move (102) at J8 to limit black's expansion at the bottom? Now white is in gote, giving black a chance to proceed to the centre.

It's slow for White to connect here.];B[jh]
(;W[hh];B[ii];W[hi];B[ij];W[hj];B[ik];W[eg]C[Even though 'chasing from behind' with the past few moves is not recommended, I was aiming for making some territory with the wall and this move. Any thoughts?

That's fine. The best solution was to realise that Black is not alive at the top.

The next best alternative was to just capture the stone(which is a big overplay).

This is the best alternative after that.]
(;B[he]C[Now that I think of it, The cut at M11 for black seems promising. Perhaps white should have defended against the cutting point first?]
;W[hl];B[il];W[hm];B[hn];W[im];B[jm];W[jl];B[kl];W[km];B[jk]
;W[ki];B[kg];W[lf];B[kf];W[ke];B[lm];W[mm];B[ln];W[kk];B[kn]
;W[hk];B[gg];W[fh];B[hg];W[ig];B[hf];W[ji];B[ih];W[kh];B[lg]
;W[mf];B[ng];W[mg];B[ie];W[lh];B[jg];W[jf];B[gh];W[gi];B[fm]
;W[fl];B[br];W[ar];B[rn];W[ro];B[mn];W[ja];B[ib];W[jj];B[jl]
;W[in];B[io];W[gm];B[go];W[ns];B[ms];W[os];B[lr];W[gd];B[ff]
;W[ge];B[df]
(;W[dg];B[ia];W[ga];B[ka];W[lb];B[gc];W[hd];B[fg];W[fi];B[la]
;W[ma];B[ja];W[mb]LB[jh:a]C[I think black's top group is not dead yet. I believe it will be a seki, though it could have lived in ko if not for move 159. What do you think?

At this point white is leading by around 30 points. I think it's probably due to the opening stage. Do you have any suggestions?

Thanks for reviewing this game!


//The opening was okay. I think it was more even than you seem to think. You gained a lot of points from pushing against the right side and making the upper right big. And also a lot of points from chasing out the overplay around A and making the left side larger.

The key thing that could be improved in this game was to learn more about shape and life and death, because the upper side black group was attackable throughout the game.

Another thing that could be improved was realising that the overplay at around A could have been captured outright.

Thanks for sending in the review. It was a pleasure.])
(;W[fg]C[Just play here directly and ignore the left side. Black can't make an eye on the left side even if he escapes.]
;B[gf];W[gc];B[hd]C[Seki.])
(;W[ef];B[fg];W[eh];B[gc];W[hd]C[Seki again.]))
(;B[li];W[ki];B[lh];W[kh];B[lg];W[mg];B[mf];W[ng];B[kg];W[jj]
C[Yes you are right the cut works.]))
(;W[ii]C[This will probably capture the stone.];B[ji];W[ij]
;B[ih];W[hh];B[hg];W[ig];B[gh];W[hi];B[jj];W[ik];B[jk];W[jl]
))
(;W[gl]C[White influence here is good not just to restrict Black, but because...]
;B[ss];W[ge]C[... the black group is not alive and still very much attackable, and can be chased down towards the white stones. Or if they try to live locally, then White can get a wall and make the left side territory.

I show some examples just for illustration.];B[gf];W[he];B[eh]
;W[hn];B[hm];W[gm];B[ho];W[fm];B[in];W[gh];B[ia];W[hd];B[gc]
;W[ga]C[Black has nowhere to run or make eyes.]))
(;B[ll];W[kl];B[lm];W[km];B[kn]C[White stone is swallowed.]
;W[mm];B[ln];W[ok];B[nl];W[ol];B[nm]C[No techniques out.]))
(;B[rc];W[pf];B[rg]C[The exchange is about even here.]))
(;B[kc]C[The cut works.];W[lc];B[kd];W[le];B[lb];W[ka];B[la]
))
(;W[ja]C[I prefer here.]
(;B[he];W[hh]C[White can continue to pressure the Black group first.]
;B[qf]C[If tenuki...];W[ff]C[Black is still in danger.])
(;B[ib];W[md]LB[ge:a]C[To protect the cut. The black group can still be attacked at A(for example).]
)))
(;W[cc]C[I like this better. Helps both cuts.]))
(;W[de]C[This is basic instinct. Extend against the shoulder hit.]
;B[ef];W[ge])
(;W[gb]C[Make sure black has no base];B[de];W[ce];B[cf];W[cd]
;B[dg];W[ff]))
(;W[df]C[Best response I think.];B[hc];W[ec]C[Better than actual game.]
))
(;W[fl]C[I prefer here.];B[el];W[dm];B[fm];W[fk];B[dl];W[cm]
C[This is okay.]))
(;W[np]TR[pn][oo][nn][om][pm]C[Push is the only move. Prevent black from getting a wall here. and the marked group can still be attacked.]
))
(;W[no]
(;B[op];W[om];B[ol];W[nm];B[mn];W[mm];B[ln];W[pl]C[Bad for black.]
)
(;B[om];W[op];B[np];W[on];B[mo];W[oo];B[oq];W[nm];B[mn];W[nq]
;B[mp];W[mr]C[Bad for Black.]))
(;W[om];B[fc];W[no];B[op];W[np];B[nq];W[mq];B[pr];W[nr];B[or]
;W[lo]C[Bad fight for black I think.]))
(;B[pl];W[no];B[nq];W[lo];B[mp]C[Now white can only either connect or pincer, but not both.]
(;W[pj];B[mo]C[Painful for White.])
(;W[mo];B[qi]C[The white stones have no attacking target and no base yet.]
)))
