(;FF[4]GM[1]SZ[19]ST[2]CA[UTF-8]AP[SGFC:1.17]

PB[SkullFlesh]
BR[13k]
HA[2]
PW[Dav26]
WR[11k]
KM[0]
DT[2012-11-29]
PC[The KGS Go Server at http://www.gokgs.com/]
RE[B+7]
TM[1200]
OT[5x30 byo-yomi]
RU[NZ]

AB[dd][pp]C[I played w and lost by a few points. Could you please help me see the biggest mistakes?]
;W[pd];B[dp];W[fc];B[cf]
(;W[jc];B[eb];W[fb];B[ec]LB[mc:A][cn:B]C[Is this a good position for both sides?

It's ok, in my opinion slightly better for B (secure points in corner)but W got sente. If W knows his opponents style then A could be a good spot as it builds a good frame for a big moyo. Though A is a slow point to play, best kept for later.
B(C6 or C7) is to prevent a wall and make the area B (D4-C14) into B moyo.

It's sad that 3-3 is for territory oriented game and 4-4 is for influence. With this board i feel like it's better to aim for reducing the influences value. 
The "B" side is the most intresting right now because a B wall on 4-5 row would be troubblesome indeed....

This perhaps doesn't fall under "misstake" category but rather some sort of "If i can stop my oppnent from builing a fondation, I can atleast try to take away the ground it's gonna stand on..."]
(;W[cc]C[Did w have any chance to live?

Not really, but then i could be wrong. B could make a bad misstake then, yahoo W, but in generally cornerfights this early in the game is just way to early....
I did find a ko but no ko-threats...];B[cd]
(;W[bd];B[cb];W[bb];B[dc];W[bc];B[be];W[ae];B[af];W[ad]C[Only if W knows for sure that he can get the ko working. But it's so many moves one asks : Um, why?...
A16 is better play elsewhere.]
(;B[ca];W[fd];B[qf];W[pf];B[qd];W[qc];B[qe];W[pe];B[rc];W[qb]
;B[rb]C[Be sure to thank B for a wery nice wall :)
P17 is better then q18, empty triangels are 9 out of 10 times better played elsewhere.]
(;W[pb];B[pg];W[og];B[ph];W[oh];B[oi];W[ni];B[oj];W[me]LB[kf:2]
[jg:1][cl:C][pm:A][jq:B]C[Waste or good security by w?

It's good. 1 or 2 could be better if W is prepared to kill B's invasion no matter what. If W can get groups or even just a something into A, B, C areas B can give up...

W whit this move, took back the A corner setback in the start of the game. But as always securing moves like these tend to be slow, but in this case i would accept it. 

If one overanalying this N15 could trigger B's fear of letting W get a lot of territory and make B focus even harder thus giving W a harder game.... But that ony happens if one has to much time to think. ;-)]
;B[jj];W[ki];B[kj];W[ji];B[fg];W[gf];B[gg]
(;W[hg]C[Is this defence correct?

It's ok, just be aware of H14 and the damage B can do if he gets half a chance.]
(;B[jp];W[nq];B[qn];W[pq];B[qq]
(;W[op];B[pr];W[oq];B[po];W[or];B[qr];W[lq];B[kq]
(;W[lr];B[kr]
(;W[lp];B[hj];W[ln];B[dk];W[hi];B[gi];W[hh];B[gh]
(;W[cn]C[Should have w inveded like this?

It's late, almost to late, also consider the 3-3 invasion, see my example.]
;B[fq];W[cp];B[cq];W[do];B[bp]C[Found a ko and fooled around with it a bit, just for fun. perhaps not so usefull but i wanted to show that it's not alwas nessesary to connect like C5.]
(;W[co];B[ep];W[bo];B[bq];W[ck];B[cl];W[bl];B[cj];W[bk];B[cm]
;W[bm];B[dm];W[en];B[bj];W[em];B[dl];W[gm];B[fk];W[ho];B[hp]
;W[go];B[gp];W[jo];B[qi];W[om];B[pm];W[on];B[nk];W[ol];B[pl]
;W[ok];B[nj];W[pk];B[qk];W[pj];B[pi];W[qj];B[rj];W[rk];B[ql]
;W[ri];B[rh];W[si];B[sh];W[sj];B[rl];W[pn];B[qo];W[rm];B[sl]
;W[qm];B[rn];W[oo];B[sm];W[rp];B[qp];W[ra];B[rd];W[mh];B[ll]
;W[jl];B[hl];W[hm];B[jm];W[km];B[il];W[im];B[jn];W[in];B[kl]
(;W[kn];B[jk];W[jm];B[mm];W[mn];B[nn];W[nm];B[no];W[ml];B[lm]
;W[lk];B[kk];W[lj];B[nl];W[mi];B[ee];W[fe];B[ff];W[ij];B[ik]
;W[mk];B[mj];W[li];B[qg];W[ii];B[gj];W[gl];B[hk];W[fl];B[ek]
;W[aj];B[ai];W[ak];B[bi]
(;W[bg]C[pointless B simply to strong around that probe, better go for L1]
;B[bf];W[ea];B[da];W[fa];B[db];W[ed];B[de]
(;W[ef]C[play G9 first. From here on out just try to take points rather then try to kill, useing the 30 buy-omi for making trouble is fun but dirty play and has an tendency to backfire... My own experience.

W is leading by 6 points acc score est. right now.];B[df];W[eg]
;B[gk];W[dh];B[ag]C[After this, not even a misstake from B can make B die....]
;W[ch];B[ah];W[di];B[dj]
(;W[ei];B[ls];W[ms];B[ks];W[nr];B[os];W[kp];B[jq];W[ip];B[iq]
;W[io];B[fo];W[fn];B[eo];W[dn];B[ao];W[an];B[ap];W[hr];B[hq]
;W[ns];B[ps];W[sa];B[sb];W[qa];B[oc];W[pc];B[ge];W[hf];B[gd]
;W[gc];B[hc];W[hd];B[id];W[he];B[ic];W[jd];B[jb];W[kb];B[ib]
;W[lc];B[mc]
(;W[mb];B[nb];W[md]C[Did w defend correctly?

Does W really have to defend?
BIG wall at Q14-18 on the right and Powerfull "J" shape on the left, to me any stone B plays in there is free points. If B goes for connection then i start reading otherwise, thank you, thank you :)]
;B[sk];W[rj];B[dq]
(;W[el];B[tt];W[dg];B[fh];W[cg];B[ba];W[tt];B[tt]TW[ga][ha]
[ia][ja][ka][la][ma][na][oa][pa][gb][hb][ib][jb][lb][nb][ob]
[hc][ic][kc][mc][nc][oc][gd][id][kd][ld][nd][od][ge][ie][je]
[ke][le][ne][oe][if][jf][kf][lf][mf][nf][of][ig][jg][kg][lg]
[mg][ng][ih][jh][kh][lh][nh][al][am][fm][bn][gn][hn][jn][nn]
[ko][lo][mo][no][mp][np][mq][mr]TB[aa][ab][bb][ac][bc][cc][sc]
[ad][bd][sd][ae][ce][re][se][ef][rf][sf][bg][cg][dg][eg][rg]
[sg][bh][ch][dh][eh][qh][ci][di][ei][fi][ej][fj][qm][rm][sn]
[ro][so][fp][rp][sp][aq][eq][gq][rq][sq][ar][br][cr][dr][er]
[fr][gr][hr][ir][jr][rr][sr][as][bs][cs][ds][es][fs][gs][hs]
[is][js][qs][rs][ss]C[Intresting game. If W counted more often then he would have noticed that he is leading before the endgame.
A better endgame and W wins.])
(;W[fh]))
(;W[rj];B[ma];W[la]
(;B[ne];W[nf])
(;B[ld];W[md])))
(;W[ks]C[An alternative endgame.];B[js];W[ls];B[jr];W[ip];B[iq]
;W[io];B[fo];W[fn];B[eo];W[sb];B[sc];W[qa]
(;B[os];W[ns];B[ps];W[kp];B[jq];W[ap];B[aq];W[ao];B[sa];W[ba]
;B[ab];W[sb];B[sk];W[rj];B[sa];W[hq];B[hr];W[sb];B[dn];W[am]
;B[sa];W[is];B[ir];W[sb];B[an];W[bn];B[sa];W[gr];B[gq];W[sb]
;B[el];W[sa])
(;B[ao];W[an];B[ap];W[dn];B[kp];W[ko];B[os];W[ns];B[ps];W[sa]
;B[sk];W[rj])))
(;W[gk];B[fj]))
(;W[ks];B[js];W[ip];B[iq];W[ls];B[jq];W[kp]))
(;W[jk];B[ik];W[kn]))
(;W[bo]
(;B[co]LB[ba:3][ea:4][ef:1][pl:2][jm:5]C[5 ok threaths for the ko, personally i think 2 is best. 4 only work if 3 is played. If 3 is ignored then 1 becomes scary.]
;W[bl];B[bn];W[cp];B[ao];W[co];B[bm];W[cm];B[an];W[ck];B[bq]
;W[bi])
(;B[tt];W[tt];B[co]
(;W[pl];B[cp];W[qj];B[ol];W[om];B[pk];W[ql];B[qk];W[pm];B[rk]
;W[rl];B[sk];W[rn];B[ro];W[sn];B[so];W[rm];B[nm];W[nl];B[ok]
;W[nn];B[mm];W[on])
(;W[ba];B[cp];W[ab];B[ol];W[ef];B[ea];W[dg];B[ch];W[cg];B[bg]
;W[dh];B[ci];W[fj];B[fi];W[ei];B[gj];W[ej];B[bn];W[bm];B[ao]
;W[dm];B[el];W[cl];B[bk];W[ck];B[cj];W[fm];B[em];W[en];B[fn]
;W[fo];B[gn];W[dl];B[fl];W[dj];B[ek];W[bl];B[aj];W[go];B[gm]
;W[io];B[ho];W[hp];B[hn];W[gq];B[fp];W[gp];B[ip];W[iq];B[gr]
;W[hr];B[fr];W[jr];B[ks];W[js];B[hs];W[jq];B[kp];W[is]))))
(;W[cq];B[cp];W[dq];B[eq];W[er];B[fq];W[fr];B[gq];W[bp];B[bo]
;W[bq];B[cn];W[jm];B[hn];W[hm];B[gm];W[hl];B[gl];W[in];B[ho]
;W[io];B[ip];W[pl];B[ol];W[om];B[pm];W[ok];B[pk];W[nl];B[ql]
;W[pj];B[qk];W[pi];B[qi];W[nj];B[qj]C[Right now score est. say B+ 4 points.]
))
(;W[ck]
(;B[cm];W[ch];B[dg];W[ei];B[gi];W[el];B[en];W[bm];B[bn];W[bl]
;B[dq])
(;B[ci];W[cn];B[co];W[dn];B[fq];W[ej]LB[hi:A][fm:B]C[Aim to connect with A or/when Black blocks try make life/small territory with B]
)))
(;W[lp];B[lr];W[mr];B[kr];W[mm]))
(;W[pr];B[no];W[kq]C[usually ok, but here it helps B to much.
B problably could cut W of if he really want but the board is to open so there's no point right now.]
;B[jq]LB[mo:D][lq:A][mr:B][qr:C]C[B at "A or B" and W has to start looking at "C" for life last desperate exit is around "D"]
))
(;B[hf]
(;W[if];B[hh];W[ig];B[ih];W[jh];B[ge];W[he];B[fe];W[gd];B[ii]
)
(;W[ge];B[ig];W[hh];B[ih];W[hi];B[ii];W[if];B[hj];W[jf];B[lh]
)
(;W[ig];B[ge];W[he]
(;B[hd];W[if];B[fe];W[gd];B[hc];W[hb];B[ib];W[ic];B[gb];W[id]
;B[ha];W[fa];B[ed];W[jb];B[ea];W[ja];B[ga]
(;W[nj])
(;W[jq];B[mq];W[gq]
(;B[nj];W[qq])
(;B[qq];W[ql];B[qn];W[ol])))
(;B[fe]
(;W[gd];B[if])
(;W[ie];B[gd])))))
(;W[hf];B[hg];W[ig];B[ih];W[jg];B[jp]))
(;W[oc])
(;W[pc]))
(;B[jp];W[ca]
(;B[db];W[ba];B[ab];W[ea];B[da])
(;B[da];W[db];B[ea];W[ab])))
(;W[db];B[ea];W[bb];B[ca];W[bd]
(;B[be];W[da];B[ad]
(;W[bc];B[ac];W[ab];B[ba])
(;W[ac];B[bc]))
(;B[cb];W[bf];B[be];W[ae];B[ce];W[bg];B[cg];W[bh];B[ch];W[bi]
;B[fd];W[gd];B[ge];W[hd];B[he];W[je];B[ci]LB[fh:A]C[W lives but B got points. = No good for W]
)))
(;W[mc];B[cm]))
(;W[db];B[cc];W[ic]C[Better even though B get sente.]))
