(;FF[4]GM[1]SZ[19]ST[0]AP[SGFC:1.17]VW[]

PB[rpablo007]
BR[17k]
HA[0]
PW[TMFG]
WR[9k]
KM[6.5]
DT[2013-01-30]
RE[W+22.5]
RU[Japanese]

C[Reviewed 2013Feb03 by Allan Wickberg, 11k@DGS.
Comments marked "al>"

al> Thanks for giving me the opportunity to train my reviewing skills :)
al> In general, I get the feeling that both players make some moves without actually having decided what the purpose of the move is, for real. Of course, this comes with experience (and I have been known to make goofy moves myself) and evaluating what the board may look like, twenty or fifty moves later. Leaving situations too early, providing obvious weaknesses without compensating the potential loss by the alternate move, also happens more than a few times in this game.
al> I believe that it is not too important to analyze this game too much, apart from the first fifty moves or so, because what happens after that is often a consequence of less optimal moves at the start. So, just keep playing, and it will get better!]
;B[pp];W[dc];B[cp];W[qc];B[ep]C[al> It is always interesting to fast forward 20 or 50 moves or so, and see how the position developed during the game. I would say that black did not utillize the e4 stone in a way that defends placing it there instead of at E3.]
;W[qn];B[jq];W[rp];B[dj]C[al> The q4 stone is a little lonely now, so white can lean on it to outline a good chunk of territory around the lower right corner and side. I believe R3 would be a better move than D10, which seems a line too high and a little to far from the corner stones to really connect. Even D9 feels better, as it does not leave an obvious mid point for white to play at.]
;W[oo];B[nq];W[qq];B[pq];W[pk];B[jc]C[al> Again, I believe black leaves too early. N4, perhaps, or M4 would make it less easy for white to attack the bottom in order to gain influence in the center.]
;W[ce];B[nc]C[al> Four point extensions always leave a nice mid point for the opponent to play at. OR, as in move #30, play inside the group.]
;W[ch];B[ci]C[al> If D10 had been att C10, then D7 would have made a nice anwer to WC12. NOw it is too much open space between black's groups.]
;W[dh];B[qe]C[al> I think black leaves too early again.White has potential territory in the lower right and top left corners, while black has almost nothing. C7 is one move that comes to mind. Also, R15 pushes white towards the black stones at the top, separating the black stones. I would have felt more comfortable with playing G17 to try to outline territory along the top. There is too much gap between the white R17 stone and the Q9 stone for white to cover it with one move, so there will still be open for reduction.]
;W[pd];B[qh];W[qj];B[oh];W[pe];B[qf];W[ne];B[je]C[al> Because of the three point extension, the O4 stone is vulnerable, and N16 would have been a more natural move, I think.]
;W[mc];B[md];W[me];B[ld];W[gc];B[ge];W[mp];B[lq];W[mq];B[mr]
;W[lp];B[kp];W[gq];B[rj]C[[black\]: trying to reduce white's right territory

al> As white has just invaded the bottom, it seems like the wrong priority. If E4 had been at E3, then the lower left corner would have been safer. Now it is still wide open, and white peeks into it. F3 is called for here, I think. Also, the reduction turned out to be the opposite - S11 would have reduced more.]
;W[ri];B[rh];W[rk];B[si];W[sj];B[sh];W[go];B[hp]C[[black\]: attacking white's group

al> The attack feels like it comes from the wrong direction. This will push white towards the open spaces in the corner and along the left side.]
;W[gp];B[hq];W[er];B[mh]C[al> The lower left side and corner are black's last chances of making larger territory. What was the reason to play N12?]
;W[en];B[dn];W[do];B[co];W[cn];B[dm];W[np];B[oq];W[eo];B[dp]
;W[bn];B[dr];W[eq];B[bo]C[al> I fail to see the purpose of B5. D3 seems more urgent.]
;W[dq];B[cq];W[cr];B[br];W[lr];B[ms];W[kq];B[kr];W[jr];B[lq]
;W[ls];B[ks];W[em];B[dl];W[le];B[ke];W[lg];B[mk]C[al> N9 at O9 would look better as the shape would be less open for attack.]
;W[rd];B[re];W[rb];B[fq]C[[black\]: trying to separate white's stones

al> A move at Q5 would have better chances of separating white's stones.]
;W[fr];B[cs];W[ob];B[nb];W[in];B[el];W[ki];B[kg];W[oc];B[nd]
;W[ii];B[gg];W[lh];B[mi];W[ig];B[jg];W[gi];B[qi];W[ih];B[rj]
;W[pi];B[sk];W[ph];B[pg];W[og];B[ng];W[of];B[oi];W[pj];B[nm]
;W[pn];B[pm];W[om];B[ol];W[on];B[pl];W[pr]C[al> white must defend the S9 stone, and the group. The black group at the bottom is safe, so black can now capture the white Q10 group by playing S8.]
;B[or];W[rl]C[al> R8 is the critical point and black can still kill white's group by playing R8, followed by S7 unless white gives up the five stones.]
;B[oj];W[qr];B[ln];W[gl];B[fj];W[fi];B[kk];W[jm];B[ik];W[hr]
;B[ir];W[lj];B[lk];W[ok];B[nk];W[ib];B[jb];W[ie];B[fh]C[[black\]: I didn't realize that h16 will save my two stones while reducing white's territory and played f12 trying hopelessly save my stones

al> H16 would not save the two black stones as far as I can analyze. One variant added. However, there could be some way that black can make life there, by shooting at the gaps, as there is some space.]
;W[hd]C[[black\]: I missed that spot. such a shame...
[black\]: The very beginning of black's defeat!!!];B[qm];W[ja]
;B[ka];W[ei];B[dg]C[[black\]: suicidal act];W[rm]C[[black\]: If Ihad B d13 here, I could capute W s8 and s9 too.

al> yes, so black should think about what the purpose of playing D13 was. Since white is not forced to answer there, black is just giving away points.]
;B[qk];W[kc];B[ia];W[hb];B[de];W[cd];B[ff];W[fd];B[fe];W[eg]
;B[eh];W[df];B[cg];W[bg];B[bh];W[di];B[bf];W[cf];B[ag];W[cj]
;B[bi];W[ck];B[cl];W[bk];B[bl];W[dk];B[ej];W[ak];B[al];W[be]
;B[cg];W[ha];B[gh];W[hg];B[sd];W[li];B[mj];W[ja];B[kb];W[na]
;B[ma];W[gj];B[fk];W[gk];B[fl];W[oa];B[mb];W[il];B[km];W[sc]
;B[se];W[jl];B[jk];W[kl];B[ll];W[fp];B[hj];W[hi];B[ji];W[jh]
;B[jj];W[fm];B[ko];W[io];B[ip];W[ae];B[ek]C[[black\]: I misculated and thought that I could lose the capturing race if I let white play a14 or d13]
;W[es];B[hs];W[gr];B[gs];W[hk];B[ij];W[os];B[ns];W[ps];B[qo]
;W[ro];B[od];W[oe];B[id];W[jf];B[kf];W[lf];B[ic];W[if];B[hc]
;W[fb];B[ia];W[ds];B[cr];W[sl];B[sn]C[[black\]: I tried separate the white's upper group but I forgotten the r8 liberty of the group. So this move didn't have any chance to succeed.

al> As there is nothing that prevents white from connecting at S6, the liberty does not matter.]
;W[ho];B[ql];W[rn];B[jo];W[jn];B[kn];W[sj];B[sb];W[sa];B[sk]
;W[is];B[js];W[sj];B[pc];W[pb];B[sk];W[am];B[bj];W[af];B[bg]
;W[qd];B[mg];W[sj];B[rq];W[sq];B[sk];W[qp];B[po];W[sj];B[op]
C[[black\]: huge mistake! should be at o2. this move crashed the score of the game.
[black\]: The final shoot in black!];W[nr];B[sk];W[lr];B[ls]
;W[sj];B[nq];W[oq];B[sk];W[fs];B[is];W[sj];B[gb];W[ga];B[sk]
;W[dg];B[sj];W[ja];B[nn];W[ia];B[mo];W[no];B[lo];W[kh];B[pf]
;W[gd];B[nf];W[kj];B[mf];W[tt];B[tt])
