(;FF[4]GM[1]SZ[19]ST[2]CA[UTF-8]AP[SGFC:1.17]

GN[st.petersburg tournament]
EV[OGS Minitournament: st.petersburg tournament]
PB[hichan]
BR[21k]
HA[3]
PW[VipassanaMan]
WR[19k]
KM[1]
DT[2012-11-14,2012-12-26]
PC[Online Go.com: http://www.online-go.com]
RE[B+Resign]
RU[Japanese]
GC[Game ID: 385243]

AB[dd][pd][pp]PL[W];W[dp]C[The main theme of this game is: play the big moves. 
To understand fuseki and handicap Go better you can read:

In the beginning - by Ikuro Ishige
Kage's secrect chronicles of Handicap Go - by Toshiro Kageyama (a really good book!)]
;B[fq];W[cn]
(;B[iq];W[eq]
(;B[fr];W[fp]C[Good punishment.];B[lq]
(;W[er]C[This looks unnecessary, there are so many bigger moves on the board... (look at the variations). White is down 3 corners to 1! White must play bold and tactic moves to regain equality while Black attacks her thanks to his advantage.]
;B[qn]C[and again... there's bigger moves around! One must play the big moves, especially during fuseki and yose this makes the difference between life and death.]
;W[gp]C[Perhaps White thinks she's reducing black, but black has 3 corners and one side. She really needs to focus more on developing potential areas where she would like to make territory in the future.]
;B[hr];W[gl]TR[al][bl][cl][dl][el][fl][am][bm][cm][dm][em][fm]
[an][bn][dn][en][fn][ao][bo][co][do][eo][fo][ap][bp][cp][ep]
[aq][bq][cq][dq][ar][br][cr][dr][as][bs][cs][ds]SQ[qo][ro][so]
[qp][rp][sp][pq][qq][rq][sq][ir][jr][kr][lr][mr][nr][or][pr]
[qr][rr][sr][gs][hs][is][js][ks][ls][ms][ns][os][ps][qs][rs]
[ss]C[White is making a moyo? well, ok, but look at how many points you're gaining compared to how many you could get playing one the big moves I showed before.

bottom left: 39 points at most. That's all white has now.
bottom right: 34 points. And it's just one of black's 3 corners!]
;B[cf];W[dj]C[Too loose and too close to your influence area.

Go proverb: play far from your own influence.

Study Haeng-Ma :) (the book I recommended before - "In the beginning" - could offer you some great insights on the topic).]
;B[ek];W[ej];B[fk];W[dk];B[em]
(;W[gn]C[This doesn't accomplish much for White.];B[fj];W[ch]
;B[fm];W[gm];B[fc]C[...nor does this move :) the corner is still open (classic invasion at 3-3) and the side still large.]
;W[nc]C[Well done!];B[qf];W[pb];B[qi];W[kc];B[ic];W[qc];B[qd]
C[Nice joseki :)]
(;W[nd]C[This does nothing really. If White wants to win this game she must play more aggressively (see variations)]
;B[ql];W[ie]C[Bad shape.]
(;B[cm];W[dm];B[dl];W[cl];B[dn];W[bm];B[dm];W[bn];B[jd];W[id]
;B[jc];W[kb];B[ib];W[cc]C[Good timing.];B[cd];W[bc];B[bd];W[dc]
;B[ec];W[eb];B[fb];W[da];B[bb];W[ab];B[ci];W[di];B[bh];W[bi]
;B[bg];W[dg];B[df];W[eg];B[gf]C[Trying to cut out White, very well.]
;W[if];B[kd];W[lc];B[hj];W[gg];B[hg];W[gh];B[hf];W[kg];B[ig]
;W[jf]C[Don't try to save each and every stone. You can sacrifice a little stone for a bigger move :)]
;B[ii];W[le];B[jn]C[Black is getting huge.];W[jl];B[kl];W[jk]
;B[kk];W[kj];B[nk];W[jj];B[km];W[mi];B[oi];W[ng];B[bl];W[ck]
;B[bj];W[ai];B[bk];W[fi];B[cj];W[cg];B[be]
(;W[hh]C[These moves are too little, the only hope for White is to invade at the bottom right.]
;B[ih];W[eh];B[co];W[bo];B[cp];W[bp];B[cq];W[do];B[bq];W[br]
;B[ap];W[cr];B[pc];W[qb];B[nh];W[mh];B[og];W[nf];B[hk];W[qq]
;B[pq];W[qp];B[qo];W[ro];B[rn]
(;W[pr];B[or];W[qr];B[rp];W[rq];B[so];W[rs];B[sr];C[Result: B+R]
N[RESULT])
(;W[rp]C[Don't be afraid of playing this :)];B[qr];W[rr];B[pr]
;W[rs]
(;B[sq];W[sr];B[so];W[rq])
(;B[so];W[sq];B[sn];W[sp])))
(;W[nq]C[Yet, it might be too late now...];B[np]
(;W[pq];B[oq];W[or];B[op];W[pr];B[qq];W[qr];B[rq];W[mr];B[mq]
;W[nr];B[lr];W[rr];B[ms];W[ns];B[sr];W[rs];B[ps])
(;W[qq];B[pq];W[qp];B[pr];W[qr];B[qo];W[ro];B[rn];W[sp]C[Ok, you know this one :) Yet, it takes very little from Black.]
)))
(;B[jd]C[now White is cut.]))
(;W[nq])
(;W[qk]))
(;W[gj];B[gk];W[hk];B[fj];W[fi];B[hj];W[gi];B[hl];W[ik];B[gm]
;W[ii];B[il];W[ij];B[jd];W[qi]C[You see what happens when you're focusing all your energies (stones) on one single group. The group is floating in the center where the moyo was. White still has a corner and could put some stake on the left side. Black has the bottom and big potential on the upper side.]
))
(;W[jc]C[what about here?])
(;W[qj]C[or here? :) or you could approach a corner on the upper side.]
))
(;B[fp]C[This looks honte but you see, due to J3, the black group is compressed. J3 should really be K3.]
))
(;B[dr]C[This is the most common Joseki.];W[cq];B[ip]))
