(;FF[4]GM[1]SZ[19]ST[2]CA[UTF-8]AP[SGFC:1.17]

GN[gtl]
PB[Rewn]
BR[6k]
PW[Ferushen]
WR[5k]
KM[0.5]
DT[2013-01-16]
PC[The KGS Go Server at http://www.gokgs.com/]
RE[B+4.5]
TM[1800]
OT[5x30 byo-yomi]
RU[Japanese]

C[Hello and thank you very much for reviewing my game!

Hallo, 

I see three points of attention:
1. Taking the Q14 stone immediately would have simplified the game for you 
2; Finishing the ko in the upper left was a good decision
3; Cutting of the center white stones in the endgame decided the game

Frank];B[dq]C[I am black];W[pd];B[qp];W[dd];B[co];W[oq];B[kq]
;W[qq];B[rq];W[pp];B[qo];W[qr];B[ql];W[cj];B[qf];W[pf];B[pe]
C[F: Hane on the other side works well together with the black stones below]
;W[qe];B[oe];W[qd];B[pg];W[od]
(;B[ne]C[Should I take immediately?



F: Yes, mucht better, later in the game white gets several moves threatening to run away with his stone.

After taking you get very strond and you don' have to worry about ladders etc.]
;W[rf]C[After this I think taking immediately is way better, but should I take here?



F: Move 1 for white because you did'nt take the stone

Taking is sitll better]
(;B[qg];W[eo]C[F: Mover 2 for whtie because ...]
(;B[gp]LB[fp:a]C[Was this ok? after problems here later I was thinking "A" could be better



F: If A, then the ladder works again; See variation . Taking the stone still would be better.]
;W[nd];B[me]C[F: Not responding here i sno option, otherwise a white move on N15 would be too good. 

This is move 3 for white, because...];W[qi];B[rg];W[ej];B[oi]
LB[on:A]C[Might be too small...how about A?



F: A is ok, expanding the moyo. Invading the upper left side/corner is also an option.]
;W[mq];B[cl]LB[ko:A]C[Immediately regretted this, how is L5?



F: L5 is not the right direction, better on P6, as you suggested yourself]
;W[fc]
(;B[cc]LB[be:A]C[Started a ko here, is B15 the better move?



F: Maybe invading between the corner and C10-E10: see variation]
;W[cd];B[dc]C[F: Immediately B16 is better];W[ec];B[bd];W[be]
;B[bb];W[ad];B[ac];W[bc]
(;B[gn]C[F: really small, but you don't have many threats.  See variations]
;W[ld]C[F: White could finish the ko];B[bd];W[dm];B[cm]C[F; The ko is bigger]
;W[bc];B[dk];W[dj];B[bd];W[ek];B[ae];W[bf];B[hc]C[F: Very deep, see variation on next move]
(;W[jc];B[he];W[id];B[hd];W[jf];B[fe];W[ee];B[hg];W[ih];B[gi]
;W[fg];B[gg];W[fh];B[hi];W[gk];B[ij];W[kp];B[jq];W[jp];B[iq]
;W[pk]
(;B[pj]C[Seems like bad shape, I think if he cuts here it's hard for me....

F: Trying to catch on a bigger scale might be better, but I don't find a good move. See variation]
(;W[pl]C[F: This is very kind of white, R9 would be a lot harder on black]
;B[qk];W[pm];B[qm];W[jk]C[F: Nice move];B[fd];W[ed];B[ff];W[ef]
;B[fi];W[ei];B[hk];W[hl];B[jj];W[kk];B[kj];W[ho];B[go];W[lk]
;B[ok]
(;W[nm]C[F: O8 seems to  be the vital point of this shape. See variation]
;B[nl]
(;W[ml];B[pn];W[om];B[oo];W[dn]C[When white comes back here I get in trouble, I think I should have played E3 or E4 a long time ago...]
(;B[cn]C[F: Defending the bottom is probably bigger. See variation]
;W[eq]
(;B[do]C[This should be at D4?
F: Makes no big difference I think];W[dr];B[cq];W[cr]C[F: This could be dangerous for white. See variation on next mover for an example]
(;B[br];W[dp];B[cp];W[bs];B[aq];W[fn];B[fr];W[fq];B[gq];W[er]
;B[gr];W[ep];B[hm];W[bk];B[bl];W[rr];B[io];W[lq];B[mk];W[mj]
;B[nk];W[lm];B[lj];W[mi];B[md];W[mc];B[lg];W[kg];B[lh];W[no]
;B[ck];W[bj];B[el];W[fl];B[fm];W[em];B[gm];W[dl];B[af];W[ag]
;B[ad];W[bg];B[kf];W[jg];B[ke]
(;W[je];B[kd];W[kc];B[jd];W[ic];B[ie]C[F: Very big!];W[se];B[sg]
;W[hb];B[op];W[np];B[gb];W[ib];B[gc];W[rp];B[ro];W[sq];B[le]
;W[lc];B[sf];W[re];B[il];W[ip];B[hp];W[jo];B[in];W[jn];B[gl]
;W[kr];B[jr];W[lr];B[gj];W[fk];B[fo];W[en];B[eb];W[fb];B[da]
;W[ga]
(;B[ea]C[Should be a D18

F: Both variations 6 points for black];W[ca];B[cb];W[fa];B[ba]
;W[so];B[sn]C[S6 is better here right? dont have too many ko threats

F: Yes, if you don't have ko threats, this is losing points.]
;W[rn];B[qn];W[sm];B[rl];W[jm];B[sl];W[sp];B[ak];W[aj];B[al]
;W[on];B[po];W[pq];B[ks];W[qj];B[rj];W[pi];B[oj];W[oh];B[ri]
;W[ph];B[nh];W[im];B[hn];W[ls];B[js];W[fs];B[gs];W[es];B[jl]
;W[kl];B[ik];W[cs];B[gh];W[eh];B[ar]C[I think B3 is right];W[as]
;B[bp];W[tt];B[tt]TW[ha][ia][ja][ka][la][ma][na][oa][pa][qa]
[ra][sa][jb][kb][lb][mb][nb][ob][pb][qb][rb][sb][nc][oc][pc]
[qc][rc][sc][rd][sd][ce][de][cf][df][cg][dg][eg][ah][bh][ch]
[dh][ai][bi][ci][di][el][ll][km][mm][kn][ln][mn][nn][ko][lo]
[mo][lp][mp][nq][rq][mr][nr][or][pr][sr][ds][ms][ns][os][ps]
[qs][rs][ss]TB[aa][ca][ab][db][bc][gd][ge][je][gf][hf][if][jf]
[lf][mf][nf][of][pf][ig][jg][kg][mg][ng][og][hh][ih][jh][kh]
[mh][oh][ph][qh][rh][sh][ii][ji][ki][li][mi][ni][pi][qi][si]
[hj][mj][nj][qj][sj][rk][sk][hl][am][bm][an][bn][ao][bo][ho]
[ap][bq][hq][hr][ir][hs][is]C[Rewn [6k\]: thanks for the game
Ferushen [5k\]: thank you
Rewn [6k\]: close one])
(;B[db];W[fa]))
(;W[ie]
(;B[kd];W[kc])
(;B[je];W[if];B[kc];W[kd];B[jd];W[ic];B[lc];W[hb];B[gb];W[jb]
;B[le];W[gc];B[mb];W[nc];B[nb]C[F: Better for white, but stll big]
)))
(;B[ep];W[fp];B[dp];W[fq];B[fo];W[en];B[br];W[gr];B[el];W[dl]
;B[ck];W[em];B[fl];W[fm];B[gm]))
(;B[dp]))
(;B[dp];W[cn];B[bn];W[bo];B[bp];W[bm];B[ao];W[bl]))
(;W[mm];B[pn];W[on];B[om])
(;W[om];B[ml];W[lm]))
(;W[nl];B[pn];W[on];B[ol];W[om]))
(;W[qk];B[qj]))
(;B[pl];W[ok];B[nm];W[mk];B[mi];W[ll]))
(;W[he];B[kc];W[lc];B[jd];W[jf]))
(;B[di])
(;B[rr];W[ab];B[np];W[nq];B[lr];W[mr];B[oo]))
(;B[di];W[dj];B[cf];W[bd];B[ef];W[gf];B[fh];W[gj];B[hh]))
(;B[fp];W[of];B[nf];W[og];B[oh];W[ng];B[mg];W[nh];B[ni];W[mh]
;B[lh];W[mi];B[mj];W[li];B[ki];W[lj];B[lk];W[kj];B[jj];W[kk]
;B[kl];W[jk];B[ik];W[jl];B[jm];W[il];B[hl];W[im];B[in];W[hm]
;B[gm];W[hn];B[ho];W[gn];B[fn];W[go];B[fo];W[gp];B[hp];W[gq]
;B[hq];W[gr];B[fq];W[ji]))
(;B[of];W[rg]C[Didn't want to let white in here after giving him such a big corner



F; In he game, white can ruin your side too]))
(;B[of];W[rf];B[rg]C[F: Now you can protect your side];W[eo]
MA[fq][fp]C[And if white plays here, you can defend properly at X (F3 or F4)]
;B[fp]))
