(;FF[4]GM[1]SZ[19]ST[2]CA[UTF-8]AP[SGFC:1.17]

PB[vducky]
BR[2k]
PW[kurusei58]
WR[2k]
KM[6.5]
DT[2013-02-04]
PC[The KGS Go Server at http://www.gokgs.com/]
RE[B+1.5]
TM[1500]
OT[5x30 byo-yomi]
RU[Japanese]

C[Hi. I'm Shane (KGS: smonds3 - 2d-3d) . I'll be reviewing.

In this game, both players missed many opportunities in opening. There were many chances for a player to take advantage and instead he/she helped the opponent. Despite the missed opportunities in opening, the game was decided most in endgame. Both players should pay attention to sente/gote and size of moves in yose more.

Thank you for letting me review the game!];B[po]C[vducky [2k\]: have fun]
;W[dd];B[od];W[dp];B[fq];W[qq]
(;B[pq]LB[oq:A]C[This move seems natural to seal white in, but this contact play is actually incorrect. Playing at "A" is the correct way of sealing white in from this direction.]
(;W[qp]LB[oq:A]C[Whtie should have played A. This is what black is what black wants.]
;B[pp]C[This is very good for B. White has failed to punish the questionable move and has been sealed in. Black's wall is flawless.]
;W[qo];B[qn];W[rn];B[qm];W[jp]
(;B[lp]C[This is 'pushing from thickness'. It is incorrect because it will weaken the approach stone. (see variations for black)]
(;W[kr]LB[lp:A]TR[fq]C[This misses the point. White needs to seize the moment and attack the marked stone to punish the move at A.]
(;B[cq]TR[jp][kr]C[Going into the corner misses the chance to attack the two white stones.]
(;W[cp]LB[dj:A]C[This block is almost never made without a stone already at A or around that area. This direction is normally wrong with an empty side. (see var) 

Also, in this game, letting black link up is slack.];B[dq];W[ep]
(;B[fp];W[eq];B[er]
(;W[fr]C[Cutting here captures the corner, but damages the outside stones. Also capturing the corner is gote.]
;B[gr];W[dr];B[fs];W[cr]C[This is good for B.];B[bq];W[br]LB[jp:A]
C[Black should attack the A stones. It will naturally allow black to move into the center, negating left side potential or building the center group.]
(;B[ck];W[cm];B[cf];W[ci];B[ek];W[ei]
(;B[cc]LB[ef:A];W[cd];B[dc];W[ed];B[bd];W[be];B[bc];W[ce];B[fc]
;W[df]C[This move is a little slow, but black has allowed white to link up potentially weak stones.]
;B[rm];W[ro]
(;B[pi]C[This seems a little too close to the black thickness.]
;W[qd];B[pf]
(;W[rf]C[This move is a little submissive. See variaions.];B[qc]
;W[rc];B[qb];W[rb];B[rg];W[pd];B[oc];W[qf];B[qg];W[pe];B[oe]
;W[pg];B[of];W[em];B[gk];W[gm];B[gi];W[fg]C[This move feels slow by white. Black is no longer under attack so this move is only defensive.]
;B[jj]LB[jd:B][gg:A]C[I would also consider A or B.];W[jm];B[jq]
C[An overplay by black.];W[kq];B[kp];W[iq];B[hq];W[jr];B[hp]
;W[go];B[gp];W[mq];B[mp];W[lm];B[qr];W[rr];B[pr];W[rs];B[ml]
C[This is slightly small. The top area is wider and more open. It is urgent to play there first.]
;W[kk];B[kj];W[lk];B[jd]C[Black is now ahead.];W[jc];B[ic];W[id]
;B[kd];W[hc];B[ib];W[hb];B[hd];W[ie];B[jb];W[gd];B[he];W[hf]
;B[gb];W[ha];B[mk];W[lj];B[li];W[mj];B[kh];W[oj];B[pj];W[nk]
;B[ol];W[nl];B[ni];W[om];B[on];W[pl];B[qk];W[pm];B[pn];W[nn]
;B[no];W[mi];B[mh];W[oi];B[oh];W[sg];B[sh]C[Black cannot hane here. See variation.]
(;W[sf];B[rh];W[nj];B[nh];W[jf];B[kf];W[jg];B[je];W[ge]LB[eb:A]
C[Black needs to defend against A.];B[mn]
(;W[mm];B[fo];W[en];B[eo];W[do];B[bl];W[bm];B[bi];W[bh];B[bj]
;W[fj];B[fk];W[gj];B[hk];W[hi];B[hj];W[hh];B[am];W[an];B[al]
;W[bo];B[mr];W[ip];B[lq];W[lr];B[ls]C[Both players should think about this type endgame more. Are these moves really sente? should they always be answered?]
;W[ks];B[nq];W[ms];B[ns];W[hr];B[hs];W[ir];B[ds];W[aq]C[Needed? This could be white's losing move]
;B[bs];W[is];B[gs];W[bp]C[Not neeeded yet.];B[ch];W[cg];B[dh]
;W[eh];B[bg];W[bf];B[ah]C[Now black is ahead for sure.

End of comments];W[dg];B[di];W[dj];B[cj];W[ej];B[sn];W[so];B[sm]
;W[kg];B[lg];W[kc];B[lc];W[ja];B[kb];W[eb];B[ec];W[fb];B[db]
;W[gc];B[ea];W[ga];B[ab];W[ad];B[ba];W[ia];B[pc];W[sd];B[qa]
;W[ra];B[qs];W[sq];B[ln];W[kn];B[ko];W[ii];B[jk];W[jo];B[hn]
;W[gn];B[hm];W[ka];B[la];W[ji];B[ki];W[cs];B[es];W[pk];B[ql]
;W[jl];B[nm];W[ok];B[fd];W[fe];B[jh];W[ih];B[in];W[dk];B[dl]
;W[dm];B[fn];W[fm];B[jn];W[km];B[il];W[ij];B[ik];W[el];B[cl]
;W[gl];B[ho];W[fa];B[da];W[af];B[ag];W[nn];B[ls];W[nm];B[ms]
;W[tt];B[ac];W[ae];B[tt];W[tt]TW[sa][gb][sb][sc][hd][rd][de]
[ee][he][qe][re][se][cf][ef][ff][gf][if][eg][gg][hg][ig][fh]
[gh][fi][gi][mk][kl][ll][ml][ol][bn][cn][dn][ao][co][ap][rp]
[sp][bq][cq][dq][jq][rq][ar][sr][as][bs][js][ss]TB[aa][ca][ma]
[na][oa][pa][bb][cb][lb][mb][nb][ob][pb][jc][kc][mc][nc][ld]
[md][nd][ke][le][me][ne][lf][mf][nf][mg][ng][og][pg][bh][lh]
[ph][qh][ai][ci][qi][ri][si][aj][qj][rj][sj][ak][bk][rk][sk]
[rl][sl][lo][mo][oo][np][op][gq][mq][oq][fr][nr][or][os][ps]
C[vducky [2k\]: gg])
(;W[eb]
(;B[db];W[ec];B[ba])
(;B[ec];W[fb];B[db];W[gc];B[ba])))
(;W[rh];B[sf];W[qh];B[sg];W[si]))
(;W[oc]LB[nc:A][pd:B]
(;B[nc];W[pc];B[nd];W[rf]C[White's corner is larger than in real game and black is less thick than actual game.]
)
(;B[pd];W[pc];B[qc];W[rc];B[qb];W[rb]
(;B[nc])
(;B[qe];W[rd];B[nc];W[pb];B[ob];W[qa];B[md];W[ne];B[nd]C[Although white gets sealed in. White has sente and black doesn't even have a ko threat in the corner. This is better than actual game also.]
))))
(;B[qe]C[Like this is a nice move for placing dual emphasis on corner and the side thickness.]
))
(;B[ef];W[fc];B[gd]
(;W[fd];B[gf];W[gc];B[hd]
(;W[hc];B[id];W[bd];B[gi])
(;W[bd];B[gi]))
(;W[gc];B[id];W[hd];B[he];W[hc];B[ie];W[gi];B[gk]LB[gi:A][jp:B]
)))
(;B[hp];W[jn];B[ln];W[hn];B[fn]))
(;W[dr];B[cr];W[fr];B[ds];W[fo];B[gr];W[gp]
(;B[gq])
(;B[fs];W[gn];B[ho];W[go])))
(;B[eq];W[fp];B[gq];W[gp];B[cj]C[This third line stone gives black a base opportunity in either direction. See how white is dissatisfied no matter which way he pushes.]
(;W[cl];B[cg]
(;W[gc];B[bd];W[cc])
(;W[ce];B[gc];W[ec];B[jc]LB[cl:A][qp:B]C[Because White is overconcentrated at A and sealed in at B, black is having a better game.]
))
(;W[cg];B[cm]LB[gp:A][gq:B]C[These two black stones are safe. Now the wall at A, is not woth the value at B. In fact, white's wall is almost looking weak with no eyes.]
)))
(;W[dq];B[cp];W[do];B[dr];W[er];B[cr];W[eq];B[cn]TR[jp][kr]
C[If this happens, black has helped white fix his two marked moves into being very good moves.]
))
(;B[fo];W[cn]))
(;W[eq];B[fp];W[dn]TR[jp]C[Attacking like this uses the marked stone]
;B[hp];W[io];B[ho];W[im];B[hn];W[km];B[gl]))
(;B[fo]
(;W[cn];B[jn]LB[pr:A]C[One way to pressure white. White will have to be cramped or attacked. Black A is also sente against the corner, so this is tricky for white. Even if white lives, black will benefit outside.]
)
(;W[mq];B[dn]TR[jp][mq]C[These two stones still aren't setled, and the corner is in jeopardy. Black will have a strong outside position for devloping later.]
)))
(;W[oq]LB[pp:A][pr:B]C[This is tesuji to punish black. Black "A" is only okay move. Playing at "B" would be overplay.]
(;B[pp];W[pr]
(;B[or];W[nr];B[qr];W[os];B[rq]TR[po]C[The original 5-4 move becomes a redundant move. Therefore, this is bad for B. White has sente.]
)
(;B[qr];W[rr];B[or];W[qs];B[nq]TR[po]C[The ladder here doesn't work for B. Even so... with a good lader, the marked 5-4 stone is redundant again, and there is still ladder aji.]
))
(;B[pr];W[pp]LB[op:B][qp:A]C[Neither A or B will work out too well. White will settle on one side or the other.]
(;B[qp];W[op];B[rq];W[qo];B[qr];W[rp];B[qq];W[pn];B[ro];W[oo]
C[Black has bad shape, white is thick.])
(;B[op];W[qp]
(;B[nq])
(;B[qo];W[or]
(;B[qr];W[rr];B[rq];W[rp];B[sr]C[Black can't normally play a multi stage ko. Also, in opening absolutly no way to play a ko.]
;W[sq];B[rs];W[ss])
(;B[ro];W[np];B[oo];W[qr]))))))
(;B[oq]C[The better way to seal white in.];W[qo];B[pn];W[qn]
;B[pm];W[cn];B[jp]LB[kp:B][hq:A][lq:C]C[This seems playable for both. White will look to invade at A,B, or C later. White has real territory and sente. B has developed a thick position]
))
