(;FF[4]GM[1]SZ[19]ST[2]CA[UTF-8]AP[SGFC:1.17]

EV[lorl-Roghar-767869]
PB[Roger Abrahamsson (Roghar)]
BR[2k]
PW[Laurent L (lorl)]
WR[1k]
KM[6.5]
DT[2012-11-02,2013-02-11]
PC[Dragon Go Server: http://www.dragongoserver.net/]
RE[W+10.5]
RU[Japanese]
SO[http://www.dragongoserver.net/game.php?gid=767869]
GC[Game ID: 767869
Game Type: GO (1:1)
Rated: Y

White Start Rating: 1k (-11%) - ELO 1988
Black Start Rating: 2k (-26%) - ELO 1873]

C[forfun (hereafter ff) - First of all thanks for providing an interesting game to analyze. I think that White showed a good feeling for the overall balance in the early going. However, after Black played on tengen, White did not formulate a really effective plan. Luckily for White, the invasion of Black's right-side position turned into a great success that turned the game back in White's favor. From there White protected the lead through to the end. Let's see the details behind all this...]
;B[qd];W[dc];B[pp];W[dp];B[de];W[cg];B[fd]C[this move is quite rare... is it good here ???
(LL)

ff - It is not "bad". It essentially guarantees that Black will make an outward-facing position. Perhaps it shows a little lack of flexibility on Black's part. White can not expect to have some special play that will "punish" Black. White responds calmly and well.]
;W[ce];B[dd];W[cd];B[ec];W[db];B[df];W[cf];B[oc]TR[kd][qj][cn]
[nq]C[what is the correct direction ???
(LL)

ff - It is more a matter of taste than some absolute answer. Since Black has connected at F16, those stones are strong. In some similar positions where Black plays elsewhere instead of connecting, White plays into the top in order to attack the Black upper left. That seems more difficult here. 

The top is not interesting since there are no weak stones, the upper left is open at E18, and Black's P17 is low. 

Playing C6 would be unbalanced and too conservative here because C13 is very strong, but low. The left side is not interesting.

So the question is more or less, appoach the lower right at O3 or invade the right side at R10? Approaching at O3 means building up White's framework instead of reducing Black's. I think that approaching O3 is more positive and interesting in this position.]
;W[nq];B[np];W[mp];B[oq]C[ff - An odd choice since all Black's stones up to now point to the center/upper right side.]
;W[no];B[op]LB[mo:A][nr:B]
(;W[mo]C[I choose a hight move to fight against black'is influence on the right side.
(LL)

ff - This is the right idea here.];B[mq];W[lq];B[nr]
(;W[mr]C[ff - It is a question whether White should play this right now. The typical alternative would be to play the knight's move into the right side. See the variation.]
;B[pn]LB[nm:B][fq:A]
(;W[fq];B[jj]LB[jd:B][qi:A]C[black wants to play a global game : I am weak at such situations... where is the bigger move to play, now ???
(LL)

ff - All early plays around K10 are risky because the opponent immediately has a clear target. The point is not to capture K10 but rather to make it look inefficient. In this situation, playing into the top looks more risky than the right side. The White stones at N5 are strong and close by.]
(;W[qi]C[it's my choice, but I do not know if it is good !?
(LL)

ff - I agree on the direction, maybe not on the actual play. See the variations...]
(;B[qk]
(;W[qf]C[ff - White plays very close to Black's strong stones. I think White would have been in more difficulty here if Black had reacted differently. Perhaps White should have played out first and only settled the stones later. See the variations.]
(;B[jd]C[ff - This is a mistake in direction in my opinion. Black misses the chance to press White down on the right side...]
(;W[of];B[ne]LB[nf:B][oh:A]
(;W[oh]C[ff - This seems too conservative. White has not come out well here. The White group threatens little. In particular, the four stones that White has played do nothing to cut off K10 and have little future potential. 

There were many alternatives here, essentially all more energetic than this. In my opinion, this quiet move is perhaps the one that White should regret the most in this game.]
;B[cm]TR[cj][dm][dn][en][co]C[how should I answer this move ???
(LL)

ff - Unusual choice by Black. But White does have a problem. We should always be looking for dual-purpose moves. In this case the obvious second target would be the stone on K10. However, it is not at all weak.]
(;W[dm];B[cn];W[dn];B[bp];W[cq]
(;B[eb]C[ff - Black turns away from the main arena again (previously at K16). This timing is not good.]
;W[ea];B[fa];W[da];B[gb]TR[lg][eh][jh][cj][jl]C[here too, I have a problem finding the good direction :-(
(LL)

ff - See comments in the variations. I think I would pick K8 here.]
(;W[lg]C[ff - This move is conservative. It does not really threaten the top because the top is too strong. At the same time it is not really threaening K10. I think K8 was a more reasonable choice.]
(;B[mg]C[ff - Black plays to protect the top, but the top is stronger than the center. This seems like a mistake in direction by Black.]
;W[mh];B[mf];W[li];B[jm];W[jo];B[jg]
(;W[cj]C[ff - The simple play at C8 is more severe I think.]
;B[ck];W[dj];B[dk]
(;W[eh]C[ff - There is no comment included on this play so it is difficult to understand what White was thinking. Both the general direction and the shape of this play are strange. White turns away from Black's weak stones in order make a move near Black's strong stones. This can not be helpful for White.]
(;B[el]C[ff - An odd and weak shape.];W[kf]
(;B[ke]C[ff - Protecting a few points on the side by allowing major weaknesses in the center.]
;W[jf];B[in];W[io];B[hn]
(;W[fj]C[ff - Doesn't E12 look strange now?];B[gk]C[ff - Basically this last exchange forced Black to strengthen the center position without gaining anything special for White.]
;W[if];B[gp];W[gq];B[hp];W[iq]C[ff - Very painful];B[he];W[re]
;B[rd];W[sd];B[sc];W[se];B[rc]LB[ql:B][qm:A]C[black is ahead. so white have to find a reducing move.
(LL)

ff - Black has lost some in the last few moves. But this is partly offset by Black's structure in the center. White has become strong in sente with S15 etc. Invading looks interesting now. The only alternative would be trying to play against the center, but that does not look easy.]
(;W[qm]
(;B[pl];W[rp]C[trying to fing some 'aji' !!!
(LL)

ff - Nice idea!]
(;B[qq]C[ff - Black decides Q8 was a mistake! But it is too late for that. Black suffers a huge loss. See the variations...]
;W[pm]
(;B[om];W[qn];B[qo];W[on];B[po];W[ol];B[nm]LB[rk:A][ql:B]
(;W[rk]
(;B[rj];W[rl]LB[qj:B][ro:A];B[ro]C[- Roghar : This was not a good outcome for me. :-)

the last sequence was really good for white, so the game is still open !
(LL)

ff - White is clearly ahead after this gain. The game seems over after this.]
;W[nl];B[mm];W[ml];B[lm];W[pk];B[lk];W[mj];B[mk];W[nk];B[ll]
;W[bq]
(;B[kp];W[lp]
(;B[ko];W[jq];B[bk];W[bj];B[hq];W[hr];B[aj];W[ai];B[ak];W[bh]
;B[eo];W[do];B[ep];W[eq];B[en];W[fp];B[gn];W[em];B[fm];W[gj]
;B[hk]TR[gg][jh][ii][kn][bo][go][kq][lr]C[the game is close, but white has no "real sente" move.
what to play now ???
(LL)

ff - It seems to me that White is ahead after the invasion of the right.]
(;W[kn];B[ln];W[jn];B[lo];W[km];B[kl];W[nq];B[nj];W[ql];B[mq]
;W[lr];B[kq];W[kr];B[gg];W[rn];B[so];W[bo];B[co];W[cp];B[bn]
;W[ap];B[qe];W[rg];B[lj];W[mi];B[ng];W[og];B[pe]TR[lf][fg][dl]
[fl][fo]C[the game is still very close : white must find a "sente" move...
(LL)

ff - White just plays normal endgame from here. White gains a couple of points from Black's miss at G13, but without that it looks like White wins by 6~8 poins. It was impossible for Black to recover from the loss on the left.]
(;W[lf];B[le];W[ie];B[id];W[dl];B[ek];W[cl];B[bl];W[an];B[bm]
;W[fg];B[ff];W[gh];B[eg];W[fh];B[dg];W[dh];B[hg]
(;W[hh];B[nh];W[ni];B[pf];W[pg]
(;B[ej];W[ei];B[hj];W[ig]LB[hf:B][jh:A]
(;B[jh];W[gf]LB[ge:A][hf:B]
(;B[ge];W[hf];B[hi];W[ki];B[ji];W[nf];B[me];W[fo];B[fn];W[oe]
;B[od];W[fk];B[gi];W[fi];B[fl];W[kj];B[kk];W[ns];B[os];W[ms]
;B[am];W[ao];B[sn];W[sm];B[ih];W[kh];B[nq];W[jp];B[jl];W[tt]
C[White wins by 10,5])
(;B[hf];W[ge];B[hd];W[fe];B[ed];W[ef]C[even better for white.
(LL)]))
(;B[hf];W[jh]C[also good for white
(LL)]))
(;B[ig];W[hf];B[gf];W[fk];B[fl];W[fo];B[fn];W[hj]C[ff - White still safely ahead I think.]
))
(;W[ig];B[jh]
(;W[hh];B[hf])
(;W[hf];B[gf];W[hh];B[ge])))
(;W[fl];B[fk];W[dl];B[ek];W[cl];B[bl];W[an];B[bm]C[(LL)])
(;W[fo];B[fn]C[(LL)])
(;W[dl];B[ek];W[cl];B[bl];W[an];B[bm];W[ej]C[(LL)])
(;W[fg];B[ff];W[gh];B[hg];W[hh];B[ig];W[dl];B[ek];W[cl];B[bl]
;W[an];B[bm];W[hj]C[(LL)]))
(;W[lr];B[bo]C[(LL)])
(;W[bo];B[lr];W[kr];B[ms];W[kq];B[kn]C[(LL)])
(;W[ii];B[ji];W[ih];B[jh];W[ij];B[ik]C[(LL)])
(;W[kq]
(;B[jn];W[lr]C[(LL)];B[co])
(;B[lr];W[nq];B[cc];W[cb];B[mq];W[kn];B[ms];W[bo]))
(;W[jh];B[ig];W[hf];B[ih];W[ji];B[ii]C[(LL)])
(;W[go];B[ho];W[fo];B[fn]C[(LL)])
(;W[gg];B[lr];W[kr];B[ms];W[kq]C[(LL)]))
(;B[ip]C[ff - How would White have answered this instead?]
(;W[jp];B[hq]
(;W[ho];B[go];W[gn];B[jq];W[ko];B[fn];W[gm];B[fm];W[fo];B[fp]
;W[eo];B[ir];W[hl];B[gl];W[hm];B[hk])
(;W[hr];B[ir]
(;W[jq];B[gr];W[ho];B[go];W[gn];B[fn];W[gm];B[hs];W[fm];B[eq]
;W[fp];B[fo];W[ep];B[em]
(;W[en];B[hm];W[ko])
(;W[hl];B[gl];W[hm];B[hk];W[en];B[fl]))
(;W[gr];B[jq];W[ho];B[go])))
(;W[jq]C[ff - Forced?];B[jp]
(;W[ko];B[kr];W[kq];B[lr];W[ho];B[go];W[gn];B[fn];W[gm];B[fm]
;W[fo];B[fp];W[eo];B[gl];W[ep];B[hm];W[hq];B[gn];W[bk];B[bl]
;W[bj];B[ek])
(;W[lr];B[ko]))))
(;B[lr]C[ff - This seems like the last chance to complicate matters. But if White just lets Black have the stone and connects...]
;W[kr];B[ms];W[kq]C[ff - White is safely ahead?]))
(;B[rl];W[ql];B[pk];W[rm]))
(;W[ql];B[pk];W[rk];B[rj];W[rm];B[qj];W[ro]C[analysis
(LL)]))
(;B[qn];W[om];B[rm];W[rl];B[rn];W[ql];B[bq]))
(;B[qo]C[ff - The question is how would this have come out...]
;W[pm];B[om];W[rm];B[ro];W[rk];B[qj];W[rj];B[pi];W[qh];B[on]
;W[ol];B[nl];W[ok];B[nj];W[nk];B[mk];W[ml];B[oj];W[nm];B[pk]
;W[nl];B[mj];W[ql];B[pj];W[ll];B[ng];W[nh];B[kk];W[ki];B[lk]
;W[og];B[nn];W[mn];B[bk])
(;B[pm]C[ff - Or this...];W[qq]
(;B[pr];W[rn]
(;B[rl];W[qr]
(;B[so];W[sp];B[sn];W[rr])
(;B[rr];W[rs];B[sr];W[rm]
(;B[qj];W[ri]
(;B[ro];W[qo];B[qp];W[so];B[rq])
(;B[qp]
(;W[ro];B[rq])
(;W[rq];B[ro];W[qo]
(;B[so];W[qn];B[sm];W[sn])
(;B[qn];W[so];B[sq];W[sm]))))
(;B[sm];W[so];B[sq];W[qo];B[qp];W[qn])))
(;B[ri];W[rj]
(;B[rk];W[rh];B[rr];W[rl];B[sk])
(;B[qj];W[rh];B[rk];W[si];B[sm];W[sn];B[rr];W[rl];B[sl];W[sk]
;B[sj]))
(;B[rr];W[rl];B[rk];W[sm];B[qn];W[ql]
(;B[ri];W[rh])
(;B[pi];W[ph];B[qh];W[pj];B[sk];W[sl])))
(;B[ro]
(;W[qo];B[rn]
(;W[qn]
(;B[rm]
(;W[qp];B[pr])
(;W[pr];B[qp];W[rr];B[sp];W[rq];B[lr];W[nq];B[ri];W[mq];B[or]
;W[qs];B[qh];W[pi];B[rg]))
(;B[qp]
(;W[rr];B[sp];W[rq];B[rm];W[pr];B[qs];W[ps]
(;B[rs])
(;B[sq];W[sr];B[rs];W[so];B[sp];W[or]
(;B[ns];W[nq];B[cc];W[cb];B[mq])
(;B[lr];W[nq];B[cc];W[cb];B[mq])))
(;W[rm];B[rq];W[rk];B[qj];W[rj];B[pi];W[ph];B[po];W[sn];B[sp]
;W[ql];B[ri];W[qh];B[pj];W[bk];B[bl];W[bj];B[fk];W[ej];B[dl]
;W[bq];B[co];W[fn];B[gn];W[fm]
(;B[gj])
(;B[lr];W[kr];B[ms];W[kp];B[ip]
(;W[jp])
(;W[jq];B[qe];W[rg];B[fp];W[ep];B[aq];W[ar];B[ap];W[br];B[fg]
;W[lf];B[le];W[oe];B[od];W[eg];B[ef];W[hf];B[gf];W[ie];B[id]
;W[jh];B[ig];W[ge];B[hd];W[gg];B[ff];W[ih];B[gh];W[hg];B[ng]
;W[oi];B[og];W[pg];B[pd];W[oj];B[pk];W[lk])))))
(;W[qp];B[qn];W[pr];B[lr]))
(;W[rn];B[qo];W[pr];B[sp];W[sq];B[so];W[rr];B[qp];W[rq];B[rj]
;W[ri];B[si];W[sh];B[sj];W[rg];B[lr]))))
(;B[pm]C[ff - This looks necessary, but probably good enough for Black.]
;W[ql];B[pl];W[rk];B[pk];W[rm];B[ro]
(;W[bq];B[bk];W[bj];B[aj];W[ai];B[ak];W[bi];B[lr]C[ff - It looks hard for White to win this ko, which is quite large. Black seems comfortably ahead.]
)
(;W[bk];B[bl];W[bj];B[co];W[fn];B[gn]
(;W[fm];B[fk]
(;W[gj];B[hj];W[hi];B[ij])
(;W[ej];B[dl];W[bq]))
(;W[dl];B[cl];W[ek];B[fk];W[ej];B[do];W[eo];B[fm];W[en];B[bq]
;W[br];B[cp];W[dq];B[ar];W[bs];B[bn]))))
(;W[ql];B[pl];W[pk];B[qm]
(;W[qj];B[rl]C[too good for black
(LL)])
(;W[rl]C[ff - Extend one and then sacrifice...];B[rk];W[ol]
;B[pm];W[qj];B[ok];W[pj];B[rm];W[rj];B[sl];W[bq])))
(;W[dl];B[ek];W[cl];B[bl];W[bm];B[bn];W[bk];B[am];W[bj];B[ml]
;W[ol]))
(;B[jf]
(;W[ke];B[kd])
(;W[ld];B[ke])))
(;B[ek]C[ff - Should be instant.]))
(;W[ek]C[ff - Hane at the head of two stones. This should be automatic. The only other possible idea is the other hane at B9. But here the action is in the center.]
;B[bj];W[bi];B[bk];W[jh]C[ff - Go for it!]))
(;W[cl];B[bl];W[bk];B[ck];W[dl];B[am];W[co];B[bo];W[bn];B[bm]
;W[bj];B[bq];W[br];B[cp];W[dq];B[do];W[eo];B[ar];W[bs];B[aq]
(;W[jh]C[ff - Aggressive approach...])
(;W[eh]C[ff - A more conservative approach...])))
(;B[jm];W[jo];B[jg]C[ff - Like the game but without settling the weakness at N13.]
(;W[kf];B[le];W[jf];B[mg];W[mh];B[ng];W[nh];B[lh])
(;W[le];B[mf];W[lf];B[mg])))
(;W[jl]C[ff - I think this makes the most sense right now. White needs to think positive and prepare to build rather than just destroy. White's result is not desparate here.]
;B[mg]C[analysis
(LL)

ff - Regardless of What Black plays here, the gaps around the K10 stone can not be fully closed. Meanwhile, the left side is waiting...]
;W[cl]C[ff - I think that White needs to take the time to hane here. Black left these stones barely alive. White should use that to build thickness.]
;B[bl];W[bk]
(;B[ck];W[dl];B[bj];W[bm];B[ak];W[bn];B[co];W[bo];B[cp];W[bq]
)
(;B[am];W[dl]
(;B[bn]
(;W[eh]C[ff - This is sort of a fundamental position. White is still in the game, IMHO.]
)
(;W[jh]C[ff - If White evaluates that E12 is not enough, then something like this becomes necessary. But still White has built thickness and territory in the mean time.]
(;B[li];W[ij])
(;B[hj];W[hh])))
(;B[bq];W[co];B[bo];W[bn];B[bm];W[br]
(;B[cp];W[dq];B[ar];W[bs];B[do];W[eo];B[aq];W[eh])
(;B[an]
(;W[jh])
(;W[eh])))
(;B[hj];W[co];B[bo];W[bn];B[bm];W[bq])
(;B[co];W[bn];B[bo];W[bq])))
(;W[eh]C[ff - Too early for this. It is not a forcing move and does not build enough on its own. Black can manage around it.]
(;B[cj]C[analysis
(LL)]
(;W[jh])
(;W[jl]))
(;B[jm]C[ff - This looks like sente. If it is, White will have difficulty contesting the game on any basis.]
;W[jo]
(;B[mg])
(;B[cl]C[ff - If Black gets in this move, E12 loses half its meaning, so I think the timing is wrong here.]
)))
(;W[jh]C[ff - Attacks Black weakness. If nothing else offers a chance, something like this may be necessary.  However, it looks like White is over-extended.]
;B[jm]C[analysis
(LL)

ff - Yes, Black destroys White's potential area while seeking life.]
;W[jo];B[gj]C[ff - The unsupported K12 stone has difficulty making a credible threat. White has not prepared the ground for this type of attack. The play around R11 was too conservative and K12 immediately was too direct.]
)
(;W[cj]C[ff - This seems too tame, being so close to C13.]
(;B[jm]C[analysis
(LL)]
(;W[cl]C[ff - The left looks dead. But is it enough to win?]
(;B[kp];W[nq];B[bl]C[ff - Lots of ko threats!])
(;B[kq]
(;W[lr];B[kp];W[lp];B[iq])
(;W[kp];B[lr];W[nq];B[bl])
(;W[kr];B[lp];W[nq];B[bl];W[bk];B[mq];W[lr];B[kp];W[nq];B[bq]
;W[br];B[mq];W[jq];B[nq];W[jp];B[ko];W[jo];B[kn];W[ok];B[om]
;W[nl];B[nm];W[im];B[il];W[jn];B[km];W[hl])))
(;W[jo];B[ck]))
(;B[ck];W[dk];B[cl];W[dj];B[bq];W[jl];B[mg])
(;B[cl];W[jl]
(;B[mg];W[eh];B[hj];W[hl];B[mj];W[ml];B[oj])
(;B[eh])
(;B[gj]))))
(;B[cl];W[dl];B[jm];W[jo]
(;B[eh])
(;B[mg])))
(;W[dn]
(;B[dm]
(;W[em];B[el];W[fm];B[dk]C[analysis
(LL)];W[eh]C[ff - Seems necessary to stay in the game.];B[jm]
;W[jo];B[bo];W[cp];B[ci];W[dg];B[eb]C[ff - Good enough for Black?]
)
(;W[cn];B[em];W[eh];B[jm];W[jo];B[hn];W[hp];B[fi]))
(;B[bo]C[ff - Slide first?  The area in front of C13 is not really interesting.]
;W[cp];B[bp];W[bq];B[br];W[aq];B[dm]C[ff - But back to essentially the same variation as here immediately.]
;W[em];B[el]))
(;W[co]C[ff - This is the most natural IMHO. Black has offered the corner to White with the distant play at C7. Why shouldn't White accept?]
;B[em]C[analysis
(LL)]
(;W[eh])
(;W[gm]
(;B[fn];W[gn];B[fo];W[fk]C[ff - Attack rather than defend?]
)
(;B[fl];W[hk]C[ff - Split the Black positions?])
(;B[dj];W[gj]))
(;W[hk]))
(;W[cj]C[ff - This looks way too tight.]
(;B[em]C[analysis
(LL)];W[gm])
(;B[cp])
(;B[bp]))
(;W[en];B[dj]C[analysis
(LL)])
(;W[em];B[cj]
(;W[jm];B[bp])
(;W[co];B[jm];W[ej])))
(;W[nf]C[ff - Heavy.];B[me]
(;W[oj]C[white lives, but the upper side is definitively for black.
(LL)])
(;W[eh]C[ff - Does White die on the right?];B[oj];W[rd]C[ff - White still has S9 and P11 in reserve.]
))
(;W[mj]C[ff - Stretch out to here in order to put some pressure on the Black center stone? This stone is much looser than the game, but it has a second purpose that should prove helpful in countering any Black invasion of the left side.]
)
(;W[mg]C[ff - At least this? In the game White plays twice (P12 and M13) in order to get only slightly further than this.]
)
(;W[oj]C[ff - Or this.]))
(;W[oi]
(;B[ok];W[oe]C[ff - Better than in the game?])
(;B[of];W[mj]C[ff - Pressure the K10 stone and look for a chance to play behind P14, e.g. N14 later?]
)))
(;B[ph];W[qh];B[pf];W[pg];B[og];W[qg];B[of];W[oh];B[nh];W[oi]
;B[pj];W[pi];B[jm];W[jo];B[eh];W[co];B[el]))
(;W[oi]
(;B[qg];W[lj])
(;B[ok];W[mi];B[mk];W[km]C[ff - Threatening to cut through, but also protecting against the all out cut at M4.]
;B[lj];W[qe];B[pe];W[qf];B[rd];W[pf];B[oe];W[eh]C[ff - White has  a reasonable postion.]
)))
(;B[oi];W[ql]
(;B[qm];W[pl];B[om];W[qg];B[ph];W[qh];B[eh];W[co]
(;B[ek])
(;B[of]))
(;B[ol];W[qf];B[of];W[rn];B[eh])))
(;W[jd]C[is it possible to invade somewhere at the top ???
(LL)

ff - It is quite possible. The top is still wide open. However, the Black stones on either side are relatively strong.]
;B[jf];W[hd];B[gf];W[ld];B[mf]C[ff - The main risk is not that White dies but rather that Black builds a framework while confining White to the top.]
)
(;W[pi]C[ff - I think I would be tempted to play high. The reason is that Black would like to press any White position down in order to build a center framework. The high stone makes that less likely.]
(;B[qk]
(;W[pk];B[pl];W[ok];B[qj];W[nh])
(;W[lj]))
(;B[pk];W[ni];B[nk];W[qf])))
(;W[nm]C[ff - This is overconcentrated];B[pk]C[too easy for black.
(LL)])
(;W[ml]C[ff - There are a few pro games where White plays something like this, more aggressive.]
;B[pk];W[dn];B[eh];W[oj];B[ok];W[mj]))
(;W[pn];B[lr]
(;W[qi]
(;B[kq];W[qf];B[lp];W[oe]C[ff - Do Black's positions make any sense?]
)
(;B[qg]
(;W[kq])
(;W[oh];B[kq];W[fq])))
(;W[kq]C[ff - Since White can not claim to have made the bottom into territory yet, being pushed from behind by Black's second-line stones is not a bad thing at all. Black adds one point per stone from now on. White needs very little compensation to preserve that as an excellent exchange.]
)))
(;W[nr]C[ff - Although this is a very common line of play, I think it is the wrong direction here. The center is much more important right now than the bottom.]
;B[mo]C[allow black to develop his influence !?
(LL)])
(;W[mm]C[ff - Something even lighter might be interesting as well.]
;B[pm];W[eh]))
