(;FF[4]GM[1]SZ[19]ST[2]CA[utf-8]AP[SGFC:1.16]

PB[Apples]
BR[1k]
PW[Vagabond]
WR[?]
KM[6.5]
DT[2013-02-24]
PC[GoShrine - http://goshrine.com]
RE[B+Time]
TM[1800]
OT[5x30 byo-yomi]
RU[Japanese]

C[Hi, reviewer!

I'm black in this game. But since w is better player I'd like you to explain his moves too from time to time. ^^

I have left some comments in the places I thought were most difficult for me to understand. Sometimes playing with stronger players I feel like all is great, but then at some point something happens and it turns not as good. Should I protect things more or is my reading thats needs improvement? If you can answer that after looking at game, then please do. If no, no problem.

And thanks for being so nice and reviewing. :)];B[pd];W[dp]
;B[dd];W[pp];B[cn];W[fq]C[[A side question: I also played the same guy later and I played b4 as next move instead d10. Then w played c8. What is black supposed to do in that situation?\]

[Nexik\] Go to san san]
(;B[dj];W[fc];B[hc];W[cc];B[cd];W[dc];B[ed];W[fb];B[fd]C[Here I wanted stronger wall, so there wouldnt be much aji and w couldn't invade later on at d13 or something.]
;W[bc]C[This was unexpected, protecting seemed like putting too many stones there with d10 being not optimal extension anymore, but I wonder...

[Nexik\] Yes, this move looks not so good]
(;B[qj]C[[Nexik\] Good direction but 4th line would be better]
;W[nc]
(;B[qf]C[[Nexik\]  Not so good];W[kc];B[oc];W[ob];B[pb];W[od]
;B[pc];W[gd]C[This was a bit sad for me, but I knew I couldnt have it all.

[Nexik\] You should fight like a hell or you influence will be meaningless]
;B[ge];W[hd]LB[id:A][jc:B]C[[Nexik\] Later you can play some sort of sabaki]

(;B[he]C[[Nexik\]  This push only help white];W[id];B[nq];W[qm]

(;B[qo]C[It looked good when I thought about this move, but when i played it didn't. Maybe it's too early?

[Nexik\] Not only too early but also wrong point];W[po];B[qn]
;W[pn];B[rm];W[qp];B[ql];W[pm]
(;B[rn]C[[Nexik\] First too small, second wrong place];W[pl]
C[[Nexik\] White big mistake];B[kq];W[qk];B[rl];W[rk];B[pk]
;W[rj];B[qi];W[ri]
(;B[rp];W[pj];B[ok];W[qh]
(;B[rr]C[I'm not sure about this one, here I was trying to kill all w stones somehow or at least steal base. But it doesn't look as big as I would have liked.

[Nexik\] Big mistake]
(;W[qr]C[[Nexik\] Another mistake];B[nm];W[rq];B[sq];W[qq]C[Now I'm definitely trying to kill. :p]
;B[so];W[np]C[...w lived.

[Nexik\] Not yet :)]
(;B[mp];W[mo];B[no];W[nn];B[op];W[oo];B[mn];W[np]
(;B[pi]C[[Nexik\] This ko threat is small];W[no];B[ph];W[qg]
;B[pg];W[rf];B[re];W[qe];B[pf];W[rg];B[rd];W[sh]
(;B[mq]C[What would be better move than this?];W[iq]C[[Nexik\] Small]
;B[cq];W[cp];B[bp];W[dq]C[is d3 the best move or b5?

[Nexik\] D3 is solid. B5 looks like overplay];B[br];W[cr];B[bq]
;W[lp];B[kp];W[lo]
(;B[jr]C[I dont like how that small b group looks but I didn't know what to do.]
;W[io];B[ir];W[hr];B[hq];W[hp];B[lr];W[cl]C[This stumped me too, I felt like if at the beginning I was doing very good, but by now w was somehow counterattacking me. What am I to do now?]
;B[bj];W[dn];B[co];W[do]
(;B[er]C[Misread, I thougth I will get aji from h3 but I forgot he made bigger wall already with d5 and d6.

[Nexik\] Big mistake];W[dr];B[gj];W[cm];B[bm];W[bl];B[bn];W[be]
C[:<];B[bd];W[ad];B[el]C[I tried to counterattack, since I needed points.]
;W[em];B[dl];W[dm];B[nd];W[mc]
(;B[mf]C[[Nexik\] Nothing];W[jf];B[cf];W[bg];B[bf];W[af];B[ce]
;W[ae];B[jg]C[I dont think k13 is right move, what would be better?]
;W[if]
(;B[kg];W[nl];B[mk];W[kk]C[What to do here now? (And during next 10-20 moves. :p)]

(;B[ml];W[km];B[jn];W[ko];B[jo];W[jp];B[jq];W[ip]
(;B[gl];W[jm];B[gn];W[hm];B[gm];W[ol];B[nk];W[cg];B[dg];W[ci]
;B[dh];W[cj];B[ch];W[di];B[bi];W[dk]
(;B[ei];W[ej];B[fi];W[hg]
(;B[gg];W[lj];B[mi];W[gh];B[fg];W[fj];B[fk];W[ek];B[gi];W[fl]
;B[gk];W[bs];B[ao];W[na];B[hn];W[in];B[ln];W[kn];B[kf];W[ih]
C[Maybe here the last chance to do anything? If I just could steal some points or kill him somewhere, or defend in sente...]
;B[kd];W[ld];B[ke];W[ne];B[ie];W[jd];B[je];W[ji];B[ij];W[li]
;B[ii];W[jh];B[lh];W[jj];B[il];W[im];B[gr];W[gq];B[hs];W[fr]
;B[hq]C[Now its kinda over but we do fight till the very end, we even have a small ko! \o/]
;W[ll];B[mm];W[hr];B[gc];W[jc];B[hq];W[mj];B[nj];W[hr];B[ec]
;W[eb];B[hq];W[rs];B[sr];W[hr];B[ah];W[ag];B[hq];W[ac];B[bh]
;W[hr];B[db];W[cb];B[hq];W[kh];B[mh];W[hr];B[pa];W[md];B[hq]
;W[pe];B[of];W[oe];B[qd];W[hr];B[jl];W[kl];B[hq];W[hl];B[fs]
;W[hr];B[gs];W[is];B[hq];W[rb];B[rc];W[hr];B[js];W[or];B[nr]
;W[ik];B[oq];W[se];B[qb];W[eq];B[es];W[ds];B[hq];W[sl];B[sm]
;W[hr];B[is];W[pr];B[bk];W[ak];B[ck];W[dj];B[fm];W[el];B[ig]
;W[hf];B[gf];W[hh];B[fo];W[nf];B[ng];W[me];B[le];W[fh];B[eh]
;W[lq];B[ns];W[sk];B[sd];W[sf];B[oa];W[nb];B[aj];W[al];B[am]
;W[os];B[qs];W[ps];B[om];W[ar];B[aq];W[hq];B[as];W[cs];B[fp]
;W[ar];B[gp];W[ho];B[as];W[mg];B[lg];W[ar];B[hi];W[hk];B[as]
;W[ra];B[sb];W[ar];B[sp];W[as];B[ss];W[qs];B[ls];W[pq];B[tt]
)
(;B[kj]C[[Nexik\] If you cant kill you play tenuki in yose]
))
(;B[fi]C[[Nexik\] Best local move]))
(;B[gm]C[[Nexik\] Better];W[jm];B[gq]LB[gp:A][gr:B]C[[Nexik\] Probe]

(;W[gp]LB[gr:A]C[[Nexik\] Good yose at A for black])
(;W[gr];B[in]
(;W[gp];B[im];W[lm];B[kj];W[jj];B[ki])
(;W[hn];B[gp];W[ho];B[hm]
(;W[go];B[im];W[lm])
(;W[im];B[gn];W[kn];B[go];W[eq];B[fo];W[es])))))
(;B[km]C[[Nesik\] This looks good];W[ll];B[kj];W[jj];B[ki]))
(;B[kf]LB[ke:A]C[[Nexik\] Now A is sente];W[nl];B[ke]
(;W[nk];B[ie];W[je];B[jd])
(;W[jd];B[nk];W[ml];B[mk];W[ll];B[kk])))
(;B[cf]))
(;B[dm]))
(;B[ip];W[hp];B[io];W[lq];B[lr]
(;W[kr]C[[Nexik\] This is wrong];B[jr];W[mr];B[ks];W[nr];B[gp]
;W[hq];B[ho])
(;W[mr];B[nr];W[kr];B[ms];W[jr];B[os]C[black is alive];W[rs]
;B[pr];W[sr];B[sp])))
(;B[bd]C[[Nexik\] This look big enough]))
(;B[ec]
(;W[no];B[eb]LB[gc:A]C[[Nexik\] A next is very big.])
(;W[eb]C[[Nexik\]  White must answer];B[no];W[rs];B[on];W[sr]
;B[sp];W[pi];B[fn]C[[Nexik\] Looks better fo B])))
(;B[oq]C[[Nexik\] Killing white group is more or less impossible but black should back to the game by attacking this group]
))
(;W[pi]TR[pk][ok]C[white will live because black two stone are weak]
))
(;B[pi]))
(;B[qh]C[[Nexik\] Better];W[rp];B[rh]))
(;B[ro]C[[Nexik\] much better]))
(;B[ro]C[[Nexik\] This is better aji];W[qo];B[rn];W[rp];B[rm]
LB[qq:A][rq:B][oo:C]C[[Nexik\] There is a lot of forcing good moves for black]
))
(;B[qn];W[he];B[gf]C[[Nexik\] This exchange is good for black]
))
(;B[oc]C[[Nexik\] Now you are one move ahead]))
(;B[pj]))
(;B[bp];W[cl]C[Like this, now what?];B[cq];W[co];B[bo];W[dn]
;B[dm];W[cm];B[bn]
(;W[em];B[jd];W[dj];B[qn]C[[Nexik\] Black looks very good])
(;W[en]C[[Nexik\] Latter aji will be problematic])))
