(;FF[4]GM[1]SZ[19]ST[2]CA[UTF-8]AP[SGFC:1.16]

PB[hc12]
BR[4k]
PW[tatata]
WR[3k]
KM[0.5]
DT[2013-03-23]
PC[The KGS Go Server at http://www.gokgs.com/]
RE[W+15.5]
TM[600]
OT[5x20 byo-yomi]
RU[Japanese]

;B[pd];W[qp];B[dd];W[dp];B[op]C[HC12: P4 is my frist move ,Is this move is too agressive ? Usually, I would like to play this move in the begining.

CG: This is a perfectly normal move (and seems to be the most common one in professional games).]
;W[mq];B[qq];W[rq];B[pq];W[ro]
(;B[rr]C[CG: This is the wrong direction. See variation for the Joseki move and possible continuations (from professional games).]
;W[sr];B[qs];W[pn];B[mp]C[HC12: I think N4 is a bad move and I have no idea to set a good shape in this joseki.

CG: The problem was black 11 - since you can't live locally, you have to move out. 
After white 14 the kosumi is no longer attractive (there is no continuation on the right side), but attaching on the weak white stone also helps white.]
;W[nq]C[CG: Actually, I think this is an overplay as you may try to resist (see variation). White should just play M4.]

(;B[np]C[CG: Following white's orders feels bad.];W[lp];B[lo]
;W[kp];B[mn];W[qj];B[qg];W[jn];B[cj];W[kc]
(;B[nc]C[CG: Wrong direction. You should play from the other side (see variation). There is stll some aji in the corner.]
;W[gc]C[CG: This looks strange. The three point extension is an option if it's a proper kakari against the top left corner, but here I'd prefer a two point extension.]
;B[cf];W[db];B[ec]C[CG: What's the idea of this move? You are actually helping white to connect ...

If you want to attack, enter at J17.];W[eb];B[fc];W[fb];B[gd]
;W[hd];B[hc];W[gb];B[he];W[id];B[ge]C[CG: This was a bad exchange for black. Black has bad shape and is is overconcentrated.]
;W[cc];B[cn]C[HC12: C6 is a very bad move for invasion ?

CG: I think C6 is a good move.];W[fp];B[bp];W[cq];B[cl]TR[cj]
C[CG: This is too low! Correct shape is D8 or in this position maybe even E6.]
;W[qc];B[qd];W[en]C[CG: Good move! Now white is clearly ahead.]
;B[om]C[CG: Too slow again. Of course your group is still weak, but by defending it allow white to repair his only weak spot. 

I would rather invade at R8 in this position (but that's risky!) or play N9.]
;W[ql]
(;B[rc]C[CG: Again too slow. 
I think in this position white can't even get a ko without some outside help (see variation). But even if there would be a ko, eliminating it is just endgame. You need to play around F8, the crucial point for both the black and white moyos.]
;W[be];B[bf];W[bd]C[CG: Too slow!];B[fk]C[HC12: Untill now I think my (White ) is ahead in the territory .

CG: Good move, now you are back in the game.];W[gm];B[hk];W[jf]
C[CG: Good move!];B[if]C[CG: You are pushing from behind and helping white. You should rather play J13 to stay ahead.]
;W[jg];B[ig];W[jh];B[ih];W[jj]C[CG: Now white could reduce your territory and is ahead again.]
;B[ij];W[jk];B[ng];W[le];B[on];W[bq];B[co]C[Please help me the fuseki , thank you .]
;W[oj];B[po];W[qn];B[ni];W[or];B[pr];W[il];B[rs];W[qh];B[rg]
;W[ph];B[pg];W[oh];B[nh];W[og];B[of];W[nb]
(;B[ob]C[CG: Eat! You don't need to be afraid of P14 (see variation)]
;W[nf];B[mf];W[ne];B[me];W[mc];B[nd];W[mb];B[pc];W[md];B[oe]
;W[ie];B[nj];W[ok];B[sj];W[rj];B[sh];W[sk];B[si];W[rl];B[lf]
;W[ke];B[ce];W[ko];B[lm];W[el];B[ek];W[dl];B[dk];W[fl];B[ki]
;W[ji];B[kh];W[ii];B[hi];W[af];B[ag];W[ae];B[bh];W[ap];B[ao]
;W[aq];B[cd];W[bb];B[kj];W[kk];B[gl];W[hl];B[gk];W[dm];B[cm]
;W[cp];B[bo];W[do];B[lk];W[ik];B[hj];W[km];B[kl];W[jl];B[ll]
;W[nk];B[mk];W[nl];B[nm];W[oa];B[pa];W[na];B[pm];W[qm];B[pl]
;W[pk];B[oi];W[pi];B[rh];W[os];B[ps];W[oq];B[pp];W[qo];B[ml]
;W[kg];B[lg];W[ri];B[ln];W[kn];B[dc];W[dn];B[ss];W[sq];B[tt]
;W[tt]TW[aa][ba][ca][da][ea][fa][ga][ha][ia][ja][ka][la][ma]
[ab][cb][hb][ib][jb][kb][lb][ac][bc][hc][ic][jc][lc][ad][jd]
[kd][ld][je][qi][pj][qk][rk][sl][em][fm][hm][im][jm][rm][sm]
[fn][gn][hn][in][rn][sn][eo][fo][go][ho][io][jo][so][ep][gp]
[hp][ip][jp][rp][sp][dq][eq][fq][gq][hq][iq][jq][kq][lq][ar]
[br][cr][dr][er][fr][gr][hr][ir][jr][kr][lr][mr][nr][as][bs]
[cs][ds][es][fs][gs][hs][is][js][ks][ls][ms][ns]TB[qa][ra][sa]
[pb][qb][rb][sb][oc][qc][sc][ed][fd][od][rd][sd][de][ee][fe]
[ne][pe][qe][re][se][df][ef][ff][gf][hf][nf][pf][qf][rf][sf]
[bg][cg][dg][eg][fg][gg][hg][mg][sg][ah][ch][dh][eh][fh][gh]
[hh][lh][mh][ai][bi][ci][di][ei][fi][gi][li][mi][aj][bj][dj]
[ej][fj][gj][lj][mj][ak][bk][ck][al][bl][am][bm][mm][an][bn]
[nn][mo][no][oo][qr])
(;B[mb];W[mc];B[ob];W[nd];B[oc];W[lb];B[na];W[nf];B[ki];W[ji]
;B[mk]))
(;B[fl];W[rd];B[re];W[rb];B[pb];W[qb];B[sd];W[sc];B[se];W[pc]
;B[ob]))
(;B[ic];W[nc];B[pc]))
(;B[lp];W[np];B[no];W[oo];B[lq];W[oq];B[pp]
(;W[pr];B[qo]
(;W[rp];B[po];W[on];B[qn];W[qm];B[rn];W[rm];B[qr];W[or];B[so]
;W[sq];B[sn])
(;W[qr];B[rp];W[rs];B[po];W[on];B[rn]))
(;W[po];B[or])))
(;B[no]
(;W[ql];B[lp];W[kq];B[lq];W[lr];B[mr];W[kr];B[mp])
(;W[mo];B[mn];W[lo];B[qn];W[nn];B[on];W[nm];B[om];W[nl];B[pk]
;W[rn];B[rm];W[qr])))
