(;FF[4]GM[1]SZ[19]AP[SGFC:1.13b]

PB[Marcel van der Lee]
BR[12k]
PW[Rob Groeneveld]
WR[7k]
HA[5]
RE[W+Resign]

AB[dd][pd][dp][jj][pp]C[Black:  Practice your tactics! There is the classic Tesuji book and Life & Death book in the Elementary Go series and the Go Problems series by Yashonori.  Plus many problem books in foriegn languages. Fortunately, problem and answer diagrams are one's main concerns in such books.

Your at the fun stage where moderate efforts in this area will increase your strength a lot.  ;-)

Also, learn to not follow your opponent around and look at the whole board. This often involves handling the double approach. Focus on the concepts behind some of those joseki.
I've included two in this review.];W[cn];B[fp];W[fc]C[I noticed in the game that you've responded with one space jumps in response to the knight's approach move many times in this game.   In H3 + handicap games learning to allow double approach moves can be very liberating as it may allow you to focus on other parts of the board.   Look at variations which are some other possibilities. One way is to try to make some assessments without going deeply into variations.]

(;B[df];W[np];B[pn];W[nc];B[pf]C[Four one-space jumps to four small knight approaches. Black is not bad off per se but it the as suggested by following moves show it seems to stem from following the other player around.]
;W[jq]C[Why follow white around. What about k17?  or d5 followed by c10? These are positive moves which attack white and gives the initiative to black.]
;B[lq]C[As a general principal when in the beginning of a game try to attack the whole group. This usually means moves on the outside of a group.   However, right now the two white stones are not really attackable. It probably would've been better to play elsewhere.  (like the moves suggested before)]
;W[nn]C[This is not such a great answer by white when black already has the q6 point.   m4 or r3 are some moves I would look at.

Black:
This is the time for a move such as p2 or p3 because you won't lose much if you end up giving up m3.

However the best move is o3. You can make your base while taking away whites.]

(;B[lo];W[nl];B[ql]C[Seems a little timid.   How about q9?]
;W[jo];B[or];W[oq];B[pq];W[nr]C[You see now giving up the two black stones would be too much?]
;B[lm];W[pr];B[qr];W[os];B[ok];W[lk];B[dj];W[dl];B[ec];W[fd]
;B[co];W[en];B[jn];W[in];B[jm];W[im];B[jl];W[jk];B[ik];W[kk]
;B[il];W[ij];B[hj];W[ii];B[no];W[mo];B[oo];W[lp];B[mn];W[mp]
;B[nm];W[ko]C[Unnecessary move by white

And so is the answer by Black.

k11 for black and L11 for white is a big move.];B[ln];W[ki]
C[How about attack the three white stones in the LL?   Try disconnecting them from the j7 group. They may live but will probably endup consolidating territory in the LL corner and L side for Black.

Also, h11 is a forcing move you might not have later.];B[ni]
;W[cc]
(;B[cd]C[This is played when the f17 group is considered more or less stable.

If there are good prospects for attack (and there are) e18.]
;W[eb];B[db];W[dc];B[cb];W[ed];B[bc]C[white doesn't normally connect.

In k16 would have been good for white or black for that matter.]
;W[ec]
(;B[ab]C[Black doesn't need to defend.];W[be];B[bd];W[cg]C[d13 is the only move here

Force white to live or connect and give yourself the chance to kill and keep your stones connected.]
;B[bf];W[cf];B[ce];W[dg];B[bg];W[ef];B[ch];W[de];B[me]C[Not a bad move now since e16 is thicker.]
;W[kc];B[jd];W[jc];B[kd];W[ld];B[le];W[md];B[ne];W[id];B[jf]
;W[if];B[eh];W[jg];B[kf];W[ie];B[lh];W[hi];B[ho];W[io]C[The three white stones on LL are attackable.

Here's a possibility.]
(;B[hq];W[pb];B[qc];W[qi];B[qg];W[pk];B[ol];W[pl];B[pm];W[qk]
;B[rm]C[s8 instead];W[oj];B[nj];W[oi];B[oh];W[ph];B[og];W[nk]
;B[om];W[rl]C[r7 is not the only answer to this shape.]
(;B[qm]C[Next s10 lives]
(;W[qh];B[pj];W[rg];B[rf];W[pg];B[qf];W[qj];B[pi];W[sh];B[rk]
C[MvdL: Is the white group at the right side really dead?

Yes it is dead];W[cq]C[This was covered before.];B[dq];W[bo]
;B[bp];W[cp];B[bq];W[do];B[cr];W[co];B[ar];W[dh];B[ci];W[di]
;B[ck];W[cl];B[ej];W[ei];B[fi];W[fh];B[gh];W[fg];B[gi];W[gf]
;B[hg];W[ig];B[hm];W[hn];B[gn];W[gg];B[hh];W[gm];B[go];W[hl]
;B[ir];W[jr];B[fm];W[fl];B[fn];W[hf];B[el];W[em];B[ek];W[bk]
;B[bj];W[al];B[eo];W[rb];B[rc];W[qb];B[ao];W[an];B[dm]C[MvdL: D7 was a useless move.]
;W[dn];B[ap];W[kh];B[li];W[pc];B[ji]C[MvdL: I guess I had better answered W q17 at R16.]
;W[ih];B[kg];W[lj];B[mk];W[ml];B[mj];W[ll];B[kl];W[jh];B[rj]
C[MvdL: I was not sure if the white group was really dead.]
;W[od];B[oe];W[qd];B[rd];W[pe];B[qe];W[pd];B[sb];W[qs];B[rr]
;W[rs];B[sr];W[iq];B[hr];W[hk];B[fj];W[kn];B[mm];W[km];B[hp]
;W[je];B[ke];W[gj];B[fk];W[gl];B[dk];W[aj]C[I'll assume you know the correct response now. :-)]
;B[ai];W[gk];B[cj];W[bh];B[ak];W[oi];B[oj];W[aj];B[cm]C[Black Resigns!]
)
(;W[rj];B[pj];W[pi];B[sl];W[rh];B[rk];W[qj];B[sj];W[rg];B[rf]
;W[si]C[miai t13 & r12]))
(;B[rh];W[ri];B[si];W[sj];B[sl];W[qm];B[rn];W[sk]C[white is dies]
))
(;B[hn];W[hm];B[gm];W[gl];B[hl];W[gn];B[fm];W[go];B[fn];W[fo]
;B[eo];W[gp];B[fl]C[I think you can get the idea. I can't see black coming badly.]
))
(;W[bd];B[bb]C[some manageable complications possible.])
(;W[bd];B[be];W[bb];B[ad];W[ca]C[A safe route to avoid complications but black has sente]
))
(;B[eb]C[One possible e18 variation. Most handicap go books cover this position.]
;W[ce];B[de];W[cf];B[cd];W[bd];B[cg];W[bg];B[bh];W[bf];B[ch]
;W[bb];B[jd]C[Black has good attacking prospects]))
(;B[nq];W[oq];B[op];W[mq];B[nr]C[the p3 stone is dead in any continuation. Black has taken a huge corner and white will not likely end up 100% stable.]
))
(;B[dj];W[cf]C[From here I think one could see how black can come out with his stones well coordinated. If one knows some basic joseki from here.

Just as an exercise here's a joseki I would get acquainted with if I were playing handicap games.]
;B[fd];W[gd];B[fe];W[cc];B[cd];W[dc];B[ec];W[eb];B[ed];W[gc]
;B[ge]C[White has corner but all of black stones are working well together]
)
(;B[jd];W[cf];B[ee]C[At this point I would make an assessment that black will not come out bad in whatever may follow]
;W[cc];B[dc];W[cd]
(;B[dg];W[cg];B[dh]C[Keep white low.Black's influence will bring back some dividends]
)
(;B[eg]C[Even this to play more simply])))
