(;FF[4]GM[1]SZ[19]CA[Windows-1252]AP[SGFC:1.16]

PB[Rick Mott]
BR[4k]
PW[Fred Kochman]
WR[3k]
KM[6.5]
DT[2013-04-03]
PC[Princeton Go Club]
RE[B+1.5]

C[Hi,

I had W in this game, and with the komi I
lost by 1.5 points.  I recorded the game up through move 160.  I've included a number of specific questions, but I'd be grateful for any errors you find worthwhile pointing out,
places where I didn't take advantage of my opponent's mistakes, etc.

Thank you!


Hi! I'm Andrew, and I'll be reviewing your game. If while you are watching it you feel dissatisfied with my explanation of a certain move, or just want to know more, take note and please send at ajnz1234@gmail.com
 
Enjoy!];B[dq];W[dd];B[qp];W[pd];B[co]
(;W[kq]C[Is W6 a proper move?


Traditional theory holds that white should not let black secure two corners. If R4 was instead on the star-point, then W6 or thereabouts would be fine since black would not be able to entirely enclose the corner with one move. Here, black can enclose the entire corner with P3, so L6 is not the best. You must approach the corner.]
;B[oq];W[hq];B[qj];W[jd];B[cf]
(;W[fc]C[With W10, you declared a moyo strategy. Therefore, you must be consistent and pincer black's stone.

Black is already ahead on territory, and that territory is also SOLID territory (compare the two black corners to the open white top side). Therefore, you cannot play any safe, slow moves. Black is glad to make an exchange like this because he can always stay one step ahead on territory.]
;B[bd];W[qh]LB[cc:a][qf:b]C[I've read that one shouldn't be too quick to answer at A -- other responses may look better, a few moves later.
But was W14 too long an extension?


Yes, A would be slow here, since you are behind. Switching to the right side is a very active way to play, taking points while working together with the W4-W10 moyo strategy.
 As for the exact position of this move, usually it is played one space nearer at R13. This is because of the gap left at B. In this case, however, I think it is a fine move, since overextension is perfect for a game where black is ahead on solid territory. Inciting an invasion can only help you. Also, this exerts more pressure on B9.]
;B[oj];W[oh];B[qc];W[pc];B[qd]
(;W[qe];B[re]
(;W[qf]LB[rf:a][pe:b]C[Would A have been better here?


 I think the game move is perfectly fine. A leads to several variations that are actually worse in this case. W22 may feel slack on the corner group, but it is the best you can do. If instead the future cut at B worries you, defending the cut directly with B would be a solid way to play.]
;B[rf];W[qb]LB[rb:A][pb:B][ra:C][ch:D][pe:E]C[This is an excellent endgame move, but it is gote (actually, it is sente, but only if you read about killing later with C after black A and white connection B.) and therefore not as important as whole-board moves like D. Remember that you are behind and need to play actively to catch up.

You may have had the cut at E in mind, but right now, the cut is not in desperate need of protection (in fact, you might invite a black cut there and then attack the invading group).]
;B[rb];W[pb]C[Black needs to defend. If black does defend, then this move becomes sente, making the W24-26 combo a very high-value exchange. But if you do not read that black needs to respond, then you should treat it as a lower priority move compared to those elsewhere on the board.]
;B[cc]
(;W[dg]LB[eg:A][ef:B][dh:C]C[I now think W28 was too close to B's stone
-- was trying to enlarge the moyo.


I think this move is good. If it were closer to the center (at A or B), then black would be able to take lots of territory with C (adding up to more for black than even a white center territory could be).]
;B[df];W[ef];B[eg]C[This is exactly what you want to happen. Black is making the game easier for you because you will have something to attack.]
;W[cg];B[bg];W[bh];B[bf]
(;W[ci];B[cl];W[eh];B[fg];W[fh]TR[dg][cg][bh][ci]C[Trying to defend the marked group.]
;B[gg];W[ee]TR[eg][fg][gg]C[Now trying to keep the marked stones isolated from the other B group.]
;B[gh]
(;W[dj];B[hd];W[hc];B[gd];W[gc];B[id];W[ic];B[je]C[So much for enlarging W's moyo...]
;W[ke];B[kd];W[jc];B[kf];W[le];B[jf];W[lf];B[mg]C[This is unnecessary for black to do. He is giving you chance to attack by cutting off the black stone from the groups left and right.]
;W[lg]C[Keep B separated?

Yes, very good.];B[mh];W[ni];B[li];W[nj];B[ok]
(;W[lh]MA[gh][gg][jf][kf][je][id][hd][gd][fg][eg]C[The only problem with W66 on is that it doesn't end up having enough impact on the marked group.]
;B[mi];W[ki];B[lk]
(;W[kj]LB[mk:a][nk:b]C[I still wanted to enclose B's upper center group.  But should it have been at A?

I think this move is okay. After black responds with A, there is still potential in the push and cut with B.]
;B[mk];W[gi];B[jh];W[ii];B[ih];W[hi];B[fd];W[ed];B[hf]C[B looks alive.]

(;W[oo]LB[qo:A][ro:B]C[So here I wanted to reduce B's lower right area.

Also a good idea. I think it needs to be a little bit deeper though, like A or B. When black answers at 81 in the game, W80 does not end up having had much effect.]
;B[pn];W[nq]C[and maybe make some area of my own.];B[nr];W[mq]
;B[nk];W[of]LB[pe:a]C[I thought B might play at 86, threatening the cut at A, and then drive into W's upper territory.  So W86 defended.


Sharp defense. 86 is also makes many points compared to other ways to defend the cut.]
;B[el]C[Pity, I was planning to play there..];W[gl];B[jl]
(;W[lm];B[kl];W[jn];B[op];W[no];B[gp]
(;W[fm]C[Thrust into B's area instead of trying to enclose my own.]
;B[gq]C[Black gets the key point -- compare this to the earlier continuation.



---

I end my comments with this move. In conclusion, I want to say I think you did very well with this game, as the result shows: only a 1.5 point loss. I think where you got behind was the opening, especially with move 6 not attacking the corner the lower right corner.That you managed to pull the score to a near tie despite that is very impressive.

Your sense of the game seems quite good. At your level, I would recommend reading Attack and Defense by Ishida Yoshio. You may have already read it. Even if you have, try looking it over again. I've read it over and over many times, and each time something new "clicks", and I can utilize a new kind of strategy in my own games.

Outside of that, the best advice I  can give is to "play, play, play some more, and do tsumego in between." It's the tried and true method.

I hope my review was of help to you. I tried to add in lots of comments and continuations for you to explore. A few times when making the review, I got a little carried away and ended "playing against myself" with sequences lasting 50 moves or more, then writing "therefore the first move is good/bad". I tried to avoid doing this sort of thing in the review I have given you here. My philosophy is that one should explore these continuations on one's own and decide for oneself what is best.


Good luck, and wish you the best,

Andrew];W[en];B[dm];W[hp];B[do];W[go];B[fo];W[fn];B[eo];W[gr]
;B[fr];W[hr];B[fk];W[gk];B[im];W[er];B[eq];W[fs];B[dr];W[fq]
;B[fp];W[fr]LB[ds:A][cr:B][cs:C][bs:D]C[This outcome feels funny, somehow..]
;B[eb];W[ec];B[fb];W[gb];B[dc];W[bk];B[bl];W[al];B[am];W[ak]
;B[bn];W[po];B[qo];W[fa];B[da];W[pp];B[pq];W[mr];B[or];W[rg]
;B[ra];W[sd]C[Here I misread that I could kill B's group.];B[sc]
;W[sf];B[rd]LB[se:a]C[But I can't play at A -- at least I have sente.]
;W[fj];B[ho];W[io];B[gn];W[ds];B[cr];W[ri];B[rj];W[sj];B[sk]
;W[si];B[rl];W[om];B[pm];W[nf];B[on];W[nn]C[I got tired of recording, at this point.

If you find I missed big or urgent moves, please indicate.  Thank you!]
)
(;W[gq]C[This is a very important push.];B[fp];W[er];B[dr];W[eq]
;B[ep];W[fm]C[This way you still get to play here, but with many more points.]
))
(;W[pq];B[pp];W[op];B[or];W[on];B[pm];W[km]C[You can make a few more points in sente by doing this.]
))
(;W[nk];B[nl];W[ml]MA[kj][ki][ii][hi][gi]C[There is still room for attack this way. Think of the wall (marked) created by attack black's other group as thickness you can still use.]
))
(;W[mk]C[This is a good idea, but in the end, I think it is still hard to kill either group.]
;B[kj];W[ji];B[ik];W[hj];B[fi];W[ei];B[dh];W[ch];B[ej];W[di]
;B[gj];W[hi];B[gi];W[hk];B[ek];W[bk];B[hl]LB[kh:A]C[Black is surprisingly hard to kill.]
))
(;W[ji]C[This is worth a try.]
(;B[kh]C[If black tries to cut it off...];W[lh]C[You can cut him off.]
;B[mi];W[ki];B[lk];W[jk];B[kj];W[jj];B[ml];W[ig]C[A little easier to attack black.]
)
(;B[lk];W[jk];B[kl];W[gj]C[A possible continuation.])))
(;W[fj]C[This move is more active in the center and still protects the cut.]
))
(;W[di]LB[ch:A]C[The center is more important here. Furthermore, black is already alive in the corner so A is only a matter of a few points.]
))
(;W[ra]C[This is how to kill.]
(;B[rd];W[rg];B[sc];W[sb]C[KO.])
(;B[sb];W[rd];B[rc];W[sd]
(;B[rg];W[rh])
(;B[rh];W[rg];B[sg];W[qg];B[ri];W[sf]))
(;B[sc];W[rd];B[rc];W[rg])))
(;W[rf]
(;B[pb]LB[qf:A]C[This is a second varation (after the normal atari at A)  where instead of taking the right side, black takes the top side.]
;W[ob];B[oc]LB[pe:A]C[This aims at a double atari at A.]
(;W[pe]C[This is white's usual response to 4, but a very bad response in this case.]
;B[nb];W[qb];B[oa];W[rb];B[lc]C[All white's top potential is gone.]
)
(;W[od]C[This would be best here.];B[qb]LB[nc:A]C[Black threatens to lead out with A. White's P18 cannot be captured but all the top side territory will be lost (imagine white inching along on the second line).]
;W[nc];B[qf];W[pe];B[rg]C[Black has much more corner territory than in the game.]
))
(;B[qf]C[This is the more well-known response, but here it would be terrible for black to do.]
;W[pe];B[rg];W[rd];B[sf];W[rc];B[rh]C[An absolutely ideal result for white, but black has an alternate response to the double hane, so this will not happen.]
)))
(;W[pe]C[A thought might be to play here instead. This balances well with P12 and R12 and is sente.]
;B[rf];W[ch]LB[cc:A][ce:B][ef:C]C[Next, if black A, then you can can seal off the center with B. If black runs out with C, then you can take away his base with A.]
))
(;W[ch];B[cc];W[dc];B[cd];W[de];B[bf];W[eg]C[White's moyo may be enough to outdo black's territory.]
))
(;W[op]C[Approaching immediately is necessary.];B[lp]C[I do not know exactly how black should respond, but this is what I would play.

Joseki follows...];W[pm];B[oo];W[no];B[on];W[pp];B[qn];W[qq]
;B[qo];W[nn];B[om];W[pr];B[qj]C[...Leading to a split corner. White also has thickness.]
;W[ip]C[Next I might pincer around here. I pick this spot because it is exactly where I would want to play as black. Wouldn't you too?

This result I feel has more potential for white than when white lets black have the two corners. When black has two corner enclosures (like those of D3 and C5), it is solid territory that cannot be contested. This severely reduces white's ability to attack and strategize as a whole. The joseki in this variation sets up this pincer and expands white's possibilities all around the board.]
))
