(;FF[4]GM[1]SZ[19]ST[2]CA[UTF-8]AP[SGFC:1.16]

PB[siryuu]
BR[5k]
PW[hc12]
WR[4k]
KM[0.5]
DT[2013-04-28]
PC[The KGS Go Server at http://www.gokgs.com/]
RE[B+Resign]
TM[600]
OT[5x20 byo-yomi]
RU[Japanese]

C[Hello, review comments are marked with *. I tried to answer all your questions and give a few more ideas if I saw something. From your comments you seem to have a very negative attitude about this game. No one knows how to find the perfect move, so just play a move that you like - if during review you find a way that your opponent could exploit your move, or you find out that you could have played a better move instead - that's how we learn! so don't worry about being confused and intimidated when you are playing the game.]
;B[pd];W[dq]C[siryuu [5k\]: hi];B[dd];W[qp];B[jp]
(;W[cf]C[P3 or C14 , which move is better ?

*usually b should not play k4 split against two 3-4 corner moves. w can make solid territory with p3. On the other hand, b cannot make a solid enclosure even with one more move c14, so it is not urgent for w to play there]
;B[op];W[po]C[I should play N4 in order to cut the  black K4  ?

*This move is fine. N4 would start a big fight, you can play it, but that's a different game.]
;B[oo];W[pn];B[on];W[pm];B[qj]C[I think black is strong .

*Don't let it bother you. Your goal is to find the best move on the board regardless of who is playing the next move.]
;W[nc];B[qf];W[pb];B[qc];W[ld]C[*L17 is more typical, giving a wider base and less chance for b to undercut, or you can play k16 or k17 and invite the cut if you feel like playing a game with more difficult reading.]
;B[hc];W[bd];B[cc];W[dh];B[co];W[cp];B[ck]
(;W[do]C[I think D4 is helping black to make shape

*yes, you make things a bit too easy for b in the next few moves]
;B[cn];W[dn];B[cm];W[hp];B[hq];W[gq];B[iq];W[gp]C[These moves is too passive . I havn't confident to fight now

*before J3, H3 you could prevent b from getting so much bottom territory]
;B[bc];W[ce]C[*saving b16 but allowing b11 was exactly what b hoped you do]
;B[bi]
(;W[jc]C[*now you're worried about losing base on the top as well, but this move aids b's attack of left side group]
;B[he];W[om];B[pq];W[qq];B[mn];W[qh]C[*an active move at last!]
;B[oj];W[oh];B[of];W[pi];B[pj];W[mh];B[mj];W[ni];B[nj];W[qb]
;B[rb];W[pc];B[qd];W[mf];B[rm]
(;W[rn];B[rl];W[qm];B[qr];W[rr];B[pr];W[ko]C[*good. you are behind and there is no time to defend d12 without giving b an easy path to victory]
;B[jo];W[kn];B[jn]C[I play everything wrong .

*an unhelpful frame of mind];W[km];B[jm];W[kl];B[lq];W[mm];B[nm]
;W[nl];B[nn];W[ml]C[*great, you got the reduction, and now have a weak group to attack! w made a comeback]
;B[ol];W[kj];B[li];W[ki];B[lh]
(;W[ok];B[pl];W[pk];B[ql];W[nk];B[lg];W[qk];B[rk];W[ri];B[rj]
;W[mg]
(;B[lf];W[le];B[jg];W[ij];B[jl];W[jk];B[lj];W[gj];B[el];W[ei]
;B[ef]C[*now b leads in territory, but w can begin the endgame. both sides have dragons with potential cutting points, so the endgame can be quite intricate.]
;W[fg];B[ff];W[ib];B[hb];W[ha];B[ga];W[ia];B[fb];W[ci];B[bh]
;W[cj];B[bj];W[dk];B[dl];W[bp];B[ao];W[bo];B[bn];W[ap];B[an]
;W[gr];B[hs];W[hr];B[ir];W[gs];B[is]C[*A6 and J1 needlessly let w keep the sente, b must be overconfident]
;W[kp];B[kq];W[mp];B[mq]
(;W[mo]C[*dame];B[lk];W[kk];B[cg];W[dg];B[df]C[*did you resign here? I guess you can still fight!]
;W[if]
(;B[ig];W[hf];B[hg];W[gf];B[gg]
(;W[fh];B[ie])
(;W[je];B[fh];W[eg];B[fi];W[fj];B[sm];W[ro];B[jf];W[ie];B[kh]
;W[kf];B[hi];W[gi];B[ii];W[ji]C[* i suppose b can resist. but it is worth the chance to play it out.]
;B[jh];W[hd]C[*but you have lots of reduction left];B[ge];W[gd]
;B[fe];W[fc];B[eb];W[ec];B[de];W[dc];B[db];W[cd];B[bf];W[fd]
;B[be];W[ic];B[gb];W[ra];B[rc];W[rg];B[rf];W[od];B[re];W[gh]
;B[hh];W[hj];B[fn];W[fo]C[*still close game]))
(;B[jf]C[*possible to win];W[ie];B[hg];W[ig];B[ih];W[jh];B[jd]
;W[je];B[ke];W[kd];B[id];W[kf];B[kg];W[ke];B[ic];W[kb];B[ll]
;W[lm];B[lp];W[lo];B[hi];W[ii];B[hh];W[hj];B[fj];W[gi];B[fi]
;W[gh];B[eg];W[fh];B[eh];W[fk];B[ej];W[ek];B[di];W[dj];B[ei]
;W[gl];B[ch]))
(;W[cg]C[*if both sides play conservatively from here (and b misses ko in lower right) then b should win by just a few poitns]
;B[ch];W[eg];B[dj];W[di];B[ek];W[ac];B[ab];W[ad];B[ba];W[bg]
;B[ag];W[af];B[ah];W[gg];B[gf];W[ih];B[ig];W[fn];B[ic];W[jb]
;B[jd];W[kd];B[ra];W[rg];B[rf];W[sf];B[se];W[sg];B[rd];W[od]
;B[oe];W[ne];B[sn];W[ro];B[rs];W[sr];B[so];W[sp];B[sm];W[np]
;B[nq];W[hn];B[gm];W[gn]))
(;B[ro]C[*this move looks dangerous]
(;W[sn];B[so];W[qo];B[sm];W[qn];B[rs];W[rq];B[sr])
(;W[qo];B[sn];W[rp]
(;B[qn];W[sp]
(;B[rs];W[rn]C[*maybe b gets ko in corner])
(;B[rn];W[rs]))
(;B[so];W[sp];B[sm];W[rs]))))
(;W[kg]C[*w could try for the kill, but I don't think it will work]
;B[kh];W[jh];B[lg]
(;W[lf];B[jg];W[kf];B[mg];W[ng];B[nf])
(;W[mg]C[*w must protect here];B[kf];W[jg];B[lf];W[jf];B[le]
;W[me];B[je])))
(;W[ra]C[*can squeeze b a lot, later];B[rc];W[rg];B[rf];W[re]
;B[qg];W[rh];B[sf];W[pg];B[pf];W[od];B[oe]))
(;W[he]C[*could support either or both groups, and weakens h17 stone]
))
(;W[cm]C[*your corner is strong enough that b should not have made 3 space extension.]

(;B[bm];W[cn];B[bn];W[do];B[bo];W[cl];B[bl];W[dk];B[dj];W[cj]
;B[bk];W[ek];B[ci];W[ej];B[di];W[ei];B[eh];W[ch];B[bi];W[eg]
;B[fh];W[fg]
(;B[gg];W[gf];B[hg];W[gh];B[fi];W[gi];B[fj])
(;B[gh];W[gg]
(;B[hg])
(;B[hh];W[hg])))
(;B[dm];W[dn]
(;B[dl];W[cn])
(;B[cn];W[dl];B[cl];W[bm];B[em];W[do];B[ek];W[dj];B[dk]))))
(;W[oq]
(;B[cf]C[*w move more efficient corner enclosure, of course b would not play c14 this way, but I illustrate the difference of the two corners]

(;W[fc])
(;W[dc])
(;W[cc]))
(;B[do];W[co];B[cn];W[cp];B[dm];W[fq];B[ci];W[ho])))
