(;FF[4]GM[1]SZ[19]AP[SGFC:1.13b]

GN[DDT-k963(B) IGS]
PB[k963]
BR[30k*]
PW[DDT]
WR[26k*]
KM[0.5]
DT[1999-09-17]
PC[IGS:  igs.joyjoy.net 6969]
RE[W+30.5]
TM[3000]
US[Brought to you by IGS]

C[buckyyowza: comments by Mark Fyffe (10k* igs, 6k* nngs).]
;B[pd];W[pp];B[dd];W[dp];B[qn];W[qo];B[pn];W[ql]LB[np:A][qj:B]
[nn:C]C[buckyyowza: usually A (o4) is played. now a black stone at B (r10) is a real bummer for white, who still needs to play A. if black jumps out to C now, he can easily invade the corner at r3, but playing B to prevent r8 from settling is more urgent.]
;B[cj]LB[om:A][ol:B]C[buckyyowza: good play off of d16 hoshi, but very small considering the amount of damage black could be doing in the lower right. white can now keima at A (p7) or ikken tobi at B (p8) and put some pressure on the q6 group while building some nice thickness in the center.]
;W[pi]LB[nn:A][qg:B][np:C]C[buckyyowza: A (o6) is urgent for black now. white can play B (r13) to settle his group with a nice approach to the upper right corner or play C (o4)]
;B[cn]LB[fp:A][ni:B]C[buckyyowza: w at A (f4) is a horrid result for black. especially if white is not stopped from jumping ikken tobe on the right and side in time.  since c6 practically forces A, this makes it a bad move.]
;W[dl]LB[en:A]C[buckyyowza: bad move! black at A (e6) is  very big and puts black a stone ahead locally. see variation.]

(;B[bl]LB[gp:A]C[buckyyowza: way too slow! white A (g4) is a huge now.]
;W[dn]C[buckyyowza: q6 group is too much bad aji for white too play d6 since it is easily cut.]
;B[co]C[buckyyowza: this helps white seal a very thick lower side, an ideal outcome for white.]
;W[do];B[cq];W[cp];B[bp]
(;W[dq]C[buckyyowza: a little slow,  see variations on 19.]
;B[cr];W[dr];B[jq]C[buckyyowza: bad choice after forcing white to make such a nice wall. w c7 is very dangerous now! see variation]

(;W[cm];B[bm];W[mq];B[gr];W[cs]LB[hq:A]C[buckyyowza: A (h3) would easily punish black for bad shape (too low).]
;B[bs];W[ds];B[br];W[dj];B[cg]TR[gr][jq][pn][qn]C[buckyyowza: white is really getting too much influence from that wall. black's marked stones can now be considered dead.]
;W[fc];B[eg];W[ci];B[bj];W[dh];B[dg];W[bi];B[ei]C[buckyyowza: it is insane of white to allow this activity. f17 is looking lonely and the stones noted as dead after move 33 are no longer dead.]
;W[ej];B[eh]LB[di:A]C[buckyyowza: A (d11) is an easy cut, and would have given black a slight advantage over this outcome.]
;W[di];B[fd]LB[gj:A]C[buckyyowza: f17 is not a significant threat, especially considering how bad white A (g10) is for black.]
;W[dc]LB[gd:A]C[buckyyowza: should be at A (g16).  white is easily enclosed and maybe killed after d17 where building thickness on the upper side would have been much bigger.]
;B[cc]LB[gc:A]C[buckyyowza: more improtant to protect the side with A (g17)]
;W[ed];B[fe];W[de];B[cd];W[ee];B[ce]C[buckyyowza: white's play here is suicidal.]
;W[ff];B[jc]LB[hd:A][gc:B]C[buckyyowza: A (h16) or B (g17) are much better, see variation]

(;W[gd]
(;B[md]LB[ge:A]C[buckyyowza: A (g15) was urgent! see variation if you're afraid of the ladder]
;W[qc]
(;B[pc]C[buckyyowza: this is too small. see variation on move 58 for a better result.]
;W[qd];B[ie];W[hc];B[ge];W[he];B[hf]LB[gf:A]C[buckyyowza: this is a big mistake. A (g14) is urgent.]
;W[gf];B[id];W[hg];B[if];W[fg];B[gi]C[buckyyowza: good :-)]
;W[gj];B[ii]
(;W[ij];B[hl];W[hi];B[hh];W[hj];B[ig];W[gh];B[ih];W[fi]TR[hl]
[jq][gr][pn][qn]C[buckyyowza: oh no! they're dead again];B[fm]
;W[ck]C[buckyyowza: the apropriate response to this move is "so?"]
;B[bk];W[cl];B[bn];W[pe];B[od]LB[qe:A][qb:B][oe:C]C[buckyyowza: white is fighting, fight back! A (r15), B (r18), and C (p15) all prevent the actual outcome]
;W[oe];B[mf];W[nd];B[nc];W[ne];B[me];W[pb];B[oc];W[mc];B[mb]
;W[lc]
(;B[nb]C[buckyyowza: oops, see the variation on 100 for a better answer.]
;W[lb];B[la];W[ka];B[kb];W[ma];B[na];W[la];B[fo];W[kr]LB[gp:A]
[hn:B]C[buckyyowza: better to invade using all that nice influence]
;B[jr];W[jl];B[jn];W[ji];B[mn]C[buckyyowza: too easy for black, white should have prevented this.]
;W[im];B[in];W[kn];B[ko];W[hm];B[hn];W[km];B[lo];W[mp];B[ml]
LB[qg:A]C[buckyyowza: nice move. invasion by black at A (r13) is possible now.]
;W[mo];B[ln];W[nn];B[kq];W[lq];B[nm];W[om]
(;B[nl]LB[on:A]C[buckyyowza: cutting at A (p6) seems to be the sensible thing to do. see variation on 132]
;W[lm];B[mm];W[ol];B[fp];W[fq];B[gq];W[fr];B[jm];W[kk];B[il]
;W[ik];B[gl];W[em];B[fn];W[ep];B[kj];W[lj];B[ki];W[mk]
(;B[nk]LB[ll:A]C[buckyyowza: not bad, but A (m8) is better. see variation on 152.]
;W[li];B[jh];W[jj];B[kh];W[lh];B[lg];W[ng];B[ni];W[kc];B[kd]
;W[jb];B[mh];W[oj];B[mg];W[nj];B[nf];W[ic];B[jd];W[og];B[of]
;W[pf];B[pg];W[qg];B[ph];W[oh];B[qh];W[qi];B[rh];W[oi];B[qf]
C[buckyyowza: neat!];W[qe];B[rf];W[ri];B[re];W[rd];B[se];W[sd]
;B[sg];W[ok];B[si];W[sj];B[sh];W[rk];B[lr];W[mr];B[ks];W[ll]
;B[db];W[eb];B[da];W[ec];B[fk];W[fj];B[qq]C[buckyyowza: this is quite a bit late and now has no chance for success with all those white stones in there.]

(;W[pq];B[qr];W[rp];B[rq];W[pr];B[qp];W[rn]
(;B[sp];W[ro];B[po];W[rm];B[sr];W[on]LB[rs:A]C[buckyyowza: white should have played A (s1) for the kill.]
;B[rs];W[kp];B[jp];W[lp];B[jo];W[bg];B[bf];W[ag];B[ch];W[aj]
;B[ak];W[ai];B[af];W[bh];B[df];W[ea];B[cb];W[ek];B[fl];W[gs]
;B[hs];W[fs];B[ir];W[ps];B[qs];W[ms];B[ls];W[hd];B[ld];W[ib]
;B[mi];W[mj];B[so];W[sn];B[sq];W[ef];B[cf];W[gg];B[el];W[en]
;B[tt];W[tt];B[tt]C[
 DDT dead @ Q6
 DDT dead @ P17
 k963 dead @ H7
 k963 dead @ R13
 DDT done
 DDT done];TW[fa][ga][ha][ia][ja][na][oa][pa][qa][ra][sa][fb]
[gb][hb][kb][mb][nb][ob][qb][rb][sb][gc][nc][oc][pc][rc][sc]
[fd][od][pd][fe][ge][ah][gi][pj][qj][rj][dk][jk][lk][pk][qk]
[sk][kl][pl][rl][sl][dm][pm][qm][sm][pn][qn][no][oo][po][np]
[op][eq][nq][oq][er][nr][or][es][ns][os]TB[aa][ba][ca][ab][bb]
[ac][bc][ad][bd][ae][be][je][ke][le][jf][kf][lf][sf][jg][kg]
[qg][rg][al][am][gm][hm][im][an][gn][ao][bo][go][ho][io][ap]
[gp][hp][ip][aq][bq][hq][iq][ar][hr][kr][rr][as][is][js][ss]
C[The game is over.  Final score:
   White = 67 territory + 17 captures + 0.5 komi = 84.5
   Black = 50 territory + 4 captures = 54
White wins by 30.5.

buckyyowza: nice game.  this was a pretty close match for play at your level.  your biggest problems are leaving joseki prematurely and trading too much influence for too little territory.  it is better to get no points in territory than to be enclosed.

black's play is too local and paranoid about liberty shortages.  an extra liberty is very good aji, but you need to use it... the aji in not seeing the extra liberty is bad enough to put you in gote unnecessarily. you need to consider the whole board, not just the safety of your stones. you need at least as many points as your opponent to win, so with each move you need to have a plan for making up the difference or keeping a comfortable lead. think about what is alive, what is dead, what is connected to what, what is effectively connected to what, and what can escape and to where. as you learn to see the board better by constantly keeping an eye on these things, the score should seem more obvious, as well as how to even it.    it's been a fun looking over this game. let me know if you have any further questions about this game or about go at all.

 --
Mark Fyffe (buckyyowza and aheimlich on various go servers)]
)
(;B[po];W[ro];B[rm];W[qm];B[sp];W[sm]))
(;W[ro];B[pq];W[oq];B[or];W[np];B[nr];W[ms];B[rr]))
(;B[ll];W[kl];B[lk];W[jk];B[mj]C[buckyyowza: very nice for black.]
))
(;B[on];W[no];B[pm];W[ol];B[pl];W[ok];B[pk];W[pj];B[qk];W[nj]
;B[ri]))
(;B[ob];W[oa];B[nb];W[qb];B[lb])
(;B[ob];W[lb];B[qb];W[rb];B[pa];W[qe];B[na]))
(;W[hi];B[hh];W[fi];B[gh];W[fh];B[hj];W[ig]C[buckyyowza: hmmm...]
))
(;B[qd];W[pc];B[oc];W[rd];B[re];W[rc];B[qe];W[ob];B[pb];W[qb]
;B[nb];W[pa];B[nc]))
(;B[ge];W[he];B[gf];W[gg];B[hf];W[if];B[hg];W[hh];B[ig];W[jg]
;B[ih];W[ii];B[jh];W[kh];B[ji];W[jj];B[ki];W[li];B[kj];W[kk]
;B[lj];W[mj];B[lk];W[ll];B[mk];W[nk];B[ml];W[mm];B[nl];W[ol]
;B[nm];W[nn];B[om];W[pm];B[on]))
(;W[ge];B[gd];W[hd];B[gc];W[gb];B[hc];W[ic];B[hb];W[ib];B[ha]
;W[ia]))
(;W[cm]
(;B[bm];W[bo];B[bn];W[bq];B[ao];W[br])
(;B[bn];W[bm];B[am];W[bk];B[ck];W[cl];B[al];W[ak];B[an];W[ao]
;B[bo];W[bq])
(;B[bo];W[bm])))
(;W[cm]
(;B[dq];W[bm];B[bo];W[eq];B[er];W[fq])
(;B[bm];W[bq]
(;B[br];W[bo];B[aq];W[bn];B[dq];W[eq];B[er];W[fq])
(;B[bo];W[dq];B[cr];W[br]))))
(;B[en];W[fp];B[bp];W[cq];B[po];W[qp];B[op];W[oq];B[np];W[mr]
C[buckyyowza: black is thick in the center and on the left side. white gets a little territory.. key concept is little]
))
