(;FF[4]GM[1]SZ[19]ST[2]CA[UTF-8]AP[SGFC:1.16]

PB[foeZ]
PW[Slarty]
WR[1d]
KM[6.5]
DT[2013-05-24]
PC[The KGS Go Server at http://www.gokgs.com/]
RE[B+1.5]
TM[1800]
OT[5x30 byo-yomi]
RU[Japanese]

C[foeZ [-\]: thank you very much for teaching me
foeZ [-\]: let me stretch my back quickly, it's so hurting
--
Hi Slarly and foeZ.

Firstly a bit of a caveat, I have only recently started playing again after a two year break, so I am a bit rusty.  Please take anything I say with caution.]
;B[qd]C[Slarty [1d\]: eh, have a nice game];W[dc];B[pp];W[dq]
;B[oc]C[--
I personally prefer to break up the left side here because I find that as black it leads to a simpler game.  I do not think your move is a mistake, it just gives white the opportunity to build a big framework and I find it hard to play as black against that.]
;W[qn]C[--
I would have played more like R10 as white - this move seems to ask for a loose pincer which is then a perfect extension]
;B[ql]C[--
I think this is fine but I personally would have played a looser pincer - probably Q9.]
;W[on];B[nq];W[pk]
(;B[pl];W[ol];B[qk];W[pj];B[qj];W[pi];B[qh]C[Slarty [1d\]: to use that thing
--
I think this is a good choice for black.]
(;W[om]C[foeZ [-\]: im a single digit kyu by the way
foeZ [-\]: i hope i can somewhat be a challenge still
Slarty [1d\]: always
foeZ [-\]: white can still make a ko in the corner, right?
foeZ [-\]: ok im ready
--
This move by white is very slow, I think it gives black the opportunity to take the lead.

Yes black can cut at P7 without it but the cut is very minor as R3 is still open.  

This move gives white nice thickness so I would be choosing between gently reducing that and collecting points and challenging white to think of a way ofcatching up.

For instance you could K16, Q12, K4, C10...];B[ce]C[Slarty [1d\]: yeah that's still gotta be there
foeZ [-\]: it's too slow right now though
foeZ [-\]: later black can r5 and fix that
Slarty [1d\]: with r6 it probably just lives
foeZ [-\]: ok
foeZ [-\]: r3 r4 s4 s5 s2 r5 q3 q2 something like this?
foeZ [-\]: you should have taken sente there
foeZ [-\]: black got ahead here
Slarty [1d\]: ehhh]
(;W[ci]C[foeZ [-\]: i think p7 was a bit slow
foeZ [-\]: by the way
Slarty [1d\]: ok
Slarty [1d\]: that would be great
--
I'm not very familiar with the joseki which follow from this white move.  I would probably play F15 because I'm vaguely concerned as black about the thickness developing in the centre]
;B[cc]C[--

I don't really like this choice.  You get a settled group in sente but white gets nice influence in both directions.  I guess it depends what you're going to use sente for]
;W[cb];B[dd];W[ec];B[bc]C[foeZ [-\]: because white has nothing to develop at the top
Slarty [1d\]: it's unclear]
(;W[gd]C[shipburner [7k\]: although i see and play the seq in upper left myself, i believe its not joseki and here appears not so good for B
foeZ [-\]: g16 is for when there is something to develop
foeZ [-\]: like a white stone nearby
Slarty [1d\]: I was planning on playing the next move on the top
foeZ [-\]: there's no time
foeZ [-\]: but the principle is still correct
--
I would have played G16 at H17 personally];B[do]C[shipburner [7k\]: the d16 move i think is the deviation ?
Slarty [1d\]: mm nope, check kogos
shipburner [7k\]: ok
Piem [1k\]: but black should play b18?
foeZ [-\]: top left is miai
foeZ [-\]: if white b18 b c13
foeZ [-\]: which is bad for white
foeZ [-\]: cos it's gote
foeZ [-\]: and small
foeZ [-\]: if w c13, b play b18
foeZ [-\]: and that's also small for white
foeZ [-\]: because it's a 1 space extension
Piem [1k\]: true, but so it is for b
foeZ [-\]: the top left is settled for now
foeZ [-\]: there is nothing to gain or lose there right now for both black and white until the game further develops
foeZ [-\]: if b play b18, white will just play a big move somewhere else
foeZ [-\]: it's super gote
foeZ [-\]: :p
foeZ [-\]: so far, i'm fairly pleased with my fuseki
Piem [1k\]: hm
Piem [1k\]: i see you guys are playing right now
foeZ [-\]: yes
foeZ [-\]: it's a teaching game, slarty is teaching me
Piem [1k\]: i'm sorry i interrupted :)
foeZ [-\]: it's ok
foeZ [-\]: we all learn from questions
shipburner [7k\]: excuse me too
foeZ [-\]: better to settle fast than to leave a hole
foeZ [-\]: in the end, i didn't capitalize on it
--
I'm not quite convinced by this move.  White will pincer and so settle C11.  Then you will jump and white will settle D3.  I guess it's ok, but I would be more interested in J17 and K4 personally]

(;W[cm]C[foeZ [-\]: no problem
foeZ [-\]: there is no points, no influence, no base
Slarty [1d\]: it would be a different game]
(;B[en]C[foeZ [-\]: i think g16 should be at h17
Slarty [1d\]: yes, e6 is nowadays considered odd, I believe
foeZ [-\]: i think it works well here
foeZ [-\]: it separates white
foeZ [-\]: so black can use that to make eyes/attack
foeZ [-\]: theres a weakness at c9 still
foeZ [-\]: white will have to defend that
foeZ [-\]: and he will become overconcentrated
foeZ [-\]: and there will still be aji
Slarty [1d\]: how do you know that :p
--
I would have played the jump.  To me this move is for when keeping C7 isolated is important but here white has C11 so the isolation is less interesting.]

(;W[cp]C[--
This move seems very slow by white, I would be seriously tempted as black to take the lower side and permit white to connect.]
;B[co];W[fq]C[foeZ [-\]: i as black wouldn't feel very comfortable in this position]

(;B[dl]C[foeZ [-\]: this is why i like getting lessons from dan players, they're so good :D]
;W[ck]C[foeZ [-\]: kyu teachers usually mess up
Slarty [1d\]: let's compare
foeZ [-\]: i think white is better off in this scenario
Slarty [1d\]: white has more territory and black still needs to live
foeZ [-\]: yeah you're right];B[gp]C[Slarty [1d\]: <big time messing up in store>
foeZ [-\]: what do you mean? i'm sorry i don't quite follow
Slarty [1d\]: you underestimate how weak 3d is
foeZ [-\]: haha, im sorry but im not quite strong enough to underestimate them
foeZ [-\]: my friend says that i'm probably between 5kyu and 3kyu
foeZ [-\]: there's too much for black to keep in mind i think]
;W[gq]C[foeZ [-\]: i've been reading books and watching lectures from high dan players to improve my direction of play while doing life & death problems to improve my reading, it's rough
foeZ [-\]: i really wanna become 1dan
Slarty [1d\]: try watching games e.g. on tygem sometime, if you feel a plateau]
;B[hp]
(;W[fo]C[Slarty [1d\]: better plan than extending on the top
--
F5 feels much too crude to me.  Black has the c8 push, B8, D4... and D8 really helsp too.]

(;B[dp];W[bp]C[--
I don't like this at all with the E4 weakness.]
(;B[fp];W[eq];B[hq]C[--
I guess this result is ok for you but I think you missed an opportunity.]
;W[ep];B[eo];W[gn]C[Slarty [1d\]: this cut is a much more serious thing to keep in mind

--
The cut is a problem but it isn't an urgent concern, I think white activated it too early.]

(;B[fl];W[hm];B[gk]C[--
This move feels very slow to me - I would prefer F10 locally but you can jump further]
;W[hk]C[Slarty [1d\]: ok...so like I said, there were no big mistakes
foeZ [-\]: subtle mistakes
Slarty [1d\]: most of what I noticed was play forcing moves a little rashly
foeZ [-\]: impatience :p
foeZ [-\]: i wouldn't want white to start poking at my shape to be honest
Slarty [1d\]: ah...the mirror argument
foeZ [-\]: g8 is pretty big for white
foeZ [-\]: by playing those forcing moves, i fix g8 in sente
foeZ [-\]: letting white push up makes the wall on the right very effecient
OtterGo [6k\]: Black C8 good?
foeZ [-\]: c8 is too soon to play
foeZ [-\]: black must first run out, then make eyes]
(;B[fn];W[go];B[gm];W[hn]LB[gm:3][fn:1][hn:4][go:2]C[foeZ [-\]: i wanted to ruin your shape while fixing mine
foeZ [-\]: and getting points
foeZ [-\]: black is practically alive there now
Slarty [1d\]: yes, but in reality you can't get extra stones for free
Slarty [1d\]: white got thick
foeZ [-\]: thats true
Slarty [1d\]: was there any need?
foeZ [-\]: if white surrounds black, he will have a huge advantage
Slarty [1d\]: c8 is inefficient after this sequence];B[jo];W[hl]
;B[gj];W[bb];B[cg]C[foeZ [-\]: e10
foeZ [-\]: yes, black should e10 here
--
E10? I would have played where you played]
(;W[ei]C[foeZ [-\]: e9 can be cut
foeZ [-\]: and will give black an eye
Slarty [1d\]: so, e11 here is flexible, hence interesting]
(;B[dj]C[foeZ [-\]: it's interesting, but a bit odd shape
foeZ [-\]: i messed up there
foeZ [-\]: thanks for showing me a better move, you're right
Slarty [1d\]: that doesn't mean your way was wrong. however, it's a one way street
--
It's handy for black that white has this weakness but I think it's too early to activate it]
;W[di]C[foeZ [-\]: e11 was a bit too much i think
foeZ [-\]: there is a better shape there i believe];B[cl];W[bl]

(;B[cj]C[--
This feels like ajikeshi.];W[bj]C[foeZ [-\]: n3 isn't devastating unless black gets cut]
;B[dk];W[bh];B[hj];W[lo]C[foeZ [-\]: the capture wasn't necessary
--
Agreed]
(;B[kp];W[jn]C[foeZ [-\]: instead of b9
OtterGo [6k\]: L3 v L4?]
(;B[bk]C[foeZ [-\]: b9 is a panic move, really slow
--
This is a really big mistake.];W[fg];B[ed]C[foeZ [-\]: m4
foeZ [-\]: it guarantees life, but still not very good];W[fd]
C[foeZ [-\]: for b];B[ef]C[foeZ [-\]: this was bad for black
Slarty [1d\]: well, you saw what happened when you just poked at my odd shape
foeZ [-\]: but i was aiming for the cut, which i was never able to do]
;W[bf];B[be];W[ee];B[fe];W[ff];B[ge];W[he];B[gf];W[hg];B[eg]
;W[fh];B[bg]
(;W[mq]C[foeZ [-\]: this was a great tesuji
foeZ [-\]: i didn't see it
foeZ [-\]: i'll remember it for the future
Koios [5k\]: n3 seemed pretty devastating...
foeZ [-\]: white is better off with a move at L17];B[mp];W[lp]
;B[lq]
(;W[mr]C[Slarty [1d\]: well. complicated again :)
foeZ [-\]: when i played k5, i also considered playing it at L4
foeZ [-\]: i should have done that, better shape
Slarty [1d\]: but I might have prefered to play L3
Slarty [1d\]: this corner is not real territory];B[lr];W[np]
;B[mo];W[no];B[mn];W[oq];B[nr];W[or];B[ms]C[foeZ [-\]: it isn't :p
foeZ [-\]: s6 is a fun tesuji
foeZ [-\]: black won't play there anytime soon]
(;W[io]C[foeZ [-\]: i messed up here too, i could have still kept attacking your shape
foeZ [-\]: must respond to j5
foeZ [-\]: can't ignore it]
(;B[ip];W[ko]C[foeZ [-\]: i wouldn't play so close, but i guess it could work]
;B[jp];W[lm];B[ln];W[kn];B[km]TR[pp]C[foeZ [-\]: that
foeZ [-\]: for sure
foeZ [-\]: but you gained there a lot too
foeZ [-\]: black was ahead most of the game actually looking at this]

(;W[ll];B[jm];W[in];B[ml]C[foeZ [-\]: this was a poor move, should just tenuki
foeZ [-\]: at the top
Slarty [1d\]: m6 thank you move
--
This is quite a painful mistake by you];W[lk];B[jj];W[jk]C[foeZ [-\]: L16 high is only good if white has a framework
foeZ [-\]: which he hasn't
foeZ [-\]: so just take points]
(;B[hd]C[--
Good to take sente.  I'm not sure about this particular point - after H14 white's shape here is quite strong.]
;W[hf];B[de];W[hc]
(;B[id]C[foeZ [-\]: you're awesome, thanks];W[ic]C[Slarty [1d\]: you are playing well...no huge mistakes
Slarty [1d\]: I would expect a kill by now :p];B[fc];W[gc];B[fb]
;W[eb];B[jd];W[jc]C[foeZ [-\]: yeah, too eager, was a mistake, gave black too much points]
;B[kd]C[foeZ [-\]: but i saw weakness on the top left white group]
;W[kg]C[foeZ [-\]: not as much as he could have
foeZ [-\]: but still
foeZ [-\]: it's solid territory
Slarty [1d\]: it was severe, but all the white stones are still working
foeZ [-\]: yeah
foeZ [-\]: h16 could have been at a better place than the cut
foeZ [-\]: but i'd still play it at the top
foeZ [-\]: it was biggest
Slarty [1d\]: consider making your extension first
foeZ [-\]: yes];B[lj]C[foeZ [-\]: black gets points];W[mk]C[foeZ [-\]: you just read better than me there
Slarty [1d\]: I know L17 is a very compelling point
Slarty [1d\]: it's the late mid game now...
foeZ [-\]: it's a very big move
foeZ [-\]: but i guess it's more complex than i thought
Slarty [1d\]: why not just wreck my center
Slarty [1d\]: and continue to profit from the attack
foeZ [-\]: sides before center
Slarty [1d\]: it's quite difficult to know which direction is more big/urgent
foeZ [-\]: the top is very big, i think biggest
Slarty [1d\]: that's an opening proverb
foeZ [-\]: it's already extremely hard to make points in the center
Slarty [1d\]: there are dozens of stones in the center
Slarty [1d\]: whose value will be affected by this decision
foeZ [-\]: i think the top is bigger than the center still]

(;B[kc]C[foeZ [-\]: this move was really really big
Slarty [1d\]: oh really, what's the count where we stopped?]
;W[ji]C[foeZ [-\]: white is still in trouble];B[ii];W[kj];B[hh]
C[--];W[gg];B[ki]C[--
oh, gosh, I hadn't expected this.];W[ij];B[jh]
(;W[ee];B[rn]C[foeZ [-\]: i don't see white making lots of points there
foeZ [-\]: r5 here
foeZ [-\]: i read it out all the way to the cut at p4]
(;W[ro]C[--
Is this an overplay?]
(;B[qo];W[po]C[foeZ [-\]: thats also true :p];B[qp];W[rp];B[rq]
;W[rm];B[sp];W[sn];B[op]C[foeZ [-\]: w should nobi there btw]

(;W[qe]C[foeZ [-\]: if b tenuki, white hane and captures btw]
;B[pe];W[pf];B[qf]
(;W[qg]C[--
I think white has overemphasised the right  here, the corner reduction could have been as bigger]
;B[rf];W[pg];B[rg];W[oe];B[pd];W[jj];B[ph];W[oh];B[qi]
(;W[kh]
(;B[oi]TW[ge][gf][rn]TB[ck][mq][mr]C[foeZ [-\]: this is also a lot of points lost
-- 
This is really, really big.  Acutally, I think P13 is bigger.]
;W[bn]C[--
This doesn't kill?];B[bo];W[ao];B[al]
(;W[bm]C[Slarty [1d\]: furious reading
foeZ [-\]: xD
foeZ [-\]: the snapback there was brilliant :p
foeZ [-\]: i was like, free eyes, aw hell yes
Slarty [1d\]: so where did I lose the most points now];B[dm]

(;W[md];B[mc];W[nc]C[--
Overplay, this should die.]
(;B[nb];W[lc]
(;B[mb]C[--
Heh, you had nothing to fear but I guess you're comfortably ahead.]
;W[kb];B[lb];W[jb];B[ld]C[foeZ [-\]: in the end you lost some points there]
;W[ni];B[og];W[nh];B[of]C[Slarty [1d\]: n14 huge, that was all terrible]

(;W[qq];B[pq];W[qr];B[pr];W[rr];B[cn]C[foeZ [-\]: thats 10 pts in gote
foeZ [-\]: bottom right];W[an];B[gr];W[fr];B[hr]C[--
H2 feels a little small but I guess with C3 it's ok];W[cr]C[foeZ [-\]: g2 is sente, i agree
foeZ [-\]: so h2 would be reverse sente
foeZ [-\]: for white
foeZ [-\]: i dno if it's actually bigger
foeZ [-\]: but i think it is];B[mf]C[Slarty [1d\]: huge misread, then]
;W[gl]
(;B[fm];W[fj];B[fk];W[ag];B[cf];W[af];B[ae];W[ah];B[ch];W[aj]

(;B[rl];W[eh]
(;B[dh];W[bi];B[mg];W[ak]C[--
This is surprisingly small, just 4 points.];B[mh];W[mi];B[ab]
;W[jg];B[ea];W[db];B[ba];W[gb];B[ih];W[gi];B[hi];W[mm];B[lh]
;W[li];B[ka];W[nn];B[mq];W[ng];B[nf];W[le];B[kf];W[ke]
(;B[lf];W[je];B[me];W[ie]
(;B[nd];W[gs];B[hs];W[fs]
(;B[ja];W[ia];B[la];W[qs];B[ps];W[sq];B[sl]C[--
This is smaller than say E10];W[fe];B[ca];W[fa];B[ac];W[da]
;B[ej];W[aa];B[ba];W[pm];B[fi];W[gh];B[fj];W[oo];B[os];W[tt]
;B[sm]C[foeZ [-\]: thats 1 pt
foeZ [-\]: sorry];W[qm];B[tt];W[tt]TW[ea][ga][ha][fb][hb][ib]
[fc][ge][gf][ai][ki][oi][lj][mj][nj][oj][ik][kk][nk][ok][al]
[il][jl][kl][ml][nl][am][im][jm][km][nm][pn][rn][so][ap][sp]
[aq][bq][cq][rq][ar][br][dr][er][sr][as][bs][cs][ds][es][rs]
[ss]TB[ma][na][oa][pa][qa][ra][sa][ob][pb][qb][rb][sb][lc][nc]
[pc][qc][rc][sc][ad][bd][cd][md][od][rd][sd][ne][oe][qe][re]
[se][df][pf][sf][dg][pg][qg][sg][rh][sh][ri][si][rj][sj][ek]
[rk][sk][el][em][dn][iq][jq][kq][oq][ir][jr][kr][mr][or][is]
[js][ks][ls][ns]C[Koios [5k\]: ko?
Koios [5k\]: b9
foeZ [-\]: even with ko i win
foeZ [-\]: omg
foeZ [-\]: xD
foeZ [-\]: this is honestly the first time i beat a dan player
Slarty [1d\]: the endgame is really important
foeZ [-\]: ever
foeZ [-\]: thanks for the game slarty!!!
Slarty [1d\]: if you keep playing like this without snoozing, you'll go pretty far
foeZ [-\]: im so happy right now xD
foeZ [-\]: wanna review?
Slarty [1d\]: :D
foeZ [-\]: if so i'll go grab some water
Slarty [1d\]: yeah water
foeZ [-\]: brb
Slarty [1d\]: I want to know my weaknesses :p!

--
Ok, overall I think you played pretty well.  I got the feeling that white was playing a teaching game and experimenting with things and you didn't fall for any of the traps.  

There were a few moves I commented during the game as being suboptimal but nothing huge.  Most of it was not taking opportunities to punish white more.

Sorry I haven't really reviewed from white's side - I felt white was testing you which makes it very hard to review.  Where white has made a move I really disagreed with I commented at the time.]
)
(;B[rs]
(;W[sr];B[qs]C[--
Slightly bigger])
(;W[qs];B[sr];W[ss];B[sa];W[sq];B[sb];W[os]C[--
The only problem with threatening the ko is that white has this big follow-up]
)))
(;B[fs]))
(;B[je]C[--
This way you get sente at the cost of a stone];W[lf];B[lg];W[jf]
;B[me];W[kf]))
(;B[fe]))
(;B[bi]C[--
This move prevents white electing to do the big sacrifice if it was appropriate (e.g. if a ko lead to a genuine kill opportunity).]
))
(;B[fj];W[fm];B[em];W[ej];B[ek]))
(;AW[me]AE[md]C[foeZ [-\]: if it were here, it'd be easier to connect up
foeZ [-\]: granted, there would have been a different sequence]
)
(;W[hr]C[foeZ [-\]: is this bigger?
foeZ [-\]: black won't connect r3 in gote];B[ir];W[gr];B[ka]
;W[qq]))
(;B[nd];W[mb]
(;B[ld];W[nc];B[me])
(;B[me];W[ld];B[lb];W[le];B[ma])))
(;B[nd]
(;W[lc];B[nb])
(;W[nb];B[me]C[--
Black has no problems?])))
(;W[me]C[foeZ [-\]: this is severe enough and more solid
foeZ [-\]: it can connect up with the other stones more easily]
;B[mc]))
(;W[am]C[foeZ [-\]: hm, can i quickly scan the game and see if i can tell?]
))
(;B[og];W[of];B[ng];W[mf];B[nh];W[oi];B[nf]C[--
White can't get away];W[ne];B[me];W[nd];B[md];W[nc];B[nb];W[mc]
;B[mb];W[lc];B[lb]))
(;W[og]C[foeZ [-\]: this might have won you the game
foeZ [-\]: on hindsight]))
(;W[re]))
(;W[qq]))
(;B[op];W[qq];B[qp];W[rq];B[rp];W[sp];B[qo];W[so];B[pn];W[qm]
;B[pm]))
(;W[qo]C[foeZ [-\]: gimme i'll show]
(;B[ro]
(;W[qp]C[foeZ [-\]: s4]
(;B[rp]C[foeZ [-\]: yes
Slarty [1d\]: what else
Slarty [1d\]: that was my first variation
foeZ [-\]: this is better for white i think])
(;B[ph]C[foeZ [-\]: white can take more points in the corner than with the hane]
))
(;W[rp]C[foeZ [-\]: no
foeZ [-\]: for black]))
(;B[rp]C[foeZ [-\]: no])))
(;W[kh]C[foeZ [-\]: would have gone for the ko
foeZ [-\]: for sure
foeZ [-\]: evne if black loses the ko, it doesn't hurt him much
foeZ [-\]: but if white loses it, it hurts a lot
Slarty [1d\]: wait that didn't make much sense
Slarty [1d\]: foeZ [-\]: would have gone for the ko foeZ [-\]: for sure foeZ [-\]: evne if black loses the ko, it doesn't hurt him much foeZ [-\]: but if white loses it, it hurts a lot
foeZ [-\]: let black win the ko
foeZ [-\]: and you'll see it hurts white a lot
foeZ [-\]: but if white wins the ko, it doesn't hurt black a lot]

(;B[jj];W[tt]C[foeZ [-\]: so it's a good ko for black])
(;B[tt];W[li]C[Slarty [1d\]: white has a lot to gain
foeZ [-\]: but black loses nothing
Slarty [1d\]: including b6
foeZ [-\]: it's still not that big because black has q12
foeZ [-\]: and black can also still push at k13
Slarty [1d\]: it's irrelevant because white can't win this ko]
)))
(;B[jh];W[gg];B[ee]
(;W[jg]C[foeZ [-\]: no no definitely not k12
foeZ [-\]: white just plays L17
foeZ [-\]: it's sente])
(;W[kc]C[foeZ [-\]: i read the nobi there as sente]
(;B[jg]C[foeZ [-\]: hane];W[jf];B[kf]C[foeZ [-\]: atari];W[ke]
;B[if]C[foeZ [-\]: tconnect];W[lf]C[foeZ [-\]: did i misread?]
;B[ie];W[ig];B[ld];W[ii];B[ij];W[ji];B[kh];W[ki]C[foeZ [-\]: white cconnects, right?
foeZ [-\]: yeah];B[lh];W[kj];B[fi]C[foeZ [-\]: and black needs to make eyes now]
;W[gi];B[fj];W[eh]C[foeZ [-\]: but this might be better for black afterall]
)
(;B[ld]C[Slarty [1d\]: haha sure l17 can be sente if b decided to attack]
;W[jg]C[foeZ [-\]: but i guess it only hurts white]))))
(;B[fc];W[id]C[foeZ [-\]: that.... was a HUGE mistake :(
foeZ [-\]: can i take it back? :(]))
(;B[kd]C[foeZ [-\]: i'd even go low, for points])
(;B[kc]C[Slarty [1d\]: but, point is, why not just here];W[ph]
;B[qg];W[ld];B[lc]C[Slarty [1d\]: sure
Slarty [1d\]: w does have a little framework :)
foeZ [-\]: white can't take points there, black gets more]))
(;W[jk]C[--
I would have played here]))
(;B[jk];W[jp];B[ko];W[jq];B[ir];W[jr])
(;B[hr]))
(;W[rn]C[foeZ [-\]: too slow
foeZ [-\]: right now
Slarty [1d\]: rather big
foeZ [-\]: it's big, but the top is bigger
Slarty [1d\]: ~20 points even?]))
(;W[kq]
(;B[mr];W[lr]C[foeZ [-\]: no, extend
Slarty [1d\]: better the ko
foeZ [-\]: im not so sure about that, black has no threats
Slarty [1d\]: m2 makes an empty triangle
foeZ [-\]: white will win the ko, for sure
foeZ [-\]: 100%];B[mq];W[jq])
(;B[lr]C[foeZ [-\]: yes
Slarty [1d\]: this extend is bad shape
foeZ [-\]: white can't disconnect black]
(;W[kr];B[mr];W[jp];B[ko];W[io];B[kn];W[ln];B[km];W[jq]C[foeZ [-\]: just take the 3 stones, fair exchange]
;B[mm];W[lm])
(;W[jp]))))
(;W[mc]C[Slarty [1d\]: yeah, much better
_-
I like the idea of something over here, but I think N3 is ok as white should finish in sente.]
)
(;W[lq]C[Slarty [1d\]: no
foeZ [-\]: here?
foeZ [-\]: no
Slarty [1d\]: as an early opening move
foeZ [-\]: im confused]))
(;B[lp]))
(;B[jm];W[jk];B[mn];W[mo];B[no];W[ln];B[lm];W[mm];B[ll];W[nn]
;B[kj]))
(;B[bm]C[--
at least kill a stone?];W[bn];B[bk];W[am];B[cj];W[bj];B[ak]
;W[aj];B[dk];W[bi];B[bo];W[ao];B[cq];W[bq];B[cr];W[br];B[ap]
;W[aq]
(;B[cn];W[dm];B[em])
(;B[dm];W[cn]))
(;B[bj]
(;W[bk];B[cj])
(;W[cj];B[bk];W[bm];B[bi];W[bo];B[gh])))
(;B[hj]C[Koios [5k\]: which he got, no?
foeZ [-\]: black connected
Slarty [1d\]: for forcing moves, you sorta need to apply the 123 principle
Slarty [1d\]: why not go somewhere you really want to play first, then are the forcing plays still work, or even better?
Slarty [1d\]: so, either
Koios [5k\]: q3 too?
Slarty [1d\]: live by moving out, then cut me
Koios [5k\]: q4
Slarty [1d\]: or])
(;B[cl]C[Slarty [1d\]: think about living with eyes/points
foeZ [-\]: you will see the q4 tesuji later
Slarty [1d\]: but still don't help me get strong to attack the group above]
)
(;B[ff]C[foeZ [-\]: this is much better yes
foeZ [-\]: i agree
Slarty [1d\]: once g9 lives there are many ways to attack w]
))
(;W[ej]C[Slarty [1d\]: yes, it's better shape at first glance, definitely]
;B[tt];W[gl];B[fk];W[fm];B[em];W[ek];B[el])
(;W[dh]C[Slarty [1d\]: maybe so. I was a little quick
foeZ [-\]: b turns now h10 i think
Slarty [1d\]: aiming at e9
Slarty [1d\]: so e10 looked a little slow
Slarty [1d\]: *quick to play
Koios [5k\]: isn't e10 an important point for black too?
OtterGo [6k\]: H10 is the bigger gamble -- bigger capturing contest]

(;B[ej]C[foeZ [-\]: if white e10 black h10
Slarty [1d\]: it's rather slow
foeZ [-\]: maybe black should h10 either way
foeZ [-\]: the turn is really big
Slarty [1d\]: it depends on what attack b launches next])
(;B[hj]C[Slarty [1d\]: well, again
foeZ [-\]: this is practically sente
Slarty [1d\]: it's mandatory to get out
Slarty [1d\]: e10 is too cramped for life
Slarty [1d\]: *for making life
Koios [5k\]: I mean I thought e10 looked better for white than e11, because it's better shape + more annoying for black
Slarty [1d\]: h10 practically sente]))
(;W[ek]C[foeZ [-\]: black can cut this
Slarty [1d\]: I was really wanting to get e9];B[tt];W[gl];B[fk]
;W[fm];B[em];W[el]))
(;B[hj])
(;B[gj]C[Slarty [1d\]: that's true of almost any move
Slarty [1d\]: in this rea])
(;B[gi]C[Slarty [1d\]: don't get surrounded...it's why you should strongly consider moving out before anything else
OtterGo [6k\]: Running provides life for a while...
foeZ [-\]: not running too
Slarty [1d\]: it's the fastest route to life in this case
OtterGo [6k\]: But is B making territory?
foeZ [-\]: not right now
foeZ [-\]: there are no points to gain for b at this point
OtterGo [6k\]: Plans to pressure Left side?
foeZ [-\]: yes
Slarty [1d\]: you have to make your groups live. it's mandatory.
Koios [5k\]: black was the guest on the left to begin with
Slarty [1d\]: if you can do it in one move, you'll have lots of time to make points
Slarty [1d\]: he took profit at h3, ottergo
OtterGo [6k\]: THat was a nice investment...
OtterGo [6k\]: (H3)
Slarty [1d\]: and can attack g6 in order to deal with white's wall]
))
(;B[ej]C[--
You can go further too]))
(;B[eq]C[--
This is slightly better shape for you I think];W[er];B[ep];W[cr]
;B[fp])
(;B[cq]C[--
This move is interesting to see how white protects];W[dr]C[--
If white plays here then you can play your old sequence and now the weakness of B4 is much more interesting]
))
(;B[fp];W[eo];B[ep];W[dp];B[gn]C[--
White can't even cut so white's move doesn't have a real threat to it]
))
(;W[iq]C[foeZ [-\]: this is what i read by the way
foeZ [-\]: instead of f5
foeZ [-\]: can't get closed in
foeZ [-\]: just jump out
Slarty [1d\]: sure
foeZ [-\]: anyway, we played for more than an hour, reviewed for an hour
foeZ [-\]: i rly need to go to the toilet
foeZ [-\]: and bed as a matter of fact
foeZ [-\]: this was a really really fun game, i learned a lot!!!
Slarty [1d\]: thanks
foeZ [-\]: thanks for the game Slarty!
foeZ [-\]: cya]))
(;B[ck]C[Slarty [1d\]: this could be interesting to aim at
foeZ [-\]: black will create 2 weak groups like this
--
This will get complicated, E6 is not so strong and c15 has some weaknesses too.  Hard fighting]
)
(;B[gp];W[gq];B[gn]C[foeZ [-\]: white h4 too big];W[hp]C[foeZ [-\]: black must extend first]

(;B[ck]C[foeZ [-\]: black can't let white get the hane, it's too big
Slarty [1d\]: you can be comfortable if all your stones are working well
foeZ [-\]: i don't think black is strong enough to counter yet]
)
(;B[ho]C[foeZ [-\]: this gives too much points to white];W[ip]
;B[io];W[jp];B[ck]C[foeZ [-\]: whats why i think black should play h4
foeZ [-\]: it makes his stones stronger and presses white down so he can't hane
Slarty [1d\]: too much?
foeZ [-\]: f5 still has aji in it
foeZ [-\]: white gets points for free
foeZ [-\]: and c13 is still sente for white
Slarty [1d\]: true])))
(;W[fp]C[foeZ [-\]: however you look at it, white has to defend the c9 weakness, right?
foeZ [-\]: but does white really want to add a stone there?]
)
(;W[em]C[Slarty [1d\]: there's always this
foeZ [-\]: can i?]))
(;B[cq];W[cr];B[cp];W[er]
(;B[em]C[foeZ [-\]: this is terrible for black
foeZ [-\]: white just fixes at d9];W[dk]C[foeZ [-\]: puts a lot of pressure on black
foeZ [-\]: black needs to go on the outside here];B[fq]C[foeZ [-\]: because of c11
Slarty [1d\]: c11 is a little narrow here
foeZ [-\]: this shape is not good for black
foeZ [-\]: there are 2 cutting points
foeZ [-\]: and white is strong all around];W[ep];B[eo];W[fp]
;B[hq]C[Slarty [1d\]: it's not good for white to cut
foeZ [-\]: 2 weak groups in my opinion
foeZ [-\]: black is separated
foeZ [-\]: that's never good])
(;B[en]C[foeZ [-\]: neither h3 or c4 are alive
Slarty [1d\]: then play here
foeZ [-\]: i don't think that black gets anything here
VingtDeux [12k\]: hi, do you mind if i join?])))
(;W[cl]C[foeZ [-\]: i think this is better
arararar [7k\]: why not tenuki
foeZ [-\]: but that's just my opinion
foeZ [-\]: i like solid
arararar [7k\]: treat d5 lightly
foeZ [-\]: this way black can't attack anything
foeZ [-\]: he will just have to live first
foeZ [-\]: and white can take points while black tries to live
Slarty [1d\]: black can attack the corner
--
I don't have an opinion.  I would have played C7 without considering C8, but that's more because I don't often play this pincer.]

(;B[cq];W[cr];B[cp];W[er]C[Slarty [1d\]: that's not an attack]
;B[fp])
(;B[fq]C[foeZ [-\]: something along these lines?])
(;B[cp]C[Slarty [1d\]: yes f3 or f4])
(;B[fp];W[co]C[foeZ [-\]: i think white can settle either way, no?]
;B[cn];W[cp];B[dn];W[fr]C[Slarty [1d\]: c8 is weak
foeZ [-\]: c8 is fine
foeZ [-\]: just play c13
foeZ [-\]: it's sente];B[cg];W[ei]C[foeZ [-\]: this is fine
foeZ [-\]: because black isn't strong either on the bottom left
foeZ [-\]: the relative strength of both groups is fairly even
Slarty [1d\]: black keeps the iniative
foeZ [-\]: i think white is stronger even, because he has a base
Slarty [1d\]: and leads on territory
foeZ [-\]: white has the r3 invasion still
foeZ [-\]: so territory is not that big of a problem
foeZ [-\]: also
foeZ [-\]: there is still the top area
foeZ [-\]: where white can play k17 or something]
(;B[ic]C[foeZ [-\]: now white attacks blacks bottom group
Slarty [1d\]: in this position black can just take advantage of that now
foeZ [-\]: black can't afford to play away i think])
(;B[dj];W[di];B[ic]C[foeZ [-\]: white can still attack the bottom group]
))))
(;W[hc]C[foeZ [-\]: better to just go for solid shape
foeZ [-\]: theres no aji there]
(;B[jc]C[foeZ [-\]: k17 is as gote as it gets])
(;B[ic])))
(;W[qq];B[qp];W[rp];B[ro]
(;W[rr];B[sp])
(;W[rq];B[qo];W[or]C[foeZ [-\]: oh right sorry]))
(;W[cg])
(;W[lq];B[no]C[foeZ [-\]: yeah ok, but black isnt closed in
foeZ [-\]: so, i dno
Slarty [1d\]: that exchange costs some points]))
(;W[ce]C[Slarty [1d\]: oh is that the new way
foeZ [-\]: it's always been like that as far as i remember
foeZ [-\]: it's too slow for black or white to play there any further
foeZ [-\]: at least for now
foeZ [-\]: this is even i think
foeZ [-\]: black has 2 corners and some on the side
Slarty [1d\]: I should have played m3];B[nl];W[ok];B[om];W[nm]
;B[pm];W[ml])
(;W[lq]C[Slarty [1d\]: if I make P7 move/wall, M3 becomes a good followup
Slarty [1d\]: sometime later];B[qp];W[mo]C[Slarty [1d\]: in the game
foeZ [-\]: you mean this?
foeZ [-\]: ah]))
(;B[qo]C[--
This is joseki but I would not choose it here.  I think Q9 is too far away from R16 for it to be a good choice]
;W[qk];B[rn];W[qm];B[rm];W[rl];B[ce]C[foeZ [-\]: hm, i suppose that this joseki is more solid for both players
Slarty [1d\]: if you want to avoid being pressed down, there's this joseki
foeZ [-\]: but i don't want your wall facing my enclosure though
foeZ [-\]: that would be back
foeZ [-\]: bad*
foeZ [-\]: the extension is fairly useless right now
Slarty [1d\]: ehrm, and vice versa
Slarty [1d\]: it's good to have a strong stone in front of a wall
foeZ [-\]: i guess that's true too
Slarty [1d\]: so that was just a suspicion]))
