(;FF[4]GM[1]SZ[19]ST[2]CA[UTF-8]AP[SGFC:1.16]

PB[Oel]
BR[4k]
PW[gojapansea]
WR[4k]
KM[6.5]
DT[2013-06-29]
PC[The KGS Go Server at http://www.gokgs.com/]
RE[W+3.5]
TM[2100]
OT[5x40 byo-yomi]
RU[Japanese]

C[It was fun to review this game.
It was a perfect example mojo against territory.

I prefix my comments with g4:
I hope you enjoy it.

peter];B[pd]C[Oel [4k\]: hi
Oel [4k\]: have fun
gojapansea [4k\]: hi];W[dp];B[qp];W[dd];B[oq];W[nd];B[pf];W[pc]
;B[qc];W[oc];B[qb];W[jc];B[cn]C[Leo: Maybe I missed to play around R10? Think this would have been the Joseki move.
g4: It's a matter of taste. Nothing wrong with C6. If you don't play on the left side, white can play perfectly at C10, which is also good looking.]
;W[dj]C[g4: With C6 already in place black has now better options.]
;B[cq]C[g4: Possible, but this gives white a perfect mojo. Play this only, if you are confident to handle this mojo. I'd like to play E6 instead.]
;W[cp];B[dq];W[ep];B[bp];W[bo];B[bq];W[co];B[fq];W[fp]C[Leo: This is good result for White, isn't it? Did I choose the wrong direction for my approach move? Would F3 have been a better choice?
g4: If you really don't want to play against a mojo, you should consider playing C10 instead of an approach move. But C6 in itsself seems OK to me.]
;B[gq]C[Leo: Anyway I decided that making secure territory on the 3rd line isn't too bad, is it?
g4: This is correct. There are many invasion and reduction points in white's sphere of influence. But it may become more difficult to decide the right way.]
;W[pj]
(;B[qi]C[g4: Perhaps I wouldn't have resonded to Q10. I'd prefer G4, expanding yout influence and reducing his.]
;W[qj];B[pi];W[oj];B[ql];W[jj]C[Leo: Now White has a splendid mojo and Black has quite secure territory. Is the game still even?
g4: Very difficult question. In my opinion, yes it is still even. But playing against a mojo is a difficult task. I'd add some possibilities here of how to handle this perhaps.]

(;B[cf]C[Leo: Is this a good point to start an invasion? My next choice would have been C16 (although I'm not that used to this attachment).
g4: There is enough room to live. This should be OK.];W[df]
;B[dg];W[ef];B[ci]C[g4: I you want to play here now, I would try C10. Attaching makes both sides stronger. You will need. And this reaches out to C6 which is annoying for white.]
;W[cj];B[bi]C[Leo: Too heavy - should I better try to move out?
g4: Definitely yes. Moving out is a must.];W[bj];B[ei]C[g4: OK Nothing happened.]
;W[ej];B[gh];W[di];B[dh];W[fi];B[bd]C[g4: I would play F12 and fight the ko. If you play against a mojo, you have always plent of ko threats.]
;W[ce];B[be];W[cg];B[bf];W[eh]C[g4: Good sequence by white.]
;B[ch];W[eg];B[dc]C[Leo: Is this too much? Should Black just make his group alive playing B13? The way I played this ended in gote which made White place the 'last' stone O13 to almost turn his mojo into territory.
g4: I don't think this group can be killed now. You have to defend if there is a white stone at B17. The corner is surely big. But I think all moves which enter the mojo are somewhat like sente and should be played first. For example N14, K12, N12, H5 or even L17.]
;W[ec];B[cc]C[Leo: Stretching to D18 would have been sente (and a much better move), wouldn't it? Think I was afraid of some kind of tesuji here.
g4: Reading is always difficult. D18 seems better here.];W[eb]
;B[db]C[g4: This is worth nearly nothing. Enter the mojo instead.]
;W[ng]C[g4: Good point. Now it's very tough.];B[nh];W[mh];B[ni]
;W[og];B[pg];W[li];B[nj]C[g4: How about N11, preparing for N9?]
;W[ol];B[mk]C[g4: Black is strong here. Should be at N8.];W[pm]
;B[qm];W[mm];B[ml];W[pn];B[qn];W[np];B[po]C[g4: Avoid moves which solidifies the attacking target. Something like L7 comes to my mind.]
;W[oo];B[op]C[g4: You are helping white to get two eyes.];W[no]
C[Leo: I think attacking the weak White group in the right center was strategically okay. Anyway I was not able to get much territory in the lower right. What went wrong? Was N8 too lame?
g4: I hope my ideas have answered this.];B[nm]C[g4: This is gote. Playing in the inside ist mostly only good, if you can kill. Better M7.]
;W[mn]C[g4: Should be at N6 to gain sente.];B[nl];W[om]C[g4: Not too bad fpr black now.]
;B[lp]C[g4: I would rather like to block white's way to his friendly stones. Perhaps K7?]
;W[nq]C[g4: ? K7 or K6 and the game is nearly over.]
(;B[lr]C[g4: I had tried L6. White can make only one eye at the bottom.]
;W[lo];B[kl]C[g4: I'd like to block anyway. If K7 is enough I don't know.]
;W[kp];B[kq];W[mr]C[g4: Still only one eye.];B[jp]C[g4: very good.]
;W[ko]
(;B[il]C[g4: Why not K5?];W[jo];B[ip];W[jm];B[jl];W[hn];B[gl]
;W[hk];B[hl]C[g4: If you answer like this you can't coonect to G12. I had tried G5 to attack the B5 group.]
;W[hp]
(;B[hq]C[g4: J5 instead. You can only play this way, if you are confident of winning. Did you count as good? Bt the fighing is also tough.]
;W[ho];B[fn];W[fo];B[nn]C[g4: Makes the ko smaller. You should avoid this move.]
;W[on]C[Leo: This exchange didn't help Black. Just removed one Ko thread.]
;B[in]C[Leo: Most definitely was a mistake. Here I missed the chance to connect to C6 and lost a significant amount of points on the left side.
g4: yes];W[io];B[im];W[en];B[el];W[dl];B[ne];W[me];B[od];W[nc]

(;B[kj]C[g4: J10 and crosscut is more annoying for white.];W[ki]
;B[ij];W[ii];B[hj];W[hi];B[md];W[le];B[jk];W[ji];B[gj];W[gi]
;B[na];W[nb];B[oa];W[pa];B[pb];W[ma];B[ob];W[mb];B[em];W[dm]
;B[ok]C[Leo: I think White just did not see this Ko. Or was he aware that there aren't any big threads? I found it several moves before and therefore could have chosen a better timing or preparation if there would have been a chance?
g4: If you hadn't played O6, the ko would be too big for white.]
;W[pk];B[pl];W[nk];B[lc];W[oe];B[ok];W[oi];B[oh];W[nk];B[nf]
C[g4: Just Q15 is right here. But maybe too small. A5, G4, D6, E19or even K18 seem bigger.]
;W[of];B[pe];W[mf];B[ok];W[ai];B[nk]C[g4: Why? Giving 5 for 5? Justtake at B13.]
;W[bh]C[Leo: During the match I though taking the Ko won me some points. Now I'm not that sure anymore. E.g. G4, D6, E19  would have been other possible Ko thread.
g4: Yes of course. You made some 4 or 6 points here.];B[ea]
;W[fa];B[da];W[gb];B[cd]C[g4: Too small.];W[or];B[pr];W[ps]
;B[qr];W[qs];B[rs];W[os];B[rr]C[g4: A5 is now bigger and double sente.]
;W[eq];B[er];W[ap];B[aq];W[ao];B[lm];W[ln];B[jn]C[g4: N1 is perfectly sente.]
;W[mq];B[lq];W[ls];B[ks];W[ms];B[jr];W[lj];B[lk];W[ek];B[fk]
C[g4: G6 is bigger.];W[fm];B[fl];W[hm]C[g4: ?];B[gm];W[gn];B[bg]
;W[gp];B[ag];W[mp];B[kn];W[de];B[kk];W[ah];B[fm];W[tt];B[tt]
TW[ga][ha][ia][ja][ka][la][fb][hb][ib][jb][kb][lb][fc][gc][hc]
[ic][kc][lc][mc][ed][fd][gd][hd][id][jd][kd][ld][md][ee][fe]
[ge][he][ie][je][ke][ne][ff][gf][hf][if][jf][kf][lf][nf][dg]
[fg][gg][hg][ig][jg][kg][lg][mg][ch][dh][fh][gh][hh][ih][jh]
[kh][lh][bi][ci][ei][aj][ak][bk][ck][dk][al][bl][cl][am][bm]
[cm][an][bn][cn][dn][do][eo][go][mo][nr][ns]TB[aa][ba][ca][pa]
[qa][ra][sa][ab][bb][cb][rb][sb][ac][bc][rc][sc][ad][qd][rd]
[sd][ae][qe][re][se][af][qf][rf][sf][qg][rg][sg][ph][qh][rh]
[sh][oi][ri][si][oj][pj][qj][rj][sj][gk][hk][ik][pk][qk][rk]
[sk][ll][rl][sl][jm][km][rm][sm][rn][sn][qo][ro][so][pp][rp]
[sp][iq][jq][pq][qq][rq][sq][ar][br][cr][dr][fr][gr][hr][ir]
[kr][sr][as][bs][cs][ds][es][fs][gs][hs][is][js][ss]C[Oel [4k\]: thanks
gojapansea [4k\]: ty

Leo: Finally I made some mistakesin the end game (e.g. not playing D15) and lost by 3.5 points. What were the most severe defects in my game? I marked some situations where I (now) think I made a mistake. Probably you also found others.

Thanks again for taking the time to review my game!

g4: I hope my ideas helped a little.
It was a good game which I liked to review.])
(;B[ij];W[ii];B[ji]
(;W[jh];B[hi];W[ki];B[hj])
(;W[hj];B[kj];W[ik];B[ki])))
(;B[io];W[in];B[go]
(;W[gn];B[fo];W[fn];B[gp];W[dn];B[en];W[em];B[eo]
(;W[cm];B[fm])
(;W[fm];B[do];W[dm];B[bn]))
(;W[gp];B[ho];W[hq];B[gn])))
(;B[jo];W[jn];B[jm]C[g4: Looks deadly.]))
(;B[kn]
(;W[or];B[pr];W[pq];B[pp];W[ps];B[qr];W[mr];B[lr];W[lq];B[kq]
;W[mq];B[kr]C[g4: One eye in gote!])
(;W[km];B[lm];W[ln];B[ll];W[ko];B[jn];W[jo];B[lo];W[in];B[jm]
;W[im];B[jl];W[kq];B[lq];W[kr];B[lr];W[mr];B[kp]C[g4: Difficult but I think black has to fight.]
)))
(;B[kc]
(;W[jd];B[kd]
(;W[ke];B[le];W[ld];B[kf];W[je];B[md];W[lc];B[mc];W[kb];B[me]
)
(;W[je];B[ke];W[nf];B[jf];W[if];B[ig];W[hf];B[nh]))
(;W[kd];B[ld];W[lc];B[mc];W[kb];B[lb];W[kc];B[md]))
(;B[lj];W[oi];B[lg];W[og];B[of];W[ol];B[pm];W[nm];B[lm])
(;B[gp];W[go];B[ho];W[hn];B[in];W[gn];B[im];W[hl];B[bn];W[ao]
;B[en];W[fn];B[cj]))
(;B[gp];W[go];B[ho];W[hn];B[in];W[gn]
(;B[io];W[hl])
(;B[im]C[g4: Maybe this is overambitious leaving the weak points H4 and J5 but poking the head into his moyo seems urgent to me. Note that there are still invasion points on the upper side.]
)))
