(;FF[4]GM[1]SZ[19]ST[2]CA[UTF-8]AP[SGFC:1.16]

PB[Sennahoj]
BR[4k]
PW[FlexN]
WR[3k]
KM[0.5]
DT[2013-06-30]
PC[The KGS Go Server at http://www.gokgs.com/]
RE[W+Time]
TM[1500]
OT[5x30 byo-yomi]
RU[Japanese]

C[Hagios: Hello; this game showed a few areas you might consider improving.  The fighting was not very good for black, and you missed a few key points in this game.  I'll do my best to provide helpful comments.]
;B[pd];W[cp];B[pp];W[dc];B[ep];W[hp];B[dm];W[eo];B[fo];W[en]
;B[dp];W[cn];B[fn];W[em];B[cq];W[bp]LB[fq:A]C[I did not expect this move. I guess the stone at D7 has a bit more aji than in the usual joseki, but what should one aim for?

H: This joseki allows black to make use of d7, so I'd avoid harming it.  The prescribed play is at A]

(;B[dr];W[qn]C[H: I feel W needed another move in the left.]
;B[nq];W[qk]
(;B[ce]LB[ce:B][dm:A]C[was this the right choice? It did not feel good when I got pincered.

H: This offers a double attack against the stones at A and B.  I'd avoid offering such a gift]
;W[cg];B[ee];W[fd];B[dh]C[H: I expect A]
(;W[ch];B[di];W[ci];B[dj];W[dg];B[eg];W[ck];B[df];W[dk]LB[ic:B]
[jc:C][dm:A][hp:D][jp:E][rp:F]C[H: This was needed due to the aji of A

This is a delicate moment.  Black now can give thought to the whole board state.  I see the following areas as interesting:

B is the normal extension of white after f16, so taking it or C (optimal extension from black's hoshi stone) is reasonable.
D is weak, so attacking around E is interesting.
F is an important point in the unfinished joseki];B[hc]LB[jc:A]
[eg:B]C[maybe this is overplay...

H: I'd prefer a simple play at A, because the group at B isn't very strong yet.]
;W[ge]
(;B[ie]LB[eg:A]C[H: This doesn't assist black in making a base, but white is pushed out to help pressure the group at A.]
;W[ff];B[cc];W[ef]
(;B[dd];W[ec];B[cf]LB[ed:A]C[H: This does not create any eyeshape due to the weakness at A]
;W[gg];B[fh]C[H: This move must follow careful reading.  Can you kill any white stones?  Otherwise, this is only a heavy group.]
;W[gj];B[cj]C[too early for this?

H: It's time to find out...];W[bj];B[bk];W[bi];B[bl];W[ek];B[bg]
;W[eh];B[qf];W[qq];B[qp];W[rp];B[ro]C[H: Is this best?  Can black attack white's two stones?]
;W[rq];B[qo];W[or];B[nr];W[oq];B[op];W[np];B[lq];W[mo];B[on]
;W[kp]LB[oq:A]C[H: White's group at A is not yet alive.  This is an important shape to learn.]

(;B[jq]C[this did not feel good. is there a better was for black to play to stabilise his stones (so that white has to come back and play in the corner, and black can take sente)?

H: In this case, I would consider killing white immediately.]
;W[kq];B[kr];W[jr];B[ir];W[lr];B[js];W[mq];B[mr];W[lp];B[ls]
;W[ms];B[lq];W[oo];B[mp];W[no]C[H: now life and death matters more for the white group.]

(;B[pn];W[mq];B[qm];W[lr];B[ei]C[lots of ko-fighting in this game...]
;W[gh];B[lq];W[rm];B[rn];W[lr];B[bh];W[fg];B[lq];W[cb];B[mp]
;W[bc];B[ai];W[eh];B[dn];W[eg]
(;B[aj];W[do];B[cd];W[ed];B[bd];W[ab];B[bn];W[bo];B[cm];W[co]
;B[ak];W[an];B[am];W[bm];B[ae];W[ah];B[ag];W[bf];B[bn];W[af]
;B[be];W[bm];B[ac];W[bb];B[bn];W[mq];B[ao];W[lr];B[fm];W[fl]
;B[lq];W[fp];B[mp];W[eq];B[fr];W[dq];B[ok];W[mq];B[lr];W[pi]
;B[mc];W[rl];B[mm];W[nl];B[nm];W[ol];B[pk];W[pl];B[ql];W[qj]
;B[ml];W[nk];B[mk];W[mj];B[nj];W[oj]LB[me:B][os:A]C[H: The two areas of concern now are A (kill white) and B, to keep a balance in the game.

Pushing white here is harmful to your position--notice that you don't have much cash yet.]
;B[lj];W[mi];B[li];W[lk];B[kk];W[lh];B[mh];W[ni];B[km];W[jn]
;B[ll];W[jl];B[kh];W[lg];B[jg];W[jf];B[kl];W[jj]C[unfortunately here black lost on time

H: At this point I don't think black lost the game completely, because white hasn't lived in the corner, and black might keep the moyo in the top still.  White benefitted greatly from the fighting, and feels slightly better (it's hard to keep the moyo totally black's)

I'd recommend looking into books on fighting and fuseki to further your game.]
)
(;B[do];W[aj];B[cl]C[H: probably best, no matter how distasteful.]
))
(;B[os]C[H: the situation is easier for black, now.]))
(;B[os]))
(;B[db]C[H: Better?];W[dd];B[cd];W[de];B[eb]C[H: The damage is limited and white's new strength doesn't help much.]
))
(;B[kc]C[H: This helps white less.]))
(;W[cd]))
(;B[cf]C[H: If white pincers now, it feels worse.];W[ci];B[cc]
;W[cd];B[dd];W[bc];B[cb];W[de];B[ed];W[ce];B[bb];W[fe];B[ee]
;W[ef];B[ec];W[ff]LB[dj:B][el:C][dm:A]C[H: A is not yet completely crushed, and white feels a little too focused on the left.  Note the interesting points at B and C.]
))
(;B[fq];W[bq];B[cr];W[ci]C[H: In this case, white feels a little overconcentrated on the left side, so I would not worry about black's small gain in the corner.]
))
