(;FF[4]GM[1]SZ[19]ST[2]CA[UTF-8]AP[SGFC:1.16]

PB[rarellano]
BR[4k]
PW[tekumse]
WR[3k]
KM[0.5]
DT[2013-08-09]
PC[The KGS Go Server at http://www.gokgs.com/]
RE[W+2.5]
TM[1500]
OT[5x30 byo-yomi]
RU[Japanese]

C[tekumse [3k\]: hi
rarellano [4k\]: hi

rarellano 4k: I reviewer. I lost this game (me , black) for 2.5 points (0.5 komi) .

There is some comments and suggested moves on some parts of the game, hope them help.

Hello Ricardo,
 I believe I reviewed one of your games berfore. I hope you played well.
Paul];B[pd]C[rarellano plays black.];W[dq];B[pp];W[dc];B[ce]
;W[dh];B[gc]C[Oh my... complicated.

If this is a variation you have studied then... good

But if not...];W[de]
(;B[cd];W[dd]
(;B[cc];W[cf]
(;B[db];W[eb];B[cb];W[fc];B[bf];W[cg];B[bg];W[bh]
(;B[gd]C[I would say this move is very bad. You should let this stone go. This move is right in front of W's VERY VERY STRONG wall and the group is now heavy; You can't expect to make much territory from these stones and they just become something for him to attack.]

(;W[gb]C[Also very bad. W should use his wall by driving you into it.]

(;B[do]C[Now W will have two groups to attack]
(;W[cm];B[cq]
(;W[cp]C[Wrong direction for W];B[dp];W[co]
(;B[eq];W[dr];B[er]
(;W[dn];B[cr]C[But this lower left area is not so important]

(;W[eo];B[ep];W[fo];B[kd]TR[gc][gd]C[rarelllano: this group was intended to be center-oriented.

Good!!!]
(;W[ic];B[id];W[jc];B[jd];W[lc]
(;B[ph];W[me]C[???]
(;B[ih]C[GOOD. The right direction of play. This addresses the main point which is to help your top group and reduce W's moyo.]
;W[gf]LB[pm:A][pn:B][mq:C]C[Maybe one of thest points if you are going to play on the bottom but I think you have to answer this white move.]

(;B[hq]C[rarellano: this feels slow now.

Yes, way too close to your strong group and white's strong stones, little value]
;W[if];B[kf];W[jg]C[This is why you need to come out earlier.

Here you don' want to give W a large moyo so maybe settle the top first.]

(;B[lg];W[kh];B[ho];W[ip]
(;B[hp];W[gn]
(;B[hn]C[rarellano:  I saw white's moyo turning into terroroty, but at the same time black is turning very thick to the right side. ( White could get what he wants )

This move pushes from behind. Maybe a knight's move is better.]
;W[hm];B[im];W[il]
(;B[hl];W[gm];B[jl];W[ik]
(;B[jk];W[jm];B[in];W[km]
(;B[ij];W[hk];B[hj];W[gk];B[kj];W[gj]
(;B[lh]C[rarellano: trying to connect. i fetl that was big... but now seems doubtfull.

Looks big to me.];W[kp];B[mp]C[I like this, good job. Drive W up against your wall.]
;W[mq];B[nq];W[mo]
(;B[lp]C[This is a sort of do-or-die move.

Better to play solidly and press him to live in a small bitter life in front of your wall while you get the right side.]
;W[lo];B[lq];W[no]TR[mq]C[You capture the delta stone but W breaks into the center.]

(;B[po];W[pm]
(;B[qm];W[pn];B[qn];W[pl];B[ql];W[pj];B[pk];W[ok];B[qk];W[oi]
LB[kc:B][li:A][qi:C]C[Look at Score Estt... it says you are 30 pts ahead

A and B are defects that you should address right away. The area around C is not important in comparison]

(;B[on]C[rarellano: see variation

Siren song... not so good];W[nm];B[nj];W[oj];B[om];W[ol];B[oo]
C[Tiny if you can't kill.

If white gets outside moves here your center group is in grave danger.]
;W[oh];B[nl]TR[gc][gd][id][jd][kd][kf][lg][ih][lh][hj][ij][kj]
[nj][jk][jl]C[rarellano: maybe I rushed to cut here. with a weak center group.

Difficult fight. The best way to win it is not go get into it.]
;W[nk];B[ml];W[mk];B[ll];W[kl];B[lk];W[kk];B[lj];W[jj]
(;B[og];W[ng];B[nf]C[rarellano: capturing race.];W[of];B[pg]
;W[lf]
(;B[mg]LB[kg:A]TR[gc][gd][id][jd][kd][kf]C[rarellano: I didn't connect at A aiming to save the marked stones with the aji on the top. maybe too risky.

This fight is over my head. It is incredibly complicated and I think you would need to be a high dan player to read it out in any reasonable time. I'll make some comments but I don't see a definitive line.]
;W[ki];B[li];W[kg];B[le];W[mf];B[md];W[ne]
(;B[nh];W[ld];B[ke];W[mc];B[nd];W[od];B[nc];W[oc];B[nb];W[ob]
;B[kc];W[mb];B[lb];W[na]
(;B[hb];W[hc]C[Good lord, everything is hanging everywhere.]
;B[hd]
(;W[jb]TR[hb]C[rarellano : I think this is a mistake.

Yes. Should give atari to delta.];B[ga];W[fb];B[ea]
(;W[pf]C[big, but the fight is not over.];B[kb]
(;W[ib];B[ia];W[ha];B[ji]
(;W[ja]
(;B[ig];W[jf]
(;B[hf];W[hg];B[he]C[rarellano: now i'm back on the game.]
(;W[qi];B[nf];W[jk];B[hh];W[gg];B[ie];W[ng];B[qf];W[qg];B[qh]
;W[rg];B[rh];W[rf];B[ri];W[ni]
(;B[mh];W[kq];B[lr];W[kr];B[np]C[Nonetheless it looks like you finish ahead.]
;W[gh];B[je];W[ag];B[ae];W[bq]
(;B[br];W[gr]
(;B[qe]C[rarellano: maybe this exchange wasn't necessary.

Big];W[qc];B[re];W[gq]C[Huge];B[bp];W[bo];B[aq];W[rd]
(;B[sf];W[fd]
(;B[jh]
(;W[fp];B[ao];W[bn]
(;B[is]C[?? This might be the loosing move.

You finished the game down by only a couple of points.
Try variation for a win.];W[ks];B[gs];W[fs];B[es];W[fr];B[pc]
;W[pb]
(;B[ls];W[pe];B[sg];W[qd]C[And that looks like the game];B[da]
;W[an];B[fe]C[At this point you just need to play at G15 in sente. This move looks like a sort of spiritual breakdown.]
;W[ge];B[gi];W[fi];B[hi];W[fa];B[kn];W[jn]
(;B[ln];W[ko];B[sd];W[sc]
(;B[af]
(;W[ah]C[This is probably OK but is very bad form.];B[bd]C[rarelano: I was uncertain about the corner]
;W[ap];B[bq];W[ao];B[mn];W[nn];B[ci];W[ch];B[se];W[nf];B[la]
;W[fq];B[ds];W[tt];B[tt]TW[ga][ia][oa][pa][qa][ra][sa][hb][nb]
[qb][rb][sb][ec][nc][pc][rc][ed][md][nd][pd][ee][fe][oe][df]
[ef][ff][dg][eg][fg][eh][fh][ai][bi][ci][di][ei][aj][bj][cj]
[dj][ej][fj][ak][bk][ck][dk][ek][fk][al][bl][cl][dl][el][fl]
[gl][hl][jl][am][bm][dm][em][fm][im][cn][en][fn][hn][in][go]
[ho][io][jo][gp][hp][jp][hq][iq][jq][hr][ir][jr][gs][hs][is]
[js]TB[aa][ba][ca][ab][bb][ac][bc][ad][be][if][jf][rf][jg][kg]
[qg][rg][kh][oh][sh][ii][ki][mi][ni][oi][pi][qi][si][mj][oj]
[pj][qj][rj][sj][mk][nk][ok][rk][sk][ol][pl][rl][sl][pm][rm]
[sm][pn][rn][sn][qo][ro][so][op][qp][rp][sp][dq][mq][oq][pq]
[qq][rq][sq][ar][dr][mr][nr][or][pr][qr][rr][sr][as][bs][cs]
[ms][ns][os][ps][qs][rs][ss]C[tekumse [3k\]: ty
rarellano [4k\]: gg
rarellano [4k\]: thx])
(;W[ad]C[just suppose there was a move like this...];B[be];W[ab]
;B[bb];W[ba];B[ah];W[bi];B[ac];W[bc];B[bd]C[This is OK for you because you win the capture race by one space.

BUT, these corner positions can be very very tricky.]))
(;B[ac]C[Just play here if you want. Then ...];W[ah];B[af]C[If W later follows up like this you have no peoblems in the corner.]
))
(;B[jo]))
(;B[pe])
(;B[qd]C[very big sente]
(;W[rc])
(;W[ls];B[ms]C[you can answer like this and W has no followup]
)))
(;B[ks];W[js];B[ls])
(;B[ge]C[Take this first. It is a sure sente];W[fe];B[pc];W[pb]
;B[qd];W[rc];B[nf];W[oe];B[mm];W[ln];B[nn]C[Now SE puts you 8.5 ahead]
))
(;W[ao]))
(;B[ao]C[Much bigger.];W[an];B[ap];W[bn];B[ks];W[js];B[ls];W[ir]
))
(;B[sg]C[This is a small style point but one worth considering.

This way of playing is called connecting from the live side.
Should things ever get complicated here your T line stone is connected.
If it is one line higher then it could get captured if the white group gets to capture.

In this position is is unlikely but if you make it a practice then you never suffer when it does make a difference.]
))
(;B[gq]LB[hr:A]C[I would want to answer. If W plays A you get sente.]
))
(;B[qe]))
(;B[nf]LB[qe:A]C[Maybe take again?

Later a play at A would be big if you win the ko.]))
(;W[hh];B[ie]
(;W[hi];B[je];W[ii];B[jh])
(;W[ii];B[hi];W[gi])))
(;B[qj];W[ni];B[mh]))
(;B[qj]C[Look at score est... you are 30 points ahead]))
(;W[jk]C[W can't do this]
(;B[qj];W[nf];B[ni];W[mj];B[pi]C[B wins the fight this way but is 30 points behind]
)
(;B[ig];W[jf];B[hf];W[hg];B[he];W[hh];B[ie];W[ii];B[hi];W[gi]
;B[je]))
(;W[hg];B[jk];W[qj];B[rh];W[rj];B[qe];W[qf];B[rf];W[qg];B[qh]
;W[rg]C[B cant do this]))
(;W[ja];B[fa]))
(;W[ib]
(;B[ha];W[ia];B[da];W[fa])
(;B[ia];W[kb])))
(;W[ib]))
(;B[ib];W[hc];B[jb];W[hb]))
(;B[ld];W[nh];B[nd];W[pf];B[qf];W[qi];B[oe];W[nf];B[pe]C[rarellano: i see white winning the capturing race here.]
))
(;B[kg];W[mg];B[jh])
(;B[nh];W[kg];B[ld];W[mc];B[md];W[nd];B[mf];W[ne];B[le]C[Just thinking out loud here. It looks to me like you can save your stones and are over 40 points ahead.]
))
(;B[md])
(;B[nf]))
(;B[qi]C[rarellano: simpler game.];W[ng]C[rarellano: but white has this.]
;B[gh]C[Yose. Dangerous time to play this.];W[oe];B[qf];W[he]
;B[hd];W[fg];B[ld];W[md];B[kc];W[mc];B[jb];W[hb]C[And your entire center group is at risk.]
)
(;B[ng];W[oh];B[og];W[pg];B[pf];W[qg];B[qf];W[qh];B[nd];W[md]

(;B[nc])
(;B[oc])))
(;B[on]C[Kill him]))
(;B[pn]C[Why not come out further?]))
(;B[np]C[This is almost always the correct shape]))
(;B[mm])
(;B[mp]C[If you do something like this];W[lh];B[mg];W[mh];B[ng]
;W[lk]C[You may have trouble]))
(;B[lk]C[I would not give atari but just play here directly.]
;W[jj]C[White cannot really play here];B[ll]CR[ih]LB[ij:A]TR[jm]
[km]C[White's marked stones are very weak and you threaten to engulf the lower right.

You can still play at A later and as stones appear around this area you maybe able to get the circled stone out.

The main point is that the area around A is small compared to the lower right quadrant of the board.]
))
(;B[jm];W[qq]C[Big reduction]))
(;B[jm]C[Better. Don't give atari];W[hl];B[oq]))
(;B[ik])
(;B[lq])
(;B[im]C[Try jumping. This puts more pressure on W and builds you up more quickly.]
))
(;B[iq];W[hp];B[jp]TR[hp][ip]C[W's delta stones are meaningliss]
))
(;B[kc];W[kb];B[jb];W[ib];B[lb];W[ja];B[mb]C[Though this looks  a bit thin]
)
(;B[mf]C[Maybe this]))
(;B[io])
(;B[jf]C[I would just get this group to safety]))
(;B[ld];W[mc];B[md]
(;W[nc];B[nd])
(;W[nd];B[kc];W[kb];B[nc]C[Not so good for W]))
(;B[jh]LB[kc:A][he:C][jg:B]C[I would be more inclined though to play one space to the right.

This move is further away from W's thick wall on the left and a little closer to your stones on the right side.
Since you have the cut at A in an emergency this is probably OK. If not, I would personally consider playing at B instead.

Don't forget that you want to be able to answer W's peep at C.]
))
(;B[kc];W[kb];B[jb]
(;W[ib];B[lb];W[ja];B[mc]C[Very large])
(;W[mb];B[ka];W[lb];B[ib])))
(;W[qf];B[nd];W[rd];B[qc];W[qi];B[hb];W[ha];B[ib];W[ia];B[ja]
;W[ga];B[jb]C[Now you have sente and B's top is not so big]
))
(;W[fo]C[I think this move is better locally but...])
(;W[ic]C[mis click])
(;W[jd])
(;W[kc];B[mc];W[ke]C[It's time to attack on top]))
(;W[cr]C[simple. easy, good for you];B[cn];W[bn];B[bq];W[br]
;B[bo];W[dn];B[bp];W[cn]C[you get it all]))
(;B[cn]C[This is joseki];W[dn];B[bn];W[bq];B[cr];W[bo];B[eq]
;W[bm];B[en];W[dm]C[This is joseki but W is very overconcentrated on the left side whild your stones work nicely]
;B[jp]))
(;W[cr];B[cp];W[gq]C[Much better than game]))
(;W[ic]C[Not so good])
(;W[jd];B[gf];W[nc];B[qf];W[he];B[ge];W[jf]C[Danger for black]
)
(;W[fp];B[cq];W[cr];B[cp];W[cm];B[br];W[dr];B[bs]
(;W[bo];B[bp];W[ap];B[aq];W[ao]TR[bm][cn]C[But if a stone ever gets played on one of the marked points then your group will not have eyes]
;B[bn];W[cn];B[co]C[W can't do this now])
(;W[jq]C[W gets good shape on the bottom])))
(;B[hb]C[You can block.];W[fa];B[ic];W[kc]
(;B[mc];W[jd];B[gf];W[he];B[ge];W[jf];B[ef];W[df]C[But you are on the run with no territyry to show for it.]
)
(;B[ie];W[nc];B[oc];W[nd];B[pf];W[ke]C[Now your group is weaker than white's because yours is up against the wall and his in not]
))
(;B[mc]C[I would still go here]))
(;W[kd];B[ie];W[nc];B[qf];W[ic]C[And your group is in a lot of trouble]
))
(;B[mc]C[This limits his ability to make a large terrirory]
))
(;B[bf];W[cg];B[bg];W[bh]
(;B[jc];W[cb];B[bb];W[db];B[ba]C[I like this better for B])
(;B[kc]LB[ic:A]C[The idea here is to let W play at A because he will be overconcentraated there and he is already alive. This way he can't easily attack the marked bleck stone]
)))
(;B[cf];W[df];B[bh]C[I think this is a little better for you]
;W[bi];B[ch];W[ci];B[di];W[eh];B[dj];W[ck];B[dk];W[cl];B[cc]
C[This is a possibliity if you want to fight]))
(;B[df]C[I think B has to separate the W stones.]))
