(;FF[4]GM[1]SZ[19]ST[2]CA[UTF-8]AP[SGFC:1.16]

PB[Numsgil]
BR[2k]
HA[2]
PW[fuhsan]
WR[1d]
KM[0.5]
DT[2013-06-27]
PC[The KGS Go Server at http://www.gokgs.com/]
RE[W+Resign]
TM[1500]
OT[5x30 byo-yomi]
RU[Japanese]
AN[Ivanov Viktor]

AB[pd][dp]C[Numsgil [2k\]: hi
fuhsan [1d\]: hi];W[pp];B[dd];W[fc];B[cf]
(;W[db];B[cc];W[ic]C[Very peaceful begginig. W is very patient (see var).]
;B[qj];W[fq];B[hq]LB[dn:A][hq:B]TR[dj][qj][pp]C[This is a first interesting move in this fuseki.

Normally pnicer means b wants the bottom side, big moyo on lef side or to prevent big w's big bottom.
Right now b can't get big territory on the bottom because of w's hoshi, can't get big moyo because it's not prepared. Also there is no reason to reduce w's bottom, since w is quite limited there, b's r10 move already does that job.
Playing B is a big decision, but I would rather play A so b would have a solid advantage.]
;W[cq]C[Simple 3-3 and b doesn't have good answer here,];B[dq]
;W[cp];B[do];W[dr];B[er];W[cr];B[eq];W[cn]LB[cj:A][lq:B]TR[pp]
C[Now b's left and bottom side reduced naturaly.];B[em]C[This move was played too early (see var).]

(;W[dn];B[en];W[cl]
(;B[qq]C[This move helps w (see var)];W[pq];B[qp];W[qo];B[ro]
;W[qn];B[rn];W[qm];B[pr];W[or];B[qr];W[nq]LB[hq:A]C[Now all power of A group is neutralized, actually that group is kind of weak now.]
;B[kq]C[Has to play this move, but w is ok and have sente also.]

(;W[qc]C[Again, this doesn't look so good (see var).];B[qd]
;W[pc];B[oc];W[ob];B[nc];W[nb];B[mc];W[rd];B[re];W[rc];B[qf]

(;W[kc]C[This move looks very slow (see var).];B[ci];W[cb]C[W starts yose but what about the center (see var)?]

(;B[mb];W[fr]
(;B[ds]C[This move is not good (see var).];W[fo];B[eo];W[gn]
;B[co];W[bo];B[dl];W[bm];B[ck];W[dk];B[ek];W[dj];B[cj];W[ej]

(;B[fk]C[This move feels a bit soft (see var).];W[fj];B[gk]
;W[in];B[kn];W[dm]
(;B[jl]C[Overplay (see var)];W[ko];B[lo];W[jn];B[ln];W[lp];B[kp]
;W[jo];B[mp];W[lq];B[mq];W[lr];B[mr]
(;W[kr]C[W doesn't want live locally it seems (see var).];B[jq]
;W[il];B[ik];W[jk];B[hl];W[im]
(;B[jj]C[Was this really needed? (see var)];W[kk];B[kl];W[el]
;B[fm];W[ll];B[km];W[ij];B[hk];W[hj];B[gj];W[gi];B[ji];W[ii]
;B[ih];W[hi];B[jh];W[lk];B[fi];W[gh];B[gg];W[fh];B[ei];W[fg]
;B[fp];W[gp];B[gq];W[ep];B[di];W[dl];B[fp];W[fl];B[ep];W[gm]
;B[hp]C[B lost the fight.];W[mh];B[mi];W[li];B[lh];W[mj];B[ni]
;W[lg];B[mg];W[kh];B[nh];W[cg];B[dg];W[df];B[ef];W[dh];B[eg]
;W[eh];B[ch];W[ff];B[ee];W[fe];B[lf];W[kf]
(;B[ke]C[It's not right order of moves (see var).];W[mf];B[le]
;W[ng];B[jf];W[kg];B[ie];W[me];B[ld];W[jd];B[je];W[od]C[And b collapses.]
;B[hc];W[hb];B[lc];W[kb];B[oe];W[nd]C[In the beginning of the game b's strategy wasn't good. W's play wasn't ideal too, but b didn't punish him for his slow moves.
In fight b lost cutting stones which made it a lot easier for w. So it's not really about reading after all.

There was no yose in this game but in both fuseki and chuban w played better.
I think you should improve your stratedic play, try solving opening and middle game problems, read books with these themes.

If have any questions about review feel free to ask me on KGS or via email.
Thank you.])
(;B[lh]C[This move should be played first.]))
(;B[kl]C[Better to play here first.]
(;W[ij];B[hk]
(;W[hj];B[gj];W[gi];B[jj];W[kk];B[lk];W[kj];B[ji]C[Now it works.]
)
(;W[kk];B[gi]C[B can escape here])
(;W[hi];B[jj];W[kk];B[lk];W[kj];B[ji];W[ki];B[gi];W[el];B[fm]
;W[gj];B[hj];W[ii];B[jh]C[Still problems for w.]))
(;W[jj];B[el]C[This fight looks good for B.])))
(;W[jq]C[W have this option.]))
(;B[el]C[Cutting stones are very important!
What can w do now?]))
(;B[fj]C[This should be right shape here.]))
(;B[fs]TR[gr]C[B can play her, cutting w's stones with a possibility of connection his own at the same time.]
)
(;B[fp]C[This move is also possible. Center is more important than lower terrtiory here.]
;W[gp]C[W can try to cut but];B[fs];W[fo];B[gq];W[ep];B[gr]
C[This is very bad for w.]))
(;B[ln]TR[fd][oj][dk]C[B has many good continuations after this.]
))
(;W[ko]TR[qc][ch][oj]C[Because of w's 3-3 it's not easy for him to find a move, but there's still many big points on the board.]
))
(;W[nc];B[pf];W[pb];B[qc];W[ld]C[W can play solidly like this]
)
(;W[qf]C[And also w can start a fight using his strong group at the bottom.]
))
(;B[nq];W[qn];B[no]C[B should play like this for expanding his area.]
))
(;W[cm]LB[cl:D][cm:B][em:A][bo:E][fo:C][kq:F][nq:G]C[B made an exchange A to B but it was not good for him. Aji at C area is still there and now B lost his opportunity to play sente move at D aiming at E.
Instead of A I would recommend to play F or G.]))
(;W[lc]C[Often w try to play very fast to compensate handi.
Guo Juan doesn't recommend this as w's strategy for handi games especially for teaching games.
She said that it would teach your opponent to play overplay moves.]
))
