(;FF[4]GM[1]SZ[19]ST[2]CA[UTF-8]AP[SGFC:1.16]

PB[slaiyfer]
BR[11k]
PW[Velizar]
WR[10k]
KM[6.5]
DT[2013-07-01]
PC[The KGS Go Server at http://www.gokgs.com/]
RE[W+Time]
TM[900]
OT[2x20 byo-yomi]
RU[Japanese]

C[--
Hi, I'm sisyph, your reviewer. My comments will begin with some dashes. I'm about 5k on kgs. Take that into account when reading my comments. 

You've asked for a level evaluation. I'm not sure I can do that. Anyway, playing slow game on kgs will give you a more accurate level than any I can give you. Play and enjoy Go that's what is important ^^

Let's Go !];B[pd]C[Velizar [10k\]: hi gg];W[dp]C[slaiyfer [11k\]: hi hav a gg ^^]
;B[pq];W[de]
(;B[ec]LB[cc:A][dc:B][qk:C]C[Opening error here right? Didnt know Joseki for takamoku

--
The usual approach of a takamoku (kakari) are at A or B. Your move is also possible, but with stones closer, I think. What you have to consider is not the joseki but the whole situation and where you want to go. By playing takamoku white emphasize influence and the left border. Your approach go with white plans, abandon the corner, but works with your hoshi. Anyway at our levels, this is not a losing move ^^

See http://www.eidogo.com or http://www.josekipedia.com to rapidly browse josekis.

Remember that what's important is not to learn joseki but to STUDY them. That's mean understanding why one should play here or there. A good way is to study the ones deriving from a position you have encountered in a game like here.  

Maybe the best thing is to play elsewhere like around C to get a chinese opening.]
;W[dc]C[--
Well, here you see why your previous move is not joseki. I cannot see a good move for Black.]

(;B[dd]C[--
Not one I would play ^^
You wedge in like that when you have stronger stones around. Here White can choose how to play ...]

(;W[cd]C[--
E16 might be better. It seems too easy for black to build a framework with the hoshi. It makes your approach not that bad.]
;B[ed]
(;W[ce]C[--
Good for you ...];B[cc]C[Think I got lucky. What do I do if he connects at C17 earlier?

--
Yes ! You get most of the corner !];W[db];B[cb]C[--
Good !];W[dj]
(;B[ic]LB[kc:C][nc:D][ee:A][qk:B]TR[db][dc]C[--
Hum. You are left with the aji of the triangled stones.

A move at B or at another big point is tempting, but then White could use the aji to enlarge his framework. 

Anyway, your move is too close to your corner. To minimize aji and enlarge my framework I will play at the limit of the stones, around A. If you want to go for the upper side, play further to the right to have a more balanced formation, at C or even further at D. B is also playable I think. In any case, then White will be able to play A.]

(;W[nc]C[--
Bad direction. There is more room on the right side or at the bottom.]

(;B[lc]CR[ja][ka][jb][kb]C[--
Bad direction. You are strong on the left. Push write toward your strong group. Here you get about 4 points and invite white to invade your corner ^^]

(;W[pc]C[--
Better at R17];B[qc];W[pb];B[qb]
(;W[mb]C[--
The shape move is at P16 ...]
(;B[cn]LB[od:B][ee:A][fq:C]TR[qb][qc][pd]SQ[mb][pb][nc][pc]
C[--
Usually bad to invade this side. there is more room at the bottom. the D10 stone works like an already in place loose pincer.

Moreover, you should not go away from the fight on the upper left ! Here there is two weak groups. The first player who can get the upper hand will gain something !

A is all the more good as you have J17.
B is the key point for the fight.
C is better direction to approach D4.

A good rule of thumb is :

- FIRST : strengthen your weak groups.
- SECOND : Attack opponent weak groups according to your strategy.
- THEN : take any big/good point according to your strategy.

It is important to defend else your opponent will use your weaknesses to get the upper hand !]

(;W[cl]C[--
Bad direction, you're lucky ^^];B[cq];W[cp];B[dq];W[ep];B[bp]
;W[bo];B[bq];W[co];B[fq];W[eq]C[--
Not good. White should play on the right side.He has played C8 so he can take sente]
;B[er];W[fp];B[gq];W[gp];B[qk]LB[od:A]C[--
It's a good point. But the move at A is more important as it a key point for you and your opponent !]
;W[qe]LB[od:A]C[--
You have not strengthened your group, White can use your weakness to get the upper hand.

NB: This kind of peep is often bad, unless you use it to make your opponent use a bad shape.]
;B[qd];W[re]LB[od:A]
(;B[qg]LB[od:A]C[--
This one seems bad because you push white against your weaker group. Probably too close too. When attacking stay away ^^]
;W[pf]C[--
White keeps you separated.];B[od]C[--
Good keep white separated while attacking the shape point];W[nd]

(;B[of];W[pg]TR[of][qg]SQ[pf]C[--
This is bad shape for you ! Your keima is cut. You see now why R13 is too close.]
;B[ne];W[me];B[md]C[--
Bad for you, it's a ladder.]
(;W[ld];B[mf];W[le];B[qh];W[oh];B[nh];W[ng];B[og];W[ph];B[lh]
;W[pj];B[qi];W[pi];B[pk];W[qj];B[rj];W[ni];B[mh];W[mi];B[nl]
;W[nq]
(;B[lq]LB[hq:A]C[--
Hum, this side is not really interesting. White has a move at A to erase your territory. Better play to get points in the corner.]
;W[jq]C[--
Strange.];B[mp];W[qo]C[--
Stranger ^^];B[po];W[pn];B[oo];W[qp];B[qq];W[pp];B[oq];W[op]
;B[np];W[on];B[no]C[--
All this turned very good for you. The White group will have a hard time living while you got a lot of territory !]
;W[hq]
(;B[nn]LB[qn:A]C[--
Hum. Using the cut at A is probabl better to kill White ... This said I'm not sure white can succeed ^^]
;W[qf]C[--
White should try to save his group ...];B[kf]C[Too concerned with running out till I forgot about R11 group

--
You are nearly out, and WHite should not be allowed to save if lower right group !]
;W[rk];B[rl];W[ri];B[sk];W[rh]TR[on][pn][qo][op][pp][qp]C[--
White save his group, but now the other one is nearly dead !
Great result for you !]
(;B[ch]LB[kc:B][ee:E][dg:D][cn:C][qn:A]TR[aa][ba][ca][da][ea]
[ab][bb][db][eb][dc][nf][ng][ar][br][cr][dr][mr][nr][or][pr]
[qr][as][bs][cs][ds][es][ns][os][ps][qs][rs]SQ[na][nb][md][rf]
[sf][qg][rg][sg][qh][sh][qi]C[Trying my luck. Any better way to invade?

--

Well, the first thing to consider if whether you have to invade, reduce or just consolidate your territory. In order to decide, you have to count !

If you count, you can see that you have about 30 points (triangles).
White have only 15 points (squares).
You are leading in term of territory.

White have more potential territory than you about 20 (left side) against 10 for you (upper side).
That's means that even if you let white close the left border while you close the upper side, you will lead the game !

You have also to consider weak groups.

If you kill the white group at A, you get more than 30 points !!! As it seems already dead, that means you lead and can play safe moves just to consolidate your lead.

If you play B, White can only get a false eye and have to live, while you will get territory !

There is aji at C and the reduction around D. 

E remains a good point.

This considered, the way to win is to play simple moves to just win ^^ 
The invasion favors white, as he will try to complicate the game !

More than that, with the invasion, white can use the ajiof his two corner stones !

You should play B, then E to get points and force white to close his territory, and win ^^

I've tried some variations ...

By the way for an invasion, it is not a bad point ^^]
(;W[dg]
(;B[di]C[--
You invaded, your goal is to live. If your plan is to get out to reduce, better to play on the fouth line !]
;W[ei];B[cj];W[dh]
(;B[bf]C[--
The counter atari seems better. this move has no real aim !?

See variations ...];W[ci];B[bi];W[cg];B[bd];W[be];B[ac];W[ae]
;B[dl];W[ck];B[en]C[In the end only the existing D6 stone worked

--
It's good to create aji and to have light stones (sabaki). But it's better to aim at something. Anyway you kinda reduced white ^^]
;W[dr];B[fr];W[cr];B[br];W[el];B[em];W[dm];B[fl]C[--
Counter atari ^^ Good !];W[ek];B[dn]C[--
Small and dangerous, White can cut !]
(;W[cm]C[--
Lucky white answers your move ^^];B[gm];W[hn];B[hm];W[im];B[in]
;W[jn];B[io];W[ho];B[jo];W[ko];B[jm];W[ip];B[il];W[bn]
(;B[jp]C[L4 should be better right?  This lets L5 stone connect to to L3 by L4-J7 sequence

--
Yes, it is slightly better.]
(;W[kq];B[kp]C[--
This is small compared with L17 ^^];W[kc]
(;B[kd]C[Was lucky M15 group didnt push out and create weaknesses before capturing N16 stone. Would K 16 be better?

--
Usually when you want to attack or enclose a group you do not play contact move as your opponent cant use it to live/escape. So K16 is better.]

(;W[lb]C[--
With that move White's alive.];B[ke];W[mc];B[jc];W[jb];B[gh]
;W[lj]
(;B[ki]C[--
Wrong side. Many more points the other side ^^];W[kk]
(;B[kl]C[--
Bigger the other way ^^];W[ll];B[lm];W[jj];B[oj]C[2 peeps to ensure R9 group doesnt get cut off. Didnt have time to read in byoyomi so just being careful

--
You have to see that the R4 white group is dead ^^];W[oi];B[mk]
;W[lk];B[ff]C[--
Yes. Big.];W[ii];B[ih];W[jh];B[ji];W[hh]C[Velizar [10k\]: thx]

(;B[ij]C[This was where I intended to play before I ran out of time :/

--

^^

Well, white gets a ponnuki and the fight will get complicated. J13 seems better locally. 

You were leading from early in the game. Try to estimate points to decide what to do. When you lead play simple, sure moves. And do not try funny yose move to optimize your win, unless you lose because of time ^^

Concerning your level, I think that you can easily gain one or two stones by following my great advices ^^. The best thing to do is to play slow game (1h+) on kgs. That's the most accurate level you will have.

Enjoy go, the level will come naturally ^^.

Hope I've given you something to thing about, have fun !])
(;B[ig]C[--
Keep it simple ...]))
(;B[jj];W[km];B[kn];W[ln];B[lo];W[ll];B[ff]C[--
Way bigger ^^])
(;B[ff]C[--
Way bigger ^^]))
(;B[ff]C[--
Bigger.]))
(;W[ke]
(;B[je];W[jd];B[id])
(;B[jd];W[lf];B[lg];W[mc];B[je];W[md]C[--
Here White is dead, in my humble opinion ...];B[kb];W[lb];B[jb]
;W[oc];B[pa];W[oa];B[la];W[ma];B[nb])))
(;B[jd]))
(;W[kp];B[im];W[kq]))
(;B[kp]))
(;W[fm]C[--
Cut !]
(;B[gm];W[fn]
(;B[fo];W[gn];B[go];W[hn];B[eo];W[ho];B[cm];W[bl];B[bn];W[an]
;B[am];W[ao];B[bm])
(;B[gn];W[fo];B[gl];W[bn];B[cm];W[bm]))
(;B[gn]
(;W[gm])
(;W[fn];B[fo];W[gm];B[hm];W[gl];B[hl];W[gk]))))
(;B[dk];W[ci];B[ck]C[--
Counter atari is a great tesugi ^^

White is separated, you have effectively reduceed the left side.]
))
(;B[bj]C[--
That's the point to play the keima, you ca slide under white. And it is toward your stone (use aji !)]

(;W[cg];B[bl];W[bm];B[ck]
(;W[dk];B[cm];W[dl];B[bn]C[--
Alive !])
(;W[cm];B[dk]C[--
Out ^^]))
(;W[bl];B[di]
(;W[dh];B[ei]C[--
Out])
(;W[ei];B[dh]
(;W[eh];B[cj];W[dk];B[cg];W[ef];B[bf];W[be];B[bh]C[--
Alive, it seems ^^])
(;W[cj];B[eh]C[--
Out !])))))
(;W[qm];B[rn];W[qn];B[ro];W[ol];B[ok];W[nk];B[ml];W[rp];B[rq]
))
(;B[kc]C[--
With this move white has one eye at best and a hard to way to escape (I've not found any way ...)]

(;W[oc];B[mc];W[lb];B[kb];W[na];B[la];W[ob];B[pa])
(;W[mc];B[ob];W[oc];B[pa];W[lb];B[kb]
(;W[la];B[lf];W[na];B[oa];W[nb];B[qa]C[--
One eye ...])
(;W[lf];B[lg];W[ke];B[jf];W[id];B[jd];W[je];B[ie];W[if];B[he]
;W[ig];B[jh]))
(;W[lb];B[ee];W[dg];B[kb];W[oc];B[mc];W[na];B[pa];W[oa];B[qa]
;W[la];B[fg]C[--
Even with white alive, you win.]))
(;B[ee]C[--
This move force White to close his territory but let you close yours.]
;W[ef];B[ff];W[eg];B[fg];W[eh];B[ao];W[an];B[ap];W[bn];B[bd]
;W[be];B[ac];W[kc];B[jd];W[fh];B[il];W[gl];B[in];W[gn];B[hj]
;W[fj];B[li];W[hi];B[ij];W[hh];B[hf];W[lj];B[ll];W[ko];B[si]
;W[rg]C[--
Even if you let White live in the upper side and get all the left side, you win ^^]
))
(;B[qm];W[qn];B[rm]C[--
Poor White ^^]))
(;B[op];W[np];B[no];W[mo];B[nn];W[lp]C[--
You get a lot of pointsand sente ^^]))
(;W[nf]C[--
White can be more severe here ...];B[oe];W[mf]
(;B[og];W[ld])
(;B[le];W[og]C[--
Hard fight])))
(;B[ne];W[oe];B[pe];W[of];B[qf];W[rd];B[rc];W[rf];B[rg];W[sc]
;B[sf];W[sd];B[sb]C[-- 
Seems to work.])
(;B[oe]TR[nd][pf]C[--
Bad shape for you (empty triangle) but bad shape for White (Elephant's eye)]
))
(;B[nd]C[Should I have done a leaning attack on top right group Q18 before attacking S15 group?
--
Well in fact you should have attacked this group before ^^ 
Now it's harder. 

In any case you have two weak groups to attack. Easy for you. The thing to remember is not try to kill but gain something while attacking (territory or influence) The worse thing is gaining nothing while trying to kill !]
;W[od];B[oe];W[md]
(;B[ne];W[mc];B[oc];W[ob])
(;B[oc];W[ob];B[od];W[mc];B[me];W[ld];B[kc];W[le];B[qg]))
(;B[pe]C[--
More simple, keep white separated while attacking. Seems good to me ^^]
))
(;W[co];B[dn];W[fp];B[dl]C[--
Hard for you ...]))
(;B[od]C[--
As it is White shape move it is usually a good move for you, destroying White shape ^^]
;W[lb];B[kb]C[--
White will have a hard time while you will get territory and or influence ^^]
)
(;B[nd]C[--
Not good ...];W[od];B[oe];W[oc]
(;B[pe];W[md];B[ne];W[mc]C[--
White is out, almost alive, and your group on the left is weakened  !]
)
(;B[md]C[--
Too many weaknesses ...])))
(;W[od]C[--
The shape move ... almost sente];B[pe]))
(;W[qc];B[pc];W[qd];B[pe];W[pb];B[ob];W[qb];B[oc];W[qf]TR[db]
[dc][nc]C[--
White get easy points while you are overconcentrated. Plus White has ruined your right side, plus the aji of the triangled stones ^^ M17 is not good ^^]
))
(;B[oc]LB[jc:A][kc:B]SQ[ic]C[--
This is usual, but your J17 stone would do better work at K17 or L17]
;W[nd];B[pf];W[kc]C[--
Not bad but will be better if J17 was on K17 ^^]))
(;W[mp];B[po];W[jp];B[qk];W[ee]C[--
Here White use the aji ^^];B[fe];W[ff];B[ge];W[gf];B[he];W[ig]
C[--
White gets a big moyo (framework)]))
(;B[qk];W[ee]TR[db][dc]C[--
Later White can use the triangled stones aji with this move and enlarge his framework.]
;B[fe]TR[db][dc]C[--
This is dangerous.])
(;B[ee]C[--
With this move you minimize aji and you threaten white's three stones !]

(;W[kc]C[--
If White want to invade to soon ... or tenuki ...];B[dg]C[--
You can attack ! Hard for White !])
(;W[dg]))
(;B[nc]))
(;W[cc];B[ee]C[--
This is the way, but you push white from behind on the 4th line. Not the best thing.]
;W[df];B[ef];W[dg];B[fh]LB[jd:A]C[--
This is ok but White has sente to counter your thichness. It would have been ok if you had a stone around A. Not that bad, though.]
;W[mc];B[oc];W[jc]C[--
One possibility ...]))
(;W[ed]C[--
Leads to complications ... but probably better for white.]))
(;B[db]C[--
Probably the best answer.];W[cc]C[--
Not really good for you, but you have sente.]))
(;B[dc];W[ec];B[eb];W[ed];B[fc]
(;W[fb];B[gb];W[db];B[fa];W[cc]C[--
A standard joseki. Good for you in this situation I think.]
)
(;W[db]C[--
White can not play this one as you have the ladder.];B[cb];W[fb]
;B[da];W[gc]C[--
Standard, when the ladder favor White ^^])
(;W[fd]C[--
Found on josekipedia ...];B[gc];W[fb];B[db];W[hc];B[gd];W[gb]
;B[hd];W[ic];B[id];W[jc];B[ce];W[cf];B[be];W[dd];B[cd];W[dg]
;B[bf];W[ch];B[ef];W[df];B[hf]C[--
See why it's hard to learn joseki ^^
josekipedia say the positionis stabilized.]))
(;B[cc]C[--
This way you get the corner.];W[ec]C[--
Usual. See josekipedia for variations. Anyway considering your hoshi, it seems a good approach.]
;B[dd];W[ed];B[ce];W[cf];B[bf];W[df];B[bg]))
