(;FF[4]GM[1]SZ[19]ST[2]CA[UTF-8]AP[SGFC:1.16]

PB[BizGo]
BR[1k]
PW[tb12]
WR[1k]
KM[6.5]
DT[2013-09-05]
PC[The KGS Go Server at http://www.gokgs.com/]
RE[B+Resign]
TM[600]
OT[5x20 byo-yomi]
RU[Japanese]

C[Hello dear Reviewer, in this game I played Black.



I would say my rank is between 1-3k but I am not sure, I started to use a lot of study time with solving baduk problems, but I am often lost in the fuseki and to estimate the situation on the board, I hope with sending games into the GTL I will improve further with the help of other players. I marked my questions & comments with BGO



I sometimes added some variations, so you maybe get more insight on how I would have reacted if he would have answered differently, maybe that helps with the review to know that(?)



I won by resign, and the time was short, but I think I could still learn much by a review that points out my mistakes.]
;B[pd];W[qp];B[dc];W[cp]C[BGO: His formation was unusual for me, but I wasn't overly worried.]
;B[ce];W[jc];B[mc]LB[hc:A]C[A is more common];W[gc];B[oq];W[op]
C[janr: normal would be to pincer, to extend along the right side or to play tenuki.]

(;B[pp]C[janr: unnecessarily aggressive.  I prefer the simple variation]
;W[pq];B[po]
(;W[qq];B[np];W[or];B[oo];W[nr];B[eq]C[janr: black is open to the right side, so this appraoch is not very useful.  White can just extend along the left side and black still won't make territory easily.]
;W[qc]C[janr: it is early to invade];B[qd];W[pc];B[oc];W[ob]
;B[nb];W[od];B[nc];W[rd];B[re];W[rb];B[qf];W[pb];B[oe];W[ql]
C[BGO: I played R10 next, I didn't feel comfortable with playing R5 because he could still make a two space extension and jump out in the free center

janr: may be ok, but take care the q4 group doesnt get too weak]
;B[qj];W[qn];B[dn];W[ep];B[dp];W[dq];B[do];W[er];B[fq];W[cq]
;B[fo];W[fr];B[gq];W[iq]C[janr: white already has access to the lower side.  I prefer to play on the left side.]
;B[oj]C[janr: the left side is still important];W[cg]C[BGO: Now it was hard for me to estimate what next to do, ecause white got already three corners, I just got little on the right side and else just influence, I feel like I did choose the wrong Joseki in the lower right corner.



Next I played C11, because I felt, that white could get in danger with C13 and his G17 group.]
;B[ci]C[janr:  good];W[bn]C[BGO: I thought also about attatching at C13, but I thought that would just help him more then me, so my decision was between just jumping out with E11 or something around G17 group, for example J16 or G15, but in the end I jumped out with E11.]
;B[ei]C[janr: another option is c8, white prevents white to further enter the left side and allows black to focus on the weak white stones there.]
;W[eg];B[ee];W[bi];B[bj];W[bh];B[cj];W[eb];B[db];W[bf];B[be]
;W[ff]
(;B[hd]C[BGO: Was this wrong? White played G16 next and I could cut off K17, but he did get many forcing moves.

janr: splitting the two groups is important
Maybe the best is to just push solidly at f15 in order to not touch/strengthen the two stones above and allow for an attack there later? see variation]
;W[gd]C[janr: now this becomes difficult for black.];B[hc];W[he]
;B[id]LB[gb:A]C[janr: maybe first at A?
anyway it gives poor shape];W[ie];B[jd];W[hb];B[ib];W[gb];B[jb]
;W[je];B[kd];W[ke]
(;B[ec]C[BGO: Was this too slow?

janr: doesnt give black much
But how about the variation?];W[mq]
(;B[rk]C[BGO: Was this too slow/unnecessary? I must shamefully admit that in some games I was invaded at points like R12, and thats the reason why I played angsty S9, but even without S9 a white invasion at R12 seems unlikely to succeed(?)

janr: it is big endgame
Still, the q4 is is getting weaker, and you should stat to calculate how to escape.]
;W[lo];B[qo];W[ro];B[pn];W[qm];B[fe];W[ge];B[ol];W[of];B[nf]
;W[eh];B[fi];W[og];B[ng];W[nh];B[oh];W[pk]
(;B[pj];W[ok];B[nk]
(;W[nj];B[nl];W[oi];B[ph];W[pi];B[qi];W[ni];B[li];W[mh];B[lg]
C[janr: I don't think you can capture white directly.
It seems better to first strengthen the q4 group and maybe threaten to capture this white group later.]
;W[ne];B[nd];W[mg];B[me]
(;W[lf];B[mf];W[lh];B[kg];W[kh];B[jg];W[jh];B[gg]
(;W[gf]C[janr: can white resist?];B[ig];W[kk];B[ih];W[fh];B[ii]
;W[jj];B[gh];W[ag]C[janr: must be e19.];B[ai];W[fc]C[janr: still e19]
;B[ea]C[janr: now white is in trouble.];W[fa];B[fb];W[ld];B[kc]
;W[eb];B[ji];W[ki];B[fb];W[lc];B[ga];W[kb];B[ic];W[ha];B[lb]
;W[fa];B[eb];W[bd];B[ae];W[bb];B[cd];W[dl];B[cm];W[cl];B[bm]
;W[bl];B[ek];W[el];B[fk];W[gj];B[gi];W[fl];B[gk];W[gl];B[hk]
;W[hl];B[il];W[ik];B[ij];W[jk];B[im];W[km];B[hn];W[ak];B[aj]
;W[am];B[bo];W[cn];B[dm];W[co];B[jp];W[ip];B[io];W[jo];B[jn]
;W[ko];B[kn];W[ln];B[lm];W[ll];B[mm];W[jm];B[in];W[jl];B[mk]
;W[lj];B[lk];W[mn];B[mj];W[mi];B[nn];W[gn];B[go];W[om];B[pl]
;W[qk];B[pm];W[nq];B[ml];W[mo];B[kl];W[qh];B[pg];W[ll];B[mp]
;W[lp];B[kl];W[qg];B[pf];W[ll];B[lq];W[kq];B[kl];W[rj];B[ri]
;W[ll];B[no];W[lr];B[kl]C[janr: it is impossible for white to win this ko, as there is a second ko at p4.]
;W[si];B[sj];W[ll];B[kp];W[jq];B[kl];W[rh];B[sh];W[ll];B[rn]
;W[rm];B[kl];W[df];B[de];W[ll];B[sm];W[sn];B[kl];W[la];B[ka]
;W[ll];B[rl];W[sl];B[kl];W[mb];B[ma];W[ll];B[ch];W[op];B[kl]
;W[cc];B[cb];W[ll];B[oq]C[janr:
In summary, black failed to effectively attackthe weak white stones, and there were several tactical problems such as letting the b8 group connect.
Nevertheless, white did not play the life and death in the upper left correctly and lost a large group.]
)
(;W[hh]
(;B[fg];W[fh];B[gh];W[gi];B[hi];W[gj];B[ih];W[hg];B[ig];W[gf]
;B[ji])
(;B[gf];W[gh];B[fg];W[fh];B[ef];W[hg])
(;B[ig];W[ih])
(;B[gh];W[gf];B[ig];W[hg];B[ih];W[ii];B[hi];W[hf];B[ji];W[ij]
;B[mj];W[ki];B[jj];W[kj];B[jk];W[kk];B[ik];W[hj];B[gi];W[gk]
)))
(;W[mf];B[ne];W[lf]))
(;W[nl]C[BGO: I feared this]))
(;B[ok]C[BGO: I think this would have been better?];W[pi];B[pj]
;W[oi];B[ni]))
(;B[lo]C[BGO: Should I have played around here instead?]))
(;B[dg]C[janr: would this cut work?]
(;W[dh];B[df]
(;W[ch];B[eh];W[di];B[dj];W[ej];B[gi];W[fj];B[gh];W[dl];B[ai]
;W[dk];B[ah];W[ag];B[aj];W[cf];B[ae])
(;W[eh];B[ch]))
(;W[df];B[dh];W[cf];B[ef];W[de];B[ed]
(;W[dd];B[bc])
(;W[cd];B[bd];W[cc];B[bc];W[cb];B[dd];W[da];B[bb];W[ca];B[ba]
;W[ea];B[ch];W[af];B[ae];W[ag];B[ai];W[fg];B[aj]))))
(;B[fe];W[hf];B[gf];W[gg];B[ge];W[hh];B[he];W[if];B[fh];W[fg]
;B[ie]C[at some point white will have to defend the upper group, it is become increasingly weak.]
))
(;W[nq];B[qq];W[or];B[pr];W[oq];B[rp];W[qr];B[qo];W[rr];B[pj]
C[BGO: I feel like this would have been an equal whole board result for both?

janr: I think the game is better for white, as in this variant blacks thickness works well on the right side.]
))
(;B[np];W[oo];B[pq];W[qq];B[mq];W[qn];B[ep]C[BGO: I think I would have been comfortable with this too, though I don't know many josekis when white attatches P4, I looked it up after the game and apparently instead of R6 of white R10 is also possible?]
))
