(;FF[4]GM[1]SZ[19]ST[2]CA[UTF-8]AP[SGFC:1.16]

PB[SailorSam]
BR[7k]
PW[DaiBlitz]
WR[6k]
KM[0.5]
DT[2013-09-07]
PC[The KGS Go Server at http://www.gokgs.com/]
RE[B+3.5]
TM[1800]
OT[5x30 byo-yomi]
RU[Japanese]

C[Pol (DaiBlitz) wrote:
I lost for 3.5 points, maybe some advices in yose also will be helpful.]
;B[dd];W[pp];B[cp];W[qd];B[nq];W[ep]LB[gp:B][gq:A]
(;B[gq]C[okay
(LL)];W[cq];B[bq];W[dq];B[cm];W[br]LB[bp:B][jq:A]
(;B[jq]LB[bo:B][bp:A]
(;W[bp]C[Pol (DaiBlitz) : Is correct to make this move if black tenukis? Is big but is gote

see variation.
(LL)];B[bo];W[aq];B[cn];W[qn]LB[od:B][cj:C][er:A]
(;B[er]LB[oc:B][fq:A]C[this move is not urgent as white is already alive in the corner.
(LL)]
(;W[fq]C[Pol (DaiBlitz) : This move is bad i think,

yes : this move is not necessary, and also... it helps black !!!
(LL)];B[fr]LB[dp:B][gp:A]C[black is reinforced, now...
(LL)]
(;W[gp]C[bad move...
(LL)];B[eq]C[... and the punishment.
(LL)];W[fp];B[dp]LB[do:A][hq:B]C[Pol (DaiBlitz) : I got cutted

yes...but you still can fight...
(LL)]
(;W[do]C[this kikashi doesn't help white, so you should keep it in reserve.
(LL)];B[co];W[hq];B[gr];W[iq];B[hp]LB[io:A][ip:B]
(;W[io]LB[ho:A][ip:B]C[bad move.
(LL)]
(;B[ho]
(;W[hn]C[no : it doesn't work... you have to read it !!!
(LL)];B[go];W[ip];B[eo];W[gn];B[fo];W[oq];B[or];W[pr];B[op]
;W[pq];B[np]LB[ko:B][jr:A]
(;W[jr];B[kq];W[kr];B[lr]LB[ko:B][kp:A]
(;W[kp];B[lp];W[lo];B[mo];W[ln];B[lq];W[on];B[mn];W[lm];B[nm]
;W[om];B[nl]LB[oc:C][pj:B][ol:A]
(;W[ol]C[it is bad to push after.
(LL)];B[ll];W[kl];B[ko];W[jp];B[mm];W[jn];B[lk];W[kk];B[im]
;W[jm];B[il];W[jl];B[od]C[black has manage to play this big move himself !
(LL)];W[oc];B[nc];W[pc];B[md];W[qf];B[qi]LB[oj:B][qk:A]
(;W[qk]C[no : this move is too small... all white groups are living ; so what are you afraid of ???
(LL)];B[oj];W[ok];B[nk];W[nj];B[oi];W[mi];B[lj];W[ne];B[oe]
;W[nf];B[of];W[ng];B[pg]LB[nd:B][qg:A]
(;W[qg];B[nd]C[now, black is connected, and white's stones are really weak !
(LL)];W[ph];B[og];W[oh];B[ni]LB[nh:C][pi:B][mj:A]
(;W[mj]C[Pol (DaiBlitz) : How i should've fight in this sequence? there is a way to not get cutted?

-- see variations --
(LL)];B[nh];W[qh];B[pi];W[mh];B[mg];W[ri];B[mf];W[qj];B[me]
;W[kh];B[mk]LB[fc:A][ki:B]
(;W[fc];B[ec];W[ki];B[ii];W[kj];B[ik];W[in];B[kn];W[km];B[ks]
;W[is];B[hr];W[ir]LB[ig:B][jg:A]
(;B[jg]C[black is too aggresive and also takes some risks.
(LL)];W[ih];B[jh];W[ji];B[hi];W[hg];B[kg];W[fi];B[gh];W[ff]
;B[gg];W[gf];B[ig];W[gl];B[fk];W[gk];B[fm];W[gm];B[fl];W[gj]
;B[hh];W[eh];B[dg];W[dh];B[eg];W[cg];B[ci];W[fg];B[df];W[cf]
;B[ce];W[ch];B[fh];W[ei];B[bi];W[be];B[bd];W[af]C[this is quite a good result for white.
(LL)];B[fd];W[gd];B[gc];W[fb];B[hc];W[hd];B[ic];W[id];B[jc]
C[Pol (DaiBlitz) : In yose, i lost for about 3.5 points (cause there is no komi). How i should have done better?

okay, let's see the yose...
(LL)];W[ee]C[good move
(LL)];B[ed];W[de];B[fe];W[cd];B[ge];W[hf];B[cc]LB[ce:B][he:A]

(;W[he]C[of course, you can connect three stones, but you lose "sente"...
(LL)];B[ce];W[ef];B[dj]C[... and black is happy to play this big move.
(LL)];W[cd];B[bc];W[fn];B[en];W[ek];B[ej];W[fj];B[dl];W[ob]
;B[nb];W[na];B[ma];W[oa];B[lb];W[jd];B[kd]LB[pj:B][nr:A]
(;W[nr]C[this move is big, but "gote".
(LL)];B[mr];W[os];B[cs];W[cr];B[ds];W[bs];B[je];W[ao];B[an]
;W[ap];B[oo];W[po];B[pe];W[qe];B[bh];W[bg];B[dr];W[hs];B[gs]
;W[pj];B[ng];W[nn];B[li];W[lh];B[ms];W[no];B[mp];W[ns];B[lg]
;W[ah];B[ai];W[ag];B[ad];W[ce];B[di];W[eb];B[dc];W[db];B[cb]
;W[ab];B[da];W[pd];B[if];W[ie];B[jj];W[hj];B[ij];W[js];B[ls]
;W[hk];B[ih];W[tt];B[tt]TW[pa][qa][ra][sa][pb][qb][rb][sb][qc]
[rc][sc][rd][sd][re][se][bf][df][rf][sf][dg][eg][rg][sg][rh]
[sh][si][rj][sj][pk][rk][sk][pl][ql][rl][sl][pm][qm][rm][sm]
[kn][pn][rn][sn][jo][ko][qo][ro][so][qp][rp][sp][bq][qq][rq]
[sq][ar][or][qr][rr][sr][as][ps][qs][rs][ss]TB[aa][ba][ca][ea]
[fa][ga][ha][ia][ja][ka][la][ab][bb][db][eb][fb][gb][hb][ib]
[jb][kb][mb][ac][fc][kc][lc][mc][ld][ke][le][ne][jf][kf][lf]
[nf][aj][bj][cj][ak][bk][ck][dk][ek][al][bl][cl][el][ml][am]
[bm][dm][em][bn][dn][do][ep][fp][gp][fq][mq][es][fs]C[B+3,5]
)
(;W[pj]C[white has still some "sente" moves...
(LL)];B[ng];W[bh];B[ai];W[di];B[ck];W[nr];B[mr];W[os]C[the game seems very close, now !!!
(LL)]))
(;W[ce]C[an idea is to connect here directly.
(LL)];B[he];W[if];B[ie];W[jf]LB[je:A][dj:B]C[white has given three stones, but has gain "sente" !
(LL)]
(;B[je];W[kf];B[lf];W[ke];B[kd];W[bc];B[bb];W[ad];B[cb];W[dj]
;B[ck];W[cj];B[bj];W[dk];B[dl];W[ob];B[nb];W[na];B[ma];W[oa]
;B[lb];W[fn];B[en];W[pj];B[ng];W[nr];B[mr];W[os]C[white is leading...
(LL)])
(;B[dj];W[kf];B[lf];W[kd];B[jd];W[ke];B[kc];W[bc];B[bb];W[ad]
;B[cb];W[ob];B[nb];W[na];B[ma];W[oa];B[mb];W[ej];B[ek];W[fn]
;B[en];W[pj];B[ng];W[nr];B[mr];W[os]C[again, white is leading...
(LL)])))
(;B[ig];W[kf];B[jc]C[perhaps enought for black ?
(LL)]))
(;W[ki]C[you have to care for your stone first.
(LL)]))
(;W[pi];B[pj];W[qj];B[nh];W[qh];B[mg]C[white has the right side, but black's power is too big !!!
(LL)])
(;W[nh]LB[qh:B][mj:A]
(;B[mj];W[qh];B[qj];W[ic]C[okay ???
(LL)])
(;B[qh]C[black cannot cut here.
(LL)];W[pi];B[mj];W[pj];B[nj];W[ic]C[very good for white
(LL)])))
(;W[nd]C[why don't you cut here ???
(LL)];B[mc];W[ni];B[qg];W[kh]C[for example...
(LL)]))
(;W[oj]C[this move separates black, and is more dynamic !!!
(LL)]))
(;W[pj]C[this shape is better...
(LL)])
(;W[oc]C[... and this move is still very big !!!
(LL)]))
(;W[ko]C[still, this move gives a better shape for white.
(LL)];B[on]C[if black jumps outside...
(LL)];W[oc]C[... white has this big move !
(LL)]))
(;W[ko]C[it is bigger to play toward the center.
(LL)]))
(;W[ip]LB[gn:B][hn:A]C[this move is the only chance....
(LL)]
(;B[hn];W[fn];B[gm]C[very difficult for white...
(LL)])
(;B[gn];W[fn];B[fm];W[hn];B[go];W[gm]C[black get tricked !
(LL)])))
(;B[ip]C[black can also play here...
(LL)];W[jp]C[... and white cannot cut here.
(LL)];B[ho];W[hn];B[go];W[fo];B[gn];W[gm];B[fn]C[game over.
(LL)]))
(;W[ip]C[this is the only move.
(LL)];B[ho];W[fn]LB[hm:A][fo:B]
(;B[hm];W[fl]C[ok for white.
(LL)])
(;B[fo];W[eo];B[en];W[go];B[gn];W[fm];B[dn];W[fo];B[hn];W[fk]
C[ok for white.
(LL)])))
(;W[hq]C[here immediately.
(LL)];B[gr];W[iq]LB[hp:A][ir:B]
(;B[hp];W[ip];B[ho];W[fn]LB[hm:A][gn:B]
(;B[hm];W[fl]C[complicated, but iy seems ok for white.
(LL)])
(;B[gn]C[black cannot be so severe -- see continuation --
(LL)];W[en];B[fm];W[em];B[el];W[gm];B[fl];W[hn];B[go];W[io]
C[white would be happy :-)
(LL)]))
(;B[ir];W[hr];B[hs];W[jr];B[is];W[gs];B[fs];W[js];B[gs];W[dr]
C[ok for white :-)
(LL)])))
(;W[dp]C[you should play here first.
(LL)];B[co];W[gp]C[... and now you can play this move !
(LL)]))
(;W[oc]C[this move is big.
(LL)];B[dr]C[if black pushes...
(LL)];W[cr]C[... white can live easily !!!
(LL)]))
(;B[od]C[globally, I think that the biggest move is to approach white's komoku... for example here.
(LL)])
(;B[cj]C[... this move is also important to settle definitively black's group.
(LL)]))
(;W[bo]LB[co:A][bp:B]C[this move seems better.
(LL)]
(;B[co];W[bp];B[bn];W[aq]C[white is living in "sente", as black's group is unstable.
(LL)])
(;B[bp];W[co]C[very bad for black
(LL)])))
(;B[bp]C[personnally, I prefer connecting here...
(LL)];W[fo];B[cj];W[hp];B[iq]C[also a typical continuation.....
(LL)]))
(;B[gp];W[kp];B[no];W[pn];B[cn];W[km];B[nm];W[pl];B[ip];W[oq]
;B[nk];W[mq];B[mp];W[nr];B[lq];W[np];B[mr];W[mo];B[nq];W[op]
;B[lo];W[mn];B[ln];W[mm];B[lm];W[lp];B[mq];W[ml];B[ll];W[mk]
;B[or];W[pr];B[ko];W[em]C[a complicated game played by professionnals:
Akiyama Jiro - Cho Sonjin , 36th Tengen 2010
(LL with Database)]))
