(;FF[4]GM[1]SZ[19]ST[2]CA[UTF-8]AP[SGFC:1.16]

PB[zefciu]
BR[4k]
PW[yasusaka]
WR[4k]
KM[6.5]
DT[2013-08-21]
PC[The KGS Go Server at http://www.gokgs.com/]
RE[W+1.5]
TM[1500]
OT[5x30 byo-yomi]
RU[Japanese]

C[Hagios: Hello, I'll be writing your review for you.];B[qd]
;W[dd];B[pq];W[dq];B[oc];W[qj];B[qn];W[qg];B[jq]SQ[co]C[H: At this point, black has enclosed both corners, and white has only a small amount of cash.  In addition, black has extended along the side of the board which both the bottom corners want to occupy (envision an enclosure at the marked point for white, and you can see why).

Presently, this game is good for black.];W[hq]
(;B[dn]TR[jo]C[Not entirely sure if this was good direction. I was thinking about playing the ikken tobi (triangled) as well.

H: This is a bit strange, indeed.  I'd much prefer to jump to the marked point.]
;W[co]LB[jo:A]C[H: This move makes d6 look bad.  Helping white to solidify their corner should be avoided.  At this point, I would consider simply jumping at A and treat d6 lightly until it's useful later.]
;B[cn];W[do];B[dj]LB[cg:B][ch:A]C[H: This move leaves an opening starting at white A or B, which worries me, since white owns the upper-right corner.]
;W[cg];B[jo]C[H: Black still got this, so it's okay.];W[qp]
;B[qq]TR[pp]C[I had a feeling that closing white in the corner would give him too much and overconcentrate me. But I'm not sure about it now.

H: This damages r6, indeed.];W[pp];B[op];W[pn]C[H: This feels thin.]

(;B[pm];W[oo];B[np];W[om];B[pl]
(;W[nl];B[qo];W[po];B[rp];W[no];B[mp];W[nj]
(;B[gd]C[H: I'm not sure what your plan is for this stone.]
;W[rl]C[H: Now we see, the right is not worth many points for black.]
;B[cc];W[cd];B[dc];W[ec];B[ed];W[bc];B[bb];W[bd];B[fc];W[eb]
;B[db];W[da];B[cb];W[ee];B[fd];W[ab];B[fb];W[bj]C[H: If we look at the board now, we see that white is causing problems everywhere.]
;B[of]LB[ld:A]C[H: This move feels a bit aimless.  Perhaps around A is better?]
;W[mc];B[me];W[jc];B[kd];W[ib]LB[ie:A]C[Is this a correct defense against my play?

H: This makes me think that white wants to jump at A to escape and run.]
;B[lb]C[H: Very sharp!];W[lc];B[mb];W[kc]C[H: Time to seal white in.]

(;B[kb]C[H: This is slow, better to prevent white from escaping.]
;W[je];B[id]C[H: Peeping like this is helpful to white.  Better to keep white running, or abandon the fight entirely for now.]
;W[jd];B[hg];W[le];B[kf];W[ke];B[lf];W[ie];B[he];W[ig];B[ih]
;W[jg];B[hh];W[jh];B[ji];W[lh];B[ki];W[mg];B[mf];W[kh];B[eo]
;W[ep];B[fo];W[kk];B[mk];W[nk];B[lj];W[mi];B[lm]C[H: Nice sequence!]
;W[ho];B[gp];W[gq];B[hp];W[ip];B[iq];W[ll];B[ml];W[mm];B[ln]
;W[fi];B[eh];W[gf];B[fh];W[dk]
(;B[ck]C[H: This was a soft move, giving white many options.]
;W[cj];B[cl];W[di];B[ej];W[ei];B[fk];W[gi];B[dh];W[ch];B[fg]
;W[gk];B[fl]C[H: Counting territory now shows black is still not badly off.  However, black has some weaknesses to worry about, while white has none.]
;W[gl];B[io];W[ii];B[hi];W[ij];B[hj];W[gj];B[ik]LB[lk:B][fm:A]
C[H: The hane at A is horrible for black, and there is still a problem at B.]

(;W[fm]C[H: This is big.  Black must prevent damezumari here.]
;B[em]
(;W[gn]C[H: This white move is small.];B[jj]C[H: Good.];W[il]
;B[jl];W[im];B[bo];W[bp];B[cp];W[dp]
(;B[bm]C[H: Creating this ko is a strange.]
(;W[ao];B[an];W[bn];B[jf];W[if];B[bo];W[ap]LB[fq:A]C[H: There is a weakness in white's shape once the ko does not exist at A.]

(;B[hr];W[gr];B[rf];W[qf];B[rg];W[rh];B[qe];W[sg];B[se];W[qm]
C[H: This is a painful cut worth at least 12 points.];B[rn]
;W[rm];B[so];W[jm];B[kl];W[nc];B[nb];W[og];B[oe];W[hk];B[jk]
;W[mj];B[lk];W[ek];B[el];W[fj];B[ir]LB[fq:A]C[H: This move reactivates the weakness at A]
;W[hs];B[is];W[gs]
(;B[go];W[fp];B[hn];W[bn]
(;B[qk];W[rk];B[bo];W[gm];B[ng];W[nh];B[pg];W[ph];B[oh];W[oi]

(;B[og];W[nd];B[od];W[sm];B[sn];W[mo];B[lo];W[df];B[hc];W[hb]
;B[gb];W[bk];B[bl];W[dl]
(;B[dm]LB[en:A]C[H: Better to finish the ko (see variation)]
;W[bn];B[en];W[am];B[ic];W[jb];B[sf];W[sh];B[pf];W[qh]
(;B[hm];W[hl]
(;B[in];W[al];B[cm];W[kn];B[ko];W[md];B[ja]LB[mn:A]C[H: This doesn't change the score of the game.  Better to let white hane in this area first.  Play A instead.]
;W[ne];B[nf];W[mn];B[ge];W[ff];B[ea];W[ba];B[ca];W[ac];B[aa]
;W[ga];B[fa];W[ha];B[eg];W[hf];B[ef];W[fe];B[ba];W[lg];B[li]
;W[tt];B[tt]TW[ad][kd][ld][ae][be][ce][de][af][bf][cf][ag][bg]
[ah][bh][mh][ai][bi][ci][ni][pi][qi][ri][si][aj][dj][ej][oj]
[pj][rj][sj][ak][ok][pk][qk][sk][ol][pl][ql][sl][nm][pm][an]
[nn][on][bo][cp][aq][bq][cq][eq][fq][ar][br][cr][dr][er][fr]
[as][bs][cs][ds][es][fs]TB[da][la][ma][na][oa][pa][qa][ra][sa]
[eb][ob][pb][qb][rb][sb][ec][gc][pc][qc][rc][sc][hd][pd][rd]
[sd][pe][re][ii][ij][kj][kk][ll][ho][ro][ip][jp][kp][lp][sp]
[kq][lq][mq][nq][oq][rq][sq][jr][kr][lr][mr][nr][or][pr][qr]
[rr][sr][js][ks][ls][ms][ns][os][ps][qs][rs][ss]C[zefciu [6k?\]: Thank you for the game

H: You started with a lead in the opening, but white was able to slowly chip away at it as you made tactical errors.  I strongly recommend studying tsumego and tesuji problems to help you find areas where you might find a sharp move; there were several points in the game where you left yourself open to attack, or failed to see where you could attack white.]
)
(;B[mn]C[H: This might be enough to win.];W[nm];B[nn];W[on]
;B[in]))
(;B[mn]C[H: Better]))
(;B[bn]C[H: This is still the best move.];W[dm]C[H: This is a mistake.]
;B[fq];W[en];B[cq]C[H: What can white do?];W[cr];B[bq];W[br]
;B[aq];W[fr];B[dr];W[eq];B[er]C[H: No hope.]))
(;B[bn]LB[fq:A]C[H: Finishing the ko forces white to fix the aji at A, and prevents the squeeze you suffer later in the game.]
))
(;B[rk]C[H: It's better to start here, worth 2 extra ko threats.]
))
(;B[fq];W[fp];B[go];W[fr];B[cq]C[H: Once again, the ko is very powerful.]
))
(;B[fq]C[H: If the ko is filled in...];AB[bn];W[fp];B[go];W[fr]
;B[cq];W[bq];B[cr]C[H: The corner dies.]))
(;W[cq]LB[ao:A]C[H: Better, A is always white's privilege.]
))
(;B[bn]C[H: Just connect.]))
(;W[ek]C[H: White gains 4 points with this move.])
(;W[fp];B[go];W[lk]C[H: White pulls ahead.]))
(;W[lk]C[H: This move disrupts black's territory];B[jj];W[mj]
C[H: Black can have nothing in the center, now.]))
(;B[cj];W[ck];B[bi]TR[ab][bc][bd][cd][dd][ee][cg]C[H: Weakening the marked group as well.]
))
(;B[id]C[H: Now it's harder for white.]))
(;B[pj]C[H: This can keep the groups split.]))
(;W[rp]C[H: Must keep black split so both groups are weak.]
))
(;B[po]LB[oo:B][qo:A][rp:C]C[H: Why are you afraid of this?]

(;W[qo];B[oo];W[rn];B[qm];W[rm];B[rq]
(;W[ql];B[pm];W[pl];B[om]C[H: White cannot be happy with this.]
)
(;W[ro];B[ql];W[rl];B[om]C[H: Awful for white.]))
(;W[oo];B[qo];W[np];B[oq];W[mm]C[H: White makes sabaki, but black is still okay.]
)
(;W[rp];B[qo]C[H: Simply connecting here is good enough.])))
(;B[jo]LB[jo:B][hq:A]C[H: This looks like a more steady game for black.  White A for black B is favorable for black.]
))
