(;FF[4]GM[1]SZ[19]ST[1]CA[UTF-8]AP[SGFC:1.16]VW[]

PB[knjyon]
BR[1d]
HA[0]
PW[Kirby]
WR[1d]
KM[6.5]
DT[2013-09-10]
PC[The KGS Go Server at http://www.gokgs.com/]
RE[W+12.5]
TM[1200]
OT[2x20 byo-yomi]
RU[Japanese]

C[I played white this game.  I happened to win, but this is a game
I basically lost.

I would appreciate tips on how to more effectively deal with
black's moyo.

Reviewer: Hi. I'll call myself Rev.];B[pd];W[dp];B[pp];W[dd]
;B[fq];W[cn];B[dr];W[nc];B[qf];W[cq];B[iq];W[jd]C[Seemed natural so far.

Rev: I agree.];B[pj]
(;W[qq]C[This might have been too greedy.  Maybe the variation is superior...?

Rev: Seems OK. Anything is possible.];B[qp];W[pq];B[oq];W[or]
;B[nq];W[nr];B[mq];W[rp];B[ro];W[rq];B[qn]
(;W[cf]C[The left is somewhat small, so rather than playing a territorial
move, is D10 better for countering his influence on the right?

Rev: It depends on your style.];B[dm]C[Rev: A good feeling move.]
;W[cm];B[dk];W[dl];B[el];W[cl];B[ek]C[Now, I felt that it was difficult to decide where to play.  I
considered a few moves: L3, K4, K5 (see variations).

Rev: All of them don't feel good; they are too close to Black's
thickness.]
(;W[jo]C[Because of the aforementioned reasons, I selected K5.

Rev: Still off the mark.]
(;B[eo]C[Seemed soft.  I thought black might K7.

Rev: Nice one by Black.];W[kl]C[I also considered K8.

Rev: Either way is OK.]
(;B[jm]C[I want to play L7, but it seems too soon, because of the variation.

Rev: Black let you off the hook.]
(;W[jq]C[Because of the variation shown, I wanted to try to force on the
bottom.  I imagined the shown variation.

Rev: Interesting but risky.]
(;B[km]C[Black didn't play according to my plans, of course.

Rev: So Black wanted to let you connect without much points.]

(;W[ip];B[hq]
(;W[lq]C[Rev: Why not live while it is possible?];B[mr]C[Rev: Now you lost. No more comments...I am joking. :)]
;W[lo];B[ns]
(;W[ps]C[Rev: Connecting solidly would have helped the lower side. This
way, N1 is sente. Connecting makes T5 sente, but that is another
story.];B[mn];W[kr];B[in];W[ir];B[hr];W[kp];B[me]C[Black's moyo is now becoming something serious.  Still, I answered
him.

Rev: A pro may as well resign here, but we're not pros. Patience
is good here.];W[ld];B[kf];W[if]C[Seemed to be at the head of two spheres of influence.

Rev: Excellent.];B[ig]C[Black's play here seemed like his moyo would be too big.  I thought
I needed to do something fast.

Rev: It became too big long time ago.];W[ne];B[nf];W[mf];B[mg]
;W[of];B[lf]
(;W[ng]C[For some reason, I imagined ko...];B[nd];W[mf];B[oe]
;W[nf]C[Now, white is very heavy.

Rev: You had no choice. The game was lost, remember?];B[md]
;W[mh];B[lg];W[qg];B[pf];W[oh];B[pg];W[ph];B[qi]
(;W[nj]C[Rev: When in trouble, please attach to complicate things.]
;B[qh];W[ki];B[jf];W[qc]C[I think this was a moment of insanity on my part.  I should have
helped the center more.

Rev: Black can even tenuki!];B[pc];W[pb];B[ob];W[qb];B[oc];W[re]
;B[rf];W[qe]
(;B[pe];W[qd]
(;B[hf]C[I continued to be very, very greedy.

Rev: This seems too mild, but OK if Black counted it would be
enough.

BTW, you must be greedy.];W[hd];B[lj]C[He punished me, now.

Rev: Well...];W[li];B[ll];W[kj];B[lk];W[hi];B[gh];W[gj];B[ei]
;W[oj];B[mj]C[I didn't read this well, and he took my eye here!]
;W[mi];B[nh];W[ni];B[pi];W[hg];B[hh];W[ih];B[ie];W[ik];B[hl]
;W[gi];B[gg];W[hk];B[jh];W[il];B[hm];W[ji];B[ii];W[ij]
(;B[jk]C[Rev: This move gave you chances.];W[kk];B[jl];W[lm]
;B[ln];W[mm];B[ml];W[nm];B[nl];W[nn];B[ol];W[im];B[jn];W[hn]
;B[ho];W[gn];B[io];W[gl]C[I was exteremely lucky.  Basically, I should have lost the game
around here, because I think he could have killed me.

Rev: He could have killed you.];B[mo];W[hs];B[gr];W[ks]C[Rev: See? If you had connected at Q2, you can now play M1.]

(;B[id]C[Rev: Too mild.]
(;W[ic]C[Rev: K10 seems good now.];B[hc];W[gc];B[hb]C[oren [2k?\]: k10]
;W[fd]C[oren [2k?\]: ?];B[ib];W[jc];B[jb];W[kb];B[lb];W[ka]
;B[he];W[gd];B[lc];W[kc];B[kd];W[ke];B[la];W[gb]C[Rev: What a bonus!]
;B[ck];W[ih]C[Perhaps we were both too late to deal with K10.

Rev: Hm...yes. Seems you won here. This is the last comment.]
;B[cr];W[br];B[dq];W[cp];B[bs];W[ar];B[se];W[sd];B[sf];W[sb]
;B[bk];W[dn];B[fm];W[gm];B[fo];W[en];B[eg];W[go];B[gp];W[ch]
;B[an];W[bn];B[am];W[ao];B[ak];W[ep];B[bg];W[cg];B[bh];W[bf]
;B[bi];W[mp];B[np];W[lp];B[af];W[ae];B[ag];W[bd];B[ee];W[ok]
;B[pk];W[pl];B[pm];W[ql];B[om];W[fj];B[di];W[fn];B[fp];W[eq]
;B[er];W[ff];B[ef];W[gf];B[ed];W[ec];B[de];W[cd];B[ce];W[be]
;B[fg];W[dh];B[eh];W[ci];B[cj];W[ej];B[dj];W[em];B[fl];W[kh]
;B[ii];W[jj];B[ih];W[kn];B[hp]C[I thought he would take L5.]
;W[no];B[oo]C[Rest of game is kind of poor endgame.  I should have definitely
lost this game, and would appreciate help in ideas for reducing
the moyo.];W[on];B[pn];W[fk];B[do];W[ha];B[bo];W[co];B[ap];W[nk]
;B[je];W[ia];B[le];W[ja];B[kd];W[so];B[sn];W[sp];B[rl];W[kg]
;B[ms];W[rs];B[os];W[pr];B[gs];W[is];B[pa];W[qa];B[oa];W[fi]
;B[bl];W[bp];B[ao];W[jp];B[bm];W[lr];B[op];W[oi];B[og];W[nh]
;B[cs];W[ge];B[tt];W[tt]TB[fs][es][ds][fr][gq][qo][po][rn][sm]
[rm][qm][sl][ql][pl][al][sk][rk][qk][sj][rj][qj][bj][aj][si]
[ri][ai][sh][rh][ah][sg][rg][qg][hg][if][ke][od][ld][nc][mc]
[nb][mb][na][ma]TW[ss][qs][js][sr][rr][qr][jr][sq][kq][mo][ko]
[mn][ln][hm][dm][hl][gk][hj][rd][ad][sc][rc][hc][fc][dc][cc]
[bc][ac][rb][jb][ib][hb][fb][eb][db][cb][bb][ab][sa][ra][ga]
[fa][ea][da][ca][ba][aa])
(;W[jj]))
(;B[fd]C[Rev: Black didn't under stand scale twice this game. Now if White
tries to live, Black will never lose the K10 ko.]))
(;B[kk]C[Rev: Now what?]))
(;B[ii]C[Rev: I would play here without thinking.]))
(;B[qd];W[rd]
(;B[se])
(;B[pa];W[rb])))
(;W[oj]))
(;W[oe]C[Maybe just this is enough, but black's moyo is still large.

Rev: Not enough.];B[og];W[jg];B[jf];W[ih];B[hg]C[Try something inside...?]
))
(;W[pr]))
(;W[lr];B[kp];W[jp];B[mr];W[ms];B[kr];W[lq];B[kq];W[lp]C[Rev: It would be risky for Black to try to separate you.]
))
(;W[ir]C[I considered this, so if black answers...]
(;B[hq];W[lr]C[But this isn't that great, and it's wishful thinking.]
)
(;B[lr]C[Black can play here, and I don't know how to make white clearly
live.])))
(;B[jr];W[km];B[kn];W[jn];B[im];W[ln];B[ko];W[kp]SQ[jq]C[Now, the marked stone is in a good spot.

Rev: Now I'm impressed. Rather wishful of course, but you seems
to have what is necessary to become strong.];B[lo];W[kr];B[ir]
;W[mo];B[lp];W[lq];B[mp];W[mr]C[Something like this was in my imagination.  Of course, maybe
it's wishful thinking!

Rev: It is, but, heh, nice variation if true.]))
(;W[km]C[Rev: I don't recommend this. Black can now go back to L10.]
;B[kn];W[jn];B[im];W[ln];B[ko]SQ[jo][jn]C[The marked stones seemed wasted.

Rev: Black won't play this way.])
(;W[jl];B[km];W[ll];B[im];W[kh]C[Rev: How about this? You still have N2.]
))
(;B[kj]C[Rev: Attacking on the large scale seems wiser.]))
(;B[jm]C[Maybe OK for black?

Rev: Anything is OK for Black when you played K5.]))
(;W[kq]C[This seemed like a natural invasion point since there is miai
for connecting with O2 and jumping at L5.  However, it looks
bad for two reason:

1.) Black can later play under at L2.

2.) Maybe it's too low to be impactful toward black's moyo.

Rev: This move would never occur to me in a million years; the
endgame play here is N2. It is bad, but not for your reasons.

1) Black would rather resign than play at L2.

2) It is too dangerous, not too low.];B[mr]C[Rev: Black will play here immediately.]
;W[ko];B[jp];W[kp]C[Rev: Everyone knows White shouldn't connect here, but then there
is no point starting at L3.];B[jm]C[Rev: White may not die (the chance is remote), but the game is
lost.])
(;W[jp]C[This seemed OK, but it seemed a pity to allow black to fix the
three space extention so easily...

Rev: But he won't "fix."]
(;B[jq]C[Black's K3 stone was what I induced him to play, but it seems
good for him.

Rev: If Black did play here, White can regard K4 as a forcing
move. Oh, and don't forget to thank your god.])
(;B[fo];W[jq];B[mr]C[Rev: Now White must struggle. The right side territory will be
all Black's while his influence in the center will be too large.]
;W[jm]C[Rev: For example...];B[jk];W[hq];B[ir];W[ip];B[hr];W[hp]
;B[gq];W[hm];B[il];W[gn];B[gl]))
(;W[jj]C[Rev: Simple way.])
(;W[fp];B[gp];W[fo]C[Rev: "Good style" play.]))
(;W[dj]C[Is this better than game?

Rev: Simply possible.])
(;W[jj]C[Rev: If you don't like complicated fightings, you can play here.]
)
(;W[hp]C[Rev: You can test White's intention first and decide how to play
based on her response.]))
(;W[nq]
(;B[oq];W[np];B[qn];W[kq]C[White feels cramped to me, but there is certainly no large black
moyo.  What do you think?

Rev: The problem is Black wouldn't play this way; see my variation.]
)
(;B[or]C[Rev: This is my candidate.]
(;W[qn];B[qo];W[pn];B[no]
(;W[pl];B[qk];W[mm];B[lo];W[jp];B[kn]C[Rev: It becomes a complicated fight, but I prefer Black.]
)
(;W[qk];B[qj];W[pk];B[ok];W[ol];B[nl];W[rj];B[ri];W[qi];B[pi]
;W[nk];B[oj];W[om];B[ml];W[rk];B[qh]C[Rev: This move is not absolutely necessary, but it is enough
for Black.]))
(;W[no];B[on]C[Rev: I don't know, but I don't like White at all. Black still
has weaknesses in his right side position, though.])
(;W[nr];B[oo]C[Rev: It's hard to find White's next move.])
(;W[kq];B[no]C[Rev: Of course, this is rather out of the question.]
)
(;W[jp]C[Rev: This move is interesting.];B[ip];W[jn];B[jo];W[ko]
;B[io];W[lm];B[no]C[Rev: The situation is complicated.]))))
