(;FF[4]GM[1]SZ[19]ST[2]CA[UTF-8]AP[SGFC:1.16]

GN[kiyorin-steve68-839223-20130921]
PB[Steve (steve68)]
BR[14k]
PW[Kiyo (kiyorin)]
WR[13k]
KM[0.5]
DT[2013-09-17,2013-09-21]
PC[Dragon Go Server: http://www.dragongoserver.net/]
RE[W+2.5]
RU[Japanese]
SO[http://www.dragongoserver.net/game.php?gid=839223]
GC[Game ID: 839223
Game Type: GO (1:1)
Rated: Y

White Start Rating: 13k (+16%) - ELO 815
Black Start Rating: 14k (-1%) - ELO 699
White End Rating: 13k (-3%) - ELO 797
Black End Rating: 14k (-28%) - ELO 671]

C[Thanks for reviewing my game!
Rüdiger: You are welcome! My first comment will be at move 7.]
;B[pd];W[dp];B[pp];W[dd];B[fq];W[dm]
(;B[dr]C[Your move is not outright wrong, but the "old school" is to make a extension to the right side first, lets say to J3 or J4.

Normal play continues up to move 13.];W[jp];B[cq];W[nq];B[qn]
;W[nn]
(;B[ch]TR[dm][dp]C[I think this is the first move to criticise.

The space for the black stone is too narrow. To form a solid base it will need C9, C15 is not good to form a base, as it is too near to D16.

Old school is to play in the biggest move, which in this phase of the game is where the biggest space is. Any of the variations I show is better in my mind.

If black wants to attack the white stones marked with a triangle a move at C9 would be better.]
;W[cj]C[The black stone is now in immediate trouble, having to look for life, which gives white the initiative for the next few moves.]
;B[ce]C[This move is not a good extension, as it is to near to the white stone.]
;W[gc]C[But white misses the change to press on the black stone.]
;B[pj]LB[pk:A][qk:B][pl:C]C[From the perspective of your lower stones this move is too far. A, B or C are more solid. Also you stones in the left side are not yet settled.]
;W[pl];B[qg]LB[pr:A]C[Imagine a white move at Q2? You now have 2 unsettled groups, my feelings for black are uncomfortable...]
;W[pn]C[White misses his chances...]
(;B[po]C[Two GO proverbs:

1 - when attached then extend
2 - dont bang your head

a better move in regard to 1 is R5, see the variation];W[on]
;B[jd]TR[ce][ch]SQ[qn][po][pp]C[The move is not bad, but ... your stones "Triangle" *and* "Square" are not yet settled...]
;W[nc];B[lc];W[ne];B[ng];W[lf];B[jf];W[lh]CR[pd][ng][qg][pj]
LB[pb:A][ic:1][mf:B][of:C]TR[nc][ne][lf]SQ[lc][jd][jf]C[The question is: Who is hunting whom?

Square: has no base nor eyes yet. it could make a small base with "1"
Triangle, yould make a base and eyes at A, but has a cutting point around B
Circle: is only loosely connected, not really strong either...having a weak point at C]
;B[jh];W[of]C[White spots the black weak point...];B[pf];W[og]
;B[ph]C[Good - black has got some territory and lost a stone]
;W[oh]LB[lc:B][jd:B][ce:A][jf:B][ch:A][jh:B][qn:C][po:C][pp:C]
C[White is eager to keep this stone, black should use the braething brake to settle one of his unsettled groups A, B or C...]
;B[oi]C[Not really necessary...];W[pb]C[Now whites center group has 2 certain eyes and can fight strongly...]
;B[qc];W[mb];B[lb]
(;W[ni]C[Whites move is an error, imagine white J18.];B[nj]
;W[mi]C[Hm, I hear myself repeating, black should now settle one of his groups...]

(;B[ei]C[hm, this is not really an enforcing move...see my variations]
;W[cc];B[pr]C[Good, this groups feels better now];W[nr];B[de]
C[this one too, also the center group now looks better

but white has got some territory on the top and bottom];W[ek]
C[White prepares some center territory];B[ge]C[blacks area is open at E14 and H11]
;W[fd];B[fe];W[bd];B[be]C[Whites territory gain is bigger];W[cp]
;B[qb];W[pc]
(;B[iq]C[is a clamp @ P18 a possibility here?

Rüdiger: Hm, the question even does not come up to my mind,,,See the variation, but it will not bring any serious danger to whites group, J3 is certainly better in the sense of territory]
;W[jq];B[jr];W[kr];B[ir];W[fo]C[now black should do something against the starting white center moyo]
;B[gp]C[Well this move helps white more than disturbing him...]
;W[go];B[ho];W[hp];B[ip];W[fp];B[gq];W[dq]C[But white plays small moves too...]
;B[cr];W[hn];B[io];W[jo];B[in];W[hm]TR[hi]C[white did not take his chance...black should now defend at H11]
;B[im];W[ln];B[ql];W[ok];B[oj];W[qm];B[rm];W[pm]LB[rl:B][rn:A]
C[Black has to defend at either S8 or S6, which is better?
I think B is better.];B[rn];W[qk];B[rl];W[pk];B[qj];W[rk];B[rj]
;W[sj];B[si];W[sk];B[rh];W[hl];B[lr];W[lq];B[ks];W[kq];B[ib]
C[I still think that H11 would be better];W[hb];B[ic];W[hi]
;B[mk]CR[jh][ij][im][lm]C[I feel like I should have tried to take  more territory in this area.

Rüdiger: Well I dont see much space here, but H11, would have been a territory of 24 points.]
;W[fj];B[hh];W[fi];B[fh];W[gh];B[gg];W[gi];B[eg];W[ih];B[ig]
;W[hg];B[hf];W[ji];B[bp]C[Good, white missed this move when fiddling around in the center]
;W[bo];B[bq];W[cn]LB[ob:C][hc:D][ed:B][bi:A][np:E]C[whites move is unnecessary...but the game is nearly finished. 

I see black moves with regard to territory at A-E];B[bi];W[od]
;B[pe];W[kh];B[jg];W[bj];B[jl]LB[ij:B][jk:A]C[I think K9 would be better, also J10 would be possible]
;W[ik];B[jk];W[ci]
(;B[ah]C[I personally prefer a solid connection at B12];W[dh]
C[it immediatly shows why...];B[cg];W[di]C[Id play F12 now]

(;B[dg];W[eh];B[fg]C[This sequence might be the loosing sequence]
;W[ld];B[mc];W[nb];B[hc];W[gb];B[gd];W[ec];B[nl];W[mr];B[aj]
;W[ak];B[ai];W[bl];B[eq]C[I think I should have come back for the M2 stone or A13 instead of this move; that was the game.]
;W[ag]TR[bh]C[Thing again of B12. Here is the loosing sequence, that were a lot of points.]
;B[bh];W[ae];B[bf];W[af];B[bg];W[ad];B[jj];W[ij];B[ki];W[ii]
;B[lj];W[li];B[kj];W[md];B[kd];W[ls];B[js];W[ep];B[km]C[M19 is bigger than M7!]
;W[la];B[kb]C[i wonder if L19 was a better move here; but was afraid of W L18...]
;W[qa];B[ra];W[pa];B[rb];W[op];B[mm]C[you give up some points to have 4 points in the center!]
;W[lm];B[ll];W[mn];B[oo];W[no];B[oq];W[np];B[cd];W[bb];B[ka]
;W[ma];B[kn];W[ko];B[jn];W[or];B[pq];W[ps];B[qs];W[os];B[qr]
;W[nm];B[ml];W[sl];B[sm];W[ke];B[kg];W[lg];B[je];W[kf];B[ol]
C[preventing one point for white; were moves like H19 and A5 bigger?]
;W[ao];B[ha];W[ga];B[ee];W[ed];B[ap];W[hh];B[ia];W[oe];B[tt]
;W[tt]C[I thought I played relatively well; although there were a few points at which I felt like I was following too much.  any overall comments are appreciated.  Thanks again!

Rüdiger: From the strategic point, the early move on the left side was your main burden. White did not take to much of gain from this error.

The hanging connection at A12 brought you some trouble and the loss of many points. The fight for 3 or 4 points in the center brought to you the loss of more points in the top.

I hope my comments help you. Have a nice day.];B[tt]TW[aa][ba]
[ca][da][ea][fa][na][oa][ab][cb][db][eb][fb][ob][ac][bc][dc]
[fc][oc][nd][le][me][mf][nf][mg][ng][mh][nh][ei][dj][ej][gj]
[hj][bk][ck][dk][fk][gk][hk][al][cl][dl][el][fl][gl][am][bm]
[cm][em][fm][gm][an][bn][dn][en][fn][gn][co][do][eo][lo][mo]
[kp][lp][mp][mq][lr][ms][ns]TB[ja][sa][jb][sb][jc][kc][rc][sc]
[hd][id][qd][rd][sd][he][ie][qe][re][se][cf][df][ef][ff][gf]
[if][qf][rf][sf][rg][sg][qh][sh][pi][qi][ri][kk][lk][kl][jm]
[sn][qo][ro][so][hp][qp][rp][sp][aq][hq][qq][rq][sq][ar][br]
[er][fr][gr][hr][rr][sr][as][bs][cs][ds][es][fs][gs][hs][is]
[rs][ss]C[White: 67 territories + 2*2 dead stones(B) + 2 prisoners + 0.5 komi = 73.5
Black: 69 territories + 2*1 dead stone(W) + 0 prisoners = 71
Result: W+2.5])
(;B[eh];W[dg];B[df]))
(;B[bh];W[dh];B[di];W[ej];B[eh]C[great difference]))
(;B[ob];W[oc];B[pa]))
(;B[cc];W[cd];B[bd];W[dc];B[cb];W[de];B[cf]C[black territory to the left side]
)
(;B[de];W[ee];B[cd])
(;B[dh]))
(;W[ib]))
(;B[qo]))
(;B[fc])
(;B[fd])
(;B[jd]))
(;B[ip]))
