(;FF[4]GM[1]SZ[19]ST[2]CA[utf-8]AP[SGFC:1.16]

PB[mknippen]
BR[15k]
HA[2]
PW[LeonD]
WR[13k]
KM[0.5]
DT[2013-09-29]
PC[The KGS Go Server at http://www.gokgs.com/]
RE[W+53.5]
TM[1500]
OT[5x30 byo-yomi]
RU[Japanese]

AB[pd][dp]C[mknippen [15k\]: hi
LeonD [13k\]: hi gg

Hello, you played a good game, but failed to manage white invasions effectively :) Also missed to defend some cuts. I hope my commentaries can help you!
Feel free to mail me if you have more questions! :)];W[pp];B[dd]
C[i typically move at the 3-4 point, to have some variety.]
;W[pj];B[nq]C[hoping for a standard joseki that allows me to move backwards, gaining as much of the bottom as possible]
;W[qn]
(;B[pr];W[qq]
(;B[iq]C[it worked.


this is way too far, L3 is standard joseki after Q2, K4 without Q2 is also possible and simple]

(;W[jd]
(;B[cj]C[claiming the left side with variety of 3rd and 4th lines.

Usually 4th line (sanrensei) is better here, aiming for a big moyo if white invades 3-3]
;W[fc];B[cf];W[hd]C[didnt feel the need to respond to this, so wanted to strengthen my corner]
;B[nc];W[qc]C[i fail at many 3-3 invasions, not sure what the best move is here.]
;B[qd]C[blocking him from going down seemed like a good idea.

This is the only move :)];W[pc]C[White can't live in the corner with this move]
;B[oc]
(;W[ob]C[After this, white must die :P]
(;B[ph]C[wanted to make sure I established territory, regardless on if I won the corner or not.]
;W[nj];B[nh];W[nb]
(;B[mb];W[mc]
(;B[lc];W[md];B[ld];W[od]C[didn't see that coming.];B[me];W[nd]
;B[le];W[of];B[pf];W[mf]
(;B[ja]C[monkey jump, but probably a bit to early..

this move don't allow you to make eyes shape :(];W[lb]C[and useless after seeing that.]
;B[kb];W[ma];B[kc];W[ib]
(;B[oe];W[ne]C[This move let white connect all its stones];B[og]
;W[pe];B[qe];W[qf];B[oe];W[kf];B[lf];W[pe];B[rf]C[should have spent more time thinking this one out, but not sure what to do still.]
;W[pg];B[qg];W[pf]
(;B[mg];W[rg];B[qh];W[sf];B[rh];W[re]C[an overall terrible execution of handling a 3-3 invasion. Moving on to secure more]

(;B[fq];W[cn]
(;B[dn];W[cp];B[cq]C[made sure to hold onto the 3-3 this time.]
;W[co]
(;B[dm]C[Too many cuts];W[do];B[eo];W[dq];B[dr];W[ep];B[eq]
;W[fp];B[gp];W[dp];B[cm]C[liking the thickness of whites group, could be a possibility of killing it.

It's hard because of Black cuts];W[cr];B[bq];W[er];B[br];W[gq]
;B[cs];W[fr];B[an];W[go];B[hp];W[en];B[ho];W[hn];B[jo];W[em]
;B[gn];W[fo];B[gm];W[ek];B[gk];W[dl];B[cl];W[ck];B[bk];W[dk]
;B[bl];W[di];B[ci];W[dh];B[ch];W[ef];B[ec];W[ed];B[dc];W[de]
;B[ce];W[cg]
(;B[bg]C[would D13 have been better?];W[dg];B[dj];W[ej];B[im]
;W[fl];B[gl];W[bf]
(;B[be];W[bh];B[af];W[bj]C[not a good trade.

Nope! see variations to correct handling of the cut ;)];B[aj]
;W[bi];B[nm]C[aji];W[lj];B[lh];W[ai]
(;B[ak];W[bm];B[bn];W[al]C[mknippen [15k\]: damn..
cant believe I missed this.];B[gh];W[fi];B[gi];W[gj];B[hj]C[LeonD [13k\]: ;-›]
;W[fj];B[ii];W[gg];B[hg];W[gf];B[hf];W[he];B[jf];W[je];B[jg]
;W[hh];B[ih];W[fh];B[hi];W[ap];B[bp]C[is there a better response to A4?

You can't connect because of the lack of liberties (White C7) :(]
;W[bo];B[aq];W[ao];B[ds]C[Not neccesary :) You must play big moves, but the game is already lost :(]
;W[hr];B[ir];W[ll];B[lm];W[pl];B[in];W[no]
(;B[mo]C[was this to agressive? Wanted to keep the bottom as much as possible. If so, what would be the better response?

It's good shape, but have cuts, you managed it ok despite of :) Maybe M4 is more secure]
;W[mn];B[mm];W[nn];B[lo];W[np];B[mq];W[lp];B[mp];W[jk];B[ik]
;W[nl];B[kp];W[km];B[ln];W[ki];B[kh];W[oq];B[or];W[om];B[rk]
;W[rm];B[qj];W[qk];B[rj];W[rl];B[pi];W[oi];B[oh];W[mi]
(;B[mh];W[ni];B[li];W[ji];B[jj];W[kj];B[jl];W[ij];B[ke];W[kl]
;B[kn];W[jm];B[il];W[eb];B[db];W[fb];B[rs]C[another monkey jump to try and reduce whites corner.]
;W[rr]
(;B[sr]
(;W[sq];B[qr];W[ss];B[qs];W[pq];B[nr];W[sr];B[ia];W[ha];B[hb]
;W[ga];B[ic];W[hc];B[jb];W[gb];B[ib];W[ml];B[es];W[fs];B[hq]
;W[is];B[js];W[hs];B[kr];W[nf];B[ea];W[fd];B[id];W[ie];B[df]
;W[ee];B[fm];W[fk];B[jj];W[kk];B[ij];W[sh];B[si];W[sg];B[sl]
;W[sm];B[sk];W[fa];B[da];W[ah];B[ag];W[jn];B[if];W[jh];B[ka]
;W[la];B[tt]C[did I miss anything?];W[kd];B[kg];W[tt];B[tt]
TB[kq][aa][ba][ca][ab][bb][cb][ac][bc][cc][ad][bd][cd][ae][bf]
[kf][ig][lg][hh][qi][ri][sj][hk][hl][hm][hn][io][ko][ip][jp]
[lp][jq][lq][ar][cr][jr][lr][mr][as][bs][ks][ls][ms][ns][os]
[ps]TW[bl][cl][el][ol][ql][am][cm][dm][pm][qm][an][bn][dn][on]
[pn][rn][rc][eo][oo][po][qo][ro][so][op][qp][rp][sp][eq][fq]
[rq][gr][gs][na][oa][pa][qa][ra][sa][mb][pb][qb][rb][sb][gc]
[nc][oc][sc][gd][pd][qd][rd][sd][fe][ge][oe][qe][se][ff][rf]
[eg][fg][ch][eh][sn][ci][ei][aj][cj][dj][mj][oj][ak][bk][lk]
[mk][nk][ok][pk]C[LeonD [13k\]: thx
mknippen [15k\]: gg])
(;W[qs]C[White can cut]))
(;B[qr]))
(;B[qr]C[Big! :)])
(;B[rr]C[Big! :)]))
(;B[lp]))
(;B[bn]C[This keeps black connected and alive!]))
(;B[bh]
(;W[be];B[bd])
(;W[cd]
(;B[be];W[cc];B[cb];W[bb];B[bc])
(;B[cc];W[bd];B[be]))))
(;B[dg];W[bg];B[df]C[White can't escape.. so yes! :)]))
(;B[do])
(;B[dq])
(;B[bq]C[Big!]))
(;B[co];W[dn];B[cl]C[White has no base :)]))
(;B[cn]C[This side is bigger, not overconcentrated]))
(;B[rh]C[You must defend your cuts]))
(;B[og]C[Vital point]))
(;B[je];W[ie];B[jf]C[You must escape to the center, watching that Q14 group is also weak]
))
(;B[md];W[lc];B[rc];W[qb]C[Better variation after going to N18]
))
(;B[mc]C[You don't mind white crawling on 1st line (the line of defeat) making 1 point per move and you build greater influence while having no cut points]
))
(;B[nb];W[pa];B[rd]
(;W[qb];B[rb];W[rc];B[sc])
(;W[rb];B[na]
(;W[oa];B[qa];W[pb];B[rc])
(;W[qa];B[rc];W[sb];B[pb]
(;W[oa];B[qb])
(;W[qb];B[oa]))
(;W[ra];B[oa]
(;W[pb];B[sb])
(;W[sb];B[pb])))))
(;W[rd]C[White can flee];B[re];W[rc]
(;B[qf]C[This let white live];W[ob];B[nb];W[pb])
(;B[pb]C[This let white flee];W[rf];B[qe];W[se])))
(;B[lc];W[gc]C[White still has no base])
(;B[dj]
(;W[fc];B[cf])
(;W[cc];B[cd];W[dc];B[ec];W[eb];B[fc];W[fb];B[gc];W[bd];B[be]
;W[bc];B[cf];W[cq];B[cp];W[dq];B[eq];W[er];B[fq];W[fr];B[gq]
;W[bp];B[bo];W[bq];B[cn]C[This is good for black, if D10 is in C10, it would be too low :(]
)))
(;W[jc]C[This is more common to so black can't get free moves while white is floating]
;B[lc];W[gc]))
(;B[kq]C[This is standard and can't be bad, but black position is low while white combines 3rd and 4th line.]
))
(;B[jp]C[This is possible and stones work together :)]))
