(;FF[4]GM[1]SZ[19]ST[2]CA[UTF-8]AP[SGFC:1.16]

PB[Mario Galán (Derok)]
BR[10k]
HA[4]
PW[Juan Sampedro (Juanuro)]
WR[3k]
KM[0.5]
RE[W+8.5]
RU[Japanese]

AB[dd][pd][dp][pp]C[Please I would like to know what I could have done better in fuseki, reducing white moyo at center (@H8), life and death on left white group (@B9) and white invasion at top (@M8)

Thanks a lot!!]PL[W];W[nq];B[qn];W[fq];B[cn];W[jp];B[jd];W[qf]
;B[ph];W[qc];B[pc];W[qd];B[pe];W[pf];B[qe];W[re];B[rd];W[rc]
;B[rf];W[sd]
(;B[rg];W[of]
(;B[md];W[oh];B[pi];W[lf];B[jf];W[pl]
(;B[ql];W[qk];B[pk];W[rk];B[rl];W[pj];B[ok];W[oj];B[qj];W[nk]
;B[ol];W[nl]
(;B[pm];W[om];B[pl];W[qi];B[rj];W[ri]
(;B[sj];W[si];B[sk];W[qh]LB[oi:B][nj:A]C[There is still some aji at A or B, but overall this is too good for white; he no longer has a weak group in the center, and got some points by capturing the black stones.]
;B[fc]LB[df:B][jf:A]C[This is not very efficient, given A.  B would be a better direction.]
;W[ci]
(;B[ce];W[cl];B[dq];W[fo];B[em];W[gm];B[ek];W[gk];B[ei]LB[ei:A]
[ij:C][no:B]C[A is strange.  It is unlikely that you would be able to kill the left white group, so it does not do much.  B or C would be better.]
;W[bn];B[bo];W[bm];B[cm];W[dl];B[el];W[cg];B[bf];W[jh];B[kg]
;W[li];B[no];W[oo]
(;B[op];W[mo];B[np];W[mp]
(;B[nn];W[mn];B[nm];W[mm]LB[mq:A]C[Now A no longer works.];B[or]
;W[lc];B[ld];W[jc]
(;B[kc]C[This just gives white a better shape.];W[kb];B[kd]
;W[mc];B[nc];W[ic]
(;B[hd]C[This move gives you nothing; better to kill at least half of the white group.]
;W[gb];B[fb];W[mb];B[hb];W[ib]LB[hj:A]C[You will not be able to kill white.  Tenuki now (say at A).]

(;B[hc];W[nb];B[oc];W[gi];B[mr];W[er];B[dr];W[kr];B[fn];W[gn]
;B[qb];W[rb];B[bk];W[bl]
(;B[dh];W[bg];B[ag];W[bj];B[dj];W[ck];B[ak];W[ah]
(;B[ch];W[bh];B[aj];W[cj];B[lg];W[ne];B[nd];W[gg];B[ni];W[oi]
;B[nh];W[nj];B[mq];W[lq];B[eo];W[fp];B[id];W[ja];B[ha];W[ia]
;B[ng];W[og];B[nf];W[ao];B[bp];W[ds];B[cs];W[es];B[br];W[af]
;B[ae];W[cf];B[be];W[lr]
(;B[ms];W[ls];B[nr];W[oe];B[me];W[ig];B[mi];W[mj];B[eq];W[fr]
;B[ff];W[gf];B[la];W[lb];B[lh];W[ki];B[ap];W[an];B[ge];W[fm]
;B[en];W[dm];B[pa];W[ob];B[pb];W[dn];B[co];W[ra];B[df];W[if]
;B[ie];W[fg];B[eg];W[oa];B[fj];W[gj];B[fh];W[hf];B[fi];W[jg]
;B[gh];W[kf];B[mf];W[je];B[hh];W[hi];B[ih];W[ii];B[fl];W[gl]
;B[di];W[he];B[fd];W[kh];B[ag];W[al];B[af];W[jf];B[do];W[tt]
;B[dk];W[tt];B[tt];W[tt]TW[ka][la][ma][na][sa][jb][sb][sc][rd]
[se][rf][sf][pg][qg][rg][sg][ph][rh][sh][ai][bi][ji][pi][aj]
[hj][ij][jj][kj][lj][ak][bk][hk][ik][jk][kk][lk][mk][hl][il]
[jl][kl][ll][ml][am][hm][im][jm][km][lm][hn][in][jn][kn][ln]
[go][ho][io][jo][ko][lo][gp][hp][ip][kp][lp][gq][hq][iq][jq]
[kq][gr][hr][ir][jr][fs][gs][hs][is][js][ks]TB[aa][ba][ca][da]
[ea][fa][ga][ab][bb][cb][db][eb][gb][ac][bc][cc][dc][ec][gc]
[ad][bd][cd][ed][gd][de][ee][fe][ef][mg][eh][mh][ej][qk][rk]
[sl][om][qm][rm][sm][on][pn][rn][sn][oo][po][qo][ro][so][cp]
[qp][rp][sp][aq][bq][cq][nq][oq][pq][qq][rq][sq][ar][cr][pr]
[qr][rr][sr][as][bs][ns][os][ps][qs][rs][ss]C[White: 72 territories + 2*8 dead stones(B) + 3 prisoners + 0.5 komi = 91.5
Black: 71 territories + 2*4 dead stones(W) + 4 prisoners = 83
Result: W+8.5])
(;B[nr]C[Do not give white m1 in sente.]))
(;B[af]C[You will not be able to kill, just take the endgame points.]
))
(;B[bi]C[This seems more practical (white will run out, but you take some of his territory).]

(;W[bh];B[cj];W[dj];B[di])
(;W[ch];B[bh])))
(;B[hj];W[hk];B[jj];W[ij];B[ii];W[ik];B[ji];W[jk]))
(;B[jb]
(;W[lb];B[ib];W[nb];B[nd]
(;W[hc];B[hb];W[he];B[ob])
(;W[pb];B[hc]))
(;W[ib];B[lb];W[ja];B[mb];W[gb])))
(;B[ic]
(;W[kd];B[ke];W[kc];B[ib])
(;W[ib];B[kc];W[jb];B[kb])))
(;B[mq]LB[nn:A]C[This is bigger than pushing at A.];W[lq];B[mr]

(;W[lr];B[nr])
(;W[nr];B[lr];W[kr];B[mn]
(;W[ln];B[lp];W[lo];B[kq])
(;W[lp];B[or];W[ls];B[oq];W[ms];B[nm]))))
(;B[on]C[This would be better.]
(;W[op];B[po];W[nn];B[nm];W[mn];B[mm];W[ln];B[lm];W[kn];B[oq]
;W[np];B[pq])
(;W[nm];B[nn])
(;W[mo];B[mn]
(;W[nm];B[nn];W[po];B[op])
(;W[po];B[op]))))
(;B[ck];W[cf];B[ce];W[df]C[This is an option, black ends up with a less efficient shape and can still be attacked.]
))
(;B[sk]C[You will have to capture eventually, it is better to do it directly.]
))
(;B[om]C[No need to give white p7.]))
(;B[oi];W[nh];B[mj];W[kh];B[om]C[This would be harder for white.  Attempting to connect like in the game is too submissive.]
))
(;B[pb];W[qb]C[Black should make this exchange, since white would also like to play Q18 to take the black group's liberties.]
))
(;B[of];W[rg];B[qg];W[sf];B[pg];W[rf];B[ng]C[This would be simpler (black gets a nice thickness and keeps white closed in).]
))
