(;FF[4]GM[1]SZ[19]ST[2]CA[UTF-8]AP[SGFC:1.16]

PB[quiettimes]
BR[18k]
HA[2]
PW[chonas]
WR[16k]
KM[0.5]
DT[2013-10-25]
PC[OGS: http://online-go.com/game/417830]
RE[W+Resign]
RU[Japanese]

AB[pd][dp]C[While this game is a landslide victory for black, what I'm hoping to get out of this review is:

1. What did I do consistently wrong?  There is a pattern of loss in local fighting

2.  Was it related to a.  My inabilties at local fights or
                                 b. how I positioned myself on the board before the fights started
3.  What can I do to shift the outcome when I come across a playing style like this again?
___
S.

Hey, my name is Simon. I a KGS 9 kyu under the name Ethelor.

I've had a look at the game and my first impressions are that this is quite an agressive game

Ill make comments on moves as they are made and give a summary at the end

Enjoy the review!];W[pp];B[dd];W[fc]LB[hc:C][cf:B][df:A]TR[ec]
C[S.

Black plays at the marked point

In the next move I explain why this isn't the best move

Better to play A, B or C

A or B are best because it keeps the game simple which black needs since white is two stones stronger]
;B[ec]LB[jc:A][fd:1][jd:B][df:2]C[S.

This move is called the "kick"

When you play this white plays at 1 and black follows up at 2

White then plays an extension at either A or B depending on what white wants

Normally the kick is not played unless you are able to attack white's formation as follows.]

(;W[fd];B[df];W[jc]C[I probably should have gone to K16 instead?
___
S.

Possibly, but then you leave your corner relatively weak

Best to not kick in the first place];B[gq]C[S.

This move is alright

Large keima simari isnt something I know too well

It is more complicated for sure because it has invasion points

Better to play the simpler small keima for now

However if you know this shape well then feel free to play it :)]
;W[nc]C[S.

This move is slow by white, he needs to play faster more agressive moves.

Black can laugh his way to the bank];B[oc]LB[pf:A][qf:B]C[S.

We have already discussed why this kick is inferior

You just strengthen your opponent

You cannot pinder well here

Best to just back off at A or B];W[nd];B[qf];W[co];B[cm]C[Honestly, I'm at a complete loss on how to respond to pincers

S.

I am unsure what you mean by that, white is the one who has to respond ;)

Ill just assume that if you were in white's position you wouldnt know what to do.

White's stone is a little too close, he put himself in a bad position

Let's have a look at what the normal sequences are and come back to this]

(;W[cp]C[S.

Good that white neither jumps or goes into the corner because both end badly...

However this move is not great either];B[cq]C[S.

Good move];W[dq]LB[ep:A]C[S.

White must be agressive if he wants to gain anything

(He needs to be agressive anyway due to the handicap)

Note that extending at A is quite good for black]
(;B[eq];W[dr];B[ep]C[S.

better to extend right away

You just made white stronger by giving atari

There is a proverb not to atari cutting stones because you increase his liberties from 2 to 3

It doesnt help you];W[bq];B[er];W[cr];B[nq]C[S.

This is quite good, make use of your wall];W[ck];B[ci]C[S.

Best to simply jump out

Counter pincering just leads to a running fight and makes the game complicated for no reason other than for having complicated for the sake of it]
;W[ek]LB[cm:A]C[S.

After white's jump black's stone at A is starting to look a little sad...]

(;B[pj]LB[qn:A]C[S.

This move is a little slow, id say to either save your stone

Better yet, 

Play at A

Pincering the stone like that is quite good for you];W[lq];B[pq]
C[S.

This attachment isn't recommended

You just make your opponent stronger];W[qq];B[op];W[qp];B[pn]
C[S.

Remember that the keima can be cut, you are asking for trouble with this move

A one point jump is stronger]
(;W[qn]C[S.

White is very nice when he attaches at A];B[qm];W[pm]C[S.

Maybe not that nice, Remember to simply extend unless the atari is something you can gain from

Not this situation though];B[qo];W[rn];B[ql];W[po];B[on];W[oo]
C[S.

See? You are now cut off];B[om];W[np]
(;B[kr]C[S.

Good, abandon those stones for now

They are a liability

This move underneath isn't that strong

It is in sente but you dont have anywhere to go from here

You just get your head hit (Explained in future moves)];W[lr]
;B[kq]C[S.

This move is not very good

Let's have a look at some other ideas];W[kp]C[S.

Im sure you know the proverb to "his the head of two"

Your move at L3 was asking for it

There is no need to have your head hit at this time];B[jp];W[jq]
C[S.

One of the reasons why getting your head hit is not preferable]
;B[ko];W[lp];B[jr];W[iq];B[ip]C[S.

By using so many ataris you just make your shape weak and full of aji]
;W[ir];B[hq]C[At this point I've kind of identified this opponent as a "close quarters" "street fighter" style that I am unaccustomed to.
___

S.
I wouldn't say your opponent is very agressive, you just leave a lot of weakness for him to exploit

I often have the same problem in my games. I am personally weak against hyperagressive or trick players

However, looking back on many of my games now that I have become stronger reveals that my shape was propperly weak and I myself would exploit those cuts if I was my own opponent.]
;W[hr];B[gr];W[js];B[hs];W[ks]C[S.

Black is obviously quite sad with this result];B[ds];W[jo];B[io]
;W[jn];B[in];W[kn];B[nf]CR[pd]LB[oe:A][qf:B][pg:C]C[S.

This jump is alright if you know the key points

The connection between the two circled stones is called the elephants eye jump

it is a very weak jump only used when A is not a very good move for white

If white plays in A black is still connected if he has stones at C and B

That means in this case if white plays at A he will only strengthen you

Your territory is vastly expanded, good job]
(;W[qc]
(;B[pc]C[S.

Wrong direction];W[qd];B[qe];W[re];B[rf];W[rd];B[qb];W[rb];B[qa]
;W[ra];B[pb];W[sc];B[se];W[en]C[S.

Good move, captures your stone and reduces your teritory

That hurt];B[do];W[dn];B[fo];W[ph]C[S.

This is a very deep invasion by white

He shouldnt be able to get away with this]
(;B[pg]C[S.

This attachment only makes him stronger];W[oh];B[nh]C[S.

As does this

Please note: playing in his eye space is better than taking away all his liberties one by one

As long as he has no eyes it doesnt matter how many liberties he has

By attaching desperately like this you only leave cutting points for him to exploit]
;W[og];B[of];W[ng];B[mf];W[mg]C[S.

White is free now

Not alive but not dead either];B[ff];W[ee];B[de];W[ef];B[eg]
;W[fg]
(;B[eh];W[gf];B[kd];W[le]C[Was really unsure of his play and my response.  It felt really weak however I was pretty down  at this point.

S.

This is a variation of what I showed you earlier

Note: The elephant eye jump is only good when white's move just now is't any good

However, since it is the jump is very easily cut and now that stone is dead unless you can struggle and make it live somehow]
;B[fe];W[ge];B[fb];W[gb];B[fa];W[ga];B[db];W[bi];B[bj];W[di]
C[S.

At this point your opponent can see you are frustrated and exhausted

He playes this move expecting to finish you off

He expects you to panic on this move

However, this move isnt very good if you respond correctly

You can make white pay dearly]
(;B[bh];W[ch];B[ai];W[dh];B[cg];W[dg];B[cf];W[fh];B[bk];W[cj]
C[S.

Dont stave that stone

That one point is worth more to you dead than alive

Connect to your "dead" stone and take white's points away from him]

(;B[bi];W[bl];B[cl];W[dl];B[dj]C[S.

Very well spotted];W[ei];B[dk];W[cn];B[bm];W[bn];B[am];W[ej]
;B[ck]C[S.

No need];W[lf];B[ni]LB[lg:A]C[S.

You must cut white off at A or else that group is alive

After that you can say goodbye to a lot of points];W[oi];B[nj]
;W[oj];B[ok];W[qj];B[qk];W[nk];B[nl];W[mk];B[ml];W[mj];B[lk]
C[S.

Once again, taking his liberties one by one isnt a good use of stones

Either take away eye shape or strengthen yourself

Since he is already connected do your best to minimize your losses]
;W[qi]
(;B[kk]C[S.

Once again, its clear to see that you are tired from this match. :/]
;W[mi];B[ll];W[ji];B[ik];W[oe];B[pe];W[nb];B[qh];W[rh]LB[rc:F]
[kd:D][pi:C][jk:E][fq:A][or:B]C[I resigned at this point feeling there was no way to turn game around
I feel that I lost by local fights however not totally certain.
Thank you for the review.
___
S.

Id say you lost because you made simple mistakes.

Let's highlight the places on the board where the biggest mistakes were made

6 very large mistakes that I have covered

Note that the letters indicate areas as opposed to moves

I believe i have already covered these but in summary:

A 
  ->Wall turned out to make very few points, this was due to getting your head hit and leaving lots of cutting points and aji
  ->Next time don't get your head hit and try to play a contact move instead of peeping on the 2nd line where your position is inferior

B
  ->You failed to jump out because you used a keima which can be broken
  -> Use a one point jump to jump into the center, proberbs say this is never bad

C
  -> You tried to kill white too desperately by attaching to him everywhere
  -> Kill by placing stones one space away from what you want to kill this removes eye space and is endlessly more efficient than taking the liberties away one by one

D
  -> You simply played far too deep into his teritory and were cut off right away since your conection was weak. 
  ->Once again, one pont jumps are your friend ;) They are much more difficult to break where as the elephants eye is one of the easiest to break

E
  ->While not game losing, moves like this which have no real aim are almost never of benefit, I understand that you were frustrated and tired but still. Remember that often in a very even match the game can be decided by the one who is able to concentrate for the longest time

F
  ->The corner was fully enclosed but white still lived because you didn't know how to kill him
  ->On a board try figuring out different ways to kill white when you have the enclosed corner


Ive tried to give you the best review that I possibly could. Let me know on KGS if you have any questions.

You can also send me an email at simon@thornewill.org, I check my email multiple times a day so ill be able to answer you swiftly.

I think you have a lot of potential as a go player. I understand I was very harsh with my review and it's a lot to take in. However, if you continue to study go by reading books, watching videos and most importantly, playing games you will improve.

If you have some spare cash I highly recommend Badukmovies (some are free)

If not then nick sibicky and batt's go lectures on youtube are also of very high quality and I highly recommend them.

Good luck, and see you around ;)

Simon (Ethelor)])
(;B[mi];W[lj];B[li];W[kj];B[ki]C[S.

Not even out

Probably best to resign at this point]))
(;B[cl];W[bi];B[ag]C[S.

What can white do?];W[bn];B[bm];W[am];B[al];W[an];B[cn];W[bo]
;B[aj]C[S.

You need to play here or something like this

False eyes are a recepie for disaster

Before you know it you wont be able to connect and you'll lose points for no reason]
;W[ri]C[S.

Missclick]))
(;B[dh]LB[ch:B][cj:A]C[S.

I recommend this

If white plays A then he is nice and it resolves easily if he plays at B it can mean a world of hurt if you want to kick him where it hurts]

(;W[cj];B[ch];W[bk];B[bh];W[aj]C[S.

it doesnt even matter if white wants to play nice

This is the correct move or else he loses many points])
(;W[ch];B[cj]LB[bh:A]C[S.

White must connect at A];W[bh]C[S.

White's weakness is that his shapes are not solid at all

This is more aji for you to explot];B[dj];W[ei];B[ej];W[fi]
;B[dk];W[dl];B[el];W[fk];B[cl]C[S.

Yeah... This is awkward for white];W[dm];B[bk];W[aj];B[ak]
(;W[bm];B[bn];W[cn])
(;W[bn];B[bm];W[am];B[al];W[an];B[cn];W[bo]C[S.

White is screaming in pain];B[fh];W[gh];B[fj];W[gi]))))
(;B[fh]
(;W[gh])
(;W[gg];B[dh]C[S.

Perhaps?])))
(;B[ni]C[S.

Cap him by playing here, He has no chance to live unless you make a mistake

(Fair enough if you do, I know I still do :/)]))
(;B[qd];W[pc]C[S.

Look and laugh at white's hit head

This shape will cost these stones their lives];B[ob]C[S.

What can white do?];W[od];B[rc]LB[qb:A]C[S.

White must play here or else black will and capture the two stones]
;W[qb];B[rb]C[S.

White must extend because he doesnt have enough liberties

Black will just take it again];W[qa];B[ra];W[nb];B[pa]C[S.

White is helpless]))
(;W[oe];B[pg]C[S.

White cannot slice through that easily];W[of];B[og];W[pe];B[qe]
;W[ng];B[nh];W[mg];B[mh];W[lh];B[lg];W[mf];B[li];W[kh];B[no]
;W[mp];B[mn]C[S.

Something like this?]))
(;AB[kq]LB[kp:A][kr:B]C[S.

This is perhaps better

Playing at A or B are white's choices]
(;W[kp]
(;B[kr]C[S.

Decending like this is bad shape for you but you wont die if you can pull it off]
;W[lr];B[iq];W[ks]LB[js:A]C[S.

I am sure you are aware of why black cannot play at A, Do some experimentation and see why if you don't]
;B[jr];W[js];B[is];W[ls];B[jp])
(;B[jq];W[kr];B[jr];W[ks];B[js];W[mr];B[jp];W[ko]C[S.

Also not so bad]))
(;W[kr];B[jr];W[ks];B[js];W[mr];B[kp]C[S.

The hane underneath is not very good for white

He hit his own head])))
(;W[po];B[oo];W[on];B[nn];W[om];B[mo];W[pr];B[oq]C[S.

This is awkward for black])
(;AE[pn];AB[on];W[oo];B[no];W[po];B[nn]C[S.

Here you are not seperated as easily

Though white can poke at your shape and make you very heavy]
;W[mp];B[np];W[pr];B[oq]))
(;AB[qn]C[S.

The joseki is very favorable for you

Though I doubt it would be played out correctly at this level

If you can pull it off though you're looking at a good game]
;W[np];B[mp];W[oq];B[no];W[op];B[mq];W[pn];B[pm];W[on];B[ro]
;W[rp];B[qp];W[qq];B[qo];W[rq];B[or];W[pr];B[qj]C[S.

Now black is developing the left fight and bottom side

White is crying]))
(;B[ep]LB[bq:C][cr:B][dr:A]C[S.

White can play at either A B or C

B and C settle things quickly

A leads to a whole fight];W[cr];B[bq];W[br];B[dr];W[bp];B[eq]
;W[aq];B[dq]C[S.

Something like this allows quite to love poorly

Black has thickness at the bottom and can still develop the left side]
))
(;LB[en:2][eo:1][cq:3]C[S.

Next move has some quick explanations of cruitial joseki.

You should know all of them

Note that I said that white is at a disadvantage because he cannot play the joseki where he jumps 

White will want to make moves at 1, 2 or 3

1 and 2 are now not possible because black is peeping the jump and the keima can be easily cut]

(;AW[cn]AB[cl]AE[cm][co][gq]CR[cl]LB[en:B][cq:A]C[S.

It is white's turn to move, black just played the pincer

White's most natural responces are at A and B

A is simple, B is a little more complicated

White plays B when he doesn't want black to gain the thickness]

(;W[cq]
(;B[cp];W[dq];B[ep];W[bp];B[bo];W[bq]
(;B[fq]TR[co]C[S.

Misslclick

Black should protect at triangle])
(;B[co];W[fq]C[S.

Black gains thickness, white gains points

This is a very standard joseki

I expect you know this by heart

If you dont then learn it, you need to know this joseki urgently

Note that since the left hand side of the board is already very much in favor of black this wall is preferable since he builds a moyo]
))
(;B[dq]C[S.

Black can also play this way but it is inferior];W[cp];B[do]
;W[bn];B[em]LB[jq:B][nq:A]C[S.

Note that there are other ways this joseki can be carried out

The other one is simpler but you need to know the basics of both

The problem is that black has no potential for his wall

White can easily destroy his potential by playing at A or B]
))
(;W[en];B[fq];W[dk];B[dl];W[el];B[ck];W[dj];B[cj];W[di];B[ch]
;W[eg]C[S.

White can also (and probably should) play like this

However, in the variation that happened in the game white cannot play like this

This is bad for white

Let's go back and have a look at what happened in the game]
))
(;W[eo];B[do];W[dn];B[cn]C[S.

Bad])
(;W[en];B[do];W[dn];B[cn]C[S.

Bad but white can still fight])
(;W[cq]C[S.

White can jump into the corner at 3];B[cp];W[bp];B[bo];W[bn]
;B[bq];W[ao];B[cr]LB[cn:A]C[S.

White is in trouble

If black plays at A then he has no eyes, only a false one

This is why white's move is inferior])))
(;AB[df]LB[jc:2][fd:1]C[S.

Let's say that black already has a stone there, it is white's move.

White plays at 1 and black plays at 2

White is forced to play at 1 in order to make base or he can attempt to attack the stone at 2

Ofcourse I doubt white would play 1];W[fd];B[jc]LB[ic:A][lc:B]
;W[ic]C[S.

This move is very over concentrated for white

This is why the kick was not a very good move for black, you only strengthened your opponent since you couldnt attack him like this.]
))
