(;FF[4]GM[1]SZ[19]ST[2]CA[UTF-8]AP[SGFC:1.16]

PB[BambusBO1]
PW[FR2Brett1]
WR[2d]
KM[7]
DT[2013-09-19]
PC[The KGS Go Server at http://www.gokgs.com/]
RE[B+5]
TM[3600]
OT[15/300 Canadian]
RU[Japanese]

C[Dear reviewer,

I am White in this game and I want to learn about all my mistakes. Despite the horrible amount of mistakes in the endgame, this was a serious game (german league, division 3 on board 1) with one hour maintime each. I would like to learn about Black as well, I found his play highly doubtful at times and would like to know where he could have pushed me harder.]
;B[pd];W[pp];B[cd];W[dp];B[cn];W[cl];B[cq];W[cp];B[dq];W[ep]
;B[bp];W[bo];B[bq];W[co];B[fq];W[qf];B[qh]
(;W[qc]
(;B[pc];W[qd];B[pe];W[rf];B[og]C[tapir: This feels wrong. I wouldn't like to play this as Black.

Indeed. This is completely wrong for black. The wall he just build is going to be useless. This can only be played if Black has a stone around k16. So, you might split black's side now.]
;W[ic];B[kc];W[fc];B[dc];W[ie]C[That feels great for white!]
;B[ke];W[hq]C[I think, this is your first overplay. First of all, It's too far from q4. I will be difficult for you to make points with this move. Also, you are not sure yet whether you want h3 or maybe later you'll prefer to get g5 and combine it with a move around d12 to build a large framework.

So, in my opinion it's too early to play that.];B[gq];W[hp]
;B[nq]LB[lq:A]SQ[hp][hq]C[H3 is too far away. You should consider a pincer, so you can use your stones.]

(;W[oq];B[np];W[pn]
(;B[jp]C[You made black heavy yes. But since h3 is heavy too, you're going to fear the cutting point around g5.]
;W[hn]C[tapir: This is the first move that really felt bad doing, but I had no better idea. I expected L3 and planned to answer L5. Now I feel Like I have to answer, but it is an awkward position for both.

Looks like it's needed, you're still aiming around m3-4, it's calm and good.]
;B[ql]LB[qn:A][lq:B]C[if you want to protect your corner you can play A. You can also think about removing black's base at B.]

(;W[jn]C[tapir: Not sure about the shape.];B[nn];W[pl];B[qm]
;W[pm];B[nl];W[qk];B[rk]
(;W[rj];B[qj];W[pk];B[rl]
(;W[ro];B[qi]
(;W[jg];B[dh]C[Black got the last big point. If we count, we'll see the game is still even, and you can still attack o4 group. You have to keep it calm.]
;W[pb];B[ob];W[qb]LB[dk:A]C[That was big, but it's gote. Black should play around A which is much bigger.]
;B[nc]C[tapir: I wanted to bring this exchange in sente, before Black gets R18 in sente after all the moves on the right side. My opponent thought this was a mistake in the game discussion.]
;W[cj]LB[cf:1][df:2][dh:B][ei:A]C[tapir: I was very proud of this move, trying to make miai between center territory at A or an attack on black B.

This feels good for white. With this move you aim to invade around 1 and 2. Still, i'm not sure if just d10 was better.]
;B[rn];W[nr];B[mr];W[or];B[lq]C[the corner it's small. You should tenuki!]

(;W[rp]
(;B[ch];W[ei];B[eh];W[fi]C[Yes! Center is really big now!];B[hd]
C[tapir: At this point I counted myself comfortably ahead and would have been happy with a peaceful way to handle the top. Is there any alternative way to handle this completely differently?

You are ahead, indeed, as I told you before, you should just proceed easy and calm. Just giving up is ok now.]

(;W[id];B[jf];W[if];B[ig]
(;W[kg];B[hg]C[this is painful and white is suddenly in trouble.]

(;W[jj]C[tapir: Later in the game I regretted this move. Would have been much better at K11. Maybe simply starting to live at the top is even better here?]
;B[gf];W[kb];B[lb];W[jb];B[hb]C[white is in trouble!]
(;W[hc];B[gb]
(;W[fb];B[gc];W[gd];B[fd];W[ge];B[fe];W[he];B[ec]C[tapir: All very painful.]
;W[ld];B[lc];W[kd];B[le];W[md];B[me];W[ne]C[Good!]
(;B[mg]C[tapir: I am not sure Black actually read out the variations here, this looked wrong to me.]

(;W[je];B[lg];W[kf];B[hj];W[nd];B[of];W[gh]C[good!];B[gg];W[ib]
;B[fa]
(;W[ii];B[jh];W[kh];B[ki]
(;W[ih];B[ji];W[lh];B[kj];W[mh];B[ng];W[mj];B[lk];W[oi]C[Similar to the shape I showed you.]
;B[oh];W[ij];B[ni];W[lj];B[kl];W[nk];B[mk];W[nj];B[il]
(;W[jk];B[jl];W[kk];B[lm]
(;W[bi]C[it's big but you have lots of weaknesses.];B[go];W[ho]

(;B[gl];W[gm];B[hl];W[fm];B[fo];W[bh];B[bg];W[dn];B[ao];W[an]
;B[ap];W[cm];B[hr];W[ir];B[gr];W[jq];B[ko];W[bf]C[tapir: Before this move I still counted myself as ahead and probably was still in the game afterwards. I had "mentally lost", however. Real series of point losing maneuvers later.

Yes, you lost 8 points here and the game too. No further comments, even you made another mistake at n5, you were losing already anyway.]
;B[ag];W[pi];B[ph];W[eq];B[er];W[kn];B[ln];W[kr];B[kq];W[mo]

(;B[mn];W[mp];B[no];W[lr];B[ms]
(;W[lp];B[om];W[kp];B[mq];W[jo];B[lo];W[fl];B[fj];W[ej];B[fk]
;W[ek];B[en];W[em];B[ns];W[os];B[rg];W[qg];B[rh];W[qe];B[pj]
;W[oj];B[op];W[pq];B[mc];W[od];B[oc];W[gj];B[gk];W[ml];B[ll]
;W[ol];B[nm];W[qn];B[sn];W[so];B[sj];W[fh];B[fg];W[df];B[cg]
;W[eo];B[fn];W[hs];B[gs];W[is];B[ls];W[ks];B[ip];W[iq];B[ah]
;W[ci];B[ai];W[aj];B[sf];W[se];B[sg];W[sc];B[nh];W[ha];B[eb]
;W[io];B[kp];W[hi];B[gi];W[la];B[ma];W[ka];B[pa];W[qa];B[oa]
;W[gj];B[hk];W[di];B[eg];W[im];B[mi];W[li];B[po];W[qo];B[oo]
;W[gi];B[fs];W[ia];B[hm];W[jm];B[lf];W[nf];B[oe];W[jd];B[pf]
;W[mf];B[pg];W[hf];B[ga];W[hh];B[ik];W[gn];B[fp];W[km];B[on]
;W[gp];B[tt];W[jc];B[tt];W[tt]TW[ja][ra][sa][rb][sb][rc][hd]
[rd][sd][re][jf][jh][ji][ki][bj][dj][kj][ak][bk][ck][dk][ok]
[al][bl][dl][el][am][bm][dm][bn][cn][in][do][qp][sp][qq][rq]
[sq][jr][pr][qr][rr][sr][js][ps][qs][rs][ss]TB[aa][ba][ca][da]
[ea][na][ab][bb][cb][db][fb][mb][nb][ac][bc][cc][fc][ad][bd]
[dd][ed][ae][be][ce][de][ee][af][bf][cf][df][ef][ff][dg][sh]
[ri][si][rj][sk][ml][sl][mm][rm][sm][mo][lp][mp][aq][ar][br]
[cr][dr][fr][as][bs][cs][ds][es])
(;W[ml];B[ll];W[nm]C[tapir: This looks dead to me.]))
(;B[oo]C[black could just play like this.]))
(;B[fm]LB[bn:A]C[A is painful. And you h5 group is in danger.]
))
(;W[gm]C[tapir: ?]))
(;W[hl]C[This is big!];B[im];W[hm]))
(;W[ji]C[tapir: That is likely better no cutting point at J10 - but painfully exposes K10 as badly placed.]
))
(;W[hi]C[that's the shape!];B[ii];W[ij];B[jh];W[kh];B[ki];W[ji]
;B[ih];W[lh];B[kj];W[kk];B[lj];W[mh];B[ng];W[mj];B[lk];W[oi]
C[And white is safe. There are many variations, but I couldn't find any damaging move as B.]

(;B[pg];W[kl]C[game is over now :)];B[pj];W[ok];B[oj];W[nk]
;B[nj];W[mk];B[ll];W[km];B[mi];W[li];B[ni];W[lm];B[ml];W[nm]
)
(;B[oh];W[pi]
(;B[ni];W[mi];B[nj];W[mk];B[ll];W[nk])
(;B[qg];W[kl];B[ni];W[mi];B[nj];W[mk];B[ll];W[km];B[nk];W[ml]
;B[lm];W[mm];B[ln];W[nm]))))
(;W[nd]C[connect directly];B[pf];W[nf];B[lg];W[ng];B[nh];W[mh]
;B[lh];W[oh];B[mi];W[pg];B[of];W[ni]C[like this it's a big ko fight]
))
(;B[mf]C[If black resists...]
(;W[nd]LB[pf:A]C[This aims A];B[pf];W[nf]
(;B[ng];W[ib];B[eb];W[je]C[You connect anyway])
(;B[mg];W[ng];B[nh];W[mh];B[lh];W[mi]
(;B[lg];W[oh];B[ni];W[ib];B[fa];W[pg];B[of];W[oi];B[nj];W[oj]
;B[jh];W[je];B[kf];W[ka];B[ia];W[mb];B[mc];W[la]C[B's dead]
)
(;B[ni]C[This is the worst variation for white in all this mess.]
;W[ki];B[li];W[mj];B[lj];W[lg];B[mk];W[je];B[ii];W[ji];B[hj]
C[white connects but loses many points.])))
(;W[nf];B[mg];W[ng]
(;B[nd];W[nh]SQ[pd][mf][og]C[Like this black is in big trouble too. Many isolated groups.]
)
(;B[nh];W[nd]LB[pf:A][mh:B][oh:C]C[same problem as before, many cutting points.]
;B[oh];W[mh];B[lh];W[mi];B[lg]
(;W[kf];B[je])
(;W[nj]LB[pf:B][ki:A]C[A and B are miai next.])
(;W[pf]C[you can cut directly as well. Remember that j18 exchange should be done at the very first. If you don't, k17 is going to be annoying.]
;B[jc];W[ib];B[jd])))))
(;W[ge]C[you don't need to give up that much anyway];B[gc];W[gd]
;B[fd];W[fe];B[ed]C[but still dead shape :)])
(;W[fe]C[how about this?];B[fb];W[ec];B[eb];W[fg];B[ff];W[ef]
;B[eg];W[gg];B[hf];W[ee];B[ii];W[hi]C[you have a bit of bad shape because of k10, so i'm not sure if you can play like this]
;B[hh];W[gi]
(;B[ij];W[jk];B[gc];W[he];B[ge];W[gd];B[fd];W[ed];B[ik];W[il]
;B[gk];W[ld]C[Since you got this tesuji, which we'll explore later, you're probably okay in this fight.]
)
(;B[ji];W[ki];B[kj];W[ij])))
(;W[ge]C[counter attack!];B[fe]C[If you exchange this first...]
;W[hc]
(;B[gb];W[fb];B[gc];W[fd]C[Now black is captured])
(;B[fb]C[black should play here];W[gb];B[ga];W[gc];B[eb];W[hf]
;B[gg];W[ia];B[ha];W[ka]C[and then w's alive])))
(;W[ji]C[Yes, this is sharper. Now you can aim at g13.]))
(;W[hg];B[ih];W[kg]C[Like this is better, now you can fight properly.]
))
(;W[he];B[jf];W[ig];B[if];W[hf];B[hg];W[gg];B[hh];W[ji];B[gh]
;W[fh];B[gf];W[fg];B[ge];W[je];B[kf];W[gd]C[W is ok.]))
(;B[hd]C[Black should probably ask this now. It may help him to deal with c14 invasion, and then could play around e11 or f12.]
))
(;W[ei];B[rp];W[rq];B[qo];W[po]C[The corner is safe.];B[rr]
;W[sq]))
(;W[dh]C[This looks nice for W :)]))
(;W[ri]C[If you play like this, it's because you want to play here.]
;B[qo];W[qn];B[rn];W[qp];B[rp];W[po];B[ro];W[rq];B[sm]C[This doesn't look so good for white, so that's white you should just block the corner first :)]
))
(;W[qn]C[If you're going to protect the corner it's better to do it right away. You can play s10 later. You don't need to rush for the exchanges :)]
))
(;W[lq];B[lp];W[kq];B[kp];W[ir]))
(;B[kq];W[ko]C[tapir: My plan.]))
(;W[lq]
(;B[no];W[qn]C[if black plays like this, it should be good for you. Black is baseless, and you're getting points by attacking.]
)
(;B[qq];W[pq];B[qp];W[po];B[pr];W[or];B[qr];W[oq];B[qn]C[Black should play like this.]
;W[om];B[qm]LB[dh:B][go:A]C[So you still have good projects with A or B]
)))
(;B[qd];W[pc];B[od];W[rd];B[re];W[rc];B[qe];W[nc]LB[ec:A]C[tapir: I expected this and was suddenly unsure whether this is any good for me leaving Black the largest  point of this stage at A.

Black may get A, but then you can extend your lower corner at Q4. It's Ok so far]
))
(;W[nc];B[pf];W[pg];B[qg];W[qc];B[qe];W[pc]C[tapir: I considered this.

It's another option. A completely different game. I wouldn't say actual game is worse, just different :)]
))
