(;FF[4]GM[1]SZ[19]ST[2]CA[UTF-8]AP[SGFC:1.16]

PB[pmurk]
BR[10k]
PW[Abrakadabr]
WR[9k]
KM[0.5]
DT[2013-11-09]
PC[The KGS Go Server at http://www.gokgs.com/]
RE[B+0.5]
TM[60]
OT[25/600 Canadian]
RU[Japanese]

C[Hallo, my name is Ulrich. This is a KGS game a won by 1/2 point. Some luck was involved. I played B.

Could you please review for both sides and give hints for local or global better play.

Reviewer:

Hi Ulrich, my name is Rainer and I did the review for this game. I hope you find my comments helpful for your future games.

Up to move 97 White was ahead. From there White made three big mistakes which Black could exploit.

Best regards,

Rainer];B[pd];W[dp];B[pq];W[qj]C[Reviewer:
I would stick to the basics. Corner, side, center...]
(;B[qn]CR[dd]C[Reviewer:
I think it would be better to play in the vacant corner.];W[dd]
;B[qg]C[Reviewer:
Good move.];W[dj];B[jd];W[qc];B[pc];W[qd];B[qe];W[pb];B[ob]
;W[re]
(;B[qf]CR[rf]C[Reviewer:
That is giving White too much. A play at the circled point would be correct.]
;W[rf]
(;B[qb]CR[rg]C[Reviewer:
This is too small and gote for Black. Better to cut of the lone white stone and put pressure on it.]
;W[rb];B[qa];W[ra];B[pa]
(;W[rg]CR[jp]C[Reviewer:
A play at the bottom would be bigger for White.];B[qh]C[Happy to push on the 3. line even bigger moves are around

Reviewer:
That's ok, this way you keep some pressure on White.];W[ri]

(;B[mf]LB[mh:C][jj:B][jp:A]C[are the alternatives stronger?

Reviewer:
Point A would be my favorite as it compliments the kakari in the lower right corner and initiates an attack on the lower left.
Point B would not gain much at the moment.
Ponit C would be possible, but isn't as thick as the actual play.]
;W[jp]C[Reviewer:
Good move.];B[jj]CR[fc][lp][cq]C[Reviewer:
Doesn't gain much. There are other possibilities.];W[cn]CR[gc]
[mp][mq][nq]C[Reviewer:
Save, but not very big.];B[fp]C[I was aiming to reduce the lower left]
;W[hq];B[eq];W[dq];B[gn]C[Reviewer:
The small knights move is dangerous in this situation as it can be cut.]

(;W[mp]CR[mq]C[Reviewer:
I would prefer this on the third line.];B[nq];W[np]C[This move surprised me as I can reduce W's base]
;B[mq];W[kq];B[lq];W[lp];B[ko];W[jo];B[kn];W[kp];B[kl]C[In my opinion not the best for W

Reviewer:
No, it was not. But, as often, the problems are a result of earlier moves.]
;W[rm]C[Reviewer:
That's too small and probably gote.];B[rn];W[qm];B[im]C[I felt I need to connect

Reviewer:
The connection is still loose, a cut is possible. But you are right, to do something for the distant stones is ok.]
;W[ic]C[Reviewer:
Good move.];B[jc]
(;W[fc]LB[id:A]C[good move from W

Reviewer:
I would prefer point A, because in case of an invasion in the corner I would have a little wall to work with.]

(;B[cf]C[If W seals of here the territory is too big
Instead of this move, can I live in the upper right, making W overconcentrated?

Reviewer:
It is possible to live in the corner (see variation, just one possibility shown). But you would help White building a wall facing the left side.]
;W[ce];B[df];W[ch];B[ff];W[id];B[dl]TR[cf][df][ff]C[Reviewer:
The marked stones are under attack. Black ought to take care of that first.]

(;W[cl]C[Reviewer:
I think it would be better to attack the three black stones.]
;B[dk];W[ck];B[ej];W[di];B[ei]LB[ek:A]C[Reviewer:
Black has build two big moyos by now and is leading in influence and possible territory. White has to attack. Black sooner or later will have to cover the possible cutting point at A.]
;W[pn];B[qp];W[if]C[Reviewer:
Good move.];B[hg];W[ig];B[ih];W[hf];B[gg];W[kg];B[ke];W[jh]
;B[ii]C[Reviewer:
White did a good job reducing Blacks influence.];W[mj]C[I felt I could seal my territory in the upper right when attacking the stone

Reviewer:
Good move from White. It reduces Black while building moyo.]
;B[li]
(;W[mi]LB[oj:A][ml:B]C[Surprise - I did exspect the variation (point A)

Reviewer:
Point B would be even more advantageous for White, I think.]

(;B[lh]C[no real need to run here, better jump into W area with the variation.

Reviewer:
You are right.];W[lm];B[km];W[mn];B[ll];W[ml];B[oj];W[ok];B[pj]
;W[pk];B[qi];W[oh]C[Reviewer:
Very good move.];B[rj];W[qk];B[oi]
(;W[rh]CR[nh]C[Reviewer:
This is a big mistake. White has the possibility to severely reduce Blacks territory by just rescuing the invasion stone.]
;B[mh];W[jb];B[kb];W[ib];B[kc];W[lr];B[mr];W[kr];B[op];W[oo]
;B[po];W[om]C[KGS sgf editor estimates I am 7 points behind. I felt like this but did not know how to attack the left corners.
Any way to attack them?
If not: What is best?

Reviewer:
As the game is getting near the end game phase reduction can be achieved by pushing into the opponents territory. See the variation for a possible "attack". It is similar to the approach in your actual game. It gets you about even in points.]

(;B[bf];W[be];B[ai];W[bj];B[bi]CR[eh]C[Reviewer:
Not necessary and actually not a good idea as it is gote. Better cover the cutting points.]

(;W[ci];B[bg];W[eh]C[Reviewer:
Very good move.];B[dg];W[dh];B[fh];W[eg];B[ef];W[fg];B[gf];W[fi]
;B[gh];W[ek];B[fj];W[el];B[dm];W[em]
(;B[gl];W[er];B[fr];W[dr];B[bd]
(;W[bc];B[dn]C[By this time I realised that running with this group could do some damage. My original plan is shown

Reviewer:
Normally the one getting damaged would be Black (see variation after 132).]
;W[en];B[do]
(;W[co]TR[ek][el][em][en]C[W allows to connect - I can attack the marked group!

Reviewer:
The losing move for White.];B[eo];W[fo];B[fn];W[go];B[gp];W[ho]
;B[ep]C[counting liberties I can kill the F8 group but there is some weakness in my stones around.]
;W[fk];B[gj];W[gk];B[hk];W[hj];B[gi];W[hl];B[ik];W[gm];B[hm]
;W[fl];B[hn];W[cm];B[il]C[Reviewer:
Unnecessary.];W[gr];B[gl];W[hp]C[this is no real ko threat, I was lucky]
;B[fm];W[fs]
(;B[ac]C[Better to play safe

Reviewer:
The connection would be safe, not this move.]
(;W[ab];B[ae]
(;W[ad]C[Reviewer:
It's not a good idea to give Black the Ko.];B[rc];W[rd];B[ac]
;W[cd]C[Reviewer:
That would have been the right move from the start.];B[bb];W[ad]
;B[gd]TR[hf][if][ig][kg][jh]C[I played this to threaten the marked group and invade due to W's need to defend.

Reviewer:
Whites stones are not threatend by this move.]
(;W[gc]C[W defense was better than my plan]
(;B[fd];W[lf];B[le];W[mg]C[I did not get the meaning of this move]
;B[lg];W[nh]
(;B[ng]C[Reviewer:
It's not necessary to let White escape.];W[ni];B[og];W[ph];B[pi]
;W[pg];B[pe]
(;W[sn];B[ro];W[so];B[sp];W[sm]
(;B[rq]C[Reviewer:
Not necessary.];W[ms];B[ns];W[ls];B[or];W[lj];B[hd]
(;W[hc]C[with this move I can attack

Reviewer:
Another miscalculation by White.];B[ie];W[ka];B[la];W[ja]
(;B[mb]C[Reviewer:
Not necessary at the moment.];W[ki];B[kj];W[bh];B[ah];W[ed]
;B[ee];W[jn];B[jm];W[lk];B[kk];W[aj];B[ag];W[pf];B[of];W[nk]
;B[nj];W[mk];B[ln];W[mm];B[cb];W[cc];B[lo];W[mo];B[in];W[fq]
;B[gq];W[fr];B[io];W[ip];B[af];W[tt];B[tt]TW[aa][ba][ca][da]
[ea][fa][ga][ha][ia][sa][bb][cb][db][eb][fb][gb][hb][sb][ac]
[dc][ec][rc][sc][bd][sd][se][sf][sg][sh][si][rj][sj][ak][bk]
[rk][sk][al][bl][nl][ol][pl][ql][rl][sl][am][bm][nm][pm][an]
[bn][nn][on][ao][bo][no][ap][bp][cp][aq][bq][cq][iq][jq][ar]
[br][cr][hr][ir][jr][as][bs][cs][ds][es][gs][hs][is][js][ks]
TB[ma][na][oa][lb][nb][pb][lc][mc][nc][oc][kd][ld][md][nd][od]
[fe][ge][he][je][me][ne][oe][hf][if][jf][kf][lf][nf][ig][jg]
[kg][mg][hh][jh][kh][fi][hi][ji][ki][hj][ij][ek][fk][gk][jk]
[el][fl][hl][jl][em][gm][en][qo][pp][rp][oq][qq][sq][nr][pr]
[qr][rr][sr][os][ps][qs][rs][ss])
(;B[tt];W[lb];B[ma];W[mb];B[na];W[nb];B[oa];W[oc];B[pb];W[od]
;B[oe]))
(;W[ie];B[hc];W[hb]))
(;B[tt];W[rq];B[rp];W[qq];B[qr]))
(;W[ro];B[sn];W[qo];B[pp];W[rp];B[rq];W[sm]))
(;B[ni];W[nf];B[kf]))
(;B[hd];W[ie];B[hc];W[hb];B[fd];W[ed];B[ee]))
(;W[hd];B[gc];W[ge];B[fe];W[he];B[fd];W[gb];B[ec];W[fb];B[ed]
C[something like this was the plan]))
(;W[cd]))
(;W[ae]
(;B[bb];W[cc];B[cb];W[db])
(;B[cc];W[bb];B[cd];W[de];B[cb];W[ad])))
(;B[ae]))
(;W[eo];B[cm];W[bm];B[co];W[bn];B[ak];W[bk];B[al];W[bl];B[aj]
C[It turns out this does not work.]))
(;W[ae];B[cd];W[de];B[dc];W[ec]))
(;B[dn];W[en];B[do];W[eo]
(;B[co];W[cm];B[bo];W[bn];B[ep];W[bp])
(;B[cm];W[bm];B[co];W[bn])))
(;W[bh]
(;B[ci];W[ah])
(;B[ah];W[eh];B[fh]))
(;W[tt];B[ci];W[bh];B[ah];W[cj];B[dh];W[ag]))
(;B[be];W[bd];B[de];W[cd];B[bf];W[bh]))
(;W[nh];B[rh];W[rk];B[si];W[of];B[oe];W[nf];B[ne]))
(;B[nm]))
(;W[oj];B[nl])
(;W[ml]))
(;W[gi]))
(;B[cc];W[cd];B[dc];W[ec];B[bd];W[be];B[bc];W[cf];B[eb];W[fb]
;B[db]))
(;W[id]))
(;W[go];B[fo];W[fn];B[en];W[fm];B[ho];W[gp];B[hp];W[gq];B[iq]
;W[fq]
(;B[eo]
(;W[ep];B[er];W[fr])
(;W[er];B[ep];W[dr]))
(;B[ep];W[er];B[eo]))
(;W[mq]))
(;B[jp])
(;B[jj])
(;B[mh]))
(;W[jp]TR[iq][jq][kq]))
(;B[rg]))
(;B[rf]))
(;B[dd]
(;W[qm]
(;B[qo])
(;B[mp]))
(;W[qg];B[mc])))
