(;FF[4]GM[1]SZ[19]ST[2]CA[UTF-8]AP[SGFC:1.16]

PB[hc12]
BR[4k]
HA[2]
PW[okumu555]
WR[2k]
KM[0.5]
DT[2013-11-26]
PC[The KGS Go Server at http://www.gokgs.com/]
RE[W+7.5]
TM[600]
OT[5x20 byo-yomi]
RU[Japanese]

AB[pd][dp]C[DC: Hi, My name is Dylan Carter I am a UK 1d.

 I have reviewed this game and despite your strength not being far away from mine I think I can help. 

The key element I found was not so much to do with fuseki or fighting but principly from missing opportunities that can arrise during the game to seize the initiative in a simple and intuative way.

Go strategy boils down through the complexity of the seuquences to what is fundamentaly basic concepts i.e. splitting, leaning attacks, sacrifices and fast development. Our best games use these concepts and challenges our opponents with these plans, the best games come when we consistantly refute our opponents plans with upgraded ideas.]
;W[pp];B[dd];W[cf];B[fd];W[fq]
(;B[hp];W[fo];B[dn];W[cl]C[How could I response this Joseki ?]

(;B[eq];W[fr];B[cm];W[dl]C[Shall I play E2 now ?
DC: Maybe you need to step up to larger strategic thinking. F6 is fine for now but there is no need to help white with C7 and E3 which leave defects.]
;B[fn];W[go]
(;B[gn];W[ho]C[DC: B has harmed the H4 stone. Ideally we should avoid this.]
;B[dh];W[ch]LB[qf:A][pj:D][qj:B][qn:C]C[If I play C11 , it is possible to attack White stone at C8and D8 ?
DC: Largest area first principle leads us to a play on the right R14, R10 or R6.]

(;B[df]C[I think this is a bad move.];W[dg];B[eg];W[cg];B[eh]
;W[di];B[ei];W[dj];B[ce];W[cc]
(;B[dc];W[be]
(;B[jd]C[DC: By principle, B plays close to thickness. This is inefficient.]
;W[cd];B[de];W[cq];B[cp];W[er];B[bq];W[dr];B[br];W[eo];B[en]
;W[ip];B[qn];W[pj];B[on];W[np]
(;B[rp]C[DC: B must not exchange this for W 3-3 since we lose the opportunity to play 3-3 later.]
;W[qq];B[rq]
(;W[rr];B[qp];W[pq]
(;B[qk]C[I play this move as I want to make this group(black) alive .
DC: Too slow, don't forget the best way to live is to attack with balance. After all if W is weak it will be hard for W to kill B.]
;W[qj]
(;B[pk];W[ok];B[ol];W[nl];B[pl];W[nj]
(;B[qg];W[nc];B[pc];W[ne]C[Shall I play K13 or M17 either ?]

(;B[og]C[I think this move helps white to enhence its good
shape .Also , reduce the points on the left territory for black .Actually , I don't know to attack white .

DC: Nothing wrong with thi move, we are seeking to divide the groups.]
;W[ng];B[nh];W[mg]
(;B[mh]C[I can't attack white .

DC: I can attack W. let's take a view on the best way!];W[of]
;B[pg];W[lg];B[lh];W[kg];B[oi];W[oj];B[if];W[ig];B[hg];W[ih]
;B[lc];W[jf];B[ie];W[db];B[eb];W[cb]
(;B[fc];W[nn]C[DC: The game is difficult as W has connected. Strategically there is not much to attack now.]
;B[nm];W[mm];B[om];W[mn];B[ml];W[ll];B[mk];W[mj];B[lk];W[lj]
;B[kk];W[kj];B[kl];W[jj];B[lm]C[Until here , I know White has more territory and point than me . So , Just feel free and please give some comments  before here . Thank you  !

DC: Your game is only lacking in a strategic plan of attack, thus you may be defeating yourself before you have created an idea, a good strategic idea comes forms with an interesting and fruitful attack plan. The strategy can be simple in concept i.e. spliting groups.  When we split groups they don't grow in strength fast and so we may be able to maintain the balance of the game.]
;W[ko];B[nk];W[rj];B[rk];W[sk];B[sl];W[sj];B[rm];W[sg];B[sh]
;W[rh];B[sf];W[si];B[rf];W[mc];B[ld];W[ob];B[pb];W[lb];B[kb]
;W[mb];B[jc];W[hh];B[bm];W[bl];B[al];W[ak];B[am];W[bj];B[ln]
;W[lo];B[gg];W[hk];B[cr];W[dq];B[ep];W[fp];B[sr];W[rs];B[oa]
;W[na];B[pa];W[oc];B[hn];W[in];B[oo];W[op];B[no];W[mo];B[pe]
;W[rg];B[pf];W[me];B[ke];W[po];B[pn];W[qo];B[ro];W[kh];B[gh]
;W[gi];B[fi];W[gj];B[im];W[jn];B[hl];W[gl];B[ik];W[ij];B[fl]
;W[fk];B[el];W[ek];B[dm];W[fm];B[em];W[gm];B[hm];W[gk];B[jm]
;W[kn];B[jk];W[km];B[ll];W[do];B[co];W[cs];B[bs];W[ds];B[da]
;W[ca];B[ea];W[qh];B[pi];W[qi];B[li];W[ki];B[lf];W[ka];B[ja]
;W[la];B[oe];W[nf];B[le];W[ph];B[oh];W[kf];B[tt];W[tt]TW[aa]
[ba][ma][ab][bb][nb][ac][bc][ad][bd][ae][af][bf][ag][bg][jg]
[ah][bh][jh][sh][ai][bi][ci][hi][ii][ji][ri][aj][cj][hj][bk]
[ck][dk][io][jo][gp][hp][jp][kp][lp][mp][gq][hq][iq][jq][kq]
[lq][mq][nq][oq][gr][hr][ir][jr][kr][lr][mr][nr][or][pr][qr]
[es][fs][gs][hs][is][js][ks][ls][ms][ns][os][ps][qs]TB[fa][ga]
[ha][ia][qa][ra][sa][fb][gb][hb][ib][jb][qb][rb][sb][ec][gc]
[hc][ic][kc][qc][rc][sc][ed][gd][hd][id][kd][qd][rd][sd][ee]
[fe][ge][he][qe][re][se][ef][ff][gf][hf][qf][fg][fh][il][jl]
[nl][ql][rl][pm][qm][sm][an][bn][cn][rn][sn][ao][bo][so][ap]
[bp][sp][aq][ar][as]C[hc12 [4k\]: ty
okumu555 [2k\]: thx])
(;B[mn]C[DC: This is vital for splitting W and reducing the lower side. Strategic Concept; Splitting.]
))
(;B[oi];W[oj];B[mh];W[lg];B[lh];W[kg];B[mn]C[DC: An attack, though territory is a little scarce. Strategic Concept; Spitting attack.]
;W[lk];B[kh];W[jg];B[lc];W[jh];B[kj];W[kk];B[ji];W[ii];B[ij]
;W[hi];B[hg];W[ih];B[jk];W[km];B[lo]))
(;B[oi]C[DC: Strategic Concept; useful forcing moves];W[oj]
;B[ng];W[of];B[ph];W[qf];B[qe];W[pf];B[rf];W[le];B[lg]))
(;B[oi]C[DC: A good time to attack.];W[oj];B[mk];W[nk];B[mn]
;W[lp];B[mh];W[li];B[lh];W[ki];B[jg];W[qf];B[pf];W[pg];B[of]
;W[qe];B[qd]))
(;B[rj]C[DC: This is better shape and style.];W[ri];B[rk];W[qh]
;B[mn]
(;W[lp];B[mj]C[DC: Possible])
(;W[mj];B[lp];W[lq];B[kq];W[mq];B[sr];W[qs];B[jp])))
(;B[qh];W[nj];B[mn];W[lj];B[lp];W[lq];B[kq];W[mq];B[sr];W[qs]
;B[jp];W[iq];B[lr];W[mr];B[jk];W[ll];B[km]C[DC: W has to live in the sphere of B influence. Strategic Concept; Profit in attacking.]
))
(;W[qf]C[DC: W should make a base, O4 is not easily harassed.]
))
(;B[qg];W[nj];B[mn]C[DC: This is strategically clear, B attacks the W stones and profits with a moyo.]
))
(;B[cd]C[DC: Big enough to play.])
(;B[pj]C[DC: Form moyos that are deep and wide for success.]
;W[nc];B[lc];W[qc];B[qd];W[pc];B[od];W[nb];B[me];W[ql];B[nq]
C[DC: A nice board with K4 aji.]))
(;B[bd];W[eb];B[dc];W[db];B[bb];W[gc];B[fc];W[fb];B[hb];W[gb]
;B[ic]C[DC: My thoughs at an attacking sequence since B is thick. Strategic Concept; Profit while attacking.]
))
(;B[ci]C[DC: This hane seems fine for B. Strategic Concept; splitting attack.]

(;W[di];B[cg];W[bh];B[eh]
(;W[cj];B[bg];W[bi];B[df])
(;W[dg];B[dj]))
(;W[bh];B[dj])
(;W[dg];B[bh];W[cg];B[di])))
(;B[gm];W[ho]
(;B[jp];W[ip];B[io];W[iq];B[qn]C[DC: Strategic Concept; Speed of development.]
)
(;B[di])))
(;B[em]C[DC: It is better to keep the groups separate in this was and not worry about losing the corner. Stragtegic Concept; Splitting]

(;W[di];B[gn])
(;W[gn];B[dk];W[ck];B[dj];W[ci];B[kp])))
(;B[cm]C[DC: I would choose this as it is a simple pincer and extension leaving either C12 orJ4 miai. Strategy Concept; Extending whilst pincering.]

(;W[jp];B[di])
(;W[ck];B[ip];W[fo];B[em]C[DC: Splitting])))
