(;FF[4]GM[1]SZ[19]ST[2]CA[UTF-8]AP[SGFC:1.16]

PB[KiraBox]
BR[10k]
HA[2]
PW[tsuru]
WR[8k]
KM[0.5]
DT[2013-11-23]
PC[The KGS Go Server at http://www.gokgs.com/]
RE[W+28.5]
TM[1500]
OT[5x30 byo-yomi]
RU[Japanese]

AB[pd][dp]C[KiraBox [10k\]: hello
tsuru [8k\]: hi
I played as black vs. my fearless opponent in white.];W[dd]
;B[pp];W[jq];B[fq]TR[lq]C[## Howdy player.  Should you have additional questions you can reach me on KGS as "BadSushi." 

## The over all theme of the game was that black placed too much value on infuence wich allowed white to get to get too much territory in return.  Black also failed to make good use of the gained influence, further putting black behind.  

Should I have extended to G3 here?

## F3 is a bit slow for me.  It is also very solid though.  I would prefer the marked move.  It builds some framework on the right side of the board, attacks white, and stops white from extending in that direction.]
;W[mq]C[## Here now, white has to much room, as you have already noted]
;B[pm];W[qi];B[pi]TR[qg][qk]C[## The white stone is weak, being inside of your influnce.  When you attach to a weak stone, like this, you will usually make it stronger.  I would prefer the marked moves.  


I thought this would be an interesting attack. He chooses one side and I take the other. Emphasis on outwards influence.]
;W[qk];B[ql];W[pj];B[ph];W[qh];B[nh];W[pr];B[oq]C[## This move is like "Hey white, I might be able to cut you later, you better fix that."]
;W[or]C[## and then white fixes it, again making white stronger then he needed to be.]
;B[qq];W[nc]TR[qh][qi][pj][qk]C[## Because white is so strong on the side, and under your stones, this move becomes a pain]
;B[nd];W[oc]C[##Variation]
(;B[od];W[pc];B[qf]LB[ne:1][oe:2][pe:3][nf:4][of:5][pf:6][ng:7]
[og:8][pg:9]C[## Please see the variation first.   Here, White is settled and alive.  Black ends in Gote. He gets just 9 points w/ some influence & White can take the entire corner at R16 

I gave up my corner for influence and decided to split the groups locally.]
;W[qd]LB[na:2][oa:3][pa:6][qa:7][ra:12][sa:13][nb:1][ob:4][pb:5]
[qb:8][rb:11][sb:14][qc:9][rc:10][sc:15]C[#That's 15 points White should not have, it's VERY big.]
;B[qe];W[rd];B[qc]C[## This destorys some aji.  You are better using this later as a ko threat, nothing is gained in the following sequence]
;W[rc]C[I really am fond of these toss-ins. I feel in control when I do them because I get what I want. I worry that I lose too many points this way though.]
;B[qb];W[rb];B[rg];W[qg];B[pg];W[rh]
(;B[rj]C[##Not a bad idea but S14 would have been better];W[rf]
;B[re];W[sg];B[se];W[rk];B[rl];W[sl];B[sm];W[sk];B[rn];W[sf]
;B[oj];W[ok];B[pk];W[pl];B[ol];W[pk];B[nl];W[nj];B[ni];W[oi]
C[##White can't push here, so you are just giving up sente w/ the next move]

(;B[oh];W[nk];B[gd]SQ[mc]C[## At the very least you need a stone at n17 to make use of this move.   As it stands it's just a floating stone.  With another stone at the marked it would be a moyo move.  

I feel now that this approach was a bit high. I remember at this point I REALLY wanted to invade the corner, but figured he would get the outside influence that I wanted.]
;W[ic]SQ[gd]C[## Strong white move.  It punishes black's mistake.  Now not only is the marked a floating stone, it's under attack.  White will also now build territory either on the right or the left.]
;B[kc]
(;W[gc];B[id]C[##Strong black move, punishes white for not playing J15  It creates a good moyo]
;W[fd];B[ge]C[## Good result for black];W[ml];B[kp];W[kq];B[mp]
;W[om];B[on];W[qm];B[nm];W[rm]C[There I go again, giving up stones.]
;B[qn];W[sn];B[so];W[md];B[mc];W[lc]
(;B[me];W[mb];B[ld];W[mc];B[ke];W[lf];B[le];W[mg]
(;B[mf];W[lh];B[kf];W[lg];B[hc];W[hb];B[fc];W[hd];B[he];W[hc]

(;B[cc]C[## Too early for this move, you will make white very strong on the outside

Feels too late to me. I feel like white's strength at this point was too strong for my invasion.]

(;W[dc]C[## Wrong side for white

But he answered kindly and I got what I wanted anyway.];B[cd]
;W[fe]
(;B[db];W[eb];B[de];W[cb];B[ed];W[da];B[ff];W[ec];B[ee];W[fb]
;B[ci]TR[cj]C[## Huge wall, strong on the other side, play marked. 5 spaces is the largest extension you can make that is hard to invade.  Being so strong on both sides, and being a 5 stone extention for both sides, C10 or D10 are very strong.  In game move is good also, C10/D10 are slightly stronger.]
;W[cm];B[ck]TR[co]C[## You normally want to run your opponent into your wall.   C5 is the correct direction of play.  C9 isn't bad, but C5 is  stronger]
;W[bp];B[cq];W[cp]
(;B[dq];W[bq];B[br];W[bc]
(;B[be]C[I worried for the cut at C15.];W[bd]
(;B[ce]C[## Small];W[mi]C[#Huge];B[mh];W[ng];B[of];W[sd];B[oe]
;W[ih];B[fj]C[## Weird move, doesn't really do anything, I would play G12 if I was to play in the area, stops white from decending]
;W[ie];B[if];W[jd];B[je];W[kd];B[id];W[jc];B[ie]C[## yes this was very good, good job

My goal was to connect my two groups. I succeeded! But was it a good choice ...]
;W[fh]C[##and now white decends];B[gh];W[gi];B[fi];W[gg];B[eh]
;W[fg];B[eg];W[gj];B[jp];W[hq];B[gr];W[hr];B[gq];W[ip];B[go]
;W[do];B[eo];W[dn];B[en];W[em];B[bm];W[bl];B[cl];W[bn];B[fk]
;W[el];B[ek];W[bk];B[bj];W[mm];B[mn];W[nq];B[np];W[ro]C[It seems both of us forgot about this for a while ... o.o/]
;B[sm];W[sp];B[rp];W[sn]C[I believe I was thinking silly thoughts.]
;B[qo];W[so];B[rr]TR[jl]C[## Small, I'd play marked, nearly destroys white moyo]
;W[pq];B[op];W[sq];B[rq];W[nf];B[ne];W[jg];B[jk]C[## yes, very strong move  

I really like this move. I was aiming at the cut at M11 and had two avenues of escape. White's last play gave me my opportunity  :D]
;W[hl];B[jm];W[km];B[kn];W[kl];B[jl];W[kk];B[in];W[jj];B[gk]
;W[hk];B[hg];W[hh];B[gf];W[gh];B[gl]C[## Both are safe, so this is not a good plan.  These kinds of moves loose points.   A few points here, few there, and suddenly you have a lost game if it is close

At this point I wanted to seperate the lower-left group from the center.]
;W[hm];B[gm];W[io];B[hn];W[jo];B[jn];W[ko];B[lo]C[## Nothing here to worry about.  M4 is big yes

I feel this might have been fine at M4 instead. I worried for the cut from my center group, which actually still seems strong even with the cut.]
;W[lp];B[dl];W[dm];B[ak];W[am];B[aq]C[AH HA! TAKE THAT HEATHEN!]
;W[ap]C[OH CRAP YOU ANSWERED MY CHALLENGE AND I MADE A MISTAKE!]

(;B[bs]C[*insert Zoidberg sounds here*];W[ik];B[lm];W[ll];B[ln]
;W[og];B[pf];W[kg];B[ig];W[ae];B[af];W[ad];B[bf];W[al];B[aj]
;W[fm];B[fn];W[gs];B[fs];W[hs];B[sr];W[kj];B[sm]C[Oops.];W[gp]
;B[fp];W[hp];B[ar]C[Saved myself  :)];W[sn];B[so];W[sm];B[bb]
C[Oops again.];W[ba];B[ac];W[ca];B[fd];W[qr];B[qs]C[Tried to fool them.]
;W[ns]C[Did not.];B[ps];W[os];B[rs]C[Yay I got my corner ...]
;W[mr]C[Not sure what he feared here. No matter how I work it out, if I invade there or near there I die]
;B[ab]C[Better at P10.];W[oj];B[tt];W[tt]TW[ea][fa][ga][ha]
[ia][ja][ka][la][ma][na][oa][pa][qa][ra][sa][db][gb][ib][jb]
[kb][lb][nb][ob][pb][qb][sb][kc][qc][sc][rg][jh][kh][sh][hi]
[ii][ji][ki][li][ri][si][hj][ij][lj][mj][qj][rj][sj][lk][mk]
[ql][rl][bm][an][cn][ao][bo][co][jp][kp][iq][lq][ir][jr][kr]
[lr][nr][is][js][ks][ls][ms]TB[bc][ad][bd][ae][fe][pe][cf][df]
[ef][hf][ag][bg][cg][dg][ah][bh][ch][dh][ai][bi][di][ei][cj]
[dj][ej][dk][om][gn][nn][pn][fo][mo][no][oo][po][ro][ep][qp]
[sp][eq][sq][cr][dr][er][fr][as][cs][ds][es][ss]C[tsuru [8k\]: ty
KiraBox [10k\]: thank you for the game])
(;B[ar];W[cr];B[cs]))
(;B[lj]TR[lf][lg][mg][lh]C[## I think you need to attack these 4 here]

(;W[ce];B[cf];W[bf];B[ae])
(;W[bf];B[ae];W[ce];B[cf])))
(;B[bd];W[ce];B[be];W[cf];B[bf]C[## nothing to worry about]
))
(;B[bq]C[## You can't be cut];W[dq];B[dr];W[eq];B[ep]))
(;B[cf]C[##Black should jump here]))
(;W[cd];B[dc];W[bc];B[bb];W[bd];B[ab];W[ci]C[##something like this would be proper.   Good result for white]
))
(;B[cj]C[##Big move]))
(;B[ji]C[### Probably here, I don't think white can get out]
))
(;B[mb]C[## here]
(;W[lb];B[ld];W[me];B[kb])
(;W[ld];B[lb];W[kd];B[pb];W[ob];B[oa])
(;W[kd];B[lb];W[ld];B[pb])
(;W[pb];B[ld]C[## Probably best in game result for white, and works out extreemly well for black]
)))
(;W[ie]SQ[gd]C[## This is the move for white, reduces the black moyo, attackes the marked stone]
))
(;B[cf];W[oh];B[og]))
(;B[rf]C[## Seperates in sente, less points for white]))
(;B[pc]C[## The corner is bigger, white is already to strong in the area to make use of the influence.  This also attacks the two white stones, white must respond.]
;W[md]LB[qa:1][ra:2][sa:3][qb:4][rb:5][sb:6][qc:7][rc:8][sc:9]
[qd:10][rd:11][sd:12][oe:13][pe:14][qe:15][re:16][se:17][of:18]
[pf:19][qf:20][rf:21][sf:22][og:23][pg:24][qg:25][rg:26][sg:27]
TR[nc][oc]C[## Like this black will make some points in the corner, is safe and connected, the marked white stones are not yet settled, and he may get a chance to come back and attack the other white group on the side later, black also has nearly the same amount of influence as the game result, and it's black's turn.    

Also note there are 27 possible points for black here, though white will probably get some reduction.  Also note white gets none.]
))
