(;FF[4]GM[1]SZ[19]ST[2]CA[utf-8]AP[SGFC:1.16]

PB[Tilwen]
BR[1k]
PW[Meepy]
KM[6.5]
DT[2014-01-10]
PC[The KGS Go Server at http://www.gokgs.com/]
RE[W+1.5]
TM[1800]
OT[5x60 byo-yomi]
RU[Japanese]

C[    Hello,
  I am Tilwen, Black in this game, and my opponent Meepy would like to have some advices too. We have played the game in the ASR, so it was a quite serious one.
 I think a big part of the game happened in the fight in the lower left corner, but then the game was close, so let us know anything that we missed later. I puy some questions in the file, thanks by advance !

Black started very good, but made a lot mistakes. White had very good position judgment and give up stones and build big moyo. Overall game was even and both side could won the game in the yose.]
;B[pd];W[dc];B[qp];W[dq];B[do]C[My opponent told me he was not sure iwhat was better between playing C5 (what I had "planned", see variation) and what he played.

[Nexik\]Both moves are normal]
(;W[oq]C[Whie is low, and I wanted to keep his two stones separated and attack. What would be interesting here ?

[Nexik\] The most intersting move in my opinion is kosumi at Q5]

(;B[eq]C[My aim is to separate, but my shape isn't nice then ...]
;W[er];B[ep];W[fr];B[cq];W[cr];B[dp];W[dr];B[hp]C[[Nexik\] Black position looks very good]
;W[bp]C[We saw later a reason why B3 is best here.];B[mq]C[Is this pincer ok ? What are the possibilities (and mistakes) for black and white in the fight that followed ?

[Nexik\] Good];W[po];B[pp];W[op];B[oo]C[I cut because I feel H4 would help.]
;W[no];B[on];W[mp];B[lp];W[lo];B[kp];W[ro];B[qr];W[ko];B[jp]
;W[pn];B[om];W[ql]C[I saw on eidog that white should start with Q3, but I guess the idea is the same ?

[Nexik\]I'm not sure, but maybe now black can get few more points]

(;B[or]C[[Nexik\] You should start with O3];W[pq];B[qq];W[pk]

(;B[mm];W[km];B[nk]C[I try to go out, in the same time white reinforces himself ...]
;W[in]
(;B[qi];W[pi];B[qh];W[oh];B[qj];W[ok];B[nj];W[nl];B[ml];W[ni]

(;B[ol]C[[Nexik\] Center is more important];W[kk];B[lj];W[lh]
C[Here I was thinking about the possibilities of cut around P10 or R7, that's why I played the way I did. Was it bad, or too early ?

No];B[qm];W[rm]
(;B[kj]
(;W[fm]C[[Nexik\]Interesting but normal J9 looks good enough]
;B[qn]C[[Nexik\] mistake. remove possibilty to cut];W[qo];B[pm]
;W[rk];B[rn];W[sn];B[mi];W[mh]
(;B[oj]C[Not needed];W[pj];B[oi];W[ph];B[nh];W[ng];B[og]C[Probably bad, I played too fast here ...

[Nexik\]Very bad move];W[pg];B[of];W[qf];B[nf]C[[Nexik\] You give up three stones for no important ko at all]
;W[ni];B[rp]
(;W[nh];B[so]C[I get a nice corner and safe groups, white has some points, is this even ?

[Nexik\] This exchange is better for black];W[cn];B[dn];W[cm]
;B[dm];W[dl];B[el]
(;W[em]C[[Nexik\] Overplay];B[bo]C[Bad aji here ... I think white let me easily live and separate, was it OK ?]
;W[co];B[cp];W[bq];B[cl];W[dk];B[bm];W[ck];B[bn];W[gk]C[Should I invade the moyo in being here ?

[Nexik\]Kakari would be nice]
(;B[qe];W[re];B[rd];W[pe];B[qd];W[pf]
(;B[rf]C[[Nexik\]Yose];W[rg];B[se];W[nd]C[Bigger moyo, but I flt saving Q11 was very big too.]
;B[qg];W[jd];B[bk];W[ci];B[cj];W[dj];B[bj];W[dh];B[ce];W[cd]

(;B[cg];W[de];B[df];W[ef];B[ee];W[dd];B[eg];W[ff];B[dg];W[bi]
;B[bf];W[bd];B[bh];W[ai];B[fg];W[gg];B[gh];W[hg];B[ei];W[di]
;B[hh];W[ig];B[be];W[ah];B[ag];W[fj];B[fi];W[eh];B[fh]
(;W[ih];B[lc]C[In my head I was behind, but game seems even no ?]
;W[jc];B[nc];W[od];B[oc];W[ld];B[md];W[me];B[mc];W[hj]
(;B[ch];W[kd];B[kb];W[jb];B[hr]C[Time for yose ?];W[rj];B[rh]
;W[nq];B[nr];W[jo];B[pr];W[np];B[ja];W[ia];B[ka];W[ib];B[ad]
;W[ac];B[ae];W[lq];B[mr];W[ip];B[iq];W[io];B[jq];W[bc];B[ap]
;W[ar];B[nn];W[mo];B[jk]C[This was bad, and clearly gote ...

[Nexik\]But very big];W[jl];B[jj];W[sm]
(;B[gr]C[[Nexik\]Mistake];W[go];B[bs];W[cs];B[br];W[as];B[br]
;W[bs];B[aj];W[ej];B[lk];W[kl];B[ik];W[il];B[kh];W[kg];B[jh]
;W[jg];B[qk];W[pl];B[hk];W[hl];B[fn];W[gn];B[mf];W[le];B[sg]
;W[li];B[mj];W[gp]
(;B[fq]C[[Nexik\]Dame];W[kc];B[lb];W[si];B[ri];W[sj];B[sh];W[gs]
;B[fs];W[es];B[hs];W[ho];B[ln];W[hq];B[gq];W[kn];B[en];W[ll]
;B[hi]
(;W[gl];B[gj];W[gi];B[ao];W[aq];B[gj];W[bl];B[al];W[gi];B[sl]
;W[rl];B[gj];W[cm];B[bl];W[gi];B[ne];W[oe];B[gj];W[fk];B[ij]
;W[fo];B[ki];W[ii];B[fs];W[hp];B[gs];W[tt];B[tt]TB[oa][pa][qa]
[ra][sa][mb][nb][ob][pb][qb][rb][sb][pc][rc][qc][sc][sd][re]
[af][cf][sf][bg][rg][gi][hj][ak][mk][nl][am][cm][nm][an][cn]
[pn][co][po][qo][ro][sp][kq][lq][rq][sq][ir][jr][lr][ma][rr]
[sr][is][js][ks][ls][ms][ns][os][ps][qs][rs][ss][la][kr][na]
TW[aa][ba][ca][da][ea][fa][ga][ha][ab][bb][cb][db][eb][fb][hb]
[cc][ec][fc][gc][hc][ic][ed][fd][gd][hd][id][ee][fe][ge][he]
[ie][je][ke][ne][gf][hf][if][jf][kf][lf][mf][nf][of][lg][mg]
[ek][sk][el][fl][sl][gm][hm][im][jm][hn][jn][br][ds][og][gb]
C[Thank you for your advices ! :)])
(;W[gj]C[[Nexik\] Just here]))
(;B[rl];W[sl];B[sj]LB[lg:A]C[white must add stone at A];W[si]
;B[ri];W[sk]))
(;B[gn]))
(;B[ae]C[[Nexik\]Better yose]))
(;W[nc]C[[Nexik\]Game over]))
(;B[ed]C[[Nexik\]Black is behind and need to destroy top side]
;W[ec];B[bd];W[bc];B[dd];W[cc];B[fd]))
(;B[nd]))
(;B[de];W[dg];B[fe];W[fc];B[cc];W[cb];B[he];W[hc];B[bk];W[ci]
;B[mc]))
(;W[dk]C[[Nexik\]Good enough]))
(;W[so];B[nh];W[jd];B[mg];W[mc]C[ponnuki in center is good but territory is also important :)]
))
(;B[pf]LB[oj:A][pj:B][oi:C]C[Now A-C is bad aji]))
(;W[ik]))
(;B[qk]C[[Nexik\]Black can latter cut here];W[pl];B[pm]C[Miai]
;W[rl];B[qo]))
(;B[lj]))
(;B[kk]C[[Nexik\]This is also possible]
(;W[ll];B[mj]C[[Nexik\]Black have nice position])
(;W[jk];B[jj];W[ik];B[qj];W[pj];B[pi]
(;W[oi];B[ph])
(;W[qi];B[qh];W[ri];B[ph];W[rj];B[kl];W[jm]C[[Nexik\] Result looks even]
))))
(;B[nq];W[np];B[mn];W[mo];B[nk]C[This way it looks better for black]
))
(;B[rp]C[[Nexik\] Black is alive in corner])
(;B[nq];W[np];B[or]C[This is proper way]))
(;B[po]C[[Nexik\] This works really nice and simple]))
(;W[co];B[cn];W[cp];B[de];W[ce];B[cf];W[cd];B[df];W[fc];B[dn]
;W[fq];B[dj]C[Omething like this if white is OK :)]))
