(;FF[4]GM[1]SZ[19]ST[2]CA[UTF-8]AP[SGFC:1.16]

PB[htp1]
BR[2k]
PW[pegasus71]
WR[2k]
KM[6.5]
DT[2014-01-20]
PC[The KGS Go Server at http://www.gokgs.com/]
RE[B+Resign]
TM[1800]
OT[5x30 byo-yomi]
RU[Japanese]

C[htp1 [2k\]: hi
pegasus71 [2k\]: Hi

JW: This is Joel. Reviews will be started with my initials like this.

JW: W is leading for the most of the time, but then both made some game-changing mistakes. Unfortunately B got the upper hand at the last battle.

JW: You may want to work more on estimating, and reduce basic mistakes especially in heating battles. Fight more and you will do better.]
;B[dp]C[pegasus71 [2k\]: gg];W[dd];B[po];W[pd];B[qf];W[nc];B[pj]
;W[jq];B[pq];W[fq];B[lq]
(;W[cn]C[JW: I'm not sure if this will work, w will surely get splitted, and K3 group might get attacked.]
;B[dn];W[dm];B[en];W[cq];B[dq];W[cp]
(;B[dk]C[JW: Obviously wrong.];W[do];B[eo];W[co];B[ep];W[hp]
;B[fl];W[cl];B[ck];W[em];B[fm];W[fn];B[go];W[gn];B[ho];W[fo]
;B[fp];W[gp];B[dr];W[hn];B[io];W[ip];B[jo];W[hl];B[fr];W[gr]
;B[eq];W[gq];B[hm];W[in];B[im];W[jn];B[jp];W[kq];B[lp];W[kn]
;B[lo];W[gm];B[lm];W[jl]C[JW: This is pretty good job for w. 50 solid points. B's moyo does not worth as much.]
;B[fc]C[JW: Totally the wrong direction.];W[cg];B[cc];W[cd]
;B[dc];W[ed];B[gc];W[gj];B[fj];W[fi];B[ej]
(;W[gi];B[dh];W[ch];B[eh];W[gf];B[df];W[cf];B[ff];W[fg];B[fe]
;W[fd];B[ge];W[gd];B[hf];W[gg];B[hd];W[eg];B[ci];W[bj];B[bi]
;W[dg];B[bl];W[bm];B[dl];W[cm];B[bk];W[ei];B[di];W[el];B[ek]
C[JW: W sitll has sente, but not really leading much now.];W[pk]
C[JW: Too deep for my taste. I'd do something like O8, then R12. Focus on reducing, not invading.]
;B[ok]
(;W[pl]C[JW: Nah. This does not work.];B[qj];W[qn];B[qo];W[nm]
;B[ml];W[ln];B[mn];W[mm];B[ll];W[mo];B[nn];W[nl];B[nk];W[qq]

(;B[rn];W[pr];B[rp];W[rq];B[oq];W[or];B[nr];W[qs];B[lr];W[np]
;B[oo];W[nq];B[ns];W[os];B[mr]C[JW: W is still leading despite all the losses at bottom right.]

(;W[rd]C[JW: Kinda slow.];B[hr];W[cr];B[es];W[cs];B[lc];W[ne]
;B[jr];W[iq];B[le];W[no];B[on];W[kr];B[ks];W[ls];B[ms]
(;W[ir]C[JW: TOO SLOW!];B[bd];W[be];B[bc];W[bh];B[aj];W[ie]
;B[he]
(;W[jc];B[kd];W[lb];B[mb];W[mc];B[kb];W[nb];B[la]C[JW: Ouch.]
;W[qh]C[JW: Good. At last.]
(;B[pg];W[ph];B[og];W[oi]
(;B[rf];W[oj];B[ri];W[rh]
(;B[rl];W[rk];B[qk];W[ql];B[rj];W[rm];B[sk];W[ol];B[mj];W[sn]
;B[ro];W[mi];B[mg];W[nh];B[oe];W[ng];B[nf];W[mf];B[of];W[me]
;B[oh];W[pi];B[mh];W[nj];B[mk];W[li];B[ni];W[nh];B[kj];W[lj]
;B[kk];W[kl];B[lk];W[ki];B[ik];W[il];B[ij];W[lg]C[JW: Cool!]
;B[de];W[ce];B[ih]
(;W[hk];B[ng];W[ji];B[ii];W[jg];B[ni];W[jj];B[jk];W[nh];B[lf]

(;W[ni]C[JW: Big misread here.];B[kg];W[lh];B[jh];W[si];B[sl]
;W[sm];B[qm];W[ic];B[jf];W[ec];B[eb];W[hc];B[hb];W[ig];B[hg]
;W[if];B[kh];W[je];B[hh];W[ee]C[pegasus71 [2k\]: ty
htp1 [2k\]: thx])
(;W[ig];B[hg];W[hh]C[JW: B dies.];B[ni];W[jh]))
(;W[gk]C[JW: There is a difference.]))
(;B[rk]C[JW: ...]))
(;B[qe]C[JW: Better.]))
(;B[ph];W[qg];B[pg];W[rf];B[pf];W[qe]C[JW: Normally b should do this.]
;B[nf]C[JW: Still even I guess.]))
(;W[lb]C[JW: Better. W is still not falling behind.]
(;B[kb];W[mb];B[kc];W[rf];B[rg];W[qe];B[pf];W[sg];B[sh];W[sf]
;B[rh])
(;B[mb];W[mc];B[kb];W[ld];B[kc];W[kd];B[jd];W[ke];B[je];W[nb]
)))
(;W[ec]C[JW: Still you have this.];B[eb];W[db];B[cb];W[fb];B[da]
;W[hc];B[gb];W[hb];B[fa];W[id];B[he];W[kd];B[ld];W[jf]))
(;W[ec]C[JW: Do this first.];B[eb];W[db];B[fb];W[cb];B[kc];W[rd]
))
(;B[rq]C[JW: W cannot live here.]))
(;W[qj]C[JW: Might be better.];B[qi];W[qk];B[pi];W[ro]C[JW: One variation. Should not be difficult for w to live.]
))
(;W[gh]C[JW: Better this way.];B[dh];W[ch];B[eh];W[ge]C[JW: B won't be happy.]
))
(;B[co];W[bo];B[do];W[bm];B[em];W[hp];B[dl];W[cm]C[JW: Better for B.]
))
(;W[fo]C[JW: You may want to strengthen yourself first.];B[cn]
;W[qh]C[JW: Then you can invade.])
(;W[dn]C[JW: Maybe this?]
(;B[fp];W[gp];B[fo];W[eq];B[do];W[dq];B[cn])
(;B[en];W[cq];B[dq];W[cp];B[do];W[co];B[dm];W[cn];B[fo];W[hp]
)))
