(;FF[4]GM[1]SZ[19]ST[2]CA[UTF-8]AP[SGFC:1.16]

GN[kadoban-salvor7-867383-20140123]
PB[salvor7 (salvor7)]
BR[1k]
PW[Joshua Simmons (kadoban)]
WR[1k]
KM[7]
DT[2014-01-01,2014-01-23]
PC[Dragon Go Server: http://www.dragongoserver.net/]
RE[W+Resign]
RU[Chinese]
SO[http://www.dragongoserver.net/game.php?gid=867383]
GC[Game ID: 867383
Game Type: GO (1:1)
Rated: Y

White Start Rating: 2k (+10%) - ELO 1910
Black Start Rating: 1k (+15%) - ELO 2015
White End Rating: 1k (-31%) - ELO 1968
Black End Rating: 1k (+10%) - ELO 2009]

C[Hello and thanks for your review.

I'm requesting this review for black. I had trouble finding moves and sequences that maintained sente for me, and whites advantage just kept growing because of it.

Hey Andrew, how's the West coast treating you? Its Greg, from Waterloo. This is a good game to review. A lot of the issues arose from bad direction and not just lack of reading. I hope this helps.]
;B[dp];W[cd];B[pd]C[So as far as I know, according to classical theory, when there is a diagonal opening, it's harder for both players to make a large moyo because their corners won't work too well together so it's usually a little better to play a more territory oriented corner move like a 3-4. However, this probably won't make a difference at our level. I just think it's interesting to think about.]
;W[pq];B[po];W[qm]TR[oq]C[The triangled move isn't really a joseki. The result here will be better for white. His territory is large, and your thickness doesn't compensate.

At this point, it's better to think about building something with the top right stone rather than the bottom left one. See variations.]

(;B[oq];W[pp];B[op];W[qo];B[oo];W[pn]TR[ip]C[I think here instead of trying to fill in the moyo on the moyo, I would push at the border. P6 looks very good to me. As white, instead of Q6, I might have played R6. Black can't force nearly as many moves.]

(;B[ip];W[cn]TR[dn]SQ[en][eo]C[Generally, the attachment at triangle is not considered good. The main case to use it is when white has an approach move on both side. You make yourself and one of the white groups strong, while the other remains weak. However, when white has only one approach move like in this case, this makes white unecessarily strong. If you really want to play for moyo, E5 or E6 would be better.]

(;B[dn];W[dm];B[en];W[cp];B[cq];W[co];B[dq];W[dj];B[ed];W[hd]
TR[df]SQ[ce]C[Generally, the small knight's move is considered a little sketchy. The result is generally either good for white, or unclear. However, here, it's maybe okay. However, I prefer a different move. See C15 variation.]

(;B[df];W[ee];B[de];W[dd];B[fe];W[ec];B[ef];W[fc]TR[dj]C[This result isn't that bad. White's better, but not much, since his stone at D10 is out of place and you have sente.]
;B[nc];W[gf]TR[fh]SQ[eh][ei]C[Indeed F12 is a little off. The keima is inherently weak and right now, you need to play strongly. I indeed like E12 better, or perhaps even E11. Eventually, if the black stone become stone enough, you can cut at G15, H15, H14]
;B[fh]C[E12 might have been better. I lose sente in a few moves to maintain connection to E14.]
;W[dh];B[eh];W[dg];B[ff];W[bf]C[The game is looking pretty good for white now.]
;B[dk]C[I was really not sure what to do here, and I think I went with a choice that expressed some jealousy of whites left hand side. I thought the weaknesses I saw there could be coordinated into wiping out a large chunk of that area.  I didn't manage to make that happen.

Thing is, I'm not sure what would be alright on the right side. R16 seemed slow. and extending along the right from the top also seems slow. Whats reasonable?

Greg: I think there are two possibilities here. Either you remove some of white's points, or you build more thickness on the outside. The big are black needs to focus on now is the bottom. I don't think you have a good way to 100% get rid of some of white's points. The problem is, black's upper right group is still weak which could become a heavy burden later.]
;W[dl]TR[cj]C[I might choose a different move here. See variation.]

(;B[cj];W[ck];B[di];W[ej];B[ei];W[ci];B[bj];W[bk]TR[ch]SQ[fj]
C[You should exchance F10 and E9 before playing D12.];B[ch]
;W[bi];B[bh];W[aj]C[Maybe I should just give up sente, and leave C13 unplayed.

Greg: I agree. Now P6 is a must.]
(;B[cg];W[lp]SQ[on]C[P6 still looks like the right move here to me.]

(;B[ko];W[iq];B[jq];W[jr];B[ir];W[hq];B[kr];W[jp];B[kq];W[hr]
;B[js];W[io];B[hp];W[go];B[gp];W[fp]C[I have a few choices through here, and I probably went with the worst. While thinking about it, the D5 weakness kept me from playing another option.

Greg: I agree. I think G3 is better. This fight is hard for black though. No really good options.]

(;B[jo];W[ho]
(;B[kp];W[gq];B[jp];W[fo];B[ep];W[er];B[dr];W[fq];B[fm];W[hl]
;B[fk]C[Should have made the exchange earlier :)];W[fj];B[gk]
;W[hk];B[gj];W[hj];B[gi];W[gl];B[fl];W[kk]C[At this point, white has pretty much won. There is no real way to attack any of white's stones. There is miai for the big points on the top and the right sides, and so the amount of territory black and white will end up with is largely settled.

My comments end here.];B[jc];W[qg];B[pj];W[og];B[ph];W[pg];B[mi]
;W[ki];B[lh];W[oi];B[oj];W[ni];B[nj];W[mj];B[pi];W[ng];B[nm]
;W[mk];B[ol];W[rd];B[qc];W[rc];B[rb];W[qd];B[pc];W[sb];B[qb]
;W[hb];B[rh];W[li];B[mh];W[kg];B[kh];W[jh];B[lg];W[lf];B[kf]
;W[jg];B[mf];W[le];B[tt]C[Result: W+Resign

I didn't see the center capture coming. With it, I am quite behind with few prospects, so I resigned here.]
)
(;B[gq];W[gr];B[fq];W[eq];B[fr];W[er];B[fs];W[do]))
(;B[gq];W[fq];B[gr];W[fo]
(;B[ep])
(;B[ho])))
(;B[on];W[om];B[nm];W[ol];B[nl];W[ok];B[jq]C[Now you can attack M4 more effectively.]
))
(;B[on];W[om];B[nm];W[ol];B[nl];W[ok];B[nk];W[oj];B[qe]C[Game is still playable for both.]
))
(;B[ek];W[ck];B[cl];W[cj];B[em];W[cm];B[ej]C[Now your stones on the left are somewhat connected and you have some serious power there. You'll get something for sure on the bottom. It's hard for white to invade there.]
))
(;B[ce]C[This attachment will keep white low on the left, and you might get to do something against the H16 stone.]
;W[be];B[de];W[bf];B[cc];W[bc];B[dd];W[bd];B[cb];W[ch];B[gc]
;W[hc];B[hb];W[ib];B[gb];W[jc]TR[nc][em][on]C[Black has some decent looking choices.]
))
(;B[eo];W[cq];B[cp];W[dq];B[fq];W[fr];B[gr];W[er];B[gq];W[bp]
;B[bo];W[bq];B[on]C[Some nice Takemiya cosmic style.])
(;B[en];W[cq];B[dq];W[cp];B[do]
(;W[co];B[el])
(;W[cr];B[co];W[bo];B[cm];W[bm];B[dn];W[bn];B[cl])))
(;B[on]
(;W[om];B[nm];W[ol];B[nl];W[ok];B[ip]TR[pd]SQ[ok][ol][om][qm]
[pn]C[Since it's black's stone in the upper right, white's thickness isn't worth that much. In terms of direction, black is better.]
)
(;W[iq]C[If white jumps in];B[gq];W[lq];B[pl]TR[iq][lq]C[White's stone will start to feel awfully lonely.]
)))
(;B[on]C[This would be a better move here. Your main goal should be to keep white separated and to build thickness.]

(;W[mq];B[qq];W[qr];B[qp];W[qj];B[rr];W[jq];B[ec]C[Another game. Later, you might get a chance to attack one of the white groups in the bottom right.]
)
(;W[np]
(;B[qq];W[qr];B[qp];W[or];B[pl];W[qk];B[ql];W[rl];B[pm]
(;W[qh];B[rm]C[This is considered good for black.])
(;W[rm];B[qi]C[You can attack white very strongly this way.]
))
(;B[ro];W[jq];B[qk])))
(;B[qq]C[This is also good.]
(;W[qp]C[This choice will generally be pretty nice.];B[pp];W[qo]
;B[qn]
(;W[rn];B[pn];W[rp];B[oq];W[pr];B[or];W[qr];B[pm];W[ql];B[jp]
C[Looks decent for black.])
(;W[pn];B[rn];W[rq];B[qr];W[ro];B[oq];W[rm];B[on];W[pm];B[jp]
C[Looks decent for black.]))
(;W[qr];B[qp];W[mq];B[om]C[This is a nice move that people started playing a few years back white can have a very interesting result for black.]

(;W[qj]C[This is not good for white.];B[or];W[pr];B[oq];W[op]
;B[pp];W[os];B[np];W[nr];B[oo];W[jq]TR[om]SQ[on]C[Because the placement of the triangled stone is not at square (like the old joseki), this is considered good for black. Black's group is very strong, and you may get some points in the corner later. See continuation.]
;B[rr];W[rs];B[sq]C[White usually tenuki's here, but then Q1, R1, T1 ko is a burden later.]
)
(;W[pm]C[This is white's proper response, and after this, it gets complicated.]
;B[ol]C[Looks like and overplay, but isn't. See P6 variation.]

(;W[pk];B[or];W[pr];B[oq];W[pp];B[op];W[qo];B[ro];W[oo];B[pn]
;W[qn];B[on];W[rr];B[no]C[I think the result ends up something like this.]
)
(;W[on];B[pn];W[oo];B[op];W[np];B[oq]C[This can't turn out well for white.]
)))))
