(;FF[4]GM[1]SZ[19]ST[2]CA[UTF-8]AP[SGFC:1.16]

PB[binbash]
BR[2k]
PW[aina]
WR[2k]
KM[6.5]
DT[2014-01-26]
PC[The KGS Go Server at http://www.gokgs.com/]
RE[W+19.5]
TM[60]
RU[Japanese]

C[Hi,



please review for the black side.



thanks];B[qd]C[aina [2k\]: hi

binbash [2k\]: hi];W[dd];B[pq];W[cp];B[ep];W[gq]C[what joseki to play here? f5?]
;B[cq];W[dq];B[dp];W[eq];B[fq];W[fp];B[fr];W[cr];B[bq];W[er]
LB[gr:A][co:B][fo:C][gp:D]C[can black turn at g2?

Janr: the two joseki options are A (G2) and B (c5).
The game move, the atari at C, is considered wrong because then white doesn't need to defend anymore at A, and black will end in got playing B.
If Black plays B, then White A, Black C and White D, after which black has sente.
This development is normal, the variant starting at black B is possible if black wants to fight.]
;B[fo];W[gp];B[es];W[dr];B[co];W[qo];B[br];W[gr];B[mq]
(;W[ql]C[
Janr: white can also attach first at the 3-3 point (see variation.
In the game, black gets quite big corner territory.];B[qp];W[ro]
LB[po:A]C[
Janr: the second line is rather unusual.  Normally white plays A]
;B[po];W[pn];B[cf]LB[on:A][pm:B]C[i like black so far

Janr: in fact, black played an endgame move at B2 which was not necessary.
Had black followed the joseki, he would have taken sente without playing b2
Replacing b2 with a big move elsewhere would have been a gain.

On the other hand, white played suboptimally in the lower right (but didn't waste a move)

For this move, I think exchanging first A for B is still useful in the lower right.]
;W[fc];B[dj];W[oc];B[qg];W[qb];B[od]C[not sure why i played p16, i wanted to keep white low at the top


janr: there is no need to strengthen white.
The next black move (attacking white on the right) is much more useful.]
;W[pc];B[qj];W[oo];B[pp];W[qh]C[how to handle this move?];B[rh]
;W[rg]
(;B[rf]LB[ph:A]C[janr:
I would prefer black A.
First, it keeps the white group below under attack.
Second, the other white stone is weaker (see variation)];W[ri]
;B[sg];W[qi];B[rj];W[sj];B[oj]LB[rj:A][sk:B][si:C][qk:D]C[I black plays A it would be consistent to keep white cut with Black B, white C Black D]
;W[rk];B[ph];W[pi];B[oi];W[oh];B[pg];W[pj];B[pk];W[qk]C[is this ok for black, not sure

janr: Black just lost two stones, and white's group is now strong and alive.]

(;B[nd]C[janr: how about capturing the cutting stone as in variation?]
;W[pd];B[pe];W[mc];B[on];W[ch]C[janr: I expect white should answer at q7?]
;B[dh]C[e14 instead or d13];W[ci];B[cj];W[dg]LB[di:A]C[janr: I think it is better to play white A first.]
;B[cg];W[di];B[eh];W[ei];B[de];W[cd];B[fh]LB[eg:A]C[janr: it is more solid to capture the white cutting stone (e.g. at A)]
;W[fi];B[gh];W[fk];B[dl];W[fm];B[ed]C[the game got tricky here]
;W[ec];B[fn]LB[en:A][eo:B]C[wanted to keep white seperated


janr: playing at A is better (prevents the cut at white B)]
;W[em];B[dn]LB[fn:A][en:B][eo:C]C[mybe d5 instead

A at B would have prevented white's cut at C];W[cl];B[cm];W[ck]
;B[dk];W[bj];B[bm];W[bk];B[dm];W[eo];B[do];W[en];B[fj]C[wanted to make white shape weak, seems reasonable move]
;W[gj];B[fl];W[gl];B[gm];W[el];B[ej];W[gi];B[ek];W[fl];B[hl]
;W[gk];B[hn]C[janr: the attempt to cut is a bit heavy, as it is relatively easy for white to live and the black stones are weak.]
;W[ho];B[gn];W[hh];B[gf];W[in];B[im];W[go];B[hm];W[jm];B[jn]
;W[io];B[jl];W[km];B[kl];W[hk];B[il];W[lm];B[ll];W[mm];B[ml]
;W[nl]C[mybe this long sequence of moves was not so good, white can still live on the left side with b13.



i think this is what lost me the game, trying to save this black group.

janr: white could probably attack the black cutting group more severely.]
;B[nk];W[ol];B[ii];W[hi];B[if];W[ij];B[no];W[om];B[nn];W[jg]
;B[nm];W[ko];B[lo];W[lp]C[janr: a mistake];B[kn];W[mp];B[np]
;W[lq];B[mr];W[jo];B[ln];W[lr];B[bh]C[janr: white already lives, so this is endgame.
it is better to play on the op side];W[bi];B[ag]C[i guess this was too clow, gote]
;W[ki];B[hd];W[fd];B[jf];W[kg];B[kc];W[rd];B[re];W[qc];B[qe]
;W[lc];B[hb]LB[kb:A]C[janr: i prefer A];W[kb];B[be];W[bd];B[kd]
;W[jb];B[ig];W[ih];B[nc];W[nb];B[fa];W[db];B[ee];W[ce];B[bf]
;W[fe];B[ff];W[ms];B[or];W[ok];B[nh];W[mg];B[ng];W[qm]C[janr: finally, the cut on the right is defended.]
;B[rp];W[sp];B[sq];W[so];B[rr];W[mf];B[mj]C[all the moves after here seem ok for both sides, so the game was lost before here.



please help with the middle game and opening.



I'm interested in shape moves and vital points to play.



many thanks!];W[li];B[rc];W[rb];B[cs];W[fs];B[sd];W[ea];B[gb]
;W[fb];B[ad];W[ac];B[ae];W[bc];B[jj];W[ji];B[ns];W[ls];B[ic]
;W[nf];B[of];W[ni];B[og];W[mi];B[nj];W[jc];B[jd];W[gc];B[ge]
;W[kf];B[mh];W[hg];B[lh];W[kh];B[hf];W[ke];B[ga];W[ne];B[oe]
;W[je];B[ie];W[ld];B[id];W[ib];B[hc];W[gg];B[fg];W[md];B[lg]
;W[lf];B[ia];W[lb];B[sb];W[ra];B[bs];W[ds];B[kj];W[lj];B[lk]
;W[jk];B[kk];W[ik];B[mn];W[ai];B[ah];W[al];B[am];W[bl];B[sh]
;W[ja];B[ha];W[sa];B[sc];W[tt];B[tt]TB[rd][he][se][af][df][ef]
[pf][qf][sf][bg][dg][eg][rg][oh][mk][jm][km][lm][mm][an][bn]
[cn][ao][bo][oo][ap][bp][cp][op][aq][nq][oq][qq][rq][ar][nr]
[pr][qr][sr][as][os][ps][qs][rs][ss]TW[aa][ba][ca][da][ka][la]
[ma][na][oa][pa][qa][ab][bb][cb][eb][mb][ob][pb][cc][dc][le]
[me][jh][ii][aj][hj][qj][rj][ak][pk][sk][pl][rl][sl][pm][rm]
[sm][qn][rn][sn][hp][ip][jp][kp][fq][hq][iq][jq][kq][fr][hr]
[ir][jr][kr][es][gs][hs][is][js][ks]LB[eo:A][qj:B][qn:C][pm:D]
[jm:E][jq:F][hn:G]C[aina [2k\]: thx

binbash [2k\]: thx


janr: it is possible to improve the endgame, but the most serious mistakes happened in the opening/ middle game.
In particular, the cut at A was painful, the loss of two stones at B would have made a big difference, Black never came to cut at C or D (an endgame difference of more than 12 points), and even though black could capture 4 stones (8 points) at E starting the cut at G didn't pay off as white made 16 points at F by attacking this black group.]
)
(;B[nh];W[og];B[nf]))
(;B[ph];W[qf];B[pg];W[re];B[rd]C[

There is still the option of attacking the other white stone.]
;W[pd];B[pf];W[qe];B[pe];W[rc];B[se];W[rf];B[sg]))
(;W[qq];B[qr];W[pp];B[oq];W[rq]))
