(;FF[4]GM[1]SZ[19]AP[SGFC:1.13b]

PB[Joerg]
BR[9k]
HA[0]
PW[Christian]
WR[9k]
KM[5.5]
DT[1999-10-30]
RE[W+10.5]

C[++++First I want to thank you for spending your time for a review of this game. It is an important game for me because it shows how I create an advantage in the opening and loose it during the rest of the game (or maybe having an advantage was a daydream?). I sure made some silly local mistakes, but how could I have played better on a grand scale? At some moves, I am really not able to decide what to do...     Please have a look at the first 60 moves, an analysis of the opening and the early middle game is more important for me than the rest of the game. But if you have the time, I would appreciate it if you add some comments for the other moves, too.     I hope you can give me some advices. I added some notes, too.     Thanks again, Joerg.]
;B[pp]C[(That converter I used to make this .sgf-file out of a .go-file rotates the board. I don't know why.)]
;W[dd];B[pc];W[dq];B[pi]
(;W[ck]C[He plays the low version. Interesting.          Hello !     I observe a lot of professionnal and strong amateur games and I never saw this opening.      I think that 6 would be better in N16 for example or C5]
;B[jd];W[nq]
(;B[jp]C[why not, but it's difficult for the following. I prefer M3 or Q6 (maybe more simple).]
;W[qn]C[lively move];B[np]C[Is this the right direction? Which move would you play?     It seems correct. However, 5 would be better in R10. May be 9 in M3 better in this position because white has many possibilities on the both sides !?]
;W[mp];B[no]
(;W[oq]
(;B[po]C[Its not joseki.     According to the Ishida's dictionnary of basic joseki, the move must be in Q3]
;W[mo]
(;B[pq]C[I am not sure, if this is joseki.     Now, this move is not sente. White can always stabilize his stone with R9 and S4 at the right side. 16 is a good move to fight in the center and seal the 9 stone from the black group. Play immediatly in C5 (see varation 6)]
;W[pl]
(;B[fc]C[Which move do you suggest? Maybe at the bottom?     Its is not sente.18 white's move has to be answered]
;W[hp]
(;B[lq]C[Why ? Useless. Too soon. You make a weak group. White is happy to connect.]
;W[mq];B[kn]
(;W[ln];B[km];W[nn];B[pe]
(;W[fe];B[hd];W[ld];B[me]C[I had no other idea. What do you think?     I think the exchange 28 for 29 and then 30 is not good for white because he is reinforcing black then invading. His target is 9-21-23-25 group and Black is happy to play 31. He has a chance to make a big moyo in the center.]
;W[ke];B[lg];W[jf];B[ek]C[I am trying to prevent a big white moyo     C5 or C6 is better. E9 and H14 are miai]
;W[db]
(;B[kd]C[Why ? He will answer in N15 and now 31 is not at the good place. Play D11 or D5]
;W[le];B[lc];W[md];B[mc]C[connecting     Too small. 31 and 33 become whitout meaning]
;W[hf]C[The best move];B[do];W[fp];B[cq];W[dr]
(;B[cm]C[In D8];W[cp];B[co]C[Cut in D4];W[bp]
(;B[dj]C[Hot !!!! Better in D11];W[ci];B[di];W[ch];B[cj];W[dl]
C[In B10

<<<<<<< End of the comment >>>>>>>>];B[cl];W[rp]C[now he shows me, that my group is not safe at all, but I will be lucky and safe it.     Thank you for reviewing the first 60 moves. I think your comments will help me. If you have the time, please have a quick look at the rest of the game.     Bye, Joerg.]
;B[on];W[nm];B[qo];W[ro];B[qm];W[rm];B[pn];W[ql];B[rq];W[rr]
;B[sq];W[pr];B[qr];W[qs];B[qq];W[or];B[rs];W[ss];B[sr];W[pm]
;B[om];W[ol];B[op];W[ko];B[jo];W[kp];B[kq];W[jq];B[iq];W[jr]
;B[ir];W[ip];B[in];W[ri];B[rg];W[qh];B[rh];W[qi];B[ne];W[hq]
;B[hr];W[gr];B[kr];W[fb];B[gb];W[ec];B[fd];W[ee];B[gf];W[gg]
;B[gi];W[ge];B[fn];W[ii];B[hk];W[gn];B[gm];W[en];B[eo];W[qg]
;B[qf];W[rf];B[re];W[pf];B[qe];W[og];B[ml];W[nl];B[jj];W[ki]
;B[ji];W[kg];B[ih];W[mf];B[nf];W[ng];B[mg];W[lf];B[mj];W[mk]
;B[lk];W[nk];B[li];W[ni];B[nd];W[jh];B[dh];W[cg];B[ig];W[if]
;B[gh];W[hh];B[hi];W[lh];B[mh];W[mi];B[kh];W[ps];B[rs];W[lh]
;B[je];W[nh];B[bj];W[bi];B[dg];W[df];B[cf];W[ce];B[bf];W[bg]
;B[kj];W[lj];B[bo];W[ao];B[dp];W[bq];B[an];W[ap];B[bn];W[kk]
;B[ll];W[ij];B[jk];W[ik];B[li];W[js];B[ks];W[lj];B[cr];W[br]
;B[li];W[io];B[is];W[lj];B[jl];W[hg];B[il];W[jg];B[hj];W[ih]
;B[fr];W[fq];B[er];W[eq];B[gs];W[gq];B[ag];W[be];B[ai];W[af]
;B[lp];W[fo];B[fm];W[ah];B[lo];W[aj];B[ak];W[hb];B[ga];W[gc]
;B[hc];W[gd];B[ib];W[fa];B[ha];W[sh];B[sf];W[fh];B[fg];W[eg]
;B[eh];W[ff];B[fi];W[fs];B[hs];W[es];B[hn];W[mr];B[go];W[of]
;B[oe];W[ie];B[id];W[si];B[sp];W[so];B[ms];W[ns];B[ls];W[sg]
;B[rf];W[li];B[mm];W[mn];B[ho];W[lm];B[kl]TW[aa][ba][ca][da]
[ea][ab][bb][cb][eb][ac][bc][cc][dc][fc][ad][bd][cd][ed][fd]
[ae][de][bf][cf][ef][gf][kf][ag][ig][lg][mg][pg][bh][kh][mh]
[oh][ph][oi][pi][mj][nj][oj][pj][qj][rj][sj][ok][pk][qk][rk]
[sk][rl][sl][qm][sm][rn][sn][aq][cq][ar][cr][er][fr][nr][as]
[bs][cs][ds][os]TB[ia][ja][ka][la][ma][na][oa][pa][qa][ra][sa]
[hb][jb][kb][lb][mb][nb][ob][pb][qb][rb][sb][ic][jc][kc][nc]
[oc][qc][rc][sc][od][pd][qd][rd][sd][se][ei][ej][fj][gj][bk]
[ck][dk][fk][gk][kk][al][bl][dl][el][fl][gl][hl][am][bm][dm]
[em][hm][im][jm][cn][dn][en][gn][jn][ko][oo][kp][jq][jr][rr]
[js][ss])
(;B[di];W[ci];B[dh];W[dj];B[ej];W[ch];B[dg];W[cg];B[df]C[Fight in the center]
))
(;B[cr]C[White cannot cut in C4];W[dp];B[cp];W[eo];B[dn];W[bm]
;B[bo];W[ch];B[nd]))
(;B[hf];W[jh];B[hh];W[jj];B[di];W[dm];B[ik]C[White is in trouble whith his group.]
))
(;W[rp];B[om];W[on];B[pn];W[pm];B[ro];W[rn];B[rq]C[black is alive. other variation : look about B29 in Q6]
))
(;W[mn];B[kl];W[nm];B[ro];W[rn];B[qo];W[lm];B[km];W[hm];B[mk]
))
(;B[mn];W[ko];B[nm];W[ok];B[ln];W[kp];B[ni];W[mk];B[jm]))
(;B[ok]
(;W[ol];B[nl];W[nk];B[nm];W[pk];B[oj];W[qi];B[qh];W[qj];B[ph]
;W[lm];B[mk];W[do]C[Emphasize the center])
(;W[nm];B[nn];W[mn];B[om];W[ol];B[nl];W[mm];B[pm];W[ql];B[qm]
;W[rm];B[rn];W[rl];B[ro];W[nk];B[do]C[Difficult for black !]
)))
(;B[co];W[fp];B[cq];W[cr];B[dp];W[eq];B[bq]C[9 is a virus ... always at the right place]
))
(;B[pq]C[In this position 9 is at the right place because white's extension move is K3. So white plays the diagonal move in Q7]
;W[pm];B[qo];W[ro];B[pn];W[rn];B[rp];W[nm];B[mn];W[kq]C[Now, Q2 is the vital point but I would like to play K3 to get white into a trouble because the exchange of B-Q2 W-K3 is nice for white]
;B[jq];W[ko];B[pr]C[Black has no weakness. White cannot attack 9-25 black stones because he is busy whith two groups]
))
(;W[qq];B[oq];W[qp];B[mq]))
(;B[lq];W[qq];B[qp];W[pq];B[op];W[rq];B[np];W[nr]
(;B[fc]C[M5 is joseki but strong players no more play it. However, 5 would be in R10 to work well. Also 17 in S4 seems very efficient.]
)
(;B[rp];W[mp];B[mq];W[mo];B[jp];W[qg];B[qe];W[pk];B[nm];W[ql]
;B[ln];W[qi])))
(;W[md];B[pe];W[jd]C[Quiet]))
