(;FF[4]GM[1]SZ[19]CA[UTF-8]AP[SGFC:1.16]

PB[nmclean]
BR[2k]
PW[donapeanut]
WR[2k*]
KM[0.5]
DT[2014-03-22]
RE[W+R]
GC[*donapeanut*: Let's begin and enjoy a great game.
*donapeanut*: Hi


Hi, please review for the black side.
The game was close until the early endgame and i started not to read so well and played some bad moves.

please help
i'm interested in the opening theory and any joseki choices.

as well as any big reading errors i made.

many thanks,
neil

-- 

Hi Neil,

Thanks for sending this game to me for review.  To be honest I found it very hard to review as your playing style is quite different to mine.  I have prefixed my comments with --

Corrin]

;B[qd];W[dd];B[pq];W[dp];B[fc];W[po];B[cf]C[--
I would have pincered Q5 as per the normal mini-chinese.];W[ee]
;B[cc];W[qq];B[cn]C[I think C6 is mybe not good
--
I would have played R2.  Locally I think C6 is ok.];W[dk];B[fq]
C[--
This fuseki is very complicated!  3 unresolved corners makes it very hard to determine priorities and assess implications.]
;W[fp];B[gp];W[fo];B[cq]C[mybe i should play e3 or d3 instead?
--
It depends what your plan with Q3 is.  This sequence finishes with white F2 and you are left with some aji in F3 and G4, so you could perhaps use that in conjunction with the N3 joseki.

E3 would instead give you a move around K4 but that would cost you sente and enable white to wrap up the lower right.  

I think I would have chosen this move.];W[eq];B[cp];W[fr];B[qr]
;W[qp];B[mq];W[kq];B[or];W[cl];B[bm]C[--
I find moves like this hard.  If you can live without it then it's almost always worthwhile because it enlarges your corner so little.  However reading out the tsumego is tricky and I'm not sure I could get it correct.

White could start with D2, B5 or B6.

D2 pretty much forces a reply since you can't threaten to escape and white can follow-up with B2.

B6 is gote since B6, B5, B7, and that would enable you to play say b3

B5 seems the hardest: B5, C5, B6, B4, B7, B2?

So if white initially exchanges D2 for C2 then plays B5 you get dead shape:
D2, C2, B5, C5, B6, B4, B7, B2? A3, A4, C1, B1, A2

You could maybe answer D2 at B1

D2, B1, B5, C5, B6, B4, B7, A2? Seems alive... Hmmm, no... White simply plays C2 and B2 becomes a false eye.  Ok, I guess B7 is forced.

Anyway if it were me I'd try hard to find a living sequence because I wouldn't want to have to play B7.A move such as R9 is much bigger.]
;W[be];B[dc];W[bl]
(;B[co]C[--
It feels like white did a great job of sealing you in there]
;W[fd];B[bd]C[-- 
I'm not convinced by this move, it is very big yose but now C14 has no aji]
;W[ce];B[gc]C[-- 
I prefer white now];W[gd];B[pl];W[pm];B[ql]C[mybe p7 instead, but i could not see any good continuation
--
I prefer R8, P7 just ends up handing white a simple eye base.]
;W[qm];B[om];W[on]
(;B[nm]C[--
I would have stopped the attack to extend from your wall, I do not see this move as an attack on R7]
;W[lo];B[mo];W[mn]
(;B[lp]C[i should hvae played o6 i think.
--

Locally yes, but I think due to S2 you are alive so I would not hae played here at all.]
;W[no];B[mp];W[nn];B[kp];W[iq]
(;B[jp]C[i was looking for a way to attack white at the bottom, thats why i played k4
--
Locally I would have played K3, but with F2 I think white is too strong.  I would extend along the right]
;W[qi]C[--
Getting here first is really big, especially with white having N6 so P8 is a problem]
;B[qg];W[ol];B[pj];W[pi]
(;B[nl];W[ok];B[oj];W[nk];B[nj];W[mk]C[--
This is how I would have played too]
(;B[qj];W[pg]
(;B[qh];W[ri];B[qf];W[oh];B[mj]C[i couldnt see a better move
--
I think this is needed];W[mh];B[lk]
(;W[ml];B[lh];W[lg];B[kh];W[mf];B[kg];W[kf];B[jf];W[ke];B[je]
;W[pe]
(;B[pf];W[of];B[ph];W[oi];B[og];W[ng];B[oe];W[od]
(;B[ne]C[-- Interesting move, but I think simply capturing and sacrificing both is simpler]
;W[nd];B[me];W[md]
(;B[pd];W[le];B[ih];W[hc];B[en];W[fm];B[fn];W[gq];B[di]C[--
This feels too deep];W[fj];B[fi];W[gi];B[ej];W[fk];B[gh];W[fh]
;B[ei];W[fg];B[gj];W[hi];B[gg];W[hk];B[ii];W[hj];B[ff];W[eg]
;B[ef];W[dg];B[df];W[cg];B[bf];W[bg]
(;B[ae];W[ci];B[jc]C[now i counted and was sure i was winning
--
If the whole upper left dies then sure.  White has barely 70 including komi while you have 40 + the upper left (40+).]
;W[kc]
(;B[jd];W[hb]C[however this was a good move i didn't see.
the game is close again but i didnt play a good endgame, please help..

thanks,
neil
--
I'm not entirely convinced H18 is that devestating.  There's obviously the ko at E17 if you need it and you have quite a few ko threats, or you can connect at E17, allow H18 to live and cut at H16.  That makes the top more than 10 smaller which might put white slightly into the lead but it should still be winnable.]

(;B[gb];W[jb];B[kb]C[i could not see a good move here for black
--
Right, N15 is too weak to mount a real attack];W[ib];B[kd];W[lc]
;B[qe];W[nf];B[hd];W[ec];B[eb];W[dr];B[pe];W[ld];B[cr];W[cs]
;B[bs];W[ds];B[bh];W[ch];B[el]C[i'm probably losing now.
i stopped reading well, mybe there is still chance to win?
--
I think you're a few points behind.  White should win, but you want to be in a position that a small yose mistake by white gives you the win.]
;W[ek];B[gl];W[fl];B[gm]C[i forgot e11 has only 3 libs];W[gn]
;B[hn];W[go];B[jq];W[ir];B[br];W[kr];B[jr];W[js];B[rq];W[rp]
;B[rr]C[mybe p18 instead
--
Yes, P18 is bigger.  You might get Q18 in sente while P18 is gote.]
;W[pb];B[qb];W[pc];B[qc];W[sf];B[sg];W[rg];B[rf];W[sh];B[se]
;W[rh];B[ob];W[oc];B[pa];W[nb];B[lm];W[mm];B[ln];W[ll];B[lr]
C[--
I think M8 is sente due to G7.  I'd probably answer at K7];W[im]
C[--
I think this seals it];B[in];W[jn]
(;B[ko];W[io];B[ip];W[hp];B[jm];W[hm]C[i lost too many stones in centre now
--
Yes, the game is over];B[al];W[ak];B[am];W[bj];B[oa];W[na];B[qa]
;W[cm];B[bn];W[ag];B[af];W[jl]C[i guess game is long time over now.

where did i go wrong?
--
I've tried to answer this as best as I can throughout the game.  I felt you got behind initially and then caught up suddenly when white mishandled the invasion around F14, losing the entire corner in exchange for preventing you reducing the left side.

Then white stole a bit of the corner back with H18 after you made a small mistake, and at that point you would need to have pushed very hard to win.  I felt your moves after H18 were not as sharp as they were before H18, I think a strong yose from there could well have given you the game.

I have not particularly commented on the fuseki except to observe moves I personally would not have played.  It was a complicated fuseki and I suspect any advice I give would be too likely to be incorrect.]
;B[kk];W[jj];B[jk];W[ij];B[il];W[km];B[ik];W[hl];B[ki];W[kj]
;B[lj];W[mi];B[li];W[hh];B[hg];W[ha];B[rl];W[fb]C[nice ko for white]
;B[ed];W[pk];B[qk];W[ec];B[fa];W[ga];B[ed];W[he];B[id];W[ec]
;B[fb];W[db];B[ed];W[sd]
(;B[re];W[ec];B[ni];W[ea];B[nh];W[cd];B[mg];W[gf];B[lf];W[ig]
;B[lb];W[mb];B[jg];W[hf]C[---> resign
*donapeanut*: Thank you for the game.])
(;B[ec]C[--
Technically you do not have to answer this, the upper right is unconditionally alive if I'm reading it correctly due to the extra liberty at Q13.  

Although of course it is quite costly to ignore.

Anyway it's all academic now as white has already won.];W[re]
;B[sc];W[sb];B[rd];W[rc];B[se];W[np];B[nq]C[--
1 ko threat required];W[re];B[rb];W[se];B[sc];W[op];B[oq]C[--
Second ko threat];W[rc];B[sa];W[sg];B[sc]C[--
Black lives small if black answers both of white's ko threats]
))
(;B[jo];W[km];B[ko];W[io]))
(;B[ec];W[jb];B[hd];W[gb];B[fb];W[dr];B[cr]))
(;B[hb]C[i guess this would be better])
(;B[kd]C[--
I would have played here due to the aji around M16];W[lc];B[hb]
))
(;B[ag]C[--
Here seems to work, treating G14 and A15 as miai];W[ah];B[af]
;W[bi];B[jc]))
(;B[le];W[ld];B[pd];W[nf];B[qe];W[lf];B[pe];W[jd]))
(;B[nf];W[ne];B[kd]))
(;B[pd]C[mybe this better?]))
(;W[ll];B[lj]))
(;B[qf]))
(;B[si])
(;B[oh];W[pk];B[qj]C[-- Maybe this way?]))
(;B[nk]C[-
This is another possibility giving white the option of taking two stones instead of 3]
))
(;B[ph]))
(;B[nn]C[--
One thing I had missed when I first went through this game is how dangerous this move is.  I only spotted this on the second reading.]
;W[no];B[mp];W[kn];B[op];W[oo];B[rm];W[rn];B[qn];W[pn];B[ro]
;W[sn];B[sm];W[qo];B[so];W[qn];B[rk];W[ol]))
(;B[ph]))
(;B[sa]C[--
You still live if you tenuki];W[bo];B[co];W[bn];B[cm];W[am]
;B[an];W[ao];B[bp];W[al];B[ap];W[an];B[br];W[dr]))
