(;FF[4]GM[1]SZ[19]ST[2]CA[UTF-8]AP[SGFC:1.16]

PB[jalexs]
BR[10k]
PW[falstaff]
WR[9k]
KM[0.5]
DT[2014-04-03]
PC[The KGS Go Server at http://www.gokgs.com/]
RE[W+0.5]
TM[600]
OT[5x30 byo-yomi]
RU[Japanese]

C[A:

Hello! Thank you in advance for this review, GTL has been a great resource for me and has helped me to improve quite a bit. This game came down to the wire - White ended up winning by .5 (komi). I felt that I was doing very well and had a bit of a lead until the end and was suprised by the result.]
;B[pd];W[pp];B[cd];W[ep];B[ec];W[hd]C[A: Right off the bat this looked unbalanced for White. I wasn't sure what W was doing, reducing so early.]
;B[jd];W[hg]
(;B[eg]LB[cg:A][dg:B][jg:D][dj:C]C[A: I think that this was an overplay... A,B,C,D are my other considerations.

-------------------------------------------------------------------------------------------------------------------------------------------------------------------------------------------------------------------------------------

I think it's too high for such an early stage of the game.

I would have played N17 and with this I make strong both sides of the white pincer.

C13 and H17 also good options];W[ci];B[cg]C[
-------------------------------------------------------------------------------------------------------------------------------------------------------------------------------------------------------------------------------------

I think this move is too slow for Black I would have played something like C4, or maybe C8.]
;W[cp];B[ck]LB[pj:C][qj:B][qn:A]C[A: Looking at it now, the right side is bigger. Should I have played over around R10 or approached the corner first?

-------------------------------------------------------------------------------------------------------------------------------------------------------------------------------------------------------------------------------------

Well C9 starts a fight, R6 is also a good idea to reduce White's on the right.]
;W[cm];B[ej];W[bk];B[bj];W[cl]TR[hd][hg]C[
-------------------------------------------------------------------------------------------------------------------------------------------------------------------------------------------------------------------------------------

Here I would have played C10, Black gets a strong position. Remember, you need strong stones in the areas surrounding the triangle With group, so you succesfully persecute them and attack them later on.

As you can see some moves later, White gets in with D9 and D10, and then he's close to link his stones.]

(;B[bl];W[dk];B[cj];W[dj];B[bi];W[di];B[ch];W[ek];B[qn];W[ld]
;B[mc];W[lc];B[hc];W[gc];B[gd];W[ic];B[hb];W[id];B[gb];W[ge]
;B[fd];W[jc];B[he]LB[pj:A][np:C][jq:D][nq:B]C[A: I felt like I should be breaking towards the center here. Still too small though. Again, Q10 or surrounding the corner?]
;W[gf];B[if];W[je];B[jg];W[ef];B[df];W[ee]LB[qf:B][eh:A][nq:C]
C[
-------------------------------------------------------------------------------------------------------------------------------------------------------------------------------------------------------------------------------------

D15 was unnecessary, you could have just tenuki here and gained some advantage elsewhere. I would have played A, B or C]

(;B[de];W[ed];B[dd];W[fg];B[hf];W[eh];B[dg];W[fj];B[fh];W[gh]
;B[fe];W[fi];B[ff];W[gg]C[A: I took stock for a moment here, and the huge corner Black has seems to balance out White's influence in the center. But in the end it was this center that I think was just too big.

-------------------------------------------------------------------------------------------------------------------------------------------------------------------------------------------------------------------------------------

Yes, I think Black is ahead in territory. Now Black has to think in reduce White]
;B[pj]C[A: Finally taking up the side...];W[lh]LB[lg:A][ji:B]
[nq:C]TR[he][hf][if][jg]C[I would have probably just tenuki, although if I wanted to save the stonesI would have played A or B. 

Although probably best to leave the Black group for now and make bigger moves, you can come back to save it later on

I think C it's the best move here.]
(;B[mf];W[lg]
(;B[lf]LB[nq:A]C[A: Too slow?

-------------------------------------------------------------------------------------------------------------------------------------------------------------------------------------------------------------------------------------

This is not how I would have played, I would have probably just tenuki

A is much bigger];W[kf];B[md];W[kd]
(;B[np]C[It feels like there must be a better way to take advantage of the way that W has not responded to the approach.]
;W[ji]C[A: I had already given up the marked stones, but W seems to think they are worth doing away with entirely.]
;B[oq];W[pq];B[kq];W[pr];B[hq]TR[hk][lk][hn][ln]C[

-------------------------------------------------------------------------------------------------------------------------------------------------------------------------------------------------------------------------------------

I think this is good for Black. With this lower group you can reduce White's territory, if you take a good look, White's only hope is to gain from that territory.]
;W[mq]C[
-------------------------------------------------------------------------------------------------------------------------------------------------------------------------------------------------------------------------------------

I would have played N4, and build influence towards the center, that would be fatal for White]

(;B[fq];W[fp];B[eq];W[gp]
(;B[gq]LB[hp:A][dq:C][iq:B]C[-------------------------------------------------------------------------------------------------------------------------------------------------------------------------------------------------------------------------------------

too slow. A,B or C much better];W[hp];B[nn];W[or];B[ip];W[on]
;B[oo];W[po];B[pn];W[om];B[pl];W[ln]
(;B[lo];W[mo];B[lp];W[mp];B[lr];W[no]LB[mk:B][in:A]C[You must play A or B and breach in, otherwise White will make a huge terrirory]

(;B[nm];W[ol];B[ok];W[nl];B[io]C[A: I was concerned about W playing here and sealing off the center. As soon as the White played the next move I knew I should have played at Q13 myself.]
;W[ph];B[qg];W[qh];B[rg];W[rh];B[nh];W[pg];B[qe];W[oi];B[ni]
;W[oj];B[nj];W[nk];B[pk];W[pi];B[rj];W[pm];B[qm];W[qj];B[rk]
;W[qk];B[ql];W[ng]C[A: The response to this was hard for me to figure, and I chose the safe one. Kept the corner intact without complications, but sacrificed the three stones and my center influence.

-------------------------------------------------------------------------------------------------------------------------------------------------------------------------------------------------------------------------------------

I think Black made a huge mistake here. I would have played N13 automatically. Complications are only for White here.

N9 is a forceful move, and you can breach in and substancially reduce the center

I think you made a mistake here not playing N13.]
(;B[nf];W[mg];B[of];W[og];B[pf];W[mj];B[il];W[kn];B[gm];W[fm]
;B[gn];W[fn];B[gl];W[gk];B[fl];W[el]
(;B[fk];W[hk];B[hl];W[ho];B[hn];W[jp];B[jq];W[jo];B[jn];W[jm]
;B[in];W[ko];B[lq];W[mr];B[cq];W[dp]
(;B[dq]LB[bm:C][rp:B][bq:A]C[-------------------------------------------------------------------------------------------------------------------------------------------------------------------------------------------------------------------------------------

This is just too slow

A, B or C was the way to go.];W[bq];B[br];W[bm];B[ak];W[am]

(;B[rp]C[A: This seems like the biggest area left on the board. Not sure the best way into it though. I think I could have jumped farther, but I am not sure.]
;W[rq];B[ro];W[qq];B[qi];W[ri];B[qj];W[aq];B[ar];W[bo]
(;B[mk]C[A: And here is where I lost it all. This was not well planned or read and helped W seal the center. Black should have pushed in with the center group and then used this threat.

-------------------------------------------------------------------------------------------------------------------------------------------------------------------------------------------------------------------------------------

Yes, exactly. N9 is aji. You should have pushed in a little bit more to so it would have become a bigger threat and thus reducing even more.]
;W[ml];B[mi];W[lj];B[li];W[lk];B[ki];W[kh];B[kj];W[kk];B[jj]
;W[jk];B[ij];W[ik];B[ii];W[jh];B[si];W[sh];B[sj];W[sg];B[sf]
C[A: Won't be making this response again.

-------------------------------------------------------------------------------------------------------------------------------------------------------------------------------------------------------------------------------------

Yes, be careful closing the game. Many points can be lost this way]
;W[rf];B[qf];W[se];B[re];W[sf];B[rd];W[sd];B[rb];W[ih];B[sc]
;W[dh];B[kb];W[lb];B[jb];W[kg];B[mb];W[ib];B[ia];W[la]
(;B[ha];W[ma];B[ob];W[na];B[oa];W[nb];B[nc];W[le];B[me];W[qc]
;B[rc];W[kc];B[ja];W[al];B[bk];W[jl];B[im];W[ls];B[ks];W[ms]
;B[sq];W[sr];B[sp];W[rs]
(;B[qo]C[A: And the final nail in the coffin. Playing here, as opposed to at G5 in sente, wass the final point for White to win.]
;W[go];B[ka];W[tt];B[tt]TW[jd][he][ie][ke][hf][if][jf][ig][jg]
[fh][hh][mh][nh][oh][ei][gi][hi][ii][ki][li][mi][ni][ej][gj]
[hj][ij][jj][kj][nj][mk][dl][kl][ll][dm][em][km][lm][mm][nm]
[an][bn][cn][dn][en][mn][nn][ao][co][do][eo][fo][oo][ap][bp]
[np][op][nq][oq][nr][qr][rr][ns][os][ps][qs][ss]TB[aa][ba][ca]
[da][ea][fa][ga][pa][qa][ra][sa][ab][bb][cb][db][eb][fb][pb]
[qb][sb][ac][bc][cc][dc][fc][gc][oc][pc][qc][ad][bd][ed][nd]
[od][qd][ae][be][ce][ee][ne][oe][pe][af][bf][cf][ef][ag][bg]
[ah][bh][ai][aj][qk][sk][rl][sl][hm][rm][sm][rn][sn][so][iq]
[cr][dr][er][fr][gr][hr][ir][jr][kr][as][bs][cs][ds][es][fs]
[gs][hs][is][js]C[A: Thanks for taking a look at this game - It was a lot of fun and quite a close one for me. I look forward to hearing your take on it.]
)
(;B[go];W[fo];B[qo]))
(;B[ma];W[ja]
(;B[ka];W[kc];B[ha];W[ja])
(;B[ha])))
(;B[ik];W[ij];B[kk];W[jk];B[jl];W[jj];B[kl];W[km]
(;B[li];W[mi])
(;B[mk]
(;W[mi])
(;W[ml];B[mi];W[lk];B[lj];W[mk]))))
(;B[sq];W[rp];B[sp];W[ro];B[rn];W[so];B[sn])
(;B[rq];W[rp];B[sp];W[so];B[ro];W[sq];B[sn]
(;W[sp])
(;W[qp];B[sp];W[sr]
(;B[rr]
(;W[ss];B[rs])
(;W[so];B[rn];W[sp]))
(;B[so]))))
(;B[bq];W[bp];B[bm];W[bn];B[kl]))
(;B[kl];W[ho];B[mk];W[ml];B[mm];W[ll];B[lm];W[lk];B[km];W[mn]
;B[in]))
(;B[mg];W[mh]
(;B[nf];W[og])
(;B[og]
(;W[nf];B[of];W[ne];B[me]
(;W[oe];B[pf];W[nc];B[nd];W[od];B[oc];W[nb];B[mb]
(;W[le]C[-------------------------------------------------------------------------------------------------------------------------------------------------------------------------------------------------------------------------------------

You can even do more damage]
(;B[ob])
(;B[mk];W[ml];B[ll];W[mm];B[lj]))
(;W[ob];B[pc];W[pb]))
(;W[oh]))
(;W[oh];B[nf];W[of];B[ng]))))
(;B[ol];W[nm];B[in]C[-------------------------------------------------------------------------------------------------------------------------------------------------------------------------------------------------------------------------------------

you NEED to breach in, otherwise White would make a huge territory in the center.]
))
(;B[nm];W[ol];B[nl];W[ok];B[pk];W[nj]
(;B[lo];W[mo];B[no])
(;B[mp])))
(;B[hp];W[gq];B[gr];W[fr];B[er]
(;W[fs])
(;W[hr]
(;B[ir])
(;B[fs];W[ir]
(;B[jp];W[jq]
(;B[jr];W[iq];B[ip];W[kr]
(;B[lp])
(;B[lr];W[js];B[lq];W[hs]))
(;B[kp];W[ip];B[io];W[ho]
(;B[in])
(;B[hn];W[go];B[in];W[dr];B[dq];W[cr];B[cq];W[bq];B[dp];W[co]
;B[do];W[dn])))
(;B[jq];W[iq];B[ip];W[jp];B[jo];W[kp];B[jr])))))
(;B[mp]
(;W[or]
(;B[nq];W[nr];B[mr];W[lq]C[-------------------------------------------------------------------------------------------------------------------------------------------------------------------------------------------------------------------------------------

Noooooo

Here you play M4 to close and bould influence towards the center. Don't be afraid to spill some stones.]

(;B[lr])
(;B[lp];W[lr];B[kr];W[ms];B[kn]))
(;B[lq]
(;W[op];B[nq])
(;W[nr])
(;W[mr];B[nq];W[nr])))
(;W[lq];B[lp];W[kr];B[jr];W[jq];B[kp];W[ir];B[jp];W[iq];B[ip]
;W[hr];B[il]C[-------------------------------------------------------------------------------------------------------------------------------------------------------------------------------------------------------------------------------------

Do you see how White is crawling and you built a wall that faces the center. This is good for Black]
)))
(;B[nq]
(;W[kq];B[qq])
(;W[qq];B[kq])))
(;B[nd])
(;B[md]
(;W[lf];B[mg];W[me];B[ne];W[nf];B[ng])
(;W[me];B[ne];W[le];B[mg];W[mh];B[nh])))
(;B[lg];W[kg];B[kh];W[kf];B[jh];W[li];B[jj];W[lk];B[jl]))
(;B[eh];W[ei];B[gh];W[gg];B[fi];W[fj];B[gj]TR[ee][ge][ef][gf]
[gg][hg]C[
-------------------------------------------------------------------------------------------------------------------------------------------------------------------------------------------------------------------------------------

As you can see White's group is in trouble]))
(;B[cj]))
(;B[dg])
(;B[hc])
(;B[ch]))
