(;FF[4]GM[1]SZ[19]ST[2]CA[UTF-8]AP[SGFC:1.16]

PB[AaronP]
BR[6k]
HA[2]
PW[WhiteTiger]
WR[4k]
KM[0.5]
DT[2014-04-08]
PC[The KGS Go Server at http://www.gokgs.com/]
RE[W+16.5]
TM[1500]
RU[Japanese]

AB[pd][dp]C[AaronP [6k\]: hi
WhiteTiger [4k?\]: hi


Hi. Thank you very much for doing a review. :)

I chose this game because I feel my playing in this game shows an improvement over my usual play and yet I still lost by 15 points. I'm rather unsure about how to improve upon even the moves I think might be bad (though I do have some ideas).]
PL[W];W[pp];B[dd];W[qf];B[nc];W[rd];B[qh];W[qc];B[qe];W[re]
;B[pf];W[rf];B[pg];W[fq];B[cn];W[dr];B[dj]C[It might be wise to finish a joseki in this corner, as the situation later is complicated by an incomplete joseki in the lower left corner. 

That said I like D10 for the fuseki, and it is really a judgment call as to whether fuseki benefits were worth the corner complications later.]
;W[fc];B[hc];W[cf];B[fd];W[cc]
(;B[ec]C[Not a big mistake. It clamps down on the aji of F17 much more than D17 does, which may be a good thing given your ambitions for the upper center. The difference seems to be that white's group can live with greater ease, a rather fine distinction one that this game didn't revolve around. 

"I looked up this joseki and it looks like this move is a mistake. It should be at D17."]
;W[cd]
(;B[hq]LB[fq:A][dr:B]TR[fo][br]SQ[gq]C[ By cutting off a run to the right (square direction), white has two remaining directions (triangle directions) to seek life. Black appears to be moyo building, so white would like to have several groups relevant in the center. Thus, H4 follows where white hopes to keep black low, and push towards the upper side. 

So H3 feels out of sync with the grand moyo strategy I see on the upper side. There are other moves to consider other than the low pincer.]
;W[hp]C[Here is one of the potentials of incomplete joseki. Later in the game, the situation is much more defined (two upper side corners have had action in them as opposed to just one), so the incentives for which joseki to choose or whether to follow a joseki at all have changed. So the opponent is less predictable. 

I'm guessing here, but I think you saw a joseki to complete and thought it would progress like the upper right with white playing at C3. White saw that it could be cut off from the center like in the upper right, and resisted with a different play. White did not play as I suspect you predicted. But he likely would have had you completed the joseki instead of playing D10.]

(;B[cq]C[Here are those corner complications I mentioned. C3 is important to restrict the ability to make life for white, but white has an easy time of that anyways. So life there for white is not a big issue. The big issue is Black's attempt to convert the upper side influence in to points, and for that, white wants groups with access to the center.

So the incomplete corner joseki is now interacting with a larger situation, and falling back on joseki here I think misses the fact the moyo conversion is now your game. Black has lost two corners for the upper side influence, and he must be looking at how the whole board is affecting the use of that influence.  

Both H3 and C3 are inconsistent with the moyo and influence black built on the upper side. At this point though, H3 is played, so use it to restrict whites potential on the lower side. The corner is points, but it is also a gote move you can force white to make in exchange for a moyo building move or an attack elsewhere.]
;W[iq]C[Too easy on white!  The corner is small. Black is banking on a moyo. But now there is a fairly strong white group with access to the center AND good potential on the lower side. Plus Black wishes he hadn't played H3.]

(;B[hf]C["Question 1: Here I was thinking that I wanted to make a move to build on the influence I have, but I feel like this is a pretty poor move.
"

You may guess my response to your question from the comments leading to here, but this is fine move. It has the right spirit for the thickness you have on the right. There are more ambitious moves though.


"Is there a better move to do this or is this just poor timing in general?

I don't think it is poor timing. White is settled everywhere. So is black, so make some moyos, and invite white to invade. Fighting leads to points, and when it's in your moyo, you probably get the lions share of those points. 


"I was also thinking it might be good instead to approach at O3 and use the aji from the stone at H3 somehow. (see variation) Would this be good?"

I dislike O3, and I'll discuss it on the varition.];W[qk]C[I think white over extends here. A more cautious R6or7 is likely better.]
;B[ch]C[ B15 is black's follow up to this move, and it can be pretty devestating. As it is, white has an option to avoid any real lose. However, if you look at the varitions after B15, you'll see white escapes devestation pretty narrowly, and that a move on D15, D14, E14, E15, E16 or F15 is actually sente for black. This can help with the fight for the center. So C12 has a lot of merit. 

"I think this move is bad as well. My idea was to put pressure on his group but this move doesn't really do that. Maybe now's the time for my idea on the bottom instead?"]
;W[ic]
(;B[ib]C[I agree that I you shouldn't like this move. Black would like to contain and push down white (ie to the board edge). Containment can lead to death, but at least it would lead to more outward thickness.  This is a play underneath which pushes white up and out.

I actually like the hane on top. 

"I don't like this move. I chose it because there seemed to be less bad aji than the hane on top. Would it be better to simply extend up to H16?"]
;W[hd]
(;B[gc];W[jc]
(;B[je]C[It's okay. In fact, you shoudl be working to make that cut important enough to fix for white. If you contain white on the right, that connection could be their only escape. 

"This move looks like a key point but does it really pressure his group all that much? The one stone on H16 isn't worth anything so poking at that cut is worthless. Would it be better to play M17 or M16?"]
;W[ld];B[kd];W[kc]
(;B[mc]C[I agree here. N17 is again pushing up instead of down on white. 

"I played this move thinking that my opponent would have to connect and then I would play M15. Seeing how things actually played out, I think going to M15 directly is probably better."]
;W[ke];B[jd];W[jf];B[ie];W[lc];B[le];W[md]
(;B[me];W[nd];B[oc];W[oe];B[pe];W[nf];B[kf];W[ne];B[nh];W[mg]
C[You are correct. Your game is basically over now. It is going to be very hard to make up the difference after Q13 etc comes under attack and white builds up their right side. 

"By this point I feel like my attack was a total failure. Not only is my opponent out, but now I'm under attack and I have very little to show for it."]
;B[qm];W[mh];B[pj];W[pl]
(;B[pk]C[Is this move as dumb as it looks? I played it so I could have a more secure connection when I jumped to O10 but I don't think it's necessary. Really I'm just taking away potenially useful aji.]
;W[ql];B[nj];W[mi];B[mj];W[ni];B[oi];W[oh];B[og];W[ng];B[ph]
;W[lj];B[ol];W[pm]C[There it is, the right side developed very well for white from the attack on Q13 etc]
;B[ki];W[li];B[kj];W[lk];B[ml];W[kk];B[ij];W[kh];B[jh];W[kg]
;B[jg];W[lf];B[if];W[pq]
(;B[df]C[This is alright. It is far less spectacular a use for the aji in the C17 group than we've seen in some of the variations, but it makes black some points. since it is sente, F5 could follow, so black can get both. 

"I'm behind at this point but it looks like I still have a bit of potential that I can build on. Unfortunately, I'm not so sure this is the way to go about it. What about F5 or something like that isntead?"]
;W[dg];B[cg];W[de];B[ef];W[ee]
(;B[fe];W[bf]
(;B[dh]C[If you were ahead, I might do this to be sure. Since you're down, I you shuld really make sure you read out something bad for sure before protecting, otherwise keep building and hope you've not missed something your opponent can find. 

"Is this move necessary? When I was playing I read out some stuff that worried me but now that I look at it again I'm not so sure it was necessary."]
;W[dl];B[fo];W[gl];B[jk]C[White has an eye, so this is not really a threat.]
;W[hn];B[kl];W[jb];B[lb];W[hb];B[ha]C[ya, a big oops

"This move is just 100% derp. I thought I saw a way to stop my opponent from making an eye but I misread. Whoops."]
;W[gb];B[fb];W[ia];B[gm];W[gn]
(;B[fn]C[G7 is the weak but important stone here. Make it stronger]
;W[hm];B[fm];W[hk];B[ek];W[fl];B[el];W[ai];B[bj];W[aj];B[ak]
;W[ag];B[bk];W[kn]C[This move is really big. Am I doomed at this point? It looks like I might have to invade deeply to have any chance at all but in the game I just reduce it a bit.]

(;B[nn];W[mp];B[gp];W[gq];B[hr];W[ip];B[np];W[nq];B[mq];W[lq]
;B[mo];W[lp];B[lo];W[ko];B[er];W[eq];B[cr];W[fr];B[gj];W[hj]
;B[hi];W[om];B[nm];W[id];B[ed];W[ce];B[fa];W[ga];B[cb];W[bb]
;B[db];W[ba];B[bi];W[ah];B[pb];W[qb];B[po];W[qo];B[pn];W[qn]
;B[rj];W[qj];B[qi];W[rk];B[il];W[hl];B[km]C[not needed. I think you live with that group in various ways.]
;W[ri];B[rh];W[sj];B[jn];W[jo];B[in];W[im];B[jm];W[go];B[fp]
;W[pa]
(;B[ob];W[mk];B[nk];W[oo];B[on];W[op];B[io];W[ho];B[ll];W[no]
;B[ln];W[mf];B[ke];W[ka];B[ma];W[dq]
(;B[cp];W[cs];B[bs];W[ds];B[ar];W[ep];B[eo];W[fk];B[fj];W[ge]
;B[gf];W[gd];B[fc];W[ca];B[ir]C[sente for a ko fight];W[jr]
;B[gr]C[again];W[es]
(;B[ik];W[is];B[gk];W[jp];B[oa];W[qa];B[da];W[la];B[sh];W[si]
;B[sf];W[se];B[sg];W[qd]C[I think this move is a mistake. If I play T17, that group dies right?]

(;B[bg];W[kb];B[mb];W[nh]
(;B[pc];W[sc]C[It wasn't in trouble until you took away an outside liberty. Then it might be. 

"Looks like my opponent realized that this group was in trouble before I did."]
;B[rm];W[rn];B[bh];W[af];B[dc];W[tt];B[tt]TW[aa][ha][ja][ra]
[sa][ab][ib][rb][sb][ac][bc][rc][ad][bd][sd][ae][be][lg][lh]
[rj][sk][rl][sl][qm][rm][sm][sn][ro][so][kp][np][qp][rp][sp]
[hq][jq][kq][mq][oq][qq][rq][sq][er][gr][hr][ir][kr][lr][mr]
[nr][or][pr][qr][rr][sr][fs][gs][hs][js][ks][ls][ms][ns][os]
[ps][qs][rs][ss]TB[ea][na][eb][nb][ff][jf][dg][eg][fg][gg][hg]
[ig][eh][fh][gh][hh][ih][ci][di][ei][fi][gi][ii][ji][pi][cj]
[ej][jj][oj][ck][dk][ok][al][bl][cl][dl][jl][nl][am][bm][cm]
[dm][em][lm][mm][an][bn][dn][en][mn][ao][bo][co][do][ap][bp]
[aq][bq][br][as]C[The biggest thing I saw missing here was not understanding how your moves apply pressure to the opponents stones to "move" in certain directions. H3 pushed F3 up and the end position bares that out. various moves on the upper side pushed white up, and again the end position bears that out. If you play or strengthen on one side, the opponent reacts by going to the opposite side. This is especially true in a tight situation like in an area where someone has thickness. Black consistently pushed from the side that he benefited from LEAST in the two important fights of the game, the lower left and the upper center. That led to thickness becoming weakness and the third important fight along the right side where black's group had to find life. 

The wrong direction choices also made it impossible to use existing sente moves against the upper left and right corners to help win the fight in the center. You're happy if the center escapes/lives so long as you get to kill a corner as it does so. The weakness of upper left group was particularly exploitable with the nice move of C12. The more I got into analyzing the center, the more ways I saw the the upper left was very exploitable. The threats to life of two white groups were easily tied together, but black seemed bent on ensuring that the two fights stayed seperated. Black never got to play that one move against both groups ie F15 or something similar. 

Hope this helps :)])
(;B[sc];W[rb];B[sb];W[sa];B[pc];W[rc];B[ra];W[sd];B[rg];W[sa]
C[no trouble it seems even now]))
(;B[sc];W[rb];B[sb];W[sa];B[ra];W[sd];B[rg];W[rc];B[pc];W[sa]
C[nope]))
(;B[gs]C[even this one is sente for a ko]))
(;B[cs]C[keep some points and make the worrisome sontes stronger]
;W[ep];B[eo];W[cp];B[do];W[bp];B[bq];W[aq];B[bo];W[ds];B[co]
;W[bs];B[ap]))
(;B[oa];W[qa];B[pc]C[sente is the same, but you keep more points]
))
(;B[kq]))
(;B[fm];W[fn];B[en];W[em];B[hm];W[im];B[hl];W[il];B[hk]C[somewhat nicer, though I've not explored all the potentials.]
))
(;B[en]
(;W[eg];B[ff])
(;W[ff];B[eg];W[ge];B[gf];W[fg];B[eh];W[fb];B[gd])
(;W[ce];B[ed];W[ff];B[eg];W[ge];B[gf];W[fg]
(;B[gd])
(;B[eh];W[eb]))))
(;B[bf]C[slight reorder];W[ce];B[fe];W[be]))
(;B[fo]))
(;B[nj]))
(;B[kf]C[eliminate weaknesses if you want to kill or contain]
;W[nd];B[nf]C[here is another potential. contain and sacrifice some stones.]
;W[oc];B[pc];W[nb];B[pb]
(;W[qb]C[small seperated groups each need to be managed seperately.]
;B[jb];W[kb];B[mb];W[ma];B[ob];W[lb];B[ka];W[id]
(;B[fe];W[mc];B[be])
(;B[mc];W[ge];B[fe];W[gf];B[ff];W[gg];B[be]))
(;W[jb];B[rb]C[white in trouble])))
(;B[le]
(;W[md]
(;B[mc]C[again pushing up when you should push down];W[lc];B[me]
;W[nd];B[oc];W[oe];B[pe]C[This position is similar to what happened but with no cutting stone at L15 to deal with.]

(;W[nf])
(;W[of];B[ng]))
(;B[me];W[mc];B[nd];W[nb];B[ob];W[lb];B[na];W[mb];B[fe];W[jb]
;B[be]))
(;W[mc]C[another way];B[md];W[lc];B[nd];W[jb];B[hb];W[nb];B[ob]
;W[lb];B[na];W[ma];B[mb];W[ie];B[if];W[ge];B[fe];W[gf];B[eg]

(;W[gh];B[be]C[whites in trouble])
(;W[bf];B[gg];W[ff];B[ef];W[fg];B[fh];W[hg];B[gh]C[This is another tough fight I think white loses.]
))))
(;B[jf]C[Aim at the cut and contain at the same time])
(;B[fe]C[activate B15 and contain H16];W[je]C[if he ignores]
;B[be];W[ce];B[bf];W[cg];B[bg];W[dh];B[ci];W[eg];B[db];W[gh]
;B[ih];W[hi];B[ii];W[gj];B[ik];W[gl];B[kd]C[Now white is in deep. Black can set about trying to kill more than contain.]
))
(;B[id]C[cut maybe? It leads to an interesting potential.];W[gc]
;B[jc];W[gd];B[fe];W[eb];B[be];W[bf];B[ce];W[de];B[df];W[ae]
;B[bd];W[bc];B[ee];W[ad];B[de];W[db];B[gb];W[fb];B[ba]))
(;B[be]
(;W[ce];B[bf];W[cg];B[bg];W[dh];B[ci];W[eg];B[db];W[gh];B[ih]
;W[hi];B[ii];W[gj];B[id]C[Now the situation is really in your favour. This is terrible for white, but white has another option.]
)
(;W[bf];B[ce];W[de];B[df];W[ee];B[ef]C[Now black is screwed, but only by one liberty. If for some reason the fighting in the center makes black place a stone at E16 or F15, then this is equally terrible for white. ie black can get a sente move for the center fight from C12]
))
(;B[id]))
(;B[nq]C[This is playing into a pincer, and I dislike it. If anything, this is mistimed. Q6 makes more sense as an approach at this time. O3 will be leapt on as another way white can gain access to the center by playing O4 or O5, and in trying to live, O3 will only aid whites attempt to build up his own influence to counter black's. The kick at P3 is also possible, and it leaves black in a tough situation. 

In short, this is not an attack on whites group or corner, but the creation of a weak black group. 

As discussed H3 and C3 were poor moves. C3 more than H3. H3 could have been salvaged by playing J3 or J4 or something on that side of F3. C3 turned H3 from a poor move out of sync with your fuseki, into a mistake you wished you could undo. I think a move around O3 at this indicates that you recognize that C3 was a mistake which made H3 useless (more or less), and that you'd like to get whatever you can out of that otherwise wasted stone. H3 may develop exploitable aji in the future as play wheels and churns around it, but not now. Mistakes are hard to ever correct, let alone right away.]

(;W[qn]C[I don't think he does this.

"If he backs off..."];B[kq]C[Then my extension comes quite close to the H3 aji.]
)
(;W[lq]C[I don't think he does this either.

"If he pincers instead..."];B[qq]C[I'm okay with just jumping into the 3-3.]
)
(;W[np])
(;W[no])
(;W[oq]))
(;B[eg]C[possible instead of H14])
(;B[ef]C[possible instead of H14])
(;B[de]C[possible instead of H14])
(;B[pn]C[possible instead of H14]))
(;B[iq]C[one possibility])
(;B[ip]C[another]))
(;B[de]C[This is a shape destroying move that is not sente in this situation, but would have been if D17 replaced E17. Regardless, D15 is still a good move for white so it is a good move for black.]
)
(;B[eg]C[Moyo building])
(;B[fo]C[keep white low])
(;B[cq]C[finish a simpler joseki]))
(;B[dc];W[cd];B[de];W[cq];B[ce];W[be];B[bf]C[This doesn't quite work even here, as the ladder hits Q4, but I think this is the weakness that D17 creates that E17 does not]
))
