(;FF[4]GM[1]SZ[19]ST[2]CA[UTF-8]AP[SGFC:1.16]

PB[Mortiraithe]
PW[Minjask]
WR[16k]
KM[6.5]
DT[2014-04-20]
RE[B+39.5]
RU[Japanese]

C[B: hi, I'm Bart, around 7 kyu, and will try to review your game. My comments start with B.]
;B[dd];W[pd];B[dp];W[pq];B[jj]LB[nc:B][qo:A]C[B: not unusual, but usually only played as a helping stone for corner fights later on. Around A or B is usual.]
;W[dj]C[B: I'd prefer this stone one line lower. Playing on the 4th line lets you run away to the center more easily. Because of the stone at tengen (K10) this is harder.]
;B[jd];W[md]C[B: this is still a bit loose. It doens't defend your corner and doesn't attack the black stone. See variations.]

(;B[jp];W[oj]C[B: same comment as on D10 and N16. Black can easily make a living group below that stone, if necessary.]

(;B[kd]C[We are both still studying opening plays, but this stone here at L16 seemed beneficial to black during battles later in the game.

B: in opening, it is about influence and territory. For instance, a stone at 3-3 (e.g. R17) gives corner territory, but no influence. A stone at 4-4 (e.g. Q16) gives influence, but no terriory (the other player can still get the corner). A stone at 3-4 (e.g. Q3) does half the job. White needs R5 to secure the corner.

B: right now, all stones are high (on the 4th line), so all corners are still open, and the side areas can be invaded as well. White had more influence on the right side, and black on the left.]

(;W[dm]C[B: another high stone.];B[cn]C[B: good approach.];W[bm]
C[B: C7 a little better.];B[bn];W[am]
(;B[dg]C[B: Black can also push at C7.];W[ch];B[cg];W[bg];B[bf]
;W[ag];B[af];W[bi];B[ei]LB[gc:A]C[B: after making the wall (marked stones), black can also defend the corner (around A). White will not make much points going out with the white group in the left.]

(;W[cl]C[B: if you play there, then better at C7. Now it is like you respond to a black stone that is not there yet. And after the black stone is there, you still need to play another move at C8.]

(;B[ej]
(;W[di];B[dh];W[ek];B[fk];W[el];B[fl];W[fm];B[gm];W[fj]LB[fc:A]
[qf:C][qo:B]C[The group created by this cut was ultimately captured, but I am not sure if it was a poor play to begin with, or if I made some mistake along the way.

B: it's more about timing. You play 3 moves to make about 4 points. Let's go back a few moves. What happens if you play move 28 elsewhere? Can black kill your group? If not, how many points can you make by playing somewhere else? E.g. R5 secures a corner and makes about 10 points. Which is a lot more that you make with the 3 moves after move 28.

B: and by cutting, you create a weak group surrounded by black stones, which is hard to fight and live. Playing something like A is an easier invasion point. Or B, C to make your own territory.]
;B[fi];W[gj];B[gl];W[gi];B[gh];W[hi]
(;B[ih]C[Black believes he should probably have played J12 first (instead of G12) to prevent what white does next. We are looking for better insight on how Black should have stopped white's invasion.

B: this is indeed not the correct way to stop white. But what if black ignores white?]
;W[hh];B[hg];W[fh];B[eh];W[gg];B[fg];W[ig]TR[fg][fi]C[I am not sure if it would have been better to save the stone at F12 by filling the eye at G12, but J13 felt right.

B: the stone at F12 is not that important. There is no eye there. The marked stones make it a false eye.]

(;B[hf]
(;W[ff];B[gh];W[gf];B[ef];W[fh];B[fe];W[eg];B[de]
(;W[fg]C[B: this makes your group into one big ball. Better to try and get out.]
;B[ge];W[gh];B[jg];W[if];B[he];W[jf];B[ii];W[cf];B[df];W[be]
C[This play was simply poor observance on white's part. After review, I realized I'd meant to play C15 instead. I still don't know if this would have made the group to the right worth saving a few turns prior.]
;B[ce];W[kg]
(;B[hj]C[B: no need, white is captured already. Better to defend the stone at K11.]
;W[jh];B[gk]C[Black explained that though this group was dead, so it would have been better to play elsewhere, he didn't want it to become alive again later in the game, and this play felt safer than a faster play elsewhere.

B: I see no way of it becoming alive again.];W[an];B[bp];W[ap]
;B[aq];W[ao];B[bq];W[bo];B[co];W[eo];B[ep]
(;W[fp]C[This play was difficult for me to decide. I'd hoped to keep the two black groups separated, while continuing my attack, but it got harder a turn later.

B: I think the black group in the corner is already alive, so no need to keep them separated. Better to concentrate on the right side.]
;B[fo]
(;W[go]C[We discussed this after the game. I had considered playing F6 instead of G5, to force black out. But I decided it would be better to have influence near the bottom.

B: correct, but doesn't work because of the atari at F6 next move.]
;B[fn];W[en];B[em]
(;W[hp]C[I wish I had had the foresight to see this error before I made it. This play ended up deciding the entire game. We both agreed that G4 here would have been a far better play, and would have allowed white strong influence near the bottom of the board, with a lot of flexibility. We firmly believe this is what lost white the game.

B: G4 would have been stronger, but still it would be a very weak group.]
;B[fm];W[dn];B[fq];W[gp];B[gq]
(;W[jq]C[Here I was unsure how to bypass black's stone at K3.  Should I have played K5 instead?

B: that would still leave you with too little room to make 2 eyes. I think.]
;B[hq];W[ip];B[iq]
(;W[kp];B[jo]
(;W[io]C[Here I did a very stupid thing. I had lost some mental stamina, and had the foolish notion that if I could gain enough liberties, I could win in a capturing race against black's group in the third row. It was a lost cause from the start, but I was tired and did not think clearly. I apologize for the next five plays.

B: ok, no problem.];B[jn];W[in];B[jm];W[im];B[jl];W[il];B[ik]
;W[ir];B[jr];W[kq];B[hr];W[kr];B[is];W[ln]LB[qg:C][qj:B][qo:A]
C[B: good idea. I'd prefer somewhere around A, B or C. Otherwise black can still invade and live there.]

(;B[js]C[B: too small. Better to invade now. See variations for some ideas.]
;W[lj]C[B: it keeps black out, but black can still invade from the inside.]
;B[mc]C[B: this sort of says: "I'm okay with white having the whole right side and let's do endgame." Which is ok if you counted and are well ahead. I'm not so sure, so I'd invade and at least get a corner of part of the side part of that big white area.]
;W[nc];B[mb];W[nb];B[na];W[oa];B[ma];W[ob];B[le];W[mf];B[me]
;W[ne];B[lf];W[mg];B[ll]
(;W[ml]C[This next set is an area I am weak at: Defending gaps. By the ludicrous mistake back at  Move 104, I put myself a stone or two behind, and was left with this gap to defend. I ultimately succeeded in maintaining my territory but I am unsure if I did well or what could have been done better.

B: I'd play a little further away. A little less territory, but also less cutting points.]
;B[lm];W[mm];B[mn]C[This was a tough cut I'd hoped black wouldn't play.

B: yes, this was invited by attaching your stone to the black one earlier on.]
;W[nn]
(;B[lo]C[B: one rule that usually works: stretch the stone that is in atari. It is too easy to let white captiure the stone. See variation.]
;W[mo];B[kn];W[mn];B[lp]
(;W[lq]C[B: I'm pretty sure L5 is possible.];B[ko]C[B: don't forget to come back at N3.]

(;W[ke]C[This led nowhere, and I wish I had simply played L14, or better, N4

B: Yes, N4 also works, N3 is a little easier.];B[ld];W[nd];B[ks]
C[B: N4 is better.];W[mr]C[B: defend at N3.];B[mq];W[lr];B[mp]
;W[nq];B[np];W[op];B[no];W[oo];B[nr];W[ns]C[Black believes white should have saved the stone at O3 by playing P3. I explained that I would prefer to have a ko threat in place, than risk black invading further.]
;B[oq];W[or];B[nq];W[pr];B[ms];W[os]
(;B[ls]C[B: no need, it's a snapback.];W[ki];B[lg];W[lh];B[kf]
;W[je];B[ie];W[jg];B[ji];W[kh];B[kj];W[mh];B[lk];W[mk]
(;B[mj]LB[qj:A]TR[qg][qm]C[Black has explained that he does not expect to succeed with this play because he lacks the knowledge and experience to properly invade. There is a lot of open space behind white's wall that an experienced player might use, but black simply doesn't know how.

B: I hope to have shown some ideas earlier on. What you want is to get a base fast. A base is usually 2 stones with 2 spaces in between. If black starts around A, he can jump to one of the marked places, whatever white does.]
;W[li];B[cm];W[dl]C[I realized after placing the stone that B9 would have been a better play. Black punished greedily.

B: yes, a common mistake, even good players can make after a long and tiring game.]
;B[bl];W[bk];B[al];W[ak];B[do];W[cj];B[tt];W[tt]TW[pa][qa][ra]
[sa][pb][qb][rb][sb][oc][pc][qc][rc][sc][od][qd][rd][sd][oe]
[pe][qe][re][se][nf][of][pf][qf][rf][sf][ng][og][pg][qg][rg]
[sg][ah][bh][nh][oh][ph][qh][rh][sh][ai][ci][mi][ni][oi][pi]
[qi][ri][si][aj][bj][mj][nj][pj][qj][rj][sj][ck][dk][nk][ok]
[pk][qk][rk][sk][nl][ol][pl][ql][rl][sl][nm][om][pm][qm][rm]
[sm][on][pn][qn][rn][sn][po][qo][ro][so][pp][qp][rp][sp][qq]
[rq][sq][qr][rr][sr][ps][qs][rs][ss]TB[aa][ba][ca][da][ea][fa]
[ga][ha][ia][ja][ka][la][ab][bb][cb][db][eb][fb][gb][hb][ib]
[jb][kb][lb][ac][bc][cc][dc][ec][fc][gc][hc][ic][jc][kc][lc]
[ad][bd][cd][ed][fd][gd][hd][id][ae][be][ee][cf][ff][gf][eg]
[fg][gg][fh][gh][hh][gi][hi][fj][gj][ij][hk][jk][kk][hl][il]
[kl][am][bm][hm][im][km][an][gn][hn][in][ao][bo][go][ho][io]
[ap][cp][fp][gp][hp][ip][kp][cq][dq][eq][jq][kq][lq][ar][br]
[cr][dr][er][fr][gr][ir][kr][lr][mr][as][bs][cs][ds][es][fs]
[gs][hs]C[zWhite=114.5
Black=153

I believe that the mistake at J5 (move 104) was a large mistake, but the move that decided the game, was H4 (move 92)

B: for the game as you both played it, that's correct. I hope to have shown you (both) how to see some alternatives in openings, looking at territory and invading.]
)
(;B[qj]
(;W[qg];B[qm])
(;W[qm];B[qg])
(;W[ql];B[qg])
(;W[qh];B[qm];W[qo]C[B: white will try to stop black.];B[rn]
C[B: and black wants to push and make room.];W[ro];B[ri];W[rh]
C[B: black should be able to live here.];B[rl]C[B: if you're unsure, play small to make eyes fast.]
;W[sn];B[sm];W[so];B[qn])
(;W[qi]C[B: don't get too close to black, it invites cutting points, which make it easier for black.]
;B[pi];W[pj];B[ri];W[qh];B[qk]))
(;B[qi]C[B: same idea, maybe even a bit better because the stone at P10 is a bit further away.]

(;W[qk];B[qf];W[qe];B[re];W[rd];B[pe];W[qd];B[rf];W[pf];B[pg]
;W[of];B[rj];W[rk];B[sk];W[sl];B[sj];W[rl];B[qj];W[pk];B[sd]
;W[sc];B[se];W[rc];B[ph])
(;W[qg];B[ql];W[pi];B[qh];W[ph];B[rg];W[qf];B[qj])))
(;B[qj];W[ls];B[ms]))
(;W[mq];B[mp];W[np];B[nq];W[nr];B[oq];W[op];B[or];W[pr])
(;W[mp];B[mq];W[mr];B[nq];W[nr];B[oq];W[or];B[op];W[pp];B[oo]
;W[pm]))
(;W[ko]
(;B[lr];W[lq];B[mp];W[mq];B[np];W[nq];B[op];W[po])
(;B[lq];W[lr];B[mr];W[mq])))
(;B[mo];W[no];B[mp]TR[ln][kp][jq][kq][kr]C[B: a lot more trouble for white. The marked stones are under attack.]
;W[mr];B[nq];W[nr];B[oq];W[or];B[pp];W[qq];B[op];W[pn];B[qo]
;W[qn];B[ro];W[rn]C[B: even if they connect, it will be at a great cost.]
))
(;W[nl];B[mm];W[on];B[mn];W[mo];B[no];W[nn];B[lo]C[B: cutting isn't so severe now.]
;W[mp];B[lp];W[mq];B[lq];W[lr];B[ko];W[mk];B[mr]C[B: even this cut doesn't work.]
;W[nr]
(;B[nq];W[ms];B[np];W[mr];B[or];W[oq];B[os];W[oo])
(;B[ms];W[ns];B[ks];W[ls])))
(;B[qo];W[qm];B[qq];W[qr];B[rr];W[qp];B[rq];W[pp];B[rp];W[po]
;B[qn];W[pn];B[rn];W[rm];B[qf];W[qh];B[qc];W[qd];B[pc];W[oc]
;B[ob];W[nc];B[rd];W[re];B[rc];W[qe];B[nb];W[mb];B[pa])
(;B[qj]
(;W[qg];B[qm];W[qo];B[rh];W[rg];B[rn];W[ro];B[pk])
(;W[qm];B[qg];W[qe];B[rl];W[rm];B[ql];W[pl];B[pk];W[ok];B[rf]
;W[re];B[og])))
(;W[kq];B[ko];W[lo];B[ln];W[mo]C[B: give up the 5 stones and try for some territory on the right side.]
))
(;W[jo];B[kp];W[in];B[ko];W[kn]))
(;W[jo];B[ko];W[jn];B[kn];W[jm];B[km]))
(;W[gp];B[hq];W[io];B[jo];W[gn];B[fm];W[im];B[hm];W[in];B[km]
;W[fr];B[eq];W[er];B[dr];W[ip];B[iq]C[B: too hard to live here. Don't think it will work.]
))
(;W[fn];B[go]C[B: this gives black a huge area on the bottom.]
))
(;W[fo];B[fp];W[go];B[hp]C[B: you can't do much here. Black will get territory on the bottom. Better to concentrate on the right side.]
;W[lq];B[jq];W[qo];B[lo];W[np]))
(;B[jh]))
(;W[ge];B[fg];W[gh];B[gd];W[he];B[if];W[ie];B[jf];W[hd];B[hc]
;W[gc];B[ic];W[fd];B[ee];W[ec];B[dc];W[eb];B[db];W[fb];B[hb]
C[B: hm. Still only 1 eye.]))
(;W[ii];B[jh];W[ji];B[ki];W[kh];B[jg];W[kj];B[li];W[jk];B[kk]
;W[ij];B[lj];W[jl];B[kl];W[jm]))
(;B[gh];W[hf]C[B: good for white.]))
(;B[gc];W[hh];B[fh];W[hf];B[ff];W[jg];B[lf];W[ji];B[ki]TR[aa]
[ba][ca][da][ea][fa][ga][ha][ia][ja][ka][ab][bb][cb][db][eb]
[fb][gb][hb][ib][jb][ac][bc][cc][dc][ec][fc][ad][bd][cd][ed]
[ae][be][ce][de][ee][cf][df][ef][eg][fg][eh]SQ[if][ig][ih][ii]
C[B: white can probably live and makes a few points, but black has much more territory.]
)
(;B[hh];W[ii]C[B: white still can get out.];B[gc];W[jh];B[gq]
;W[lh]C[B: white is out, and black had a lot of territory.]
))
(;W[qo];B[cm];W[bl];B[di];W[ci];B[dk];W[cj];B[ck];W[bk];B[ai]
;W[bh];B[aj];W[ak]C[B: i'm pretty sure your white group will be alive.]
))
(;B[cm];W[bl]))
(;W[cm]))
(;B[cm];W[cl];B[an];W[bl];B[gq];W[cg]TR[ag][bg][ah][bh][ch]
[ai][bi][ci][aj][bj][cj][ak][bk][ck][al]SQ[ao][bo][co][ap][bp]
[cp][aq][bq][cq][dq][eq][fq][ar][br][cr][dr][er][fr][gr][hr]
[ir][as][bs][cs][ds][es][fs][gs][hs][is]C[B: with the 3 stone black wall, invading the corner is harder, so black can expect about 30 points there, and white only 15 on the other side.]
))
(;W[qo]TR[qp][rp][sp][qq][rq][sq][qr][rr][sr][qs][rs][ss]))
(;B[qj];W[ph];B[qm]))
(;B[qc]C[B: common way for black to get the corner.]
(;W[qd];B[pc];W[oc];B[ob];W[nc];B[nb];W[mb];B[rd];W[re];B[rc]
;W[qe])
(;W[pc];B[qd];W[qe];B[re];W[qf];B[rf];W[qg];B[pb];W[ob];B[qb]
;W[oc])))
