(;FF[4]GM[1]SZ[19]ST[2]CA[UTF-8]AP[SGFC:1.16]

PB[Tenyears]
BR[15k]
PW[NO]
WR[15k]
KM[6.5]
DT[2014-05-11]
PC[IGS-PandaNet]
RE[B+3.5]
RU[Japanese]

C[Hi. My name is Raidhyn and I once was around 5Kyu. I've been out of practice for a while but I'm happy for the opportunity to review your game and hopefully provide some pointers.]
;B[pp];W[qd];B[dp];W[dc]
(;B[oc]C[This is a paticularly agressive move that leads to some trouble for you. Playing on the third line like this means that you want to build a base over there on white's side, but you had the opportunity to play a very natural extension at D15 or even C15 or C14. Typically you should look to extend from your position to maintain stronger position and only go deep like this when nessecary or if you're playing to a paticular strategy or playstyle. 

See the variations at move 4 for examples of other options and white's possible follow ups. (These aren't joseki, just options)]
;W[od]C[This always seems agressive, and I rarely know how to respond to attatchment after I attempted to preclude and enclosure.

-----------

It is an agressive move, but don't feel threatened, just be prepared to respond appropriately. 

On attachment like this you almost always have to respond locally. You've been attacked and should reply by providing reinforcement for your stone. Typically you will either extend, or hane. 

See the varations for more details.]
(;B[lc]C[So i backed out and made a base.

----

This is a mistake and you get punished for it afterwards.

Although the two space extension like this is strong, it's only reccomended if you aren't being attacked at the time. With P17 threatened, this move is inviting white to attack. 

Over reliance on the two space extension is very common at the 15kyu level. It's a strong move but only when appropriate.]
;W[nc]C[Here you have a few options. Your base has been invaded, you need to decide to cut or play underneath. Playing on the second line is generally weak so I would have gone with a cut here. See the variation for possible continuation...]

(;B[nb];W[ob];B[mb]C[Cutting my losses..


-----

Yep. Good choice.];W[pc];B[ic]C[another base attempt

-

This is solid. Good play.];W[gc];B[ce]C[Is this an appropriate time and place for tenuki?

-----

Yes I think this is good. Remember that this was one of your original options except that now at this position white has a stone at G17 and is already strong here. This means he can attack you with more vigor.]
;W[cg]C[And he attacks with a pincer.];B[ee];W[eg]
(;B[bc]C[Is this idea correct in response to the pincer?

---

Yes this is one option. See the variations for other choices.]
;W[cd];B[bd];W[de]C[See varations for a more agressive response. I would have gone for the atari here.]

(;B[cf];W[df];B[bg];W[ch];B[bh];W[cj];B[cb]C[Good.];W[db];B[ca]
C[It's too early to play on the first line here. This would have been a good time to tenuki instead and play somewhere big.]
;W[da];B[cm]C[I  had trouble deciding between this and the normal knights move approach. Should I be approaching my own corners in such a way?]
;W[cc];B[bb];W[bi]
(;B[af]C[I THINK this move is uneeded. It makes you feel safer, but you didn't need to respond this early. See varaitions at last move.]
;W[ge];B[ie];W[jd]C[This is very agressive.];B[id]C[Solid.]
;W[jc]
(;B[je]C[was K18 better?

---- 

K18 is more passive but this is also a good option since you have some strength to attack with. Going with K18 would have given white a wall on the outside. See the varation at last move for this.]
;W[ld];B[kd]C[Attack!];W[kc];B[ke];W[lb];B[mc];W[kb];B[md];W[le]
;B[lf]C[Good ladder.];W[me];B[ne];W[ib];B[hb];W[hc]C[Instead of going atari there are some other possibilities here...remember the proverb to extend once and then sacrifice.]

(;B[ia];W[jb];B[la];W[gb]
(;B[pj]C[would capturing with N14 have been better here? I didnt want to waste the move, but then I wound up being forced to respond to the ladder breaker anyway.

----

I like this move because it takes a big point on the board.]
;W[oh];B[mf];W[oe];B[of];W[pf];B[jp]C[I feel constantly drawn to this move, but think that I never really know what to do with it.

----

This is a good move all on it's own. It's the biggest point on the board right now and this was probably the best move for white or black.]
;W[eq]C[I don't like this. White is being agressive where he shouldn't be.]
;B[dq]C[Good response.];W[ep];B[eo];W[dr];B[cr];W[ds];B[cs]
;W[fr]TR[do][cq]C[White has just protected his position and you should do the same now. When there are two places to cut you should always look to fortify.]

(;B[fo];W[cq]C[obvious blunder]
(;B[bq]C[This move is trying to save what can't be saved. C4 would have been better.]
;W[cp];B[do];W[bp];B[co];W[br];B[bo];W[aq];B[ck];W[bk];B[bl]
;W[dk];B[dl]C[I like it.];W[ek];B[el];W[gk];B[gl];W[hk];B[ji]
;W[hi];B[ih];W[hh];B[hg];W[gg];B[hf]C[This is a fair trade with white but I like your movement here.]
;W[gf];B[qm]TR[og][mh][qh]C[Are other options but your move is good as well.]
;W[qq];B[pq];W[qp];B[qo];W[pr];B[or];W[ps];B[os];W[rr];B[oq]
C[You learned from the other corner =)];W[ro];B[rn];W[sp];B[hq]
;W[po];B[qn];W[oo];B[np];W[no];B[mo]
(;W[mn]
(;B[nn]C[I don't like this. It's more solid to crawl along the fifth line and creat a lot of points for free.]
;W[on];B[nm];W[om];B[ol]
(;W[pl]C[White should have cut at O8 instead and he might have had a fighting chance.]
;B[nl];W[pm];B[qk];W[ql];B[rl];W[pk];B[ok];W[qj];B[rk];W[oj]
;B[pi];W[oi];B[op];W[qi];B[ph];W[pg];B[qh];W[rh];B[qg];W[qf]
;B[rg];W[rf]C[Good use of your position here.];B[pn];W[sg];B[pk]
;W[og];B[ri];W[nf];B[ng]TR[mh][mi]C[This is too tight and doesn't earn you much. One of the triangles would have been better.]
;W[of];B[sh];W[hl];B[jl]C[Is this move sound?];W[fl];B[fm];W[gm]
;B[fn];W[im];B[jm];W[nh];B[mh];W[mg];B[lg];W[ng];B[mi];W[nd]
;B[me];W[in];B[jn];W[hr];B[ir];W[hs];B[is];W[gq];B[hp];W[gp]
;B[ho];W[go];B[io];W[hn];B[mk];W[ii];B[jh];W[jj];B[kj];W[jk]
;B[kk];W[il]
(;B[ed]C[This move is wasted and should be saved for a ko fight if anything you could get him to respond to it even though there's no threat. This would have been a good time to start end game tactics getting small peices of territory where you can for free. See varation in last move for end game options with initiative.]
;W[dd];B[dj];W[cl];B[gs];W[gr];B[ck];W[be];B[bf];W[cl];B[ap]
TR[sf]TW[gl][hm][rp][rq][sq][qr][sr][qs][rs][ss]TB[ld][le][rh]
[pl][ql][om][pm][on][no][oo][po]C[This isn't a good threat because you lose territory during white's reply. T14 is better.]
;W[ao];B[an];W[ck];B[ap];W[bs];B[bm];W[sf];B[ah];W[ai]
(;B[ae]C[Not needed, you lose the initiative here.];W[ha];B[oa]
;W[pa];B[na];W[qb];B[ak];W[aj];B[al];W[ja];B[hd];W[gd];B[he]
TR[sn][ao][fp]C[This doesn't net you any points and it's not that big of a weakness, there are still more valuable plays on the board.]
;W[nj];B[mj];W[sn];B[sm];W[so];B[sq];W[rp];B[qs];W[qr];B[sr]
C[Just learned about bent four in the corner, trying to get something for nothing =D]
;W[rs];B[fp];W[fq];B[ao];W[gn];B[gh];W[gi];B[fh];W[fg];B[fj]
;W[fk];B[tt];W[tt];B[tt]TW[ea][fa][ga][ia][qa][ra][sa][eb][fb]
[hb][pb][rb][sb][ec][fc][oc][qc][rc][sc][ed][fd][pd][rd][sd]
[ee][fe][pe][qe][re][se][ef][ff][dg][dh][eh][fh][gh][ci][di]
[ei][fi][bj][dj][ej][fj][gj][hj][ij][ik][gl][hm][bq][rq][sq]
[ar][cr][er][sr][as][cs][es][fs][gs][qs][ss]TB[aa][ba][ab][ac]
[ad][ld][be][le][if][jf][kf][ag][ig][jg][kg][kh][lh][rh][ki]
[li][qi][si][lj][qj][rj][sj][lk][sk][kl][ll][ml][pl][ql][sl]
[am][dm][em][km][lm][mm][om][pm][rm][bn][cn][dn][en][kn][ln]
[mn][on][jo][ko][lo][no][oo][po][ip][kp][lp][mp][iq][jq][kq]
[lq][mq][nq][jr][kr][lr][mr][nr][js][ks][ls][ms][ns])
(;B[na];W[ae];B[ad]))
(;B[sf];W[se];B[sg];W[re];B[ka];W[ha];B[ma];W[ja];B[oa];W[pa]
;B[sn];W[so];B[ao];W[ap];B[ak];W[cl];B[aj];W[bm];B[ck];W[bj]
;B[cl];W[ai];B[al];W[ah];B[bf]))
(;W[nl];B[mm];W[ml];B[ln];W[lm];B[mn];W[pl];B[ok];W[km];B[pm]
;W[kn];B[ko];W[hl]))
(;B[lo]C[Here white is still very far away from places to run and the cut  at O6 is still availble.]
))
(;W[om];B[mm];W[ok];B[pk];W[pl];B[ql];W[oj];B[pi];W[og];B[nf]
;W[oi]))
(;B[cp];W[bq];B[bp];W[br]
(;B[qh])
(;B[bk])
(;B[hr])
(;B[jj])))
(;B[cq])
(;B[do]))
(;B[ka];W[ha]))
(;B[ha])
(;B[gb]))
(;B[jb];W[ld];B[kc];W[kd];B[md];W[me];B[mc];W[le]))
(;B[jp]
(;W[bf];B[be];W[ah];B[af])
(;W[ah];B[af];W[be];B[bf])
(;W[be];B[bf];W[ah];B[af])))
(;B[df];W[dd];B[cf];W[ef]
(;B[dg];W[dh])
(;B[bg];W[bh];B[ch];W[dg];B[bf];W[ci];B[cb])))
(;B[ge])
(;B[cc];W[dd]
(;B[cd])
(;B[de];W[cd];B[bd];W[bc];B[ac];W[cb];B[bf];W[bg];B[ge];W[dj]
)))
(;B[nd]
(;W[nb];B[md];W[lb];B[kb]
(;W[ob];B[mb])
(;W[mb];B[oe];W[pd];B[ic]))
(;W[md];B[ne];W[pc];B[ob];W[mc];B[oe];W[pd];B[ld];W[nb];B[me]
;W[lb];B[kb];W[la];B[ka];W[ma];B[jc])))
(;B[nd]C[This variation is joseki. However, don't expect white at 15kyu to follow the joseki. Just know that the hane here is strong because it reinforces your stone defending against the attack while moving out towards the left side of the board to make a potential base.]
;W[oe]C[This is the rest of the joseki. White extends to protect his stone that has just been attacked.]
;B[pc]C[Black threatens to push through whites stones.];W[qc]
C[White extends upwards protecting the corner while making a cut more dangerous for black.]
;B[kc]C[Black establishes his base.];W[qj]C[White claims a big move with a light and open extension.]
)
(;B[pc]C[This move works, but is kind of like the other move in different order and isn't as reccomended.]
;W[qc];B[nd];W[oe];B[kc];W[qj]))
(;B[de]C[This would be my preferred move because it forces white into the corner and top while letting black take the left side naturally.]
;W[ce];B[cf];W[cd];B[df];W[fc]
(;B[di])
(;B[cj]))
(;B[ce];W[cd];B[de];W[fc];B[ch])
(;B[cf];W[gc];B[dj]))
