(;FF[4]GM[1]SZ[19]ST[2]CA[UTF-8]AP[SGFC:1.16]

PB[Gor]
BR[2d]
PW[mi41344]
WR[2d]
KM[6.5]
DT[2014-06-06]
PC[The KGS Go Server at http://www.gokgs.com/]
RE[W+1.5]
TM[1500]
OT[5x30 byo-yomi]
RU[Japanese]

C[Hello dear reviewer,thanks for your time.
During the game I felt slightly ahead but in the end I lost by 1.5 points.
I felt I gave my best in this game and I would be glad to receive some thoughts from a stronger player.

SGF: I am not sure I am that much stronger than the participants (my KGS account is 3d but I rarely play with it).   But I will offer what comments I have and hope that they are of some use.]
;B[pd];W[dp];B[pq];W[dd];B[fq];W[hq];B[fo];W[dn];B[ip];W[eq]
;B[iq];W[fr];B[gq];W[gr];B[hr];W[qf];B[pi]C[I wanted to use the potential of j4/q3 stones

SGF: In anticipation of white jumping out I think I would be more inclined to consider a wider pince on the star point.  That feels like a better balance with the bottom to me.]
;W[of];B[nd];W[mf];B[ld];W[kf]
(;B[qe]C[SGF:  This looks natural, but it also cause to me stop and think.  With the extra stone at M16 I don't think white is likely to slide to S16, but instead would jump in at the 3-3 and black can take the territory at the top.  In view of this I think I would be more inclined to play at Q8 before white gets the chance to play in there.]
;W[rf]
(;B[qm]C[I was trying to find a good move for this situation,r7 felt right

SGF: I don't like this.  It seems too low.  It is too far from the corner to secure anything but doesn't seem to help around S9 because the territory is undercut.  Forcing wS14 has weakened Q11 without doing too much for black.  I think that black must play Q8.]

(;W[pm]C[SGF: Seems strange to me.  Contact moves are usually reserved for when there is a need to survive in a confined area.  That is not the case here.  Given that the right side is undercut at the top I would be inclined to play P4.]

(;B[ql]C[SGF:  This seems to contradict the purpose behind R7, which presumably was meant to work with the corner.  Moving towards Q11, which is undercut does not seem productive.]
;W[pn];B[pl]C[SGF: I think this gives white too many options to lay waste to the lower side but after R8 it is hard to know what else to do.]
;W[qq];B[qp];W[pp]
(;B[rp]C[SGF: Seems like the wrong extention.  See the variation.]
;W[oq];B[pr];W[or];B[qr];W[lq];B[op]TR[no]SQ[nm][lo]C[perhaps it was too early?

SGF:  Maybe not too early as much as too direct.  But what is white going to do here if black plays elsewhere?  My inclination would be to leave the situation as it is for now and later aim at the triangle point.  If black can get that point then either of the square points makes good shape.]
;W[np];B[oo]
(;W[po];B[no];W[mp];B[nm];W[jr];B[gs];W[ir];B[hp];W[er];B[ln]
;W[ko];B[mr];W[mo]
(;B[om]C[SGF: Why not block?];W[mn];B[lr];W[kq];B[nq];W[mm]
;B[im];W[ml];B[nk]C[I felt b is ahead now,i gained full corner while w gained floating group

SGF: White group is not floating as he can live anytime as shown.  But black has gained a big corner,. If he is not careful it is blacks lower left group which could come under attack.]

(;W[lj];B[kl];W[mk];B[cf];W[nj];B[ok];W[ch];B[cc]C[Good direction?
I felt i need to grab points here

SGF:  I don't really see any choice here.  It is the subsequent moves which caused the problem.]
;W[cd];B[dc];W[ed];B[bd];W[be];B[bc];W[hj];B[em]LB[fm:A]C[SGF: Seems like a strange move to me.  It basically invites white to solidify the left side.  If black ignores white then A looks like the vital point for white and so I think this is where black should play.  It is very close to guaranteeing life and leave the left side still open to reduction or invasion.]
;W[hl]C[SGF: Not sure what the point of this is.  Why not just play D7?]
;B[dm];W[cm]
(;B[en]C[SGF: I think black has to play C8.  It increases the value of the cut at C15 in addition to reducing whte more.]
;W[cn]
(;B[hm]C[Perhaps c15 is better?
I didnt want to leave my group under attack

SGF: True, but I think this is too passive.  Test white first to see how he reacts.  There is a remote possibility that the two white stones become a liability, so see how white intends to play first.]
;W[ce];B[fc];W[jd]
(;B[hc]C[SGF:  The corner is alive so inviting white to split the to group cannot be good.  Playing K17 and taking the top side seems better.  But black also needs to consider the territory white can develop in the upper left quadrant.  I would try one of the moves in the variations.]
;W[jb];B[lb];W[fd];B[gc];W[he];B[fj]C[too wide?

SGF: I think E10 is better, both from the point of view ofthe side and of connection.]
;W[fk]
(;B[ek]C[After the game I thought that maybe playing e10 was better in this situation

SGF: I don't think E10 works.  G9 can be considered.];W[ej]
;B[gk];W[fl];B[gl];W[gj];B[fm];W[fi];B[el]C[SGF: D9 is better.]
;W[ck];B[jj]C[SGF:  Overstretching.  This can be cut off.];W[hk]
;B[fj];W[fk];B[dk];W[dj];B[cl];W[jm]C[SGF: Proably simply to cut play K9.]
;B[il];W[qc]
(;B[pc]C[SGF: Way too timid.  Maybe the losing move.];W[rd]
;B[qb];W[jk];B[ik];W[ij];B[kk]
(;W[bl];B[kj];W[ki];B[ji];W[kh]
(;B[ih]C[s18 is bigger?

SGF: Not S18.  But S17 is hard to ignore.];W[rb];B[pb];W[eb]
;B[ec];W[nr]
(;B[mq]C[SGF: Black needs sente here to prevent the big white move at S11.  See the variation.]
;W[kr];B[os];W[ri];B[rj];W[qi];B[qj];W[ph];B[oi]C[SGF:  Black lost more here than the 6 points gained at the bottom.]
;W[sj]
(;B[rk]C[SGF: Why not block?];W[ra];B[kb];W[kc];B[ib];W[ka]
;B[la];W[lc];B[mc];W[ja];B[ia];W[jc];B[nb];W[hg]C[SGF:  The whole sequence since black played J12 has been a huge success for white.  Black was too timid,]
;B[ae];W[af];B[ad];W[bf];B[bk];W[dl];B[re];W[se];B[cl];W[km]
;B[jl];W[dl];B[qd];W[rc];B[cl];W[nn];B[on];W[nl];B[ol];W[dl]
;B[do];W[co];B[cl];W[cj];B[bm];W[dl];B[sd];W[sf];B[cl];W[ls]
;B[al]C[I thought the ko is bigger than n2 stones,was it better to keep playing the ko?]
;W[ms]C[From this point its a simple yose,thanks again for your time]
;B[bp];W[cp];B[an];W[bq];B[ao];W[cr];B[oh];W[pg];B[hh];W[gh]
;B[ig];W[if];B[gd];W[ge];B[mh];W[ic];B[hb];W[fs];B[bi]C[SGF: This sequence on the left side was a gift to black.]
;W[bj];B[aj];W[bn];B[bh];W[bg];B[hs];W[is];B[hq];W[bo];B[ap]
;W[aq];B[am];W[ah];B[jn];W[jo];B[kn];W[lm];B[in];W[oj];B[pj]
;W[ni];B[nh];W[me];B[li];W[lh];B[mi];W[mj];B[md];W[ci];B[ke]
;W[je];B[sk];W[si];B[eo];W[ai];B[dl];W[qa];B[pa];W[io];B[ho]
;W[ak];B[bl];W[le];B[kd];W[jg];B[mg];W[lg];B[hi];W[gi];B[oe]
;W[ne];B[ng];W[nf];B[lo];W[jp];B[jq];W[kp];B[hd];W[id];B[ep]
;W[ii];B[jh];W[ns];B[ps];W[pf];B[pe];W[fj];B[fl];W[aj];B[tt]
;W[tt]TW[sa][sb][sc][sd][de][ee][fe][ie][cf][df][ef][ff][gf]
[hf][jf][lf][ag][cg][dg][eg][fg][gg][kg][qg][rg][sg][bh][dh]
[eh][fh][qh][rh][sh][bi][di][ei][cq][dq][mq][nq][ar][br][dr]
[lr][mr][as][bs][cs][ds][es][js][ks]TB[aa][ba][ca][da][ea][fa]
[ga][ha][ma][na][oa][ab][bb][cb][db][eb][fb][gb][mb][ob][ac]
[nc][oc][od][jk][pk][qk][rl][sl][gm][pm][rm][sm][fn][gn][hn]
[pn][qn][rn][sn][go][po][qo][ro][so][fp][gp][pp][sp][qq][rq]
[sq][rr][sr][qs][rs][ss]C[Gor [2d\]: ty])
(;B[sk];W[rk];B[si];W[sl];B[sj];W[pj];B[oj]))
(;B[ns];W[mq];B[os];W[nq];B[re];W[se];B[qd];W[rc];B[rh]LB[pf:A]
C[DGF: This sequence threatens the follow up at A in addition to preventing the move white played in the game.]
))
(;B[rc]
(;W[ih]C[SGF: If white protect here black has a big follow up.]
;B[pf];W[pg];B[pe];W[qh];B[og];W[oh];B[ng];W[ph];B[nf])
(;W[re]LB[rb:B][qd:C][ih:A]C[SGF: And if white plays here black can go back to A, knowing that B and C are miai.]
)))
(;W[ji];B[kj];W[ki];B[bk];W[cj];B[bm];W[bn]C[SGF: I think this ends up bigger for white.]
))
(;B[qd]
(;W[rc];B[rd];W[pc];B[oc];W[ob];B[nb];W[sc];B[sd];W[pa];B[ra]
)
(;W[rb];B[rd];W[pc];B[oc];W[ob];B[nb];W[pa];B[sb];W[sc];B[rc]
;W[sa];B[qb];W[pb];B[qa])
(;W[pb];B[rc];W[rb];B[pc];W[qb];B[rd];W[oc];B[od];W[nc];B[mc]
;W[nb];B[oa];W[na];B[sb])))
(;B[ej];W[ek];B[dk];W[gk];B[cl];W[dj];B[cj];W[di])
(;B[gk];W[gj];B[ek];W[fl];B[fm]
(;W[gl];B[dj])
(;W[ej];B[dk];W[fi])))
(;B[fd];W[fe];B[ge];W[ff];B[hd])
(;B[jc];W[ic];B[kc];W[fd];B[gc];W[gd];B[ej]))
(;B[jj]C[SGF: I would be inclined to test white first before protecting.]
))
(;B[cl]))
(;W[nr];B[mq];W[is];B[hs];W[kr];B[ns];W[lo];B[km];W[ks]))
(;B[mn];W[om];B[nn];W[ol];B[kn]
(;W[lr];B[os])
(;W[nq];B[jq];W[kq];B[lr];W[kr];B[os];W[ns];B[ps];W[nr];B[is]
;W[js];B[hs];W[ls];B[nk];W[ok];B[nj];W[oj];B[oi])))
(;W[nn]C[SGF:  This looks better for white.]))
(;B[oq]C[SGF: Thid leaves fewer options for white.  R4 cannot be easily captured and so the center group must live by itself.]

(;W[rp];B[qo];W[qr];B[ro];W[sq];B[mp]C[SGF: THe corner is alive but white will have a lot of trouble in the middle.]
)
(;W[qo];B[rp]C[SGF: The corner stone is dead.])
(;W[qr];B[rp];W[op];B[nq];W[np];B[mp];W[mo];B[lp])))
(;B[pn];W[ql];B[om];W[pl];B[qn];W[ol];B[nl];W[nk];B[nm]
(;W[oj];B[kl])
(;W[mk]N[del this];B[ok]
(;W[oj];B[pk];W[pj];B[qk])
(;W[pk];B[oj];W[pj];B[oi];W[qi];B[qj];W[rj];B[rl];W[qk];B[rk]
;W[qj];B[qh];W[rh];B[sj];W[ri];B[mi]))))
(;W[op];B[pp]
(;W[oo]N[del this node];B[pn];W[lo];B[nq];W[nm]C[SGF: This variation seems a little heavy, but ...]
)
(;W[on];B[oq];W[np];B[po];W[mm]C[SGF:  White seems light in this variation.  The solid black corner is offset by the misplaced Q11 and the future invasion in the top right corner.]
)))
(;B[pl]C[It is harder for white to find a good place to start in the lower right.]
))
(;B[pl];W[qc];B[qd];W[rd];B[pc];W[rb];B[qb];W[rc]
(;B[jd])
(;B[pg];W[pf];B[jd]C[SGF: I think this is a valid way of playing which makes it harder for white to deal with the lower right.]
)))
