(;FF[4]GM[1]SZ[19]ST[2]CA[UTF-8]AP[SGFC:1.16]

PB[iguana]
BR[9k]
PW[Neuneck]
WR[9k]
KM[6.5]
DT[2014-05-25]
PC[IGS-PandaNet]
RE[B+19.5]
TM[300]
RU[Japanese]

C[iguana: Hi!

Hi Julian,

I am a 3k on KGS, hope you will find my review useful!

TrueOrgan];B[dd];W[pp]C[iguana: 101 hi];B[dp];W[pd];B[nq];W[np]
;B[mp];W[no];B[oq];W[pq];B[lq];W[pn];B[qf];W[qh];B[qc];W[pc]
;B[qd];W[pe];B[rf];W[og];B[qk]C[T: Black is being extremely greedy.  This invasion is really deep and you can definitely inflict some pain.  Remember you are trying to block B in and use your walls to make some territory.  If you let him escape too easily, you will have missed out.]

(;W[qm]TR[qn][rn][sn][qo][ro][so]C[T: This is letting off B really easy.  He can escape super easily now!  You have earned about 6 points for yourself at move 22, most inefficient!  Check variation.]
;B[ok]
(;W[oi]C[T: This is an extremely slow move, making you about 2 points and a bit of influence.  Check variation.]
;B[mk];W[mm];B[kd]C[T: Good direction by B.];W[pk]C[I know this cut was a bad choice. I misread and concluded that I could cut off the stone on the 3rd line.

T: I do believe that is exactly what you did! The cost was a bit of damage to your top right group...]
;B[pj];W[pl];B[oj];W[qj];B[qi];W[rj]C[T: Tadaah!  Cut off!]
;B[ri];W[rk];B[pi]TR[fc][cf][cj][cn][fq]C[T: All of the marked moves are better than your response at Q12, which is very passive.]
;W[ph]C[T: Didn't turn out so bad, but this move is about 6 or 7 points and gote!  There are definitely more important moves on the board, like starting to destroy B influence!]
;B[rh];W[fc]TR[cf][cn]C[Here I was not sure how to react to L16. I did not want to let the influence of my wall at Q17 vanish, so I started an attack on the top left corner, hoping to make use of my wall.

T: I don't think your idea is bad.  I would prefer to play this at the marked stones and reduce influence later.  However, your group at Q15 is starting to look really weak.  Technically, you should fix it first.

Remember your priorities:
1. Fix my weak groups
2. Attack enemy weak groups
3. Make territory];B[ec]C[T: Kick is really good!];W[fd];B[df]
;W[jc]C[T: Making contact with black will only strengthen him and make your wall weaker.  I would rathe play this at J17 and attack L16 or approach the other corner.]
;B[kc];W[jd];B[ke];W[mc];B[qb];W[pb];B[nd];W[md];B[me];W[ne]
;B[nf];W[oe]C[T: B is very kind!];B[mf];W[mh]C[T: Not too bad, but I think you are trying to split two strong groups.  If black were to play here, you can respond by bringing out your H16 group and negating any wall influence.]
;B[je]C[T: This is creating more harmful influence, while simultaneously attacking your H16 group.]
;W[ie];B[if];W[he];B[jb];W[kb];B[lb];W[ib]C[T: There is a proverb for this: "Don't play 1, 2, 3... just play 3!"  I.e. play this instead of L18.]
;B[ka];W[hc]TR[ck][cn][fq][jq]C[T: You could probably get away without this.  A move on the side is much bigger, I think.]
;B[mb];W[nb];B[lc];W[nc];B[ma];W[cn];B[co];W[dn];B[fp];W[cj]
;B[bo];W[ch];B[cg];W[bg];B[bf];W[dg];B[cf];W[bh]C[T: I think you should block on the other side at D12, since B is already alive.  Except for preventing eyes on groups, blocking a lone threatened stone like B13 in gote is not big.]
;B[dh];W[eg];B[eh];W[bn]C[T: This is pretty big];B[fh];W[ff]
;B[hh];W[hq]C[T: Good timing!  I would also look at K3, since B is not alive yet.]
;B[gq];W[jq];B[kq];W[er]C[T: This is a bridge too far... B can just play G2 and split you!]

(;B[eq]C[T: Luckily B is scared!  This is a HUGE concession.]
;W[gr];B[dr];W[fr];B[jr];W[ir];B[jp];W[gp];B[fq];W[iq];B[kr]
;W[go]C[T: B can just cut at H4?]
(;B[hs];W[is];B[jn];W[io];B[jo];W[pr];B[os]C[T: E10 is starting to look good!  F5 also seems nice, but B can easily counter the wall with moves around E9.]
;W[or];B[nr]C[T: Up to here you have evened the game out quite a bit against all odds!  Good work!]
;W[hm]C[T: This move feels like you don't know that to do next.  You should always just come up with some plan and play it!  Never just play a move for no really good reason.]
;B[dl]C[This move was my problem. I did not know how to react. It seems like too deep an invasion and playing C8 felt submissive. On the other hand, trying to catch the stone did not work out at all...

T: I think you have to be able to catch this stone!  It is definitely too deep!  This is just begging for E10.]
;W[ek]C[T: Contact is risky.  Typically it is better to smother your opponent instead of crushing him.  E10 would be better.]
;B[el];W[fk];B[fl];W[fn]C[T: It is unfortunate that C6 is vulnerable, otherwise B would be dead!]
;B[gl];W[gi]
(;B[fg]C[T: This fight would be easier if E9 was at E10!];W[ij]
C[T: Your stones are too weak to fight the very strong wall that was created by the contact.]
;B[gk]
(;W[gj]C[T: I think you should rather play the empty triangle!  F12 is still not fully connected.]
;B[ik];W[il];B[hk];W[jk];B[hj];W[hi];B[ii];W[jj];B[dk];W[ei]
C[T: I think the result of the game is pretty much set here.  I think you should try to always make sure that a move is truly necessary.  Each move must have a clear meaning for you.  This will help to make your stones more efficient!

I hope my review was helpful!  Thanks for the opportunity!]
;B[dj];W[di];B[fi];W[bl]C[Here I accepted that I could not fend off his invasion and connected before I lose everything.

T: Good!];B[ej];W[ci];B[ps];W[qs];B[ns];W[rr];B[ef];W[ih]C[I think atari from the other side (at K11) would have been better!]
;B[ji];W[ig];B[gh];W[hf];B[jf];W[hg];B[ki];W[en];B[jl];W[kl]
;B[jm];W[lk];B[kk];W[lj];B[kj];W[ml];B[li];W[ol];B[mj];W[ll]
;B[op];W[oo];B[ln];W[eb];B[db];W[ed];B[dc];W[fa];B[da];W[qa]
;B[ra];W[pa];B[rc];W[qe];B[re];W[qg];B[pf];W[of];B[ni];W[oh]
;B[nh];W[ee];B[cq];W[af];B[ae];W[ag];B[bd];W[de];B[ce];W[ao]
;B[ap];W[an];B[bp];W[mo];B[lo];W[js];B[ip];W[hp];B[in];W[hn]
;B[hl];W[ks];B[ls];W[ck];B[ea];W[fb];B[im];W[ng];B[mg];W[jg]
;B[kg];W[jh];B[gf];W[fe];B[gg];W[kh];B[lh];W[lf];B[le];W[ia]
;B[ge];W[gd];B[id];W[hd];B[ic];W[gb];B[mn];W[nn];B[km];W[nk]
;B[nj];W[nl];B[rg];W[ho];B[na];W[oa];B[sj];W[sk];B[si];W[ds]
;B[cs];W[es];B[cm];W[cl];B[dm];W[bm];B[eo];W[gm];B[fo];W[tt]
;B[tt]C[Mit dem 'score' Befehl können die Punkte überprüft werden, mit 'done' wird das Spiel beendet.
Mausklick markiert Gruppen als tot und entfernt sie vom Brett.]
;W[tt]TW[ga][ha][hb][ob][gc][oc][nd][od][ah][ai][bi][aj][bj]
[ak][bk][qk][al][ql][rl][sl][am][nm][om][pm][rm][sm][gn][on]
[qn][rn][sn][po][qo][ro][so][qp][rp][sp][qq][rq][sq][hr][qr]
[sr][fs][gs][hs][rs][ss]TB[aa][ba][ca][la][sa][ab][bb][cb][kb]
[rb][sb][ac][bc][cc][jc][sc][ad][cd][jd][rd][sd][be][se][kf]
[lf][sf][dg][eg][lg][sg][mh][sh][gi][hi][mi][fj][gj][ij][jj]
[ek][fk][jk][il][kn][ko][cp][ep][kp][lp][aq][bq][dq][mq][ar]
[br][cr][lr][mr][as][bs][ms]C[Final comments: I am quite happy with my opening and engdame. But invasions are hard for me. I would be especially grateful for advice regarding the middle game!

In my opinion, move 122 at E9 was the losing move.])
(;W[fj];B[gj];W[fi];B[hj];W[hi];B[ik];W[ii]))
(;AW[ej]AE[ek]))
(;B[hp];W[io];B[ip];W[hs];B[fn]))
(;B[gr]C[T: You would be lucky to live in corner and even then H3 will be the next target...]
))
(;W[fd]C[T: Corner approaches are typically a lot of points, definitely more urgent than more moves around P11, which are making you very overconcentrated.]
))
(;W[ok]TR[pc][pe][og][oi]C[T: I would go for a big wall by forcing black to live small.  The difference is that your wall can be extended as marked, while you don't really lose too much territory in the corner as compared to the move in the game.  Now you have to use this wall to make some territory!]
))
