(;FF[4]GM[1]SZ[19]ST[2]CA[UTF-8]AP[SGFC:1.16]

GN[Kidocup Runde 7]
EV[Kido Cup]
RO[7]
PB[Schweitzer, Johannes]
BR[15k]
PW[Blume, Christian]
WR[17k]
KM[6.5]
DT[2014-06-09]
RE[W+14.5]
TM[75]
RU[Japanese]
AN[Elom Willson 7kyu]

C[Hello, I'm Elom, a kgs 7kyu. I will mark my comments with Elom:

Elom:];B[pd];W[cp];B[dd];W[pq]
(;B[jp]TR[dm][dn][qn][po][qo][ep][eq]C[Elom: This move is quite unusual, and when I checked a professional database of over 10500 games, this pattern never appears.

The reason why this move is questionable is because black will get more from approaching one of whites corners.

Corners first, sides, then center genarally applies with kakari too. 

Of course, pros do split the side, but almost exclusively when white has made an enclosure on one of the marked points. 

If black goes to the un-enclosed corner, white will pincer from the other side so there is not much difference in benefit compared to splitting.. But it's still an uncommon move.]
;W[qf];B[nc];W[qi];B[rd];W[rp]LB[po:A]C[Elom: Strange, this move is usually at A.]

(;B[gp]LB[ep:A][eq:B]C[Elom: This is a fine extension, but from a global perspective still a bit cramped. Black should probably move to A instead, since it denies white a shimari at A or B, and simultaneuosly supports the k4 stone, just like this extension.

If a move is dual-purpose, consider it first, as it likely to be a good move. This move is OK, however.]
;W[dn];B[dj]C[Elom: Nice.];W[eq];B[gr]LB[jd:B][eq:A]C[Elom: This move is strange, but in this situation it's not bad and punishes the over-concentrated white move at A. 

Black can think about moves like B for faster developement too. I personally would tenuki, since the two lower side stones are light.]
;W[cl];B[ck]LB[fc:A]SQ[ae][be][ce][af][bf][cf][ag][bg][cg][ah]
[bh][ch][ai][bi][ci][aj][bj][cj]C[Elom: What this move basically says is "all of the square points are my territory. And there's nothing you can do about it"

Unfortunately, this isn't the case and white must invade that area-- you will find that you have defended nothing!

Simply move to A, the game is good enough for you!];W[ql]LB[cl:B]
[ql:C][eq:A]C[Elom: A giveaway. White should go into blacks area, since white is behind. Black has a good game, because he is more effecient with his stones and is growing faster, while white is being over conservative with A-C.]

(;B[cf]C[Elom: Now c9 looks well placed.];W[fc]
(;B[db]LB[ec:B][hc:C][cf:A]C[Elom: Black is playing solidly. Since he has the stone at A, kicking at B is okay. C is also an option.

It's questionable to make things easy for you opponent in your territory, but mabye it's just that my style is too aggressive :D]
;W[ic];B[kc]C[Elom: Good move.];W[ie]
(;B[mq]LB[fe:A]C[Elom: This move is big, but you can also take the vital point at A while making moyo.

Black has played well in the opening so far, however. These kind of calm games with no obvious urgent points are quite difficult, well, difficult for me at least :)]
;W[nr];B[mr]C[Elom: Now White takes sente.];W[fe]C[Elom: Good shape.]

(;B[eg]C[Elom:This move is too small.];W[fn];B[hh]LB[pk:A][gm:C]
[pn:B]TR[fn]C[Elom: Nicely done, this move makes A, B and C attractive moves-- takes advantage of the slow f6 which should be in the center.]
;W[of]
(;B[ke]LB[pj:C][pk:B][ol:E][gm:D][po:A]TR[fc][ic][fe][ie]C[Elom: These stones are hard to attack, so this is dame. Consider moves from A-E.]
;W[mf];B[no]C[Elom: Hmm...]
(;W[pn]C[Elom: Your lucky.];B[hn];W[fl];B[hl];W[dl]LB[nl:A]
C[Elom: !?!?!? Black must play around A next.];B[fj]TR[eh][fh]
[ei][fi]SQ[il][jl][kl][ll][ml][im][jm][km][lm][mm][in][jn][kn]
[ln][mn]C[Elom: Compare the area.];W[er];B[nm]C[Elom: Lucky again.]
;W[jg]C[Maybe it's good for black co cut here at K13 and eventually kill the white group in the upper left corner. Good Idea?

Elom: Hmm... It's very hard to kill white...]
(;B[lg]C[Elom: I think It's an overplay.]
(;W[lf]C[Elom: Another overplay.];B[kf];W[kg];B[lh];W[ji]TR[jg]
[kg][lg][lh]C[Elom: Risky for both sides.];B[if]C[Elom: A brilliant move.]

(;W[jf];B[je];W[ig];B[hf];W[hg];B[gf]TR[fc][ic][fe][ie]SQ[jf]
[hg][ig][jg][kg][ji]C[I wanted to kill w in the middle but didn't succeed.

Elom: You've practically won-- one of whites groups have to die.]

(;W[ii];B[gg]LB[ga:C][ib:B][jb:A]C[Elom: A-B-C sequence instead.]
;W[li]
(;B[jk]C[Elom: Still, upper left.];W[hj];B[gk];W[gi];B[fh];W[gh]
;B[lk];W[nj]LB[fh:5][gh:6][gi:4][hj:2][nj:8][gk:3][jk:1][lk:7]
C[Elom: 1 to 8 is out of touch. White will live or die in the upper left depending on who plays first.]
;B[fb]C[Elom: Finally, now black should surely win.];W[gb];B[eb]
;W[id];B[nk]LB[jb:A]C[Elom: Why tenuki? Play A to kill white and make certain your win.

When you're ahead, you must play solidly like you did in the opening, without taking risks.]
;W[kd];B[ld];W[jd];B[le]
(;W[lc]C[Elom: Big mistake.]
(;B[mc]LB[lb:A]C[Elom: Even bigger mistake. You MUST strike down your stone at A.]
;W[lb];B[mb];W[kb];B[md];W[ge]C[Elom: Now the game is better for white.

It's time for the late endgame.];B[ee];W[ff];B[fg];W[ef];B[df]
;W[ed];B[de];W[fi];B[ei];W[gj];B[fk];W[bk];B[bj]
(;W[bl];B[cj]C[Elom: I'm sure you regret this move.];W[nq]LB[re:A]
C[Elom: A];B[np]LB[re:A]C[Elom: A];W[op]LB[re:A]C[Elom: A];B[sg]
C[Elom: Good move. Now the game is close.];W[rf];B[sf];W[rh]
;B[sh];W[si];B[se];W[rg];B[fp];W[ep];B[pk];W[ok];B[ol];W[oj]
;B[pl];W[qk];B[mk];W[pj];B[mj];W[mi];B[ec];W[fd];B[or]
(;W[oq];B[ns];W[pr];B[os];W[ps];B[ms];W[pm];B[ne];W[nf];B[oe]
;W[re];B[sd];W[qd];B[qc];W[qe];B[rc];W[go];B[ho];W[fo];B[ga]
;W[hb];B[ha];W[ia];B[fa];W[jb];B[he];W[hd];B[el];W[em];B[ek]
;W[fr];B[gs];W[gq];B[hq];W[fq];B[hr]LB[hp:A]C[Elom: I'm sure in retrospect, you think A is Correct.]
;W[hp];B[ip];W[gp];B[kj];W[ki];B[ik];W[ij];B[oo];W[po];B[pe]
;W[pf];B[gm];W[fm];B[om];W[fs];B[iq]C[Elom: Unecessary.];W[aj]
;B[ai];W[ak];B[bh];W[dk];B[gl];W[ma];B[na];W[la];B[ob];W[me]
;B[on];W[gn];B[hk];W[jj];B[lj];W[tt];B[tt]TW[ja][ka][ib][gc]
[hc][jc][kc][gd][lg][mg][ng][og][pg][qg][hh][ih][jh][kh][lh]
[mh][nh][oh][ph][qh][hi][ni][oi][pi][ri][qj][rj][sj][rk][sk]
[al][rl][sl][am][bm][cm][dm][qm][rm][sm][an][bn][cn][en][qn]
[rn][sn][ao][bo][co][do][eo][qo][ro][so][ap][bp][dp][fp][pp]
[qp][sp][aq][bq][cq][dq][qq][rq][sq][ar][br][cr][dr][qr][rr]
[sr][as][bs][cs][ds][es][qs][rs][ss]TB[aa][ba][ca][da][ea][oa]
[pa][qa][ra][sa][ab][bb][cb][nb][pb][qb][rb][sb][ac][bc][cc]
[dc][oc][pc][sc][ad][bd][cd][nd][od][ae][be][ce][af][bf][ag]
[bg][cg][dg][ah][ch][dh][eh][bi][ci][di][ej][kk][il][jl][kl]
[ll][ml][nl][hm][im][jm][km][lm][mm][in][jn][kn][ln][mn][nn]
[io][jo][ko][lo][mo][kp][lp][mp][jq][kq][lq][ir][jr][kr][lr]
[hs][is][js][ks][ls]C[Elom: White wins by 14.5 moku.

You played solidly in the beginning game, and the joban (opening), turned out to be promising for you.

When you started complications at 45, white had a chance to come-back, but missed it with 46. 51 was a perfect way to cut white, and you had almost sealed the game before an unnecessary tenuki. 

Both players made crucial reading errors before white finally came out on top, living on the top side, and by then the game was irreversible.

It's hard to deduct your weak and strong points, because the game was so calm, but it clear that you have a good grasp of calm, territorial play in the opening, but maybe not so good at fighting.

I'd suggest studying speed and efficiency in the fuseki, and also train your Life&Death skills with-- well-- life and death problems.

Good game, I hope this review helps a little :) if you have any questions, doubts or disagreements, just send me an email.

by Elom 7kyu.])
(;W[ns]C[I see, this move wasn't good. If white plays here, B at P2 will be lost.

Elom: Absolutely.]))
(;W[dk];B[cj];W[re]))
(;B[lb];W[jb];B[hb]LB[lb:B][lc:A]C[Elom: This works now thanks to the A-B exchange, which is really bad for white.]
;W[ga];B[gc];W[hc];B[gd]LB[lb:B][lc:A]C[Elom: Using tewari analasys, we can see that it's exactly like before, but white can't play at B because white gave black the chance with A.]
;W[kb];B[mc]LB[ia:A][ka:B]C[Elom: A and B is miai.]))
(;W[jb]
(;B[hb];W[ga]C[Elom: The game is even.];B[gc];W[hc];B[gd];W[lb]
;B[lc];W[kb])
(;B[kb];W[hb]C[Elom: Still okay.])))
(;B[jb];W[ib];B[ga]))
(;W[eb]C[Elom: If white makes these stones alive...];B[jb];W[ib]
;B[lj];W[gk];B[hj];W[gj];B[gi];W[gg];B[ff];W[hk];B[ik];W[ij]
;B[hi];W[il];B[jk];W[hm];B[im];W[jl];B[kk];W[gl];B[in]TR[jf]
[gg][hg][ig][jg][kg][ji][ij]C[Elom: ...Game over for white.]
))
(;W[hf];B[ig];W[je];B[jf];W[eb];B[lj];W[ml];B[ok];W[jk];B[kl]
;W[hj];B[gk];W[gi];B[gh];W[fi];B[ei];W[fh];B[fg];W[gg];B[gf]
C[Elom: Black wins.]))
(;W[jf];B[ji];W[lk]C[Elom: White has support.];B[nk];W[li];B[kh]
;W[mj];B[jb];W[lf];B[kf];W[kg];B[lh];W[ii];B[ih];W[jh];B[ki]
;W[ij];B[jj];W[gh]))
(;B[if];W[hf];B[ig];W[je];B[jf];W[jb];B[kb];W[eb];B[nj]C[Elom: ...But he could use the resulting influence to win the game.]
)
(;B[jf]C[Elom: Very similar];W[if];B[ig];W[hg];B[ih];W[gg];B[nj]
))
(;W[in];B[qo];W[nm];B[ro];W[rr]))
(;B[po];W[np];B[ro];W[qo];B[qp];W[qn];B[qq];W[pp];B[rq]C[Elom: Black will live in the corner if he wants.]
))
(;B[pj]C[Elom: This is a classic sequence.];W[qj];B[pl]
(;W[pm]C[Elom: White would probably avoid the joseki.];B[om]
;W[pk];B[ol];W[ok];B[kl];W[nk];B[on];W[nf];B[hl];W[kj]C[Elom: Best for both sides, I think.]
;B[lf]C[Elom: Black can play here because...];W[np]C[Elom: ...This is an overplay...]
;B[mo];W[mp];B[lp];W[no];B[mn];W[nn];B[mm];W[nm];B[nl];W[ml]
;B[mk];W[mj];B[lk];W[pn];B[oo];W[pp];B[lj];W[mi]C[Elom: ...This doesn't work well for white.]
;B[li])
(;W[pk];B[ok];W[qk];B[pm];W[oj];B[nk])))
(;B[fe];W[mq];B[hf];W[if]LB[gg:A][gi:B]C[Elom: A would be risky, white could reduce at around B but I'll show one way out of many.]
;B[hh]C[Elom: Black is starting to build the moyo.]))
(;B[ec];W[fd];B[hc]C[Elom: Starting the attack seems to be the best way.]
)
(;B[hc]
(;W[dc];B[cc];W[ed];B[de];W[db];B[kd]C[Elom: The opening slightly favours blacks]
)
(;W[gd];B[jd]C[Elom: Easy for black.];W[dc];B[cc];W[ed];B[de]
;W[db])))
(;B[jd]TR[dj]C[Elom: You can try the double wing, this is good for black.]
))
(;B[ep];W[eq];B[fq];W[dq];B[fp];W[cn]LB[gp:1][hp:2][ip:3]TR[jp]
C[Elom: Perfect positoning, black could not ask for anything better.]
))
(;B[jd]C[For example...];W[qo]
(;B[ep]C[Elom: Black usually goes here.];W[hp])
(;B[iq]C[Elom: And sometimes goes here.];W[eq];B[lq])))
