(;FF[4]GM[1]SZ[19]ST[2]CA[UTF-8]AP[SGFC:1.16]

EV[(Dragon Ladder) Tournament #3: DGS Ladder (19x19)]
RO[Round 1 of 1]
PB[Ramesh (Steppenwulf)]
BR[2d]
BT[Canada]
PW[Laurent L (lorl)]
WR[1d]
WT[France]
KM[6]
DT[2014-02-20,03-19]
PC[Dragon Go Server: http://www.dragongoserver.net/]
RE[B+Resign]
RU[Japanese]
SO[http://www.dragongoserver.net/game.php?gid=880733]
GC[Game ID: 880733
Game Type: GO (1:1)
(Dragon Ladder) Tournament #3: DGS Ladder (19x19); with 616 participants
Rated: Y

White Start Rating: 1d (+3%) - ELO 2103
Black Start Rating: 2d (+46%) - ELO 2246]

;B[pd];W[qp];B[dd];W[cp];B[jd];W[qf];B[qh];W[qc];B[pc];W[qd]
;B[pe];W[rf];B[og];W[cf];B[ef];W[cc];B[dc];W[cd];B[de];W[cb]
;B[op]LB[pn:A][mq:B]
(;W[pn]C[I wanted to reduce black's moyo, but this was not succesful.
(LL)

[Nexik\]Good move];B[ql]
(;W[qm];B[pl];W[nn];B[lp]TR[nl][nm][pp][qq]C[how to answer this ?
(LL)

[Nexik\] Now I would play E3]
(;W[nm]C[[Nexik\] Very bad move];B[eq]TR[do][ep][gq][jq]C[again, Iwonder how to answer to this move...
[Nexik\]D5 looks like the best move]
(;W[jq];B[do]TR[co][jo][dp][gq]C[I thought to several possibilities, here...
(LL)]
(;W[jo];B[qq];W[rq]
(;B[ln]C[[Nexik\] Black should just try to live inside]
(;W[jm];B[ll];W[nk];B[mj]LB[jk:A][co:C][gq:B]C[[Nexik\] B is irrelevant. A is important C is next]

(;W[jk];B[nj]
(;W[ji]C[[Nexik\] Gote. White need to play at C5. After this move game is almost lost]
;B[kj];W[jj];B[rr];W[pq];B[qr];W[pp];B[rp]C[- Steppenwulf : This looked a lot more interesting in my head, than it is actually turning out]
;W[ro];B[sq];W[oo];B[co]
(;W[gq]C[[Nexik\] Big mistake];B[ch]
(;W[dg]LB[bf:A][cg:B]C[[Nexik\] Mistake. A or B. After this move game is over]
;B[be];W[ce];B[bf]C[globally, white has no points :-(
(LL)];W[dh];B[ci];W[eb];B[db];W[da];B[fc];W[gb];B[fb];W[fa]
;B[hc];W[ib];B[ec];W[ea];B[hb];W[ha];B[gc];W[ga];B[jb];W[ja]
;B[kb];W[go];B[di];W[fh];B[ei];W[fg];B[hh];W[gi];B[qb];W[rb]
;B[pb];W[ra];B[kh];W[fm];B[dl];W[hi];B[ig];W[lm]
(;B[km];W[mm];B[jn];W[kl];B[kn];W[io];B[im];W[jl];B[or];W[mq]
;B[oq];W[np];B[mr];W[lq];B[lr];W[kr];B[fl];W[gl];B[em];W[gm]
;B[fr];W[gr];B[bd];W[gf];B[rg];W[qe];B[rn];W[rm];B[rl];W[sl]
;B[sk];W[sm];B[rj];W[sn];B[pr];W[he];B[ic];W[je];B[ke];W[jf]
;B[kf];W[jg];B[jh];W[ok];B[hf];W[if];B[hg];W[ge];B[kg];W[ie]
;B[fi];W[gh];B[gj];W[hj];B[sf];W[se];B[sg];W[rd];B[qo]C[N+Aba.]
)
(;B[mm];W[km];B[ml];W[mn];B[or];W[pr];B[ps];W[mq];B[mr];W[lq]
;B[nq];W[mp]))
(;W[bf])
(;W[cg];B[dh];W[eb];B[fc];W[jg]))
(;W[ch]LB[ck:B][bm:A]C[Next white can play A-B sequence]))
(;W[kj];B[mk];W[co]))
(;W[gq]C[is it better here ?
(LL)]))
(;W[ll]LB[gq:A][lr:B]C[[Nexik\] White can easily make live]
))
(;B[rp]))
(;W[co];B[dn];W[cm];B[jo]C[difficult for white
(LL)
[Nexik\] Not at all];W[gq])
(;W[gq];B[co]C[good for black ?
(LL)])
(;W[dp];B[ep];W[eo];B[gp]C[complicated.
(LL)]))
(;W[do];B[hq]
(;W[ck]C[white is perhaps tto flat on the left side ?
(LL)])
(;W[nj]C[[Nexik\] This way. White should slowly reduce black moyo]
))
(;W[gq];B[iq]C[seems good for black
(LL)])
(;W[ep]C[???
(LL)]))
(;W[qq];B[po]
(;W[qo];B[on];W[om];B[oo];W[pm];B[nm];W[ol];B[mn]C[a possible continuation ?
(LL)])
(;W[oo]C[[Nexik\]Tesuji]))
(;W[pp];B[nl]C[too good for black
(LL)])
(;W[nl];B[om];W[on];B[nm];W[mm];B[ml]C[not good for white
(LL)])
(;W[eq]))
(;W[om];B[qo];W[po];B[pp];W[qn];B[qq];W[ro];B[rq];W[pk];B[qk]
C[seems not good for white.
(LL)])
(;W[nn]C[[Nexik\]Simple job was enough];B[qo];W[po];B[pp];W[qq]
;B[qn];W[or]C[[Nexik\]White is better]))
(;W[mq]C[what about this one ?
(LL)]))
