(;FF[4]GM[1]SZ[19]ST[2]CA[UTF-8]AP[SGFC:1.16]

PB[flintstone]
BR[5k]
HA[2]
PW[matemato]
WR[3k]
KM[0.5]
DT[2014-07-01]
PC[The KGS Go Server at http://www.gokgs.com/]
RE[B+6.5]
TM[600]
OT[5x20 byo-yomi]
RU[Japanese]

AB[dp][pd]C[flintstone [5k\]: hi
matemato [3k\]: hi

I've played this game trying to have influence instead of takin territory from the begining. Being a handi game, he should have played to have influence, since strong players usually do that, but he doesnt. I´ve win but Im not sure to have use my influence correctly]
;W[jj];B[pp];W[dc];B[de]LB[ce:A][dg:B][dh:D][ee:C]C[he has many choices]

(;W[ce];B[cf];W[cd];B[df];W[fc];B[cj]SQ[cd][ce][dc][fc][jj]
C[bad joseki choice, he should have tried to use his tengen
i would have done a pincer (in handycap games i never do the tengen because i know i will win in yose- so i never risek :D)]
;W[nc]CR[dc][fc]LB[gd:A][ge:B][jd:C]C[very difficult to make territory on that side because the stones are all low and abc are really good reducers]
;B[pf];W[jd];B[qj]C[nice];W[ne];B[ph]CR[gd][hc][id]LB[lc:B]
[pb:A]C[its a bit too defensive, i would have played at A to aim for the invasion at B and secure the corner
TN that all the marked spots are good points to reduce or invade]
;W[qc]C[really exagerated];B[pc];W[qd];B[qe];W[re];B[rf];W[pb]
;B[ob];W[qb];B[oc];W[nb];B[jq]CR[nb][nc][ne][pb][qb][qc][qd]
LB[oa:A]C[A puts him in deep trouble(his group isnt alive yet), he should play here immeadiatly, his stones become thick and now he has some sizable territory( sry about my spelling i know i made quite a few mistakes :D)]
;W[cq]C[wow....];B[dq];W[cp];B[co];W[bo];B[cn];W[bn];B[cm];W[dr]
;B[er];W[cr];B[fq];W[qq]LB[pq:B][qp:A]
(;B[qp]LB[ph:A][pq:B]C[wrong direction, up to now you only made one questionable more- nice :D
you should have played at B your moyo would have been HUGE]
;W[pq];B[oq];W[or];B[nq];W[nr];B[mq];W[rp];B[ro];W[rq];B[qn]
;W[mr];B[lr]LB[jh:B][lk:A][oa:C]C[thats rather small,there are many big points left]
;W[bm];B[bl];W[jl];B[jh]SQ[jj][jl]C[very difficult to attack]
;W[jn];B[li];W[lq];B[kr];W[lp];B[oo];W[no]LB[ko:A]C[overplay, A would have been a nasty thorn to deal with for white]

(;B[nn];W[mp];B[op];W[mn];B[nm];W[mm];B[ko];W[jp];B[ip];W[jo]
;B[hq];W[mk];B[nj];W[nl];B[ol];W[mj];B[nk];W[ml];B[ni];W[mi]
TR[jh][lh][li]C[these stones are starting to look like a burden(when you review your own games always try to see when your stones start to become not efficient)]
;B[mh];W[lh];B[mg];W[lg];B[mf];W[oe];B[pe];W[le]LB[oa:A]C[A is still huge]
;B[lf];W[ki];B[kg];W[kh];B[ke];W[ld];B[hd];W[hc];B[kd];W[kc]
;B[gc];W[gd];B[ic];W[gb];B[id];W[je];B[kf];W[jc];B[hf];W[ib]
;B[ge];W[fe];B[ff];W[fm];B[el]LB[fk:A]C[A is better];W[fj];B[ei]
;W[ej];B[fi];W[fl];B[dj];W[em]TR[jj][jl][jn][jp][kh][lp][mi]
[mk][mm][nl][no]LB[ej:A][em:E][fj:B][fl:C][fm:D]C[all the marked moves are possible because his group(i marked it) is thick...]
;B[gj];W[gk];B[ek];W[fk];B[hj];W[hk];B[hn];W[hm];B[ji];W[kj]
;B[gn];W[eo];B[dm];W[ho];B[io];W[in];B[fn];W[en];B[fo];W[ep]
;B[eq];W[fp];B[gp];W[gm];B[go];W[kq];B[jr];W[bf];B[bg];W[ij]
;B[ii];W[if];B[he];W[ig];B[hg];W[hh];B[gh];W[ih];B[hi];W[jg]
;B[gi];W[rd]LB[oa:A]C[A was a huge point.........];B[me];W[md]
;B[ee];W[fd];B[be];W[bd]TR[ma][mb][qa][rg][sd][sg]LB[oa:A][pa:B]
[se:C]C[all really big moves for yose  e.g C is 4 poins in revese sente A is about 5 points]
;B[af];W[sf];B[sg];W[se];B[rg];W[om];B[on];W[pm];B[qm];W[ok]
;B[pl];W[pk];B[ql];W[nh];B[ng];W[og];B[oh];W[of];B[pg];W[lc]
;B[na];W[ma];B[oa];W[lb];B[am]TR[pb][qb][qc][qd][rd][re][se]
[sf]C[is that group alive, is there a good way to reduce it :D ill leave that as a problem for you to solve :D]
;W[ad];B[an];W[bp];B[ms];W[ao];B[al];W[ae];B[bf];W[rb]C[infact]
;B[ed];W[ec];B[ns];W[pr];B[sp];W[rr];B[sq];W[sr];B[so];W[os]
;B[ls];W[br];B[ds];W[cs];B[es];W[pa];B[od];W[nd];B[nh];W[do]
;B[dl];W[dd];B[tt];W[gr];B[gq];W[ie];B[tt];W[tt]TB[ag][ah][ai]
[aj][ak][bh][bi][bj][bk][cg][ch][ci][ck][cl][dg][dh][di][dk]
[ef][eg][eh][fg][fh][fr][fs][gf][gg][gr][gs][ho][hp][hr][hs]
[iq][ir][is][js][ks][oi][oj][ok][om][pi][pj][pk][pm][pn][po]
[qf][qg][qh][qi][qk][qo][rh][ri][rj][rk][rl][rm][rn][sh][si]
[sj][sk][sl][sm][sn]TW[aa][ab][ac][ap][aq][ar][as][ba][bb][bc]
[bq][bs][ca][cb][cc][da][db][ea][eb][fa][fb][ga][gc][gl][ha]
[hb][hl][ia][ik][il][im][ja][jb][jk][jm][ka][kb][kk][kl][km]
[kn][ko][kp][la][li][lj][lk][ll][lm][ln][lo][mb][mc][mo][ps]
[qa][qr][qs][ra][rc][rs][sa][sb][sc][sd][ss]C[flintstone [5k\]: thx
matemato [3k\]: thx

nice, try solving more life and death problems and keep playing :D hope you enjoyed my commentary. madan]
)
(;B[ko]LB[jp:D][ln:C][lo:B][mp:A]
(;W[mp];B[op];W[ln];B[kn];W[km];B[lm];W[mn];B[jo]C[very hard for white]
)
(;W[lo];B[kn]C[white is split so its really bad])
(;W[ln];B[kn]C[very difficult for white])
(;W[jp];B[iq]C[donno what white would do])))
(;B[pq];W[qp];B[po];W[qo];B[qn];W[rn];B[jl]C[good game :D]))
(;LB[ce:A][dg:C][ee:B]
(;W[dg];B[fe];W[fc];B[cc];W[cb];B[cd];W[eb];B[cg];W[ch];B[dh]
;W[di];B[eh];W[ci];B[bg];W[ei]C[the joseki follow somthing like this, its okay for white (more logical)]
)
(;W[ee];B[ef];W[ed];B[ff];W[df];B[dg];W[cf];B[cg];W[be];B[bf]
;W[ce];B[gd]C[not such a good idea]))
(;W[dh];B[gd]C[a cool joseki, study it :D]))
