(;FF[4]GM[1]SZ[19]ST[2]CA[UTF-8]AP[SGFC:1.16]

PB[greendemon]
BR[2k]
PW[skywind]
WR[1k]
KM[0.5]
DT[2014-06-04]
PC[The KGS Go Server at http://www.gokgs.com/]
RE[B+3.5]
TM[600]
OT[5x20 byo-yomi]
RU[Japanese]

C[I play black in this game, it was very back-and-forth.  I thought I was ahead in the opening, but white won a big fight on top, then I captured a huge group on the right side, and white retaliated by capturing my other corner.  In the end I won by 3.5 without komi, which was just enough, but it wouldn't have been if this were an even game.

Thanks for reviewing!

Dieter: Hi Tom. You know me from Sensei's. I'm only a few stones stronger, if at all (KGS 1d these days) so if you prefer sending this to another reviewer too, I won't be offended at all. Let me still shed my light on this game and what you could learn from it.

The story of this game: 
In the opening White made an unorthodox claim on a central sphere of influence, then overplayed in the area you were supposed to control. This led to two major fights. At the top he manufactured a ko, which was heavy for you, because the stability of your surrounding stones was at stake. He took it and you took compensation at the bottom right. Unfortunately, the chase on his group ended with its connection to the outside and his group became part of the borders of a large central moyo. At this point the game was very bad for you because you got no compensation for the loss at the top.

Fortunately he overlooked the threat to his second eye later on, you killed it and the game was reversed. Still White used all the aji of it to capture the upper right, in a larger fashion than he should have. In the end you still won by a close margin.

The commentary and most important variations will hence be focused on these main events:

59: what happens if we ignore White's first kothreat
73, 79: more severe ways to get our deserved compensation
99: a more active way to play with the weakened top group
167, 175: ways to reduce or avoid the loss of the top right

What lessons can you draw from this:
- when to start a ko, when to answer a ko threat: take some time before plunging into the ko
- avoid pushing through small gaps (see SL)
- under time pressure, play basic instinct (see SL)];B[pd];W[dp]
;B[qp];W[dd];B[fq];W[dn];B[lq]C[The Yi-Gu jubango has been on my mind...

Dieter: :) We're all inspired];W[dj];B[fc];W[fe]C[I don't really know the right response here.

Dieter: Your answer seems ok. See vars.]
(;B[id]LB[hd:A]C[This seems ok.

Dieter: from a technical standpoint, a keima at A may be preferable but I'm not really sure.]
;W[if];B[ld]C[I'm still happy here, black wants one big side so he gives me two.

Dieter: both structures are loose, anything can happen;];W[go]
;B[hp];W[in];B[pj]C[I could be wrong, but I feel like black has the better position in this fuseki.

Dieter: me too. White is not really playing for influence but for central territory. This is usually a misguided imitation of Takemiya.]
;W[lo]
(;B[lp]C[Maybe I am trying to be too clever here

Dieter: yes maybe. The usual answer is a keima. See var.];W[mo]

(;B[ko]C[Dieter: but this is wrong.];W[kn];B[jo];W[jn]C[Dieter: the influence now obtained by White is strong and the two black stones have a lack of liberties, so there is aji in this position.]
;B[op];W[lf];B[mj]C[Trying to play calm, I feel like I am ahead.

Dieter: probably yes.];W[ip];B[iq]
(;W[gp];B[gq];W[ho];B[hq];W[jq]C[Interesting way to create aji]
;B[jp];W[nq];B[np];W[on]
(;B[mf]LB[pf:A]C[Top feels biggest now.  I still plan to invade his 44 corners later.

Dieter: the same can happen with yours. I think making both strong favours White here. I'd play A]

(;W[me]C[White chooses to fight

Dieter: this is overplay];B[le];W[ne];B[mg]C[Dieter: now White's in trouble]
;W[mc];B[lc];W[oc];B[pc];W[og]C[I thought for a while about what to do here.  Maybe I am too greedy, but it really feels like I should be able to kill these white stones.  In the end I decided my highest priority was keeping the corner and side connected, which also denies white a base.

Dieter: not sure if you should kill them, but the attack should indeed bring you great profit.]
;B[qg];W[lb];B[kb];W[nb];B[pb]C[Leaving the cut aji is dangerous, but I didn't want white to get easy life.  Also there's bad aji for white to exploit in the N13 group.

Dieter: I think you're keeping the pressure up in the best of ways.]
;W[jb]
(;B[la]C[This was actually a big mistake, I think I could've just descended.

Dieter: this is a turning point. I'm afraid I'd have played the ko too but you are right that in this position, the ko is too heavy for Black. You have hardly any threats against him so you need to ignore his first threat.]
;W[ma];B[mb];W[mp]
(;B[mq]C[Dieter: let's see what happens if we ignore];W[lb]
;B[ln]C[Dieter: probably the best threat];W[ka]C[I think given the local ko threats maybe white should've responded

Dieter: capturing through is big though];B[lm]C[This is very big.  I may lose the whole left side though, if white spends a move there.]
;W[qn];B[ql];W[rp];B[rq];W[pq];B[pp];W[ro];B[qq];W[rl]
(;B[rk]C[Dieter: see var. This is the point where I can suggest a better way to get your deserved compensation.]
;W[rm]
(;B[sn]C[I go for the kill move, but in retrospect maybe I should've just protected and moved on.

Dieter: . If White lives here, it's too easy. You need to chase him out and destroy his moyo in the process, or even kill him altogether. You've lost a major ko and need to go for compensation, if possible.]
;W[pl];B[qk];W[nl]
(;B[pm]C[Dieter: I thought you should surround but the group is difficult to kill. A stronger player might see the way.]
;W[pn];B[qm];W[ll]C[Dieter: White does well in escaping and making sabaki.]
;B[no];W[nm];B[nn];W[om];B[km];W[lj];B[mk];W[ml];B[kl]C[Dieter: this is very bad.]
;W[lk]SQ[mk][kl]C[Dieter: the last moves pushed White through "small gaps", reducing your own liberties.]
;B[li]C[This strengthens white once more];W[ki];B[lh]C[So white escapes, but black can chase profitably into white's moyo.  Black still has about 30 points on the bottom and maybe 20-25 in the upper right.  White probably has 60+ points in the left, so I need to resurrect thestones on top and steal some corner points.]
;W[jk];B[kh];W[ji]C[Dieter: at this point the group that was supposed to be chased has become part of the moyo border. In my opinion the game is now very favourable for White, moreover since Black is weak at the top.]

(;B[kc]C[In retrospect I think this was a mistake. I could've just captured with L14, but I thought maybe I could get away with this and pressure the white group to make eyes in gote somehow.

Dieter: the white group is alive. But merely connecting at L14 is too slow. So I understand you played here. See var for a more active solution.]
;W[hc];B[ib];W[ic];B[jc];W[ja];B[hb];W[hd];B[gb]C[I start byo-yomi.  That means I averaged about 11 seconds per move.  Even in these fast games I should play slower.]
;W[kf]C[My stones are lost.  This looks pretty good for white.]
;B[jf];W[je];B[jg];W[jd]C[Dieter: White is a strong fighter.]
;B[cc]
(;W[cd]C[I think white could've done better with D17.

Dieter: yes, but he's managing a big advantage.];B[dc];W[bc]
;B[ed];W[ee];B[bb];W[bd];B[cq]LB[ig:A]C[Dieter: the move at A is huge now.]
;W[dq];B[dr];W[cp]
(;B[cr]C[Is B2 better in this situation?

Dieter: yes.]
(;W[ab]C[I decided I could live in the corner anyway, and wanted to break into white's space.]
;B[ig]C[I still have in my head the possibility of chasing the big dragon.

Dieter: huge point and start of the reversal.];W[cb];B[db];W[ba]
;B[ia];W[la];B[hf];W[he];B[fd]TR[hf][ig]C[I needed to spend a move to live here in the end, so I'm not sure getting H14 and J13 was worth losing (8?) points in the corner.]
;W[eb];B[da];W[bq];B[gh]C[Ignore again to continue my plan.

Dieter: good];W[gf];B[jl];W[il];B[ik]
(;W[kk]C[Dieter: bad, as you point out.];B[hl];W[im];B[ij];W[jj]
C[White goes for life instead of connecting out... a big mistake I think.]
;B[ii];W[hg];B[ih]
(;W[br]C[White forgot about T8!

Dieter: yes. This is the advantage of surrounding.];B[sl]C[Black picks up a big lead in an instant.

Dieter: true.];W[mi]C[white won't give up easily.  Did I leave too much aji behind?]
;B[ni];W[nj];B[mh];W[oj];B[oi];W[pi];B[pk];W[nk];B[ph]C[At this point I'm thinking I've won for sure...]
;W[qi];B[ri];W[qf]C[but how to deal with this cut?  The reading is complicated and I have 20 seconds.  I figure my best bet is to remove the aji of the R11 group...]

(;B[qh]C[Dieter: play your basic instinct in blitz. When attachment, hane at the outside. Cannot lead to big disaster. See var]
;W[qe]
(;B[pe];W[pf];B[of];W[oe];B[nf];W[rc]C[This looks bad :(]
(;B[qd]C[Dieter: bad technique. See var];W[rd];B[rb];W[sb];B[ob]
;W[qb];B[od];W[md];B[nc];W[ke];B[nd]C[I should've left this aji, there was nothing I could do.  The good news is that The capture on the right side was large enough to compensate for losing this, and even after some bad endgame from me I can barely squeak out a win.  If this had been an even game instead of a no-komi game I would've lost though.]
;W[kd]
(;B[pg]C[Dieter: very small.

End of comments. From here onwards it is endgame and it is a matter of its own. It's true it became unnecessarily close.]
;W[gk];B[ei];W[gi];B[hh];W[fh];B[fi];W[gj];B[fg];W[eh];B[eg]
;W[dh];B[gg]C[I don't end up getting much here, white has a lot of points.]
;W[dg];B[hk];W[er]C[And this is huge, I should've played E3 instead of H9 I think.  Final score was B+3.5]
;B[gl];W[fl];B[fm];W[el];B[gn];W[io];B[kp];W[jr];B[fr];W[eq]
;B[em];W[dm];B[ir];W[en];B[fn];W[fo];B[rf];W[re];B[rg];W[fs]

(;B[kr]C[Dieter: you lose unnecessary points here];W[gs];B[hs]
;W[gr];B[hf];W[rn];B[sm];W[hg];B[ra];W[qa];B[hf];W[fb];B[fa]
;W[hg];B[qc];W[sa];B[hf];W[sk];B[sj];W[hg];B[ef];W[df];B[hf]
;W[so];B[sk];W[hg];B[se];W[sd];B[hf];W[mi];B[mj];W[hg];B[fk]
;W[ek];B[hf];W[ga];B[ea];W[hg];B[fj];W[di];B[hf];W[gc];B[ec]
;W[hg];B[hi];W[ej];B[hf];W[fb];B[eb];W[hg];B[ca];W[bb];B[hf]
;W[gd];B[ha];W[hg];B[sf];W[fp];B[js];W[kg];B[jh];W[hf];B[kq]
;W[es];B[hr];W[hn];B[gm];W[ff];B[oh];W[hm];B[lg];W[jm];B[hj]
;W[tt];B[tt]TW[aa][na][oa][pa][ra][kb][mb][ob][pb][rb][ac][jc]
[kc][lc][nc][oc][pc][qc][sc][ad][id][ld][nd][od][pd][qd][ae]
[be][ce][de][ge][ie][le][pe][af][bf][cf][ag][bg][cg][ah][bh]
[ch][ai][bi][ci][ei][fi][aj][bj][cj][fj][ak][bk][ck][dk][fk]
[al][bl][cl][dl][am][bm][cm][an][bn][cn][ao][bo][co][do][eo]
[ap][bp][ep][aq][cq][ar][cr][dr][as][bs][cs][ds]TB[ga][fb][ng]
[og][sg][nh][rh][sh][ji][ki][mi][pi][qi][si][jj][kj][lj][nj]
[oj][qj][rj][jk][kk][lk][mk][nk][ok][ll][ml][nl][ol][pl][rl]
[mm][nm][om][rm][mn][on][pn][qn][rn][lo][mo][oo][po][qo][ro]
[so][mp][rp][sp][jq][nq][oq][pq][sq][jr][lr][mr][nr][or][pr]
[qr][rr][sr][is][ks][ls][ms][ns][os][ps][qs][rs][ss]C[skywind [1k\]: ty
greendemon [1k\]: thanks for the game])
(;B[gs];W[hs];B[es];W[is];B[hr];W[js];B[kr];W[cs];B[fs];W[ds]
;B[kq]))
(;B[fl];W[dl];B[eh];W[ch]))
(;B[rb];W[rd];B[qb]C[Will become seki IMO]
(;W[sb];B[rf])
(;W[rf];B[se];W[sb];B[sf];W[ob];B[pa];W[rg];B[sg];W[sh];B[rh]
;W[ra];B[pg];W[od];B[sd];W[sc];B[si];W[oa];B[sh];W[qd];B[re]
)))
(;B[qd]C[maybe blocking is better?]
(;W[rd];B[rc];W[se];B[rb]C[alive])
(;W[re]))
(;B[of];W[oe];B[pe];W[pf];B[nf];W[rc];B[rb];W[rd];B[rf];W[sb]
;B[qb]C[Very seki-ish]))
(;B[qe]C[I think if I had just played here I could've won easily.]

(;W[pf];B[rf];W[re];B[rg];W[qd];B[pe];W[rc];B[of])
(;W[rf];B[pf];W[pg];B[qh]))
(;B[rf]
(;W[qe];B[re];W[qd];B[rd];W[qc];B[rb])
(;W[rg];B[rh];W[re];B[sg];W[qe];B[rd];W[se];B[rb];W[of])
(;W[pf];B[re];W[qh];B[rh])))
(;W[sl]C[I think it's close now, Black needs to use the wall I made around J10 to get some good reduction on the left.]
))
(;W[ij]C[I think white could've done better this way.]
(;B[hk];W[kk];B[im];W[hl];B[hm];W[gl];B[jm])
(;B[kk];W[kj];B[jj];W[hk];B[jk];W[hi])))
(;W[ig]))
(;B[br]C[This is one of those moves I've heard is good, but I'm not 100% clear why.]
))
(;W[dc];B[db];W[eb];B[cb];W[ec];B[be]C[better for white?]))
(;B[hf]
(;W[he];B[ie]
(;W[ig];B[ge])
(;W[hd];B[ig];W[gf];B[hg]))
(;W[hg];B[gf];W[ig];B[gd])))
(;B[ml];W[nk];B[mk];W[nj];B[ni];W[oi];B[oj];W[mi];B[nh];W[li]
LB[oh:B][kk:A]C[Dieter: now White can go either way.]))
(;B[ol]C[Maybe something like this to shut off escape];W[sn]
C[If white wants to live in gote, I can return to the left side.

Dieter: but this is not enough]
(;B[db])
(;B[je])))
(;B[rm];W[qm];B[rk];W[pl];B[qk];W[nl];B[lk]C[Dieter: not easy for White to make two eyes here]
))
(;B[na]C[Not small!];W[mq]LB[qn:B][jr:A]
(;B[qn];W[jr];B[lr];W[kp];B[kq];W[io];B[kp];W[mr];B[ir];W[ls]
;B[dr];W[cq];B[cr]C[Black will live. White looks better.])
(;B[jr];W[qn];B[rn];W[rm];B[ro];W[qm];B[oq]C[Dieter: This looks entirely possible. So it seems that despite the big appearance of the kothreat, we could have ignored it.]
)))
(;B[ka]C[It's a messy fight, but I think this is OK]
(;W[kc];B[jc];W[kd];B[ke])
(;W[jc];B[kc];W[jd];B[je];W[ke];B[kf];W[lg];B[kd])))
(;W[mg];B[me];W[lg];B[ng];W[nh];B[og];W[kj]C[This way the moyo becomes real.]
))
(;B[nf]LB[pf:A]C[Maybe???

Dieter: no. I prefer A];W[me];B[md];W[ne];B[nd];W[oe]C[hmm, maybe bad for black]
;B[pe]))
(;W[jp]C[I was expecting white to take the stones]
(;B[jq];W[kp];B[kq];W[io]C[But black gets sente this way, not worth it for white

Dieter: yes, probably])
(;B[kp];W[jq];B[io];W[hq];B[ir];W[ho];B[gp];W[fp];B[gq];W[eq]
)))
(;B[jp]C[Dieter: it looks best to play here. This may indicate that the previous move was indeed superfluous.]
))
(;B[jp];W[mq];B[mr];W[lr]
(;B[mp];W[kq];B[lp];W[kp];B[ko]C[Difficult for White])
(;B[kr];W[lp];B[kq];W[nr];B[ls];W[op]C[Too easy for White])))
(;B[cc]C[An obvious choice.]
(;W[cd];B[dc];W[ed];B[bd];W[be];B[bc];W[cf]TR[fe]C[The question is now if White answers here or takes sente.
If he answers here, then clearly too many eggs are in the left basket.
If he doesn't, then you can clamp later so there is an easy invasion here.
Either way, the triangled stone is not ideally placed.])
(;W[dc];B[cd];W[ce];B[be];W[cf];B[bf]C[This is obviously wrong fro White. His original keima lost most of its meaning and so do the stones at the bottom left]
)))
