(;FF[4]GM[1]SZ[19]AP[SGFC:1.16]

GN[hillel1-Potential4(B) IGS]
EV[Internet Go Server game: hillel1 vs Potential4]
PB[Potential4]
BR[14k]
PW[hillel1]
WR[13k]
KM[-5.5]
DT[2014-07-19]
PC[IGS:  igs.joyjoy.net 6969]
RE[W+22.5]
TM[60]
US[Brought to you by IGS PANDANET]

C[
 hillel1 13k : 176 hi

(DrK: Dear Reginald, I will be your reviewer for this game. I note in your instructions that I am to focus mainly on Black's play.

Before I begin, I note that to this day, I find this page helpful in relation to how to evaluate a move in any given game: http://senseis.xmp.net/?StrategyForBeginners4Questions

Please read this before you begin and have it in mind when you look at your moves.

I usually try to find 2-3 things specific that I think you can work on, as well as making pointers to things I think you should pay attention to.

All comments are in brackets.

If I miss something or if you have any questions in relation to this review, please email drk.derek@gmail.com.

Cheers

-DrK)];B[pd]C[
 Potential4 14k?: 176 hi];W[dp];B[pp];W[cd]
(;B[nd]C[I'm not sure about this move... My plan was to develop the right side, which I did... but perhaps I should approach more corners rather than giving sente to White to gain more ground?




(DrK: I have no issue with this move. I have seen stronger players (dan level) play it.

Generally, when one play two stones in a corner both on the 4th line, the aim is to reach to centre/influence. Without good reason you should not be too concerned if the opponent attack your corner if you can build up a thick wall in return.

I will mention later that because of it, I would question if move 23 works well with this move.)]
;W[nq];B[qn];W[pr];B[qq];W[kq]
(;B[ec];W[gc]
(;B[ee]TR[gc]C[(DrK: G17 is very weak here, with black stones surrounding it on both left and right. So should avoid allowing it a base if possible.)]
;W[cg]
(;B[cb]TR[bc]C[(DrK: move C15 is questionable.

It does not allow black to follow up. For example, play triangle. Black still does not have enough space to live.

There is a big difference between a move C15 - sliding under opponent's stones when opponent's on a 3-4 corner rather than at a star point. To illustrate see variation).]

(;W[jc]
(;B[fb]C[(DrK: F18 here is ineffective. It does not:

1. give black enough space to live unconditionally;
2. whiile it threaten white's group with follow up H18, white can easily jump out to centre. So the threat is not very strong.

If white's escape route to the centre has been cut off, then F18 becomes playable.

See variation)];W[gb];B[pj];W[mc];B[md];W[nb]
(;B[oc]C[(DrK: I don't like P17 feels indecisive.

1. It does not close off white's attack of the corner.
2. It does not really improve connection between black O16 and Q16.

(See variations.)];W[qf];B[qh];W[qc];B[qd];W[pb]
(;B[rc]C[(DrK: S17 is not necessary. White can't connect R14 easily with stones at top right corner. See variation.)]
;W[rb];B[pc];W[qb];B[rd];W[ld];B[le];W[kd];B[fq]C[(DrK: C6 is a better approach point, unless F3 is used as a probe.

C16 white group is not yet safe and as such should try to attack it when approaching.)]
;W[hq]
(;B[cq];W[dq];B[cp];W[co];B[bo];W[cn];B[bn];W[cm];B[dr];W[er]
;B[cr];W[fr];B[eq]C[(DrK: Don't play E3 immediately. Should leave it unplayed when situation allows it e.g. when another black group may have an actual threat to disconnect at D5)]
;W[gq]
(;B[je]C[(DrK: K15 is too thin. Easy to be disconnected.

See variation).];W[ke];B[kf];W[lf];B[me];W[jf];B[kg];W[ie];B[jg]
;W[if];B[fg]C[(DrK: I prefer E13, as C16 white group would then come under threat).]
;W[ig]
(;B[dg]C[(DrK: This does not really attack nor defence very well. See variations.)]
;W[dh]
(;B[df]C[(DrK: There's a more severe move than D14. See variation.)]
;W[cf];B[eh];W[di]
(;B[hd]C[(DrK: This move even if live does't really cause much damage to white. See variation.)]
;W[ge];B[gd];W[fd];B[fe];W[fc];B[ed];W[hc];B[ea];W[bm]
(;B[ap]C[(DrK: A4 is not necessary to allow black to live. See variation.)]
;W[an]
(;B[mn]C[I believe this is way too small and might have cost me the game

(DrK: I wouldn't say it is a small move. If this is about building moyo then it's okay.

Except if you look at the overall board, both sides are fairly even. If you are to play a move that can build moyo you should try to both:

1. build moyo;
2. reduce opponent's moyo.

In this sense, see variation for move I would prefer.)];W[kn]
;B[ll];W[lh]
(;B[lg]C[(DrK: Not a good move in relation to shape. See variation.)]
;W[jh]
(;B[kh];W[ki];B[mf]
(;W[ji]C[(I know I am only commenting on black, but white really should play N13 first...)]
;B[li];W[lj];B[mh];W[kk];B[mj];W[ei];B[fi];W[fj]
(;B[gi]C[I blindly followed my opponent and forgot about the huge amount of development White is gaining...


(DrK: At this stage, you should count and realise that only way to continue with the game is to invade and hope for the best.)]
;W[gj];B[hi];W[hj];B[lk];W[kj];B[lp];W[kp]
(;B[lq]C[Wrong Direction... And I allowed White to form a Tiger Shape...


(Doesn't really do much M3. See variation).];W[lo];B[mo];W[mp]
;B[ln];W[ko];B[np];W[mq];B[oq];W[or];B[he];W[gf];B[ff];W[hf]
;B[ob];W[oa];B[nc];W[mb];B[ce];W[be];B[de];W[ar];B[br];W[am]
;B[aq];W[bp];B[as];W[ao];B[bq];W[qr];B[rq];W[rr];B[pq];W[sq]
;B[sp];W[sr];B[ro];W[ql];B[om];W[kl];B[km];W[jm];B[lm];W[rj]
;B[ri];W[rm];B[rk];W[sk];B[qj];W[ii];B[gg];W[bc];B[cc];W[ga]
;B[bb];W[ab];B[dd];W[bd];B[es];W[fp];B[fs];W[gr];B[gs];W[hs]
;B[ds];W[bo];B[sb];W[hh];B[gh];W[id];B[fa];W[ac];B[ba];W[ch]
;B[hg];W[ih];B[ra];W[pa];B[sa];W[na];B[tt];W[qa];B[sc];TW[ic]
[he][bn][fq][hr][ha][ia][ja][ka][la][ma][hb][ib][jb][kb][lb]
[kc][lc][ad][ae][af][ag][ah][ai][aj][ak][al][gd][hd][jd][je]
[bf][bg][bh][bi][bj][bk][bl][ci][cj][ck][cl][dj][dk][dl][dm]
[dn][do][ej][ek][el][em][en][eo][ij][ik][il][im][in][io][ip]
[iq][ir][is][jj][jk][jl][fk][fl][fm][fn][fo][gk][gl][gm][gn]
[go][hk][hl][hm][hn][ho][jn][jo][jp][jq][jr][js][ep][eq][gp]
[hp][lp][lq][lr][ls][kr][ks][mr][ms][nr][ns][os][ps][qs][rs]
[ss]TB[eb][lf][mg][fh][lh][rh][mi][qi][rj][rp][ar][ca][da][db]
[dc][od][oe][of][og][oh][oi][oj][ok][ol][sd][se][sf][sg][sh]
[si][sj][sk][sl][sm][sn][so][ne][nf][ng][nh][ni][nj][nk][nl]
[nm][nn][no][pe][pf][pg][ph][pi][qe][qf][qg][re][rf][rg][ef]
[eg][mk][ml][mm][pk][pl][pm][pn][po][qk][ql][qm][rl][rm][rn]
[on][oo][op][qo][qp][bs][cs]C[I believe my main mistake was allowing White to gain HUGE Central Wall... In retrospect, I believe I could have either reduced more or continued to build up my own large Moyo



(DrK: I would suggest that whenever you play a move try to have at least 2 purposes.

1. If you build moyo try to also reduce opponent's moyo.
2. If you try to make a group of stones live try to also attack opponent at the same time.
3. If you try to have a group run toward the centre try also to run while attacking a group.

http://senseis.xmp.net/?StrategyForBeginners4Questions

is still helpful to me in evaluating my own moves and see if any of them do not have sufficient purpose.

In relation to that huge wall you referred to, well it is a question of scoring. If you are not behind gotta reduce. If you are behind you have to take the riskier course and invade. It is scary but to continue in go, one cannot be afraid of 
1. being invaded; 
2. invade; 
3; pincer; 
4. tenuki when you believe that your group is living even if it looks dangerous. Gotta read carefully and then play your move. And most importantly, can't be afraid to 
5. lose, especially embarrassingly.

I would like to further suggest that you work on 3 things:

1. Tsumego - especially in relation to attack and defence. Lots of examples in sensei library website.
2. Study pincer - find out when pincer is effective and when not. Study how to counter-pincer. White's pincer moves were not ideal but if you don't know how to punish it then it is not a bad move.
3. Attack more. I think you were a bit too timid in the following moves (not an exhaustive list: move no. 15, 17, 23, 101).

Hope you enjoyed the review!

Cheers

-DrK)])
(;B[qr];W[lq];B[or];W[mp];B[mr];W[nr];B[ns]))
(;B[kl];W[jl];B[lk];W[kj];B[jm];W[km];B[il];W[jk];B[fn];W[im]
;B[hm];W[jn];B[hj];W[gi];B[ho]C[(DrK: Try to make a living shape. But it's difficult one way or another.)]
))
(;W[mg];B[lf];W[mi];B[ji];W[jj];B[ih];W[kk];B[kl];W[jl];B[jm]
;W[km];B[il];W[jk];B[im];W[ii];B[jh];W[hj]))
(;B[ih]C[(DrK: Should cut. Doesn't matter if white is stronger or not. Just cut.)]
))
(;B[ji]C[(DrK: When you have the disadvantage, you have to choose the riskier/scarier moves.)]
;W[lg];B[jh];W[oe];B[ng];W[lj];B[kk];W[kj];B[jj];W[jk];B[hi]
))
(;B[jn]C[(DrK: this is okay, except:

1. It doesn't really build moyo for black. White can easily threaten it.
2. Does not take into account of black stones' location.)];W[ln]
;B[jk]C[(Drk: black has to run when white counter attack.)]
;W[lk];B[gk];W[li];B[ji])
(;B[kn]C[(DrK: This is okay, except difficult to follow up.)]
;W[hn];B[fj];W[fm];B[kk];W[mn];B[nk];W[jh];B[kh])
(;B[jj]C[(DrK: I would simply play something like this, which connects with L13 group. Then I can think about playing any further reducing move depending on how white responds. E.g....)]

(;W[hk];B[jm];W[nn];B[hn])
(;W[jh];B[kh];W[ji];B[ki];W[jm];B[ij];W[ih];B[fl])
(;W[nn];B[jm])))
(;B[ei]
(;W[an];B[ap])
(;W[bp];B[bq];W[an];B[ap])
(;W[ap];B[bp];W[an];B[aq];W[am];B[ao])))
(;B[ei]C[(DrK: Push through here!)];W[dj];B[hi];W[fk];B[gm]
;W[hk];B[im];W[jk];B[km]))
(;B[ce];W[be];B[dd];W[cf];B[de];W[bc];B[eh];W[di];B[ei];W[dj]
;B[hi]C[(DrK: Fix up the stones on black and allow it to push through into centre.)]
))
(;B[ci]C[(DrK: If you wish to keep C13 white group unsettled, this is very severe.)]
;W[dh];B[di];W[eh];B[ei];W[fh];B[fl];W[gg];B[bc]C[(DrK: Now you will need to make top left black group live.)]
;W[gj];B[dl];W[ck];B[gk];W[hj];B[hm]C[(DrK: Black struggles to live. But if black lives it removes all white's moyo on the bottom side).]
)
(;B[bc]C[(DrK: Defence - black considers black's group being too thin and play closely. Frankly not that great but at least white can't easily attack it anymore.

White would probably tenuki afterward).];W[hl];B[jj]C[(DrK: When neither side has any weak group, the contest become one of shape and initiative.)]
))
(;B[kf]C[(DrK: but still a risky move because N15 is potentially a cutting point).]
)
(;B[ke]C[(DrK: If you have to push, this is adequate.)];W[je]
;B[kf]C[(DrK: Looks ugly but allows connection)];W[jf];B[kg]
;W[jg];B[jh];W[ge];B[eg]))
(;B[cn];W[cj];B[cq];W[dq];B[cp]))
(;B[mg];W[ko];B[cj];W[dh];B[cm];W[fh];B[bp];W[cq];B[bc]))
(;B[ob]C[(DrK: if you are happy to trade corner with an attack at the white's group.)]
;W[oc];B[nc];W[pb];B[mb];W[oa];B[lc])
(;B[pb]C[(DrK: if you wish to close off white's attack to the corner)]
;W[oc];B[lc];W[lb];B[nc]
(;W[ob])
(;W[mb];B[ob];W[ld];B[le];W[kc];B[ke]))
(;B[cn]C[(DrK: Personally, I would tenuki. O18 does not threaten anything that is that urgent to you.

It does not:

1. Threaten to kill any of your black's group on the right.
2. It can attack black's top right corner, but black's focus with all the stones on 4th line is influence and not corner anyway.)]
;W[ck];B[en];W[fp];B[bp];W[cq];B[eg]))
(;B[lc]C[(DrK: This is a much better move.

1. Black's attack is more effective.
2. Protects black's top right corner from being attacked from the left side.)]
;W[je]C[(DrK: Possible continuation)];B[mf];W[ge];B[eg];W[dh]
;B[eh];W[di];B[hh]))
(;W[qf];B[dn];W[rd]MA[qc]TR[bc]C[(DrK: Notice that when one slides under a stone at corner star point, your follow up is X. This gives the group enough space to live.

Contrast with B17. Even if black plays an extra stone here it is not yet settled.

Therefore, C18 is questionable at the best of times.)]))
(;B[ic]C[I was thinking of a Pincer here to attack the White Stone and continue to develop my Top Side...

(DrK: Playable. Although I would think it's a little too severe. White can jump out and attack.)]
;W[ge];B[ie];W[gg];B[ig];W[gi];B[cc];W[bc];B[cb];W[bb];B[dd]
;W[bd];B[ce];W[be];B[eg];W[ij])
(;B[kc]C[(DrK: I would prefer to play just close enough to not give white G17 a comfortable base, then take care of the E17 black stones and jump out when white jumps out).]
;W[ge];B[eg];W[gg];B[ch];W[dh];B[dg];W[cf];B[fh];W[gh];B[di]
;W[bh];B[ci];W[gi];B[bi])
(;B[cc]C[(DrK: If black really has to live at the corner for special reason e.g. black is surrounded by strong white groups outside, this is the better alternative.)]
;W[bc];B[cb];W[bb];B[dd]C[(DrK: one such variation. But notice that black's heaviliy concentrated and does not have much points surrounded. So this is only used as a last resort only).]
))
(;B[ic]C[(Not immediately counter-pincer, because white can play lightly elsewhere)]
;W[ge];B[ie];W[gg];B[de];W[ce];B[df];W[ed];B[dd];W[dc];B[cf]
;W[db];B[cj]C[(DrK: Even.)]))
(;B[no]))
(;B[fq]C[Maybe Here Instead?



(DrK: I would prefer E17 approach than here, if I wish to approach. More balanced. But I would not think this move is "better" than O16.)]
))
