(;FF[4]GM[1]SZ[19]ST[2]CA[UTF-8]AP[SGFC:1.16]

PB[MPU]
BR[5k]
PW[lukep]
WR[5k]
KM[6.5]
DT[2014-06-19]
PC[The KGS Go Server at http://www.gokgs.com/]
RE[B+20.5]
TM[600]
OT[5x20 byo-yomi]
RU[Japanese]

C[Hi

My name is Peter.
I am about 1 dan in Germany.

So don't take my advice as the truth.
And I hope you enjoy the review.];B[dd];W[pd]C[lukep [5k\]: gg]
;B[dp];W[pq]C[MPU [5k\]: hello
MPU [5k\]: good luck];B[qj]C[lukep [5k\]: thx!];W[qn];B[qf]
;W[nd];B[rd]C[g4: This leaves a weakness at R12.];W[cf];B[fc]
;W[jp]C[g4: Light play. It is OK.];B[lc];W[qc];B[rc];W[rb];B[pb]

(;W[qb]C[g4: This leaves a heave group with on eye in gote. You should avoid this. There is aother possibility to answer Q18]
;B[oc];W[od];B[nc];W[og]C[g4: This hurts as it provokes the cover of the R12 weakness.]
;B[ph];W[mg];B[fq];W[bd];B[cg];W[dg]C[g4: You can also think about B13. The resulting thickness is good for black there are the O16 stones in place already.]
;B[ch];W[cc];B[bf];W[ce];B[dc];W[cb];B[ck];W[cn]C[g4: This creates a second weakness. The O16 group is not alive. Instead of this I would try to create weak black groups. For example with H17]
;B[co];W[en]C[g4: Good as D6 seems too heavy.];B[dm];W[bo];B[bp]
;W[do]C[g4: Avoid this. Just D6 is enough. You did play it anyway. Blacks response, C4 covers the weakness at C3. There is the possibility to play C3, B3 and E2 if there is a supporting ston at H3 for example.]
;B[cp];W[dn];B[fo];W[em];B[ek];W[hm];B[lp]C[g4: This stone is weak. So white should not have problems to makte eyes for the F7 group while attacking M4. I would rather have played J6 or something like this.]
;W[iq]C[g4: Connecting groups is alway valuable. So I would recommend K6.]
;B[nq];W[no];B[kq]
(;W[jr]C[g4: Killing this group isn't easy Connecting the white groups with M5 may be easier.]
;B[ln]C[g4: Correct];W[oq]C[g4: Don't attach what you want to attack. And the 3 white K4 stones can be cut from the rest. So a move around K6 would be more important.]
;B[kr];W[gr];B[fr];W[ko];B[lo];W[nm];B[kn];W[in];B[jo];W[io]
;B[jn]C[g4: This makes one eye in gote. Better to run into the center immediately.]
;W[jm]C[g4: Is this really necessary? The white goup seems to be connected. Now its time to take a big move. I would play H17 now.]
;B[il];W[im];B[id]C[g4: Great. This makes it difficult to come in there for white.]

(;W[ll]C[g4: This gives power to the center. But in the center there is no territory. Black is nearly 20 stones ahead. So there are only 2 move which may balance territiory. Somehting near H16 and O2.]
;B[np];W[po];B[kp];W[gk];B[ef]C[lukep [5k\]: if you add time for my I'll appreciate it 
lukep [5k\]: this game is cool
g4: Perhaps cutting with D14 is possible.];W[df];B[kf]C[g4: Good move at the border of 2 moyos.]
;W[kg]C[MPU [5k\]: sorry but i am in a hurry];B[jg]C[lukep [5k\]: no problem]
;W[jh];B[lg];W[kh];B[mf];W[mh];B[ni];W[oi]C[g4 This doesn't work simply.]
;B[oh];W[nf];B[nh];W[me];B[lf];W[mc];B[mb];W[ld]C[g4 Very risky. White lacks the connection at O13.]
;B[kc]C[g4: A ko can be takien once without fear. White has problems here]
;W[kd];B[jd];W[je];B[jf];W[ie];B[ke];W[he];B[hg];W[hf];B[md]
;W[pg];B[qg];W[mc];B[ih];W[ig]
(;B[if]C[g4 N16 can be take a second time. White has to find a big threat because M15 taking 2 stones threatens O13, which is very big.]
;W[dh];B[ci];W[gg];B[gh];W[ff];B[md];W[nr];B[mr];W[mc];B[qp]
;W[qq];B[md];W[mq];B[mp]C[g4: P2 is also possible.];W[mc];B[hd]
;W[gd];B[gc];W[fh];B[md];W[lr];B[ms];W[mc];B[lh];W[mi];B[li]
;W[md];B[mj];W[nb]
(;B[lb]C[g4: Why?
But black is right. He is ahead so play no risk.];W[ob];B[ng]
;W[rk];B[qk];W[rm];B[ol];W[of];B[kk];W[kl];B[jk];W[gq];B[rj]
;W[ql];B[op];W[pp];B[on];W[nn];B[nl];W[ml];B[oo];W[mm];B[jl]
;W[km];B[bm];W[bn];B[cm];W[gi];B[hh];W[ii];B[ji];W[hi];B[ki]
;W[fl];B[fe];W[gf];B[ge];W[fg];B[db];W[be];B[af];W[fj];B[ej]
;W[gn];B[eo];W[ns];B[lq];W[or];B[ks];W[da];B[ea];W[ca];B[eb]
;W[fs];B[er];W[ap];B[aq];W[ao];B[br];W[es];B[ds];W[gs];B[dr]
;W[jq];B[js];W[is];B[pl];W[sk];B[na];W[pc];B[sj];W[qe];B[re]
;W[pf];B[qd];W[ee];B[fd];W[go];B[ed];W[de];B[pe];W[mk];B[nk]
;W[di];B[dj];W[ei];B[el];W[ij];B[sb];W[ra];B[hl];W[gl];B[jj]
;W[ae];B[bg];W[am];B[bl];W[oe];B[qe];W[oa];B[ma];W[pm];B[lk]
;W[fn];B[gp];W[hp];B[fp];W[hk];B[al];W[sa];B[sc];W[an];B[om]
;W[pn];B[tt];W[tt]TW[aa][ba][pa][qa][ab][bb][pb][ac][bc][nc]
[oc][ad][ne][ef][eg][eh][fi][gj][hj][rl][sl][fm][gm][qm][sm]
[hn][rn][sn][ho][qo][ro][so][ip][qp][rp][sp][hq][rq][sq][hr]
[ir][pr][qr][rr][sr][hs][os][ps][qs][rs][ss]TB[fa][ga][ha][ia]
[ja][ka][la][fb][gb][hb][ib][jb][kb][ec][hc][ic][jc][gd][sd]
[se][rf][sf][ag][ig][kg][mg][rg][sg][ah][bh][jh][kh][mh][qh]
[rh][sh][ai][bi][mi][oi][pi][qi][ri][si][aj][bj][cj][kj][lj]
[nj][oj][pj][ak][bk][dk][ok][pk][cl][dl][ko][ep][bq][cq][dq]
[eq][mq][ar][cr][as][bs][cs]C[lukep [5k\]: thx
MPU [5k\]: thx])
(;B[ob];W[lb];B[na];W[kb];B[jc];W[jb];B[hb];W[pa];B[ib];W[qa]
;B[oa];W[pc];B[ja]))
(;B[md];W[hh];B[le];W[ii];B[ng]C[g4: I don't hink white can live with this group.]
))
(;W[hd]C[g4: A move at K16 is also possible.];B[hc];W[ic]
(;B[gd];W[jd];B[he];W[kc]
(;B[ib];W[kb])
(;B[kb];W[jb];B[ib];W[lb];B[jc];W[ka];B[kd];W[mc]))
(;B[jc];W[gc];B[ib];W[gb];B[gd];W[fd];B[he];W[ec])))
(;W[lo];B[ko];W[mp]
(;B[mq];W[kp];B[lq])
(;B[ln];W[mo];B[kp];W[jn];B[kn];W[mq]C[g4: Possible for black to escape into the center but white gets immens territory in the corner.]
)))
(;W[ob];B[qb];W[ra];B[oc];W[nb];B[pc];W[qd];B[nc];W[re]C[g4: Maybe O18 isn't necessary. Playing R16 at once my be better. But the rsult is, that white gives 2 or 3 stones but get 2 stones and a LIVING group.]
))
