(;FF[4]GM[1]SZ[19]ST[2]CA[UTF-8]AP[SGFC:1.16]

PB[vbhui]
PW[Leoberos]
WR[24k]
KM[6.5]
DT[2014-08-19]
PC[The KGS Go Server at http://www.gokgs.com/]
RE[B+Resign]
RU[Japanese]

C[I don't really have any specific questions at the moment. Just what can I do better?

Hello Marcus, I am Gabriel (12k EGF) .

I see you tried to play safe. These safe and slow moves around opponent's territory actually force the opponent to make good moves (building the territory). The slow moves create heavy/thik groups what looks strong, but the think groups may be still weak or dead without eyes. 

I liked the fighting attitude, but unfortunatelly followed by string of slow moves with weaknesses left behind. B played slow moves too. Almost all the game. But B was able to exploit the cuts/weaknesses W left, could cut and apparently could count further ahead.


Few points to take

- PLAY LIGHT. I see this over and over the whole game. One cannot comprehend all aspects of GO quickly, but the main lesson from this game should be - play lighter. Placing many stones together without purpose (connecting, creating eyes) creates a heavy overconcentrated group with no points (or life). White NEEDS TO PLAY LIGHT (sabaki) . http://senseis.xmp.net/?Sabaki  Place the stones further apart, gaining influence or territory faster and not forcing the opponent to close its territory

- don't force you opponent to play good moves. you had a correct feeling "It seems like every move I make hurts me more than helps me." It happends when you are confortable with expectations - you play a move and know what your opponent will reply. But usually it means that you force you opponent to make a good move. 

- don't attack against  a weak group.  Create solid base first. That can serve as a base to chase opponent's stones against. Having stones floating in the middle without connection to any base is difficult. White played heavy (having overconcentrated stones) resulting in multiple weak groups. Tto build a solid base on the 3dr line - use 4 space jumps 

- slow moves near opponent's moyo help the opponent to build its territory. think of the purpose of the moves, search for big moves first

- play light . again..

- to create safe 3rd line - 1-2-3+jump (2 stones are too few for a solid wall)

- have a break for strategic overview


Good luck and - I hope my review will be useful for you.];B[pd]
C[Leoberos [24k?\]: Hi];W[dp]C[vbhui: hi];B[cd];W[qq];B[pp]

(;W[pn]C[The shoulder-hit is the traditional answer to the 3-3.

Playing 3-3 corner I consider low, especially in the opening, but some players play 3-3 happily. The aim I see is to get the corder almost for sure and peep outside. It is very small to get enclosed only with few points. 

I assume W wanted to play a pincer here, however the 3-3 stone is 'naked' with no friends and under direct attack. So W needs to defend. B stone is low enough so it doesn't neet to worry about its life and influence. Q6 here only forces B to separate the W stones and set up a base 

 I've included some joseki related to the position.];B[qp];W[rp]
;B[ro];W[pq];B[op]
(;W[nq]C[When doing the 3rd line jumps, have 3 stones+jump. It's like 1-2-3-jump. That would at least keep W alive]
;B[oq]
(;W[np];B[or];W[oo];B[rq];W[nn];B[ql]
(;W[nd]
(;B[oc]
(;W[ld];B[jc];W[od]TR[jq][mr][nr]C[Now W gave up the corner. Even having some weaknesses that B may expoit (triangles), 

The last two moves were too slow. They don't create any base, don't attack B, make no territory.  This last move actually forces B to fix  its shape, gain territory  and become strong. W becomes heavy / concentrated (too many stones together, too many  to sacrifice, creating no or few points) . 

I see this play over and over the whole game. W NEEDS TO PLAY LIGHT (sabaki) . http://senseis.xmp.net/?Sabaki  Place the stones further apart, gaining influence or territory faster and not forcing the opponent to close its territory against further attacks

 W stones on 16th line are overconcentrated. W now needs to create a base or the W stones will be floating in space with very few  points or dead if cut off.]
;B[pe];W[me]TR[nh]SQ[ed][dj][cn]C[Again a very slow move with little or no purpose. If W wants to run, W must run faster (triangle). Compare what W gained with N15 and what B got by Q15.. 


Attacking B or building moyo would be much more useful.];B[nc]
;W[mf];B[mc];W[lf];B[md];W[nf];B[of];W[og];B[pg];W[kp];B[lq]
;W[lp];B[kq];W[ip];B[jq];W[fp];B[jp];W[jo];B[ko];W[mo];B[kn]
;W[jn];B[km];W[ki]TR[nl][io][hq]SQ[jm][jn][jo]C[There's a proverb - Don't go fishing while your house is on fire

There are critical weakneses (cutting points) left behind (which B later has exploited) .  The two marked W 2 stones have too few liberties. To let the ladder (J5) work, there must be 3 stones or an extra liberty]
;B[jm];W[hn];B[iq]
(;W[in];B[hp];W[ho];B[go]
(;W[gn]TR[gp];B[fo]
(;W[im];B[gp];W[fn]TR[jm][km][kn][ko]C[At this point I felt as if I was chasing him and wasn't really sure what play I should make next


GV: well - W is not chasing. W now has 3 weak groups to save and a corner to develop. What would maybe save the game would be catching the marked B group.

In that case  W must attack from two sides and the W groups (neither one) are not very confortable yet.]
;B[eo];W[en];B[do];W[dn];B[cp];W[ep];B[cq]
(;W[co]TR[cn]C[play simple];B[cn];W[il]TR[ij]C[This seems to be a nice move pushing the B group, however  - again too slow]
;B[jj];W[dj]TR[cd]SQ[cn]C[Was aiming to gain some territory from the side here.

Maybe W should gain some territory attacking the corner stone, trying to place few stones on the oposite side to create an oposite wall. and B is still peeping inside, so can reduce any gained territory.]
;B[ji];W[dh]TR[ee][cf]SQ[me][lf][mf][nf]C[slow again :( W should play lighter.  And B in the middle is running away cutting off the marked stones]
;B[cm];W[ck]TR[el];B[el];W[ek]TR[hj][dm]C[This is attacking against a weak group]
;B[fk];W[ei];B[fj];W[fi]TR[hj][fl];B[hj];W[ik];B[kj];W[ij];B[ii]
;W[hi];B[gi];W[kh];B[hh];W[ll];B[kl];W[mj];B[oh];W[ng];B[mm]
;W[gq];B[hq];W[oe];B[ne];W[nh]TR[ol][nm]C[W spent few stones connecting the weak groups , but needs to finish it]
;B[ml];W[ph];B[oi];W[qg];B[pf];W[gh]TR[fc][ed][cf]C[W already has a wall, but no territory. Attacking a corner stone would be a good way to build an opposite side]
;B[gg];W[fh];B[ke];W[fg];B[kf];W[gf];B[hg];W[hf];B[ej];W[dl]
;B[dm];W[fl];B[em];W[gk];B[gj];W[ig];B[kg];W[jh];B[if];W[ih]
;B[hi];W[jf];B[ie];W[hd];B[je];W[od]C[I don't know what I was thinking here. I was thinking of another game where I made a move like this and it helped me to capture stones. However, I believe in that other game it was due to the other players mistake.

it resembles a situation, when there's a group with ONLY the L-shaped eye :)  But nice you remember the shapes. It helps to play safe.]
;B[ff];W[fe];B[ef]TR[dd][ce][cf]C[I kept making moves that seemed to strenghten my opponent more than weaken him. Instead it made my stones weaker. How can I make more solid moves?

GV: on the contrary - W needs to make lighter moves. You made too many solid moves for a price - slow progress, having multiple heavy and weak groups and not willing to sacrifite any of them. 

The Black's F14 move was exactly expecting what W did - push it against a friend (the corner stone), securing a corner and cutting off the white stone.  So a light move (as e.g. c14)  would be more useful. Or directly attacking the corner stone. 

Playing light has its price too - more openings, cutting points (you have them anyway).

From time to time you should stop focusing about the next move.. stop and have a strategic look over the board. W has a dead group in the middle, a very weak very weak group in the left,  two weak groups on the right side which could survive if connected (they have no eyes yet). Black is more or less solid everywhere (thanks to the slow moves of W) . Still W could try to fight and save the two groups on the right side.]
;W[df];B[ee];W[ed];B[de];W[ge];B[cf];W[dg];B[eg];W[di];B[cg]

(;W[dd]TR[db];B[cc];W[eh];B[ce];W[ch];B[cl];W[dc];B[cb];W[bh]
;B[fc]
(;W[jd]C[Would H17 have been better?

H17 wouldn't help, see the variations. It's too late to save the top W group. With a little of luck W could save at least the left group or the right side]
;B[id];W[kd];B[hc];W[he];B[bk];W[cj]C[Didn't see the two eyes there]
;B[dk]TR[ni];W[fm]TR[nk][ol];B[ni]C[GV: this move cut off the W groups and sealed their fate. From now on, it's the end game with no impact on the result]
;W[qn];B[rn];W[qm];B[rm];W[pl];B[qk];W[pm];B[pi];W[ok];B[nj]
;W[nk];B[mk];W[li];B[lj];W[mh];B[lg];W[db];B[fd];W[da];B[bj]
;W[bi];B[bg];W[ag];B[af];W[ai];B[mn];W[ca];B[bb];W[ae];B[bf]
;W[bd];B[gd];W[bc];B[nm];W[on];B[lo];W[bl];B[bm];W[al];B[am]
;W[aj];B[ak];W[bo];B[bp];W[dq];B[cr];W[dr];B[gr];W[fq];B[fr]
;W[er];B[ao];W[fs];B[hs];W[ir];B[jr];W[ba];B[pk];W[nd];B[oe]
;W[od];B[fb];W[lc];B[le];W[qi];B[qh];W[rh];B[ph]C[vbhui: tx
Leoberos [24k?\]: Good game
Leoberos [24k?\]: Thank you])
(;W[hc];B[eb]
(;W[fd];B[db])
(;W[db];B[fd])))
(;W[db];B[cc];W[cb];B[dc];W[ec]))
(;W[cn];B[ci]))
(;W[gp];B[hq];W[en]))
(;W[gp]
(;B[hq];W[fn])
(;B[io];W[fn])))
(;W[hp]))
(;W[nc];B[pf];W[jc]TR[ec][qc][ed]C[B]))
(;B[pf]TR[ql]C[B could play just simple to get a great shape]
))
(;W[nc];B[kc];W[qc]))
(;W[or];B[rq]
(;W[nr];B[pr];W[qr];B[rr];W[ps];B[mo])
(;W[rr];B[pr];W[qr];B[nr];W[ps];B[sp];W[sr])))
(;W[oq];B[np];W[mq];B[nq];W[nr];B[rq];W[rr];B[or]
(;W[pr];B[mr];W[os])
(;W[sq];B[pr];W[qr];B[mr];W[ps];B[ns];W[qs])))
(;W[qp]C[B attacked immediately, W needs to choose the side. The continuation is one of joseki]
;B[po];W[pq];B[np];W[oq];B[lo];W[qn];B[nq];W[ip])
(;W[oq]C[This joseki allows B to build a wall group poiting to Q16, but still far away from its friend]
;B[pq];W[pr];B[qp];W[rr];B[rq];W[qr];B[pn])
(;W[ro];B[pq];W[qr];B[lq];W[pn]))
