(;FF[4]GM[1]SZ[19]ST[2]CA[UTF-8]AP[SGFC:1.16]

GN[Smill-Marianne-906974-20140821]
EV[(Dragon Ladder) Tournament #3: DGS Ladder (19x19)]
RO[Round 1 of 1]
PB[Marianne Diederen (Marianne)]
BR[3k]
PW[Ilya (Smill)]
WR[3k]
KM[6]
DT[2014-06-11,2014-08-21]
PC[Dragon Go Server: http://www.dragongoserver.net/]
RE[W+6]
RU[Japanese]
SO[http://www.dragongoserver.net/game.php?gid=906974]
GC[Game ID: 906974
Game Type: GO (1:1)
(Dragon Ladder) Tournament #3: DGS Ladder (19x19); with 624 participants
Rated: Y

White Start Rating: 3k (-22%) - ELO 1777
Black Start Rating: 2k (+5%) - ELO 1904
White End Rating: 3k (+38%) - ELO 1838
Black End Rating: 3k (+34%) - ELO 1833]

;B[pd]C[Hello, 
My name is spiritburd 1~3 dan kgs Igs 2 dan AGA 5 dan and I will be reviewing your game feel free to email me with questions at zachreal@gmail.com]
;W[dp];B[pq];W[dc];B[pk]
(;W[mp]C[This move is out dated and not as effective if black knows the counter which is  a strange one but the move is o4.]

(;B[po];W[jp];B[cn];W[dk];B[fp];W[dn];B[cq]
(;W[dq];B[cp];W[co];B[bo];W[do]
(;B[bn]
(;W[go]C[Smill: Is this move necessary or it is better to play one big move on the top?
To answer your question this move is wrong. It is over concentrated with black playing d2.]

(;B[de];W[cg]C[He should punish you here by playing on top of you.]

(;B[fe]C[Lucky he played poorly.]
(;W[ce]C[again bigger picture not local gains.];B[dd];W[cd]
;B[ec];W[db]C[Now he will be very happy, but probably lacked skills to use this influence.]

(;B[eb]
(;W[kc]C[The reason you had to play into his shape is because you realize you are behind here so you needed to jump into his shape. He should punish.]

(;B[ic];W[nc]
(;B[oc];W[nd];B[pf]
(;W[fg]C[Smill: Here I started to close moyo from top but probably it is better to do it around O7?
Hmmm this is an easily cut connection. When building a moyo you should think build great wall of china, so no raiders can attack later.]

(;B[mn];W[km]C[Well this is good idea, but lets be real its easy to hit this with a hammer.  I left some varations showing some of your weak points.]

(;B[nq];W[kg]C[Lucky he played a slow move.];B[if];W[ih];B[eg]
;W[eh];B[fh];W[gg];B[dh];W[ei];B[dg];W[ml];B[ch];W[cf];B[om]
;W[ni];B[oh];W[qc];B[qd];W[ob]C[From here the game is yours and I will not review the rest because he just didn't play very well. I hope you enjoyed my review again feel frrom to contact me with any questions. Thank you spiritburd.]
;B[kn];W[jn];B[lq];W[kq];B[lp];W[qk];B[ql];W[qj];B[rl];W[pj]
;B[ok];W[oi];B[qh];W[rf];B[rc];W[qb];B[rb];W[qg];B[pg];W[rh]
;B[qf];W[rg];B[re];W[nk];B[lm];W[kl];B[ll];W[lk];B[kk];W[ko]
;B[ln];W[mi];B[ej];W[dj];B[di];W[fi];B[jk];W[jm];B[gh];W[gi]
;B[hh];W[hi];B[hg];W[ig];B[hf];W[jb];B[dr];W[er];B[cr];W[ds]
;B[cs];W[fq];B[lr];W[kr];B[ks];W[js];B[ls];W[jr];B[kf];W[hb]
;B[ii];W[kh];B[dl];W[el];B[ek];W[cl];B[lj];W[mk];B[gj];W[ij]
;B[hj];W[ji];B[fj];W[ii];B[dm];W[cm];B[em];W[fl];B[fm];W[gl]
;B[gm];W[hk];B[ck];W[cj];B[bk];W[bj];B[bl];W[hm];B[es];W[fs]
;B[ep];W[eq];B[gp];W[fo];B[ib];W[ia];B[hc];W[gb];B[gc];W[ke]
;B[lf];W[lo];B[mo];W[od];B[fb];W[ha];B[qa];W[pc];B[jc];W[lb]
;B[bi];W[aj];B[ai];W[gk];B[bg];W[bf];B[cb];W[cc];B[da];W[bb]
;B[ba];W[ca];B[pi];W[qi];B[cb];W[ab];B[bd];W[aa];B[ea];W[ca]
;B[gr];W[gq];B[fr];W[hr];B[ds];W[gs];B[ph];W[rk];B[oj];W[si]
;B[je];W[le];B[gn];W[hn];B[ag];W[af];B[nm];W[sl];B[sm];W[sk]
;B[rm];W[en];B[bm];W[df];B[ef];W[pa];B[oe];W[mf];B[lg];W[lh]
;B[mg];W[nf];B[ra];W[jd];B[id];W[kd];B[kp];W[jo];B[nl];W[jg]
;B[nj];W[mj];B[jf];W[se];B[sd];W[sf];B[ne];W[me];B[mh];W[li]
;B[of];W[ak];B[ci];W[fk];B[ng];W[al];B[am];W[mm];B[np];W[ja]
;B[ed];W[tt];B[tt];W[tt]TW[ba][ka][la][ma][na][oa][cb][kb][mb]
[nb][pb][ac][bc][lc][mc][oc][ad][bd][ld][md][ae][be][sg][jh]
[sh][ki][ri][ej][fj][gj][hj][jj][kj][lj][rj][sj][ek][ik][jk]
[kk][hl][il][jl][im][in][eo][ho][io][ep][fp][gp][hp][ip][hq]
[iq][jq][fr][gr][ir][hs][is]TB[sa][sb][fc][sc][fd][gd][hd][rd]
[ee][ge][he][ie][pe][qe][ff][gf][fg][gg][og][ah][bh][cl][ol]
[pl][cm][pm][qm][an][nn][on][pn][qn][rn][sn][ao][no][oo][qo]
[ro][so][ap][bp][mp][op][pp][qp][rp][sp][aq][bq][mq][oq][qq]
[rq][sq][ar][br][mr][nr][or][pr][qr][rr][sr][as][bs][ms][ns]
[os][ps][qs][rs][ss]C[White: 54 territories + 2*7 dead stones(B) + 12 prisoners + 6 komi = 86
Black: 70 territories + 2*3 dead stones(W) + 4 prisoners = 80
Result: W+6])
(;B[jj]C[black has an easy reduction nothing white can do to gain here and d2 is still great for black. As you try and build a moyo o17 will suffer.]
)
(;B[dr];W[er];B[cr];W[fq];B[jj];W[ik];B[eg]
(;W[eh];B[dg];W[dh];B[cc]
(;W[bc];B[cb])
(;W[cb];B[bc];W[bb];B[cf]
(;W[bf];B[df];W[bd];B[fh];W[gh];B[fi];W[ch];B[gg])
(;W[bd];B[ch];W[bg];B[fh];W[fi];B[gh];W[ej];B[bf];W[bh];B[ci]
;W[bi];B[cj];W[bj];B[ck];W[cl];B[bl];W[dl];B[bk])))
(;W[dh];B[bk];W[dm];B[jk];W[il];B[ij];W[hj];B[jl];W[jm];B[hi]
;W[gj];B[mf])))
(;B[dg];W[eg];B[dh];W[df];B[ef];W[cf]C[bad aji for later I don' like it.]
)
(;B[eg];W[eh];B[dg];W[dh];B[fh]))
(;W[cr]C[This would be an excellent move for ko];B[br];W[dr]

(;B[aq])
(;B[dm];W[em];B[dl];W[el];B[bl]C[whites stones are so hard to use.]
)))
(;B[qf]C[sad he helps you so much.]))
(;B[mc]C[so l17 was a bad move.]
(;W[hc]C[now white will feel pain];B[df];W[cf];B[qe]C[black has won here his yose is just to good white will not be able to reduce enough.]
)
(;W[qf];B[rd]C[Here he would have two weak groups letting black destroy him.]
)))
(;W[qf]C[This move is much better.]
(;B[qe];W[pf];B[nd];W[qi]C[now when black attacks he will push white into himself making white win.]

(;B[nj];W[nf];B[me];W[mf];B[lf];W[lg];B[ke];W[kf];B[le];W[rk]
;B[ql];W[rl];B[qm];W[rm]C[hurtful.])
(;B[rk];W[oe];B[od];W[mf];B[ne];W[nf];B[le];W[me];B[md];W[kf]
;B[lf];W[lg];B[ke];W[kh];B[qm]))
(;B[qh];W[nd];B[pf];W[qc];B[qe];W[pc])))
(;B[df]C[He should go here first showing your weak point.]))
(;W[fc]C[This move would end the game for black.]))
(;B[fd]C[Like so now you will get stuck in that corner.]
(;W[fc];B[gc];W[ed];B[fb];W[eb];B[fe]C[black is very happy.]
)
(;W[id];B[cc]C[or you will sacrifice corner and he will still gain.]
)
(;W[ee];B[ed];W[dd];B[ef];W[ce];B[fe]C[This is also very good for black here. Your main area you lack in is you focus to much on local gains and do not focus on the bigger picture look around the board more.]
)))
(;B[dr];W[er];B[cr];W[fq]C[Now you can clearly see why g5 was bad instead d7 would have been nicer however You chose the wrong direction of play before so this is trying to make up for a mistake.]
))
(;W[dm]C[correct move];B[dr];W[er];B[cr];W[fq]C[Now your d7 stone is not wasted and even if he saves f4 he will not gain anything.]
))
(;B[dm]))
(;W[co]C[This is the correct move always build to the open area then when fighting breaks out you don't have weak spots.]
;B[dq];W[cm];B[nc];W[qf]
(;B[qh];W[qc])
(;B[rd]C[Now you should read and decide where to attack notice he wants to build to h17 area but since you have d9 group you can attack it severally when he does.]

(;W[qi];B[rk];W[ce];B[jc];W[le];B[lc]C[you control the center and the game should favor you in end ga,e]
)
(;W[rk]C[you can always be more aggressive if that is your style.]
))))
(;B[np]C[this leaves white weak and nothing really good to counter with. He can not hane so he will extend building blacks solid corner playing into blacks hand.]
;W[mo];B[no];W[mn];B[om]C[Most pro's and myself included favor black here since he has an easy invasion at l3 later with a connect underneath.  So n4 is not played much anymore.]
))
(;W[jp]C[Play this directly now see if black will play q5 or r5 seem silly. This should show why black should respond in turn to white. A normal play would be playing r5 and taking easy life so when black extends to f3 white will build on top of him.]
;B[cn]C[Here he can directly ignore k4 since it is out of place and steal the lead.]
)
(;W[qo]C[This is a stronger move allows more fighting putting white at an advantage.]

(;B[qp];W[po];B[nq];W[no];B[lq];W[lo]
(;B[jq];W[qf]C[This is a good fight for white black will become over concentrated.]
)
(;B[qf];W[nc];B[pb];W[kc]C[anywhere black wants to grow he will help white.]
))
(;B[po];W[pn];B[oo];W[qp];B[qq];W[on];B[no];W[nn];B[mo];W[mn]
;B[jp];W[qf]C[notice how blacks stones are low and its hard to gain potentail from them. This is good playing form white.]
)
(;B[op];W[oo];B[no];W[on];B[nq];W[nn];B[mo];W[mn];B[lo];W[qh]
;B[fq];W[cn];B[fo];W[nc])))
