(;FF[4]GM[1]SZ[19]AP[SGFC:1.13b]

GN[sim(W) - EBI(B) on WING]
PB[EBI]
BR[ NR  : 0 (+0)]
BT[t-abiko@aurora.dti.ne.jp]
PW[sim]
WR[17k* : 1320 (+0)]
WT[hiro1929@hotmail.com]
KM[0.5]
DT[1999-12-02]
PC[WING: wing.gr.jp 1515]
RE[W+Resign]
TM[300]
US[Brought to you by WING]

;B[pd]C[
 welcome to your review.

Note : A stronger reviewer may disagree with the detail of some variations.

hope you enjoy];W[dp];B[pp];W[dd];B[dj]LB[pj:a][fq:b]C[
Not a move I often see. splits white apart though. a or b are among the
alternatives];W[nc];B[lc];W[ne];B[pf];W[pc];B[qc];W[pb]
(;B[rc]C[This leaves White too much space so more chance to make eyes easily.

As a result the white stones are not under attack and the black stone at M17
is weaker.];W[od]TR[lc]C[white is looking safe and blacks's marked stone isolated]
;B[pe];W[qj]LB[kd:a]
(;B[ql]
(;W[qn];B[qo];W[pn];B[rn]C[Good -starting to force these white stones on the run]
;W[qq]C[White already has 2 weak sets of stones.

Will this third stone live. If it lives in the corner it may not help. Black
will probably get a wall facing to the left and have a stronger attack on
the 2 stones.]
(;B[po]C[This move did nothing good and created an empty triangle - a vulnerable
shape

see variation];W[ol];B[qm]MA[rm]
(;W[pq]
(;B[pm]C[another empty triangle, try and avoid these];W[on]
;B[rp];W[nq]C[Now white is on the outside and black may be trapped  against the side]
;B[fq]C[black is still vulnerable in the top right.   The stone at M17 needs support.

Approaching the corner from above would coordinate better with D10]
;W[eq];B[er]LB[fp:a]C[asking for trouble, and finding it.

A is better];W[dr];B[ep];W[dq]
(;B[fs];W[fp];B[eo];W[gq];B[gp];W[fr];B[do];W[co];B[fo];W[hq]
;B[fq]
(;W[qp]C[A mistake by white. This move threatens nothing. When black takes F2 and
splits the white groups again the whole picture changes.

Over the last few moves Black was giving the game away. White had
opportunities to connect the laft and right along the bottom and Black has
little real territory or influence.];B[gr];W[hr]C[White is split apart and black has a free move to attack elswhere on the
board.];B[cn];W[bo]
(;B[bq];W[go]
(;B[gn]C[This forces white to make a wall.

black's stones are strong. I think it is safe to push white a bit more]
;W[ho];B[hn];W[hp];B[fp];W[dn];B[dm];W[cm]
(;B[en];W[bn];B[dn]LB[ic:a][cf:b][qh:c]C[Saving one stone does not really matter. Take advantage of the free move
to play elsewhere.

A makes a base at the top.
B approaches the corner and can work with D10
C helps the top and also looks towards helping the group on the side.]
;W[cl];B[dl];W[ck]C[I think white should approach the top corner  or make a base at the top
before building this wall]
(;B[dk];W[cj];B[di]C[

Black can crawl along building up a wall .

But the wall is facing a range of white stones so there a lot to build on
the other side to make it into territory.];W[cq]C[This gives black the chance to box white in. But black wastes a few moves
first.];B[cr];W[br];B[cp]C[this is just going to be captured]
;W[bp];B[ds];W[cs];B[bi]C[at last];W[ci];B[ch];W[bj];B[ai];W[aj]
;B[bh]MA[ak][bk][bl][al][am][bm]SQ[ci][cj][ck][cl][cm][bj][aj]
C[
The past moves have given white 6 points. (White had the corner anyway.) To
gain this white has played 7 stones   Black has to watch the cut at D12 but otherwise has the makings of a centre
position AND canapproach white's D16 stone from strength];W[ko]
MA[lc]LB[jc:a][rg:b][qg:e]C[This aims to take the bottom side.   Black can still cause a lot of damage to this territory. white may do nearly
as well without bothering to play L5.( See variations later)

I would prefer to attack black's lone stone (marked) and use the attack to
build up a position at the top. White is stronger than black here. I like A    White can also still play d or e reducing black's cornrer and supporting the
stone on the right.];B[kn];W[mn]
(;B[oo]C[Black can push  further in and do more damage.];W[no]
;B[jo]LB[ic:a]C[A is more important];W[jp];B[in];W[io];B[jn]
;W[rq]
(;B[qk];W[pj]
(;B[ml]C[black has to do something about the side group which is  in danger of
dying]
(;W[om];B[iq]C[

More important to defend the side first];W[jq];B[kp];W[lo];B[ln]
;W[lp];B[kq];W[kr];B[ir];W[is];B[ip]LB[ic:a][qh:b][cc:c]C[These black stones have been dead for a bit. Other areas of the board are
crying out for a move.];W[jr];B[lq]
(;W[mq]C[White does not need to play locally in response to this]

(;B[nn];W[nm]C[Black keeps on throwing stones away];B[mm]C[Not really necessary, better to play elsewhere. top or side]

(;W[mj]
(;B[mh];W[jj];B[kj];W[kk]
(;B[jk];W[lj];B[ki];W[ll];B[kl];W[lk];B[jl];W[lm]C[Trapped 2 stones but the top would offer more.]
;B[km]C[White could not get through the gap so this move was not needed. This lets
white take a good point first.];W[gc]C[White gets to play a stone to support the top. If black had played around
here first things would look much different]
(;B[df];W[ce];B[cf]C[white can afford to simply take the corner. Black's centre is not going to
be big enough to win.];W[nh];B[mi]LB[ic:a]C[Black does not have to follow white around. A play at, for example A would
offer more opportunity];W[ni]
(;B[kh]MA[pf][pe][pd][qc][rc]TR[pp][po][oo][qo][rp][rn][qm]
[ql][qk][pm]C[black might be thinking in terms of around 50 points in the centre but

a) it will not be 50
b) there are two weak groups to worry about

white is looking to connect to his stones at the top]
(;W[ef];B[bc]
(;W[be];B[bf];W[cc];B[bd];W[ae];B[de];W[cd];B[ee]C[This worked out quite well for black]
;W[gg]
(;B[fg];W[gi]C[It is now critical to cut these stones off and kill them. Otherwise black
will have no territory at all.];B[fi];W[gk];B[fk];W[fh];B[eg]
;W[eh]
(;B[dg];W[fj];B[ej];W[ei];B[dh];W[ii]
(;B[ij]C[This is pushing from the wrong side. There is so little territory in the
middle  black will lose. The attack must come from the other side to try and
capture the white stones.   Even this will probably not be enough.]
;W[ji];B[hk];W[hj];B[ik];W[gl];B[fl];W[ig];B[jh];W[ih];B[jg]
;W[mg];B[ng];W[lh];B[li];W[lg];B[nf];W[le];B[ld];W[jf];B[ke]
;W[kf];B[oe];W[me];B[mf];W[lf];B[je];W[if];B[ie];W[ge];B[hc]
;W[hd];B[ic];W[id];B[jd];W[he];B[gb];W[fc];B[fb];W[ed];B[fe]
;W[eb]
(;B[fd];W[gd]C[White did not need to respond here];B[nj];W[kg]
;B[oh];W[oi]
(;B[hf]C[a waste of a move. more is gained on the side or top]
;W[gf];B[ff];W[og];B[ph];W[of];B[pg];W[qh];B[qg];W[rh];B[rg]
;W[op];B[ro];W[rm];B[rl];W[rk];B[sl];W[sp];B[sm];W[so]
(;B[sk];W[rj];B[pk];W[ok];B[hh];W[hg];B[re];W[fa];B[hb];W[jc]
;B[kd];W[jb];B[ga];W[ia];B[ea];W[da];B[ib];W[fa];B[sh];W[si]
;B[sg];W[lb];B[mb];W[mc];B[kb];W[ha];B[la];W[nb];B[kc];W[ja]
;B[ka];W[qb];B[rb];W[gm];B[fm];W[hm];B[hl];W[es];B[fr];W[ds]
;B[hs];W[gs];B[im];W[gj];B[hs];W[na];B[gs];W[ra];B[sb];W[qa]
;B[af];W[sj];B[qi];W[ri];B[pi];W[oj];B[md];W[nd];B[nk];W[tt]
;B[tt];W[tt])
(;B[rj]C[black lives];W[sj];B[sk];W[si];B[ri];W[sh];B[qi]C[black escapes]
))
(;B[mb])
(;B[rj])
(;B[rh]))
(;B[mb]C[This is a bigger move])
(;B[qh]C[So is this]))
(;B[ig];W[ge];B[gf];W[hf];B[ff];W[hg];B[hd]C[But white will now life in the middle anyway   The game has been over for some time.]
))
(;B[ff]C[Still try to cut the stones off]))
(;B[eb]C[something like this would make white think];W[ed];B[cb]
;W[db];B[da];W[dc];B[ca];W[ab];B[fd];W[fc];B[ec];W[fb];B[ea]
;W[fa];B[bb];W[fe];B[gd];W[ad];B[af])
(;B[ge]C[Black will lose by simply allowing white to invade like this

Cut the stone off and challenge white to live inside .]))
(;W[jc]C[white can leave the corner go and chase black at the top. black has to
react to this];B[le];W[be]))
(;W[rg]C[Black will respond])
(;W[sp];B[ro];W[rk];B[rl];W[sk];B[sl];W[rj];B[so];W[sm];B[sq]
;W[rr]C[Black is dead]))
(;B[ng]C[W might try to keep white apart but I don't think it will work out well]
;W[mg];B[lg];W[mf];B[lf];W[li];B[lh];W[ji];B[kh];W[le]))
(;B[cd]C[does white give up the corner or let black connect to C12?]
))
(;B[lj]C[The two white stones are cut off. Black has a strong wall to push white
against.]))
(;B[lj];W[lk];B[mk];W[li];B[kj];W[mi]))
(;W[jc]C[Suppose white had tried this. Canm black afford to allow white the top as
well?]))
(;B[rj]))
(;W[sp];B[ro];W[rk];B[rl];W[sk];B[sl];W[op]C[black might die this way]
))
(;W[jc];B[le];W[je];B[mg];W[gd];B[mb];W[nb]C[I "think" white will live]
;B[qb];W[mc];B[lb];W[md];B[me];W[oe];B[ob];W[oa]))
(;B[om];W[nn];B[nm];W[op];B[ro];W[lo])
(;B[rj]))
(;B[pk]MA[qj]C[threatening to run out and cut off the white stone might have been
interesting.

How is white going to stop this?];W[qk];B[oj]C[white cannot cut yet]

(;W[pl];B[om];W[nn];B[nl])
(;W[om];B[pl]
(;W[pj];B[ok])
(;W[ok];B[pj]))))
(;B[np]
(;W[op];B[oo];W[oq];B[nn];W[om]
(;B[mp]C[Does a lot of damage to the bottom])
(;B[nm]C[Keeps white apart]))
(;W[mp];B[oq];W[or];B[op]
(;W[nr];B[rq];W[pr]C[and black can play J17, R12, F17 etc

or continue to push in with M5];B[lo];W[lp];B[jo];W[kp]
(;B[jp];W[jn];B[jq];W[ln];B[in];W[km];B[ir]C[white group is dead
white bottom territory alive but ruined
white get potential to buld in centre])
(;B[jn];W[jp];B[mo]C[white Q 6 group can now be chased while claiming the centre]
))
(;W[pr];B[mq];W[nr];B[mo];W[lp];B[nn];W[om];B[pk]C[chase the Q6 group. In doing so cut off R10 and claim the side. Also make
territory in the middle])
(;W[mq];B[rq]C[least damage but makes more eye space]))))
(;B[ic]C[It is important not to let white surround this stone and take all the top.

l];W[fc];B[le]))
(;B[bn]C[You can afford to do this, the white stone cannot escape.


Now white has to worry about  the cut at A and connecting underneath at B]

(;W[em]C[white can not cause trouble this way];B[en];W[dl];B[dn]
MA[cp][cl][el]C[now white has to worry about which point to defend]
)
(;W[bm]C[white is forced to do this];B[an];W[ao];B[en];W[cp]
;B[cr]C[threaten to connect underneath];W[ds]C[I confess i'm not good enough to be sure if black can kill here.

However if black is not sure about killing he gets a free move elsewhere to
get a good position.])))
(;B[hp]C[this threatens to keep white small against the bottom]

(;W[ip];B[iq];W[jq];B[io];W[jp];B[gn]C[builds black's shape nicely]
)
(;W[gn]
(;B[iq])
(;B[jp]C[either of these alternatives looks good.]))))
(;B[bn]C[keep  white in to the corner. White gets a small territory, black gets the
opportunity for much more up the side];W[dn]C[if white tries to cut]
;B[dm];W[en];B[fm]))
(;W[es])
(;W[gr]))
(;B[fr];W[fp];B[eo]
(;W[gq];B[gp]C[This works for black])
(;W[fo];B[gp];W[en];B[go];W[do];B[kq]C[Seems Ok for black. White can still invade the bottom and has the corner.]
)))
(;B[on];W[pm];B[om];W[pl];B[np]C[I think black does better with this. Black has kept a route to the
outside]))
(;W[rm];B[rl];W[ro];B[sm];W[rp])
(;W[ro];B[rp];W[rm];B[so];W[rl];B[qk];W[rk]))
(;B[pq]C[I think White can live. Players stronger on life and death may disagree.]

(;W[rp];B[qr];W[rr];B[pr];W[ro];B[rm];W[qp];B[po];W[sq];B[on]
C[white is alive but to save the 2 stones gives black a very strong wall]
;W[pm];B[om];W[pl];B[ol];W[pk]MA[ql][rm][rn]LB[qh:a][ic:b][fc:c]
[dm:d][fq:e]C[black can afford to lose the 3 stones.   Next he can   1) make the top corner safe with A,  2) make abase at the top with B
3) approach the corner C
4) make a base on the right D
5) approach at the bottom in conjunction with the wall E

Black is happy. I would play E or A])
(;W[pr];B[or];W[rr];B[ps];W[qr];B[rp]C[I think white would die]
)))
(;W[rg]LB[re:a]C[threatening to jump in to a and remove the eye space. black would then be
on the run for life between two white groups];B[rf];W[qg];B[qf]
C[Now white is in a stronger position to continue];W[qn]))
(;B[qh]C[this makes the top safer])
(;B[qm]C[this leaves less room for white so makes the bottom corner safer and it
still puts pressure on white]))
(;B[qb]C[this would be OK for Black]))
