(;FF[4]GM[1]SZ[19]AP[SGFC:1.13b]

PB[mesum]
BR[6k]
HA[0]
PW[tsutom]
WR[6k*]
KM[5.5]
RE[B+2.5]

C[I'm 6k, playing on Igs. I was playing black and won the game by 3.5 pts.
My question is on the direction of my moves, I need to known where were my big direction mistakes....
Are the 39, 51, 47, 85, 97 moves in the right place?
What are the moves that I left?
  Thanks to the reviewer of my game.
(I speak french too)];B[pp];W[dd];B[cp];W[qd];B[dj];W[ep];B[eq]
C[The usual idea for black is to play the two-space high pincer when he already has a stone at D10.]
;W[fq];B[dq];W[gp];B[fo]C[D5 would be a simpler alternative. This might be also ok if you know the variations ...]
;W[eo];B[fn]C[F2 is the correct continuation (see Ishida Yoshio, Dictionary of Basic Joseki, part 2, p. 14).]
;W[fp];B[dn];W[kq];B[oc];W[ld];B[pe];W[qe];B[pf];W[qg];B[qf]
C[This move is bad. According to Ishida (part 1, p. 135) you should play a counter-pincer at K16.]
;W[rf];B[rg];W[rh];B[re];W[sg]C[The pon-nuki is a major advantage for white.]
;B[qc];W[rd];B[rc];W[pd];B[od];W[pc];B[pb];W[se];B[nb]C[The cutting point at P15 is more important than the two stones in the corner.]
;W[pg]C[If white wants to play in this area, he should cut at P15. Another idea would be to play the kakari at O3, driving black against the white thickness. White is already strong on the right, so the value of this move is quite small.]
;B[qm]C[It is natural that you want to do something to eliminate white's thickness.]
;W[nq];B[oq]C[You should play at Q3 to secure the corner.];W[qk]
C[This is the wrong direction. O4 is much more important, and the corner is open anyway. This move makes only about 5 points!]
;B[np]C[Good.];W[mq];B[or];W[ip];B[cf]C[Good!];W[fc];B[bd];W[cc]
;B[ic]C[Once you exchange B16 for C17, you must add a stone at D12 or E14. Black can only afford the the wide extension C14-D10 due to the fact that he gets the invasion at C17 as compensation if white invades at C12. After this exchange, you won't get sufficient compensation, so you should defend.]
;W[ch]C[Good.];B[bc];W[eh];B[bj];W[bb];B[ef];W[gh];B[bh];W[bg]
;B[cg];W[bi];B[dh];W[ci];B[di];W[cj];B[ck];W[ah];B[bk];W[bf]
;B[ce];W[af];B[gj]C[This move does not look very urgent. Instead, you should play around K14 too take the initiative at the top.]
;W[co];B[do];W[dp];B[bp];W[en];B[dm];W[em];B[el];W[fl];B[ek]
;W[gm];B[db]C[This move is ok if you intend to attack white by robbing his base.]
;W[eb]
(;B[ec]C[You should cut at C18 and take the corner. Although this looks like being gote, you could look forward attackong the white stones.]
;W[ed];B[fb];W[dc];B[gb];W[da];B[ab];W[gd];B[ie];W[gf];B[me]
C[Wheter this is the right direction is hard to tell. It looks a bit like an overplay because you are pushing white against your weakness. However, the way white answered justified your move.]
;W[kf];B[ke]
(;W[le];B[lf];W[lg]C[Aji-keshi. After black secures the top, he has a slight lead and more potential to build further territory.]
;B[mf];W[je];B[kd];W[jd];B[kc];W[jf];B[jc];W[id];B[er];W[fr]
;B[nm]C[This is an important move, removing the aji in the corner and reducing the value of a white move at M6.]
;W[es];B[cr];W[og];B[mg];W[hc];B[hb];W[rm];B[rn];W[ql];B[qn]
;W[sl];B[fe];W[ge];B[gc];W[fd];B[hd];W[he];B[mh];W[eg];B[dg]
;W[lo];B[ls];W[lr];B[ms];W[ks];B[ns];W[km];B[oi];W[pi];B[oj]
;W[pj];B[kk];W[ki];B[jl];W[jm];B[il];W[im];B[kh];W[jh];B[li]
;W[ii];B[kj];W[ji];B[mn];W[ok];B[ln];W[kn];B[nk];W[ll];B[lj]
;W[mk];B[ol];W[mj];B[oe];W[sn];B[so];W[ro];B[sm];W[dl];B[cl]
;W[sn];B[aj];W[ai];B[sm];W[cm];B[dk];W[sn];B[rp];W[sp];B[rq]
;W[qo];B[po];W[pl];B[pm];W[nj];B[nl];W[nh];B[pk];W[cn];B[dl]
;W[ok];B[qp];W[pk];B[so];W[ro];B[sq];W[so];B[qo];W[sm];B[ds]
;W[fs];B[mo];W[lp];B[kg];W[jg];B[lh];W[ee];B[ff];W[fg];B[df]
;W[gi];B[hl];W[hm];B[ba];W[cb];B[aa];W[sc];B[sb];W[sd];B[rb]
;W[hj];B[gk];W[mp];B[gl];W[ij];B[fm];W[gn];B[fk];W[go];B[fl]
;W[fi];B[ng];W[mi];B[ml];W[lk];B[lm];W[kl];B[jk];W[of];B[nf]
;W[no];B[nn];W[op];B[oo];W[np];B[nr];W[fa];B[ga];W[hc];B[ib]
;W[hd];B[ea];W[ac];B[ad];W[fa];B[sk];W[rl];B[ea];W[ca];B[ac]
;W[fa];B[oh];W[ni];B[ea];W[cs];B[bs];W[fa];B[kr];W[jr];B[ea]
;W[pq];B[pr];W[fa];B[js];W[is];B[ea];W[cq];B[bq];W[fa];B[ei]
;W[fj];B[ea];W[cd];B[be];W[fa];B[gg];W[hg];B[ea];B[tt];B[fa]
)
(;W[jd]C[I would try this move, but I can't read out all the variations.]
;B[je];W[id];B[hd];W[hc];B[he];W[kd];B[hb];W[gc];B[jc];W[le]
;B[lf];W[mf];B[lg];W[md];B[ne];W[kb];B[kc];W[lc];B[jb];W[ja]
;B[ib];W[lb]))
(;B[cb];W[dc];B[ba];W[ab];B[ac];W[da];B[aa]))
