(;
C[ 34'th Oza title, Game 2
 White: Rin Kaiho
 Black: Kato Masao
 
 Played on October 16, 1986
 
 White resigns after Black 209
 
 Commentary available in Go World #48, Summer 1987]

;B[qd];W[dd];B[pp];W[dq];B[oc];W[qj];B[co];W[dl];B[dn];W[fp]
;B[bq];W[jq];B[qh];W[qn];B[ql];W[on];B[nq];W[rp];B[qq];W[pk]
;B[cj];W[ek];B[cf];W[gc];B[dh];W[fn];B[cc];W[dc];B[cd];W[de]
;B[ce];W[kd];B[ic];W[nc];B[gd];W[fd];B[hc];W[ge];B[hd];W[pc]
;B[pd];W[ob];B[od];W[qc];B[fc];W[mb];B[rc];W[rb];B[qb];W[pb]
;B[sb];W[ff];B[ra];W[lq];B[rq];W[ie];B[he];W[hf];B[if];W[hg]
;B[ed];W[fe];B[ec];W[db];B[gb];W[df];B[rn];W[ro];B[rm];W[po]
;B[pl];W[ol];B[ok];W[oj];B[nk];W[nl];B[nj];W[oi];B[ni];W[oh]
;B[nh];W[rk];B[og];W[rl];B[lc];W[mf];B[lb];W[ng];B[lg];W[lf]
;B[kg];W[jf];B[ml];W[ld];B[mm];W[nn];B[jm];W[jk];B[jj];W[kj]
;B[ji];W[kl];B[ki];W[ih];B[ik];W[nr];B[mr];W[mq];B[or];W[jl]
;B[il];W[km];B[kn];W[ln];B[im];W[jn];B[ko];W[lm];B[hj];W[jo]
;B[io];W[jp];B[lk];W[jb];B[jc];W[kc];B[kb];W[ib];B[hb];W[mc]
;B[ia];W[br];B[cq];W[cr];B[dp];W[eq];B[go];W[fo];B[bl];W[dj]
;B[di];W[ei];B[ck];W[pg];B[of];W[rg];B[qg];W[rh];B[mn];W[lo]
;B[rf];W[qf];B[pf];W[qi];B[ph];W[sf];B[re];W[in];B[hn];W[hp]
;B[ns];W[aq];B[ap];W[ar];B[bo];W[bb];B[cb];W[ca];B[bc];W[kk]
;B[lj];W[ho];B[js];W[kr];B[ks];W[ls];B[lr];W[is];B[ms];W[jr]
;B[sq];W[sp];B[qp];W[qo];B[je];W[kf];B[eh];W[fi];B[fh];W[gi]
;B[gh];W[hi];B[dk];W[dg];B[cg];W[gl];B[fk];W[el];B[fl];W[gk]
;B[fm];W[gm];B[gj];W[em];B[fj];W[ej];B[en];W[jg];B[ne])
