(;
FF[3]
ID[ 1/3]
PB[Fujisawa Shuko]
BR[9d]
PW[Hashimoto Utaro]
WR[9d]
TM[9h]
KM[5.5]
RE[B+1.5]
DT[1977-01-12,13]
PC[Osaka]

;B[pd];W[dc];B[dp];W[qq];B[ce];W[ci];B[cm];W[fd];B[np];W[qo]
;B[jq];W[cd];B[ei];W[eh];B[bd];W[bc];B[fh];W[dh];B[fg];W[fi]
;B[ej];W[gi];B[ed];W[ec];B[fe];W[dk];B[gd];W[fc];B[ek];W[dl]
;B[gk];W[dm];B[cn];W[bl];B[hh];W[hj];B[il];W[jj];B[hk];W[de]
;B[df];W[ef];B[ee];W[dd];B[eg];W[cf];B[ff];W[cg];B[pj];W[og]
;B[nd];W[he];B[hf];W[oi];B[qh];W[oj];B[pk];W[ok];B[pl];W[hd]
;B[pp];W[ii];B[ge];W[hc];B[jg];W[kl];B[qp];W[rp];B[ro];W[rq]
;B[po];W[or];B[lj];W[kj];B[gc];W[gb];B[ll];W[li];B[lk];W[jl]
;B[mi];W[mh];B[lh];W[ki];B[nh];W[mg];B[ni];W[ng];B[oh];W[ph]
;B[pg];W[pi];B[mj];W[qg];B[pf];W[rh];B[lg];W[qf];B[qe];W[qj]
;B[rk];W[re];B[rd];W[sf];B[ik];W[jn];B[rj];W[ri];B[hi];W[lm]
;B[mm];W[ln];B[nr];W[oq];B[nq];W[qn];B[rn];W[nm];B[ol];W[me]
;B[md];W[lf];B[kf];W[ke];B[je];W[kd];B[mf];W[of];B[le];W[pe]
;B[nl];W[ij];B[im];W[jm];B[ko];W[jo];B[hq];W[kp];B[lo];W[ho]
;B[gj];W[jp];B[mn];W[op];B[oo];W[pq];B[kn];W[iq];B[ir];W[ip]
;B[ib];W[hb];B[jd];W[qd];B[pc];W[jc];B[ic];W[jb];B[id];W[ia]
;B[eq];W[ie];B[jf];W[jr];B[hr];W[dn];B[co];W[no];B[on];W[bm]
;B[bn];W[lc];B[os];W[ps];B[ns];W[rs];B[kq];W[lp];B[kr];W[fo]
;B[mc];W[rc];B[rb];W[mo];B[km];W[mp];B[lq];W[sb];B[qc];W[sd]
;B[lb];W[qb];B[pb];W[mb];B[nb];W[ra];B[gn];W[go];B[fn];W[in]
;B[hn];W[hp];B[cl];W[ck];B[el];W[gq];B[gr];W[fq];B[fr];W[ep]
;B[dq];W[nn];B[qm];W[om];B[pn];W[ne];B[qk];W[dg];B[dj];W[bj]
;B[eo];W[fp];B[am];W[al];B[an];W[en];B[em];W[do];B[ih];W[od]
;B[oc];W[mq];B[mr];W[if];B[ig];W[kc];B[ma];W[nk];B[ld];W[fb]
;B[kb];W[ja];B[ka];W[ha];B[qi];W[qj];B[qi];W[mk];B[ml];W[pa]
;B[oa];W[kh];B[qa];W[lm];B[ln];W[pa];B[sp];W[sq];B[so];W[sj]
;B[sk];W[si];B[jh];W[qa];B[ef];W[oe])
