(;GM[1]RO[1]PB[Otake Hideo]PW[Cho Chikun]DT[1980-09-10,11]PC[Tokyo]RE[W+R]ID[80/1]SZ[19]FF[3]BS[0]WS[0]BR[9 Dan]WR[8 Dan];B[qd];W[dd];B[pq];W[od];B[oc];W[nc];B[pc];W[md];B[ne]
;W[me];B[nb];W[mb];B[nd];W[mc];B[nf];W[mg];B[mf];W[lf];B[lg]
;W[mh];B[kf];W[le];B[kg];W[id];B[ki];W[mj];B[kk];W[pn];B[ol]
;W[pl];B[ok];W[pk];B[om];W[pm];B[oj];W[ph];B[pi];W[qi];B[oh]
;W[og];B[oe];W[qg];B[ng];W[nq];B[dp];W[dj];B[cl];W[fd];B[dh]
;W[jp];B[fq];W[ek];B[fh];W[gj];B[hf];W[jj];B[kj];W[hh];B[cd]
;W[ce];B[de];W[dc];B[bj];W[be];B[hd];W[hc];B[jd];W[jc];B[ie]
;W[ic];B[cj];W[em];B[dn];W[qp];B[pp];W[no];B[nr];W[mr];B[or]
;W[mm];B[qj];W[pj];B[oi];W[rq];B[on];W[po];B[oo];W[mq];B[rr]
;W[sr];B[op];W[re];B[hp];W[hm];B[rd];W[rf];B[jq];W[kq];B[iq]
;W[km];B[jk];W[en];B[eo];W[fo];B[fp];W[go];B[hk];W[ho];B[ip]
;W[io];B[ll];W[kr];B[gk];W[co];B[do];W[cp];B[cq];W[fj];B[jo]
;W[kp];B[lm];W[ln];B[mn];W[kn];B[mo];W[bh];B[bg];W[cg];B[ch]
;W[bf];B[hj];W[hs];B[hr];W[is];B[gs];W[jr];B[ir];W[js];B[gq]
;W[bq];B[cr];W[bm];B[br];W[bl];B[cm];W[bi];B[ck];W[cn];B[ao]
;W[gi];B[ci];W[ob];B[pb];W[na];B[kd];W[qr];B[qq];W[ro];B[gm]
;W[fl];B[gl];W[gn];B[ei];W[ej];B[ri];W[qh];B[rj];W[rk];B[kc]
;W[kb];B[lo];W[ko];B[ih];W[np];B[nn];W[gd];B[im];W[il];B[jm]
;W[jl];B[hl];W[jn];B[hn];W[in];B[hm];W[kl];B[he];W[hg];B[ig]
;W[ik];B[ij];W[rh];B[ee];W[sd];B[sc];W[se];B[rb];W[pf];B[dg]
;W[ag];B[ai];W[pe];B[pd];W[ff];B[qe];W[qf];B[df];W[cf];B[pa]
;W[ed];B[oa];W[nb])