(
;
EV[51st Honinbo title]
RO[4]
PB[Ryu Shikun]
BR[7 dan]
PW[Cho Chikun]
WR[9 dan]
KM[5.5]
DT[1996-06-19/20]
PC[Japan]
RE[W+R]
;
B[pd];W[dd];B[cp];W[pq];B[qo];
W[np];B[qk];W[eq];B[gq];W[do];B[co];W[dn];B[cm];W[iq];B[ip];W[jq];
B[go];W[dm];B[cl];W[dl];B[dk];W[ek];B[dj];W[cn];B[bn];W[bo];B[bp];
W[gm];B[hq];W[jp];B[in];W[io];B[ho];W[hp];B[fo];W[dp];B[hm];W[gk];
B[dh];W[il];B[jn];W[hl];B[km];W[cf];B[ej];W[bh];B[bk];W[kk];B[nn];
W[lo];B[jk];W[kl];B[ln];W[ko];B[ll];W[lk];B[ml];W[mk];B[nk];W[nj];
B[ok];W[qp];B[cc];W[cd];B[dc];W[ec];B[eb];W[fb];B[fc];W[ed];B[gb];
W[db];B[fa];W[cb];B[rp];W[po];B[pn];W[qn];B[ro];W[rq];B[oo];W[pp];
B[rn];W[nc];B[ob];W[jc];B[nb];W[hc];B[fd];W[he];B[ff];W[qf];B[qe];
W[pf];B[ne];W[nf];B[mf];W[me];B[ng];W[of];B[od];W[im];B[hn];W[le];
B[lf];W[kf];B[kg];W[jf];B[mh];W[oh];B[mj];W[oj];B[ki];W[qi];B[jg];
W[jj];B[hg];W[lc];B[rf];W[rg];B[re];W[rk];B[rl];W[nd];B[fk];W[fl];
B[el];W[em];B[fn];W[ek];B[bc];W[bb];B[el];W[fj];B[ek];W[fm];B[hj];
W[ij];B[gj];W[hk];B[if];W[ih];B[hh];W[cq];B[bq];W[cr];B[ie];W[qj];
B[pk];W[jd];B[pj];W[pi];B[ni];W[oi];B[oe];W[sj];B[ig];W[mb];B[br];
W[ir];B[hb];W[ib];B[md];W[je];B[ld];W[ke];B[hd];W[bj];B[cg];W[bg];
B[df];W[ce];B[ka];W[la];B[ia];W[kb];B[oc];W[mc];B[hr];W[mo];B[sq];
W[sr];B[sp];W[qr];B[da];W[mn];B[mm];W[cj];B[ck];W[ee]
)
