(
;
EV[52nd Honinbo title]
RO[3rd game]
PB[Kato Masao]
BR[9 dan]
PW[Cho Chikun]
WR[9 dan]
KM[5.5]
DT[2/3 June 1997]
PC[Japan]
RE[W+16.5]

;B[qd];W[dc];B[dp];W[qp];B[ce];W[ed];B[oc];W[oq];B[ci];W[qj]
;B[jp];W[jc];B[qh];W[hq];B[io];W[ho];B[hn];W[go];B[in];W[dn]
;B[en];W[cq];B[dq];W[cp];B[do];W[co];B[em];W[jq];B[kq];W[jr]
;B[cn];W[bn];B[dm];W[bm];B[oo];W[pn];B[nq];W[ip];B[kp];W[nr]
;B[or];W[mq];B[np];W[pr];B[ql];W[gn];B[gm];W[qe];B[pd];W[ol]
;B[mr];W[os];B[pk];W[kn];B[lm];W[ln];B[mn];W[mm];B[ml];W[nm]
;B[km];W[pi];B[ok];W[nk];B[nj];W[mk];B[ph];W[oi];B[rj];W[rk]
;B[qk];W[ri];B[qi];W[pj];B[sj];W[si];B[nh];W[oh];B[og];W[pg]
;B[ni];W[sk];B[rj];W[sj];B[oj];W[rj];B[qg];W[pf];B[qf];W[pe]
;B[re];W[ng];B[of];W[oe];B[nf];W[ne];B[mf];W[rf];B[rg];W[jm]
;B[lk];W[sg];B[sf];W[rh];B[sh];W[hm];B[im];W[sg];B[ir];W[rf]
;B[iq];W[lj];B[mj];W[nl];B[kk];W[kj];B[jk];W[ll];B[jg];W[kl]
;B[il];W[lf];B[mg];W[df];B[cf];W[cr];B[dr];W[lr];B[kr];W[ds]
;B[es];W[cs];B[er];W[dg];B[cg];W[if];B[ig];W[hf];B[hg];W[gg]
;B[jf];W[je];B[ke];W[jd];B[gh];W[fg];B[bc];W[mp];B[mb];W[bb]
;B[cc];W[cb];B[kb];W[jb];B[ei];W[ck];B[cl];W[bl];B[bj];W[bk]
;B[de];W[ee];B[ja];W[ia];B[ka];W[hb];B[le];W[ek];B[fk];W[rd]
;B[rc];W[se];B[rm];W[sc];B[rb];W[qm];B[qn];W[pm];B[rl];W[rn]
;B[ab];W[sb];B[dd];W[eb];B[ra];W[lc];B[lb];W[sn];B[ej];W[fh]
;B[fi];W[dh];B[cj];W[nc];B[nb];W[od];B[pc];W[dk];B[cm];W[ch]
;B[bh];W[me];B[mc];W[ld];B[kf];W[aj];B[ai];W[ak];B[el];W[ko]
;B[lp];W[lo];B[lq];W[ms];B[jl];W[jn];B[eh];W[eg];B[nd];W[md]
;B[nc];W[ls];B[ks];W[jo];B[hp];W[ba]
)
