(;
FF[3]
RO[5]
ID[32/5]
PB[Kobayashi Koichi]
BR[Meijin]
PW[Otake Hideo]
WR[Judan]
KM[5.5]
RE[W+R]
DT[1994-04-27]
PC[Urayasu]

;B[pd];W[dp];B[pq];W[dd];B[qo];W[kq];B[cn];W[fp];B[bp];W[cq]
;B[ck];W[nc];B[qf];W[pb];B[qc];W[kc];B[mq];W[ko];B[pj];W[ne]
;B[cf];W[fd];B[cc];W[cd];B[bd];W[be];B[bb];W[ad];B[bc];W[ce]
;B[fb];W[ci];B[en];W[bq];B[di];W[dh];B[dj];W[ch];B[mo];W[qh]
;B[jp];W[kp];B[hp];W[oh];B[qb];W[km];B[hn];W[nj];B[gq];W[fq]
;B[fr];W[er];B[ln];W[kn];B[mk];W[kk];B[mj];W[oj];B[ql];W[fn]
;B[fm];W[em];B[gm];W[dn];B[dm];W[eo];B[el];W[fi];B[en];W[pl]
;B[ll];W[lm];B[mm];W[nl];B[ml];W[kl];B[pk];W[em];B[pi];W[pf]
;B[qe];W[ol];B[qm];W[mh];B[ph];W[pg];B[qg];W[fk];B[en];W[nn]
;B[mn];W[em];B[gj];W[fj];B[en];W[hl];B[li];W[em];B[ji];W[cm]
;B[en];W[bn];B[do];W[co];B[jq];W[dn];B[hr];W[fs];B[gk];W[gl]
;B[fl];W[ij];B[gi];W[gh];B[fh];W[gg];B[ik];W[il];B[hi];W[ii]
;B[ih];W[hk];B[hh];W[eh];B[jj];W[jk];B[hj];W[io];B[in];W[jo]
;B[ho];W[jr];B[ir];W[ip];B[iq];W[kr];B[lr];W[dl];B[ek];W[cl]
;B[dk];W[bk];B[jm];W[gr];B[jl];W[js];B[is];W[cj];B[kj];W[ei])
