(;
FF[3]
ID[ 3/1]
PB[Handa Dogen]
BR[10d]
PW[Fujisawa Hosai]
WR[9d]
KM[5.5]
RE[W+7.5]
DT[1964-12-08,09]

;B[qd];W[dc];B[pq];W[cp];B[od];W[ep];B[de];W[po];B[cc];W[qq]
;B[dd];W[pp];B[oq];W[ec];B[cb];W[qr];B[qj];W[cj];B[jq];W[jc]
;B[mp];W[cg];B[hc];W[fd];B[fe];W[gd];B[jd];W[be];B[bd];W[ge]
;B[kc];W[ce];B[cd];W[ef];B[ic];W[ff];B[bg];W[cf];B[ad];W[ql]
;B[gq];W[qh];B[pl];W[qm];B[dk];W[dj];B[fk];W[dl];B[oi];W[og]
;B[el];W[ck];B[dm];W[ek];B[cl];W[gp];B[dk];W[ej];B[fp];W[fo]
;B[fq];W[eo];B[hl];W[hp];B[hq];W[ip];B[iq];W[qc];B[pc];W[qe]
;B[rd];W[pe];B[pd];W[lp];B[lq];W[np];B[lo];W[eq];B[qi];W[ph]
;B[mi];W[mf];B[co];W[bo];B[nq];W[ld];B[lc];W[md];B[oe];W[of]
;B[mc];W[nj];B[oj];W[gl];B[gm];W[gk];B[fm];W[hk];B[hn];W[ni]
;B[nh];W[mj];B[oh];W[mh];B[mg];W[li];B[ng];W[nf];B[lg];W[je]
;B[jg];W[kd];B[id];W[ie];B[nl];W[il];B[jm];W[gn];B[hm];W[jl]
;B[ki];W[kj];B[ji];W[jj];B[ih];W[db];B[ca];W[im];B[in];W[jn]
;B[jp];W[km];B[io];W[go];B[jo];W[mo];B[kp];W[re];B[se];W[sf]
;B[sd];W[rg];B[qk];W[ns];B[pm];W[pn];B[gh];W[nk];B[hf];W[nd]
;B[nc];W[ml];B[eh];W[bh];B[he];W[eg];B[bp];W[cn];B[cq];W[do]
;B[dr];W[er];B[br];W[bl];B[cm];W[bm];B[fr];W[es];B[aq];W[ds]
;B[cr];W[kf];B[kg];W[ao];B[ap];W[cs];B[bs];W[gb];B[gc];W[fc]
;B[hb];W[rl];B[rk];W[ol];B[pk];W[sl];B[mr];W[fb];B[lm];W[hd]
;B[jb];W[hi];B[hh];W[ln];B[mn];W[kn];B[no];W[mm];B[ri];W[fh]
;B[fi];W[fg];B[gi];W[ei];B[pr];W[ps];B[lf];W[rh];B[sh];W[qf]
;B[ee];W[gf];B[lh];W[if];B[mi];W[lj];B[hg];W[fs];B[gs];W[ab]
;B[bb];W[nn];B[si];W[sg];B[om];W[nm];B[ae];W[af];B[ij];W[hj]
;B[ii];W[ik];B[op];W[fl];B[fj];W[dl];B[em];W[ms];B[ls];W[os]
;B[qp];W[rp];B[df];W[dg];B[da];W[ea];B[ac];W[ok];B[pi];W[ha]
;B[ia];W[ga];B[dq];W[sk];B[mo];W[on];B[sj])
