(;
EV[21st Judan title]
RO[2]
PB[Kato Masao]
BR[9d]
PW[Cho Chikun]
WR[9d]
KM[5.5]
RE[B+0.5]
DT[1983-03-25]
PC[Kyoto, Japan]

;B[pd];W[cc];B[pq];W[cp];B[ep];W[qo];B[pl];W[pn];B[mp];W[rq]
;B[cq];W[kq];B[lo];W[hq];B[dp];W[co];B[dr];W[cl];B[lr];W[lq]
;B[mq];W[kr];B[dd];W[cd];B[de];W[eb];B[ce];W[cj];B[gd];W[fd]
;B[fe];W[fc];B[he];W[gf];B[ge];W[hc];B[qm];W[qr];B[ro];W[pp]
;B[ic];W[qf];B[qh];W[qc];B[qd];W[pc];B[od];W[rd];B[re];W[rc]
;B[qe];W[nc];B[gc];W[gb];B[hb];W[ha];B[ib];W[pi];B[ph];W[ni]
;B[oh];W[nl];B[om];W[ll];B[mm];W[nm];B[on];W[nn];B[oo];W[op]
;B[no];W[mn];B[rp];W[qp];B[qn];W[oq];B[nr];W[ho];B[jo];W[fr]
;B[jm];W[jk];B[dn];W[cm];B[hm];W[oi];B[li];W[mj];B[rj];W[ji]
;B[lm];W[ln];B[kn];W[kl];B[km];W[ki];B[ml];W[mk];B[lh];W[lj]
;B[gq];W[gr];B[jq];W[ir];B[pr];W[or];B[os];W[sp];B[rn];W[ps]
;B[qs];W[rs];B[ps];W[qq];B[ns];W[sr];B[bi];W[ci];B[dc];W[db]
;B[bj];W[ch];B[bh];W[bk];B[dk];W[ck];B[gp];W[hp];B[go];W[jp]
;B[kp];W[ip];B[cg];W[bq];B[br];W[bp];B[bd];W[bc];B[ok];W[nk]
;B[ij];W[ik];B[hk];W[jg];B[ih];W[lg];B[mg];W[kg];B[lc];W[mc]
;B[lb];W[mh];B[nh];W[kh];B[el];W[ei];B[mf];W[fk];B[fl];W[hn]
;B[gn];W[gk];B[hl];W[se];B[sf];W[sd];B[rf];W[nb];B[me];W[qi]
;B[ri];W[dg];B[bf];W[ad];B[ae];W[be];B[oc];W[ob];B[bd];W[ac]
;B[eg];W[gi];B[gh];W[fh];B[hi];W[gg];B[gj];W[hh];B[fj];W[ej]
;B[ek];W[be];B[jr];W[ls];B[mr];W[js];B[bd];W[je];B[cn];W[bn]
;B[aq];W[ap];B[ar];W[do];B[eo];W[dm];B[en];W[al];B[ii];W[be]
;B[ao];W[bo];B[bd];W[eq];B[dq];W[be];B[lp];W[iq];B[bd];W[fi]
;B[hj];W[be];B[dh];W[af];B[ag];W[jc];B[jb];W[kc];B[kb];W[po]
;B[id];W[oj];B[ol];W[ke];B[jj];W[kj];B[ae];W[qj];B[qk];W[af]
;B[so];W[sq];B[ae];W[em];B[fm];W[af];B[ia];W[ga];B[ae];W[ec]
;B[bd];W[ig];B[hf];W[hg];B[in];W[mb];B[ma];W[na];B[la];W[be]
;B[er];W[fq];B[bd];W[fp];B[nd];W[be];B[pb];W[qb];B[bd];W[eh]
;B[df];W[be];B[pa];W[qa];B[bd];W[fo];B[fn];W[es];B[ds];W[fs]
;B[il];W[jl];B[aj];W[be];B[md];W[oa];B[bd];W[np];B[mo];W[be]
;B[pb];W[pa];B[bd];W[ff];B[if];W[jf];B[lf];W[be];B[jd];W[kd]
;B[bd];W[ie];B[ee];W[be];B[hs];W[hr];B[bd])
