(;US[JBvR]SO[Cho Chikun Internet Book]CP[My Friday Night Files, 2002]AP[SGFcv.py:0.3]GM[1]FF[4]DT[1991-04-04]
PB[Cho Chikun]
PW[Takemiya Masaki]
RE[B+3.5]
KM[5.5]
EV[Judan, 29th, match]
RO[3]
BR[9d]
WR[9d]

;B[qd]
;W[dp]
;B[pq]
;W[dd]
;B[oc]
;W[po]
;B[qm]
;W[qq]
;B[pp]
;W[qp]
;B[qo]
;W[pr]
;B[oo]
;W[pn]
;B[ro]
;W[nq]
;B[op]
;W[on]
;B[or]
;W[qr]
;B[oq]
;W[mo]
;B[mp]
;W[pl]
;B[ql]
;W[np]
;B[no]
;W[nn]
;B[nr]
;W[mq]
;B[mr]
;W[lq]
;B[kq]
;W[lp]
;B[lr]
;W[qk]
;B[rp]
;W[qn]
;B[rn]
;W[rk]
;B[mn]
;W[rq]
;B[pk]
;W[pm]
;B[rm]
;W[rl]
;B[pj]
;W[qj]
;B[nm]
;W[ol]
;B[nk]
;W[mm]
;B[ri]
;W[sp]
;B[ln]
;W[lm]
;B[kn]
;W[nl]
;B[lk]
;W[ml]
;B[qi]
;W[sm]
;B[jo]
;W[le]
;B[nf]
;W[id]
;B[cf]
;W[fd]
;B[bd]
;W[cc]
;B[ci]
;W[pi]
;B[ph]
;W[oi]
;B[oh]
;W[lc]
;B[fq]
;W[eq]
;B[er]
;W[dr]
;B[fr]
;W[cn]
;B[cl]
;W[fp]
;B[gp]
;W[fo]
;B[ni]
;W[go]
;B[hp]
;W[nb]
;B[nc]
;W[ob]
;B[pb]
;W[pc]
;B[qc]
;W[mc]
;B[bm]
;W[bn]
;B[bc]
;W[dh]
;B[ch]
;W[df]
;B[ce]
;W[de]
;B[di]
;W[eh]
;B[jg]
;W[mk]
;B[ok]
;W[ho]
;B[ip]
;W[lg]
;B[mj]
;W[km]
;B[jm]
;W[jl]
;B[kh]
;W[im]
;B[jn]
;W[if]
;B[jf]
;W[je]
;B[ig]
;W[hf]
;B[bb]
;W[cb]
;B[ca]
;W[da]
;B[ba]
;W[db]
;B[an]
;W[ao]
;B[am]
;W[bp]
;B[el]
;W[nd]
;B[pd]
;W[oe]
;B[pf]
;W[gh]
;B[ds]
;W[cs]
;B[es]
;W[cr]
;B[jk]
;W[kl]
;B[kf]
;W[lf]
;B[ik]
;W[of]
;B[og]
;W[ej]
;B[oa]
;W[od]
;B[pc]
;W[mb]
;B[hh]
;W[gi]
;B[hg]
;W[gg]
;B[ei]
;W[kk]
;B[kj]
;W[ek]
;B[dl]
;W[fm]
;B[lh]
;W[gq]
;B[gr]
;W[hj]
;B[ij]
;W[fl]
;B[ke]
;W[kd]
;B[rj]
;W[so]
;B[hk]
;W[hi]
;B[ii]
;W[mg]
;B[md]
;W[me]
;B[ne]
;W[ld]
;B[pe]
;W[md]
;B[ng]
;W[kr]
;B[jr]
;W[io]
;B[jp]
;W[mh]
;B[fi]
;W[mi]
;B[li]
;W[nh]
;B[oj]
;W[cg]
;B[bg]
;W[dg]
;B[dk]
;W[cm]
;B[bl]
;W[na]
;B[pa]
;W[os]
;B[ns]
;W[ps]
;B[sk]
;W[sn]
;B[fh]
;W[fg]
;B[dm]
;W[dn]
;B[em]
;W[en]
;B[fk]
;W[fj]
;B[gk]
;W[gj]
;B[gm]
;W[dj]
;B[cj])