(;US[JBvR]SO[Cho Chikun Internet Book]CP[My Friday Night Files, 2002]AP[SGFcv.py:0.3]GM[1]FF[4]DT[1991-04-25]
PB[Cho Chikun]
PW[Takemiya Masaki]
RE[W+R]
KM[5.5]
EV[Judan, 29th, match]
RO[5]
BR[9d]
WR[9d]

;B[pd]
;W[dp]
;B[pq]
;W[dd]
;B[qo]
;W[jp]
;B[cn]
;W[cl]
;B[cq]
;W[dq]
;B[cp]
;W[do]
;B[bn]
;W[em]
;B[fc]
;W[hc]
;B[cf]
;W[fd]
;B[gd]
;W[gc]
;B[cc]
;W[cd]
;B[ed]
;W[fe]
;B[ee]
;W[ec]
;B[dc]
;W[fb]
;B[eb]
;W[fc]
;B[bd]
;W[ef]
;B[de]
;W[nd]
;B[pf]
;W[pc]
;B[qc]
;W[oc]
;B[lp]
;W[qb]
;B[pi]
;W[oo]
;B[ln]
;W[oq]
;B[pp]
;W[op]
;B[pm]
;W[om]
;B[pl]
;W[pr]
;B[fq]
;W[lq]
;B[fo]
;W[dn]
;B[kq]
;W[kp]
;B[lr]
;W[mq]
;B[jq]
;W[ip]
;B[iq]
;W[lo]
;B[hp]
;W[ho]
;B[mr]
;W[mp]
;B[nr]
;W[gp]
;B[hq]
;W[go]
;B[or]
;W[ol]
;B[ok]
;W[nk]
;B[nj]
;W[pn]
;B[qn]
;W[oj]
;B[pk]
;W[mj]
;B[ni]
;W[mi]
;B[ei]
;W[dh]
;B[di]
;W[ci]
;B[cj]
;W[bj]
;B[ch]
;W[bi]
;B[eh]
;W[dg]
;B[ff]
;W[df]
;B[ce]
;W[fg]
;B[gf]
;W[eg]
;B[gg]
;W[fh]
;B[gi]
;W[fi]
;B[fj]
;W[ej]
;B[dj]
;W[gj]
;B[ek]
;W[gh]
;B[gk]
;W[hi]
;B[cg]
;W[hk]
;B[hl]
;W[ih]
;B[ik]
;W[hj]
;B[mk]
;W[nl]
;B[fm]
;W[fl]
;B[el]
;W[gm]
;B[gl]
;W[fn]
;B[jl]
;W[dl]
;B[dk]
;W[bl]
;B[jj]
;W[ki]
;B[kj]
;W[im]
;B[il]
;W[nh]
;B[oi]
;W[mh]
;B[ji]
;W[jh]
;B[li]
;W[kh]
;B[nf]
;W[kl]
;B[lj]
;W[mf]
;B[kk]
;W[ll]
;B[ij]
;W[dr]
;B[mg]
;W[lf]
;B[cr]
;W[qd]
;B[ne]
;W[me]
;B[lh]
;W[lg]
;B[qe]
;W[rc]
;B[rd]
;W[ng]
;B[qc]
;W[jm]
;B[lk]
;W[ml]
;B[md]
;W[qd]
;B[mc]
;W[od]
;B[jc]
;W[lb]
;B[hg]
;W[hh]
;B[ic]
;W[mb]
;B[jf]
;W[if]
;B[ie]
;W[he])