(;US[JBvR]SO[Cho Chikun Internet Book]CP[My Friday Night Files, 2002]AP[SGFcv.py:0.3]GM[1]FF[4]PB[Cho Chikun]
PW[Takemiya Masaki]
RE[B+R]
DT[1991-03-14]
EV[Judan, 29th, match]
RO[1]
BR[9d]
WR[9d]
KM[5.5]

;B[qd]
;W[dp]
;B[cn]
;W[fp]
;B[bp]
;W[od]
;B[cq]
;W[pf]
;B[pp]
;W[dd]
;B[ip]
;W[fm]
;B[qf]
;W[pg]
;B[oc]
;W[nc]
;B[pc]
;W[nd]
;B[qg]
;W[ph]
;B[id]
;W[gd]
;B[if]
;W[kp]
;B[mq]
;W[ih]
;B[ld]
;W[qe]
;B[re]
;W[pe]
;B[rg]
;W[kg]
;B[lb]
;W[ob]
;B[pb]
;W[ke]
;B[le]
;W[lf]
;B[gc]
;W[fc]
;B[hc]
;W[fb]
;B[je]
;W[dl]
;B[be]
;W[cf]
;B[bf]
;W[cg]
;B[bg]
;W[ch]
;B[cc]
;W[cd]
;B[bd]
;W[cb]
;B[bb]
;W[dc]
;B[bc]
;W[lo]
;B[in]
;W[ho]
;B[io]
;W[kn]
;B[il]
;W[kk]
;B[gm]
;W[gn]
;B[gl]
;W[fl]
;B[hn]
;W[fn]
;B[jm]
;W[ll]
;B[hk]
;W[qq]
;B[pq]
;W[rp]
;B[qp]
;W[rr]
;B[qr]
;W[rq]
;B[qn]
;W[pr]
;B[or]
;W[qs]
;B[qj]
;W[cm]
;B[er]
;W[bh]
;B[db]
;W[oj]
;B[kd]
;W[ql]
;B[no]
;W[ol]
;B[bn]
;W[on]
;B[kr]
;W[jq]
;B[ro]
;W[rm]
;B[jr]
;W[iq]
;B[os]
;W[fr]
;B[eq]
;W[ps]
;B[ij]
;W[nq]
;B[mr]
;W[np]
;B[mp]
;W[oo]
;B[op]
;W[mo]
;B[nr]
;W[gj]
;B[ji]
;W[jk]
;B[gk]
;W[fj]
;B[fq]
;W[gq]
;B[hp]
;W[gp]
;B[hr]
;W[hq]
;B[hm]
;W[ir]
;B[oq]
;W[np]
;B[nn]
;W[nm]
;B[js]
;W[ki]
;B[gf]
;W[ff]
;B[bl]
;W[ri]
;B[qi]
;W[rj]
;B[qh]
;W[bk]
;B[pm]
;W[pl]
;B[fk]
;W[ek]
;B[mf]
;W[mg]
;B[kf]
;W[lg]
;B[gh]
;W[gg]
;B[ce]
;W[de]
;B[mn]
;W[mm]
;B[bm]
;W[ck]
;B[jh]
;W[hg]
;B[kh]
;W[li]
;B[ge]
;W[fe]
;B[hi]
;W[fh]
;B[nq]
;W[mb]
;B[gr]
;W[ha]
;B[gi]
;W[fi]
;B[jb]
;W[jg]
;B[ig]
;W[hh]
;B[ii]
;W[pa]
;B[qa]
;W[oa]
;B[qc]
;W[me]
;B[ma]
;W[nb]
;B[dn]
;W[ep]
;B[om]
;W[eb]
;B[ca]
;W[dq]
;B[dr]
;W[is]
;B[fs]
;W[ln]
;B[np]
;W[cp]
;B[bo]
;W[rn]
;B[rk]
;W[qk]
;B[so]
;W[hd]
;B[he]
;W[fd]
;B[hb]
;W[ia]
;B[lh]
;W[mh]
;B[ja]
;W[ga]
;B[md]
;W[nf]
;B[rh]
;W[rl]
;B[fg]
;W[eg]
;B[si]
;W[sk]
;B[ak]
;W[aj]
;B[al]
;W[ag]
;B[af]
;W[ah]
;B[jf]
;W[sh]
;B[hf]
;W[fg]
;B[km]
;W[sj]
;B[sf]
;W[qm]
;B[pn]
;W[hs]
;B[gs]
;W[cr]
;B[bq]
;W[mc]
;B[em]
;W[el]
;B[go]
;W[lc]
;B[kc]
;W[lq]
;B[lr]
;W[lm]
;B[pj]
;W[pi]
;B[pk]
;W[ok]
;B[sp]
;W[sq]
;B[sn]
;W[sm]
;B[qo]
;W[ea]
;B[ib]
;W[da]
;B[cb]
;W[gb]
;B[kq]
;W[lp]
;B[cl]
;W[dm]
;B[en]
;W[fo]
;B[jp]
;W[jn]
;B[jl]
;W[jo]
;B[kl]
;W[kj]
;B[sg]
;W[si]
;B[ho])