(;
EV[Gosei 5th]
RO[Game 1]
PB[Cho Chikun]
PW[Otake Hideo]
KM[5.5]
RE[B+4.5]
DT[1980-07-23]
PC[Kanazawa]
SO[Go world 22]

;B[pd];W[dp];B[pq];W[dc];B[pk];W[jq];B[de];W[dg];B[fe];W[fc]
;B[cc];W[cb];B[cd];W[bb];B[ci];W[qf];B[qe];W[pf];B[nd];W[qi]
;B[hc];W[gd];B[id];W[ge];B[ff];W[eh];B[gf];W[hf];B[eb];W[fb]
;B[ec];W[ed];B[fd];W[db];B[gc];W[he];B[hg];W[jf];B[dk];W[ig]
;B[gh];W[qc];B[pc];W[re];B[kd];W[le];B[ld];W[ii];B[gj];W[cm]
;B[pn];W[qb];B[dq];W[cq];B[eq];W[cr];B[hq];W[nq];B[fo];W[do]
;B[lq];W[jo];B[lo];W[ho];B[lr];W[pp];B[qp];W[qq];B[op];W[po]
;B[qo];W[oo];B[oq];W[qn];B[rn];W[qm];B[on];W[no];B[nn];W[np]
;B[nr];W[qr];B[pr];W[sn];B[rp];W[sp];B[sq];W[rq];B[so];W[sr]
;B[qs];W[sp];B[ee];W[dd];B[sq];W[rr];B[mo];W[sp];B[dn];W[cn]
;B[sq];W[or];B[os];W[sp];B[rd];W[ro];B[rf];W[rg];B[se];W[di]
;B[ch];W[cf];B[ce];W[bf];B[ij];W[dj];B[hi];W[ih];B[jj];W[hk]
;B[gk];W[fm];B[ek];W[cj];B[hl];W[gp];B[nf];W[mh];B[kh];W[ki]
;B[ji];W[kg];B[jh];W[lh];B[oh];W[oi];B[mf];W[og];B[lg];W[jr]
;B[ck];W[bk];B[gb];W[ea];B[nk];W[hm];B[ph];W[pi];B[nh];W[ni]
;B[ng];W[ol];B[ok];W[qk];B[in];W[im];B[jn];W[kn];B[bl];W[bj]
;B[ip];W[io];B[jp];W[kp];B[ko];W[kq];B[hn];W[gn];B[jm];W[hp]
;B[il];W[gm];B[qh];W[mm];B[km];W[mn];B[mj];W[ll];B[nl];W[nm]
;B[ql];W[rl];B[qj];W[rk];B[mi];W[rh];B[cl];W[dm];B[qg];W[kk]
;B[ln];W[rs];B[ps];W[bm];B[pl];W[pm];B[kj];W[fi];B[fh];W[al]
;B[pj];W[rj];B[be];W[fg];B[gg];W[eg];B[lp];W[iq];B[af];W[ag]
;B[ae];W[bg];B[om];W[ol];B[om];W[bc];B[ml];W[lm];B[lk];W[kl]
;B[jl];W[ga];B[ha];W[fj];B[fk];W[mq];B[jk];W[nn];B[ej];W[ei]
;B[el];W[em];B[gi];W[mr];B[ms];W[ks];B[kr];W[sg];B[sf];W[on]
;B[nj];W[js];B[ls];W[bd];B[ad];W[ac];B[ol];W[fa])
