(;CP[My Friday Night Files, 2002]AP[SGFcv.py:0.3]GM[1]FF[4]RO[1/6]
DT[1978-06-01]
PB[Kajiwara Takeo]
BR[9d]
PW[Cho Chikun]
WR[7d]
KM[5.5]
RE[W+2.5]
US[JBvR]
SO[KYB 79]
EV[Judan, 17th]

;B[qd]
;W[cc]
;B[pq]
;W[cq]
;B[kd]
;W[qk]
;B[pi]
;W[qo]
;B[qm]
;W[op]
;B[oq]
;W[np]
;B[mq]
;W[pl]
;B[qp]
;W[ro]
;B[nq]
;W[pm]
;B[cj]
;W[fc]
;B[qj]
;W[rk]
;B[nc]
;W[ch]
;B[dn]
;W[eq]
;B[cp]
;W[dp]
;B[co]
;W[bq]
;B[hc]
;W[eh]
;B[ej]
;W[od]
;B[oc]
;W[pd]
;B[pc]
;W[qe]
;B[rd]
;W[of]
;B[qf]
;W[nd]
;B[re]
;W[md]
;B[dd]
;W[dc]
;B[fd]
;W[mc]
;B[ec]
;W[eb]
;B[ed]
;W[fb]
;B[kf]
;W[oh]
;B[cd]
;W[gd]
;B[ge]
;W[hd]
;B[he]
;W[id]
;B[ie]
;W[ff]
;B[jd]
;W[ic]
;B[ib]
;W[gc]
;B[fe]
;W[fi]
;B[fj]
;W[hi]
;B[gj]
;W[ih]
;B[kh]
;W[ik]
;B[kb]
;W[qg]
;B[rg]
;W[qh]
;B[gq]
;W[en]
;B[em]
;W[fn]
;B[do]
;W[eo]
;B[ip]
;W[rp]
;B[mp]
;W[nb]
;B[fh]
;W[dm]
;B[cm]
;W[dl]
;B[el]
;W[dk]
;B[dj]
;W[fg]
;B[gh]
;W[gi]
;B[ei]
;W[gg]
;B[dh]
;W[eg]
;B[hj]
;W[cf]
;B[ij]
;W[bd]
;B[be]
;W[bc]
;B[ce]
;W[bf]
;B[bh]
;W[cg]
;B[ci]
;W[ae]
;B[fr]
;W[bo]
;B[bm]
;W[bp]
;B[cn]
;W[bn]
;B[am]
;W[fq]
;B[hr]
;W[mo]
;B[lo]
;W[mn]
;B[ln]
;W[mm]
;B[rh]
;W[ri]
;B[ni]
;W[nh]
;B[mi]
;W[oi]
;B[dr]
;W[dq]
;B[er]
;W[lm]
;B[go]
;W[cr]
;B[nk]
;W[oj]
;B[ob]
;W[pp]
;B[qq]
;W[mb]
;B[lk]
;W[oa]
;B[qb]
;W[jn]
;B[ko]
;W[jc]
;B[kc]
;W[jk]
;B[kl]
;W[im]
;B[km]
;W[gl]
;B[ek]
;W[gn]
;B[fp]
;W[ep]
;B[ii]
;W[hh]
;B[hb]
;W[jb]
;B[ja]
;W[lg]
;B[kg]
;W[lh]
;B[li]
;W[le]
;B[jj]
;W[rq]
;B[rr]
;W[qa]
;B[pf]
;W[pe]
;B[qi]
;W[pg]
;B[rj]
;W[rf]
;B[sf]
;W[qf]
;B[ra]
;W[sg]
;B[sh]
;W[pa]
;B[rb]
;W[sj]
;B[si]
;W[sk]
;B[se]
;W[sr]
;B[rs]
;W[pj]
;B[sg]
;W[nl]
;B[lf]
;W[mf]
;B[hn]
;W[ho]
;B[io]
;W[in]
;B[hk]
;W[hl]
;B[mk]
;W[jh]
;B[ke]
;W[ga]
;B[ia]
;W[ok]
;B[hp]
;W[an]
;B[ld]
;W[me]
;B[mh]
;W[mg]
;B[gb]
;W[jo]
;B[jp]
;W[kk]
;B[kj]
;W[nj]
;B[mj]
;W[bg]
;B[bi]
;W[jf]
;B[jg]
;W[if]
;B[ig]
;W[hf]
;B[je]
;W[ds]
;B[es]
;W[cs]
;B[ag]
;W[dg]
;B[ah]
;W[af]
;B[pb]
;W[na]
;B[ml]
;W[qr]
;B[pr]
;W[fo]
;B[di]
;W[fl]
;B[fm]
;W[gm]
;B[gp])