(;CP[My Friday Night Files, 2002]AP[SGFcv.py:0.3]GM[1]FF[4]RO[6]
DT[1978-01-19]
PB[Kato Masao]
BR[Honinbo]
PW[Cho Chikun]
WR[7d]
KM[5.5]
RE[B+2.5]
US[JBvR]
SO[Kido YB]
GC[White connects last ko]
EV[Meijin, 3rd]

;B[pd]
;W[dp]
;B[pq]
;W[dd]
;B[qk]
;W[nc]
;B[pf]
;W[pb]
;B[qc]
;W[kc]
;B[ip]
;W[fq]
;B[cf]
;W[dj]
;B[cc]
;W[cd]
;B[dc]
;W[ed]
;B[bd]
;W[be]
;B[bc]
;W[ce]
;B[fc]
;W[kp]
;B[mq]
;W[lo]
;B[in]
;W[np]
;B[nq]
;W[op]
;B[oq]
;W[on]
;B[qo]
;W[ok]
;B[il]
;W[co]
;B[ef]
;W[fd]
;B[gc]
;W[dg]
;B[df]
;W[bg]
;B[cg]
;W[bh]
;B[gf]
;W[gd]
;B[mk]
;W[jm]
;B[im]
;W[ll]
;B[ml]
;W[lm]
;B[ci]
;W[ch]
;B[di]
;W[dh]
;B[ei]
;W[fg]
;B[fh]
;W[bi]
;B[cj]
;W[gg]
;B[eg]
;W[eh]
;B[hg]
;W[gh]
;B[fi]
;W[ff]
;B[hi]
;W[hh]
;B[ih]
;W[ig]
;B[gi]
;W[hf]
;B[cq]
;W[dq]
;B[ol]
;W[qn]
;B[po]
;W[pn]
;B[mp]
;W[pl]
;B[nn]
;W[pk]
;B[lk]
;W[ir]
;B[qj]
;W[mo]
;B[no]
;W[oo]
;B[nm]
;W[iq]
;B[oi]
;W[ql]
;B[ro]
;W[ni]
;B[oh]
;W[nk]
;B[nd]
;W[mc]
;B[bp]
;W[bo]
;B[dr]
;W[br]
;B[cr]
;W[er]
;B[bs]
;W[ar]
;B[ao]
;W[an]
;B[ap]
;W[cp]
;B[bq]
;W[ds]
;B[bn]
;W[bl]
;B[cn]
;W[dn]
;B[cm]
;W[cl]
;B[dm]
;W[am]
;B[en]
;W[bj]
;B[kq]
;W[hp]
;B[jp]
;W[ho]
;B[ck]
;W[dl]
;B[el]
;W[bk]
;B[jh]
;W[nl]
;B[mm]
;W[om]
;B[jq]
;W[dk]
;B[qb]
;W[fk]
;B[fl]
;W[fj]
;B[gk]
;W[gj]
;B[hk]
;W[pp]
;B[qp]
;W[pj]
;B[qi]
;W[ec]
;B[eb]
;W[hc]
;B[hb]
;W[ib]
;B[gb]
;W[ic]
;B[jg]
;W[jf]
;B[kf]
;W[mj]
;B[lj]
;W[li]
;B[ki]
;W[ke]
;B[je]
;W[if]
;B[le]
;W[kd]
;B[rm]
;W[rl]
;B[ep]
;W[eq]
;B[qm]
;W[rn]
;B[sn]
;W[pi]
;B[ph]
;W[qh]
;B[rh]
;W[qg]
;B[rg]
;W[qf]
;B[rf]
;W[nh]
;B[sm]
;W[qe]
;B[pe]
;W[pm]
;B[sj]
;W[lh]
;B[ia]
;W[ks]
;B[lr]
;W[ng]
;B[of]
;W[eo]
;B[fo]
;W[fp]
;B[gn]
;W[go]
;B[fn]
;W[bm]
;B[em]
;W[qq]
;B[rq]
;W[kj]
;B[kk]
;W[jj]
;B[jk]
;W[kh]
;B[ji]
;W[kg]
;B[ij]
;W[sl]
;B[so]
;W[pc]
;B[od]
;W[me]
;B[md]
;W[ld]
;B[ka]
;W[ha]
;B[ja]
;W[ne]
;B[pa]
;W[oc]
;B[oa]
;W[lb]
;B[na]
;W[la]
;B[ga]
;W[qd]
;B[rd]
;W[jb]
;B[db]
;W[jr]
;B[kr]
;W[ad]
;B[ac]
;W[ae]
;B[ls]
;W[js]
;B[nf]
;W[mf]
;B[hn]
;W[oj]
;B[re]
;W[rk]
;B[rj]
;W[io]
;B[jo]
;W[hq]
;B[do]
;W[kb]
;B[ha]
;W[dn]
;B[hj]
;W[nb]
;B[do]
;W[qr]
;B[rr]
;W[dn]
;B[ma]
;W[mb]
;B[do]
;W[ob]
;B[qa]
;W[dn])