(;US[JBvR]CP[My Friday Night Files, 2002]AP[SGFcv.py:0.3]GM[1]FF[4]PW[Cho Chikun]
WR[8 dan]
PB[Hashimoto Utaro]
BR[9 dan]
DT[1978-12-21]
KM[5.5]
RE[B+R]
SO[1980 Kidoyearbook]
RO[2]
EV[Meijin, 4th]

;B[pd]
;W[cq]
;B[dc]
;W[qp]
;B[ce]
;W[jc]
;B[nq]
;W[pq]
;B[kq]
;W[qf]
;B[nc]
;W[qc]
;B[qd]
;W[rd]
;B[re]
;W[rc]
;B[qe]
;W[ob]
;B[oc]
;W[nb]
;B[pf]
;W[mc]
;B[md]
;W[lc]
;B[eq]
;W[do]
;B[gp]
;W[qk]
;B[cm]
;W[cn]
;B[dm]
;W[di]
;B[fn]
;W[bn]
;B[pm]
;W[hp]
;B[ho]
;W[ip]
;B[gq]
;W[kp]
;B[lp]
;W[ko]
;B[jq]
;W[io]
;B[hm]
;W[jl]
;B[pk]
;W[pj]
;B[ok]
;W[ql]
;B[qm]
;W[pg]
;B[qg]
;W[qh]
;B[rf]
;W[pl]
;B[ol]
;W[om]
;B[po]
;W[nm]
;B[oj]
;W[pi]
;B[on]
;W[ni]
;B[mj]
;W[mp]
;B[mm]
;W[nn]
;B[no]
;W[mn]
;B[mo]
;W[ml]
;B[ln]
;W[nl]
;B[lo]
;W[nj]
;B[ro]
;W[im]
;B[hl]
;W[rp]
;B[or]
;W[pr]
;B[rr]
;W[qr]
;B[rq]
;W[sp]
;B[rl]
;W[rm]
;B[rk]
;W[qj]
;B[rn]
;W[oq]
;B[kl]
;W[hn]
;B[gn]
;W[go]
;B[fo]
;W[jk]
;B[kj]
;W[jj]
;B[ll]
;W[lm]
;B[km]
;W[ji]
;B[og]
;W[mi]
;B[li]
;W[lh]
;B[kh]
;W[ki]
;B[lj]
;W[lg]
;B[kg]
;W[kn]
;B[mm]
;W[oi]
;B[lm]
;W[ng]
;B[hi]
;W[ig]
;B[ke]
;W[jh]
;B[jf]
;W[gg]
;B[fh]
;W[ie]
;B[dg]
;W[bl]
;B[nr]
;W[rs]
;B[mf]
;W[lf]
;B[kd]
;W[kf]
;B[ck]
;W[cg]
;B[dh]
;W[cf]
;B[ch]
;W[df]
;B[ef]
;W[de]
;B[cd]
;W[ee]
;B[fc]
;W[ff]
;B[bm]
;W[am]
;B[dr]
;W[cr]
;B[kc]
;W[op]
;B[oo]
;W[np]
;B[mq]
;W[bj]
;B[bk]
;W[cj]
;B[ei]
;W[bh]
;B[ci]
;W[dj]
;B[bi]
;W[eg]
;B[eh]
;W[ak]
;B[cl]
;W[al]
;B[ej]
;W[dk]
;B[ek]
;W[ir]
;B[nf]
;W[gc]
;B[gb]
;W[hb]
;B[fb]
;W[kb]
;B[jb]
;W[lb]
;B[ic]
;W[hc]
;B[je]
;W[jg]
;B[mg]
;W[kk]
;B[lk]
;W[mh]
;B[id]
;W[ib]
;B[jd]
;W[hj]
;B[gj]
;W[hk]
;B[gk]
;W[hr]
;B[jr]
;W[be]
;B[bd]
;W[bf]
;B[ah]
;W[aj]
;B[dn]
;W[dq]
;B[er]
;W[ep]
;B[eo]
;W[dp]
;B[ho]
;W[in]
;B[br]
;W[bs]
;B[bp]
;W[co]
;B[bq]
;W[fp]
;B[fq]
;W[ao]
;B[go]
;W[oh]
;B[ph]
;W[gm]
;B[gl]
;W[pg]
;B[nh]
;W[rg]
;B[ph]
;W[qn]
;B[pn]
;W[pg]
;B[dl]
;W[an]
;B[ph]
;W[qo]
;B[rh]
;W[ri]
;B[qi]
;W[sm]
;B[sl]
;W[qh]
;B[sg]
;W[rj]
;B[sn]
;W[lr]
;B[lq]
;W[rm]
;B[os]
;W[ms]
;B[ps]
;W[qs]
;B[sr]C[Time used:White 5h 59 mBlack 5h 31 m])