(;CP[My Friday Night Files, 2002]AP[SGFcv.py:0.3]GM[1]FF[4]EV[Oza, 47th]
RO[Challengers final]
DT[1999-08-26]
PB[Cho Chikun]
BR[Kisei]
PW[Kato Masao]
WR[9d]
KM[5.5]
RE[B+R]
US[JBvR]
SO[KYB  2000 p167]

;B[pd]
;W[dc]
;B[dq]
;W[qp]
;B[ce]
;W[dh]
;B[fe]
;W[fc]
;B[ed]
;W[ec]
;B[cj]
;W[ei]
;B[ej]
;W[fj]
;B[ek]
;W[fi]
;B[fk]
;W[hj]
;B[hk]
;W[ik]
;B[hl]
;W[ij]
;B[bc]
;W[ef]
;B[ee]
;W[co]
;B[cp]
;W[eo]
;B[fp]
;W[bp]
;B[bq]
;W[gn]
;B[in]
;W[gp]
;B[fo]
;W[fn]
;B[ep]
;W[im]
;B[il]
;W[jm]
;B[jl]
;W[hm]
;B[km]
;W[kj]
;B[do]
;W[dn]
;B[en]
;W[em]
;B[jn]
;W[go]
;B[cn]
;W[eo]
;B[bo]
;W[jq]
;B[jp]
;W[iq]
;B[kq]
;W[kr]
;B[lr]
;W[kl]
;B[kp]
;W[ll]
;B[jr]
;W[ir]
;B[ks]
;W[cm]
;B[bm]
;W[ip]
;B[ln]
;W[fq]
;B[en]
;W[lm]
;B[kn]
;W[eo]
;B[jk]
;W[jj]
;B[en]
;W[er]
;B[cb]
;W[nc]
;B[gr]
;W[hr]
;B[hc]
;W[gd]
;B[lc]
;W[ne]
;B[id]
;W[ge]
;B[qf]
;W[jc]
;B[jd]
;W[kc]
;B[ld]
;W[kd]
;B[ke]
;W[lb]
;B[mb]
;W[kb]
;B[mc]
;W[le]
;B[nb]
;W[hb]
;B[me]
;W[lf]
;B[mf]
;W[mg]
;B[nf]
;W[lg]
;B[ff]
;W[rf]
;B[re]
;W[qg]
;B[pf]
;W[ng]
;B[og]
;W[oh]
;B[ph]
;W[pg]
;B[of]
;W[qh]
;B[pi]
;W[rj]
;B[nh]
;W[oi]
;B[pj]
;W[ni]
;B[ql]
;W[rl]
;B[qm]
;W[rm]
;B[ri]
;W[qi]
;B[qj]
;W[rh]
;B[rk]
;W[si]
;B[sk]
;W[se]
;B[sd]
;W[sf]
;B[sg]
;W[rg]
;B[sj]
;W[rd]
;B[rc]
;W[sc]
;B[qc]C[147 moves total
B+R])