(;CP[My Friday Night Files, 2002]AP[SGFcv.py:0.3]GM[1]FF[4]EV[Oza, 47th]
RO[3]
DT[1999-07-29]
PB[Cho Chikun]
BR[Kisei]
PW[Rin Kaiho]
WR[9d]
KM[5.5]
RE[B+4.5]
US[JBvR]
SO[KYB 2000 p 168]

;B[pd]
;W[dd]
;B[pp]
;W[dp]
;B[fq]
;W[cn]
;B[dr]
;W[qn]
;B[pk]
;W[cq]
;B[mq]
;W[gp]
;B[gq]
;W[hp]
;B[fp]
;W[fo]
;B[ir]
;W[iq]
;B[eo]
;W[fn]
;B[ep]
;W[em]
;B[qp]
;W[di]
;B[jq]
;W[jp]
;B[kq]
;W[nc]
;B[pf]
;W[gc]
;B[kd]
;W[le]
;B[md]
;W[ld]
;B[mc]
;W[lc]
;B[lb]
;W[kc]
;B[nb]
;W[qe]
;B[qd]
;W[me]
;B[nd]
;W[kj]
;B[cd]
;W[ce]
;B[be]
;W[de]
;B[bd]
;W[bf]
;B[dc]
;W[ec]
;B[db]
;W[bb]
;B[eb]
;W[cc]
;B[fc]
;W[fd]
;B[ed]
;W[ee]
;B[cf]
;W[cg]
;B[df]
;W[ef]
;B[dg]
;W[bg]
;B[bc]
;W[cb]
;B[gd]
;W[ec]
;B[fb]
;W[ac]
;B[fe]
;W[ff]
;B[ed]
;W[he]
;B[hd]
;W[id]
;B[ic]
;W[ge]
;B[ie]
;W[jd]
;B[dn]
;W[dm]
;B[lh]
;W[nh]
;B[ng]
;W[og]
;B[nf]
;W[jh]
;B[lj]
;W[lk]
;B[mj]
;W[rk]
;B[jg]
;W[kg]
;B[kh]
;W[lg]
;B[ji]
;W[ih]
;B[ki]
;W[ii]
;B[jj]
;W[ij]
;B[qk]
;W[rj]
;B[rl]
;W[ql]
;B[rm]
;W[pl]
;B[rn]
;W[oj]
;B[ok]
;W[nk]
;B[ol]
;W[nj]
;B[kk]
;W[nl]
;B[om]
;W[nm]
;B[ik]
;W[on]
;B[pm]
;W[jl]
;B[jk]
;W[hk]
;B[il]
;W[qg]
;B[hl]
;W[gk]
;B[co]
;W[do]
;B[en]
;W[bn]
;B[qf]
;W[rf]
;B[qh]
;W[pg]
;B[rh]
;W[of]
;B[pe]
;W[qj]
;B[rg]
;W[ne]
;B[cr]
;W[bq]
;B[dq]
;W[cp]
;B[gl]
;W[fl]
;B[fd]
;W[ae]
;B[gm]
;W[fm]
;B[jc]
;W[je]
;B[kb]
;W[lp]
;B[lq]
;W[np]
;B[nq]
;W[jm]
;B[ll]
;W[mk]
;B[mi]
;W[pj]
;B[pn]
;W[po]
;B[qm]
;W[op]
;B[oq]
;W[mp]
;B[kp]
;W[ko]
;B[kn]
;W[jo]
;B[ln]
;W[jn]
;B[nn]
;W[oo]
;B[lo]
;W[mn]
;B[kl]
;W[mh]
;B[qo]
;W[no]
;B[br]
;W[hq]
;B[hr]
;W[hn]
;B[aq]
;W[bo]
;B[gn]
;W[go]
;B[ph]
;W[oh]
;B[ap]
;W[od]
;B[oc]
;W[oe]
;B[bp]
;W[co]
;B[im]
;W[ao]
;B[ar]
;W[in]
;B[ni]
;W[oi]
;B[ca]
;W[ba]
;B[da]
;W[sh]
;B[sg]
;W[si]
;B[mo]
;W[nn]
;B[sk]
;W[sj]
;B[sl]C[218 moves total.
B+4.5])