(;CP[My Friday Night Files, 2002]AP[SGFcv.py:0.3]GM[1]FF[4]EV[Oza, 47th]
RO[2]
DT[1999-05-20]
PB[Cho Chikun]
BR[Kisei]
WR[6d]
KM[5.5]
RE[B+R]
US[JBvR]
SO[KYB 2000 p 169]
PW[So Yokoku]

;B[pd]
;W[cq]
;B[pp]
;W[cc]
;B[fd]
;W[cf]
;B[jc]
;W[qj]
;B[fp]
;W[co]
;B[jq]
;W[qf]
;B[qh]
;W[rh]
;B[nc]
;W[ph]
;B[qe]
;W[pf]
;B[rf]
;W[rg]
;B[de]
;W[ce]
;B[dc]
;W[db]
;B[dd]
;W[bb]
;B[dp]
;W[cp]
;B[dq]
;W[nq]
;B[oq]
;W[np]
;B[qn]
;W[jo]
;B[hq]
;W[qq]
;B[or]
;W[qp]
;B[po]
;W[ro]
;B[nn]
;W[kp]
;B[kq]
;W[lq]
;B[qk]
;W[pk]
;B[ql]
;W[rn]
;B[rm]
;W[rr]
;B[rj]
;W[pj]
;B[ri]
;W[qi]
;B[mo]
;W[lp]
;B[pl]
;W[ip]
;B[iq]
;W[jm]
;B[eb]
;W[ea]
;B[fa]
;W[da]
;B[fb]
;W[me]
;B[re]
;W[nl]
;B[ol]
;W[nk]
;B[ne]
;W[nf]
;B[mf]
;W[nd]
;B[oe]
;W[mc]
;B[oc]
;W[le]
;B[ok]
;W[oj]
;B[nj]
;W[lf]
;B[mj]
;W[mg]
;B[ll]
;W[lm]
;B[ml]
;W[dk]
;B[em]
;W[cm]
;B[mb]
;W[eg]
;B[il]
;W[kl]
;B[cr]
;W[br]
;B[dr]
;W[fl]
;B[fi]
;W[ej]
;B[lc]
;W[kk]
;B[gh]
;W[lj]
;B[oi]
;W[qg]
;B[pi]
;W[qh]
;B[mk]
;W[gf]
;B[nh]
;W[ng]
;B[jf]
;W[ig]
;B[ji]
;W[ii]
;B[jj]
;W[ij]
;B[hg]
;W[jh]
;B[if]
;W[fg]
;B[kh]
;W[li]
;B[mh]
;W[lh]
;B[kg]
;W[lg]
;B[ik]
;W[gj]
;B[fj]
;W[gk]
;B[hj]
;W[hi]
;B[gi]
;W[hk]
;B[ei]
;W[ih]
;B[hf]
;W[di]
;B[dh]
;W[eh]
;B[el]
;W[ki]
;B[cl]
;W[dl]
;B[dm]
;W[bm]
;B[ci]
;W[dj]
;B[ch]
;W[cj]
;B[bj]
;W[bk]
;B[ek]
;W[ck]
;B[ak]
;W[bl]
;B[df]
;W[dg]
;B[cg]
;W[bg]
;B[gg]
;W[ff]
;B[ge]
;W[bi]
;B[hl]
;W[fm]
;B[fn]
;W[jk]
;B[gl]
;W[fk]
;B[gm]
;W[hj]
;B[hn]C[175 moves.
B+R])