(;US[JBvR]SO[Cho Chikun Internet Book]CP[My Friday Night Files, 2002]AP[SGFcv.py:0.3]GM[1]FF[4]RO[2,game 2]
PB[Wang Lei]
BR[7 dan]
PW[Cho Chikun]
WR[9 dan]
KM[5.5]
DT[1999-04-12]
RE[W+R]
EV[Fujitsu Cup, 12th]

;B[pd]
;W[dc]
;B[dp]
;W[pq]
;B[ce]
;W[di]
;B[ed]
;W[ec]
;B[fd]
;W[gb]
;B[dk]
;W[fi]
;B[hd]
;W[hi]
;B[ic]
;W[cd]
;B[bd]
;W[bc]
;B[dn]
;W[qo]
;B[kq]
;W[mq]
;B[pj]
;W[iq]
;B[gq]
;W[io]
;B[ko]
;W[im]
;B[km]
;W[jk]
;B[pn]
;W[po]
;B[nd]
;W[lk]
;B[ir]
;W[qd]
;B[qc]
;W[qe]
;B[rc]
;W[pe]
;B[pg]
;W[od]
;B[pc]
;W[ne]
;B[oc]
;W[oe]
;B[kj]
;W[md]
;B[nc]
;W[kk]
;B[ij]
;W[cf]
;B[ik]
;W[ln]
;B[kn]
;W[hr]
;B[il]
;W[jr]
;B[ng]
;W[mg]
;B[mf]
;W[nf]
;B[lg]
;W[mh]
;B[me]
;W[og]
;B[nh]
;W[oh]
;B[ni]
;W[lh]
;B[kh]
;W[kg]
;B[mi]
;W[lf]
;B[le]
;W[ke]
;B[ld]
;W[kd]
;B[lc]
;W[ki]
;B[ph]
;W[kc]
;B[jf]
;W[lb]
;B[mc]
;W[kf]
;B[jh]
;W[li]
;B[nk]
;W[ih]
;B[dd]
;W[cc]
;B[df]
;W[be]
;B[de]
;W[cg]
;B[eh]
;W[ei]
;B[gc]
;W[hb]
;B[hf]
;W[qi]
;B[pi]
;W[el]
;B[hm]
;W[hn]
;B[jm]
;W[in]
;B[ml]
;W[dl]
;B[jg]
;W[ji]
;B[fm]
;W[hg]
;B[ie]
;W[cm]
;B[ib]
;W[je]
;B[if]
;W[ii]
;B[qn]
;W[on]
;B[om]
;W[lm]
;B[ll]
;W[rn]
;B[rm]
;W[nm]
;B[nn]
;W[oo]
;B[pm]
;W[bo]
;B[cq]
;W[lp]
;B[lo]
;W[kp]
;B[mo]
;W[no]
;B[mn]
;W[eq]
;B[jp]
;W[ep]
;B[eo]
;W[co]
;B[do]
;W[ip]
;B[gn]
;W[gp]
;B[fp]
;W[fq]
;B[fo]
;W[hl]
;B[hk]
;W[mp]
;B[ro]
;W[rp]
;B[sn]
;W[gm]
;B[gl]
;W[hm]
;B[fl]
;W[fk]
;B[cn]
;W[bn]
;B[gk]
;W[dr]
;B[ek]
;W[ck]
;B[bl]
;W[bm]
;B[cl]
;W[dm]
;B[fj]
;W[fg]
;B[cj]
;W[ge]
;B[gf]
;W[fc]
;B[bf]
;W[ad]
;B[dh]
;W[ch]
;B[fh]
;W[gg]
;B[ci]
;W[gh]
;B[dg]
;W[bg]
;B[gi]
;W[gj]
;B[jj]
;W[jb]
;B[bj]
;W[cr]
;B[lj]
;W[mb]
;B[nb]
;W[ma])