(;CP[My Friday Night Files, 2002]AP[SGFcv.py:0.3]GM[1]FF[4]EV[55th Honinbo League]
RO[Game 2]
DT[1999-10-04]
PB[Cho Chikun]
BR[Kisei]
WR[7d]
KM[5.5]
RE[B+R]
US[JBvR]
SO[KYB 2001 p 95]
PW[Yamada Kimio]

;B[pd]
;W[dp]
;B[pq]
;W[dd]
;B[qk]
;W[mp]
;B[jp]
;W[oo]
;B[po]
;W[pn]
;B[qo]
;W[nn]
;B[om]
;W[on]
;B[qn]
;W[pm]
;B[fq]
;W[qm]
;B[cn]
;W[eo]
;B[cq]
;W[qf]
;B[ph]
;W[of]
;B[nd]
;W[nh]
;B[oj]
;W[mj]
;B[rh]
;W[kd]
;B[me]
;W[rg]
;B[re]
;W[qh]
;B[qi]
;W[pg]
;B[oh]
;W[qd]
;B[qe]
;W[pe]
;B[oe]
;W[pc]
;B[pf]
;W[qq]
;B[pe]
;W[pr]
;B[oq]
;W[or]
;B[rq]
;W[rr]
;B[qp]
;W[qr]
;B[nq]
;W[mq]
;B[nr]
;W[mr]
;B[os]
;W[ri]
;B[qg]
;W[ms]
;B[ns]
;W[qh]
;B[rp]
;W[qj]
;B[qg]
;W[pp]
;B[op]
;W[qh]
;B[og]
;W[pi]
;B[oi]
;W[gp]
;B[cp]
;W[gq]
;B[er]
;W[gr]
;B[in]
;W[dm]
;B[gn]
;W[hm]
;B[hn]
;W[cm]
;B[dn]
;W[en]
;B[bm]
;W[fl]
;B[bl]
;W[hl]
;B[jl]
;W[jj]
;B[kn]
;W[kl]
;B[kk]
;W[km]
;B[jm]
;W[jk]
;B[ik]
;W[gj]
;B[ij]
;W[ji]
;B[ii]
;W[il]
;B[fp]
;W[fo]
;B[lk]
;W[lm]
;B[jh]
;W[ki]
;B[ln]
;W[mm]
;B[go]C[111 moves])