(;SO[Cho Chikun Internet Book]CP[My Friday Night Files, 2002]AP[SGFcv.py:0.3]GM[1]FF[4]PW[Cho Chikun]
WR[3k]
PB[Kobayashi Koichi]
BR[1k]
DT[1966-05-15]
KM[4.5]
RE[B+14.5 (Moves beyond 111 not given)]
US[JBvR]
EV[Insei Competition 1966]

;B[qd]
;W[cp]
;B[ep]
;W[od]
;B[qp]
;W[oq]
;B[kq]
;W[dd]
;B[pq]
;W[op]
;B[pn]
;W[lo]
;B[jp]
;W[lq]
;B[lr]
;W[mq]
;B[pl]
;W[lm]
;B[cq]
;W[bq]
;B[dq]
;W[bo]
;B[cn]
;W[do]
;B[dm]
;W[eo]
;B[fm]
;W[fp]
;B[fq]
;W[gq]
;B[gr]
;W[em]
;B[el]
;W[en]
;B[gp]
;W[dl]
;B[dk]
;W[cl]
;B[ck]
;W[ek]
;B[fl]
;W[bl]
;B[bk]
;W[bn]
;B[cf]
;W[fk]
;B[di]
;W[ce]
;B[df]
;W[fd]
;B[oe]
;W[qc]
;B[pd]
;W[pc]
;B[oc]
;W[nd]
;B[ob]
;W[rd]
;B[re]
;W[rb]
;B[sd]
;W[rc]
;B[qe]
;W[mc]
;B[mb]
;W[pb]
;B[lc]
;W[nb]
;B[md]
;W[nc]
;B[ne]
;W[oa]
;B[ld]
;W[gk]
;B[hc]
;W[qj]
;B[ec]
;W[ed]
;B[fb]
;W[dc]
;B[db]
;W[cb]
;B[ql]
;W[pf]
;B[qg]
;W[pg]
;B[qh]
;W[pe]
;B[ph]
;W[ng]
;B[oh]
;W[me]
;B[mf]
;W[le]
;B[og]
;W[ic]
;B[id]
;W[jd]
;B[jc]
;W[kc]
;B[ib]
;W[lf]
;B[of]
;W[kd]
;B[kb]
;W[lb]
;B[bf]
;W[be]
;B[al]
;W[bm]
;B[ml])