

(;GM[1]SZ[19]DT[1957-08-15,16]PW[Fujisawa Hosai]RE[W+R]PB[Takagawa Kaku]FF[3]KM[4.5]RO[5]PC[Nagano City, Nagano Pref.]TM[10h]BS[0]WS[0];B[qd];W[cp];B[pq];W[dc];B[od];W[ep];B[po];W[de];B[pj]
;W[dj];B[jp];W[mc];B[jd];W[me];B[gd];W[nf];B[pg];W[jb];B[gg]
;W[hp];B[jn];W[ie];B[id];W[ge];B[ld];W[md];B[kf];W[hd];B[hc]
;W[he];B[ib];W[jc];B[ic];W[fd];B[kh];W[ob];B[nh];W[pc];B[pd]
;W[qc];B[hn];W[qm];B[qn];W[om];B[rm];W[ql];B[rl];W[oo];B[on]
;W[nn];B[pn];W[mm];B[op];W[kl];B[kj];W[il];B[gl];W[lo];B[lq]
;W[gj];B[hk];W[jj];B[hj];W[lj];B[ki];W[nj];B[lk];W[kk];B[mj]
;W[ll];B[mk];W[io];B[jo];W[hm];B[gm];W[in];B[jm];W[im];B[gi]
;W[nk];B[mi];W[ii];B[dl];W[dh];B[ek];W[ir];B[hq];W[kq];B[ip]
;W[kp];B[jl];W[ik];B[jr];W[kr];B[hr];W[jk];B[er];W[gp];B[is]
;W[cn];B[cm];W[dn];B[ej];W[ck];B[bm];W[dr];B[fr];W[qj];B[ln]
;W[kn];B[pi];W[pk];B[fb];W[eb];B[fc];W[gc];B[gb];W[nq];B[mo]
;W[mp];B[no];W[or];B[pr];W[ps];B[lr];W[ks];B[mr];W[mn];B[dq]
;W[cr];B[cq];W[bq];B[eq];W[lp];B[dp];W[bo];B[do];W[bn];B[fo]
;W[qr];B[rk];W[qk];B[ec];W[dd];B[br];W[bs];B[ar];W[aq];B[bp]
;W[as];B[co];W[ds];B[aj];W[ao];B[bi];W[bg];B[qq];W[rr];B[rq]
;W[gn];B[db];W[cb];B[ea];W[fn];B[ff];W[fe];B[bk];W[ci];B[bh]
;W[cg];B[en];W[em];B[eo];W[fm];B[go];W[ho];B[ei];W[rd];B[re]
;W[rc];B[sr];W[qf];B[pf];W[qe];B[rf];W[qg];B[qh];W[rg];B[rh]
;W[se];B[ag];W[af];B[ol];W[nl];B[pm];W[ok];B[nm];W[ml];B[oq]
;W[nr];B[ch];W[di];B[bf];W[ah];B[dg];W[cf];B[eg];W[bj];B[cj]
;W[gq];B[gr];W[bj];B[lb];W[ai];B[mb];W[hh])