(;US[JBvR]CP[My Friday Night Files, 2002]AP[SGFcv.py:0.3]GM[1]FF[4]RO[3]
PB[Cho Chikun]
BR[9 dan]
PW[Yu Bin]
KM[5.5]
RE[B+R]
SO[1996 WeiQiyearbook]
DT[1995-06-03]
WR[9 dan]
EV[Fujitsu Cup, 8th]

;B[qd]
;W[dd]
;B[cp]
;W[pp]
;B[kc]
;W[eq]
;B[hp]
;W[go]
;B[ep]
;W[dp]
;B[do]
;W[dq]
;B[fp]
;W[co]
;B[cq]
;W[cr]
;B[br]
;W[bo]
;B[dr]
;W[gp]
;B[er]
;W[cj]
;B[fq]
;W[hq]
;B[fc]
;W[df]
;B[db]
;W[cc]
;B[hd]
;W[qn]
;B[qi]
;W[od]
;B[pf]
;W[nq]
;B[ql]
;W[dm]
;B[pc]
;W[ld]
;B[lc]
;W[of]
;B[pg]
;W[kd]
;B[jd]
;W[je]
;B[id]
;W[md]
;B[jq]
;W[lq]
;B[jo]
;W[ip]
;B[jp]
;W[ho]
;B[jm]
;W[gl]
;B[jk]
;W[ji]
;B[ig]
;W[jg]
;B[jf]
;W[kg]
;B[kf]
;W[lf]
;B[if]
;W[pd]
;B[qc]
;W[nh]
;B[dj]
;W[il]
;B[ck]
;W[ci]
;B[cm]
;W[dl]
;B[dk]
;W[cl]
;B[bl]
;W[bm]
;B[bj]
;W[jl]
;B[cg]
;W[cf]
;B[dn]
;W[pl]
;B[lp]
;W[kl]
;B[lr]
;W[mq]
;B[ir]
;W[hr]
;B[kq]
;W[cn]
;B[fn]
;W[fm]
;B[gm]
;W[hm]
;B[em]
;W[gn]
;B[el]
;W[is]
;B[oq]
;W[op]
;B[pq]
;W[qq]
;B[np]
;W[mr]
;B[js]
;W[lo]
;B[mp]
;W[pr]
;B[mn]
;W[ln]
;B[lm]
;W[mo]
;B[no]
;W[mm]
;B[nn]
;W[km]
;B[ll]
;W[ml]
;B[lk]
;W[kn]
;B[ol]
;W[ok]
;B[pm]
;W[om]
;B[pk]
;W[on]
;B[oo]
;W[pn]
;B[nm]
;W[nl]
;B[nk]
;W[pl]
;B[po]
;W[or]
;B[ol]
;W[al]
;B[mk])