(;CP[My Friday Night Files, 2002]AP[SGFcv.py:0.3]GM[1]FF[4]RO[preliminary]
DT[1995-02-16]
PB[Cho Chikun]
BR[Honinbo]
PW[Sakai Maki]
WR[5d]
KM[5.5]
RE[B+R]
US[JBvR]
SO[KYB 1996]
EV[Tengen, 21st]

;B[qd]
;W[dp]
;B[cd]
;W[qp]
;B[ec]
;W[nc]
;B[oq]
;W[lp]
;B[qn]
;W[po]
;B[pc]
;W[kc]
;B[pn]
;W[on]
;B[om]
;W[oo]
;B[pl]
;W[pr]
;B[jq]
;W[hq]
;B[lr]
;W[or]
;B[jo]
;W[cj]
;B[fq]
;W[ho]
;B[cq]
;W[dq]
;B[cp]
;W[do]
;B[dr]
;W[er]
;B[cr]
;W[eq]
;B[cn]
;W[jm]
;B[in]
;W[hl]
;B[hn]
;W[fp]
;B[iq]
;W[hr]
;B[go]
;W[gp]
;B[il]
;W[im]
;B[hm]
;W[ik]
;B[jl]
;W[km]
;B[gl]
;W[hk]
;B[gk]
;W[gj]
;B[fj]
;W[fk]
;B[fl]
;W[ek]
;B[el]
;W[dk]
;B[fi]
;W[gi]
;B[fh]
;W[cg]
;B[dl]
;W[gh]
;B[fg]
;W[cl]
;B[cm]
;W[bl]
;B[jk]
;W[ii]
;B[jj]
;W[ji]
;B[lk]
;W[li]
;B[gg]
;W[pe]
;B[qe]
;W[pg]
;B[lm]
;W[hc]
;B[ij]
;W[hj]
;B[hg]
;W[kh]
;B[kn]
;W[ce]
;B[de]
;W[bd]
;B[cf]
;W[be]
;B[ch]
;W[df]
;B[dh]
;W[cc]
;B[bh]
;W[fd]
;B[ef]
;W[ed]
;B[ih]
;W[hi]
;B[dg]
;W[qf]
;B[od]
;W[ob]
;B[of]
;W[pf]
;B[pb]
;W[qj]
;B[ic]
;W[hd]
;B[id]
;W[ie]
;B[hb]
;W[gb]
;B[je]
;W[he]
;B[kd]
;W[lc]
;B[jb]
;W[jf]
;B[ld]
;W[me]
;B[kf]
;W[kg]
;B[if]
;W[jg]
;B[ga]
;W[fb]
;B[dd]
;W[dc]
;B[bc]
;W[bb]
;B[md]
;W[nd]
;B[mf]
;W[ne]
;B[jc]
;W[rc]
;B[rb]
;W[kb]
;B[mc]
;W[mb]
;B[ka]
;W[lb]
;B[le]
;W[ia]
;B[ja]
;W[fa]
;B[ib]
;W[ha]
;B[ga]
;W[ha]
;B[oe]
;W[nf]
;B[ng]
;W[mg]
;B[lf]C[159 moves
W 3:59
B 3:58])