(;US[JBvR]SO[Cho Chikun Internet Book]CP[My Friday Night Files, 2002]AP[SGFcv.py:0.3]GM[1]FF[4]RO[playoff, game 2]
PB[Kato Masao]
BR[9 dan]
PW[Cho Chikun]
WR[9 dan]
KM[5.5]
DT[1995-11-30]
RE[W+R]
EV[Kisei, 20th]
B[qd]
;W[dd]
;B[cp]
;W[pp]
;B[eq]
;W[oc]
;B[pf]
;W[lc]
;B[qn]
;W[nq]
;B[rp]
;W[qq]
;B[qk]
;W[ck]
;B[cm]
;W[dg]
;B[lq]
;W[pn]
;B[pm]
;W[on]
;B[om]
;W[qo]
;B[rn]
;W[nm]
;B[iq]
;W[nl]
;B[dc]
;W[ec]
;B[eb]
;W[ed]
;B[db]
;W[fb]
;B[cd]
;W[ce]
;B[bd]
;W[be]
;B[bb]
;W[pj]
;B[pk]
;W[ok]
;B[ri]
;W[pd]
;B[qe]
;W[of]
;B[og]
;W[ng]
;B[oh]
;W[nh]
;B[kc]
;W[kd]
;B[jc]
;W[lb]
;B[gb]
;W[gc]
;B[fa]
;W[hc]
;B[dk]
;W[dq]
;B[dp]
;W[dj]
;B[ek]
;W[cl]
;B[dm]
;W[ej]
;B[gk]
;W[oi]
;B[fj]
;W[er]
;B[dr]
;W[io]
;B[kp]
;W[fq]
;B[cq]
;W[fl]
;B[cj]
;W[fk]
;B[dl]
;W[gj]
;B[fi]
;W[di]
;B[ci]
;W[ch]
;B[gl]
;W[fm]
;B[hi]
;W[hj]
;B[eh]
;W[dh]
;B[gm]
;W[fn]
;B[ij]
;W[hk]
;B[gn]
;W[gi]
;B[gh]
;W[hh]
;B[gg]
;W[fo]
;B[ii]
;W[ik]
;B[jk]
;W[il]
;B[in]
;W[jl]
;B[go]
;W[gp]
;B[hp]
;W[ig]
;B[he]
;W[if]
;B[ee]
;W[ge]
;B[hf]
;W[ie]
;B[fc]
;W[fd]
;B[hd]
;W[id]
;B[gd]
;W[fb]
;B[de]
;W[fe]
;B[ef]
;W[hg])