(;CP[My Friday Night Files, 2002]AP[SGFcv.py:0.3]GM[1]FF[4]DT[1995-10-16]
PB[Kobayashi Koichi]
BR[Meijin]
PW[Cho Chikun]
WR[Honinbo]
KM[5.5]
RE[B+R]
US[JBvR]
SO[KYB 1996]
RO[prelim. final]
EV[Tengen, 21st]

;B[pd]
;W[dd]
;B[qp]
;W[dp]
;B[oq]
;W[qj]
;B[cj]
;W[qm]
;B[cm]
;W[gq]
;B[cf]
;W[fc]
;B[cq]
;W[dq]
;B[cp]
;W[do]
;B[cn]
;W[nc]
;B[qf]
;W[jq]
;B[oc]
;W[nd]
;B[kc]
;W[ic]
;B[ke]
;W[nf]
;B[ob]
;W[lf]
;B[id]
;W[hd]
;B[ie]
;W[df]
;B[dg]
;W[ce]
;B[ef]
;W[de]
;B[cg]
;W[jc]
;B[he]
;W[gd]
;B[qh]
;W[lc]
;B[lq]
;W[em]
;B[ro]
;W[eg]
;B[eh]
;W[fg]
;B[ih]
;W[fh]
;B[ei]
;W[fi]
;B[fj]
;W[gj]
;B[fk]
;W[ji]
;B[jh]
;W[ki]
;B[gi]
;W[ii]
;B[hh]
;W[gf]
;B[lg]
;W[gk]
;B[le]
;W[kb]
;B[fl]
;W[pg]
;B[mf]
;W[qg]
;B[rg]
;W[rh]
;B[rf]
;W[mg]
;B[me]
;W[lh]
;B[kg]
;W[ph]
;B[om]
;W[mm]
;B[mh]
;W[ng]
;B[ok]
;W[mp]
;B[mq]
;W[op]
;B[pp]
;W[nq]
;B[nr]
;W[np]
;B[mr]
;W[on]
;B[pm]
;W[pn]
;B[qn]
;W[rn]
;B[qo]
;W[ql]
;B[nn]
;W[nm]
;B[li]
;W[kh]
;B[pk]
;W[mn]
;B[qk]
;W[rk]
;B[rj]
;W[rl]
;B[qi]
;W[pj]
;B[ri]
;W[nj]
;B[oj]
;W[pi]
;B[ni]
;W[mj]
;B[lj]
;W[jg]
;B[kf]
;W[nk]
;B[nl]
;W[sj]
;B[sh]
;W[lk]
;B[mi]
;W[mk]
;B[oi]
;W[ne]
;B[kj]
;W[hi]
;B[kk]
;W[hg]
;B[ig]
;W[if]
;B[jf]
;W[hf]
;B[gh]C[137 moves
W 3:59
B 3:25])