(;SO[Cho Chikun Internet Book]CP[My Friday Night Files, 2002]AP[SGFcv.py:0.3]GM[1]FF[4]EV[Tong Yang Securities Cup,7th]
RE[B+1.5]
PB[Cho Chikun]
BR[9 dan]
WR[9 dan]
KM[5.5]
DT[1995-11-21]
PW[Cao Dayuan]
US[JBvR]

;B[qd]
;W[dd]
;B[cp]
;W[pp]
;B[eq]
;W[oc]
;B[ld]
;W[of]
;B[qg]
;W[jd]
;B[lf]
;W[ph]
;B[pg]
;W[og]
;B[oh]
;W[qe]
;B[pd]
;W[qf]
;B[pf]
;W[pe]
;B[oe]
;W[od]
;B[ne]
;W[rd]
;B[ng]
;W[rg]
;B[nf]
;W[dj]
;B[fc]
;W[fe]
;B[cc]
;W[dc]
;B[cd]
;W[ce]
;B[db]
;W[eb]
;B[cb]
;W[ec]
;B[be]
;W[cf]
;B[bf]
;W[cg]
;B[fb]
;W[fa]
;B[nq]
;W[qn]
;B[pq]
;W[qq]
;B[op]
;W[pr]
;B[or]
;W[oq]
;B[fd]
;W[ee]
;B[pq]
;W[po]
;B[qr]
;W[oq]
;B[rh]
;W[rf]
;B[pq]
;W[fq]
;B[ps]
;W[er]
;B[dq]
;W[rq]
;B[hq]
;W[fp]
;B[ho]
;W[do]
;B[co]
;W[dm]
;B[dn]
;W[en]
;B[cn]
;W[gn]
;B[eo]
;W[fn]
;B[cl]
;W[im]
;B[ge]
;W[gf]
;B[he]
;W[hf]
;B[ie]
;W[if]
;B[je]
;W[ip]
;B[hp]
;W[jo]
;B[kq]
;W[jj]
;B[dk]
;W[ek]
;B[el]
;W[ej]
;B[kl]
;W[jm]
;B[ql]
;W[lj]
;B[ob]
;W[nc]
;B[nb]
;W[mc]
;B[pb]
;W[pc]
;B[qb]
;W[qc]
;B[mb]
;W[lc]
;B[rb]
;W[qj]
;B[qi]
;W[rj]
;B[qm]
;W[oj]
;B[on]
;W[rm]
;B[rl]
;W[rn]
;B[nl]
;W[pi]
;B[qh]
;W[oo]
;B[no]
;W[om]
;B[pk]
;W[nn]
;B[pj]
;W[mo]
;B[np]
;W[mm]
;B[gr]
;W[fr]
;B[kp]
;W[nk]
;B[ol]
;W[ml]
;B[em]
;W[fl]
;B[cj]
;W[ci]
;B[bj]
;W[oi]
;B[ok]
;W[nj]
;B[pm]
;W[pn]
;B[rk]
;W[kg]
;B[ko]
;W[kn]
;B[lh]
;W[kh]
;B[jf]
;W[jg]
;B[ep]
;W[fo]
;B[cr]
;W[bi]
;B[hn]
;W[hm]
;B[ga]
;W[ea]
;B[hb]
;W[jb]
;B[bg]
;W[aj]
;B[ak]
;W[bh]
;B[lo]
;W[ah]
;B[bl]
;W[ag]
;B[ab]
;W[ln]
;B[rr]
;W[fm]
;B[dl]
;W[mp]
;B[mq]
;W[sh]
;B[si]
;W[sg]
;B[sj]
;W[sr]
;B[jp]
;W[io]
;B[iq]
;W[lb]
;B[in]
;W[jn]
;B[nm]
;W[on]
;B[li]
;W[ki]
;B[kd]
;W[jc]
;B[ib]
;W[nh]
;B[mi]
;W[lg]
;B[mg]
;W[og]
;B[mh]
;W[sb]
;B[sc]
;W[rc]
;B[sa]
;W[sd]
;B[sb]
;W[md]
;B[me]
;W[kf]
;B[ke]
;W[id]
;B[hd]
;W[ic]
;B[hc]
;W[da]
;B[ca]
;W[af]
;B[bd]
;W[ae]
;B[mj]
;W[mk]
;B[kc]
;W[kb]
;B[lp]
;W[ad]
;B[ac]
;W[sl]
;B[mn]
;W[mo]
;B[ed]
;W[de]
;B[gs]
;W[ds]
;B[cs]
;W[ma]
;B[na]
;W[la]
;B[ja]
;W[gq]
;B[sk]
;W[sm]
;B[dr]
;W[hr]
;B[ir]
;W[rs]
;B[of]
;W[oh]
;B[es]
;W[fs]
;B[hs]
;W[ai]
;B[ds]
;W[sq])