(;US[JBvR]SO[Cho Chikun Internet Book]CP[My Friday Night Files, 2002]AP[SGFcv.py:0.3]GM[1]FF[4]RO[4]
PB[Konishi Kazuko]
BR[5 dan]
PW[Okada Yumiko]
WR[3 dan]
KM[5.5]
DT[1995-]
RE[B+R]
EV[Rico Cup Pair Go, 1st]

;B[pd]
;W[dd]
;B[pq]
;W[dp]
;B[fq]
;W[cn]
;B[dr]
;W[qn]
;B[qp]
;W[qk]
;B[cq]
;W[nc]
;B[qf]
;W[dj]
;B[jc]
;W[pc]
;B[qc]
;W[qb]
;B[oc]
;W[pb]
;B[od]
;W[ob]
;B[rc]
;W[gc]
;B[lc]
;W[nd]
;B[mb]
;W[nb]
;B[le]
;W[nf]
;B[qi]
;W[mg]
;B[kg]
;W[ig]
;B[ki]
;W[mi]
;B[pm]
;W[qm]
;B[pk]
;W[pf]
;B[qe]
;W[pn]
;B[qj]
;W[qg]
;B[rg]
;W[pg]
;B[qh]
;W[pl]
;B[ok]
;W[rf]
;B[re]
;W[nm]
;B[rk]
;W[mk]
;B[hf]
;W[if]
;B[hd]
;W[kf]
;B[lf]
;W[lg]
;B[kh]
;W[je]
;B[hc]
;W[hg]
;B[ke]
;W[jf]
;B[kk]
;W[gf]
;B[fc]
;W[fd]
;B[gd]
;W[ec]
;B[gb]
;W[ml]
;B[hj]
;W[hk]
;B[ij]
;W[gj]
;B[gi]
;W[ik]
;B[jk]
;W[gk]
;B[hh]
;W[ih]
;B[fh]
;W[eg]
;B[eh]
;W[jj]
;B[ji]
;W[ii]
;B[hi]
;W[fi]
;B[kj]
;W[dh]
;B[ei]
;W[di]
;B[fj]
;W[fk]
;B[ej]
;W[ek]
;B[fg]
;W[ff]
;B[gg]
;W[he]
;B[ef]
;W[dg]
;B[eb]
;W[gq]
;B[gp]
;W[hq]
;B[hp]
;W[fr]
;B[eq]
;W[iq]
;B[mq]
;W[cp]
;B[er]
;W[lr]
;B[lq]
;W[mr]
;B[nr]
;W[kq]
;B[cc]
;W[cd]
;B[fe]
;W[ee]
;B[ed]
;W[df]
;B[ql]
;W[dc]
;B[cb])