(;CP[My Friday Night Files, 2002]AP[SGFcv.py:0.3]GM[1]FF[4]BR[9d]
PW[Cho Chikun]
WR[Oza]
US[JBvR]
SO[Kido YB]
RO[35]
DT[1977-08-11]
PB[Hashimoto Utaro]
RE[W+10.5]
GC[ ]
EV[Meijin, 2nd]

;B[pd]
;W[cq]
;B[dp]
;W[cp]
;B[do]
;W[er]
;B[dc]
;W[de]
;B[qo]
;W[cc]
;B[op]
;W[db]
;B[gp]
;W[bn]
;B[qi]
;W[ec]
;B[kp]
;W[nc]
;B[ne]
;W[ld]
;B[lf]
;W[qc]
;B[qd]
;W[pc]
;B[jf]
;W[pj]
;B[pi]
;W[nj]
;B[oi]
;W[ml]
;B[ol]
;W[kl]
;B[oj]
;W[il]
;B[dl]
;W[qp]
;B[po]
;W[pq]
;B[oq]
;W[or]
;B[nr]
;W[pr]
;B[rp]
;W[rq]
;B[pp]
;W[qq]
;B[ro]
;W[rr]
;B[jc]
;W[lc]
;B[rc]
;W[od]
;B[oe]
;W[rb]
;B[lm]
;W[ll]
;B[nk]
;W[ji]
;B[hi]
;W[jn]
;B[hk]
;W[hl]
;B[gl]
;W[gm]
;B[fl]
;W[ik]
;B[rd]
;W[di]
;B[nd]
;W[oc]
;B[kb]
;W[hc]
;B[hd]
;W[gc]
;B[id]
;W[lb]
;B[kj]
;W[jj]
;B[gj]
;W[jp]
;B[jq]
;W[ip]
;B[kq]
;W[iq]
;B[ck]
;W[ci]
;B[eg]
;W[dg]
;B[ef]
;W[df]
;B[gr]
;W[go]
;B[ir]
;W[mk]
;B[li]
;W[nl]
;B[ok]
;W[mi]
;B[mh]
;W[fp]
;B[eq]
;W[fq]
;B[fr]
;W[dr]
;B[gq]
;W[fn]
;B[en]
;W[fm]
;B[fi]
;W[lo]
;B[ko]
;W[kn]
;B[nn]
;W[mr]
;B[mq]
;W[ns]
;B[nq]
;W[em]
;B[dm]
;W[mn]
;B[nm]
;W[mm]
;B[fe]
;W[ih]
;B[hg]
;W[ig]
;B[hf]
;W[lr]
;B[kr]
;W[bj]
;B[sb]
;W[ra]
;B[ib]
;W[cn]
;B[dn]
;W[bl]
;B[mo]
;W[hb]
;B[ed]
;W[dd]
;B[la]
;W[ma]
;B[ka]
;W[mc]
;B[ha]
;W[ga]
;B[ia]
;W[gd]
;B[ge]
;W[kg]
;B[lh]
;W[ej]
;B[el]
;W[hh]
;B[gh]
;W[hp]
;B[bk]
;W[ak]
;B[ei]
;W[dj]
;B[kk]
;W[jk]
;B[lp]
;W[ln]
;B[hq]
;W[fj]
;B[fb]
;W[gb]
;B[fc]
;W[fd]
;B[ee]
;W[eb]
;B[ni]
;W[mj]
;B[le]
;W[kd]
;B[jo]
;W[io]
;B[cm]
;W[bm]
;B[co]
;W[bo]
;B[jg]
;W[ki]
;B[lj]
;W[kh]
;B[dh]
;W[ch]
;B[eh]
;W[ii]
;B[gk]
;W[ie]
;B[if]
;W[je]
;B[he]
;W[lg]
;B[mg]
;W[md]
;B[me]
;W[pa]
;B[es]
;W[ds]
;B[fs]
;W[sp]
;B[so]
;W[sq]
;B[dq]
;W[cr]
;B[ks]
;W[os])