(;CP[My Friday Night Files, 2002]AP[SGFcv.py:0.3]GM[1]FF[4]RO[9]
DT[1977-02-16]
BR[9d]
PW[Cho Chikun]
WR[Oza]
KM[5.5]
RE[B+6.5]
US[JBvR]
SO[Kido YB]
PB[Ishida Yoshio]
EV[Meijin, 2nd]

;B[pd]
;W[cc]
;B[qp]
;W[cp]
;B[eq]
;W[op]
;B[lp]
;W[pm]
;B[oo]
;W[no]
;B[pp]
;W[on]
;B[oq]
;W[po]
;B[nq]
;W[nc]
;B[qf]
;W[jd]
;B[df]
;W[ed]
;B[cd]
;W[dd]
;B[ce]
;W[bc]
;B[cj]
;W[eh]
;B[ch]
;W[ef]
;B[lc]
;W[qc]
;B[pc]
;W[pb]
;B[ob]
;W[qb]
;B[oc]
;W[re]
;B[rf]
;W[qe]
;B[pe]
;W[pf]
;B[qh]
;W[qd]
;B[nd]
;W[kc]
;B[ld]
;W[jf]
;B[do]
;W[co]
;B[dn]
;W[cn]
;B[dm]
;W[cm]
;B[dl]
;W[cr]
;B[ff]
;W[fe]
;B[eg]
;W[fg]
;B[ee]
;W[gf]
;B[ef]
;W[gg]
;B[pk]
;W[ro]
;B[rp]
;W[gq]
;B[iq]
;W[go]
;B[dp]
;W[io]
;B[jp]
;W[mg]
;B[nk]
;W[qk]
;B[qj]
;W[ql]
;B[cq]
;W[dr]
;B[bq]
;W[dq]
;B[bp]
;W[bo]
;B[br]
;W[er]
;B[cl]
;W[bm]
;B[cs]
;W[an]
;B[kf]
;W[pj]
;B[oj]
;W[pi]
;B[qi]
;W[kg]
;B[og]
;W[ep]
;B[bl]
;W[ds]
;B[al]
;W[bs]
;B[qo]
;W[qn]
;B[je]
;W[ie]
;B[ke]
;W[ig]
;B[ic]
;W[id]
;B[kb]
;W[jb]
;B[jc]
;W[ib]
;B[kd]
;W[hc]
;B[bd]
;W[dh]
;B[cg]
;W[hr]
;B[ir]
;W[rn]
;B[aq]
;W[mj]
;B[ni]
;W[mi]
;B[ao]
;W[ap]
;B[fd]
;W[ge]
;B[ao]
;W[nh]
;B[oh]
;W[ap]
;B[se]
;W[sd]
;B[ao]
;W[fl]
;B[jh]
;W[jg]
;B[sf]
;W[sb]
;B[fj]
;W[ap]
;B[fi]
;W[ar]
;B[dc]
;W[ec]
;B[db]
;W[eb]
;B[bb]
;W[cb]
;B[ac]
;W[da]
;B[fh]
;W[mk]
;B[ij]
;W[nl]
;B[ok]
;W[me]
;B[ne]
;W[il]
;B[fk]
;W[mp]
;B[mq]
;W[lo]
;B[ko]
;W[kn]
;B[ol]
;W[jo]
;B[kp]
;W[om]
;B[ml]
;W[nm]
;B[kk]
;W[jl]
;B[jk]
;W[kl]
;B[kc]
;W[sp]
;B[sq]
;W[so]
;B[rq]
;W[is]
;B[js]
;W[hs]
;B[jr]
;W[rj]
;B[ri]
;W[gl]
;B[hq]
;W[gr]
;B[hp]
;W[ho]
;B[np]
;W[mo]
;B[rk]
;W[rl]
;B[sj]
;W[ii]
;B[hj]
;W[ji]
;B[lk]
;W[ll]
;B[mf]
;W[lf]
;B[nf]
;W[fn]
;B[hh]
;W[ab]
;B[aa]
;W[ba]
;B[ca]
;W[hi]
;B[gh]
;W[ba]
;B[ih]
;W[kh]
;B[ca]
;W[el]
;B[ek]
;W[ba]
;B[hb]
;W[gb]
;B[ca]
;W[qg]
;B[rg]
;W[ba]
;B[rd]
;W[rc]
;B[ca]
;W[rh]
;B[sh]
;W[ba]
;B[hg]
;W[hf]
;B[ca]
;W[ka]
;B[la]
;W[ba]
;B[ja]
;W[ha]
;B[ca]
;W[oa]
;B[na]
;W[ba]
;B[jj]
;W[ki]
;B[ca]
;W[hk]
;B[gk]
;W[ba]
;B[le]
;W[ab]
;B[ad]
;W[eo]
;B[lg]
;W[pa]
;B[lh]
;W[mh]
;B[oo]
;W[nb]
;B[ma]
;W[op]
;B[gp]
;W[fp]
;B[oo]
;W[oe]
;B[od]
;W[op]
;B[em]
;W[oo]
;B[fm]
;W[gm]
;B[ik]
;W[hl]
;B[sl]
;W[sm]
;B[sk])