(;CP[My Friday Night Files, 2002]AP[SGFcv.py:0.3]GM[1]FF[4]EV[Kido sponsored match]
RO[1]
DT[1977]
PB[Cho Chikun]
BR[7 dan]
PW[Kobayashi Koichi]
WR[Tengen]
KM[5.5]
RE[B+0.5]
US[JBvR]
SO[Kido 53-10, sept. 77]

;B[pd]
;W[cc]
;B[pp]
;W[cq]
;B[pj]
;W[nc]
;B[lc]
;W[qc]
;B[qd]
;W[pc]
;B[od]
;W[nb]
;B[me]
;W[jp]
;B[df]
;W[fc]
;B[cj]
;W[ql]
;B[qn]
;W[rj]
;B[pl]
;W[qk]
;B[pk]
;W[qm]
;B[pn]
;W[qh]
;B[oh]
;W[mq]
;B[nr]
;W[ep]
;B[mr]
;W[cl]
;B[rc]
;W[rb]
;B[re]
;W[rn]
;B[ro]
;W[rm]
;B[sb]
;W[lb]
;B[kb]
;W[kc]
;B[jc]
;W[kd]
;B[mb]
;W[ld]
;B[la]
;W[md]
;B[gc]
;W[jd]
;B[fd]
;W[ic]
;B[ec]
;W[bf]
;B[oc]
;W[ib]
;B[ob]
;W[na]
;B[hp]
;W[jn]
;B[hn]
;W[jl]
;B[hl]
;W[el]
;B[cf]
;W[be]
;B[bg]
;W[dd]
;B[cb]
;W[bb]
;B[db]
;W[ee]
;B[ff]
;W[ba]
;B[ef]
;W[ch]
;B[cg]
;W[dj]
;B[di]
;W[ej]
;B[ck]
;W[bl]
;B[en]
;W[ci]
;B[dh]
;W[fo]
;B[fn]
;W[gn]
;B[gm]
;W[go]
;B[fl]
;W[ho]
;B[cn]
;W[eh]
;B[bi]
;W[dm]
;B[eo]
;W[dp]
;B[co]
;W[ei]
;B[bh]
;W[em]
;B[fm]
;W[hi]
;B[jk]
;W[kl]
;B[ik]
;W[in]
;B[ji]
;W[bp]
;B[kq]
;W[jq]
;B[jr]
;W[ir]
;B[kr]
;W[hq]
;B[kf]
;W[ig]
;B[jg]
;W[ge]
;B[if]
;W[ao]
;B[lk]
;W[mo]
;B[np]
;W[pm]
;B[nd]
;W[mc]
;B[nl]
;W[lq]
;B[lr]
;W[oo]
;B[op]
;W[rp]
;B[so]
;W[qo]
;B[qp]
;W[po]
;B[rq]
;W[pg]
;B[on]
;W[no]
;B[om]
;W[sn]
;B[sp]
;W[mm]
;B[rg]
;W[rh]
;B[og]
;W[qf]
;B[kp]
;W[ml]
;B[mk]
;W[ko]
;B[qj]
;W[sq]
;B[sr]
;W[qi]
;B[rf]
;W[le]
;B[lf]
;W[fb]
;B[gb]
;W[fe]
;B[ed]
;W[ie]
;B[ca]
;W[mf]
;B[ne]
;W[of]
;B[nf]
;W[gd]
;B[fa]
;W[hf]
;B[jf]
;W[bk]
;B[bj]
;W[sg]
;B[ih]
;W[hg]
;B[lp]
;W[mp]
;B[ll]
;W[lm]
;B[lo]
;W[ln]
;B[hh]
;W[gh]
;B[gg]
;W[ii]
;B[jh]
;W[kk]
;B[kj]
;W[gj]
;B[bo]
;W[an]
;B[dk]
;W[ek]
;B[il]
;W[pi]
;B[oi]
;W[nm]
;B[ol]
;W[nn]
;B[cp]
;W[bq]
;B[sf]
;W[sh]
;B[cm]
;W[dl]
;B[bm]
;W[am]
;B[fh]
;W[gi]
;B[ce]
;W[bd]
;B[de]
;W[oa]
;B[pa]
;W[hc]
;B[he]
;W[hd]
;B[gf]
;W[he]
;B[cd]
;W[bc]
;B[dc]
;W[nq]
;B[oq]
;W[im]
;B[ha]
;W[hm]
;B[ia]
;W[ja]
;B[eb]
;W[hb]
;B[ga]
;W[jb]
;B[gk]
;W[js]
;B[ks]
;W[is]
;B[af]
;W[ae]
;B[ag]
;W[eg]
;B[fg]
;W[aj]
;B[ai]
;W[ak]
;B[fk]
;W[hk]
;B[hj]
;W[ij]
;B[jj]
;W[hk]
;B[ab]
;W[ac]
;B[hj]
;W[or]
;B[pr]
;W[hk]
;B[rk]
;W[sk]
;B[hj]
;W[pb]
;B[qb]
;W[hk]C[268 moves. black connects last ko.])