(;CP[My Friday Night Files, 2002]AP[SGFcv.py:0.3]GM[1]FF[4]RO[23]
DT[1977-05-19]
PB[Cho Chikun]
BR[Oza]
PW[Kajiwara Takeo]
WR[9d]
KM[5.5]
RE[W+R]
US[JBvR]
SO[Kido YB]
EV[Meijin, 2nd]

;B[qd]
;W[dp]
;B[qq]
;W[dc]
;B[oc]
;W[qj]
;B[ce]
;W[dh]
;B[df]
;W[bd]
;B[cc]
;W[cd]
;B[dd]
;W[ed]
;B[de]
;W[cb]
;B[ec]
;W[bc]
;B[db]
;W[fc]
;B[cc]
;W[pc]
;B[dc]
;W[pd]
;B[qc]
;W[qb]
;B[pe]
;W[od]
;B[rb]
;W[ob]
;B[qa]
;W[pb]
;B[qg]
;W[jc]
;B[be]
;W[pf]
;B[qe]
;W[oe]
;B[pg]
;W[qm]
;B[cn]
;W[cl]
;B[dl]
;W[dk]
;B[dm]
;W[ck]
;B[ek]
;W[ej]
;B[fj]
;W[fk]
;B[el]
;W[ei]
;B[gk]
;W[gq]
;B[bh]
;W[bi]
;B[iq]
;W[ip]
;B[jp]
;W[io]
;B[hq]
;W[hp]
;B[kq]
;W[fl]
;B[gm]
;W[fm]
;B[fn]
;W[gj]
;B[gl]
;W[fi]
;B[em]
;W[fj]
;B[ep]
;W[gn]
;B[eo]
;W[go]
;B[dq]
;W[kn]
;B[ke]
;W[cq]
;B[gr]
;W[fq]
;B[eq]
;W[fr]
;B[cr]
;W[mq]
;B[lo]
;W[ko]
;B[lq]
;W[mp]
;B[lp]
;W[pp]
;B[qp]
;W[po]
;B[pq]
;W[oq]
;B[qo]
;W[qn]
;B[or]
;W[nr]
;B[op]
;W[oo]
;B[nq]
;W[np]
;B[oq]
;W[lr]
;B[nn]
;W[no]
;B[ln]
;W[om]
;B[ll]
;W[km]
;B[nl]
;W[jk]
;B[oj]
;W[kd]
;B[je]
;W[hc]
;B[kj]
;W[nm]
;B[jj]
;W[nk]
;B[ik]
;W[kk]
;B[lk]
;W[ij]
;B[ii]
;W[hj]
;B[kl]
;W[jl]
;B[jm]
;W[il]
;B[jo]
;W[jn]
;B[im]
;W[hk]
;B[lm]
;W[in]
;B[ol]
;W[pl]
;B[ok]
;W[fb]
;B[ri]
;W[ro]
;B[rj]
;W[sq]
;B[ns]
;W[mr]
;B[sr]
;W[rr]
;B[rp]
;W[rn]
;B[sp]
;W[ss]
;B[ld]
;W[lc]
;B[rl]
;W[ps]
;B[rq]
;W[os]
;B[sr]
;W[jr]
;B[kr]
;W[sq]
;B[hl]
;W[hm]
;B[sr]
;W[rk]
;B[md]
;W[mc]
;B[rs]
;W[qk]
;B[mn]
;W[so]
;B[qs]
;W[sm]
;B[nf]
;W[bn]
;B[bo]
;W[bm]
;B[ao]
;W[of]
;B[og]
;W[jg]
;B[jh]
;W[ig]
;B[kg]
;W[ih]
;B[hi]
;W[mf]
;B[ne]
;W[ng]
;B[le]
;W[qf]
;B[rf]
;W[kh]
;B[on]
;W[pn])