(;CP[My Friday Night Files, 2002]AP[SGFcv.py:0.3]GM[1]FF[4]RO[4]
DT[1977-12-22]
PB[Cho Chikun]
BR[7d]
PW[Hashimoto Utaro]
WR[9d]
KM[5.5]
RE[B+R]
US[JBvR]
SO[Kido YB]
EV[Meijin, 3rd]

;B[pd]
;W[dd]
;B[pq]
;W[po]
;B[qo]
;W[pp]
;B[qp]
;W[oq]
;B[qn]
;W[dp]
;B[pr]
;W[dj]
;B[fq]
;W[jd]
;B[cq]
;W[dq]
;B[cp]
;W[do]
;B[dr]
;W[co]
;B[er]
;W[go]
;B[cf]
;W[bd]
;B[ch]
;W[dg]
;B[df]
;W[dh]
;B[ef]
;W[fd]
;B[be]
;W[ce]
;B[di]
;W[ei]
;B[ci]
;W[cj]
;B[eh]
;W[eg]
;B[fg]
;W[fh]
;B[cg]
;W[eh]
;B[gh]
;W[gg]
;B[ff]
;W[hh]
;B[gi]
;W[ej]
;B[gd]
;W[fc]
;B[gf]
;W[hg]
;B[ie]
;W[je]
;B[id]
;W[jf]
;B[af]
;W[ib]
;B[hb]
;W[hc]
;B[ic]
;W[gb]
;B[jb]
;W[ha]
;B[jc]
;W[if]
;B[mc]
;W[no]
;B[qe]
;W[hp]
;B[me]
;W[qc]
;B[pc]
;W[or]
;B[om]
;W[mm]
;B[nk]
;W[re]
;B[rf]
;W[mf]
;B[lk]
;W[le]
;B[md]
;W[rd]
;B[pb]
;W[qf]
;B[qg]
;W[pf]
;B[rh]
;W[jk]
;B[kl]
;W[mj]
;B[mk]
;W[oh]
;B[nf]
;W[ol]
;B[nm]
;W[ng]
;B[mg]
;W[qi]
;B[pg]
;W[pm]
;B[pn]
;W[qm]
;B[on]
;W[of]
;B[lf]
;W[og]
;B[ri]
;W[qj]
;B[rj]
;W[qk]
;B[rb]
;W[oj]
;B[lp]
;W[lq]
;B[kq]
;W[lr]
;B[im]
;W[hl]
;B[hm]
;W[gm]
;B[il]
;W[ik]
;B[gl]
;W[hk]
;B[gn]
;W[fm]
;B[fn]
;W[hn]
;B[em]
;W[fl]
;B[fo]
;W[kp]
;B[in]
;W[en]
;B[jp]
;W[ko]
;B[jq]
;W[lo]
;B[ho]
;W[ps]
;B[el]
;W[fk]
;B[cm]
;W[bq]
;B[bp]
;W[bo]
;B[br]
;W[bk]
;B[cc]
;W[cd]
;B[bc]
;W[ad]
;B[hd]
;W[an]
;B[dc]
;W[ec]
;B[eb]
;W[ac]
;B[ab]
;W[ca]
;B[bb]
;W[ea]
;B[db]
;W[fb]
;B[da]
;W[ba]
;B[ed]
;W[ee]
;B[fa]
;W[cb]
;B[gc]
;W[ga]
;B[hb]
;W[ea]
;B[aa]
;W[ca]
;B[ia])