(
;
GM[1]
VW[]
US[Converted by sgf2misc-2.5]
EV[3rd Honinbo title]
RO[1, playoff]
ID[ 3/7]
FF[3]
PB[Hashimoto Utaro]
BR[8 dan]
PW[Iwamoto Kaoru]
WR[7 dan]
DT[1946-07-31,08-15,16,17]
PC[Hiroshima and Koyasan, Wakayama Pref.]
RE[W+5]
KM[0]
TM[13h]
;B[qd];W[ce];B[od];W[pp];B[ep];W[cp];B[dn];W[eq];B[dp];W[dq]
;B[cq];W[bq];B[cr];W[br];B[co];W[bp];B[fq];W[dr];B[er];W[cs]
;B[gp];W[fo];B[fp];W[dc];B[jc];W[pi];B[qk];W[mq];B[qi];W[pc]
;B[pd];W[kd];B[jd];W[qh];B[ph];W[qj];B[ri];W[oi];B[rj];W[pg]
;B[ke];W[oh];B[fc];W[qn];B[ok];W[md];B[oc];W[mf];B[ee];W[cg]
;B[pq];W[oq];B[qp];W[po];B[qr];W[or];B[ro];W[rn];B[rq];W[pr]
;B[qq];W[iq];B[mk];W[nl];B[nk];W[pj];B[pk];W[lh];B[mi];W[mh]
;B[io];W[jo];B[jn];W[jp];B[kn];W[hd];B[db];W[cc];B[ec];W[kc]
;B[jf];W[rl];B[qf];W[rg];B[rk];W[le];B[df];W[cf];B[lo];W[mp]
;B[di];W[kj];B[jh];W[ig];B[jg];W[eh];B[ei];W[ie];B[je];W[fh]
;B[fi];W[gh];B[hc];W[hj];B[dh];W[dg];B[eg];W[ff];B[ef];W[gk]
;B[ii];W[ij];B[jk];W[dl];B[fl];W[fk];B[gi];W[hi];B[hh];W[ih]
;B[hg];W[if];B[fg];W[ji];B[cb];W[bh];B[bi];W[ll];B[ml];W[lm]
;B[mm];W[lk];B[mo];W[no];B[hm];W[ln];B[mn];W[ko];B[rh];W[qg]
;B[rf];W[sh];B[li];W[mj];B[pm];W[so];B[sp];W[qo];B[sn];W[sm]
;B[nj];W[ni];B[lj];W[ki];B[mj];W[kk];B[si];W[sf];B[sg];W[gc]
;B[gb];W[sh];B[bc];W[bd];B[sg];W[cj];B[ch];W[ah];B[bj];W[gl]
;B[ck];W[gm];B[gn];W[fn];B[em];W[bb];B[so];W[sh];B[dd];W[ac]
;B[sg];W[sr];B[rr];W[sh];B[qm];W[rm];B[sg];W[sq];B[ss];W[sh]
;B[sk];W[go];B[ip];W[jq];B[hn];W[fm];B[hq];W[cl];B[gr];W[bk]
;B[dk];W[dj];B[ek];W[el];B[ej];W[ob];B[pb];W[nb];B[nc];W[lb]
;B[mc];W[mb];B[jb];W[qc];B[rc];W[qb];B[rb];W[pa];B[sg];W[ir]
;B[lp];W[lq];B[bl];W[bm];B[ak];W[bn];B[es];W[sh];B[se];W[gd]
;B[ic];W[ca];B[cd];W[bc];B[eb];W[sg];B[pf];W[of];B[on];W[ra]
;B[rd];W[oo];B[kq];W[kr];B[jl];W[nn];B[nm];W[dm];B[kp];W[il]
;B[jm];W[oe];B[lg];W[kh];B[kg];W[hf];B[gg];W[gf];B[ne];W[nf]
;B[mg];W[ng];B[kb];W[en];B[da];W[ba];B[bo];W[ao];B[lc];W[ld]
;B[bg];W[bf];B[ai];W[ag];B[lf];W[pe];B[qe];W[cn];B[do];W[am]
;B[hs];W[is];B[hr];W[lr];B[fe];W[pn];B[om];W[ql];B[ge];W[pl]
;B[ol];W[de];B[ed];W[al];B[bk];W[ka];B[ja];W[la];B[ps];W[os]
;B[qs];W[sb];B[sc];W[qa];B[sa])
