(;US[JBvR]CP[My Friday Night Files, 2002]AP[SGFcv.py:0.3]GM[1]FF[4]RO[3]
PB[Cho Chikun]
BR[8 dan]
PW[Otake Hideo]
WR[Meijin, Gosei]
DT[1979-08-10]
RE[B+R]
SO[Go World 16]
KM[5.5]
EV[Gosei, 4th, match]

;B[pd]
;W[dp]
;B[pq]
;W[dc]
;B[pk]
;W[jq]
;B[de]
;W[ce]
;B[dd]
;W[cd]
;B[ec]
;W[cf]
;B[df]
;W[dg]
;B[cc]
;W[db]
;B[bc]
;W[cb]
;B[cg]
;W[ch]
;B[bb]
;W[eb]
;B[bg]
;W[bf]
;B[bh]
;W[bd]
;B[ci]
;W[eg]
;B[fe]
;W[fc]
;B[ff]
;W[ei]
;B[cl]
;W[gh]
;B[ie]
;W[ic]
;B[ke]
;W[jh]
;B[cn]
;W[fp]
;B[lh]
;W[qf]
;B[qh]
;W[qc]
;B[qd]
;W[rd]
;B[re]
;W[rc]
;B[rf]
;W[ob]
;B[nd]
;W[po]
;B[nq]
;W[qq]
;B[qp]
;W[pp]
;B[rq]
;W[qr]
;B[pr]
;W[rp]
;B[qo]
;W[rr]
;B[qn]
;W[no]
;B[mp]
;W[pm]
;B[qm]
;W[ro]
;B[ln]
;W[mm]
;B[rn]
;W[ps]
;B[os]
;W[qs]
;B[lm]
;W[mk]
;B[ll]
;W[pl]
;B[qk]
;W[ok]
;B[lk]
;W[mo]
;B[lo]
;W[lp]
;B[lq]
;W[kp]
;B[jr]
;W[kr]
;B[kq]
;W[lr]
;B[mq]
;W[jp]
;B[ir]
;W[oq]
;B[mr]
;W[nr]
;B[ks]
;W[np]
;B[ls]
;W[hp]
;B[gq]
;W[gp]
;B[gk]
;W[ek]
;B[dj]
;W[ej]
;B[em]
;W[fl]
;B[gn]
;W[gl]
;B[eo]
;W[hq]
;B[hr]
;W[fq]
;B[cq]
;W[fn]
;B[hl]
;W[hm]
;B[im]
;W[hn]
;B[in]
;W[go]
;B[ij]
;W[cp]
;B[dq]
;W[ep]
;B[er]
;W[ig]
;B[gc]
;W[gb]
;B[hc]
;W[hb]
;B[fd]
;W[ed]
;B[id]
;W[hf]
;B[jc]
;W[gd]
;B[ae]
;W[ad]
;B[af]
;W[ab]
;B[ib]
;W[ge]
;B[nb]
;W[oc]
;B[nc]
;W[od]
;B[oe]
;W[pc]
;B[so]
;W[sq]
;B[oj]
;W[mj]
;B[ml]
;W[nl]
;B[ni]
;W[lj]
;B[kj]
;W[ki]
;B[jk]
;W[hk]
;B[il]
;W[lg]
;B[li]
;W[ql]
;B[rl]
;W[kg]
;B[mi]
;W[nk]
;B[mg]
;W[na]
;B[ma]
;W[oa]
;B[lb]
;W[bo]
;B[bq]
;W[al]
;B[ak]
;W[dk]
;B[ck]
;W[di]
;B[cj]
;W[lf]
;B[me]
;W[mf]
;B[nf]
;W[ng]
;B[mh]
;W[hj]
;B[hi]
;W[gj]
;B[ji]
;W[qe]
;B[pe]
;W[rg]
;B[qg]
;W[se]
;B[pf]
;W[sf]
;B[sd]
;W[sc]
;B[pn]
;W[nm]
;B[on]
;W[hh]
;B[ag]
;W[ba]
;B[gr]
;W[kh]
;B[ii]
;W[jn]
;B[gi]
;W[fj]
;B[io]
;W[jo]
;B[ik]
;W[fr]
;B[fs]
;W[dm]
;B[en]
;W[dl]
;B[bn]
;W[an]
;B[bl]
;W[ri]
;B[rh]
;W[sh]
;B[om]
;W[ol]
;B[oo]
;W[op]
;B[rj]
;W[am]
;B[ai]
;W[sg]
;B[qi]
;W[ra]
;B[si]
;W[sd]
;B[dh]
;W[eh]
;B[bp]
;W[co]
;B[dn])