(;US[JBvR]SO[Cho Chikun Internet Book]CP[My Friday Night Files, 2002]AP[SGFcv.py:0.3]GM[1]FF[4]EV[Oteai]
PW[Cho Chikun]
WR[8d]
PB[Awaji Shuzo]
BR[7d]
DT[1979-09-13]
KM[0]
RE[W+R]

;B[qd]
;W[dd]
;B[pq]
;W[cq]
;B[oc]
;W[qo]
;B[qk]
;W[pp]
;B[oq]
;W[qq]
;B[qr]
;W[rq]
;B[mp]
;W[jc]
;B[cf]
;W[ce]
;B[df]
;W[fd]
;B[cj]
;W[ch]
;B[bf]
;W[dh]
;B[ff]
;W[fh]
;B[hf]
;W[cn]
;B[dm]
;W[dn]
;B[em]
;W[bl]
;B[dk]
;W[hh]
;B[en]
;W[jh]
;B[jf]
;W[ie]
;B[gd]
;W[ge]
;B[fe]
;W[ee]
;B[he]
;W[ef]
;B[fc]
;W[ed]
;B[hc]
;W[gb]
;B[fb]
;W[db]
;B[cc]
;W[cd]
;B[lc]
;W[fg]
;B[gf]
;W[ld]
;B[kc]
;W[je]
;B[if]
;W[kd]
;B[lf]
;W[mc]
;B[mb]
;W[ic]
;B[hb]
;W[lb]
;B[kb]
;W[nb]
;B[la]
;W[nc]
;B[md]
;W[nd]
;B[me]
;W[ne]
;B[nf]
;W[pe]
;B[qe]
;W[of]
;B[qg]
;W[ng]
;B[mf]
;W[eq]
;B[iq]
;W[lp]
;B[op]
;W[pn]
;B[mo]
;W[io]
;B[do]
;W[co]
;B[gq]
;W[hp]
;B[dp]
;W[cp]
;B[hq]
;W[fp]
;B[gp]
;W[go]
;B[bi]
;W[bh]
;B[ei]
;W[eh]
;B[fo]
;W[gn]
;B[gl]
;W[jp]
;B[lr]
;W[il]
;B[ik]
;W[jl]
;B[hk]
;W[jk]
;B[gj]
;W[lq]
;B[kr]
;W[mq]
;B[mr]
;W[oo]
;B[nq]
;W[qj]
;B[ph]
;W[jb]
;B[ja]
;W[ia]
;B[ka]
;W[pj]
;B[og]
;W[qc]
;B[pd]
;W[ma]
;B[na]
;W[oa]
;B[ib]
;W[ma]
;B[ha]
;W[lb]
;B[ia]
;W[pc]
;B[od]
;W[ob]
;B[rj]
;W[ri]
;B[rl]
;W[sj]
;B[sk]
;W[rk]
;B[rc]
;W[rb]
;B[rj]
;W[kg]
;B[kf]
;W[rk]
;B[qb]
;W[pb]
;B[rj]
;W[fi]
;B[fj]
;W[rk]
;B[sb]
;W[qa]
;B[rj]
;W[jq]
;B[jr]
;W[rk]
;B[ra]
;W[rd]
;B[qb]
;W[re]
;B[qf]
;W[rb]
;B[bc]
;W[dc]
;B[qb]
;W[fm]
;B[fl]
;W[rb]
;B[ah]
;W[ag]
;B[qb]
;W[sc]
;B[sd]
;W[rb]
;B[rj]
;W[sc]
;B[si]
;W[oh]
;B[rc]
;W[se]
;B[oi]
;W[pg]
;B[pi]
;W[qi]
;B[nk]
;W[sh]
;B[sj]
;W[oj]
;B[nj]
;W[pl]
;B[rh]
;W[qh])