(;US[JBvR]CP[My Friday Night Files, 2002]AP[SGFcv.py:0.3]GM[1]FF[4]PW[Sakai Takeshi]
WR[8 dan]
PB[Cho Chikun]
BR[8 dan]
DT[1980-04-10]
RO[8 dan semifinal]
KM[5.5]
RE[B+4.5]
SO[1981 Kidoyearbook]
EV[Kisei title, 5th]

;B[qd]
;W[dc]
;B[pq]
;W[cp]
;B[oc]
;W[qo]
;B[pl]
;W[pn]
;B[np]
;W[rq]
;B[jq]
;W[eq]
;B[ce]
;W[cg]
;B[ee]
;W[fd]
;B[he]
;W[fe]
;B[dg]
;W[ch]
;B[ff]
;W[gf]
;B[ge]
;W[fg]
;B[ef]
;W[gc]
;B[hc]
;W[gg]
;B[ec]
;W[ed]
;B[dd]
;W[eb]
;B[cc]
;W[db]
;B[gb]
;W[fb]
;B[eg]
;W[eh]
;B[dh]
;W[di]
;B[ei]
;W[fh]
;B[dj]
;W[ci]
;B[cf]
;W[cj]
;B[dk]
;W[fi]
;B[ej]
;W[bl]
;B[gk]
;W[if]
;B[ie]
;W[jf]
;B[kd]
;W[ik]
;B[dm]
;W[en]
;B[em]
;W[fn]
;B[dn]
;W[ck]
;B[bm]
;W[cl]
;B[fj]
;W[ii]
;B[gm]
;W[im]
;B[bp]
;W[bq]
;B[dp]
;W[dq]
;B[co]
;W[cq]
;B[gq]
;W[mp]
;B[mq]
;W[lq]
;B[lp]
;W[mo]
;B[lr]
;W[nq]
;B[kq]
;W[mr]
;B[lq]
;W[op]
;B[nr]
;W[qi]
;B[oq]
;W[oi]
;B[ml]
;W[ln]
;B[pj]
;W[qj]
;B[oj]
;W[pi]
;B[nn]
;W[no]
;B[on]
;W[oo]
;B[qk]
;W[qm]
;B[ni]
;W[rk]
;B[mj]
;W[li]
;B[nh]
;W[md]
;B[mc]
;W[pc]
;B[pd]
;W[lc]
;B[ld]
;W[nc]
;B[mb]
;W[od]
;B[ob]
;W[nb]
;B[na]
;W[nd]
;B[pb]
;W[nf]
;B[pf]
;W[lb]
;B[ma]
;W[qf]
;B[rf]
;W[qg]
;B[qe]
;W[pg]
;B[lf]
;W[lg]
;B[ql]
;W[rl]
;B[ol]
;W[hb]
;B[gd]
;W[fc]
;B[ib]
;W[ga]
;B[jc]
;W[cm]
;B[bo]
;W[ep]
;B[do]
;W[gp]
;B[fq]
;W[fp]
;B[am]
;W[al]
;B[cn]
;W[bg]
;B[bf]
;W[cb]
;B[bc]
;W[hq]
;B[hr]
;W[gr]
;B[fr]
;W[ir]
;B[gs]
;W[iq]
;B[er]
;W[dr]
;B[es]
;W[hm]
;B[gn]
;W[io]
;B[hl]
;W[qr]
;B[qq]
;W[rr]
;B[jp]
;W[hn]
;B[go]
;W[ho]
;B[rg]
;W[rh]
;B[mg]
;W[qc]
;B[qb]
;W[rc]
;B[rb]
;W[kg]
;B[lj]
;W[mf]
;B[me]
;W[ne]
;B[le]
;W[pe]
;B[oe]
;W[of]
;B[ki]
;W[kh]
;B[ag]
;W[ah]
;B[af]
;W[aj]
;B[gi]
;W[kj]
;B[kk]
;W[jj]
;B[hh]
;W[ih]
;B[je]
;W[bb]
;B[ab]
;W[pe]
;B[rd]
;W[pr]
;B[jr]
;W[is]
;B[hs]
;W[sg]
;B[sf]
;W[sh]
;B[sc]
;W[kl]
;B[ll]
;W[aq]
;B[qp]
;W[rp]
;B[mn]
;W[km]
;B[lo]
;W[nq]
;B[or]
;W[pm]
;B[np]
;W[po]
;B[mi]
;W[lh]
;B[ds]
;W[cs]
;B[bs]
;W[cr]
;B[kn]
;W[lm]
;B[jn]
;W[il]
;B[ip]
;W[hp]
;B[jm]
;W[jl]
;B[hg]
;W[hf]
;B[oh]
;W[ig]
;B[ph]
;W[qh]
;B[gj]
;W[js]
;B[ks]
;W[jo]
;B[ko]
;W[om]
;B[nm]
;W[mm]
;B[nl]
;W[fm]
;B[fl]
;W[dl]
;B[el]
;W[ap]
;B[ao]
;W[os]
;B[ns]
;W[ps]
;B[ia]
;W[ha]
;B[nq]
;W[kf]
;B[hj]
;W[ba]C[time used:

W 5h 59m
B 5h 59m])