(;US[JBvR]SO[Cho Chikun Internet Book]CP[My Friday Night Files, 2002]AP[SGFcv.py:0.3]GM[1]FF[4]PW[Cho Chikun]
WR[8 dan]
PB[Hashimoto Utaro]
BR[9 dan]
DT[1980-01-24]
RO[6]
KM[5.5]
RE[W+R]
EV[Meijin, 5th]

;B[pd]
;W[dc]
;B[qp]
;W[dq]
;B[oq]
;W[de]
;B[cn]
;W[cp]
;B[ck]
;W[ci]
;B[jc]
;W[qf]
;B[nd]
;W[qi]
;B[qj]
;W[rj]
;B[rk]
;W[qk]
;B[pj]
;W[rl]
;B[ri]
;W[sk]
;B[qh]
;W[qc]
;B[qd]
;W[rd]
;B[re]
;W[rc]
;B[qe]
;W[ob]
;B[nb]
;W[oc]
;B[nc]
;W[od]
;B[oe]
;W[pc]
;B[pi]
;W[qo]
;B[ro]
;W[pp]
;B[qq]
;W[rn]
;B[qn]
;W[po]
;B[rm]
;W[qm]
;B[sn]
;W[pn]
;B[pm]
;W[rn]
;B[oa]
;W[ne]
;B[of]
;W[pa]
;B[qn]
;W[lc]
;B[ld]
;W[rn]
;B[cc]
;W[sm]
;B[db]
;W[eb]
;B[dd]
;W[ec]
;B[cd]
;W[ed]
;B[ce]
;W[cb]
;B[bb]
;W[da]
;B[df]
;W[ee]
;B[na]
;W[rf]
;B[se]
;W[nf]
;B[og]
;W[kd]
;B[me]
;W[le]
;B[mf]
;W[ng]
;B[md]
;W[kc]
;B[ra]
;W[sd]
;B[mh]
;W[bg]
;B[bf]
;W[dm]
;B[cm]
;W[cg]
;B[cf]
;W[dk]
;B[dl]
;W[el]
;B[cl]
;W[dj]
;B[em]
;W[ba]
;B[ef]
;W[ff]
;B[eh]
;W[fg]
;B[dh]
;W[fj]
;B[gi]
;W[fi]
;B[fh]
;W[gh]
;B[hh]
;W[gg]
;B[af]
;W[bc]
;B[bi]
;W[bh]
;B[ek]
;W[di]
;B[bj]
;W[ch]
;B[fl]
;W[gj]
;B[hi]
;W[hj]
;B[jd]
;W[je]
;B[ie]
;W[id]
;B[jf]
;W[ke]
;B[jb]
;W[if]
;B[he]
;W[hf]
;B[ge]
;W[jg]
;B[kf]
;W[lf]
;B[kg]
;W[lg]
;B[kh]
;W[lh]
;B[ij]
;W[ii]C[Time used:White 5h 24mBlack 3h 55m])