(;US[JBvR]CP[My Friday Night Files, 2002]AP[SGFcv.py:0.3]GM[1]FF[4]EV[Gosei 5th]
PB[Cho Chikun]
KM[5.5]
SO[Go world 22]
PW[Otake Hideo]
RO[Game 3]
RE[W+R]
GC[This is the correct date, 80-08-13 given in Go world is wrong.]
DT[1980-08-19]
BR[8 dan]
WR[9 dan]

;B[pd]
;W[dp]
;B[pp]
;W[dc]
;B[pj]
;W[de]
;B[jd]
;W[nq]
;B[lq]
;W[qq]
;B[qp]
;W[pq]
;B[op]
;W[rq]
;B[np]
;W[nr]
;B[fq]
;W[dn]
;B[fo]
;W[fm]
;B[cj]
;W[ch]
;B[bn]
;W[cn]
;B[bm]
;W[cl]
;B[bl]
;W[eq]
;B[fr]
;W[lc]
;B[ej]
;W[le]
;B[jf]
;W[lg]
;B[qf]
;W[jh]
;B[kc]
;W[lb]
;B[ec]
;W[ed]
;B[fc]
;W[db]
;B[fd]
;W[pc]
;B[qc]
;W[oc]
;B[qb]
;W[od]
;B[ff]
;W[pe]
;B[qd]
;W[ql]
;B[pl]
;W[pm]
;B[ol]
;W[qk]
;B[qj]
;W[ro]
;B[rp]
;W[sp]
;B[qn]
;W[rn]
;B[qm]
;W[rm]
;B[hn]
;W[qo]
;B[bp]
;W[fk]
;B[ek]
;W[el]
;B[gl]
;W[fl]
;B[hj]
;W[fj]
;B[ei]
;W[fi]
;B[eh]
;W[fh]
;B[cd]
;W[dd]
;B[cf]
;W[df]
;B[cg]
;W[dg]
;B[bh]
;W[ce]
;B[be]
;W[bd]
;B[hh]
;W[fg]
;B[kh]
;W[pf]
;B[qg]
;W[mp]
;B[nn]
;W[lp]
;B[kp]
;W[kq]
;B[jq]
;W[kr]
;B[jr]
;W[ko]
;B[jp]
;W[lr]
;B[pn]
;W[po]
;B[on]
;W[hg]
;B[ig]
;W[ck]
;B[bj]
;W[ge]
;B[gf]
;W[hi]
;B[ii]
;W[hf]
;B[he]
;W[bk]
;B[cm]
;W[dm]
;B[ak]
;W[ih]
;B[gi]
;W[gh]
;B[hi]
;W[hd]
;B[ie]
;W[fe]
;B[gd]
;W[ee]
;B[hc]
;W[ji]
;B[kg]
;W[jk]
;B[il]
;W[jl]
;B[nf]
;W[mf]
;B[lo]
;W[mo]
;B[ln]
;W[mn]
;B[lm]
;W[mm]
;B[ll]
;W[nk]
;B[ng]
;W[ne]
;B[mk]
;W[im]
;B[if]
;W[gg]
;B[hl]
;W[mj]
;B[nj]
;W[kj]
;B[gn]
;W[mi]
;B[ni]
;W[mh]
;B[lk]
;W[ki]
;B[nh]
;W[jn]
;B[jo]
;W[pg]
;B[nl]
;W[fb]
;B[gb]
;W[eb]
;B[id]
;W[pb]
;B[ke]
;W[mg]
;B[bf]
;W[ae]
;B[cq]
;W[af]
;B[bg]
;W[er]
;B[rj]
;W[qe]
;B[re]
;W[rf]
;B[rg]
;W[rd]
;B[sf]
;W[rb]
;B[rc]
;W[qa]
;B[sd]
;W[kb]
;B[jb]
;W[dh]
;B[sl]
;W[rl]
;B[ph]
;W[in]
;B[io]
;W[fs]
;B[hr]
;W[cp]
;B[br]
;W[ad]
;B[ci]
;W[ah]
;B[dk]
;W[dl]
;B[di]
;W[gs]
;B[kn]
;W[ja]
;B[ia]
;W[ka]
;B[ha]
;W[cs]
;B[bs]
;W[gr]
;B[gq]
;W[hs]
;B[is]
;W[es]
;B[og]
;W[oe]
;B[oq]
;W[or]
;B[cr]
;W[ld]
;B[kd]
;W[ag]
;B[bi]
;W[eo]
;B[fp]
;W[fn]
;B[ks]
;W[ls]
;B[co]
;W[ra])