(;US[JBvR]CP[My Friday Night Files, 2002]AP[SGFcv.py:0.3]GM[1]FF[4]PW[Sugiuchi Masao]
WR[9 dan]
PB[Cho Chikun]
DT[1980-05-22]
RO[1]
KM[5.5]
RE[B+R]
SO[1981 Kidoyearbook]
BR[9 dan]
EV[Judan, 19th]

;B[pd]
;W[dc]
;B[pq]
;W[cp]
;B[eq]
;W[po]
;B[qo]
;W[qn]
;B[qp]
;W[pm]
;B[nq]
;W[qi]
;B[qg]
;W[kd]
;B[ce]
;W[dg]
;B[cg]
;W[df]
;B[cf]
;W[de]
;B[cd]
;W[dd]
;B[dh]
;W[eh]
;B[ei]
;W[di]
;B[ch]
;W[fh]
;B[nc]
;W[dj]
;B[cc]
;W[do]
;B[gp]
;W[md]
;B[lb]
;W[jc]
;B[cr]
;W[pg]
;B[pf]
;W[og]
;B[qh]
;W[pi]
;B[of]
;W[nf]
;B[jj]
;W[mo]
;B[jh]
;W[hi]
;B[li]
;W[qf]
;B[qe]
;W[rf]
;B[re]
;W[oe]
;B[pe]
;W[ph]
;B[rg]
;W[rh]
;B[sf]
;W[mq]
;B[np]
;W[mp]
;B[ip]
;W[il]
;B[jl]
;W[jm]
;B[kl]
;W[ik]
;B[km]
;W[jn]
;B[mk]
;W[ih]
;B[jg]
;W[jk]
;B[kk]
;W[ji]
;B[ki]
;W[ij]
;B[ii]
;W[pp]
;B[or]
;W[ji]
;B[mg]
;W[ng]
;B[ii]
;W[qq]
;B[rq]
;W[ji]
;B[nm]
;W[no]
;B[ii]
;W[qr]
;B[rr]
;W[ji]
;B[lf]
;W[gn]
;B[bj]
;W[ck]
;B[bk]
;W[bl]
;B[rn]
;W[rm]
;B[mr]
;W[kq]
;B[jr]
;W[kj]
;B[lj]
;W[cb]
;B[bb]
;W[if]
;B[bq]
;W[cq]
;B[br]
;W[bi]
;B[ci]
;W[cj]
;B[bh]
;W[ak]
;B[ai]
;W[bn]
;B[hn]
;W[go]
;B[ho]
;W[fp]
;B[fq]
;W[hm]
;B[ep]
;W[eo]
;B[fo]
;W[fn]
;B[on]
;W[ro]
;B[rp]
;W[sn]
;B[ig]
;W[hg]
;B[jf]
;W[je]
;B[ie]
;W[hf]
;B[jb]
;W[ib]
;B[kb]
;W[hc]
;B[pn]
;W[om]
;B[nn]
;W[kn]
;B[oo]
;W[db]
;B[kr]
;W[ok]
;B[ri]
;W[rj]
;B[sh]
;W[ba]
;B[rk]C[time used:

W 4h 56m
B 4h 26m])