(;US[JBvR]SO[Cho Chikun Internet Book]CP[My Friday Night Files, 2002]AP[SGFcv.py:0.3]GM[1]FF[4]PW[Kato Masao]
WR[9 dan]
PB[Cho Chikun]
BR[8 dan]
RO[playoff]
KM[5.5]
RE[B+4.5]
EV[Meijin, 5th]
GC[Kido has 8-14 as date but that is incorrect.]
DT[1980-08-21]

;B[pd]
;W[dp]
;B[qp]
;W[dc]
;B[fq]
;W[dn]
;B[dr]
;W[cq]
;B[iq]
;W[ci]
;B[pj]
;W[nc]
;B[pf]
;W[pb]
;B[qc]
;W[kc]
;B[op]
;W[de]
;B[je]
;W[ld]
;B[jh]
;W[jp]
;B[jq]
;W[kp]
;B[ho]
;W[km]
;B[jn]
;W[kn]
;B[lo]
;W[ip]
;B[hp]
;W[jm]
;B[dm]
;W[em]
;B[dl]
;W[cn]
;B[in]
;W[ko]
;B[hl]
;W[kj]
;B[ij]
;W[nm]
;B[pm]
;W[kq]
;B[el]
;W[id]
;B[mq]
;W[qq]
;B[pq]
;W[nk]
;B[ol]
;W[nl]
;B[oi]
;W[rp]
;B[rq]
;W[qh]
;B[li]
;W[lj]
;B[mi]
;W[qe]
;B[qf]
;W[rf]
;B[rg]
;W[re]
;B[qg]
;W[pe]
;B[oe]
;W[rc]
;B[nd]
;W[oc]
;B[od]
;W[qd]
;B[md]
;W[mc]
;B[le]
;W[of]
;B[og]
;W[qo]
;B[pp]
;W[mp]
;B[np]
;W[mr]
;B[cg]
;W[dh]
;B[cd]
;W[dd]
;B[ce]
;W[cc]
;B[dg]
;W[eg]
;B[bi]
;W[bj]
;B[bh]
;W[eh]
;B[bk]
;W[sg]
;B[sh]
;W[sf]
;B[rh]
;W[ck]
;B[aj]
;W[cj]
;B[bl]
;W[hf]
;B[cr]
;W[bm]
;B[cl]
;W[fp]
;B[eq]
;W[br]
;B[bs]
;W[bp]
;B[bc]
;W[bb]
;B[ad]
;W[me]
;B[kd]
;W[lc]
;B[nf]
;W[on]
;B[pn]
;W[nq]
;B[mo]
;W[lq]
;B[no]
;W[or]
;B[pr]
;W[kr]
;B[ar]
;W[bq]
;B[jd]
;W[jc]
;B[ie]
;W[he]
;B[ig]
;W[hg]
;B[hh]
;W[gh]
;B[ab]
;W[ba]
;B[en]
;W[ep]
;B[df]
;W[ef]
;B[hd]
;W[ic]
;B[pc]
;W[qb]
;B[hi]
;W[ir]
;B[hq]
;W[jr]
;B[hr]
;W[ok]
;B[pk]
;W[om]
;B[pl]
;W[ki]
;B[kh]
;W[gi]
;B[gj]
;W[hm]
;B[gm]
;W[gn]
;B[fm]
;W[im]
;B[hn]
;W[fj]
;B[fk]
;W[ej]
;B[mj]
;W[mk]
;B[jk]
;W[fo]
;B[fn]
;W[go]
;B[fr]
;W[ln]
;B[kk]
;W[lk]
;B[mn]
;W[mm]
;B[kl]
;W[ll]
;B[os]
;W[ns]
;B[ps]
;W[il]
;B[ik]
;W[if]
;B[jf]
;W[nj]
;B[ni]
;W[ch]
;B[bg]
;W[ek]
;B[gk]
;W[hs]
;B[gs]
;W[is]
;B[eo]
;W[do]
;B[dk]
;W[dj]
;B[cm]
;W[bn]
;B[am]
;W[an]
;B[al]
;W[oo]
;B[po]
;W[gp]
;B[gq]
;W[ji]
;B[ii]
;W[lp]
;B[oq]
;W[nr]
;B[cs]
;W[aq]
;B[as]C[Time used:White 4h 54mBlack 5h 59m])