(;US[JBvR]SO[Cho Chikun Internet Book]CP[My Friday Night Files, 2002]AP[SGFcv.py:0.3]GM[1]FF[4]PW[Shiraishi Yutaka]
WR[9 dan]
PB[Cho Chikun]
BR[8 dan]
DT[1980-04-03]
RO[20]
KM[5.5]
RE[B+R]
EV[Honinbo, 35th]

;B[pd]
;W[dc]
;B[pq]
;W[cp]
;B[eq]
;W[po]
;B[qo]
;W[qn]
;B[qp]
;W[pm]
;B[nq]
;W[qi]
;B[qg]
;W[ce]
;B[ql]
;W[rm]
;B[pj]
;W[rk]
;B[rl]
;W[sl]
;B[qk]
;W[qj]
;B[rj]
;W[sk]
;B[pi]
;W[ri]
;B[qh]
;W[jc]
;B[lc]
;W[ol]
;B[cl]
;W[dq]
;B[ep]
;W[cn]
;B[ip]
;W[je]
;B[di]
;W[nc]
;B[pb]
;W[ld]
;B[db]
;W[cc]
;B[do]
;W[co]
;B[er]
;W[dr]
;B[ds]
;W[cs]
;B[es]
;W[br]
;B[mn]
;W[dn]
;B[fn]
;W[mc]
;B[ec]
;W[ed]
;B[fc]
;W[cb]
;B[ib]
;W[jb]
;B[ge]
;W[ee]
;B[ic]
;W[hf]
;B[gf]
;W[gg]
;B[he]
;W[hg]
;B[id]
;W[jn]
;B[rh]
;W[sj]
;B[ko]
;W[cj]
;B[dj]
;W[ci]
;B[dk]
;W[gm]
;B[ch]
;W[bh]
;B[bg]
;W[cg]
;B[dh]
;W[bi]
;B[gj]
;W[fm]
;B[ij]
;W[jg]
;B[jk]
;W[gn]
;B[gp]
;W[kn]
;B[lo]
;W[ll]
;B[lj]
;W[dg]
;B[lk]
;W[ml]
;B[nk]
;W[nl]
;B[ok]C[Time used:White 3h 51mBlack 4h 30m])