(;PB[Cho Chikun]PW[Kobayashi Koichi]DT[1985-11-06,07]RE[B+2.5]ID[85/6]BS[0]WS[0]GM[1]SZ[19]FF[3]BR[9 Dan]WR[9 Dan];B[qd];W[dp];B[dc];W[qp];B[ce];W[nc];B[od];W[pb];B[lc]
;W[qc];B[oc];W[ob];B[nd];W[rd];B[qe];W[re];B[qg];W[op];B[dn]
;W[fp];B[dj];W[hd];B[fc];W[hf];B[hh];W[ke];B[kg];W[kc];B[cp]
;W[cq];B[co];W[bq];B[fn];W[hp];B[ge];W[ig];B[gf];W[mc];B[pk]
;W[ih];B[hi];W[qm];B[ld];W[md];B[le];W[me];B[kd];W[lf];B[jd]
;W[kf];B[he];W[ie];B[id];W[pi];B[qi];W[qj];B[pj];W[oi];B[rj]
;W[qh];B[ri];W[rh];B[rg];W[ph];B[sh];W[rl];B[rk];W[ql];B[qk]
;W[of];B[nk];W[ni];B[om];W[nm];B[on];W[nn];B[oo];W[no];B[qo]
;W[ro];B[po];W[rq];B[qn];W[rn];B[pm];W[gl];B[kq];W[em];B[dm]
;W[dl];B[cl];W[el];B[ck];W[mq];B[pp];W[pq];B[iq];W[hq];B[ip]
;W[gj];B[fi];W[gi];B[gh];W[lb];B[kb];W[jb];B[jc];W[ka];B[ib]
;W[lr];B[lo];W[jn];B[in];W[jm];B[np];W[oq];B[jo];W[ho];B[kn]
;W[km];B[lm];W[ll];B[mm];W[mo];B[ml];W[lk];B[ja];W[an];B[bn]
;W[fj];B[ei];W[ao];B[bm];W[ij];B[hj];W[ik];B[hk];W[hl];B[ii]
;W[ji];B[pg];W[og];B[io];W[lp];B[im];W[il];B[mk];W[kp];B[ko]
;W[lj];B[am];W[bp];B[bo];W[ap];B[do];W[ir];B[jr];W[hr];B[ep]
;W[dq];B[eo];W[eq];B[mb];W[pe];B[pd];W[qf];B[pf];W[rf];B[oe]
;W[ne];B[sg];W[sf];B[si];W[nb];B[la];W[sk];B[fo];W[gp];B[mj]
;W[mi];B[hg];W[if];B[gk];W[fk];B[fm];W[fl];B[je];W[jf];B[is]
;W[hs];B[js];W[lq];B[jq];W[ls];B[na];W[oa];B[ma])