(;GM[1]DT[1993-10-20,21]FF[3]PB[Otake Hideo]PW[Kobayashi Koichi]PC[ ]RE[W+R]SZ[19]KM[5.5]ID[93/5]BS[0]WS[0]BR[9 Dan]WR[9 Dan];B[pd];W[dd];B[cp];W[qp];B[oq];W[kq];B[on];W[qm];B[iq]
;W[ko];B[io];W[km];B[ol];W[pk];B[kk];W[ok];B[ml];W[mn];B[nn]
;W[mm];B[nl];W[np];B[op];W[po];B[oo];W[jk];B[jj];W[jl];B[ij]
;W[hl];B[ep];W[kj];B[mj];W[ki];B[kl];W[in];B[mh];W[kg];B[hn]
;W[im];B[gj];W[ke];B[jh];W[kh];B[qq];W[rq];B[rr];W[qh];B[rp]
;W[di];B[gf];W[hg];B[hf];W[ig];B[gg];W[gh];B[fh];W[fi];B[jg]
;W[if];B[jf];W[ie];B[je];W[jd];B[id];W[hh];B[kf];W[lf];B[kd]
;W[jc];B[le];W[hd];B[kc];W[ji];B[ic];W[jb];B[hb];W[ih];B[ke]
;W[kb];B[lb];W[lc];B[mc];W[me];B[ld];W[md];B[lc];W[mg];B[nd]
;W[ne];B[oe];W[fc];B[ib];W[dl];B[cf];W[ce];B[eh];W[ei];B[ef]
;W[dg];B[dh];W[df];B[ch];W[ci];B[ee];W[de];B[ed];W[ec];B[gd]
;W[ge];B[he];W[fg];B[fe];W[eg];B[ii];W[gi];B[lh];W[lg];B[ng]
;W[hj];B[lj];W[ik];B[rh];W[ri];B[rg];W[ro];B[sq];W[pi];B[qg]
;W[pg];B[pf];W[qf];B[og];W[ph];B[rf];W[qe];B[re];W[gq];B[hp]
;W[dq];B[cq];W[fp];B[fo];W[eq];B[dp];W[gp];B[go];W[hr];B[cm]
;W[cl];B[dm];W[bm];B[bn];W[em];B[bl];W[dn];B[am];W[eo];B[fn]
;W[cn];B[bm];W[en];B[ir];W[fr];B[kr];W[lr];B[jq];W[lq];B[ls]
;W[nr];B[gm];W[qd];B[qc];W[bj];B[dr];W[er];B[ea];W[fb];B[db]
;W[dc];B[fa];W[ga];B[gb];W[cb];B[rn];W[rm];B[so];W[qn];B[qo]
;W[rk];B[gl];W[ek];B[nf];W[hi];B[mf];W[cr];B[br];W[ds];B[gc]
;W[bs];B[ar];W[bp])