(;GM[1]BS[0]WS[0]BL[1800.0]WL[1800.0]SZ[19]DT[1995-10-06]KM[5.5]PB[Takemiya Masaki]PW[Kobayashi Koichi]RE[B+R]FF[3]ID[95/3]BR[9 Dan]WR[9 Dan]RO[3];B[pd];W[dd];B[pp];W[dp];B[pj];W[nc];B[jd];W[qc];B[pc]
;W[qd];B[pe];W[pb];B[ob];W[qb];B[oc];W[qf];B[gd];W[dg];B[jp]
;W[gp];B[pf];W[qg];B[pg];W[mp];B[km];W[mn];B[ll];W[pq];B[qq]
;W[oq];B[qp];W[kq];B[jq];W[kp];B[jo];W[nb];B[oa];W[kc];B[jc]
;W[kd];B[ke];W[le];B[lf];W[me];B[kf];W[mf];B[mg];W[jb];B[ib]
;W[lb];B[ja];W[kb];B[nf];W[ic];B[hb];W[je];B[id];W[md];B[cn]
;W[lg];B[jg];W[ie];B[hd];W[kg];B[jf];W[jh];B[hf];W[ih];B[hg]
;W[ng];B[mh];W[nh];B[mi];W[ni];B[qh];W[mj];B[kh];W[oj];B[pi]
;W[ol];B[ql];W[pm];B[qm];W[pn];B[qn];W[gn];B[cj];W[im];B[ko]
;W[cl];B[cc];W[cd];B[dc];W[ch];B[bl];W[bm];B[cm];W[bk];B[bn]
;W[cp];B[ck];W[al];B[dl];W[bj];B[bl];W[hq];B[lj];W[cl];B[gl]
;W[el];B[bl];W[li];B[lh];W[cl];B[qe];W[re];B[bl];W[lk];B[kj]
;W[cl];B[ek];W[dm];B[bl];W[mk];B[kk];W[cl];B[dk];W[em];B[bl]
;W[jl];B[kl];W[cl];B[fm];W[en];B[bl];W[oh];B[rh];W[sf];B[sg]
;W[rf];B[ph];W[cl];B[rd];W[rc];B[bl];W[pk];B[qk];W[cl];B[rg]
;W[sd];B[bl];W[ec];B[eb];W[cl];B[bi];W[ci];B[bl];W[ln];B[jm]
;W[cl];B[bh];W[bg];B[bl];W[kn];B[jn];W[cl];B[aj]
(;W[ah];B[bl];W[ai];B[am];W[fk];B[bp];W[bq];B[bo];W[gk];B[br]
;W[aq];B[cq];W[cr];B[dq];W[dr];B[eq];W[bs];B[op];W[nq];B[ir]
;W[hr];B[kr];W[lr];B[fl];W[fn];B[hl];W[fi];B[hs];W[gs];B[mr]
;W[qr];B[rr];W[ls];B[pr];W[or];B[qs];W[np];B[bd];W[be];B[bc]TB[ac][ab][bb][ba][aa][ca][cb][db][da][ea][fa][ga][ha][hb][hc][ic][id][ie][je][jf][kg][lg][lh][li][sh][si][sj][sk][sl][sm][so][sq][ss][rs][qr][rr][sr][rq][rp][sp][ro][sn][rn][rm][rl][rk][rj][ri][qi][qh][qj][bm][al][an][ao]TC[5]TW[br][as][cs][ds][dr][er][es][fr][gr][gq][fq][eq][dq][cq][fp][mq][mr][ms][nq][nr][lq][nj][se][sd][rd][rc][sc][rb][sb][sa][ra][ld][lc][mc][mb][aj][bi][bh][bg][ag][af][bf][cg][cf][ce]
;W[ed];B[fc];W[ij];B[il];W[fb];B[db];W[fg];B[gh];W[gi];B[fh]
;W[eh];B[ej];W[ei];B[fe];W[ee];B[ff];W[ho];B[jj];W[ik];B[jk]
;W[hh];B[is];W[ar];B[do];W[ep];B[eo];W[fp];B[gg];W[ji];B[hm]
;W[fo];B[pl];W[ok];B[ef];W[in];B[ki];W[df];B[gr];W[fs];B[nm]TB[bm][al][an][li][lh][lg][kg][je][ie][he][ge][gf][ic][hc][hb][ha][gb][ga][fa][fb][ea][da][ca][ba][aa][ab][ac][bb][cb][sh][si][sj][sk][sm][sn][so][sp][sq][sr][ss][rs][rr][qr][rq][rp][ro][rn][rm][rl][sl][rk][rj][qj][qi][ri]TC[6]TW[as][br][cs][dr][dq][cq][ep][eq][es][ds][er][fr][gr][gq][fq][go][mr][ms][nr][mq][ns][se][sd][rd][sc][sb][rb][ra][sa][ld][lc][mc][mb][la][aj][bi][bh][bg][ag][af][bf][cg][cf][ce][de][ii][hi]
;W[mm];B[ml];W[nl];B[nj];W[nk];B[oi];W[om];B[og];W[nj];B[no]
;W[nn];B[lo];W[mo];B[oo])
(;W[bl];B[ai];W[ag];B[an];W[ah];B[am];W[ak];B[bi]))