(
;
EV[16th Tengen title]
RO[4]
PB[Rin Kaiho]
BR[Tengen]
PW[Kobayashi Koichi]
WR[Kisei]
KM[5.5]
DT[1990-12-10]
PC[Japan]
RE[B+3.5]
;B[pd];W[dp];B[pp];W[dd];B[pj];W[nc];B[jp];W[qf];B[pf];W[pg];B[of];W[qd]
;B[qe];W[re];B[pe];W[rg];B[qc];W[rd];B[og];W[ph];B[oh];W[jc];B[fq];W[cn]
;B[oq];W[qo];B[qp];W[pi];B[oi];W[qj];B[qk];W[rk];B[pk];W[rl];B[qm];W[rm]
;B[qn];W[ql];B[pl];W[rn];B[ro];W[jm];B[fo];W[lm];B[kl];W[km];B[ik];W[il]
;B[hk];W[jk];B[jj];W[kj];B[jl];W[ll];B[kk];W[lk];B[jk];W[ki];B[dm];W[cm]
;B[dk];W[nj];B[mi];W[pm];B[po];W[oj];B[om];W[ol];B[pn];W[ok];B[pm];W[ni]
;B[md];W[mh];B[mc];W[dl];B[lh];W[li];B[mg];W[nh];B[ek];W[eq];B[fr];W[gc]
;B[cl];W[bl];B[el];W[bk];B[cc];W[dc];B[cd];W[ce];B[be];W[bf];B[hc];W[hb]
;B[gb];W[fb];B[gd];W[ga];B[fc];W[gb];B[cf];W[de];B[bg];W[er];B[cb];W[df]
;B[cg];W[mb];B[lb];W[nb];B[kc];W[pc];B[pb];W[oc];B[rc];W[rb];B[qb];W[sb]
;B[jb];W[hd];B[ge];W[ic];B[ma];W[sc];B[db];W[fd];B[fe];W[ec];B[es];W[ds]
;B[fs];W[dr];B[lo];W[fp];B[gp];W[ep];B[hq];W[ko];B[kp];W[mo];B[lp];W[ng]
;B[nf];W[lg];B[na];W[qa];B[he];W[kd];B[nd];W[pa];B[od];W[ob];B[ib];W[ie]
;B[if];W[je];B[mn];W[hg];B[gg];W[gh];B[fg];W[ih];B[fh];W[gi];B[hf];W[fi]
;B[ei];W[ej];B[di];W[nm];B[nn];W[hm];B[gl];W[bi];B[mf];W[dg];B[dh];W[mm]
;B[in];W[go];B[ho];W[gn];B[im];W[fn];B[dn];W[eo];B[fj];W[gj];B[dj];W[sn]
;B[kh];W[ji];B[kg];W[jo];B[io];W[ld];B[lc];W[lf];B[kf];W[le];B[ig];W[ka]
;B[la];W[ia];B[kb];W[hh];B[rj];W[qi];B[bh];W[ci];B[ri];W[rh];B[ai];W[aj]
;B[ah];W[do];B[ck];W[ee];B[eb];W[ea];B[da];W[eg];B[eh];W[so];B[sp];W[me]
;B[ne];W[hl];B[gk];W[fm];B[en];W[em];B[ke];W[jd];B[dl];W[fl];B[fk];W[fo]
;B[ff];W[fa]
)
