(;GM[1]SZ[19]PW[Kobayashi Koichi]PB[Kato Masao]DT[1988-09-07,08]RE[B+R]ID[88/1]FF[3]BS[0]WS[0]BR[9 Dan]WR[9 Dan];B[pd];W[dd];B[pp];W[dp];B[pj];W[nc];B[pf];W[jd];B[jp]
;W[hq];B[ho];W[fq];B[pn];W[lp];B[iq];W[hp];B[jn];W[pq];B[oq]
;W[op];B[or];W[np];B[qp];W[on];B[pm];W[pr];B[mq];W[mr];B[lr]
;W[lq];B[ms];W[kr];B[nr];W[jq];B[cf];W[di];B[cc];W[cd];B[dc]
;W[ed];B[bd];W[be];B[bc];W[ce];B[fc];W[mp];B[jr];W[kq];B[ip]
;W[ir];B[qr];W[go];B[gp];W[gq];B[gn];W[fo];B[ck];W[ci];B[bo]
;W[co];B[bp];W[bn];B[cn];W[bm];B[dq];W[dn];B[cp];W[do];B[er]
;W[qh];B[nd];W[md];B[oc];W[ne];B[od];W[il];B[hm];W[gk];B[jl]
;W[jk];B[kl];W[kk];B[im];W[ik];B[ll];W[cr];B[br];W[fm];B[fd]
;W[fe];B[ge];W[gd];B[ec];W[ff];B[hd];W[gf];B[he];W[nb];B[me]
;W[ld];B[ph];W[qi];B[qj];W[rf];B[rd];W[pi];B[oi];W[pg];B[oh]
;W[og];B[ng];W[of];B[nf];W[qg];B[oe];W[rj];B[rk];W[sj];B[lb]
;W[jb];B[ob];W[oj];B[ql];W[mi];B[mh];W[nj];B[nh];W[pk];B[qk]
;W[qe];B[ic];W[kf];B[hf];W[mb];B[na];W[ma];B[lc];W[mc];B[jc]
;W[kc];B[kb];W[kd];B[gh];W[hg];B[gg];W[eg];B[jg];W[ib];B[hb]
;W[id];B[hc];W[ka];B[ia];W[la];B[eh];W[hh];B[hi];W[ih];B[ji]
;W[ii];B[ij];W[hj];B[jh];W[jj];B[ig];W[gi];B[lb])