

(;PB[Cho Chikun]PW[Kobayashi Koichi]DT[1991-06-]RE[B+10.5]KM[5.5]GM[1]SZ[19]FF[3]BS[0]WS[0];B[pd];W[dd];B[pq];W[dp];B[qo];W[jq];B[cn];W[dn];B[dm]
;W[co];B[en];W[do];B[cf];W[di];B[em];W[fp];B[ef];W[fd];B[fi]
;W[dk];B[ek];W[dg];B[df];W[fh];B[eh];W[fj];B[gh];W[ej];B[hc]
;W[hd];B[id];W[fg];B[eg];W[ic];B[jc];W[ib];B[hb];W[he];B[jb]
;W[ie];B[jd];W[gi];B[ei];W[gj];B[ge];W[gd];B[hn];W[gf];B[bd]
;W[hh];B[ip];W[jp];B[iq];W[jo];B[gq];W[fq];B[hr];W[fr];B[im]
;W[jm];B[bn];W[qf];B[re];W[pi];B[bp];W[bo];B[ao];W[bq];B[ck]
;W[nc];B[oc];W[nd];B[pf];W[qe];B[pe];W[qd];B[qc];W[rd];B[pg]
;W[rc];B[me];W[qb];B[pc];W[ke];B[ld];W[nq];B[qg];W[rf];B[oo]
;W[mf];B[nf];W[kd];B[lc];W[ne];B[mg];W[lf];B[nh];W[kc];B[lb]
;W[kb];B[ka];W[le];B[md];W[mb];B[na];W[ma];B[la];W[of];B[ng]
;W[ob];B[pb];W[pa];B[rb];W[ra];B[qa];W[je];B[ia];W[qb];B[br]
;W[sb];B[cq];W[fb];B[ri];W[nj];B[pk];W[op];B[pp];W[no];B[on]
;W[pj];B[ok];W[ni];B[rj];W[rg];B[qh];W[cc];B[cj];W[dj];B[ci]
;W[dh];B[ch];W[io];B[ho];W[hp];B[jr];W[kr];B[gp];W[js];B[ir]
;W[or];B[lq];W[kq];B[mm];W[li];B[lo];W[lp];B[pr];W[gm];B[gn]
;W[nk];B[bc];W[bb];B[nl];W[jl];B[ll];W[kj];B[mp];W[np];B[mo]
;W[mq];B[kp];W[lr];B[il];W[ik];B[hk];W[ij];B[ab];W[cb];B[kk]
;W[jk];B[lg];W[kg];B[ff];W[gg];B[fl];W[rh];B[qi];W[ps];B[qs]
;W[os];B[qr];W[dl];B[cl];W[cg];B[bg];W[gk];B[gl];W[oe];B[og]
;W[ce];B[be];W[nn];B[nm];W[ko];B[lj];W[kh];B[lk];W[mj];B[oq]
;W[nr];B[qj];W[lp];B[oa];W[nb];B[ed];W[ec];B[ee];W[de];B[lh]
;W[mi];B[cd];W[dc];B[kn];W[hj];B[hl];W[km];B[lm];W[si];B[sj]
;W[sh];B[is];W[ks];B[mk];W[ba])