

(;GM[1]SZ[19]PB[Cho Chikun]PW[Kobayashi Koichi]DT[1992-06-17,18]PC[Shimonoseki]RE[B+8.5]FF[3]BS[0]WS[0]KM[5.5];B[pd];W[dd];B[pp];W[dp];B[pj];W[nc];B[pf];W[jc];B[jp]
;W[qq];B[qp];W[pq];B[oq];W[or];B[nq];W[nr];B[mq];W[rp];B[ro]
;W[rq];B[qn];W[dj];B[ij];W[qh];B[oh];W[qe];B[pe];W[qd];B[qf]
;W[rf];B[rg];W[re];B[qg];W[pb];B[cn];W[fp];B[bp];W[cq];B[dl]
;W[cf];B[ih];W[io];B[go];W[gp];B[ho];W[ip];B[hp];W[hq];B[iq]
;W[in];B[gq];W[hr];B[ir];W[fn];B[gr];W[gn];B[hs];W[hn];B[eq]
;W[dn];B[dm];W[il];B[ch];W[dh];B[di];W[ci];B[ei];W[cj];B[ej]
;W[bh];B[eh];W[dg];B[pc];W[qb];B[eo];W[ep];B[fo];W[en];B[do]
;W[co];B[hq];W[bo];B[bn];W[ap];B[fl];W[dk];B[bl];W[ek];B[fm]
;W[hk];B[fk];W[gj];B[fj];W[gi];B[gh];W[hh];B[gg];W[hg];B[hi]
;W[eg];B[ik];W[hl];B[fg];W[hf];B[kk];W[kl];B[ll];W[lm];B[jl]
;W[jm];B[km];W[kn];B[jo];W[kl];B[jk];W[ml];B[lk];W[hj];B[ii]
;W[jn];B[ge];W[he];B[mm];W[mn];B[nm];W[lp];B[fd];W[cr];B[hd]
;W[id];B[hc];W[nn];B[on];W[oo];B[pn];W[lq];B[mr];W[kr];B[ns]
;W[pr];B[no];W[jq];B[jr];W[kq];B[lc];W[kd];B[nd];W[ld];B[mc]
;W[nb];B[md];W[je];B[dc];W[cc];B[ec];W[lg];B[jg];W[jf];B[kg]
;W[lf];B[lh];W[sg];B[sf];W[se];B[rh];W[cb];B[qc];W[rc];B[ig]
;W[if];B[kf];W[ke];B[mg];W[ee];B[fe];W[mo];B[dr];W[np];B[op]
;W[dq];B[er];W[ea];B[fb];W[bk];B[oc];W[ob];B[ib];W[jb];B[ed]
;W[de];B[sp];W[rr];B[mf];W[le];B[fa];W[ic];B[hb];W[cl];B[cm]
;W[al];B[ck];W[om];B[nl];W[cl];B[gm];W[hm];B[ck];W[nk];B[ol]
;W[cl];B[br];W[bs];B[ck];W[pl];B[pm];W[cl];B[aq];W[ao];B[an]
;W[cp];B[ck];W[ok];B[mk];W[cl];B[as];W[cs];B[ck];W[fi];B[fh]
;W[cl];B[fq];W[bq];B[ck];W[bj];B[am];W[ak];B[da];W[db];B[eb]
;W[ca];B[ks];W[sq];B[so];W[rb];B[sh];W[me];B[ne];W[mb];B[lb]
;W[os];B[ms];W[ds];B[lr];W[no];B[km];W[ln];B[es];W[ar];B[cl]
;W[po];B[qo];W[la];B[ka];W[ma];B[kb];W[ja];B[ia];W[ef];B[kl]
;W[sf];B[ea])