(;GM[1]
FF[4]
SZ[19]
PW[guojuan]
WR[5p]
PB[tumbleweed]
BR[7k]
DT[2000-9-4]
PC[The Kiseido Go Server (KGS) at http://kgs.kiseido.com/]
KM[0.50]
RE[W+Time]
HA[9]RU[Japanese]CA[UTF-8]TM[480]OT[6x30 byo-yomi]AB[dd][jd][pd][dj][jj][pj][dp][jp][pp]

;W[mp]
;B[pn]
;W[fp]
;B[jn]
;W[dm]
;B[eo]
;W[gm]
;B[fo]
;W[go]
;B[gp]
;W[ho]
;B[hp]
;W[fq]
;B[io]
;W[iq]
;B[ip]
;W[cq]
;B[dq]
;W[dr]
;B[er]
;W[cr]
;B[eq]
;W[bo]
;B[jq]
;W[dg]
;B[fj]
;W[hj]
;B[fh]
;W[fg]
;B[gh]
;W[fd]
;B[cf]
;W[cg]
;B[ef]
;W[df]
;B[de]
;W[ee]
;B[ff]
;W[bf]
;B[ed]
;W[fe]
;B[gf]
;W[fc]
;B[cc]
;W[bd]
;B[ec]
;W[fb]
;B[eb]
;W[bc]
;B[bb]
;W[ab]
;B[ba]
;W[db]
;B[fa]
;W[hb]
;B[jb]
;W[cb]
;B[da]
;W[ga]
;B[ea]
;W[cd]
;B[eg]
;W[qh]
;B[qe]
;W[pl]
;B[rj]
;W[rl]
;B[nn]
;W[nl]
;B[nj]
;W[mn]
;B[mm]
;W[nm]
;B[on]
;W[mj]
;B[lm]
;W[ni]
;B[oi]
;W[nk]
;B[nh]
;W[oj]
;B[ph]
;W[pq]
;B[qq]
;W[op]
;B[qp]
;W[or]
;B[pr]
;W[oq]
;B[qr]
;W[kr]
;B[jr]
;W[kq]
;B[lp]
;W[lq]
;B[nr]
;W[mr]
;B[os]
;W[nq]
;B[ns]
;W[ms]
;B[ps]
;W[lo]
;B[kp]
;W[no]
;B[ln]
;W[mh]
;B[ng]
;W[qi]
;B[pi]
;W[qj]
;B[pk]
;W[qk]
;B[ok]
;W[pm]
;B[qn]
;W[pb]
;B[qc]
;W[mc]
;B[mg]
;W[qb]
;B[rb]
;W[pc]
;B[rc]
;W[kc]
;B[jc]
;W[od]
;B[oe]
;W[nd]
;B[ne]
;W[me]
;B[lh]
;W[rf]
;B[re]
;W[qf]
;B[pf]
;W[ke]
;B[je]
;W[kf]
;B[jf]
;W[kg]
;B[jh]
;W[jg]
;B[ig]
;W[kh]
;B[ji]
;W[mi]
;B[fm]
;W[fl]
;B[em]
;W[el]
;B[dl]
;W[dk]
;B[cl]
;W[ck]
;B[bl]
;W[ek]
;B[dn]
;W[bn]
;B[cn]
;W[bk]
;B[gl]
;W[gk]
;B[hl]
;W[fk]
;B[gj]
;W[hk]
;B[dh]
;W[ch]
;B[ci]
;W[bi]
;B[bh]
;W[bg]
;B[bj]
;W[ah]
;B[cj]
;W[aj]
;B[al]
;W[ej]
;B[di]
;W[ei]
;B[eh]
;W[ak]
)
