(;GM[1]
FF[4]
SZ[19]
PW[papaiya]
WR[7d]
PB[omataharuo]
DT[2000-12-22]
PC[The Kiseido Go Server (KGS) at http://kgs.kiseido.com/]
KM[0.50]
RE[W+Resign]
HA[4]RU[Japanese]CA[UTF-8]TM[1800]OT[5x30 byo-yomi]AB[dd][pd][dp][pp]
;W[gd]
;B[df]
;W[qf]
;B[pi]
;W[nc]
;B[nd]
;W[md]
;B[ne]
;W[qc]
;B[oc]
;W[qd]
;B[mc]
;W[dm]
;B[nb]
;W[nq]
;B[kp]
;W[qn]
;B[np]
;W[qq]
;B[qp]
;W[pq]
;B[mq]
;W[op]
;B[oo]
;W[oq]
;B[po]
;W[mp]
;B[no]
;W[lq]
;B[mo]
;W[lp]
;B[lo]
;W[rp]
;B[ro]
;W[rq]
;B[qo]
;W[fp]
;B[kq]
;W[mr]
;B[lr]
;W[mq]
;B[eo]
;W[hp]
;B[fn]
;W[ko]
;B[ip]
;W[kn]
;B[io]
;W[gn]
;B[im]
;W[gm]
;B[fm]
;W[gl]
;B[fl]
;W[gk]
;B[kl]
;W[lm]
;B[ol]
;W[ll]
;B[km]
;W[ln]
;B[il]
;W[lj]
;B[ij]
;W[om]
;B[nm]
;W[nl]
;B[pm]
;W[ok]
;B[pl]
;W[pk]
;B[qk]
;W[qj]
;B[nk]
;W[nj]
;B[pj]
;W[mk]
;B[rj]
;W[rk]
;B[ql]
;W[qi]
;B[ri]
;W[qh]
;B[oh]
;W[fk]
;B[dl]
;W[ek]
;B[cl]
;W[cq]
;B[dq]
;W[cp]
;B[dr]
;W[el]
;B[cm]
;W[dn]
;B[co]
;W[cn]
;B[do]
;W[bo]
;B[bp]
;W[bm]
;B[bq]
;W[ih]
;B[dj]
;W[dk]
;B[ck]
;W[cj]
;B[bj]
;W[ci]
;B[bk]
;W[bi]
;B[hi]
;W[gg]
;B[hh]
;W[hg]
;B[jj]
;W[rh]
;B[rl]
;W[jn]
;B[in]
;W[og]
;B[nh]
;W[ng]
;B[mh]
;W[lh]
;B[mg]
;W[lg]
;B[ki]
;W[li]
;B[nf]
;W[iq]
;B[hq]
;W[gq]
;B[hr]
;W[ir]
;B[go]
;W[ho]
;B[gr]
;W[fr]
;B[hn]
;W[gp]
;B[fo]
;W[gs]
;B[jr]
;W[hs]
;B[jg]
;W[jh]
;B[kh]
;W[kg]
;B[jf]
;W[ig]
;B[jo]
;W[jq]
;B[jp]
;W[ph]
;B[oi]
;W[ke]
;B[jd]
;W[je]
)
