(;GM[1]
FF[4]
SZ[19]
PW[sodjiin]
WR[7d]
PB[zz]
BR[4d]
DT[2000-11-04]
PC[The Kiseido Go Server (KGS) at http://kgs.kiseido.com/]
KM[0.50]
RE[W+Resign]
HA[2]RU[Japanese]CA[UTF-8]TM[300]OT[3x60 byo-yomi]AB[pd][dp]
;W[qo]
;B[dc]
;W[ce]
;B[ed]
;W[fq]
;B[ip]
;W[ho]
;B[io]
;W[hp]
;B[hq]
;W[fo]
;B[gq]
;W[gp]
;B[jq]
;W[ir]
;B[jr]
;W[dn]
;B[cn]
;W[cm]
;B[co]
;W[bm]
;B[cr]
;W[dg]
;B[im]
;W[in]
;B[jn]
;W[hn]
;B[jm]
;W[pq]
;B[gl]
;W[el]
;B[cd]
;W[kc]
;B[hc]
;W[nc]
;B[oc]
;W[nd]
;B[pf]
;W[qh]
;B[re]
;W[bd]
;B[bc]
;W[pk]
;B[ci]
;W[ei]
;B[ej]
;W[fj]
;B[fi]
;W[di]
;B[fk]
;W[dj]
;B[gj]
;W[gr]
;B[hr]
;W[hs]
;B[iq]
;W[er]
;B[ep]
;W[fp]
;B[bp]
;W[ib]
;B[ic]
;W[hb]
;B[gb]
;W[jc]
;B[cf]
;W[cg]
;B[be]
;W[bf]
;B[de]
;W[fc]
;B[ha]
)
