(;GM[1]
FF[4]
SZ[19]
PW[MyMaster]
WR[7d]
PB[Indy]
BR[24k]
DT[2001-11-23]
PC[The Kiseido Go Server (KGS) at http://kgs.kiseido.com/]
KM[0.50]
RE[W+200.50]
HA[9]RU[Chinese]CA[UTF-8]TM[1200]OT[5x30 byo-yomi]AB[pq][pc][dc][dq][cn][qm][np][fp][jd]

;W[jj]
;B[jl]
;W[ce]
;B[cd]
;W[de]
;B[dj]
;W[ec]
;B[eb]
;W[fc]
;B[fb]
;W[hc]
;B[ic]
;W[gb]
;B[db]
;W[bd]
;B[bc]
;W[dd]
;B[cc]
;W[pe]
;B[be]
;W[bf]
;B[ad]
;W[fj]
;B[ae]
;W[nd]
;B[nc]
;W[mc]
;B[nb]
;W[md]
;B[mb]
;W[kc]
;B[kb]
;W[jb]
;B[lc]
;W[ld]
;B[lb]
;W[ib]
;B[hd]
;W[gd]
;B[he]
;W[jq]
;B[lq]
;W[fr]
;B[er]
;W[fq]
;B[eq]
;W[hq]
;B[jp]
;W[ip]
;B[jo]
;W[gp]
;B[fo]
;W[kq]
;B[kp]
;W[lr]
;B[mr]
;W[mq]
;B[mp]
;W[lp]
;B[nr]
;W[lo]
;B[ln]
;W[qk]
;B[pl]
;W[qc]
;B[qb]
;W[qd]
;B[od]
;W[oe]
;B[pb]
;W[pk]
;B[rb]
;W[nk]
;B[lk]
;W[lj]
;B[ig]
;W[qo]
;B[po]
;W[qn]
;B[qp]
;W[pn]
;B[on]
;W[rm]
;B[ol]
;W[ok]
;B[nl]
;W[mk]
;B[kk]
;W[kj]
;B[kh]
;W[mh]
;B[lf]
;W[mf]
;B[lg]
;W[mg]
;B[hj]
;W[cl]
;B[fl]
;W[bn]
;B[fh]
;W[co]
;B[cp]
;W[dn]
;B[do]
;W[cm]
;B[bo]
;W[bj]
;B[en]
;W[cn]
;B[dl]
;W[bp]
;B[bq]
;W[ao]
;B[aq]
;W[cg]
;B[ho]
;W[io]
;B[in]
;W[jn]
;B[jm]
;W[ko]
;B[kn]
;W[hn]
;B[jo]
;W[go]
;B[gn]
;W[hm]
;B[hl]
;W[gm]
;B[fn]
;W[cr]
;B[cq]
;W[es]
;B[br]
;W[rp]
;B[rq]
;W[ci]
;B[di]
;W[gg]
;B[gf]
;W[fg]
;B[eg]
;W[ff]
;B[fe]
;W[ge]
;B[hf]
;W[ef]
;B[fd]
;W[gc]
;B[dg]
;W[gi]
;B[gh]
;W[hh]
;B[fi]
;W[hi]
;B[ij]
;W[jh]
;B[ih]
;W[ii]
;B[jg]
;W[gj]
;B[ji]
;W[gl]
;B[gk]
;W[fk]
;B[hk]
;W[il]
;B[im]
;W[ik]
;B[fm]
;W[ek]
;B[dk]
;W[el]
;B[dm]
;W[em]
;B[ej]
;W[ep]
;B[hg]
;W[df]
;B[li]
;W[ds]
;B[ap]
;W[ro]
;B[sp]
;W[ml]
;B[mm]
;W[mo]
;B[no]
;W[mn]
;B[nn]
;W[lm]
;B[nm]
;W[ll]
;B[km]
;W[so]
;B[sq]
;W[rc]
;B[sc]
;W[sd]
;B[sb]
;W[pd]
;B[rl]
;W[ql]
;B[pm]
;W[sn]
;B[sl]
;W[rk]
;B[oc]
;W[mi]
;B[nq]
;W[lq]
;B[ls]
;W[ks]
;B[ms]
;W[ki]
;B[lh]
;W[ke]
;B[kf]
;W[je]
;B[jf]
;W[ie]
;B[le]
;W[kd]
;B[id]
;W[af]
;B[me]
;W[ne]
;B[pg]
;W[fa]
;B[ea]
;W[ga]
;B[ja]
;W[ia]
;B[ka]
;W[]
;B[jc]
;W[]
;B[pi]
;W[]
;B[rf]
;W[ri]
;B[rh]
;W[qi]
;B[qh]
;W[oh]
;B[ph]
;W[]
;B[og]
;W[nf]
;B[oi]
;W[nh]
;B[qf]
;W[]
;B[se]
;W[rd]
;B[re]
;W[sg]
;B[sh]
;W[rg]
;B[pf]
;W[]
;B[si]
;W[sk]
;B[rj]
;W[qj]
;B[sj]
;W[]
;B[]
)
