(;GM[1]
FF[4]
SZ[19]
PW[JustForFun]
WR[7d]
PB[Gogogog]
BR[17k]
DT[2001-06-07]
PC[The Kiseido Go Server (KGS) at http://kgs.kiseido.com/]
KM[0.50]
RE[W+Resign]
RU[Japanese]CA[UTF-8]TM[1140]OT[6x90 byo-yomi]
;B[jj]
;W[pc]
;B[pp]
;W[cd]
;B[ec]
;W[gd]
;B[gc]
;W[ed]
;B[fd]
;W[fe]
;B[fc]
;W[ee]
;B[ge]
;W[hd]
;B[ic]
;W[dc]
;B[hf]
;W[id]
;B[jd]
;W[hc]
)
