(;GM[1]
FF[4]
SZ[19]
PW[Toru]
WR[7d]
PB[bluebottle]
DT[2001-08-08]
PC[The Kiseido Go Server (KGS) at http://kgs.kiseido.com/]
KM[0.50]
AB[dd][pd][dp][pp]RU[Japanese]CA[UTF-8]TM[]HA[4]
;W[nq]
;B[jp]
;W[pm]
;B[oo]
;W[lp]
;B[qq]
;W[nn]
;B[no]
;W[mn]
;B[mo]
;W[lo]
;B[ln]
;W[jo]
;B[lm]
;W[on]
;B[ko]
;W[kp]
;B[kn]
;W[jq]
;B[ip]
;W[iq]
;B[hp]
;W[hq]
;B[gp]
;W[fr]
;B[nl]
;W[qo]
;B[po]
;W[pn]
;B[oq]
)
