(;GM[1]
FF[4]
SZ[19]
PW[Toru]
WR[7d]
PB[neomuse]
BR[16k]
DT[2001-04-02]
PC[The Kiseido Go Server (KGS) at http://kgs.kiseido.com/]
KM[0.50]
RE[W+37.50]
HA[9]RU[Japanese]CA[UTF-8]TM[600]OT[5x120 byo-yomi]AB[dd][jd][pd][dj][jj][pj][dp][jp]
[pp]
;W[nq]
;B[oq]
;W[np]
;B[pn]
;W[gp]
;B[cn]
;W[jm]
;B[kn]
;W[km]
;B[ln]
;W[nn]
;B[mm]
;W[nm]
;B[ml]
;W[pm]
;B[qm]
;W[ql]
;B[pl]
;W[om]
;B[qn]
;W[nk]
;B[ol]
;W[nl]
;B[qk]
;W[lk]
;B[kl]
;W[ll]
;B[lm]
;W[mk]
;B[jn]
;W[im]
;B[in]
;W[hm]
;B[hn]
;W[gn]
;B[gm]
;W[fn]
;B[gl]
;W[jk]
;B[mo]
;W[no]
;B[lq]
;W[hq]
;B[mr]
;W[nr]
;B[mp]
;W[jr]
;B[jq]
;W[kr]
;B[iq]
;W[ir]
;B[kq]
;W[ho]
;B[io]
)
