(;GM[1]
FF[4]
SZ[19]
PW[Hishi]
WR[7d]
PB[Gorn]
BR[6k]
DT[2001-10-01]
PC[The Kiseido Go Server (KGS) at http://kgs.kiseido.com/]
KM[0.50]
RE[B+13.50]
HA[9]RU[Japanese]CA[UTF-8]TM[1200]OT[5x30 byo-yomi]AB[dd][jd][pd][dj][jj][pj][dp][jp]
[pp]
;W[lo]
;B[pn]
;W[gp]
;B[dn]
;W[jo]
;B[nq]
;W[kp]
;B[fq]
;W[cf]
;B[ce]
;W[df]
;B[fd]
;W[dl]
;B[gq]
;W[nc]
;B[oc]
;W[nd]
;B[pf]
;W[hd]
;B[be]
;W[gf]
;B[jf]
;W[fk]
;B[cm]
;W[cl]
;B[bg]
;W[jh]
;B[nf]
;W[mf]
;B[ng]
;W[mg]
;B[ob]
;W[ec]
;B[ed]
;W[gb]
;B[dc]
;W[nb]
;B[qq]
;W[co]
;B[do]
;W[cq]
;B[dr]
;W[bm]
;B[cp]
;W[bf]
;B[af]
;W[bn]
;B[bk]
;W[bp]
;B[cn]
;W[bo]
;B[cr]
;W[br]
;B[cj]
;W[hq]
;B[hp]
;W[iq]
;B[ho]
;W[qj]
;B[qi]
;W[pk]
;B[rj]
;W[qk]
;B[oi]
;W[rk]
;B[rm]
;W[ri]
;B[rh]
;W[sj]
;B[qh]
;W[qm]
;B[qn]
;W[oj]
;B[hm]
;W[fh]
;B[gc]
;W[hc]
;B[na]
;W[ma]
;B[oa]
;W[lb]
;B[mh]
;W[lh]
;B[mi]
;W[od]
;B[qc]
;W[fb]
;B[eb]
;W[mr]
;B[li]
;W[kh]
;B[ip]
;W[jq]
;B[mq]
;W[lr]
;B[nr]
;W[ch]
;B[bh]
;W[ij]
;B[lq]
;W[kq]
;B[fn]
;W[jk]
;B[pm]
;W[pi]
;B[ph]
;W[ni]
;B[oh]
;W[nj]
;B[nh]
;W[nl]
;B[bl]
;W[bs]
;B[ge]
;W[he]
;B[ff]
;W[fg]
;B[fj]
;W[fm]
;B[gm]
;W[gj]
;B[fi]
;W[gi]
;B[dh]
;W[ef]
;B[ii]
;W[kj]
;B[hk]
;W[gk]
;B[hj]
;W[ji]
;B[ik]
;W[ih]
;B[hi]
;W[hh]
;B[hr]
;W[ir]
;B[gr]
;W[in]
;B[mn]
;W[hn]
;B[go]
;W[gn]
;B[fp]
;W[fl]
;B[lm]
;W[jl]
;B[mk]
;W[rl]
;B[ql]
;W[sl]
;B[ms]
;W[sh]
;B[sg]
;W[si]
;B[rf]
;W[kr]
;B[jn]
;W[kn]
;B[jm]
;W[im]
;B[km]
;W[io]
;B[cg]
;W[ls]
;B[ns]
;W[sm]
;B[rn]
)
