(;GM[1]
FF[4]
SZ[19]
PW[jim]
WR[7d]
PB[Hishi]
BR[7d]
DT[2001-05-04]
PC[The Kiseido Go Server (KGS) at http://kgs.kiseido.com/]
KM[5.50]
RE[B+14.50]
RU[Japanese]CA[UTF-8]TM[600]OT[21/300 Canadian]
;B[pd]
;W[dp]
;B[op]
;W[dd]
;B[ho]
;W[dm]
;B[fc]
;W[cf]
;B[jd]
;W[qj]
;B[qf]
;W[qp]
;B[qn]
;W[po]
;B[qq]
;W[rq]
;B[pq]
;W[ro]
;B[on]
;W[oo]
;B[no]
;W[pn]
;B[pm]
;W[qm]
;B[om]
;W[ql]
;B[hq]
;W[mo]
;B[nn]
;W[mq]
;B[nq]
)
