(;GM[1]
FF[4]
SZ[19]
PW[Blaubaer]
WR[7d]
PB[gofun]
BR[2k]
DT[2001-10-28]
PC[The Kiseido Go Server (KGS) at http://kgs.kiseido.com/]
KM[0.50]
RE[W+Time]
HA[6]RU[Japanese]CA[UTF-8]TM[4800]OT[5x30 byo-yomi]AB[dd][pd][dj][pj][dp][pp]
;W[pg]
;B[jc]
;W[qn]
;B[nd]
;W[np]
;B[no]
;W[oo]
;B[op]
;W[po]
;B[qp]
;W[nq]
;B[mo]
;W[pr]
;B[qr]
;W[pq]
;B[qq]
;W[lq]
;B[rn]
;W[rm]
;B[ro]
;W[ql]
;B[ph]
;W[og]
;B[oh]
;W[nh]
;B[nj]
;W[mf]
;B[pm]
;W[pl]
;B[om]
;W[ol]
;B[nm]
;W[nl]
;B[ml]
;W[mk]
;B[mm]
;W[nk]
;B[ni]
;W[mh]
;B[li]
;W[mi]
;B[mj]
;W[lj]
;B[lk]
;W[kj]
;B[qg]
;W[oj]
;B[qf]
;W[qh]
;B[rh]
;W[oi]
;B[qo]
)
