(;GM[1]
FF[4]
SZ[19]
PW[Blaubaer]
WR[7d]
PB[Zotan]
BR[10k]
DT[2001-11-15]
PC[The Kiseido Go Server (KGS) at http://kgs.kiseido.com/]
KM[0.50]
RE[W+1.50]
HA[9]RU[Japanese]CA[UTF-8]TM[1800]OT[5x30 byo-yomi]AB[dd][jd][pd][dj][jj][pj][dp][jp]
[pp]
;W[qf]
;B[qe]
;W[pf]
;B[nd]
;W[pm]
;B[og]
;W[op]
;B[po]
;W[oo]
;B[pn]
;W[on]
;B[qm]
;W[pq]
;B[qq]
;W[ql]
;B[pl]
;W[om]
;B[rm]
;W[qr]
;B[rq]
;W[oq]
;B[rr]
;W[pk]
;B[ok]
;W[ol]
;B[qj]
;W[fp]
;B[dn]
;W[io]
;B[jo]
;W[jn]
;B[kn]
;W[km]
;B[ip]
;W[in]
;B[gq]
;W[fq]
;B[mq]
;W[ln]
;B[lp]
;W[cf]
;B[ce]
;W[df]
;B[fc]
;W[ne]
;B[oe]
;W[of]
;B[nf]
;W[ng]
;B[mf]
;W[oh]
;B[mg]
;W[nh]
;B[rl]
;W[fe]
;B[gd]
;W[cc]
;B[dc]
;W[be]
;B[bd]
;W[cd]
;B[bc]
;W[de]
;B[cb]
;W[dm]
;B[cm]
;W[cl]
;B[cn]
;W[dl]
;B[fn]
;W[fm]
;B[gn]
;W[gm]
;B[dq]
;W[gi]
;B[gf]
;W[fg]
;B[ff]
;W[ef]
;B[gg]
;W[gh]
;B[ig]
;W[hp]
;B[hq]
;W[gp]
;B[ho]
;W[hn]
;B[em]
;W[el]
;B[en]
;W[go]
;B[fr]
;W[er]
;B[gr]
;W[eq]
;B[dr]
;W[qc]
;B[pc]
;W[pe]
;B[od]
;W[qd]
;B[re]
;W[rf]
;B[qb]
;W[rd]
;B[rc]
;W[se]
;B[qh]
;W[kh]
;B[ii]
;W[kf]
;B[mh]
;W[kd]
;B[le]
;W[jc]
;B[je]
;W[ke]
;B[ic]
;W[kc]
;B[lj]
;W[if]
;B[jf]
;W[jg]
;B[hf]
;W[ih]
;B[ie]
;W[hh]
;B[mb]
;W[bl]
;B[bm]
;W[nk]
;B[mi]
;W[ds]
;B[cs]
;W[es]
;B[br]
;W[ko]
;B[kp]
;W[ib]
;B[hc]
;W[kk]
;B[ki]
;W[jh]
;B[jk]
;W[hk]
;B[al]
;W[ak]
;B[am]
;W[bk]
;B[qk]
;W[oj]
;B[rb]
;W[hb]
;B[gb]
;W[nr]
;B[mr]
;W[ms]
;B[ls]
;W[os]
;B[kr]
;W[gs]
;B[hs]
;W[fs]
;B[ir]
;W[lb]
;B[mc]
;W[sh]
;B[rh]
;W[si]
;B[pg]
;W[rg]
;B[sg]
;W[ph]
;B[ri]
;W[sf]
;B[qg]
;W[rj]
;B[rk]
;W[qi]
;B[qs]
;W[jl]
;B[lk]
;W[ll]
;B[pr]
;W[sc]
;B[sb]
;W[ma]
;B[na]
;W[la]
;B[ob]
;W[ce]
;B[bb]
;W[mo]
;B[nq]
;W[or]
;B[hj]
;W[ik]
;B[ij]
;W[gj]
;B[ha]
;W[jb]
;B[mk]
;W[ml]
;B[lo]
;W[ed]
;B[ec]
;W[ia]
;B[ga]
;W[ge]
;B[fd]
;W[ee]
;B[he]
;W[ld]
;B[md]
;W[lf]
;B[me]
;W[np]
;B[oi]
;W[eo]
;B[ep]
)
