(;GM[1]
FF[4]
SZ[19]
PW[benut]
WR[7d]
PB[bld]
BR[26k]
DT[2001-04-14]
PC[The Kiseido Go Server (KGS) at http://kgs.kiseido.com/]
KM[0.50]
RE[W+119.50]
RU[Japanese]CA[UTF-8]TM[1800]OT[5x30 byo-yomi]
;B[pd]
;W[dc]
;B[pp]
;W[ep]
;B[pj]
;W[mp]
;B[pn]
;W[nc]
;B[cn]
;W[cp]
;B[cj]
;W[ch]
;B[bh]
;W[bg]
;B[bi]
;W[cf]
;B[en]
;W[qf]
;B[qc]
;W[oe]
;B[pf]
;W[pe]
;B[qe]
;W[re]
;B[qd]
;W[qg]
;B[rd]
;W[pi]
;B[qj]
;W[of]
;B[nb]
;W[mb]
;B[ob]
;W[mc]
;B[ma]
;W[kb]
;B[ka]
;W[ja]
;B[la]
;W[lb]
;B[na]
;W[jb]
;B[mn]
;W[jp]
;B[gp]
;W[fo]
;B[gn]
;W[go]
;B[fn]
;W[ho]
;B[in]
;W[ni]
;B[nj]
;W[mj]
;B[oi]
;W[oh]
;B[oj]
;W[mi]
;B[ph]
;W[pg]
;B[qh]
;W[rh]
;B[qi]
;W[ei]
;B[ej]
;W[fi]
;B[fj]
;W[hi]
;B[di]
;W[dh]
;B[eh]
;W[fh]
;B[eg]
;W[df]
;B[dg]
;W[cg]
;B[ff]
;W[gf]
;B[gg]
;W[hh]
;B[ge]
;W[hf]
;B[hg]
;W[ig]
;B[if]
;W[he]
;B[hd]
;W[ie]
;B[id]
;W[je]
;B[fd]
;W[gc]
;B[gd]
;W[fc]
;B[dd]
;W[cd]
;B[hc]
;W[ed]
;B[ef]
;W[oc]
;B[pb]
;W[pq]
;B[qp]
;W[qq]
;B[oq]
;W[rp]
;B[ro]
;W[or]
;B[rq]
;W[rr]
;B[sp]
;W[nq]
;B[op]
;W[pr]
;B[sr]
;W[ik]
;B[rs]
;W[bn]
;B[bm]
;W[bo]
;B[bl]
;W[ml]
;B[nl]
;W[ri]
;B[rj]
;W[rf]
;B[se]
;W[gk]
;B[gj]
;W[hj]
;B[mk]
;W[lk]
;B[ll]
;W[nk]
;B[mm]
;W[mk]
;B[ok]
;W[kl]
;B[lm]
;W[ci]
;B[dj]
;W[ah]
;B[bj]
;W[fl]
;B[el]
;W[no]
;B[nn]
;W[mo]
;B[lo]
;W[lp]
;B[ko]
;W[jo]
;B[jn]
;W[oo]
;B[on]
;W[kp]
;B[po]
;W[sj]
;B[sk]
;W[si]
;B[rk]
;W[qr]
;B[ss]
;W[qs]
;B[np]
;W[sq]
;B[rp]
)
