(;GM[1]
FF[4]
SZ[19]
PW[yamashita9]
WR[7d]
PB[hello]
BR[4d]
DT[2001-08-27]
PC[The Kiseido Go Server (KGS) at http://kgs.kiseido.com/]
KM[0.50]
RE[B+11.50]
HA[3]RU[Japanese]CA[UTF-8]TM[1800]OT[5x30 byo-yomi]AB[pd][dp][pp]
;W[be]
)
