(;GM[1]
FF[4]
SZ[19]
PW[Toru]
WR[7d]
PB[Apple]
DT[2001-03-13]
PC[The Kiseido Go Server (KGS) at http://kgs.kiseido.com/]
KM[0.50]
RE[W+Resign]
HA[7]RU[Japanese]CA[UTF-8]TM[600]OT[5x120 byo-yomi]AB[dd][pd][dj][jj][pj][dp][pp]
;W[mp]
;B[pn]
;W[fq]
;B[ip]
;W[ho]
;B[ko]
;W[io]
;B[hp]
;W[gp]
;B[jo]
;W[kq]
;B[jq]
;W[kp]
;B[jp]
;W[dn]
;B[eo]
;W[fm]
;B[go]
;W[fo]
;B[gn]
;W[fn]
;B[cq]
;W[hm]
;B[lo]
;W[np]
;B[pq]
;W[nn]
;B[kl]
;W[nl]
;B[pl]
;W[mj]
;B[mh]
;W[lh]
;B[mm]
;W[nm]
;B[lg]
;W[kh]
;B[mg]
;W[mi]
;B[kj]
;W[nh]
;B[li]
;W[ng]
;B[kg]
;W[jh]
;B[if]
;W[hh]
;B[hj]
;W[jf]
;B[nf]
;W[jg]
;B[me]
;W[ej]
;B[gi]
;W[di]
;B[ei]
;W[fi]
;B[eh]
;W[fh]
;B[fj]
;W[ek]
;B[gh]
;W[fg]
;B[gg]
;W[ff]
;B[dh]
;W[gf]
;B[hg]
;W[ie]
;B[hf]
;W[he]
;B[je]
;W[ke]
;B[jd]
;W[kd]
;B[id]
;W[hd]
;B[kc]
;W[lc]
;B[hc]
;W[ic]
;B[ge]
;W[jc]
;B[fe]
;W[fk]
;B[gk]
;W[gj]
)
