(;GM[1]
FF[4]
SZ[19]
PW[benut]
WR[7d]
PB[fun]
BR[2k]
DT[2001-06-02]
PC[The Kiseido Go Server (KGS) at http://kgs.kiseido.com/]
KM[0.50]
RE[W+Resign]
RU[Japanese]CA[UTF-8]TM[1800]OT[5x30 byo-yomi]
;B[dc]
;W[dp]
;B[qd]
;W[pp]
;B[qn]
;W[od]
;B[ld]
;W[pk]
;B[on]
;W[np]
;B[rp]
;W[pf]
;B[oe]
;W[pe]
;B[pd]
;W[oc]
;B[of]
;W[re]
;B[rd]
;W[qe]
;B[pg]
;W[qg]
;B[pc]
;W[pb]
;B[qb]
;W[nb]
;B[rc]
;W[kc]
;B[nd]
;W[nc]
;B[qh]
;W[ph]
;B[og]
;W[qi]
;B[rh]
;W[rg]
;B[pi]
;W[oh]
;B[qj]
;W[ri]
;B[rj]
;W[sh]
;B[pj]
;W[mf]
;B[me]
;W[ng]
;B[ne]
;W[kf]
;B[kd]
;W[jc]
;B[jd]
;W[ic]
;B[jf]
;W[jg]
;B[ig]
;W[if]
;B[je]
;W[jh]
;B[hf]
;W[ie]
;B[id]
;W[he]
;B[hd]
;W[ge]
;B[lc]
;W[lb]
;B[hc]
;W[pa]
;B[qa]
;W[jb]
;B[df]
;W[gf]
;B[ih]
;W[gh]
;B[ji]
;W[lh]
;B[ni]
;W[nh]
;B[hj]
;W[hg]
;B[ii]
;W[dd]
;B[ed]
;W[ec]
;B[fc]
;W[eb]
;B[db]
;W[ee]
;B[fd]
;W[de]
;B[cf]
;W[cb]
;B[cc]
;W[bc]
;B[bb]
;W[cd]
;B[ca]
;W[ef]
;B[di]
;W[fj]
;B[gi]
;W[eh]
;B[dj]
;W[ej]
;B[cl]
;W[lj]
;B[hl]
;W[fm]
;B[lq]
;W[hn]
;B[km]
;W[lp]
;B[kp]
;W[lo]
;B[ko]
;W[kq]
;B[mq]
;W[jq]
;B[mp]
;W[mo]
;B[no]
;W[mm]
;B[nq]
;W[op]
;B[oq]
;W[lm]
;B[ip]
;W[iq]
;B[hp]
;W[gr]
;B[kl]
;W[pq]
;B[pr]
;W[qr]
;B[or]
;W[qo]
;B[ro]
;W[pn]
;B[pm]
;W[nn]
;B[om]
;W[oo]
;B[mk]
;W[nk]
;B[nj]
;W[qq]
;B[kr]
;W[jr]
;B[ks]
;W[mr]
;B[ms]
;W[ns]
;B[os]
;W[ls]
)
