(;GM[1]
FF[4]
SZ[19]
PW[hayami]
WR[7d]
PB[yanagida]
BR[7d]
DT[2001-12-07]
PC[The Kiseido Go Server (KGS) at http://kgs.kiseido.com/]
KM[5.50]
RE[B+Resign]
RU[Japanese]CA[UTF-8]TM[2400]OT[5x30 byo-yomi]
;B[pd]
;W[do]
;B[pp]
;W[ed]
;B[id]
;W[nc]
;B[ne]
;W[kd]
;B[jf]
;W[ie]
;B[je]
;W[jd]
;B[ic]
;W[he]
;B[kb]
;W[le]
;B[lf]
;W[lb]
;B[lc]
;W[kc]
;B[mb]
;W[kf]
;B[kg]
;W[ke]
;B[jg]
;W[mf]
;B[lg]
;W[me]
;B[la]
;W[mc]
;B[gc]
;W[gd]
;B[fc]
;W[fd]
;B[ec]
;W[jb]
;B[ib]
;W[pf]
;B[dd]
;W[de]
;B[og]
;W[mg]
;B[pg]
;W[mi]
;B[jj]
;W[mk]
;B[hj]
;W[fj]
;B[km]
;W[mm]
;B[mp]
;W[co]
;B[pc]
;W[cd]
;B[dc]
;W[qj]
;B[qg]
;W[cc]
;B[oj]
;W[of]
;B[qf]
;W[ld]
;B[lb]
;W[ng]
;B[ol]
;W[kl]
)
