(;GM[1]
FF[4]
SZ[19]
PW[benut]
WR[7d]
PB[nomemory]
BR[12k]
DT[2001-05-24]
PC[The Kiseido Go Server (KGS) at http://kgs.kiseido.com/]
KM[0.50]
RE[W+Resign]
RU[Japanese]CA[UTF-8]TM[1800]OT[5x30 byo-yomi]
;B[pd]
;W[dd]
;B[qp]
;W[dp]
;B[oq]
;W[qj]
;B[qh]
;W[qm]
;B[fc]
;W[cf]
;B[id]
;W[kc]
;B[dc]
;W[cc]
;B[db]
;W[nc]
;B[pc]
;W[ib]
;B[ic]
;W[hb]
;B[fe]
;W[ed]
;B[fd]
;W[ec]
;B[eb]
;W[gb]
;B[fb]
;W[cb]
;B[ck]
;W[ci]
;B[cn]
;W[co]
;B[dn]
;W[fq]
;B[iq]
;W[fo]
;B[fm]
;W[qf]
;B[pf]
;W[qe]
;B[pe]
;W[qg]
;B[pg]
;W[rh]
;B[ph]
;W[qi]
;B[lc]
;W[lb]
;B[mc]
;W[mb]
;B[nd]
;W[kd]
;B[le]
;W[ke]
;B[kf]
;W[jf]
;B[jg]
;W[ig]
;B[if]
;W[je]
;B[hg]
;W[ih]
;B[kg]
;W[hh]
;B[gg]
;W[ie]
;B[gh]
;W[hf]
;B[eg]
;W[np]
;B[nq]
;W[lp]
;B[mq]
;W[lq]
;B[mp]
;W[ln]
;B[io]
;W[gm]
;B[gn]
;W[fn]
;B[hm]
;W[gl]
;B[fl]
;W[gk]
;B[en]
;W[go]
;B[ho]
;W[hn]
)
