(;GM[1]
FF[4]
SZ[19]
PW[khuang]
WR[7d]
PB[esteli]
BR[12k]
DT[2001-02-04]
PC[The Kiseido Go Server (KGS) at http://kgs.kiseido.com/]
KM[0.50]
RE[W+Resign]
AB[dd][jd][pd][dj][jj][pj][dp][jp][pp]RU[AGA]CA[UTF-8]TM[]HA[9]
;W[qf]
;B[qd]
;W[pm]
;B[pf]
;W[pg]
;B[of]
;W[og]
;B[md]
;W[mp]
;B[nq]
;W[mq]
;B[on]
;W[om]
;B[nn]
;W[np]
;B[oq]
;W[po]
;B[pn]
;W[qn]
;B[qo]
;W[oo]
;B[qm]
;W[rn]
;B[op]
;W[no]
;B[rm]
;W[ro]
;B[qq]
)
