(;GM[1]
FF[4]
SZ[19]
PW[Hishi]
WR[7d]
PB[wildcats]
BR[4d]
DT[2001-02-20]
PC[The Kiseido Go Server (KGS) at http://kgs.kiseido.com/]
KM[0.50]
RE[W+Resign]
RU[Japanese]CA[UTF-8]TM[3600]OT[5x60 byo-yomi]
;B[pd]
;W[dp]
;B[pq]
;W[cc]
;B[qk]
;W[nc]
;B[lc]
;W[pf]
;B[qf]
;W[qg]
;B[qe]
;W[pg]
;B[nd]
;W[md]
;B[mc]
;W[od]
;B[ne]
;W[oe]
;B[pc]
;W[oc]
;B[me]
;W[ok]
;B[pm]
;W[dj]
;B[ke]
;W[gq]
;B[ec]
;W[de]
;B[ee]
;W[ef]
;B[fe]
;W[ff]
;B[gf]
;W[df]
;B[gg]
;W[mp]
;B[cn]
;W[cp]
;B[cl]
;W[bk]
;B[em]
;W[gm]
;B[ck]
;W[cj]
;B[bl]
;W[bj]
;B[bo]
;W[bp]
;B[ek]
;W[po]
;B[oo]
;W[on]
;B[op]
;W[pn]
;B[om]
;W[nn]
;B[nm]
;W[qq]
;B[qr]
;W[qp]
;B[rq]
;W[rr]
;B[mr]
;W[pr]
;B[or]
;W[qs]
;B[lp]
;W[lo]
;B[lq]
;W[ko]
;B[jq]
;W[mk]
;B[qm]
;W[nq]
;B[mo]
;W[oq]
;B[np]
;W[pp]
;B[mq]
;W[mn]
;B[nr]
;W[qi]
;B[pj]
;W[nh]
;B[ro]
;W[rp]
;B[rj]
;W[ri]
;B[rl]
;W[ir]
;B[jr]
;W[iq]
;B[oi]
;W[nf]
;B[ni]
;W[mi]
;B[mh]
;W[lh]
;B[mg]
;W[mf]
;B[ld]
;W[lg]
;B[mj]
;W[li]
;B[lj]
;W[jg]
;B[kj]
;W[if]
;B[he]
;W[ll]
;B[lm]
;W[mm]
;B[nl]
;W[nk]
;B[ml]
;W[lk]
;B[km]
;W[jk]
;B[nj]
;W[jl]
;B[im]
)
