(;GM[1]
FF[4]
SZ[19]
PW[benut]
WR[7d]
PB[eon]
BR[13k]
DT[2001-07-01]
PC[The Kiseido Go Server (KGS) at http://kgs.kiseido.com/]
KM[0.50]
RE[W+Resign]
RU[Japanese]CA[UTF-8]TM[1800]OT[5x30 byo-yomi]
;B[pd]
;W[dc]
;B[pp]
;W[dq]
;B[co]
;W[cm]
;B[fo]
;W[gq]
;B[df]
;W[di]
;B[fd]
;W[ce]
;B[ch]
;W[ci]
;B[ec]
;W[dd]
;B[eb]
;W[ee]
;B[fg]
;W[gf]
;B[gg]
;W[hf]
;B[ie]
)
