(;GM[1]
FF[4]
SZ[19]
PW[koyosi]
WR[7d]
PB[take402]
BR[1d]
DT[2001-06-11]
PC[The Kiseido Go Server (KGS) at http://kgs.kiseido.com/]
KM[0.50]
RE[B+5.50]
HA[4]RU[Japanese]CA[UTF-8]TM[2700]OT[5x60 byo-yomi]AB[dd][pd][dp][pp]
;W[nq]
;B[pn]
;W[jp]
;B[pj]
;W[fq]
;B[dn]
;W[cf]
;B[di]
;W[fc]
;B[fd]
;W[gd]
;B[fe]
;W[cc]
;B[cd]
;W[dc]
;B[bc]
;W[ed]
;B[ee]
;W[ec]
;B[df]
;W[bb]
;B[bd]
;W[qf]
;B[qh]
;W[nd]
;B[nc]
;W[qc]
;B[pc]
;W[qd]
;B[lc]
;W[pe]
;B[md]
;W[pl]
;B[ql]
;W[qm]
;B[pm]
;W[qk]
;B[rl]
;W[pk]
;B[rk]
;W[qj]
;B[rj]
;W[qi]
;B[ri]
;W[ph]
;B[nm]
;W[rh]
;B[jq]
;W[kq]
;B[iq]
;W[kp]
;B[gp]
;W[dq]
;B[fp]
;W[ep]
;B[eo]
;W[eq]
;B[cp]
;W[cq]
;B[bp]
;W[bq]
;B[oq]
;W[or]
;B[pr]
;W[op]
;B[pq]
;W[ip]
;B[hp]
;W[gr]
;B[hr]
;W[in]
;B[gm]
)
