(;GM[1]
FF[4]
SZ[19]
PW[Toru]
WR[7d]
PB[MAKINO]
BR[3d]
DT[2001-10-03]
PC[The Kiseido Go Server (KGS) at http://kgs.kiseido.com/]
KM[0.50]
RE[W+27.50]
HA[4]RU[Japanese]CA[UTF-8]TM[1800]OT[5x30 byo-yomi]AB[dd][pd][dp][pp]
;W[nq]
;B[kp]
;W[qn]
;B[oo]
;W[qq]
;B[pq]
;W[qp]
;B[mp]
;W[po]
;B[pn]
;W[qo]
;B[op]
;W[on]
;B[pm]
;W[nn]
;B[mo]
;W[ol]
;B[pl]
;W[ok]
;B[pk]
;W[pj]
;B[qj]
;W[qi]
;B[om]
;W[nm]
;B[oj]
;W[pi]
;B[nl]
;W[nk]
;B[ml]
;W[qk]
;B[ql]
;W[rl]
;B[rk]
;W[qm]
;B[nc]
;W[cf]
;B[ci]
;W[fc]
;B[df]
;W[dg]
;B[ef]
;W[cc]
;B[ce]
;W[dc]
;B[cg]
;W[cj]
;B[dj]
;W[ck]
;B[bf]
;W[cn]
;B[co]
;W[dn]
;B[bo]
;W[bi]
;B[bh]
;W[di]
;B[ch]
;W[ep]
;B[eq]
;W[fp]
;B[fq]
;W[dq]
;B[cq]
;W[dr]
;B[gq]
;W[cr]
;B[bq]
;W[do]
;B[cp]
;W[gp]
;B[hq]
;W[hp]
;B[iq]
;W[ei]
;B[bn]
;W[bm]
;B[br]
;W[pr]
;B[or]
;W[qr]
;B[nr]
;W[lc]
;B[jc]
;W[kd]
;B[jd]
;W[ke]
;B[hc]
;W[gd]
;B[je]
;W[kf]
;B[qf]
;W[rd]
;B[qc]
;W[qe]
;B[pe]
;W[rf]
;B[qg]
;W[rg]
;B[og]
;W[jf]
;B[he]
;W[hd]
;B[if]
;W[ig]
;B[hg]
;W[hh]
;B[ih]
;W[jg]
;B[gg]
;W[gh]
;B[fg]
;W[hj]
;B[ij]
;W[hk]
;B[il]
;W[ik]
)
