(;GM[1]
FF[4]
SZ[19]
PW[pchan]
WR[7d]
PB[yanagida]
BR[7d]
DT[2001-04-17]
PC[The Kiseido Go Server (KGS) at http://kgs.kiseido.com/]
KM[5.50]
RE[W+Resign]
RU[Japanese]CA[UTF-8]TM[1800]OT[5x30 byo-yomi]
;B[pd]
;W[dp]
;B[pp]
;W[dc]
;B[de]
;W[dh]
;B[gd]
;W[ee]
;B[ef]
;W[fe]
;B[dd]
;W[fc]
;B[cc]
;W[ec]
;B[ff]
;W[cb]
;B[bd]
;W[bc]
;B[cd]
;W[bb]
;B[gf]
;W[ge]
;B[he]
;W[hf]
;B[hg]
;W[if]
;B[ie]
;W[ig]
;B[je]
;W[hh]
;B[fh]
;W[cg]
;B[cf]
;W[dg]
;B[df]
;W[dk]
;B[gh]
;W[hi]
;B[gj]
;W[ik]
;B[ej]
;W[dj]
;B[ci]
;W[di]
;B[bg]
;W[bh]
;B[ag]
;W[be]
;B[bf]
;W[ae]
;B[el]
;W[cm]
;B[bi]
;W[ch]
;B[ah]
;W[bj]
;B[hl]
;W[il]
;B[hn]
)
