(;GM[1]
FF[4]
SZ[19]
PW[Hishi]
WR[7d]
PB[HANAYAMA]
DT[2001-10-15]
PC[The Kiseido Go Server (KGS) at http://kgs.kiseido.com/]
KM[5.50]
RE[W+4.50]
HA[2]RU[Japanese]CA[UTF-8]TM[2400]OT[5x60 byo-yomi]AB[pd][dp]
;W[cd]
;B[pq]
;W[nc]
;B[qf]
;W[id]
;B[dg]
;W[dj]
;B[dm]
;W[ed]
;B[gd]
;W[fe]
;B[he]
;W[fg]
;B[ie]
;W[kd]
;B[jd]
;W[jc]
;B[je]
;W[ic]
;B[ke]
;W[ld]
;B[ei]
;W[dl]
;B[em]
;W[fk]
;B[gi]
;W[hh]
;B[hj]
;W[hk]
;B[ik]
;W[hl]
;B[il]
;W[ij]
;B[hi]
;W[ii]
;B[im]
;W[gn]
;B[di]
;W[gh]
;B[fh]
;W[gg]
;B[ih]
;W[jh]
;B[ig]
;W[fj]
;B[fi]
;W[kj]
;B[hm]
;W[fl]
;B[gm]
;W[fm]
;B[fn]
;W[cm]
;B[dn]
;W[cj]
;B[ci]
;W[cn]
;B[co]
;W[bl]
;B[de]
;W[dd]
;B[ce]
;W[be]
;B[bf]
;W[bd]
;B[cg]
;W[fo]
;B[en]
;W[bj]
;B[bi]
;W[nf]
;B[lh]
)
