(;GM[1]
FF[4]
SZ[19]
PW[virtue]
WR[7d]
PB[toyama]
BR[1d]
DT[2001-07-05]
PC[The Kiseido Go Server (KGS) at http://kgs.kiseido.com/]
KM[0.50]
RE[W+Resign]
HA[6]RU[Japanese]CA[UTF-8]TM[1200]OT[5x60 byo-yomi]AB[dd][pd][dj][pj][dp][pp]
;W[fq]
;B[jj]
;W[jp]
;B[hq]
;W[hp]
;B[gq]
;W[gp]
;B[fr]
;W[eq]
;B[er]
;W[dq]
;B[iq]
;W[ip]
;B[cp]
;W[dr]
;B[kr]
;W[eo]
;B[dn]
;W[nc]
;B[fm]
;W[kq]
;B[lr]
;W[lq]
;B[mq]
;W[mp]
;B[nq]
;W[fc]
;B[ep]
;W[fp]
;B[fn]
;W[pg]
;B[br]
;W[il]
;B[in]
;W[nn]
;B[np]
;W[mo]
;B[kn]
;W[hn]
;B[hm]
;W[im]
;B[jm]
;W[jl]
;B[ho]
;W[km]
;B[jn]
;W[lm]
;B[ln]
;W[mm]
;B[mn]
;W[no]
;B[ko]
;W[kp]
;B[om]
;W[nm]
;B[kk]
;W[kl]
;B[ol]
;W[fo]
;B[gn]
;W[po]
;B[qo]
;W[pn]
;B[qn]
;W[pm]
;B[ql]
;W[qm]
;B[rl]
;W[pl]
;B[pk]
;W[rm]
;B[rp]
;W[nj]
;B[nk]
;W[mk]
;B[mj]
;W[oj]
;B[ok]
;W[oh]
;B[lk]
;W[ml]
;B[qh]
;W[rj]
;B[ri]
;W[rk]
;B[qk]
;W[qg]
;B[rg]
;W[ij]
;B[ii]
;W[hj]
;B[ji]
;W[hi]
;B[ig]
;W[ih]
;B[hh]
;W[jh]
;B[kh]
;W[jg]
;B[kg]
;W[jf]
;B[gh]
;W[kf]
;B[mi]
;W[nh]
;B[mg]
;W[mh]
;B[lg]
;W[li]
;B[lj]
;W[lh]
;B[ki]
;W[me]
;B[nf]
;W[oe]
;B[of]
;W[pe]
;B[pf]
;W[qf]
;B[ne]
;W[nd]
;B[qe]
;W[od]
;B[rf]
;W[jk]
;B[ph]
;W[og]
;B[oi]
;W[fi]
;B[fh]
;W[ei]
;B[eh]
;W[di]
;B[gi]
;W[gj]
;B[fj]
;W[dh]
;B[ef]
;W[dg]
;B[fe]
;W[el]
;B[fk]
;W[qd]
;B[re]
;W[fl]
;B[gk]
;W[dm]
;B[en]
;W[cc]
;B[dc]
;W[eg]
;B[fg]
;W[gf]
;B[hf]
;W[ge]
;B[ff]
;W[cd]
;B[ce]
;W[be]
;B[cf]
;W[bf]
;B[cg]
;W[bg]
;B[ch]
;W[ci]
;B[bh]
;W[bi]
;B[ag]
;W[fd]
;B[he]
;W[hd]
;B[ie]
;W[id]
;B[je]
;W[jd]
;B[eb]
;W[cb]
;B[ke]
;W[lf]
;B[ni]
;W[kd]
;B[dk]
;W[cl]
;B[bn]
;W[bm]
;B[bk]
;W[ck]
;B[cj]
;W[bj]
;B[ak]
;W[al]
;B[an]
;W[le]
;B[gl]
;W[hg]
;B[gg]
;W[gd]
;B[dl]
;W[if]
;B[am]
;W[aj]
;B[cn]
;W[hg]
;B[df]
;W[ah]
;B[ai]
;W[mf]
;B[ng]
;W[ah]
;B[ej]
;W[bl]
;B[ai]
;W[af]
;B[ah]
;W[de]
;B[ee]
;W[ed]
)
