(;GM[1]
FF[4]
SZ[19]
PW[storm]
WR[7d]
PB[sf]
BR[1d]
DT[2001-01-08]
PC[The Kiseido Go Server (KGS) at http://kgs.kiseido.com/]
KM[0.50]
RE[B+1.50]
HA[6]RU[Japanese]CA[UTF-8]TM[1200]OT[5x20 byo-yomi]AB[dd][pd][dj][pj][dp][pp]
;W[jd]
;B[jp]
;W[nc]
;B[pf]
;W[fc]
;B[cf]
;W[ph]
;B[me]
;W[md]
;B[og]
;W[oh]
;B[le]
;W[ng]
;B[oe]
;W[kd]
;B[nh]
;W[ni]
;B[mh]
;W[oj]
;B[pk]
;W[mi]
;B[lh]
;W[qf]
;B[qe]
;W[li]
;B[ki]
;W[pg]
)
