(;GM[1]
FF[4]
SZ[19]
PW[Hishi]
WR[7d]
PB[HEBO5]
DT[2001-04-17]
PC[The Kiseido Go Server (KGS) at http://kgs.kiseido.com/]
KM[5.50]
RE[W+12.50]
RU[Japanese]CA[UTF-8]TM[1800]OT[5x30 byo-yomi]
;B[pd]
;W[de]
;B[pp]
;W[fp]
;B[jd]
;W[lo]
;B[cp]
;W[cq]
;B[bq]
;W[dq]
;B[bo]
;W[qn]
;B[pn]
;W[pm]
;B[on]
;W[ro]
;B[rp]
;W[qp]
;B[qq]
;W[qo]
;B[rq]
;W[om]
;B[np]
;W[lq]
;B[nm]
;W[nr]
;B[oq]
;W[qj]
;B[hp]
;W[in]
;B[hn]
;W[hm]
;B[gn]
;W[en]
;B[im]
;W[il]
;B[jm]
;W[jn]
;B[em]
;W[cn]
;B[hl]
;W[gm]
;B[kn]
;W[jp]
;B[fn]
;W[gl]
;B[hk]
;W[gk]
;B[ik]
;W[bn]
;B[gj]
;W[ek]
;B[eo]
;W[dn]
;B[ep]
;W[dp]
;B[eq]
;W[er]
;B[fr]
;W[dr]
;B[gq]
;W[iq]
;B[hi]
;W[el]
;B[fm]
;W[ck]
;B[hr]
;W[km]
;B[jk]
)
