(;GM[1]
FF[4]
SZ[19]
PW[ja1d]
WR[6d]
PB[quack]
BR[6d]
DT[2001-11-05]
PC[The Kiseido Go Server (KGS) at http://kgs.kiseido.com/]
KM[5.50]
RE[B+3.50]
RU[Japanese]CA[UTF-8]TM[1800]OT[5x30 byo-yomi]
;B[qd]
;W[dc]
;B[pq]
;W[dq]
;B[oc]
;W[po]
;B[qo]
;W[pp]
;B[qp]
;W[oq]
;B[qq]
;W[pn]
;B[qm]
;W[do]
;B[pm]
;W[jq]
;B[de]
;W[ce]
;B[cf]
;W[cd]
;B[dg]
;W[dj]
;B[fd]
;W[om]
;B[ol]
;W[nl]
;B[nm]
;W[on]
;B[ok]
;W[ml]
;B[nq]
;W[or]
;B[no]
;W[nn]
;B[op]
;W[mo]
;B[nr]
;W[mp]
;B[np]
;W[qe]
;B[pe]
;W[qf]
;B[rd]
;W[pf]
;B[oe]
;W[qi]
;B[eb]
;W[db]
;B[ec]
;W[dd]
;B[ee]
;W[dl]
;B[cq]
;W[dr]
;B[cp]
;W[co]
;B[hk]
;W[nh]
;B[ih]
;W[jg]
;B[je]
;W[ig]
;B[hh]
;W[jc]
;B[ic]
;W[jd]
;B[id]
;W[ke]
;B[kf]
;W[le]
;B[jf]
;W[lf]
;B[kg]
;W[mc]
;B[lg]
;W[nb]
;B[mf]
;W[me]
;B[ob]
;W[ib]
;B[hb]
;W[qk]
;B[dp]
;W[ep]
;B[bo]
;W[bn]
;B[eq]
;W[fq]
;B[cr]
;W[er]
;B[ao]
;W[aq]
;B[cn]
;W[bm]
;B[ar]
;W[br]
;B[bs]
;W[as]
;B[eo]
;W[dn]
;B[ar]
;W[hl]
;B[il]
;W[as]
;B[fp]
;W[eq]
;B[ar]
;W[im]
;B[jl]
;W[as]
;B[lm]
;W[cs]
;B[mm]
;W[mn]
;B[ll]
;W[nj]
;B[nk]
;W[oj]
;B[mj]
;W[rl]
;B[jb]
;W[kb]
;B[ia]
;W[nf]
;B[mg]
;W[ne]
;B[lq]
;W[qn]
;B[ip]
;W[jp]
;B[jo]
;W[iq]
;B[ko]
;W[rn]
;B[hp]
;W[hq]
;B[en]
;W[dm]
;B[fl]
;W[fm]
;B[gn]
;W[go]
;B[gp]
;W[gm]
;B[hn]
;W[hm]
;B[ej]
;W[in]
;B[io]
;W[di]
;B[ei]
;W[pa]
)
