(;GM[1]
FF[4]
SZ[19]
PW[Hishi]
WR[7d]
PB[toyama]
BR[1d]
DT[2001-07-14]
PC[The Kiseido Go Server (KGS) at http://kgs.kiseido.com/]
KM[0.50]
RE[B+Time]
HA[4]RU[Japanese]CA[UTF-8]TM[600]OT[5x20 byo-yomi]AB[dd][pd][dp][pp]
;W[lp]
;B[jj]
;W[cn]
;B[gq]
;W[cf]
;B[gc]
;W[dj]
;B[en]
;W[pn]
;B[qn]
;W[qo]
;B[po]
;W[qm]
;B[rn]
;W[ro]
;B[rm]
;W[qq]
;B[pq]
;W[qr]
;B[pr]
;W[on]
;B[qp]
;W[rp]
;B[rr]
;W[rq]
;B[qs]
;W[ql]
;B[rl]
;W[qk]
;B[rk]
;W[qj]
;B[sq]
;W[cp]
;B[cq]
;W[dq]
;B[ep]
;W[bq]
;B[cr]
;W[bo]
;B[br]
;W[ar]
;B[eq]
;W[nc]
;B[qf]
;W[pb]
;B[qc]
;W[kc]
;B[no]
;W[cc]
;B[cd]
;W[dc]
;B[ec]
;W[eb]
;B[fb]
;W[ed]
;B[fc]
;W[bd]
;B[ee]
;W[de]
;B[ce]
;W[be]
;B[fe]
)
