(;GM[1]
FF[4]
SZ[19]
PW[peace]
WR[7d]
PB[harurin]
BR[22k]
DT[2001-08-01]
PC[The Kiseido Go Server (KGS) at http://kgs.kiseido.com/]
KM[0.50]
RE[W+194.50]
HA[9]RU[Japanese]CA[UTF-8]TM[2400]OT[5x60 byo-yomi]AB[dd][jd][pd][dj][jj][pj][dp][jp]
[pp]
;W[qf]
;B[mc]
;W[pm]
;B[oh]
;W[of]
;B[mf]
;W[ng]
;B[pg]
;W[pf]
;B[qg]
;W[pc]
;B[oc]
;W[qd]
;B[qc]
;W[pb]
;B[qe]
;W[rd]
;B[rf]
;W[re]
;B[qb]
;W[ob]
;B[nd]
;W[pe]
;B[od]
;W[nb]
;B[rg]
;W[mg]
;B[mb]
;W[nj]
;B[ql]
;W[qm]
;B[rl]
;W[pl]
;B[pk]
;W[rm]
;B[sl]
;W[nl]
;B[np]
;W[lp]
;B[om]
;W[ol]
;B[on]
;W[qq]
;B[pq]
;W[qp]
;B[qo]
;W[ro]
;B[qn]
;W[rn]
;B[mn]
;W[ln]
;B[mo]
;W[lo]
;B[oo]
;W[mq]
;B[nq]
;W[gp]
;B[gd]
;W[cn]
;B[fq]
;W[gq]
;B[dn]
;W[do]
;B[co]
;W[eo]
;B[cm]
;W[bn]
;B[cp]
;W[cl]
;B[dl]
;W[bm]
;B[dm]
;W[ck]
;B[fo]
;W[ep]
;B[eq]
;W[fp]
;B[en]
;W[dk]
;B[fm]
;W[ek]
;B[gl]
;W[bq]
;B[dq]
;W[bp]
;B[bo]
;W[ao]
;B[gr]
;W[hr]
;B[hq]
;W[fr]
;B[ir]
;W[gs]
;B[hp]
;W[go]
;B[fn]
;W[hn]
;B[mr]
;W[lr]
;B[lq]
;W[mp]
;B[kr]
;W[kq]
;B[ls]
;W[nr]
;B[lq]
;W[or]
;B[oq]
;W[lr]
;B[an]
;W[am]
;B[lq]
;W[pr]
;B[jq]
;W[lr]
;B[bl]
;W[bk]
;B[lq]
;W[kp]
;B[lm]
;W[lr]
;B[al]
;W[ak]
;B[lq]
;W[kn]
;B[jn]
;W[lr]
;B[nf]
;W[og]
;B[lq]
;W[km]
;B[ho]
;W[gn]
;B[kl]
;W[lr]
;B[ms]
;W[ns]
;B[lq]
;W[jm]
;B[im]
;W[in]
;B[jo]
;W[lr]
;B[hm]
;W[gm]
;B[er]
;W[fl]
;B[jl]
;W[ks]
;B[js]
;W[jr]
;B[hs]
)
