(;GM[1]
FF[4]
SZ[19]
PW[Blaubaer]
WR[7d]
PB[aardbird]
BR[7d]
DT[2001-12-20]
PC[The Kiseido Go Server (KGS) at http://kgs.kiseido.com/]
KM[5.50]
RE[W+9.50]
RU[Japanese]CA[UTF-8]TM[1800]OT[5x30 byo-yomi]
;B[pd]
;W[dd]
;B[pp]
;W[dp]
;B[fq]
;W[cn]
;B[kq]
;W[qn]
;B[np]
;W[rp]
;B[qq]
;W[qk]
;B[fc]
;W[id]
;B[kd]
;W[df]
;B[ic]
;W[hc]
;B[jc]
;W[hd]
;B[fe]
;W[hg]
;B[fg]
;W[dh]
;B[fi]
;W[hi]
;B[gj]
;W[ik]
;B[dj]
;W[db]
;B[qi]
;W[nc]
;B[nd]
;W[md]
;B[mc]
;W[oc]
;B[od]
;W[lc]
;B[mb]
;W[lb]
;B[me]
;W[ld]
;B[le]
;W[pc]
;B[qc]
;W[ke]
;B[kf]
;W[qb]
;B[je]
;W[qd]
;B[rc]
;W[qe]
;B[rb]
;W[pb]
;B[pf]
;W[qf]
;B[qg]
;W[rg]
;B[qh]
;W[rd]
;B[eb]
;W[gf]
;B[ff]
;W[cc]
;B[ih]
;W[gh]
;B[eg]
;W[ii]
;B[hh]
;W[jg]
;B[jh]
;W[kh]
;B[ji]
;W[ig]
;B[ki]
;W[kg]
;B[li]
;W[mh]
;B[nj]
;W[nf]
;B[mg]
;W[lh]
;B[ng]
;W[nh]
;B[oj]
;W[og]
;B[of]
;W[mf]
;B[ne]
;W[lg]
;B[ie]
;W[gg]
;B[gi]
;W[gd]
;B[ge]
;W[he]
;B[fd]
;W[pg]
;B[oh]
;W[pe]
;B[ja]
;W[nb]
;B[gb]
;W[oe]
;B[dr]
;W[hb]
;B[ha]
;W[ib]
;B[ia]
;W[jb]
;B[kb]
;W[ma]
;B[kc]
;W[ka]
;B[la]
;W[fh]
;B[eh]
;W[ka]
;B[ce]
;W[de]
;B[la]
;W[mj]
;B[mi]
;W[ka]
;B[cq]
;W[ga]
;B[cp]
;W[ni]
;B[mk]
;W[di]
;B[ei]
;W[cj]
;B[ck]
;W[dk]
;B[ej]
;W[bk]
;B[cl]
;W[bl]
;B[dl]
;W[cm]
;B[em]
;W[nm]
;B[ci]
;W[bj]
;B[dg]
;W[ch]
;B[cg]
;W[bh]
;B[qo]
;W[pn]
;B[ro]
;W[pi]
;B[ql]
;W[pl]
;B[pk]
;W[pj]
;B[ok]
;W[rl]
;B[ol]
;W[qm]
;B[om]
;W[on]
;B[nn]
;W[no]
;B[mn]
;W[en]
;B[fn]
;W[dm]
;B[el]
;W[fo]
;B[eo]
;W[ep]
;B[dn]
;W[do]
;B[en]
;W[op]
;B[oq]
;W[co]
;B[fp]
;W[po]
;B[oo]
;W[lj]
;B[kk]
;W[op]
;B[mo]
;W[qp]
;B[pq]
;W[rq]
;B[rr]
;W[rn]
;B[sq]
;W[so]
;B[oi]
;W[oo]
;B[ph]
;W[nq]
;B[mp]
;W[or]
;B[nr]
;W[qr]
;B[mq]
;W[pr]
;B[nq]
;W[rs]
;B[be]
;W[cf]
;B[bg]
;W[bf]
;B[ah]
;W[bi]
;B[af]
;W[bd]
;B[rh]
;W[bp]
;B[bq]
;W[bo]
;B[qj]
;W[eq]
;B[er]
;W[aq]
;B[ar]
;W[ap]
;B[br]
;W[rf]
;B[da]
;W[ca]
;B[fa]
;W[cd]
;B[ae]
;W[bb]
;B[rk]
;W[rj]
;B[ql]
;W[ad]
;B[ag]
;W[qk]
;B[sk]
;W[sl]
;B[ql]
;W[kj]
;B[jj]
;W[qk]
;B[an]
;W[sj]
)
