(;GM[1]
FF[4]
SZ[19]
PW[zz]
WR[7d]
PB[daveg]
BR[2d]
DT[2001-03-28]
PC[The Kiseido Go Server (KGS) at http://kgs.kiseido.com/]
KM[0.50]
RE[W+Resign]
HA[5]RU[Japanese]CA[UTF-8]TM[1800]OT[20/900 Canadian]AB[dd][pd][jj][dp][pp]
;W[qf]
;B[nd]
;W[nq]
;B[lq]
;W[qn]
;B[np]
;W[qq]
;B[oq]
;W[qp]
;B[nr]
;W[fc]
;B[jc]
;W[cf]
;B[fd]
;W[gd]
;B[fe]
;W[cc]
;B[gc]
;W[fb]
;B[gb]
;W[cd]
;B[rd]
;W[]
)
