(;GM[1]
FF[4]
SZ[19]
PW[bozulich]
WR[7d]
PB[Douwe]
BR[17k]
DT[2001-04-01]
PC[The Kiseido Go Server (KGS) at http://kgs.kiseido.com/]
KM[0.50]
RE[W+81.50]
HA[9]RU[Japanese]CA[UTF-8]TM[1200]OT[3x30 byo-yomi]AB[dd][jd][pd][dj][jj][pj][dp][jp]
[pp]
;W[nc]
;B[oc]
;W[nd]
;B[pf]
;W[cf]
;B[ce]
;W[df]
;B[fd]
;W[dh]
;B[ci]
;W[ch]
;B[cn]
;W[hd]
;B[gc]
;W[hc]
;B[ff]
;W[hf]
;B[jf]
;W[hh]
;B[hj]
;W[ii]
;B[ji]
;W[ij]
;B[hi]
;W[jh]
;B[ik]
;W[ih]
;B[pn]
;W[lh]
;B[fh]
;W[bg]
;B[nh]
;W[mf]
;B[li]
;W[mh]
;B[mi]
;W[ni]
;B[nj]
;W[oi]
;B[pi]
;W[oh]
;B[ng]
;W[oj]
;B[kh]
;W[kg]
;B[ki]
;W[nk]
;B[mk]
;W[mj]
;B[lj]
;W[ph]
;B[nl]
;W[nj]
;B[ll]
;W[pk]
;B[ql]
;W[qk]
;B[pl]
;W[pq]
;B[nq]
;W[oq]
;B[op]
;W[nr]
;B[mq]
;W[mr]
;B[lr]
;W[qp]
;B[qo]
;W[rp]
;B[cq]
;W[hk]
;B[hl]
;W[gk]
;B[jl]
;W[gl]
;B[gi]
;W[hm]
;B[il]
;W[dl]
;B[el]
;W[em]
;B[fl]
;W[fm]
;B[dm]
;W[ek]
;B[ho]
;W[fp]
;B[dk]
;W[cl]
;B[fo]
;W[eo]
;B[go]
;W[dn]
;B[cm]
;W[ep]
;B[do]
;W[en]
;B[bl]
;W[fk]
;B[ck]
;W[ei]
;B[fg]
;W[fi]
;B[gh]
;W[if]
;B[jg]
;W[kf]
;B[ke]
;W[lf]
;B[hb]
;W[ib]
;B[ha]
;W[ic]
;B[nb]
;W[mb]
;B[na]
;W[kb]
;B[qh]
;W[qg]
;B[pg]
;W[rh]
;B[qf]
;W[rg]
;B[og]
;W[qi]
;B[ne]
;W[me]
;B[mc]
;W[lc]
;B[ma]
;W[lb]
;B[ro]
;W[rr]
;B[er]
;W[re]
;B[rd]
;W[qe]
;B[pe]
;W[qd]
;B[qc]
;W[rc]
;B[rb]
;W[sd]
;B[rf]
;W[qb]
;B[pb]
;W[pc]
;B[ig]
;W[hg]
;B[qc]
;W[lq]
;B[qa]
;W[lp]
;B[mo]
;W[kr]
;B[jr]
;W[ln]
;B[lo]
;W[ko]
;B[kp]
;W[fr]
;B[sf]
;W[io]
;B[ip]
;W[in]
;B[jo]
;W[jn]
;B[kn]
;W[dr]
;B[ks]
;W[ls]
;B[kq]
;W[js]
;B[is]
;W[cr]
;B[br]
;W[dq]
;B[bp]
;W[hr]
;B[jm]
;W[im]
;B[be]
;W[ol]
;B[om]
;W[km]
;B[lm]
;W[ko]
;B[ok]
;W[qj]
;B[kn]
;W[co]
;B[cp]
;W[ko]
;B[gn]
;W[gm]
;B[kn]
;W[bn]
;B[bo]
;W[ko]
;B[he]
;W[ie]
;B[kn]
;W[bm]
;B[el]
;W[ko]
;B[mp]
;W[kn]
;B[lr]
;W[mn]
;B[nn]
;W[kl]
;B[kk]
)
