(;GM[1]
FF[4]
SZ[19]
PW[yanagida]
WR[7d]
PB[nobu]
BR[4d]
DT[2001-03-04]
PC[The Kiseido Go Server (KGS) at http://kgs.kiseido.com/]
KM[0.50]
RE[B+1.50]
HA[3]RU[Japanese]CA[UTF-8]TM[2700]OT[5x30 byo-yomi]AB[pd][dp][pp]
;W[dc]
;B[de]
;W[ce]
;B[cf]
;W[cd]
;B[df]
;W[fc]
;B[cj]
;W[fq]
;B[fp]
;W[gp]
;B[fo]
;W[er]
;B[cq]
;W[jq]
;B[lq]
;W[qf]
;B[nc]
;W[pi]
;B[qk]
;W[dk]
;B[ck]
;W[dl]
;B[gm]
;W[dj]
;B[gj]
;W[ci]
;B[bi]
;W[bh]
;B[ch]
;W[di]
;B[bj]
;W[cg]
;B[dh]
;W[bf]
;B[dg]
;W[bg]
;B[cm]
;W[fi]
;B[gf]
;W[gi]
;B[if]
;W[ii]
;B[hc]
;W[dm]
;B[cn]
;W[md]
;B[mc]
;W[kd]
;B[jc]
;W[kc]
;B[jd]
;W[ke]
;B[jg]
;W[lg]
;B[kh]
;W[hj]
;B[rd]
;W[je]
;B[ie]
;W[jb]
;B[ib]
;W[lb]
;B[ja]
;W[ka]
;B[kb]
;W[cl]
;B[bl]
;W[jb]
;B[eb]
;W[ia]
;B[ec]
;W[hb]
;B[ic]
;W[gb]
;B[ed]
;W[fd]
;B[cb]
;W[db]
;B[da]
;W[bc]
;B[bb]
;W[dd]
;B[fe]
;W[ae]
;B[gd]
;W[gc]
;B[hd]
;W[ob]
;B[pf]
;W[qg]
;B[pe]
;W[oc]
;B[pg]
;W[ph]
;B[nd]
;W[qc]
;B[me]
;W[rc]
;B[re]
;W[ng]
;B[nf]
;W[kg]
;B[og]
;W[nh]
;B[ld]
;W[rq]
)
