(;GM[1]SZ[19]PW[Awaji Shuzo]PB[Kobayashi Koichi]DT[1989-09-14,15]RE[W+3.5]ID[89/1]FF[3]BS[0]WS[0]BR[9 Dan]WR[9 Dan];B[pd];W[dc];B[pq];W[dq];B[de];W[fc];B[do];W[cm];B[cq]
;W[cr];B[cp];W[er];B[en];W[gp];B[dl];W[ck];B[cl];W[bl];B[bm]
;W[cg];B[bk];W[ce];B[qo];W[nc];B[qf];W[ne];B[pi];W[pr];B[qq]
;W[oq];B[op];W[nq];B[np];W[mq];B[lo];W[qr];B[mp];W[kq];B[kd]
;W[qn];B[pn];W[qm];B[ro];W[qk];B[qj];W[rj];B[ri];W[oj];B[pj]
;W[pk];B[ok];W[ol];B[nk];W[nl];B[ml];W[mk];B[nj];W[mm];B[ll]
;W[lm];B[kl];W[on];B[pm];W[po];B[oo];W[pl];B[pp];W[km];B[jl]
;W[rl];B[sj];W[jm];B[nn];W[nm];B[kp];W[lq];B[im];W[jo];B[in]
;W[ko];B[md];W[nd];B[pb];W[oi];B[ni];W[oh];B[nh];W[pe];B[qe]
;W[ph];B[rk];W[ng];B[mg];W[og];B[lh];W[rh];B[rg];W[qh];B[sh]
;W[qi];B[mf];W[rj];B[dh];W[df];B[qj];W[ob];B[qc];W[od];B[pf]
;W[kb];B[ef];W[il];B[ik];W[hl];B[hk];W[eg];B[dg];W[cf];B[fg]
;W[gl];B[gn];W[jk];B[lk];W[gj];B[eh];W[dk];B[jj];W[ci];B[ch]
;W[bh];B[ek];W[ej];B[fk];W[dj];B[bj];W[bi];B[fj];W[pc];B[oc]
;W[el];B[dm];W[pc];B[oe];W[qb];B[oc];W[fi];B[gk];W[pc];B[pj]
;W[nf];B[oc];W[lj];B[mj];W[pc];B[rc];W[pa];B[ei];W[id];B[ee]
;W[dd];B[if];W[rb];B[sb];W[of];B[pe];W[ge];B[je];W[gg];B[hg]
;W[gf];B[gh];W[kc];B[jd];W[jc];B[jp];W[ho];B[lp];W[hn];B[hm]
;W[io];B[gm];W[iq];B[ep];W[fp];B[eq];W[fq];B[jq];W[jr];B[ip]
;W[hq];B[lc];W[lb];B[hd];W[he];B[ie];W[ic];B[gd];W[fd];B[fe]
;W[gc];B[br];W[bs];B[ar];W[rq];B[rp];W[rr];B[om];W[me];B[le]
;W[rn];B[dr];W[ds];B[fo];W[hc];B[ff];W[mc];B[ld];W[hf];B[hh]
;W[cj];B[ed];W[ec];B[mn];W[aj];B[al];W[ai];B[ak];W[dr];B[dp]
;W[sl];B[sg];W[sq];B[sn];W[sm];B[so];W[ra];B[re];W[gr])