(;CP[My Friday Night Files, 2002]AP[SGFcv.py:0.3]GM[1]FF[4]RO[1]
PB[Kato Masao]
BR[8 dan]
PW[Cho Chikun]
WR[6 dan]
KM[5.5]
DT[1975-07-10]
RE[Void]
SO[Kido YB]
US[JBvR]
EV[Judan, 14th]

;B[qd]
;W[dd]
;B[pq]
;W[dq]
;B[oc]
;W[po]
;B[qo]
;W[pp]
;B[qp]
;W[oq]
;B[qn]
;W[pn]
;B[qm]
;W[pr]
;B[qq]
;W[np]
;B[do]
;W[co]
;B[cn]
;W[cp]
;B[dn]
;W[fq]
;B[cj]
;W[jc]
;B[cg]
;W[dj]
;B[ck]
;W[mc]
;B[fc]
;W[ec]
;B[fd]
;W[df]
;B[dg]
;W[ef]
;B[be]
;W[if]
;B[gf]
;W[eg]
;B[hg]
;W[hc]
;B[hd]
;W[id]
;B[hb]
;W[gc]
;B[gb]
;W[eb]
;B[gd]
;W[ic]
;B[fb]
;W[bc]
;B[hi]
;W[jh]
;B[ij]
;W[rd]
;B[rc]
;W[pd]
;B[qc]
;W[pf]
;B[je]
;W[he]
;B[ie]
;W[hf]
;B[kd]
;W[kc]
;B[ld]
;W[lc]
;B[ge]
;W[jf]
;B[kf]
;W[kg]
;B[lf]
;W[pc]
;B[pb]
;W[od]
;B[lg]
;W[ob]
;B[ki]
;W[re]
;B[jq]
;W[qi]
;B[nr]
;W[or]
;B[mq]
;W[qk]
;B[rk]
;W[lo]
;B[rj]
;W[dh]
;B[ch]
;W[hq]
;B[hr]
;W[iq]
;B[ir]
;W[jp]
;B[kq]
;W[gr]
;B[ko]
;W[kp]
;B[lp]
;W[ln]
;B[mp]
;W[mo]
;B[lr]
;W[jm]
;B[rg]
;W[qg]
;B[qa]
;W[rb]
;B[sb]
;W[ra]
;B[qe]
;W[rf]
;B[qf]
;W[qh]
;B[pe]
;W[oe]
;B[of]
;W[pg]
;B[nc]
;W[nb]
;B[nd]
;W[ne]
;B[md]
;W[nf]
;B[oa]
;W[mb]
;B[sd]
;W[rh]
;B[ib]
;W[jb]
;B[ja]
;W[ka]
;B[la]
;W[ia]
;B[lb]
;W[na]
;B[qb]
;W[sg]
;B[se]
;W[sf]
;B[ha]
;W[sc]
;B[sd]
;W[se]
;B[ja]
;W[sc]
;B[sa]
;W[ia]
;B[sd]
;W[rb]
;B[ra]
;W[sc]
;B[ja]
;W[pa]
;B[sd]
;W[ia]C[Triple ko])