(;US[JBvR]SO[Cho Chikun Internet Book]CP[My Friday Night Files, 2002]AP[SGFcv.py:0.3]GM[1]FF[4]KM[5.5]
RE[W+2.5]
BR[5d]
WR[6d]
PB[Kusunoki Teruko]
PW[Cho Chikun]
DT[1975-05-21]
RO[2nd preliminary round]
EV[Honinbo, 31st]

;B[pd]
;W[dc]
;B[pp]
;W[cp]
;B[ep]
;W[eq]
;B[fq]
;W[dq]
;B[fp]
;W[cn]
;B[jp]
;W[qn]
;B[pl]
;W[qq]
;B[pq]
;W[qp]
;B[po]
;W[qr]
;B[pn]
;W[qm]
;B[pm]
;W[pr]
;B[nq]
;W[nc]
;B[jd]
;W[qf]
;B[pf]
;W[pg]
;B[qe]
;W[of]
;B[pe]
;W[rf]
;B[nd]
;W[re]
;B[qc]
;W[pi]
;B[md]
;W[hc]
;B[ce]
;W[cd]
;B[de]
;W[fd]
;B[ci]
;W[ck]
;B[ib]
;W[cg]
;B[dg]
;W[bg]
;B[be]
;W[dh]
;B[eg]
;W[di]
;B[hb]
;W[gc]
;B[bc]
;W[bb]
;B[em]
;W[bd]
;B[ad]
;W[cc]
;B[gb]
;W[gh]
;B[gf]
;W[hf]
;B[he]
;W[ff]
;B[ed]
;W[ge]
;B[ec]
;W[ie]
;B[cl]
;W[cj]
;B[dl]
;W[fl]
;B[ej]
;W[dk]
;B[el]
;W[ek]
;B[fk]
;W[gk]
;B[fj]
;W[gj]
;B[gl]
;W[fm]
;B[fn]
;W[gm]
;B[hl]
;W[hm]
;B[fh]
;W[il]
;B[gi]
;W[hi]
;B[fi]
;W[gg]
;B[bi]
;W[dj]
;B[bl]
;W[ee]
;B[ef]
;W[eb]
;B[fe]
;W[do]
;B[en]
;W[ee]
;B[bj]
;W[bk]
;B[ak]
;W[ch]
;B[fe]
;W[fg]
;B[eh]
;W[fc]
;B[ee]
;W[ac]
;B[cf]
;W[ae]
;B[af]
;W[nr]
;B[bf]
;W[mq]
;B[mp]
;W[lq]
;B[lp]
;W[kq]
;B[kp]
;W[je]
;B[kd]
;W[ql]
;B[pj]
;W[qj]
;B[oj]
;W[qk]
;B[og]
;W[ph]
;B[an]
;W[bo]
;B[kl]
;W[jj]
;B[kj]
;W[mj]
;B[ng]
;W[mh]
;B[qo]
;W[ro]
;B[rp]
;W[rq]
;B[jk]
;W[ik]
;B[rn]
;W[sp]
;B[ki]
;W[mg]
;B[so]
;W[sn]
;B[nf]
;W[lk]
;B[kk]
;W[ll]
;B[lm]
;W[ji]
;B[ml]
;W[kh]
;B[jm]
;W[rd]
;B[or]
;W[os]
;B[oq]
;W[jq]
;B[iq]
;W[ir]
;B[mr]
;W[ns]
;B[hr]
;W[jr]
;B[er]
;W[dr]
;B[gr]
;W[rb]
;B[ds]
;W[cs]
;B[es]
;W[br]
;B[rc]
;W[sc]
;B[qb]
;W[mk]
;B[nl]
;W[in]
;B[kf]
;W[ic]
;B[jc]
;W[ke]
;B[lf]
;W[jb]
;B[kb]
;W[le]
;B[mf]
;W[ld]
;B[lc]
;W[kg]
;B[hh]
;W[ii]
;B[jf]
;W[ig]
;B[fb]
;W[jn]
;B[kn]
;W[db]
;B[bn]
;W[id]
;B[ja]
;W[me]
;B[ne]
;W[cm]
;B[bm]
;W[sb]
;B[ra]
;W[qd]
;B[pc]
;W[ip]
;B[hq]
;W[hp]
;B[ao]
;W[ap]
;B[jg]
;W[jh]
;B[im]
;W[hn]
;B[jo]
;W[gp]
;B[is]
;W[lr]
;B[hs]
;W[fa]
;B[ga]
;W[ea]
;B[js]
;W[ks]
;B[dp]
;W[ok]
;B[pk]
;W[nk]
;B[ol]
;W[al]
;B[aj]
;W[ad]
;B[ah])