(;CP[My Friday Night Files, 2002]AP[SGFcv.py:0.3]GM[1]FF[4]RO[final (before match)]
PB[Ohira Shuzo]
BR[9 dan]
PW[Cho Chikun]
WR[7 dan]
KM[5.5]
DT[1975-11-20]
RE[B+R]
SO[KYB 76]
US[JBvR]
EV[Tengen, 1st]

;B[qd]
;W[cq]
;B[dd]
;W[pp]
;B[kc]
;W[pj]
;B[dn]
;W[ep]
;B[cj]
;W[fc]
;B[ec]
;W[fd]
;B[df]
;W[ic]
;B[ph]
;W[nd]
;B[oc]
;W[nc]
;B[od]
;W[ne]
;B[ke]
;W[ie]
;B[ib]
;W[hb]
;B[jc]
;W[id]
;B[mf]
;W[nf]
;B[mg]
;W[oh]
;B[oi]
;W[nh]
;B[pi]
;W[pf]
;B[kg]
;W[qe]
;B[rd]
;W[mh]
;B[ki]
;W[mj]
;B[oj]
;W[qm]
;B[om]
;W[lk]
;B[ql]
;W[jk]
;B[ih]
;W[gg]
;B[kl]
;W[kk]
;B[gh]
;W[fg]
;B[hk]
;W[mm]
;B[qn]
;W[mp]
;B[gq]
;W[pm]
;B[pn]
;W[pl]
;B[rm]
;W[rl]
;B[qk]
;W[rn]
;B[sm]
;W[sn]
;B[ol]
;W[pk]
;B[qj]
;W[sl]
;B[rm]
;W[sm]
;B[ok]
;W[qp]
;B[rm]
;W[iq]
;B[go]
;W[io]
;B[kq]
;W[fq]
;B[fr]
;W[er]
;B[li]
;W[lh]
;B[kh]
;W[nj]
;B[oq]
;W[mr]
;B[no]
;W[mo]
;B[qr]
;W[pr]
;B[ro]
;W[rr]
;B[rp]
;W[qo]
;B[qq]
;W[pq]
;B[rq]
;W[qs]
;B[rs]
;W[ss]
;B[in]
;W[jn]
;B[im]
;W[ho]
;B[fp]
;W[eq]
;B[gn]
;W[fh]
;B[gi]
;W[il]
;B[hl]
;W[cc]
;B[cd]
;W[eb]
;B[db]
;W[dc]
;B[cb]
;W[ed]
;B[bc]
;W[dg]
;B[sq]
;W[so]
;B[rk]
;W[qm]
;B[sk]
;W[pm]
;B[pl]
;W[ps]
;B[rm]
;W[qm]
;B[pm]
;W[cf]
;B[ec]
;W[be]
;B[dc]
;W[bn]
;B[eo]
;W[co]
;B[op]
;W[or]
;B[nq]
;W[mq]
;B[nr]
;W[ns]
;B[po]
;W[cl]
;B[ch]
;W[de]
;B[bg]
;W[ck]
;B[ej]
;W[hr]
;B[gr]
;W[jm]
;B[jl]
;W[ik]
;B[jo]
;W[km]
;B[hq]
;W[jq]
;B[ce]
;W[ef]
;B[bf]
;W[bj]
;B[ir]
;W[jr]
;B[hs]
;W[ci]
;B[cn]
;W[do]
;B[em]
;W[cm]
;B[dj]
;W[bh]
;B[cg]
;W[df]
;B[gb]
;W[jb]
;B[kb]
;W[ia]
;B[fb]
;W[dh]
;B[ah]
;W[bi]
;B[ae]
;W[re]
;B[nb]
;W[mb]
;B[ob]
;W[el]
;B[fl]
;W[ek]
;B[fk]
;W[ld]
;B[je]
;W[ig]
;B[jg]
;W[hg]
;B[gc]
;W[hh]
;B[hi]
;W[ii]
;B[ij]
;W[jh]
;B[jj]
;W[gd]
;B[kr]
;W[js]
;B[kn]
;W[ll]
;B[kp]
;W[ks]
;B[ls]
;W[ko]
;B[lo])