(
;
GM[1]
VW[]
US[Converted by sgf2misc-2.5]
ID[ 6/5]
FF[3]
PB[Sakata Eio]
PW[Hashimoto Utaro]
DT[1951-05-31,06-01]
RE[W+10.5]
KM[4.5]
;B[pd];W[dp];B[pq];W[cc];B[po];W[kp];B[fq];W[qm];B[pj];W[om]
;B[pl];W[pm];B[no];W[hq];B[fo];W[cm];B[ho];W[ro];B[qp];W[rj]
;B[jq];W[eq];B[fr];W[jp];B[iq];W[ip];B[hp];W[mo];B[nn];W[hr]
;B[kq];W[lq];B[lr];W[mr];B[kr];W[mp];B[nq];W[mq];B[ir];W[lm]
;B[mn];W[ln];B[nl];W[qj];B[ml];W[jd];B[ko];W[jo];B[kn];W[jn]
;B[km];W[jm];B[kl];W[jl];B[kk];W[jk];B[ii];W[jj];B[hd];W[nc]
;B[em];W[ig];B[ih];W[gk];B[cl];W[er];B[cn];W[gi];B[hg];W[hh]
;B[gg];W[jg];B[ki];W[kh];B[ji];W[kj];B[li];W[lj];B[mk];W[mj]
;B[kf];W[jf];B[ke];W[je];B[lh];W[mf];B[nh];W[oi];B[pi];W[oh]
;B[nf];W[nj];B[kd];W[kc];B[lc];W[jb];B[ic];W[jc];B[lb];W[ne]
;B[lg];W[he];B[ge];W[gd];B[ie];W[hc];B[hf];W[gc];B[of];W[pc]
;B[qc];W[qd];B[pe];W[qb];B[oc];W[rc];B[ob];W[qf];B[ol];W[df]
;B[ph];W[og];B[pg];W[ei];B[hj];W[fl];B[gj];W[fj];B[rh];W[gh]
;B[ek];W[fk];B[rp];W[bm];B[dm];W[cj];B[bl];W[bp];B[hk];W[hl]
;B[gm];W[gl];B[fd];W[fc];B[ef];W[ff];B[bo];W[ng];B[pf];W[md]
;B[nb];W[mg];B[ld];W[es];B[gq];W[pb];B[ka];W[id];B[hm];W[im]
;B[cd];W[cf];B[oj];W[mh];B[lo];W[lp];B[dc];W[bc];B[ec];W[bd]
;B[fb];W[gb];B[ib];W[ha];B[fa];W[fe];B[ga];W[he];B[ik];W[il]
;B[hd];W[ed];B[ja];W[hb];B[ia];W[he];B[re];W[qe];B[hd];W[fd]
;B[rf];W[rd];B[kg];W[qg];B[qh];W[bj];B[dj];W[di];B[bq];W[ap]
;B[cp];W[cq];B[do];W[co];B[mi];W[ni];B[cp];W[mc];B[mb];W[co]
;B[fg];W[gf];B[he];W[eg];B[cp];W[br];B[ep];W[co];B[fh];W[fi]
;B[cp];W[rg];B[dq];W[cr];B[sg];W[ps];B[ao];W[aq];B[or];W[os]
;B[qs];W[nr];B[qr];W[se];B[sh];W[sf];B[dr];W[ds];B[dp];W[np]
;B[op];W[dk];B[dd];W[ee];B[ck];W[ej];B[el];W[fm];B[fn];W[lk]
;B[ll];W[nk];B[ak];W[ok];B[pk];W[aj];B[jh];W[eh];B[kb];W[if]
;B[fs];W[cs];B[pa];W[qa];B[oa];W[bk];B[al];W[ls];B[hn];W[ks]
;B[js];W[ms];B[oq])
