(;EV[C class tournament]DT[1994-03-21]PB[Sorin]PW[Lee]RE[W+0.5]C[Game commentary by Kitamura Sensei 7d.];B[pd];W[dq];B[dd];W[qp];B[do];W[co];B[cn];W[cp];B[dn]
;W[fq];B[dj];W[fc];B[hc];W[cc];B[cd];W[dc];B[ed];W[fb];B[ge];W[pj]
(;B[nq]LB[op:a]C[Since black's interest is in the center in this game, this move should better be an ikken-kakari at "a". See the variation for more commentaries.];W[pq];B[jp]
(;W[nc]C[This is strange: normal is to play kakari from the other side (black would not be able to make many points on the upper side anyway because it is open on the left). See the variation.]
(;B[qf]LB[oc:a]C[Black can take a stronger action and play kosumi-tsuke at "a". See the diagram.  ];W[pb];B[qc];W[kc]LB[ld:a]C[This is too low: should be at "a".];B[ho]LB[bl:a][bm:b]C[Black should play one point to the left, to strengthen his moyo. If white would play next the standard invasion at "a", black can reply severe at "b", attempting to kill the invader. ];W[gj]LB[hi:a][ii:b]C[This is coming in too deep. White should play at "a" or "b": at either of these moves black has to attack from outside with boshi, he cannot win if he defends his left territory. So, why take risks and come in so deep?]
;B[ij];W[hi];B[jh];W[hf];B[he];W[if];B[bc];W[bb];B[bd];W[ab];B[kd];W[lc]
(;B[pl]LB[kf:a]C[Black should keep on attacking from the ouside  at "a". Once white is poking his head out there, black's position in the center (keima) becomes vulnerable. This is the vital point in this position.
Missing such moves means losing the game.
See the variation for further discussion on this.];W[ql]LB[kf:a]C[This idea behind this move is extremly bad: it makes black very strong in the lower-right area. 

White should play the perfect move at "a" which not only reverses the balance of power in the center(see preevious comments), but also helps the white stone on the right side. ];B[qm];W[qk];B[pm];W[qh];B[qb];W[kf];B[fi]LB[fg:a][gf:b]C[This is better at "a" or "b". See the next comment for the reason.]
;B[fi];W[ii]LB[fg:a]C[White should play at "a" immediately, punishing black's last move. This would threaten the whole black group in the upper-left, that's why it is so severe.

The commentary ends here. White won by half a point in the end. Black missed the opportunity to take proper advantage of white's thin group in the center.];B[ji];W[jj];B[ik];W[kj];B[lh];W[mj];B[mg];W[jd];B[ph];W[pi]
;B[pg];W[np];B[oj];W[ok];B[pk];W[oi];B[nj];W[ni];B[nk];W[mi];B[lf];W[ml];B[nl]
;W[nm];B[po];W[mk];B[mq];W[op];B[qo];W[rp];B[rn];W[ol];B[rl];W[rk];B[sl];W[fg]
;B[eg];W[ef];B[dg];W[df];B[cf];W[ff];B[fd];W[jq];B[iq];W[ir];B[jr];W[kq];B[kr]
;W[kp];B[hr];W[ip];B[hq];W[jo];B[er];W[dr];B[eq];W[bn];B[dp];W[br];B[bm];W[bo]
;B[hm];W[fj];B[ej];W[fl];B[cl];W[gn];B[hn];W[hp];B[go];W[gp];B[gm];W[rg];B[rf]
;W[kg];B[li];W[jl];B[je];W[ke];B[fh];W[il];B[hh];W[ih];B[gh];W[hg];B[hk];W[fo]
;B[fn];W[on];B[pn];W[dl];B[jc];W[id];B[ic];W[oc])
(;B[kf]C[Vital move to keep pressure on white while connecting black's own stones and build thickness in the center.];W[je]C[White has little choice but to play this kosumi. Now black has 2 possibilities.]
(;B[pl]C[One possibility is for black to attack as he did in the game.];W[jd]C[White would have 2 weak groups if black gets to play here. In such situations, insuring one of the groups is a common strategy (as opposed to one's first instinct, to answer automatically the last attack on the right side. That stone cannot become safe in just one move, anyway).];B[nk])
(;B[jd]C[Another possibility for black is to brutally continue the attack. This requires a lot of read ahead and confidence, because black's own position in the center becomes thin in the process.  ];W[ke];B[ld])))
(;B[oc];W[nd];B[pf]C[Playing this way white's stones are heavier. Now it's more clear that white played kakari from the wrong side.]))
(;W[pf];B[nd];W[nf]C[This is a better development for white than the one in the game. ]))
(;B[op]C[This high kakari is better here than a low one: black should concentrate on the center.];W[lp];B[go]C[In response to the white normal hasami, black returns on the left side and expands his moyo here. This shows how professionals don't care about josekis (which would call for black's answer in the lower right corner) but think about the game as a whole. I found this discovery very instructive.];W[pn];B[qq]C[When white continues his attacks in the lower right corner, black would like to settle issues here as locally and fast as possible: flying in the center is the normal option for black, but in this game that might hurt his central moyo. Again this shows how one should not follow fix thinking patterns every time, but judge each situation separately.];W[rq];B[pq];W[rr];B[mq]C[This move is usually bad style, but here is consistent with black's strategy to settle things locally in this corner.];W[lq];B[mp]C[Black has settled his position and white's lower side position is nothing to worry about due to black's 23 in the center.]
))