(
;
FF[4]
GM[1]
SZ[19]
AP[Jago:Version 3.66]
GN[]
PB[Matsuda]
PW[Sorin]
BR[B class]
WR[C class]
DT[18.09.1994]
TM[]
KM[]
RE[B+2.5]
HA[]
;
B[cp]
C[Commentary by Tei Meiko Sensei 9d]
;
W[pd]
;
B[qp]
;
W[dd]
;
B[eq]
;
W[op]
;
B[oq]
;
W[nq]
;
B[pq]
;
W[mp]
;
B[qn]
;
W[iq]
;
B[jc]
;
W[cj]
;
B[mc]
;
W[qg]
;
B[pb]
;
W[cm]
;
B[qi]
;
W[qc]
;
B[qb]
;
W[fc]
LB[og:a]
C[In "a" is more solid.]
;
B[oi]
LB[qe:a]
C[At "a" is more severe.]
;
W[og]
;
B[lq]
;
W[mr]
;
B[jr]
;
W[kp]
;
B[ir]
;
W[hq]
;
B[lp]
;
W[kq]
;
B[hr]
;
W[kr]
LB[gq:a][lo:b]
C[This should be in "a" and white wins by 20 p!
Locally, however, "b" is the correct shape.]
;
B[gq]
;
W[ce]
;
B[mh]
;
W[ri]
;
B[rj]
;
W[rh]
;
B[rc]
;
W[rd]
;
B[rb]
;
W[nd]
LB[oc:a]
C[Better at "a".]
;
B[md]
;
W[nc]
C[Bad exchange.]
;
B[nb]
;
W[me]
LB[hc:a][id:b]
C[Unnecessary defense: should be at "b" or "a".]
;
B[le]
;
W[mf]
;
B[lf]
;
W[po]
LB[hc:a]
C[Should be at "a": it's difficult to make territory in the center.]
;
B[qo]
;
W[om]
LB[hc:a]
C[Should be at "a": it's difficult to make territory in the center.]
;
B[di]
;
W[ci]
;
B[dg]
;
W[ei]
;
B[eh]
;
W[dj]
;
B[fi]
;
W[dh]
;
B[ch]
;
W[fh]
;
B[di]
;
W[ej]
;
B[fg]
;
W[gh]
;
B[gg]
;
W[hh]
;
B[hg]
;
W[dh]
;
B[eg]
;
W[ih]
;
B[ig]
;
W[ho]
LB[hc:a]
C[Should be at "a".]
;
B[jh]
;
W[ij]
;
B[ji]
;
W[hj]
;
B[fb]
;
W[eb]
;
B[gb]
;
W[gc]
;
B[db]
;
W[ec]
;
B[hb]
;
W[ea]
;
B[fn]
;
W[kk]
LB[bh:a][ll:b]
C[This should be at "a". If white wants to play in the center, then "b" is the correct move.]
;
B[ml]
;
W[co]
;
B[do]
;
W[bo]
;
B[dn]
;
W[bp]
;
B[cq]
;
W[nl]
;
B[lk]
;
W[ll]
;
B[mk]
;
W[mm]
;
B[kl]
;
W[lm]
;
B[jk]
;
W[kj]
LB[km:a]
C[This losses 2 points: should be directly at "a". ]
;
B[jj]
;
W[km]
;
B[jl]
;
W[nk]
;
B[mj]
;
W[or]
;
B[pr]
;
W[ps]
;
B[qs]
;
W[os]
;
B[rr]
;
W[rk]
;
B[qj]
;
W[bh]
;
B[cg]
;
W[bg]
;
B[gk]
;
W[fj]
;
B[el]
;
W[bq]
;
B[cn]
;
W[bn]
;
B[cl]
;
W[bl]
;
B[dm]
;
W[bm]
;
B[hc]
;
W[ge]
;
B[hd]
;
W[he]
;
B[ie]
;
W[br]
;
B[gd]
;
W[fe]
;
B[ee]
;
W[fd]
;
B[cf]
;
W[bf]
;
B[de]
C[This is not kikashi!]
;
W[cd]
C[Unnecessary defense.]
;
B[jn]
;
W[in]
;
B[jm]
;
W[ko]
;
B[sk]
;
W[sl]
;
B[sj]
;
W[ql]
;
B[rm]
;
W[rl]
;
B[oc]
;
W[od]
;
B[pc]
;
W[qd]
;
B[ph]
;
W[pg]
;
B[on]
;
W[nn]
;
B[pn]
;
W[mg]
;
B[lg]
;
W[dr]
;
B[cr]
;
W[cs]
;
B[er]
;
W[qm]
LB[oo:a]
C[Should be at "a": 4 points reverse sente.

Commentary ends here.]
;
B[oo]
;
W[no]
;
B[rn]
;
W[gp]
;
B[fp]
;
W[gr]
;
B[fq]
;
W[ni]
;
B[nj]
;
W[nh]
;
B[mi]
;
W[ok]
;
B[oj]
;
W[js]
;
B[sd]
;
W[se]
;
B[sc]
;
W[rf]
;
B[oh]
;
W[ng]
;
B[go]
;
W[hp]
;
B[gm]
;
W[fk]
;
B[fl]
;
W[hl]
;
B[gl]
;
W[ck]
C[Game record ends here.]
)
