(
;
FF[4]
GM[1]
SZ[19]
AP[Jago:Version 3.66]
GN[]
PB[Cho]
PW[Sorin]
BR[D class]
WR[]
DT[26.06.1994]
TM[]
KM[]
RE[W+R]
HA[]
;
B[dp]
C[Commentary by Kitamura Sensei 7d]
;
W[pd]
;
B[dd]
;
W[pp]
;
B[nc]
;
W[pf]
;
B[jd]
;
W[cj]
;
B[nq]
;
W[pn]
LB[qn:a]
C[Playing keima at "a" is faster: there is no need to play once more on the right side.]
;
B[pr]
;
W[qq]
;
B[kq]
;
W[qj]
;
B[cl]
C[Aproaching from the other side is better, in this position, black has better prospects of buiding a big moyo on the upper side.]
;
W[cf]
;
B[ch]
;
W[ef]
;
B[fd]
;
W[di]
;
B[bd]
LB[ce:a]
C[At "a" is faster.]
;
W[cq]
C[After black's last move, a defense move at "a" is mandatory for white. After the defense, "b" becomes a very good invasion point.]
LB[dh:a][hc:b]
;
B[dq]
;
W[cp]
;
B[cn]
;
W[bn]
;
B[bm]
;
W[co]
;
B[do]
;
W[dn]
;
B[cm]
;
W[dr]
;
B[er]
;
W[cr]
;
B[en]
LB[fq:a]
C[The normal kaketsugi at "a" is the correct move.]
;
W[jp]
C[This is a careless move: it is white's last chance to defend at "a". A black move at "a" would bring disaster for white.]
LB[dh:a]
;
B[dh]
C[Very severe. Practically it's game over.]
;
W[eh]
;
B[ei]
;
W[ej]
;
B[fi]
;
W[fj]
;
B[gi]
;
W[dg]
;
B[bh]
LB[fg:a]
C[Black should first play the kikashi at "a".]
;
W[be]
;
B[ci]
LB[bj:a]
C[Black should play directly tsuke at "a".]
;
W[dj]
;
B[bj]
;
W[cd]
;
B[cc]
;
W[de]
;
B[ce]
;
W[bk]
;
B[cd]
LB[ck:a]
C[Black should continue to fight the ko by cutting at "a".]
;
W[aj]
LB[ai:a]
C[Should be at "a".]
;
B[ai]
;
W[bi]
;
B[bg]
;
W[bf]
;
B[bj]
;
W[ak]
;
B[ck]
;
W[bi]
;
B[qe]
;
W[ah]
;
B[pe]
;
W[od]
;
B[oe]
;
W[nd]
;
B[mc]
;
W[md]
;
B[lc]
;
W[qd]
;
B[of]
LB[re:a]
C[Sagari at "a" is more agressive.]
;
W[oc]
;
B[qh]
LB[pm:a]
C[Black should attack at "a", not think about defending.]
;
W[qi]
;
B[ph]
;
W[am]
C[Very small.]
;
B[jq]
;
W[ip]
;
B[hq]
LB[lo:a]
C[At "a" is better.]
;
W[lp]
;
B[lq]
;
W[np]
;
B[pm]
C[A little bit late...]
;
W[qm]
;
B[ql]
;
W[pl]
;
B[pk]
;
W[om]
;
B[qk]
;
W[ok]
;
B[pj]
;
W[oj]
;
B[pi]
;
W[oq]
;
B[nr]
;
W[kp]
;
B[hp]
;
W[ho]
;
B[go]
;
W[fr]
LB[gn:a]
C[Should be nidan-bane at "a".

Commentary ends here.]
;
B[eq]
;
W[hr]
;
B[iq]
;
W[fs]
;
B[hn]
;
W[io]
;
B[in]
;
W[jn]
;
B[jm]
;
W[or]
;
B[kn]
;
W[ns]
;
B[mp]
;
W[mo]
;
B[mq]
;
W[lo]
;
B[no]
;
W[op]
;
B[nn]
;
W[lm]
;
B[nm]
;
W[mm]
;
B[nl]
;
W[ol]
;
B[mk]
;
W[lk]
)
