(
;
FF[4]
GM[1]
SZ[19]
AP[Jago:Version 3.66]
GN[]
PB[Norman Chadwick]
PW[Sorin]
BR[D class]
WR[]
DT[]
TM[]
KM[]
RE[W+6.5]
HA[]
;
B[dp]
C[Commentary by Tei Meiko Sensei 9d]
;
W[pd]
;
B[dc]
;
W[pp]
;
B[ce]
;
W[jd]
;
B[qf]
;
W[qh]
;
B[qc]
;
W[pc]
;
B[qd]
;
W[pe]
;
B[rf]
;
W[og]
;
B[nq]
;
W[kp]
;
B[qn]
;
W[oo]
;
B[qq]
;
W[pq]
;
B[qp]
;
W[pm]
;
B[po]
;
W[pn]
;
B[qo]
;
W[op]
;
B[iq]
;
W[qm]
LB[io:a]
C[This should be boshi at "a".]
;
B[pr]
;
W[or]
;
B[qr]
;
W[mp]
;
B[hc]
;
W[he]
;
B[io]
;
W[cn]
;
B[cl]
;
W[cq]
;
B[dq]
;
W[cp]
;
B[do]
;
W[bn]
;
B[em]
;
W[ik]
LB[ee:a]
C[Another possibility is to play at "a".]
;
B[jn]
;
W[ll]
LB[kl:a]
C[At "a" (keima instead of ogeima) is more solid.]
;
B[ii]
C[This move reveals the weakness of white's last move.]
;
W[gj]
LB[ee:a]
C[Better start an indirect attack, at "a".]
;
B[gi]
;
W[fi]
;
B[gh]
;
W[fj]
;
B[hj]
C[Very bad!]
;
W[hk]
;
B[fh]
;
W[gm]
;
B[gn]
;
W[hn]
;
B[gl]
;
W[fl]
;
B[fm]
;
W[hm]
;
B[ho]
;
W[gc]
;
B[gd]
LB[gb:a][ib:b]
C[This is bad. Better play at "a" or "b".

Commentary (and game record) ends here.]
;
W[hd]
;
B[fc]
;
W[gb]
;
B[fd]
;
W[hb]
)
