(
;
FF[4]
GM[1]
SZ[19]
AP[Jago:Version 3.66]
GN[s_shibusawa_1]
;
B[jj]
C[Commentary by Aragaki Sensei 9d.]
;
W[pd]
;
B[jp]
;
W[pp]
;
B[jd]
;
W[dp]
;
B[cd]
;
W[cj]
;
B[pj]
;
W[ed]
C[Bad move: it gives black a chance to fight, which exactly what he wants with this center fuseki.]
;
B[df]
;
W[cc]
;
B[bc]
;
W[dc]
;
B[be]
;
W[hc]
;
B[cn]
LB[cl:a]
C[Black should compensate for his lack of territory by attacking at "a".]
;
W[fq]
LB[cl:a]
C[White should defend at "a".]
;
B[bp]
;
W[cq]
;
B[cl]
;
W[ej]
;
B[el]
;
W[cg]
;
B[cf]
;
W[bg]
;
B[he]
;
W[hd]
C[White should grab this opportunity and defend at "a". If next black tsuke at "b", white defends with hane at "c".]
LB[eh:a][gc:b][gb:c]
;
B[ge]
;
W[jb]
;
B[eh]
LB[dh:a]
C[This should be more severe, at  "a".]
;
W[bl]
;
B[bm]
;
W[ck]
LB[bk:a]
C[White should defend at "a".]
;
B[dk]
;
W[dj]
;
B[bk]
;
W[bj]
;
B[al]
;
W[dh]
;
B[dg]
;
W[ei]
;
B[fh]
;
W[ci]
C[This result is good for white.]
;
B[pf]
;
W[qm]
;
B[nd]
;
W[oe]
;
B[qc]
;
W[qd]
LB[of:a]
C[White should play directly at "a".]
;
B[pc]
;
W[of]
;
B[od]
LB[pg:a]
C[Black should resist at "a".]
;
W[pg]
;
B[qf]
;
W[qg]
;
B[rd]
;
W[oh]
LB[rj:a]
C[White should play suberi at "a".

Commentary ends here.]
;
B[pl]
;
W[pm]
;
B[ql]
;
W[nj]
;
B[om]
;
W[on]
;
B[ol]
;
W[nn]
;
B[qo]
;
W[rm]
;
B[ml]
;
W[lg]
;
B[mi]
;
W[mj]
;
B[li]
;
W[lj]
;
B[ki]
;
W[ni]
;
B[kl]
;
W[kf]
;
B[mh]
;
W[ng]
;
B[mg]
;
W[mf]
;
B[ne]
;
W[nf]
;
B[le]
;
W[lf]
;
B[kb]
;
W[jc]
;
B[kc]
;
W[me]
;
B[md]
;
W[lm]
;
B[ll]
;
W[qi]
;
B[pq]
;
W[qq]
;
B[qp]
;
W[rq]
;
B[pr]
;
W[po]
;
B[rr]
;
W[rp]
;
B[ro]
;
W[qn]
;
B[qr]
;
W[so]
;
B[mq]
;
W[kq]
;
B[jq]
;
W[kp]
;
B[ko]
;
W[lp]
;
B[jo]
;
W[lo]
;
B[mr]
;
W[bq]
;
B[id]
;
W[ic]
;
B[fc]
;
W[fd]
;
B[eb]
;
W[db]
;
B[gd]
;
W[gc]
;
B[gb]
;
W[hb]
;
B[ia]
;
W[fb]
;
B[fa]
;
W[ec]
;
B[fb]
;
W[ea]
;
B[da]
;
W[ca]
;
B[ha]
;
W[ea]
;
B[rj]
;
W[ga]
;
B[rf]
;
W[qj]
;
B[qk]
;
W[ri]
;
B[rk]
;
W[jg]
;
B[if]
;
W[ih]
;
B[jh]
;
W[ig]
;
B[jf]
;
W[gi]
;
B[kh]
;
W[pi]
;
B[kg]
;
W[ij]
;
B[ii]
;
W[hi]
;
B[ik]
;
W[ji]
;
B[kj]
;
W[oj]
;
B[pk]
;
W[mm]
;
B[nl]
;
W[pe]
;
B[nh]
;
W[re]
;
B[qe]
;
W[rg]
;
B[se]
;
W[sg]
;
B[sf]
;
W[si]
)
