

(;GM[1]BS[0]WS[0]SZ[19]DT[1955-06-02,03]BR[8 Dan]KM[4.5]RO[3]PC[Niigata]PB[Takagawa Kaku]PW[Shimamura Toshihiro]RE[B+R]TM[10h]FF[3];B[pd];W[dc];B[pp];W[dq];B[ce];W[cn];B[ci];W[cg];B[ee]
;W[fd];B[dh];W[cd];B[be];W[nq];B[pn];W[iq];B[kq];W[ko];B[jp]
;W[gq];B[jo];W[km];B[lo];W[qq];B[pq];W[pr];B[or];W[rr];B[ps]
;W[qr];B[oq];W[rn];B[jc];W[qo];B[po];W[ql];B[bc];W[hc];B[je]
;W[fe];B[ef];W[qf];B[ol];W[qc];B[pc];W[qd];B[pe];W[qe];B[pf]
;W[jb];B[kb];W[ib];B[kc];W[pg];B[og];W[oh];B[ph];W[qg];B[ng]
;W[bk];B[im];W[oi];B[pk];W[mi];B[pi];W[oj];B[pj];W[nl];B[nm]
;W[ml];B[mm];W[ok];B[pl];W[kk];B[fp];W[fq];B[cl];W[ck];B[co]
;W[dn];B[cq];W[dp];B[cp];W[dr];B[do];W[eo];B[bn];W[bm];B[ao]
;W[dl];B[cr];W[bi];B[cb];W[db];B[ki];W[lh];B[jl];W[lf];B[ll]
;W[ne];B[nc];W[kl];B[nk];W[mk];B[lk];W[mj];B[lj];W[ii];B[jh]
;W[jf];B[if];W[jg];B[ih];W[ig];B[hh];W[hg];B[bh];W[ch];B[bj]
;W[bg];B[ai];W[dg];B[eg];W[di];B[eh];W[ei];B[fi];W[ek];B[jr]
;W[bd];B[ad];W[gi];B[gh];W[fj];B[ik];W[md];B[nd];W[me];B[oe]
;W[ij];B[hi];W[fh];B[hj];W[gg];B[df];W[cj];B[cf];W[bi];B[ed]
;W[ec];B[dd];W[cc];B[bb];W[da];B[ca];W[pb];B[ob];W[qb];B[hd]
;W[rk];B[ci];W[oa];B[mc];W[bi];B[ep];W[go];B[ci];W[nb];B[oc]
;W[bi];B[gc];W[gd];B[ci];W[ac];B[ae];W[bi];B[qn];W[ro];B[ci]
;W[ag];B[bf];W[bi];B[mb];W[id];B[ci];W[fo];B[ar];W[bi];B[ic]
;W[hb];B[ci];W[in];B[jn];W[bi];B[mg];W[li];B[ci];W[kj];B[lm]
;W[bi];B[lg];W[kh];B[ji];W[kg];B[ci];W[bo];B[bp];W[bi];B[ke]
;W[he];B[kf];W[aj];B[ri];W[rh];B[qm];W[rm];B[ir];W[gm];B[qh]
;W[rg];B[hr];W[ie];B[gk];W[hl];B[gj];W[rj];B[fi];W[jd];B[kd]
;W[gi];B[qp];W[rp];B[fi];W[qs];B[os];W[gi];B[fc];W[fb];B[fi]
;W[gr];B[hq];W[gi];B[ff];W[gf];B[fi];W[fg];B[fk];W[fl];B[ej]
;W[dj];B[er];W[eq];B[ds];W[il];B[jm];W[na];B[hp];W[gp];B[hm]
;W[gl];B[hn];W[fj];B[si];W[gi];B[hk])