(;CP[My Friday Night Files, 2002]AP[SGFcv.py:0.3]GM[1]FF[4]RO[final]
PB[Cho Chikun]
BR[5 dan]
PW[Kobayashi Koichi]
WR[6 dan]
KM[5.5]
DT[1972-07-24]
RE[W+R]
SO[KYB]
US[JBvR]
EV[New Faces (Channel 12), 4th]

;B[qd]
;W[dd]
;B[fc]
;W[od]
;B[cf]
;W[ee]
;B[cc]
;W[dc]
;B[cd]
;W[dg]
;B[df]
;W[ef]
;B[eg]
;W[di]
;B[eh]
;W[dh]
;B[ei]
;W[dj]
;B[ej]
;W[dk]
;B[ge]
;W[gf]
;B[hf]
;W[fg]
;B[hg]
;W[fh]
;B[ek]
;W[gi]
;B[dl]
;W[cl]
;B[gk]
;W[ii]
;B[cm]
;W[bm]
;B[cn]
;W[bk]
;B[em]
;W[id]
;B[ie]
;W[hd]
;B[jd]
;W[he]
;B[jc]
;W[ib]
;B[jb]
;W[gb]
;B[ic]
;W[hc]
;B[ia]
;W[hb]
;B[fb]
;W[gd]
;B[db]
;W[je]
;B[ke]
;W[if]
;B[kg]
;W[ld]
;B[kd]
;W[jh]
;B[pf]
;W[nf]
;B[lc]
;W[mc]
;B[md]
;W[nd]
;B[le]
;W[nh]
;B[ph]
;W[qq]
;B[jq]
;W[fl]
;B[el]
;W[cb]
;B[eb]
;W[eq]
;B[gq]
;W[gp]
;B[hp]
;W[fp]
;B[cq]
;W[ho]
;B[ip]
;W[cr]
;B[dq]
;W[dr]
;B[fr]
;W[co]
;B[do]
;W[fq]
;B[gr]
;W[dp]
;B[cp]
;W[bo]
;B[ep]
;W[bq]
;B[go]
;W[fo]
;B[gn]
;W[fn]
;B[fm]
;W[gm]
;B[hn]
;W[gl]
;B[hk]
;W[in]
;B[io]
;W[hm]
;B[ho]
;W[jm]
;B[il]
;W[im]
;B[jl]
;W[fk]
;B[fj]
;W[gj]
;B[en]
;W[er]
;B[km]
;W[kn]
;B[ln]
;W[lm]
;B[kl]
;W[lo]
;B[mn]
;W[ko]
;B[mo]
;W[lp]
;B[mp]
;W[lq]
;B[mq]
;W[mr]
;B[nr]
;W[lr]
;B[li]
;W[nj]
;B[pj]
;W[qc]
;B[rc]
;W[pc]
;B[rb]
;W[mg]
;B[lg]
;W[mb]
;B[me]
;W[of]
;B[ob]
;W[lj]
;B[mi]
;W[ni]
;B[og]
;W[mh]
;B[ki]
;W[pk]
;B[ok]
;W[oj]
;B[qj]
;W[qe]
;B[pe]
;W[nb]
;B[oc]
;W[pd]
;B[rd]
;W[ll]
;B[ol]
;W[nm]
;B[mm]
;W[ml]
;B[mk]
;W[oa]
;B[bl]
;W[al]
;B[ma]
;W[lb]
;B[mj]
;W[kb]
;B[pr]
;W[qo])