(;CP[My Friday Night Files, 2002]AP[SGFcv.py:0.3]GM[1]FF[4]RO[final]
DT[1998-09-06]
PB[Cho Chikun]
BR[Kisei]
PW[Kato Masao]
WR[9d]
KM[5.5]
RE[W+R]
US[JBvR]
SO[KYB 1999]
EV[Ryusei, 7th]

;B[pd]
;W[dc]
;B[dq]
;W[co]
;B[pp]
;W[ep]
;B[eq]
;W[gp]
;B[fp]
;W[fo]
;B[fq]
;W[go]
;B[cp]
;W[bo]
;B[hq]
;W[di]
;B[gd]
;W[de]
;B[jd]
;W[qf]
;B[nc]
;W[rd]
;B[ck]
;W[ci]
;B[ek]
;W[dn]
;B[gk]
;W[ip]
;B[iq]
;W[fj]
;B[fk]
;W[jp]
;B[qh]
;W[qc]
;B[qe]
;W[re]
;B[pf]
;W[pg]
;B[qg]
;W[rf]
;B[of]
;W[qn]
;B[pl]
;W[on]
;B[np]
;W[pj]
;B[ql]
;W[rj]
;B[oi]
;W[oj]
;B[nl]
;W[ni]
;B[oh]
;W[mn]
;B[qo]
;W[po]
;B[qp]
;W[rm]
;B[ll]
;W[mj]
;B[nk]
;W[nj]
;B[oo]
;W[pn]
;B[nn]
;W[nm]
;B[no]
;W[om]
;B[mm]
;W[ol]
;B[ln]
;W[lk]
;B[hp]
;W[ho]
;B[io]
;W[jn]
;B[in]
;W[im]
;B[hn]
;W[gm]
;B[hm]
;W[hl]
;B[jm]
;W[il]
;B[jo]
;W[dl]
;B[dk]
;W[gl]
;B[gj]
;W[ng]
;B[og]
;W[id]
;B[fh]
;W[jc]
;B[ic]
;W[hc]
;B[ib]
;W[hd]
;B[kc]
;W[je]
;B[jb]
;W[fi]
;B[gi]
;W[eh]
;B[jj]
;W[gh]
;B[jl]
;W[hh]
;B[hi]
;W[hb]
;B[eo]
;W[en]
;B[bp]
;W[ko]
;B[kn]
;W[gn]
;B[jn]
;W[bm]
;B[ke]
;W[jf]
;B[bj]
;W[bi]
;B[pb]
;W[pc]
;B[qb]
;W[oc]
;B[ob]
;W[od]
;B[ri]
;W[pi]
;B[ph]
;W[nd]
;B[rk]
;W[sj]
;B[nf]
;W[mc]
;B[nb]
;W[me]C[138 moves])