(;CP[My Friday Night Files, 2002]AP[SGFcv.py:0.3]GM[1]FF[4]RO[semifinal preliminary]
DT[1998-08-13]
PB[Ryu Shikun]
BR[7d]
PW[Cho Chikun]
WR[Kisei]
KM[5.5]
RE[B+0.5]
US[JBvR]
SO[KYB 1999]
EV[Tengen, 24th]

;B[pd]
;W[dc]
;B[dp]
;W[pp]
;B[ce]
;W[di]
;B[fe]
;W[gc]
;B[dk]
;W[fi]
;B[he]
;W[id]
;B[hi]
;W[ek]
;B[dl]
;W[dj]
;B[el]
;W[gk]
;B[gm]
;W[cq]
;B[dq]
;W[cp]
;B[hk]
;W[do]
;B[eo]
;W[dn]
;B[en]
;W[ep]
;B[er]
;W[fp]
;B[fk]
;W[cr]
;B[gj]
;W[bk]
;B[ch]
;W[bh]
;B[gq]
;W[fr]
;B[gp]
;W[fq]
;B[kd]
;W[cg]
;B[dg]
;W[df]
;B[de]
;W[cf]
;B[fc]
;W[fb]
;B[ec]
;W[eb]
;B[ef]
;W[ie]
;B[dh]
;W[bi]
;B[be]
;W[bg]
;B[cb]
;W[cc]
;B[gb]
;W[hb]
;B[hc]
;W[gd]
;B[hd]
;W[ic]
;B[ga]
;W[ha]
;B[ge]
;W[fa]
;B[jb]
;W[kb]
;B[lb]
;W[kc]
;B[jc]
;W[lc]
;B[ld]
;W[mc]
;B[ib]
;W[md]
;B[jd]
;W[bc]
;B[oc]
;W[le]
;B[if]
;W[oe]
;B[pe]
;W[of]
;B[pf]
;W[og]
;B[qh]
;W[nq]
;B[lf]
;W[kf]
;B[ke]
;W[me]
;B[qp]
;W[qo]
;B[pq]
;W[op]
;B[rq]
;W[ro]
;B[or]
;W[nr]
;B[qr]
;W[qj]
;B[pn]
;W[rp]
;B[qq]
;W[po]
;B[mm]
;W[jp]
;B[pl]
;W[ok]
;B[mk]
;W[lg]
;B[gr]
;W[fo]
;B[go]
;W[jr]
;B[fn]
;W[fs]
;B[kq]
;W[jq]
;B[mp]
;W[lq]
;B[mq]
;W[lr]
;B[rl]
;W[on]
;B[ol]
;W[oi]
;B[gs]
;W[dr]
;B[lo]
;W[jn]
;B[ph]
;W[nl]
;B[nm]
;W[nk]
;B[om]
;W[ko]
;B[oh]
;W[nh]
;B[pj]
;W[cm]
;B[mr]
;W[ms]
;B[os]
;W[ns]
;B[nb]
;W[ml]
;B[pk]
;W[eg]
;B[fg]
;W[eh]
;B[ni]
;W[mi]
;B[nj]
;W[oj]
;B[mj]
;W[lk]
;B[lj]
;W[lm]
;B[mh]
;W[ng]
;B[kk]
;W[ll]
;B[ki]
;W[ln]
;B[mb]
;W[ja]
;B[je]
;W[ia]
;B[no]
;W[rm]
;B[qm]
;W[hn]
;B[gn]
;W[sm]
;B[lp]
;W[kp]
;B[qn]
;W[rn]
;B[sl]
;W[jk]
;B[cl]
;W[bl]
;B[kg]
;W[mf]
;B[dm]
;W[cn]
;B[lh]
;W[jg]
;B[kh]
;W[jf]
;B[ig]
;W[jh]
;B[ji]
;W[gh]
;B[ih]
;W[lf]
;B[la]
;W[ka]
;B[kl]
;W[jl]
;B[km]
;W[jm]
;B[kj]
;W[kn]
;B[ik]
;W[pg]
;B[qg]
;W[pi]
;B[qi]
;W[rs]
;B[rr]
;W[sp]
;B[sq]
;W[gg]
;B[ej]
;W[oq]
;B[qs]
;W[oo]
;B[ir]
;W[hm]
;B[iq]
;W[ip]
;B[ho]
;W[io]
;B[hl]
;W[fj]
;B[hp]
;W[dd]
;B[fd]
;W[gb]
;B[js]
;W[ks]
;B[is]
;W[jj]
;B[ij]
;W[gi]
;B[gl]
;W[qc]
;B[rd]
;W[od]
;B[nc]
;W[il]
;B[ck]
;W[cj]
;B[nd]
;W[ne]
;B[ae]
;W[ac]
;B[ag]
;W[ah]
;B[af]C[255 moves
b 3:59
w 3:59])