(;CP[My Friday Night Files, 2002]AP[SGFcv.py:0.3]GM[1]FF[4]RO[2]
PB[O Rissei]
BR[9 dan]
PW[Cho Chikun]
WR[9 dan]
KM[5.5]
DT[1998-06-01,02]
RE[W+R]
SO[http://www.mainichi.co.jp/tokusyuu/98igo/index.html]
US[JBvR]
EV[Honinbo, 53rd, match]

;B[pd]
;W[dd]
;B[pq]
;W[dp]
;B[qo]
;W[gq]
;B[cf]
;W[fc]
;B[bd]
;W[nc]
;B[qf]
;W[ch]
;B[dh]
;W[di]
;B[dg]
;W[cc]
;B[ci]
;W[cj]
;B[bi]
;W[dj]
;B[bh]
;W[lp]
;B[hc]
;W[jc]
;B[he]
;W[hb]
;B[jp]
;W[kn]
;B[hp]
;W[gp]
;B[hq]
;W[ho]
;B[io]
;W[hn]
;B[in]
;W[im]
;B[lo]
;W[ko]
;B[kp]
;W[mp]
;B[jm]
;W[il]
;B[mo]
;W[no]
;B[mn]
;W[op]
;B[ml]
;W[oq]
;B[pr]
;W[pn]
;B[po]
;W[nn]
;B[mm]
;W[qn]
;B[rn]
;W[rm]
;B[ro]
;W[ql]
;B[qj]
;W[ol]
;B[jl]
;W[ik]
;B[cm]
;W[co]
;B[bk]
;W[ic]
;B[pb]
;W[pp]
;B[qp]
;W[or]
;B[os]
;W[jk]
;B[gr]
;W[fr]
;B[hr]
;W[eq]
;B[gh]
;W[dl]
;B[dm]
;W[em]
;B[en]
;W[fm]
;B[cn]
;W[bo]
;B[cl]
;W[qh]
;B[pj]
;W[oh]
;B[nj]
;W[kr]
;B[kq]
;W[lr]
;B[mh]
;W[mg]
;B[lg]
;W[ng]
;B[lf]
;W[me]
;B[pg]
;W[ph]
;B[kd]
;W[lh]
;B[mi]
;W[pe]
;B[qe]
;W[od]
;B[pc]
;W[lk]
;B[kj]
;W[kk]
;B[km]
;W[kh]
;B[le]
;W[mk]
;B[ri]
;W[jr]
;B[jq]
;W[rh]
;B[hd]
;W[ir]
;B[iq]
;W[gc]
;B[ji]
;W[lj]
;B[oj]
;W[lm]
;B[ll]
;W[md]
;B[li]
;W[kc]
;B[jh]
;W[ns]
;B[ps]
;W[kl]
;B[ln]
;W[bc]
;B[fn]
;W[ek]
;B[gm]
;W[gn]
;B[fl]
;W[el]
;B[gk]
;W[gj]
;B[hj]
;W[hk]
;B[fj]
;W[fk])