(;CP[My Friday Night Files, 2002]AP[SGFcv.py:0.3]GM[1]FF[4]EV[Gosei, 24th]
RO[2/2]
DT[1998-11-26]
PB[Fukui Masaaki]
BR[8d]
PW[Cho Chikun]
WR[Kisei]
KM[5.5]
RE[W+R]
US[JBvR]
SO[KYB 2000]

;B[qd]
;W[cd]
;B[pq]
;W[oc]
;B[cp]
;W[pn]
;B[qp]
;W[pg]
;B[pe]
;W[md]
;B[pc]
;W[od]
;B[fc]
;W[hc]
;B[cc]
;W[dc]
;B[dd]
;W[cb]
;B[bc]
;W[ed]
;B[de]
;W[ec]
;B[bb]
;W[ep]
;B[qi]
;W[qf]
;B[pb]
;W[ng]
;B[ob]
;W[pj]
;B[pl]
;W[qj]
;B[rl]
;W[op]
;B[oq]
;W[mp]
;B[po]
;W[oo]
;B[on]
;W[om]
;B[nn]
;W[pm]
;B[mo]
;W[nm]
;B[lo]
;W[rn]
;B[ok]
;W[ml]
;B[lp]
;W[pi]
;B[eq]
;W[fq]
;B[dq]
;W[gp]
;B[dn]
;W[jq]
;B[hq]
;W[gr]
;B[iq]
;W[jp]
;B[ho]
;W[hp]
;B[ip]
;W[io]
;B[jo]
;W[in]
;B[jr]
;W[kq]
;B[lq]
;W[kr]
;B[ir]
;W[jn]
;B[ko]
;W[fn]
;B[gm]
;W[fm]
;B[hn]
;W[jl]
;B[gk]
;W[fl]
;B[ee]
;W[fd]
;B[ik]
;W[jk]
;B[dl]
;W[fk]
;B[gi]
;W[fj]
;B[jj]
;W[kj]
;B[ki]
;W[ij]
;B[ji]
;W[ii]
;B[kk]
;W[kl]
;B[ih]
;W[hk]
;B[lj]
;W[jh]
;B[mk]
;W[jg]
;B[kg]
;W[kh]
;B[lh]
;W[mi]
;B[li]
;W[kf]
;B[nh]
;W[ni]
;B[mh]
;W[oh]
;B[lf]
;W[lg]
;B[mg]
;W[le]
;B[ll]
;W[lm]
;B[km]
;W[il]
;B[kg]
;W[mf]
;B[nf]
;W[lg]
;B[og]
;W[oe]
;B[rj]
;W[ri]
;B[qk]
;W[lk]
;B[nj]
;W[qh]
;B[ll]
;W[qm]
;B[ql]
;W[lk]
;B[rg]
;W[kj]
;B[pf]
;W[of]
;B[qg]
;W[ng]
;B[kk]
;W[rf]
;B[ll]
;W[kn]C[146 moves])