(;US[JBvR]SO[Cho Chikun Internet Book]CP[My Friday Night Files, 2002]AP[SGFcv.py:0.3]GM[1]FF[4]EV[Oteai]
PW[Izumitani Masanori]
WR[3d]
PB[Cho Chikun]
BR[2d]
DT[1969-04-16]
KM[0]
RE[W+R]

;B[qd]
;W[qp]
;B[cd]
;W[co]
;B[od]
;W[ed]
;B[gc]
;W[cc]
;B[bc]
;W[dc]
;B[be]
;W[cf]
;B[de]
;W[fe]
;B[ee]
;W[gd]
;B[fc]
;W[fd]
;B[hd]
;W[dg]
;B[ef]
;W[he]
;B[id]
;W[fh]
;B[gf]
;W[ge]
;B[eg]
;W[eh]
;B[ie]
;W[hf]
;B[gg]
;W[if]
;B[jf]
;W[ih]
;B[hi]
;W[hh]
;B[gh]
;W[gi]
;B[dh]
;W[di]
;B[ch]
;W[ci]
;B[fi]
;W[gj]
;B[ei]
;W[ej]
;B[fg]
;W[fj]
;B[dj]
;W[dk]
;B[cj]
;W[bi]
;B[bj]
;W[bk]
;B[bh]
;W[ck]
;B[ai]
;W[ke]
;B[je]
;W[kc]
;B[kf]
;W[ib]
;B[hb]
;W[ic]
;B[hc]
;W[le]
;B[mc]
;W[lc]
;B[md]
;W[ne]
;B[hj]
;W[kh]
;B[lg]
;W[lf]
;B[kg]
;W[ng]
;B[mg]
;W[oe]
;B[nh]
;W[og]
;B[hk]
;W[kj]
;B[ek]
;W[oc]
;B[el]
;W[pc]
;B[pd]
;W[qc]
;B[qg]
;W[pi]
;B[mi]
;W[lh]
;B[mh]
;W[lj]
;B[mj]
;W[mk]
;B[nk]
;W[ml]
;B[nl]
;W[nm]
;B[mm]
;W[kl]
;B[lm]
;W[nn]
;B[km]
;W[jl]
;B[jm]
;W[il]
;B[oh]
;W[nd]
;B[pl]
;W[gl]
;B[gk]
;W[gn]
;B[mp]
;W[pn]
;B[hp]
;W[io]
;B[ho]
;W[hn]
;B[in]
;W[im]
;B[jn]
;W[ph]
;B[qj]
;W[pg]
;B[fp]
;W[en]
;B[oq]
;W[pq]
;B[pr]
;W[op]
;B[qq]
;W[pp]
;B[nq]
;W[qr]
;B[ri]
;W[rh]
;B[qm]
;W[dq]
;B[er]
;W[lo]
;B[kp]
;W[lp]
;B[lq]
;W[mo]
;B[ko]
;W[kq]
;B[kr]
;W[jq]
;B[jr]
;W[iq]
;B[ir]
;W[rg]
;B[cn]
;W[rk]
;B[qk]
;W[rm]
;B[rl]
;W[sl]
;B[pj]
;W[ql]
;B[mf]
;W[me]
;B[rl]
;W[hq]
;B[gq]
;W[ql]
;B[bo]
;W[ol]
;B[oi]
;W[ok]
;B[nj]
;W[pm]
;B[oj]
;W[eb]
;B[fb]
;W[bb]
;B[ec]
;W[dd]
;B[do]
;W[cp]
;B[dn]
;W[bp]
;B[bn]
;W[dr]
;B[br]
;W[dp]
;B[fr]
;W[eo]
;B[ep]
;W[bs]
;B[ap]
;W[bq]
;B[rl]
;W[ce]
;B[em]
;W[ql]
;B[ji]
;W[jh]
;B[rl]
;W[or]
;B[nr]
;W[ps]
;B[ql]
;W[rn]
;B[qn]
;W[ro]
;B[hl]
;W[hm]
;B[aq]
;W[ar]
;B[as]
;W[go]
;B[ip]
;W[ar]
;B[hg]
;W[ig]
;B[as]
;W[lr]
;B[mq]
;W[ar]
;B[li]
;W[ki]
;B[as]
;W[ns]
;B[ls]
;W[ar]
;B[bd]
;W[bf]
;B[as]
;W[np]
;B[mr]
;W[ar]
;B[af]
;W[ac]
;B[as]
;W[gp]
;B[jp]
;W[ar]
;B[qh]
;W[qi]
;B[as]
;W[eq]
;B[fq]
;W[ar]
;B[cr]
;W[ao]
;B[cs]
;W[ds]
;B[as]
;W[rj]
;B[aq]
;W[ap]
;B[an]
;W[ar])