(;PB[Sonoda Yuichi]PW[Sakakibara Shoji]DT[1992-05-14]KM[5.5]RO[Round 2]SZ[19]GC[Used in Hikaru no Go chapter 160.]EV[18th Tengen]BR[9d]WR[9d]US[JBvR]SO[My Friday Night Files]RE[W+2.5];B[pd];W[dp];B[pp];W[dc]
;B[de];W[ce];B[cf];W[cd];B[df];W[fc];B[ck];W[cm];B[ek];W[qj];B[jp];W[nc];B[qf]
;W[pn];B[np];W[qp];B[qq];W[qo];B[fq];W[dq];B[ge];W[rq];B[gc];W[gd];B[hd];W[fd]
;B[he];W[pb];B[dd];W[cc];B[me];W[pg];B[qg];W[pi];B[qc];W[lc];B[fo];W[en];B[fn]
;W[fm];B[cn];W[dn];B[bm];W[co];B[gm];W[fl];B[pq];W[hn];B[gn];W[hq];B[er];W[jq]
;B[kq];W[kp];B[ko];W[lp];B[lq];W[mq];B[mr];W[mp];B[nq];W[ho];B[jr];W[iq];B[bn]
;W[fk];B[hm];W[jo];B[mo];W[ip];B[lo];W[im];B[il];W[gp];B[fp];W[ej];B[jm];W[in]
;B[hk];W[cj];B[dj];W[di];B[dk];W[fi];B[ci];W[ch];B[bj];W[bi];B[dm];W[dl];B[cl]
;W[el];B[eh];W[ei];B[bh];W[cj];B[ai];W[ci];B[bg];W[fe];B[ff];W[fg];B[gj];W[fj]
;B[gg];W[fh];B[eg];W[hi];B[bo];W[bp];B[cr];W[ji];B[cq];W[cp];B[jk];W[hg];B[lh]
;W[dr];B[ds];W[li];B[mi];W[lj];B[kh];W[jj];B[oj];W[pl];B[pk];W[qk];B[ol];W[om]
;B[nl];W[gh];B[gf];W[bq];B[jn];W[bs];B[jp];W[kp];B[cs];W[br];B[es];W[qb];B[ih]
;W[jh];B[ig];W[jg];B[hh];W[if];B[hf];W[ii];B[hg];W[gi];B[kf];W[kl];B[jl];W[eo]
;B[gb];W[fb];B[kc];W[mj];B[lb];W[mb];B[ld];W[mc];B[oi];W[ph];B[rb];W[kb];B[jb]
;W[ra];B[rc];W[la];B[ri];W[rr];B[gq];W[go];B[jd];W[rj];B[qh];W[qi];B[rh];W[jf]
;B[mh];W[ml];B[be];W[bd];B[lp];W[jp];B[ja];W[ka];B[ae];W[je];B[fa];W[ea];B[ha]
;W[ga];B[ql];W[pm];B[fa];W[db];B[ke];W[lm];B[km];W[qr];B[ad];W[ac];B[kk];W[nk]
;B[ok];W[or];B[pr];W[ps];B[ll];W[nm];B[lk];W[mk];B[ln];W[mm];B[oh];W[pf];B[og]
;W[pe];B[qe];W[ne];B[bb];W[bc];B[nf];W[od];B[pc];W[oc];B[of];W[oe];B[ao];W[ir]
;B[js];W[ga];B[ie];W[hb];B[hc];W[ia];B[ib];W[bk];B[aj];W[cg];B[bl];W[gr];B[gs]
;W[kg];B[lg];W[ns];B[ed];W[ec];B[ap];W[si];B[sh];W[sj];B[aq];W[ar];B[nj];W[ms]
;B[ls];W[oo];B[md];W[no];B[mn];W[nn];B[sb];W[ob])