(;CP[My Friday Night Files, 2002]AP[SGFcv.py:0.3]GM[1]FF[4]RO[1/9]
PB[Cho Chikun]
BR[7 dan]
PW[Kato Masao]
WR[8 dan]
KM[5.5]
DT[1976-02-26]
RE[W+R]
SO[KYB]
US[JBvR]
EV[Gosei, 1st]

;B[pd]
;W[cq]
;B[pq]
;W[dc]
;B[qk]
;W[de]
;B[jd]
;W[jp]
;B[pf]
;W[dn]
;B[cj]
;W[ch]
;B[po]
;W[mp]
;B[cl]
;W[bm]
;B[gd]
;W[em]
;B[ej]
;W[eh]
;B[gj]
;W[ob]
;B[oc]
;W[pb]
;B[nb]
;W[nc]
;B[mb]
;W[nd]
;B[md]
;W[qc]
;B[ne]
;W[re]
;B[dq]
;W[cp]
;B[hq]
;W[fq]
;B[fr]
;W[er]
;B[kq]
;W[kp]
;B[jq]
;W[lq]
;B[ip]
;W[io]
;B[ho]
;W[hn]
;B[fp]
;W[eq]
;B[in]
;W[jo]
;B[go]
;W[hm]
;B[gq]
;W[mm]
;B[cc]
;W[cd]
;B[ec]
;W[db]
;B[ed]
;W[dd]
;B[jk]
;W[mk]
;B[lo]
;W[lp]
;B[jm]
;W[pl]
;B[ql]
;W[pm]
;B[qm]
;W[op]
;B[pp]
;W[qg]
;B[ep]
;W[dr]
;B[mj]
;W[lk]
;B[lj]
;W[nj]
;B[ni]
;W[oi]
;B[nh]
;W[gh]
;B[kk]
;W[km]
;B[kl]
;W[lm]
;B[oj]
;W[nk]
;B[bh]
;W[he]
;B[hd]
;W[bg]
;B[ci]
;W[dh]
;B[cm]
;W[cn]
;B[hg]
;W[hh]
;B[ih]
;W[ig]
;B[hf]
;W[ii]
;B[jh]
;W[ki]
;B[kh]
;W[kj]
;B[lh]
;W[ik]
;B[fg]
;W[ij]
;B[bl]
;W[ga]
;B[ha]
;W[oq]
;B[qf]
;W[rf]
;B[qd]
;W[rd]
;B[pc]
;W[rb]
;B[bi]
;W[eb]
;B[gb]
;W[fb]
;B[fa]
;W[gg]
;B[gf]
;W[ff]
;B[fe]
;W[ef]
;B[ag]
;W[bf]
;B[af]
;W[ah]
;B[ai]
;W[ae]
;B[bn]
;W[bo]
;B[am]
;W[qi]
;B[pi]
;W[qj]
;B[pg]
;W[pj]
;B[oh]
;W[qn]
;B[pn]
;W[rn])