(;CP[My Friday Night Files, 2002]AP[SGFcv.py:0.3]GM[1]FF[4]RO[2]
PB[Cho Chikun]
BR[7 dan]
PW[Awaji Shuzo]
WR[6 dan]
KM[5.5]
DT[1976-07-15]
RE[B+R]
SO[KYB]
US[JBvR]
EV[Prime Minister Cup, 20th]

;B[pd]
;W[cq]
;B[pp]
;W[dc]
;B[pj]
;W[nq]
;B[de]
;W[ce]
;B[dd]
;W[cd]
;B[ec]
;W[cf]
;B[df]
;W[dg]
;B[cc]
;W[db]
;B[bc]
;W[eb]
;B[cg]
;W[eg]
;B[fc]
;W[fe]
;B[ed]
;W[bd]
;B[bf]
;W[bg]
;B[ch]
;W[af]
;B[bh]
;W[be]
;B[ck]
;W[bb]
;B[hd]
;W[hg]
;B[jd]
;W[cn]
;B[ei]
;W[jg]
;B[if]
;W[ig]
;B[fg]
;W[ef]
;B[pn]
;W[pr]
;B[qq]
;W[kq]
;B[pf]
;W[pc]
;B[qc]
;W[oc]
;B[qb]
;W[od]
;B[oe]
;W[md]
;B[le]
;W[gd]
;B[gc]
;W[he]
;B[ie]
;W[me]
;B[hf]
;W[fh]
;B[lf]
;W[mf]
;B[lg]
;W[mg]
;B[lh]
;W[kc]
;B[gj]
;W[ij]
;B[jc]
;W[kb]
;B[gf]
;W[eh]
;B[di]
;W[hi]
;B[jp]
;W[jq]
;B[ip]
;W[qh]
;B[rf]
;W[qj]
;B[qk]
;W[rk]
;B[pk]
;W[ri]
;B[pi]
;W[ql]
;B[rm]
;W[rl]
;B[qi]
;W[rj]
;B[ph]
;W[pl]
;B[np]
;W[mq]
;B[kj]
;W[il]
;B[kl]
;W[on]
;B[qn]
;W[om]
;B[no]
;W[mm]
;B[hk]
;W[ik]
;B[ln]
;W[mn]
;B[lo]
;W[mo]
;B[hm]
;W[ki]
;B[li]
;W[fi]
;B[fj]
;W[im]
;B[hn]
;W[hl]
;B[gl]
;W[in]
;B[ho]
;W[lp]
;B[kp]
;W[km]
;B[lm]
;W[ll]
;B[mp]
;W[lq]
;B[lk]
;W[ko]
;B[ml]
;W[kn]
;B[ll]
;W[gm]
;B[fm]
;W[gn]
;B[fo]
;W[fl]
;B[gk]
;W[fn]
;B[en]
;W[em]
;B[go]
;W[fm]
;B[co]
;W[dn]
;B[eo]
;W[cl]
;B[dl]
;W[dk]
;B[bl]
;W[dm]
;B[cp]
;W[el]
;B[bm]
;W[cj]
;B[bk]
;W[dj]
;B[bn]
;W[bj]
;B[ej]
;W[ai]
;B[ah]
;W[ag]
;B[oq]
;W[or]
;B[qr]
;W[bp]
;B[dq]
;W[cr]
;B[bo]
;W[dr]
;B[er]
;W[aq]
;B[ir])