(;CP[My Friday Night Files, 2002]AP[SGFcv.py:0.3]GM[1]FF[4]RO[1/14]
PB[Cho Chikun]
BR[7 dan]
PW[Miyamoto Yoshihisa]
WR[9 dan]
KM[5.5]
DT[1976-05-12]
RE[B+0.5]
SO[KYB77]
US[JBvR]
EV[Tengen, 2nd]

;B[pd]
;W[dc]
;B[pq]
;W[po]
;B[pl]
;W[mo]
;B[nq]
;W[dp]
;B[de]
;W[dh]
;B[ge]
;W[gc]
;B[no]
;W[qq]
;B[qr]
;W[nn]
;B[oo]
;W[on]
;B[mn]
;W[ol]
;B[pm]
;W[pn]
;B[pj]
;W[lo]
;B[mm]
;W[nl]
;B[km]
;W[rr]
;B[qp]
;W[pp]
;B[rq]
;W[np]
;B[dk]
;W[dm]
;B[fk]
;W[gh]
;B[fm]
;W[ih]
;B[fp]
;W[dq]
;B[jo]
;W[qf]
;B[qe]
;W[pf]
;B[nd]
;W[ni]
;B[oh]
;W[nf]
;B[nh]
;W[qh]
;B[qi]
;W[ri]
;B[rj]
;W[pi]
;B[qj]
;W[ph]
;B[oi]
;W[oj]
;B[nj]
;W[ok]
;B[rn]
;W[mi]
;B[mh]
;W[li]
;B[lh]
;W[ki]
;B[me]
;W[mf]
;B[lf]
;W[lg]
;B[kg]
;W[kf]
;B[mg]
;W[le]
;B[ig]
;W[lg]
;B[kh]
;W[ji]
;B[jf]
;W[lf]
;B[hg]
;W[qc]
;B[re]
;W[ob]
;B[oc]
;W[je]
;B[og]
;W[of]
;B[pb]
;W[he]
;B[gg]
;W[fh]
;B[fg]
;W[eh]
;B[cg]
;W[ch]
;B[cc]
;W[gd]
;B[dd]
;W[ec]
;B[cb]
;W[mc]
;B[md]
;W[lc]
;B[ij]
;W[hh]
;B[er]
;W[nb]
;B[qb]
;W[dr]
;B[kk]
;W[df]
;B[fe]
;W[cf]
;B[be]
;W[ce]
;B[cd]
;W[bf]
;B[fd]
;W[ll]
;B[oq]
;W[op]
;B[kq]
;W[fq]
;B[gq]
;W[fo]
;B[gp]
;W[fn]
;B[cm]
;W[cn]
;B[cl]
;W[bn]
;B[gm]
;W[pk]
;B[qk]
;W[kl]
;B[jl]
;W[kp]
;B[jq]
;W[lq]
;B[lr]
;W[jk]
;B[jm]
;W[ik]
;B[hk]
;W[il]
;B[ep]
;W[en]
;B[jj]
;W[kj]
;B[lk]
;W[mk]
;B[hl]
;W[im]
;B[in]
;W[lj]
;B[hm]
;W[kk]
;B[eq]
;W[bk]
;B[cj]
;W[bj]
;B[fc]
;W[fb]
;B[hd]
;W[hc]
;B[eb]
;W[gb]
;B[ed]
;W[ql]
;B[qm]
;W[rl]
;B[rh]
;W[sl]
;B[rm]
;W[sj]
;B[si]
;W[rk]
;B[sk]
;W[ho]
;B[go]
;W[sj]
;B[id]
;W[ri]
;B[jd]
;W[jc]
;B[kd]
;W[kc]
;B[rf]
;W[rg]
;B[bd]
;W[fa]
;B[mq]
;W[kn]
;B[jn]
;W[jp]
;B[ip]
;W[lm]
;B[gn]
;W[bl]
;B[ds]
;W[cs]
;B[es]
;W[cr]
;B[eo]
;W[do]
;B[ko]
;W[ln]
;B[af]
;W[ag]
;B[ae]
;W[dg]
;B[lp]
;W[ie]
;B[ld]
;W[ke]
;B[bm]
;W[am]
;B[ea]
;W[dl]
;B[ck]
;W[hj]
;B[gj]
;W[hi]
;B[ej]
;W[ci]
;B[el]
;W[rc]
;B[rb]
;W[sm]
;B[ro]
;W[pc]
;B[pa]
;W[nc]
;B[od]
;W[oa]
;B[sc]
;W[ef]
;B[om]
;W[nm]
;B[pg]
;W[qg]
;B[ic]
;W[ib]
;B[sg]
;W[sh]
;B[sf]
;W[sn]
;B[so]
;W[fi]
;B[fj])