(;US[JBvR]SO[Cho Chikun Internet Book]CP[My Friday Night Files, 2002]AP[SGFcv.py:0.3]GM[1]FF[4]RO[2]
DT[1976-11-25]
KM[5.5]
RE[B+R]
PB[Otake Hideo]
BR[9 dan]
PW[Cho Chikun]
WR[7 dan]
EV[Oza, 24th, match]
B[qd]
;W[cq]
;B[cd]
;W[qp]
;B[oc]
;W[ed]
;B[hd]
;W[dg]
;B[ee]
;W[fe]
;B[ef]
;W[dd]
;B[cf]
;W[ff]
;B[eg]
;W[cc]
;B[ce]
;W[bc]
;B[op]
;W[fc]
;B[qo]
;W[ro]
;B[po]
;W[qn]
;B[rp]
;W[rq]
;B[rn]
;W[sp]
;B[qm]
;W[ph]
;B[pq]
;W[jq]
;B[dk]
;W[cn]
;B[pn]
;W[qf]
;B[hq]
;W[fq]
;B[io]
;W[lp]
;B[fo]
;W[nq]
;B[np]
;W[nr]
;B[qr]
;W[fg]
;B[eh]
;W[ld]
;B[oe]
;W[qj]
;B[jd]
;W[lf]
;B[jf]
;W[kh]
;B[ih]
;W[jj]
;B[hi]
;W[hj]
;B[gj]
;W[hk]
;B[oh]
;W[og]
;B[me]
;W[mf]
;B[le]
;W[ke]
;B[ne]
;W[kd]
;B[kf]
;W[jc]
;B[ki]
;W[je]
;B[ie]
;W[id]
;B[hf]
;W[ji]
;B[jh]
;W[lh]
;B[gd]
;W[fd]
;B[ib]
;W[ic]
;B[hb]
;W[lb]
;B[mc]
;W[jb]
;B[ng]
;W[nh]
;B[oi]
;W[nf]
;B[pi]
;W[ni]
;B[lc]
;W[kc]
;B[mb]
;W[gb]
;B[hc]
;W[ka]
;B[ma]
;W[la]
;B[qi]
;W[nj]
;B[pg]
;W[of]
;B[pf]
;W[gk]
;B[gi]
;W[fk]
;B[dj]
;W[gp]
;B[dq]
;W[dr]
;B[cp]
;W[dp]
;B[do]
;W[eq]
;B[co]
;W[en]
;B[dn]
;W[eo]
;B[em]
;W[dm]
;B[fn]
;W[ep]
;B[cm]
;W[fm]
;B[el]
;W[qh]
;B[rh]
;W[qg]
;B[pe]
;W[ri]
;B[rj]
;W[si]
;B[sj]
;W[oj]
;B[sh]
;W[ri]
;B[si]
;W[pj]
;B[ri]
;W[mn]
;B[mm]
;W[nn]
;B[jk]
;W[rk]
;B[rl]
;W[fh]
;B[fi]
;W[hn]
;B[ol]
;W[om]
;B[mp]
;W[lq]
;B[nm]
;W[lm]
;B[on]
;W[ll]
;B[ij]
;W[kj]
;B[ii]
;W[ik]
;B[bd]
;W[qq]
;B[ln]
;W[lo]
;B[mk]
;W[ml]
;B[nl]
;W[lk]
;B[rr]
;W[pr]
;B[or]
;W[oq]
;B[ps]
;W[pp]
;B[pr]
;W[sr]
;B[mq]
;W[mr]
;B[lr]
;W[kr]
;B[ns]
;W[ls]
;B[rs]
;W[mo]
;B[oo]
;W[bp]
;B[bo]
;W[ao]
;B[bn])