(;US[JBvR]SO[Cho Chikun Internet Book]CP[My Friday Night Files, 2002]AP[SGFcv.py:0.3]GM[1]FF[4]EV[Oteai]
PW[Cho Chikun]
WR[7d]
PB[Nakamura Hidehito]
BR[6d]
DT[1976-11-22]
KM[0]
RE[W+2]

;B[dp]
;W[pq]
;B[pc]
;W[cc]
;B[qo]
;W[pf]
;B[qe]
;W[pe]
;B[qf]
;W[pd]
;B[qd]
;W[oc]
;B[qg]
;W[pb]
;B[qc]
;W[nd]
;B[ic]
;W[gc]
;B[mc]
;W[le]
;B[nb]
;W[ob]
;B[kd]
;W[ke]
;B[je]
;W[jf]
;B[ie]
;W[oh]
;B[pi]
;W[op]
;B[ec]
;W[ed]
;B[fd]
;W[dd]
;B[fc]
;W[fe]
;B[gd]
;W[ch]
;B[pm]
;W[fq]
;B[cn]
;W[dr]
;B[cq]
;W[iq]
;B[rq]
;W[nj]
;B[mp]
;W[on]
;B[jq]
;W[jp]
;B[kp]
;W[jo]
;B[ir]
;W[jr]
;B[kq]
;W[hr]
;B[om]
;W[nn]
;B[ko]
;W[nm]
;B[jn]
;W[is]
;B[lm]
;W[pk]
;B[ol]
;W[qn]
;B[pn]
;W[po]
;B[ro]
;W[qm]
;B[ql]
;W[nl]
;B[ok]
;W[oj]
;B[pj]
;W[nk]
;B[pl]
;W[ph]
;B[qh]
;W[in]
;B[jm]
;W[im]
;B[jl]
;W[il]
;B[jk]
;W[ik]
;B[jj]
;W[cl]
;B[cr]
;W[ii]
;B[if]
;W[ln]
;B[kn]
;W[bn]
;B[bm]
;W[cm]
;B[bo]
;W[dn]
;B[an]
;W[co]
;B[bn]
;W[jg]
;B[nq]
;W[do]
;B[ep]
;W[bl]
;B[er]
;W[gg]
;B[ff]
;W[gf]
;B[cb]
;W[bb]
;B[dc]
;W[bd]
;B[ge]
;W[ee]
;B[fr]
;W[fo]
;B[fp]
;W[gp]
;B[eo]
;W[en]
;B[gq]
;W[go]
;B[ig]
;W[ih]
;B[hh]
;W[hg]
;B[ij]
;W[hj]
;B[jh]
;W[kh]
;B[ji]
;W[hi]
;B[ld]
;W[me]
;B[lh]
;W[ki]
;B[li]
;W[lg]
;B[kj]
;W[kg]
;B[lk]
;W[bp]
;B[cp]
;W[al]
;B[bq]
;W[db]
;B[eb]
;W[ca]
;B[gr]
;W[kr]
;B[lr]
;W[mr]
;B[ls]
;W[nr]
;B[or]
;W[pr]
;B[ns]
;W[oq]
;B[os]
;W[ks]
;B[mq]
;W[mh]
;B[qb]
;W[mi]
;B[rs]
;W[qa]
;B[ra]
;W[pa]
;B[rb]
;W[na]
;B[ma]
;W[nc]
;B[oa]
;W[qk]
;B[rl]
;W[na]
;B[gh]
;W[fg]
;B[oa]
;W[md]
;B[lc]
;W[na]
;B[hq]
;W[hp]
;B[oa]
;W[ps]
;B[ms]
;W[na]
;B[hk]
;W[fi]
;B[oa]
;W[ap]
;B[aq]
;W[na]
;B[io]
;W[ip]
;B[oa]
;W[qp]
;B[rp]
;W[na]
;B[hn]
;W[hm]
;B[oa]
;W[qq]
;B[lj]
;W[na]
;B[mb]
;W[rr]
;B[sr]
;W[qr]
;B[mn]
;W[mo]
;B[lo]
;W[no]
;B[sq]
;W[oi]
;B[qi]
;W[mm]
;B[ea]
;W[hf]
;B[he]
;W[da]
;B[pg]
;W[og]
;B[gs]
;W[hs]
;B[ll]
;W[oa]
;B[ln])