(;CP[My Friday Night Files, 2002]AP[SGFcv.py:0.3]GM[1]FF[4]RO[02,Preliminary]
PB[Cho Chikun]
BR[7 dan]
PW[Ishida Akira]
WR[7 dan]
KM[5.5]
DT[1976-11-10]
RE[B+R]
SO[Asahi '76-12/08-15]
US[JBvR]
EV[Meijin, 2nd]

;B[pd]
;W[cc]
;B[pq]
;W[cp]
;B[eq]
;W[qn]
;B[qp]
;W[qk]
;B[dn]
;W[do]
;B[eo]
;W[ep]
;B[fp]
;W[dp]
;B[fo]
;W[fq]
;B[er]
;W[fr]
;B[hq]
;W[hr]
;B[ir]
;W[gr]
;B[iq]
;W[dr]
;B[qi]
;W[ok]
;B[pn]
;W[qm]
;B[nn]
;W[pf]
;B[oi]
;W[nd]
;B[qe]
;W[nf]
;B[qf]
;W[en]
;B[fm]
;W[em]
;B[el]
;W[fn]
;B[gn]
;W[dm]
;B[dl]
;W[cm]
;B[gm]
;W[hp]
;B[gq]
;W[gp]
;B[go]
;W[ip]
;B[jp]
;W[io]
;B[im]
;W[jo]
;B[kp]
;W[ko]
;B[lp]
;W[lo]
;B[mp]
;W[kl]
;B[cl]
;W[bm]
;B[hs]
;W[dq]
;B[ij]
;W[kj]
;B[nl]
;W[nk]
;B[mk]
;W[ml]
;B[mj]
;W[nm]
;B[lm]
;W[ll]
;B[km]
;W[on]
;B[mm]
;W[ol]
;B[no]
;W[jl]
;B[jm]
;W[hk]
;B[dd]
;W[dc]
;B[ed]
;W[be]
;B[dg]
;W[hj]
;B[kd]
;W[hd]
;B[kf]
;W[hf]
;B[me]
;W[od]
;B[pc]
;W[md]
;B[mf]
;W[ng]
;B[mh]
;W[ph]
;B[pi]
;W[ld]
;B[id]
;W[mg]
;B[lh]
;W[lg]
;B[kg]
;W[kh]
;B[qh]
;W[ie]
;B[kc]
;W[ic]
;B[ig]
;W[jh]
;B[jg]
;W[hg]
;B[ih]
;W[hi]
;B[ii]
;W[jj]
;B[mb]
;W[nb]
;B[lb]
;W[fl]
;B[gk]
;W[fk]
;B[fj]
;W[gl]
;B[hl]
;W[ek]
;B[dj]
;W[il]
;B[hm]
;W[gj]
;B[ke]
;W[ej]
;B[ge]
;W[gd]
;B[fg]
;W[gg]
;B[fe]
;W[eh]
;B[cf]
;W[ce]
;B[de]
;W[bf]
;B[bg]
;W[ch]
;B[cg]
;W[eg]
;B[ef]
;W[fh]
;B[ec]
;W[eb]
;B[fb]
;W[db]
;B[dh]
;W[ci]
;B[di]
;W[cj]
;B[dk]
;W[bk]
;B[gc]
;W[jd]
;B[hb]
;W[ib]
;B[ff]
;W[ga]
;B[ha]
;W[fa]
;B[gh])