(;US[JBvR]SO[Cho Chikun Internet Book]CP[My Friday Night Files, 2002]AP[SGFcv.py:0.3]GM[1]FF[4]PB[Cho Chikun]
PW[Kobayashi Koichi]
DT[1985-09-25,26]
RE[B+R]
BR[9 Dan]
WR[9 Dan]
EV[Meijin, 10th, match]
RO[2]
KM[5.5]

;B[pd]
;W[dd]
;B[pq]
;W[cp]
;B[eq]
;W[qn]
;B[dn]
;W[ep]
;B[dp]
;W[do]
;B[dq]
;W[co]
;B[eo]
;W[fp]
;B[cq]
;W[cn]
;B[dm]
;W[bl]
;B[fq]
;W[fo]
;B[en]
;W[fn]
;B[dl]
;W[ck]
;B[bm]
;W[bn]
;B[fm]
;W[ho]
;B[ej]
;W[ch]
;B[hm]
;W[gq]
;B[gr]
;W[hq]
;B[hr]
;W[kp]
;B[qp]
;W[qk]
;B[jc]
;W[qf]
;B[nd]
;W[rd]
;B[fc]
;W[dc]
;B[fe]
;W[dg]
;B[eg]
;W[eh]
;B[di]
;W[fg]
;B[cm]
;W[ci]
;B[am]
;W[gd]
;B[gc]
;W[qc]
;B[pc]
;W[id]
;B[ic]
;W[fd]
;B[iq]
;W[ip]
;B[jq]
;W[jp]
;B[qd]
;W[rb]
;B[qb]
;W[rc]
;B[mp]
;W[md]
;B[ne]
;W[le]
;B[ed]
;W[hd]
;B[ec]
;W[ee]
;B[db]
;W[cb]
;B[eb]
;W[de]
;B[jd]
;W[kf]
;B[og]
;W[pg]
;B[oh]
;W[ph]
;B[oi]
;W[of]
;B[nf]
;W[je]
;B[kq]
;W[lp]
;B[lq]
;W[mo]
;B[no]
;W[np]
;B[mq]
;W[mn]
;B[oo]
;W[po]
;B[op]
;W[mg]
;B[ng]
;W[mi]
;B[mb]
;W[hi]
;B[cc]
;W[bc]
;B[ca]
;W[bb]
;B[ij]
;W[hj]
;B[ik]
;W[hk]
;B[hl]
;W[il]
;B[jm]
;W[jl]
;B[kl]
;W[jk]
;B[kn]
;W[lm]
;B[km]
;W[im]
;B[in]
;W[hn]
;B[ll]
;W[jj]
;B[nm]
;W[io]
;B[jn]
;W[gn]
;B[fl]
;W[gp]
;B[qj]
;W[nl]
;B[pk]
;W[pl]
;B[ok]
;W[ol]
;B[ml]
;W[rj]
;B[qi]
;W[ri]
;B[lo]
;W[pi]
;B[pj]
;W[qh]
;B[ql]
;W[rk]
;B[nk]
;W[pm]
;B[ro]
;W[hc]
;B[hb]
;W[gb]
;B[ib]
;W[mc]
;B[nb]
;W[lj]
;B[rm]
;W[rn]
;B[sn]
;W[qo]
;B[rq]
;W[rl]
;B[fi]
;W[fh]
;B[mf]
;W[lc]
;B[lb]
;W[lg]
;B[kd]
;W[ke]
;B[pb])