(;SO[Cho Chikun Internet Book]CP[My Friday Night Files, 2002]AP[SGFcv.py:0.3]GM[1]FF[4]PW[Cho Chikun]
WR[9d]
PB[Yamashiro Hiroshi]
BR[9d]
DT[1985-12-26]
KM[5.5]
RE[W+1.5]
US[JBvR]
EV[Honinbo, 41st]

;B[pd]
;W[cc]
;B[pq]
;W[dq]
;B[pk]
;W[jp]
;B[cn]
;W[cp]
;B[dj]
;W[mp]
;B[nq]
;W[qf]
;B[qe]
;W[pf]
;B[nd]
;W[qi]
;B[rj]
;W[ri]
;B[np]
;W[ch]
;B[en]
;W[gp]
;B[de]
;W[ed]
;B[ee]
;W[fd]
;B[cd]
;W[bc]
;B[fe]
;W[gd]
;B[cj]
;W[ge]
;B[gf]
;W[hf]
;B[gg]
;W[hg]
;B[gh]
;W[hh]
;B[gi]
;W[qc]
;B[pc]
;W[re]
;B[kc]
;W[qb]
;B[rd]
;W[qd]
;B[pe]
;W[rf]
;B[pb]
;W[pm]
;B[qm]
;W[qn]
;B[pn]
;W[ql]
;B[rm]
;W[rl]
;B[pl]
;W[om]
;B[rn]
;W[qo]
;B[qk]
;W[ro]
;B[sl]
;W[oo]
;B[rq]
;W[nk]
;B[nn]
;W[on]
;B[no]
;W[nm]
;B[pp]
;W[po]
;B[sj]
;W[be]
;B[bd]
;W[ad]
;B[bf]
;W[ce]
;B[cf]
;W[dd]
;B[kr]
;W[jr]
;B[kq]
;W[jb]
;B[kb]
;W[bn]
;B[bm]
;W[co]
;B[cm]
;W[jc]
;B[kd]
;W[ka]
;B[la]
;W[ja]
;B[jd]
;W[id]
;B[ie]
;W[hd]
;B[rb]
;W[rc]
;B[qa]
;W[sd]
;B[mb]
;W[jq]
;B[ep]
;W[fo]
;B[eo]
;W[eq]
;B[hi]
;W[kp]
;B[fp]
;W[fq]
;B[go]
;W[hm]
;B[hp]
;W[gq]
;B[io]
;W[jm]
;B[gl]
;W[hl]
;B[gk]
;W[bo]
;B[jg]
;W[ki]
;B[lj]
;W[kj]
;B[lk]
;W[lm]
;B[li]
;W[kh]
;B[mg]
;W[if]
;B[kk]
;W[jf]
;B[kg]
;W[lh]
;B[mh]
;W[ii]
;B[je]
;W[he]
;B[kf]
;W[am]
;B[al]
;W[an]
;B[bl]
;W[af]
;B[bg]
;W[mr]
;B[mq]
;W[ks]
;B[lq]
;W[ls]
;B[kn]
;W[km]
;B[ik]
;W[hk]
;B[hj]
;W[jh]
;B[nr]
;W[hn]
;B[ho]
;W[sn]
;B[rk]
;W[ns]
;B[or]
;W[ml]
;B[of]
;W[og]
;B[ng]
;W[lg]
;B[lf]
;W[ag]
;B[ah]
;W[ae]
;B[bh]
;W[nf]
;B[oe]
;W[mi]
;B[ni]
;W[mj]
;B[ij]
;W[oh]
;B[oj]
;W[jk]
;B[jl]
;W[jj]
;B[il]
;W[jn]
;B[hq]
;W[hr]
;B[kl]
;W[mo]
;B[mn]
;W[ln]
;B[si]
;W[rh]
;B[os]
;W[ms]
;B[ol]
;W[nl]
;B[sh]
;W[sg]
;B[pi]
;W[ph]
;B[ig]
;W[ih]
;B[lp]
;W[lo]
;B[jo]
;W[ko]
;B[iq]
;W[gm]
;B[fm]
;W[rp]
;B[sq]
;W[nh]
;B[mf]
;W[qp]
;B[qq]
;W[gn]
;B[fn]
;W[op]
;B[ir]
;W[is]
;B[do]
;W[oq]
;B[ra]
;W[sb])