

(;GM[1]SZ[19]DT[1980-07-04,05]PC[Fukuyama]RE[W+R]PB[Kato Masao]PW[Takemiya Masaki]FF[3]BS[0]WS[0]KM[5.5];B[pd];W[dp];B[pq];W[dd];B[pk];W[jq];B[jd];W[mp];B[po]
;W[qf];B[re];W[qi];B[qk];W[oi];B[ph];W[pi];B[rf];W[nj];B[nl]
;W[lj];B[fc];W[df];B[cn];W[fp];B[bp];W[cq];B[ck];W[nc];B[oc]
;W[nd];B[of];W[nf];B[ng];W[mf];B[mg];W[oe];B[og];W[pe];B[qg]
;W[qd];B[qc];W[rd];B[rc];W[qe];B[sd];W[lf];B[mi];W[mj];B[kh]
;W[jf];B[db];W[hc];B[hd];W[ic];B[id];W[kb];B[gc];W[pb];B[cc]
;W[ll];B[ji];W[jk];B[hi];W[di];B[kc];W[lc];B[ob];W[pc];B[lb]
;W[jb];B[pa];W[qb];B[rb];W[od];B[qa];W[nb];B[pd];W[bi];B[gp]
;W[go];B[hp];W[fo];B[jp];W[kp];B[iq];W[jr];B[jo];W[in];B[ko]
;W[lp];B[fq];W[eq];B[gr];W[fr];B[gq];W[io];B[ip];W[er];B[mn]
;W[ln];B[lo];W[mo];B[lm];W[mm];B[kn];W[nn];B[ml];W[ln];B[ld]
;W[mc];B[mn];W[nm];B[kl];W[lk];B[im];W[jl];B[jm];W[hl];B[hm]
;W[gm];B[gn];W[fm];B[il];W[ik];B[hk];W[gl];B[ho];W[fn];B[hn]
;W[hr];B[ir];W[is];B[gs];W[hs];B[kq];W[kr];B[js];W[ks];B[hq]
;W[ol];B[cj];W[ci];B[bq];W[qm];B[pm];W[pl];B[ql];W[pn];B[qn]
;W[om];B[rm];W[qo];B[pm];W[pp];B[on];W[oo];B[ro];W[pn];B[qq]
;W[cd];B[cr];W[qm];B[rn];W[or];B[oq];W[js];B[lq];W[lr];B[mq]
;W[mr];B[nq];W[nr];B[pr];W[fs];B[os];W[ln])