

(;GM[1]SZ[19]PW[Takemiya Masaki]PB[Cho Chikun]DT[1981-07-15,16]RE[B+3.5]FF[3]BS[0]WS[0]KM[5.5];B[qd];W[dc];B[dp];W[pq];B[ce];W[ed];B[qo];W[oc];B[md]
;W[oe];B[pf];W[kd];B[mf];W[mc];B[np];W[po];B[pp];W[op];B[qp]
;W[oq];B[oo];W[pn];B[qq];W[nq];B[no];W[lq];B[rm];W[pl];B[lo]
;W[ml];B[kq];W[kr];B[lp];W[mr];B[jq];W[jr];B[pj];W[oj];B[oi]
;W[nj];B[pk];W[ol];B[kl];W[kj];B[nd];W[nc];B[od];W[pc];B[pd]
;W[ql];B[hq];W[rl];B[rj];W[rn];B[qn];W[qm];B[on];W[ch];B[qc]
;W[qb];B[bc];W[bb];B[cc];W[cb];B[dg];W[dh];B[eg];W[cg];B[ee]
;W[cf];B[dd];W[ec];B[df];W[hd];B[ck];W[ej];B[rb];W[gg];B[gf]
;W[hf];B[ff];W[dl];B[cl];W[cp];B[co];W[cq];B[dq];W[bo];B[cn]
;W[bn];B[dk];W[dr];B[cr];W[br];B[lc];W[kc];B[er];W[cs];B[ek]
;W[be];B[bd];W[ae];B[ad];W[bg];B[hg];W[hh];B[ig];W[ld];B[fd]
;W[fc];B[gd];W[gc];B[he];W[ge];B[fe];W[id];B[gj];W[ab];B[ik]
;W[fq];B[fp];W[sm];B[pm];W[fr];B[do];W[eq];B[gp];W[pb];B[de]
;W[bi];B[ni];W[mj];B[fj];W[ij];B[jk];W[mh];B[ng];W[ih];B[if]
;W[ra];B[sb];W[lm];B[km];W[hj];B[hk];W[bm];B[ir];W[qr];B[rr]
;W[pr];B[mi];W[li];B[lh];W[pi];B[ph];W[lg];B[kh];W[kg];B[jh]
;W[jg];B[mg];W[jf];B[gh];W[ji];B[nh];W[ki];B[mh];W[rk];B[qi]
;W[ln];B[kn];W[cm];B[dm];W[rc];B[rd];W[ac];B[cd];W[ro];B[lf]
;W[je];B[lk];W[lj];B[gr];W[rp];B[rq];W[bj];B[bl];W[al];B[ak]
;W[am];B[bk];W[ep];B[eo];W[ll];B[kk];W[sj];B[si];W[aj];B[nm]
;W[ok];B[om];W[rs];B[le];W[dj];B[el];W[eh];B[fi];W[sk];B[js]
;W[ks];B[is];W[qk];B[qj];W[gs];B[hs];W[fs];B[mp];W[mq];B[mn]
;W[sp];B[cj];W[fh];B[fg];W[ci];B[ei];W[di];B[hi];W[ii];B[gq]
;W[es];B[mm];W[ke];B[mk];W[nl];B[ie];W[jj];B[gi];W[nk];B[kf]
;W[qa];B[sc];W[sa];B[sq];W[ss];B[sr];W[qs])