(
;
GM[1]
VW[]
US[Converted by sgf2misc-2.5]
ID[16/5]
FF[3]
PB[Sakata Eio]
PW[Takagawa Shukaku]
DT[1961-06-16,17]
PC[Yonezawa]
RE[B+0.5]
KM[4.5]
;B[pd];W[dp];B[qp];W[dc];B[oq];W[qk];B[cf];W[cd];B[ci];W[ck]
;B[qi];W[qn];B[jc];W[hc];B[fq];W[dn];B[dr];W[cq];B[iq];W[qc]
;B[pc];W[qd];B[qe];W[re];B[rf];W[qf];B[pe];W[rg];B[pf];W[sf]
;B[qg];W[rf];B[je];W[bg];B[cg];W[bh];B[ch];W[bf];B[ed];W[ce]
;B[gd];W[ef];B[dk];W[dl];B[ec];W[ie];B[id];W[hd];B[he];W[if]
;B[ge];W[jf];B[kf];W[ke];B[jd];W[kg];B[lf];W[fg];B[ek];W[lg]
;B[mf];W[cj];B[dj];W[bi];B[hg];W[gi];B[el];W[em];B[gl];W[ei]
;B[di];W[ih];B[gg];W[qh];B[ph];W[pg];B[og];W[oh];B[qg];W[eb]
;B[fb];W[pg];B[pi];W[ng];B[qg];W[nf];B[ne];W[pg];B[of];W[mg]
;B[me];W[kl];B[qg];W[il];B[de];W[kq];B[hk];W[ij];B[hj];W[hi]
;B[fm];W[fn];B[gn];W[fo];B[dq];W[cp];B[ik];W[jj];B[go];W[pg]
;B[qb];W[rb];B[qg];W[db];B[pb];W[pg];B[pm];W[qm];B[pk];W[pn]
;B[ql];W[rl];B[pl];W[oo];B[op];W[rj];B[qg];W[rh];B[fh];W[mq]
;B[ro];W[hp];B[hq];W[gp];B[gq];W[eh];B[fi];W[fj];B[gh];W[gj]
;B[ej];W[ho];B[hn];W[in];B[fp];W[io];B[cl];W[dm];B[eo];W[en]
;B[df];W[cr];B[ep];W[do];B[oi];W[jr];B[ir];W[nh];B[jk];W[kk]
;B[ni];W[mi];B[mj];W[lj];B[li];W[mh];B[qj];W[rk];B[mk];W[dd]
;B[ee];W[ds];B[es];W[cs];B[er];W[nr];B[or];W[fa];B[gb];W[rn]
;B[nm];W[jl];B[ra];W[rc];B[hl];W[mn];B[mm];W[rq];B[rp];W[qq]
;B[pp];W[rr];B[os];W[qs];B[pr];W[np];B[qr];W[ga];B[ha];W[ea]
;B[hb];W[jq];B[nq];W[mr];B[ln];W[rs];B[sr];W[nn];B[km];W[lo]
;B[ko];W[kp];B[ki];W[ji];B[jo];W[im];B[jp];W[ig];B[js];W[ks]
;B[is];W[mp];B[ll];W[so];B[sp];W[sn];B[sq];W[ns];B[ss];W[jn]
;B[kn];W[om];B[ol];W[fk];B[fl];W[hf];B[gf];W[ri];B[hm];W[kj]
;B[hh];W[ip];B[sb];W[sc];B[on];W[sa];B[qa];W[om];B[pg];W[on]
;B[sb];B[sa])
