(
;
GM[1]
EV[4th Meijin Title Match]
RO[2]
PB[Rin Kaiho]
BR[8 dan]
PW[Sakata Eio]
WR[Meijin]
DT[Aug 8/9, 1965]
PC[Okinawa]
RE[B+4]
KM[5]
SZ[19]
;B[qd];W[dc];B[pq];W[dq];B[oc];W[po];B[qo];W[qn];B[qp];W[pm]
;B[nq];W[qi];B[ce];W[qf];B[do];W[ci];B[dd];W[ec];B[cc];W[cb]
;B[bc];W[gd];B[cq];W[cl];B[eq];W[dp];B[cp];W[ep];B[dr];W[fp]
;B[fq];W[cr];B[gp];W[fo];B[br];W[er];B[cs];W[gq];B[fr];W[gr]
;B[es];W[ho];B[kd];W[oe];B[od];W[ne];B[ed];W[fd];B[hc];W[hd]
;B[ic];W[ld];B[ke];W[nd];B[kg];W[li];B[hg];W[fg];B[fc];W[gc]
;B[fb];W[gb];B[db];W[id];B[kc];W[nb];B[ob];W[lb];B[ki];W[rd]
;B[rc];W[kh];B[jh];W[lh];B[if];W[ji];B[fe];W[ih];B[jg];W[hi]
;B[ge];W[re];B[nc];W[mc];B[na];W[mb];B[qb];W[op];B[oq];W[mp]
;B[np];W[no];B[mo];W[lp];B[kj];W[lj];B[jj];W[ii];B[kl];W[lk]
;B[jl];W[he];B[gf];W[fi];B[jp];W[jo];B[nn];W[oo];B[kp];W[ko]
;B[lo];W[ip];B[lq];W[lm];B[mm];W[nl];B[dl];W[cm];B[in];W[io]
;B[dm];W[fl];B[fm];W[gm];B[ck];W[bk];B[dk];W[cj];B[fn];W[gn]
;B[jb];W[en];B[dn];W[ln];B[mn];W[ml];B[ro];W[rn];B[mf];W[ng]
;B[bh];W[bn];B[bo];W[bi];B[em];W[jr];B[on];W[pn];B[mg];W[mh]
;B[sn];W[sm];B[so];W[rm];B[ch];W[gg];B[hf];W[ej];B[kr];W[dg]
;B[dh];W[eh];B[cg];W[jq];B[kq];W[ks];B[ls];W[js];B[cn];W[gs]
;B[ef];W[eg];B[bm];W[bl];B[an];W[cf];B[df];W[bf];B[di];W[dj]
;B[be];W[ah];B[af];W[mr];B[mq];W[qe];B[pd];W[lr];B[nr];W[ms]
;B[ns];W[ls];B[hh];W[gh];B[ek];W[fk];B[pe];W[pf];B[nf];W[of]
;B[om];W[ol];B[sd];W[se];B[sc];W[al];B[fs];W[go];B[eo];W[am]
;B[bn];W[lf];B[lg];W[le];B[kf];W[ka];B[ja];W[ma];B[oa];W[kb]
;B[me];W[md]
)
