

(;GM[1]BS[0]WS[0]SZ[19]DT[1965-04-28,29]PB[Yamabe Toshiro]PW[Sakata Eio]RE[W+R]FF[3]WR[9 Dan];B[qd];W[dc];B[pq];W[cq];B[oc];W[qo];B[pl];W[pn];B[oo]
;W[pp];B[oq];W[qq];B[qr];W[op];B[np];W[nq];B[nr];W[mq];B[mp]
;W[lq];B[lp];W[kq];B[kp];W[rr];B[jq];W[ps];B[de];W[nn];B[fd]
;W[ce];B[cd];W[dd];B[cc];W[cb];B[bb];W[cf];B[db];W[eb];B[ca]
;W[ee];B[ec];W[df];B[fe];W[ff];B[gf];W[fg];B[gg];W[gh];B[ed]
;W[dm];B[kr];W[or];B[lr];W[pr];B[mr];W[oq];B[fp];W[dp];B[de]
;W[hh];B[ch];W[cj];B[dj];W[ck];B[ef];W[eg];B[dg];W[ee];B[em]
;W[gq];B[dn];W[gp];B[di];W[fi];B[dl];W[dk];B[ek];W[cm];B[fj]
;W[cn];B[ef];W[cg];B[dh];W[ee];B[hj];W[dd];B[if];W[ii];B[jk]
;W[kj];B[go];W[ip];B[jp];W[ho];B[gn];W[hn];B[jn];W[ir];B[jr]
;W[gm];B[hm];W[im];B[hl];W[jm];B[kn];W[in];B[jj];W[ji];B[ll]
;W[kk];B[kl];W[gk];B[gl];W[hk];B[il];W[jl];B[ik];W[fo];B[fn]
;W[fl];B[fm];W[ij];B[gm];W[eo];B[fk];W[mk];B[nm];W[mi];B[ld]
;W[nd];B[nc];W[je];B[jf];W[md];B[lc];W[le];B[jd];W[rd];B[qe]
;W[re];B[qc];W[kf];B[ie];W[qf];B[pf];W[qg];B[pg];W[ph];B[qh]
;W[rh];B[qi];W[ri];B[ni];W[nh];B[oh];W[pi];B[mh];W[ng];B[mg]
;W[nf];B[kg];W[kh];B[mj];W[li];B[qj];W[pj];B[qk];W[nj];B[nk]
;W[lj];B[on];W[rc];B[lf];W[mf];B[ke];W[qb];B[pb];W[mm])