(;GM[1]BS[0]WS[0]SZ[19]DT[1964-08-18,19]ID[64/3]PB[Fujisawa Shuko]PW[Sakata Eio]RE[W+R]FF[3]BR[9 Dan]WR[9 Dan];B[qd];W[dc];B[pq];W[cq];B[ce];W[oc];B[md];W[ne];B[pf]
;W[qc];B[pd];W[pc];B[nd];W[od];B[oe];W[nf];B[nb];W[nc];B[mc]
;W[ob];B[ph];W[lf];B[jd];W[gc];B[hd];W[de];B[cd];W[cc];B[cg]
;W[qj];B[oi];W[qo];B[pm];W[oo];B[np];W[rm];B[qp];W[ro];B[pk]
;W[qk];B[lh];W[kg];B[dp];W[dq];B[ep];W[bo];B[hc];W[kh];B[gb]
;W[fc];B[fb];W[eb];B[ki];W[ji];B[li];W[ih];B[eq];W[mb];B[lb]
;W[na];B[gg];W[eg];B[hi];W[jk];B[on];W[ib];B[ed];W[dd];B[ec]
;W[dg];B[cf];W[ee];B[fd];W[kc];B[kd];W[lc];B[ld];W[jc];B[if]
;W[hg];B[hf];W[ci];B[ch];W[di];B[bi];W[bj];B[ai];W[hh];B[po]
;W[ip];B[dh];W[eh];B[ei];W[gh];B[ej];W[dk];B[dj];W[cj];B[ck]
;W[bk];B[cl];W[bl];B[cm];W[bm];B[co];W[el];B[bn];W[an];B[cn]
;W[bp];B[ek];W[fl];B[dl];W[aj];B[bg];W[gp];B[hk];W[gk];B[fi]
;W[ge];B[gd];W[gf];B[hl];W[bd];B[be];W[af];B[ae];W[lg];B[db]
;W[da];B[ea];W[cb];B[ca];W[ba];B[bb];W[bc];B[ag];W[da];B[fe]
;W[gj];B[gi];W[hj];B[ij];W[ii];B[go];W[ik];B[ho];W[fg];B[ca]
;W[bh];B[ah];W[da];B[ic];W[jb];B[ca];W[hp];B[io];W[jo];B[em]
;W[da];B[df];W[ef];B[ca];W[hm];B[jn];W[fo];B[fn];W[in];B[gn]
;W[kn];B[jp];W[ko];B[jq];W[da];B[jf];W[ke];B[ca];W[jr];B[iq]
;W[da];B[je];W[he];B[ca];W[ir];B[lp];W[lq];B[kp];W[hq];B[gr]
;W[mp];B[lo];W[op];B[pp];W[nq];B[hr];W[da];B[le];W[nn];B[km]
;W[om];B[ln];W[pn];B[qn];W[qm];B[on];W[pl];B[pn];W[ol];B[rn]
;W[nh];B[qg];W[kf];B[ca];W[sn];B[rp];W[da];B[mg];W[mh];B[ca]
;W[of];B[aa];W[pe];B[qe];W[rf];B[rg];W[qf];B[oe];W[re];B[rd]
;W[pe];B[pg];W[sd];B[rc];W[rb];B[oe];W[sc];B[pe];W[sb];B[qi]
;W[pj];B[rj];W[rh];B[nk];W[ml];B[kk];W[mj];B[nj];W[mi])