(
;
DT[1962-]
EV[17th Honinbo]
RO[3]
KM[4.5]
BR[9 dan]
WR[Honinbo]
PB[Handa Dogen]
PW[Sakata Eio]
RE[B+5.5]
;B[qd];W[dc];B[pq];W[cq];B[oc];W[qo];B[pl];W[pn];B[oo]
;W[pp];B[op];W[qq];B[oq];W[qr];B[on];W[ip];B[de];W[ce];B[cf]
;W[cd];B[df];W[fc];B[cj];W[cl];B[gp];W[do];B[dq];W[dp];B[eq]
;W[cr];B[gn];W[in];B[kq];W[fo];B[go];W[kp];B[jo];W[io];B[iq]
;W[hq];B[jp];W[hp];B[gl];W[jn];B[gq];W[ik];B[gj];W[el];B[jq]
;W[ir];B[gr];W[hr];B[hm];W[kk];B[bl];W[bm];B[ck];W[dl];B[kd]
;W[kn];B[pm];W[ej];B[hi];W[ji];B[qn];W[ro];B[ge];W[fi];B[ih]
;W[ch];B[kg];W[po];B[nl];W[mi];B[dh];W[hd];B[bh];W[rd];B[qc]
;W[qe];B[qg];W[qf];B[pg];W[rc];B[rb];W[of];B[nh];W[pd];B[pc]
;W[sb];B[qa];W[rg];B[rh];W[rf];B[mk];W[jh];B[jg];W[lk];B[mj]
;W[hk];B[gk];W[ii];B[hg];W[lq];B[lr];W[kr];B[mq];W[lp];B[jr]
;W[mm];B[ib];W[nd];B[od];W[oe];B[nc];W[md];B[mc];W[hb];B[mf]
;W[ng];B[mg];W[oh];B[qi];W[og];B[ni];W[ph];B[qh];W[se];B[ic]
;W[gh];B[hh];W[hj];B[gi];W[hc];B[ha];W[ga];B[ia];W[fb];B[ks]
;W[ml];B[rn];W[id];B[jd];W[me];B[bk];W[oj];B[sn];W[rq];B[am]
;W[bn];B[pj];W[fm];B[hl];W[li];B[nj];W[nm];B[an];W[ao];B[al]
;W[bq];B[be];W[bd];B[af];W[di];B[ci];W[eh];B[dg];W[ad];B[sg]
;W[pi];B[pk];W[sc];B[dj];W[ek];B[ei];W[fj];B[gg];W[fh];B[ed]
;W[ec];B[le];W[if];B[ld];W[ne];B[mp];W[mo];B[pr];W[sf];B[sh]
;W[ra];B[qb];W[rj];B[qj];W[nr];B[mr];W[ps];B[os];W[qs];B[nq]
;W[dr];B[er];W[mh];B[oi];W[ol];B[nk];W[lg];B[lf];W[lj];B[ok]
;W[kh];B[fn];W[en];B[fp];W[eo];B[so];W[sp];B[om];W[ko];B[gd]
;W[gc];B[im];W[jm];B[il];W[jl];B[nn];W[mn];B[je];W[hf];B[gf]
;W[jf];B[kf];W[fd];B[pe];W[pf];B[ds];W[cs];B[es];W[gs];B[fs]
;W[fl];B[fe];W[dd];B[ee];W[ae];B[bf];W[hs];B[js];W[lh];B[di]
;W[sa];B[pd];W[fg];B[no]C[253 moves complete.]
)
