

(;GM[1]SZ[19]PB[Cho Chikun]PW[Kataoka Satoshi]DT[1994-06-15,16]RE[B+R]KM[5.5]FF[3]BS[0]WS[0];B[pd];W[dd];B[pq];W[dp];B[qo];W[kq];B[cj];W[nc];B[lc]
;W[qc];B[pc];W[qd];B[pe];W[pb];B[ob];W[qb];B[oc];W[qf];B[fc]
;W[cf];B[cm];W[fp];B[db];W[cc];B[hd];W[nq];B[bp];W[oo];B[hp]
;W[hn];B[jp];W[jq];B[iq];W[gq];B[kp];W[lq];B[km];W[jn];B[kn]
;W[lo];B[lp];W[mp];B[jm];W[jc];B[je];W[nb];B[nd];W[lb];B[md]
;W[mb];B[hr];W[en];B[kc];W[kb];B[ib];W[oa];B[qm];W[pr];B[qr]
;W[pp];B[qp];W[oq];B[qq];W[jb];B[hl];W[cq];B[ch];W[cb];B[co]
;W[gr];B[og];W[nj];B[nl];W[pj];B[qg];W[rf];B[oi];W[oj];B[lj]
;W[qi];B[mh];W[ff];B[qh];W[ol];B[om];W[pl];B[pm];W[ri];B[hf]
;W[jd];B[ke];W[gh];B[jr];W[os];B[ih];W[hj];B[mr];W[mq];B[gn]
;W[io];B[ip];W[gm];B[fm];W[go];B[fn];W[ho];B[ko];W[mn];B[eo]
;W[fk];B[fo];W[gp];B[bq];W[br];B[ij];W[dk];B[ck];W[hi];B[ii]
;W[bg];B[rk];W[nk];B[ar];W[cr];B[bh];W[pf];B[of];W[dm];B[do]
;W[cl];B[bl];W[dl];B[bn];W[eh];B[na];W[ma];B[ed];W[dc];B[eb]
;W[hb];B[ic];W[ia];B[gb];W[ge];B[hc];W[he];B[ie];W[hg];B[if]
;W[ha];B[ee];W[gd];B[ga];W[ja];B[gf];W[fe];B[ef];W[eg];B[fg]
;W[gg];B[gc];W[fh];B[df])