

(;GM[1]BS[0]WS[0]SZ[19]DT[1954-06-22,23]RO[4]PC[Toba]PB[Sugiuchi Masao]PW[Takagawa Kaku]RE[B+R]FF[3]TM[10h];B[pd];W[dc];B[pp];W[eq];B[cp];W[jq];B[ce];W[dh];B[df]
;W[ee];B[dd];W[ec];B[ed];W[fc];B[fd];W[gd];B[cc];W[cb];B[bc]
;W[ge];B[do];W[qj];B[mc];W[qn];B[nq];W[rp];B[hq];W[eo];B[en]
;W[fo];B[ho];W[dn];B[em];W[cn];B[dr];W[gn];B[cl];W[bl];B[ck]
;W[bp];B[bo];W[co];B[dp];W[bn];B[bq];W[ao];B[fq];W[bk];B[gl]
;W[hm];B[jo];W[hl];B[gj];W[fl];B[ci];W[gk];B[fj];W[el];B[hk]
;W[kc];B[lp];W[ej];B[ei];W[di];B[ek];W[dj];B[fk];W[fm];B[cj]
;W[dk];B[dl];W[ch];B[bh];W[eh];B[dm];W[bg];B[bi];W[cf];B[bf]
;W[cg];B[fn];W[fe];B[bb];W[gm];B[go];W[jl];B[ik];W[km];B[kj]
;W[ml];B[de];W[be];B[db];W[mj];B[gh];W[fg];B[kh];W[nc];B[nd]
;W[mb];B[oc];W[nb];B[md];W[qf];B[ob];W[rd];B[lb];W[bd];B[cd]
;W[kb];B[lc];W[ke];B[mi];W[ni];B[mh];W[lj];B[li];W[nh];B[ng]
;W[og];B[of];W[pg];B[gc];W[gb];B[hc];W[eb];B[ca];W[hb];B[ea]
;W[fb];B[kk];W[oo];B[ic];W[ib];B[ie];W[if];B[jd];W[kd];B[hf]
;W[ig];B[gf];W[gg];B[eg];W[hg];B[fh];W[oq];B[op];W[mq];B[np]
;W[nr];B[mp];W[lr];B[pq];W[or];B[lq];W[mr];B[ll];W[lm];B[mm]
;W[mn];B[nm];W[nn];B[om];W[on];B[nk];W[nj];B[mk];W[ok];B[kl]
;W[lo];B[kq];W[kr];B[jp])