

(;GM[1]SZ[19]DT[1954-07-16,17]PW[Takagawa Kaku]RE[W+1.5]PB[Sugiuchi Masao]FF[3]BS[0]WS[0]KM[4.5];B[pd];W[dc];B[pp];W[dp];B[de];W[dh];B[gd];W[ee];B[ef]
;W[fe];B[dd];W[fc];B[cc];W[ec];B[eh];W[cb];B[dg];W[bc];B[cn]
;W[fp];B[bp];W[cq];B[dl];W[nc];B[pf];W[kd];B[hq];W[bq];B[qj]
;W[nq];B[oq];W[np];B[pn];W[jq];B[ho];W[jo];B[nn];W[ch];B[ei]
;W[cf];B[df];W[be];B[lq];W[lp];B[lr];W[kq];B[nr];W[hn];B[go]
;W[in];B[gn];W[hl];B[gm];W[oj];B[pj];W[oi];B[ob];W[qh];B[nb]
;W[ql];B[pk];W[om];B[on];W[qn];B[qo];W[ok];B[pl];W[pm];B[ol]
;W[nm];B[nl];W[mm];B[rn];W[qm];B[pi];W[qe];B[pe];W[qd];B[qf]
;W[rf];B[rg];W[re];B[qg];W[qb];B[lo];W[ln];B[mp];W[lk];B[mj]
;W[nh];B[oh];W[gl];B[en];W[ki];B[mh];W[og];B[ph];W[cj];B[fl]
;W[gj];B[gi];W[gh];B[hi];W[fj];B[ej];W[fi];B[hm];W[im];B[fh]
;W[gg];B[ii];W[jk];B[ig];W[lh];B[ff];W[hf];B[ge];W[if];B[gf]
;W[hg];B[mg];W[lg];B[mi];W[gr];B[bd];W[cd];B[ce];W[bf];B[cc]
;W[ad];B[cd];W[bb];B[gc];W[id];B[le];W[ld];B[lf];W[kf];B[ll]
;W[kl];B[gq];W[fq];B[hr];W[bl];B[lj];W[kj];B[mk];W[kk];B[kp]
;W[jp];B[fr];W[er];B[gs];W[rm];B[ro];W[nd];B[pc];W[mb];B[ne]
;W[bn];B[co];W[cm];B[eo];W[dm];B[em];W[bo];B[cp];W[ap];B[dr]
;W[es];B[ep];W[eq];B[dq];W[cr];B[do];W[ds];B[mn];W[lm];B[hb]
;W[ib];B[ko];W[rk];B[fb];W[qc];B[jb];W[ia];B[ma];W[lb];B[ic]
;W[jc];B[hd];W[hc];B[cg];W[bg];B[ic];W[kb];B[je];W[jf];B[jd]
;W[hc];B[gk];W[hk];B[ic];W[ja];B[fk];W[hj];B[ie];W[pb];B[oc]
;W[ri];B[rj];W[sj];B[kn];W[me];B[mf];W[md];B[od];W[eb];B[ea]
;W[da];B[fa];W[ha];B[gb];W[db];B[sm];W[dp];B[dj];W[ck];B[ci]
;W[bi];B[di];W[bh];B[pa];W[sb];B[rh];W[dk];B[ks];W[ke];B[he]
;W[jr];B[js];W[km];B[jn];W[io];B[jm];W[ml];B[qi];W[si];B[qk]
;W[rl];B[dq];W[fs];B[gr];W[ir];B[is];W[fo];B[fn];W[la];B[sf]
;W[qa];B[se];W[sd];B[sg];W[fg];B[el];W[cl];B[dp];W[dr];B[oa]
;W[il];B[na])