

(;GM[1]BS[0]WS[0]SZ[19]DT[1956-06-07,06]BR[8 dan]WR[Honinbo]KM[4.5]RO[1]PC[Tokyo]PB[Shimamura Toshihiro]PW[Takagawa Kaku]RE[W+6.5]TM[10 h]FF[3];B[pd];W[dc];B[pp];W[dp];B[de];W[cg];B[fq];W[dn];B[jp]
;W[qn];B[np];W[qj];B[ef];W[gc];B[dh];W[cd];B[ce];W[ck];B[qf]
;W[jd];B[ql];W[rl];B[lc];W[pl];B[qo];W[pn];B[rn];W[rm];B[ec]
;W[eb];B[fb];W[fc];B[ed];W[db];B[ic];W[dr];B[id];W[lq];B[iq]
;W[oq];B[op];W[nq];B[pq];W[mp];B[ci];W[hp];B[hq];W[cj];B[bi]
;W[be];B[bf];W[bd];B[pc];W[bg];B[gb];W[hb];B[gd];W[fa];B[fd]
;W[ga];B[ej];W[kh];B[kf];W[mg];B[mf];W[ng];B[nf];W[mn];B[kq]
;W[gi];B[cm];W[dm];B[cl];W[dl];B[bk];W[bj];B[bl];W[ek];B[bo]
;W[fj];B[lr];W[jc];B[je];W[jb];B[lp];W[mq];B[lo];W[mo];B[km]
;W[lb];B[mb];W[mc];B[kb];W[ld];B[la];W[kc];B[lb];W[ie];B[if]
;W[he];B[hf];W[hd];B[ke];W[kd];B[md];W[ro];B[rp];W[sn];B[rr]
;W[po];B[qp];W[kn];B[jn];W[ln];B[jm];W[ko];B[jo];W[kp];B[kr]
;W[ll];B[qh];W[aj];B[cq];W[ge];B[gf];W[eq];B[cr];W[dg];B[fh]
;W[eh];B[ei];W[eg];B[fi];W[fg];B[gj];W[fk];B[hi];W[ff];B[le]
;W[ja];B[ni];W[pi];B[lm];W[mm];B[li];W[mj];B[fp];W[cp];B[bp]
;W[br];B[bs];W[ai];B[lh];W[pg];B[ph];W[oh];B[ri];W[oi];B[lj]
;W[gg];B[gh];W[hg];B[mk];W[nc];B[nb];W[nk];B[gm];W[ih];B[ji]
;W[jk];B[lk];W[ii];B[ij];W[jj];B[ik];W[ki];B[ml];W[il];B[gk]
;W[hk];B[hj];W[jl];B[nl];W[cn];B[bn];W[hl];B[gl];W[go];B[hn]
;W[gn];B[hm];W[qg];B[rg];W[pf];B[pe];W[rf];B[qe];W[rj];B[om]
;W[pr];B[qr];W[os];B[pm];W[qm];B[pk];W[qk];B[ok];W[fr];B[mr]
;W[gr];B[nr];W[on];B[gq];W[or];B[fn];W[fo];B[eo];W[en];B[fm]
;W[ep];B[ho];W[do];B[hr];W[si];B[rh];W[gp];B[ak];W[ds];B[cs]
;W[hs];B[is];W[gs];B[kl];W[bh];B[dj];W[dk];B[of];W[og];B[lg]
;W[hh];B[di];W[sg];B[re];W[sh];B[sf];W[sj];B[sp];W[kj];B[so]
;W[rn];B[ns];W[mh];B[mi];W[oj];B[nj];W[im];B[ip];W[eo];B[in]
;W[qs];B[rs];W[ps];B[no];W[nn])