(;SO[Cho Chikun Internet Book]CP[My Friday Night Files, 2002]AP[SGFcv.py:0.3]GM[1]FF[4]RO[League, game 32]
PB[Cho Chikun]
BR[9 dan]
PW[Otake Hideo]
WR[9 dan]
KM[5.5]
DT[1993-07-22]
RE[B+R]
US[JBvR]
EV[Meijin, 18th]

;B[pd]
;W[dc]
;B[pq]
;W[do]
;B[dq]
;W[po]
;B[qo]
;W[qn]
;B[qp]
;W[mn]
;B[cf]
;W[de]
;B[bd]
;W[df]
;B[cg]
;W[dh]
;B[cc]
;W[db]
;B[dg]
;W[eg]
;B[eh]
;W[di]
;B[fh]
;W[ff]
;B[bi]
;W[ce]
;B[be]
;W[bh]
;B[ch]
;W[ci]
;B[bg]
;W[bj]
;B[ah]
;W[dk]
;B[hg]
;W[he]
;B[je]
;W[qf]
;B[fg]
;W[ef]
;B[jg]
;W[ic]
;B[id]
;W[jc]
;B[hd]
;W[hc]
;B[gd]
;W[gc]
;B[pi]
;W[of]
;B[qe]
;W[rg]
;B[re]
;W[qj]
;B[rn]
;W[pj]
;B[co]
;W[cn]
;B[cp]
;W[dn]
;B[ed]
;W[dd]
;B[fq]
;W[gf]
;B[ji]
;W[nd]
;B[fk]
;W[go]
;B[hp]
;W[hk]
;B[hj]
;W[ij]
;B[hi]
;W[gk]
;B[fj]
;W[ik]
;B[hf]
;W[ge]
;B[ie]
;W[ii]
;B[ih]
;W[kh]
;B[ki]
;W[li]
;B[lj]
;W[lh]
;B[jh]
;W[mj]
;B[lk]
;W[mk]
;B[ll]
;W[km]
;B[ob]
;W[qm]
;B[ho]
;W[ep]
;B[eq]
;W[gg]
;B[gh]
;W[fl]
;B[mc]
;W[mq]
;B[mf]
;W[le]
;B[lf]
;W[nc]
;B[nb]
;W[lc]
;B[lm]
;W[ln]
;B[kl]
;W[rm]
;B[jm]
;W[kn]
;B[el])