(;US[JBvR]SO[Cho Chikun Internet Book]CP[My Friday Night Files, 2002]AP[SGFcv.py:0.3]GM[1]FF[4]DT[1993-05-24,25]
RE[B+3.5]
PW[Cho Chikun]
PB[Yamashiro Hiroshi]
KM[5.5]
EV[Honinbo, 48th, match]
RO[2]
BR[9d]
WR[9d]

;B[pd]
;W[dd]
;B[cp]
;W[pq]
;B[qo]
;W[pk]
;B[no]
;W[mq]
;B[lp]
;W[lq]
;B[kp]
;W[kq]
;B[jp]
;W[iq]
;B[pi]
;W[nk]
;B[lk]
;W[nm]
;B[op]
;W[oq]
;B[lm]
;W[ni]
;B[pg]
;W[qm]
;B[cf]
;W[fc]
;B[gd]
;W[gc]
;B[id]
;W[hd]
;B[he]
;W[hc]
;B[ie]
;W[qc]
;B[qd]
;W[cj]
;B[pc]
;W[jc]
;B[cm]
;W[ce]
;B[df]
;W[ej]
;B[ff]
;W[be]
;B[gj]
;W[fi]
;B[gi]
;W[fg]
;B[ed]
;W[gf]
;B[ge]
;W[ec]
;B[eg]
;W[gh]
;B[eh]
;W[fh]
;B[de]
;W[bf]
;B[bg]
;W[bh]
;B[cd]
;W[dc]
;B[ag]
;W[bd]
;B[dk]
;W[ch]
;B[dj]
;W[cg]
;B[di]
;W[ii]
;B[oj]
;W[nj]
;B[li]
;W[kj]
;B[lj]
;W[hk]
;B[fj]
;W[ip]
;B[io]
;W[ho]
;B[hn]
;W[in]
;B[jo]
;W[gn]
;B[hm]
;W[gm]
;B[go]
;W[hp]
;B[im]
;W[gl]
;B[gp]
;W[gq]
;B[ep]
;W[eo]
;B[fp]
;W[dp]
;B[dq]
;W[do]
;B[eq]
;W[ei]
;B[ek]
;W[hh]
;B[em]
;W[jq]
;B[gk]
;W[jm]
;B[jl]
;W[dh]
;B[ic]
;W[co]
;B[bp]
;W[il]
;B[jn]
;W[hl]
;B[km]
;W[fn]
;B[bo]
;W[fe]
;B[ib]
;W[ke]
;B[lc]
;W[cn]
;B[bn]
;W[cl]
;B[dm]
;W[ng]
;B[mh]
;W[ph]
;B[qh]
;W[oh]
;B[qi]
;W[pf]
;B[qf]
;W[og]
;B[qg]
;W[me]
;B[ld]
;W[mg]
;B[rk]
;W[qp]
;B[rp]
;W[nc]
;B[le]
;W[lf]
;B[nd]
;W[fd]
;B[kh]
;W[jf]
;B[ig]
;W[jg]
;B[jh]
;W[ih]
;B[kd]
;W[rq]
;B[pp]
;W[qq]
;B[hf]
;W[on]
;B[oi]
;W[nh]
;B[pn]
;W[pm]
;B[rn]
;W[md]
;B[mc]
;W[ne]
;B[od]
;W[rm]
;B[nn]
;W[sp]
;B[ro]
;W[qk]
;B[rj]
;W[om]
;B[np]
;W[lg]
;B[gg]
;W[ef]
;B[ee]
;W[dg]
;B[fa]
;W[bk]
;B[bl]
;W[al]
;B[bm]
;W[fr]
;B[ea]
;W[ds]
;B[cr]
;W[cb]
;B[ci]
;W[bi]
;B[ck]
;W[bj]
;B[ok]
;W[ol]
;B[ml]
;W[nl]
;B[rl]
;W[je]
;B[jd]
;W[kg]
;B[of]
;W[cs]
;B[bs]
;W[er]
;B[dr]
;W[es]
;B[ca]
;W[ba]
;B[da]
;W[br]
;B[bq]
;W[bb]
;B[ar]
;W[ki]
;B[lh]
;W[hb]
;B[ha]
;W[oe]
;B[pe]
;W[ql]
;B[nq]
;W[nr]
;B[sm]
;W[mp]
;B[mo]
;W[mm]
;B[fl]
;W[kk]
;B[jk]
;W[ij]
;B[mn]
;W[kl]
;B[ll]
;W[am]
;B[an]
;W[ak]
;B[fq]
;W[gr]
;B[so]
;W[sq]
;B[nf]
;W[mf]
;B[pf])