(;US[JBvR]SO[Cho Chikun Internet Book]CP[My Friday Night Files, 2002]AP[SGFcv.py:0.3]GM[1]FF[4]RO[playoff, game 3]
PB[Cho Chikun]
BR[Honinbo]
PW[Kato Masao]
WR[9 dan]
KM[5.5]
RE[B+2.5]
DT[1993-12-09]
EV[Kisei, 18th]

;B[qd]
;W[dd]
;B[pq]
;W[oc]
;B[dp]
;W[po]
;B[ld]
;W[of]
;B[qg]
;W[jd]
;B[lf]
;W[pe]
;B[qe]
;W[oh]
;B[pi]
;W[lh]
;B[kg]
;W[ji]
;B[ih]
;W[gd]
;B[he]
;W[hd]
;B[ii]
;W[ij]
;B[jj]
;W[jh]
;B[jg]
;W[li]
;B[oi]
;W[hj]
;B[mg]
;W[me]
;B[md]
;W[nd]
;B[ne]
;W[nf]
;B[mf]
;W[mc]
;B[lc]
;W[mb]
;B[jk]
;W[nh]
;B[gi]
;W[hl]
;B[gj]
;W[il]
;B[fg]
;W[np]
;B[lk]
;W[ni]
;B[kn]
;W[mn]
;B[kp]
;W[km]
;B[lm]
;W[kl]
;B[ln]
;W[ll]
;B[mm]
;W[qq]
;B[ml]
;W[kk]
;B[cf]
;W[bd]
;B[cl]
;W[ge]
;B[hf]
;W[pp]
;B[dq]
;W[fn]
;B[mq]
;W[nq]
;B[nr]
;W[or]
;B[go]
;W[dk]
;B[ck]
;W[di]
;B[dj]
;W[ej]
;B[cj]
;W[eh]
;B[ef]
;W[de]
;B[df]
;W[ci]
;B[em]
;W[fk]
;B[be]
;W[cc]
;B[jc]
;W[ic]
;B[je]
;W[ql]
;B[jn]
;W[im]
;B[qj]
;W[lq]
;B[mp]
;W[mr]
;B[lr]
;W[ns]
;B[kr]
;W[ho]
;B[hn]
;W[fm]
;B[gn]
;W[fl]
;B[dn]
;W[in]
;B[io]
;W[fo]
;B[fp]
;W[ep]
;B[gp]
;W[qb]
;B[rk]
;W[rl]
;B[kd]
;W[id]
;B[rc]
;W[do]
;B[co]
;W[en]
;B[eo]
;W[mo]
;B[lp]
;W[do]
;B[eq]
;W[dm]
;B[cn]
;W[dl]
;B[bi]
;W[bh]
;B[bj]
;W[jb]
;B[pm]
;W[qm]
;B[rb]
;W[qf]
;B[rf]
;W[pg]
;B[qh]
;W[rg]
;B[pf]
;W[cm]
;B[bm]
;W[qf]
;B[re]
;W[lb]
;B[ch]
;W[cg]
;B[bg]
;W[dh]
;B[ah]
;W[qk]
;B[rj]
;W[pc]
;B[gk]
;W[gl]
;B[on]
;W[oo]
;B[lj]
;W[kj]
;B[pk]
;W[pl]
;B[ol]
;W[pn]
;B[om]
;W[sl]
;B[nj]
;W[oe]
;B[qn]
;W[rn]
;B[ee]
;W[ed]
;B[le]
;W[ie]
;B[if]
;W[gf]
;B[gg]
;W[hi]
;B[hh]
;W[kc]
;B[eo]
;W[ra]
;B[ch]
;W[jq]
;B[kq]
;W[bh]
;B[nn]
;W[no]
;B[ch]
;W[lo]
;B[ko]
;W[bh]
;B[kh]
;W[ki]
;B[ch]
;W[dg]
;B[qc]
;W[pb]
;B[jm]
;W[jl]
;B[hk]
;W[ik]
;B[fi]
;W[ei]
;B[ce]
;W[sk]
;B[sj]
;W[fh]
;B[gh]
;W[ae]
;B[af]
;W[ad]
;B[cd]
;W[bc]
;B[fe]
;W[fd]
;B[ls]
;W[ms]
;B[pd]
;W[fj]
;B[ne]
;W[ok]
;B[pj]
;W[me]
;B[kb]
;W[ka]
;B[ne]
;W[bl]
;B[bn]
;W[me]
;B[qo]
;W[ro]
;B[ne]
;W[jo]
;B[ip]
;W[me]
;B[rm]
;W[sm]
;B[ne]
;W[ff]
;B[eg]
;W[me]
;B[el]
;W[ek]
;B[ne]
;W[nl]
;B[nm]
;W[me]
;B[sn]
;W[so]
;B[ne]
;W[od]
;B[mj]
;W[lg]
;B[ng]
;W[pf]
;B[sb]
;W[me]
;B[bh]
;W[ne])