(;
PB[Rin Kaiho, Tengen]
PW[Nieh Weiping, Tengen]
KM[5]
RE[B+2.5]
DT[1991-07]
C[International Tengen title
]

;B[pd];W[dd];B[pq];W[dp];B[qo];W[jq];B[cn];W[cl];B[cq];W[dq]
;B[cp];W[do];B[cr];W[dr];B[dn];W[en];B[em];W[fn];B[dl];W[dk]
;B[fm];W[gn];B[di];W[fk];B[cf];W[fc];B[bn];W[ce];B[df];W[ci]
;B[ch];W[cj];B[gf];W[gd];B[lq];W[jo];B[pj];W[lo];B[nq];W[nc]
;B[pf];W[pb];B[qc];W[ld];B[je];W[lf];B[jg];W[jc];B[hk];W[bh]
;B[bg];W[dh];B[eh];W[cg];B[dg];W[ch];B[be];W[bd];B[ei];W[gj]
;B[ii];W[gh];B[gg];W[hh];B[hj];W[ej];B[fh];W[gi];B[hd];W[id]
;B[he];W[hc];B[ed];W[ec];B[cc];W[cd];B[ee];W[bc];B[kd];W[kc]
;B[gm];W[bk];B[al];W[el];B[dm];W[dj];B[bl];W[ak];B[cm];W[fl]
;B[nf];W[lh];B[kg];W[lg];B[le];W[kf];B[ie];W[ke];B[jd];W[me]
;B[ic];W[qn];B[rn];W[qm];B[rm];W[qk];B[ql];W[pk];B[pl];W[ok]
;B[qi];W[ol];B[om];W[nm];B[hb];W[rj];B[qb];W[qg];B[qf];W[rg]
;B[pg];W[gc];B[jb];W[kb];B[ea];W[ja];B[ib];W[gb];B[ga];W[fa]
;B[fb];W[eb];B[ki];W[op];B[pn];W[oq];B[or];W[pp];B[qq];W[no]
;B[jr];W[mr];B[iq];W[kq];B[kr];W[nr];B[io];W[in];B[ip];W[hm]
;B[fr];W[jf];B[ig];W[jj];B[jk];W[kj];B[ca];W[fa];B[gl];W[ji]
;B[fb];W[ba];B[ih];W[hl];B[gk];W[hg];B[if];W[fp];B[ho];W[hn]
;B[jp];W[kp];B[lr];W[pr];B[qr];W[ij];B[bb];W[db];B[da];W[fa]
;B[ck];W[ha];B[hi];W[cl];B[ik];W[lp];B[ck];W[ai];B[ps];W[mq]
;B[gq];W[qh];B[ph];W[ri];B[km];W[jn];B[kk];W[lj];B[kn];W[jm]
;B[rf];W[sf];B[se];W[sg];B[rc];W[cs];B[bs];W[es];B[ds];W[hr]
;B[ir];W[cs];B[bj];W[aj];B[ds];W[re];B[sd];W[cs];B[mm];W[on]
;B[pm];W[ml];B[mn];W[nn];B[ds];W[rd];B[sc];W[lk];B[kl];W[cs]
;B[ns];W[mp];B[ds];W[qp];B[rp];W[cs];B[ob];W[oc];B[nb];W[pc]
;B[mc];W[mb];B[lb];W[lc];B[ma];W[md];B[mb];W[od];B[pa];W[oa]
;B[qa];W[pe];B[oe];W[qd];B[qe];W[la];B[ka];W[fg];B[ia];W[eg]
;B[ff];W[fi];B[ef];W[co];B[bo];W[br];B[ds];W[nd];B[pd];W[cs]
;B[li];W[kh];B[ds];W[oi];B[cs];W[er];B[pi];W[ms];B[gr];W[oh]
;B[nh];W[ni];B[rk];W[sk];B[sl];W[rl];B[oj];W[nj];B[rk];W[bp]
;B[bq];W[rl];B[go];W[fq];B[rk];W[gp];B[hs];W[rl];B[fo];W[eo]
;B[rk];W[rq];B[sj];W[sp];B[ro];W[rr];B[rs];W[os];B[il];W[ko]
;B[ns];W[ge];B[hf];W[os];B[ga];W[pr];B[fb];W[cb];B[aa];W[fa]
;B[or];W[ba];B[ns];W[aq];B[os];W[as];B[qj];W[ng];B[og];W[mg]
;B[mf];W[ao];B[an];W[ln];B[lm];W[ls];B[jh];W[mi];B[po];W[ks]
;B[oo];W[js];B[fs];W[np];B[ha];W[ae];B[bf];W[le];B[ne];W[cl]
;B[af];W[ad];B[ck];W[is];B[hq];W[cl];B[ea];W[da];B[ck];W[ss]
;B[sr];W[cl];B[eh];W[fh];B[ck];W[ap];B[cl];W[ah])
