

(;GM[1]SZ[19]PB[Rin Kaiho]PW[Ishida Yoshio]RE[W+R]FF[3]DT[1971-06-10,11]PC[Otaru]BS[0]WS[0]KM[4.5];B[eq];W[pq];B[qd];W[dc];B[cp];W[ce];B[po];W[od];B[oc]
;W[nc];B[pc];W[nd];B[qf];W[jd];B[qq];W[qr];B[qp];W[or];B[cj]
;W[mp];B[pl];W[ch];B[ej];W[iq];B[db];W[ec];B[eb];W[fc];B[cc]
;W[bc];B[cd];W[bd];B[dd];W[cb];B[bb];W[ca];B[de];W[ab];B[cf]
;W[be];B[gc];W[fb];B[ge];W[df];B[fd];W[gb];B[hc];W[hb];B[ic]
;W[jc];B[ib];W[ef];B[ed];W[dm];B[hg];W[og];B[hp];W[ip];B[ho]
;W[dk];B[ci];W[gg];B[gh];W[fg];B[hf];W[hh];B[ih];W[hi];B[fi]
;W[eh];B[ei];W[gl];B[bh];W[cg];B[bl];W[ii];B[jh];W[jf];B[ke]
;W[je];B[jg];W[lg];B[lh];W[mg];B[kj];W[jk];B[jj];W[jn];B[im]
;W[gi];B[ik];W[fo];B[hq];W[fq];B[fr];W[co];B[dp];W[hk];B[ij]
;W[fh];B[do];W[ek];B[cm];W[io];B[ph];W[qj];B[ql];W[oj];B[ni]
;W[oi];B[oh];W[nh];B[qi];W[mh];B[li];W[mi];B[kg];W[kf];B[rj]
;W[ri];B[rh];W[pg];B[op];W[np];B[qh];W[gr];B[gq];W[hr];B[fp]
;W[rr];B[rq];W[pd];B[pe];W[qc];B[qb];W[rc];B[rb];W[nb];B[pa]
;W[cl];B[cn];W[bm];B[ck];W[dl];B[bk];W[on];B[oq];W[nq];B[pn]
;W[pk];B[nk];W[mk];B[ha];W[da];B[hj];W[gj];B[hl];W[gk];B[gm]
;W[re];B[qe];W[rk];B[qk];W[ob];B[pb];W[sj];B[ok];W[nj];B[pj]
;W[qg];B[rg];W[pi];B[rj];W[rf];B[rd];W[qj];B[nr];W[mr];B[rj]
;W[dn];B[bo];W[qj];B[pp];W[pr];B[rj];W[bn];B[co];W[qj];B[fl]
;W[fm];B[rj];W[gn];B[qj];W[jl];B[lk];W[ml];B[jm];W[il];B[hm]
;W[hn];B[kl];W[ji];B[id];W[mj];B[ki];W[he];B[gf];W[ie];B[kn]
;W[in];B[kk];W[jl];B[lm];W[mn];B[em];W[fn];B[fk];W[kp])