
(
;
EV[29th Honinbo]
RO[2]
PW[Ishida Yoshio]
PB[Takemiya Masaki]
KM[4.5]
RE[B+R]
DT[1974-05-30,31]
BR[7 dan]
PC[Tokuyame, Japan]
;B[pd];W[dp];B[pp];W[dd];B[pj];W[nc];B[jp];W[dj];B[pf]
;W[jd];B[cc];W[cd];B[dc];W[ec];B[eb];W[fb];B[fc];W[ed];B[gb]
;W[fd];B[fa];W[gc];B[fb];W[qn];B[qo];W[pn];B[np];W[pl];B[hc]
;W[gd];B[hd];W[he];B[ie];W[id];B[hf];W[ge];B[ib];W[pc];B[qc]
;W[od];B[pe];W[if];B[je];W[kd];B[ig];W[jf];B[ke];W[le];B[kf]
;W[jg];B[lf];W[mf];B[jh];W[kg];B[lg];W[kh];B[me];W[ld];B[nf]
;W[pb];B[hg];W[ki];B[hi];W[hk];B[mg];W[jj];B[fi];W[dh];B[eh]
;W[dg];B[ek];W[mm];B[ej];W[lp];B[dk];W[cj];B[ln];W[mo];B[jn]
;W[hm];B[jl];W[hj];B[en];W[io];B[kp];W[lq];B[fo];W[km];B[lm]
;W[ll];B[kn];W[mn];B[gp];W[kl];B[or];W[ip];B[ir];W[hq];B[hr]
;W[gq];B[fq];W[gr];B[fr];W[fs];B[es];W[gs];B[kr];W[er];B[eq]
;W[dr];B[dq];W[cq];B[cr];W[ds];B[cp];W[bq];B[br];W[in];B[mr]
;W[bp];B[co];W[bo];B[cn];W[bn];B[cm];W[qi];B[qj];W[rj];B[pi]
;W[rh];B[qh];W[ri];B[bm];W[ar];B[md];W[mc];B[kb];W[qb];B[lc]
;W[lb];B[kc];W[ph];B[ni];W[bc];B[bb];W[cb];B[db];W[ab];B[ba]
;W[qg];B[bd];W[be];B[ac];W[qd];B[re];W[rc];B[rf];W[lr];B[ls]
;W[qk];B[rn];W[rm];B[ro];W[bk];B[jm];W[nj];B[mj];W[jq];B[kq]
;W[iq];B[jr];W[nh];B[mi];W[mh];B[kk];W[mk];B[lh];W[oi];B[jk]
;W[nk];B[hl]
)
