(
;
EV[13th Meijin 1974]
RO[7]
BR[Meijin]
WR[Honinbo]
KM[5]
PB[Rin Kaiho]
PW[Ishida Yoshio]
DT[1974-]
PC[Japan]
TM[10 hours]
RE[W+2]
;B[qe];W[pp];B[cd];W[pc];B[dq];W[ph];B[ne];W[mc];B[ld]
;W[lc];B[kd];W[kc];B[jd];W[ic];B[od];W[oc];B[pk];W[ni];B[qn]
;W[qo];B[pn];W[np];B[he];W[do];B[eo];W[en];B[ep];W[dm];B[dj]
;W[cq];B[cp];W[dp];B[co];W[dn];B[bq];W[eq];B[cr];W[dr];B[cq]
;W[fo];B[fp];W[gp];B[fq];W[gq];B[er];W[fr];B[eq];W[go];B[mn]
;W[nk];B[qi];W[pl];B[ql];W[ol];B[qq];W[ro];B[oq];W[op];B[nq]
;W[pq];B[pr];W[qr];B[rr];W[mq];B[on];W[qk];B[rl];W[pj];B[qj]
;W[ok];B[rk];W[rn];B[rm];W[qh];B[pi];W[oi];B[lm];W[kj];B[qs]
;W[lp];B[jn];W[jp];B[gk];W[nm];B[nn];W[cf];B[ed];W[ch];B[bj]
;W[bd];B[bc];W[be];B[gm];W[fm];B[bg];W[bi];B[eh];W[eg];B[dg]
;W[cg];B[ef];W[fg];B[df];W[cj];B[ck];W[ci];B[bk];W[ei];B[fh]
;W[dk];B[ek];W[dl];B[bm];W[ej];B[kh];W[ng];B[mh];W[jk];B[lk]
;W[lj];B[pk];W[rg];B[oj];W[mi];B[pf];W[lh];B[lg];W[jh];B[mk]
;W[mj];B[kg];W[jm];B[im];W[jl];B[ri];W[gi];B[dh];W[di];B[in]
;W[kn];B[fi];W[fj];B[gj];W[hi];B[ij];W[hj];B[ik];W[hk];B[il]
;W[gl];B[ji];W[km];B[ce];W[bf];B[hg];W[gc];B[hb];W[ib];B[nr]
;W[eb];B[fc];W[cc];B[dc];W[cb];B[db];W[bb];B[hc];W[id];B[hd]
;W[ie];B[rc];W[rb];B[rd];W[qb];B[og];W[oh];B[mg];W[ig];B[ki]
;W[da];B[if];W[fb];B[je];W[gh];B[gg];W[jf];B[hf];W[ff];B[fe]
;W[mr];B[ms];W[ls];B[ns];W[kr];B[dd];W[md];B[me];W[gr];B[gb]
;W[jc];B[jg];W[jo];B[mm];W[sq];B[sr];W[pd];B[rf];W[qg];B[sg]
;W[sh];B[sf];W[rh];B[pe];W[nd];B[sb];W[nh];B[nf];W[io];B[gn]
;W[si];B[sj];W[aj];B[ak];W[ai];B[cn];W[es];B[ds];W[fs];B[li]
;W[fk];B[ii];W[hh];B[ih];W[ho];B[oe];W[ec];B[gd];W[ea];B[pg]
;W[sp];B[qc];W[rq];B[qp];W[po];B[ra];W[pb];B[sn];W[ia];B[sc]
;W[qa];B[sa]
C[251 moves complete.]
BL[9hr 59m]
WL[9hr 17m]
)
