(;US[JBvR]SO[Cho Chikun Internet Book]CP[My Friday Night Files, 2002]AP[SGFcv.py:0.3]GM[1]FF[4]KM[4.5]
RE[W+R]
PB[Kono Yukio]
PW[Cho Chikun]
DT[1968-01-30]
RO[Game 10]
EV[Insei Competition, 1968]

;B[qd]
;W[dd]
;B[dp]
;W[pq]
;B[qo]
;W[oc]
;B[ld]
;W[of]
;B[qg]
;W[qc]
;B[rc]
;W[qb]
;B[fc]
;W[df]
;B[id]
;W[cn]
;B[cj]
;W[fp]
;B[fo]
;W[go]
;B[eo]
;W[cq]
;B[cp]
;W[dq]
;B[gp]
;W[fq]
;B[gq]
;W[gr]
;B[ip]
;W[ho]
;B[iq]
;W[dk]
;B[dj]
;W[io]
;B[jo]
;W[jn]
;B[ko]
;W[ck]
;B[fm]
;W[ej]
;B[hl]
;W[im]
;B[nq]
;W[ei]
;B[hm]
;W[kn]
;B[pp]
;W[lo]
;B[kq]
;W[jk]
;B[oq]
;W[hj]
;B[gn]
;W[en]
;B[bq]
;W[br]
;B[ar]
;W[bp]
;B[ap]
;W[bo]
;B[cr]
;W[aq]
;B[hp]
;W[in]
;B[bq]
;W[dr]
;B[dn]
;W[aq]
;B[gj]
;W[em]
;B[fn]
;W[el]
;B[bq]
;W[cs]
;B[ik]
;W[ij]
;B[jj]
;W[hk]
;B[il]
;W[jl]
;B[gk]
;W[gi]
;B[kj]
;W[hh]
;B[kl]
;W[mn]
;B[lm]
;W[ln]
;B[nm]
;W[lq]
;B[lr]
;W[lp]
;B[mq]
;W[nn]
;B[on]
;W[jm]
;B[od]
;W[nd]
;B[pd]
;W[md]
;B[lc]
;W[nb]
;B[mc]
;W[nc]
;B[mf]
;W[rb]
;B[rd]
;W[me]
;B[nf]
;W[le]
;B[cc]
;W[dc]
;B[db]
;W[kk]
;B[lj]
;W[mm]
;B[nl]
;W[mk]
;B[bf]
;W[cd]
;B[cb]
;W[bd]
;B[bk]
;W[bi]
;B[ch]
;W[bj]
;B[fh]
;W[fi]
;B[eh]
;W[ec]
;B[eb]
;W[fd]
;B[gc]
;W[gf]
;B[ff]
;W[fe]
;B[gg]
;W[hg]
;B[ef]
;W[ee]
;B[ge]
;W[hf]
;B[dg]
;W[cf]
;B[bl]
;W[ci]
;B[cm]
;W[bn]
;B[lk]
;W[ml]
;B[ll]
;W[nk]
;B[ok]
;W[oj]
;B[pk]
;W[mi]
;B[pj]
;W[kh]
;B[ii]
;W[hi]
;B[kg]
;W[jh]
;B[ni]
;W[mj]
;B[lh]
;W[li]
;B[sb]
;W[ke]
;B[jf]
;W[je]
;B[ie]
;W[jg])