(;SO[Cho Chikun Internet Book]CP[My Friday Night Files, 2002]AP[SGFcv.py:0.3]GM[1]FF[4]EV[Oteai]
PW[Cho Chikun]
WR[1 dan]
PB[Tokimoto Hajime]
BR[1 dan]
DT[1968-06-12]
KM[0]
RE[W+R]
US[JBvR]

;B[qd]
;W[dc]
;B[cq]
;W[qp]
;B[ce]
;W[oc]
;B[oq]
;W[dg]
;B[ee]
;W[fd]
;B[di]
;W[fg]
;B[cg]
;W[df]
;B[cf]
;W[de]
;B[cd]
;W[lp]
;B[np]
;W[pm]
;B[qr]
;W[qf]
;B[od]
;W[nd]
;B[oe]
;W[pc]
;B[qe]
;W[pg]
;B[qc]
;W[ng]
;B[mg]
;W[ne]
;B[nf]
;W[of]
;B[mf]
;W[ld]
;B[mh]
;W[qb]
;B[rb]
;W[pb]
;B[ra]
;W[re]
;B[rd]
;W[sd]
;B[rf]
;W[pe]
;B[se]
;W[pd]
;B[dd]
;W[ed]
;B[mj]
;W[fp]
;B[dn]
;W[ip]
;B[qk]
;W[ok]
;B[qn]
;W[pn]
;B[qm]
;W[po]
;B[rq]
;W[ql]
;B[rl]
;W[pl]
;B[rj]
;W[mq]
;B[nr]
;W[ml]
;B[oj]
;W[kk]
;B[fn]
;W[dq]
;B[dp]
;W[eq]
;B[cr]
;W[ni]
;B[nj]
;W[mi]
;B[li]
;W[cc]
;B[lo]
;W[ko]
;B[mo]
;W[lj]
;B[ki]
;W[oi]
;B[pj]
;W[ij]
;B[ii]
;W[hi]
;B[hh]
;W[gi]
;B[kg]
;W[ih]
;B[ig]
;W[jh]
;B[hf]
;W[gh]
;B[hg]
;W[ji]
;B[ie]
;W[jg]
;B[jf]
;W[ke]
;B[kf]
;W[hd]
;B[jd]
;W[kc]
;B[jc]
;W[kb]
;B[hc]
;W[he])