(
;
GM[1]
SO[Go Weekly 1996/05/27]
EV[51st Honinbo 1996]
RO[1]
PC[Japan]
RE[B+8.5]
SZ[19]
KM[5.5]
PW[Ryu Shikun]
WR[7 dan]
PB[Cho Chikun]
BR[9 dan]
DT[1996/05/13,1996/05/14]
;

B[pd];W[dd];B[pq];W[dp];B[qk];W[mp];B[jp];W[pp];
B[qp];W[qq];B[qo];W[rr];B[pr];W[po];B[qn];W[oq];B[or];W[nq];B[nr];
W[mr];B[qr];W[rq];B[rs];W[pn];B[pm];W[om];B[pl];W[gp];B[no];W[nn];
B[de];W[ee];B[lq];W[mq];B[ed];W[cd];B[df];W[ef];B[eg];W[dg];B[op];
W[cf];B[mo];W[lp];B[hq];W[ko];B[on];W[io];B[jo];W[jn];B[gq];W[ip];
B[jq];W[fp];B[kn];W[jm];B[km];W[iq];B[ir];W[jl];B[kl];W[jk];B[ck];
W[cm];B[dh];W[ce];B[cg];W[fg];B[df];W[ci];B[fh];W[gh];B[gg];W[ff];
B[gi];W[hh];B[fj];W[bg];B[hi];W[ih];B[ii];W[jh];B[ji];W[kh];B[ki];
W[lc];B[lh];W[lg];B[le];W[li];B[mh];W[mg];B[nh];W[me];B[kg];W[kf];
B[jg];W[hg];B[md];W[ld];B[lj];W[of];B[ne];W[ng];B[mc];W[ke];B[lb];
W[kb];B[mb];W[jc];B[qe];W[oh];B[fr];W[er];B[oi];W[qc];B[rd];W[rc];
B[pc];W[jr];B[kr];W[js];B[ks];W[pi];B[oj];W[di];B[ek];W[ei];B[fi];
W[kq];B[is];W[jr];B[js];W[lr];B[eq];W[dr];B[fq];W[ep];B[hr];W[gs];
B[lo];W[kp];B[jr];W[eh];B[dq];W[cq];B[fs];W[dl];B[gm];W[gl];B[hl];
W[hk];B[gk];W[fl];B[el];W[fm];B[em];W[hm];B[cn];W[bn];B[co];W[bo];
B[fn];W[gn];B[cp];W[bq];B[cl];W[bm];B[dm];W[pb];B[ob];W[qa];B[fk];
W[il];B[oa];W[rf];B[re];W[qf];B[ri];W[oe];B[od];W[bp];B[ph];W[pe];
B[qd];W[lf];B[pg];W[pf];B[cr];W[br];B[rh];W[qh];B[qg];W[rg];B[qi];
W[og];B[pj];W[kk];B[lk];W[dn];B[en];W[eo];B[bj];W[bi];B[ka];W[ja];
B[la];W[nf];B[nd];W[sh];B[si];W[se];B[sd];W[aj];B[ak];W[ai];B[hj];
W[bl];B[bk];W[hp];B[ls];W[ms];B[ns];W[cs];B[np];W[es];B[fo];W[go];
B[al];W[am];B[sg];W[sf];B[sh]
)
