(;US[JBvR]SO[Cho Chikun Internet Book]CP[My Friday Night Files, 2002]AP[SGFcv.py:0.3]GM[1]FF[4]PB[Cho Chikun]
PW[Kobayashi Koichi]
DT[1982-05-26,27]
RE[W+R]
KM[5.5]
EV[Honinbo, 37th, title]
RO[1]
BR[Meijin]
WR[9d]

;B[pd]
;W[dc]
;B[dq]
;W[qp]
;B[ce]
;W[ci]
;B[fe]
;W[gc]
;B[ck]
;W[ei]
;B[gi]
;W[ek]
;B[cm]
;W[eg]
;B[ed]
;W[ec]
;B[hd]
;W[hc]
;B[id]
;W[gg]
;B[ic]
;W[cd]
;B[bd]
;W[de]
;B[dd]
;W[ee]
;B[cc]
;W[fd]
;B[cd]
;W[ge]
;B[nc]
;W[co]
;B[ff]
;W[gf]
;B[dh]
;W[dg]
;B[ch]
;W[bf]
;B[bh]
;W[bg]
;B[bb]
;W[db]
;B[ac]
;W[eh]
;B[di]
;W[oq]
;B[qj]
;W[kd]
;B[kb]
;W[pi]
;B[pj]
;W[qi]
;B[oi]
;W[pg]
;B[oh]
;W[qf]
;B[rd]
;W[nf]
;B[nk]
;W[le]
;B[qn]
;W[dl]
;B[bm]
;W[gp]
;B[ep]
;W[dn]
;B[fo]
;W[go]
;B[fm]
;W[dm]
;B[gn]
;W[io]
;B[lp]
;W[oo]
;B[ln]
;W[hn]
;B[hm]
;W[im]
;B[hl]
;W[il]
;B[hk]
;W[pm]
;B[rp]
;W[ml]
;B[jn]
;W[in]
;B[qq]
;W[pp]
;B[nm]
;W[nl]
;B[pn]
;W[mm]
;B[nn]
;W[ol]
;B[rr]
;W[ro]
;B[qo]
;W[sp]
;B[rq]
;W[on]
;B[om]
;W[qm]
;B[rn]
;W[mn]
;B[no]
;W[mo]
;B[np]
;W[mp]
;B[nq]
;W[mq]
;B[nr]
;W[mr]
;B[op]
;W[ns]
;B[po]
;W[en]
;B[fn]
;W[re]
;B[qe]
;W[rf]
;B[md]
;W[ne]
;B[pe]
;W[og]
;B[lc]
;W[rc])