(;US[JBvR]SO[Cho Chikun Internet Book]CP[My Friday Night Files, 2002]AP[SGFcv.py:0.3]GM[1]FF[4]PW[Cho Chikun]
PB[Kobayashi Koichi]
DT[1982-06-30,07-01]
RE[W+11.5]
KM[5.5]
EV[Honinbo, 37th, title]
RO[4]
BR[9d]
WR[Meijin]

;B[pd]
;W[pq]
;B[cd]
;W[cp]
;B[qo]
;W[pk]
;B[pp]
;W[oq]
;B[qq]
;W[qr]
;B[rq]
;W[lq]
;B[op]
;W[np]
;B[no]
;W[mp]
;B[pi]
;W[nk]
;B[ed]
;W[jc]
;B[hc]
;W[mc]
;B[oc]
;W[qg]
;B[qi]
;W[og]
;B[ni]
;W[mg]
;B[pf]
;W[pg]
;B[li]
;W[rd]
;B[me]
;W[qe]
;B[rc]
;W[rj]
;B[ri]
;W[qc]
;B[qd]
;W[rb]
;B[lc]
;W[lb]
;B[re]
;W[sc]
;B[qf]
;W[rf]
;B[pe]
;W[se]
;B[md]
;W[kc]
;B[rg]
;W[qe]
;B[qh]
;W[sg]
;B[rh]
;W[kg]
;B[ld]
;W[nb]
;B[je]
;W[jh]
;B[nc]
;W[mb]
;B[lf]
;W[lg]
;B[ji]
;W[ii]
;B[jj]
;W[nm]
;B[ij]
;W[ig]
;B[nh]
;W[ng]
;B[id]
;W[hi]
;B[hj]
;W[gi]
;B[fk]
;W[ei]
;B[dk]
;W[eq]
;B[pb]
;W[qb]
;B[ci]
;W[mj]
;B[mi]
;W[ff]
;B[ib]
;W[ob]
;B[hp]
;W[cm]
;B[df]
;W[he]
;B[er]
;W[fr]
;B[fq]
;W[dr]
;B[ep]
;W[dq]
;B[gr]
;W[es]
;B[mo]
;W[qm]
;B[on]
;W[oj]
;B[oi]
;W[rr]
;B[kp]
;W[kq]
;B[ml]
;W[mm]
;B[ol]
;W[om]
;B[pl]
;W[pm]
;B[ql]
;W[rl]
;B[nl]
;W[rn]
;B[lo]
;W[qk]
;B[ll]
;W[ro]
;B[lm]
;W[rp]
;B[eg]
;W[fd]
;B[fc]
;W[dh]
;B[eh]
;W[ee]
;B[dd]
;W[di]
;B[fi]
;W[fj]
;B[fh]
;W[gj]
;B[pc]
;W[pa]
;B[ej]
;W[ne]
;B[nd]
;W[ke]
;B[kf]
;W[jf]
;B[if]
;W[jg]
;B[kd]
;W[ie]
;B[jd]
;W[dj]
;B[ek]
;W[cj]
;B[gg]
;W[hg]
;B[gf]
;W[hf]
;B[bl]
;W[cf]
;B[bf]
;W[bg]
;B[ce]
;W[cg]
;B[gk]
;W[gh]
;B[ge]
;W[gd]
;B[fg]
;W[bk]
;B[cl]
;W[hd]
;B[be]
;W[fe]
;B[de]
;W[bi]
;B[qp]
;W[gc]
;B[gb]
;W[ic]
;B[hb]
;W[jb]
;B[ja]
;W[kb]
;B[sp]
;W[so]
;B[sq]
;W[sj]
;B[oe]
;W[fb]
;B[ec]
;W[jp]
;B[jo]
;W[lp]
;B[ko]
;W[ia]
;B[ha]
;W[fp]
;B[fo]
;W[gq]
;B[hq]
;W[hr]
;B[gp]
;W[gs]
;B[ok]
;W[iq]
;B[ip]
;W[jq]
;B[do]
;W[co]
;B[dm]
;W[dn]
;B[en]
;W[cn]
;B[ao]
;W[em]
;B[fm]
;W[pj]
;B[nj]
;W[dl]
;B[ck]
;W[ak]
;B[am]
;W[dp]
;B[bq]
;W[eo]
;B[fn]
;W[bo]
;B[an]
;W[br]
;B[re]
;W[sf]
;B[sh]
;W[qe]
;B[qj]
;W[rk]
;B[re]
;W[sd]
;B[sr]
;W[ar]
;B[rs]
;W[pr]
;B[qn]
;W[rm]
;B[ap]
;W[mf]
;B[le]
;W[af]
;B[ae]
;W[ag]
;B[cq]
;W[cr]
;B[el]
;W[dm]
;B[ki]
;W[mn]
;B[ln]
;W[pn]
;B[nf]
;W[of]
;B[eb]
;W[ka]
;B[fa]
;W[qs]
;B[oo]
;W[ss]
;B[qe]
;W[rs]
;B[ne])