(;US[JBvR]CP[My Friday Night Files, 2002]AP[SGFcv.py:0.3]GM[1]FF[4]RO[2]
PB[Cho Chikun]
PW[Kudo Norio]
WR[9 dan]
KM[5.5]
DT[1982-06-24]
RE[B+1.5]
SO[1983 Kidoyearbook]
BR[9 dan]
EV[Tengen, 8th]

;B[qd]
;W[dd]
;B[oc]
;W[cq]
;B[pq]
;W[po]
;B[qo]
;W[qn]
;B[qp]
;W[pm]
;B[nq]
;W[qi]
;B[cf]
;W[fc]
;B[bd]
;W[cc]
;B[ci]
;W[qf]
;B[co]
;W[eq]
;B[eo]
;W[gq]
;B[bq]
;W[br]
;B[cp]
;W[dq]
;B[dk]
;W[ic]
;B[nl]
;W[pk]
;B[on]
;W[pn]
;B[ef]
;W[em]
;B[go]
;W[dl]
;B[ek]
;W[gm]
;B[hq]
;W[hr]
;B[iq]
;W[gp]
;B[ho]
;W[im]
;B[hl]
;W[hm]
;B[jo]
;W[op]
;B[np]
;W[jn]
;B[ko]
;W[oq]
;B[or]
;W[pr]
;B[qr]
;W[no]
;B[gr]
;W[fr]
;B[mo]
;W[mn]
;B[nn]
;W[oo]
;B[lo]
;W[dn]
;B[cl]
;W[cm]
;B[bl]
;W[do]
;B[bm]
;W[lm]
;B[km]
;W[kl]
;B[jl]
;W[io]
;B[ip]
;W[kn]
;B[ln]
;W[mm]
;B[jm]
;W[in]
;B[ll]
;W[hp]
;B[kq]
;W[jk]
;B[il]
;W[ml]
;B[kk]
;W[mk]
;B[lj]
;W[gl]
;B[dp]
;W[ep]
;B[cn]
;W[gk]
;B[hj]
;W[dm]
;B[el]
;W[fn]
;B[mj]
;W[nk]
;B[gj]
;W[fe]
;B[ee]
;W[ed]
;B[ff]
;W[he]
;B[hf]
;W[if]
;B[ge]
;W[gd]
;B[gf]
;W[ie]
;B[ig]
;W[jg]
;B[jh]
;W[mc]
;B[re]
;W[rf]
;B[nb]
;W[mb]
;B[kg]
;W[jf]
;B[lh]
;W[bc]
;B[sf]
;W[sg]
;B[se]
;W[rh]
;B[ma]
;W[la]
;B[na]
;W[kb]
;B[ro]
;W[bp]
;B[bo]
;W[aq]
;B[ce]
;W[is]
;B[jr]
;W[pd]
;B[pc]
;W[nc]
;B[pb]
;W[od]
;B[rc]
;W[nh]
;B[le]
;W[ne]
;B[rm]
;W[rn]
;B[sn]
;W[rl]
;B[sl]
;W[qm]
;B[sm]
;W[rk]
;B[nj]
;W[oj]
;B[ni]
;W[oi]
;B[mh]
;W[cd]
;B[be]
;W[ao]
;B[bn]
;W[ng]
;B[kd]
;W[js]
;B[ir]
;W[gs]
;B[ks]
;W[hs]
;B[ps]
;W[sk]
;B[so]
;W[lk]
;B[hk]
;W[fo]
;B[lc]
;W[lb]
;B[jd]
;W[ac]
;B[fd]
;W[ih]
;B[hg]
;W[fe]
;B[qe]
;W[pe]
;B[fd]
;W[id]
;B[jc]
;W[jb]
;B[fe]
;W[gc]
;B[mf]
;W[md]
;B[ld]
;W[mg]
;B[lg]
;W[de]
;B[df]
;W[ad]
;B[kl]
;W[ae]
;B[af]
;W[fk]
;B[fj]
;W[fl]
;B[nf]
;W[of]
;B[an]
;W[ap]C[time used:

W 5h 56m
B 5h 49m])