(;US[JBvR]CP[My Friday Night Files, 2002]AP[SGFcv.py:0.3]GM[1]FF[4]BR[9 dan]
PW[Cho Chikun]
WR[Meijin]
KM[5.5]
DT[1982-05-31]
RE[W+2.5]
SO[1983 Kidoyearbook]
PB[Kobayashi Koichi]
EV[Gosei, 7th]
RO[Challenger's final game 1]

;B[qd]
;W[cc]
;B[pq]
;W[po]
;B[qo]
;W[qn]
;B[qp]
;W[oc]
;B[ld]
;W[pm]
;B[nq]
;W[qi]
;B[qg]
;W[jc]
;B[lb]
;W[pf]
;B[qf]
;W[qc]
;B[rc]
;W[pd]
;B[qb]
;W[qe]
;B[pc]
;W[rd]
;B[qc]
;W[rf]
;B[od]
;W[pe]
;B[nd]
;W[fd]
;B[cp]
;W[eq]
;B[hp]
;W[cn]
;B[do]
;W[dn]
;B[en]
;W[em]
;B[eo]
;W[dl]
;B[dr]
;W[ch]
;B[de]
;W[ed]
;B[cd]
;W[bc]
;B[eg]
;W[gg]
;B[fh]
;W[hi]
;B[fj]
;W[dj]
;B[gk]
;W[gm]
;B[ik]
;W[hr]
;B[hq]
;W[ir]
;B[fq]
;W[fr]
;B[er]
;W[gq]
;B[fp]
;W[lq]
;B[hc]
;W[kd]
;B[he]
;W[kf]
;B[if]
;W[le]
;B[lc]
;W[nf]
;B[nl]
;W[ok]
;B[fb]
;W[eb]
;B[fc]
;W[ec]
;B[jh]
;W[mq]
;B[np]
;W[ff]
;B[lh]
;W[nh]
;B[nk]
;W[oj]
;B[bo]
;W[bn]
;B[on]
;W[mr]
;B[gp]
;W[gr]
;B[pn]
;W[qm]
;B[jq]
;W[jr]
;B[lo]
;W[im]
;B[jm]
;W[cf]
;B[ef]
;W[gd]
;B[ic]
;W[jb]
;B[je]
;W[ke]
;B[jg]
;W[hg]
;B[of]
;W[pg]
;B[oe]
;W[md]
;B[nc]
;W[ng]
;B[di]
;W[ci]
;B[ek]
;W[fl]
;B[dk]
;W[ck]
;B[ej]
;W[cj]
;B[mi]
;W[jn]
;B[jl]
;W[gj]
;B[hj]
;W[gi]
;B[fk]
;W[dh]
;B[fi]
;W[ii]
;B[jj]
;W[dq]
;B[cr]
;W[om]
;B[nm]
;W[nj]
;B[mj]
;W[ko]
;B[ln]
;W[ji]
;B[ki]
;W[bq]
;B[bp]
;W[or]
;B[nr]
;W[ns]
;B[oq]
;W[bd]
;B[an]
;W[am]
;B[ao]
;W[bl]
;B[rn]
;W[rm]
;B[so]
;W[ps]
;B[sm]
;W[rl]
;B[sl]
;W[sk]
;B[sn]
;W[rk]
;B[pr]
;W[os]
;B[qs]
;W[ms]
;B[me]
;W[mf]
;B[sd]
;W[re]
;B[qr]
;W[gc]
;B[gb]
;W[jd]
;B[ie]
;W[fa]
;B[ib]
;W[ga]
;B[hb]
;W[ne]
;B[ce]
;W[be]
;B[ol]
;W[pl]
;B[kq]
;W[kr]
;B[kn]
;W[jo]
;B[ip]
;W[hn]
;B[fn]
;W[el]
;B[mc]
;W[ka]
;B[la]
;W[cq]
;B[br]
;W[es]
;B[aq]
;W[se]
;B[sc]
;W[ij]
;B[hk]
;W[kj]
;B[jk]
;W[mh]
;B[lg]
;W[kg]
;B[kh]
;W[go]
;B[dg]
;W[cg]
;B[me]
;W[lf]
;B[dd]
;W[dc]
;B[og]
;W[oh]
;B[ni]
;W[oi]
;B[ds]
;W[mp]
;B[ge]
;W[fe]
;B[mo]
;W[fs]
;B[fo]
;W[ei]
;B[eh]
;W[di]
;B[md]C[time used:

W 4h 59m
B 4h 59m])