(;US[JBvR]SO[Cho Chikun Internet Book]CP[My Friday Night Files, 2002]AP[SGFcv.py:0.3]GM[1]FF[4]PW[Cho Chikun]
PB[Kobayashi Koichi]
DT[1982-07-21,22]
RE[W+R]
KM[5.5]
EV[Honinbo, 37th, title]
RO[6]
BR[9d]
WR[Meijin]

;B[qd]
;W[cc]
;B[pq]
;W[cq]
;B[oc]
;W[qo]
;B[qm]
;W[op]
;B[pp]
;W[po]
;B[oo]
;W[on]
;B[no]
;W[pm]
;B[pl]
;W[ol]
;B[pk]
;W[ok]
;B[pj]
;W[oj]
;B[pi]
;W[or]
;B[rq]
;W[np]
;B[mo]
;W[mp]
;B[nm]
;W[om]
;B[qn]
;W[pn]
;B[ro]
;W[lo]
;B[mn]
;W[qp]
;B[qq]
;W[ko]
;B[lm]
;W[oi]
;B[ph]
;W[kj]
;B[kl]
;W[oh]
;B[og]
;W[ng]
;B[il]
;W[ho]
;B[lq]
;W[lp]
;B[mh]
;W[mj]
;B[gl]
;W[rp]
;B[sp]
;W[jk]
;B[im]
;W[hq]
;B[hj]
;W[of]
;B[pg]
;W[mg]
;B[df]
;W[fc]
;B[cp]
;W[dp]
;B[co]
;W[do]
;B[bq]
;W[dq]
;B[cm]
;W[dn]
;B[dm]
;W[bf]
;B[ed]
;W[ec]
;B[be]
;W[cn]
;B[bn]
;W[bm]
;B[bl]
;W[ce]
;B[cf]
;W[bd]
;B[bg]
;W[bo]
;B[am]
;W[bp]
;B[md]
;W[ih]
;B[kd]
;W[ae]
;B[ch]
;W[lg]
;B[pf]
;W[oq]
;B[pr]
;W[rn]
;B[so]
;W[ps]
;B[qs]
;W[os]
;B[rm]
;W[jc]
;B[kc]
;W[kb]
;B[lb]
;W[gh]
;B[hc]
;W[ib]
;B[ig]
;W[jg]
;B[if]
;W[hb]
;B[ii]
;W[jh]
;B[gc]
;W[gb]
;B[fn]
;W[fi]
;B[gi]
;W[fg]
;B[hh]
;W[hg]
;B[hf]
;W[hi]
;B[ip]
;W[gj]
;B[jq]
;W[io]
;B[hp]
;W[gp]
;B[gq]
;W[gr]
;B[fq]
;W[fp]
;B[hr]
;W[fr]
;B[mr]
;W[kr]
;B[kq]
;W[gn]
;B[hs]
;W[eq]
;B[jr]
;W[iq]
;B[jp]
;W[jo]
;B[ir]
;W[el]
;B[ek]
;W[fk]
;B[fl]
;W[em])