(;US[JBvR]SO[Cho Chikun Internet Book]CP[My Friday Night Files, 2002]AP[SGFcv.py:0.3]GM[1]FF[4]PW[Cho Chikun]
PB[Kobayashi Koichi]
DT[1990-06-07,08]
RE[B+0.5]
KM[5.5]
RO[3]
BR[9d]
WR[9d]
EV[Honinbo, 45th, match]

;B[pd]
;W[dd]
;B[pq]
;W[cp]
;B[eq]
;W[po]
;B[pl]
;W[mp]
;B[oo]
;W[on]
;B[no]
;W[pp]
;B[nq]
;W[qq]
;B[oq]
;W[nn]
;B[mo]
;W[qr]
;B[dn]
;W[ol]
;B[ok]
;W[nl]
;B[qm]
;W[qn]
;B[rn]
;W[ro]
;B[pm]
;W[pn]
;B[jp]
;W[qi]
;B[qg]
;W[oi]
;B[nk]
;W[mk]
;B[nj]
;W[qf]
;B[pg]
;W[pf]
;B[rf]
;W[pk]
;B[pj]
;W[qk]
;B[qj]
;W[rk]
;B[oj]
;W[re]
;B[rh]
;W[sf]
;B[rg]
;W[rj]
;B[ri]
;W[qd]
;B[of]
;W[pc]
;B[dp]
;W[oe]
;B[rl]
;W[nf]
;B[og]
;W[od]
;B[co]
;W[ic]
;B[cf]
;W[mj]
;B[ni]
;W[mi]
;B[nh]
;W[mh]
;B[ng]
;W[mg]
;B[ef]
;W[fd]
;B[gf]
;W[ce]
;B[bf]
;W[dj]
;B[he]
;W[hd]
;B[fj]
;W[dl]
;B[ek]
;W[ch]
;B[dk]
;W[ck]
;B[cl]
;W[bl]
;B[cj]
;W[cm]
;B[bj]
;W[el]
;B[fl]
;W[fm]
;B[em]
;W[cn]
;B[do]
;W[dm]
;B[en]
;W[bk]
;B[bn]
;W[bm]
;B[di]
;W[bo]
;B[bp]
;W[an]
;B[jn]
;W[ie]
;B[if]
;W[jf]
;B[je]
;W[id]
;B[jg]
;W[kf]
;B[jk]
;W[sn]
;B[rm]
;W[df]
;B[dg]
;W[de]
;B[cg]
;W[kn]
;B[km]
;W[ln]
;B[ko]
;W[lo]
;B[lp]
;W[kl]
;B[jm]
;W[jl]
;B[il]
;W[ik]
;B[hk]
;W[ij]
;B[hj]
;W[lq]
;B[kp]
;W[be]
;B[ih]
;W[mq]
;B[kr]
;W[mn]
;B[nr]
;W[op]
;B[np]
;W[cq]
;B[bq]
;W[cr]
;B[br]
;W[ar]
;B[dr]
;W[ap]
;B[kg]
;W[lg]
;B[cs]
;W[pr]
;B[ls]
;W[hl]
;B[im]
;W[ji]
;B[lf]
;W[ke]
;B[mf]
;W[ne]
;B[kj]
;W[aq]
;B[dq]
;W[om]
;B[sk]
;W[sj]
;B[sl]
;W[aj]
;B[ai]
;W[bi]
;B[ak]
;W[ah]
;B[aj]
;W[af]
;B[ki]
;W[kk]
;B[jj]
;W[ge]
;B[hf]
;W[kh]
;B[jh]
;W[ee]
;B[eg]
;W[li]
;B[lh]
;W[so]
;B[si]
;W[kh]
;B[ii]
;W[ag]
;B[bh]
;W[bg]
;B[ci]
;W[bh]
;B[dh]
;W[ae]
;B[lm]
;W[ml]
;B[al]
;W[am]
;B[ff]
;W[mm]
;B[fe]
;W[gd]
;B[sg]
;W[se]
;B[os]
;W[ps])