(;CP[My Friday Night Files, 2002]AP[SGFcv.py:0.3]GM[1]FF[4]DT[1990-03-15]
PB[Cho Chikun]
BR[9 dan]
PW[Yamashiro Hiroshi]
WR[9 dan]
KM[5.5]
RE[W+R]
US[JBvR]
SO[China Database]
EV[16th Tengen]
RO[Round 1]

;B[pd]
;W[dd]
;B[pq]
;W[dp]
;B[fq]
;W[cn]
;B[jp]
;W[qn]
;B[po]
;W[rp]
;B[ql]
;W[pn]
;B[qo]
;W[ro]
;B[qq]
;W[nn]
;B[rm]
;W[rn]
;B[mp]
;W[pl]
;B[pk]
;W[qk]
;B[ol]
;W[pm]
;B[qj]
;W[rk]
;B[rj]
;W[rl]
;B[sk]
;W[qm]
;B[jd]
;W[qc]
;B[pc]
;W[qd]
;B[qe]
;W[re]
;B[qf]
;W[rf]
;B[qg]
;W[pb]
;B[ob]
;W[qb]
;B[nc]
;W[fc]
;B[fo]
;W[dq]
;B[er]
;W[lp]
;B[mo]
;W[kp]
;B[jo]
;W[kn]
;B[ko]
;W[lo]
;B[ln]
;W[mn]
;B[lm]
;W[mq]
;B[oo]
;W[jq]
;B[nq]
;W[lr]
;B[iq]
;W[jr]
;B[mr]
;W[lq]
;B[dm]
;W[cm]
;B[dl]
;W[ml]
;B[cl]
;W[dr]
;B[ll]
;W[np]
;B[nr]
;W[no]
;B[rq]
;W[lk]
;B[mk]
;W[mj]
;B[nk]
;W[kk]
;B[jm]
;W[li]
;B[cf]
;W[df]
;B[dg]
;W[ce]
;B[ef]
;W[de]
;B[cg]
;W[hc]
;B[jj]
;W[eg]
;B[ni]
;W[ig]
;B[eh]
;W[ii]
;B[ji]
;W[pj]
;B[pi]
;W[fg]
;B[fh]
;W[gg]
;B[kg]
;W[ij]
;B[jh]
;W[jl]
;B[do]
;W[co]
;B[kl]
;W[mm]
;B[km]
;W[im]
;B[jn]
;W[di]
;B[ik]
;W[dh]
;B[bi]
;W[hk]
;B[hl]
;W[gk]
;B[ic]
;W[jk]
;B[il]
;W[gm]
;B[hm]
;W[hn]
;B[in]
;W[gl]
;B[im]
;W[ok]
;B[oj]
;W[ie]
;B[je]
;W[jf]
;B[kf]
;W[ib]
;B[ih]
;W[hh]
;B[hd]
;W[hb]
;B[hf]
;W[hg]
;B[jb]
;W[ej]
;B[cj]
;W[pk]
;B[nj]
;W[id]
;B[jc]
;W[if]
;B[bf]
;W[be]
;B[ae]
;W[ad]
;B[af]
;W[bd]
;B[rg]
;W[hq]
;B[ir]
;W[hr]
;B[hp]
;W[is]
;B[ip]
;W[bm]
;B[ek]
;W[fk]
;B[dj]
;W[ei]
;B[bl]
;W[el]
;B[dk]
;W[ja]
;B[ka]
;W[ia]
;B[sf]
;W[rd]
;B[rb]
;W[ra]
;B[kb]
;W[gn]
;B[gq]
;W[ds]
;B[dn]
;W[sq]
;B[sr]
;W[sp]
;B[am]
;W[an]
;B[al]
;W[bp])