(;CP[My Friday Night Files, 2002]AP[SGFcv.py:0.3]GM[1]FF[4]DT[1990-02-01]
PB[Yamashiro Hiroshi]
BR[9 dan]
PW[Cho Chikun]
WR[9 dan]
KM[5.5]
RE[W+R]
US[JBvR]
SO[China Database]
EV[15th Gosei]
RO[Round 2]

;B[pd]
;W[dp]
;B[qp]
;W[dd]
;B[fq]
;W[op]
;B[mq]
;W[qq]
;B[pq]
;W[pp]
;B[oq]
;W[nq]
;B[np]
;W[nr]
;B[qr]
;W[rq]
;B[or]
;W[qo]
;B[rr]
;W[os]
;B[pr]
;W[mr]
;B[lq]
;W[lr]
;B[kq]
;W[kr]
;B[rp]
;W[ro]
;B[sq]
;W[no]
;B[mp]
;W[jq]
;B[mo]
;W[nn]
;B[mn]
;W[nm]
;B[mm]
;W[nl]
;B[iq]
;W[jp]
;B[ir]
;W[jr]
;B[ml]
;W[nk]
;B[mk]
;W[ip]
;B[eo]
;W[cn]
;B[dq]
;W[ep]
;B[fp]
;W[cq]
;B[in]
;W[hn]
;B[ho]
;W[hq]
;B[hm]
;W[gr]
;B[eq]
;W[cp]
;B[dm]
;W[cm]
;B[nj]
;W[oj]
;B[ni]
;W[oi]
;B[oh]
;W[ph]
;B[pg]
;W[qh]
;B[qg]
;W[rg]
;B[og]
;W[jc]
;B[ie]
;W[hd]
;B[he]
;W[gd]
;B[kd]
;W[kc]
;B[ld]
;W[en]
;B[fn]
;W[ce]
;B[ge]
;W[fd]
;B[qj]
;W[pk]
;B[pi]
;W[rh]
;B[qk]
;W[ql]
;B[rl]
;W[rm]
;B[rj]
;W[qm]
;B[pj]
;W[ok]
;B[rf]
;W[mc]
;B[ei]
;W[eg]
;B[fh]
;W[md]
;B[me]
;W[re]
;B[qf]
;W[sf]
;B[rd]
;W[sk]
;B[dl]
;W[fg]
;B[gg]
;W[di]
;B[dj]
;W[eh]
;B[fi]
;W[ci]
;B[bj]
;W[bi]
;B[oc]
;W[jd]
;B[je]
;W[do]
;B[fo]
;W[nb])