(;US[JBvR]SO[Cho Chikun Internet Book]CP[My Friday Night Files, 2002]AP[SGFcv.py:0.3]GM[1]FF[4]RO[League, 18]
PB[Awaji Shuzo]
PW[Cho Chikun]
KM[5.5]
DT[1990-04-12]
RE[B+R]
EV[Meijin, 15th]

;B[pd]
;W[dp]
;B[pp]
;W[dd]
;B[pj]
;W[dj]
;B[jp]
;W[jd]
;B[md]
;W[hq]
;B[ho]
;W[fq]
;B[fc]
;W[ec]
;B[fd]
;W[df]
;B[hd]
;W[jf]
;B[gg]
;W[ig]
;B[hi]
;W[ji]
;B[kg]
;W[kf]
;B[mg]
;W[mf]
;B[ng]
;W[eg]
;B[hg]
;W[lg]
;B[lh]
;W[lf]
;B[oe]
;W[kh]
;B[li]
;W[jk]
;B[kl]
;W[qc]
;B[qd]
;W[ff]
;B[ge]
;W[ie]
;B[he]
;W[ic]
;B[fj]
;W[kn]
;B[jl]
;W[in]
;B[hp]
;W[il]
;B[ik]
;W[ij]
;B[hk]
;W[hj]
;B[gj]
;W[gk]
;B[hl]
;W[fk]
;B[jh]
;W[jg]
;B[ih]
;W[ki]
;B[kk]
;W[ej]
;B[ee]
;W[de]
;B[fg]
;W[ii]
;B[ef]
;W[ed]
;B[fe]
;W[hh]
;B[hn]
;W[lj]
;B[kj]
;W[nf]
;B[og]
;W[of]
;B[pg]
;W[pf]
;B[qf]
;W[qq]
;B[qp]
;W[pq]
;B[oq]
;W[or]
;B[nq]
;W[nr]
;B[mq]
;W[rp]
;B[ro]
;W[rq]
;B[qn]
;W[gc]
;B[hc]
;W[gb]
;B[hb]
;W[ib]
;B[fb]
;W[ha]
;B[cb]
;W[eb]
;B[ea]
;W[ga]
;B[fa]
;W[bc]
;B[bb]
;W[ab]
;B[dg]
;W[cg]
;B[dh]
;W[fh]
;B[gh]
;W[fi]
;B[ch]
;W[bg]
;B[gi]
;W[ei]
;B[bh]
;W[eh]
;B[be]
;W[cc]
;B[ag]
;W[cf]
;B[ck]
;W[cj]
;B[bj]
;W[bi]
;B[ek])