(;SO[Cho Chikun Internet Book]CP[My Friday Night Files, 2002]AP[SGFcv.py:0.3]GM[1]FF[4]PW[Yoda Norimoto]
WR[8d]
PB[Cho Chikun]
BR[9d]
RO[Winners' Section Final]
DT[1990-11-08]
KM[5.5]
RE[B+3.5]
US[JBvR]
EV[Judan, 29th]

;B[pd]
;W[dp]
;B[pp]
;W[dd]
;B[fq]
;W[dn]
;B[dr]
;W[hq]
;B[cq]
;W[eq]
;B[er]
;W[fp]
;B[gp]
;W[gq]
;B[fr]
;W[go]
;B[pj]
;W[hp]
;B[fc]
;W[bp]
;B[bq]
;W[df]
;B[jd]
;W[di]
;B[oc]
;W[qf]
;B[qe]
;W[pf]
;B[nf]
;W[ph]
;B[ni]
;W[oe]
;B[md]
;W[od]
;B[pc]
;W[me]
;B[ld]
;W[ng]
;B[pn]
;W[fd]
;B[eb]
;W[db]
;B[gd]
;W[ec]
;B[fb]
;W[ge]
;B[cc]
;W[dc]
;B[fe]
;W[ff]
;B[ed]
;W[ee]
;B[fd]
;W[he]
;B[hd]
;W[cd]
;B[qi]
;W[mg]
;B[lf]
;W[lg]
;B[li]
;W[kf]
;B[ie]
;W[nd]
;B[nc]
;W[mj]
;B[mi]
;W[mm]
;B[lp]
;W[pl]
;B[nl]
;W[om]
;B[oq]
;W[on]
;B[qn]
;W[mo]
;B[mp]
;W[ml]
;B[ql]
;W[pk]
;B[qk]
;W[oj]
;B[gf]
;W[hf]
;B[jg]
;W[hg]
;B[ji]
;W[hj]
;B[oi]
;W[le]
;B[ik]
;W[kn]
;B[hi]
;W[gi]
;B[ij]
;W[hk]
;B[hl]
;W[il]
;B[gj]
;W[gk]
;B[gh]
;W[fi]
;B[hh]
;W[gg]
;B[fh]
;W[eh]
;B[bo]
;W[bn]
;B[co]
;W[cp]
;B[fj]
;W[ei]
;B[hm]
;W[im]
;B[cn]
;W[aq]
;B[ck]
;W[fk]
;B[bm]
;W[br]
;B[jq]
;W[bj]
;B[dm]
;W[ir]
;B[jr]
;W[np]
;B[nq]
;W[bk]
;B[do]
;W[eo]
;B[en]
;W[fm]
;B[fn]
;W[gn]
;B[em]
;W[el]
;B[fg]
;W[ef]
;B[da]
;W[ca]
;B[ea]
;W[cb]
;B[dk]
;W[ej]
;B[cj]
;W[ci]
;B[jo]
;W[in]
;B[fo]
;W[ep]
;B[qh]
;W[rf]
;B[rd]
;W[cl]
;B[dl]
;W[bl]
;B[cm]
;W[js]
;B[ks]
;W[is]
;B[lr]
;W[nj]
;B[oh]
;W[mf]
;B[og]
;W[of]
;B[iq]
;W[hr]
;B[bi]
;W[bh]
;B[io]
;W[jn]
;B[rg]
;W[pg]
;B[ig]
;W[pi]
;B[qj]
;W[kj]
;B[lj]
;W[lk]
;B[ke]
;W[ki]
;B[kh]
;W[jk]
;B[jj]
;W[kk]
;B[lh]
;W[kg]
;B[pm]
;W[nm]
;B[lo]
;W[re]
;B[sd]
;W[al]
;B[ao]
;W[ap]
;B[ln]
;W[am]
;B[an]
;W[lm]
;B[if]
;W[gf]
;B[ek]
;W[fl]
;B[ho]
;W[hn]
;B[oo]
;W[no]
;B[mn]
;W[nn]
;B[op]
;W[ko]
;B[kp]
;W[ip]
;B[jp]
;W[jf]
;B[je]
;W[qg]
;B[sg]
;W[pe]
;B[qd]
;W[sf]
;B[rh]
;W[eg]
;B[jh])