(;US[JBvR]SO[Cho Chikun Internet Book]CP[My Friday Night Files, 2002]AP[SGFcv.py:0.3]GM[1]FF[4]DT[1981-06-03,04]
RE[B+R]
PB[Cho Chikun]
PW[Takemiya Masaki]
KM[5.5]
EV[Honinbo, 36th, title]
RO[2]
BR[9d]
WR[9d]

;B[qd]
;W[dd]
;B[pq]
;W[oc]
;B[cp]
;W[po]
;B[ld]
;W[nd]
;B[pf]
;W[nf]
;B[pb]
;W[pg]
;B[qg]
;W[qh]
;B[ph]
;W[og]
;B[qi]
;W[rh]
;B[rg]
;W[ri]
;B[qj]
;W[pi]
;B[oh]
;W[nh]
;B[oi]
;W[oj]
;B[ni]
;W[pj]
;B[mh]
;W[qk]
;B[ne]
;W[nj]
;B[mi]
;W[me]
;B[oe]
;W[md]
;B[mf]
;W[jd]
;B[fc]
;W[ec]
;B[jc]
;W[kd]
;B[fd]
;W[ic]
;B[df]
;W[ee]
;B[ed]
;W[de]
;B[dc]
;W[cc]
;B[eb]
;W[cb]
;B[hc]
;W[id]
;B[ib]
;W[jb]
;B[cf]
;W[ef]
;B[eg]
;W[fg]
;B[eh]
;W[mg]
;B[lf]
;W[lg]
;B[ng]
;W[ch]
;B[be]
;W[bd]
;B[kf]
;W[cj]
;B[bi]
;W[ci]
;B[cg]
;W[gf]
;B[fh]
;W[gh]
;B[gi]
;W[hh]
;B[bh]
;W[dn]
;B[ep]
;W[co]
;B[bp]
;W[ej]
;B[bj]
;W[fi]
;B[ck]
;W[dk]
;B[cl]
;W[dl]
;B[qp]
;W[qo]
;B[hq]
;W[hb]
;B[gb]
;W[ia]
;B[db]
;W[nr]
;B[ro]
;W[rn]
;B[rp]
;W[pr]
;B[oq]
;W[or]
;B[qr]
;W[mp]
;B[oo]
;W[on]
;B[no]
;W[jq]
;B[iq]
;W[jp]
;B[ho]
;W[hn]
;B[io]
;W[eo]
;B[dp]
;W[hd]
;B[gc]
;W[kg]
;B[of]
;W[pc]
;B[qc]
;W[ki]
;B[gn]
;W[gm]
;B[fn]
;W[fm]
;B[jr]
;W[kr]
;B[ir]
;W[lo]
;B[nn]
;W[om]
;B[nq]
;W[mr]
;B[in]
;W[hm]
;B[ks]
;W[lr]
;B[sn]
;W[rm]
;B[qn]
;W[qm]
;B[pp]
;W[pn]
;B[jg]
;W[np]
;B[rr]
;W[jh]
;B[kh]
;W[lh]
;B[li]
;W[kh]
;B[ob]
;W[nb]
;B[jf]
;W[qb]
;B[rb]
;W[bm]
;B[ce]
;W[cd]
;B[ei]
;W[fj]
;B[kj]
;W[ii]
;B[le]
;W[lc]
;B[en]
;W[em]
;B[do]
;W[cm]
;B[ak]
;W[bo]
;B[lk]
;W[ap]
;B[aq]
;W[ao]
;B[bq]
;W[jj]
;B[jk]
;W[ik]
;B[jl]
;W[al]
;B[bk]
;W[ml]
;B[il]
;W[hl]
;B[ig]
;W[ih]
;B[mq]
;W[lq]
;B[sh]
;W[rj]
;B[mk])