(;US[JBvR]CP[My Friday Night Files, 2002]AP[SGFcv.py:0.3]GM[1]FF[4]PW[Cho Chikun]
WR[8 dan]
PB[Hashimoto Shoji]
BR[9 dan]
DT[1981-04-16]
RO[22]
KM[5.5]
RE[W+R]
SO[1982Kido yearbook]
EV[Honinbo, 36th]

;B[qd]
;W[dd]
;B[fc]
;W[cf]
;B[pq]
;W[od]
;B[mc]
;W[qc]
;B[pc]
;W[pd]
;B[oc]
;W[nc]
;B[nd]
;W[nb]
;B[qb]
;W[rc]
;B[ob]
;W[qe]
;B[mb]
;W[ne]
;B[md]
;W[qo]
;B[dp]
;W[np]
;B[op]
;W[oo]
;B[po]
;W[pn]
;B[pp]
;W[on]
;B[qn]
;W[ro]
;B[rn]
;W[ql]
;B[rp]
;W[qm]
;B[so]
;W[of]
;B[mp]
;W[nq]
;B[no]
;W[mq]
;B[pm]
;W[nm]
;B[mo]
;W[kq]
;B[pl]
;W[pk]
;B[ol]
;W[rm]
;B[qp]
;W[pj]
;B[ok]
;W[ml]
;B[oj]
;W[pi]
;B[oi]
;W[kl]
;B[ph]
;W[qh]
;B[qi]
;W[rk]
;B[rh]
;W[qg]
;B[rj]
;W[qk]
;B[rg]
;W[oh]
;B[pg]
;W[qf]
;B[og]
;W[nh]
;B[ng]
;W[ni]
;B[mh]
;W[mi]
;B[sm]
;W[sl]
;B[sj]
;W[lh]
;B[mg]
;W[lg]
;B[mf]
;W[me]
;B[lf]
;W[le]
;B[kf]
;W[nk]
;B[sk]
;W[sn]
;B[rf]
;W[nj]
;B[re]
;W[ke]
;B[pf]
;W[rd]
;B[pe]
;W[ie]
;B[je]
;W[jd]
;B[jf]
;W[ic]
;B[dc]
;W[cc]
;B[cb]
;W[ec]
;B[db]
;W[eb]
;B[ed]
;W[fb]
;B[cd]
;W[de]
;B[bd]
;W[if]
;B[qd]
;W[fp]
;B[dn]
;W[fn]
;B[fq]
;W[gq]
;B[er]
;W[gr]
;B[ep]
;W[fo]
;B[ck]
;W[ci]
;B[ek]
;W[gk]
;B[kd]
;W[kc]
;B[ld]
;W[co]
;B[cn]
;W[fr]
;B[eq]
;W[or]
;B[dg]
;W[cg]
;B[di]
;W[cj]
;B[dj]
;W[bk]
;B[cl]
;W[ee]
;B[fd]
;W[gc]
;B[ig]
;W[hj]
;B[ki]
;W[li]
;B[ii]
;W[kj]
;B[hk]
;W[ik]
;B[hl]
;W[gl]
;B[ij]
;W[il]
;B[hm]
;W[gi]
;B[gm]
;W[fm]
;B[fl]
;W[in]
;B[gh]
;W[fi]
;B[jk]
;W[im]
;B[kk]
;W[lk]
;B[jj]
;W[qr]
;B[pr]
;W[ps]
;B[rr]
;W[rs]
;B[qq]
;W[qs]
;B[sm]
;W[om]
;B[jb]
;W[kb]
;B[jl]
;W[jm]
;B[km]
;W[ll]
;B[hi]
;W[gj]
;B[rl]
;W[nl]
;B[oq]
;W[nr]
;B[os]
;W[ns]
;B[ka]
;W[la]
;B[gd]
;W[hd]
;B[jc]
;W[id]
;B[gb]
;W[ge]
;B[ib]
;W[ja]
;B[hc]
;W[fe]
;B[ia]
;W[ka]
;B[ha]
;W[gc]C[Time used:White 5h 59mBlack 5h 59m])