(;CP[My Friday Night Files, 2002]AP[SGFcv.py:0.3]GM[1]FF[4]RO[prelim final]
DT[1996-06-06]
PB[Yoda Norimoto]
BR[Judan]
PW[Cho Chikun]
WR[Kisei]
KM[5.5]
RE[B+R]
US[JBvR]
SO[KYB 1997]
EV[Gosei, 21st]

;B[pd]
;W[cc]
;B[pp]
;W[cq]
;B[dp]
;W[dq]
;B[ep]
;W[cp]
;B[dn]
;W[co]
;B[fm]
;W[fq]
;B[pj]
;W[nc]
;B[lc]
;W[qc]
;B[qd]
;W[pc]
;B[od]
;W[rc]
;B[nd]
;W[nb]
;B[np]
;W[md]
;B[mc]
;W[me]
;B[jd]
;W[of]
;B[qg]
;W[mg]
;B[rd]
;W[hc]
;B[mb]
;W[oc]
;B[jf]
;W[fd]
;B[sc]
;W[sb]
;B[sd]
;W[ra]
;B[lf]
;W[mf]
;B[mi]
;W[oh]
;B[pi]
;W[kg]
;B[hd]
;W[ic]
;B[jc]
;W[kf]
;B[ki]
;W[jg]
;B[id]
;W[gd]
;B[hf]
;W[ih]
;B[de]
;W[dd]
;B[ff]
;W[qp]
;B[qo]
;W[pq]
;B[oq]
;W[po]
;B[op]
;W[ro]
;B[qn]
;W[rn]
;B[qq]
;W[rp]
;B[qm]
;W[pr]
;B[qr]
;W[rr]
;B[or]
;W[rq]
;B[ij]
;W[ip]
;B[hq]
;W[iq]
;B[hr]
;W[go]
;B[eq]
;W[er]
;B[fr]
;W[fp]
;B[dr]
;W[es]
;B[fs]
;W[do]
;B[eo]
;W[en]
;B[ds]
;W[er]
;B[es]
;W[fo]
;B[er]
;W[ir]
;B[cr]
;W[br]
;B[cn]
;W[em]
;B[bo]
;W[bq]
;B[bs]
;W[bn]
;B[bm]
;W[an]
;B[am]
;W[cm]
;B[ao]
;W[bn]
;B[an]
;W[dm]
;B[bn]
;W[bl]
;B[bk]
;W[cl]
;B[al]
;W[ck]
;B[bj]
;W[cj]
;B[bi]
;W[gr]
;B[gq]
;W[ci]
;B[bh]
;W[ak]
;B[aj]
;W[as]
;B[aq]
;W[cs]
;B[gs])