(;CP[My Friday Night Files, 2002]AP[SGFcv.py:0.3]GM[1]FF[4]RO[League,16]
PB[Kataoka Satoshi]
BR[9 dan]
PW[Cho Chikun]
WR[9 dan]
KM[5.5]
DT[1996-03-21]
RE[W+R]
SO[Kido yearbook 1997]
US[JBvR]
EV[Meijin, 21st]

;B[qd]
;W[dd]
;B[pq]
;W[dp]
;B[fc]
;W[cf]
;B[kc]
;W[qn]
;B[ql]
;W[qq]
;B[qp]
;W[pp]
;B[rq]
;W[qr]
;B[po]
;W[op]
;B[qo]
;W[rr]
;B[no]
;W[oo]
;B[on]
;W[oq]
;B[pn]
;W[qf]
;B[pe]
;W[pf]
;B[qh]
;W[ph]
;B[qi]
;W[oe]
;B[od]
;W[nd]
;B[ne]
;W[of]
;B[md]
;W[nc]
;B[oc]
;W[mc]
;B[me]
;W[lc]
;B[kd]
;W[kb]
;B[jb]
;W[ob]
;B[pb]
;W[mb]
;B[qb]
;W[jc]
;B[ka]
;W[lb]
;B[ic]
;W[ld]
;B[jd]
;W[le]
;B[mf]
;W[lg]
;B[cn]
;W[fq]
;B[ch]
;W[ec]
;B[fd]
;W[ef]
;B[eh]
;W[fb]
;B[gb]
;W[eb]
;B[bp]
;W[cq]
;B[en]
;W[iq]
;B[ff]
;W[fk]
;B[dk]
;W[fm]
;B[fn]
;W[hm]
;B[hp]
;W[hq]
;B[fp]
;W[gq]
;B[jo]
;W[ik]
;B[kk]
;W[ii]
;B[gj]
;W[fj]
;B[gi]
;W[jm]
;B[ki]
;W[dj]
;B[ck]
;W[lm]
;B[lo]
;W[mi]
;B[mk]
;W[fi]
;B[fh]
;W[jf]
;B[ih]
;W[gk]
;B[hi]
;W[lj]
;B[kj]
;W[kl]
;B[mh]
;W[lh]
;B[ni]
;W[mg]
;B[li]
;W[nh]
;B[jk]
;W[ij]
;B[jl]
;W[il]
;B[jh]
;W[ho]
;B[in]
;W[gp]
;B[nq]
;W[or]
;B[im]
;W[re]
;B[rd]
;W[pj]
;B[qk]
;W[ok]
;B[mj]
;W[oi]
;B[nl]
;W[hb]
;B[kf]
;W[ke]
;B[kg]
;W[lf]
;B[je]
;W[hc]
;B[hd]
;W[gc]
;B[gd]
;W[bq]
;B[bg]
;W[bf]
;B[af]
;W[ae]
;B[ag]
;W[bd]
;B[ep]
;W[do]
;B[dn]
;W[eq]
;B[kq]
;W[cj]
;B[bj]
;W[bi]
;B[ci]
;W[bk]
;B[ej]
;W[aj]
;B[di]
;W[bm]
;B[gm]
;W[gn]
;B[bn]
;W[cl]
;B[bj]
;W[cj]
;B[dj]
;W[qj]
;B[rj]
;W[bh]
;B[cg]
;W[ah]
;B[bj]
;W[dl]
;B[el]
;W[cj]
;B[al]
;W[am]
;B[bj]
;W[pc]
;B[pd]
;W[cj]
;B[bl]
;W[ak]
;B[bj]
;W[sd]
;B[rc]
;W[cj]
;B[bl]
;W[cm]
;B[bj]
;W[sc]
;B[sb]
;W[cj])