(;US[JBvR]SO[Cho Chikun Internet Book]CP[My Friday Night Files, 2002]AP[SGFcv.py:0.3]GM[1]FF[4]RO[1]
PB[Inori Yoko]
BR[1 dan]
PW[Aoki Kikuyo]
WR[6 dan]
KM[5.5]
DT[1996-12-14]
RE[W+R]
EV[Rico Cup Pair Go, 2nd]

;B[pd]
;W[dp]
;B[pq]
;W[dd]
;B[qo]
;W[jp]
;B[cn]
;W[cl]
;B[cq]
;W[dq]
;B[cp]
;W[do]
;B[bn]
;W[em]
;B[cf]
;W[be]
;B[di]
;W[ef]
;B[ek]
;W[el]
;B[dk]
;W[cm]
;B[dr]
;W[er]
;B[cr]
;W[nc]
;B[lc]
;W[ne]
;B[pf]
;W[jc]
;B[le]
;W[ng]
;B[je]
;W[ph]
;B[ic]
;W[pb]
;B[qc]
;W[qb]
;B[rb]
;W[nq]
;B[lq]
;W[lp]
;B[fr]
;W[mq]
;B[eq]
;W[qm]
;B[oo]
;W[jb]
;B[jd]
;W[lb]
;B[qh]
;W[qi]
;B[qg]
;W[pi]
;B[fc]
;W[ch]
;B[dc]
;W[cc]
;B[cb]
;W[ec]
;B[db]
;W[ed]
;B[eb]
;W[gk]
;B[gi]
;W[ij]
;B[bc]
;W[dh]
;B[eh]
;W[eg]
;B[fk]
;W[fh]
;B[fl]
;W[hm]
;B[ei]
;W[bj]
;B[gh]
;W[cd]
;B[ih]
;W[pc]
;B[qd]
;W[ra]
;B[sb]
;W[pn]
;B[po]
;W[rn]
;B[ro]
;W[kc]
;B[lo]
;W[kq]
;B[pl]
;W[pm]
;B[nl]
;W[nm]
;B[ml]
;W[mm]
;B[ll]
;W[kj]
;B[mi]
;W[rj]
;B[lh]
;W[gj]
;B[fg]
;W[or]
;B[pr]
;W[rh]
;B[rg]
;W[sg]
;B[sf]
;W[sh]
;B[re]
;W[so]
;B[sp]
;W[sn]
;B[rr]
;W[bd]
;B[iq]
;W[bb]
;B[ho]
;W[ff]
;B[ba]
;W[ab]
;B[ib]
;W[gg]
;B[fj]
;W[gc]
;B[gb]
;W[fd]
;B[fb]
;W[jm]
;B[ko]
;W[ip]
;B[ci]
;W[bi]
;B[hp]
;W[ir]
;B[hq]
;W[jq]
;B[jl]
;W[il]
;B[jk]
;W[jj]
;B[in]
;W[im]
;B[lm]
;W[hn]
;B[dn]
;W[en]
;B[eo]
;W[fo]
;B[ep]
;W[hr]
;B[gr]
;W[jh]
;B[gn]
;W[gm]
;B[hg]
;W[jg]
;B[if]
;W[he]
;B[kd]
;W[mc]
;B[ld]
;W[hc]
;B[hb]
;W[go]
;B[hs]
;W[jr]
;B[qk]
;W[rk]
;B[ja]
;W[kb]
;B[od]
;W[me]
;B[nh]
;W[lg]
;B[kf]
;W[mg]
;B[io]
;W[jo]
;B[mn]
;W[jn]
;B[gq]
;W[nn]
;B[no]
;W[ql]
;B[pk]
;W[mp]
;B[mo]
;W[bm]
;B[hf]
;W[lk]
;B[kk]
;W[ik]
;B[kl]
;W[nj]
;B[mj]
;W[oj]
;B[lj]
;W[nk])