(;SO[Cho Chikun Internet Book]CP[My Friday Night Files, 2002]AP[SGFcv.py:0.3]GM[1]FF[4]RO[11, League]
PB[Takemiya Masaki]
BR[9 dan, Judan]
PW[Cho Chikun]
WR[9 dan, Honinbo]
KM[5.5]
DT[1992-02-20]
RE[W+4.5]
US[JBvR]
EV[Meijin ,17th]

;B[pd]
;W[dp]
;B[pp]
;W[dd]
;B[pj]
;W[nc]
;B[pf]
;W[kd]
;B[jp]
;W[hq]
;B[cj]
;W[ch]
;B[cn]
;W[cl]
;B[en]
;W[fp]
;B[dk]
;W[bp]
;B[fc]
;W[dl]
;B[el]
;W[ek]
;B[fl]
;W[ej]
;B[di]
;W[gk]
;B[bl]
;W[ec]
;B[fd]
;W[bk]
;B[bj]
;W[bm]
;B[bo]
;W[cp]
;B[bn]
;W[eh]
;B[ic]
;W[ci]
;B[al]
;W[ak]
;B[ck]
;W[am]
;B[bl]
;W[bi]
;B[cm]
;W[al]
;B[dm]
;W[aj]
;B[bl]
;W[cl]
;B[hm]
;W[jc]
;B[id]
;W[kf]
;B[ig]
;W[dj]
;B[dl]
;W[nq]
;B[de]
;W[ce]
;B[cf]
;W[bf]
;B[ef]
;W[bd]
;B[pq]
;W[in]
;B[mp]
;W[np]
;B[no]
;W[oo]
;B[nn]
;W[mq]
;B[lp]
;W[op]
;B[qn]
;W[on]
;B[nm]
;W[kq]
;B[kp]
;W[jr]
;B[hp]
;W[gp]
;B[ho]
;W[ne]
;B[oc]
;W[nb]
;B[ql]
;W[qc]
;B[qd]
;W[pb]
;B[nf]
;W[mf]
;B[mg]
;W[of]
;B[ng]
;W[oe]
;B[og]
;W[ed]
;B[lf]
;W[me]
;B[lg]
;W[fe]
;B[ge]
;W[gf]
;B[he]
;W[hj]
;B[ik]
;W[pe]
;B[qf]
;W[qe]
;B[re]
;W[rf]
;B[rc]
;W[rg]
;B[qh]
;W[rb]
;B[pc]
;W[qb]
;B[rh]
;W[sc]
;B[rd]
;W[ff]
;B[ij]
;W[pm]
;B[qm]
;W[pl]
;B[ok]
;W[ob]
;B[qg]
;W[jh]
;B[ih]
;W[ji]
;B[ii]
;W[jg]
;B[kj]
;W[jj]
;B[jk]
;W[fb]
;B[gb]
;W[ke]
;B[or]
;W[eb]
;B[gh]
;W[lh]
;B[li]
;W[ib]
;B[hb]
;W[ia]
;B[gi]
;W[gj]
;B[lq]
;W[lr]
;B[jq]
;W[kr]
;B[iq]
;W[ir]
;B[nr]
;W[mr]
;B[fh]
;W[ei]
;B[le]
;W[ld]
;B[eo]
;W[ep]
;B[ap]
;W[aq]
;B[ao]
;W[bq]
;B[ha]
;W[kb]
;B[kh]
;W[fn]
;B[fo]
;W[gm]
;B[gl]
;W[go]
;B[hn]
;W[ki]
;B[kg]
;W[jf]
;B[lj]
;W[pk]
;B[qk]
;W[ol]
;B[nl]
;W[gn]
;B[fg]
;W[eg]
;B[hr]
;W[gq]
;B[ms]
;W[ls]
;B[ns]
;W[po]
;B[qo]
;W[od]
;B[sg]
;W[oq]
;B[pr]
;W[do]
;B[sf]
;W[sd]
;B[hf]
;W[hi]
;B[gg]
;W[ee]
;B[hh]
;W[sb]
;B[se]
;W[ie]
;B[if]
;W[je]
;B[bl]
;W[fa]
;B[cl])