(;US[JBvR]CP[My Friday Night Files, 2002]AP[SGFcv.py:0.3]GM[1]FF[4]PB[Yu Bin]
BR[9 dan]
PW[Cho Chikun]
KM[5.5]
DT[1992-04-06]
RE[W+R]
RO[2]
SO[1993 Kidoyearbook]
WR[9 dan]
EV[Fujitsu Cup, 5th]

;B[pd]
;W[dp]
;B[qp]
;W[dc]
;B[oq]
;W[ci]
;B[gd]
;W[jd]
;B[dd]
;W[ec]
;B[ed]
;W[fd]
;B[fe]
;W[fc]
;B[cd]
;W[ge]
;B[ff]
;W[gf]
;B[cc]
;W[hd]
;B[fg]
;W[dn]
;B[nc]
;W[qk]
;B[qm]
;W[rd]
;B[qf]
;W[jq]
;B[qc]
;W[qh]
;B[rg]
;W[oo]
;B[op]
;W[qo]
;B[ro]
;W[po]
;B[rq]
;W[pm]
;B[qn]
;W[pl]
;B[ej]
;W[dk]
;B[cq]
;W[dq]
;B[bp]
;W[cp]
;B[br]
;W[bo]
;B[dr]
;W[er]
;B[ek]
;W[dl]
;B[kc]
;W[jc]
;B[rh]
;W[ap]
;B[aq]
;W[bq]
;B[jb]
;W[ib]
;B[bp]
;W[ds]
;B[cs]
;W[cr]
;B[gc]
;W[gb]
;B[dr]
;W[bq]
;B[es]
;W[cr]
;B[fr]
;W[ds]
;B[ip]
;W[iq]
;B[dr]
;W[eq]
;B[gp]
;W[hp]
;B[ho]
;W[hq]
;B[fq]
;W[go]
;B[fo]
;W[gn]
;B[fn]
;W[gm]
;B[fm]
;W[gl]
;B[fl]
;W[gj]
;B[cq]
;W[ar]
;B[fi]
;W[mo]
;B[lj]
;W[ll]
;B[mq]
;W[cf]
;B[kp]
;W[jp]
;B[df]
;W[lp]
;B[nj]
;W[qi]
;B[nn]
;W[no]
;B[nl]
;W[mm]
;B[bh]
;W[ch]
;B[bg]
;W[cg]
;B[bf]
;W[mc]
;B[nb]
;W[me]
;B[jj]
;W[pf]
;B[pe]
;W[qg]
;B[re]
;W[mi]
;B[mj]
;W[kk]
;B[kj]
;W[mb]
;B[jk]
;W[jl]
;B[il]
;W[im]
;B[md]
;W[ld]
;B[nd]
;W[lc]
;B[bi]
;W[bj]
;B[nm]
;W[mg]
;B[pn]
;W[on]
;B[pj]
;W[qj]
;B[ik]
;W[fk]
;B[el]
;W[cb]
;B[bb]
;W[kh]
;B[ih]
;W[db]
;B[ne]
;W[mf]
;B[kn]
;W[ln]
;B[jo]
;W[io]
;B[jm]
;W[kq]
;B[kl]
;W[ko]
;B[bk]
;W[cj]
;B[aj]
;W[bl]
;B[al]
;W[bm]
;B[lr]
;W[na]
;B[oa]
;W[ma]
;B[ob]
;W[jg]
;B[ba]
;W[jn]
;B[ig]
;W[if]
;B[jh]
;W[ce]
;B[be]
;W[kg]
;B[cr]
;W[lk]
;B[rl]
;W[km]
;B[jl]
;W[of]
;B[kr]
;W[ni]
;B[pk]
;W[ql]
;B[li]
;W[lh]
;B[oi]
;W[oh]
;B[nh]
;W[mh]
;B[ph]
;W[ok]
;B[oj]
;W[ng]
;B[rk]
;W[eo]
;B[fp]
;W[bs]
;B[as]
;W[pp]
;B[pq]
;W[bs]
;B[ck]
;W[cl]
;B[as]
;W[rp]
;B[sp]
;W[bs]
;B[ak]
;W[am]
;B[ai]
;W[dj]
;B[as]
;W[rf]C[time used:

W 2h 58m
B 2h 38m
])