(;CP[My Friday Night Files, 2002]AP[SGFcv.py:0.3]GM[1]FF[4]RO[Round 2]
DT[1992-04-16]
PB[Cho Chikun]
BR[9 dan]
PW[Morita Michihiro]
WR[6 dan]
KM[5.5]
RE[W+R]
US[JBvR]
SO[China Database]
EV[18th Tengen]

;B[pd]
;W[dd]
;B[pq]
;W[cp]
;B[fq]
;W[dq]
;B[jp]
;W[qn]
;B[po]
;W[pn]
;B[on]
;W[qo]
;B[qp]
;W[oo]
;B[pp]
;W[om]
;B[nn]
;W[pl]
;B[pi]
;W[mm]
;B[mn]
;W[ln]
;B[nm]
;W[nl]
;B[ml]
;W[lm]
;B[nk]
;W[ol]
;B[np]
;W[oj]
;B[lp]
;W[kk]
;B[pf]
;W[jd]
;B[cj]
;W[ch]
;B[cn]
;W[cl]
;B[en]
;W[fp]
;B[gq]
;W[ep]
;B[dk]
;W[gp]
;B[hp]
;W[ho]
;B[ip]
;W[dl]
;B[el]
;W[ek]
;B[ej]
;W[fk]
;B[dm]
;W[fl]
;B[em]
;W[gi]
;B[bl]
;W[eh]
;B[cc]
;W[dc]
;B[cd]
;W[cb]
;B[bb]
;W[db]
;B[cf]
;W[de]
;B[df]
;W[ef]
;B[bg]
;W[bh]
;B[ba]
;W[md]
;B[eg]
;W[fg]
;B[dg]
;W[dh]
;B[ff]
;W[ee]
;B[ce]
;W[fh]
;B[hc]
;W[jc]
;B[fe]
;W[fd]
;B[gd]
;W[fc]
;B[ie]
;W[kf]
;B[lc]
;W[jb]
;B[ld]
;W[me]
;B[gb]
;W[fb]
;B[je]
;W[ke]
;B[kd]
;W[mb]
;B[ib]
;W[hf]
;B[he]
;W[gg]
;B[lb]
;W[mc]
;B[ge]
;W[fa]
;B[ia]
;W[ma]
;B[id]
;W[le]
;B[ga]
;W[qe]
;B[pe]
;W[qd]
;B[qc]
;W[rc]
;B[rb]
;W[re]
;B[pb]
;W[qg]
;B[pg]
;W[qh]
;B[oi]
;W[sb]
;B[qi]
;W[oc]
;B[pc]
;W[ri]
;B[rj]
;W[rh]
;B[nj]
;W[qj]
;B[pj]
;W[qk]
;B[lj]
;W[bo]
;B[bn]
;W[mi]
;B[lk]
;W[kl]
;B[mg]
;W[ng]
;B[nf]
;W[nh]
;B[mh]
;W[mf]
;B[li]
;W[lh]
;B[lg]
;W[kh]
;B[ni]
;W[kg]
;B[mj]
;W[er]
;B[ne]
;W[hs]
;B[ja]
;W[ka]
;B[hl]
;W[hk]
;B[ik]
;W[il]
;B[hj]
;W[gk]
;B[ji]
;W[js]
;B[ir]
;W[is]
;B[ig]
;W[ij]
;B[ii]
;W[jj]
;B[ro]
;W[rn]
;B[im]
;W[jk]
;B[jm]
;W[hm]
;B[hn]
;W[gm]
;B[gn]
;W[mr]
;B[jg]
;W[ob]
;B[jl]
;W[gl]
;B[hi]
;W[in])