(;SO[Cho Chikun Internet Book]CP[My Friday Night Files, 2002]AP[SGFcv.py:0.3]GM[1]FF[4]RO[21, League]
PB[Cho Chikun]
BR[Honinbo]
PW[Rin Kaiho]
WR[Tengen]
KM[5.5]
DT[1992-05-07]
RE[B+4.5]
US[JBvR]
EV[Meijin ,17th]

;B[pd]
;W[dd]
;B[pq]
;W[cp]
;B[eq]
;W[qo]
;B[pk]
;W[kp]
;B[qp]
;W[po]
;B[op]
;W[hp]
;B[gq]
;W[hq]
;B[gp]
;W[ho]
;B[cr]
;W[qi]
;B[mp]
;W[qf]
;B[nc]
;W[oo]
;B[no]
;W[om]
;B[nn]
;W[nm]
;B[go]
;W[cm]
;B[hn]
;W[lm]
;B[ck]
;W[fm]
;B[gn]
;W[cg]
;B[oj]
;W[lq]
;B[mq]
;W[mj]
;B[nh]
;W[rd]
;B[fk]
;W[bq]
;B[jq]
;W[mr]
;B[jp]
;W[ko]
;B[jo]
;W[kn]
;B[kr]
;W[lr]
;B[or]
;W[ic]
;B[cc]
;W[dc]
;B[cd]
;W[ce]
;B[be]
;W[bf]
;B[de]
;W[cf]
;B[db]
;W[eb]
;B[cb]
;W[fc]
;B[bd]
;W[fi]
;B[ph]
;W[qh]
;B[pf]
;W[qe]
;B[pe]
;W[qc]
;B[mm]
;W[ml]
;B[mn]
;W[ok]
;B[nl]
;W[ol]
;B[ll]
;W[mk]
;B[kl]
;W[jl]
;B[jm]
;W[km]
;B[kk]
;W[jn]
;B[im]
;W[in]
;B[ir]
;W[jk]
;B[kj]
;W[jj]
;B[ji]
;W[ii]
;B[hl]
;W[ki]
;B[li]
;W[jh]
;B[lj]
;W[dk]
;B[dl]
;W[el]
;B[cn]
;W[dn]
;B[bm]
;W[dm]
;B[co]
;W[do]
;B[bl]
;W[bo]
;B[dj]
;W[ek]
;B[bh]
;W[mi]
;B[lh]
;W[bn]
;B[dh]
;W[eg]
;B[ed]
;W[ec]
;B[eh]
;W[bj]
;B[ch]
;W[fg]
;B[cj]
;W[mh]
;B[lg]
;W[mg]
;B[lf]
;W[cl]
;B[bk]
;W[me]
;B[mf]
;W[nf]
;B[ne]
;W[nd]
;B[oe]
;W[mc]
;B[le]
;W[md]
;B[ng]
;W[pj]
;B[on]
;W[pn]
;B[pm]
;W[pl]
;B[qm]
;W[rn]
;B[qk]
;W[ql]
;B[rl]
;W[nk]
;B[rm]
;W[rk]
;B[rp]
;W[sm]
;B[ro]
;W[sl]
;B[ie]
;W[kd]
;B[ig]
;W[hf]
;B[if]
;W[pc]
;B[he]
;W[fe]
;B[hh]
;W[gi]
;B[gd]
;W[gc]
;B[ld]
;W[lc]
;B[jd]
;W[jc]
;B[ke]
;W[kc]
;B[jg]
;W[br]
;B[dq]
;W[ae]
;B[fd]
;W[ee]
;B[ab]
;W[pg]
;B[og]
;W[qg]
;B[hi]
;W[hj]
;B[kh]
;W[ji]
;B[fh]
;W[gh]
;B[gg]
;W[gf]
;B[gj]
;W[gk]
;B[fj]
;W[hg]
;B[ih]
;W[ej]
;B[hk]
;W[fl]
;B[ij]
;W[gj]
;B[il]
;W[ei]
;B[di]
;W[hd]
;B[ge]
;W[id]
;B[je]
;W[oi]
;B[oh]
;W[cs]
;B[ds]
;W[bs]
;B[eo]
;W[en]
;B[ep]
;W[da]
;B[ca]
;W[ea]
;B[am]
;W[af]
;B[ah]
;W[bb]
;B[ba]
;W[ac]
;B[bc]
;W[ad]
;B[dg]
;W[df]
;B[pi]
;W[nj]
;B[od]
;W[oc]
;B[an]
;W[ao]
;B[fn]
;W[cq]
;B[dr]
;W[gm]
;B[hm]
;W[so]
;B[sp]
;W[sn])