(;US[JBvR]SO[Cho Chikun Internet Book]CP[My Friday Night Files, 2002]AP[SGFcv.py:0.3]GM[1]FF[4]RO[Final]
PB[Cho Chikun]
BR[9 dan]
PW[O Rissei]
WR[9 dan]
KM[5.5]
DT[1992-03-15]
RE[B+R]
EV[NHK, 39th]
GC[other sources date 01-20, broadcast 04-03]

;B[pd]
;W[dd]
;B[pp]
;W[dq]
;B[cn]
;W[fp]
;B[ck]
;W[qf]
;B[pi]
;W[qc]
;B[qd]
;W[pc]
;B[od]
;W[rd]
;B[re]
;W[rc]
;B[qe]
;W[nc]
;B[hq]
;W[qn]
;B[bq]
;W[nq]
;B[pn]
;W[pm]
;B[qo]
;W[on]
;B[po]
;W[kq]
;B[ho]
;W[fm]
;B[om]
;W[of]
;B[pg]
;W[pj]
;B[oi]
;W[pl]
;B[oq]
;W[pf]
;B[rg]
;W[nm]
;B[np]
;W[kn]
;B[hm]
;W[mf]
;B[me]
;W[rf]
;B[sf]
;W[og]
;B[qj]
;W[nd]
;B[qk]
;W[qg]
;B[rh]
;W[qh]
;B[qi]
;W[dj]
;B[dk]
;W[dm]
;B[dn]
;W[en]
;B[el]
;W[em]
;B[cm]
;W[fl]
;B[fd]
;W[in]
;B[hn]
;W[gk]
;B[ol]
;W[ip]
;B[hp]
;W[il]
;B[fr]
;W[ge]
;B[ok]
;W[hc]
;B[im]
;W[jl]
;B[jm]
;W[mp]
;B[nr]
;W[km]
;B[eo]
;W[fo]
;B[eq]
;W[ep]
;B[dp]
;W[iq]
;B[hr]
;W[li]
;B[fe]
;W[gf]
;B[gc]
;W[hd]
;B[de]
;W[ce]
;B[df]
;W[cc]
;B[cf]
;W[ff]
;B[be]
;W[ec]
;B[cd]
;W[bd]
;B[ej]
;W[ce]
;B[fi]
;W[hi]
;B[cd]
;W[sd]
;B[se]
;W[ce]
;B[mh]
;W[mi]
;B[nh]
;W[lf]
;B[cd]
;W[eh]
;B[ed]
;W[ce]
;B[oc]
;W[ob]
;B[cd]
;W[dc]
;B[gb]
;W[ef]
;B[ee]
;W[ch]
;B[bc]
;W[ad]
;B[bb]
;W[ce]
;B[bg]
;W[bh]
;B[cd]
;W[cp]
;B[do]
;W[ce]
;B[nb]
;W[mb]
;B[cd]
;W[er]
;B[fq]
;W[ce]
;B[da]
;W[ca]
;B[cd]
;W[cl]
;B[bl]
;W[ce]
;B[cb]
;W[ag]
;B[cd]
;W[cq]
;B[bo]
;W[bp]
;B[br]
;W[ap]
;B[es]
;W[dl]
;B[bj]
;W[ce]
;B[bf]
;W[db]
;B[ea])