(;SO[Cho Chikun Internet Book]CP[My Friday Night Files, 2002]AP[SGFcv.py:0.3]GM[1]FF[4]PW[Seo Bongsoo]
WR[9d]
PB[Cho Chikun]
BR[9d]
RO[Semi-final, Game 1]
DT[1992-11-23]
KM[8]
RE[B+1]
US[JBvR]
EV[Ing Cup, 2nd]

;B[pd]
;W[dp]
;B[fq]
;W[ip]
;B[cn]
;W[fp]
;B[gp]
;W[fo]
;B[cq]
;W[eq]
;B[cp]
;W[dr]
;B[ck]
;W[pp]
;B[dd]
;W[nc]
;B[lc]
;W[qf]
;B[nd]
;W[qc]
;B[qd]
;W[pc]
;B[od]
;W[nb]
;B[rc]
;W[rb]
;B[rd]
;W[pj]
;B[mc]
;W[sb]
;B[mb]
;W[pb]
;B[nq]
;W[lq]
;B[qq]
;W[pq]
;B[qp]
;W[po]
;B[pr]
;W[or]
;B[qr]
;W[oq]
;B[qn]
;W[fc]
;B[hc]
;W[cc]
;B[dc]
;W[cd]
;B[de]
;W[db]
;B[eb]
;W[cb]
;B[ec]
;W[cf]
;B[pn]
;W[on]
;B[om]
;W[nn]
;B[pl]
;W[ml]
;B[qh]
;W[ph]
;B[qi]
;W[pi]
;B[qj]
;W[pg]
;B[mg]
;W[li]
;B[kq]
;W[lr]
;B[iq]
;W[hq]
;B[hp]
;W[ir]
;B[jq]
;W[gq]
;B[io]
;W[ko]
;B[jo]
;W[kn]
;B[gn]
;W[dl]
;B[cl]
;W[kh]
;B[fr]
;W[gr]
;B[hs]
;W[hr]
;B[im]
;W[kf]
;B[le]
;W[jd]
;B[jc]
;W[hd]
;B[id]
;W[ie]
;B[ic]
;W[gd]
;B[fb]
;W[fg]
;B[ik]
;W[qo]
;B[ro]
;W[rp]
;B[rn]
;W[ps]
;B[ch]
;W[cg]
;B[bh]
;W[rr]
;B[rq]
;W[qs]
;B[sp]
;W[rg]
;B[fn]
;W[dn]
;B[dm]
;W[do]
;B[cm]
;W[hj]
;B[ij]
;W[hi]
;B[jr]
;W[fs]
;B[kp]
;W[lp]
;B[pk]
;W[mh]
;B[lg]
;W[kg]
;B[je]
;W[if]
;B[af]
;W[be]
;B[is]
;W[er]
;B[hk]
;W[fj]
;B[cr]
;W[ke]
;B[kd]
;W[lf]
;B[mf]
;W[me]
;B[of]
;W[ld]
;B[md]
;W[gc]
;B[gb]
;W[fe]
;B[rh]
;W[qg]
;B[ds]
;W[en]
;B[lm]
;W[sh]
;B[si]
;W[sg]
;B[rj]
;W[ll]
;B[km]
;W[jn]
;B[jm]
;W[ok]
;B[mn]
;W[mo]
;B[ei]
;W[fl]
;B[ej]
;W[go]
;B[ho]
;W[gm]
;B[kj]
;W[kk]
;B[gk]
;W[fk]
;B[gl]
;W[fm]
;B[hm]
;W[dk]
;B[dj]
;W[le]
;B[og]
;W[ne]
;B[oe]
;W[jj]
;B[ji]
;W[jk]
;B[ii]
;W[ki]
;B[ol]
;W[nl]
;B[oh]
;W[oi]
;B[hg]
;W[hh]
;B[ig]
;W[jf]
;B[ih]
;W[jd]
;B[kc]
;W[ks]
;B[js]
;W[dh]
;B[eh]
;W[eg]
;B[gf]
;W[gg]
;B[hf]
;W[fi]
;B[ea]
;W[hn]
;B[in]
;W[lo]
;B[co]
;W[rs]
;B[sr]
;W[ae]
;B[bg]
;W[bf]
;B[ag]
;W[da]
;B[di]
;W[dg]
;B[kr]
;W[ls]
;B[nh]
;W[ni]
;B[lh]
;W[mi]
;B[oc]
;W[ob]
;B[na]
;W[oa]
;B[ma]
;W[jl]
;B[il]
;W[gn]
;B[qe]
;W[nf]
;B[ng]
;W[gj]
;B[fh]
;W[gh]
;B[ek]
;W[el]
;B[cj]
;W[ee]
;B[kl]
;W[lk]
;B[pf]
;W[ed]
;B[ff]
;W[ef]
;B[je]
;W[se]
;B[re]
;W[jd]
;B[he]
;W[ge]
;B[je]
;W[cs]
;B[bs]
;W[jd]
;B[os]
;W[ns]
;B[je]
;W[sk]
;B[qk]
;W[jd]
;B[nk]
;W[oj]
;B[je]
;W[sj]
;B[ri]
;W[jd]
;B[qa]
;W[ra]
;B[je]
;W[bi]
;B[ci]
;W[jd]
;B[qb]
;W[pa]
;B[je]
;W[gs]
;B[jp]
;W[jd]
;B[sd]
;W[sf]
;B[je]
;W[es]
;B[cs]
;W[jd]
;B[qb]
;W[qa]
;B[je]
;W[mm]
;B[ln]
;W[jd]
;B[sq]
;W[je]
;B[ss]
;W[os]
;B[dq]
;W[em]
;B[ce]
;W[df]
;B[sc]
;W[rf]
;B[nm]
;W[jg]
;B[jh])