(;CP[My Friday Night Files, 2002]AP[SGFcv.py:0.3]GM[1]FF[4]RO[Main Knockout Section, Final]
PB[Otake Hideo]
BR[9 dan]
PW[Cho Chikun]
WR[9 dan]
KM[5.5]
DT[1992-11-19]
RE[B+R]
SO[Kido Yearbook 1994]
US[JBvR]
EV[Judan, 31st]

;B[pd]
;W[dd]
;B[cp]
;W[pq]
;B[po]
;W[qo]
;B[qn]
;W[qp]
;B[pn]
;W[nq]
;B[pj]
;W[nc]
;B[lc]
;W[rl]
;B[ql]
;W[qf]
;B[nd]
;W[qk]
;B[pk]
;W[pl]
;B[qm]
;W[qj]
;B[qi]
;W[ri]
;B[rh]
;W[od]
;B[oe]
;W[oc]
;B[pe]
;W[qh]
;B[pi]
;W[rg]
;B[rj]
;W[sh]
;B[rk]
;W[pc]
;B[re]
;W[md]
;B[ne]
;W[mc]
;B[pg]
;W[rc]
;B[rd]
;W[fc]
;B[dj]
;W[me]
;B[eq]
;W[ch]
;B[eh]
;W[eo]
;B[gp]
;W[dl]
;B[bj]
;W[cf]
;B[fk]
;W[co]
;B[dp]
;W[do]
;B[gn]
;W[fq]
;B[fp]
;W[ep]
;B[er]
;W[bp]
;B[bq]
;W[bn]
;B[ap]
;W[ao]
;B[bo]
;W[ej]
;B[ek]
;W[bp]
;B[dc]
;W[dk]
;B[cd]
;W[ed]
;B[di]
;W[aq]
;B[eb]
;W[ef]
;B[hg]
;W[kq]
;B[fb]
;W[cc]
;B[cb]
;W[bc]
;B[bd]
;W[bb]
;B[ba]
;W[gh]
;B[gg]
;W[ec]
;B[db]
;W[ce]
;B[ab]
;W[fg]
;B[fh]
;W[gi]
;B[fj]
;W[ii]
;B[jg]
;W[hk]
;B[cr]
;W[br]
;B[ki]
;W[kj]
;B[lj]
;W[kk]
;B[ji]
;W[ih]
;B[ig]
;W[jj]
;B[fm]
;W[jh]
;B[hc]
;W[ng]
;B[og]
;W[gr]
;B[gq]
;W[hr]
;B[fr]
;W[kh]
;B[fe]
;W[ge]
;B[gd]
;W[ff]
;B[gf]
;W[he]
;B[ie]
;W[be]
;B[ac]
;W[dg]
;B[cq]
;W[bl]
;B[ip]
;W[iq]
;B[mb]
;W[je]
;B[id]
;W[jp]
;B[io]
;W[jc]
;B[kb]
;W[jd]
;B[jb]
;W[fd]
;B[hd]
;W[li]
;B[kf])