(;CP[My Friday Night Files, 2002]AP[SGFcv.py:0.3]GM[1]FF[4]RO[21, League]
PB[Rin Kaiho]
BR[9 dan]
PW[Cho Chikun]
WR[9 dan]
KM[5.5]
DT[1986-05-08]
RE[B+R]
SO[Asahi]
US[JBvR]
EV[Meijin, 11th]

;B[pd]
;W[dp]
;B[pq]
;W[dd]
;B[pk]
;W[jp]
;B[cn]
;W[mp]
;B[np]
;W[no]
;B[op]
;W[mo]
;B[pn]
;W[qp]
;B[qq]
;W[cl]
;B[cq]
;W[dq]
;B[cp]
;W[do]
;B[cr]
;W[dn]
;B[bn]
;W[jd]
;B[lc]
;W[qi]
;B[qk]
;W[qf]
;B[re]
;W[ld]
;B[md]
;W[le]
;B[kc]
;W[jc]
;B[kd]
;W[ke]
;B[mc]
;W[jg]
;B[cf]
;W[ch]
;B[cc]
;W[cd]
;B[dc]
;W[ec]
;B[bc]
;W[ed]
;B[bd]
;W[df]
;B[ce]
;W[dg]
;B[dm]
;W[cm]
;B[em]
;W[go]
;B[dk]
;W[ck]
;B[dj]
;W[cj]
;B[hl]
;W[fk]
;B[hn]
;W[gm]
;B[gn]
;W[fn]
;B[hm]
;W[fm]
;B[ho]
;W[hq]
;B[gk]
;W[gj]
;B[hj]
;W[gi]
;B[fo]
;W[en]
;B[gq]
;W[gr]
;B[hr]
;W[hp]
;B[gp]
;W[fr]
;B[kk]
;W[jj]
;B[jk]
;W[ij]
;B[ik]
;W[hi]
;B[oi]
;W[jn]
;B[ln]
;W[of]
;B[jq]
;W[ip]
;B[kp]
;W[ko]
;B[kq]
;W[ir]
;B[mq]
;W[rc]
;B[rd]
;W[oc]
;B[pc]
;W[od]
;B[ob]
;W[nb]
;B[pb]
;W[nc]
;B[oe]
;W[ne]
;B[pe]
;W[nd]
;B[nf]
;W[ng]
;B[mf]
;W[me]
;B[pf]
;W[og]
;B[pg]
;W[ni]
;B[nj]
;W[oh]
;B[ph]
;W[oj]
;B[pi]
;W[mj]
;B[nk]
;W[mk]
;B[mi]
;W[li]
;B[nh]
;W[lj]
;B[mm]
;W[lq]
;B[lr]
;W[ml]
;B[lm]
;W[ll]
;B[km]
;W[jm]
;B[kl]
;W[lo]
;B[nm]
;W[mg]
;B[db]
;W[eb]
;B[mh]
;W[lg]
;B[ea]
;W[fa]
;B[da]
;W[fb]
;B[bg]
;W[hk]
;B[il]
;W[bm]
;B[dr]
;W[an]
;B[er]
;W[ap]
;B[eq]
;W[fq]
;B[ep]
;W[fp]
;B[go]
;W[eo]
;B[hs]
;W[is]
;B[ar]
;W[bs]
;B[co])