(;SO[Cho Chikun Internet Book]CP[My Friday Night Files, 2002]AP[SGFcv.py:0.3]GM[1]FF[4]RO[2, Challenger knockout]
PB[Miyazawa Goro]
BR[7p]
PW[Cho Chikun]
WR[9p, Gosei]
KM[5.5]
DT[1986-09-11]
RE[W+R]
EV[Kisei, 11th]
US[JBvR]

;B[qd]
;W[dd]
;B[pq]
;W[oc]
;B[cp]
;W[qo]
;B[pm]
;W[on]
;B[np]
;W[om]
;B[pk]
;W[pl]
;B[ql]
;W[ol]
;B[qm]
;W[qq]
;B[pp]
;W[qp]
;B[po]
;W[qk]
;B[qj]
;W[pn]
;B[rk]
;W[qn]
;B[kq]
;W[pe]
;B[pd]
;W[od]
;B[oe]
;W[qe]
;B[re]
;W[rf]
;B[rd]
;W[pg]
;B[ne]
;W[qb]
;B[rg]
;W[qg]
;B[sf]
;W[rh]
;B[qf]
;W[pf]
;B[mc]
;W[rf]
;B[rb]
;W[sg]
;B[pb]
;W[lc]
;B[ld]
;W[mb]
;B[kc]
;W[lb]
;B[ob]
;W[jc]
;B[kb]
;W[kd]
;B[jb]
;W[jd]
;B[ib]
;W[md]
;B[le]
;W[me]
;B[lf]
;W[mf]
;B[lg]
;W[nc]
;B[ie]
;W[gc]
;B[hc]
;W[gb]
;B[cf]
;W[ge]
;B[ci]
;W[be]
;B[ep]
;W[jf]
;B[je]
;W[if]
;B[hd]
;W[gd]
;B[jh]
;W[he]
;B[kf]
;W[ck]
;B[dj]
;W[dk]
;B[ek]
;W[el]
;B[fl]
;W[em]
;B[fm]
;W[en]
;B[fn]
;W[cn]
;B[ej]
;W[bp]
;B[bq]
;W[bo]
;B[eo]
;W[lo]
;B[ko]
;W[lq]
;B[lp]
;W[mp]
;B[kp]
;W[mq]
;B[mo]
;W[no]
;B[ln]
;W[nq]
;B[lr]
;W[mr]
;B[kr]
;W[rm]
;B[rl]
;W[rn]
;B[nj]
;W[mm]
;B[lk]
;W[hh]
;B[hg]
;W[gg]
;B[ig]
;W[hf]
;B[gh]
;W[jg]
;B[ih]
;W[kh]
;B[ki]
;W[ji]
;B[ii]
;W[li]
;B[kg]
;W[kj]
;B[mg]
;W[ng]
;B[mh]
;W[lm]
;B[nn]
;W[oo]
;B[km]
;W[kl]
;B[ll]
;W[jm]
;B[nl]
;W[kn]
;B[nm]
;W[mn]
;B[lo]
;W[nk]
;B[ml]
;W[mj]
;B[mi]
;W[ni]
;B[oj]
;W[km])