(;US[JBvR]CP[My Friday Night Files, 2002]AP[SGFcv.py:0.3]GM[1]FF[4]RO[3]
PW[Cho Chikun]
PB[Otake Hideo]
KM[5.5]
DT[1986-07-23]
RE[W+R]
SO[Go World #47, Spring 1987]
BR[9d]
WR[9d]
EV[Gosei, 11th, match]

;B[qd]
;W[dd]
;B[pq]
;W[cp]
;B[oc]
;W[po]
;B[qo]
;W[qn]
;B[qp]
;W[pm]
;B[nq]
;W[qi]
;B[eq]
;W[rd]
;B[qe]
;W[dn]
;B[cf]
;W[ch]
;B[cc]
;W[cd]
;B[dc]
;W[ed]
;B[bd]
;W[be]
;B[bc]
;W[bf]
;B[fc]
;W[ge]
;B[gc]
;W[dq]
;B[ep]
;W[hp]
;B[go]
;W[ho]
;B[gm]
;W[hn]
;B[gn]
;W[gp]
;B[en]
;W[dm]
;B[hm]
;W[mq]
;B[mp]
;W[lq]
;B[np]
;W[ko]
;B[gg]
;W[dj]
;B[fe]
;W[re]
;B[rc]
;W[qf]
;B[oe]
;W[pg]
;B[ng]
;W[nc]
;B[nd]
;W[mc]
;B[ob]
;W[jd]
;B[he]
;W[le]
;B[ql]
;W[qc]
;B[qb]
;W[sc]
;B[rb]
;W[pl]
;B[qk]
;W[rm]
;B[pk]
;W[ok]
;B[pi]
;W[ph]
;B[oj]
;W[qj]
;B[nk]
;W[ol]
;B[pj]
;W[rk]
;B[md]
;W[ld]
;B[kc]
;W[jc]
;B[kb]
;W[jb]
;B[rl]
;W[sl]
;B[je]
;W[lb]
;B[ma]
;W[ka]
;B[la]
;W[ja]
;B[hb]
;W[lg]
;B[rj]
;W[sk]
;B[li]
;W[na]
;B[nb]
;W[mb]
;B[ma]
;W[jg]
;B[ke]
;W[ie]
;B[if]
;W[id]
;B[jf]
;W[hf]
;B[ig]
;W[gd]
;B[fd]
;W[gf]
;B[kd]
;W[hg])