(;SO[Cho Chikun Internet Book]CP[My Friday Night Files, 2002]AP[SGFcv.py:0.3]GM[1]FF[4]RO[01, League]
PB[Cho Chikun]
BR[Gosei]
PW[Shiraishi Yutaka]
WR[9 dan]
KM[5.5]
DT[1986-12-04]
RE[B+R]
US[JBvR]
EV[Meijin, 12th]

;B[pd]
;W[cc]
;B[pq]
;W[dp]
;B[pk]
;W[jp]
;B[jd]
;W[qf]
;B[re]
;W[pi]
;B[of]
;W[ni]
;B[nk]
;W[li]
;B[mh]
;W[mi]
;B[oh]
;W[oi]
;B[lk]
;W[ji]
;B[mp]
;W[ik]
;B[cn]
;W[cp]
;B[ck]
;W[ci]
;B[ed]
;W[de]
;B[ee]
;W[df]
;B[ef]
;W[dg]
;B[dc]
;W[cb]
;B[jf]
;W[en]
;B[bo]
;W[bp]
;B[em]
;W[fm]
;B[dm]
;W[po]
;B[qo]
;W[qn]
;B[qp]
;W[pl]
;B[ql]
;W[pm]
;B[pj]
;W[ok]
;B[oj]
;W[qk]
;B[qj]
;W[rk]
;B[rj]
;W[rl]
;B[qh]
;W[qi]
;B[ri]
;W[ph]
;B[qg]
;W[nc]
;B[oc]
;W[ob]
;B[pb]
;W[lc]
;B[kb]
;W[pg]
;B[pf]
;W[mf]
;B[nd]
;W[md]
;B[le]
;W[lf]
;B[ke]
;W[me]
;B[kg]
;W[lh]
;B[og]
;W[nh]
;B[fn]
;W[dn]
;B[fo]
;W[ep]
;B[ek]
;W[fl]
;B[hq]
;W[bm]
;B[cm]
;W[gq]
;B[fq]
;W[fp]
;B[gp]
;W[gr]
;B[ho]
;W[fr]
;B[fk]
;W[hl]
;B[im]
;W[hm]
;B[in]
;W[fh]
;B[gg]
;W[ml]
;B[mk]
;W[ol]
;B[nj]
;W[fg]
;B[gf]
;W[kc]
;B[jc]
;W[lp]
;B[hi]
;W[gj]
;B[gi]
;W[fj]
;B[gk]
;W[hj]
;B[fi]
;W[ej]
;B[dj]
;W[ei]
;B[di]
;W[gh]
;B[kj])