(;US[JBvR]CP[My Friday Night Files, 2002]AP[SGFcv.py:0.3]GM[1]FF[4]DT[1986-11-20]
BR[Gosei]
KM[5.5]
RO[7]
PB[Cho Chikun]
WR[9 dan]
PW[Sakata Eio]
RE[B+R]
SO[1988 Kido yearbook]
EV[Honinbo, 42nd]

;B[pd]
;W[dp]
;B[pp]
;W[dc]
;B[de]
;W[ce]
;B[cf]
;W[cd]
;B[df]
;W[fc]
;B[dj]
;W[qj]
;B[cn]
;W[fq]
;B[ql]
;W[qf]
;B[qh]
;W[rh]
;B[rg]
;W[qg]
;B[ri]
;W[rf]
;B[qi]
;W[qd]
;B[qc]
;W[pc]
;B[oc]
;W[pb]
;B[od]
;W[ob]
;B[nb]
;W[qb]
;B[rc]
;W[rd]
;B[rb]
;W[ra]
;B[kd]
;W[qq]
;B[pq]
;W[qp]
;B[qo]
;W[ro]
;B[qn]
;W[rn]
;B[jp]
;W[qm]
;B[pm]
;W[rm]
;B[pl]
;W[po]
;B[pn]
;W[oo]
;B[np]
;W[no]
;B[pr]
;W[qr]
;B[mo]
;W[nm]
;B[mn]
;W[nn]
;B[lp]
;W[nk]
;B[ni]
;W[pj]
;B[rj]
;W[oj]
;B[rl]
;W[ph]
;B[pi]
;W[oi]
;B[oh]
;W[nh]
;B[pg]
;W[mi]
;B[ng]
;W[mh]
;B[mg]
;W[of]
;B[og]
;W[kh]
;B[cq]
;W[cp]
;B[bp]
;W[bo]
;B[bq]
;W[co]
;B[er]
;W[eq]
;B[fr]
;W[dn]
;B[gq]
;W[gp]
;B[hq]
;W[cl]
;B[lg]
;W[jj]
;B[dd]
;W[cc]
;B[ck]
;W[bl]
;B[oa]
;W[sb]
;B[hc]
;W[ci]
;B[di]
;W[bh]
;B[bf]
;W[cj]
;B[fd]
;W[gc]
;B[gd]
;W[dh]
;B[eh]
;W[ei]
;B[dg]
;W[ch]
;B[fh]
;W[hb]
;B[dk]
;W[bk]
;B[ib]
;W[ic]
;B[hd]
;W[gb]
;B[jb]
;W[fi]
;B[gi]
;W[fj]
;B[gj]
;W[fk]
;B[gk]
;W[fl]
;B[lj]
;W[mj]
;B[lk]
;W[ki]
;B[ml]
;W[ii]
;B[hh]
;W[ps]
;B[or]
;W[ih]
;B[ig]
;W[jg]
;B[jf]
;W[nl]
;B[kg]
;W[oe]
;B[jh]
;W[ik]
;B[ne]
;W[nf]
;B[pf]
;W[nc]
;B[mc]
;W[pe]
;B[nd]
;W[mf]
;B[ac]
;W[bc]
;B[gl]
;W[jl]
;B[fm]
;W[em]
;B[ad]
;W[ab]
;B[af]
;W[cb]
;B[fn]
;W[me]
;B[md]
;W[km]
;B[mm]
;W[ko]
;B[kp]
;W[op]
;B[nq]
;W[sm]
;B[os]
;W[qs]
;B[dq]
;W[ep]
;B[im]
;W[kk]
;B[sh]
;W[le]
;B[ke]
;W[hn]
;B[hp]
;W[go]
;B[hm]
;W[en]
;B[fo]
;W[eo]
;B[jo]
;W[kn]
;B[in]
;W[ho]
;B[hj]
;W[il]
;B[ll]
;W[kl]
;B[io]
;W[oq]
;B[nr]
;W[ed]
;B[ee]
;W[ec]
;B[fp]C[time used:

W 3h 34m
B 5h 59m])