(;SO[Cho Chikun Internet Book]CP[My Friday Night Files, 2002]AP[SGFcv.py:0.3]GM[1]FF[4]RO[League, game 17]
PB[Cho Chikun]
BR[9 dan]
PW[Awaji Shuzo]
WR[9 dan]
KM[5.5]
DT[1994-04-07]
RE[W+0.5]
US[JBvR]
EV[Meijin, 19th]

;B[pd]
;W[dd]
;B[pp]
;W[cq]
;B[fc]
;W[id]
;B[cf]
;W[fd]
;B[gd]
;W[fe]
;B[ec]
;W[df]
;B[cc]
;W[ge]
;B[cd]
;W[ce]
;B[be]
;W[de]
;B[bf]
;W[dc]
;B[db]
;W[cb]
;B[bb]
;W[eb]
;B[ca]
;W[gc]
;B[gb]
;W[hc]
;B[qj]
;W[nq]
;B[pn]
;W[pr]
;B[qq]
;W[kq]
;B[dn]
;W[fp]
;B[co]
;W[cp]
;B[dk]
;W[nd]
;B[pf]
;W[fb]
;B[hq]
;W[gq]
;B[eq]
;W[fr]
;B[lp]
;W[lq]
;B[np]
;W[oq]
;B[mp]
;W[kp]
;B[dp]
;W[dq]
;B[ep]
;W[er]
;B[mg]
;W[pm]
;B[om]
;W[pl]
;B[ol]
;W[pk]
;B[qn]
;W[pj]
;B[pi]
;W[nj]
;B[oi]
;W[nk]
;B[ko]
;W[ni]
;B[jo]
;W[kj]
;B[pc]
;W[qi]
;B[qh]
;W[ri]
;B[rh]
;W[nf]
;B[nh]
;W[rj]
;B[me]
;W[mf]
;B[ne]
;W[lf]
;B[le]
;W[ke]
;B[oe]
;W[kd]
;B[dh]
;W[og]
;B[lc]
;W[pg]
;B[qg]
;W[ej]
;B[dj]
;W[ei]
;B[di]
;W[hj]
;B[ph]
;W[oh]
;B[eh]
;W[fh]
;B[hp]
;W[qr]
;B[fg]
;W[gi]
;B[gh]
;W[fi]
;B[eg]
;W[gg]
;B[ll]
;W[kl]
;B[lk]
;W[lm]
;B[kk]
;W[jm]
;B[jl]
;W[km]
;B[ml]
;W[mm]
;B[nl]
;W[nn]
;B[on]
;W[op]
;B[rl]
;W[il]
;B[jk]
;W[in]
;B[hn]
;W[li]
;B[hm]
;W[im]
;B[gp]
;W[oo]
;B[rr]
;W[eo]
;B[mq]
;W[mr]
;B[do]
;W[fq]
;B[en]
;W[io]
;B[jp]
;W[rs]
;B[rq]
;W[rk]
;B[ql]
;W[qk]
;B[qm]
;W[jq]
;B[ip]
;W[lo]
;B[hr]
;W[bo]
;B[bn]
;W[bp]
;B[fo]
;W[fm]
;B[mi]
;W[mj]
;B[ki]
;W[lj]
;B[jj]
;W[ji]
;B[ii]
;W[jh]
;B[hh]
;W[ld]
;B[of]
;W[ng]
;B[md]
;W[ih]
;B[kf]
;W[lg]
;B[hg]
;W[gf]
;B[ek]
;W[ij]
;B[gl]
;W[kc]
;B[lb]
;W[an]
;B[am]
;W[ao]
;B[bm]
;W[kb]
;B[ka]
;W[dg]
;B[cg]
;W[ja]
;B[la]
;W[hb]
;B[jr]
;W[kr]
;B[iq]
;W[ks]
;B[gj]
;W[hi]
;B[js]
;W[mo]
;B[gs]
;W[fs]
;B[gr]
;W[ds]
;B[fj]
;W[sh]
;B[sg]
;W[si]
;B[rf]
;W[po]
;B[qo]
;W[pq]
;B[qp]
;W[ho]
;B[go]
;W[hl]
;B[gk]
;W[sl]
;B[sm]
;W[sk]
;B[so]
;W[ea]
;B[kn]
;W[ln]
;B[ef]
;W[ed]
;B[da]
;W[sr]
;B[sq]
;W[qs]
;B[ok]
;W[oj]
;B[nm]
;W[ss])