(;US[JBvR]SO[Cho Chikun Internet Book]CP[My Friday Night Files, 2002]AP[SGFcv.py:0.3]GM[1]FF[4]RE[B+3.5]
PW[Cho Chikun]
PB[Kobayashi Koichi]
DT[1994-02-23]
KM[5.5]
EV[Kisei, 18th, match]
RO[5]
BR[9d]
WR[9d]

;B[pd]
;W[dd]
;B[qp]
;W[cp]
;B[ep]
;W[op]
;B[cq]
;W[qq]
;B[kp]
;W[pp]
;B[qo]
;W[rq]
;B[bp]
;W[co]
;B[bo]
;W[dq]
;B[dp]
;W[cn]
;B[cr]
;W[io]
;B[iq]
;W[fo]
;B[fp]
;W[gp]
;B[hp]
;W[ho]
;B[gq]
;W[go]
;B[mq]
;W[ql]
;B[ci]
;W[ej]
;B[dk]
;W[ek]
;B[dl]
;W[fq]
;B[eq]
;W[ip]
;B[hq]
;W[el]
;B[dm]
;W[en]
;B[cf]
;W[kc]
;B[ef]
;W[fd]
;B[qf]
;W[ce]
;B[bf]
;W[di]
;B[ch]
;W[jp]
;B[kq]
;W[jq]
;B[jr]
;W[ko]
;B[lo]
;W[kr]
;B[lr]
;W[lp]
;B[lq]
;W[ln]
;B[mo]
;W[pn]
;B[gd]
;W[fe]
;B[gc]
;W[fc]
;B[jd]
;W[kd]
;B[je]
;W[jc]
;B[ic]
;W[pb]
;B[ke]
;W[nc]
;B[qi]
;W[be]
;B[ae]
;W[ad]
;B[af]
;W[bc]
;B[ik]
;W[bl]
;B[bk]
;W[hk]
;B[ij]
;W[il]
;B[hj]
;W[jl]
;B[gk]
;W[hl]
;B[fb]
;W[eb]
;B[ld]
;W[lc]
;B[md]
;W[mc]
;B[rk]
;W[qk]
;B[rl]
;W[rm]
;B[qj]
;W[sl]
;B[hf]
;W[qc]
;B[gi]
;W[re]
;B[qe]
;W[nd]
;B[rj]
;W[ok]
;B[rd]
;W[gg]
;B[ff]
;W[ge]
;B[gf]
;W[he]
;B[em]
;W[fm]
;B[fl]
;W[gl]
;B[fk]
;W[ie]
;B[if]
;W[id]
;B[lf]
;W[li]
;B[kh]
;W[lh]
;B[ki]
;W[nr]
;B[nq]
;W[oq]
;B[bn]
;W[cm]
;B[kj]
;W[qd]
;B[rc]
;W[rb]
;B[rf]
;W[mj]
;B[cl]
;W[bm]
;B[ol]
;W[pk]
;B[on]
;W[pm]
;B[or]
;W[pr]
;B[oo]
;W[po]
;B[kn]
;W[km]
;B[jn]
;W[mn]
;B[jo]
;W[in]
;B[lm]
;W[jm]
;B[ko]
;W[mm]
;B[ll]
;W[ml]
;B[lk]
;W[hm]
;B[mk]
;W[om]
;B[oi]
;W[nf]
;B[ng]
;W[bj]
;B[aj]
;W[of]
;B[nk]
;W[sc]
;B[se]
;W[mf]
;B[mg]
;W[lg]
;B[le]
;W[oh]
;B[nh]
;W[og]
;B[nj]
;W[pe]
;B[no]
;W[ai]
;B[ak]
;W[cj]
;B[bi]
;W[dj]
;B[ck]
;W[ah]
;B[ag]
;W[df]
;B[dg]
;W[ee]
;B[de]
;W[dn]
;B[bh]
;W[ai]
;B[ah]
;W[df]
;B[eg]
;W[qh]
;B[rh]
;W[jf]
;B[kg]
;W[nm]
;B[ph]
;W[pf]
;B[pg]
;W[me]
;B[kf]
;W[nl]
;B[sk]
;W[sm]
;B[ms]
;W[os]
;B[an]
;W[pj]
;B[pi]
;W[jk]
;B[ns]
;W[np]
;B[mp]
;W[jj]
;B[ji]
;W[sb]
;B[sd]
;W[eo]
;B[mr]
;W[or])