(;US[JBvR]SO[Cho Chikun Internet Book]CP[My Friday Night Files, 2002]AP[SGFcv.py:0.3]GM[1]FF[4]DT[1994-07-21,22]
KM[5.5]
PB[Cho Chikun]
PW[Kataoka Satoshi]
RE[B+3.5]
EV[Honinbo, 49th, match]
RO[7]
BR[9d]
WR[9d]

;B[pd]
;W[dc]
;B[dp]
;W[pp]
;B[ce]
;W[di]
;B[fe]
;W[gc]
;B[dk]
;W[fi]
;B[he]
;W[id]
;B[hi]
;W[ek]
;B[el]
;W[fk]
;B[dj]
;W[ei]
;B[hk]
;W[dl]
;B[cl]
;W[dm]
;B[cm]
;W[dn]
;B[cn]
;W[fm]
;B[do]
;W[ij]
;B[hj]
;W[gn]
;B[kd]
;W[ie]
;B[if]
;W[jf]
;B[je]
;W[hd]
;B[ig]
;W[kf]
;B[md]
;W[kh]
;B[kj]
;W[mi]
;B[mg]
;W[mh]
;B[mk]
;W[ng]
;B[qe]
;W[pi]
;B[gq]
;W[jl]
;B[gf]
;W[nb]
;B[oc]
;W[lc]
;B[ld]
;W[kc]
;B[fc]
;W[fb]
;B[jp]
;W[pn]
;B[mp]
;W[mn]
;B[pq]
;W[oq]
;B[qp]
;W[op]
;B[qn]
;W[qq]
;B[rq]
;W[qo]
;B[qr]
;W[ro]
;B[or]
;W[mq]
;B[nr]
;W[lp]
;B[kl]
;W[km]
;B[lm]
;W[eq]
;B[dq]
;W[kk]
;B[ll]
;W[jj]
;B[kn]
;W[jm]
;B[ln]
;W[fd]
;B[cg]
;W[ch]
;B[bg]
;W[mo]
;B[jn]
;W[nc]
;B[nd]
;W[pb]
;B[ob]
;W[oa]
;B[qc]
;W[qg]
;B[jc]
;W[jb]
;B[mc]
;W[mb]
;B[ib]
;W[kb]
;B[la]
;W[lb]
;B[gd]
;W[ge]
;B[jd]
;W[hf]
;B[ic]
;W[hb]
;B[ha]
;W[ga]
;B[ia]
;W[bd]
;B[cd]
;W[cc]
;B[bi]
;W[ee]
;B[eg]
;W[fg]
;B[im]
;W[il]
;B[hm]
;W[hl]
;B[lk]
;W[jk]
;B[bc]
;W[bb]
;B[ci]
;W[rp]
;B[qq]
;W[nl]
;B[en]
;W[em]
;B[gm]
;W[fn]
;B[gl]
;W[gk]
;B[ho]
;W[fl]
;B[lg]
;W[kg]
;B[go]
;W[fo]
;B[fp]
;W[eo]
;B[ep]
;W[rf]
;B[nk]
;W[ok]
;B[ol]
;W[pl]
;B[oj]
;W[pk]
;B[re]
;W[se]
;B[sd]
;W[sf]
;B[rc]
;W[jr]
;B[ir]
;W[oe]
;B[od]
;W[kr]
;B[mr]
;W[lr]
;B[nf]
;W[og]
;B[be]
;W[hr]
;B[iq]
;W[is]
;B[gs]
;W[gr]
;B[fr]
;W[hs]
;B[fs]
;W[ac]
;B[dh]
;W[ef]
;B[lj]
;W[ki]
;B[ni]
;W[nh]
;B[hq]
;W[js]
;B[qf]
;W[rg]
;B[nm]
;W[om]
;B[hc]
;W[gb]
;B[ed]
;W[ec]
;B[of]
;W[mm]
;B[lf]
;W[oi]
;B[nj]
;W[dd]
;B[pj]
;W[qj]
;B[pg]
;W[ph]
;B[pf]
;W[eh]
;B[dg]
;W[ms]
;B[ns]
;W[ls]
;B[sp]
;W[so]
;B[sq]
;W[ke]
;B[le]
;W[df]
;B[ml]
;W[nn]
;B[nq]
;W[np]
;B[kq]
;W[kp]
;B[jq]
;W[lq]
;B[hn]
;W[ko]
;B[jo]
;W[cf]
;B[bf]
;W[ae]
;B[af]
;W[ad]
;B[ej]
;W[fj])