(;SO[Cho Chikun Internet Book]CP[My Friday Night Files, 2002]AP[SGFcv.py:0.3]GM[1]FF[4]RO[League, game 29]
PB[Takemiya Masaki]
BR[9 dan]
PW[Cho Chikun]
WR[9 dan]
KM[5.5]
DT[1994-07-07]
RE[W+R]
US[JBvR]
EV[Meijin, 19th]

;B[pd]
;W[dd]
;B[pp]
;W[dp]
;B[pj]
;W[nc]
;B[pf]
;W[kc]
;B[jp]
;W[hq]
;B[pn]
;W[cf]
;B[ho]
;W[fq]
;B[iq]
;W[hp]
;B[io]
;W[pq]
;B[oq]
;W[or]
;B[op]
;W[qq]
;B[nr]
;W[ro]
;B[rn]
;W[qo]
;B[qn]
;W[pr]
;B[so]
;W[rr]
;B[cn]
;W[co]
;B[dn]
;W[dk]
;B[ij]
;W[jh]
;B[hi]
;W[di]
;B[ki]
;W[mh]
;B[kh]
;W[oh]
;B[ph]
;W[oj]
;B[pi]
;W[oe]
;B[pe]
;W[mj]
;B[kf]
;W[me]
;B[ng]
;W[lg]
;B[kg]
;W[og]
;B[of]
;W[nf]
;B[oc]
;W[nb]
;B[cc]
;W[dc]
;B[db]
;W[eb]
;B[bb]
;W[cd]
;B[bd]
;W[be]
;B[jc]
;W[jd]
;B[ic]
;W[kd]
;B[fb]
;W[da]
;B[ca]
;W[cb]
;B[lf]
;W[mf]
;B[db]
;W[fo]
;B[fn]
;W[cb]
;B[oi]
;W[ba]
;B[ni]
;W[mi]
;B[nh]
;W[mg]
;B[id]
;W[pb]
;B[nd]
;W[md]
;B[ob]
;W[oa]
;B[qc]
;W[ie]
;B[he]
;W[hf]
;B[je]
;W[if]
;B[ge]
;W[gf]
;B[fe]
;W[gh]
;B[kb]
;W[lb]
;B[jb]
;W[gb])