(;CP[My Friday Night Files, 2002]AP[SGFcv.py:0.3]GM[1]FF[4]RO[1]
PB[Cho Chikun]
BR[9 dan]
PW[Kato Masao]
WR[9 dan]
KM[5.5]
RE[B+R]
SO[Go Weekly]
US[JBvR]
DT[1994-10-21]
EV[Oza, 42nd, match]

;B[pd]
;W[dp]
;B[pp]
;W[dd]
;B[fq]
;W[dn]
;B[dr]
;W[qn]
;B[pk]
;W[nq]
;B[pn]
;W[pm]
;B[on]
;W[qo]
;B[qp]
;W[om]
;B[np]
;W[mp]
;B[nm]
;W[op]
;B[po]
;W[ql]
;B[no]
;W[nl]
;B[mm]
;W[kq]
;B[qk]
;W[ol]
;B[iq]
;W[pq]
;B[qq]
;W[pr]
;B[lp]
;W[mq]
;B[kr]
;W[lq]
;B[jq]
;W[ko]
;B[nj]
;W[mk]
;B[km]
;W[kk]
;B[im]
;W[ph]
;B[lr]
;W[ln]
;B[ml]
;W[nk]
;B[kl]
;W[nh]
;B[jo]
;W[jp]
;B[ip]
;W[kp]
;B[oq]
;W[nc]
;B[qg]
;W[qh]
;B[rh]
;W[pg]
;B[qf]
;W[ri]
;B[pc]
;W[ck]
;B[rg]
;W[fc]
;B[jk]
;W[rk]
;B[kc]
;W[ic]
;B[nd]
;W[mc]
;B[md]
;W[lc]
;B[ld]
;W[kb]
;B[kd]
;W[jb]
;B[bd]
;W[cd]
;B[bf]
;W[bc]
;B[ci]
;W[bh]
;B[bi]
;W[ch]
;B[dh]
;W[cg]
;B[cm]
;W[dk]
;B[dm]
;W[em]
;B[el]
;W[dl]
;B[bl]
;W[bk]
;B[co]
;W[fm]
;B[do]
;W[eo]
;B[cp]
;W[fj]
;B[dg]
;W[cf]
;B[gh]
;W[ei]
;B[gk]
;W[gj]
;B[hj]
;W[gl]
;B[fk]
;W[hk]
;B[hl]
;W[ek]
;B[ik]
;W[fg]
;B[mi]
;W[ni]
;B[mj]
;W[oj]
;B[rp]
;W[ob]
;B[pb]
;W[pa]
;B[qa]
;W[oa]
;B[rb]
;W[hf]
;B[gg]
;W[gf]
;B[gi]
;W[fh]
;B[lk]
;W[mh]
;B[li]
;W[ro]
;B[so]
;W[sn]
;B[sp]
;W[rm]
;B[ak]
;W[aj]
;B[al]
;W[bj]
;B[go])