(;US[JBvR]SO[Cho Chikun Internet Book]CP[My Friday Night Files, 2002]AP[SGFcv.py:0.3]GM[1]FF[4]EV[Oteai]
PW[Kamimura Kunio]
WR[6d]
PB[Cho Chikun]
BR[4d]
DT[1971-05-19]
KM[0]
RE[B+R]

;B[qd]
;W[oq]
;B[cp]
;W[oc]
;B[ec]
;W[eq]
;B[iq]
;W[en]
;B[cm]
;W[kq]
;B[io]
;W[cq]
;B[bq]
;W[cr]
;B[ep]
;W[bp]
;B[dp]
;W[bo]
;B[dq]
;W[dr]
;B[er]
;W[br]
;B[dn]
;W[fq]
;B[fr]
;W[gq]
;B[gr]
;W[go]
;B[gp]
;W[fp]
;B[fo]
;W[hp]
;B[hq]
;W[gp]
;B[gn]
;W[eo]
;B[ip]
;W[fn]
;B[ho]
;W[fo]
;B[gm]
;W[fl]
;B[fm]
;W[em]
;B[el]
;W[ek]
;B[dl]
;W[do]
;B[dj]
;W[fk]
;B[dh]
;W[hk]
;B[jl]
;W[jk]
;B[kk]
;W[jj]
;B[kl]
;W[kj]
;B[qp]
;W[pe]
;B[qe]
;W[pg]
;B[qg]
;W[qh]
;B[pd]
;W[qf]
;B[oe]
;W[pf]
;B[od]
;W[mc]
;B[ob]
;W[nb]
;B[pc]
;W[nc]
;B[mq]
;W[mp]
;B[lq]
;W[lp]
;B[kr]
;W[pp]
;B[qo]
;W[qq]
;B[rq]
;W[qr]
;B[po]
;W[oo]
;B[on]
;W[nn]
;B[no]
;W[op]
;B[om]
;W[cf]
;B[bg]
;W[dc]
;B[dd]
;W[cd]
;B[cc]
;W[db]
;B[ce]
;W[bd]
;B[eb]
;W[cb]
;B[be]
;W[de]
;B[ed]
;W[bf]
;B[bc]
;W[ae]
;B[bb]
;W[ch]
;B[ci]
;W[bh]
;B[bi]
;W[cg]
;B[rr]
;W[mn]
;B[qj]
;W[ei]
;B[di]
;W[pb]
;B[qb]
;W[oa]
;B[rg]
;W[rf]
;B[rh]
;W[rb]
;B[rc]
;W[qa]
;B[ng]
;W[nh]
;B[oh]
;W[nf]
;B[of]
;W[og]
;B[mg]
;W[oi]
;B[me]
;W[pk]
;B[pj]
;W[oj]
;B[ok]
;W[ol]
;B[nk]
;W[nl]
;B[pl]
;W[pm]
;B[qk]
;W[pn]
;B[mh]
;W[ri]
;B[rj])