(;US[JBvR]SO[Cho Chikun Internet Book]CP[My Friday Night Files, 2002]AP[SGFcv.py:0.3]GM[1]FF[4]EV[Oteai]
PW[Cho Chikun]
WR[5d]
PB[Noguchi Hitoshi]
BR[4d]
DT[1971-11-10]
KM[0]
RE[Jigo]

;B[pd]
;W[dc]
;B[pq]
;W[cp]
;B[eq]
;W[qo]
;B[pl]
;W[no]
;B[oo]
;W[on]
;B[op]
;W[pm]
;B[nn]
;W[ql]
;B[nm]
;W[ol]
;B[pk]
;W[om]
;B[mo]
;W[iq]
;B[en]
;W[cm]
;B[kq]
;W[gq]
;B[cq]
;W[bq]
;B[cr]
;W[dp]
;B[ep]
;W[dl]
;B[hn]
;W[dq]
;B[dr]
;W[fr]
;B[er]
;W[ho]
;B[go]
;W[io]
;B[gp]
;W[kr]
;B[jr]
;W[jq]
;B[lr]
;W[kp]
;B[lq]
;W[ir]
;B[ce]
;W[cg]
;B[ee]
;W[gc]
;B[fd]
;W[ec]
;B[ic]
;W[gd]
;B[ge]
;W[he]
;B[hd]
;W[gf]
;B[fe]
;W[hb]
;B[eg]
;W[ie]
;B[dj]
;W[di]
;B[dh]
;W[ci]
;B[ei]
;W[cj]
;B[kc]
;W[fh]
;B[eh]
;W[fm]
;B[bc]
;W[bb]
;B[hh]
;W[br]
;B[cn]
;W[bn]
;B[co]
;W[bo]
;B[do]
;W[bp]
;B[fq]
;W[gr]
;B[em]
;W[fk]
;B[ig]
;W[nd]
;B[fc]
;W[fb]
;B[le]
;W[pf]
;B[qk]
;W[rl]
;B[qf]
;W[qg]
;B[qe]
;W[pg]
;B[oe]
;W[ld]
;B[kd]
;W[mf]
;B[of]
;W[lf]
;B[ke]
;W[og]
;B[me]
;W[qc]
;B[pc]
;W[dm]
;B[fl]
;W[ne]
;B[kg]
;W[pe]
;B[qd]
;W[od]
;B[nj]
;W[nl]
;B[mi]
;W[ej]
;B[fj]
;W[ek]
;B[gl]
;W[gk]
;B[rp]
;W[ob]
;B[pb]
;W[lh]
;B[kj]
;W[jh]
;B[jg]
;W[hl]
;B[hm]
;W[el]
;B[gm]
;W[im]
;B[il]
;W[hk]
;B[in]
;W[gh]
;B[gi]
;W[fi]
;B[gg]
;W[gj]
;B[fg]
;W[li]
;B[lj]
;W[mk]
;B[mj]
;W[jm]
;B[jn]
;W[km]
;B[ji]
;W[mm]
;B[mn]
;W[mp]
;B[lp]
;W[lo]
;B[ln]
;W[kn]
;B[ko]
;W[jo]
;B[fn]
;W[lo]
;B[np]
;W[lm]
;B[ko]
;W[jb]
;B[hc]
;W[gb]
;B[jc]
;W[lo]
;B[mq]
;W[oi]
;B[fj]
;W[oj]
;B[ks]
;W[ko]
;B[ro]
;W[rn]
;B[rg]
;W[rh]
;B[rf]
;W[qp]
;B[qq]
;W[rq]
;B[rr]
;W[kb]
;B[ib]
;W[lc]
;B[ja]
;W[mb]
;B[ka]
;W[pa]
;B[qa]
;W[oa]
;B[qb]
;W[kf]
;B[jf]
;W[lb]
;B[je]
;W[bd]
;B[be]
;W[mh]
;B[bg]
;W[ch]
;B[sh]
;W[ri]
;B[cd]
;W[cc]
;B[ad]
;W[ab]
;B[bh]
;W[bi]
;B[po]
;W[so]
;B[sq]
;W[ha]
;B[ia]
;W[ah]
;B[cf]
;W[ag]
;B[bf]
;W[kh]
;B[ii]
;W[qn]
;B[nk]
;W[ok]
;B[hp]
;W[jk]
;B[ip]
;W[jp]
;B[hq]
;W[hr]
;B[af]
;W[ai]
;B[ij]
;W[ik]
;B[lk]
;W[cs]
;B[oc]
;W[nc]
;B[la]
;W[ma]
;B[md]
;W[mc]
;B[ni]
;W[nh]
;B[lg]
;W[mg]
;B[fi]
;W[si]
;B[sg]
;W[dn]
;B[eo]
;W[ac]
;B[bd]
;W[dd]
;B[de]
;W[is]
;B[js]
;W[dg]
;B[kl]
;W[jl]
;B[df]
;W[fs]
;B[ml]
;W[ll]
;B[kk])