

(;GM[1]PB[Takemiya Masaki]PW[Otake Hideo]SZ[19]FF[3]DT[1988-07-20,21 or 22]PC[Urayasu]RE[B+R]BS[0]WS[0]KM[5.5];B[pd];W[dd];B[pp];W[dq];B[pj];W[ck];B[fc];W[nq];B[lq]
;W[qq];B[qp];W[pq];B[op];W[nr];B[mo];W[nc];B[pf];W[pb];B[cc]
;W[dc];B[cd];W[de];B[db];W[eb];B[cb];W[ec];B[cf];W[fd];B[me]
;W[ld];B[le];W[ke];B[kf];W[kd];B[jf];W[kk];B[do];W[fp];B[dl]
;W[cl];B[dm];W[ej];B[cq];W[cr];B[cp];W[er];B[cm];W[ch];B[cg]
;W[nj];B[dh];W[ci];B[je];W[nl];B[pl];W[qc];B[jd];W[md];B[mk]
;W[ml];B[lk];W[ll];B[mi];W[pm];B[qm];W[ol];B[ql];W[oj];B[pi]
;W[ki];B[li];W[kl];B[nd];W[mb];B[hq];W[kh];B[lg];W[bq];B[bp]
;W[br];B[go];W[rf];B[ik];W[ii];B[hi];W[hh];B[gi];W[ij];B[hj]
;W[hk];B[il];W[ig];B[fh];W[hl];B[im];W[fk];B[ff];W[kn];B[hf]
;W[eg];B[ef];W[en];B[jo];W[oh];B[jj];W[kj];B[ji];W[ih];B[jk]
;W[ph];B[mg];W[oi];B[re];W[lp];B[mp];W[kp];B[ko];W[lo];B[ln]
;W[mn];B[lm];W[jp];B[ip];W[jq];B[jr];W[io];B[jn];W[km];B[iq]
;W[mm];B[ln];W[lm];B[kq];W[ln];B[mq];W[on];B[oo];W[qi];B[qj]
;W[qg];B[qf];W[rj];B[rk];W[rh];B[rq];W[rr];B[rp];W[qn];B[rn]
;W[hd];B[fl];W[fm];B[gm];W[el];B[gl];W[gk];B[ho];W[em];B[dk]
;W[ei];B[eh];W[ek];B[jh];W[dg];B[df];W[ne];B[nf];W[sk];B[sl]
;W[sj];B[cj];W[bj];B[dj];W[di];B[bi];W[bk];B[bh];W[bm];B[bn]
;W[an];B[al];W[cn];B[dn];W[bo];B[co];W[jc];B[sr];W[od];B[bn]
)