

(;GM[1]SZ[19]DT[1988-06-08,09]PC[Kyoto]PW[Otake Hideo]PB[Takemiya Masaki]KM[5.5]RE[B+4.5]FF[3]BS[0]WS[0];B[pd];W[dp];B[pp];W[dc];B[pj];W[nq];B[pn];W[jp];B[de]
;W[ce];B[cf];W[cd];B[gf];W[gc];B[dm];W[fp];B[gm];W[no];B[df]
;W[nm];B[pl];W[id];B[cn];W[co];B[hj];W[nc];B[pf];W[gh];B[if]
;W[ih];B[jj];W[kh];B[kf];W[fi];B[dj];W[fk];B[lj];W[gl];B[hm]
;W[ik];B[ji];W[fm];B[fn];W[gn];B[em];W[fl];B[go];W[hn];B[fo]
;W[in];B[do];W[cp];B[gp];W[fq];B[jl];W[il];B[ej];W[ij];B[jh]
;W[qc];B[pc];W[pb];B[qd];W[rb];B[rc];W[qb];B[oq];W[nr];B[gq]
;W[qq];B[qp];W[or];B[oc];W[ob];B[nd];W[mc];B[md];W[ld];B[le]
;W[kd];B[rq];W[nk];B[ml];W[nl];B[ni];W[fr];B[lo];W[jm];B[mn]
;W[nn];B[kl];W[pq];B[rr];W[op];B[bf];W[ii];B[lq];W[mj];B[mi]
;W[lk];B[ll];W[kn];B[ln];W[mp];B[je];W[hd];B[rd];W[pm];B[qm]
;W[om];B[pk];W[kj];B[li];W[be];B[bn];W[bo];B[gr];W[an];B[am]
;W[ao];B[bm];W[dh];B[eh];W[ei];B[di];W[eg];B[ch];W[jk];B[kk]
;W[jg];B[ki];W[ig];B[kg];W[dg];B[dr];W[dq];B[cr];W[bq];B[jq]
;W[qr];B[cg];W[fg];B[er];W[es];B[br];W[aq];B[ar];W[fs];B[ds]
;W[bs];B[eo];W[eq];B[gs];W[cs];B[ip];W[kp];B[kq];W[ks];B[kr]
;W[ms];B[js];W[fe];B[ed];W[ec];B[fd];W[fc];B[ge];W[po];B[qo]
;W[on];B[qn];W[rs];B[mk];W[ls];B[lp];W[ee];B[dd];W[ae];B[jd]
;W[jc];B[gg];W[fh];B[gd];W[sb];B[ke];W[kc];B[ko];W[jo];B[nj]
;W[sr];B[rp];W[af];B[ag];W[fj];B[km];W[jn];B[hg];W[he];B[hf]
;W[el];B[dl];W[ek];B[dk];W[sc];B[sd];W[hh];B[ho];W[ok];B[oj]
;W[mm];B[lm];W[mq];B[lr];W[mr];B[oo];W[qs];B[sq];W[po];B[ss]
;W[oo];B[sr])