(;GM[1]FF[3]DT[1990-11-07,08]SZ[19]PB[Kobayashi Koichi]PW[Otake Hideo]KM[5.5]RE[B+R]ID[90/6]BS[0]WS[0]BR[9 Dan]WR[9 Dan];B[pd];W[dc];B[pq];W[co];B[cq];W[ep];B[eq];W[fp];B[bo]
;W[cn];B[fq];W[gp];B[bn];W[cm];B[dp];W[do];B[cp];W[po];B[np]
;W[qq];B[qr];W[qp];B[or];W[qk];B[cf];W[de];B[bd];W[dh];B[df]
;W[ef];B[eg];W[dg];B[ee];W[ff];B[dd];W[ed];B[ce];W[fe];B[ec]
;W[de];B[db];W[cd];B[cc];W[dd];B[fd];W[ee];B[bb];W[fc];B[eb]
;W[gd];B[nd];W[qh];B[kd];W[ko];B[nn];W[pm];B[ej];W[fh];B[cj]
;W[gq];B[kq];W[mo];B[lp];W[dk];B[dj];W[no];B[lo];W[ln];B[mn]
;W[oo];B[kn];W[lm];B[km];W[ll];B[kl];W[lk];B[fm];W[en];B[jo]
;W[mp];B[mq];W[nq];B[nr];W[qf];B[qe];W[pf];B[re];W[mf];B[ne]
;W[nf];B[jc];W[fl];B[bg];W[oc];B[nc];W[rf];B[oe];W[se];B[sd]
;W[sf];B[rd];W[kf];B[jj];W[gl];B[li];W[bh];B[lj];W[kk];B[jk]
;W[nk];B[lg];W[lf];B[nj];W[hk];B[kj];W[mk];B[fi];W[bf];B[be]
;W[fg];B[bi];W[cg];B[af];W[ni];B[nh];W[oi];B[il];W[rr];B[rs]
;W[sq];B[hc];W[jr];B[kr];W[id];B[gb];W[jq];B[gm];W[hm];B[hn]
;W[hl];B[gn];W[ck];B[ah];W[gr];B[er];W[im];B[io];W[kg];B[em]
;W[dm];B[js];W[is];B[ir];W[ks];B[iq];W[lr];B[mr];W[gj];B[op]
;W[pp];B[oq];W[mh];B[gi];W[hi];B[hh];W[ii];B[gh];W[ih];B[hf]
;W[if];B[fo];W[eo];B[el];W[ek];B[bk];W[bl];B[al];W[am];B[ak]
;W[bm];B[dl];W[cl];B[ig];W[jg];B[hg];W[lh];B[kh];W[jh];B[je]
;W[ie];B[jf];W[ic];B[ib];W[he];B[ld];W[gc];B[mi];W[ki];B[og]
;W[of];B[oj];W[pi];B[ok];W[nl];B[mj];W[fb];B[fa];W[ch];B[fj]
;W[fk];B[ol];W[om];B[jp];W[gs];B[lq];W[es];B[ds])