(;GM[1]VW[]FF[3]DT[1984-09-26,27]SZ[19]PB[Cho Chikun]
PW[Otake Hideo]KM[5.5]PC[Akanesaki]RE[W+R]ID[84/2]BS[0]WS[0]KI[11]
;B[pd];W[dd];B[pq];W[dp];B[qk];W[nc];B[pf];W[pb];B[qc]
;W[kc];B[fq];W[cn];B[dr];W[po];B[nq];W[cq];B[hp];W[no];B[cf]
;W[be];B[bf];W[ce];B[df];W[fd];B[cj];W[qq];B[qr];W[qp];B[rr]
;W[qm];B[ok];W[lq];B[mp];W[jq];B[iq];W[ln];B[mo];W[mn];B[kp]
;W[jp];B[ko];W[ip];B[hq];W[in];B[kn];W[ho];B[om];W[pl];B[ol]
;W[pk];B[pj];W[pm];B[on];W[qj];B[qi];W[rj];B[pi];W[rk];B[ld]
;W[lc];B[nd];W[oc];B[jl];W[od];B[fo];W[il];B[ik];W[hl];B[cl]
;W[jm];B[km];W[jk];B[kl];W[cr];B[ij];W[go];B[jr];W[gp];B[eq]
;W[gq];B[gr];W[fp];B[kq];W[fr];B[hr];W[he];B[je];W[dh];B[ei]
;W[eh];B[fh];W[fg];B[eg];W[fi];B[gh];W[gg];B[hh];W[hg];B[ih]
;W[jf];B[kf];W[jg];B[ee];W[id];B[jd];W[jc];B[fe];W[ed];B[ge]
;W[gd];B[hf];W[if];B[gf];W[ke];B[ae];W[ig];B[di];W[oe];B[lh]
;W[kh];B[ki];W[jh];B[ji];W[lg];B[mh];W[oo];B[mf];W[pe];B[qe]
;W[qf];B[rf];W[qg];B[rg];W[mg];B[nf];W[re];B[qd];W[rh];B[ri]
;W[pg])