(;SZ[19]FF[3]
PW[Kitani Minoru]
WR[8d]
PB[Otake Hideo]
BR[Prov. 1d]
EV[Master-pupil game to mark Kitani's return from illness, sponsored by Kido]
DT[1954-12-29]
PC[Kitani's house, Hiratsuka City]
HA[3]
RE[W+R]
US[GoGoD95]
AB[pd][dp][pp]
;W[cd];B[ec];W[ic];B[ef];W[cg];B[cc];W[bc];B[dd];W[ce];B[cb];W[nc];B[pf]
;W[qh];B[kd];W[me];B[kf];W[oe];B[pe];W[kc];B[ld];W[lc];B[md];W[nd];B[mc]
;W[mb];B[jd];W[jc];B[ob];W[nb];B[qk];W[oh];B[nf];W[of];B[pg];W[ph];B[og]
;W[ng];B[mf];W[nh];B[qc];W[pn];B[ok];W[mk];B[ml];W[lk];B[nl];W[nn];B[np]
;W[ln];B[km];W[mp];B[ll];W[kk];B[mq];W[lp];B[no];W[mo];B[lq];W[kq];B[kr]
;W[jq];B[jr];W[iq];B[im];W[fd];B[de];W[lf];B[lg];W[le];B[mg];W[ne];B[kh]
;W[jn];B[jm];W[ik];B[ih];W[pl];B[pk];W[mh];B[if];W[qq];B[qp];W[nq];B[nr]
;W[oq];B[or];W[pq];B[op];W[rp];B[ro];W[rq];B[qn];W[pr];B[ir];W[ql];B[rl]
;W[rm];B[qm];W[pm];B[sm];W[rk];B[rn];W[rj];B[so];W[hq];B[sp];W[rr];B[qs]
;W[ps];B[sq];W[sr];B[rs];W[hr];B[mr];W[ls];B[os];W[hm];B[hn];W[gm];B[hl]
;W[il];B[jo];W[gn];B[go];W[ho];B[in];W[io];B[kn];W[ko];B[fo];W[gk];B[fl]
;W[gl];B[hb];W[pb];B[oc];W[oa];B[na];W[ma];B[qb];W[ib];B[ci];W[ch];B[di]
;W[bb];B[ia];W[ja];B[kb];W[lb];B[ka];W[hc];B[gb];W[gc];B[fc];W[ha];B[fa]
;W[he];B[hj];W[hk];B[id];W[gg];B[gh];W[fg];B[hg];W[fe];B[hd];W[gd];B[dh]
;W[dg];B[eg];W[fh]
)
