(;US[JBvR]CP[My Friday Night Files, 2002]AP[SGFcv.py:0.3]GM[1]FF[4]RO[semifinal]
PB[Cho Chikun]
PW[Ishii Kunio]
WR[9 dan]
KM[5.5]
DT[1984-01-21]
RE[B+R]
SO[1984 Kidoyearbook]
BR[9 dan]
EV[NEC Cup, 3rd]

;B[qd]
;W[dd]
;B[pq]
;W[cp]
;B[oc]
;W[qn]
;B[qp]
;W[qk]
;B[eq]
;W[qh]
;B[cf]
;W[fc]
;B[cm]
;W[ep]
;B[fp]
;W[eo]
;B[dq]
;W[cq]
;B[em]
;W[fn]
;B[hq]
;W[di]
;B[gl]
;W[hn]
;B[ef]
;W[gi]
;B[il]
;W[jn]
;B[kq]
;W[dg]
;B[df]
;W[cd]
;B[gf]
;W[ii]
;B[kl]
;W[cn]
;B[if]
;W[hk]
;B[gm]
;W[hp]
;B[gq]
;W[hl]
;B[hm]
;W[im]
;B[gn]
;W[jl]
;B[ho]
;W[ic]
;B[bm]
;W[bn]
;B[ik]
;W[jk]
;B[ij]
;W[hj]
;B[jj]
;W[kk]
;B[kj]
;W[lk]
;B[jh]
;W[fg]
;B[eg]
;W[dl]
;B[ei]
;W[eh]
;B[fh]
;W[ej]
;B[dh]
;W[fi]
;B[eh]
;W[dj]
;B[gk]
;W[fj]
;B[ck]
;W[el]
;B[dm]
;W[fm]
;B[bi]
;W[cl]
;B[bk]
;W[bl]
;B[al]
;W[an]
;B[am]
;W[fl]
;B[mi]
;W[mj]
;B[ni]
;W[ok]
;B[gc]
;W[gd]
;B[fd]
;W[ec]
;B[kc]
;W[hd]
;B[pn]
;W[qm]
;B[qf]
;W[op]
;B[oq]
;W[ji]
;B[ki]
;W[kd]
;B[lc]
;W[kh]
;B[ih]
;W[hi]
;B[kg]
;W[lh]
;B[li]
;W[lg]
;B[ng]
;W[kf]
;B[pi]
;W[qi]
;B[pj]
;W[pk]
;B[np]
;W[ld]
;B[md]
;W[me]
;B[nd]
;W[hg]
;B[be]
;W[io]
;B[in]
;W[ci]
;B[bh]
;W[hn]
;B[go]
;W[rf]
;B[re]
;W[gg]
;B[le]
;W[ke]
;B[no]
;W[kp]
;B[jp]
;W[jq]
;B[iq]
;W[lp]
;B[jr]
;W[pf]
;B[qg]
;W[ph]
;B[ne]
;W[rg]
;B[bc]
;W[bd]
;B[ad]
;W[bb]
;B[jc]
;W[jd]
;B[ff]
;W[hf]
;B[cr]
;W[br]
;B[ln]
;W[ko]
;B[nj]
;W[nk]
;B[ml]
;W[mm]
;B[lm]
;W[ll]
;B[nm]
;W[pg]
;B[qe]
;W[jb]
;B[ka]
;W[ro]
;B[rp]
;W[mf]
;B[in]
;W[ch]
;B[cg]
;W[hn]
;B[nf]
;W[mq]
;B[in]
;W[jm]
;B[jo]
;W[kn]
;B[qo]
;W[rn]
;B[ab]
;W[cc]
;B[ac]
;W[ba]
;B[ib]
;W[hb]
;B[dr]
;W[kb]
;B[lb]
;W[ia]
;B[bs]
;W[ar]
;B[sf]
;W[rh]
;B[so]
;W[pm]
;B[om]
;W[nr]
;B[or]
;W[sn]
;B[sp]
;W[sg]
;B[mn]
;W[nl]
;B[mg])