(;SO[Cho Chikun Internet Book]CP[My Friday Night Files, 2002]AP[SGFcv.py:0.3]GM[1]FF[4]PW[Oyama Kunio]
WR[9d]
PB[Cho Chikun]
BR[9d]
RO[Round 1]
DT[1984-11-01]
KM[5.5]
RE[B+R]
US[JBvR]
EV[Gosei, 10th]

;B[pd]
;W[dp]
;B[pq]
;W[cc]
;B[qk]
;W[nc]
;B[pf]
;W[jd]
;B[fq]
;W[dn]
;B[jp]
;W[df]
;B[po]
;W[ne]
;B[oc]
;W[nb]
;B[nf]
;W[mf]
;B[ng]
;W[lo]
;B[kn]
;W[qq]
;B[qp]
;W[oq]
;B[pr]
;W[op]
;B[pp]
;W[nn]
;B[ln]
;W[kq]
;B[jq]
;W[kr]
;B[mq]
;W[mp]
;B[nq]
;W[np]
;B[or]
;W[lq]
;B[mn]
;W[jr]
;B[ir]
;W[mr]
;B[nr]
;W[iq]
;B[hr]
;W[ko]
;B[jo]
;W[nm]
;B[ll]
;W[ol]
;B[me]
;W[qc]
;B[ob]
;W[le]
;B[md]
;W[nd]
;B[lf]
;W[mg]
;B[ld]
;W[ke]
;B[mh]
;W[lg]
;B[nk]
;W[ok]
;B[nj]
;W[ql]
;B[rk]
;W[ls]
;B[ns]
;W[ms]
;B[js]
;W[oj]
;B[qi]
;W[ni]
;B[lh]
;W[kg]
;B[lj]
;W[pi]
;B[qh]
;W[nh]
;B[ph]
;W[jn]
;B[jm]
;W[in]
;B[ip]
;W[gp]
;B[hq]
;W[dr]
;B[is]
;W[ks]
;B[kp]
;W[lp]
;B[oo]
;W[no]
;B[im]
;W[hn]
;B[hp]
;W[gn]
;B[er]
;W[kh]
;B[ki]
;W[ji]
;B[jj]
;W[ii]
;B[hk]
;W[ij]
;B[jk]
;W[fj]
;B[gl]
;W[el]
;B[qd]
;W[oa]
;B[pa]
;W[na]
;B[qb]
;W[cq]
;B[fk]
;W[ek]
;B[hi]
;W[hj]
;B[gj]
;W[gi]
;B[fi]
;W[gk]
;B[dc]
;W[cd]
;B[gj]
;W[pm]
;B[on]
;W[gk]
;B[cb]
;W[bb]
;B[gj]
;W[qn]
;B[ro]
;W[gk]
;B[eb]
;W[gb]
;B[gj]
;W[rn]
;B[rl]
;W[gk]
;B[lb])