(;SO[Cho Chikun Internet Book]CP[My Friday Night Files, 2002]AP[SGFcv.py:0.3]GM[1]FF[4]PW[Cho Chikun]
PB[Otake Hideo]
KM[5.5]
RE[B+R]
BR[9 Dan]
WR[9 Dan]
RO[3]
US[JBvR]
DT[1984-10-03,04]
EV[Meijin, 9th, match]

;B[qd]
;W[dd]
;B[pq]
;W[oc]
;B[cp]
;W[po]
;B[ld]
;W[of]
;B[qg]
;W[jc]
;B[ke]
;W[ie]
;B[kg]
;W[lb]
;B[eq]
;W[np]
;B[qo]
;W[qn]
;B[qp]
;W[pn]
;B[cf]
;W[cd]
;B[ci]
;W[ki]
;B[ig]
;W[df]
;B[dg]
;W[eg]
;B[dh]
;W[ef]
;B[fi]
;W[bf]
;B[ip]
;W[dl]
;B[dn]
;W[fk]
;B[bg]
;W[ce]
;B[cg]
;W[dj]
;B[eh]
;W[hk]
;B[fm]
;W[hm]
;B[pi]
;W[qf]
;B[rf]
;W[rg]
;B[re]
;W[qh]
;B[pg]
;W[ph]
;B[og]
;W[oh]
;B[ng]
;W[rh]
;B[nh]
;W[qb]
;B[oi]
;W[qk]
;B[jk]
;W[jl]
;B[kl]
;W[jm]
;B[ik]
;W[en]
;B[em]
;W[dm]
;B[cn]
;W[kk]
;B[kj]
;W[lk]
;B[lj]
;W[mk]
;B[mj]
;W[ho]
;B[fn]
;W[hp]
;B[gl]
;W[hl]
;B[gk]
;W[or]
;B[pr]
;W[nk]
;B[nr]
;W[mr]
;B[nq]
;W[mq]
;B[op]
;W[ns]
;B[oq]
;W[gj]
;B[fj]
;W[fp]
;B[ep]
;W[fr]
;B[oo]
;W[no]
;B[nn]
;W[lo]
;B[on]
;W[pe]
;B[qc]
;W[pb]
;B[rb]
;W[hf]
;B[ln])