(;SO[Cho Chikun Internet Book]CP[My Friday Night Files, 2002]AP[SGFcv.py:0.3]GM[1]FF[4]RE[B+1.5]
BR[9 Dan]
WR[9 Dan]
RO[4]
DT[1984-10-17,18]
US[JBvR]
KM[5.5]
EV[Meijin, 9th, match]
PB[Cho Chikun]
PW[Otake Hideo]

;B[qc]
;W[dc]
;B[dq]
;W[qp]
;B[ce]
;W[ed]
;B[oq]
;W[co]
;B[dm]
;W[en]
;B[po]
;W[qo]
;B[pn]
;W[qm]
;B[fp]
;W[em]
;B[dk]
;W[el]
;B[ch]
;W[cq]
;B[cr]
;W[dp]
;B[bq]
;W[eq]
;B[cp]
;W[dr]
;B[pm]
;W[qn]
;B[pl]
;W[cq]
;B[ql]
;W[bp]
;B[qr]
;W[rr]
;B[rq]
;W[qq]
;B[sr]
;W[rs]
;B[qs]
;W[rp]
;B[ss]
;W[sp]
;B[jq]
;W[pd]
;B[qd]
;W[pe]
;B[ob]
;W[md]
;B[rf]
;W[qf]
;B[rg]
;W[cd]
;B[de]
;W[ee]
;B[kd]
;W[lf]
;B[kf]
;W[lg]
;B[ef]
;W[ff]
;B[eg]
;W[id]
;B[kb]
;W[ib]
;B[ie]
;W[he]
;B[jd]
;W[hd]
;B[ng]
;W[le]
;B[mb]
;W[kg]
;B[jn]
;W[hq]
;B[mi]
;W[ki]
;B[kj]
;W[jj]
;B[kk]
;W[li]
;B[mj]
;W[cj]
;B[dj]
;W[ck]
;B[dl]
;W[ci]
;B[di]
;W[bh]
;B[cg]
;W[bm]
;B[iq]
;W[io]
;B[jo]
;W[hr]
;B[pg]
;W[ip]
;B[jp]
;W[ks]
;B[kr]
;W[in]
;B[rm]
;W[rn]
;B[rl]
;W[pr]
;B[pq]
;W[sq]
;B[or]
;W[rr]
;B[be]
;W[jm]
;B[km]
;W[jl]
;B[kl]
;W[bd]
;B[bg]
;W[bi]
;B[ad]
;W[ac]
;B[ae]
;W[bc]
;B[dn]
;W[cl]
;B[gl]
;W[jk]
;B[ps]
;W[rs]
;B[fk]
;W[ek]
;B[ej]
;W[fj]
;B[eo]
;W[fn]
;B[fi]
;W[gj]
;B[gi]
;W[hj]
;B[do]
;W[go]
;B[jb]
;W[ia]
;B[ir]
;W[is]
;B[js]
;W[jr]
;B[ls]
;W[fg]
;B[jf]
;W[ig]
;B[hh]
;W[hi]
;B[jg]
;W[jh]
;B[fh]
;W[ih]
;B[js]
;W[of]
;B[og]
;W[qe]
;B[re]
;W[hs]
;B[gp]
;W[fo]
;B[ep]
;W[hp]
;B[cn]
;W[bn]
;B[gf]
;W[gg]
;B[hf]
;W[hg]
;B[if]
;W[ge]
;B[mc]
;W[ld]
;B[nd]
;W[ne]
;B[od]
;W[nf]
;B[pc]
;W[qg]
;B[qh]
;W[lj]
;B[lk]
;W[mh]
;B[nh]
;W[mg]
;B[ic]
;W[hc]
;B[jc]
;W[ke]
;B[je]
;W[lc]
;B[lb]
;W[pp]
;B[op]
;W[gh]
;B[ja]
;W[hb]
;B[gq]
;W[gr]
;B[fq]
;W[fr]
;B[ah]
;W[ai]
;B[ag]
;W[sm]
;B[sl]
;W[sn])