(;US[JBvR]CP[My Friday Night Files, 2002]AP[SGFcv.py:0.3]GM[1]FF[4]RO[league]
PB[Cho Chikun]
PW[Rin Kaiho]
KM[5.5]
RE[B+0.5]
SO[Kido Yearbook 1989, p. 73]
DT[1988-05-19]
EV[Meijin, 13th]

;B[qd]
;W[dd]
;B[qp]
;W[dq]
;B[oc]
;W[op]
;B[co]
;W[dl]
;B[hq]
;W[cp]
;B[mq]
;W[qq]
;B[pp]
;W[pq]
;B[oq]
;W[rp]
;B[oo]
;W[np]
;B[or]
;W[qn]
;B[po]
;W[qo]
;B[pm]
;W[qm]
;B[pl]
;W[ql]
;B[pk]
;W[qj]
;B[mo]
;W[do]
;B[hn]
;W[cf]
;B[hk]
;W[jd]
;B[ih]
;W[qi]
;B[lc]
;W[kh]
;B[hd]
;W[ke]
;B[ki]
;W[li]
;B[kj]
;W[md]
;B[mc]
;W[jh]
;B[ii]
;W[lj]
;B[lh]
;W[ni]
;B[mh]
;W[nh]
;B[mf]
;W[mi]
;B[lf]
;W[kf]
;B[of]
;W[he]
;B[ge]
;W[hf]
;B[fd]
;W[gf]
;B[ff]
;W[fg]
;B[ef]
;W[eg]
;B[dc]
;W[cc]
;B[ed]
;W[db]
;B[ec]
;W[gh]
;B[df]
;W[ce]
;B[dg]
;W[kk]
;B[jk]
;W[kl]
;B[mm]
;W[ml]
;B[ig]
;W[eb]
;B[jf]
;W[hc]
;B[id]
;W[ic]
;B[je]
;W[gc]
;B[gd]
;W[kc]
;B[di]
;W[ej]
;B[ei]
;W[gj]
;B[fi]
;W[ld]
;B[fj]
;W[ch]
;B[cg]
;W[bg]
;B[dh]
;W[bi]
;B[ci]
;W[bh]
;B[dn]
;W[eo]
;B[dm]
;W[ck]
;B[fm]
;W[nm]
;B[mn]
;W[gr]
;B[gq]
;W[fr]
;B[hr]
;W[qf]
;B[bo]
;W[bp]
;B[nd]
;W[jl]
;B[jn]
;W[ik]
;B[ij]
;W[jj]
;B[cj]
;W[bj]
;B[dk]
;W[cl]
;B[el]
;W[re]
;B[rd]
;W[hl]
;B[gl]
;W[nk]
;B[qk]
;W[rk]
;B[pn]
;W[bm]
;B[de]
;W[cd]
;B[ji]
;W[pr]
;B[rl]
;W[rm]
;B[rq]
;W[rr]
;B[ps]
;W[sq]
;B[rj]
;W[sl]
;B[rg]
;W[qg]
;B[rh]
;W[rf]
;B[qh]
;W[ph]
;B[pi]
;W[pj]
;B[pg]
;W[oi]
;B[pf]
;W[ri]
;B[kb]
;W[jb]
;B[qe]
;W[sh]
;B[fq]
;W[er]
;B[se]
;W[sg]
;B[lb]
;W[cn]
;B[kg]
;W[qs]
;B[fc]
;W[fb]
;B[nq]
;W[os]
;B[ns]
;W[hs]
;B[is]
;W[gs]
;B[ir]
;W[gk]
;B[hj]
;W[ms]
;B[ps]
;W[gm]
;B[fl]
;W[os]
;B[nr]
;W[go]
;B[hm]
;W[lp]
;B[mp]
;W[nn]
;B[no]
;W[kn]
;B[ko]
;W[km]
;B[ln]
;W[sd]
;B[sc]
;W[ja]
;B[ng]
;W[mg]
;B[lg]
;W[il]
;B[me]
;W[jc]
;B[gn]
;W[ka]
;B[la]
;W[fn]
;B[ho]
;W[im]
;B[in]
;W[cm]
;B[em]
;W[gp]
;B[ep]
;W[dp]
;B[hp]
;W[fo]
;B[ok]
;W[oj]
;B[lm]
;W[ll]
;B[le]
;W[kd]
;B[ps])