(;US[JBvR]CP[My Friday Night Files, 2002]AP[SGFcv.py:0.3]GM[1]FF[4]RO[League, game 14]
PB[Kato Masao]
BR[Meijin]
PW[Cho Chikun]
WR[Tengen]
KM[5.5]
DT[1988-01-07]
RE[B+R]
SO[1989 Kido yearbook]
EV[Honinbo, 43rd]

;B[qd]
;W[dc]
;B[cp]
;W[pq]
;B[eq]
;W[ce]
;B[oc]
;W[qo]
;B[cj]
;W[jq]
;B[qj]
;W[jc]
;B[hq]
;W[jo]
;B[pr]
;W[or]
;B[oq]
;W[op]
;B[nq]
;W[nr]
;B[pp]
;W[qq]
;B[np]
;W[oo]
;B[mr]
;W[qr]
;B[no]
;W[fp]
;B[fq]
;W[on]
;B[nn]
;W[mq]
;B[om]
;W[nm]
;B[mm]
;W[nl]
;B[pm]
;W[qn]
;B[ml]
;W[nk]
;B[ns]
;W[ps]
;B[lq]
;W[mp]
;B[lp]
;W[mo]
;B[mn]
;W[lo]
;B[mk]
;W[nj]
;B[mj]
;W[ni]
;B[ko]
;W[ln]
;B[kn]
;W[lm]
;B[kr]
;W[km]
;B[kp]
;W[jm]
;B[mi]
;W[jj]
;B[nh]
;W[pi]
;B[qi]
;W[oh]
;B[ng]
;W[og]
;B[nf]
;W[qh]
;B[rh]
;W[qg]
;B[rg]
;W[qe]
;B[re]
;W[pe]
;B[qf]
;W[pf]
;B[rf]
;W[pd]
;B[qc]
;W[ne]
;B[me]
;W[nd]
;B[jh]
;W[jn]
;B[jp]
;W[je]
;B[jf]
;W[if]
;B[ke]
;W[ie]
;B[jg]
;W[kd]
;B[ho]
;W[hn]
;B[hh]
;W[gn]
;B[hj]
;W[dm]
;B[cg]
;W[ef]
;B[eg]
;W[do]
;B[ff]
;W[fe]
;B[cc]
;W[cd]
;B[db]
;W[cb]
;B[ec]
;W[dd]
;B[ge]
;W[gf]
;B[fg]
;W[ee]
;B[gd]
;W[he]
;B[gg]
;W[hf]
;B[fb]
;W[gc]
;B[bb]
;W[bc]
;B[ca]
;W[cc]
;B[md]
;W[nc]
;B[mc]
;W[nb]
;B[kb]
;W[jb]
;B[gb]
;W[hc]
;B[fd]
;W[hb]
;B[qm]
;W[mb]
;B[bn]
;W[gp]
;B[hp]
;W[gq]
;B[gr]
;W[hr]
;B[go]
;W[fo]
;B[ir]
;W[hk]
;B[gk]
;W[gl]
;B[hl]
;W[ik]
;B[fl]
;W[gm]
;B[fk]
;W[dp]
;B[dq]
;W[co]
;B[bo]
;W[dk]
;B[cm]
;W[cl]
;B[en]
;W[em]
;B[dn]
;W[fm]
;B[cn]
;W[fn]
;B[kk]C[time used:

W 5h 59m
B 5h 6m])