(;SO[Cho Chikun Internet Book]CP[My Friday Night Files, 2002]AP[SGFcv.py:0.3]GM[1]FF[4]RO[3, Challenger knockout]
PB[Cho Chikun]
BR[9p, Judan]
PW[Kato Masao]
WR[9p, Meijin]
KM[5.5]
DT[1988-10-06]
RE[B+2.5]
EV[Kisei, 13th]
US[JBvR]

;B[pd]
;W[dp]
;B[pq]
;W[dd]
;B[fq]
;W[dn]
;B[iq]
;W[po]
;B[qm]
;W[on]
;B[om]
;W[nm]
;B[pm]
;W[nn]
;B[nl]
;W[ml]
;B[nk]
;W[pf]
;B[mk]
;W[qd]
;B[qc]
;W[qe]
;B[pc]
;W[qi]
;B[ll]
;W[nq]
;B[qp]
;W[kq]
;B[jc]
;W[nf]
;B[md]
;W[cj]
;B[fc]
;W[qo]
;B[ro]
;W[fp]
;B[eq]
;W[dq]
;B[cc]
;W[cd]
;B[dc]
;W[ed]
;B[ec]
;W[fd]
;B[gd]
;W[ge]
;B[gp]
;W[ej]
;B[lp]
;W[lq]
;B[nr]
;W[ko]
;B[oq]
;W[np]
;B[mr]
;W[km]
;B[hd]
;W[hp]
;B[gq]
;W[go]
;B[ep]
;W[eo]
;B[fo]
;W[fn]
;B[ho]
;W[gn]
;B[io]
;W[im]
;B[gg]
;W[eg]
;B[bd]
;W[be]
;B[bc]
;W[cf]
;B[he]
;W[rn]
;B[rp]
;W[qk]
;B[oi]
;W[ph]
;B[dr]
;W[cr]
;B[er]
;W[nd]
;B[nc]
;W[me]
;B[ld]
;W[rm]
;B[gk]
;W[jj]
;B[gi]
;W[hj]
;B[ei]
;W[pk]
;B[lm]
;W[lj]
;B[qn]
;W[ql]
;B[sn]
;W[rl]
;B[lo]
;W[ln]
;B[mn]
;W[kn]
;B[mm]
;W[mo]
;B[mp]
;W[no]
;B[mq]
;W[ol]
;B[dj]
;W[di]
;B[dk]
;W[fi]
;B[eh]
;W[fh]
;B[dh]
;W[ci]
;B[fj]
;W[ch]
;B[ek]
;W[fg]
;B[il]
;W[jl]
;B[ik]
;W[ij]
;B[hm]
;W[hn]
;B[in]
;W[jm]
;B[gm]
;W[fm]
;B[fl]
;W[dm]
;B[hk]
;W[jk]
;B[kg]
;W[lh]
;B[cl]
;W[bq]
;B[lg]
;W[mg]
;B[bn]
;W[bo]
;B[co]
;W[cp]
;B[ao]
;W[bp]
;B[cn]
;W[do]
;B[kh]
;W[li]
;B[kp]
;W[rc]
;B[rb]
;W[ck]
;B[dl]
;W[bl]
;B[cm]
;W[rd]
;B[dg]
;W[jp]
;B[ip]
;W[jo]
;B[jq]
;W[sb]
;B[ki]
;W[kj]
;B[gf]
;W[df]
;B[ef]
;W[cg]
;B[ej]
;W[ff]
;B[fe]
;W[ee]
;B[gh]
;W[ef]
;B[ra]
;W[ih]
;B[ig]
;W[lf]
;B[kf]
;W[le]
;B[ke]
;W[od]
;B[oc]
;W[pe]
;B[op]
;W[pl]
;B[ii]
;W[ji]
;B[jh]
;W[hi]
;B[hh]
;W[sm]
;B[so]
;W[ad]
;B[ac]
;W[ae]
;B[cs]
;W[bs]
;B[ds]
;W[ap]
;B[an]
;W[al]
;B[em]
;W[en]
;B[pp]
;W[el]
;B[gj]
;W[ii]
;B[mh]
;W[nh]
;B[ge]
;W[em]
;B[mi]
;W[mj]
;B[ni]
;W[nj]
;B[oj]
;W[ok]
;B[fp])