(;PB[Rin Kaiho]BR[Tengen]PW[Yamashiro Hiroshi]WR[9 dan]RO[3]DT[1992-11-30]KM[5.5]RE[B+7.5]GM[1]SZ[19]ID[18/3]FF[3];B[pd];W[dp];B[pp];W[dc];B[de];W[ce];B[cf];W[cd];B[df]
;W[fc];B[dj];W[cl];B[pj];W[nq];B[lq];W[lp];B[kp];W[lo];B[mq]
;W[np];B[qn];W[nn];B[jq];W[jn];B[gq];W[fp];B[gp];W[fq];B[go]
;W[nc];B[pf];W[kd];B[cn];W[bp];B[dl];W[fe];B[co];W[cp];B[pr]
;W[fg];B[mk];W[or];B[oo];W[no];B[lm];W[ko];B[jl];W[mr];B[lr]
;W[nl];B[nk];W[pn];B[pm];W[on];B[qo];W[pl];B[ql];W[om];B[qm]
;W[jp];B[kq];W[ne];B[ie];W[ch];B[dh];W[ci];B[di];W[cg];B[dg]
;W[bf];B[oc];W[nb];B[ic];W[jc];B[jf];W[ng];B[ob];W[od];B[pc]
;W[ip];B[iq];W[hf];B[he];W[ge];B[lf];W[ib];B[hb];W[id];B[hd]
;W[hc];B[gc];W[ic];B[gd];W[fd];B[fb];W[eb];B[mf];W[pe];B[qe]
;W[oe];B[qg];W[ke];B[jh];W[og];B[na];W[ma];B[oa];W[lb];B[cj]
;W[kf];B[kg];W[lh];B[lg];W[ig];B[jg];W[hi];B[jj];W[gr];B[hr]
;W[fr];B[bi];W[bh];B[ah];W[bg];B[hn];W[mm];B[bk];W[qr];B[ps]
;W[pq];B[qq];W[oq];B[rr];W[ph];B[qh];W[pi];B[qi];W[pk];B[oj]
;W[qk];B[rk];W[am];B[en];W[bl];B[gj];W[ii];B[mh];W[ik];B[hk]
;W[il];B[jk];W[ni];B[mi];W[fk];B[hl];W[fj];B[fi];W[gi];B[fh]
;W[hj];B[im];W[gk];B[cm];W[ij];B[qj];W[jm];B[ck];W[an];B[bm]
;W[al];B[ak];W[bo];B[gl];W[fl];B[fm];W[el];B[em];W[ej];B[dk]
;W[ji];B[ki];W[lk];B[ll];W[kl];B[kj];W[km];B[kk];W[ml];B[ol]
;W[lj];B[li];W[ln];B[mj];W[js];B[is];W[hp];B[hq];W[os];B[qs]
;W[ls];B[gg];W[gf];B[gh];W[in];B[hm];W[hg];B[me];W[md];B[ks]
;W[kr];B[jr];W[ll];B[pg];W[oh];B[po];W[je];B[if];W[dd];B[bn]
;W[ao];B[ee];W[fa];B[gb];W[do];B[ed];W[ec];B[gs];W[fs];B[ag]
;W[af];B[ai];W[bd];B[ia];W[ja];B[eo];W[dn];B[dm];W[ep];B[io]
;W[fo];B[fn];W[ei];B[eh];W[le];B[mp];W[mg];B[mo];W[ms];B[ks]
;W[jo];B[ho];W[ha];B[ga];W[ea];B[hs];W[ia])