

(;GM[1]SZ[19]DT[1993-06-16,17]RE[B+2.5]PB[Cho Chikun]PW[Yamashiro Hiroshi]FF[3]BS[0]WS[0]KM[5.5];B[qd];W[dp];B[dd];W[pq];B[po];W[qo];B[qn];W[qp];B[pn]
;W[nq];B[pj];W[nd];B[oc];W[nc];B[od];W[ne];B[jc];W[oe];B[qf]
;W[oh];B[og];W[ng];B[pg];W[jf];B[gc];W[ni];B[cn];W[dk];B[el]
;W[ek];B[fl];W[fk];B[fp];W[dn];B[dl];W[co];B[eo];W[do];B[ck]
;W[cj];B[cl];W[gk];B[hm];W[er];B[ch];W[bj];B[ce];W[pe];B[qe]
;W[gq];B[il];W[dh];B[dg];W[eh];B[eg];W[bh];B[cg];W[ho];B[io]
;W[gl];B[gm];W[go];B[fo];W[id];B[ic];W[gd];B[fd];W[hc];B[hb]
;W[hd];B[fc];W[mn];B[fq];W[fr];B[gp];W[hp];B[hq];W[gr];B[iq]
;W[ip];B[jp];W[jo];B[in];W[jq];B[kp];W[ir];B[lm];W[mm];B[ll]
;W[pl];B[op];W[oq];B[ql];W[ph];B[nk];W[pk];B[qk];W[oj];B[ok]
;W[qj];B[ol];W[kq];B[lp];W[mp];B[pm];W[lo];B[qh];W[jn];B[mh]
;W[nh];B[fh];W[fi];B[gi];W[gh];B[fg];W[hi];B[ei];W[ej];B[di]
;W[dj];B[ij];W[ii];B[ji];W[jh];B[ki];W[pi];B[nb];W[mb];B[ob]
;W[kh];B[li];W[qi];B[rh];W[kb];B[jd];W[hf];B[bn];W[bo];B[lc]
;W[ld];B[le];W[ke];B[lb];W[la];B[md];W[kd];B[mc];W[kc];B[me]
;W[lf];B[mf];W[mg];B[ma];W[nf];B[ka];W[jb];B[ib];W[je];B[gg]
;W[gj];B[hg];W[lh];B[ro];W[rp];B[ao];W[ap];B[an];W[bp];B[jm]
;W[gb];B[fb];W[ia];B[ga];W[ag];B[bf];W[si];B[rn];W[mj];B[lj]
;W[bl];B[cm];W[sp];B[ln];W[ko];B[bk];W[sh];B[sg];W[sj];B[qg]
;W[ak];B[mk];W[hj];B[ik];W[gf];B[ig];W[fe];B[if];W[ie];B[ff]
;W[ge];B[ee];W[rm];B[al];W[aj];B[bm];W[mi];B[hh];W[pk];B[gi]
;W[ih];B[fj];W[pd];B[pc];W[fi];B[la];W[ja];B[fj];W[af];B[ae]
;W[fi];B[bg];W[ah];B[fj];W[ha];B[gb];W[fi];B[jg];W[kg];B[fj]
;W[rg];B[rf];W[fi];B[bi];W[ai];B[fj];W[sf];B[se];W[fi];B[rl]
;W[sl];B[fj];W[nn];B[kn];W[lq];B[fi];W[hn];B[im];W[en];B[fn]
;W[ci];B[eq];W[dq];B[no];W[on];B[pp];W[mo];B[ml];W[em])