

(;GM[1]SZ[19]DT[1993-06-29,30]PB[Cho Chikun]PW[Yamashiro Hiroshi]RE[B+R]FF[3]BS[0]WS[0]KM[5.5];B[qd];W[dp];B[cd];W[pp];B[nc];W[fd];B[df];W[pj];B[nq]
;W[lq];B[qq];W[qp];B[pq];W[op];B[nr];W[np];B[ph];W[dc];B[cc]
;W[jc];B[cn];W[fp];B[bp];W[cq];B[dl];W[mq];B[rp];W[ro];B[rq]
;W[ei];B[hc];W[hd];B[gd];W[gc];B[ge];W[hb];B[fc];W[ic];B[gb]
;W[hc];B[ed];W[fb];B[fe];W[cj];B[ck];W[ek];B[fm];W[hm];B[gl]
;W[dk];B[cl];W[ch];B[eb];W[ga];B[hq];W[ho];B[kp];W[jq];B[ip]
;W[lo];B[kq];W[kr];B[in];W[hn];B[gp];W[go];B[jr];W[ir];B[iq]
;W[js];B[kn];W[jp];B[jo];W[jr];B[io];W[gq];B[jl];W[qj];B[fj]
;W[bi];B[bg];W[cg];B[bf];W[bk];B[bl];W[gh];B[hj];W[fk];B[gk]
;W[gi];B[gj];W[eg];B[gr];W[fq];B[hr];W[bq];B[ih];W[mj];B[ak]
;W[jj];B[ik];W[hf];B[rn];W[qn];B[so];W[qo];B[qf];W[qc];B[pc]
;W[pb];B[rc];W[oc];B[qb];W[od];B[ob];W[nb];B[pa];W[mb];B[mc]
;W[lb];B[ne];W[rm];B[ln];W[rh];B[db];W[mg];B[nf];W[oq];B[or]
;W[mr];B[ml];W[ns];B[ps];W[nl];B[nm];W[om];B[nk];W[ol];B[mk]
;W[lj];B[lf];W[jg];B[lg];W[jh];B[mh];W[ld];B[ii];W[nd];B[hg]
;W[gf];B[if];W[he];B[le];W[md];B[oi];W[jf];B[ig];W[ke];B[ji]
;W[kh];B[ki];W[nn];B[co];W[fr];B[ef];W[gg];B[rg];W[qh];B[qg]
;W[mm];B[lm];W[rs];B[rr];W[ms];B[pr];W[sp];B[sq];W[nj];B[oj]
;W[ok];B[kk];W[pe];B[sh];W[si];B[sg];W[og];B[ng];W[pf];B[pg]
;W[qi];B[bj];W[ko];B[dj];W[ej];B[ci];W[bh];B[mo];W[lp];B[mn]
;W[cf];B[ce];W[lh];B[li];W[nh];B[mi];W[of];B[oh];W[im];B[jm]
;W[cp];B[ie];W[je];B[bo];W[no];B[eo];W[fo];B[dg];W[dh];B[do]
)