(;CP[My Friday Night Files, 2002]AP[SGFcv.py:0.3]GM[1]FF[4]RO[Round 1]
DT[1997-06-27]
PB[Cho Chikun]
BR[9 dan]
WR[5 dan]
KM[5.5]
RE[B+R]
US[JBvR]
SO[China Database]
EV[2nd LG Cup]
PW[Yun Seong-Hyeon]

;B[pd]
;W[dc]
;B[dq]
;W[pp]
;B[ce]
;W[cg]
;B[qn]
;W[nq]
;B[ed]
;W[dd]
;B[de]
;W[ee]
;B[ef]
;W[fe]
;B[dg]
;W[gc]
;B[dj]
;W[ff]
;B[fg]
;W[gg]
;B[fh]
;W[cn]
;B[cp]
;W[bj]
;B[ck]
;W[bk]
;B[cl]
;W[bl]
;B[cm]
;W[bm]
;B[dn]
;W[co]
;B[do]
;W[jp]
;B[rp]
;W[qq]
;B[qk]
;W[nc]
;B[pf]
;W[kd]
;B[lq]
;W[lo]
;B[jq]
;W[iq]
;B[kp]
;W[ko]
;B[ir]
;W[ip]
;B[hr]
;W[in]
;B[pb]
;W[qh]
;B[qf]
;W[oi]
;B[ic]
;W[je]
;B[ie]
;W[jf]
;B[kb]
;W[lc]
;B[gb]
;W[hc]
;B[hb]
;W[fc]
;B[fb]
;W[jc]
;B[eb]
;W[ec]
;B[jb]
;W[id]
;B[ib]
;W[qm]
;B[rm]
;W[rn]
;B[pm]
;W[qo]
;B[ql]
;W[pn]
;B[on]
;W[qm]
;B[bh]
;W[qn]
;B[bp]
;W[pj]
;B[ok]
;W[qj]
;B[nj]
;W[nl]
;B[pk]
;W[nm]
;B[ni]
;W[nh]
;B[mh]
;W[ng]
;B[lj]
;W[li]
;B[kj]
;W[lh]
;B[mi]
;W[mg]
;B[ij]
;W[ch]
;B[ci]
;W[dh]
;B[bi]
;W[mk]
;B[lg]
;W[kh]
;B[mj]
;W[gh]
;B[gj]
;W[fi]
;B[fj]
;W[ei]
;B[bg]
;W[kr]
;B[kq]
;W[lr]
;B[jr]
;W[mq]
;B[gp]
;W[go]
;B[il]
;W[om]
;B[fo]
;W[gn]
;B[ne]
;W[me]
;B[jh]
;W[kg]
;B[km]
;W[oe]
;B[rg]
;W[cf]
;B[bf]
;W[df]
;B[bd]
;W[bc]
;B[di]
;W[eg]
;B[lm]
;W[mn]
;B[fn]
;W[gq]
;B[hq]
;W[hp]
;B[fp]
;W[gr]
;B[fr]
;W[gm]
;B[oc]
;W[nd]
;B[nb]
;W[mb]
;B[ma]
;W[la]
;B[na]
;W[lb]
;B[db]
;W[cd]
;B[be]
;W[cb]
;B[ig]
;W[if]
;B[fl]
;W[lk]
;B[kk]
;W[rl]
;B[rk]
;W[sm]
;B[ks]
;W[mr]
;B[rh]
;W[ka]
;B[ja]
;W[rj]
;B[od]
;W[of]
;B[kc]
;W[ld]
;B[ph]
;W[sk]
;B[gl]
;W[qi]
;B[qg]
;W[hi]
;B[jd]
;W[he]
;B[hm]
;W[hn]
;B[nk]
;W[mm]
;B[jn]
;W[jo]
;B[im])