(;US[JBvR]SO[Cho Chikun Internet Book]CP[My Friday Night Files, 2002]AP[SGFcv.py:0.3]GM[1]FF[4]RO[5th game]
PB[Cho Chikun]
BR[9 dan]
PW[Kobayashi Satoru]
WR[9 dan]
KM[5.5]
RE[B+1.5]
DT[1997-02-26,27]
EV[Kisei, 21st, match]

;B[pd]
;W[dd]
;B[pp]
;W[dp]
;B[fq]
;W[cn]
;B[jq]
;W[qn]
;B[ql]
;W[qq]
;B[pq]
;W[qp]
;B[po]
;W[rn]
;B[om]
;W[nc]
;B[lc]
;W[qc]
;B[pc]
;W[qd]
;B[pe]
;W[pb]
;B[ob]
;W[qb]
;B[oc]
;W[qf]
;B[fc]
;W[df]
;B[id]
;W[pf]
;B[of]
;W[og]
;B[nf]
;W[ph]
;B[mh]
;W[di]
;B[fo]
;W[eq]
;B[fr]
;W[kn]
;B[lp]
;W[dl]
;B[jl]
;W[gn]
;B[fn]
;W[gl]
;B[fm]
;W[fl]
;B[gm]
;W[kl]
;B[kk]
;W[jm]
;B[il]
;W[ll]
;B[lk]
;W[nl]
;B[ml]
;W[mm]
;B[mk]
;W[nm]
;B[lm]
;W[km]
;B[ln]
;W[lo]
;B[mn]
;W[no]
;B[mo]
;W[mp]
;B[ko]
;W[nn]
;B[lo]
;W[nq]
;B[mq]
;W[np]
;B[pn]
;W[pr]
;B[or]
;W[qr]
;B[nr]
;W[oq]
;B[oj]
;W[mr]
;B[lq]
;W[lr]
;B[kr]
;W[os]
;B[fe]
;W[ec]
;B[fb]
;W[fg]
;B[ce]
;W[de]
;B[cd]
;W[cf]
;B[cb]
;W[kc]
;B[lb]
;W[eb]
;B[bf]
;W[bg]
;B[be]
;W[hf]
;B[if]
;W[ig]
;B[jf]
;W[he]
;B[hd]
;W[jg]
;B[qj]
;W[ie]
;B[je]
;W[jd]
;B[kd]
;W[jc]
;B[ib]
;W[gd]
;B[gc]
;W[mf]
;B[me]
;W[le]
;B[ld]
;W[ne]
;B[md]
;W[pk]
;B[ok]
;W[ng]
;B[oe]
;W[er]
;B[qh]
;W[pi]
;B[pj]
;W[qi]
;B[hj]
;W[hl]
;B[hm]
;W[ik]
;B[rg]
;W[rf]
;B[ri]
;W[jk]
;B[im]
;W[hk]
;B[ag]
;W[bh]
;B[ge]
;W[gf]
;B[ff]
;W[gg]
;B[ah]
;W[ai]
;B[af]
;W[bi]
;B[es]
;W[ds]
;B[fs]
;W[dr]
;B[do]
;W[co]
;B[ep]
;W[dn]
;B[eo]
;W[cp]
;B[mg]
;W[rl]
;B[rk]
;W[kh]
;B[sf]
;W[re]
;B[em]
;W[el]
;B[lf]
;W[kj]
;B[sl]
;W[rm]
;B[ls]
;W[ns]
;B[ol]
;W[se]
;B[qo]
;W[ro]
;B[sm]
;W[sg]
;B[sh]
;W[cc]
;B[bc]
;W[db]
;B[ba]
;W[fa]
;B[ga]
;W[sn]
;B[sk]
;W[oa]
;B[na]
;W[pa]
;B[kg]
;W[lh]
;B[dm]
;W[cm]
;B[rp]
;W[rq]
;B[li]
;W[ki]
;B[ef]
;W[eg]
;B[sp]
;W[sq]
;B[lg]
;W[mi]
;B[mj]
;W[lj]
;B[ni]
;W[nk]
;B[li]
;W[ms]
;B[ks]
;W[mi]
;B[nj]
;W[qe]
;B[ea]
;W[da]
;B[dc]
;W[so]
;B[cc]
;W[ed]
;B[fd]
;W[li]
;B[jh]
;W[jj]
;B[nh]
;W[sf]
;B[qm]
;W[on]
;B[fa])