(;CP[My Friday Night Files, 2002]AP[SGFcv.py:0.3]GM[1]FF[4]PW[Cho Chikun]
PB[Kobayashi Satoru]
KM[6.5]
HA[0]
DT[1997-02-13]
US[JBvR]
SO[Korean Baduk YearBook 1997, p. 330-1]
EV[8th Tong Yang Cup]
RO[Quarterfinal, game 3]
BR[9 dan]
WR[9 dan]
RE[B+6.5]

;B[pd]
;W[dd]
;B[qp]
;W[dp]
;B[fq]
;W[op]
;B[mq]
;W[qq]
;B[cn]
;W[eo]
;B[cq]
;W[pp]
;B[qo]
;W[pr]
;B[ql]
;W[gp]
;B[cp]
;W[jp]
;B[lo]
;W[dm]
;B[cm]
;W[dl]
;B[fc]
;W[id]
;B[cf]
;W[df]
;B[dg]
;W[ce]
;B[ef]
;W[de]
;B[bf]
;W[fd]
;B[gd]
;W[fe]
;B[cc]
;W[dc]
;B[db]
;W[eb]
;B[cb]
;W[be]
;B[ec]
;W[gc]
;B[hc]
;W[gb]
;B[fb]
;W[hb]
;B[ge]
;W[gf]
;B[he]
;W[ic]
;B[ie]
;W[eg]
;B[ke]
;W[lc]
;B[eh]
;W[fg]
;B[ch]
;W[md]
;B[fh]
;W[gh]
;B[hg]
;W[gg]
;B[fj]
;W[jh]
;B[kg]
;W[jg]
;B[lf]
;W[gi]
;B[dj]
;W[jf]
;B[je]
;W[oe]
;B[li]
;W[pe]
;B[qd]
;W[qe]
;B[nc]
;W[nd]
;B[oc]
;W[ki]
;B[mg]
;W[re]
;B[rc]
;W[lh]
;B[mh]
;W[mi]
;B[lj]
;W[mj]
;B[kh]
;W[kf]
;B[lg]
;W[le]
;B[fp]
;W[ji]
;B[fo]
;W[gm]
;B[hn]
;W[mk]
;B[kj]
;W[kl]
;B[jj]
;W[il]
;B[hk]
;W[jn]
;B[mm]
;W[om]
;B[nl]
;W[pk]
;B[oj]
;W[qk]
;B[hm]
;W[hl]
;B[gl]
;W[gk]
;B[fl]
;W[ij]
;B[lk]
;W[ll]
;B[ml]
;W[jk]
;B[oh]
;W[rl]
;B[hj]
;W[gj]
;B[ii]
;W[ih]
;B[ik]
;W[hi]
;B[ij]
;W[fk]
;B[im]
;W[cj]
;B[ci]
;W[lq]
;B[lp]
;W[kq]
;B[np]
;W[gq]
;B[gr]
;W[hr]
;B[fr]
;W[no]
;B[oo]
;W[nn]
;B[ol]
;W[jl]
;B[fm]
;W[pl]
;B[mr]
;W[iq]
;B[io]
;W[jr]
;B[ek]
;W[ln]
;B[mn]
;W[ko]
;B[lm]
;W[kn]
;B[oq]
;W[pq]
;B[mo]
;W[po]
;B[jb]
;W[og]
;B[ng]
;W[ib]
;B[lb]
;W[kc]
;B[kb]
;W[mb]
;B[mc]
;W[qh]
;B[or]
;W[fi]
;B[ej]
;W[ei]
;B[di]
;W[af]
;B[bg]
;W[ab]
;B[bb]
;W[ac]
;B[ea]
;W[ph]
;B[oi]
;W[rd]
;B[sc]
;W[nf]
;B[ok]
;W[mf]
;B[nh]
;W[jc]
;B[lr]
;W[kr]
;B[ps]
;W[qs]
;B[os]
;W[on]
;B[ja]
;W[ed]
;B[ag]
;W[ae]
;B[ip]
;W[go]
;B[gn]
;W[kp]
;B[pj]
;W[qj]
;B[pi]
;W[qi]
;B[sd]
;W[dh]
;B[eh]
;W[od]
;B[pc]
;W[se]
;B[ba]
;W[ga]
;B[fa]
;W[ia]
;B[nb]
;W[bc]
;B[cd]
;W[bd]
;B[hs]
;W[is]
;B[gs]
;W[ls]
;B[ms]
;W[ks])