(;CP[My Friday Night Files, 2002]AP[SGFcv.py:0.3]GM[1]FF[4]RO[semifinal]
DT[1997-11-20]
PB[Cho Chikun]
BR[Kisei]
PW[Kato Masao]
WR[Judan]
KM[5.5]
RE[W+R]
US[JBvR]
SO[KYB 1998]
EV[Kakusei, 20th]

;B[pd]
;W[dc]
;B[pp]
;W[cp]
;B[de]
;W[dg]
;B[fe]
;W[fc]
;B[he]
;W[hc]
;B[ep]
;W[eq]
;B[dp]
;W[dq]
;B[co]
;W[fq]
;B[cc]
;W[cb]
;B[dj]
;W[bp]
;B[dd]
;W[ed]
;B[ee]
;W[bc]
;B[cd]
;W[bb]
;B[ic]
;W[ib]
;B[hd]
;W[gb]
;B[jc]
;W[qj]
;B[en]
;W[qn]
;B[nq]
;W[qf]
;B[qh]
;W[of]
;B[oh]
;W[nd]
;B[ne]
;W[oe]
;B[od]
;W[nh]
;B[qe]
;W[me]
;B[rf]
;W[nf]
;B[ni]
;W[mh]
;B[ql]
;W[oj]
;B[oi]
;W[pm]
;B[pl]
;W[ol]
;B[om]
;W[on]
;B[nm]
;W[nn]
;B[ok]
;W[nl]
;B[mm]
;W[nk]
;B[rj]
;W[rk]
;B[qk]
;W[pk]
;B[rl]
;W[ro]
;B[rp]
;W[ri]
;B[sk]
;W[qi]
;B[mn]
;W[op]
;B[oq]
;W[qp]
;B[qq]
;W[po]
;B[qo]
;W[rg]
;B[qg]
;W[qp]
;B[pq]
;W[si]
;B[qo]
;W[rn]
;B[pf]
;W[mo]
;B[no]
;W[lo]
;B[ml]
;W[mk]
;B[lk]
;W[ll]
;B[lm]
;W[kl]
;B[km]
;W[jm]
;B[kn]
;W[lj]
;B[np]
;W[jl]
;B[oo]
;W[pn]
;B[so]
;W[qp]
;B[rm]
;W[rq]
;B[qo]
;W[jn]
;B[ko]
;W[qp]
;B[pi]
;W[sp]
;B[pj]
;W[fg]
;B[hg]
;W[fi]
;B[ci]
;W[ch]
;B[bh]
;W[bg]
;B[dh]
;W[cg]
;B[eh]
;W[eg]
;B[fh]
;W[gh]
;B[gg]
;W[ej]
;B[di]
;W[be]
;B[ek]
;W[gi]
;B[ii]
;W[cl]
;B[dk]
;W[hj]
;B[kf]
;W[cn]
;B[jj]
;W[gl]
;B[kk]
;W[ip]
;B[kp]
;W[ij]
;B[ji]
;W[jk]
;B[kj]
;W[nb]
;B[gn]
;W[fm]
;B[bn]
;W[cm]
;B[em]
;W[do]
;B[gp]
;W[ho]
;B[hl]
;W[hm]
;B[hn]
;W[in]
;B[mc]
;W[nc]
;B[eo]
;W[hr]
;B[bo]
;W[dn]
;B[fl]
;W[gm]
;B[gk]
;W[bj]
;B[fj]
;W[gj]C[176 moves])