(;SO[Cho Chikun Internet Book]CP[My Friday Night Files, 2002]AP[SGFcv.py:0.3]GM[1]FF[4]RO[2nd round, game 4]
PB[Cho Chikun]
BR[9 dan]
PW[Takemiya Masaki]
WR[9 dan]
KM[5.5]
DT[1997-12-13]
RE[B+R]
US[JBvR]
EV[NEC Cup, 17th]

;B[pd]
;W[dp]
;B[pq]
;W[dd]
;B[qk]
;W[mp]
;B[jp]
;W[oo]
;B[qo]
;W[gp]
;B[jn]
;W[nl]
;B[jl]
;W[dj]
;B[fc]
;W[id]
;B[cc]
;W[cd]
;B[dc]
;W[ed]
;B[ec]
;W[ge]
;B[cq]
;W[cp]
;B[dq]
;W[fq]
;B[bp]
;W[bo]
;B[bq]
;W[cn]
;B[fr]
;W[gr]
;B[er]
;W[eq]
;B[hq]
;W[gq]
;B[eh]
;W[gh]
;B[ej]
;W[gj]
;B[di]
;W[cj]
;B[ci]
;W[ek]
;B[bj]
;W[fj]
;B[ck]
;W[dk]
;B[cf]
;W[ef]
;B[bl]
;W[ko]
;B[jo]
;W[ll]
;B[dl]
;W[el]
;B[jj]
;W[qf]
;B[nc]
;W[qm]
;B[qe]
;W[pf]
;B[qh]
;W[og]
;B[rf]
;W[rg]
;B[re]
;W[qg]
;B[rh]
;W[lj]
;B[lm]
;W[mm]
;B[sg]
;W[km]
;B[jm]
;W[jh]
;B[ln]
;W[kn]
;B[kl]
;W[lo]
;B[lk]
;W[mn]
;B[mk]
;W[oj]
;B[mj]
;W[kj]
;B[kk]
;W[lh]
;B[mh]
;W[lg]
;B[oh]
;W[ph]
;B[pi]
;W[ni]
;B[mi]
;W[nh]
;B[mg]
;W[mf]
;B[ng]
;W[nf]
;B[pg]
;W[bh]
;B[bg]
;W[ph]
;B[oi]
;W[nj]
;B[lf]
;W[le]
;B[kf]
;W[jf]
;B[ke]
;W[kd]
;B[pg]
;W[of]
;B[nk]
;W[qp]
;B[pl]
;W[qq]
;B[ro]
;W[pp]
;B[pm]
;W[pn]
;B[qn]
;W[rm]
;B[rp]
;W[rq]
;B[ql]
;W[be]
;B[ch]
;W[bc]
;B[ib]
;W[jb]
;B[jc]
;W[ic]
;B[kb]
;W[hb]
;B[ja]
;W[jd]
;B[gb]
;W[kc]
;B[hc]
;W[kq]
;B[me]
;W[ld]
;B[ne]
;W[kg]
;B[jq]
;W[jb]
;B[ha]
;W[jr]
;B[lb]
;W[dm]
;B[ir]
;W[gs]
;B[bm]
;W[is]
;B[kp]
;W[lq]
;B[oe]
;W[je]
;B[gn]
;W[cl]
;B[bk]
;W[bf]
;B[ag]
;W[fn]
;B[gm]
;W[cb]
;B[db]
;W[bb]
;B[kr]
;W[js]
;B[fm]
;W[po]
;B[rl]
;W[sp]
;B[sm]
;W[so]
;B[rn]
;W[ei]
;B[eg]
;W[df]
;B[dg]
;W[ce]
;B[cg]
;W[ij]
;B[ik]
;W[ii]
;B[fo]
;W[hp]
;B[en]
;W[fg]
;B[om]
;W[bn]
;B[bs]
;W[fs]
;B[dr]
;W[hl]
;B[hk]
;W[gl]
;B[ep])