(;US[JBvR]SO[Cho Chikun Internet Book]CP[My Friday Night Files, 2002]AP[SGFcv.py:0.3]GM[1]FF[4]PB[Fujisawa Shuko]
PW[Cho Chikun]
RE[W+R]
DT[1983-02-23,24]
KM[5.5]
GC[ ]
EV[Kisei, 7th, title]
RO[5]
BR[9d]
WR[9d]

;B[pd]
;W[cc]
;B[pq]
;W[cp]
;B[eq]
;W[qo]
;B[pm]
;W[lq]
;B[po]
;W[iq]
;B[qn]
;W[dq]
;B[ip]
;W[hq]
;B[jq]
;W[jr]
;B[jp]
;W[kq]
;B[hp]
;W[gp]
;B[gq]
;W[gr]
;B[fq]
;W[go]
;B[eo]
;W[cn]
;B[em]
;W[gm]
;B[ko]
;W[gk]
;B[cm]
;W[dn]
;B[en]
;W[dp]
;B[ep]
;W[lo]
;B[km]
;W[dm]
;B[fl]
;W[gl]
;B[dl]
;W[ej]
;B[ck]
;W[ci]
;B[dr]
;W[cr]
;B[fr]
;W[ln]
;B[im]
;W[ml]
;B[jj]
;W[ii]
;B[br]
;W[ds]
;B[es]
;W[er]
;B[di]
;W[fs]
;B[ch]
;W[kn]
;B[ik]
;W[jn]
;B[in]
;W[gi]
;B[ei]
;W[ek]
;B[el]
;W[cf]
;B[cg]
;W[df]
;B[bm]
;W[gg]
;B[hn]
;W[ir]
;B[hh]
;W[fi]
;B[jc]
;W[hc]
;B[eg]
;W[dg]
;B[dh]
;W[ef]
;B[bf]
;W[be]
;B[je]
;W[ji]
;B[ki]
;W[kh]
;B[kj]
;W[lh]
;B[nd]
;W[qd]
;B[qc]
;W[pe]
;B[od]
;W[qe]
;B[rc]
;W[ql]
;B[rm]
;W[qi]
;B[mk]
;W[id]
;B[jd]
;W[ib]
;B[jb]
;W[ie]
;B[ic]
;W[hb]
;B[if]
;W[hf]
;B[he]
;W[hd]
;B[hg]
;W[gf]
;B[qg]
;W[pg]
;B[pf]
;W[qf]
;B[ph]
;W[rg]
;B[og]
;W[qh]
;B[hi]
;W[ig]
;B[hj]
;W[jf]
;B[gj]
;W[fj]
;B[fk]
;W[ke]
;B[ld]
;W[pr]
;B[oq]
;W[qr]
;B[qq]
;W[or]
;B[mp]
;W[mq]
;B[nq]
;W[nr]
;B[qj]
;W[pi]
;B[pj]
;W[oi]
;B[oj]
;W[lm]
;B[rj]
;W[jl]
;B[il]
;W[ij]
;B[hk]
;W[nf]
;B[ng]
;W[of]
;B[ni]
;W[pg]
;B[no]
;W[jo]
;B[rr]
;W[ja]
;B[lb]
;W[la]
;B[ma]
;W[ka]
;B[mc]
;W[rs]
;B[sr]
;W[ol]
;B[nk]
;W[nl]
;B[pl]
;W[an])