(;US[JBvR]SO[Cho Chikun Internet Book]CP[My Friday Night Files, 2002]AP[SGFcv.py:0.3]GM[1]FF[4]PW[Cho Chikun]
PB[Fujisawa Shuko]
KM[5.5]
RE[B+4.5]
DT[1983-01-13,14]
EV[Kisei, 7th, title]
RO[1]
BR[9d]
WR[9d]

;B[pd]
;W[dd]
;B[pq]
;W[dp]
;B[fq]
;W[po]
;B[cn]
;W[dn]
;B[dm]
;W[en]
;B[cq]
;W[co]
;B[dq]
;W[cm]
;B[qm]
;W[qq]
;B[qp]
;W[pp]
;B[qo]
;W[qn]
;B[rn]
;W[pn]
;B[oq]
;W[rm]
;B[ro]
;W[ql]
;B[rq]
;W[cf]
;B[ec]
;W[dc]
;B[pm]
;W[ol]
;B[om]
;W[nm]
;B[rl]
;W[on]
;B[sm]
;W[pl]
;B[rm]
;W[nl]
;B[jd]
;W[hd]
;B[cg]
;W[df]
;B[jf]
;W[hf]
;B[bf]
;W[be]
;B[cj]
;W[cl]
;B[bg]
;W[dg]
;B[ck]
;W[nc]
;B[hc]
;W[gc]
;B[ic]
;W[gb]
;B[lc]
;W[dl]
;B[ae]
;W[bd]
;B[bl]
;W[qc]
;B[pc]
;W[qd]
;B[pe]
;W[pb]
;B[ob]
;W[qb]
;B[oc]
;W[qf]
;B[pf]
;W[qg]
;B[nn]
;W[mn]
;B[no]
;W[mo]
;B[np]
;W[bm]
;B[al]
;W[hq]
;B[gp]
;W[lq]
;B[hp]
;W[ip]
;B[iq]
;W[jq]
;B[ir]
;W[io]
;B[jr]
;W[kr]
;B[jp]
;W[kq]
;B[hr]
;W[kh]
;B[im]
;W[hn]
;B[lm]
;W[lk]
;B[jk]
;W[hm]
;B[ji]
;W[aj]
;B[bj]
;W[am]
;B[ai]
;W[bi]
;B[ak]
;W[ah]
;B[aj]
;W[ki]
;B[hl]
;W[gl]
;B[in]
;W[jo]
;B[hk]
;W[me]
;B[nd]
;W[jh]
;B[gk]
;W[fm]
;B[kn]
;W[jn]
;B[jm]
;W[kl]
;B[ko]
;W[ho]
;B[km]
;W[mm]
;B[kj]
;W[lj]
;B[ij]
;W[ei]
;B[dj]
;W[ke]
;B[je]
;W[ch]
;B[ci]
;W[kk]
;B[ej]
;W[ja]
;B[pg]
;W[ph]
;B[oh]
;W[ng]
;B[og]
;W[ii]
;B[qe]
;W[re]
;B[pi]
;W[ri]
;B[jb]
;W[ia]
;B[ka]
;W[hb]
;B[lg]
;W[mg]
;B[lf]
;W[lh]
;B[ib]
;W[ha]
;B[md]
;W[le]
;B[rd]
;W[rf]
;B[pa]
;W[kb]
;B[la]
;W[lb]
;B[mf]
;W[nf]
;B[ne]
;W[kc]
;B[kd]
;W[na]
;B[jg]
;W[oa]
;B[mb]
;W[ma]
;B[nb]
;W[qa]
;B[bp]
;W[jj]
;B[fi]
;W[gi]
;B[fj]
;W[fh]
;B[dh]
;W[eh]
;B[ad]
;W[ac]
;B[af]
;W[di]
;B[bh]
;W[bc]
;B[rj]
;W[qh]
;B[qi]
;W[rh]
;B[nj]
;W[ni]
;B[nh]
;W[oi]
;B[oj]
;W[qj]
;B[pj]
;W[qk]
;B[mi]
;W[rk]
;B[mh]
;W[ep]
;B[eq]
;W[kg]
;B[kf]
;W[ig]
;B[kp]
;W[mp]
;B[mr]
;W[mq]
;B[nq]
;W[bo]
;B[sk]
;W[sj]
;B[fl]
;W[el]
;B[gm]
;W[gn]
;B[go]
;W[gl]
;B[hi]
;W[fk]
;B[hh]
;W[gh]
;B[gj]
;W[jl]
;B[il]
;W[hg]
;B[fo]
;W[eo]
;B[fn]
;W[gm]
;B[ek]
;W[fl]
;B[id]
;W[ie]
;B[if]
;W[he]
;B[ao]
;W[an]
;B[ap]
;W[js]
;B[is]
;W[cp]
;B[bq]
;W[fp]
;B[gq]
;W[mk]
;B[ms]
;W[ks]
;B[ll]
;W[ih]
;B[hj]
;W[dh]
;B[sl]
;W[li]
;B[ik])