(;US[JBvR]SO[Cho Chikun Internet Book]CP[My Friday Night Files, 2002]AP[SGFcv.py:0.3]GM[1]FF[4]DT[1983-06-08,09]
RE[W+7.5]
PW[Cho Chikun]
PB[Rin Kaiho]
KM[5.5]
EV[Honinbo, 38th, title]
RO[3]
BR[9d]
WR[9d]

;B[qd]
;W[dd]
;B[pp]
;W[dq]
;B[oc]
;W[qi]
;B[co]
;W[ck]
;B[dp]
;W[eq]
;B[cq]
;W[cr]
;B[bq]
;W[hq]
;B[ep]
;W[fp]
;B[fo]
;W[gp]
;B[cf]
;W[ce]
;B[df]
;W[fd]
;B[ci]
;W[ek]
;B[ei]
;W[jc]
;B[gk]
;W[dn]
;B[cn]
;W[fj]
;B[hi]
;W[cm]
;B[gm]
;W[fn]
;B[go]
;W[gn]
;B[hn]
;W[ho]
;B[eo]
;W[hm]
;B[in]
;W[gl]
;B[fm]
;W[en]
;B[fl]
;W[im]
;B[jm]
;W[il]
;B[br]
;W[jl]
;B[gj]
;W[km]
;B[io]
;W[hp]
;B[ko]
;W[kq]
;B[mo]
;W[fi]
;B[fh]
;W[eh]
;B[eg]
;W[dh]
;B[di]
;W[fk]
;B[hl]
;W[gi]
;B[fg]
;W[hh]
;B[ii]
;W[ih]
;B[ji]
;W[hj]
;B[ik]
;W[jk]
;B[ij]
;W[em]
;B[hk]
;W[el]
;B[gl]
;W[mm]
;B[jh]
;W[bj]
;B[id]
;W[ic]
;B[hc]
;W[hd]
;B[gd]
;W[he]
;B[ge]
;W[gc]
;B[hb]
;W[gb]
;B[cc]
;W[dc]
;B[hf]
;W[ie]
;B[if]
;W[je]
;B[jf]
;W[ke]
;B[be]
;W[mq]
;B[np]
;W[pm]
;B[nq]
;W[qn]
;B[ro]
;W[rn]
;B[pj]
;W[qj]
;B[ok]
;W[pl]
;B[qg]
;W[cd]
;B[kn]
;W[jn]
;B[jp]
;W[jq]
;B[oh]
;W[nn]
;B[rp]
;W[dr]
;B[bn]
;W[bi]
;B[bh]
;W[bg]
;B[ah]
;W[bl]
;B[bs]
;W[bf]
;B[mc]
;W[bd]
;B[cg]
;W[me]
;B[rh]
;W[oe]
;B[pf]
;W[ri]
;B[kb]
;W[kc]
;B[lc]
;W[mr]
;B[nr]
;W[ns]
;B[os]
;W[ms]
;B[pr]
;W[mk]
;B[fe]
;W[gh]
;B[lf]
;W[kf]
;B[kg]
;W[mf]
;B[fc]
;W[fb]
;B[ed]
;W[ec]
;B[lg]
;W[ld]
;B[jb]
;W[ib]
;B[ds]
;W[fr]
;B[cs]
;W[es]
;B[kj]
;W[nl]
;B[mj]
;W[qh]
;B[rg]
;W[nj]
;B[qk]
;W[pk]
;B[oj]
;W[ni]
;B[ph]
;W[rk]
;B[mi]
;W[nk]
;B[lk]
;W[qo]
;B[qp]
;W[nd]
;B[nc]
;W[pe]
;B[qe]
;W[mh]
;B[lh]
;W[lb]
;B[mb]
;W[gf]
;B[ee]
;W[gg]
;B[ff]
;W[si]
;B[ll]
;W[lm]
;B[lp]
;W[lq]
;B[oo]
;W[on]
;B[po]
;W[ol]
;B[sn]
;W[sm]
;B[so]
;W[ip]
;B[jo]
;W[of]
;B[mg]
;W[nh]
;B[ng]
;W[og]
;B[pg]
;W[ja]
;B[la]
;W[sh]
;B[sg]
;W[nf]
;B[jm]
;W[kl]
;B[rm]
;W[sl]
;B[pn]
;W[qm]
;B[pd]
;W[do]
;B[cp]
;W[ai]
;B[dj]
;W[dk]
;B[am]
;W[bm]
;B[al]
;W[ak]
;B[an]
;W[ae]
;B[ag]
;W[md]
;B[fd]
;W[ia]
;B[ka]
;W[af]
;B[ch]
;W[jn]
;B[mp]
;W[kp]
;B[mn]
;W[ln]
;B[lo]
;W[ml]
;W[jm])