(;US[JBvR]CP[My Friday Night Files, 2002]AP[SGFcv.py:0.3]GM[1]FF[4]RO[2]
PB[Cho Chikun]
BR[9 dan]
PW[Ishida Yoshio]
KM[5.5]
DT[1983-05-05]
RE[B+6.5]
SO[1984Kidoyearbook]
WR[9 dan]
EV[Oza, 31st]

;B[pd]
;W[cq]
;B[dp]
;W[cp]
;B[do]
;W[cn]
;B[pp]
;W[dc]
;B[dq]
;W[co]
;B[iq]
;W[qn]
;B[np]
;W[rp]
;B[qq]
;W[qk]
;B[ce]
;W[cd]
;B[de]
;W[fc]
;B[em]
;W[ck]
;B[ej]
;W[jp]
;B[ip]
;W[jo]
;B[kr]
;W[io]
;B[jl]
;W[go]
;B[hn]
;W[ho]
;B[gq]
;W[hl]
;B[hm]
;W[gm]
;B[gn]
;W[jr]
;B[jq]
;W[kq]
;B[lq]
;W[kp]
;B[lr]
;W[fn]
;B[im]
;W[fm]
;B[fo]
;W[hq]
;B[ir]
;W[en]
;B[dn]
;W[dm]
;B[el]
;W[dl]
;B[fk]
;W[gk]
;B[cr]
;W[br]
;B[kn]
;W[gr]
;B[eo]
;W[gl]
;B[hr]
;W[gi]
;B[dr]
;W[di]
;B[fh]
;W[gh]
;B[ed]
;W[ec]
;B[dh]
;W[ch]
;B[cg]
;W[eh]
;B[dg]
;W[ei]
;B[ci]
;W[cj]
;B[bi]
;W[bj]
;B[bh]
;W[nc]
;B[qf]
;W[pb]
;B[pl]
;W[ql]
;B[pn]
;W[pm]
;B[om]
;W[qm]
;B[qc]
;W[on]
;B[nn]
;W[po]
;B[nm]
;W[qp]
;B[op]
;W[ld]
;B[fg]
;W[fi]
;B[jc]
;W[kc]
;B[jd]
;W[qb]
;B[qi]
;W[rq]
;B[qr]
;W[bd]
;B[be]
;W[kj]
;B[hc]
;W[lk]
;B[ml]
;W[ri]
;B[rh]
;W[rj]
;B[il]
;W[bs]
;B[gb]
;W[fb]
;B[rb]
;W[pc]
;B[qd]
;W[ra]
;B[sb]
;W[fq]
;B[gs]
;W[fr]
;B[gp]
;W[hp]
;B[ds]
;W[kb]
;B[nd]
;W[md]
;B[oc]
;W[ob]
;B[od]
;W[rr]
;B[rs]
;W[pq]
;B[pr]
;W[oq]
;B[or]
;W[oo]
;B[no]
;W[jf]
;B[hf]
;W[ik]
;B[jk]
;W[jj]
;B[ij]
;W[hk]
;B[ig]
;W[jg]
;B[ih]
;W[jh]
;B[ii]
;W[gd]
;B[he]
;W[hd]
;B[ie]
;W[eg]
;B[lh]
;W[kh]
;B[ef]
;W[gg]
;B[ff]
;W[nh]
;B[mg]
;W[ph]
;B[qh]
;W[nf]
;B[me]
;W[mf]
;B[le]
;W[lf]
;B[nb]
;W[mc]
;B[mb]
;W[na]
;B[kd]
;W[lc]
;B[jb]
;W[ma]
;B[ka]
;W[lb]
;B[ad]
;W[ac]
;B[ae]
;W[bb]
;B[hj]
;W[gj]
;B[mj]
;W[mk]
;B[nj]
;W[ll]
;B[lm]
;W[nl]
;B[mm]
;W[nk]
;B[oi]
;W[oh]
;B[pi]
;W[li]
;B[ok]
;W[ke]
;B[mi]
;W[ne]
;B[lj]
;W[kk]
;B[ki]
;W[ji]
;B[lg]
;W[li]
;B[mh]
;W[pf]
;B[pe]
;W[sh]
;B[sg]
;W[si]
;B[qg]
;W[pk]
;B[ol]
;W[id]
;B[je]
;W[ic]
;B[ib]
;W[ga]
;B[qj]
;W[rk]
;B[kl]
;W[ha]
;B[hb]
;W[ng]
;B[fd]
;W[ge]
;B[gf]
;W[gc]
;B[aj]
;W[ak]
;B[ai]
;W[pg]
;B[fe]
;W[oe]
;B[ki]
;W[sr]
;B[li]C[time used:

W 5h 59m
B 5h 59m
])