

(;GM[1]SZ[19]PB[Rin Kaiho]PW[Kato Masao]KM[4.5]RE[B+R]DT[1969-05-22,23]FF[3]BS[0]WS[0];B[qd];W[cd];B[ec];W[qp];B[eq];W[hd];B[ef];W[cg];B[dh]
;W[dg];B[eg];W[eh];B[di];W[fh];B[gf];W[ek];B[ce];W[be];B[de]
;W[bg];B[bf];W[bd];B[cf];W[af];B[dk];W[gg];B[dl];W[hf];B[db]
;W[cb];B[dd];W[cc];B[ge];W[he];B[gc];W[hc];B[gb];W[od];B[hg]
;W[hh];B[ig];W[ih];B[jg];W[ki];B[bi];W[ab];B[je];W[jc];B[me]
;W[ld];B[le];W[md];B[ne];W[nd];B[pf];W[lg];B[kg];W[qc];B[rc]
;W[of];B[ji];W[jj];B[ii];W[hj];B[hi];W[gi];B[jh];W[ij];B[oe]
;W[pd];B[qe];W[pe];B[pg];W[nj];B[cp];W[nq];B[pj];W[eo];B[dn]
;W[gp];B[pl];W[em];B[fg];W[nm];B[lk];W[pm];B[qq];W[ol];B[pp]
;W[pq];B[oq];W[pr];B[qo];W[rp];B[po];W[qr];B[ro];W[ql];B[rq]
;W[rr];B[sp];W[np];B[op];W[or];B[no];W[mo];B[nr];W[lp];B[mn]
;W[ln];B[nn];W[mm];B[rm];W[mr];B[gk];W[gj];B[el];W[rb];B[li]
;W[kj];B[lj];W[lh];B[ni];W[oi];B[oj];W[nh];B[mi];W[oh];B[kd]
;W[kc];B[pi];W[lf];B[mh];W[nf];B[kh];W[kf];B[gh];W[jf];B[if]
;W[ie];B[ph];W[kl];B[qb];W[pc];B[sb];W[mf];B[nk];W[cq];B[dq]
;W[co];B[bq];W[bp];B[cr];W[do];B[gq];W[hq];B[hl];W[gm];B[fk]
;W[hm];B[fp];W[gr];B[jl];W[jm];B[im];W[in];B[il];W[kk];B[fo]
;W[fn];B[jn];W[km];B[go];W[fq];B[hn];W[io];B[ep];W[dm];B[bn]
)