(;GM[1]SZ[19]PW[Kato Masao]PB[Rin Kaiho]DT[1987-09-30,10-01]RE[W+R]ID[87/2]FF[3]BS[0]WS[0]BR[9 Dan]WR[9 Dan];B[pd];W[dc];B[pq];W[dq];B[pk];W[do];B[jp];W[nc];B[de]
;W[ce];B[cf];W[cd];B[pf];W[pb];B[qc];W[kc];B[df];W[fd];B[dj]
;W[cl];B[po];W[hq];B[cq];W[dr];B[jd];W[kd];B[je];W[ke];B[jf]
;W[lg];B[cp];W[co];B[ec];W[fc];B[ed];W[eb];B[db];W[fb];B[cb]
;W[bc];B[bb];W[bf];B[bg];W[be];B[ad];W[cg];B[bh];W[ci];B[eg]
;W[ch];B[bi];W[cj];B[bj];W[bk];B[dk];W[ck];B[cc];W[ib];B[dd]
;W[lp];B[ln];W[ko];B[cr];W[bo];B[gq];W[gr];B[fq];W[fr];B[dp]
;W[ep];B[eq];W[er];B[eo];W[fp];B[gp];W[fo];B[hp];W[iq];B[gn]
;W[en];B[jq];W[kn];B[jr];W[lr];B[ip];W[hr];B[bp];W[bs];B[jm]
;W[km];B[mq];W[mp];B[nq];W[lq];B[jl];W[kl];B[jk];W[lj];B[ml]
;W[kk];B[ji];W[qh];B[qj];W[oh];B[ni];W[ki];B[jh];W[oj];B[pi]
;W[oi];B[ph];W[pg];B[og];W[qg];B[of];W[re];B[ri];W[qd];B[pc]
;W[rc];B[rb];W[qb];B[rd];W[sd];B[qe];W[qp];B[qq];W[in];B[rd]
;W[hl];B[gl];W[gk];B[fl];W[hk];B[ei];W[hi];B[gf];W[gg];B[fg]
;W[ig];B[hg];W[jg];B[br];W[aq];B[if];W[kg];B[hn];W[hm];B[fn]
;W[qd];B[cs];W[ap];B[rd];W[qo];B[sc];W[rk];B[go];W[eo];B[rm]
;W[qi];B[pj];W[rj];B[ir];W[ar];B[ok];W[qm];B[ql];W[rl];B[qn]
;W[pm];B[rn];W[pn];B[pp];W[sm];B[rp];W[sn];B[ro];W[rf];B[hh]
;W[ih];B[gi];W[fk];B[dl];W[em];B[el];W[nj];B[on];W[nk];B[nl]
;W[he];B[hf];W[ob])