

(;GM[1]SZ[19]PB[Rin Kaiho]PW[Kato Masao]KM[4.5]RE[B+R]DT[1969-06-16,17]FF[3]BS[0]WS[0];B[qd];W[dc];B[pq];W[co];B[oc];W[po];B[qo];W[qn];B[qp]
;W[pm];B[nq];W[qi];B[cq];W[ep];B[eq];W[fp];B[fq];W[gp];B[cf]
;W[ch];B[bo];W[cn];B[bn];W[cm];B[dh];W[cg];B[dg];W[df];B[bf]
;W[ci];B[dd];W[ef];B[cc];W[ec];B[ed];W[fd];B[cd];W[fe];B[qg]
;W[cb];B[bb];W[pe];B[qe];W[nc];B[nd];W[mc];B[od];W[md];B[hi]
;W[fh];B[kh];W[mf];B[mh];W[eb];B[ca];W[jf];B[ig];W[if];B[ql]
;W[rm];B[pj];W[qj];B[qk];W[pi];B[rj];W[oj];B[ok];W[nj];B[nk]
;W[mj];B[pk];W[ng];B[mk];W[lj];B[kl];W[ln];B[oh];W[nh];B[oi]
;W[ni];B[nn];W[no];B[on];W[dq];B[dr];W[dp];B[jk];W[oo];B[lp]
;W[mp];B[mo];W[mn];B[lo];W[oq];B[or];W[pp];B[op];W[pn];B[ro]
;W[mq];B[np];W[qq];B[qr];W[rq];B[rr];W[jn];B[nm];W[rn];B[sq]
;W[lq];B[jp];W[jq];B[ip];W[iq];B[kp];W[hp];B[kn];W[km];B[lm]
;W[ko];B[mm];W[nr];B[oq];W[cr];B[br];W[bq];B[cs];W[bp];B[kq]
;W[kr];B[jr];W[lr];B[jm];W[pg];B[ri];W[cp];B[cr];W[es];B[hr]
;W[ir];B[fs])